{"success":true,"source":"xp2csv.pl","last_updated":"2013/11/08 14:53:21 UTC"
,"icao":"00IL","name":"Hammer","lat":41.97836333,"lon":-89.56038834,"rwys":1,"ils":0,"index":1483001,"path":"w090n40/w090n41"
,"runways":[
{"len_m":761,"wid_m":30.48,"hdg":181,"surf":"Turf/grass","rwy1":"18","lat1":41.98179153,"lon1":-89.56030785,"rwy2":"36","lat2":41.97493513,"lon2":-89.56046883}
]
,"navaids":[
{"type":"VOR","hdg_t":115.2,"dist_nm":1.7,"freq":111.2,"lat":41.96563889,"lon":-89.52422222,"rng_nm":40,"alt_fmsl":840,"id":"PLL","desc":"POLO VOR-DME"},
{"type":"NDB","hdg_t":212.2,"dist_nm":18.9,"freq":254,"lat":41.71111111,"lon":-89.78561111,"rng_nm":50,"alt_fmsl":0,"id":"BOZ","desc":"WHITESIDE NDB"},
{"type":"VOR","hdg_t":47.2,"dist_nm":21.9,"freq":110.8,"lat":42.22558333,"lon":-89.19927778,"rng_nm":40,"alt_fmsl":868,"id":"RFD","desc":"ROCKFORD VOR-DME"},
{"type":"NDB","hdg_t":68.2,"dist_nm":22.1,"freq":275,"lat":42.11433333,"lon":-89.09872222,"rng_nm":50,"alt_fmsl":0,"id":"RF","desc":"GILMY NDB"},
{"type":"NDB","hdg_t":93.6,"dist_nm":38.2,"freq":209,"lat":41.93402778,"lon":-88.70733333,"rng_nm":50,"alt_fmsl":0,"id":"DKB","desc":"DEKALB NDB"},
{"type":"NDB","hdg_t":250.2,"dist_nm":39.6,"freq":517,"lat":41.75166667,"lon":-90.39050000,"rng_nm":50,"alt_fmsl":0,"id":"FN","desc":"HILLZ NDB"},
{"type":"VOR","hdg_t":30,"dist_nm":40.2,"freq":114.3,"lat":42.55800000,"lon":-89.10525000,"rng_nm":40,"alt_fmsl":931,"id":"JVL","desc":"JANESVILLE VOR-DME"},
{"type":"NDB","hdg_t":153.4,"dist_nm":41.7,"freq":230,"lat":41.35475600,"lon":-89.14813900,"rng_nm":25,"alt_fmsl":652,"id":"VYS","desc":"VALLEY NDB"},
{"type":"VOR","hdg_t":248.9,"dist_nm":44.4,"freq":113.8,"lat":41.70855556,"lon":-90.48330556,"rng_nm":40,"alt_fmsl":767,"id":"CVA","desc":"DAVENPORT VORTAC"},
{"type":"NDB","hdg_t":31,"dist_nm":44.6,"freq":375,"lat":42.61511111,"lon":-89.04127778,"rng_nm":50,"alt_fmsl":0,"id":"JVL","desc":"JANESVILLE NDB"},
{"type":"NDB","hdg_t":139,"dist_nm":48.7,"freq":266,"lat":41.36252778,"lon":-88.85425000,"rng_nm":50,"alt_fmsl":0,"id":"OIX","desc":"OTTAWA NDB"},
{"type":"VOR","hdg_t":181.4,"dist_nm":49.1,"freq":114.7,"lat":41.15972222,"lon":-89.58786111,"rng_nm":130,"alt_fmsl":810,"id":"BDF","desc":"BRADFORD VORTAC"},
{"type":"NDB","hdg_t":294.3,"dist_nm":50.7,"freq":341,"lat":42.32300000,"lon":-90.59886111,"rng_nm":50,"alt_fmsl":0,"id":"DB","desc":"ZILOM NDB"},
{"type":"NDB","hdg_t":251.2,"dist_nm":51.9,"freq":353,"lat":41.69486111,"lon":-90.65588889,"rng_nm":50,"alt_fmsl":0,"id":"DV","desc":"AUNEY NDB"},
{"type":"NDB","hdg_t":275.1,"dist_nm":52.9,"freq":386,"lat":42.05138600,"lon":-90.74095300,"rng_nm":25,"alt_fmsl":765,"id":"OQW","desc":"MAQUOKETA NDB"},
{"type":"VOR","hdg_t":95.1,"dist_nm":54.4,"freq":108.4,"lat":41.89036111,"lon":-88.35016667,"rng_nm":40,"alt_fmsl":838,"id":"DPA","desc":"DUPAGE VOR-DME"},
{"type":"NDB","hdg_t":236.6,"dist_nm":57.1,"freq":215,"lat":41.44905556,"lon":-90.61847222,"rng_nm":50,"alt_fmsl":0,"id":"ML","desc":"MOLLI NDB"},
{"type":"VOR","hdg_t":296.7,"dist_nm":57.1,"freq":115.8,"lat":42.40147222,"lon":-90.70908333,"rng_nm":130,"alt_fmsl":1051,"id":"DBQ","desc":"DUBUQUE VORTAC"},
{"type":"NDB","hdg_t":44.5,"dist_nm":60.9,"freq":404,"lat":42.69883333,"lon":-88.59316667,"rng_nm":50,"alt_fmsl":0,"id":"LVV","desc":"LAKE LAWN NDB"},
{"type":"VOR","hdg_t":114.5,"dist_nm":61.4,"freq":112.3,"lat":41.54641667,"lon":-88.31841667,"rng_nm":130,"alt_fmsl":592,"id":"JOT","desc":"JOLIET VORTAC"},
{"type":"NDB","hdg_t":331.7,"dist_nm":62,"freq":365,"lat":42.88805556,"lon":-90.22650000,"rng_nm":50,"alt_fmsl":0,"id":"MRJ","desc":"MINERAL POINT NDB"},
{"type":"VOR","hdg_t":231.2,"dist_nm":62.4,"freq":114.4,"lat":41.32091667,"lon":-90.63822222,"rng_nm":40,"alt_fmsl":817,"id":"MZV","desc":"MOLINE VORTAC"},
{"type":"NDB","hdg_t":8.2,"dist_nm":65.7,"freq":400,"lat":43.06275000,"lon":-89.34588889,"rng_nm":50,"alt_fmsl":0,"id":"MS","desc":"MONAH NDB"},
{"type":"NDB","hdg_t":90,"dist_nm":68.6,"freq":350,"lat":41.96777200,"lon":-88.02670000,"rng_nm":50,"alt_fmsl":699,"id":"ME","desc":"DEANA NDB"},
{"type":"NDB","hdg_t":85.6,"dist_nm":69.5,"freq":394,"lat":42.05593600,"lon":-88.00779200,"rng_nm":25,"alt_fmsl":0,"id":"OR","desc":"CHSTR NDB"},
{"type":"NDB","hdg_t":85,"dist_nm":70.3,"freq":368,"lat":42.06918300,"lon":-87.99088300,"rng_nm":25,"alt_fmsl":0,"id":"OH","desc":"LEAMA NDB"},
{"type":"VOR","hdg_t":52.2,"dist_nm":70.3,"freq":114.5,"lat":42.68933333,"lon":-88.30177778,"rng_nm":25,"alt_fmsl":772,"id":"BUU","desc":"BURBUN VOR-DME"},
{"type":"VOR","hdg_t":7.8,"dist_nm":70.6,"freq":108.6,"lat":43.14483333,"lon":-89.33969444,"rng_nm":40,"alt_fmsl":857,"id":"MSN","desc":"MADISON VORTAC"},
{"type":"DME","hdg_t":88.2,"dist_nm":72.9,"freq":111.75,"lat":42.00391666,"lon":-87.93006695,"rng_nm":18,"alt_fmsl":668,"id":"KORD","desc":"09L DME-ILS"},
{"type":"DME","hdg_t":88.2,"dist_nm":72.9,"freq":111.75,"lat":42.00391667,"lon":-87.93006690,"rng_nm":18,"alt_fmsl":668,"id":"KORD","desc":"27R DME-ILS"},
{"type":"VOR","hdg_t":77.9,"dist_nm":73.3,"freq":113,"lat":42.22147222,"lon":-87.95180556,"rng_nm":130,"alt_fmsl":758,"id":"OBK","desc":"NORTHBROOK VOR-DME"},
{"type":"VOR","hdg_t":212.5,"dist_nm":73.8,"freq":109.8,"lat":40.93733333,"lon":-90.43447222,"rng_nm":25,"alt_fmsl":760,"id":"GBG","desc":"GALESBURG VOR-DME"},
{"type":"VOR","hdg_t":89,"dist_nm":74,"freq":113.9,"lat":41.98766667,"lon":-87.90488889,"rng_nm":40,"alt_fmsl":650,"id":"ORD","desc":"CHICAGO O'HARE IN VOR-DME"},
{"type":"NDB","hdg_t":62.3,"dist_nm":76.6,"freq":389,"lat":42.56044444,"lon":-88.02877778,"rng_nm":50,"alt_fmsl":0,"id":"EN","desc":"CODEE NDB"},
{"type":"VOR","hdg_t":187.7,"dist_nm":78.5,"freq":115.2,"lat":40.68008333,"lon":-89.79302778,"rng_nm":40,"alt_fmsl":731,"id":"PIA","desc":"PEORIA VORTAC"},
{"type":"NDB","hdg_t":92.6,"dist_nm":78.6,"freq":385,"lat":41.90486100,"lon":-87.80691700,"rng_nm":25,"alt_fmsl":0,"id":"ID","desc":"INDDY NDB"},
{"type":"VOR","hdg_t":151.4,"dist_nm":78.7,"freq":109.6,"lat":40.82119444,"lon":-88.73350000,"rng_nm":40,"alt_fmsl":679,"id":"PNT","desc":"PONTIAC VOR-DME"},
{"type":"NDB","hdg_t":100.8,"dist_nm":78.8,"freq":332,"lat":41.71897222,"lon":-87.83638889,"rng_nm":50,"alt_fmsl":0,"id":"HK","desc":"ERMIN NDB"},
{"type":"NDB","hdg_t":89.1,"dist_nm":79.2,"freq":414,"lat":41.98431700,"lon":-87.78902200,"rng_nm":25,"alt_fmsl":0,"id":"IA","desc":"TAFFS NDB"},
{"type":"VOR","hdg_t":243.3,"dist_nm":80.3,"freq":116.5,"lat":41.36638889,"lon":-91.14905556,"rng_nm":40,"alt_fmsl":540,"id":"DDD","desc":"PORT CITY VOR-DME"},
{"type":"NDB","hdg_t":27,"dist_nm":80.6,"freq":371,"lat":43.17366667,"lon":-88.72527778,"rng_nm":50,"alt_fmsl":0,"id":"RYV","desc":"ROCK RIVER NDB"},
{"type":"VOR","hdg_t":62.2,"dist_nm":81.5,"freq":109.2,"lat":42.59905556,"lon":-87.93172222,"rng_nm":25,"alt_fmsl":734,"id":"ENW","desc":"KENOSHA VOR-DME"},
{"type":"NDB","hdg_t":181,"dist_nm":82.3,"freq":356,"lat":40.60566667,"lon":-89.59313889,"rng_nm":50,"alt_fmsl":0,"id":"PI","desc":"TUNGG NDB"},
{"type":"VOR","hdg_t":342.3,"dist_nm":82.9,"freq":112.8,"lat":43.29436111,"lon":-90.13313889,"rng_nm":40,"alt_fmsl":1184,"id":"LNR","desc":"LONE ROCK VOR-DME"},
{"type":"NDB","hdg_t":69,"dist_nm":83.6,"freq":379,"lat":42.46405556,"lon":-87.80141667,"rng_nm":50,"alt_fmsl":0,"id":"UG","desc":"WAUKE NDB"},
{"type":"NDB","hdg_t":98.9,"dist_nm":85,"freq":248,"lat":41.74150000,"lon":-87.68966667,"rng_nm":50,"alt_fmsl":0,"id":"MX","desc":"KEDZI NDB"},
{"type":"NDB","hdg_t":59.6,"dist_nm":85.1,"freq":206,"lat":42.68255556,"lon":-87.89947222,"rng_nm":50,"alt_fmsl":0,"id":"RA","desc":"PASER NDB"},
{"type":"NDB","hdg_t":49.8,"dist_nm":87.5,"freq":242,"lat":42.90905556,"lon":-88.04097222,"rng_nm":50,"alt_fmsl":0,"id":"GM","desc":"TEELS NDB"},
{"type":"NDB","hdg_t":195.5,"dist_nm":87.8,"freq":236,"lat":40.56586111,"lon":-90.07705556,"rng_nm":50,"alt_fmsl":0,"id":"CTK","desc":"CANTON NDB"},
{"type":"VOR","hdg_t":39.2,"dist_nm":88.6,"freq":116.4,"lat":43.11686111,"lon":-88.28433333,"rng_nm":130,"alt_fmsl":1080,"id":"BAE","desc":"BADGER VORTAC"},
{"type":"NDB","hdg_t":54.2,"dist_nm":89.6,"freq":410,"lat":42.83961111,"lon":-87.91300000,"rng_nm":50,"alt_fmsl":0,"id":"MK","desc":"CAPPY NDB"},
{"type":"VOR","hdg_t":117.5,"dist_nm":90.2,"freq":113.2,"lat":41.26963889,"lon":-87.79105556,"rng_nm":40,"alt_fmsl":689,"id":"EON","desc":"PEOTONE VORTAC"},
{"type":"NDB","hdg_t":159.7,"dist_nm":90.5,"freq":334,"lat":40.56036111,"lon":-88.87463889,"rng_nm":50,"alt_fmsl":0,"id":"LH","desc":"EGROW NDB"},
{"type":"VOR","hdg_t":58.2,"dist_nm":90.7,"freq":117.7,"lat":42.76216667,"lon":-87.81472222,"rng_nm":25,"alt_fmsl":669,"id":"HRK","desc":"HORLICK VOR-DME"},
{"type":"NDB","hdg_t":257.5,"dist_nm":91.3,"freq":524,"lat":41.63201700,"lon":-91.54286100,"rng_nm":25,"alt_fmsl":648,"id":"UOC","desc":"HAWKEYE NDB"},
{"type":"VOR","hdg_t":106.7,"dist_nm":93.6,"freq":114.2,"lat":41.51000000,"lon":-87.57155556,"rng_nm":40,"alt_fmsl":634,"id":"CGT","desc":"CHICAGO HEIGHTS VORTAC"},
{"type":"VOR","hdg_t":162.1,"dist_nm":94.2,"freq":108.2,"lat":40.48080556,"lon":-88.93127778,"rng_nm":40,"alt_fmsl":882,"id":"BMI","desc":"BLOOMINGTON VOR-DME"},
{"type":"VOR","hdg_t":124.5,"dist_nm":94.2,"freq":111.6,"lat":41.07441667,"lon":-87.84977778,"rng_nm":40,"alt_fmsl":625,"id":"IKK","desc":"KANKAKEE VOR-DME"},
{"type":"NDB","hdg_t":127,"dist_nm":94.3,"freq":272,"lat":41.01788889,"lon":-87.90372222,"rng_nm":50,"alt_fmsl":0,"id":"IK","desc":"LUKOW NDB"},
{"type":"VOR","hdg_t":354.6,"dist_nm":94.7,"freq":117,"lat":43.55083333,"lon":-89.76361111,"rng_nm":130,"alt_fmsl":1022,"id":"DLL","desc":"DELLS VORTAC"},
{"type":"NDB","hdg_t":23.2,"dist_nm":94.9,"freq":344,"lat":43.42900000,"lon":-88.70216667,"rng_nm":50,"alt_fmsl":0,"id":"UNU","desc":"JUNEAU NDB"},
{"type":"VOR","hdg_t":44.3,"dist_nm":95.7,"freq":112.5,"lat":43.10977778,"lon":-88.03727778,"rng_nm":40,"alt_fmsl":737,"id":"LJT","desc":"TIMMERMAN VOR-DME"},
{"type":"VOR","hdg_t":254,"dist_nm":96.2,"freq":116.2,"lat":41.51897222,"lon":-91.61325000,"rng_nm":130,"alt_fmsl":770,"id":"IOW","desc":"IOWA CITY VORTAC"},
{"type":"NDB","hdg_t":31.7,"dist_nm":96.9,"freq":200,"lat":43.34763889,"lon":-88.39522222,"rng_nm":50,"alt_fmsl":0,"id":"HXF","desc":"HARTFORD NDB"},
{"type":"VOR","hdg_t":219.8,"dist_nm":97.3,"freq":111.4,"lat":40.72338889,"lon":-90.92588889,"rng_nm":40,"alt_fmsl":730,"id":"BRL","desc":"BURLINGTON VORTAC"},
{"type":"NDB","hdg_t":207.6,"dist_nm":98.5,"freq":251,"lat":40.51836111,"lon":-90.56041667,"rng_nm":50,"alt_fmsl":0,"id":"JZY","desc":"MACOMB NDB"},
{"type":"NDB","hdg_t":48.4,"dist_nm":98.9,"freq":260,"lat":43.06002778,"lon":-87.87675000,"rng_nm":50,"alt_fmsl":0,"id":"BL","desc":"YANKS NDB"},
{"type":"VOR","hdg_t":267.6,"dist_nm":99.8,"freq":114.1,"lat":41.88755556,"lon":-91.78575000,"rng_nm":130,"alt_fmsl":876,"id":"CID","desc":"CEDAR RAPIDS VOR-DME"}
]
}
