{"success":true,"source":"xp2csv.pl","last_updated":"2013/11/08 14:53:21 UTC"
,"icao":"02G","name":"Columbiana Co","lat":40.6733165,"lon":-80.6414265,"rwys":1,"ils":0,"index":1630377,"path":"w090n40/w081n40"
,"runways":[
{"len_m":1067,"wid_m":22.86,"hdg":60,"surf":"Asphalt","rwy1":"07","lat1":40.67095800,"lon1":-80.64692800,"rwy2":"25","lat2":40.67567500,"lon2":-80.63592500}
]
,"radios":[
{"type":"CTAF","freq":123,"desc":"CTAF/UNICOM"},
{"type":"APP","freq":124.75,"desc":"PITTSBURGH APP/DEP"}
]
,"navaids":[
{"type":"NDB","hdg_t":251.7,"dist_nm":21,"freq":395,"lat":40.56263300,"lon":-81.07759700,"rng_nm":25,"alt_fmsl":1184,"id":"TSO","desc":"TOLSON NDB"},
{"type":"VOR","hdg_t":64.9,"dist_nm":21.6,"freq":115.8,"lat":40.82494444,"lon":-80.21155556,"rng_nm":130,"alt_fmsl":1227,"id":"EWC","desc":"ELLWOOD CITY VORTAC"},
{"type":"VOR","hdg_t":118.3,"dist_nm":23.2,"freq":112,"lat":40.48813889,"lon":-80.19386111,"rng_nm":40,"alt_fmsl":1200,"id":"MMJ","desc":"MONTOUR VORTAC"},
{"type":"NDB","hdg_t":26,"dist_nm":23.3,"freq":272,"lat":41.02300000,"lon":-80.41583333,"rng_nm":50,"alt_fmsl":0,"id":"UCP","desc":"CASTLE NDB"},
{"type":"VOR","hdg_t":172.3,"dist_nm":25,"freq":112.2,"lat":40.25988889,"lon":-80.56861111,"rng_nm":40,"alt_fmsl":1269,"id":"HLG","desc":"WHEELING VOR-DME"},
{"type":"NDB","hdg_t":9.8,"dist_nm":29.1,"freq":408,"lat":41.15288889,"lon":-80.53144444,"rng_nm":50,"alt_fmsl":0,"id":"HBD","desc":"HUBBARD NDB"},
{"type":"NDB","hdg_t":213.1,"dist_nm":31.2,"freq":239,"lat":40.23672222,"lon":-81.01313889,"rng_nm":50,"alt_fmsl":0,"id":"CFX","desc":"CADIZ NDB"},
{"type":"NDB","hdg_t":3.7,"dist_nm":31.6,"freq":338,"lat":41.20052778,"lon":-80.59613889,"rng_nm":50,"alt_fmsl":0,"id":"YN","desc":"FETCH NDB"},
{"type":"NDB","hdg_t":183.6,"dist_nm":33.8,"freq":212,"lat":40.10963889,"lon":-80.68869444,"rng_nm":50,"alt_fmsl":0,"id":"HL","desc":"DORCH (OM) NDB"},
{"type":"VOR","hdg_t":130.5,"dist_nm":36.2,"freq":110,"lat":40.27866667,"lon":-80.04086111,"rng_nm":40,"alt_fmsl":1289,"id":"AGC","desc":"ALLEGHENY VOR-DME"},
{"type":"VOR","hdg_t":276.6,"dist_nm":36.3,"freq":112.4,"lat":40.74069444,"lon":-81.43211111,"rng_nm":40,"alt_fmsl":1221,"id":"BSV","desc":"BRIGGS VOR-DME"},
{"type":"VOR","hdg_t":315.8,"dist_nm":36.4,"freq":114.4,"lat":41.10788889,"lon":-81.20152778,"rng_nm":40,"alt_fmsl":1193,"id":"ACO","desc":"AKRON VOR-DME"},
{"type":"VOR","hdg_t":357.8,"dist_nm":39.4,"freq":109,"lat":41.33102778,"lon":-80.67466667,"rng_nm":40,"alt_fmsl":1160,"id":"YNG","desc":"YOUNGSTOWN VORTAC"},
{"type":"VOR","hdg_t":191.6,"dist_nm":40.1,"freq":117.1,"lat":40.01702778,"lon":-80.81725000,"rng_nm":130,"alt_fmsl":1290,"id":"AIR","desc":"BELLAIRE VOR-DME"},
{"type":"NDB","hdg_t":305.2,"dist_nm":41.4,"freq":362,"lat":41.06975000,"lon":-81.38747222,"rng_nm":50,"alt_fmsl":0,"id":"AK","desc":"AKRON NDB"},
{"type":"NDB","hdg_t":115.5,"dist_nm":43.7,"freq":287,"lat":40.35530556,"lon":-79.78100000,"rng_nm":50,"alt_fmsl":0,"id":"MKP","desc":"MC KEESPORT NDB"},
{"type":"VOR","hdg_t":235.4,"dist_nm":46.6,"freq":111.8,"lat":40.22922222,"lon":-81.47647222,"rng_nm":40,"alt_fmsl":1180,"id":"CTW","desc":"NEWCOMERSTOWN VOR-DME"},
{"type":"NDB","hdg_t":282.9,"dist_nm":55.6,"freq":400,"lat":40.87505600,"lon":-81.83319200,"rng_nm":25,"alt_fmsl":1170,"id":"SLW","desc":"SMITHVILLE NDB"},
{"type":"VOR","hdg_t":335,"dist_nm":55.8,"freq":112.7,"lat":41.51694444,"lon":-81.16319444,"rng_nm":130,"alt_fmsl":1310,"id":"CXR","desc":"CHARDON VOR-DME"},
{"type":"VOR","hdg_t":37.5,"dist_nm":58,"freq":109.6,"lat":41.43861111,"lon":-79.85677778,"rng_nm":40,"alt_fmsl":0,"id":"FKL","desc":"FRANKLIN VOR"},
{"type":"VOR","hdg_t":61.8,"dist_nm":60.8,"freq":112.9,"lat":41.14630556,"lon":-79.45797222,"rng_nm":40,"alt_fmsl":1520,"id":"CIP","desc":"CLARION VOR-DME"},
{"type":"NDB","hdg_t":138.7,"dist_nm":62.7,"freq":299,"lat":39.88277778,"lon":-79.74472222,"rng_nm":50,"alt_fmsl":0,"id":"VV","desc":"CAMOR NDB"},
{"type":"NDB","hdg_t":105.4,"dist_nm":65.1,"freq":382,"lat":40.37544444,"lon":-79.27172222,"rng_nm":50,"alt_fmsl":0,"id":"BHU","desc":"BENJE NDB"},
{"type":"VOR","hdg_t":355.7,"dist_nm":65.3,"freq":115.2,"lat":41.76011111,"lon":-80.74811111,"rng_nm":40,"alt_fmsl":900,"id":"JFN","desc":"JEFFERSON VOR-DME"},
{"type":"NDB","hdg_t":325.4,"dist_nm":65.8,"freq":521,"lat":41.57411111,"lon":-81.47122222,"rng_nm":50,"alt_fmsl":0,"id":"GF","desc":"HOGAF NDB"},
{"type":"NDB","hdg_t":322.1,"dist_nm":68.3,"freq":248,"lat":41.56913889,"lon":-81.57375000,"rng_nm":50,"alt_fmsl":0,"id":"BF","desc":"TABEY NDB"},
{"type":"NDB","hdg_t":318.2,"dist_nm":69.1,"freq":416,"lat":41.52874700,"lon":-81.66336700,"rng_nm":25,"alt_fmsl":581,"id":"BKL","desc":"BURKE LAKEFRONT NDB"},
{"type":"NDB","hdg_t":331.3,"dist_nm":69.1,"freq":263,"lat":41.68241667,"lon":-81.37900000,"rng_nm":50,"alt_fmsl":0,"id":"LQL","desc":"LAKELAND NDB"},
{"type":"VOR","hdg_t":259.7,"dist_nm":69.1,"freq":116.5,"lat":40.45802778,"lon":-82.12683333,"rng_nm":40,"alt_fmsl":1340,"id":"TVT","desc":"TIVERTON VOR-DME"},
{"type":"NDB","hdg_t":315.2,"dist_nm":69.2,"freq":226,"lat":41.48891900,"lon":-81.72283100,"rng_nm":25,"alt_fmsl":617,"id":"EZE","desc":"ENGEL NDB"},
{"type":"NDB","hdg_t":91.4,"dist_nm":71.9,"freq":242,"lat":40.63191667,"lon":-79.06591667,"rng_nm":50,"alt_fmsl":0,"id":"INP","desc":"INDIANA NDB"},
{"type":"NDB","hdg_t":304,"dist_nm":72.1,"freq":344,"lat":41.33862800,"lon":-81.96443300,"rng_nm":50,"alt_fmsl":800,"id":"CL","desc":"HARRI NDB"},
{"type":"VOR","hdg_t":125,"dist_nm":72.2,"freq":108.2,"lat":39.97425000,"lon":-79.35836111,"rng_nm":40,"alt_fmsl":2820,"id":"IHD","desc":"INDIAN HEAD VORTAC"},
{"type":"VOR","hdg_t":233,"dist_nm":72.2,"freq":111.4,"lat":39.94086111,"lon":-81.89261111,"rng_nm":40,"alt_fmsl":898,"id":"ZZV","desc":"ZANESVILLE VOR-DME"},
{"type":"NDB","hdg_t":232.3,"dist_nm":74.5,"freq":204,"lat":39.90630556,"lon":-81.91927778,"rng_nm":50,"alt_fmsl":0,"id":"HRA","desc":"ZANESVILLE NDB"},
{"type":"NDB","hdg_t":283.8,"dist_nm":75.4,"freq":329,"lat":40.96333333,"lon":-82.25336111,"rng_nm":50,"alt_fmsl":0,"id":"AAU","desc":"ASHLAND NDB"},
{"type":"VOR","hdg_t":151.5,"dist_nm":75.9,"freq":111.6,"lat":39.55669444,"lon":-79.86038889,"rng_nm":40,"alt_fmsl":2339,"id":"MGW","desc":"MORGANTOWN VORTAC"},
{"type":"VOR","hdg_t":301.2,"dist_nm":80.3,"freq":113.6,"lat":41.35805556,"lon":-82.16197222,"rng_nm":130,"alt_fmsl":780,"id":"DJB","desc":"DRYER VOR-DME"},
{"type":"VOR","hdg_t":204.8,"dist_nm":81.2,"freq":108.6,"lat":39.44116667,"lon":-81.37475000,"rng_nm":40,"alt_fmsl":1030,"id":"JPU","desc":"PARKERSBURG VORTAC"},
{"type":"VOR","hdg_t":10.9,"dist_nm":82.1,"freq":109.4,"lat":42.01741667,"lon":-80.29269444,"rng_nm":40,"alt_fmsl":800,"id":"ERI","desc":"ERIE VORTAC"},
{"type":"NDB","hdg_t":274.4,"dist_nm":82.4,"freq":372,"lat":40.76633333,"lon":-82.44513889,"rng_nm":50,"alt_fmsl":0,"id":"MF","desc":"MANNS NDB"},
{"type":"VOR","hdg_t":41.2,"dist_nm":83.4,"freq":117.6,"lat":41.71302778,"lon":-79.41727778,"rng_nm":40,"alt_fmsl":1710,"id":"TDT","desc":"TIDIOUTE VORTAC"},
{"type":"NDB","hdg_t":11.9,"dist_nm":83.7,"freq":349,"lat":42.03863889,"lon":-80.25536111,"rng_nm":50,"alt_fmsl":0,"id":"ER","desc":"ESMER NDB"},
{"type":"VOR","hdg_t":103.9,"dist_nm":85.4,"freq":113,"lat":40.31672222,"lon":-78.83416667,"rng_nm":40,"alt_fmsl":2280,"id":"JST","desc":"JOHNSTOWN VORTAC"},
{"type":"NDB","hdg_t":113.4,"dist_nm":86.5,"freq":209,"lat":40.08569444,"lon":-78.91655556,"rng_nm":50,"alt_fmsl":0,"id":"SYS","desc":"STOYSTOWN NDB"},
{"type":"NDB","hdg_t":30.8,"dist_nm":86.8,"freq":258,"lat":41.91266667,"lon":-79.64844444,"rng_nm":50,"alt_fmsl":0,"id":"ORJ","desc":"CORRY NDB"},
{"type":"VOR","hdg_t":168.4,"dist_nm":86.8,"freq":112.6,"lat":39.25322222,"lon":-80.26786111,"rng_nm":40,"alt_fmsl":1430,"id":"CKB","desc":"CLARKSBURG VOR-DME"},
{"type":"VOR","hdg_t":94.4,"dist_nm":86.8,"freq":110.6,"lat":40.54647222,"lon":-78.74702778,"rng_nm":40,"alt_fmsl":2340,"id":"REC","desc":"REVLOC VOR-DME"},
{"type":"VOR","hdg_t":278.1,"dist_nm":89.6,"freq":108.8,"lat":40.86861111,"lon":-82.59097222,"rng_nm":40,"alt_fmsl":1210,"id":"MFD","desc":"MANSFIELD VORTAC"},
{"type":"NDB","hdg_t":15.4,"dist_nm":90,"freq":372,"lat":42.11919444,"lon":-80.10458333,"rng_nm":50,"alt_fmsl":0,"id":"CQD","desc":"CASCADE NDB"},
{"type":"NDB","hdg_t":245.6,"dist_nm":92.1,"freq":524,"lat":40.02591667,"lon":-82.46352778,"rng_nm":50,"alt_fmsl":0,"id":"HEH","desc":"NEWARK NDB"},
{"type":"NDB","hdg_t":204.8,"dist_nm":93.5,"freq":388,"lat":39.25408333,"lon":-81.48494444,"rng_nm":50,"alt_fmsl":0,"id":"PK","desc":"VERSI NDB"},
{"type":"VOR","hdg_t":251.2,"dist_nm":94.5,"freq":116.7,"lat":40.15105556,"lon":-82.58830556,"rng_nm":130,"alt_fmsl":1350,"id":"APE","desc":"APPLETON VORTAC"},
{"type":"VOR","hdg_t":129.8,"dist_nm":96,"freq":112.3,"lat":39.63502778,"lon":-79.05052778,"rng_nm":40,"alt_fmsl":2640,"id":"GRV","desc":"GRANTSVILLE VOR-DME"}
]
}
