{"success":true,"source":"xp2csv.pl","last_updated":"2013/11/08 14:53:21 UTC"
,"icao":"03AZ","name":"Thompson Intl Aviation","lat":31.43333325,"lon":-110.08555775,"rwys":2,"ils":0,"index":1138267,"path":"w120n30/w111n31"
,"runways":[
{"len_m":1083,"wid_m":18.29,"hdg":88,"surf":"Asphalt","rwy1":"09","lat1":31.43305600,"lon1":-110.09528100,"rwy2":"27","lat2":31.43333300,"lon2":-110.08388900},
{"len_m":529,"wid_m":44.20,"hdg":171,"surf":"Dirt","rwy1":"16","lat1":31.43583300,"lon1":-110.08195000,"rwy2":"34","lat2":31.43111100,"lon2":-110.08111100}
]
,"navaids":[
{"type":"SDME","hdg_t":305.1,"dist_nm":15.8,"freq":111.6,"lat":31.58558100,"lon":-110.33898300,"rng_nm":25,"alt_fmsl":4659,"id":"ARH","desc":"LIBBY TACAN"},
{"type":"NDB","hdg_t":304.5,"dist_nm":16.1,"freq":410,"lat":31.58566667,"lon":-110.34425000,"rng_nm":50,"alt_fmsl":0,"id":"DAO","desc":"DRAGOO NDB"},
{"type":"VOR","hdg_t":304.1,"dist_nm":16.6,"freq":113.6,"lat":31.58966667,"lon":-110.35494444,"rng_nm":25,"alt_fmsl":0,"id":"FHU","desc":"LIBBY VOR"},
{"type":"VOR","hdg_t":84.4,"dist_nm":24.9,"freq":108.8,"lat":31.47266667,"lon":-109.60205556,"rng_nm":40,"alt_fmsl":4131,"id":"DUG","desc":"DOUGLAS VORTAC"},
{"type":"NDB","hdg_t":269.1,"dist_nm":39,"freq":394,"lat":31.42136111,"lon":-110.84644444,"rng_nm":50,"alt_fmsl":0,"id":"ENZ","desc":"NOGALES NDB"},
{"type":"VOR","hdg_t":268.5,"dist_nm":39.2,"freq":108.2,"lat":31.41494444,"lon":-110.84888889,"rng_nm":40,"alt_fmsl":3870,"id":"OLS","desc":"NOGALES VOR-DME"},
{"type":"VOR","hdg_t":24.9,"dist_nm":39.6,"freq":115.8,"lat":32.03338889,"lon":-109.75819444,"rng_nm":130,"alt_fmsl":4230,"id":"CIE","desc":"COCHISE VORTAC"},
{"type":"VOR","hdg_t":313.2,"dist_nm":58,"freq":116,"lat":32.09519444,"lon":-110.91486111,"rng_nm":130,"alt_fmsl":2672,"id":"TUS","desc":"TUCSON VORTAC"},
{"type":"SDME","hdg_t":317.1,"dist_nm":59.5,"freq":117.6,"lat":32.15991700,"lon":-110.88090800,"rng_nm":40,"alt_fmsl":2663,"id":"DMA","desc":"DAVIS MONTHAN TACAN"},
{"type":"VOR","hdg_t":39.8,"dist_nm":65.3,"freq":115.4,"lat":32.26925000,"lon":-109.26308333,"rng_nm":130,"alt_fmsl":3600,"id":"SSO","desc":"SAN SIMON VORTAC"},
{"type":"NDB","hdg_t":307.7,"dist_nm":69.3,"freq":338,"lat":32.13838889,"lon":-111.16152778,"rng_nm":50,"alt_fmsl":0,"id":"RYN","desc":"RYAN NDB"},
{"type":"NDB","hdg_t":300.7,"dist_nm":75.6,"freq":220,"lat":32.07405556,"lon":-111.36030556,"rng_nm":50,"alt_fmsl":0,"id":"RBJ","desc":"ROBLES NDB"},
{"type":"NDB","hdg_t":315.7,"dist_nm":82.2,"freq":245,"lat":32.41183333,"lon":-111.21558333,"rng_nm":50,"alt_fmsl":0,"id":"AVQ","desc":"MARANA NDB"}
]
}
