{"success":true,"source":"xp2csv.pl","last_updated":"2013/11/08 14:53:21 UTC"
,"icao":"03OH","name":"Gibbs Field","lat":41.41838527,"lon":-83.01741612,"rwys":2,"ils":0,"index":1581275,"path":"w090n40/w084n41"
,"runways":[
{"len_m":671,"wid_m":18.29,"hdg":40,"surf":"Turf/grass","rwy1":"05","lat1":41.41607390,"lon1":-83.02000243,"rwy2":"23","lat2":41.42069664,"lon2":-83.01482981},
{"len_m":639,"wid_m":18.29,"hdg":354,"surf":"Turf/grass","rwy1":"36","lat1":41.41551610,"lon1":-83.01708138,"rwy2":"18","lat2":41.42125444,"lon2":-83.01775086}
]
,"navaids":[
{"type":"NDB","hdg_t":48,"dist_nm":9,"freq":423,"lat":41.51858333,"lon":-82.86872222,"rng_nm":50,"alt_fmsl":0,"id":"PCW","desc":"PORT CLINTON NDB"},
{"type":"VOR","hdg_t":86.5,"dist_nm":16.3,"freq":109.2,"lat":41.43447222,"lon":-82.65480556,"rng_nm":40,"alt_fmsl":580,"id":"SKY","desc":"SANDUSKY VOR-DME"},
{"type":"NDB","hdg_t":204.7,"dist_nm":21.3,"freq":269,"lat":41.09466667,"lon":-83.21497222,"rng_nm":50,"alt_fmsl":0,"id":"TII","desc":"TIFFIN NDB"},
{"type":"NDB","hdg_t":231.4,"dist_nm":21.9,"freq":379,"lat":41.18933333,"lon":-83.39713889,"rng_nm":50,"alt_fmsl":0,"id":"FZI","desc":"FOSTORIA NDB"},
{"type":"NDB","hdg_t":35.7,"dist_nm":26.7,"freq":283,"lat":41.77944444,"lon":-82.67000000,"rng_nm":50,"alt_fmsl":0,"id":"PT","desc":"PELEE ISLAND NDB"},
{"type":"VOR","hdg_t":274.2,"dist_nm":28.1,"freq":113.1,"lat":41.45147222,"lon":-83.63869444,"rng_nm":40,"alt_fmsl":664,"id":"VWV","desc":"WATERVILLE VOR-DME"},
{"type":"SDME","hdg_t":286.8,"dist_nm":36.7,"freq":112.5,"lat":41.59370300,"lon":-83.79936400,"rng_nm":25,"alt_fmsl":671,"id":"TOL","desc":"TOLEDO TACAN"},
{"type":"NDB","hdg_t":231.2,"dist_nm":37.9,"freq":334,"lat":41.02111111,"lon":-83.66911111,"rng_nm":50,"alt_fmsl":0,"id":"BNR","desc":"BENTON RIDGE NDB"},
{"type":"VOR","hdg_t":230.6,"dist_nm":37.9,"freq":114.9,"lat":41.01488889,"lon":-83.66433333,"rng_nm":25,"alt_fmsl":0,"id":"MAH","desc":"MARATHON VOR"},
{"type":"VOR","hdg_t":149.4,"dist_nm":38.2,"freq":108.8,"lat":40.86861111,"lon":-82.59097222,"rng_nm":40,"alt_fmsl":1210,"id":"MFD","desc":"MANSFIELD VORTAC"},
{"type":"VOR","hdg_t":95,"dist_nm":38.8,"freq":113.6,"lat":41.35805556,"lon":-82.16197222,"rng_nm":130,"alt_fmsl":780,"id":"DJB","desc":"DRYER VOR-DME"},
{"type":"NDB","hdg_t":351.5,"dist_nm":41.3,"freq":419,"lat":42.10111111,"lon":-83.15297222,"rng_nm":50,"alt_fmsl":0,"id":"RYS","desc":"GROSSE ILE NDB"},
{"type":"NDB","hdg_t":281.5,"dist_nm":41.5,"freq":219,"lat":41.55347222,"lon":-83.92108333,"rng_nm":50,"alt_fmsl":0,"id":"TO","desc":"TOPHR NDB"},
{"type":"VOR","hdg_t":332.5,"dist_nm":42.6,"freq":115.7,"lat":42.04802778,"lon":-83.45758333,"rng_nm":130,"alt_fmsl":629,"id":"CRL","desc":"CARLETON VORTAC"},
{"type":"VOR","hdg_t":230.5,"dist_nm":43.4,"freq":108.2,"lat":40.95533333,"lon":-83.75602778,"rng_nm":40,"alt_fmsl":820,"id":"FBC","desc":"FLAG CITY VORTAC"},
{"type":"NDB","hdg_t":128,"dist_nm":44,"freq":329,"lat":40.96333333,"lon":-82.25336111,"rng_nm":50,"alt_fmsl":0,"id":"AAU","desc":"ASHLAND NDB"},
{"type":"NDB","hdg_t":336.2,"dist_nm":46,"freq":388,"lat":42.12011111,"lon":-83.43172222,"rng_nm":50,"alt_fmsl":0,"id":"DT","desc":"REVUP NDB"},
{"type":"NDB","hdg_t":146.2,"dist_nm":46.9,"freq":372,"lat":40.76633333,"lon":-82.44513889,"rng_nm":50,"alt_fmsl":0,"id":"MF","desc":"MANNS NDB"},
{"type":"NDB","hdg_t":95.3,"dist_nm":47.8,"freq":344,"lat":41.33862800,"lon":-81.96443300,"rng_nm":50,"alt_fmsl":800,"id":"CL","desc":"HARRI NDB"},
{"type":"VOR","hdg_t":182.5,"dist_nm":48.1,"freq":109.8,"lat":40.61658333,"lon":-83.06383333,"rng_nm":25,"alt_fmsl":0,"id":"BUD","desc":"BUCKEYE VOR"},
{"type":"NDB","hdg_t":350.2,"dist_nm":48.7,"freq":223,"lat":42.22000000,"lon":-83.20330556,"rng_nm":50,"alt_fmsl":0,"id":"DM","desc":"SPENC NDB"},
{"type":"NDB","hdg_t":242.1,"dist_nm":49.1,"freq":233,"lat":41.03116400,"lon":-83.97522200,"rng_nm":25,"alt_fmsl":760,"id":"PDR","desc":"OTTAWA NDB"},
{"type":"NDB","hdg_t":358.4,"dist_nm":49.5,"freq":398,"lat":42.24388900,"lon":-83.04750000,"rng_nm":25,"alt_fmsl":0,"id":"ZQG","desc":"LAUREL NDB"},
{"type":"VOR","hdg_t":341.9,"dist_nm":50.1,"freq":113.4,"lat":42.21313889,"lon":-83.36666667,"rng_nm":130,"alt_fmsl":638,"id":"DXO","desc":"DETROIT VOR-DME"},
{"type":"VOR","hdg_t":9.5,"dist_nm":50.5,"freq":113.8,"lat":42.24972222,"lon":-82.82894444,"rng_nm":40,"alt_fmsl":625,"id":"YQG","desc":"WINDSOR VOR-DME"},
{"type":"NDB","hdg_t":283.1,"dist_nm":51.5,"freq":375,"lat":41.60922222,"lon":-84.13272222,"rng_nm":50,"alt_fmsl":0,"id":"USE","desc":"FULTON NDB"},
{"type":"NDB","hdg_t":329.3,"dist_nm":52.8,"freq":359,"lat":42.17422222,"lon":-83.62155556,"rng_nm":50,"alt_fmsl":0,"id":"YI","desc":"YIPPS NDB"},
{"type":"NDB","hdg_t":313.6,"dist_nm":53.7,"freq":239,"lat":42.03394444,"lon":-83.88633333,"rng_nm":50,"alt_fmsl":0,"id":"TCU","desc":"TECUMSEH NDB"},
{"type":"NDB","hdg_t":7,"dist_nm":54,"freq":353,"lat":42.31269444,"lon":-82.86852778,"rng_nm":50,"alt_fmsl":0,"id":"QG","desc":"WINDSOR NDB"},
{"type":"NDB","hdg_t":299.9,"dist_nm":54.8,"freq":278,"lat":41.86997222,"lon":-84.07747222,"rng_nm":50,"alt_fmsl":0,"id":"ADG","desc":"ADRIAN NDB"},
{"type":"NDB","hdg_t":2.8,"dist_nm":56.3,"freq":230,"lat":42.35625000,"lon":-82.95427778,"rng_nm":50,"alt_fmsl":0,"id":"VQ","desc":"CARGL NDB"},
{"type":"NDB","hdg_t":85.4,"dist_nm":58.5,"freq":226,"lat":41.48891900,"lon":-81.72283100,"rng_nm":25,"alt_fmsl":617,"id":"EZE","desc":"ENGEL NDB"},
{"type":"VOR","hdg_t":225.6,"dist_nm":60.6,"freq":108.4,"lat":40.70711111,"lon":-83.96816667,"rng_nm":25,"alt_fmsl":0,"id":"AOH","desc":"ALLEN CO VOR"},
{"type":"NDB","hdg_t":83.3,"dist_nm":61.4,"freq":416,"lat":41.52874700,"lon":-81.66336700,"rng_nm":25,"alt_fmsl":581,"id":"BKL","desc":"BURKE LAKEFRONT NDB"},
{"type":"NDB","hdg_t":120.8,"dist_nm":62.7,"freq":400,"lat":40.87505600,"lon":-81.83319200,"rng_nm":25,"alt_fmsl":1170,"id":"SLW","desc":"SMITHVILLE NDB"},
{"type":"NDB","hdg_t":265.9,"dist_nm":63.9,"freq":246,"lat":41.33369444,"lon":-84.42800000,"rng_nm":50,"alt_fmsl":0,"id":"DFI","desc":"DEFIANCE NDB"},
{"type":"NDB","hdg_t":357,"dist_nm":64.6,"freq":338,"lat":42.49477778,"lon":-83.09330556,"rng_nm":50,"alt_fmsl":0,"id":"DE","desc":"MADDS (LOM) NDB"},
{"type":"NDB","hdg_t":207.4,"dist_nm":64.6,"freq":326,"lat":40.45894444,"lon":-83.66800000,"rng_nm":50,"alt_fmsl":0,"id":"RUV","desc":"RUSHSYLVANIA NDB"},
{"type":"VOR","hdg_t":336.6,"dist_nm":64.7,"freq":114.3,"lat":42.40886111,"lon":-83.59419444,"rng_nm":40,"alt_fmsl":950,"id":"SVM","desc":"SALEM VORTAC"},
{"type":"NDB","hdg_t":273.6,"dist_nm":65.4,"freq":260,"lat":41.47886111,"lon":-84.46591667,"rng_nm":50,"alt_fmsl":0,"id":"BYN","desc":"BRYAN NDB"},
{"type":"NDB","hdg_t":81.6,"dist_nm":65.7,"freq":248,"lat":41.56913889,"lon":-81.57375000,"rng_nm":50,"alt_fmsl":0,"id":"BF","desc":"TABEY NDB"},
{"type":"NDB","hdg_t":37.8,"dist_nm":68.1,"freq":236,"lat":42.31222222,"lon":-82.07777778,"rng_nm":50,"alt_fmsl":0,"id":"4L","desc":"CHATHAM-KENT NDB"},
{"type":"NDB","hdg_t":183.3,"dist_nm":68.5,"freq":215,"lat":40.27688889,"lon":-83.10372222,"rng_nm":50,"alt_fmsl":0,"id":"DLZ","desc":"DELAWARE NDB"},
{"type":"NDB","hdg_t":81.8,"dist_nm":70.3,"freq":521,"lat":41.57411111,"lon":-81.47122222,"rng_nm":50,"alt_fmsl":0,"id":"GF","desc":"HOGAF NDB"},
{"type":"VOR","hdg_t":144.5,"dist_nm":70.3,"freq":116.5,"lat":40.45802778,"lon":-82.12683333,"rng_nm":40,"alt_fmsl":1340,"id":"TVT","desc":"TIVERTON VOR-DME"},
{"type":"NDB","hdg_t":192,"dist_nm":73,"freq":403,"lat":40.22672800,"lon":-83.34961400,"rng_nm":25,"alt_fmsl":997,"id":"MRT","desc":"MARYSVILLE NDB"},
{"type":"NDB","hdg_t":1.7,"dist_nm":74.5,"freq":215,"lat":42.66142200,"lon":-82.96548100,"rng_nm":25,"alt_fmsl":607,"id":"UIZ","desc":"BERZ NDB"},
{"type":"NDB","hdg_t":77.3,"dist_nm":75.4,"freq":263,"lat":41.68241667,"lon":-81.37900000,"rng_nm":50,"alt_fmsl":0,"id":"LQL","desc":"LAKELAND NDB"},
{"type":"NDB","hdg_t":105.2,"dist_nm":76.6,"freq":362,"lat":41.06975000,"lon":-81.38747222,"rng_nm":50,"alt_fmsl":0,"id":"AK","desc":"AKRON NDB"},
{"type":"VOR","hdg_t":165.4,"dist_nm":78.4,"freq":116.7,"lat":40.15105556,"lon":-82.58830556,"rng_nm":130,"alt_fmsl":1350,"id":"APE","desc":"APPLETON VORTAC"},
{"type":"NDB","hdg_t":245.7,"dist_nm":79.6,"freq":411,"lat":40.86255556,"lon":-84.61383333,"rng_nm":50,"alt_fmsl":0,"id":"VFU","desc":"STANLEY NDB"},
{"type":"VOR","hdg_t":343.5,"dist_nm":80.2,"freq":111,"lat":42.70086111,"lon":-83.53275000,"rng_nm":40,"alt_fmsl":1148,"id":"PSI","desc":"PONTIAC VORTAC"},
{"type":"NDB","hdg_t":185.8,"dist_nm":81,"freq":515,"lat":40.07363889,"lon":-83.19805556,"rng_nm":50,"alt_fmsl":0,"id":"OS","desc":"FULER NDB"},
{"type":"NDB","hdg_t":312.1,"dist_nm":81,"freq":212,"lat":42.31783333,"lon":-84.36555556,"rng_nm":50,"alt_fmsl":0,"id":"JX","desc":"JAKSO NDB"},
{"type":"VOR","hdg_t":308.4,"dist_nm":81.9,"freq":109.6,"lat":42.25925000,"lon":-84.45855556,"rng_nm":40,"alt_fmsl":995,"id":"JXN","desc":"JACKSON VOR-DME"},
{"type":"VOR","hdg_t":214.8,"dist_nm":82.3,"freq":117.5,"lat":40.28780556,"lon":-84.04313889,"rng_nm":130,"alt_fmsl":1083,"id":"ROD","desc":"ROSEWOOD VORTAC"},
{"type":"VOR","hdg_t":118.9,"dist_nm":82.6,"freq":112.4,"lat":40.74069444,"lon":-81.43211111,"rng_nm":40,"alt_fmsl":1221,"id":"BSV","desc":"BRIGGS VOR-DME"},
{"type":"VOR","hdg_t":85.3,"dist_nm":83.8,"freq":112.7,"lat":41.51694444,"lon":-81.16319444,"rng_nm":130,"alt_fmsl":1310,"id":"CXR","desc":"CHARDON VOR-DME"},
{"type":"VOR","hdg_t":102.1,"dist_nm":84.2,"freq":114.4,"lat":41.10788889,"lon":-81.20152778,"rng_nm":40,"alt_fmsl":1193,"id":"ACO","desc":"AKRON VOR-DME"},
{"type":"NDB","hdg_t":180.3,"dist_nm":84.4,"freq":272,"lat":40.01013889,"lon":-83.02897222,"rng_nm":50,"alt_fmsl":0,"id":"CHC","desc":"GRENS NDB"},
{"type":"NDB","hdg_t":180.3,"dist_nm":84.4,"freq":272,"lat":40.01013889,"lon":-83.02897222,"rng_nm":50,"alt_fmsl":0,"id":"CB","desc":"GRENS NDB"},
{"type":"NDB","hdg_t":329.6,"dist_nm":84.6,"freq":243,"lat":42.63341667,"lon":-83.98252778,"rng_nm":50,"alt_fmsl":0,"id":"OZW","desc":"HOWELL NDB"},
{"type":"NDB","hdg_t":171.9,"dist_nm":86.7,"freq":391,"lat":39.98622222,"lon":-82.75450000,"rng_nm":50,"alt_fmsl":0,"id":"CM","desc":"SUMIE NDB"},
{"type":"NDB","hdg_t":162.9,"dist_nm":87.2,"freq":524,"lat":40.02591667,"lon":-82.46352778,"rng_nm":50,"alt_fmsl":0,"id":"HEH","desc":"NEWARK NDB"},
{"type":"NDB","hdg_t":266.3,"dist_nm":87.2,"freq":227,"lat":41.30830556,"lon":-84.94419444,"rng_nm":50,"alt_fmsl":0,"id":"GW","desc":"SHENK NDB"},
{"type":"NDB","hdg_t":12.2,"dist_nm":87.4,"freq":332,"lat":42.84291667,"lon":-82.59669444,"rng_nm":50,"alt_fmsl":0,"id":"PH","desc":"PHURN NDB"},
{"type":"VOR","hdg_t":296.7,"dist_nm":87.4,"freq":111.2,"lat":42.06250000,"lon":-84.76513889,"rng_nm":40,"alt_fmsl":1040,"id":"LFD","desc":"LITCHFIELD VOR-DME"},
{"type":"NDB","hdg_t":231.9,"dist_nm":89.9,"freq":205,"lat":40.48200000,"lon":-84.56438889,"rng_nm":50,"alt_fmsl":0,"id":"CQA","desc":"LAKEFIELD NDB"},
{"type":"NDB","hdg_t":193,"dist_nm":91.4,"freq":263,"lat":39.93150000,"lon":-83.46397222,"rng_nm":50,"alt_fmsl":0,"id":"UYF","desc":"LONDON NDB"},
{"type":"NDB","hdg_t":174.8,"dist_nm":92.5,"freq":376,"lat":39.88105556,"lon":-82.83608333,"rng_nm":50,"alt_fmsl":0,"id":"LC","desc":"PICKL NDB"},
{"type":"NDB","hdg_t":278.7,"dist_nm":94.1,"freq":347,"lat":41.63977778,"lon":-85.08691667,"rng_nm":50,"alt_fmsl":0,"id":"ANQ","desc":"ANGOLA NDB"},
{"type":"NDB","hdg_t":185.1,"dist_nm":96.2,"freq":230,"lat":39.81925000,"lon":-83.20488889,"rng_nm":50,"alt_fmsl":0,"id":"BU","desc":"BOUTN NDB"},
{"type":"NDB","hdg_t":20.6,"dist_nm":97.7,"freq":404,"lat":42.94047222,"lon":-82.23383333,"rng_nm":50,"alt_fmsl":0,"id":"ZR","desc":"SARNIA NDB"},
{"type":"VOR","hdg_t":340.9,"dist_nm":98.4,"freq":116.9,"lat":42.96677778,"lon":-83.74697222,"rng_nm":130,"alt_fmsl":772,"id":"FNT","desc":"FLINT VORTAC"},
{"type":"NDB","hdg_t":200.8,"dist_nm":98.9,"freq":341,"lat":39.87363889,"lon":-83.77958333,"rng_nm":50,"alt_fmsl":0,"id":"CCJ","desc":"CLARK CO NDB"},
{"type":"NDB","hdg_t":253.6,"dist_nm":99.6,"freq":251,"lat":40.93050000,"lon":-85.11963889,"rng_nm":50,"alt_fmsl":0,"id":"FW","desc":"HOAGY NDB"},
{"type":"NDB","hdg_t":223.8,"dist_nm":99.9,"freq":356,"lat":40.20616667,"lon":-84.52272222,"rng_nm":50,"alt_fmsl":0,"id":"VES","desc":"VERSAILLES NDB"}
]
}
