{"success":true,"source":"xp2csv.pl","last_updated":"2013/11/08 14:53:21 UTC"
,"icao":"04NV","name":"Kingston Ranch","lat":35.7555305,"lon":-115.664728,"rwys":1,"ils":0,"index":1056625,"path":"w120n30/w116n35"
,"runways":[
{"len_m":987,"wid_m":13.72,"hdg":33,"surf":"Asphalt","rwy1":"02","lat1":35.75181800,"lon1":-115.66773900,"rwy2":"20","lat2":35.75924300,"lon2":-115.66171700}
]
,"radios":[
{"type":"CTAF","freq":123,"desc":"UNICOM"}
]
,"navaids":[
{"type":"VOR","hdg_t":51.5,"dist_nm":31.3,"freq":116.9,"lat":36.07969444,"lon":-115.15980556,"rng_nm":130,"alt_fmsl":2141,"id":"LAS","desc":"LAS VEGAS VORTAC"},
{"type":"VOR","hdg_t":69.5,"dist_nm":41.6,"freq":116.7,"lat":35.99577778,"lon":-114.86358333,"rng_nm":130,"alt_fmsl":3650,"id":"BLD","desc":"BOULDER CITY VORTAC"},
{"type":"VOR","hdg_t":147.2,"dist_nm":44.4,"freq":114.4,"lat":35.13113889,"lon":-115.17644444,"rng_nm":40,"alt_fmsl":4000,"id":"GFS","desc":"GOFFS VORTAC"},
{"type":"VOR","hdg_t":223.6,"dist_nm":65.3,"freq":113.2,"lat":34.96244444,"lon":-116.57816667,"rng_nm":40,"alt_fmsl":1760,"id":"DAG","desc":"DAGGETT VORTAC"},
{"type":"VOR","hdg_t":214.5,"dist_nm":69.5,"freq":112.7,"lat":34.79702778,"lon":-116.46291667,"rng_nm":130,"alt_fmsl":1853,"id":"HEC","desc":"HECTOR VORTAC"},
{"type":"VOR","hdg_t":320.3,"dist_nm":81.7,"freq":114.7,"lat":36.80058333,"lon":-116.74763889,"rng_nm":130,"alt_fmsl":2928,"id":"BTY","desc":"BEATTY VORTAC"},
{"type":"VOR","hdg_t":135,"dist_nm":83.2,"freq":115.2,"lat":34.76600000,"lon":-114.47411111,"rng_nm":130,"alt_fmsl":620,"id":"EED","desc":"NEEDLES VORTAC"},
{"type":"VOR","hdg_t":108.7,"dist_nm":89.8,"freq":108.8,"lat":35.26052778,"lon":-113.93408333,"rng_nm":40,"alt_fmsl":3410,"id":"IGM","desc":"KINGMAN VOR-DME"},
{"type":"VOR","hdg_t":47.5,"dist_nm":90.6,"freq":114.3,"lat":36.76927778,"lon":-114.27747222,"rng_nm":40,"alt_fmsl":2120,"id":"MMM","desc":"MORMON MESA VORTAC"},
{"type":"VOR","hdg_t":183,"dist_nm":98.5,"freq":114.2,"lat":34.11222222,"lon":-115.76991667,"rng_nm":40,"alt_fmsl":1374,"id":"TNP","desc":"TWENTYNINE PALMS VORTAC"},
{"type":"SDME","hdg_t":268.2,"dist_nm":99,"freq":111.6,"lat":35.68792800,"lon":-117.69047200,"rng_nm":25,"alt_fmsl":2272,"id":"NID","desc":"CHINA LAKE TACAN"}
]
}
