{"success":true,"source":"xp2csv.pl","last_updated":"2013/11/08 14:53:21 UTC"
,"icao":"05U","name":"Eureka","lat":39.599722,"lon":-116.005,"rwys":1,"ils":0,"index":1040483,"path":"w120n30/w117n39"
,"runways":[
{"len_m":2261,"wid_m":18.29,"hdg":190,"surf":"Asphalt","rwy1":"17","lat1":39.60972200,"lon1":-116.00250000,"rwy2":"35","lat2":39.58972200,"lon2":-116.00750000}
]
,"radios":[
{"type":"CTAF","freq":122.9,"desc":"CTAF"}
]
,"navaids":[
{"type":"VOR","hdg_t":108.2,"dist_nm":56.7,"freq":110.6,"lat":39.29813889,"lon":-114.84830556,"rng_nm":130,"alt_fmsl":6254,"id":"ELY","desc":"ELY VOR-DME"},
{"type":"VOR","hdg_t":9,"dist_nm":70.4,"freq":114.5,"lat":40.75966667,"lon":-115.76136111,"rng_nm":40,"alt_fmsl":6464,"id":"BQU","desc":"BULLION VOR-DME"},
{"type":"VOR","hdg_t":324.2,"dist_nm":71.8,"freq":112.2,"lat":40.56908333,"lon":-116.92225000,"rng_nm":130,"alt_fmsl":4543,"id":"BAM","desc":"BATTLE MOUNTAIN VORTAC"},
{"type":"VOR","hdg_t":26.6,"dist_nm":103.9,"freq":114.2,"lat":41.14480556,"lon":-114.97750000,"rng_nm":40,"alt_fmsl":0,"id":"LWL","desc":"WELLS VOR"},
{"type":"VOR","hdg_t":207.4,"dist_nm":105.6,"freq":117.2,"lat":38.03063889,"lon":-117.03350000,"rng_nm":40,"alt_fmsl":5344,"id":"TPH","desc":"TONOPAH VORTAC"},
{"type":"VOR","hdg_t":136.4,"dist_nm":110.5,"freq":116.3,"lat":38.25019444,"lon":-114.39422222,"rng_nm":130,"alt_fmsl":9318,"id":"ILC","desc":"WILSON CREEK VORTAC"},
{"type":"VOR","hdg_t":237.4,"dist_nm":113.2,"freq":115.1,"lat":38.56530556,"lon":-118.03286111,"rng_nm":130,"alt_fmsl":7860,"id":"MVA","desc":"MINA VORTAC"},
{"type":"VOR","hdg_t":313.7,"dist_nm":113.8,"freq":108.2,"lat":40.89927778,"lon":-117.81219444,"rng_nm":25,"alt_fmsl":4302,"id":"INA","desc":"WINNEMUCCA VOR-DME"},
{"type":"VOR","hdg_t":198.7,"dist_nm":114.3,"freq":113,"lat":37.79041667,"lon":-116.77927778,"rng_nm":25,"alt_fmsl":5541,"id":"TQQ","desc":"SILVERBOW VORTAC"},
{"type":"VOR","hdg_t":285.6,"dist_nm":122.9,"freq":116.5,"lat":40.12491667,"lon":-118.57763889,"rng_nm":40,"alt_fmsl":4784,"id":"LLC","desc":"LOVELOCK VORTAC"}
]
}
