{"success":true,"source":"xp2csv.pl","last_updated":"2013/11/08 14:53:21 UTC"
,"icao":"05W","name":"Riverside Campground","lat":35.58155444,"lon":-76.51548473,"rwys":1,"ils":0,"index":1695585,"path":"w080n30/w077n35"
,"runways":[
{"len_m":534,"wid_m":30.48,"hdg":36,"surf":"Turf/grass","rwy1":"05","lat1":35.57961049,"lon1":-76.51722134,"rwy2":"23","lat2":35.58349839,"lon2":-76.51374812}
]
,"navaids":[
{"type":"NDB","hdg_t":318.6,"dist_nm":18.2,"freq":221,"lat":35.80988300,"lon":-76.76272200,"rng_nm":25,"alt_fmsl":38,"id":"PMZ","desc":"PLYMOUTH NDB"},
{"type":"NDB","hdg_t":354.6,"dist_nm":26.7,"freq":265,"lat":36.02544444,"lon":-76.56650000,"rng_nm":50,"alt_fmsl":0,"id":"EDE","desc":"EDENTON NDB"},
{"type":"NDB","hdg_t":261.7,"dist_nm":29.2,"freq":388,"lat":35.50966667,"lon":-77.10661111,"rng_nm":50,"alt_fmsl":0,"id":"RNW","desc":"CHOCOWINITY NDB"},
{"type":"NDB","hdg_t":297.3,"dist_nm":36.3,"freq":336,"lat":35.85905556,"lon":-77.17794444,"rng_nm":50,"alt_fmsl":0,"id":"MCZ","desc":"WILLIAMSTON NDB"},
{"type":"VOR","hdg_t":220.6,"dist_nm":40,"freq":113.6,"lat":35.07313889,"lon":-77.04505556,"rng_nm":40,"alt_fmsl":10,"id":"EWN","desc":"NEW BERN VOR-DME"},
{"type":"NDB","hdg_t":14.4,"dist_nm":42.1,"freq":254,"lat":36.26300000,"lon":-76.29802778,"rng_nm":50,"alt_fmsl":0,"id":"LLW","desc":"WOODVILLE NDB"},
{"type":"NDB","hdg_t":280.4,"dist_nm":42.5,"freq":230,"lat":35.70688889,"lon":-77.37188889,"rng_nm":50,"alt_fmsl":0,"id":"AQE","desc":"ALWOOD NDB"},
{"type":"NDB","hdg_t":219.7,"dist_nm":43.5,"freq":362,"lat":35.02155556,"lon":-77.07950000,"rng_nm":50,"alt_fmsl":0,"id":"EW","desc":"KATFI NDB"},
{"type":"VOR","hdg_t":22.1,"dist_nm":43.7,"freq":112.5,"lat":36.25758333,"lon":-76.17563889,"rng_nm":40,"alt_fmsl":10,"id":"ECG","desc":"ELIZABETH CITY VOR-DME"},
{"type":"SDME","hdg_t":203.5,"dist_nm":44.3,"freq":112.8,"lat":34.90222800,"lon":-76.87482200,"rng_nm":40,"alt_fmsl":30,"id":"NKT","desc":"CHERRY POINT TACAN"},
{"type":"NDB","hdg_t":63.2,"dist_nm":44.7,"freq":370,"lat":35.91533333,"lon":-75.69505556,"rng_nm":50,"alt_fmsl":0,"id":"MQI","desc":"MANTEO NDB"},
{"type":"VOR","hdg_t":62.8,"dist_nm":44.8,"freq":111.6,"lat":35.92050000,"lon":-75.69694444,"rng_nm":25,"alt_fmsl":10,"id":"RBX","desc":"WRIGHT BROTHERS VOR-DME"},
{"type":"VOR","hdg_t":340,"dist_nm":50.4,"freq":114.6,"lat":36.37291667,"lon":-76.87152778,"rng_nm":40,"alt_fmsl":70,"id":"CVI","desc":"COFIELD VORTAC"},
{"type":"NDB","hdg_t":188.1,"dist_nm":51.4,"freq":269,"lat":34.73122222,"lon":-76.66211111,"rng_nm":50,"alt_fmsl":0,"id":"MRH","desc":"MOREHEAD NDB"},
{"type":"VOR","hdg_t":256.4,"dist_nm":52.6,"freq":109.6,"lat":35.37094444,"lon":-77.55833333,"rng_nm":40,"alt_fmsl":106,"id":"ISO","desc":"KINSTON VORTAC"},
{"type":"NDB","hdg_t":293.1,"dist_nm":54.6,"freq":257,"lat":35.93544444,"lon":-77.54636111,"rng_nm":50,"alt_fmsl":0,"id":"ETC","desc":"TARBORO NDB"},
{"type":"NDB","hdg_t":251.1,"dist_nm":61.4,"freq":276,"lat":35.24391667,"lon":-77.69825000,"rng_nm":50,"alt_fmsl":0,"id":"IS","desc":"STALS NDB"},
{"type":"VOR","hdg_t":292.5,"dist_nm":62.6,"freq":117.8,"lat":35.97677778,"lon":-77.70375000,"rng_nm":40,"alt_fmsl":70,"id":"TYI","desc":"TAR RIVER VORTAC"},
{"type":"SDME","hdg_t":221.2,"dist_nm":69.3,"freq":115.4,"lat":34.70713600,"lon":-77.44029700,"rng_nm":40,"alt_fmsl":74,"id":"NCA","desc":"NEW RIVER TACAN"},
{"type":"NDB","hdg_t":279.3,"dist_nm":71.7,"freq":235,"lat":35.76765800,"lon":-77.96459700,"rng_nm":25,"alt_fmsl":158,"id":"RW","desc":"JAMBE NDB"},
{"type":"VOR","hdg_t":340.5,"dist_nm":72,"freq":110.6,"lat":36.71425000,"lon":-77.01238889,"rng_nm":40,"alt_fmsl":84,"id":"FKN","desc":"FRANKLIN VORTAC"},
{"type":"SDME","hdg_t":258.7,"dist_nm":72.8,"freq":116.5,"lat":35.33502800,"lon":-77.97160600,"rng_nm":40,"alt_fmsl":82,"id":"GSB","desc":"SEYMOUR JOHNSON TACAN"},
{"type":"NDB","hdg_t":246.5,"dist_nm":75.3,"freq":332,"lat":35.07225000,"lon":-77.91886111,"rng_nm":50,"alt_fmsl":0,"id":"DKA","desc":"KENAN NDB"},
{"type":"NDB","hdg_t":217.5,"dist_nm":76.2,"freq":198,"lat":34.56852778,"lon":-77.45294444,"rng_nm":75,"alt_fmsl":0,"id":"DIW","desc":"DIXON NDB"},
{"type":"NDB","hdg_t":324.7,"dist_nm":76.2,"freq":261,"lat":36.61797222,"lon":-77.42550000,"rng_nm":50,"alt_fmsl":0,"id":"ELQ","desc":"EMPORIA NDB"},
{"type":"NDB","hdg_t":9.5,"dist_nm":76.5,"freq":329,"lat":36.84047222,"lon":-76.25122222,"rng_nm":50,"alt_fmsl":0,"id":"OR","desc":"INGLE NDB"},
{"type":"NDB","hdg_t":229.9,"dist_nm":76.8,"freq":261,"lat":34.75050000,"lon":-77.70444444,"rng_nm":50,"alt_fmsl":0,"id":"OA","desc":"ELLAS NDB"},
{"type":"NDB","hdg_t":311.9,"dist_nm":77.6,"freq":407,"lat":36.44097222,"lon":-77.70830556,"rng_nm":50,"alt_fmsl":0,"id":"RZZ","desc":"RAPIDS NDB"},
{"type":"SDME","hdg_t":17.1,"dist_nm":77.9,"freq":116.6,"lat":36.82421900,"lon":-76.03704700,"rng_nm":40,"alt_fmsl":64,"id":"NTU","desc":"OCEANA TACAN"},
{"type":"VOR","hdg_t":10.9,"dist_nm":79.9,"freq":116.9,"lat":36.89188889,"lon":-76.20033333,"rng_nm":130,"alt_fmsl":20,"id":"ORF","desc":"NORFOLK VORTAC"},
{"type":"SDME","hdg_t":8,"dist_nm":82.2,"freq":111.1,"lat":36.93998100,"lon":-76.27729400,"rng_nm":40,"alt_fmsl":45,"id":"NGU","desc":"CHAMBERS TACAN"},
{"type":"NDB","hdg_t":344.4,"dist_nm":87.2,"freq":274,"lat":36.98319444,"lon":-77.00108333,"rng_nm":50,"alt_fmsl":0,"id":"AKQ","desc":"WAKEFIELD NDB"},
{"type":"NDB","hdg_t":235.1,"dist_nm":89.7,"freq":379,"lat":34.71627778,"lon":-78.00358333,"rng_nm":50,"alt_fmsl":0,"id":"ACZ","desc":"PENDY NDB"},
{"type":"SDME","hdg_t":4.7,"dist_nm":90.4,"freq":112.3,"lat":37.08556100,"lon":-76.35941100,"rng_nm":40,"alt_fmsl":11,"id":"LFI","desc":"LANGLEY TACAN"},
{"type":"NDB","hdg_t":0.6,"dist_nm":92.9,"freq":375,"lat":37.13280556,"lon":-76.49319444,"rng_nm":50,"alt_fmsl":0,"id":"PJS","desc":"HENRY NDB"},
{"type":"NDB","hdg_t":356.9,"dist_nm":93.4,"freq":226,"lat":37.13877778,"lon":-76.61855556,"rng_nm":50,"alt_fmsl":0,"id":"FAF","desc":"FELKER NDB"},
{"type":"NDB","hdg_t":266.6,"dist_nm":93.7,"freq":263,"lat":35.47497222,"lon":-78.42522222,"rng_nm":50,"alt_fmsl":0,"id":"JN","desc":"JURLY NDB"},
{"type":"NDB","hdg_t":310,"dist_nm":97,"freq":373,"lat":36.61455556,"lon":-78.05316667,"rng_nm":50,"alt_fmsl":0,"id":"AEA","desc":"JONES NDB"},
{"type":"NDB","hdg_t":248.7,"dist_nm":97.7,"freq":412,"lat":34.97544444,"lon":-78.36305556,"rng_nm":50,"alt_fmsl":0,"id":"CTZ","desc":"CLINTON NDB"},
{"type":"NDB","hdg_t":220.9,"dist_nm":98.1,"freq":205,"lat":34.33725000,"lon":-77.81183333,"rng_nm":50,"alt_fmsl":0,"id":"GM","desc":"WILZE NDB"},
{"type":"VOR","hdg_t":222.6,"dist_nm":99.5,"freq":117,"lat":34.35166667,"lon":-77.87438889,"rng_nm":130,"alt_fmsl":20,"id":"ILM","desc":"WILMINGTON VORTAC"}
]
}
