{"success":true,"source":"xp2csv.pl","last_updated":"2013/11/08 14:53:21 UTC"
,"icao":"06IS","name":"Sinele Strip","lat":40.54643166,"lon":-91.27431584,"rwys":1,"ils":0,"index":1450146,"path":"w100n40/w092n40"
,"runways":[
{"len_m":791,"wid_m":21.34,"hdg":183,"surf":"Turf/grass","rwy1":"18","lat1":40.54999265,"lon1":-91.27407024,"rwy2":"36","lat2":40.54287067,"lon2":-91.27456144}
]
,"navaids":[
{"type":"NDB","hdg_t":236.1,"dist_nm":8.7,"freq":366,"lat":40.46469444,"lon":-91.43358333,"rng_nm":50,"alt_fmsl":0,"id":"EOK","desc":"KEOKUK NDB"},
{"type":"NDB","hdg_t":46.8,"dist_nm":9.4,"freq":390,"lat":40.65425000,"lon":-91.12300000,"rng_nm":50,"alt_fmsl":0,"id":"BR","desc":"BURNS NDB"},
{"type":"VOR","hdg_t":56.1,"dist_nm":19.1,"freq":111.4,"lat":40.72338889,"lon":-90.92588889,"rng_nm":40,"alt_fmsl":730,"id":"BRL","desc":"BURLINGTON VORTAC"},
{"type":"NDB","hdg_t":335.6,"dist_nm":26.5,"freq":212,"lat":40.94905556,"lon":-91.51516667,"rng_nm":50,"alt_fmsl":0,"id":"MPZ","desc":"MOUNT PLEASANT NDB"},
{"type":"NDB","hdg_t":92.7,"dist_nm":32.7,"freq":251,"lat":40.51836111,"lon":-90.56041667,"rng_nm":50,"alt_fmsl":0,"id":"JZY","desc":"MACOMB NDB"},
{"type":"NDB","hdg_t":178.6,"dist_nm":39.5,"freq":293,"lat":39.88686111,"lon":-91.25369444,"rng_nm":50,"alt_fmsl":0,"id":"UI","desc":"QUINCY NDB"},
{"type":"VOR","hdg_t":180.2,"dist_nm":41.8,"freq":113.6,"lat":39.84786111,"lon":-91.27891667,"rng_nm":130,"alt_fmsl":715,"id":"UIN","desc":"QUINCY VORTAC"},
{"type":"NDB","hdg_t":310.7,"dist_nm":42.8,"freq":332,"lat":41.01113889,"lon":-91.98850000,"rng_nm":50,"alt_fmsl":0,"id":"FFL","desc":"FAIRFIELD NDB"},
{"type":"VOR","hdg_t":58.2,"dist_nm":44.9,"freq":109.8,"lat":40.93733333,"lon":-90.43447222,"rng_nm":25,"alt_fmsl":760,"id":"GBG","desc":"GALESBURG VOR-DME"},
{"type":"NDB","hdg_t":337.7,"dist_nm":47.5,"freq":219,"lat":41.27977778,"lon":-91.67258333,"rng_nm":50,"alt_fmsl":0,"id":"AWG","desc":"WASHINGTON NDB"},
{"type":"VOR","hdg_t":6.5,"dist_nm":49.4,"freq":116.5,"lat":41.36638889,"lon":-91.14905556,"rng_nm":40,"alt_fmsl":540,"id":"DDD","desc":"PORT CITY VOR-DME"},
{"type":"NDB","hdg_t":283,"dist_nm":54.1,"freq":269,"lat":40.74502778,"lon":-92.43047222,"rng_nm":50,"alt_fmsl":0,"id":"BEX","desc":"BLOOMFIELD NDB"},
{"type":"NDB","hdg_t":88.3,"dist_nm":54.7,"freq":236,"lat":40.56586111,"lon":-90.07705556,"rng_nm":50,"alt_fmsl":0,"id":"CTK","desc":"CANTON NDB"},
{"type":"VOR","hdg_t":31.7,"dist_nm":54.7,"freq":114.4,"lat":41.32091667,"lon":-90.63822222,"rng_nm":40,"alt_fmsl":817,"id":"MZV","desc":"MOLINE VORTAC"},
{"type":"VOR","hdg_t":301.4,"dist_nm":55.9,"freq":111.6,"lat":41.02913889,"lon":-92.32591667,"rng_nm":40,"alt_fmsl":820,"id":"OTM","desc":"OTTUMWA INDUSTRIA VOR-DME"},
{"type":"NDB","hdg_t":157.2,"dist_nm":58.8,"freq":344,"lat":39.64031700,"lon":-90.78280000,"rng_nm":25,"alt_fmsl":702,"id":"PPQ","desc":"PITTSFIELD NDB"},
{"type":"VOR","hdg_t":345.3,"dist_nm":60.3,"freq":116.2,"lat":41.51897222,"lon":-91.61325000,"rng_nm":130,"alt_fmsl":770,"id":"IOW","desc":"IOWA CITY VORTAC"},
{"type":"NDB","hdg_t":28.6,"dist_nm":61.7,"freq":215,"lat":41.44905556,"lon":-90.61847222,"rng_nm":50,"alt_fmsl":0,"id":"ML","desc":"MOLLI NDB"},
{"type":"VOR","hdg_t":248.2,"dist_nm":65.2,"freq":114.6,"lat":40.13502778,"lon":-92.59172222,"rng_nm":130,"alt_fmsl":985,"id":"IRK","desc":"KIRKSVILLE VORTAC"},
{"type":"NDB","hdg_t":349.4,"dist_nm":66.2,"freq":524,"lat":41.63201700,"lon":-91.54286100,"rng_nm":25,"alt_fmsl":648,"id":"UOC","desc":"HAWKEYE NDB"},
{"type":"VOR","hdg_t":133.7,"dist_nm":66.3,"freq":108.6,"lat":39.77644444,"lon":-90.23872222,"rng_nm":25,"alt_fmsl":615,"id":"IJX","desc":"JACKSONVILLE VOR-DME"},
{"type":"VOR","hdg_t":82.7,"dist_nm":68.1,"freq":115.2,"lat":40.68008333,"lon":-89.79302778,"rng_nm":40,"alt_fmsl":731,"id":"PIA","desc":"PEORIA VORTAC"},
{"type":"NDB","hdg_t":306.8,"dist_nm":68.5,"freq":414,"lat":41.22550000,"lon":-92.48738889,"rng_nm":50,"alt_fmsl":0,"id":"OOA","desc":"OSKALOOSA NDB"},
{"type":"NDB","hdg_t":21.9,"dist_nm":74.3,"freq":353,"lat":41.69486111,"lon":-90.65588889,"rng_nm":50,"alt_fmsl":0,"id":"DV","desc":"AUNEY NDB"},
{"type":"NDB","hdg_t":86.8,"dist_nm":76.9,"freq":356,"lat":40.60566667,"lon":-89.59313889,"rng_nm":50,"alt_fmsl":0,"id":"PI","desc":"TUNGG NDB"},
{"type":"VOR","hdg_t":226.4,"dist_nm":77.1,"freq":112.9,"lat":39.65405556,"lon":-92.48216667,"rng_nm":40,"alt_fmsl":870,"id":"MCM","desc":"MACON VOR-DME"},
{"type":"VOR","hdg_t":26.9,"dist_nm":78.3,"freq":113.8,"lat":41.70855556,"lon":-90.48330556,"rng_nm":40,"alt_fmsl":767,"id":"CVA","desc":"DAVENPORT VORTAC"},
{"type":"NDB","hdg_t":28.7,"dist_nm":82.6,"freq":517,"lat":41.75166667,"lon":-90.39050000,"rng_nm":50,"alt_fmsl":0,"id":"FN","desc":"HILLZ NDB"},
{"type":"NDB","hdg_t":123.1,"dist_nm":83.6,"freq":382,"lat":39.77313889,"lon":-89.75988889,"rng_nm":50,"alt_fmsl":0,"id":"SP","desc":"HUSKK NDB"},
{"type":"VOR","hdg_t":344.1,"dist_nm":83.6,"freq":114.1,"lat":41.88755556,"lon":-91.78575000,"rng_nm":130,"alt_fmsl":876,"id":"CID","desc":"CEDAR RAPIDS VOR-DME"},
{"type":"NDB","hdg_t":343.5,"dist_nm":83.7,"freq":326,"lat":41.88566400,"lon":-91.80240600,"rng_nm":50,"alt_fmsl":0,"id":"CI","desc":"CINDY NDB"},
{"type":"VOR","hdg_t":119.4,"dist_nm":84.7,"freq":112.7,"lat":39.83972222,"lon":-89.67772222,"rng_nm":130,"alt_fmsl":586,"id":"SPI","desc":"SPINNER VORTAC"},
{"type":"VOR","hdg_t":63.8,"dist_nm":85.1,"freq":114.7,"lat":41.15972222,"lon":-89.58786111,"rng_nm":130,"alt_fmsl":810,"id":"BDF","desc":"BRADFORD VORTAC"},
{"type":"NDB","hdg_t":115.8,"dist_nm":85.7,"freq":375,"lat":39.91202778,"lon":-89.60305556,"rng_nm":50,"alt_fmsl":0,"id":"LQ","desc":"LICOL NDB"},
{"type":"NDB","hdg_t":119.6,"dist_nm":89.5,"freq":240,"lat":39.79461111,"lon":-89.59275000,"rng_nm":50,"alt_fmsl":0,"id":"CJ","desc":"CALDE NDB"},
{"type":"NDB","hdg_t":103.9,"dist_nm":91.7,"freq":329,"lat":40.16013889,"lon":-89.33775000,"rng_nm":50,"alt_fmsl":0,"id":"AAA","desc":"ABRAHAM NDB"},
{"type":"NDB","hdg_t":304.6,"dist_nm":91.7,"freq":257,"lat":41.40452778,"lon":-92.94463889,"rng_nm":50,"alt_fmsl":0,"id":"PEA","desc":"PELLA NDB"},
{"type":"NDB","hdg_t":14.7,"dist_nm":93.4,"freq":386,"lat":42.05138600,"lon":-90.74095300,"rng_nm":25,"alt_fmsl":765,"id":"OQW","desc":"MAQUOKETA NDB"},
{"type":"VOR","hdg_t":204.9,"dist_nm":94.5,"freq":114.2,"lat":39.11352778,"lon":-92.12822222,"rng_nm":40,"alt_fmsl":920,"id":"HLV","desc":"HALLSVILLE VORTAC"},
{"type":"NDB","hdg_t":317,"dist_nm":95.9,"freq":248,"lat":41.70927778,"lon":-92.72941667,"rng_nm":50,"alt_fmsl":0,"id":"GGI","desc":"GRINNELL NDB"},
{"type":"NDB","hdg_t":241.5,"dist_nm":96.5,"freq":383,"lat":39.76419444,"lon":-93.10908333,"rng_nm":50,"alt_fmsl":0,"id":"BZK","desc":"BROOKFIELD NDB"},
{"type":"NDB","hdg_t":43.5,"dist_nm":97.1,"freq":254,"lat":41.71111111,"lon":-89.78561111,"rng_nm":50,"alt_fmsl":0,"id":"BOZ","desc":"WHITESIDE NDB"},
{"type":"NDB","hdg_t":287.1,"dist_nm":99.2,"freq":335,"lat":41.01675000,"lon":-93.36194444,"rng_nm":50,"alt_fmsl":0,"id":"CNC","desc":"CHARITON NDB"}
]
}
