{"success":true,"source":"xp2csv.pl","last_updated":"2013/11/08 14:53:21 UTC"
,"icao":"08A","name":"Wetumpka Muni","lat":32.52748125,"lon":-86.3310555,"rwys":2,"ils":0,"index":1531554,"path":"w090n30/w087n32"
,"runways":[
{"len_m":917,"wid_m":24.38,"hdg":89,"surf":"Asphalt","rwy1":"09","lat1":32.52940000,"lon1":-86.33310000,"rwy2":"27","lat2":32.52950000,"lon2":-86.32333300},
{"len_m":792,"wid_m":45.72,"hdg":180,"surf":"Turf/grass","rwy1":"18","lat1":32.52908600,"lon1":-86.33383300,"rwy2":"36","lat2":32.52193900,"lon2":-86.33395600}
]
,"radios":[
{"type":"CTAF","freq":123.05,"desc":"CTAF/UNICOM"},
{"type":"APP","freq":121.2,"desc":"MONTGOMERY APP/DEP"}
]
,"navaids":[
{"type":"SDME","hdg_t":192,"dist_nm":9,"freq":115,"lat":32.37933300,"lon":-86.36833300,"rng_nm":40,"alt_fmsl":170,"id":"MXF","desc":"MAXWELL TACAN"},
{"type":"NDB","hdg_t":215.2,"dist_nm":15.8,"freq":245,"lat":32.31161111,"lon":-86.51058333,"rng_nm":50,"alt_fmsl":0,"id":"MG","desc":"MARRA NDB"},
{"type":"VOR","hdg_t":178.1,"dist_nm":18.2,"freq":112.1,"lat":32.22227778,"lon":-86.31972222,"rng_nm":130,"alt_fmsl":270,"id":"MGM","desc":"MONTGOMERY VORTAC"},
{"type":"NDB","hdg_t":324,"dist_nm":24.1,"freq":338,"lat":32.85319444,"lon":-86.61108333,"rng_nm":50,"alt_fmsl":0,"id":"GGY","desc":"GRAGG-WADE NDB"},
{"type":"NDB","hdg_t":41.5,"dist_nm":28.1,"freq":382,"lat":32.87941667,"lon":-85.96113889,"rng_nm":50,"alt_fmsl":0,"id":"DER","desc":"ALEXANDER CITY NDB"},
{"type":"VOR","hdg_t":94.1,"dist_nm":33.6,"freq":117.3,"lat":32.48486111,"lon":-85.66930556,"rng_nm":40,"alt_fmsl":490,"id":"TGE","desc":"TUSKEGEE VOR-DME"},
{"type":"NDB","hdg_t":243.1,"dist_nm":33.9,"freq":344,"lat":32.26977778,"lon":-86.92744444,"rng_nm":50,"alt_fmsl":0,"id":"SE","desc":"POLLK (LOM/NDB) NDB"},
{"type":"VOR","hdg_t":252,"dist_nm":35.2,"freq":113.6,"lat":32.34461111,"lon":-86.99127778,"rng_nm":130,"alt_fmsl":160,"id":"JYU","desc":"JUNIOR VOR-DME"},
{"type":"NDB","hdg_t":0.9,"dist_nm":38.7,"freq":284,"lat":33.17425000,"lon":-86.31816667,"rng_nm":50,"alt_fmsl":0,"id":"SCD","desc":"SYLACAUGA NDB"},
{"type":"NDB","hdg_t":164.5,"dist_nm":43.2,"freq":365,"lat":31.83080556,"lon":-86.10622222,"rng_nm":50,"alt_fmsl":0,"id":"TO","desc":"BLOOD NDB"},
{"type":"NDB","hdg_t":91.1,"dist_nm":45.3,"freq":423,"lat":32.50925000,"lon":-85.43722222,"rng_nm":50,"alt_fmsl":0,"id":"AU","desc":"OPOLE NDB"},
{"type":"NDB","hdg_t":160.1,"dist_nm":53.6,"freq":281,"lat":31.68433333,"lon":-85.97438889,"rng_nm":50,"alt_fmsl":0,"id":"XNE","desc":"SPRING HILL NDB"},
{"type":"NDB","hdg_t":327.6,"dist_nm":55.6,"freq":368,"lat":33.31194700,"lon":-86.92315800,"rng_nm":25,"alt_fmsl":660,"id":"BEQ","desc":"BESSEMER NDB"},
{"type":"NDB","hdg_t":3.7,"dist_nm":61.9,"freq":257,"lat":33.55900000,"lon":-86.24941667,"rng_nm":50,"alt_fmsl":0,"id":"PLR","desc":"PELL CITY NDB"},
{"type":"VOR","hdg_t":312.8,"dist_nm":63,"freq":111,"lat":33.23955556,"lon":-87.25000000,"rng_nm":40,"alt_fmsl":649,"id":"OKW","desc":"BROOKWOOD VORTAC"},
{"type":"NDB","hdg_t":18.4,"dist_nm":63.5,"freq":211,"lat":33.53436111,"lon":-85.93080556,"rng_nm":50,"alt_fmsl":0,"id":"AN","desc":"BOGGA NDB"},
{"type":"NDB","hdg_t":336.3,"dist_nm":64.3,"freq":224,"lat":33.51127778,"lon":-86.84561111,"rng_nm":50,"alt_fmsl":0,"id":"BH","desc":"MCDEN NDB"},
{"type":"VOR","hdg_t":12.9,"dist_nm":64.4,"freq":108.8,"lat":33.57513889,"lon":-86.04269444,"rng_nm":40,"alt_fmsl":530,"id":"TDG","desc":"TALLADEGA VOR-DME"},
{"type":"VOR","hdg_t":60.9,"dist_nm":64.9,"freq":115.6,"lat":33.04911111,"lon":-85.20622222,"rng_nm":130,"alt_fmsl":798,"id":"LGC","desc":"LAGRANGE VORTAC"},
{"type":"SDME","hdg_t":340.2,"dist_nm":65.2,"freq":109.5,"lat":33.55216700,"lon":-86.77133300,"rng_nm":18,"alt_fmsl":644,"id":"IROE","desc":"KBHM 24 DME-ILS DME"},
{"type":"NDB","hdg_t":93.6,"dist_nm":65.5,"freq":355,"lat":32.45197222,"lon":-85.04194444,"rng_nm":50,"alt_fmsl":0,"id":"CS","desc":"FENIX NDB"},
{"type":"VOR","hdg_t":85.1,"dist_nm":66.8,"freq":117.1,"lat":32.61525000,"lon":-85.01763889,"rng_nm":40,"alt_fmsl":630,"id":"CSG","desc":"COLUMBUS VORTAC"},
{"type":"NDB","hdg_t":344.9,"dist_nm":67,"freq":394,"lat":33.60761111,"lon":-86.67877778,"rng_nm":50,"alt_fmsl":0,"id":"RO","desc":"ROEBY NDB"},
{"type":"NDB","hdg_t":274.1,"dist_nm":67.6,"freq":417,"lat":32.60235500,"lon":-87.66306300,"rng_nm":25,"alt_fmsl":160,"id":"EOG","desc":"GREENSBORO NDB"},
{"type":"NDB","hdg_t":101.5,"dist_nm":67.8,"freq":335,"lat":32.29319444,"lon":-85.02327778,"rng_nm":50,"alt_fmsl":0,"id":"AWS","desc":"LAWSON NDB"},
{"type":"VOR","hdg_t":99.3,"dist_nm":68.9,"freq":111.4,"lat":32.33236111,"lon":-84.99325000,"rng_nm":25,"alt_fmsl":250,"id":"LSF","desc":"LAWSON VOR-DME"},
{"type":"VOR","hdg_t":119.1,"dist_nm":70.1,"freq":109.2,"lat":31.95025000,"lon":-85.13047222,"rng_nm":40,"alt_fmsl":280,"id":"EUF","desc":"EUFAULA VORTAC"},
{"type":"VOR","hdg_t":182.4,"dist_nm":72.9,"freq":110.2,"lat":31.30952778,"lon":-86.39213889,"rng_nm":25,"alt_fmsl":0,"id":"UIA","desc":"ANDALUSIA VOR"},
{"type":"NDB","hdg_t":182.4,"dist_nm":73.2,"freq":264,"lat":31.30508333,"lon":-86.39088889,"rng_nm":50,"alt_fmsl":0,"id":"JUY","desc":"JUDD NDB"},
{"type":"NDB","hdg_t":165.8,"dist_nm":73.3,"freq":352,"lat":31.33938889,"lon":-85.98194444,"rng_nm":50,"alt_fmsl":0,"id":"BVG","desc":"BOLL WEEVIL NDB"},
{"type":"VOR","hdg_t":337.4,"dist_nm":74.1,"freq":114.4,"lat":33.67019444,"lon":-86.89980556,"rng_nm":130,"alt_fmsl":750,"id":"VUZ","desc":"VULCAN VORTAC"},
{"type":"VOR","hdg_t":306,"dist_nm":75,"freq":117.8,"lat":33.25886111,"lon":-87.53688889,"rng_nm":40,"alt_fmsl":370,"id":"LDK","desc":"CRIMSON VORTAC"},
{"type":"NDB","hdg_t":156.6,"dist_nm":76,"freq":269,"lat":31.36033333,"lon":-85.74350000,"rng_nm":50,"alt_fmsl":0,"id":"LOR","desc":"LOWE NDB"},
{"type":"NDB","hdg_t":75.2,"dist_nm":76.2,"freq":272,"lat":32.84286111,"lon":-84.87266667,"rng_nm":50,"alt_fmsl":0,"id":"PIM","desc":"PINE MOUNTAIN NDB"},
{"type":"VOR","hdg_t":163.3,"dist_nm":76.8,"freq":116.6,"lat":31.29636111,"lon":-85.90275000,"rng_nm":25,"alt_fmsl":0,"id":"EDN","desc":"ENTERPRISE VOR"},
{"type":"NDB","hdg_t":153.1,"dist_nm":77.1,"freq":221,"lat":31.37608333,"lon":-85.65377778,"rng_nm":50,"alt_fmsl":0,"id":"HYE","desc":"HANCHEY NDB"},
{"type":"VOR","hdg_t":153.1,"dist_nm":77.2,"freq":110.6,"lat":31.37413889,"lon":-85.65280556,"rng_nm":25,"alt_fmsl":0,"id":"HEY","desc":"HANCHEY VOR"},
{"type":"NDB","hdg_t":299.5,"dist_nm":77.5,"freq":362,"lat":33.15847222,"lon":-87.67030556,"rng_nm":50,"alt_fmsl":0,"id":"TC","desc":"TUSKE NDB"},
{"type":"VOR","hdg_t":157.5,"dist_nm":81.4,"freq":111.2,"lat":31.26894444,"lon":-85.72630556,"rng_nm":40,"alt_fmsl":326,"id":"OZR","desc":"CAIRNS VOR-DME"},
{"type":"NDB","hdg_t":161.2,"dist_nm":82.2,"freq":212,"lat":31.22563889,"lon":-85.81597222,"rng_nm":50,"alt_fmsl":0,"id":"OZ","desc":"RUCKR NDB"},
{"type":"VOR","hdg_t":219.4,"dist_nm":82.4,"freq":116.8,"lat":31.46044444,"lon":-87.35275000,"rng_nm":40,"alt_fmsl":420,"id":"MVC","desc":"MONROEVILLE VORTAC"},
{"type":"NDB","hdg_t":43.9,"dist_nm":86.7,"freq":278,"lat":33.56577778,"lon":-85.13088889,"rng_nm":50,"alt_fmsl":0,"id":"GPQ","desc":"CARROLLTON NDB"},
{"type":"VOR","hdg_t":148,"dist_nm":87.4,"freq":111.6,"lat":31.28458333,"lon":-85.43119444,"rng_nm":40,"alt_fmsl":381,"id":"RRS","desc":"WIREGRASS VORTAC"},
{"type":"VOR","hdg_t":8,"dist_nm":87.6,"freq":112.3,"lat":33.97641667,"lon":-86.08355556,"rng_nm":40,"alt_fmsl":560,"id":"GAD","desc":"GADSDEN VOR-DME"},
{"type":"NDB","hdg_t":61.4,"dist_nm":92.6,"freq":234,"lat":33.25694444,"lon":-84.71327778,"rng_nm":50,"alt_fmsl":0,"id":"EQQ","desc":"COWETA CO NDB"},
{"type":"NDB","hdg_t":255.2,"dist_nm":94.3,"freq":228,"lat":32.11431300,"lon":-88.12140700,"rng_nm":25,"alt_fmsl":115,"id":"BCZ","desc":"CHOCTAW NDB"}
]
}
