{"success":true,"source":"xp2csv.pl","last_updated":"2013/11/08 14:53:21 UTC"
,"icao":"08R","name":"Richmond","lat":41.48898916,"lon":-71.62034112,"rwys":1,"ils":0,"index":1777881,"path":"w080n40/w072n41"
,"runways":[
{"len_m":651,"wid_m":9.14,"hdg":94,"surf":"Asphalt","rwy1":"11","lat1":41.48924377,"lon1":-71.62422608,"rwy2":"29","lat2":41.48873455,"lon2":-71.61645616}
]
,"navaids":[
{"type":"NDB","hdg_t":31.6,"dist_nm":10.7,"freq":335,"lat":41.64177778,"lon":-71.49469444,"rng_nm":50,"alt_fmsl":0,"id":"PV","desc":"RENCH NDB"},
{"type":"VOR","hdg_t":31.2,"dist_nm":16.5,"freq":115.6,"lat":41.72433333,"lon":-71.42963889,"rng_nm":130,"alt_fmsl":49,"id":"PVD","desc":"PROVIDENCE VORTAC"},
{"type":"VOR","hdg_t":283.4,"dist_nm":17.5,"freq":110,"lat":41.55638889,"lon":-71.99936111,"rng_nm":40,"alt_fmsl":310,"id":"ORW","desc":"NORWICH VOR-DME"},
{"type":"VOR","hdg_t":174,"dist_nm":19.3,"freq":117.8,"lat":41.16744444,"lon":-71.57608333,"rng_nm":40,"alt_fmsl":100,"id":"SEY","desc":"SANDY POINT VOR-DME"},
{"type":"VOR","hdg_t":244.1,"dist_nm":21.6,"freq":110.85,"lat":41.33038889,"lon":-72.05197222,"rng_nm":25,"alt_fmsl":9,"id":"GON","desc":"GROTON VOR-DME"},
{"type":"NDB","hdg_t":31.8,"dist_nm":22.7,"freq":356,"lat":41.81036111,"lon":-71.35322222,"rng_nm":50,"alt_fmsl":0,"id":"AR","desc":"ARMIN NDB"},
{"type":"NDB","hdg_t":12.8,"dist_nm":26.4,"freq":241,"lat":41.91905600,"lon":-71.48858300,"rng_nm":25,"alt_fmsl":490,"id":"SFZ","desc":"CENTRAL NDB"},
{"type":"NDB","hdg_t":73.4,"dist_nm":28.2,"freq":274,"lat":41.62163889,"lon":-71.01769444,"rng_nm":50,"alt_fmsl":0,"id":"EW","desc":"NEFOR NDB"},
{"type":"VOR","hdg_t":340.3,"dist_nm":29.7,"freq":117.4,"lat":41.95547222,"lon":-71.84408333,"rng_nm":130,"alt_fmsl":652,"id":"PUT","desc":"PUTNAM VOR-DME"},
{"type":"NDB","hdg_t":49.2,"dist_nm":35.7,"freq":227,"lat":41.87650000,"lon":-71.01700000,"rng_nm":50,"alt_fmsl":0,"id":"TAN","desc":"TAUNTON NDB"},
{"type":"NDB","hdg_t":31.5,"dist_nm":36.2,"freq":220,"lat":42.00277778,"lon":-71.19711111,"rng_nm":50,"alt_fmsl":0,"id":"IHM","desc":"MANSFIELD NDB"},
{"type":"VOR","hdg_t":282.6,"dist_nm":42.7,"freq":114.9,"lat":41.64111111,"lon":-72.54741667,"rng_nm":40,"alt_fmsl":849,"id":"HFD","desc":"HARTFORD VOR-DME"},
{"type":"NDB","hdg_t":30.1,"dist_nm":43.7,"freq":397,"lat":42.11975000,"lon":-71.12841667,"rng_nm":50,"alt_fmsl":0,"id":"OW","desc":"STOGE NDB"},
{"type":"VOR","hdg_t":96.6,"dist_nm":45.8,"freq":114.5,"lat":41.39622222,"lon":-70.61272222,"rng_nm":40,"alt_fmsl":59,"id":"MVY","desc":"MARTHAS VINEYARD VOR-DME"},
{"type":"NDB","hdg_t":353.6,"dist_nm":46.5,"freq":417,"lat":42.25988889,"lon":-71.73527778,"rng_nm":50,"alt_fmsl":0,"id":"EK","desc":"GOZZR NDB"},
{"type":"VOR","hdg_t":222.9,"dist_nm":46.5,"freq":113.6,"lat":40.91900000,"lon":-72.31669444,"rng_nm":130,"alt_fmsl":22,"id":"HTO","desc":"HAMPTON VORTAC"},
{"type":"VOR","hdg_t":258.1,"dist_nm":49.5,"freq":110.4,"lat":41.31383333,"lon":-72.69219444,"rng_nm":40,"alt_fmsl":220,"id":"MAD","desc":"MADISON VOR-DME"},
{"type":"NDB","hdg_t":339.3,"dist_nm":50.3,"freq":279,"lat":42.27450000,"lon":-72.01994444,"rng_nm":50,"alt_fmsl":0,"id":"RS","desc":"DUNCA NDB"},
{"type":"SDME","hdg_t":78,"dist_nm":50.8,"freq":115.8,"lat":41.65960600,"lon":-70.51394400,"rng_nm":40,"alt_fmsl":120,"id":"FMH","desc":"OTIS TACAN"},
{"type":"NDB","hdg_t":28.3,"dist_nm":53.5,"freq":375,"lat":42.27375000,"lon":-71.04916667,"rng_nm":50,"alt_fmsl":0,"id":"BO","desc":"MILTT NDB"},
{"type":"NDB","hdg_t":74.2,"dist_nm":55,"freq":362,"lat":41.73225000,"lon":-70.44138889,"rng_nm":50,"alt_fmsl":0,"id":"FM","desc":"BOMDE NDB"},
{"type":"NDB","hdg_t":74.2,"dist_nm":55,"freq":362,"lat":41.73257200,"lon":-70.44086400,"rng_nm":25,"alt_fmsl":80,"id":"FMH","desc":"OTIS NDB"},
{"type":"NDB","hdg_t":230.7,"dist_nm":55,"freq":400,"lat":40.90447222,"lon":-72.55647222,"rng_nm":50,"alt_fmsl":0,"id":"FO","desc":"SQUIR NDB"},
{"type":"VOR","hdg_t":299.8,"dist_nm":55.1,"freq":109,"lat":41.94100000,"lon":-72.68858333,"rng_nm":25,"alt_fmsl":160,"id":"BDL","desc":"BRADLEY VORTAC"},
{"type":"NDB","hdg_t":48.9,"dist_nm":55.9,"freq":368,"lat":42.09800000,"lon":-70.67577778,"rng_nm":50,"alt_fmsl":0,"id":"IMR","desc":"MARSHFIELD NDB"},
{"type":"NDB","hdg_t":294.7,"dist_nm":56.5,"freq":388,"lat":41.87738300,"lon":-72.76620600,"rng_nm":25,"alt_fmsl":0,"id":"BD","desc":"CHUPP NDB"},
{"type":"NDB","hdg_t":32.4,"dist_nm":57.9,"freq":346,"lat":42.30308333,"lon":-70.92186111,"rng_nm":50,"alt_fmsl":0,"id":"LI","desc":"HULLZ NDB"},
{"type":"VOR","hdg_t":257,"dist_nm":58.7,"freq":109.8,"lat":41.26230556,"lon":-72.88519444,"rng_nm":25,"alt_fmsl":6,"id":"HVN","desc":"NEW HAVEN VOR-DME"},
{"type":"VOR","hdg_t":316.5,"dist_nm":58.7,"freq":114,"lat":42.19755556,"lon":-72.52630556,"rng_nm":40,"alt_fmsl":241,"id":"CEF","desc":"WESTOVER VORTAC"},
{"type":"VOR","hdg_t":28.2,"dist_nm":59.2,"freq":112.7,"lat":42.35744444,"lon":-70.98955556,"rng_nm":130,"alt_fmsl":20,"id":"BOS","desc":"BOSTON VOR-DME"},
{"type":"SDME","hdg_t":229.9,"dist_nm":60.2,"freq":111,"lat":40.83776600,"lon":-72.63184500,"rng_nm":25,"alt_fmsl":50,"id":"FOK","desc":"SUFFOLK CO TACAN"},
{"type":"NDB","hdg_t":9.8,"dist_nm":60.3,"freq":332,"lat":42.47986111,"lon":-71.38866667,"rng_nm":50,"alt_fmsl":0,"id":"BE","desc":"BEDDS (LOM) NDB"},
{"type":"NDB","hdg_t":18.6,"dist_nm":61.2,"freq":251,"lat":42.45575000,"lon":-71.17852778,"rng_nm":50,"alt_fmsl":0,"id":"SKR","desc":"SHAKER HILL NDB"},
{"type":"VOR","hdg_t":238.2,"dist_nm":63,"freq":117.2,"lat":40.92961111,"lon":-72.79886111,"rng_nm":40,"alt_fmsl":86,"id":"CCC","desc":"CALVERTON VOR-DME"},
{"type":"VOR","hdg_t":309.7,"dist_nm":63.6,"freq":113,"lat":42.16194444,"lon":-72.71619444,"rng_nm":40,"alt_fmsl":268,"id":"BAF","desc":"BARNES VORTAC"},
{"type":"NDB","hdg_t":354.5,"dist_nm":63.9,"freq":365,"lat":42.55091667,"lon":-71.75713889,"rng_nm":50,"alt_fmsl":0,"id":"FIT","desc":"FITCHBURG NDB"},
{"type":"NDB","hdg_t":26.7,"dist_nm":64.8,"freq":382,"lat":42.45202778,"lon":-70.96330556,"rng_nm":50,"alt_fmsl":0,"id":"LQ","desc":"LYNDY NDB"},
{"type":"NDB","hdg_t":77.4,"dist_nm":65.2,"freq":342,"lat":41.71613889,"lon":-70.20294444,"rng_nm":50,"alt_fmsl":0,"id":"HY","desc":"BOGEY NDB"},
{"type":"VOR","hdg_t":342.9,"dist_nm":66.3,"freq":110.6,"lat":42.54594444,"lon":-72.05819444,"rng_nm":40,"alt_fmsl":1280,"id":"GDM","desc":"GARDNER VOR-DME"},
{"type":"NDB","hdg_t":265,"dist_nm":67.6,"freq":362,"lat":41.38238889,"lon":-73.11250000,"rng_nm":50,"alt_fmsl":0,"id":"JWE","desc":"CLERA NDB"},
{"type":"NDB","hdg_t":266.1,"dist_nm":67.8,"freq":362,"lat":41.40251700,"lon":-73.11981900,"rng_nm":25,"alt_fmsl":0,"id":"OX","desc":"CLERA NDB"},
{"type":"VOR","hdg_t":254.3,"dist_nm":70.7,"freq":108.8,"lat":41.16069444,"lon":-73.12450000,"rng_nm":40,"alt_fmsl":9,"id":"BDR","desc":"BRIDGEPORT VOR-DME"},
{"type":"NDB","hdg_t":335.5,"dist_nm":71.2,"freq":205,"lat":42.56861111,"lon":-72.28611111,"rng_nm":50,"alt_fmsl":0,"id":"ORE","desc":"ORANGE NDB"},
{"type":"NDB","hdg_t":60.5,"dist_nm":71.7,"freq":389,"lat":42.06880556,"lon":-70.22344444,"rng_nm":50,"alt_fmsl":0,"id":"PVC","desc":"PROVINCETOWN NDB"},
{"type":"NDB","hdg_t":15.1,"dist_nm":71.8,"freq":402,"lat":42.64413889,"lon":-71.19719444,"rng_nm":50,"alt_fmsl":0,"id":"LW","desc":"HAGET NDB"},
{"type":"VOR","hdg_t":99.2,"dist_nm":73,"freq":116.2,"lat":41.28188889,"lon":-70.02672222,"rng_nm":130,"alt_fmsl":99,"id":"ACK","desc":"NANTUCKET VOR-DME"},
{"type":"NDB","hdg_t":80,"dist_nm":74.4,"freq":279,"lat":41.69177778,"lon":-69.98980556,"rng_nm":50,"alt_fmsl":0,"id":"CQX","desc":"NAUSET NDB"},
{"type":"NDB","hdg_t":97.6,"dist_nm":74.5,"freq":248,"lat":41.31127778,"lon":-69.98675000,"rng_nm":50,"alt_fmsl":0,"id":"AC","desc":"WAIVS NDB"},
{"type":"VOR","hdg_t":309.3,"dist_nm":76.5,"freq":115.1,"lat":42.29130556,"lon":-72.94938889,"rng_nm":40,"alt_fmsl":1600,"id":"CTR","desc":"CHESTER VOR-DME"},
{"type":"VOR","hdg_t":65.4,"dist_nm":77.8,"freq":114.7,"lat":42.01719444,"lon":-70.03722222,"rng_nm":130,"alt_fmsl":151,"id":"LFV","desc":"MARCONI VOR-DME"},
{"type":"VOR","hdg_t":17.1,"dist_nm":78.6,"freq":112.5,"lat":42.74041667,"lon":-71.09483333,"rng_nm":40,"alt_fmsl":302,"id":"LWM","desc":"LAWRENCE VOR-DME"},
{"type":"NDB","hdg_t":0.5,"dist_nm":80,"freq":359,"lat":42.82338889,"lon":-71.60216667,"rng_nm":50,"alt_fmsl":0,"id":"AS","desc":"CHERN NDB"},
{"type":"NDB","hdg_t":2.8,"dist_nm":82.5,"freq":209,"lat":42.86422222,"lon":-71.52880556,"rng_nm":50,"alt_fmsl":0,"id":"MJ","desc":"FITZY NDB"},
{"type":"VOR","hdg_t":7.6,"dist_nm":83.4,"freq":114.4,"lat":42.86852778,"lon":-71.36952778,"rng_nm":40,"alt_fmsl":471,"id":"MHT","desc":"MANCHESTER VOR-DME"},
{"type":"VOR","hdg_t":339.2,"dist_nm":83.8,"freq":109.4,"lat":42.79427778,"lon":-72.29177778,"rng_nm":40,"alt_fmsl":1380,"id":"EEN","desc":"KEENE VORTAC"},
{"type":"NDB","hdg_t":237.8,"dist_nm":84.5,"freq":366,"lat":40.72897222,"lon":-73.19022222,"rng_nm":50,"alt_fmsl":0,"id":"IS","desc":"LOKKS NDB"},
{"type":"VOR","hdg_t":241.8,"dist_nm":87,"freq":117.7,"lat":40.79177778,"lon":-73.30366667,"rng_nm":40,"alt_fmsl":117,"id":"DPK","desc":"DEER PARK VOR-DME"},
{"type":"VOR","hdg_t":262.5,"dist_nm":89.4,"freq":116.6,"lat":41.28005556,"lon":-73.58136111,"rng_nm":40,"alt_fmsl":690,"id":"CMK","desc":"CARMEL VOR-DME"},
{"type":"NDB","hdg_t":298,"dist_nm":90.1,"freq":395,"lat":42.18297222,"lon":-73.40402778,"rng_nm":50,"alt_fmsl":0,"id":"GBR","desc":"GREAT BARRINGTON NDB"},
{"type":"VOR","hdg_t":281.3,"dist_nm":90.6,"freq":114.3,"lat":41.76975000,"lon":-73.60055556,"rng_nm":40,"alt_fmsl":1250,"id":"PWL","desc":"PAWLING VOR-DME"},
{"type":"NDB","hdg_t":239.1,"dist_nm":93.8,"freq":275,"lat":40.67252778,"lon":-73.38438889,"rng_nm":50,"alt_fmsl":0,"id":"BBN","desc":"BABYLON NDB"},
{"type":"NDB","hdg_t":243.7,"dist_nm":94.6,"freq":407,"lat":40.77652778,"lon":-73.48241667,"rng_nm":50,"alt_fmsl":0,"id":"FR","desc":"FRIKK NDB"},
{"type":"NDB","hdg_t":4.3,"dist_nm":98,"freq":216,"lat":43.11883333,"lon":-71.45269444,"rng_nm":50,"alt_fmsl":0,"id":"CO","desc":"EPSOM NDB"},
{"type":"VOR","hdg_t":276.8,"dist_nm":99.7,"freq":117.6,"lat":41.66544444,"lon":-73.82222222,"rng_nm":40,"alt_fmsl":580,"id":"IGN","desc":"KINGSTON VOR-DME"}
]
}
