{"success":true,"source":"xp2csv.pl","last_updated":"2013/11/08 14:53:21 UTC"
,"icao":"08VA","name":"Springwood Airstrip","lat":37.55402194,"lon":-79.74976334,"rwys":1,"ils":0,"index":1646561,"path":"w080n30/w080n37"
,"runways":[
{"len_m":458,"wid_m":15.24,"hdg":83,"surf":"Turf/grass","rwy1":"09","lat1":37.55377123,"lon1":-79.75233896,"rwy2":"27","lat2":37.55427265,"lon2":-79.74718772}
]
,"navaids":[
{"type":"VOR","hdg_t":218.5,"dist_nm":17.5,"freq":114.9,"lat":37.32419444,"lon":-79.97897222,"rng_nm":25,"alt_fmsl":0,"id":"ODR","desc":"WOODRUM VOR"},
{"type":"VOR","hdg_t":230.6,"dist_nm":19.8,"freq":109.4,"lat":37.34347222,"lon":-80.07038889,"rng_nm":40,"alt_fmsl":3072,"id":"ROA","desc":"ROANOKE VORTAC"},
{"type":"NDB","hdg_t":196.7,"dist_nm":21.9,"freq":277,"lat":37.20405556,"lon":-79.88163889,"rng_nm":50,"alt_fmsl":0,"id":"VIT","desc":"VINTN NDB"},
{"type":"NDB","hdg_t":358.9,"dist_nm":25.9,"freq":400,"lat":37.98646900,"lon":-79.75946900,"rng_nm":25,"alt_fmsl":2080,"id":"HS","desc":"DURAN NDB"},
{"type":"NDB","hdg_t":228.1,"dist_nm":26.2,"freq":379,"lat":37.26139700,"lon":-80.15815000,"rng_nm":25,"alt_fmsl":1220,"id":"CNQ","desc":"CALLAHAN NDB"},
{"type":"VOR","hdg_t":295.7,"dist_nm":29.1,"freq":108.4,"lat":37.76392200,"lon":-80.30164700,"rng_nm":25,"alt_fmsl":3330,"id":"SSU","desc":"WHITE SULPHUR SPRINGS VOR"},
{"type":"NDB","hdg_t":125.6,"dist_nm":29.8,"freq":385,"lat":37.26241667,"lon":-79.24313889,"rng_nm":50,"alt_fmsl":0,"id":"LY","desc":"BOJAR NDB"},
{"type":"VOR","hdg_t":126,"dist_nm":30.4,"freq":109.2,"lat":37.25458333,"lon":-79.23638889,"rng_nm":40,"alt_fmsl":871,"id":"LYH","desc":"LYNCHBURG VORTAC"},
{"type":"VOR","hdg_t":301.4,"dist_nm":35.7,"freq":116.05,"lat":37.86380556,"lon":-80.39202778,"rng_nm":40,"alt_fmsl":2319,"id":"LWB","desc":"GREENBRIER VOR-DME"},
{"type":"NDB","hdg_t":291.9,"dist_nm":36.8,"freq":346,"lat":37.78216667,"lon":-80.46844444,"rng_nm":50,"alt_fmsl":0,"id":"LW","desc":"BUSHI NDB"},
{"type":"VOR","hdg_t":55.6,"dist_nm":36.9,"freq":115.3,"lat":37.90052778,"lon":-79.10688889,"rng_nm":40,"alt_fmsl":3460,"id":"MOL","desc":"MONTEBELLO VOR-DME"},
{"type":"NDB","hdg_t":236.6,"dist_nm":37.4,"freq":368,"lat":37.20861111,"lon":-80.40344444,"rng_nm":50,"alt_fmsl":0,"id":"TEC","desc":"TECH NDB"},
{"type":"VOR","hdg_t":239,"dist_nm":53.9,"freq":116.8,"lat":37.08769444,"lon":-80.71288889,"rng_nm":130,"alt_fmsl":2120,"id":"PSK","desc":"PULASKI VORTAC"},
{"type":"NDB","hdg_t":43.8,"dist_nm":54,"freq":375,"lat":38.20175000,"lon":-78.95736111,"rng_nm":50,"alt_fmsl":0,"id":"SH","desc":"STAUT NDB"},
{"type":"VOR","hdg_t":296.9,"dist_nm":56.2,"freq":116.6,"lat":37.97530556,"lon":-80.80650000,"rng_nm":40,"alt_fmsl":0,"id":"RNL","desc":"RAINELLE VOR"},
{"type":"NDB","hdg_t":187.9,"dist_nm":58.3,"freq":396,"lat":36.59008333,"lon":-79.91744444,"rng_nm":50,"alt_fmsl":0,"id":"UV","desc":"BALES NDB"},
{"type":"VOR","hdg_t":161.3,"dist_nm":62.2,"freq":113.1,"lat":36.56886111,"lon":-79.33669444,"rng_nm":40,"alt_fmsl":0,"id":"DAN","desc":"DANVILLE VOR"},
{"type":"VOR","hdg_t":145.9,"dist_nm":63.3,"freq":110.4,"lat":36.67502778,"lon":-79.01450000,"rng_nm":40,"alt_fmsl":530,"id":"SBV","desc":"SOUTH BOSTON VORTAC"},
{"type":"NDB","hdg_t":100.4,"dist_nm":63.8,"freq":367,"lat":37.35300000,"lon":-78.43752778,"rng_nm":50,"alt_fmsl":0,"id":"FVX","desc":"FARMVILLE NDB"},
{"type":"NDB","hdg_t":64.6,"dist_nm":64.6,"freq":336,"lat":38.01016667,"lon":-78.51808333,"rng_nm":50,"alt_fmsl":0,"id":"AZS","desc":"AZALEA PARK NDB"},
{"type":"VOR","hdg_t":282.1,"dist_nm":66.8,"freq":117.7,"lat":37.78030556,"lon":-81.12344444,"rng_nm":130,"alt_fmsl":2517,"id":"BKW","desc":"BECKLEY VORTAC"},
{"type":"NDB","hdg_t":304.1,"dist_nm":66.9,"freq":272,"lat":38.17505600,"lon":-80.91998600,"rng_nm":25,"alt_fmsl":1880,"id":"IJZ","desc":"NICHOLAS NDB"},
{"type":"NDB","hdg_t":227.6,"dist_nm":69.9,"freq":269,"lat":36.76222222,"lon":-80.82194444,"rng_nm":50,"alt_fmsl":0,"id":"HLX","desc":"HILLSVILLE NDB"},
{"type":"NDB","hdg_t":180.5,"dist_nm":70.2,"freq":423,"lat":36.38169444,"lon":-79.76277778,"rng_nm":50,"alt_fmsl":0,"id":"SIF","desc":"SLAMMER NDB"},
{"type":"VOR","hdg_t":258.3,"dist_nm":70.6,"freq":110,"lat":37.30644444,"lon":-81.19427778,"rng_nm":40,"alt_fmsl":2900,"id":"BLF","desc":"BLUEFIELD VORTAC"},
{"type":"NDB","hdg_t":208.6,"dist_nm":79.9,"freq":223,"lat":36.38097222,"lon":-80.54019444,"rng_nm":50,"alt_fmsl":0,"id":"AZW","desc":"MT AIRY NDB"},
{"type":"NDB","hdg_t":356.3,"dist_nm":80.4,"freq":284,"lat":38.89394444,"lon":-79.85941667,"rng_nm":50,"alt_fmsl":0,"id":"RQY","desc":"RANDOLPH CO NDB"},
{"type":"VOR","hdg_t":69.5,"dist_nm":80.7,"freq":115.6,"lat":38.01361111,"lon":-78.15302778,"rng_nm":130,"alt_fmsl":382,"id":"GVE","desc":"GORDONSVILLE VORTAC"},
{"type":"NDB","hdg_t":242.4,"dist_nm":81,"freq":335,"lat":36.92016667,"lon":-81.24330556,"rng_nm":50,"alt_fmsl":0,"id":"MK","desc":"SUZZE NDB"},
{"type":"VOR","hdg_t":348.6,"dist_nm":83.1,"freq":114.2,"lat":38.91444444,"lon":-80.09927778,"rng_nm":40,"alt_fmsl":2160,"id":"EKN","desc":"ELKINS VORTAC"},
{"type":"NDB","hdg_t":189.4,"dist_nm":84.2,"freq":254,"lat":36.16697222,"lon":-80.03563889,"rng_nm":50,"alt_fmsl":0,"id":"GS","desc":"MARKY NDB"},
{"type":"NDB","hdg_t":106.8,"dist_nm":85.5,"freq":326,"lat":37.12744444,"lon":-78.04452778,"rng_nm":50,"alt_fmsl":0,"id":"BKT","desc":"BLACKSTONE NDB"},
{"type":"NDB","hdg_t":157.2,"dist_nm":85.7,"freq":220,"lat":36.23327778,"lon":-79.06588889,"rng_nm":50,"alt_fmsl":0,"id":"HUR","desc":"PERSON(LOM/NDB) NDB"},
{"type":"SDME","hdg_t":185.9,"dist_nm":86.4,"freq":109.55,"lat":36.11876111,"lon":-79.93550833,"rng_nm":18,"alt_fmsl":882,"id":"ILLG","desc":"KGSO 05L DME-ILS DME"},
{"type":"SDME","hdg_t":185.3,"dist_nm":86.8,"freq":111.9,"lat":36.11145556,"lon":-79.91745278,"rng_nm":18,"alt_fmsl":882,"id":"ILZY","desc":"KGSO 05R DME-ILS DME"},
{"type":"SDME","hdg_t":186.7,"dist_nm":87.8,"freq":109.7,"lat":36.09776389,"lon":-79.96214444,"rng_nm":18,"alt_fmsl":925,"id":"IIDB","desc":"KGSO 23R DME-ILS DME"},
{"type":"NDB","hdg_t":212.5,"dist_nm":88.1,"freq":326,"lat":36.31005556,"lon":-80.72636111,"rng_nm":50,"alt_fmsl":0,"id":"ZEF","desc":"ZEPHYR NDB"},
{"type":"VOR","hdg_t":186.9,"dist_nm":91,"freq":116.2,"lat":36.04569444,"lon":-79.97638889,"rng_nm":130,"alt_fmsl":879,"id":"GSO","desc":"GREENSBORO VORTAC"},
{"type":"NDB","hdg_t":192.8,"dist_nm":91.1,"freq":317,"lat":36.07091667,"lon":-80.16683333,"rng_nm":50,"alt_fmsl":0,"id":"IN","desc":"REENO NDB"},
{"type":"NDB","hdg_t":40.9,"dist_nm":91.5,"freq":245,"lat":38.69955556,"lon":-78.47166667,"rng_nm":50,"alt_fmsl":0,"id":"LUA","desc":"CAVERNS NDB"},
{"type":"VOR","hdg_t":90.3,"dist_nm":91.7,"freq":113.3,"lat":37.52850000,"lon":-77.82822222,"rng_nm":130,"alt_fmsl":460,"id":"FAK","desc":"FLAT ROCK VORTAC"},
{"type":"NDB","hdg_t":143.7,"dist_nm":92.7,"freq":271,"lat":36.30122222,"lon":-78.61850000,"rng_nm":50,"alt_fmsl":0,"id":"HXO","desc":"HUNTSBORO NDB"},
{"type":"NDB","hdg_t":175.1,"dist_nm":94.7,"freq":361,"lat":35.97811111,"lon":-79.58483333,"rng_nm":50,"alt_fmsl":0,"id":"HB","desc":"ALAMM NDB"},
{"type":"VOR","hdg_t":115.9,"dist_nm":98.9,"freq":112.9,"lat":36.81802778,"lon":-77.90297222,"rng_nm":40,"alt_fmsl":350,"id":"LVL","desc":"LAWRENCEVILLE VORTAC"},
{"type":"NDB","hdg_t":124.1,"dist_nm":99,"freq":373,"lat":36.61455556,"lon":-78.05316667,"rng_nm":50,"alt_fmsl":0,"id":"AEA","desc":"JONES NDB"}
]
}
