{"success":true,"source":"xp2csv.pl","last_updated":"2013/11/08 14:53:21 UTC"
,"icao":"09CO","name":"Cottonwood Field","lat":38.05556333,"lon":-103.65328028,"rwys":1,"ils":0,"index":1253377,"path":"w110n30/w104n38"
,"runways":[
{"len_m":993,"wid_m":19.81,"hdg":99,"surf":"Turf/grass","rwy1":"09","lat1":38.05633734,"lon1":-103.65885502,"rwy2":"27","lat2":38.05478932,"lon2":-103.64770554}
]
,"navaids":[
{"type":"NDB","hdg_t":293.2,"dist_nm":36,"freq":373,"lat":38.29086111,"lon":-104.35502778,"rng_nm":50,"alt_fmsl":0,"id":"TF","desc":"ARUBA NDB"},
{"type":"VOR","hdg_t":291.5,"dist_nm":39.4,"freq":116.7,"lat":38.29425000,"lon":-104.42944444,"rng_nm":130,"alt_fmsl":4759,"id":"PUB","desc":"PUEBLO VORTAC"},
{"type":"VOR","hdg_t":1.8,"dist_nm":45.6,"freq":112.1,"lat":38.81750000,"lon":-103.62138889,"rng_nm":130,"alt_fmsl":5233,"id":"HGO","desc":"HUGO VORTAC"},
{"type":"VOR","hdg_t":79.1,"dist_nm":46.5,"freq":116.9,"lat":38.19708333,"lon":-102.68752778,"rng_nm":130,"alt_fmsl":3944,"id":"LAA","desc":"LAMAR VORTAC"},
{"type":"VOR","hdg_t":176.9,"dist_nm":47.8,"freq":111.2,"lat":37.25866667,"lon":-103.60005556,"rng_nm":40,"alt_fmsl":5730,"id":"TBE","desc":"TOBE VORTAC"},
{"type":"NDB","hdg_t":286.5,"dist_nm":48.9,"freq":302,"lat":38.28397222,"lon":-104.64708333,"rng_nm":50,"alt_fmsl":0,"id":"PU","desc":"MERTZ NDB"},
{"type":"NDB","hdg_t":216,"dist_nm":55.3,"freq":329,"lat":37.30611111,"lon":-104.33336111,"rng_nm":50,"alt_fmsl":0,"id":"TAD","desc":"TRINIDAD NDB"},
{"type":"NDB","hdg_t":307.6,"dist_nm":63,"freq":407,"lat":38.69430556,"lon":-104.71633333,"rng_nm":50,"alt_fmsl":0,"id":"CO","desc":"PETEY NDB"},
{"type":"NDB","hdg_t":306,"dist_nm":63.9,"freq":335,"lat":38.67833333,"lon":-104.75330556,"rng_nm":50,"alt_fmsl":0,"id":"IHS","desc":"IRONHORSE NDB"},
{"type":"VOR","hdg_t":306,"dist_nm":64.1,"freq":108.8,"lat":38.68069444,"lon":-104.75688889,"rng_nm":25,"alt_fmsl":5829,"id":"FCS","desc":"BUTTS VOR-DME"},
{"type":"VOR","hdg_t":319.3,"dist_nm":70.5,"freq":112.5,"lat":38.94450000,"lon":-104.63347222,"rng_nm":40,"alt_fmsl":6934,"id":"BRK","desc":"BLACK FOREST VORTAC"},
{"type":"NDB","hdg_t":104.8,"dist_nm":94.5,"freq":341,"lat":37.63558333,"lon":-101.73461111,"rng_nm":50,"alt_fmsl":0,"id":"JHN","desc":"BEAR CREEK NDB"},
{"type":"NDB","hdg_t":41.6,"dist_nm":96.1,"freq":209,"lat":39.24625000,"lon":-102.28383333,"rng_nm":50,"alt_fmsl":0,"id":"ITR","desc":"KIT CARSON NDB"},
{"type":"NDB","hdg_t":165.8,"dist_nm":99.5,"freq":332,"lat":36.44416667,"lon":-103.14938889,"rng_nm":50,"alt_fmsl":0,"id":"CAO","desc":"CLAYTON NDB"}
]
}
