{"success":true,"source":"xp2csv.pl","last_updated":"2013/11/08 14:53:21 UTC"
,"icao":"0A2","name":"Hester Memorial","lat":34.0904665,"lon":-82.5680585,"rwys":1,"ils":0,"index":1597185,"path":"w090n30/w083n34"
,"runways":[
{"len_m":1191,"wid_m":18.29,"hdg":96,"surf":"Asphalt","rwy1":"10","lat1":34.09103300,"lon1":-82.57447800,"rwy2":"28","lat2":34.08990000,"lon2":-82.56163900}
]
,"radios":[
{"type":"CTAF","freq":122.9,"desc":"CTAF"}
]
,"navaids":[
{"type":"VOR","hdg_t":331.3,"dist_nm":22.4,"freq":108.6,"lat":34.41919444,"lon":-82.78469444,"rng_nm":40,"alt_fmsl":736,"id":"ELW","desc":"ELECTRIC CITY VORTAC"},
{"type":"NDB","hdg_t":212.9,"dist_nm":22.5,"freq":435,"lat":33.77486111,"lon":-82.81319444,"rng_nm":50,"alt_fmsl":0,"id":"IIY","desc":"WASHINGTON-WILKE NDB"},
{"type":"VOR","hdg_t":64.7,"dist_nm":22.7,"freq":115.5,"lat":34.25155556,"lon":-82.15413889,"rng_nm":130,"alt_fmsl":630,"id":"GRD","desc":"GREENWOOD VORTAC"},
{"type":"NDB","hdg_t":344,"dist_nm":25.3,"freq":230,"lat":34.49810600,"lon":-82.70853600,"rng_nm":25,"alt_fmsl":760,"id":"AND","desc":"ANDERSON NDB"},
{"type":"NDB","hdg_t":67.6,"dist_nm":25.9,"freq":239,"lat":34.25372222,"lon":-82.08622222,"rng_nm":50,"alt_fmsl":0,"id":"GIW","desc":"CORONACA NDB"},
{"type":"VOR","hdg_t":138.4,"dist_nm":30.6,"freq":113.9,"lat":33.70736111,"lon":-82.16205556,"rng_nm":130,"alt_fmsl":428,"id":"IRQ","desc":"COLLIERS VORTAC"},
{"type":"NDB","hdg_t":183.9,"dist_nm":33.4,"freq":341,"lat":33.53327778,"lon":-82.61436111,"rng_nm":50,"alt_fmsl":0,"id":"AA","desc":"CEDAR NDB"},
{"type":"NDB","hdg_t":255.8,"dist_nm":33.5,"freq":221,"lat":33.95138889,"lon":-83.21958333,"rng_nm":50,"alt_fmsl":0,"id":"BJT","desc":"BULLDOG NDB"},
{"type":"NDB","hdg_t":175.5,"dist_nm":33.8,"freq":333,"lat":33.52740600,"lon":-82.51563900,"rng_nm":25,"alt_fmsl":452,"id":"HQU","desc":"THOMSON MCDUFFIE NDB"},
{"type":"NDB","hdg_t":220.4,"dist_nm":34.9,"freq":353,"lat":33.64613889,"lon":-83.02080556,"rng_nm":50,"alt_fmsl":0,"id":"VV","desc":"JUNNE NDB"},
{"type":"NDB","hdg_t":9.7,"dist_nm":36.4,"freq":338,"lat":34.69102778,"lon":-82.44363889,"rng_nm":50,"alt_fmsl":0,"id":"GY","desc":"DYANA NDB"},
{"type":"NDB","hdg_t":335.7,"dist_nm":38.3,"freq":257,"lat":34.67383333,"lon":-82.88683333,"rng_nm":50,"alt_fmsl":0,"id":"CEU","desc":"CLEMSON NDB"},
{"type":"VOR","hdg_t":257.4,"dist_nm":38.6,"freq":109.6,"lat":33.94758333,"lon":-83.32475000,"rng_nm":130,"alt_fmsl":793,"id":"AHN","desc":"ATHENS VORTAC"},
{"type":"NDB","hdg_t":50.6,"dist_nm":39.6,"freq":307,"lat":34.50818100,"lon":-81.94981700,"rng_nm":25,"alt_fmsl":695,"id":"LUX","desc":"LAURENS NDB"},
{"type":"NDB","hdg_t":224.1,"dist_nm":41.2,"freq":397,"lat":33.59489400,"lon":-83.14072200,"rng_nm":25,"alt_fmsl":662,"id":"EJK","desc":"GREENSBORO NDB"},
{"type":"NDB","hdg_t":14.6,"dist_nm":42.7,"freq":521,"lat":34.78013889,"lon":-82.34977778,"rng_nm":50,"alt_fmsl":0,"id":"GM","desc":"JUDKY NDB"},
{"type":"NDB","hdg_t":351.1,"dist_nm":43.6,"freq":408,"lat":34.81122222,"lon":-82.70352778,"rng_nm":50,"alt_fmsl":0,"id":"LQK","desc":"LAKE KEOWEE NDB"},
{"type":"NDB","hdg_t":18.1,"dist_nm":45.7,"freq":287,"lat":34.81550000,"lon":-82.28013889,"rng_nm":50,"alt_fmsl":0,"id":"GS","desc":"GREER NDB"},
{"type":"NDB","hdg_t":142.6,"dist_nm":47.2,"freq":385,"lat":33.46280556,"lon":-81.99686111,"rng_nm":50,"alt_fmsl":0,"id":"EMR","desc":"EMORY NDB"},
{"type":"NDB","hdg_t":268.2,"dist_nm":47.5,"freq":244,"lat":34.06222222,"lon":-83.52094444,"rng_nm":50,"alt_fmsl":0,"id":"DDA","desc":"COMMERCE NDB"},
{"type":"NDB","hdg_t":73.8,"dist_nm":48.2,"freq":278,"lat":34.31152778,"lon":-81.63594444,"rng_nm":50,"alt_fmsl":0,"id":"EOE","desc":"ENOREE NDB"},
{"type":"VOR","hdg_t":315.2,"dist_nm":51.2,"freq":113.4,"lat":34.69586111,"lon":-83.29766667,"rng_nm":130,"alt_fmsl":1700,"id":"ODF","desc":"FOOTHILLS VORTAC"},
{"type":"NDB","hdg_t":120.3,"dist_nm":51.6,"freq":347,"lat":33.65180556,"lon":-81.67705556,"rng_nm":50,"alt_fmsl":0,"id":"AIK","desc":"AIKEN NDB"},
{"type":"NDB","hdg_t":259.9,"dist_nm":51.7,"freq":404,"lat":33.93536111,"lon":-83.58947222,"rng_nm":50,"alt_fmsl":0,"id":"BMW","desc":"BARROW COUNTY NDB"},
{"type":"NDB","hdg_t":297,"dist_nm":54.6,"freq":347,"lat":34.50150000,"lon":-83.54988889,"rng_nm":50,"alt_fmsl":0,"id":"AJR","desc":"HABERSHAM NDB"},
{"type":"NDB","hdg_t":30.5,"dist_nm":56.5,"freq":248,"lat":34.90138889,"lon":-81.98538889,"rng_nm":50,"alt_fmsl":0,"id":"FRT","desc":"FAIRMONT NDB"},
{"type":"NDB","hdg_t":146.9,"dist_nm":57.2,"freq":233,"lat":33.28694444,"lon":-81.94688889,"rng_nm":50,"alt_fmsl":0,"id":"AG","desc":"BUSHE (LOM) NDB"},
{"type":"NDB","hdg_t":52,"dist_nm":58.1,"freq":326,"lat":34.68402778,"lon":-81.64233333,"rng_nm":50,"alt_fmsl":0,"id":"UOT","desc":"UNION CO NDB"},
{"type":"NDB","hdg_t":250.2,"dist_nm":61.6,"freq":392,"lat":33.73761111,"lon":-83.72683333,"rng_nm":50,"alt_fmsl":0,"id":"JNM","desc":"MONROE NDB"},
{"type":"NDB","hdg_t":207.9,"dist_nm":63.5,"freq":380,"lat":33.15180556,"lon":-83.15958333,"rng_nm":50,"alt_fmsl":0,"id":"UMB","desc":"CULVR NDB"},
{"type":"NDB","hdg_t":266.6,"dist_nm":64.6,"freq":419,"lat":34.01994444,"lon":-83.86283333,"rng_nm":50,"alt_fmsl":0,"id":"TX","desc":"GWNET NDB"},
{"type":"VOR","hdg_t":29.1,"dist_nm":64.8,"freq":115.7,"lat":35.03363889,"lon":-81.92700000,"rng_nm":130,"alt_fmsl":935,"id":"SPA","desc":"SPARTANBURG VORTAC"},
{"type":"NDB","hdg_t":96,"dist_nm":66.4,"freq":362,"lat":33.96716667,"lon":-81.24469444,"rng_nm":50,"alt_fmsl":0,"id":"CA","desc":"MURRY NDB"},
{"type":"NDB","hdg_t":245.8,"dist_nm":66.6,"freq":370,"lat":33.62983333,"lon":-83.78211111,"rng_nm":50,"alt_fmsl":0,"id":"VOF","desc":"ALCOVY NDB"},
{"type":"NDB","hdg_t":276.1,"dist_nm":66.9,"freq":365,"lat":34.20338889,"lon":-83.90630556,"rng_nm":50,"alt_fmsl":0,"id":"FKV","desc":"FLOWERY BRANCH NDB"},
{"type":"NDB","hdg_t":196.2,"dist_nm":66.9,"freq":360,"lat":33.01694444,"lon":-82.93941667,"rng_nm":50,"alt_fmsl":0,"id":"HIT","desc":"KAOLIN NDB"},
{"type":"NDB","hdg_t":155.6,"dist_nm":68.8,"freq":356,"lat":33.04252778,"lon":-82.00483333,"rng_nm":50,"alt_fmsl":0,"id":"BXG","desc":"BURKE CO NDB"},
{"type":"NDB","hdg_t":3.8,"dist_nm":70.9,"freq":379,"lat":35.27275000,"lon":-82.47102778,"rng_nm":50,"alt_fmsl":0,"id":"BRA","desc":"BROAD RIVER NDB"},
{"type":"NDB","hdg_t":127.5,"dist_nm":72.5,"freq":392,"lat":33.34680300,"lon":-81.42405800,"rng_nm":25,"alt_fmsl":380,"id":"BKO","desc":"BARNWELL NDB"},
{"type":"NDB","hdg_t":79,"dist_nm":73.6,"freq":414,"lat":34.31441667,"lon":-81.11266667,"rng_nm":50,"alt_fmsl":0,"id":"FDW","desc":"WINNSBORO NDB"},
{"type":"VOR","hdg_t":100,"dist_nm":76.8,"freq":114.7,"lat":33.85725000,"lon":-81.05391667,"rng_nm":130,"alt_fmsl":400,"id":"CAE","desc":"COLUMBIA VORTAC"},
{"type":"NDB","hdg_t":156.9,"dist_nm":77.7,"freq":205,"lat":32.89463889,"lon":-81.96694444,"rng_nm":50,"alt_fmsl":0,"id":"LNH","desc":"MILLEN NDB"},
{"type":"NDB","hdg_t":58,"dist_nm":79.6,"freq":220,"lat":34.78575000,"lon":-81.20083333,"rng_nm":50,"alt_fmsl":0,"id":"DCM","desc":"CHESTER NDB"},
{"type":"VOR","hdg_t":10.5,"dist_nm":80.2,"freq":112.2,"lat":35.40650000,"lon":-82.26861111,"rng_nm":40,"alt_fmsl":3970,"id":"SUG","desc":"SUGARLOAF MOUNTAI VORTAC"},
{"type":"VOR","hdg_t":307.7,"dist_nm":84,"freq":109.8,"lat":34.94300000,"lon":-83.91569444,"rng_nm":40,"alt_fmsl":3660,"id":"HRS","desc":"HARRIS VORTAC"},
{"type":"NDB","hdg_t":34.2,"dist_nm":84.5,"freq":417,"lat":35.25266667,"lon":-81.59880556,"rng_nm":50,"alt_fmsl":0,"id":"SLP","desc":"FIRST RIVER NDB"},
{"type":"NDB","hdg_t":176,"dist_nm":85.4,"freq":309,"lat":32.66652778,"lon":-82.45269444,"rng_nm":50,"alt_fmsl":0,"id":"EEX","desc":"EMANUEL CO NDB"},
{"type":"NDB","hdg_t":359.3,"dist_nm":86.4,"freq":357,"lat":35.53277778,"lon":-82.58744444,"rng_nm":50,"alt_fmsl":0,"id":"IM","desc":"KEANS NDB"},
{"type":"VOR","hdg_t":262,"dist_nm":87.3,"freq":116.6,"lat":33.87563889,"lon":-84.29880556,"rng_nm":40,"alt_fmsl":970,"id":"PDK","desc":"PEACHTREE VOR-DME"},
{"type":"NDB","hdg_t":56.5,"dist_nm":87.9,"freq":227,"lat":34.89002778,"lon":-81.08091667,"rng_nm":50,"alt_fmsl":0,"id":"UZ","desc":"RALLY NDB"},
{"type":"VOR","hdg_t":95.9,"dist_nm":88.6,"freq":113.2,"lat":33.92408333,"lon":-80.80233333,"rng_nm":40,"alt_fmsl":248,"id":"MMT","desc":"MC ENTIRE VORTAC"},
{"type":"NDB","hdg_t":95.4,"dist_nm":88.7,"freq":427,"lat":33.93572222,"lon":-80.79833333,"rng_nm":50,"alt_fmsl":0,"id":"MMT","desc":"MC ENTIRE NDB"},
{"type":"VOR","hdg_t":134.9,"dist_nm":90.8,"freq":116.7,"lat":33.01250000,"lon":-81.29222222,"rng_nm":40,"alt_fmsl":0,"id":"ALD","desc":"ALLENDALE VOR"},
{"type":"NDB","hdg_t":253.4,"dist_nm":91,"freq":266,"lat":33.64538889,"lon":-84.31125000,"rng_nm":50,"alt_fmsl":0,"id":"BR","desc":"REDAN NDB"},
{"type":"VOR","hdg_t":188.2,"dist_nm":92.3,"freq":113.1,"lat":32.56344444,"lon":-82.83000000,"rng_nm":40,"alt_fmsl":265,"id":"DBN","desc":"DUBLIN VORTAC"},
{"type":"NDB","hdg_t":65.4,"dist_nm":92.9,"freq":400,"lat":34.72269444,"lon":-80.85916667,"rng_nm":50,"alt_fmsl":0,"id":"LKR","desc":"LANCASTER NDB"},
{"type":"VOR","hdg_t":113.4,"dist_nm":93.5,"freq":111.4,"lat":33.45572222,"lon":-80.85841667,"rng_nm":25,"alt_fmsl":188,"id":"EDS","desc":"EDISTO VOR-DME"},
{"type":"NDB","hdg_t":276.3,"dist_nm":96,"freq":415,"lat":34.25236111,"lon":-84.48761111,"rng_nm":50,"alt_fmsl":0,"id":"DJD","desc":"CHERO NDB"},
{"type":"NDB","hdg_t":46.2,"dist_nm":96,"freq":260,"lat":35.19147222,"lon":-81.15786111,"rng_nm":50,"alt_fmsl":0,"id":"GHJ","desc":"STONIA NDB"},
{"type":"VOR","hdg_t":254,"dist_nm":97.2,"freq":116.9,"lat":33.62908333,"lon":-84.43508333,"rng_nm":130,"alt_fmsl":1000,"id":"ATL","desc":"ATLANTA VORTAC"},
{"type":"SDME","hdg_t":264.3,"dist_nm":97.3,"freq":113,"lat":33.91464700,"lon":-84.50730600,"rng_nm":25,"alt_fmsl":1008,"id":"DOB","desc":"DOBBINS TACAN"},
{"type":"NDB","hdg_t":193.1,"dist_nm":98.7,"freq":251,"lat":32.48383333,"lon":-83.01094444,"rng_nm":50,"alt_fmsl":0,"id":"DB","desc":"CREKE NDB"},
{"type":"NDB","hdg_t":237.3,"dist_nm":99.2,"freq":412,"lat":33.18430556,"lon":-84.22750000,"rng_nm":50,"alt_fmsl":0,"id":"JHH","desc":"GRIFFIN NDB"},
{"type":"NDB","hdg_t":150.1,"dist_nm":99.2,"freq":245,"lat":32.64916667,"lon":-81.59427778,"rng_nm":50,"alt_fmsl":0,"id":"JYL","desc":"SYLVANIA NDB"},
{"type":"VOR","hdg_t":213.1,"dist_nm":99.8,"freq":114.2,"lat":32.69119444,"lon":-83.64719444,"rng_nm":130,"alt_fmsl":381,"id":"MCN","desc":"MACON VORTAC"}
]
}
