{"success":true,"source":"xp2csv.pl","last_updated":"2013/11/08 14:53:21 UTC"
,"icao":"0C5","name":"Canadian Lakes","lat":43.57641694,"lon":-85.28059056,"rwys":1,"ils":0,"index":1548642,"path":"w090n40/w086n43"
,"runways":[
{"len_m":1158,"wid_m":30.48,"hdg":175,"surf":"Turf/grass","rwy1":"18","lat1":43.58161591,"lon1":-85.28109238,"rwy2":"36","lat2":43.57121797,"lon2":-85.28008874}
]
,"navaids":[
{"type":"VOR","hdg_t":269.8,"dist_nm":18.9,"freq":117.6,"lat":43.57486111,"lon":-85.71616667,"rng_nm":40,"alt_fmsl":920,"id":"HIC","desc":"WHITE CLOUD VOR-DME"},
{"type":"VOR","hdg_t":83.1,"dist_nm":23.8,"freq":110.6,"lat":43.62283333,"lon":-84.73727778,"rng_nm":40,"alt_fmsl":752,"id":"MOP","desc":"MOUNT PLEASANT VOR-DME"},
{"type":"NDB","hdg_t":186,"dist_nm":41,"freq":263,"lat":42.89563889,"lon":-85.37858333,"rng_nm":50,"alt_fmsl":0,"id":"GR","desc":"KNOBS NDB"},
{"type":"NDB","hdg_t":343.8,"dist_nm":41.2,"freq":336,"lat":44.23708333,"lon":-85.54736111,"rng_nm":50,"alt_fmsl":0,"id":"MA","desc":"WEXOR NDB"},
{"type":"VOR","hdg_t":233.9,"dist_nm":41.2,"freq":115.2,"lat":43.16925000,"lon":-86.03938889,"rng_nm":40,"alt_fmsl":659,"id":"MKG","desc":"MUSKEGON VORTAC"},
{"type":"NDB","hdg_t":55.7,"dist_nm":42.2,"freq":209,"lat":43.97019444,"lon":-84.47516667,"rng_nm":50,"alt_fmsl":0,"id":"GDW","desc":"WIGGINS NDB"},
{"type":"NDB","hdg_t":235.2,"dist_nm":47.5,"freq":219,"lat":43.12113889,"lon":-86.16858333,"rng_nm":50,"alt_fmsl":0,"id":"MK","desc":"MUSKO NDB"},
{"type":"VOR","hdg_t":191.4,"dist_nm":48.3,"freq":115.95,"lat":42.78672222,"lon":-85.49708333,"rng_nm":130,"alt_fmsl":803,"id":"GRR","desc":"GRAND RAPIDS VOR-DME"},
{"type":"NDB","hdg_t":97.7,"dist_nm":48.5,"freq":257,"lat":43.46150000,"lon":-84.17983333,"rng_nm":50,"alt_fmsl":0,"id":"MB","desc":"OLSTE NDB"},
{"type":"VOR","hdg_t":92.5,"dist_nm":52.5,"freq":112.9,"lat":43.53166667,"lon":-84.07730556,"rng_nm":40,"alt_fmsl":663,"id":"MBS","desc":"SAGINAW VOR-DME"},
{"type":"VOR","hdg_t":29.3,"dist_nm":53.9,"freq":111.6,"lat":44.35888889,"lon":-84.66572222,"rng_nm":25,"alt_fmsl":1145,"id":"HTL","desc":"HOUGHTON LAKE VOR-DME"},
{"type":"NDB","hdg_t":295.6,"dist_nm":54.2,"freq":341,"lat":43.96316667,"lon":-86.40950000,"rng_nm":50,"alt_fmsl":0,"id":"LDM","desc":"LUDINGTON NDB"},
{"type":"NDB","hdg_t":318.3,"dist_nm":55.9,"freq":254,"lat":44.27075000,"lon":-86.14286111,"rng_nm":50,"alt_fmsl":0,"id":"MB","desc":"JEPOT NDB"},
{"type":"VOR","hdg_t":153.3,"dist_nm":57.5,"freq":110.8,"lat":42.71738889,"lon":-84.69750000,"rng_nm":40,"alt_fmsl":888,"id":"LAN","desc":"LANSING VORTAC"},
{"type":"NDB","hdg_t":144,"dist_nm":58.9,"freq":206,"lat":42.77755800,"lon":-84.49758600,"rng_nm":25,"alt_fmsl":841,"id":"LA","desc":"ARTDA NDB"},
{"type":"VOR","hdg_t":314.9,"dist_nm":59.3,"freq":111.4,"lat":44.27063889,"lon":-86.25405556,"rng_nm":40,"alt_fmsl":620,"id":"MBL","desc":"MANISTEE VOR-DME"},
{"type":"VOR","hdg_t":49.5,"dist_nm":62.1,"freq":113.2,"lat":44.24291667,"lon":-84.18377778,"rng_nm":25,"alt_fmsl":884,"id":"BXZ","desc":"PEACH LAKE VOR-DME"},
{"type":"NDB","hdg_t":51.7,"dist_nm":65.7,"freq":236,"lat":44.24863100,"lon":-84.08388600,"rng_nm":25,"alt_fmsl":800,"id":"BHW","desc":"HARDWOOD NDB"},
{"type":"VOR","hdg_t":350,"dist_nm":66.5,"freq":114.6,"lat":44.66791667,"lon":-85.55002778,"rng_nm":130,"alt_fmsl":912,"id":"TVC","desc":"TRAVERSE CITY VORTAC"},
{"type":"NDB","hdg_t":354.7,"dist_nm":69.7,"freq":365,"lat":44.73450000,"lon":-85.42927778,"rng_nm":50,"alt_fmsl":0,"id":"TV","desc":"GWENN NDB"},
{"type":"VOR","hdg_t":19.5,"dist_nm":70.4,"freq":109.8,"lat":44.68163889,"lon":-84.72894444,"rng_nm":25,"alt_fmsl":0,"id":"CGG","desc":"GRAYLING VOR"},
{"type":"NDB","hdg_t":120.4,"dist_nm":71,"freq":269,"lat":42.96811111,"lon":-83.89008333,"rng_nm":50,"alt_fmsl":0,"id":"FN","desc":"PETLI NDB"},
{"type":"NDB","hdg_t":176.6,"dist_nm":72.9,"freq":272,"lat":42.36200000,"lon":-85.18450000,"rng_nm":50,"alt_fmsl":0,"id":"BT","desc":"BATOL NDB"},
{"type":"NDB","hdg_t":15.3,"dist_nm":73,"freq":359,"lat":44.74991667,"lon":-84.82827778,"rng_nm":50,"alt_fmsl":0,"id":"GYG","desc":"GRAYLING NDB"},
{"type":"VOR","hdg_t":208.8,"dist_nm":75.8,"freq":112.1,"lat":42.46602778,"lon":-86.10480556,"rng_nm":130,"alt_fmsl":640,"id":"PMM","desc":"PULLMAN VOR-DME"},
{"type":"VOR","hdg_t":179,"dist_nm":75.9,"freq":109.4,"lat":42.30980556,"lon":-85.25233333,"rng_nm":25,"alt_fmsl":922,"id":"BTL","desc":"BATTLE CREEK VORTAC"},
{"type":"VOR","hdg_t":118,"dist_nm":76.5,"freq":116.9,"lat":42.96677778,"lon":-83.74697222,"rng_nm":130,"alt_fmsl":772,"id":"FNT","desc":"FLINT VORTAC"},
{"type":"NDB","hdg_t":1.2,"dist_nm":79.3,"freq":251,"lat":44.89938889,"lon":-85.23966667,"rng_nm":50,"alt_fmsl":0,"id":"CXK","desc":"CLAM LAKE NDB"},
{"type":"NDB","hdg_t":134.3,"dist_nm":80.3,"freq":243,"lat":42.63341667,"lon":-83.98252778,"rng_nm":50,"alt_fmsl":0,"id":"OZW","desc":"HOWELL NDB"},
{"type":"VOR","hdg_t":188.6,"dist_nm":81.2,"freq":109,"lat":42.23700000,"lon":-85.55316667,"rng_nm":40,"alt_fmsl":870,"id":"AZO","desc":"KALAMAZOO VOR-DME"},
{"type":"NDB","hdg_t":151.5,"dist_nm":85.5,"freq":212,"lat":42.31783333,"lon":-84.36555556,"rng_nm":50,"alt_fmsl":0,"id":"JX","desc":"JAKSO NDB"},
{"type":"VOR","hdg_t":155,"dist_nm":86.9,"freq":109.6,"lat":42.25925000,"lon":-84.45855556,"rng_nm":40,"alt_fmsl":995,"id":"JXN","desc":"JACKSON VOR-DME"},
{"type":"NDB","hdg_t":187.3,"dist_nm":87.3,"freq":371,"lat":42.13105556,"lon":-85.52975000,"rng_nm":50,"alt_fmsl":0,"id":"AZ","desc":"AUSTN NDB"},
{"type":"NDB","hdg_t":13.1,"dist_nm":88.6,"freq":375,"lat":45.01455556,"lon":-84.80797222,"rng_nm":50,"alt_fmsl":0,"id":"GL","desc":"BANGU NDB"},
{"type":"VOR","hdg_t":15.8,"dist_nm":89.6,"freq":109.2,"lat":45.01250000,"lon":-84.70427778,"rng_nm":40,"alt_fmsl":1318,"id":"GLR","desc":"GAYLORD VOR-DME"},
{"type":"VOR","hdg_t":123.7,"dist_nm":93,"freq":111,"lat":42.70086111,"lon":-83.53275000,"rng_nm":40,"alt_fmsl":1148,"id":"PSI","desc":"PONTIAC VORTAC"},
{"type":"VOR","hdg_t":203.6,"dist_nm":93.5,"freq":116.6,"lat":42.14441667,"lon":-86.12269444,"rng_nm":40,"alt_fmsl":795,"id":"ELX","desc":"KEELER VOR-DME"},
{"type":"VOR","hdg_t":165.7,"dist_nm":93.6,"freq":111.2,"lat":42.06250000,"lon":-84.76513889,"rng_nm":40,"alt_fmsl":1040,"id":"LFD","desc":"LITCHFIELD VOR-DME"},
{"type":"NDB","hdg_t":9,"dist_nm":96.6,"freq":263,"lat":45.16670000,"lon":-84.92192200,"rng_nm":25,"alt_fmsl":707,"id":"BFA","desc":"BOYNE FALLS NDB"},
{"type":"VOR","hdg_t":56.6,"dist_nm":97,"freq":116.1,"lat":44.44913889,"lon":-83.39427778,"rng_nm":130,"alt_fmsl":625,"id":"ASP","desc":"AU SABLE VOR-DME"},
{"type":"NDB","hdg_t":188.1,"dist_nm":98,"freq":407,"lat":41.95838889,"lon":-85.59166667,"rng_nm":50,"alt_fmsl":0,"id":"HAI","desc":"THREE RIVERS NDB"},
{"type":"NDB","hdg_t":208,"dist_nm":98.1,"freq":397,"lat":42.12680556,"lon":-86.31333333,"rng_nm":50,"alt_fmsl":0,"id":"BE","desc":"MALLY NDB"}
]
}
