{"success":true,"source":"xp2csv.pl","last_updated":"2013/11/08 14:53:21 UTC"
,"icao":"0GA9","name":"Roberta Industrial Park","lat":32.71388888,"lon":-84.02750001,"rwys":1,"ils":0,"index":1564331,"path":"w090n30/w085n32"
,"runways":[
{"len_m":1130,"wid_m":30.48,"hdg":68,"surf":"Turf/grass","rwy1":"07","lat1":32.71198793,"lon1":-84.03309202,"rwy2":"25","lat2":32.71578983,"lon2":-84.02190800}
]
,"navaids":[
{"type":"NDB","hdg_t":326.6,"dist_nm":14.7,"freq":339,"lat":32.91902778,"lon":-84.18741667,"rng_nm":50,"alt_fmsl":0,"id":"OP","desc":"YATES NDB"},
{"type":"NDB","hdg_t":104.3,"dist_nm":16.4,"freq":290,"lat":32.64533300,"lon":-83.71325000,"rng_nm":25,"alt_fmsl":0,"id":"MC","desc":"SOFKE NDB"},
{"type":"VOR","hdg_t":93.9,"dist_nm":19.3,"freq":114.2,"lat":32.69119444,"lon":-83.64719444,"rng_nm":130,"alt_fmsl":381,"id":"MCN","desc":"MACON VORTAC"},
{"type":"NDB","hdg_t":139,"dist_nm":20.2,"freq":350,"lat":32.45741667,"lon":-83.76572222,"rng_nm":50,"alt_fmsl":0,"id":"BEP","desc":"BAY CREEK NDB"},
{"type":"NDB","hdg_t":177.1,"dist_nm":20.7,"freq":426,"lat":32.36738889,"lon":-84.00741667,"rng_nm":50,"alt_fmsl":0,"id":"IZS","desc":"MONTEZUMA NDB"},
{"type":"NDB","hdg_t":340.3,"dist_nm":29.9,"freq":412,"lat":33.18430556,"lon":-84.22750000,"rng_nm":50,"alt_fmsl":0,"id":"JHH","desc":"GRIFFIN NDB"},
{"type":"NDB","hdg_t":187.2,"dist_nm":32.5,"freq":242,"lat":32.17447222,"lon":-84.10816667,"rng_nm":50,"alt_fmsl":0,"id":"LKG","desc":"LINDBERGH NDB"},
{"type":"VOR","hdg_t":137.9,"dist_nm":40.2,"freq":116.5,"lat":32.21344444,"lon":-83.49725000,"rng_nm":40,"alt_fmsl":300,"id":"VNA","desc":"VIENNA VORTAC"},
{"type":"NDB","hdg_t":326.7,"dist_nm":42,"freq":316,"lat":33.30063889,"lon":-84.48641667,"rng_nm":50,"alt_fmsl":0,"id":"FF","desc":"PECAT NDB"},
{"type":"NDB","hdg_t":280.4,"dist_nm":43.4,"freq":272,"lat":32.84286111,"lon":-84.87266667,"rng_nm":50,"alt_fmsl":0,"id":"PIM","desc":"PINE MOUNTAIN NDB"},
{"type":"NDB","hdg_t":168.8,"dist_nm":43.6,"freq":400,"lat":31.99783333,"lon":-83.86180556,"rng_nm":50,"alt_fmsl":0,"id":"OHY","desc":"CONEY NDB"},
{"type":"NDB","hdg_t":313.4,"dist_nm":47.4,"freq":234,"lat":33.25694444,"lon":-84.71327778,"rng_nm":50,"alt_fmsl":0,"id":"EQQ","desc":"COWETA CO NDB"},
{"type":"VOR","hdg_t":263.5,"dist_nm":50.4,"freq":117.1,"lat":32.61525000,"lon":-85.01763889,"rng_nm":40,"alt_fmsl":630,"id":"CSG","desc":"COLUMBUS VORTAC"},
{"type":"NDB","hdg_t":58.8,"dist_nm":51,"freq":380,"lat":33.15180556,"lon":-83.15958333,"rng_nm":50,"alt_fmsl":0,"id":"UMB","desc":"CULVR NDB"},
{"type":"NDB","hdg_t":104.6,"dist_nm":53.3,"freq":251,"lat":32.48383333,"lon":-83.01094444,"rng_nm":50,"alt_fmsl":0,"id":"DB","desc":"CREKE NDB"},
{"type":"NDB","hdg_t":253.3,"dist_nm":53.7,"freq":355,"lat":32.45197222,"lon":-85.04194444,"rng_nm":50,"alt_fmsl":0,"id":"CS","desc":"FENIX NDB"},
{"type":"VOR","hdg_t":245.2,"dist_nm":54,"freq":111.4,"lat":32.33236111,"lon":-84.99325000,"rng_nm":25,"alt_fmsl":250,"id":"LSF","desc":"LAWSON VOR-DME"},
{"type":"NDB","hdg_t":12.6,"dist_nm":56.2,"freq":370,"lat":33.62983333,"lon":-83.78211111,"rng_nm":50,"alt_fmsl":0,"id":"VOF","desc":"ALCOVY NDB"},
{"type":"NDB","hdg_t":127.8,"dist_nm":56.3,"freq":366,"lat":32.13419444,"lon":-83.15391667,"rng_nm":50,"alt_fmsl":0,"id":"EZM","desc":"EASTMAN NDB"},
{"type":"NDB","hdg_t":243.7,"dist_nm":56.4,"freq":335,"lat":32.29319444,"lon":-85.02327778,"rng_nm":50,"alt_fmsl":0,"id":"AWS","desc":"LAWSON NDB"},
{"type":"NDB","hdg_t":345.7,"dist_nm":57.5,"freq":266,"lat":33.64538889,"lon":-84.31125000,"rng_nm":50,"alt_fmsl":0,"id":"BR","desc":"REDAN NDB"},
{"type":"NDB","hdg_t":71.4,"dist_nm":57.9,"freq":360,"lat":33.01694444,"lon":-82.93941667,"rng_nm":50,"alt_fmsl":0,"id":"HIT","desc":"KAOLIN NDB"},
{"type":"VOR","hdg_t":339.5,"dist_nm":58.5,"freq":116.9,"lat":33.62908333,"lon":-84.43508333,"rng_nm":130,"alt_fmsl":1000,"id":"ATL","desc":"ATLANTA VORTAC"},
{"type":"VOR","hdg_t":98.1,"dist_nm":61.3,"freq":113.1,"lat":32.56344444,"lon":-82.83000000,"rng_nm":40,"alt_fmsl":265,"id":"DBN","desc":"DUBLIN VORTAC"},
{"type":"VOR","hdg_t":288.9,"dist_nm":62.8,"freq":115.6,"lat":33.04911111,"lon":-85.20622222,"rng_nm":130,"alt_fmsl":798,"id":"LGC","desc":"LAGRANGE VORTAC"},
{"type":"NDB","hdg_t":13.7,"dist_nm":63.1,"freq":392,"lat":33.73761111,"lon":-83.72683333,"rng_nm":50,"alt_fmsl":0,"id":"JNM","desc":"MONROE NDB"},
{"type":"VOR","hdg_t":192.1,"dist_nm":64.8,"freq":116.1,"lat":31.65522222,"lon":-84.29305556,"rng_nm":130,"alt_fmsl":283,"id":"PZD","desc":"PECAN VORTAC"},
{"type":"NDB","hdg_t":122.2,"dist_nm":68.9,"freq":280,"lat":32.09461111,"lon":-82.88375000,"rng_nm":50,"alt_fmsl":0,"id":"MQW","desc":"MC RAE NDB"},
{"type":"NDB","hdg_t":40,"dist_nm":69.1,"freq":397,"lat":33.59489400,"lon":-83.14072200,"rng_nm":25,"alt_fmsl":662,"id":"EJK","desc":"GREENSBORO NDB"},
{"type":"NDB","hdg_t":334,"dist_nm":69.9,"freq":344,"lat":33.76238889,"lon":-84.63886111,"rng_nm":50,"alt_fmsl":0,"id":"FT","desc":"FLANC NDB"},
{"type":"VOR","hdg_t":348.9,"dist_nm":70.8,"freq":116.6,"lat":33.87563889,"lon":-84.29880556,"rng_nm":40,"alt_fmsl":970,"id":"PDK","desc":"PEACHTREE VOR-DME"},
{"type":"VOR","hdg_t":231.1,"dist_nm":72.3,"freq":109.2,"lat":31.95025000,"lon":-85.13047222,"rng_nm":40,"alt_fmsl":280,"id":"EUF","desc":"EUFAULA VORTAC"},
{"type":"NDB","hdg_t":260.6,"dist_nm":72.4,"freq":423,"lat":32.50925000,"lon":-85.43722222,"rng_nm":50,"alt_fmsl":0,"id":"AU","desc":"OPOLE NDB"},
{"type":"NDB","hdg_t":312.8,"dist_nm":75.4,"freq":278,"lat":33.56577778,"lon":-85.13088889,"rng_nm":50,"alt_fmsl":0,"id":"GPQ","desc":"CARROLLTON NDB"},
{"type":"NDB","hdg_t":41.9,"dist_nm":75.4,"freq":353,"lat":33.64613889,"lon":-83.02080556,"rng_nm":50,"alt_fmsl":0,"id":"VV","desc":"JUNNE NDB"},
{"type":"NDB","hdg_t":150.1,"dist_nm":75.8,"freq":362,"lat":31.61297222,"lon":-83.29072222,"rng_nm":50,"alt_fmsl":0,"id":"SUR","desc":"FITZGERALD NDB"},
{"type":"SDME","hdg_t":341.5,"dist_nm":75.8,"freq":113,"lat":33.91464700,"lon":-84.50730600,"rng_nm":25,"alt_fmsl":1008,"id":"DOB","desc":"DOBBINS TACAN"},
{"type":"NDB","hdg_t":16.6,"dist_nm":76.3,"freq":404,"lat":33.93536111,"lon":-83.58947222,"rng_nm":50,"alt_fmsl":0,"id":"BMW","desc":"BARROW COUNTY NDB"},
{"type":"NDB","hdg_t":189.6,"dist_nm":76.3,"freq":227,"lat":31.45613889,"lon":-84.27616667,"rng_nm":50,"alt_fmsl":0,"id":"AB","desc":"PUTNY NDB"},
{"type":"NDB","hdg_t":5.9,"dist_nm":78.6,"freq":419,"lat":34.01994444,"lon":-83.86283333,"rng_nm":50,"alt_fmsl":0,"id":"TX","desc":"GWNET NDB"},
{"type":"NDB","hdg_t":91.6,"dist_nm":79.7,"freq":309,"lat":32.66652778,"lon":-82.45269444,"rng_nm":50,"alt_fmsl":0,"id":"EEX","desc":"EMANUEL CO NDB"},
{"type":"VOR","hdg_t":160.2,"dist_nm":81.7,"freq":112.5,"lat":31.42866667,"lon":-83.48886111,"rng_nm":25,"alt_fmsl":0,"id":"IFM","desc":"TIFT MYERS VOR"},
{"type":"VOR","hdg_t":25.3,"dist_nm":81.8,"freq":109.6,"lat":33.94758333,"lon":-83.32475000,"rng_nm":130,"alt_fmsl":793,"id":"AHN","desc":"ATHENS VORTAC"},
{"type":"VOR","hdg_t":261,"dist_nm":84.3,"freq":117.3,"lat":32.48486111,"lon":-85.66930556,"rng_nm":40,"alt_fmsl":490,"id":"TGE","desc":"TUSKEGEE VOR-DME"},
{"type":"NDB","hdg_t":28.5,"dist_nm":84.5,"freq":221,"lat":33.95138889,"lon":-83.21958333,"rng_nm":50,"alt_fmsl":0,"id":"BJT","desc":"BULLDOG NDB"},
{"type":"NDB","hdg_t":17.3,"dist_nm":84.6,"freq":244,"lat":34.06222222,"lon":-83.52094444,"rng_nm":50,"alt_fmsl":0,"id":"DDA","desc":"COMMERCE NDB"},
{"type":"NDB","hdg_t":208.3,"dist_nm":85.4,"freq":344,"lat":31.45569444,"lon":-84.81911111,"rng_nm":50,"alt_fmsl":0,"id":"IWJ","desc":"BLAAK NDB"},
{"type":"NDB","hdg_t":125,"dist_nm":86.1,"freq":414,"lat":31.88019444,"lon":-82.64736111,"rng_nm":50,"alt_fmsl":0,"id":"AZE","desc":"HAZLEHURST NDB"},
{"type":"NDB","hdg_t":159.6,"dist_nm":86.1,"freq":409,"lat":31.36327778,"lon":-83.44402778,"rng_nm":50,"alt_fmsl":0,"id":"TM","desc":"TIFTO NDB"},
{"type":"NDB","hdg_t":55,"dist_nm":86.4,"freq":341,"lat":33.53327778,"lon":-82.61436111,"rng_nm":50,"alt_fmsl":0,"id":"AA","desc":"CEDAR NDB"},
{"type":"NDB","hdg_t":43.5,"dist_nm":88.1,"freq":435,"lat":33.77486111,"lon":-82.81319444,"rng_nm":50,"alt_fmsl":0,"id":"IIY","desc":"WASHINGTON-WILKE NDB"},
{"type":"NDB","hdg_t":3.8,"dist_nm":89.4,"freq":365,"lat":34.20338889,"lon":-83.90630556,"rng_nm":50,"alt_fmsl":0,"id":"FKV","desc":"FLOWERY BRANCH NDB"},
{"type":"NDB","hdg_t":186.8,"dist_nm":90.3,"freq":369,"lat":31.21463889,"lon":-84.23686111,"rng_nm":50,"alt_fmsl":0,"id":"CXU","desc":"CAMILLA NDB"},
{"type":"NDB","hdg_t":56.9,"dist_nm":90.4,"freq":333,"lat":33.52740600,"lon":-82.51563900,"rng_nm":25,"alt_fmsl":452,"id":"HQU","desc":"THOMSON MCDUFFIE NDB"},
{"type":"NDB","hdg_t":108,"dist_nm":92.5,"freq":372,"lat":32.22325000,"lon":-82.29816667,"rng_nm":50,"alt_fmsl":0,"id":"UQN","desc":"ONYUN NDB"},
{"type":"NDB","hdg_t":346,"dist_nm":94.9,"freq":415,"lat":34.25236111,"lon":-84.48761111,"rng_nm":50,"alt_fmsl":0,"id":"DJD","desc":"CHERO NDB"},
{"type":"NDB","hdg_t":144,"dist_nm":96.4,"freq":390,"lat":31.40483333,"lon":-82.92375000,"rng_nm":50,"alt_fmsl":0,"id":"OWC","desc":"COFFEE CO NDB"},
{"type":"NDB","hdg_t":335.5,"dist_nm":97.9,"freq":308,"lat":34.19958333,"lon":-84.84311111,"rng_nm":50,"alt_fmsl":0,"id":"EVZ","desc":"CARTERSVILLE NDB"},
{"type":"NDB","hdg_t":276.3,"dist_nm":98.2,"freq":382,"lat":32.87941667,"lon":-85.96113889,"rng_nm":50,"alt_fmsl":0,"id":"DER","desc":"ALEXANDER CITY NDB"},
{"type":"VOR","hdg_t":173.2,"dist_nm":98.3,"freq":108.8,"lat":31.08227778,"lon":-83.80422222,"rng_nm":40,"alt_fmsl":290,"id":"MGR","desc":"MOULTRIE VOR-DME"}
]
}
