{"success":true,"source":"xp2csv.pl","last_updated":"2013/11/08 14:53:21 UTC"
,"icao":"0IN1","name":"Snider Field","lat":38.50004722,"lon":-87.59585723,"rwys":1,"ils":0,"index":1515553,"path":"w090n30/w088n38"
,"runways":[
{"len_m":609,"wid_m":22.86,"hdg":149,"surf":"Turf/grass","rwy1":"15","lat1":38.50242271,"lon1":-87.59760969,"rwy2":"33","lat2":38.49767173,"lon2":-87.59410477}
]
,"navaids":[
{"type":"NDB","hdg_t":317.6,"dist_nm":9,"freq":524,"lat":38.61175000,"lon":-87.72550000,"rng_nm":50,"alt_fmsl":0,"id":"AJG","desc":"MOUNT CARMEL NDB"},
{"type":"NDB","hdg_t":9.3,"dist_nm":11.5,"freq":251,"lat":38.69075000,"lon":-87.55577778,"rng_nm":50,"alt_fmsl":0,"id":"OEA","desc":"VINCENNES NDB"},
{"type":"VOR","hdg_t":358.6,"dist_nm":16.1,"freq":108.8,"lat":38.76986111,"lon":-87.60383333,"rng_nm":25,"alt_fmsl":430,"id":"LWV","desc":"LAWRENCEVILLE VOR-DME"},
{"type":"VOR","hdg_t":267.9,"dist_nm":23,"freq":116.6,"lat":38.48519444,"lon":-88.08580556,"rng_nm":40,"alt_fmsl":540,"id":"SAM","desc":"SAMSVILLE VOR-DME"},
{"type":"NDB","hdg_t":161.8,"dist_nm":23.5,"freq":219,"lat":38.12672222,"lon":-87.44072222,"rng_nm":50,"alt_fmsl":0,"id":"EV","desc":"VICCI NDB"},
{"type":"NDB","hdg_t":61.5,"dist_nm":24.7,"freq":212,"lat":38.69605556,"lon":-87.13261111,"rng_nm":50,"alt_fmsl":0,"id":"DCY","desc":"WASHINGTON NDB"},
{"type":"NDB","hdg_t":173.6,"dist_nm":27.7,"freq":284,"lat":38.04013889,"lon":-87.53094444,"rng_nm":50,"alt_fmsl":0,"id":"PDW","desc":"EVANSVILLE NDB"},
{"type":"NDB","hdg_t":295.8,"dist_nm":30.1,"freq":272,"lat":38.71811111,"lon":-88.17280556,"rng_nm":50,"alt_fmsl":0,"id":"OLY","desc":"OLNEY NDB"},
{"type":"NDB","hdg_t":356,"dist_nm":30.8,"freq":391,"lat":39.01408333,"lon":-87.64161111,"rng_nm":50,"alt_fmsl":0,"id":"PLX","desc":"PALESTINE NDB"},
{"type":"VOR","hdg_t":355.4,"dist_nm":31.1,"freq":108.4,"lat":39.01763889,"lon":-87.64883333,"rng_nm":25,"alt_fmsl":452,"id":"RSV","desc":"CRAWFORD CO VOR-DME"},
{"type":"VOR","hdg_t":116.1,"dist_nm":33.6,"freq":109.2,"lat":38.25050000,"lon":-86.95619444,"rng_nm":25,"alt_fmsl":517,"id":"HNB","desc":"HUNTINGBURG VOR-DME"},
{"type":"NDB","hdg_t":225.5,"dist_nm":34.7,"freq":332,"lat":38.09350000,"lon":-88.11963889,"rng_nm":50,"alt_fmsl":0,"id":"CUL","desc":"CARMI NDB"},
{"type":"VOR","hdg_t":192.9,"dist_nm":35.1,"freq":113.3,"lat":37.92833333,"lon":-87.76238889,"rng_nm":130,"alt_fmsl":384,"id":"PXV","desc":"POCKET CITY VORTAC"},
{"type":"NDB","hdg_t":10.7,"dist_nm":37.4,"freq":326,"lat":39.11355556,"lon":-87.44680556,"rng_nm":50,"alt_fmsl":0,"id":"SIV","desc":"SULLIVAN NDB"},
{"type":"NDB","hdg_t":259.6,"dist_nm":39,"freq":257,"lat":38.38005556,"lon":-88.40977778,"rng_nm":50,"alt_fmsl":0,"id":"FWC","desc":"WAYNE CO NDB"},
{"type":"NDB","hdg_t":284.3,"dist_nm":41.5,"freq":353,"lat":38.66893600,"lon":-88.45310300,"rng_nm":25,"alt_fmsl":472,"id":"FOA","desc":"ELM RIVER NDB"},
{"type":"VOR","hdg_t":301.4,"dist_nm":48.6,"freq":109,"lat":38.92036111,"lon":-88.48180556,"rng_nm":40,"alt_fmsl":540,"id":"BIB","desc":"BIBLE GROVE VORTAC"},
{"type":"VOR","hdg_t":155.6,"dist_nm":49.6,"freq":108.6,"lat":37.74355556,"lon":-87.16597222,"rng_nm":25,"alt_fmsl":401,"id":"OWB","desc":"OWENSBORO VOR-DME"},
{"type":"NDB","hdg_t":87.7,"dist_nm":50.3,"freq":368,"lat":38.52783300,"lon":-86.52779400,"rng_nm":25,"alt_fmsl":615,"id":"RRJ","desc":"ORANJ NDB"},
{"type":"NDB","hdg_t":123.9,"dist_nm":51.7,"freq":206,"lat":38.01416667,"lon":-86.69019444,"rng_nm":50,"alt_fmsl":0,"id":"TEL","desc":"TELL CITY NDB"},
{"type":"NDB","hdg_t":338.6,"dist_nm":51.8,"freq":359,"lat":39.30522222,"lon":-88.00194444,"rng_nm":50,"alt_fmsl":0,"id":"CZB","desc":"CASEY NDB"},
{"type":"NDB","hdg_t":9.8,"dist_nm":54,"freq":245,"lat":39.38783333,"lon":-87.39769444,"rng_nm":50,"alt_fmsl":0,"id":"HU","desc":"YINNO NDB"},
{"type":"NDB","hdg_t":158.2,"dist_nm":55.7,"freq":341,"lat":37.63561111,"lon":-87.16222222,"rng_nm":50,"alt_fmsl":0,"id":"OW","desc":"HIGUY NDB"},
{"type":"VOR","hdg_t":262.1,"dist_nm":57.7,"freq":113.8,"lat":38.36194444,"lon":-88.80733333,"rng_nm":40,"alt_fmsl":558,"id":"VNN","desc":"MT VERNON VOR-DME"},
{"type":"NDB","hdg_t":69.1,"dist_nm":58.1,"freq":344,"lat":38.83963889,"lon":-86.43636111,"rng_nm":50,"alt_fmsl":0,"id":"BFR","desc":"BEDFORD NDB"},
{"type":"VOR","hdg_t":49.7,"dist_nm":60.1,"freq":110.2,"lat":39.14383333,"lon":-86.61302778,"rng_nm":40,"alt_fmsl":845,"id":"OOM","desc":"HOOSIER VORTAC"},
{"type":"NDB","hdg_t":227.7,"dist_nm":61,"freq":230,"lat":37.81158333,"lon":-88.54533333,"rng_nm":50,"alt_fmsl":0,"id":"HSB","desc":"HARRISBURG-RALEIG NDB"},
{"type":"VOR","hdg_t":15.1,"dist_nm":61.4,"freq":115.3,"lat":39.48894444,"lon":-87.24902778,"rng_nm":130,"alt_fmsl":606,"id":"TTH","desc":"TERRE HAUTE VORTAC"},
{"type":"NDB","hdg_t":334.6,"dist_nm":62.6,"freq":347,"lat":39.44241667,"lon":-88.17347222,"rng_nm":50,"alt_fmsl":0,"id":"MT","desc":"ZEBRE NDB"},
{"type":"NDB","hdg_t":278,"dist_nm":65.1,"freq":400,"lat":38.64402778,"lon":-88.96736111,"rng_nm":50,"alt_fmsl":0,"id":"SLO","desc":"SALEM NDB"},
{"type":"VOR","hdg_t":331.3,"dist_nm":66.9,"freq":109.4,"lat":39.47800000,"lon":-88.28605556,"rng_nm":40,"alt_fmsl":720,"id":"MTO","desc":"MATTOON VOR-DME"},
{"type":"VOR","hdg_t":166.6,"dist_nm":68.8,"freq":109.8,"lat":37.38241667,"lon":-87.26369444,"rng_nm":40,"alt_fmsl":450,"id":"CCT","desc":"CENTRAL CITY VORTAC"},
{"type":"NDB","hdg_t":357.1,"dist_nm":71.9,"freq":341,"lat":39.69836111,"lon":-87.67419444,"rng_nm":50,"alt_fmsl":0,"id":"PRG","desc":"PARIS NDB"},
{"type":"VOR","hdg_t":119.1,"dist_nm":73.5,"freq":108.2,"lat":37.89405556,"lon":-86.24452778,"rng_nm":40,"alt_fmsl":0,"id":"MYS","desc":"MYSTIC VOR"},
{"type":"VOR","hdg_t":266.7,"dist_nm":73.8,"freq":115,"lat":38.42000000,"lon":-89.15900000,"rng_nm":130,"alt_fmsl":546,"id":"ENL","desc":"CENTRALIA VORTAC"},
{"type":"NDB","hdg_t":239,"dist_nm":76.1,"freq":382,"lat":37.83916667,"lon":-88.97077778,"rng_nm":50,"alt_fmsl":0,"id":"MW","desc":"JONNY NDB"},
{"type":"NDB","hdg_t":164.6,"dist_nm":79,"freq":362,"lat":37.22700000,"lon":-87.15916667,"rng_nm":50,"alt_fmsl":0,"id":"GMH","desc":"MUHLENBERG NDB"},
{"type":"NDB","hdg_t":73.3,"dist_nm":79.3,"freq":308,"lat":38.86744444,"lon":-85.97302778,"rng_nm":50,"alt_fmsl":0,"id":"EQZ","desc":"CAPTAIN NDB"},
{"type":"NDB","hdg_t":313.3,"dist_nm":79.7,"freq":365,"lat":39.40669444,"lon":-88.84369444,"rng_nm":50,"alt_fmsl":0,"id":"SYZ","desc":"SHELBYVILLE NDB"},
{"type":"VOR","hdg_t":236.7,"dist_nm":80.5,"freq":110.4,"lat":37.75425000,"lon":-89.01166667,"rng_nm":40,"alt_fmsl":468,"id":"MWA","desc":"MARION VOR-DME"},
{"type":"NDB","hdg_t":26.6,"dist_nm":81.5,"freq":521,"lat":39.71408333,"lon":-86.80602778,"rng_nm":50,"alt_fmsl":0,"id":"TVX","desc":"GREENCASTLE NDB"},
{"type":"VOR","hdg_t":296.3,"dist_nm":81.6,"freq":114.3,"lat":39.09369444,"lon":-89.16247222,"rng_nm":40,"alt_fmsl":604,"id":"VLA","desc":"VANDALIA VORTAC"},
{"type":"NDB","hdg_t":112.4,"dist_nm":83.1,"freq":396,"lat":37.95869444,"lon":-85.97663889,"rng_nm":50,"alt_fmsl":0,"id":"GOI","desc":"GODMAN NDB"},
{"type":"VOR","hdg_t":114.3,"dist_nm":84.5,"freq":109.6,"lat":37.90741667,"lon":-85.97288889,"rng_nm":25,"alt_fmsl":740,"id":"FTK","desc":"FORT KNOX VOR-DME"},
{"type":"NDB","hdg_t":284,"dist_nm":85.8,"freq":233,"lat":38.83421400,"lon":-89.37230000,"rng_nm":25,"alt_fmsl":539,"id":"GRE","desc":"GREENVILLE NDB"},
{"type":"NDB","hdg_t":244.6,"dist_nm":86.6,"freq":388,"lat":37.87025000,"lon":-89.24552778,"rng_nm":50,"alt_fmsl":0,"id":"MD","desc":"CABBI NDB"},
{"type":"NDB","hdg_t":39.2,"dist_nm":86.9,"freq":219,"lat":39.61725000,"lon":-86.40786111,"rng_nm":50,"alt_fmsl":0,"id":"OQ","desc":"BRINN NDB"},
{"type":"NDB","hdg_t":38.7,"dist_nm":87.2,"freq":266,"lat":39.62900000,"lon":-86.41833333,"rng_nm":50,"alt_fmsl":0,"id":"IN","desc":"PULLY NDB"},
{"type":"NDB","hdg_t":90.4,"dist_nm":87.5,"freq":331,"lat":38.47397222,"lon":-85.73722222,"rng_nm":50,"alt_fmsl":0,"id":"JV","desc":"CATCH NDB"},
{"type":"NDB","hdg_t":342.9,"dist_nm":92,"freq":407,"lat":39.96622222,"lon":-88.18244444,"rng_nm":50,"alt_fmsl":0,"id":"CM","desc":"VEALS NDB"},
{"type":"VOR","hdg_t":86,"dist_nm":92.4,"freq":112.4,"lat":38.58883333,"lon":-85.63600000,"rng_nm":40,"alt_fmsl":710,"id":"ABB","desc":"NABB VORTAC"},
{"type":"VOR","hdg_t":99.4,"dist_nm":92.5,"freq":112.2,"lat":38.23022222,"lon":-85.66475000,"rng_nm":25,"alt_fmsl":540,"id":"BQM","desc":"BOWMAN VOR-DME"},
{"type":"NDB","hdg_t":349.8,"dist_nm":93,"freq":281,"lat":40.02641667,"lon":-87.95308333,"rng_nm":50,"alt_fmsl":0,"id":"HMJ","desc":"HOMER NDB"},
{"type":"NDB","hdg_t":19.4,"dist_nm":94.2,"freq":388,"lat":39.98097222,"lon":-86.91572222,"rng_nm":50,"alt_fmsl":0,"id":"CFJ","desc":"CRAWFORDSVILLE NDB"},
{"type":"VOR","hdg_t":321.9,"dist_nm":94.6,"freq":117.2,"lat":39.73752778,"lon":-88.85644444,"rng_nm":130,"alt_fmsl":708,"id":"AXC","desc":"ADDERS VORTAC"},
{"type":"NDB","hdg_t":102.3,"dist_nm":95,"freq":414,"lat":38.14483333,"lon":-85.63330556,"rng_nm":50,"alt_fmsl":0,"id":"LK","desc":"LAANG NDB"},
{"type":"NDB","hdg_t":43,"dist_nm":95.6,"freq":232,"lat":39.65686111,"lon":-86.18541667,"rng_nm":50,"alt_fmsl":0,"id":"CO","desc":"COLFA NDB"},
{"type":"NDB","hdg_t":212.5,"dist_nm":95.9,"freq":254,"lat":37.14550000,"lon":-88.67047222,"rng_nm":50,"alt_fmsl":0,"id":"BDD","desc":"BELLGRADE NDB"},
{"type":"NDB","hdg_t":58.8,"dist_nm":96.7,"freq":410,"lat":39.32205556,"lon":-85.81855556,"rng_nm":50,"alt_fmsl":0,"id":"BA","desc":"CLIFS NDB"},
{"type":"VOR","hdg_t":341.2,"dist_nm":97.2,"freq":110,"lat":40.03452778,"lon":-88.27605556,"rng_nm":40,"alt_fmsl":745,"id":"CMI","desc":"CHAMPAIGN VORTAC"},
{"type":"VOR","hdg_t":35.6,"dist_nm":97.4,"freq":116.3,"lat":39.81472222,"lon":-86.36747222,"rng_nm":130,"alt_fmsl":823,"id":"VHP","desc":"BRICKYARD VORTAC"},
{"type":"NDB","hdg_t":45.5,"dist_nm":97.7,"freq":398,"lat":39.63266667,"lon":-86.09072222,"rng_nm":50,"alt_fmsl":0,"id":"HFY","desc":"GREENWOOD NDB"},
{"type":"NDB","hdg_t":172.6,"dist_nm":97.8,"freq":356,"lat":36.88063889,"lon":-87.33758333,"rng_nm":50,"alt_fmsl":0,"id":"HIX","desc":"HONEY GROVE NDB"},
{"type":"VOR","hdg_t":103.3,"dist_nm":98.2,"freq":114.8,"lat":38.10347222,"lon":-85.57744444,"rng_nm":130,"alt_fmsl":720,"id":"IIU","desc":"LOUISVILLE VORTAC"}
]
}
