{"success":true,"source":"xp2csv.pl","last_updated":"2013/11/08 14:53:21 UTC"
,"icao":"0J6","name":"Headland Muni","lat":31.36428,"lon":-85.3130495,"rwys":2,"ils":0,"index":1547858,"path":"w090n30/w086n31"
,"runways":[
{"len_m":1524,"wid_m":24.38,"hdg":90,"surf":"Asphalt","rwy1":"09","lat1":31.36385600,"lon1":-85.31907800,"rwy2":"27","lat2":31.36363600,"lon2":-85.30305300},
{"len_m":879,"wid_m":49.38,"hdg":174,"surf":"Turf/grass","rwy1":"17","lat1":31.36876100,"lon1":-85.31547800,"rwy2":"35","lat2":31.36086700,"lon2":-85.31458900}
]
,"radios":[
{"type":"CTAF","freq":122.9,"desc":"CTAF"},
{"type":"APP","freq":125.4,"desc":"CAIRNS APP/DEP"}
]
,"navaids":[
{"type":"VOR","hdg_t":231.8,"dist_nm":7.7,"freq":111.6,"lat":31.28458333,"lon":-85.43119444,"rng_nm":40,"alt_fmsl":381,"id":"RRS","desc":"WIREGRASS VORTAC"},
{"type":"VOR","hdg_t":272,"dist_nm":17.4,"freq":110.6,"lat":31.37413889,"lon":-85.65280556,"rng_nm":25,"alt_fmsl":0,"id":"HEY","desc":"HANCHEY VOR"},
{"type":"NDB","hdg_t":272.4,"dist_nm":17.5,"freq":221,"lat":31.37608333,"lon":-85.65377778,"rng_nm":50,"alt_fmsl":0,"id":"HYE","desc":"HANCHEY NDB"},
{"type":"VOR","hdg_t":255,"dist_nm":21.9,"freq":111.2,"lat":31.26894444,"lon":-85.72630556,"rng_nm":40,"alt_fmsl":326,"id":"OZR","desc":"CAIRNS VOR-DME"},
{"type":"NDB","hdg_t":269.4,"dist_nm":22.1,"freq":269,"lat":31.36033333,"lon":-85.74350000,"rng_nm":50,"alt_fmsl":0,"id":"LOR","desc":"LOWE NDB"},
{"type":"NDB","hdg_t":77.6,"dist_nm":25.9,"freq":344,"lat":31.45569444,"lon":-84.81911111,"rng_nm":50,"alt_fmsl":0,"id":"IWJ","desc":"BLAAK NDB"},
{"type":"NDB","hdg_t":252.3,"dist_nm":27.1,"freq":212,"lat":31.22563889,"lon":-85.81597222,"rng_nm":50,"alt_fmsl":0,"id":"OZ","desc":"RUCKR NDB"},
{"type":"NDB","hdg_t":171.2,"dist_nm":29.8,"freq":329,"lat":30.87158333,"lon":-85.22491667,"rng_nm":50,"alt_fmsl":0,"id":"SMY","desc":"SOYYA NDB"},
{"type":"VOR","hdg_t":262.5,"dist_nm":30.5,"freq":116.6,"lat":31.29636111,"lon":-85.90275000,"rng_nm":25,"alt_fmsl":0,"id":"EDN","desc":"ENTERPRISE VOR"},
{"type":"NDB","hdg_t":205.8,"dist_nm":34.1,"freq":275,"lat":30.85150000,"lon":-85.60133333,"rng_nm":50,"alt_fmsl":0,"id":"BKK","desc":"TRI COUNTY NDB"},
{"type":"NDB","hdg_t":267.6,"dist_nm":34.3,"freq":352,"lat":31.33938889,"lon":-85.98194444,"rng_nm":50,"alt_fmsl":0,"id":"BVG","desc":"BOLL WEEVIL NDB"},
{"type":"VOR","hdg_t":164.2,"dist_nm":35.9,"freq":114,"lat":30.78622222,"lon":-85.12444444,"rng_nm":40,"alt_fmsl":120,"id":"MAI","desc":"MARIANNA VORTAC"},
{"type":"VOR","hdg_t":14.8,"dist_nm":36.3,"freq":109.2,"lat":31.95025000,"lon":-85.13047222,"rng_nm":40,"alt_fmsl":280,"id":"EUF","desc":"EUFAULA VORTAC"},
{"type":"NDB","hdg_t":299.6,"dist_nm":38.9,"freq":281,"lat":31.68433333,"lon":-85.97438889,"rng_nm":50,"alt_fmsl":0,"id":"XNE","desc":"SPRING HILL NDB"},
{"type":"NDB","hdg_t":119.8,"dist_nm":46.8,"freq":359,"lat":30.97272222,"lon":-84.52602778,"rng_nm":50,"alt_fmsl":0,"id":"LYZ","desc":"WILLIS NDB"},
{"type":"NDB","hdg_t":304.7,"dist_nm":49.3,"freq":365,"lat":31.83080556,"lon":-86.10622222,"rng_nm":50,"alt_fmsl":0,"id":"TO","desc":"BLOOD NDB"},
{"type":"NDB","hdg_t":83.8,"dist_nm":53.5,"freq":227,"lat":31.45613889,"lon":-84.27616667,"rng_nm":50,"alt_fmsl":0,"id":"AB","desc":"PUTNY NDB"},
{"type":"VOR","hdg_t":71.3,"dist_nm":55.1,"freq":116.1,"lat":31.65522222,"lon":-84.29305556,"rng_nm":130,"alt_fmsl":283,"id":"PZD","desc":"PECAN VORTAC"},
{"type":"NDB","hdg_t":266.6,"dist_nm":55.5,"freq":264,"lat":31.30508333,"lon":-86.39088889,"rng_nm":50,"alt_fmsl":0,"id":"JUY","desc":"JUDD NDB"},
{"type":"VOR","hdg_t":266.8,"dist_nm":55.5,"freq":110.2,"lat":31.30952778,"lon":-86.39213889,"rng_nm":25,"alt_fmsl":0,"id":"UIA","desc":"ANDALUSIA VOR"},
{"type":"NDB","hdg_t":98.9,"dist_nm":56,"freq":369,"lat":31.21463889,"lon":-84.23686111,"rng_nm":50,"alt_fmsl":0,"id":"CXU","desc":"CAMILLA NDB"},
{"type":"NDB","hdg_t":14.8,"dist_nm":57.5,"freq":335,"lat":32.29319444,"lon":-85.02327778,"rng_nm":50,"alt_fmsl":0,"id":"AWS","desc":"LAWSON NDB"},
{"type":"VOR","hdg_t":15.6,"dist_nm":60.2,"freq":111.4,"lat":32.33236111,"lon":-84.99325000,"rng_nm":25,"alt_fmsl":250,"id":"LSF","desc":"LAWSON VOR-DME"},
{"type":"NDB","hdg_t":115.3,"dist_nm":65.8,"freq":338,"lat":30.88816667,"lon":-84.15933333,"rng_nm":50,"alt_fmsl":0,"id":"CYR","desc":"CAIDY NDB"},
{"type":"NDB","hdg_t":11.9,"dist_nm":66.5,"freq":355,"lat":32.45197222,"lon":-85.04194444,"rng_nm":50,"alt_fmsl":0,"id":"CS","desc":"FENIX NDB"},
{"type":"VOR","hdg_t":134.7,"dist_nm":68.4,"freq":117.5,"lat":30.55622222,"lon":-84.37397222,"rng_nm":130,"alt_fmsl":180,"id":"SZW","desc":"SEMINOLE VORTAC"},
{"type":"NDB","hdg_t":354.7,"dist_nm":68.8,"freq":423,"lat":32.50925000,"lon":-85.43722222,"rng_nm":50,"alt_fmsl":0,"id":"AU","desc":"OPOLE NDB"},
{"type":"VOR","hdg_t":344.9,"dist_nm":69.5,"freq":117.3,"lat":32.48486111,"lon":-85.66930556,"rng_nm":40,"alt_fmsl":490,"id":"TGE","desc":"TUSKEGEE VOR-DME"},
{"type":"NDB","hdg_t":244.4,"dist_nm":70,"freq":201,"lat":30.85286111,"lon":-86.53661111,"rng_nm":50,"alt_fmsl":0,"id":"CE","desc":"KOBRA NDB"},
{"type":"VOR","hdg_t":195.5,"dist_nm":71.3,"freq":114.3,"lat":30.21625000,"lon":-85.68094444,"rng_nm":40,"alt_fmsl":10,"id":"PFN","desc":"PANAMA CITY VORTAC"},
{"type":"VOR","hdg_t":315.2,"dist_nm":72.7,"freq":112.1,"lat":32.22227778,"lon":-86.31972222,"rng_nm":130,"alt_fmsl":270,"id":"MGM","desc":"MONTGOMERY VORTAC"},
{"type":"VOR","hdg_t":11.3,"dist_nm":76.4,"freq":117.1,"lat":32.61525000,"lon":-85.01763889,"rng_nm":40,"alt_fmsl":630,"id":"CSG","desc":"COLUMBUS VORTAC"},
{"type":"VOR","hdg_t":194.2,"dist_nm":76.8,"freq":114.3,"lat":30.11966667,"lon":-85.67780556,"rng_nm":40,"alt_fmsl":55,"id":"HLL","desc":"HANDLE VORTAC"},
{"type":"VOR","hdg_t":245.7,"dist_nm":77.3,"freq":115.9,"lat":30.82616667,"lon":-86.67913889,"rng_nm":130,"alt_fmsl":255,"id":"CEW","desc":"CRESTVIEW VORTAC"},
{"type":"SDME","hdg_t":189.9,"dist_nm":78.3,"freq":117.7,"lat":30.07397000,"lon":-85.57243100,"rng_nm":130,"alt_fmsl":14,"id":"PAM","desc":"TYNDALL TACAN"},
{"type":"NDB","hdg_t":51.4,"dist_nm":78.4,"freq":242,"lat":32.17447222,"lon":-84.10816667,"rng_nm":50,"alt_fmsl":0,"id":"LKG","desc":"LINDBERGH NDB"},
{"type":"NDB","hdg_t":141.3,"dist_nm":79.3,"freq":379,"lat":30.32619444,"lon":-84.35825000,"rng_nm":50,"alt_fmsl":0,"id":"TL","desc":"WAKUL NDB"},
{"type":"VOR","hdg_t":101.8,"dist_nm":79.4,"freq":108.8,"lat":31.08227778,"lon":-83.80422222,"rng_nm":40,"alt_fmsl":290,"id":"MGR","desc":"MOULTRIE VOR-DME"},
{"type":"NDB","hdg_t":107.2,"dist_nm":80.3,"freq":245,"lat":30.95755556,"lon":-83.82666667,"rng_nm":50,"alt_fmsl":0,"id":"GTP","desc":"PATTEN NDB"},
{"type":"NDB","hdg_t":136,"dist_nm":80.5,"freq":332,"lat":30.39142200,"lon":-84.23568300,"rng_nm":25,"alt_fmsl":51,"id":"PL","desc":"PALEE NDB"},
{"type":"SDME","hdg_t":318.6,"dist_nm":81.2,"freq":115,"lat":32.37933300,"lon":-86.36833300,"rng_nm":40,"alt_fmsl":170,"id":"MXF","desc":"MAXWELL TACAN"},
{"type":"NDB","hdg_t":62.5,"dist_nm":83.4,"freq":400,"lat":31.99783333,"lon":-83.86180556,"rng_nm":50,"alt_fmsl":0,"id":"OHY","desc":"CONEY NDB"},
{"type":"NDB","hdg_t":313.1,"dist_nm":83.4,"freq":245,"lat":32.31161111,"lon":-86.51058333,"rng_nm":50,"alt_fmsl":0,"id":"MG","desc":"MARRA NDB"},
{"type":"NDB","hdg_t":47.6,"dist_nm":89.7,"freq":426,"lat":32.36738889,"lon":-84.00741667,"rng_nm":50,"alt_fmsl":0,"id":"IZS","desc":"MONTEZUMA NDB"},
{"type":"SDME","hdg_t":232.1,"dist_nm":90.5,"freq":110.8,"lat":30.42803600,"lon":-86.69028900,"rng_nm":25,"alt_fmsl":35,"id":"HRT","desc":"HURLBURT TACAN"},
{"type":"NDB","hdg_t":14.1,"dist_nm":91.3,"freq":272,"lat":32.84286111,"lon":-84.87266667,"rng_nm":50,"alt_fmsl":0,"id":"PIM","desc":"PINE MOUNTAIN NDB"},
{"type":"VOR","hdg_t":121.2,"dist_nm":92.7,"freq":109,"lat":30.55133333,"lon":-83.78313889,"rng_nm":40,"alt_fmsl":220,"id":"GEF","desc":"GREENVILLE VORTAC"},
{"type":"VOR","hdg_t":87.1,"dist_nm":93.7,"freq":112.5,"lat":31.42866667,"lon":-83.48886111,"rng_nm":25,"alt_fmsl":0,"id":"IFM","desc":"TIFT MYERS VOR"},
{"type":"SDME","hdg_t":246.8,"dist_nm":95.8,"freq":112.3,"lat":30.72400000,"lon":-87.01800000,"rng_nm":40,"alt_fmsl":179,"id":"NSE","desc":"WHITING TACAN"},
{"type":"NDB","hdg_t":89.5,"dist_nm":96,"freq":409,"lat":31.36327778,"lon":-83.44402778,"rng_nm":50,"alt_fmsl":0,"id":"TM","desc":"TIFTO NDB"},
{"type":"NDB","hdg_t":340.1,"dist_nm":96.5,"freq":382,"lat":32.87941667,"lon":-85.96113889,"rng_nm":50,"alt_fmsl":0,"id":"DER","desc":"ALEXANDER CITY NDB"},
{"type":"NDB","hdg_t":303.7,"dist_nm":98.7,"freq":344,"lat":32.26977778,"lon":-86.92744444,"rng_nm":50,"alt_fmsl":0,"id":"SE","desc":"POLLK (LOM/NDB) NDB"},
{"type":"NDB","hdg_t":171.3,"dist_nm":99.3,"freq":349,"lat":29.72330556,"lon":-85.02805556,"rng_nm":50,"alt_fmsl":0,"id":"AAF","desc":"APALACHICOLA NDB"}
]
}
