{"success":true,"source":"xp2csv.pl","last_updated":"2013/11/08 14:53:21 UTC"
,"icao":"0KY5","name":"Falin Landing Strip","lat":36.8125,"lon":-86.375,"rwys":1,"ils":0,"index":1531826,"path":"w090n30/w087n36"
,"runways":[
{"len_m":855,"wid_m":30.48,"hdg":69,"surf":"Turf/grass","rwy1":"07","lat1":36.81112381,"lon1":-86.37947803,"rwy2":"25","lat2":36.81387619,"lon2":-86.37052197}
]
,"navaids":[
{"type":"NDB","hdg_t":308.2,"dist_nm":6.5,"freq":236,"lat":36.88000000,"lon":-86.48161111,"rng_nm":50,"alt_fmsl":0,"id":"BW","desc":"NOORA NDB"},
{"type":"VOR","hdg_t":334.7,"dist_nm":7.7,"freq":117.9,"lat":36.92875000,"lon":-86.44344444,"rng_nm":130,"alt_fmsl":565,"id":"BWG","desc":"BOWLING GREEN VORTAC"},
{"type":"NDB","hdg_t":54.9,"dist_nm":21.4,"freq":260,"lat":37.01752778,"lon":-86.00916667,"rng_nm":50,"alt_fmsl":0,"id":"BVQ","desc":"BEAVER CREEK NDB"},
{"type":"NDB","hdg_t":139.5,"dist_nm":23.3,"freq":245,"lat":36.51508333,"lon":-86.06097222,"rng_nm":50,"alt_fmsl":0,"id":"LFB","desc":"LAFAYETTE NDB"},
{"type":"NDB","hdg_t":237.8,"dist_nm":30.9,"freq":221,"lat":36.53650000,"lon":-86.91755800,"rng_nm":25,"alt_fmsl":706,"id":"PED","desc":"NEEDMORE NDB"},
{"type":"NDB","hdg_t":234.5,"dist_nm":36.2,"freq":279,"lat":36.46044444,"lon":-86.98430556,"rng_nm":50,"alt_fmsl":0,"id":"ON","desc":"MUSIC NDB"},
{"type":"NDB","hdg_t":175.4,"dist_nm":37.2,"freq":414,"lat":36.19216667,"lon":-86.31383333,"rng_nm":50,"alt_fmsl":0,"id":"JUE","desc":"LEBANON NDB"},
{"type":"VOR","hdg_t":200.4,"dist_nm":43.1,"freq":114.1,"lat":36.13697222,"lon":-86.68477778,"rng_nm":130,"alt_fmsl":566,"id":"BNA","desc":"NASHVILLE VORTAC"},
{"type":"NDB","hdg_t":303.6,"dist_nm":45.1,"freq":362,"lat":37.22700000,"lon":-87.15916667,"rng_nm":50,"alt_fmsl":0,"id":"GMH","desc":"MUHLENBERG NDB"},
{"type":"NDB","hdg_t":275.3,"dist_nm":46.5,"freq":356,"lat":36.88063889,"lon":-87.33758333,"rng_nm":50,"alt_fmsl":0,"id":"HIX","desc":"HONEY GROVE NDB"},
{"type":"NDB","hdg_t":199.8,"dist_nm":49.7,"freq":304,"lat":36.03100000,"lon":-86.72177778,"rng_nm":50,"alt_fmsl":0,"id":"BN","desc":"DOBBS NDB"},
{"type":"NDB","hdg_t":265.1,"dist_nm":50.2,"freq":273,"lat":36.73700000,"lon":-87.41386111,"rng_nm":50,"alt_fmsl":0,"id":"FK","desc":"AIRBE NDB"},
{"type":"NDB","hdg_t":179.7,"dist_nm":51,"freq":371,"lat":35.96125000,"lon":-86.37097222,"rng_nm":50,"alt_fmsl":0,"id":"FQW","desc":"WALTER HILL NDB"},
{"type":"VOR","hdg_t":257.4,"dist_nm":51.3,"freq":110.6,"lat":36.62197222,"lon":-87.41266667,"rng_nm":25,"alt_fmsl":538,"id":"CKV","desc":"CLARKSVILLE VOR-DME"},
{"type":"NDB","hdg_t":184.8,"dist_nm":51.4,"freq":391,"lat":35.95683333,"lon":-86.46391667,"rng_nm":50,"alt_fmsl":0,"id":"SWZ","desc":"SEWART NDB"},
{"type":"NDB","hdg_t":251,"dist_nm":51.7,"freq":335,"lat":36.52711111,"lon":-87.38672222,"rng_nm":50,"alt_fmsl":0,"id":"CK","desc":"SNUFF NDB"},
{"type":"SDME","hdg_t":261.7,"dist_nm":54.4,"freq":114.9,"lat":36.67643300,"lon":-87.49186400,"rng_nm":40,"alt_fmsl":572,"id":"HXW","desc":"SCREAMING EAGLE TACAN"},
{"type":"VOR","hdg_t":308.9,"dist_nm":54.6,"freq":109.8,"lat":37.38241667,"lon":-87.26369444,"rng_nm":40,"alt_fmsl":450,"id":"CCT","desc":"CENTRAL CITY VORTAC"},
{"type":"NDB","hdg_t":150.8,"dist_nm":56.7,"freq":256,"lat":35.98400000,"lon":-85.80811111,"rng_nm":50,"alt_fmsl":0,"id":"SKN","desc":"HURRICANE NDB"},
{"type":"VOR","hdg_t":34,"dist_nm":59.4,"freq":110.8,"lat":37.63180556,"lon":-85.67588889,"rng_nm":40,"alt_fmsl":960,"id":"EWO","desc":"NEW HOPE VOR-DME"},
{"type":"VOR","hdg_t":102.8,"dist_nm":59.8,"freq":108.4,"lat":36.58450000,"lon":-85.16661111,"rng_nm":40,"alt_fmsl":1020,"id":"LVT","desc":"LIVINGSTON VORTAC"},
{"type":"NDB","hdg_t":322.8,"dist_nm":62,"freq":341,"lat":37.63561111,"lon":-87.16222222,"rng_nm":50,"alt_fmsl":0,"id":"OW","desc":"HIGUY NDB"},
{"type":"NDB","hdg_t":142,"dist_nm":62.4,"freq":233,"lat":35.98800000,"lon":-85.58627778,"rng_nm":50,"alt_fmsl":0,"id":"HEM","desc":"HUCHN NDB"},
{"type":"NDB","hdg_t":56.6,"dist_nm":64.7,"freq":272,"lat":37.40188889,"lon":-85.24369444,"rng_nm":50,"alt_fmsl":0,"id":"TYC","desc":"TAYLOR CO NDB"},
{"type":"VOR","hdg_t":5.4,"dist_nm":65.1,"freq":108.2,"lat":37.89405556,"lon":-86.24452778,"rng_nm":40,"alt_fmsl":0,"id":"MYS","desc":"MYSTIC VOR"},
{"type":"NDB","hdg_t":231.5,"dist_nm":65.6,"freq":203,"lat":36.12730556,"lon":-87.43236111,"rng_nm":50,"alt_fmsl":0,"id":"DMZ","desc":"DICKSON NDB"},
{"type":"VOR","hdg_t":326,"dist_nm":67.4,"freq":108.6,"lat":37.74355556,"lon":-87.16597222,"rng_nm":25,"alt_fmsl":401,"id":"OWB","desc":"OWENSBORO VOR-DME"},
{"type":"VOR","hdg_t":16.2,"dist_nm":68.3,"freq":109.6,"lat":37.90741667,"lon":-85.97288889,"rng_nm":25,"alt_fmsl":740,"id":"FTK","desc":"FORT KNOX VOR-DME"},
{"type":"NDB","hdg_t":154.8,"dist_nm":70,"freq":209,"lat":35.75241667,"lon":-85.76413889,"rng_nm":50,"alt_fmsl":0,"id":"RN","desc":"WARRI NDB"},
{"type":"NDB","hdg_t":15.3,"dist_nm":71.2,"freq":396,"lat":37.95869444,"lon":-85.97663889,"rng_nm":50,"alt_fmsl":0,"id":"GOI","desc":"GODMAN NDB"},
{"type":"NDB","hdg_t":87.4,"dist_nm":73.3,"freq":290,"lat":36.85621100,"lon":-84.85294700,"rng_nm":25,"alt_fmsl":950,"id":"EKQ","desc":"ELK SPRING NDB"},
{"type":"NDB","hdg_t":47.5,"dist_nm":73.5,"freq":429,"lat":37.63463889,"lon":-85.23655556,"rng_nm":50,"alt_fmsl":0,"id":"IKY","desc":"SPRINGFIELD NDB"},
{"type":"NDB","hdg_t":348.2,"dist_nm":73.5,"freq":206,"lat":38.01416667,"lon":-86.69019444,"rng_nm":50,"alt_fmsl":0,"id":"TEL","desc":"TELL CITY NDB"},
{"type":"VOR","hdg_t":182.4,"dist_nm":74.9,"freq":109,"lat":35.56197222,"lon":-86.43916667,"rng_nm":40,"alt_fmsl":814,"id":"SYI","desc":"SHELBYVILLE VOR-DME"},
{"type":"NDB","hdg_t":238.1,"dist_nm":78.1,"freq":329,"lat":36.11616667,"lon":-87.74127778,"rng_nm":50,"alt_fmsl":0,"id":"AEY","desc":"WAVERLY NDB"},
{"type":"VOR","hdg_t":222,"dist_nm":78.5,"freq":111.6,"lat":35.83391667,"lon":-87.45175000,"rng_nm":40,"alt_fmsl":775,"id":"GHM","desc":"GRAHAM VORTAC"},
{"type":"NDB","hdg_t":205.9,"dist_nm":80.1,"freq":365,"lat":35.60819444,"lon":-87.09141667,"rng_nm":50,"alt_fmsl":0,"id":"PBC","desc":"MAURY COUNTY NDB"},
{"type":"NDB","hdg_t":175.3,"dist_nm":81.1,"freq":332,"lat":35.46158333,"lon":-86.24169444,"rng_nm":50,"alt_fmsl":0,"id":"ULH","desc":"BURWI NDB"},
{"type":"NDB","hdg_t":195.1,"dist_nm":81.3,"freq":251,"lat":35.50050000,"lon":-86.80972222,"rng_nm":50,"alt_fmsl":0,"id":"LUG","desc":"VERONA NDB"},
{"type":"NDB","hdg_t":81.7,"dist_nm":82.2,"freq":388,"lat":36.99622222,"lon":-84.68130556,"rng_nm":50,"alt_fmsl":0,"id":"CDX","desc":"CUMBERLAND RIVER NDB"},
{"type":"VOR","hdg_t":175.7,"dist_nm":86,"freq":109.65,"lat":35.38041667,"lon":-86.24577778,"rng_nm":25,"alt_fmsl":0,"id":"UXM","desc":"TULLAHOMA RGNL VOR"},
{"type":"VOR","hdg_t":25.9,"dist_nm":86.2,"freq":114.8,"lat":38.10347222,"lon":-85.57744444,"rng_nm":130,"alt_fmsl":720,"id":"IIU","desc":"LOUISVILLE VORTAC"},
{"type":"NDB","hdg_t":23.6,"dist_nm":87.3,"freq":414,"lat":38.14483333,"lon":-85.63330556,"rng_nm":50,"alt_fmsl":0,"id":"LK","desc":"LAANG NDB"},
{"type":"NDB","hdg_t":58.8,"dist_nm":89.7,"freq":311,"lat":37.57641667,"lon":-84.76402778,"rng_nm":50,"alt_fmsl":0,"id":"DVK","desc":"GOODALL NDB"},
{"type":"VOR","hdg_t":342.3,"dist_nm":90.5,"freq":109.2,"lat":38.25050000,"lon":-86.95619444,"rng_nm":25,"alt_fmsl":517,"id":"HNB","desc":"HUNTINGBURG VOR-DME"},
{"type":"VOR","hdg_t":21.5,"dist_nm":91.4,"freq":112.2,"lat":38.23022222,"lon":-85.66475000,"rng_nm":25,"alt_fmsl":540,"id":"BQM","desc":"BOWMAN VOR-DME"},
{"type":"VOR","hdg_t":131.9,"dist_nm":91.6,"freq":117.6,"lat":35.78100000,"lon":-84.97844444,"rng_nm":40,"alt_fmsl":3040,"id":"HCH","desc":"HINCH MOUNTAIN VORTAC"},
{"type":"NDB","hdg_t":323.4,"dist_nm":92,"freq":284,"lat":38.04013889,"lon":-87.53094444,"rng_nm":50,"alt_fmsl":0,"id":"PDW","desc":"EVANSVILLE NDB"},
{"type":"NDB","hdg_t":267.1,"dist_nm":92.4,"freq":368,"lat":36.72065556,"lon":-88.28996111,"rng_nm":15,"alt_fmsl":0,"id":"EU","desc":"MUREY NDB"},
{"type":"NDB","hdg_t":99.5,"dist_nm":93.1,"freq":403,"lat":36.53947222,"lon":-84.47600000,"rng_nm":50,"alt_fmsl":0,"id":"BPO","desc":"PINEY GROVE NDB"},
{"type":"NDB","hdg_t":327.4,"dist_nm":93.7,"freq":219,"lat":38.12672222,"lon":-87.44072222,"rng_nm":50,"alt_fmsl":0,"id":"EV","desc":"VICCI NDB"},
{"type":"VOR","hdg_t":315.6,"dist_nm":94.2,"freq":113.3,"lat":37.92833333,"lon":-87.76238889,"rng_nm":130,"alt_fmsl":384,"id":"PXV","desc":"POCKET CITY VORTAC"},
{"type":"NDB","hdg_t":171.2,"dist_nm":99,"freq":263,"lat":35.17800000,"lon":-86.06816667,"rng_nm":50,"alt_fmsl":0,"id":"BGF","desc":"BOILING FORK NDB"}
]
}
