{"success":true,"source":"xp2csv.pl","last_updated":"2013/11/08 14:53:21 UTC"
,"icao":"0MD2","name":"Squier Landing","lat":38.28790611,"lon":-76.86746973,"rwys":1,"ils":0,"index":1695760,"path":"w080n30/w077n38"
,"runways":[
{"len_m":672,"wid_m":9.14,"hdg":110,"surf":"Turf/grass","rwy1":"12","lat1":38.28898741,"lon1":-76.87105853,"rwy2":"30","lat2":38.28682481,"lon2":-76.86388093}
]
,"helipads":[
{"rwy1":"H1","len_m":22,"wid_m":22.86,"hdg":-76,"surf":"Turf/grass","lat1":38.28790611,"lon1":-76.86746973}
]
,"navaids":[
{"type":"NDB","hdg_t":224.3,"dist_nm":15.7,"freq":396,"lat":38.10000000,"lon":-77.10000000,"rng_nm":50,"alt_fmsl":99,"id":"ZZA","desc":"ZZZ TEST A NDB"},
{"type":"NDB","hdg_t":251.5,"dist_nm":16.5,"freq":397,"lat":38.20000000,"lon":-77.20000000,"rng_nm":50,"alt_fmsl":99,"id":"ZZB","desc":"ZZZ TEST B NDB"},
{"type":"VOR","hdg_t":272.1,"dist_nm":20.4,"freq":116.7,"lat":38.30000000,"lon":-77.30000000,"rng_nm":100,"alt_fmsl":57,"id":"ZZC","desc":"ZZZ TEST C VOR-DME"},
{"type":"NDB","hdg_t":90.1,"dist_nm":21.9,"freq":400,"lat":38.28594444,"lon":-76.40325000,"rng_nm":50,"alt_fmsl":0,"id":"NHK","desc":"PATUXENT NDB"},
{"type":"VOR","hdg_t":89.8,"dist_nm":22,"freq":117.6,"lat":38.28786111,"lon":-76.40022222,"rng_nm":40,"alt_fmsl":20,"id":"PXT","desc":"PATUXENT VORTAC"},
{"type":"VOR","hdg_t":277.3,"dist_nm":23.1,"freq":114.5,"lat":38.33627778,"lon":-77.35291667,"rng_nm":40,"alt_fmsl":145,"id":"BRV","desc":"BROOKE VORTAC"},
{"type":"NDB","hdg_t":241.1,"dist_nm":24.7,"freq":396,"lat":38.08777778,"lon":-77.32491667,"rng_nm":50,"alt_fmsl":0,"id":"APH","desc":"A P HILL NDB"},
{"type":"NDB","hdg_t":359.7,"dist_nm":24.7,"freq":360,"lat":38.70077778,"lon":-76.87022222,"rng_nm":50,"alt_fmsl":0,"id":"RW","desc":"KIRBE NDB"},
{"type":"NDB","hdg_t":333,"dist_nm":25.1,"freq":223,"lat":38.66163889,"lon":-77.11016667,"rng_nm":50,"alt_fmsl":0,"id":"DAA","desc":"DAVEE NDB"},
{"type":"VOR","hdg_t":12.9,"dist_nm":25.7,"freq":113.7,"lat":38.70586111,"lon":-76.74475000,"rng_nm":40,"alt_fmsl":210,"id":"OTT","desc":"NOTTINGHAM VORTAC"},
{"type":"SDME","hdg_t":285.1,"dist_nm":26,"freq":108.75,"lat":38.40000000,"lon":-77.40000000,"rng_nm":25,"alt_fmsl":172,"id":"ZZ","desc":"ZZZ TEST D DME"},
{"type":"NDB","hdg_t":267.5,"dist_nm":27.5,"freq":237,"lat":38.26638889,"lon":-77.45080556,"rng_nm":50,"alt_fmsl":0,"id":"EZF","desc":"SHANNON NDB"},
{"type":"NDB","hdg_t":351.4,"dist_nm":27.9,"freq":241,"lat":38.74888900,"lon":-76.95611100,"rng_nm":25,"alt_fmsl":115,"id":"VKX","desc":"POTOMAC NDB"},
{"type":"NDB","hdg_t":345.3,"dist_nm":29.6,"freq":332,"lat":38.76594444,"lon":-77.02738889,"rng_nm":50,"alt_fmsl":0,"id":"DC","desc":"OXONN NDB"},
{"type":"VOR","hdg_t":0.1,"dist_nm":31.1,"freq":113.1,"lat":38.80722222,"lon":-76.86625000,"rng_nm":40,"alt_fmsl":260,"id":"ADW","desc":"ANDREWS VORTAC"},
{"type":"VOR","hdg_t":346.9,"dist_nm":35.1,"freq":111,"lat":38.85944444,"lon":-77.03644444,"rng_nm":40,"alt_fmsl":10,"id":"DCA","desc":"WASHINGTON VOR-DME"},
{"type":"NDB","hdg_t":359.7,"dist_nm":37.8,"freq":232,"lat":38.92000000,"lon":-76.87166700,"rng_nm":25,"alt_fmsl":74,"id":"MX","desc":"ZOOTE NDB"},
{"type":"NDB","hdg_t":342.6,"dist_nm":40.3,"freq":323,"lat":38.92988889,"lon":-77.12422222,"rng_nm":50,"alt_fmsl":0,"id":"GTN","desc":"GEORGETOWN NDB"},
{"type":"NDB","hdg_t":68.9,"dist_nm":42.2,"freq":355,"lat":38.53725000,"lon":-76.03058333,"rng_nm":50,"alt_fmsl":0,"id":"CGE","desc":"CAMBRIDGE NDB"},
{"type":"NDB","hdg_t":321.4,"dist_nm":42.9,"freq":346,"lat":38.84727778,"lon":-77.43788889,"rng_nm":50,"alt_fmsl":0,"id":"IA","desc":"TILLE NDB"},
{"type":"DME","hdg_t":217.3,"dist_nm":44.2,"freq":109.7,"lat":37.70029889,"lon":-77.43139970,"rng_nm":18,"alt_fmsl":208,"id":"KOFP","desc":"16 DME-ILS"},
{"type":"NDB","hdg_t":6,"dist_nm":47.9,"freq":260,"lat":39.08405556,"lon":-76.76000000,"rng_nm":50,"alt_fmsl":0,"id":"BUH","desc":"ANNE ARUNDEL NDB"},
{"type":"VOR","hdg_t":324.1,"dist_nm":47.9,"freq":113.5,"lat":38.93458333,"lon":-77.46669444,"rng_nm":40,"alt_fmsl":297,"id":"AML","desc":"ARMEL VORTAC"},
{"type":"NDB","hdg_t":281.8,"dist_nm":49.9,"freq":351,"lat":38.45433333,"lon":-77.90527778,"rng_nm":50,"alt_fmsl":0,"id":"MSQ","desc":"NAILR NDB"},
{"type":"VOR","hdg_t":171.5,"dist_nm":50.8,"freq":108.8,"lat":37.44866667,"lon":-76.71136111,"rng_nm":40,"alt_fmsl":8,"id":"HCM","desc":"HARCUM VORTAC"},
{"type":"VOR","hdg_t":294.5,"dist_nm":51.5,"freq":116.3,"lat":38.64119444,"lon":-77.86550000,"rng_nm":130,"alt_fmsl":439,"id":"CSN","desc":"CASANOVA VORTAC"},
{"type":"VOR","hdg_t":204.6,"dist_nm":51.7,"freq":114.1,"lat":37.50236111,"lon":-77.32027778,"rng_nm":130,"alt_fmsl":159,"id":"RIC","desc":"RICHMOND VORTAC"},
{"type":"VOR","hdg_t":10.3,"dist_nm":53.8,"freq":115.1,"lat":39.17105556,"lon":-76.66125000,"rng_nm":40,"alt_fmsl":140,"id":"BAL","desc":"BALTIMORE VORTAC"},
{"type":"NDB","hdg_t":345.2,"dist_nm":54.6,"freq":385,"lat":39.16972222,"lon":-77.16591667,"rng_nm":50,"alt_fmsl":0,"id":"GAI","desc":"GAITHERSBURG NDB"},
{"type":"VOR","hdg_t":191.6,"dist_nm":58.6,"freq":112,"lat":37.32886111,"lon":-77.11594444,"rng_nm":40,"alt_fmsl":70,"id":"HPW","desc":"HOPEWELL VORTAC"},
{"type":"NDB","hdg_t":4,"dist_nm":60,"freq":371,"lat":39.28736111,"lon":-76.77702778,"rng_nm":50,"alt_fmsl":0,"id":"FND","desc":"ELLICOTT NDB"},
{"type":"NDB","hdg_t":311.6,"dist_nm":60.3,"freq":227,"lat":38.95400000,"lon":-77.83111111,"rng_nm":50,"alt_fmsl":0,"id":"GDX","desc":"GOODWIN LAKE NDB"},
{"type":"NDB","hdg_t":10.6,"dist_nm":60.9,"freq":404,"lat":39.28705556,"lon":-76.62525000,"rng_nm":50,"alt_fmsl":0,"id":"IUB","desc":"INSTITUTE NDB"},
{"type":"VOR","hdg_t":255.2,"dist_nm":63,"freq":115.6,"lat":38.01361111,"lon":-78.15302778,"rng_nm":130,"alt_fmsl":382,"id":"GVE","desc":"GORDONSVILLE VORTAC"},
{"type":"VOR","hdg_t":86.5,"dist_nm":64.1,"freq":111.2,"lat":38.34500000,"lon":-75.51058333,"rng_nm":40,"alt_fmsl":48,"id":"SBY","desc":"SALISBURY VORTAC"},
{"type":"VOR","hdg_t":225.3,"dist_nm":64.4,"freq":113.3,"lat":37.52850000,"lon":-77.82822222,"rng_nm":130,"alt_fmsl":460,"id":"FAK","desc":"FLAT ROCK VORTAC"},
{"type":"NDB","hdg_t":129.9,"dist_nm":66.5,"freq":336,"lat":37.57030556,"lon":-75.79830556,"rng_nm":50,"alt_fmsl":0,"id":"BDB","desc":"ACCOMACK NDB"},
{"type":"VOR","hdg_t":101.3,"dist_nm":67.8,"freq":112.4,"lat":38.05658333,"lon":-75.46388889,"rng_nm":40,"alt_fmsl":34,"id":"SWL","desc":"SNOW HILL VORTAC"},
{"type":"NDB","hdg_t":90,"dist_nm":69,"freq":278,"lat":38.27870000,"lon":-75.40577800,"rng_nm":25,"alt_fmsl":0,"id":"SB","desc":"COLBE NDB"},
{"type":"NDB","hdg_t":170.1,"dist_nm":69.8,"freq":226,"lat":37.13877778,"lon":-76.61855556,"rng_nm":50,"alt_fmsl":0,"id":"FAF","desc":"FELKER NDB"},
{"type":"VOR","hdg_t":143.4,"dist_nm":69.9,"freq":112.2,"lat":37.34752778,"lon":-75.99766667,"rng_nm":40,"alt_fmsl":10,"id":"CCV","desc":"CAPE CHARLES VORTAC"},
{"type":"NDB","hdg_t":165.4,"dist_nm":71.4,"freq":375,"lat":37.13280556,"lon":-76.49319444,"rng_nm":50,"alt_fmsl":0,"id":"PJS","desc":"HENRY NDB"},
{"type":"VOR","hdg_t":340.7,"dist_nm":71.4,"freq":109,"lat":39.41222222,"lon":-77.37513889,"rng_nm":25,"alt_fmsl":0,"id":"FDK","desc":"FREDERICK VOR"},
{"type":"VOR","hdg_t":298.7,"dist_nm":71.5,"freq":114.3,"lat":38.85438889,"lon":-78.20555556,"rng_nm":40,"alt_fmsl":2440,"id":"LDN","desc":"LINDEN VORTAC"},
{"type":"VOR","hdg_t":355.9,"dist_nm":72.5,"freq":117.9,"lat":39.49500000,"lon":-76.97858333,"rng_nm":130,"alt_fmsl":820,"id":"EMI","desc":"WESTMINSTER VORTAC"},
{"type":"NDB","hdg_t":310.6,"dist_nm":73.9,"freq":364,"lat":39.08650000,"lon":-78.06861111,"rng_nm":50,"alt_fmsl":0,"id":"TZ","desc":"COGAN NDB"},
{"type":"SDME","hdg_t":161.2,"dist_nm":76,"freq":112.3,"lat":37.08556100,"lon":-76.35941100,"rng_nm":40,"alt_fmsl":11,"id":"LFI","desc":"LANGLEY TACAN"},
{"type":"NDB","hdg_t":206,"dist_nm":77.1,"freq":284,"lat":37.13027778,"lon":-77.57447222,"rng_nm":50,"alt_fmsl":0,"id":"PTB","desc":"PETERSBURG NDB"},
{"type":"VOR","hdg_t":24.5,"dist_nm":77.8,"freq":108.4,"lat":39.46666667,"lon":-76.17094444,"rng_nm":25,"alt_fmsl":47,"id":"PPM","desc":"PHILLIPS VOR-DME"},
{"type":"NDB","hdg_t":184.6,"dist_nm":78.4,"freq":274,"lat":36.98319444,"lon":-77.00108333,"rng_nm":50,"alt_fmsl":0,"id":"AKQ","desc":"WAKEFIELD NDB"},
{"type":"NDB","hdg_t":86.2,"dist_nm":78.9,"freq":407,"lat":38.36261111,"lon":-75.19780556,"rng_nm":50,"alt_fmsl":0,"id":"OX","desc":"LANDY NDB"},
{"type":"NDB","hdg_t":288.5,"dist_nm":79.4,"freq":245,"lat":38.69955556,"lon":-78.47166667,"rng_nm":50,"alt_fmsl":0,"id":"LUA","desc":"CAVERNS NDB"},
{"type":"NDB","hdg_t":258.4,"dist_nm":79.8,"freq":336,"lat":38.01016667,"lon":-78.51808333,"rng_nm":50,"alt_fmsl":0,"id":"AZS","desc":"AZALEA PARK NDB"},
{"type":"VOR","hdg_t":325.3,"dist_nm":80.2,"freq":112.1,"lat":39.38558333,"lon":-77.84836111,"rng_nm":40,"alt_fmsl":600,"id":"MRB","desc":"MARTINSBURG VORTAC"},
{"type":"NDB","hdg_t":25.2,"dist_nm":82.8,"freq":349,"lat":39.53586111,"lon":-76.10638889,"rng_nm":50,"alt_fmsl":0,"id":"APG","desc":"ABERDEEN NDB"},
{"type":"SDME","hdg_t":51.9,"dist_nm":82.9,"freq":110,"lat":39.13233300,"lon":-75.46733300,"rng_nm":25,"alt_fmsl":17,"id":"DOV","desc":"DOVER TACAN"},
{"type":"VOR","hdg_t":67.6,"dist_nm":83.9,"freq":112.6,"lat":38.80980556,"lon":-75.21133333,"rng_nm":40,"alt_fmsl":5,"id":"ATR","desc":"WATERLOO VOR-DME"},
{"type":"VOR","hdg_t":47.8,"dist_nm":84.9,"freq":111.4,"lat":39.23166667,"lon":-75.51591667,"rng_nm":40,"alt_fmsl":10,"id":"ENO","desc":"SMYRNA VORTAC"},
{"type":"SDME","hdg_t":160.6,"dist_nm":85.5,"freq":111.1,"lat":36.93998100,"lon":-76.27729400,"rng_nm":40,"alt_fmsl":45,"id":"NGU","desc":"CHAMBERS TACAN"},
{"type":"NDB","hdg_t":219.2,"dist_nm":89.3,"freq":326,"lat":37.12744444,"lon":-78.04452778,"rng_nm":50,"alt_fmsl":0,"id":"BKT","desc":"BLACKSTONE NDB"},
{"type":"VOR","hdg_t":158.9,"dist_nm":89.5,"freq":116.9,"lat":36.89188889,"lon":-76.20033333,"rng_nm":130,"alt_fmsl":20,"id":"ORF","desc":"NORFOLK VORTAC"},
{"type":"NDB","hdg_t":161,"dist_nm":91.5,"freq":329,"lat":36.84047222,"lon":-76.25122222,"rng_nm":50,"alt_fmsl":0,"id":"OR","desc":"INGLE NDB"},
{"type":"NDB","hdg_t":233.5,"dist_nm":93.3,"freq":367,"lat":37.35300000,"lon":-78.43752778,"rng_nm":50,"alt_fmsl":0,"id":"FVX","desc":"FARMVILLE NDB"},
{"type":"VOR","hdg_t":184.2,"dist_nm":94.5,"freq":110.6,"lat":36.71425000,"lon":-77.01238889,"rng_nm":40,"alt_fmsl":84,"id":"FKN","desc":"FRANKLIN VORTAC"},
{"type":"SDME","hdg_t":155.4,"dist_nm":96.2,"freq":116.6,"lat":36.82421900,"lon":-76.03704700,"rng_nm":40,"alt_fmsl":64,"id":"NTU","desc":"OCEANA TACAN"},
{"type":"VOR","hdg_t":331.6,"dist_nm":96.3,"freq":109.8,"lat":39.69772222,"lon":-77.85572222,"rng_nm":40,"alt_fmsl":0,"id":"HGR","desc":"HAGERSTOWN VOR"},
{"type":"NDB","hdg_t":36.7,"dist_nm":97.2,"freq":248,"lat":39.58122222,"lon":-75.61388889,"rng_nm":50,"alt_fmsl":0,"id":"IL","desc":"HADIN (LOM) NDB"},
{"type":"NDB","hdg_t":359.7,"dist_nm":97.8,"freq":254,"lat":39.92002778,"lon":-76.87755556,"rng_nm":50,"alt_fmsl":0,"id":"EUD","desc":"YORK NDB"},
{"type":"NDB","hdg_t":267.6,"dist_nm":98.9,"freq":375,"lat":38.20175000,"lon":-78.95736111,"rng_nm":50,"alt_fmsl":0,"id":"SH","desc":"STAUT NDB"}
]
}
