{"success":true,"source":"xp2csv.pl","last_updated":"2013/11/08 14:53:21 UTC"
,"icao":"0MI4","name":"Lesterson Field","lat":46.27022277,"lon":-87.38652834,"rwys":1,"ils":0,"index":1516050,"path":"w090n40/w088n46"
,"runways":[
{"len_m":914,"wid_m":30.48,"hdg":356,"surf":"Turf/grass","rwy1":"36","lat1":46.26611394,"lon1":-87.38621683,"rwy2":"18","lat2":46.27433160,"lon2":-87.38683985}
]
,"navaids":[
{"type":"NDB","hdg_t":248.7,"dist_nm":1.3,"freq":410,"lat":46.26225000,"lon":-87.41613889,"rng_nm":50,"alt_fmsl":0,"id":"SO","desc":"SUOMI NDB"},
{"type":"VOR","hdg_t":355.1,"dist_nm":5.3,"freq":117.1,"lat":46.35891667,"lon":-87.39741667,"rng_nm":130,"alt_fmsl":1196,"id":"SAW","desc":"SAWYER VOR-DME"},
{"type":"NDB","hdg_t":168.3,"dist_nm":33.5,"freq":344,"lat":45.72272222,"lon":-87.22483333,"rng_nm":50,"alt_fmsl":0,"id":"ES","desc":"PIKLE NDB"},
{"type":"VOR","hdg_t":159.1,"dist_nm":35.1,"freq":110.8,"lat":45.72263889,"lon":-87.08961111,"rng_nm":40,"alt_fmsl":594,"id":"ESC","desc":"ESCANABA VOR-DME"},
{"type":"VOR","hdg_t":228.3,"dist_nm":40.7,"freq":111.2,"lat":45.81605556,"lon":-88.11213889,"rng_nm":40,"alt_fmsl":1128,"id":"IMT","desc":"IRON MOUNTAIN VOR-DME"},
{"type":"NDB","hdg_t":224,"dist_nm":45.1,"freq":255,"lat":45.72722222,"lon":-88.13269444,"rng_nm":50,"alt_fmsl":0,"id":"IM","desc":"KORDS NDB"},
{"type":"VOR","hdg_t":108.7,"dist_nm":53.6,"freq":110.4,"lat":45.97633333,"lon":-86.17344444,"rng_nm":40,"alt_fmsl":680,"id":"ISQ","desc":"SCHOOLCRAFT CO VOR-DME"},
{"type":"NDB","hdg_t":320.8,"dist_nm":65.8,"freq":275,"lat":47.11569444,"lon":-88.40116667,"rng_nm":50,"alt_fmsl":0,"id":"CM","desc":"GALEY NDB"},
{"type":"VOR","hdg_t":189.6,"dist_nm":66.3,"freq":109.6,"lat":45.18016667,"lon":-87.64716667,"rng_nm":40,"alt_fmsl":650,"id":"MNM","desc":"MENOMINEE VOR-DME"},
{"type":"VOR","hdg_t":320.3,"dist_nm":70.5,"freq":112.8,"lat":47.17025000,"lon":-88.48538889,"rng_nm":40,"alt_fmsl":1072,"id":"CMX","desc":"HOUGHTON VOR-DME"},
{"type":"NDB","hdg_t":190.2,"dist_nm":73.6,"freq":239,"lat":45.06158333,"lon":-87.69602778,"rng_nm":50,"alt_fmsl":0,"id":"TN","desc":"TRIBE NDB"},
{"type":"NDB","hdg_t":265.2,"dist_nm":76.3,"freq":396,"lat":46.14975000,"lon":-89.21044444,"rng_nm":50,"alt_fmsl":0,"id":"LNL","desc":"LAND O LAKES NDB"},
{"type":"NDB","hdg_t":271.4,"dist_nm":78.7,"freq":407,"lat":46.28827778,"lon":-89.27875000,"rng_nm":50,"alt_fmsl":0,"id":"RXW","desc":"WATERSMEET NDB"},
{"type":"VOR","hdg_t":87.4,"dist_nm":80,"freq":108.2,"lat":46.31244444,"lon":-85.46355556,"rng_nm":25,"alt_fmsl":869,"id":"ERY","desc":"NEWBERRY VOR-DME"},
{"type":"NDB","hdg_t":113.6,"dist_nm":83.9,"freq":382,"lat":45.69333333,"lon":-85.55863889,"rng_nm":50,"alt_fmsl":0,"id":"SJX","desc":"ST JAMES NDB"},
{"type":"NDB","hdg_t":181,"dist_nm":86,"freq":414,"lat":44.83688889,"lon":-87.42247222,"rng_nm":50,"alt_fmsl":0,"id":"SUE","desc":"STURGEON BAY NDB"},
{"type":"NDB","hdg_t":195,"dist_nm":86.5,"freq":388,"lat":44.87586111,"lon":-87.91238889,"rng_nm":50,"alt_fmsl":0,"id":"OCQ","desc":"OCONTO NDB"},
{"type":"NDB","hdg_t":293.7,"dist_nm":89,"freq":375,"lat":46.85022222,"lon":-89.36513889,"rng_nm":50,"alt_fmsl":0,"id":"OGM","desc":"ONTONAGON NDB"},
{"type":"NDB","hdg_t":181.6,"dist_nm":90.9,"freq":224,"lat":44.75594444,"lon":-87.44922222,"rng_nm":50,"alt_fmsl":0,"id":"II","desc":"FICHY NDB"},
{"type":"VOR","hdg_t":246.9,"dist_nm":94.7,"freq":109.2,"lat":45.63377778,"lon":-89.45777778,"rng_nm":40,"alt_fmsl":1599,"id":"RHI","desc":"RHINELANDER VORTAC"},
{"type":"NDB","hdg_t":265.8,"dist_nm":94.9,"freq":206,"lat":46.13383333,"lon":-89.65569444,"rng_nm":50,"alt_fmsl":0,"id":"BDJ","desc":"BOULDER JUNCTION NDB"},
{"type":"NDB","hdg_t":228,"dist_nm":98.6,"freq":347,"lat":45.15830556,"lon":-89.11333333,"rng_nm":50,"alt_fmsl":0,"id":"AIG","desc":"ANTIGO NDB"},
{"type":"NDB","hdg_t":258.9,"dist_nm":99.9,"freq":221,"lat":45.92613889,"lon":-89.72933333,"rng_nm":50,"alt_fmsl":0,"id":"ARV","desc":"ARBOR VITAE NDB"}
]
}
