{"success":true,"source":"xp2csv.pl","last_updated":"2013/11/08 14:53:21 UTC"
,"icao":"0MN1","name":"Brinkman","lat":44.26246666,"lon":-94.06968084,"rwys":1,"ils":0,"index":1401235,"path":"w100n40/w095n44"
,"runways":[
{"len_m":611,"wid_m":18.29,"hdg":93,"surf":"Turf/grass","rwy1":"09","lat1":44.26265800,"lon1":-94.07350169,"rwy2":"27","lat2":44.26227532,"lon2":-94.06585999}
]
,"navaids":[
{"type":"VOR","hdg_t":110.5,"dist_nm":7.2,"freq":110.8,"lat":44.21991667,"lon":-93.91236111,"rng_nm":40,"alt_fmsl":1026,"id":"MKT","desc":"MANKATO VOR-DME"},
{"type":"NDB","hdg_t":280.3,"dist_nm":18.7,"freq":272,"lat":44.31802778,"lon":-94.49802778,"rng_nm":50,"alt_fmsl":0,"id":"ULM","desc":"NEW ULM NDB"},
{"type":"NDB","hdg_t":231.6,"dist_nm":26.6,"freq":260,"lat":43.98550000,"lon":-94.55269444,"rng_nm":50,"alt_fmsl":0,"id":"JYG","desc":"ST JAMES NDB"},
{"type":"NDB","hdg_t":358.6,"dist_nm":29.8,"freq":407,"lat":44.76063889,"lon":-94.08666667,"rng_nm":50,"alt_fmsl":0,"id":"GYL","desc":"GLENCOE NDB"},
{"type":"VOR","hdg_t":96.3,"dist_nm":30.3,"freq":111.2,"lat":44.20444444,"lon":-93.37050000,"rng_nm":25,"alt_fmsl":1100,"id":"FOW","desc":"HALFWAY VOR-DME"},
{"type":"NDB","hdg_t":181.7,"dist_nm":39.9,"freq":332,"lat":43.59702778,"lon":-94.09686111,"rng_nm":50,"alt_fmsl":0,"id":"SBU","desc":"BLUE EARTH NDB"},
{"type":"VOR","hdg_t":202.5,"dist_nm":40,"freq":110.2,"lat":43.64597222,"lon":-94.42255556,"rng_nm":40,"alt_fmsl":1164,"id":"FRM","desc":"FAIRMONT VOR-DME"},
{"type":"NDB","hdg_t":105.6,"dist_nm":41,"freq":379,"lat":44.07383333,"lon":-93.15527778,"rng_nm":50,"alt_fmsl":0,"id":"OW","desc":"TONNA NDB"},
{"type":"NDB","hdg_t":194.6,"dist_nm":42.7,"freq":420,"lat":43.57363889,"lon":-94.31797222,"rng_nm":50,"alt_fmsl":0,"id":"FQ","desc":"MONTZ NDB"},
{"type":"VOR","hdg_t":38.3,"dist_nm":43.1,"freq":117.7,"lat":44.82536111,"lon":-93.44269444,"rng_nm":40,"alt_fmsl":900,"id":"FCM","desc":"FLYING CLOUD VOR-DME"},
{"type":"VOR","hdg_t":59.5,"dist_nm":44,"freq":115.7,"lat":44.63094444,"lon":-93.18205556,"rng_nm":130,"alt_fmsl":972,"id":"FGT","desc":"FARMINGTON VORTAC"},
{"type":"VOR","hdg_t":138.7,"dist_nm":46.1,"freq":109.8,"lat":43.68172222,"lon":-93.37075000,"rng_nm":25,"alt_fmsl":1265,"id":"AEL","desc":"ALBERT LEA VOR-DME"},
{"type":"NDB","hdg_t":43.9,"dist_nm":47,"freq":338,"lat":44.82411100,"lon":-93.30583300,"rng_nm":25,"alt_fmsl":0,"id":"AP","desc":"VAGEY NDB"},
{"type":"VOR","hdg_t":285.4,"dist_nm":47.1,"freq":113.3,"lat":44.46727778,"lon":-95.12822222,"rng_nm":130,"alt_fmsl":1061,"id":"RWF","desc":"REDWOOD FALLS VOR-DME"},
{"type":"NDB","hdg_t":245.1,"dist_nm":49.6,"freq":203,"lat":43.90938889,"lon":-95.10916667,"rng_nm":50,"alt_fmsl":0,"id":"MWM","desc":"WINDOM NDB"},
{"type":"VOR","hdg_t":341.7,"dist_nm":52.1,"freq":109,"lat":45.08747222,"lon":-94.45386111,"rng_nm":40,"alt_fmsl":1130,"id":"DWN","desc":"DARWIN VORTAC"},
{"type":"VOR","hdg_t":42.9,"dist_nm":52.1,"freq":115.3,"lat":44.89650000,"lon":-93.23652778,"rng_nm":130,"alt_fmsl":831,"id":"MSP","desc":"MINNEAPOLIS VOR-DME"},
{"type":"NDB","hdg_t":227.3,"dist_nm":54.2,"freq":353,"lat":43.64688889,"lon":-94.98597222,"rng_nm":50,"alt_fmsl":0,"id":"MJQ","desc":"JACKSON NDB"},
{"type":"NDB","hdg_t":52.1,"dist_nm":58.6,"freq":385,"lat":44.85675000,"lon":-92.98444444,"rng_nm":50,"alt_fmsl":0,"id":"BA","desc":"BABCO NDB"},
{"type":"VOR","hdg_t":210,"dist_nm":58.9,"freq":110.4,"lat":43.40930556,"lon":-94.74444444,"rng_nm":25,"alt_fmsl":0,"id":"EST","desc":"ESTHERVILLE VOR"},
{"type":"NDB","hdg_t":52.4,"dist_nm":60.6,"freq":400,"lat":44.87336111,"lon":-92.94200000,"rng_nm":50,"alt_fmsl":0,"id":"PPI","desc":"HOPEY NDB"},
{"type":"VOR","hdg_t":29.1,"dist_nm":60.8,"freq":117.3,"lat":45.14569444,"lon":-93.37319444,"rng_nm":130,"alt_fmsl":877,"id":"GEP","desc":"GOPHER VORTAC"},
{"type":"NDB","hdg_t":208.2,"dist_nm":61.8,"freq":345,"lat":43.35152778,"lon":-94.73777778,"rng_nm":50,"alt_fmsl":0,"id":"PUF","desc":"PUFF NDB"},
{"type":"NDB","hdg_t":71.2,"dist_nm":64.3,"freq":274,"lat":44.59783333,"lon":-92.64747222,"rng_nm":50,"alt_fmsl":0,"id":"RG","desc":"REGUE NDB"},
{"type":"NDB","hdg_t":162.2,"dist_nm":64.6,"freq":359,"lat":43.23580556,"lon":-93.62083333,"rng_nm":50,"alt_fmsl":0,"id":"FXY","desc":"FOREST CITY NDB"},
{"type":"VOR","hdg_t":129.1,"dist_nm":64.7,"freq":108.2,"lat":43.57625000,"lon":-92.91866667,"rng_nm":25,"alt_fmsl":1233,"id":"JAY","desc":"AUSTIN VOR-DME"},
{"type":"VOR","hdg_t":319.9,"dist_nm":67.3,"freq":113.7,"lat":45.11752800,"lon":-95.09061100,"rng_nm":25,"alt_fmsl":1120,"id":"ILL","desc":"WILLMAR VOR-DME"},
{"type":"VOR","hdg_t":318.9,"dist_nm":68.4,"freq":113.7,"lat":45.11766667,"lon":-95.12705556,"rng_nm":25,"alt_fmsl":1125,"id":"BDH","desc":"WILLMAR VOR-DME"},
{"type":"VOR","hdg_t":113.7,"dist_nm":69.9,"freq":112,"lat":43.78286111,"lon":-92.59691667,"rng_nm":40,"alt_fmsl":1389,"id":"RST","desc":"ROCHESTER VOR-DME"},
{"type":"NDB","hdg_t":73.3,"dist_nm":70.5,"freq":394,"lat":44.58885600,"lon":-92.49213300,"rng_nm":25,"alt_fmsl":782,"id":"RGK","desc":"RED WING NDB"},
{"type":"NDB","hdg_t":187.1,"dist_nm":71.4,"freq":403,"lat":43.08136111,"lon":-94.27247222,"rng_nm":50,"alt_fmsl":0,"id":"AXA","desc":"ALGONA NDB"},
{"type":"NDB","hdg_t":237.8,"dist_nm":71.7,"freq":277,"lat":43.61738889,"lon":-95.46408333,"rng_nm":50,"alt_fmsl":0,"id":"OT","desc":"WONDD NDB"},
{"type":"NDB","hdg_t":3.3,"dist_nm":73.1,"freq":342,"lat":45.47894444,"lon":-93.96869444,"rng_nm":50,"alt_fmsl":0,"id":"ST","desc":"HUSSK NDB"},
{"type":"NDB","hdg_t":201.9,"dist_nm":75,"freq":410,"lat":43.10069444,"lon":-94.70825000,"rng_nm":50,"alt_fmsl":0,"id":"EGQ","desc":"EMMETSBURG NDB"},
{"type":"VOR","hdg_t":241.1,"dist_nm":75.2,"freq":110.6,"lat":43.64691667,"lon":-95.58197222,"rng_nm":40,"alt_fmsl":1571,"id":"OTG","desc":"WORTHINGTON VOR-DME"},
{"type":"NDB","hdg_t":108.2,"dist_nm":75.7,"freq":329,"lat":43.85436700,"lon":-92.41167500,"rng_nm":25,"alt_fmsl":1263,"id":"RS","desc":"MINGO NDB"},
{"type":"VOR","hdg_t":279,"dist_nm":76.3,"freq":111,"lat":44.44841667,"lon":-95.82477778,"rng_nm":25,"alt_fmsl":1180,"id":"MML","desc":"MARSHALL VOR-DME"},
{"type":"VOR","hdg_t":155,"dist_nm":77.1,"freq":114.9,"lat":43.09475000,"lon":-93.32986111,"rng_nm":130,"alt_fmsl":1209,"id":"MCW","desc":"MASON CITY VORTAC"},
{"type":"VOR","hdg_t":0.3,"dist_nm":77.2,"freq":112.1,"lat":45.54930556,"lon":-94.05861111,"rng_nm":25,"alt_fmsl":1023,"id":"STC","desc":"ST CLOUD VOR-DME"},
{"type":"NDB","hdg_t":155.7,"dist_nm":79.4,"freq":348,"lat":43.05261111,"lon":-93.32775000,"rng_nm":50,"alt_fmsl":0,"id":"MC","desc":"SURFF NDB"},
{"type":"NDB","hdg_t":280.9,"dist_nm":80.5,"freq":253,"lat":44.50175000,"lon":-95.91097222,"rng_nm":50,"alt_fmsl":0,"id":"GB","desc":"GARNO NDB"},
{"type":"NDB","hdg_t":13.9,"dist_nm":80.5,"freq":368,"lat":45.56466667,"lon":-93.60761111,"rng_nm":50,"alt_fmsl":0,"id":"PNM","desc":"PRINCETON NDB"},
{"type":"VOR","hdg_t":301.7,"dist_nm":82.2,"freq":111.6,"lat":44.97266667,"lon":-95.71219444,"rng_nm":25,"alt_fmsl":1037,"id":"MVE","desc":"MONTEVIDEO VOR-DME"},
{"type":"NDB","hdg_t":214.5,"dist_nm":82.3,"freq":326,"lat":43.12705556,"lon":-95.13272222,"rng_nm":50,"alt_fmsl":0,"id":"LTU","desc":"LITTLE SIOUX NDB"},
{"type":"VOR","hdg_t":217.1,"dist_nm":82.3,"freq":110,"lat":43.16216667,"lon":-95.20100000,"rng_nm":40,"alt_fmsl":1330,"id":"SPW","desc":"SPENCER VOR-DME"},
{"type":"NDB","hdg_t":221.9,"dist_nm":82.5,"freq":394,"lat":43.23258333,"lon":-95.32761111,"rng_nm":50,"alt_fmsl":0,"id":"SP","desc":"SNORE NDB"},
{"type":"NDB","hdg_t":50.5,"dist_nm":84.4,"freq":257,"lat":45.14725000,"lon":-92.53344444,"rng_nm":50,"alt_fmsl":0,"id":"RNH","desc":"NEW RICHMOND NDB"},
{"type":"NDB","hdg_t":23.6,"dist_nm":85,"freq":350,"lat":45.55769444,"lon":-93.26211111,"rng_nm":50,"alt_fmsl":0,"id":"CBG","desc":"CAMBRIDGE NDB"},
{"type":"NDB","hdg_t":42.7,"dist_nm":86.2,"freq":233,"lat":45.31038900,"lon":-92.68808300,"rng_nm":25,"alt_fmsl":944,"id":"OEO","desc":"OSCEOLA NDB"},
{"type":"NDB","hdg_t":138.7,"dist_nm":89.4,"freq":417,"lat":43.13391667,"lon":-92.72819444,"rng_nm":50,"alt_fmsl":0,"id":"IY","desc":"CHUKK NDB"},
{"type":"NDB","hdg_t":234.3,"dist_nm":90.6,"freq":269,"lat":43.36802778,"lon":-95.75252778,"rng_nm":50,"alt_fmsl":0,"id":"ISB","desc":"SIBLEY NDB"},
{"type":"NDB","hdg_t":171.4,"dist_nm":91.9,"freq":387,"lat":42.74580556,"lon":-93.75883333,"rng_nm":50,"alt_fmsl":0,"id":"CAV","desc":"CLARION NDB"},
{"type":"NDB","hdg_t":313.9,"dist_nm":92.9,"freq":239,"lat":45.32719444,"lon":-95.65091667,"rng_nm":50,"alt_fmsl":0,"id":"BBB","desc":"BENSON NDB"},
{"type":"NDB","hdg_t":175.6,"dist_nm":93.4,"freq":302,"lat":42.70858333,"lon":-93.91058333,"rng_nm":50,"alt_fmsl":0,"id":"EAG","desc":"EAGLE GROVE NDB"},
{"type":"NDB","hdg_t":195.7,"dist_nm":94.4,"freq":428,"lat":42.74638889,"lon":-94.64922222,"rng_nm":50,"alt_fmsl":0,"id":"POH","desc":"POCAHONTAS NDB"},
{"type":"NDB","hdg_t":137.8,"dist_nm":95.8,"freq":375,"lat":43.06847222,"lon":-92.60822222,"rng_nm":50,"alt_fmsl":0,"id":"CCY","desc":"CHARLES CITY NDB"},
{"type":"NDB","hdg_t":261,"dist_nm":97.6,"freq":284,"lat":43.98616667,"lon":-96.29636111,"rng_nm":50,"alt_fmsl":0,"id":"PQN","desc":"PIPESTONE NDB"},
{"type":"NDB","hdg_t":28.4,"dist_nm":98.2,"freq":282,"lat":45.69680556,"lon":-92.95575000,"rng_nm":50,"alt_fmsl":0,"id":"ROS","desc":"RUSH CITY NDB"},
{"type":"NDB","hdg_t":327.7,"dist_nm":98.5,"freq":346,"lat":45.64430556,"lon":-95.31830556,"rng_nm":50,"alt_fmsl":0,"id":"GHW","desc":"GLENWOOD NDB"},
{"type":"NDB","hdg_t":157.8,"dist_nm":99.2,"freq":230,"lat":42.72622222,"lon":-93.22411111,"rng_nm":50,"alt_fmsl":0,"id":"HPT","desc":"HAMPTON NDB"},
{"type":"NDB","hdg_t":231.2,"dist_nm":99.2,"freq":338,"lat":43.21416667,"lon":-95.83386111,"rng_nm":50,"alt_fmsl":0,"id":"SHL","desc":"SHELDON NDB"},
{"type":"VOR","hdg_t":231.2,"dist_nm":99.2,"freq":108.6,"lat":43.21213889,"lon":-95.83391667,"rng_nm":25,"alt_fmsl":1417,"id":"DDL","desc":"SHELDON VOR-DME"},
{"type":"VOR","hdg_t":185.7,"dist_nm":99.5,"freq":113.5,"lat":42.61111111,"lon":-94.29480556,"rng_nm":130,"alt_fmsl":1164,"id":"FOD","desc":"FORT DODGE VORTAC"},
{"type":"NDB","hdg_t":121.8,"dist_nm":99.9,"freq":293,"lat":43.36602778,"lon":-92.13100000,"rng_nm":50,"alt_fmsl":0,"id":"CJJ","desc":"CRESCO NDB"}
]
}
