{"success":true,"source":"xp2csv.pl","last_updated":"2013/11/08 14:53:21 UTC"
,"icao":"0TS2","name":"Ultralight International","lat":32.94873638,"lon":-97.32890612,"rwys":3,"ils":0,"index":1351354,"path":"w100n30/w098n32"
,"runways":[
{"len_m":182,"wid_m":15.24,"hdg":17,"surf":"Turf/grass","rwy1":"01","lat1":32.94794944,"lon1":-97.32919283,"rwy2":"19","lat2":32.94952332,"lon2":-97.32861941},
{"len_m":183,"wid_m":15.24,"hdg":96,"surf":"Turf/grass","rwy1":"09","lat1":32.94883667,"lon1":-97.32987943,"rwy2":"27","lat2":32.94863609,"lon2":-97.32793281},
{"len_m":182,"wid_m":15.24,"hdg":136,"surf":"Turf/grass","rwy1":"13","lat1":32.94933821,"lon1":-97.32957490,"rwy2":"34","lat2":32.94813455,"lon2":-97.32823734}
]
,"navaids":[
{"type":"NDB","hdg_t":214,"dist_nm":4,"freq":365,"lat":32.89297222,"lon":-97.37352778,"rng_nm":50,"alt_fmsl":0,"id":"FT","desc":"MUFIN NDB"},
{"type":"VOR","hdg_t":115.1,"dist_nm":8.3,"freq":115.7,"lat":32.88944444,"lon":-97.17941667,"rng_nm":130,"alt_fmsl":637,"id":"FUZ","desc":"RANGER VORTAC"},
{"type":"SDME","hdg_t":207.7,"dist_nm":11.9,"freq":108.7,"lat":32.77151700,"lon":-97.43946400,"rng_nm":40,"alt_fmsl":663,"id":"NFW","desc":"FORT WORTH NAS JRB TACAN"},
{"type":"NDB","hdg_t":79.3,"dist_nm":15.3,"freq":219,"lat":32.99578900,"lon":-97.02959200,"rng_nm":50,"alt_fmsl":547,"id":"FL","desc":"JIFFY NDB"},
{"type":"VOR","hdg_t":108,"dist_nm":15.3,"freq":113.1,"lat":32.86916667,"lon":-97.04050000,"rng_nm":130,"alt_fmsl":540,"id":"TTT","desc":"MAVERICK VOR-DME"},
{"type":"NDB","hdg_t":119.8,"dist_nm":17.5,"freq":233,"lat":32.80215100,"lon":-97.02746200,"rng_nm":50,"alt_fmsl":500,"id":"PK","desc":"ISSUE NDB"},
{"type":"NDB","hdg_t":18.4,"dist_nm":21.1,"freq":257,"lat":33.28308333,"lon":-97.19625000,"rng_nm":50,"alt_fmsl":0,"id":"DT","desc":"PINCK NDB"},
{"type":"VOR","hdg_t":99.1,"dist_nm":21.7,"freq":116.2,"lat":32.89030556,"lon":-96.90397222,"rng_nm":130,"alt_fmsl":450,"id":"CVE","desc":"COWBOY VOR-DME"},
{"type":"NDB","hdg_t":124.9,"dist_nm":28.3,"freq":287,"lat":32.67693600,"lon":-96.87106700,"rng_nm":50,"alt_fmsl":670,"id":"RBD","desc":"REDBIRD NDB"},
{"type":"NDB","hdg_t":110.2,"dist_nm":29.8,"freq":275,"lat":32.77477200,"lon":-96.77527500,"rng_nm":25,"alt_fmsl":0,"id":"LV","desc":"CONIS NDB"},
{"type":"VOR","hdg_t":248.6,"dist_nm":36.3,"freq":117.7,"lat":32.72619444,"lon":-97.99744444,"rng_nm":130,"alt_fmsl":900,"id":"MQP","desc":"MILLSAP VORTAC"},
{"type":"NDB","hdg_t":255.2,"dist_nm":38,"freq":266,"lat":32.78512800,"lon":-98.05726700,"rng_nm":25,"alt_fmsl":972,"id":"MWL","desc":"MINERAL WELLS NDB"},
{"type":"NDB","hdg_t":101.4,"dist_nm":41.2,"freq":248,"lat":32.80936111,"lon":-96.52911111,"rng_nm":50,"alt_fmsl":0,"id":"PQF","desc":"MESQUITE NDB"},
{"type":"NDB","hdg_t":63.1,"dist_nm":41.7,"freq":421,"lat":33.26166667,"lon":-96.58880556,"rng_nm":50,"alt_fmsl":585,"id":"EF","desc":"FLUET NDB"},
{"type":"VOR","hdg_t":324.9,"dist_nm":43,"freq":112.4,"lat":33.53588889,"lon":-97.82127778,"rng_nm":130,"alt_fmsl":1100,"id":"UKW","desc":"BOWIE VORTAC"},
{"type":"NDB","hdg_t":112.4,"dist_nm":43.6,"freq":388,"lat":32.66808333,"lon":-96.53225000,"rng_nm":50,"alt_fmsl":0,"id":"JUG","desc":"JECCA NDB"},
{"type":"NDB","hdg_t":330.5,"dist_nm":45.2,"freq":356,"lat":33.60538889,"lon":-97.77336111,"rng_nm":50,"alt_fmsl":0,"id":"GMZ","desc":"GRINDSTONE MTN NDB"},
{"type":"NDB","hdg_t":8,"dist_nm":46.5,"freq":330,"lat":33.71866667,"lon":-97.19866667,"rng_nm":50,"alt_fmsl":0,"id":"GLE","desc":"GAINESVILLE NDB"},
{"type":"NDB","hdg_t":270.4,"dist_nm":54.7,"freq":280,"lat":32.95150000,"lon":-98.41311111,"rng_nm":50,"alt_fmsl":0,"id":"GZV","desc":"BRAZOS RIVER NDB"},
{"type":"NDB","hdg_t":83.9,"dist_nm":54.7,"freq":316,"lat":33.04038889,"lon":-96.24858333,"rng_nm":50,"alt_fmsl":0,"id":"MII","desc":"CADDO MILLS NDB"},
{"type":"VOR","hdg_t":210.6,"dist_nm":54.8,"freq":115,"lat":32.15958333,"lon":-97.87769444,"rng_nm":40,"alt_fmsl":1300,"id":"JEN","desc":"GLEN ROSE VORTAC"},
{"type":"NDB","hdg_t":101.3,"dist_nm":55.7,"freq":260,"lat":32.76013889,"lon":-96.24913889,"rng_nm":50,"alt_fmsl":0,"id":"AVZ","desc":"TRAVIS NDB"},
{"type":"NDB","hdg_t":282.7,"dist_nm":60.3,"freq":371,"lat":33.16586111,"lon":-98.49661111,"rng_nm":50,"alt_fmsl":0,"id":"GHX","desc":"GRAHAM NDB"},
{"type":"NDB","hdg_t":32,"dist_nm":62.1,"freq":341,"lat":33.82650000,"lon":-96.66888889,"rng_nm":50,"alt_fmsl":0,"id":"DNI","desc":"DENISON NDB"},
{"type":"NDB","hdg_t":87.8,"dist_nm":63.7,"freq":428,"lat":32.98186111,"lon":-96.06730556,"rng_nm":50,"alt_fmsl":0,"id":"SYW","desc":"CASH NDB"},
{"type":"SDME","hdg_t":83.3,"dist_nm":64.3,"freq":109.6,"lat":33.06626900,"lon":-96.06139700,"rng_nm":25,"alt_fmsl":540,"id":"MJF","desc":"ARVILLA TACAN"},
{"type":"NDB","hdg_t":78.6,"dist_nm":65,"freq":201,"lat":33.15627778,"lon":-96.06361111,"rng_nm":50,"alt_fmsl":0,"id":"GV","desc":"MAJOR NDB"},
{"type":"VOR","hdg_t":57,"dist_nm":65.4,"freq":114.6,"lat":33.53750000,"lon":-96.23408333,"rng_nm":130,"alt_fmsl":700,"id":"BYP","desc":"BONHAM VORTAC"},
{"type":"NDB","hdg_t":138.9,"dist_nm":70,"freq":344,"lat":32.06413889,"lon":-96.42630556,"rng_nm":50,"alt_fmsl":0,"id":"CGQ","desc":"POWELL NDB"},
{"type":"VOR","hdg_t":128.7,"dist_nm":72.5,"freq":114.8,"lat":32.18572222,"lon":-96.21811111,"rng_nm":40,"alt_fmsl":400,"id":"CQY","desc":"CEDAR CREEK VORTAC"},
{"type":"NDB","hdg_t":139,"dist_nm":72.6,"freq":396,"lat":32.02841667,"lon":-96.39461111,"rng_nm":50,"alt_fmsl":0,"id":"CRS","desc":"CORSICANA NDB"},
{"type":"NDB","hdg_t":169.9,"dist_nm":73.4,"freq":378,"lat":31.74091667,"lon":-97.07816667,"rng_nm":50,"alt_fmsl":0,"id":"CN","desc":"LEROI NDB"},
{"type":"NDB","hdg_t":37.8,"dist_nm":75.6,"freq":359,"lat":33.94231900,"lon":-96.39860300,"rng_nm":25,"alt_fmsl":684,"id":"DUA","desc":"DURANT NDB"},
{"type":"VOR","hdg_t":38,"dist_nm":75.9,"freq":114.3,"lat":33.94419444,"lon":-96.39183333,"rng_nm":40,"alt_fmsl":681,"id":"URH","desc":"TEXOMA VOR-DME"},
{"type":"VOR","hdg_t":6,"dist_nm":76,"freq":116.7,"lat":34.21158333,"lon":-97.16822222,"rng_nm":130,"alt_fmsl":937,"id":"ADM","desc":"ARDMORE VORTAC"},
{"type":"NDB","hdg_t":310.9,"dist_nm":76.7,"freq":344,"lat":33.78227778,"lon":-98.48816667,"rng_nm":50,"alt_fmsl":0,"id":"SKB","desc":"SCOTLAND NDB"},
{"type":"VOR","hdg_t":177.7,"dist_nm":77,"freq":115.3,"lat":31.66233333,"lon":-97.26902778,"rng_nm":130,"alt_fmsl":510,"id":"ACT","desc":"WACO VORTAC"},
{"type":"NDB","hdg_t":14.3,"dist_nm":79.3,"freq":400,"lat":34.23233333,"lon":-96.93311111,"rng_nm":50,"alt_fmsl":0,"id":"AI","desc":"ADDMO NDB"},
{"type":"NDB","hdg_t":261.7,"dist_nm":79.8,"freq":245,"lat":32.74734400,"lon":-98.89117800,"rng_nm":25,"alt_fmsl":1226,"id":"BKD","desc":"BRECKENRIDGE NDB"},
{"type":"NDB","hdg_t":315.8,"dist_nm":80.7,"freq":296,"lat":33.91072222,"lon":-98.45466667,"rng_nm":50,"alt_fmsl":0,"id":"ICF","desc":"MADISON NDB"},
{"type":"NDB","hdg_t":315.8,"dist_nm":80.7,"freq":296,"lat":33.91063889,"lon":-98.45491667,"rng_nm":50,"alt_fmsl":0,"id":"SP","desc":"SHAWN NDB"},
{"type":"NDB","hdg_t":246.6,"dist_nm":81.9,"freq":410,"lat":32.39847222,"lon":-98.81033333,"rng_nm":50,"alt_fmsl":0,"id":"OIP","desc":"OLD RIP NDB"},
{"type":"SDME","hdg_t":317.1,"dist_nm":84.9,"freq":110.8,"lat":33.98258300,"lon":-98.48733300,"rng_nm":40,"alt_fmsl":1020,"id":"SHP","desc":"SHEPPARD TACAN"},
{"type":"NDB","hdg_t":138.2,"dist_nm":86.7,"freq":418,"lat":31.86266667,"lon":-96.19747222,"rng_nm":50,"alt_fmsl":0,"id":"PYF","desc":"PYRAMID NDB"},
{"type":"NDB","hdg_t":81.2,"dist_nm":87.1,"freq":338,"lat":33.15844700,"lon":-95.61828900,"rng_nm":25,"alt_fmsl":483,"id":"BHG","desc":"BRASHEAR NDB"},
{"type":"NDB","hdg_t":126.9,"dist_nm":87.4,"freq":215,"lat":32.06350000,"lon":-95.95763889,"rng_nm":50,"alt_fmsl":0,"id":"CSZ","desc":"CROSSROADS NDB"},
{"type":"NDB","hdg_t":171.2,"dist_nm":87.5,"freq":400,"lat":31.50380556,"lon":-97.06958333,"rng_nm":50,"alt_fmsl":0,"id":"ROB","desc":"ROBINSON NDB"},
{"type":"NDB","hdg_t":151.8,"dist_nm":88.7,"freq":329,"lat":31.63961111,"lon":-96.51219444,"rng_nm":50,"alt_fmsl":0,"id":"LXY","desc":"MEXIA NDB"},
{"type":"VOR","hdg_t":314.7,"dist_nm":88.8,"freq":112.7,"lat":33.98727778,"lon":-98.59347222,"rng_nm":130,"alt_fmsl":1133,"id":"SPS","desc":"WICHITA FALLS VORTAC"},
{"type":"NDB","hdg_t":121.4,"dist_nm":89.5,"freq":269,"lat":32.15933333,"lon":-95.83025000,"rng_nm":50,"alt_fmsl":0,"id":"AHX","desc":"ATHENS NDB"},
{"type":"NDB","hdg_t":128.4,"dist_nm":89.6,"freq":335,"lat":32.01071700,"lon":-95.95274200,"rng_nm":25,"alt_fmsl":383,"id":"LIQ","desc":"LOCHRIDGE RANCH NDB"},
{"type":"NDB","hdg_t":207.9,"dist_nm":89.7,"freq":251,"lat":31.62150000,"lon":-98.14891667,"rng_nm":50,"alt_fmsl":0,"id":"MNZ","desc":"HAMILTON NDB"},
{"type":"VOR","hdg_t":341.2,"dist_nm":90.8,"freq":111,"lat":34.38447222,"lon":-97.91683333,"rng_nm":40,"alt_fmsl":1087,"id":"DUC","desc":"DUNCAN VOR-DME"},
{"type":"VOR","hdg_t":153.9,"dist_nm":90.9,"freq":108.8,"lat":31.58147222,"lon":-96.54908333,"rng_nm":40,"alt_fmsl":512,"id":"GNL","desc":"GROESBECK VOR-DME"},
{"type":"VOR","hdg_t":80,"dist_nm":91.2,"freq":109,"lat":33.19855556,"lon":-95.54258333,"rng_nm":40,"alt_fmsl":508,"id":"SLR","desc":"SULPHUR SPRINGS VOR-DME"},
{"type":"VOR","hdg_t":91.8,"dist_nm":99.1,"freq":114,"lat":32.88041667,"lon":-95.36675000,"rng_nm":40,"alt_fmsl":520,"id":"UIM","desc":"QUITMAN VOR-DME"},
{"type":"NDB","hdg_t":108.2,"dist_nm":99.4,"freq":320,"lat":32.41575000,"lon":-95.46961111,"rng_nm":50,"alt_fmsl":0,"id":"TY","desc":"INDOO NDB"}
]
}
