{"success":true,"source":"xp2csv.pl","last_updated":"2013/11/08 14:53:21 UTC"
,"icao":"11CL","name":"Hansen","lat":34.62999,"lon":-117.65339084,"rwys":1,"ils":0,"index":1023785,"path":"w120n30/w118n34"
,"runways":[
{"len_m":1795,"wid_m":24.38,"hdg":84,"surf":"Dirt","rwy1":"07","lat1":34.62914790,"lon1":-117.66312786,"rwy2":"25","lat2":34.63083210,"lon2":-117.64365382}
]
,"navaids":[
{"type":"VOR","hdg_t":99.2,"dist_nm":13.2,"freq":109.4,"lat":34.59416667,"lon":-117.39000000,"rng_nm":25,"alt_fmsl":2855,"id":"VCV","desc":"VICTORVILLE VOR-DME"},
{"type":"VOR","hdg_t":270.3,"dist_nm":20.3,"freq":114.5,"lat":34.63138889,"lon":-118.06383333,"rng_nm":130,"alt_fmsl":2498,"id":"PMD","desc":"PALMDALE VORTAC"},
{"type":"VOR","hdg_t":349.5,"dist_nm":21.4,"freq":116.4,"lat":34.98236111,"lon":-117.73261111,"rng_nm":40,"alt_fmsl":2354,"id":"EDW","desc":"EDWARDS VORTAC"},
{"type":"NDB","hdg_t":283.3,"dist_nm":28.6,"freq":282,"lat":34.73869444,"lon":-118.21677778,"rng_nm":50,"alt_fmsl":0,"id":"GWF","desc":"GEN WILLIAM J FO NDB"},
{"type":"VOR","hdg_t":191.4,"dist_nm":33.6,"freq":110.4,"lat":34.07838889,"lon":-117.78708333,"rng_nm":40,"alt_fmsl":1266,"id":"POM","desc":"POMONA VORTAC"},
{"type":"NDB","hdg_t":157.3,"dist_nm":37.1,"freq":397,"lat":34.05647222,"lon":-117.36611111,"rng_nm":50,"alt_fmsl":0,"id":"SB","desc":"PETIS (LOM/NDB) NDB"},
{"type":"NDB","hdg_t":210.1,"dist_nm":37.4,"freq":359,"lat":34.08830556,"lon":-118.03119444,"rng_nm":50,"alt_fmsl":0,"id":"EMT","desc":"EL MONTE NDB"},
{"type":"VOR","hdg_t":165.8,"dist_nm":41.6,"freq":112.4,"lat":33.95519444,"lon":-117.44983333,"rng_nm":25,"alt_fmsl":0,"id":"RAL","desc":"RIVERSIDE VOR"},
{"type":"VOR","hdg_t":171.7,"dist_nm":43,"freq":112.2,"lat":33.91833333,"lon":-117.53000000,"rng_nm":130,"alt_fmsl":1432,"id":"PDZ","desc":"PARADISE VORTAC"},
{"type":"NDB","hdg_t":239.7,"dist_nm":43.7,"freq":370,"lat":34.25972222,"lon":-118.41341667,"rng_nm":50,"alt_fmsl":0,"id":"PAI","desc":"PACOIMA NDB"},
{"type":"NDB","hdg_t":234.4,"dist_nm":44.3,"freq":253,"lat":34.19802778,"lon":-118.37786111,"rng_nm":50,"alt_fmsl":0,"id":"UR","desc":"VINEE NDB"},
{"type":"VOR","hdg_t":274.2,"dist_nm":45.8,"freq":108.4,"lat":34.68297222,"lon":-118.57694444,"rng_nm":40,"alt_fmsl":5790,"id":"LHS","desc":"LAKE HUGHES VORTAC"},
{"type":"SDME","hdg_t":156.4,"dist_nm":47.2,"freq":113,"lat":33.90646400,"lon":-117.27503300,"rng_nm":25,"alt_fmsl":1540,"id":"RIV","desc":"MARCH TACAN"},
{"type":"VOR","hdg_t":239.8,"dist_nm":48.2,"freq":113.1,"lat":34.22344444,"lon":-118.49166667,"rng_nm":40,"alt_fmsl":812,"id":"VNY","desc":"VAN NUYS VOR-DME"},
{"type":"NDB","hdg_t":218,"dist_nm":50.5,"freq":278,"lat":33.96434200,"lon":-118.27794400,"rng_nm":25,"alt_fmsl":136,"id":"OS","desc":"ROMEN NDB"},
{"type":"NDB","hdg_t":213.8,"dist_nm":53.3,"freq":378,"lat":33.88905556,"lon":-118.24727778,"rng_nm":50,"alt_fmsl":0,"id":"CPM","desc":"COMPTON NDB"},
{"type":"VOR","hdg_t":227.3,"dist_nm":54.5,"freq":110.8,"lat":34.01025000,"lon":-118.45672222,"rng_nm":40,"alt_fmsl":114,"id":"SMO","desc":"SANTA MONICA VOR-DME"},
{"type":"VOR","hdg_t":201.6,"dist_nm":54.5,"freq":115.7,"lat":33.78330556,"lon":-118.05475000,"rng_nm":40,"alt_fmsl":23,"id":"SLI","desc":"SEAL BEACH VORTAC"},
{"type":"VOR","hdg_t":155.3,"dist_nm":56.1,"freq":113.4,"lat":33.77633333,"lon":-117.18533333,"rng_nm":25,"alt_fmsl":0,"id":"HDF","desc":"HOMELAND VOR"},
{"type":"NDB","hdg_t":202,"dist_nm":56.4,"freq":233,"lat":33.75666667,"lon":-118.07738889,"rng_nm":50,"alt_fmsl":0,"id":"LG","desc":"BECCA NDB"},
{"type":"VOR","hdg_t":69.1,"dist_nm":56.7,"freq":113.2,"lat":34.96244444,"lon":-116.57816667,"rng_nm":40,"alt_fmsl":1760,"id":"DAG","desc":"DAGGETT VORTAC"},
{"type":"VOR","hdg_t":223,"dist_nm":56.9,"freq":113.6,"lat":33.93313889,"lon":-118.43200000,"rng_nm":130,"alt_fmsl":182,"id":"LAX","desc":"LOS ANGELES VORTAC"},
{"type":"VOR","hdg_t":183.8,"dist_nm":57.2,"freq":117.2,"lat":33.67602778,"lon":-117.73108333,"rng_nm":25,"alt_fmsl":336,"id":"ELB","desc":"EL TORO VOR-DME"},
{"type":"NDB","hdg_t":190.4,"dist_nm":57.3,"freq":337,"lat":33.68886111,"lon":-117.86050000,"rng_nm":50,"alt_fmsl":0,"id":"NA","desc":"MAAGG NDB"},
{"type":"NDB","hdg_t":146.7,"dist_nm":59.6,"freq":227,"lat":33.79493900,"lon":-116.99927200,"rng_nm":25,"alt_fmsl":1498,"id":"SJY","desc":"SAN JACINTO NDB"},
{"type":"VOR","hdg_t":80,"dist_nm":59.7,"freq":112.7,"lat":34.79702778,"lon":-116.46291667,"rng_nm":130,"alt_fmsl":1853,"id":"HEC","desc":"HECTOR VORTAC"},
{"type":"VOR","hdg_t":280.2,"dist_nm":60.6,"freq":116.1,"lat":34.80402778,"lon":-118.86136111,"rng_nm":40,"alt_fmsl":4920,"id":"GMN","desc":"GORMAN VORTAC"},
{"type":"VOR","hdg_t":255.3,"dist_nm":63,"freq":112.5,"lat":34.35669444,"lon":-118.88127778,"rng_nm":40,"alt_fmsl":2200,"id":"FIM","desc":"FILLMORE VORTAC"},
{"type":"SDME","hdg_t":358.3,"dist_nm":63.4,"freq":111.6,"lat":35.68792800,"lon":-117.69047200,"rng_nm":25,"alt_fmsl":2272,"id":"NID","desc":"CHINA LAKE TACAN"},
{"type":"VOR","hdg_t":251.1,"dist_nm":75.7,"freq":115.8,"lat":34.21252778,"lon":-119.09436111,"rng_nm":40,"alt_fmsl":63,"id":"CMA","desc":"CAMARILLO VOR-DME"},
{"type":"VOR","hdg_t":246.4,"dist_nm":75.8,"freq":108.2,"lat":34.11505556,"lon":-119.04950000,"rng_nm":40,"alt_fmsl":1560,"id":"VTU","desc":"VENTURA VOR-DME"},
{"type":"VOR","hdg_t":126.4,"dist_nm":75.9,"freq":115.5,"lat":33.87002778,"lon":-116.42977778,"rng_nm":40,"alt_fmsl":1600,"id":"PSP","desc":"PALM SPRINGS VORTAC"},
{"type":"SDME","hdg_t":247.8,"dist_nm":78.9,"freq":110.6,"lat":34.12329200,"lon":-119.12197800,"rng_nm":25,"alt_fmsl":6,"id":"NTD","desc":"POINT MUGU TACAN"},
{"type":"SDME","hdg_t":170.6,"dist_nm":82.2,"freq":111.8,"lat":33.27441400,"lon":-117.38699700,"rng_nm":25,"alt_fmsl":560,"id":"NFG","desc":"CAMP PENDLETON TACAN"},
{"type":"VOR","hdg_t":171.8,"dist_nm":84,"freq":115.3,"lat":33.24063889,"lon":-117.41772222,"rng_nm":130,"alt_fmsl":53,"id":"OCN","desc":"OCEANSIDE VORTAC"},
{"type":"VOR","hdg_t":207.1,"dist_nm":84.3,"freq":111.4,"lat":33.37505556,"lon":-118.41991667,"rng_nm":40,"alt_fmsl":2090,"id":"SXC","desc":"SANTA CATALINA VORTAC"},
{"type":"VOR","hdg_t":306.1,"dist_nm":87.6,"freq":115.4,"lat":35.48455556,"lon":-119.09730556,"rng_nm":130,"alt_fmsl":548,"id":"EHF","desc":"SHAFTER VORTAC"},
{"type":"VOR","hdg_t":128.4,"dist_nm":95.5,"freq":116.2,"lat":33.62808333,"lon":-116.16019444,"rng_nm":130,"alt_fmsl":-87,"id":"TRM","desc":"THERMAL VORTAC"},
{"type":"VOR","hdg_t":107.8,"dist_nm":98.5,"freq":114.2,"lat":34.11222222,"lon":-115.76991667,"rng_nm":40,"alt_fmsl":1374,"id":"TNP","desc":"TWENTYNINE PALMS VORTAC"}
]
}
