{"success":true,"source":"xp2csv.pl","last_updated":"2013/11/08 14:53:21 UTC"
,"icao":"11OK","name":"Beefor Ranch","lat":35.0722925,"lon":-97.38364056,"rwys":1,"ils":0,"index":1351490,"path":"w100n30/w098n35"
,"runways":[
{"len_m":578,"wid_m":30.48,"hdg":187,"surf":"Turf/grass","rwy1":"18","lat1":35.07487891,"lon1":-97.38325253,"rwy2":"36","lat2":35.06970609,"lon2":-97.38402859}
]
,"navaids":[
{"type":"NDB","hdg_t":108.9,"dist_nm":7.9,"freq":512,"lat":35.02897222,"lon":-97.23047222,"rng_nm":50,"alt_fmsl":0,"id":"HMY","desc":"MULDROW NDB"},
{"type":"NDB","hdg_t":338,"dist_nm":11.3,"freq":370,"lat":35.24825000,"lon":-97.46997222,"rng_nm":50,"alt_fmsl":0,"id":"OUN","desc":"NORMAN NDB"},
{"type":"NDB","hdg_t":322.9,"dist_nm":16.7,"freq":350,"lat":35.29505556,"lon":-97.58866667,"rng_nm":50,"alt_fmsl":0,"id":"RG","desc":"GALLY NDB"},
{"type":"VOR","hdg_t":327.1,"dist_nm":20.4,"freq":114.1,"lat":35.35858333,"lon":-97.60922222,"rng_nm":130,"alt_fmsl":1230,"id":"IRW","desc":"WILL ROGERS VORTAC"},
{"type":"SDME","hdg_t":0.5,"dist_nm":21.8,"freq":115.8,"lat":35.43650800,"lon":-97.37968900,"rng_nm":25,"alt_fmsl":1251,"id":"TIK","desc":"TINKER TACAN"},
{"type":"NDB","hdg_t":160.2,"dist_nm":22.7,"freq":384,"lat":34.71541667,"lon":-97.22891667,"rng_nm":50,"alt_fmsl":0,"id":"PVJ","desc":"PAULS VALLEY NDB"},
{"type":"NDB","hdg_t":335.5,"dist_nm":26.2,"freq":406,"lat":35.47144444,"lon":-97.60544444,"rng_nm":50,"alt_fmsl":0,"id":"OK","desc":"TULOO NDB"},
{"type":"VOR","hdg_t":334.9,"dist_nm":30.4,"freq":113.4,"lat":35.53294444,"lon":-97.64716667,"rng_nm":25,"alt_fmsl":1271,"id":"PWA","desc":"WILEY POST VOR-DME"},
{"type":"NDB","hdg_t":43.6,"dist_nm":31.3,"freq":264,"lat":35.44983333,"lon":-96.94300000,"rng_nm":50,"alt_fmsl":0,"id":"HN","desc":"SUYBE NDB"},
{"type":"NDB","hdg_t":70.8,"dist_nm":36.8,"freq":278,"lat":35.27175000,"lon":-96.67475000,"rng_nm":50,"alt_fmsl":0,"id":"SRE","desc":"SEMINOLE NDB"},
{"type":"VOR","hdg_t":114.4,"dist_nm":38.7,"freq":117.8,"lat":34.80255556,"lon":-96.67008333,"rng_nm":25,"alt_fmsl":987,"id":"ADH","desc":"ADA VOR-DME"},
{"type":"NDB","hdg_t":50.6,"dist_nm":42.1,"freq":314,"lat":35.51672222,"lon":-96.71863889,"rng_nm":50,"alt_fmsl":0,"id":"GGU","desc":"PRAGUE NDB"},
{"type":"NDB","hdg_t":358,"dist_nm":46.3,"freq":326,"lat":35.84555600,"lon":-97.41580600,"rng_nm":25,"alt_fmsl":1074,"id":"LCY","desc":"LOGAN COUNTY NDB"},
{"type":"NDB","hdg_t":88.7,"dist_nm":47.7,"freq":411,"lat":35.08527778,"lon":-96.41366667,"rng_nm":50,"alt_fmsl":0,"id":"HDL","desc":"HOLDENVILLE NDB"},
{"type":"NDB","hdg_t":35.2,"dist_nm":47.7,"freq":396,"lat":35.72227778,"lon":-96.81863889,"rng_nm":50,"alt_fmsl":0,"id":"CQB","desc":"TILGHMAN NDB"},
{"type":"VOR","hdg_t":212.7,"dist_nm":48.9,"freq":111,"lat":34.38447222,"lon":-97.91683333,"rng_nm":40,"alt_fmsl":1087,"id":"DUC","desc":"DUNCAN VOR-DME"},
{"type":"VOR","hdg_t":168.2,"dist_nm":52.6,"freq":116.7,"lat":34.21158333,"lon":-97.16822222,"rng_nm":130,"alt_fmsl":937,"id":"ADM","desc":"ARDMORE VORTAC"},
{"type":"NDB","hdg_t":251.1,"dist_nm":53.1,"freq":388,"lat":34.78138889,"lon":-98.40230556,"rng_nm":50,"alt_fmsl":0,"id":"OFZ","desc":"TRAIL NDB"},
{"type":"VOR","hdg_t":325.4,"dist_nm":53.4,"freq":114.7,"lat":35.80527778,"lon":-98.00391667,"rng_nm":130,"alt_fmsl":1110,"id":"IFI","desc":"KINGFISHER VORTAC"},
{"type":"NDB","hdg_t":155.9,"dist_nm":55,"freq":400,"lat":34.23233333,"lon":-96.93311111,"rng_nm":50,"alt_fmsl":0,"id":"AI","desc":"ADDMO NDB"},
{"type":"NDB","hdg_t":31.2,"dist_nm":57.3,"freq":242,"lat":35.89011111,"lon":-96.77333333,"rng_nm":50,"alt_fmsl":0,"id":"CUH","desc":"CUSHING NDB"},
{"type":"NDB","hdg_t":241.4,"dist_nm":57.5,"freq":308,"lat":34.60885200,"lon":-98.40377500,"rng_nm":25,"alt_fmsl":0,"id":"PFL","desc":"POST NDB"},
{"type":"NDB","hdg_t":241.4,"dist_nm":57.5,"freq":425,"lat":34.60886111,"lon":-98.40377778,"rng_nm":50,"alt_fmsl":0,"id":"PFL","desc":"POST NDB"},
{"type":"VOR","hdg_t":236.1,"dist_nm":61.4,"freq":109.4,"lat":34.49616667,"lon":-98.41308333,"rng_nm":40,"alt_fmsl":1104,"id":"LAW","desc":"LAWTON VOR-DME"},
{"type":"NDB","hdg_t":48,"dist_nm":62.9,"freq":251,"lat":35.76980000,"lon":-96.42472800,"rng_nm":25,"alt_fmsl":929,"id":"TZO","desc":"BRISTOW NDB"},
{"type":"NDB","hdg_t":293.8,"dist_nm":68.8,"freq":272,"lat":35.53005200,"lon":-98.67062900,"rng_nm":25,"alt_fmsl":1581,"id":"OJA","desc":"WEATHERFORD NDB"},
{"type":"NDB","hdg_t":313.1,"dist_nm":69.6,"freq":359,"lat":35.86198600,"lon":-98.42535000,"rng_nm":25,"alt_fmsl":1530,"id":"JWG","desc":"WATONGA NDB"},
{"type":"NDB","hdg_t":73.1,"dist_nm":70.2,"freq":267,"lat":35.40455556,"lon":-96.01388889,"rng_nm":50,"alt_fmsl":0,"id":"HET","desc":"HENRYETTA NDB"},
{"type":"VOR","hdg_t":12,"dist_nm":70.5,"freq":108.4,"lat":36.22425000,"lon":-97.08125000,"rng_nm":25,"alt_fmsl":1022,"id":"SWO","desc":"STILLWATER VOR-DME"},
{"type":"NDB","hdg_t":11.6,"dist_nm":71.2,"freq":255,"lat":36.23616667,"lon":-97.08730556,"rng_nm":50,"alt_fmsl":0,"id":"SW","desc":"BLAKI NDB"},
{"type":"NDB","hdg_t":344.6,"dist_nm":74.7,"freq":341,"lat":36.27502778,"lon":-97.79077778,"rng_nm":50,"alt_fmsl":0,"id":"EI","desc":"GARFY NDB"},
{"type":"NDB","hdg_t":101.5,"dist_nm":78.8,"freq":344,"lat":34.79777778,"lon":-95.82069444,"rng_nm":50,"alt_fmsl":0,"id":"ML","desc":"WAMPA NDB"},
{"type":"VOR","hdg_t":99.1,"dist_nm":80,"freq":112,"lat":34.84944444,"lon":-95.78230556,"rng_nm":40,"alt_fmsl":820,"id":"MLC","desc":"MC ALESTER VORTAC"},
{"type":"VOR","hdg_t":345.8,"dist_nm":80.4,"freq":109,"lat":36.37375000,"lon":-97.78816667,"rng_nm":25,"alt_fmsl":1149,"id":"ODG","desc":"WOODRING VOR-DME"},
{"type":"VOR","hdg_t":341.2,"dist_nm":80.5,"freq":115.4,"lat":36.34497222,"lon":-97.91836111,"rng_nm":130,"alt_fmsl":1276,"id":"END","desc":"VANCE VORTAC"},
{"type":"NDB","hdg_t":290.6,"dist_nm":81.1,"freq":320,"lat":35.53921700,"lon":-98.93508300,"rng_nm":25,"alt_fmsl":1605,"id":"CLK","desc":"CLINTON NDB"},
{"type":"NDB","hdg_t":59.4,"dist_nm":81.4,"freq":388,"lat":35.75527778,"lon":-95.94872222,"rng_nm":50,"alt_fmsl":0,"id":"OK","desc":"PRESO NDB"},
{"type":"NDB","hdg_t":173.4,"dist_nm":81.5,"freq":330,"lat":33.71866667,"lon":-97.19866667,"rng_nm":50,"alt_fmsl":0,"id":"GLE","desc":"GAINESVILLE NDB"},
{"type":"NDB","hdg_t":154.3,"dist_nm":82.6,"freq":341,"lat":33.82650000,"lon":-96.66888889,"rng_nm":50,"alt_fmsl":0,"id":"DNI","desc":"DENISON NDB"},
{"type":"VOR","hdg_t":63,"dist_nm":83.2,"freq":114.9,"lat":35.69311111,"lon":-95.86597222,"rng_nm":130,"alt_fmsl":766,"id":"OKM","desc":"OKMULGEE VOR-DME"},
{"type":"NDB","hdg_t":143.9,"dist_nm":83.4,"freq":359,"lat":33.94231900,"lon":-96.39860300,"rng_nm":25,"alt_fmsl":684,"id":"DUA","desc":"DURANT NDB"},
{"type":"VOR","hdg_t":143.6,"dist_nm":83.5,"freq":114.3,"lat":33.94419444,"lon":-96.39183333,"rng_nm":40,"alt_fmsl":681,"id":"URH","desc":"TEXOMA VOR-DME"},
{"type":"VOR","hdg_t":262,"dist_nm":83.7,"freq":111.8,"lat":34.86655556,"lon":-99.06338889,"rng_nm":40,"alt_fmsl":1472,"id":"HBR","desc":"HOBART VORTAC"},
{"type":"SDME","hdg_t":220.2,"dist_nm":85.1,"freq":110.8,"lat":33.98258300,"lon":-98.48733300,"rng_nm":40,"alt_fmsl":1020,"id":"SHP","desc":"SHEPPARD TACAN"},
{"type":"VOR","hdg_t":53.3,"dist_nm":85.9,"freq":110.6,"lat":35.92088889,"lon":-95.96863889,"rng_nm":25,"alt_fmsl":810,"id":"GNP","desc":"GLENPOOL VOR-DME"},
{"type":"NDB","hdg_t":217.6,"dist_nm":87.5,"freq":296,"lat":33.91072222,"lon":-98.45466667,"rng_nm":50,"alt_fmsl":0,"id":"ICF","desc":"MADISON NDB"},
{"type":"NDB","hdg_t":217.6,"dist_nm":87.5,"freq":296,"lat":33.91063889,"lon":-98.45491667,"rng_nm":50,"alt_fmsl":0,"id":"SP","desc":"SHAWN NDB"},
{"type":"VOR","hdg_t":223,"dist_nm":88.4,"freq":112.7,"lat":33.98727778,"lon":-98.59347222,"rng_nm":130,"alt_fmsl":1133,"id":"SPS","desc":"WICHITA FALLS VORTAC"},
{"type":"NDB","hdg_t":42,"dist_nm":89.2,"freq":362,"lat":36.17297222,"lon":-96.15422222,"rng_nm":50,"alt_fmsl":0,"id":"OWP","desc":"WILLIAM POGUE NDB"},
{"type":"NDB","hdg_t":192.5,"dist_nm":89.9,"freq":356,"lat":33.60538889,"lon":-97.77336111,"rng_nm":50,"alt_fmsl":0,"id":"GMZ","desc":"GRINDSTONE MTN NDB"},
{"type":"NDB","hdg_t":323.9,"dist_nm":90.2,"freq":246,"lat":36.28516700,"lon":-98.47800000,"rng_nm":25,"alt_fmsl":1273,"id":"FAU","desc":"FAIRVIEW NDB"},
{"type":"NDB","hdg_t":241.9,"dist_nm":90.2,"freq":222,"lat":34.35383900,"lon":-98.98647800,"rng_nm":25,"alt_fmsl":1255,"id":"FDR","desc":"FREDERICK NDB"},
{"type":"VOR","hdg_t":276.8,"dist_nm":90.2,"freq":110,"lat":35.23694444,"lon":-99.20616667,"rng_nm":25,"alt_fmsl":1780,"id":"BFV","desc":"BURNS FLAT VORTAC"},
{"type":"NDB","hdg_t":284.7,"dist_nm":92.1,"freq":393,"lat":35.45066667,"lon":-99.20147222,"rng_nm":50,"alt_fmsl":0,"id":"BZ","desc":"FOSSI NDB"},
{"type":"VOR","hdg_t":193.4,"dist_nm":94.5,"freq":112.4,"lat":33.53588889,"lon":-97.82127778,"rng_nm":130,"alt_fmsl":1100,"id":"UKW","desc":"BOWIE VORTAC"},
{"type":"NDB","hdg_t":215.6,"dist_nm":94.7,"freq":344,"lat":33.78227778,"lon":-98.48816667,"rng_nm":50,"alt_fmsl":0,"id":"SKB","desc":"SCOTLAND NDB"},
{"type":"NDB","hdg_t":49.5,"dist_nm":95.5,"freq":338,"lat":36.09738889,"lon":-95.88877778,"rng_nm":50,"alt_fmsl":0,"id":"TU","desc":"OILLR NDB"},
{"type":"VOR","hdg_t":255.7,"dist_nm":96.3,"freq":109.8,"lat":34.66275000,"lon":-99.27097222,"rng_nm":40,"alt_fmsl":1370,"id":"LTS","desc":"ALTUS VORTAC"}
]
}
