{"success":true,"source":"xp2csv.pl","last_updated":"2013/11/08 14:53:21 UTC"
,"icao":"14FL","name":"Wells Flying Service","lat":30.86546361,"lon":-87.17774862,"rwys":1,"ils":0,"index":1515059,"path":"w090n30/w088n30"
,"runways":[
{"len_m":611,"wid_m":18.29,"hdg":90,"surf":"Turf/grass","rwy1":"09","lat1":30.86551148,"lon1":-87.18094369,"rwy2":"27","lat2":30.86541574,"lon2":-87.17455355}
]
,"navaids":[
{"type":"SDME","hdg_t":135.6,"dist_nm":11.8,"freq":112.3,"lat":30.72400000,"lon":-87.01800000,"rng_nm":40,"alt_fmsl":179,"id":"NSE","desc":"WHITING TACAN"},
{"type":"VOR","hdg_t":199.2,"dist_nm":24.9,"freq":108.8,"lat":30.47213889,"lon":-87.33588889,"rng_nm":40,"alt_fmsl":0,"id":"NUN","desc":"SAUFLEY VOR"},
{"type":"NDB","hdg_t":180,"dist_nm":25.6,"freq":326,"lat":30.43705556,"lon":-87.17836111,"rng_nm":50,"alt_fmsl":0,"id":"PKZ","desc":"PICKENS NDB"},
{"type":"VOR","hdg_t":95,"dist_nm":25.8,"freq":115.9,"lat":30.82616667,"lon":-86.67913889,"rng_nm":130,"alt_fmsl":255,"id":"CEW","desc":"CRESTVIEW VORTAC"},
{"type":"SDME","hdg_t":193.3,"dist_nm":31.2,"freq":117.2,"lat":30.35800000,"lon":-87.31650000,"rng_nm":40,"alt_fmsl":24,"id":"NPA","desc":"PENSACOLA TACAN"},
{"type":"NDB","hdg_t":91.1,"dist_nm":33.1,"freq":201,"lat":30.85286111,"lon":-86.53661111,"rng_nm":50,"alt_fmsl":0,"id":"CE","desc":"KOBRA NDB"},
{"type":"NDB","hdg_t":232.4,"dist_nm":35.8,"freq":204,"lat":30.49925000,"lon":-87.72566667,"rng_nm":50,"alt_fmsl":0,"id":"ESU","desc":"SUMMERDALE NDB"},
{"type":"SDME","hdg_t":135.9,"dist_nm":36.3,"freq":110.8,"lat":30.42803600,"lon":-86.69028900,"rng_nm":25,"alt_fmsl":35,"id":"HRT","desc":"HURLBURT TACAN"},
{"type":"VOR","hdg_t":345.8,"dist_nm":36.7,"freq":116.8,"lat":31.46044444,"lon":-87.35275000,"rng_nm":40,"alt_fmsl":420,"id":"MVC","desc":"MONROEVILLE VORTAC"},
{"type":"VOR","hdg_t":251.7,"dist_nm":47.8,"freq":112.8,"lat":30.61272222,"lon":-88.05550000,"rng_nm":40,"alt_fmsl":30,"id":"BFM","desc":"BROOKLEY VORTAC"},
{"type":"NDB","hdg_t":56.8,"dist_nm":48.3,"freq":264,"lat":31.30508333,"lon":-86.39088889,"rng_nm":50,"alt_fmsl":0,"id":"JUY","desc":"JUDD NDB"},
{"type":"VOR","hdg_t":56.5,"dist_nm":48.4,"freq":110.2,"lat":31.30952778,"lon":-86.39213889,"rng_nm":25,"alt_fmsl":0,"id":"UIA","desc":"ANDALUSIA VOR"},
{"type":"VOR","hdg_t":262.5,"dist_nm":61.6,"freq":115.3,"lat":30.72597222,"lon":-88.35930556,"rng_nm":130,"alt_fmsl":190,"id":"SJI","desc":"SEMMES VORTAC"},
{"type":"NDB","hdg_t":64.9,"dist_nm":67.8,"freq":352,"lat":31.33938889,"lon":-85.98194444,"rng_nm":50,"alt_fmsl":0,"id":"BVG","desc":"BOLL WEEVIL NDB"},
{"type":"VOR","hdg_t":281.9,"dist_nm":68.9,"freq":115.7,"lat":31.09797222,"lon":-88.48613889,"rng_nm":130,"alt_fmsl":300,"id":"GCV","desc":"GREENE CO VORTAC"},
{"type":"VOR","hdg_t":68.2,"dist_nm":70.5,"freq":116.6,"lat":31.29636111,"lon":-85.90275000,"rng_nm":25,"alt_fmsl":0,"id":"EDN","desc":"ENTERPRISE VOR"},
{"type":"NDB","hdg_t":72.5,"dist_nm":73.4,"freq":212,"lat":31.22563889,"lon":-85.81597222,"rng_nm":50,"alt_fmsl":0,"id":"OZ","desc":"RUCKR NDB"},
{"type":"NDB","hdg_t":255.4,"dist_nm":73.6,"freq":209,"lat":30.54816667,"lon":-88.55316667,"rng_nm":50,"alt_fmsl":0,"id":"PQ","desc":"TLOTT NDB"},
{"type":"VOR","hdg_t":71.7,"dist_nm":78.5,"freq":111.2,"lat":31.26894444,"lon":-85.72630556,"rng_nm":40,"alt_fmsl":326,"id":"OZR","desc":"CAIRNS VOR-DME"},
{"type":"NDB","hdg_t":51.2,"dist_nm":78.9,"freq":281,"lat":31.68433333,"lon":-85.97438889,"rng_nm":50,"alt_fmsl":0,"id":"XNE","desc":"SPRING HILL NDB"},
{"type":"NDB","hdg_t":67.7,"dist_nm":79.5,"freq":269,"lat":31.36033333,"lon":-85.74350000,"rng_nm":50,"alt_fmsl":0,"id":"LOR","desc":"LOWE NDB"},
{"type":"NDB","hdg_t":43.3,"dist_nm":79.8,"freq":365,"lat":31.83080556,"lon":-86.10622222,"rng_nm":50,"alt_fmsl":0,"id":"TO","desc":"BLOOD NDB"},
{"type":"NDB","hdg_t":90.1,"dist_nm":81.4,"freq":275,"lat":30.85150000,"lon":-85.60133333,"rng_nm":50,"alt_fmsl":0,"id":"BKK","desc":"TRI COUNTY NDB"},
{"type":"NDB","hdg_t":68.3,"dist_nm":84.2,"freq":221,"lat":31.37608333,"lon":-85.65377778,"rng_nm":50,"alt_fmsl":0,"id":"HYE","desc":"HANCHEY NDB"},
{"type":"VOR","hdg_t":68.4,"dist_nm":84.2,"freq":110.6,"lat":31.37413889,"lon":-85.65280556,"rng_nm":25,"alt_fmsl":0,"id":"HEY","desc":"HANCHEY VOR"},
{"type":"NDB","hdg_t":8.6,"dist_nm":85,"freq":344,"lat":32.26977778,"lon":-86.92744444,"rng_nm":50,"alt_fmsl":0,"id":"SE","desc":"POLLK (LOM/NDB) NDB"},
{"type":"VOR","hdg_t":116.2,"dist_nm":86.7,"freq":114.3,"lat":30.21625000,"lon":-85.68094444,"rng_nm":40,"alt_fmsl":10,"id":"PFN","desc":"PANAMA CITY VORTAC"},
{"type":"NDB","hdg_t":327.3,"dist_nm":89,"freq":228,"lat":32.11431300,"lon":-88.12140700,"rng_nm":25,"alt_fmsl":115,"id":"BCZ","desc":"CHOCTAW NDB"},
{"type":"VOR","hdg_t":6.1,"dist_nm":89,"freq":113.6,"lat":32.34461111,"lon":-86.99127778,"rng_nm":130,"alt_fmsl":160,"id":"JYU","desc":"JUNIOR VOR-DME"},
{"type":"VOR","hdg_t":119.4,"dist_nm":89.6,"freq":114.3,"lat":30.11966667,"lon":-85.67780556,"rng_nm":40,"alt_fmsl":55,"id":"HLL","desc":"HANDLE VORTAC"},
{"type":"VOR","hdg_t":28.2,"dist_nm":92.3,"freq":112.1,"lat":32.22227778,"lon":-86.31972222,"rng_nm":130,"alt_fmsl":270,"id":"MGM","desc":"MONTGOMERY VORTAC"},
{"type":"NDB","hdg_t":21.3,"dist_nm":93,"freq":245,"lat":32.31161111,"lon":-86.51058333,"rng_nm":50,"alt_fmsl":0,"id":"MG","desc":"MARRA NDB"},
{"type":"VOR","hdg_t":73.9,"dist_nm":93.4,"freq":111.6,"lat":31.28458333,"lon":-85.43119444,"rng_nm":40,"alt_fmsl":381,"id":"RRS","desc":"WIREGRASS VORTAC"},
{"type":"SDME","hdg_t":253.6,"dist_nm":94.7,"freq":111.8,"lat":30.40708600,"lon":-88.92971100,"rng_nm":25,"alt_fmsl":10,"id":"BIX","desc":"KEESLER TACAN"},
{"type":"SDME","hdg_t":119.2,"dist_nm":95.7,"freq":117.7,"lat":30.07397000,"lon":-85.57243100,"rng_nm":130,"alt_fmsl":14,"id":"PAM","desc":"TYNDALL TACAN"},
{"type":"SDME","hdg_t":24.3,"dist_nm":99.6,"freq":115,"lat":32.37933300,"lon":-86.36833300,"rng_nm":40,"alt_fmsl":170,"id":"MXF","desc":"MAXWELL TACAN"}
]
}
