{"success":true,"source":"xp2csv.pl","last_updated":"2013/11/08 14:53:21 UTC"
,"icao":"14W","name":"Meadstown Airstrip","lat":36.20015805,"lon":-76.23576667,"rwys":1,"ils":0,"index":1695627,"path":"w080n30/w077n36"
,"runways":[
{"len_m":1095,"wid_m":45.72,"hdg":350,"surf":"Turf/grass","rwy1":"36","lat1":36.19528147,"lon1":-76.23480953,"rwy2":"18","lat2":36.20503463,"lon2":-76.23672381}
]
,"navaids":[
{"type":"VOR","hdg_t":40.2,"dist_nm":4.5,"freq":112.5,"lat":36.25758333,"lon":-76.17563889,"rng_nm":40,"alt_fmsl":10,"id":"ECG","desc":"ELIZABETH CITY VOR-DME"},
{"type":"NDB","hdg_t":321.2,"dist_nm":4.8,"freq":254,"lat":36.26300000,"lon":-76.29802778,"rng_nm":50,"alt_fmsl":0,"id":"LLW","desc":"WOODVILLE NDB"},
{"type":"NDB","hdg_t":237,"dist_nm":19.1,"freq":265,"lat":36.02544444,"lon":-76.56650000,"rng_nm":50,"alt_fmsl":0,"id":"EDE","desc":"EDENTON NDB"},
{"type":"VOR","hdg_t":122.4,"dist_nm":31.1,"freq":111.6,"lat":35.92050000,"lon":-75.69694444,"rng_nm":25,"alt_fmsl":10,"id":"RBX","desc":"WRIGHT BROTHERS VOR-DME"},
{"type":"NDB","hdg_t":122.8,"dist_nm":31.3,"freq":370,"lat":35.91533333,"lon":-75.69505556,"rng_nm":50,"alt_fmsl":0,"id":"MQI","desc":"MANTEO NDB"},
{"type":"VOR","hdg_t":288.7,"dist_nm":32.5,"freq":114.6,"lat":36.37291667,"lon":-76.87152778,"rng_nm":40,"alt_fmsl":70,"id":"CVI","desc":"COFIELD VORTAC"},
{"type":"NDB","hdg_t":227.8,"dist_nm":34.7,"freq":221,"lat":35.80988300,"lon":-76.76272200,"rng_nm":25,"alt_fmsl":38,"id":"PMZ","desc":"PLYMOUTH NDB"},
{"type":"NDB","hdg_t":358.8,"dist_nm":38.3,"freq":329,"lat":36.84047222,"lon":-76.25122222,"rng_nm":50,"alt_fmsl":0,"id":"OR","desc":"INGLE NDB"},
{"type":"SDME","hdg_t":14.3,"dist_nm":38.6,"freq":116.6,"lat":36.82421900,"lon":-76.03704700,"rng_nm":40,"alt_fmsl":64,"id":"NTU","desc":"OCEANA TACAN"},
{"type":"VOR","hdg_t":2.3,"dist_nm":41.4,"freq":116.9,"lat":36.89188889,"lon":-76.20033333,"rng_nm":130,"alt_fmsl":20,"id":"ORF","desc":"NORFOLK VORTAC"},
{"type":"SDME","hdg_t":357.4,"dist_nm":44.3,"freq":111.1,"lat":36.93998100,"lon":-76.27729400,"rng_nm":40,"alt_fmsl":45,"id":"NGU","desc":"CHAMBERS TACAN"},
{"type":"VOR","hdg_t":309.5,"dist_nm":48.5,"freq":110.6,"lat":36.71425000,"lon":-77.01238889,"rng_nm":40,"alt_fmsl":84,"id":"FKN","desc":"FRANKLIN VORTAC"},
{"type":"NDB","hdg_t":246.2,"dist_nm":50.2,"freq":336,"lat":35.85905556,"lon":-77.17794444,"rng_nm":50,"alt_fmsl":0,"id":"MCZ","desc":"WILLIAMSTON NDB"},
{"type":"SDME","hdg_t":353.6,"dist_nm":53.3,"freq":112.3,"lat":37.08556100,"lon":-76.35941100,"rng_nm":40,"alt_fmsl":11,"id":"LFI","desc":"LANGLEY TACAN"},
{"type":"NDB","hdg_t":347.5,"dist_nm":57.2,"freq":375,"lat":37.13280556,"lon":-76.49319444,"rng_nm":50,"alt_fmsl":0,"id":"PJS","desc":"HENRY NDB"},
{"type":"NDB","hdg_t":341.9,"dist_nm":59.1,"freq":226,"lat":37.13877778,"lon":-76.61855556,"rng_nm":50,"alt_fmsl":0,"id":"FAF","desc":"FELKER NDB"},
{"type":"NDB","hdg_t":226,"dist_nm":59.2,"freq":388,"lat":35.50966667,"lon":-77.10661111,"rng_nm":50,"alt_fmsl":0,"id":"RNW","desc":"CHOCOWINITY NDB"},
{"type":"NDB","hdg_t":321.9,"dist_nm":59.7,"freq":274,"lat":36.98319444,"lon":-77.00108333,"rng_nm":50,"alt_fmsl":0,"id":"AKQ","desc":"WAKEFIELD NDB"},
{"type":"NDB","hdg_t":242.2,"dist_nm":62.7,"freq":230,"lat":35.70688889,"lon":-77.37188889,"rng_nm":50,"alt_fmsl":0,"id":"AQE","desc":"ALWOOD NDB"},
{"type":"NDB","hdg_t":293.8,"dist_nm":62.8,"freq":261,"lat":36.61797222,"lon":-77.42550000,"rng_nm":50,"alt_fmsl":0,"id":"ELQ","desc":"EMPORIA NDB"},
{"type":"NDB","hdg_t":256.4,"dist_nm":65.6,"freq":257,"lat":35.93544444,"lon":-77.54636111,"rng_nm":50,"alt_fmsl":0,"id":"ETC","desc":"TARBORO NDB"},
{"type":"VOR","hdg_t":9.4,"dist_nm":69.7,"freq":112.2,"lat":37.34752778,"lon":-75.99766667,"rng_nm":40,"alt_fmsl":10,"id":"CCV","desc":"CAPE CHARLES VORTAC"},
{"type":"VOR","hdg_t":259.8,"dist_nm":72.6,"freq":117.8,"lat":35.97677778,"lon":-77.70375000,"rng_nm":40,"alt_fmsl":70,"id":"TYI","desc":"TAR RIVER VORTAC"},
{"type":"NDB","hdg_t":281.8,"dist_nm":72.8,"freq":407,"lat":36.44097222,"lon":-77.70830556,"rng_nm":50,"alt_fmsl":0,"id":"RZZ","desc":"RAPIDS NDB"},
{"type":"VOR","hdg_t":343.1,"dist_nm":78.2,"freq":108.8,"lat":37.44866667,"lon":-76.71136111,"rng_nm":40,"alt_fmsl":8,"id":"HCM","desc":"HARCUM VORTAC"},
{"type":"VOR","hdg_t":210.6,"dist_nm":78.2,"freq":113.6,"lat":35.07313889,"lon":-77.04505556,"rng_nm":40,"alt_fmsl":10,"id":"EWN","desc":"NEW BERN VOR-DME"},
{"type":"VOR","hdg_t":328.1,"dist_nm":79.8,"freq":112,"lat":37.32886111,"lon":-77.11594444,"rng_nm":40,"alt_fmsl":70,"id":"HPW","desc":"HOPEWELL VORTAC"},
{"type":"VOR","hdg_t":232.8,"dist_nm":81.4,"freq":109.6,"lat":35.37094444,"lon":-77.55833333,"rng_nm":40,"alt_fmsl":106,"id":"ISO","desc":"KINSTON VORTAC"},
{"type":"NDB","hdg_t":210.5,"dist_nm":81.7,"freq":362,"lat":35.02155556,"lon":-77.07950000,"rng_nm":50,"alt_fmsl":0,"id":"EW","desc":"KATFI NDB"},
{"type":"SDME","hdg_t":202.1,"dist_nm":83.8,"freq":112.8,"lat":34.90222800,"lon":-76.87482200,"rng_nm":40,"alt_fmsl":30,"id":"NKT","desc":"CHERRY POINT TACAN"},
{"type":"NDB","hdg_t":14.2,"dist_nm":84.7,"freq":336,"lat":37.57030556,"lon":-75.79830556,"rng_nm":50,"alt_fmsl":0,"id":"BDB","desc":"ACCOMACK NDB"},
{"type":"NDB","hdg_t":311.1,"dist_nm":85.3,"freq":284,"lat":37.13027778,"lon":-77.57447222,"rng_nm":50,"alt_fmsl":0,"id":"PTB","desc":"PETERSBURG NDB"},
{"type":"NDB","hdg_t":253.4,"dist_nm":88,"freq":235,"lat":35.76765800,"lon":-77.96459700,"rng_nm":25,"alt_fmsl":158,"id":"RW","desc":"JAMBE NDB"},
{"type":"VOR","hdg_t":295.1,"dist_nm":88.7,"freq":112.9,"lat":36.81802778,"lon":-77.90297222,"rng_nm":40,"alt_fmsl":350,"id":"LVL","desc":"LAWRENCEVILLE VORTAC"},
{"type":"NDB","hdg_t":193.4,"dist_nm":90.4,"freq":269,"lat":34.73122222,"lon":-76.66211111,"rng_nm":50,"alt_fmsl":0,"id":"MRH","desc":"MOREHEAD NDB"},
{"type":"NDB","hdg_t":286.2,"dist_nm":91.4,"freq":373,"lat":36.61455556,"lon":-78.05316667,"rng_nm":50,"alt_fmsl":0,"id":"AEA","desc":"JONES NDB"},
{"type":"NDB","hdg_t":231.7,"dist_nm":91.5,"freq":276,"lat":35.24391667,"lon":-77.69825000,"rng_nm":50,"alt_fmsl":0,"id":"IS","desc":"STALS NDB"},
{"type":"VOR","hdg_t":326.5,"dist_nm":93.8,"freq":114.1,"lat":37.50236111,"lon":-77.32027778,"rng_nm":130,"alt_fmsl":159,"id":"RIC","desc":"RICHMOND VORTAC"},
{"type":"SDME","hdg_t":239,"dist_nm":99.3,"freq":116.5,"lat":35.33502800,"lon":-77.97160600,"rng_nm":40,"alt_fmsl":82,"id":"GSB","desc":"SEYMOUR JOHNSON TACAN"}
]
}
