{"success":true,"source":"xp2csv.pl","last_updated":"2013/11/08 14:53:21 UTC"
,"icao":"15AR","name":"Dawson","lat":34.825861,"lon":-90.543333,"rwys":1,"ils":0,"index":1466161,"path":"w100n30/w091n34"
,"runways":[
{"len_m":761,"wid_m":36.58,"hdg":144,"surf":"Asphalt","rwy1":"14","lat1":34.82866100,"lon1":-90.54574400,"rwy2":"32","lat2":34.82306100,"lon2":-90.54092200}
]
,"radios":[
{"type":"CTAF","freq":122.72,"desc":"RDO CTL"}
]
,"navaids":[
{"type":"VOR","hdg_t":203.3,"dist_nm":16.3,"freq":109.6,"lat":34.57505556,"lon":-90.67438889,"rng_nm":40,"alt_fmsl":241,"id":"UJM","desc":"MARVELL VOR-DME"},
{"type":"NDB","hdg_t":203.3,"dist_nm":16.6,"freq":251,"lat":34.57121100,"lon":-90.67594200,"rng_nm":25,"alt_fmsl":0,"id":"HEE","desc":"THOMPSON ROBBINS NDB"},
{"type":"VOR","hdg_t":67.5,"dist_nm":29.8,"freq":117.5,"lat":35.01511111,"lon":-89.98322222,"rng_nm":130,"alt_fmsl":360,"id":"MEM","desc":"MEMPHIS VORTAC"},
{"type":"VOR","hdg_t":5.8,"dist_nm":31.3,"freq":113,"lat":35.34702778,"lon":-90.47816667,"rng_nm":40,"alt_fmsl":211,"id":"GQE","desc":"GILMORE VOR-DME"},
{"type":"NDB","hdg_t":47,"dist_nm":33,"freq":414,"lat":35.20119444,"lon":-90.05119444,"rng_nm":50,"alt_fmsl":0,"id":"SPQ","desc":"SPAIN NDB"},
{"type":"NDB","hdg_t":160.4,"dist_nm":37.6,"freq":391,"lat":34.23297200,"lon":-90.28978900,"rng_nm":25,"alt_fmsl":160,"id":"MMS","desc":"MARKS NDB"},
{"type":"NDB","hdg_t":75.8,"dist_nm":38.3,"freq":275,"lat":34.97980800,"lon":-89.78875000,"rng_nm":25,"alt_fmsl":401,"id":"OLV","desc":"OLIVE BRANCH NDB"},
{"type":"NDB","hdg_t":47.6,"dist_nm":40.5,"freq":232,"lat":35.28050000,"lon":-89.93294444,"rng_nm":50,"alt_fmsl":0,"id":"MIG","desc":"MILLINGTON NDB"},
{"type":"NDB","hdg_t":57.1,"dist_nm":50.9,"freq":265,"lat":35.28468900,"lon":-89.67139200,"rng_nm":25,"alt_fmsl":308,"id":"LHC","desc":"LOOSAHATCHIE NDB"},
{"type":"VOR","hdg_t":93.3,"dist_nm":51.8,"freq":112.4,"lat":34.77025000,"lon":-89.49650000,"rng_nm":40,"alt_fmsl":630,"id":"HLI","desc":"HOLLY SPRINGS VORTAC"},
{"type":"NDB","hdg_t":119.9,"dist_nm":52.5,"freq":426,"lat":34.38508333,"lon":-89.62597222,"rng_nm":50,"alt_fmsl":0,"id":"UV","desc":"TUNNG NDB"},
{"type":"NDB","hdg_t":259.6,"dist_nm":52.6,"freq":269,"lat":34.66377778,"lon":-91.59044444,"rng_nm":50,"alt_fmsl":0,"id":"SGT","desc":"STUTTGART NDB"},
{"type":"NDB","hdg_t":249.8,"dist_nm":54.8,"freq":338,"lat":34.50580556,"lon":-91.58177778,"rng_nm":50,"alt_fmsl":0,"id":"TT","desc":"STUTT NDB"},
{"type":"NDB","hdg_t":327.5,"dist_nm":58,"freq":400,"lat":35.64202200,"lon":-91.18068100,"rng_nm":25,"alt_fmsl":237,"id":"EWP","desc":"NEWPORT NDB"},
{"type":"NDB","hdg_t":67.8,"dist_nm":61,"freq":255,"lat":35.20558333,"lon":-89.39277778,"rng_nm":50,"alt_fmsl":0,"id":"FYE","desc":"SOMERVILLE NDB"},
{"type":"NDB","hdg_t":190.1,"dist_nm":61.9,"freq":272,"lat":33.80705556,"lon":-90.76261111,"rng_nm":50,"alt_fmsl":0,"id":"RNV","desc":"RENOVA NDB"},
{"type":"VOR","hdg_t":357.9,"dist_nm":62.8,"freq":108.6,"lat":35.87491667,"lon":-90.58850000,"rng_nm":25,"alt_fmsl":247,"id":"JBR","desc":"JONESBORO VOR-DME"},
{"type":"NDB","hdg_t":291.8,"dist_nm":63,"freq":323,"lat":35.21203100,"lon":-91.73263600,"rng_nm":25,"alt_fmsl":260,"id":"SRC","desc":"SEARCY NDB"},
{"type":"NDB","hdg_t":149.1,"dist_nm":65,"freq":245,"lat":33.89111111,"lon":-89.87463889,"rng_nm":50,"alt_fmsl":0,"id":"SBQ","desc":"SCOBEY NDB"},
{"type":"NDB","hdg_t":45.4,"dist_nm":65.5,"freq":326,"lat":35.58966667,"lon":-89.58733333,"rng_nm":50,"alt_fmsl":0,"id":"COO","desc":"COVINGTON NDB"},
{"type":"NDB","hdg_t":276.3,"dist_nm":73.2,"freq":290,"lat":34.95250000,"lon":-92.01950000,"rng_nm":50,"alt_fmsl":0,"id":"TYV","desc":"TONEYVILLE NDB"},
{"type":"VOR","hdg_t":23.4,"dist_nm":73.5,"freq":111.8,"lat":35.95097222,"lon":-89.94105556,"rng_nm":40,"alt_fmsl":0,"id":"GOJ","desc":"GOSNELL VOR"},
{"type":"NDB","hdg_t":1.2,"dist_nm":74.1,"freq":383,"lat":36.06277778,"lon":-90.51102778,"rng_nm":50,"alt_fmsl":0,"id":"PGR","desc":"PARAGOULD NDB"},
{"type":"NDB","hdg_t":221.3,"dist_nm":74.7,"freq":305,"lat":33.88440800,"lon":-91.53151400,"rng_nm":25,"alt_fmsl":163,"id":"DZM","desc":"DUMAS NDB"},
{"type":"VOR","hdg_t":243.5,"dist_nm":76.8,"freq":116,"lat":34.24675000,"lon":-91.92616667,"rng_nm":40,"alt_fmsl":210,"id":"PBF","desc":"PINE BLUFF VOR-DME"},
{"type":"NDB","hdg_t":162.6,"dist_nm":77.3,"freq":349,"lat":33.59191667,"lon":-90.08436111,"rng_nm":50,"alt_fmsl":0,"id":"GW","desc":"TEOCK NDB"},
{"type":"NDB","hdg_t":72.1,"dist_nm":77.5,"freq":404,"lat":35.21433333,"lon":-89.04213889,"rng_nm":50,"alt_fmsl":0,"id":"BAV","desc":"HARDEMAN NDB"},
{"type":"VOR","hdg_t":345.4,"dist_nm":79.5,"freq":114.5,"lat":36.11002778,"lon":-90.95369444,"rng_nm":130,"alt_fmsl":302,"id":"ARG","desc":"WALNUT RIDGE VORTAC"},
{"type":"SDME","hdg_t":274.4,"dist_nm":79.8,"freq":109.2,"lat":34.91806700,"lon":-92.15766700,"rng_nm":25,"alt_fmsl":328,"id":"LRF","desc":"JACKSONVILLE TACAN"},
{"type":"NDB","hdg_t":184.7,"dist_nm":80.8,"freq":284,"lat":33.48016667,"lon":-90.67563889,"rng_nm":50,"alt_fmsl":0,"id":"IDL","desc":"INDIANOLA NDB"},
{"type":"NDB","hdg_t":310.8,"dist_nm":80.9,"freq":335,"lat":35.70322222,"lon":-91.79769444,"rng_nm":50,"alt_fmsl":0,"id":"BV","desc":"ALMND NDB"},
{"type":"VOR","hdg_t":195.7,"dist_nm":81,"freq":110.2,"lat":33.52352778,"lon":-90.98294444,"rng_nm":40,"alt_fmsl":130,"id":"GLH","desc":"GREENVILLE VOR-DME"},
{"type":"VOR","hdg_t":264.2,"dist_nm":81.4,"freq":113.9,"lat":34.67766667,"lon":-92.18052778,"rng_nm":130,"alt_fmsl":240,"id":"LIT","desc":"LITTLE ROCK VORTAC"},
{"type":"VOR","hdg_t":170.7,"dist_nm":82.6,"freq":114.7,"lat":33.46386111,"lon":-90.27733333,"rng_nm":130,"alt_fmsl":125,"id":"SQS","desc":"SIDON VORTAC"},
{"type":"NDB","hdg_t":300.1,"dist_nm":83.1,"freq":256,"lat":35.51432800,"lon":-92.01106500,"rng_nm":25,"alt_fmsl":625,"id":"HBZ","desc":"HEBER SPRINGS NDB"},
{"type":"NDB","hdg_t":347.4,"dist_nm":84.8,"freq":227,"lat":36.20697222,"lon":-90.92311111,"rng_nm":50,"alt_fmsl":0,"id":"TNZ","desc":"LAWRENCE COUNTY NDB"},
{"type":"NDB","hdg_t":194.7,"dist_nm":86.6,"freq":359,"lat":33.42533333,"lon":-90.98211111,"rng_nm":50,"alt_fmsl":0,"id":"MTQ","desc":"METCALF NDB"},
{"type":"NDB","hdg_t":264.3,"dist_nm":87.6,"freq":353,"lat":34.66900000,"lon":-92.30547222,"rng_nm":50,"alt_fmsl":0,"id":"LI","desc":"LASKY NDB"},
{"type":"NDB","hdg_t":61.6,"dist_nm":88.2,"freq":394,"lat":35.51577778,"lon":-88.95697222,"rng_nm":50,"alt_fmsl":0,"id":"MK","desc":"MERSY NDB"},
{"type":"VOR","hdg_t":59.4,"dist_nm":92.8,"freq":112,"lat":35.60355556,"lon":-88.91041667,"rng_nm":25,"alt_fmsl":410,"id":"MKL","desc":"MC KELLAR VOR-DME"},
{"type":"VOR","hdg_t":39.7,"dist_nm":93.3,"freq":116.8,"lat":36.01855556,"lon":-89.31769444,"rng_nm":40,"alt_fmsl":380,"id":"DYR","desc":"DYERSBURG VORTAC"},
{"type":"VOR","hdg_t":112.1,"dist_nm":93.7,"freq":109.8,"lat":34.22386111,"lon":-88.79733333,"rng_nm":40,"alt_fmsl":360,"id":"OTB","desc":"TUPELO VOR-DME"},
{"type":"NDB","hdg_t":279.9,"dist_nm":94.1,"freq":302,"lat":35.08397222,"lon":-92.42683333,"rng_nm":50,"alt_fmsl":0,"id":"CWS","desc":"CONWAY NDB"},
{"type":"VOR","hdg_t":217.9,"dist_nm":95.5,"freq":111.6,"lat":33.56205556,"lon":-91.71569444,"rng_nm":40,"alt_fmsl":280,"id":"MON","desc":"MONTICELLO VOR-DME"},
{"type":"NDB","hdg_t":82.6,"dist_nm":95.7,"freq":334,"lat":35.01552778,"lon":-88.61569444,"rng_nm":50,"alt_fmsl":0,"id":"UU","desc":"SEYER NDB"},
{"type":"NDB","hdg_t":113.2,"dist_nm":96.1,"freq":420,"lat":34.18038889,"lon":-88.76875000,"rng_nm":50,"alt_fmsl":0,"id":"TU","desc":"VERON NDB"},
{"type":"NDB","hdg_t":309.7,"dist_nm":98.4,"freq":348,"lat":35.86757500,"lon":-92.09459700,"rng_nm":25,"alt_fmsl":783,"id":"VLX","desc":"WILCOX NDB"}
]
}
