{"success":true,"source":"xp2csv.pl","last_updated":"2013/11/08 14:53:21 UTC"
,"icao":"16S","name":"Myrtle Creek Municipal","lat":42.99722915,"lon":-123.31529285,"rwys":1,"ils":0,"index":926010,"path":"w130n40/w124n42"
,"runways":[
{"len_m":789,"wid_m":14.94,"hdg":49,"surf":"Asphalt","rwy1":"03","lat1":42.99493520,"lon1":-123.31898836,"rwy2":"21","lat2":42.99952310,"lon2":-123.31159733}
]
,"navaids":[
{"type":"VOR","hdg_t":351.6,"dist_nm":11.2,"freq":108.2,"lat":43.18241667,"lon":-123.35225000,"rng_nm":40,"alt_fmsl":1320,"id":"RBG","desc":"ROSEBURG VOR-DME"},
{"type":"NDB","hdg_t":352.5,"dist_nm":14.4,"freq":400,"lat":43.23525000,"lon":-123.35802778,"rng_nm":50,"alt_fmsl":0,"id":"RBG","desc":"ROSEBURG NDB"},
{"type":"VOR","hdg_t":150,"dist_nm":35.7,"freq":113.6,"lat":42.47958333,"lon":-122.91294444,"rng_nm":130,"alt_fmsl":2083,"id":"OED","desc":"ROGUE VALLEY VORTAC"},
{"type":"NDB","hdg_t":151.3,"dist_nm":37.2,"freq":373,"lat":42.45097222,"lon":-122.91336111,"rng_nm":50,"alt_fmsl":0,"id":"MF","desc":"PUMIE NDB"},
{"type":"NDB","hdg_t":151.8,"dist_nm":41.1,"freq":356,"lat":42.39161111,"lon":-122.87883333,"rng_nm":50,"alt_fmsl":0,"id":"MEF","desc":"MEDFORD NDB"},
{"type":"VOR","hdg_t":304.1,"dist_nm":45,"freq":112.1,"lat":43.41550000,"lon":-124.16852778,"rng_nm":40,"alt_fmsl":707,"id":"OTH","desc":"NORTH BEND VORTAC"},
{"type":"NDB","hdg_t":298.9,"dist_nm":49.7,"freq":378,"lat":43.39444444,"lon":-124.31027778,"rng_nm":50,"alt_fmsl":0,"id":"OT","desc":"EMIRE NDB"},
{"type":"VOR","hdg_t":3.3,"dist_nm":67.5,"freq":112.9,"lat":44.12088889,"lon":-123.22283333,"rng_nm":130,"alt_fmsl":364,"id":"EUG","desc":"EUGENE VORTAC"},
{"type":"VOR","hdg_t":209.7,"dist_nm":83.8,"freq":109,"lat":41.77958333,"lon":-124.24083333,"rng_nm":40,"alt_fmsl":54,"id":"CEC","desc":"CRESCENT CITY VORTAC"},
{"type":"NDB","hdg_t":153.7,"dist_nm":84.7,"freq":404,"lat":41.72727778,"lon":-122.48169444,"rng_nm":50,"alt_fmsl":0,"id":"MOG","desc":"MONTAGUE NDB"},
{"type":"VOR","hdg_t":125.1,"dist_nm":86.7,"freq":115.9,"lat":42.15313889,"lon":-121.72752778,"rng_nm":130,"alt_fmsl":4087,"id":"LMT","desc":"KLAMATH FALLS VORTAC"},
{"type":"VOR","hdg_t":0.5,"dist_nm":90.1,"freq":115.4,"lat":44.49958333,"lon":-123.29366667,"rng_nm":130,"alt_fmsl":241,"id":"CVO","desc":"CORVALLIS VOR-DME"},
{"type":"VOR","hdg_t":166,"dist_nm":95.5,"freq":109.6,"lat":41.44966667,"lon":-122.80644444,"rng_nm":40,"alt_fmsl":4900,"id":"FJS","desc":"FORT JONES VOR-DME"},
{"type":"NDB","hdg_t":1.1,"dist_nm":96.9,"freq":225,"lat":44.61358333,"lon":-123.27066667,"rng_nm":50,"alt_fmsl":0,"id":"LWG","desc":"LEWISBURG NDB"}
]
}
