{"success":true,"source":"xp2csv.pl","last_updated":"2013/11/08 14:53:21 UTC"
,"icao":"17OI","name":"Haas","lat":39.22673222,"lon":-83.31768973,"rwys":1,"ils":0,"index":1581130,"path":"w090n30/w084n39"
,"runways":[
{"len_m":586,"wid_m":27.43,"hdg":125,"surf":"Turf/grass","rwy1":"13","lat1":39.22828001,"lon1":-83.32043982,"rwy2":"31","lat2":39.22518443,"lon2":-83.31493964}
]
,"navaids":[
{"type":"NDB","hdg_t":256.5,"dist_nm":10.8,"freq":278,"lat":39.18472222,"lon":-83.54297222,"rng_nm":50,"alt_fmsl":0,"id":"HOC","desc":"HILLSBORO NDB"},
{"type":"NDB","hdg_t":181.3,"dist_nm":18.3,"freq":329,"lat":38.92119444,"lon":-83.32686111,"rng_nm":50,"alt_fmsl":0,"id":"PZO","desc":"PEEBLES NDB"},
{"type":"NDB","hdg_t":101.1,"dist_nm":18.3,"freq":385,"lat":39.16691667,"lon":-82.93219444,"rng_nm":50,"alt_fmsl":0,"id":"EOP","desc":"WAVERLY NDB"},
{"type":"NDB","hdg_t":46.6,"dist_nm":18.4,"freq":236,"lat":39.43819444,"lon":-83.02877778,"rng_nm":50,"alt_fmsl":0,"id":"RZT","desc":"ROSS CO NDB"},
{"type":"NDB","hdg_t":351.3,"dist_nm":22.6,"freq":414,"lat":39.60086111,"lon":-83.39161111,"rng_nm":50,"alt_fmsl":0,"id":"CSS","desc":"COURT HOUSE NDB"},
{"type":"VOR","hdg_t":41.1,"dist_nm":23.9,"freq":112.5,"lat":39.52688889,"lon":-82.97794444,"rng_nm":25,"alt_fmsl":0,"id":"XUB","desc":"YELLOW BUD VOR"},
{"type":"NDB","hdg_t":207.4,"dist_nm":25,"freq":359,"lat":38.85541667,"lon":-83.56377778,"rng_nm":50,"alt_fmsl":0,"id":"AMT","desc":"WEST UNION NDB"},
{"type":"NDB","hdg_t":309.3,"dist_nm":25.2,"freq":407,"lat":39.49311111,"lon":-83.73816667,"rng_nm":50,"alt_fmsl":0,"id":"IL","desc":"AIRBO NDB"},
{"type":"VOR","hdg_t":298.5,"dist_nm":25.5,"freq":112.9,"lat":39.42969444,"lon":-83.80125000,"rng_nm":25,"alt_fmsl":1050,"id":"MXQ","desc":"MIDWEST VOR-DME"},
{"type":"NDB","hdg_t":286.4,"dist_nm":27,"freq":299,"lat":39.35344444,"lon":-83.87577778,"rng_nm":50,"alt_fmsl":0,"id":"HW","desc":"CUBLA NDB"},
{"type":"NDB","hdg_t":232.2,"dist_nm":33.6,"freq":219,"lat":38.88201700,"lon":-83.88518100,"rng_nm":25,"alt_fmsl":954,"id":"GEO","desc":"GEORGETOWN NDB"},
{"type":"NDB","hdg_t":23.9,"dist_nm":33.8,"freq":253,"lat":39.74294444,"lon":-83.02033333,"rng_nm":50,"alt_fmsl":0,"id":"DD","desc":"COBBS NDB"},
{"type":"NDB","hdg_t":8.3,"dist_nm":35.9,"freq":230,"lat":39.81925000,"lon":-83.20488889,"rng_nm":50,"alt_fmsl":0,"id":"BU","desc":"BOUTN NDB"},
{"type":"VOR","hdg_t":155.4,"dist_nm":38.3,"freq":112.8,"lat":38.64413889,"lon":-82.97833333,"rng_nm":40,"alt_fmsl":1040,"id":"YRK","desc":"YORK VORTAC"},
{"type":"NDB","hdg_t":316,"dist_nm":40.8,"freq":395,"lat":39.71506100,"lon":-83.92993100,"rng_nm":25,"alt_fmsl":970,"id":"XEN","desc":"XENIA NDB"},
{"type":"NDB","hdg_t":201.6,"dist_nm":42,"freq":400,"lat":38.57358333,"lon":-83.64702778,"rng_nm":50,"alt_fmsl":0,"id":"XW","desc":"FLMNG NDB"},
{"type":"NDB","hdg_t":350.9,"dist_nm":42.7,"freq":263,"lat":39.93150000,"lon":-83.46397222,"rng_nm":50,"alt_fmsl":0,"id":"UYF","desc":"LONDON NDB"},
{"type":"NDB","hdg_t":258.1,"dist_nm":42.8,"freq":245,"lat":39.07669444,"lon":-84.21541667,"rng_nm":50,"alt_fmsl":0,"id":"PWF","desc":"SPORTYS NDB"},
{"type":"VOR","hdg_t":326.3,"dist_nm":43.9,"freq":113.2,"lat":39.83652778,"lon":-83.84497222,"rng_nm":25,"alt_fmsl":1047,"id":"SGH","desc":"SPRINGFIELD VOR-DME"},
{"type":"NDB","hdg_t":331.2,"dist_nm":44.3,"freq":341,"lat":39.87363889,"lon":-83.77958333,"rng_nm":50,"alt_fmsl":0,"id":"CCJ","desc":"CLARK CO NDB"},
{"type":"NDB","hdg_t":29.5,"dist_nm":45.1,"freq":376,"lat":39.88105556,"lon":-82.83608333,"rng_nm":50,"alt_fmsl":0,"id":"LC","desc":"PICKL NDB"},
{"type":"NDB","hdg_t":206.1,"dist_nm":45.9,"freq":400,"lat":38.53813200,"lon":-83.74686400,"rng_nm":25,"alt_fmsl":921,"id":"FGX","desc":"FLEMINGSBURG NDB"},
{"type":"NDB","hdg_t":49,"dist_nm":47.9,"freq":338,"lat":39.74888889,"lon":-82.53530556,"rng_nm":50,"alt_fmsl":0,"id":"LH","desc":"CASER NDB"},
{"type":"NDB","hdg_t":265.5,"dist_nm":47.9,"freq":335,"lat":39.15966667,"lon":-84.34127778,"rng_nm":50,"alt_fmsl":0,"id":"LUK","desc":"CINCINNATI NDB"},
{"type":"NDB","hdg_t":270,"dist_nm":48.3,"freq":379,"lat":39.22275000,"lon":-84.35536111,"rng_nm":50,"alt_fmsl":0,"id":"MDE","desc":"MADEIRA NDB"},
{"type":"NDB","hdg_t":15.8,"dist_nm":48.8,"freq":272,"lat":40.01013889,"lon":-83.02897222,"rng_nm":50,"alt_fmsl":0,"id":"CHC","desc":"GRENS NDB"},
{"type":"NDB","hdg_t":15.8,"dist_nm":48.8,"freq":272,"lat":40.01013889,"lon":-83.02897222,"rng_nm":50,"alt_fmsl":0,"id":"CB","desc":"GRENS NDB"},
{"type":"SDME","hdg_t":316.2,"dist_nm":49.3,"freq":115.2,"lat":39.81897800,"lon":-84.05548100,"rng_nm":25,"alt_fmsl":804,"id":"FFO","desc":"PATTERSON TACAN"},
{"type":"NDB","hdg_t":271.8,"dist_nm":49.9,"freq":388,"lat":39.24880556,"lon":-84.38961111,"rng_nm":50,"alt_fmsl":0,"id":"ISZ","desc":"CINCINNATI-BLUE A NDB"},
{"type":"NDB","hdg_t":6.1,"dist_nm":51,"freq":515,"lat":40.07363889,"lon":-83.19805556,"rng_nm":50,"alt_fmsl":0,"id":"OS","desc":"FULER NDB"},
{"type":"NDB","hdg_t":294.5,"dist_nm":51.3,"freq":223,"lat":39.57825000,"lon":-84.32347222,"rng_nm":50,"alt_fmsl":0,"id":"MW","desc":"ONIDA NDB"},
{"type":"NDB","hdg_t":29.6,"dist_nm":52.4,"freq":391,"lat":39.98622222,"lon":-82.75450000,"rng_nm":50,"alt_fmsl":0,"id":"CM","desc":"SUMIE NDB"},
{"type":"NDB","hdg_t":287.5,"dist_nm":55,"freq":239,"lat":39.49877778,"lon":-84.44752778,"rng_nm":50,"alt_fmsl":0,"id":"HKF","desc":"HOOK FLD NDB"},
{"type":"NDB","hdg_t":87.7,"dist_nm":55.5,"freq":250,"lat":39.25725000,"lon":-82.12597222,"rng_nm":50,"alt_fmsl":0,"id":"UGS","desc":"UNIVERSITY NDB"},
{"type":"VOR","hdg_t":233.6,"dist_nm":57.9,"freq":117,"lat":38.64950000,"lon":-84.31063889,"rng_nm":130,"alt_fmsl":810,"id":"FLM","desc":"FALMOUTH VOR-DME"},
{"type":"NDB","hdg_t":113.1,"dist_nm":58.9,"freq":420,"lat":38.83341667,"lon":-82.16152778,"rng_nm":50,"alt_fmsl":0,"id":"GAS","desc":"GALLIPOLIS NDB"},
{"type":"NDB","hdg_t":278.9,"dist_nm":59,"freq":260,"lat":39.37288889,"lon":-84.57211111,"rng_nm":50,"alt_fmsl":0,"id":"HAO","desc":"HAMILTON NDB"},
{"type":"NDB","hdg_t":358.5,"dist_nm":59.9,"freq":403,"lat":40.22672800,"lon":-83.34961400,"rng_nm":25,"alt_fmsl":997,"id":"MRT","desc":"MARYSVILLE NDB"},
{"type":"NDB","hdg_t":308.5,"dist_nm":60,"freq":315,"lat":39.84702778,"lon":-84.33480556,"rng_nm":50,"alt_fmsl":0,"id":"AT","desc":"BRUNY NDB"},
{"type":"NDB","hdg_t":39.3,"dist_nm":62.1,"freq":524,"lat":40.02591667,"lon":-82.46352778,"rng_nm":50,"alt_fmsl":0,"id":"HEH","desc":"NEWARK NDB"},
{"type":"NDB","hdg_t":8.8,"dist_nm":63.7,"freq":215,"lat":40.27688889,"lon":-83.10372222,"rng_nm":50,"alt_fmsl":0,"id":"DLZ","desc":"DELAWARE NDB"},
{"type":"VOR","hdg_t":31.1,"dist_nm":64.8,"freq":116.7,"lat":40.15105556,"lon":-82.58830556,"rng_nm":130,"alt_fmsl":1350,"id":"APE","desc":"APPLETON VORTAC"},
{"type":"VOR","hdg_t":259.3,"dist_nm":65.9,"freq":117.3,"lat":39.01597222,"lon":-84.70333333,"rng_nm":40,"alt_fmsl":879,"id":"CVG","desc":"CINCINNATI VORTAC"},
{"type":"VOR","hdg_t":114.7,"dist_nm":66.7,"freq":115.9,"lat":38.75411111,"lon":-82.02616667,"rng_nm":130,"alt_fmsl":880,"id":"HNN","desc":"HENDERSON VORTAC"},
{"type":"VOR","hdg_t":163.2,"dist_nm":66.8,"freq":110.4,"lat":38.15836111,"lon":-82.91005556,"rng_nm":40,"alt_fmsl":1070,"id":"ECB","desc":"NEWCOMBE VORTAC"},
{"type":"NDB","hdg_t":261.3,"dist_nm":68.7,"freq":321,"lat":39.04574700,"lon":-84.77296400,"rng_nm":25,"alt_fmsl":0,"id":"UR","desc":"BURLN NDB"},
{"type":"VOR","hdg_t":313.7,"dist_nm":68.8,"freq":114.5,"lat":40.01641667,"lon":-84.39686111,"rng_nm":40,"alt_fmsl":990,"id":"DQN","desc":"DAYTON VOR-DME"},
{"type":"NDB","hdg_t":284.3,"dist_nm":70.1,"freq":282,"lat":39.50755556,"lon":-84.78063889,"rng_nm":50,"alt_fmsl":0,"id":"OXD","desc":"OXFORD NDB"},
{"type":"VOR","hdg_t":332.4,"dist_nm":71.9,"freq":117.5,"lat":40.28780556,"lon":-84.04313889,"rng_nm":130,"alt_fmsl":1083,"id":"ROD","desc":"ROSEWOOD VORTAC"},
{"type":"NDB","hdg_t":347.7,"dist_nm":75.6,"freq":326,"lat":40.45894444,"lon":-83.66800000,"rng_nm":50,"alt_fmsl":0,"id":"RUV","desc":"RUSHSYLVANIA NDB"},
{"type":"NDB","hdg_t":204.2,"dist_nm":76.5,"freq":210,"lat":38.06000000,"lon":-83.98152778,"rng_nm":50,"alt_fmsl":0,"id":"IOB","desc":"MOUNT STERLING NDB"},
{"type":"NDB","hdg_t":57.4,"dist_nm":76.6,"freq":204,"lat":39.90630556,"lon":-81.91927778,"rng_nm":50,"alt_fmsl":0,"id":"HRA","desc":"ZANESVILLE NDB"},
{"type":"VOR","hdg_t":294.6,"dist_nm":77.4,"freq":110.6,"lat":39.75502778,"lon":-84.83886111,"rng_nm":40,"alt_fmsl":1135,"id":"RID","desc":"RICHMOND VORTAC"},
{"type":"VOR","hdg_t":56.6,"dist_nm":78.7,"freq":111.4,"lat":39.94086111,"lon":-81.89261111,"rng_nm":40,"alt_fmsl":898,"id":"ZZV","desc":"ZANESVILLE VOR-DME"},
{"type":"NDB","hdg_t":316.8,"dist_nm":80.9,"freq":356,"lat":40.20616667,"lon":-84.52272222,"rng_nm":50,"alt_fmsl":0,"id":"VES","desc":"VERSAILLES NDB"},
{"type":"VOR","hdg_t":7.9,"dist_nm":84.1,"freq":109.8,"lat":40.61658333,"lon":-83.06383333,"rng_nm":25,"alt_fmsl":0,"id":"BUD","desc":"BUCKEYE VOR"},
{"type":"NDB","hdg_t":88.3,"dist_nm":85.4,"freq":388,"lat":39.25408333,"lon":-81.48494444,"rng_nm":50,"alt_fmsl":0,"id":"PK","desc":"VERSI NDB"},
{"type":"NDB","hdg_t":220.5,"dist_nm":86.5,"freq":340,"lat":38.12452778,"lon":-84.50697222,"rng_nm":50,"alt_fmsl":0,"id":"GN","desc":"BRIDL NDB"},
{"type":"NDB","hdg_t":289,"dist_nm":89,"freq":275,"lat":39.69756100,"lon":-85.13438900,"rng_nm":25,"alt_fmsl":867,"id":"CEV","desc":"CONNERSVILLE NDB"},
{"type":"VOR","hdg_t":125.4,"dist_nm":89.6,"freq":117.4,"lat":38.34966667,"lon":-81.76991667,"rng_nm":130,"alt_fmsl":1099,"id":"HVQ","desc":"CHARLESTON VORTAC"},
{"type":"NDB","hdg_t":291.9,"dist_nm":90.3,"freq":227,"lat":39.77711111,"lon":-85.12988889,"rng_nm":50,"alt_fmsl":0,"id":"SQ","desc":"PNTHR NDB"},
{"type":"NDB","hdg_t":275.2,"dist_nm":90.6,"freq":254,"lat":39.34977778,"lon":-85.25775000,"rng_nm":50,"alt_fmsl":0,"id":"HLB","desc":"BATESVILLE NDB"},
{"type":"VOR","hdg_t":81.2,"dist_nm":91.3,"freq":108.6,"lat":39.44116667,"lon":-81.37475000,"rng_nm":40,"alt_fmsl":1030,"id":"JPU","desc":"PARKERSBURG VORTAC"},
{"type":"VOR","hdg_t":36.3,"dist_nm":92,"freq":116.5,"lat":40.45802778,"lon":-82.12683333,"rng_nm":40,"alt_fmsl":1340,"id":"TVT","desc":"TIVERTON VOR-DME"},
{"type":"NDB","hdg_t":229.7,"dist_nm":93,"freq":521,"lat":38.21473600,"lon":-84.81980600,"rng_nm":50,"alt_fmsl":769,"id":"FEU","desc":"ARNOLD NDB"},
{"type":"VOR","hdg_t":216,"dist_nm":93,"freq":112.6,"lat":37.96636111,"lon":-84.47250000,"rng_nm":40,"alt_fmsl":1039,"id":"HYK","desc":"LEXINGTON VORTAC"},
{"type":"VOR","hdg_t":341.5,"dist_nm":93.6,"freq":108.4,"lat":40.70711111,"lon":-83.96816667,"rng_nm":25,"alt_fmsl":0,"id":"AOH","desc":"ALLEN CO VOR"},
{"type":"NDB","hdg_t":201,"dist_nm":94.2,"freq":393,"lat":37.75800000,"lon":-84.03022222,"rng_nm":50,"alt_fmsl":0,"id":"XYC","desc":"SECO NDB"},
{"type":"NDB","hdg_t":322.9,"dist_nm":94.7,"freq":205,"lat":40.48200000,"lon":-84.56438889,"rng_nm":50,"alt_fmsl":0,"id":"CQA","desc":"LAKEFIELD NDB"},
{"type":"VOR","hdg_t":230.5,"dist_nm":97.4,"freq":109.4,"lat":38.18241667,"lon":-84.90861111,"rng_nm":25,"alt_fmsl":0,"id":"FFT","desc":"FRANKFORT VOR"},
{"type":"NDB","hdg_t":220.7,"dist_nm":97.5,"freq":242,"lat":37.98686111,"lon":-84.66016667,"rng_nm":50,"alt_fmsl":0,"id":"LE","desc":"BLAYD NDB"}
]
}
