{"success":true,"source":"xp2csv.pl","last_updated":"2013/11/08 14:53:21 UTC"
,"icao":"18MO","name":"Gimlin","lat":36.96255444,"lon":-93.17073695,"rwys":1,"ils":0,"index":1417147,"path":"w100n30/w094n36"
,"runways":[
{"len_m":791,"wid_m":18.29,"hdg":184,"surf":"Turf/grass","rwy1":"18","lat1":36.96611163,"lon1":-93.17042564,"rwy2":"36","lat2":36.95899725,"lon2":-93.17104826}
]
,"navaids":[
{"type":"VOR","hdg_t":75.4,"dist_nm":14.5,"freq":109.4,"lat":37.02347222,"lon":-92.87691667,"rng_nm":40,"alt_fmsl":1600,"id":"DGD","desc":"DOGWOOD VORTAC"},
{"type":"NDB","hdg_t":317.8,"dist_nm":17.6,"freq":404,"lat":37.18022222,"lon":-93.41719444,"rng_nm":50,"alt_fmsl":0,"id":"SG","desc":"COOLE NDB"},
{"type":"NDB","hdg_t":188.1,"dist_nm":20.2,"freq":204,"lat":36.62756400,"lon":-93.22991100,"rng_nm":25,"alt_fmsl":933,"id":"PLK","desc":"POINT LOOKOUT NDB"},
{"type":"NDB","hdg_t":327.3,"dist_nm":23.9,"freq":254,"lat":37.29940600,"lon":-93.44073100,"rng_nm":50,"alt_fmsl":0,"id":"ILJ","desc":"WILLARD NDB"},
{"type":"VOR","hdg_t":341.6,"dist_nm":24.8,"freq":116.9,"lat":37.35594444,"lon":-93.33402778,"rng_nm":130,"alt_fmsl":1240,"id":"SGF","desc":"SPRINGFIELD VORTAC"},
{"type":"VOR","hdg_t":183,"dist_nm":38.6,"freq":112.5,"lat":36.31830556,"lon":-93.21327778,"rng_nm":40,"alt_fmsl":1400,"id":"HRO","desc":"HARRISON VOR-DME"},
{"type":"NDB","hdg_t":33.8,"dist_nm":43.9,"freq":414,"lat":37.57127778,"lon":-92.65780556,"rng_nm":50,"alt_fmsl":0,"id":"IEB","desc":"LEBANON NDB"},
{"type":"NDB","hdg_t":179.3,"dist_nm":46.2,"freq":395,"lat":36.19105556,"lon":-93.16019444,"rng_nm":50,"alt_fmsl":0,"id":"HR","desc":"BAKKY NDB"},
{"type":"VOR","hdg_t":138.8,"dist_nm":52.5,"freq":112.8,"lat":36.29963889,"lon":-92.45838889,"rng_nm":40,"alt_fmsl":780,"id":"FLP","desc":"FLIPPIN VOR-DME"},
{"type":"NDB","hdg_t":235.5,"dist_nm":52.7,"freq":263,"lat":36.46113889,"lon":-94.06947222,"rng_nm":50,"alt_fmsl":0,"id":"RO","desc":"ROGRS NDB"},
{"type":"VOR","hdg_t":263.6,"dist_nm":61.2,"freq":117.3,"lat":36.84244444,"lon":-94.43569444,"rng_nm":130,"alt_fmsl":1200,"id":"EOS","desc":"NEOSHO VOR-DME"},
{"type":"VOR","hdg_t":94.7,"dist_nm":61.3,"freq":111.6,"lat":36.87138889,"lon":-91.90000000,"rng_nm":40,"alt_fmsl":1220,"id":"HUW","desc":"HUTTON VOR-DME"},
{"type":"VOR","hdg_t":227.2,"dist_nm":62.8,"freq":116.4,"lat":36.24641667,"lon":-94.12138889,"rng_nm":130,"alt_fmsl":1331,"id":"RZC","desc":"RAZORBACK VORTAC"},
{"type":"NDB","hdg_t":300.2,"dist_nm":63,"freq":356,"lat":37.48700000,"lon":-94.31022222,"rng_nm":50,"alt_fmsl":0,"id":"LLU","desc":"SPRING RIVER NDB"},
{"type":"NDB","hdg_t":48.8,"dist_nm":67.4,"freq":391,"lat":37.69755556,"lon":-92.10380556,"rng_nm":50,"alt_fmsl":0,"id":"BHN","desc":"BUCKHORN NDB"},
{"type":"VOR","hdg_t":46.2,"dist_nm":67.9,"freq":110,"lat":37.74241667,"lon":-92.13900000,"rng_nm":40,"alt_fmsl":0,"id":"TBN","desc":"FORNEY VOR"},
{"type":"NDB","hdg_t":282.6,"dist_nm":68.1,"freq":344,"lat":37.20308333,"lon":-94.55858333,"rng_nm":50,"alt_fmsl":0,"id":"JL","desc":"LUNNS NDB"},
{"type":"VOR","hdg_t":22.6,"dist_nm":70,"freq":108.4,"lat":38.04061111,"lon":-92.60241667,"rng_nm":40,"alt_fmsl":910,"id":"SHY","desc":"SUNSHINE VOR-DME"},
{"type":"NDB","hdg_t":88,"dist_nm":70.1,"freq":365,"lat":36.99394444,"lon":-91.71263889,"rng_nm":50,"alt_fmsl":0,"id":"MNF","desc":"MOUNTAIN VIEW NDB"},
{"type":"NDB","hdg_t":23.2,"dist_nm":74,"freq":377,"lat":38.09661111,"lon":-92.55308333,"rng_nm":50,"alt_fmsl":0,"id":"AIZ","desc":"KAISER NDB"},
{"type":"VOR","hdg_t":222.3,"dist_nm":74.1,"freq":108.8,"lat":36.04288889,"lon":-94.19755556,"rng_nm":25,"alt_fmsl":1530,"id":"DAK","desc":"DRAKE VOR-DME"},
{"type":"VOR","hdg_t":59.9,"dist_nm":76.1,"freq":113.4,"lat":37.59077778,"lon":-91.78858333,"rng_nm":40,"alt_fmsl":1370,"id":"MAP","desc":"MAPLES VORTAC"},
{"type":"NDB","hdg_t":234.3,"dist_nm":78.7,"freq":284,"lat":36.18925000,"lon":-94.48855556,"rng_nm":50,"alt_fmsl":0,"id":"SLG","desc":"SILOAM SPRINGS NDB"},
{"type":"NDB","hdg_t":291.5,"dist_nm":79.9,"freq":365,"lat":37.44247222,"lon":-94.72655556,"rng_nm":50,"alt_fmsl":0,"id":"PTS","desc":"PITTSBURG NDB"},
{"type":"NDB","hdg_t":141.2,"dist_nm":83.7,"freq":348,"lat":35.86757500,"lon":-92.09459700,"rng_nm":25,"alt_fmsl":783,"id":"VLX","desc":"WILCOX NDB"},
{"type":"NDB","hdg_t":343.8,"dist_nm":87.1,"freq":388,"lat":38.35866667,"lon":-93.68463889,"rng_nm":50,"alt_fmsl":0,"id":"GLY","desc":"GOLDEN VALLEY NDB"},
{"type":"NDB","hdg_t":187.8,"dist_nm":90.3,"freq":201,"lat":35.46925000,"lon":-93.42352778,"rng_nm":50,"alt_fmsl":0,"id":"CZE","desc":"CLARKSVILLE NDB"},
{"type":"NDB","hdg_t":303.7,"dist_nm":91.1,"freq":379,"lat":37.79688889,"lon":-94.76555556,"rng_nm":50,"alt_fmsl":0,"id":"FSK","desc":"FORT SCOTT NDB"},
{"type":"VOR","hdg_t":277.4,"dist_nm":98.3,"freq":117.6,"lat":37.15750000,"lon":-95.20363889,"rng_nm":40,"alt_fmsl":930,"id":"OSW","desc":"OSWEGO VORTAC"},
{"type":"VOR","hdg_t":43.9,"dist_nm":99.8,"freq":117.7,"lat":38.15408333,"lon":-91.70677778,"rng_nm":40,"alt_fmsl":1105,"id":"VIH","desc":"VICHY VOR-DME"}
]
}
