{"success":true,"source":"xp2csv.pl","last_updated":"2013/11/08 14:53:21 UTC"
,"icao":"19ND","name":"Breckheimer","lat":47.73333083,"lon":-98.48871195,"rwys":1,"ils":0,"index":1335914,"path":"w100n40/w099n47"
,"runways":[
{"len_m":795,"wid_m":24.38,"hdg":87,"surf":"Turf/grass","rwy1":"08","lat1":47.73314421,"lon1":-98.49400645,"rwy2":"26","lat2":47.73351745,"lon2":-98.48341745}
]
,"navaids":[
{"type":"NDB","hdg_t":325,"dist_nm":22.1,"freq":332,"lat":48.03552778,"lon":-98.80383333,"rng_nm":50,"alt_fmsl":0,"id":"VK","desc":"VIKOR NDB"},
{"type":"VOR","hdg_t":323.4,"dist_nm":28.6,"freq":111,"lat":48.11522222,"lon":-98.91250000,"rng_nm":40,"alt_fmsl":1448,"id":"DVL","desc":"DEVILS LAKE VOR-DME"},
{"type":"SDME","hdg_t":72.5,"dist_nm":45.7,"freq":116.4,"lat":47.95716700,"lon":-97.40583300,"rng_nm":130,"alt_fmsl":951,"id":"RDR","desc":"RED RIVER TACAN"},
{"type":"VOR","hdg_t":189.2,"dist_nm":48.6,"freq":114.5,"lat":46.93286111,"lon":-98.67877778,"rng_nm":40,"alt_fmsl":1493,"id":"JMS","desc":"JAMESTOWN VOR-DME"},
{"type":"NDB","hdg_t":184.1,"dist_nm":52.3,"freq":395,"lat":46.86286111,"lon":-98.58072222,"rng_nm":50,"alt_fmsl":0,"id":"JM","desc":"SABON NDB"},
{"type":"NDB","hdg_t":82.2,"dist_nm":53.3,"freq":345,"lat":47.84638889,"lon":-97.18152778,"rng_nm":50,"alt_fmsl":0,"id":"GF","desc":"HISER NDB"},
{"type":"VOR","hdg_t":75.3,"dist_nm":54.3,"freq":114.3,"lat":47.95483333,"lon":-97.18536111,"rng_nm":130,"alt_fmsl":841,"id":"GFK","desc":"GRAND FORKS VOR-DME"},
{"type":"NDB","hdg_t":84.4,"dist_nm":76,"freq":400,"lat":47.84033333,"lon":-96.61641667,"rng_nm":50,"alt_fmsl":0,"id":"CKN","desc":"CROOKSTON NDB"},
{"type":"NDB","hdg_t":121.8,"dist_nm":80.9,"freq":365,"lat":47.00916667,"lon":-96.81516667,"rng_nm":50,"alt_fmsl":0,"id":"AA","desc":"KENIE NDB"},
{"type":"VOR","hdg_t":38.3,"dist_nm":87.5,"freq":112.4,"lat":48.86916667,"lon":-97.11708333,"rng_nm":130,"alt_fmsl":798,"id":"HML","desc":"HUMBOLDT VORTAC"},
{"type":"VOR","hdg_t":130.7,"dist_nm":89.1,"freq":116.2,"lat":46.75336111,"lon":-96.85133333,"rng_nm":130,"alt_fmsl":908,"id":"FAR","desc":"FARGO VORTAC"},
{"type":"VOR","hdg_t":76.9,"dist_nm":95.1,"freq":108.4,"lat":48.06930556,"lon":-96.18644444,"rng_nm":40,"alt_fmsl":1039,"id":"TVF","desc":"THIEF RIVER FALLS VOR-DME"},
{"type":"NDB","hdg_t":158.7,"dist_nm":97,"freq":278,"lat":46.22369444,"lon":-97.64263889,"rng_nm":50,"alt_fmsl":0,"id":"GWR","desc":"GWINNER NDB"},
{"type":"NDB","hdg_t":79.4,"dist_nm":98,"freq":260,"lat":48.00655556,"lon":-96.09550000,"rng_nm":50,"alt_fmsl":0,"id":"HY","desc":"HARVI NDB"}
]
}
