{"success":true,"source":"xp2csv.pl","last_updated":"2013/11/08 14:53:21 UTC"
,"icao":"1A3","name":"Martin Campbell Field","lat":35.016179,"lon":-84.346311,"rwys":1,"ils":0,"index":1564482,"path":"w090n30/w085n35"
,"runways":[
{"len_m":1063,"wid_m":22.86,"hdg":13,"surf":"Asphalt","rwy1":"02","lat1":35.01150800,"lon1":-84.34762500,"rwy2":"20","lat2":35.02085000,"lon2":-84.34499700}
]
,"radios":[
{"type":"CTAF","freq":122.9,"desc":"CTAF"}
]
,"navaids":[
{"type":"VOR","hdg_t":101.5,"dist_nm":21.6,"freq":109.8,"lat":34.94300000,"lon":-83.91569444,"rng_nm":40,"alt_fmsl":3660,"id":"HRS","desc":"HARRIS VORTAC"},
{"type":"NDB","hdg_t":335,"dist_nm":25,"freq":242,"lat":35.39458333,"lon":-84.56163889,"rng_nm":50,"alt_fmsl":0,"id":"MMI","desc":"MC MINN CO NDB"},
{"type":"NDB","hdg_t":286.8,"dist_nm":28.7,"freq":369,"lat":35.15369444,"lon":-84.90577778,"rng_nm":50,"alt_fmsl":0,"id":"HDI","desc":"HARDWICK NDB"},
{"type":"NDB","hdg_t":356.7,"dist_nm":31.7,"freq":361,"lat":35.54502778,"lon":-84.38300000,"rng_nm":50,"alt_fmsl":0,"id":"MNV","desc":"MADISONVILLE NDB"},
{"type":"NDB","hdg_t":245.6,"dist_nm":32.4,"freq":400,"lat":34.79133333,"lon":-84.94352778,"rng_nm":50,"alt_fmsl":0,"id":"UWI","desc":"WHITFIELD NDB"},
{"type":"VOR","hdg_t":265.5,"dist_nm":39.9,"freq":115.8,"lat":34.96125000,"lon":-85.15336111,"rng_nm":130,"alt_fmsl":1015,"id":"GQO","desc":"CHOO CHOO VORTAC"},
{"type":"NDB","hdg_t":314.3,"dist_nm":40,"freq":394,"lat":35.48191667,"lon":-84.93091667,"rng_nm":50,"alt_fmsl":0,"id":"DTE","desc":"MARK ANTON NDB"},
{"type":"NDB","hdg_t":282.9,"dist_nm":40.9,"freq":341,"lat":35.16655556,"lon":-85.15736111,"rng_nm":50,"alt_fmsl":0,"id":"CQN","desc":"DAISY NDB"},
{"type":"NDB","hdg_t":16.5,"dist_nm":45.3,"freq":353,"lat":35.74222222,"lon":-84.08119444,"rng_nm":50,"alt_fmsl":0,"id":"TY","desc":"BENFI NDB"},
{"type":"NDB","hdg_t":188.7,"dist_nm":46.2,"freq":415,"lat":34.25236111,"lon":-84.48761111,"rng_nm":50,"alt_fmsl":0,"id":"DJD","desc":"CHERO NDB"},
{"type":"NDB","hdg_t":218.1,"dist_nm":46.6,"freq":323,"lat":34.40155556,"lon":-84.92652778,"rng_nm":50,"alt_fmsl":0,"id":"OUK","desc":"CALHOUN NDB"},
{"type":"NDB","hdg_t":127.8,"dist_nm":50,"freq":347,"lat":34.50150000,"lon":-83.54988889,"rng_nm":50,"alt_fmsl":0,"id":"AJR","desc":"HABERSHAM NDB"},
{"type":"NDB","hdg_t":155.7,"dist_nm":53.3,"freq":365,"lat":34.20338889,"lon":-83.90630556,"rng_nm":50,"alt_fmsl":0,"id":"FKV","desc":"FLOWERY BRANCH NDB"},
{"type":"NDB","hdg_t":206.8,"dist_nm":54.7,"freq":308,"lat":34.19958333,"lon":-84.84311111,"rng_nm":50,"alt_fmsl":0,"id":"EVZ","desc":"CARTERSVILLE NDB"},
{"type":"VOR","hdg_t":110,"dist_nm":55.2,"freq":113.4,"lat":34.69586111,"lon":-83.29766667,"rng_nm":130,"alt_fmsl":1700,"id":"ODF","desc":"FOOTHILLS VORTAC"},
{"type":"VOR","hdg_t":326,"dist_nm":55.3,"freq":117.6,"lat":35.78100000,"lon":-84.97844444,"rng_nm":40,"alt_fmsl":3040,"id":"HCH","desc":"HINCH MOUNTAIN VORTAC"},
{"type":"VOR","hdg_t":22.4,"dist_nm":57.6,"freq":116.4,"lat":35.90483333,"lon":-83.89472222,"rng_nm":130,"alt_fmsl":1290,"id":"VXV","desc":"VOLUNTEER VORTAC"},
{"type":"NDB","hdg_t":272.7,"dist_nm":61,"freq":382,"lat":35.05963889,"lon":-85.58394444,"rng_nm":50,"alt_fmsl":0,"id":"APT","desc":"JASPER NDB"},
{"type":"VOR","hdg_t":217,"dist_nm":63.8,"freq":115.4,"lat":34.16255556,"lon":-85.11938889,"rng_nm":130,"alt_fmsl":1149,"id":"RMG","desc":"ROME VORTAC"},
{"type":"NDB","hdg_t":157.9,"dist_nm":64.3,"freq":419,"lat":34.01994444,"lon":-83.86283333,"rng_nm":50,"alt_fmsl":0,"id":"TX","desc":"GWNET NDB"},
{"type":"SDME","hdg_t":186.9,"dist_nm":66.4,"freq":113,"lat":33.91464700,"lon":-84.50730600,"rng_nm":25,"alt_fmsl":1008,"id":"DOB","desc":"DOBBINS TACAN"},
{"type":"VOR","hdg_t":178,"dist_nm":68.3,"freq":116.6,"lat":33.87563889,"lon":-84.29880556,"rng_nm":40,"alt_fmsl":970,"id":"PDK","desc":"PEACHTREE VOR-DME"},
{"type":"NDB","hdg_t":144.1,"dist_nm":70.2,"freq":244,"lat":34.06222222,"lon":-83.52094444,"rng_nm":50,"alt_fmsl":0,"id":"DDA","desc":"COMMERCE NDB"},
{"type":"NDB","hdg_t":246,"dist_nm":71.9,"freq":426,"lat":34.52113889,"lon":-85.67333333,"rng_nm":50,"alt_fmsl":0,"id":"FTP","desc":"FORT PAYNE NDB"},
{"type":"NDB","hdg_t":149.6,"dist_nm":74.8,"freq":404,"lat":33.93536111,"lon":-83.58947222,"rng_nm":50,"alt_fmsl":0,"id":"BMW","desc":"BARROW COUNTY NDB"},
{"type":"NDB","hdg_t":105.4,"dist_nm":74.9,"freq":257,"lat":34.67383333,"lon":-82.88683333,"rng_nm":50,"alt_fmsl":0,"id":"CEU","desc":"CLEMSON NDB"},
{"type":"NDB","hdg_t":191,"dist_nm":76.4,"freq":344,"lat":33.76238889,"lon":-84.63886111,"rng_nm":50,"alt_fmsl":0,"id":"FT","desc":"FLANC NDB"},
{"type":"NDB","hdg_t":32.7,"dist_nm":78.1,"freq":346,"lat":36.11055556,"lon":-83.47563889,"rng_nm":50,"alt_fmsl":0,"id":"JXT","desc":"JEFFERSON NDB"},
{"type":"VOR","hdg_t":53.4,"dist_nm":78.5,"freq":108.8,"lat":35.79011111,"lon":-83.05236111,"rng_nm":40,"alt_fmsl":4239,"id":"SOT","desc":"SNOWBIRD VORTAC"},
{"type":"NDB","hdg_t":6.4,"dist_nm":79.6,"freq":204,"lat":36.33783333,"lon":-84.16091667,"rng_nm":50,"alt_fmsl":0,"id":"JAU","desc":"JACKSBORO NDB"},
{"type":"VOR","hdg_t":141.3,"dist_nm":81.6,"freq":109.6,"lat":33.94758333,"lon":-83.32475000,"rng_nm":130,"alt_fmsl":793,"id":"AHN","desc":"ATHENS VORTAC"},
{"type":"NDB","hdg_t":98.1,"dist_nm":81.9,"freq":408,"lat":34.81122222,"lon":-82.70352778,"rng_nm":50,"alt_fmsl":0,"id":"LQK","desc":"LAKE KEOWEE NDB"},
{"type":"NDB","hdg_t":178.7,"dist_nm":82.1,"freq":266,"lat":33.64538889,"lon":-84.31125000,"rng_nm":50,"alt_fmsl":0,"id":"BR","desc":"REDAN NDB"},
{"type":"NDB","hdg_t":302.7,"dist_nm":82.3,"freq":209,"lat":35.75241667,"lon":-85.76413889,"rng_nm":50,"alt_fmsl":0,"id":"RN","desc":"WARRI NDB"},
{"type":"NDB","hdg_t":157.9,"dist_nm":82.5,"freq":392,"lat":33.73761111,"lon":-83.72683333,"rng_nm":50,"alt_fmsl":0,"id":"JNM","desc":"MONROE NDB"},
{"type":"VOR","hdg_t":183,"dist_nm":83.1,"freq":116.9,"lat":33.62908333,"lon":-84.43508333,"rng_nm":130,"alt_fmsl":1000,"id":"ATL","desc":"ATLANTA VORTAC"},
{"type":"NDB","hdg_t":314.1,"dist_nm":84.1,"freq":233,"lat":35.98800000,"lon":-85.58627778,"rng_nm":50,"alt_fmsl":0,"id":"HEM","desc":"HUCHN NDB"},
{"type":"NDB","hdg_t":138.4,"dist_nm":84.7,"freq":221,"lat":33.95138889,"lon":-83.21958333,"rng_nm":50,"alt_fmsl":0,"id":"BJT","desc":"BULLDOG NDB"},
{"type":"VOR","hdg_t":114.3,"dist_nm":85.1,"freq":108.6,"lat":34.41919444,"lon":-82.78469444,"rng_nm":40,"alt_fmsl":736,"id":"ELW","desc":"ELECTRIC CITY VORTAC"},
{"type":"NDB","hdg_t":277,"dist_nm":85.3,"freq":263,"lat":35.17800000,"lon":-86.06816667,"rng_nm":50,"alt_fmsl":0,"id":"BGF","desc":"BOILING FORK NDB"},
{"type":"NDB","hdg_t":110.5,"dist_nm":86.7,"freq":230,"lat":34.49810600,"lon":-82.70853600,"rng_nm":25,"alt_fmsl":760,"id":"AND","desc":"ANDERSON NDB"},
{"type":"NDB","hdg_t":161.1,"dist_nm":87.6,"freq":370,"lat":33.62983333,"lon":-83.78211111,"rng_nm":50,"alt_fmsl":0,"id":"VOF","desc":"ALCOVY NDB"},
{"type":"NDB","hdg_t":356,"dist_nm":91.4,"freq":403,"lat":36.53947222,"lon":-84.47600000,"rng_nm":50,"alt_fmsl":0,"id":"BPO","desc":"PINEY GROVE NDB"},
{"type":"NDB","hdg_t":69.7,"dist_nm":91.7,"freq":357,"lat":35.53277778,"lon":-82.58744444,"rng_nm":50,"alt_fmsl":0,"id":"IM","desc":"KEANS NDB"},
{"type":"NDB","hdg_t":309.4,"dist_nm":92.1,"freq":256,"lat":35.98400000,"lon":-85.80811111,"rng_nm":50,"alt_fmsl":0,"id":"SKN","desc":"HURRICANE NDB"},
{"type":"NDB","hdg_t":80,"dist_nm":93.5,"freq":379,"lat":35.27275000,"lon":-82.47102778,"rng_nm":50,"alt_fmsl":0,"id":"BRA","desc":"BROAD RIVER NDB"},
{"type":"NDB","hdg_t":204.4,"dist_nm":95.2,"freq":278,"lat":33.56577778,"lon":-85.13088889,"rng_nm":50,"alt_fmsl":0,"id":"GPQ","desc":"CARROLLTON NDB"},
{"type":"NDB","hdg_t":101.1,"dist_nm":95.9,"freq":338,"lat":34.69102778,"lon":-82.44363889,"rng_nm":50,"alt_fmsl":0,"id":"GY","desc":"DYANA NDB"},
{"type":"VOR","hdg_t":283.6,"dist_nm":95.9,"freq":109.65,"lat":35.38041667,"lon":-86.24577778,"rng_nm":25,"alt_fmsl":0,"id":"UXM","desc":"TULLAHOMA RGNL VOR"},
{"type":"NDB","hdg_t":286.5,"dist_nm":96.8,"freq":332,"lat":35.46158333,"lon":-86.24169444,"rng_nm":50,"alt_fmsl":0,"id":"ULH","desc":"BURWI NDB"},
{"type":"NDB","hdg_t":46.3,"dist_nm":97.8,"freq":263,"lat":36.13588889,"lon":-82.89036111,"rng_nm":50,"alt_fmsl":0,"id":"DYQ","desc":"DULANEY NDB"},
{"type":"NDB","hdg_t":97.5,"dist_nm":99.5,"freq":521,"lat":34.78013889,"lon":-82.34977778,"rng_nm":50,"alt_fmsl":0,"id":"GM","desc":"JUDKY NDB"}
]
}
