{"success":true,"source":"xp2csv.pl","last_updated":"2013/11/08 14:53:21 UTC"
,"icao":"1AL4","name":"Elsanor","lat":30.54472222,"lon":-87.55944445,"rwys":1,"ils":0,"index":1515041,"path":"w090n30/w088n30"
,"runways":[
{"len_m":733,"wid_m":30.48,"hdg":90,"surf":"Turf/grass","rwy1":"09","lat1":30.54477967,"lon1":-87.56326580,"rwy2":"27","lat2":30.54466477,"lon2":-87.55562310}
]
,"navaids":[
{"type":"NDB","hdg_t":252.5,"dist_nm":9,"freq":204,"lat":30.49925000,"lon":-87.72566667,"rng_nm":50,"alt_fmsl":0,"id":"ESU","desc":"SUMMERDALE NDB"},
{"type":"VOR","hdg_t":110.4,"dist_nm":12.3,"freq":108.8,"lat":30.47213889,"lon":-87.33588889,"rng_nm":40,"alt_fmsl":0,"id":"NUN","desc":"SAUFLEY VOR"},
{"type":"SDME","hdg_t":131.5,"dist_nm":16.8,"freq":117.2,"lat":30.35800000,"lon":-87.31650000,"rng_nm":40,"alt_fmsl":24,"id":"NPA","desc":"PENSACOLA TACAN"},
{"type":"NDB","hdg_t":107.9,"dist_nm":20.7,"freq":326,"lat":30.43705556,"lon":-87.17836111,"rng_nm":50,"alt_fmsl":0,"id":"PKZ","desc":"PICKENS NDB"},
{"type":"VOR","hdg_t":279.1,"dist_nm":26,"freq":112.8,"lat":30.61272222,"lon":-88.05550000,"rng_nm":40,"alt_fmsl":30,"id":"BFM","desc":"BROOKLEY VORTAC"},
{"type":"SDME","hdg_t":68.9,"dist_nm":30,"freq":112.3,"lat":30.72400000,"lon":-87.01800000,"rng_nm":40,"alt_fmsl":179,"id":"NSE","desc":"WHITING TACAN"},
{"type":"VOR","hdg_t":284.8,"dist_nm":42.8,"freq":115.3,"lat":30.72597222,"lon":-88.35930556,"rng_nm":130,"alt_fmsl":190,"id":"SJI","desc":"SEMMES VORTAC"},
{"type":"SDME","hdg_t":98.5,"dist_nm":45.5,"freq":110.8,"lat":30.42803600,"lon":-86.69028900,"rng_nm":25,"alt_fmsl":35,"id":"HRT","desc":"HURLBURT TACAN"},
{"type":"VOR","hdg_t":69.4,"dist_nm":48.5,"freq":115.9,"lat":30.82616667,"lon":-86.67913889,"rng_nm":130,"alt_fmsl":255,"id":"CEW","desc":"CRESTVIEW VORTAC"},
{"type":"NDB","hdg_t":270.4,"dist_nm":51.4,"freq":209,"lat":30.54816667,"lon":-88.55316667,"rng_nm":50,"alt_fmsl":0,"id":"PQ","desc":"TLOTT NDB"},
{"type":"VOR","hdg_t":10.9,"dist_nm":55.8,"freq":116.8,"lat":31.46044444,"lon":-87.35275000,"rng_nm":40,"alt_fmsl":420,"id":"MVC","desc":"MONROEVILLE VORTAC"},
{"type":"NDB","hdg_t":70.5,"dist_nm":56,"freq":201,"lat":30.85286111,"lon":-86.53661111,"rng_nm":50,"alt_fmsl":0,"id":"CE","desc":"KOBRA NDB"},
{"type":"VOR","hdg_t":304.9,"dist_nm":58.2,"freq":115.7,"lat":31.09797222,"lon":-88.48613889,"rng_nm":130,"alt_fmsl":300,"id":"GCV","desc":"GREENE CO VORTAC"},
{"type":"SDME","hdg_t":263.7,"dist_nm":71.5,"freq":111.8,"lat":30.40708600,"lon":-88.92971100,"rng_nm":25,"alt_fmsl":10,"id":"BIX","desc":"KEESLER TACAN"},
{"type":"NDB","hdg_t":52.6,"dist_nm":75.5,"freq":264,"lat":31.30508333,"lon":-86.39088889,"rng_nm":50,"alt_fmsl":0,"id":"JUY","desc":"JUDD NDB"},
{"type":"VOR","hdg_t":52.4,"dist_nm":75.6,"freq":110.2,"lat":31.30952778,"lon":-86.39213889,"rng_nm":25,"alt_fmsl":0,"id":"UIA","desc":"ANDALUSIA VOR"},
{"type":"VOR","hdg_t":264.3,"dist_nm":79.1,"freq":109,"lat":30.40683333,"lon":-89.07677778,"rng_nm":40,"alt_fmsl":23,"id":"GPT","desc":"GULFPORT VORTAC"},
{"type":"NDB","hdg_t":267.9,"dist_nm":83.1,"freq":360,"lat":30.48555556,"lon":-89.16225000,"rng_nm":50,"alt_fmsl":0,"id":"GP","desc":"BAYOU NDB"},
{"type":"NDB","hdg_t":59.2,"dist_nm":94.2,"freq":352,"lat":31.33938889,"lon":-85.98194444,"rng_nm":50,"alt_fmsl":0,"id":"BVG","desc":"BOLL WEEVIL NDB"},
{"type":"VOR","hdg_t":61.8,"dist_nm":96.6,"freq":116.6,"lat":31.29636111,"lon":-85.90275000,"rng_nm":25,"alt_fmsl":0,"id":"EDN","desc":"ENTERPRISE VOR"},
{"type":"NDB","hdg_t":343,"dist_nm":98.3,"freq":228,"lat":32.11431300,"lon":-88.12140700,"rng_nm":25,"alt_fmsl":115,"id":"BCZ","desc":"CHOCTAW NDB"},
{"type":"NDB","hdg_t":267.2,"dist_nm":98.4,"freq":221,"lat":30.45133333,"lon":-89.45552778,"rng_nm":50,"alt_fmsl":0,"id":"HS","desc":"HANCO (OM/NDB) NDB"},
{"type":"NDB","hdg_t":65.1,"dist_nm":98.8,"freq":212,"lat":31.22563889,"lon":-85.81597222,"rng_nm":50,"alt_fmsl":0,"id":"OZ","desc":"RUCKR NDB"},
{"type":"VOR","hdg_t":100.9,"dist_nm":99.4,"freq":114.3,"lat":30.21625000,"lon":-85.68094444,"rng_nm":40,"alt_fmsl":10,"id":"PFN","desc":"PANAMA CITY VORTAC"}
]
}
