{"success":true,"source":"xp2csv.pl","last_updated":"2013/11/08 14:53:21 UTC"
,"icao":"1CO4","name":"Clifford Field","lat":38.57498555,"lon":-107.95895389,"rwys":1,"ils":0,"index":1187872,"path":"w110n30/w108n38"
,"runways":[
{"len_m":1004,"wid_m":30.48,"hdg":183,"surf":"Dirt","rwy1":"17","lat1":38.57950527,"lon1":-107.95865091,"rwy2":"35","lat2":38.57046583,"lon2":-107.95925687}
]
,"navaids":[
{"type":"VOR","hdg_t":145.6,"dist_nm":4.9,"freq":117.1,"lat":38.50644444,"lon":-107.89927778,"rng_nm":130,"alt_fmsl":5713,"id":"MTJ","desc":"MONTROSE VOR-DME"},
{"type":"NDB","hdg_t":235.4,"dist_nm":34.9,"freq":375,"lat":38.24276800,"lon":-108.56675800,"rng_nm":25,"alt_fmsl":5936,"id":"HPL","desc":"HOPKINS NDB"},
{"type":"VOR","hdg_t":203.9,"dist_nm":35,"freq":110.2,"lat":38.04025000,"lon":-108.25858333,"rng_nm":40,"alt_fmsl":8460,"id":"ETL","desc":"CONES VOR-DME"},
{"type":"VOR","hdg_t":99.3,"dist_nm":43.9,"freq":114.9,"lat":38.45216667,"lon":-107.03980556,"rng_nm":130,"alt_fmsl":8730,"id":"HBU","desc":"BLUE MESA VOR-DME"},
{"type":"VOR","hdg_t":306.8,"dist_nm":48.7,"freq":112.4,"lat":39.05955556,"lon":-108.79258333,"rng_nm":130,"alt_fmsl":7100,"id":"JNC","desc":"GRAND JUNCTION VOR-DME"},
{"type":"VOR","hdg_t":10.4,"dist_nm":57.8,"freq":111.45,"lat":39.52455556,"lon":-107.73250000,"rng_nm":40,"alt_fmsl":5484,"id":"RGA","desc":"RIFLE VOR-DME"},
{"type":"NDB","hdg_t":36.4,"dist_nm":62.5,"freq":344,"lat":39.41163889,"lon":-107.15950000,"rng_nm":50,"alt_fmsl":0,"id":"CQL","desc":"CARBONDALE NDB"},
{"type":"VOR","hdg_t":225.3,"dist_nm":64.9,"freq":114.6,"lat":37.80875000,"lon":-108.93127778,"rng_nm":130,"alt_fmsl":6990,"id":"DVC","desc":"DOVE CREEK VORTAC"},
{"type":"VOR","hdg_t":43.5,"dist_nm":71.8,"freq":113,"lat":39.43933333,"lon":-106.89466667,"rng_nm":130,"alt_fmsl":11800,"id":"DBL","desc":"RED TABLE VOR-DME"},
{"type":"VOR","hdg_t":202.1,"dist_nm":76.5,"freq":108.4,"lat":37.38986111,"lon":-108.56175000,"rng_nm":40,"alt_fmsl":6223,"id":"CEZ","desc":"CORTEZ VOR-DME"},
{"type":"VOR","hdg_t":35.2,"dist_nm":77.7,"freq":109.2,"lat":39.62947222,"lon":-106.99113889,"rng_nm":40,"alt_fmsl":8060,"id":"SXW","desc":"SNOW VOR-DME"},
{"type":"NDB","hdg_t":36.8,"dist_nm":80.6,"freq":357,"lat":39.64655556,"lon":-106.91427778,"rng_nm":50,"alt_fmsl":0,"id":"EGE","desc":"EAGLE NDB"},
{"type":"VOR","hdg_t":277.9,"dist_nm":84.8,"freq":109.8,"lat":38.75625000,"lon":-109.74927778,"rng_nm":25,"alt_fmsl":4542,"id":"OAB","desc":"MOAB VOR-DME"},
{"type":"VOR","hdg_t":173.2,"dist_nm":85.7,"freq":108.2,"lat":37.15325000,"lon":-107.74961111,"rng_nm":40,"alt_fmsl":6660,"id":"DRO","desc":"DURANGO VOR-DME"},
{"type":"VOR","hdg_t":1,"dist_nm":89.4,"freq":115.2,"lat":40.06741667,"lon":-107.92494444,"rng_nm":130,"alt_fmsl":7631,"id":"EKR","desc":"MEEKER VOR-DME"}
]
}
