{"success":true,"source":"xp2csv.pl","last_updated":"2013/11/08 14:53:21 UTC"
,"icao":"1D1","name":"Milbank Muni","lat":45.2310965,"lon":-96.56501925,"rwys":2,"ils":0,"index":1368521,"path":"w100n40/w097n45"
,"runways":[
{"len_m":1228,"wid_m":18.29,"hdg":134,"surf":"Concrete","rwy1":"13","lat1":45.23722200,"lon1":-96.56833600,"rwy2":"31","lat2":45.22944200,"lon2":-96.55721900},
{"len_m":1097,"wid_m":45.72,"hdg":71,"surf":"Turf/grass","rwy1":"07","lat1":45.22732200,"lon1":-96.57390000,"rwy2":"25","lat2":45.23040000,"lon2":-96.56062200}
]
,"radios":[
{"type":"CTAF","freq":122.8,"desc":"CTAF/UNICOM"}
]
,"navaids":[
{"type":"NDB","hdg_t":55.2,"dist_nm":7.4,"freq":332,"lat":45.30166667,"lon":-96.42080556,"rng_nm":50,"alt_fmsl":0,"id":"VVV","desc":"ORTONVILLE NDB"},
{"type":"NDB","hdg_t":131.9,"dist_nm":22.1,"freq":341,"lat":44.98416667,"lon":-96.17894444,"rng_nm":50,"alt_fmsl":0,"id":"DXX","desc":"DAWSON/MADISON NDB"},
{"type":"NDB","hdg_t":90.1,"dist_nm":23.5,"freq":356,"lat":45.22847222,"lon":-96.00955556,"rng_nm":50,"alt_fmsl":0,"id":"AQP","desc":"APPLETON NDB"},
{"type":"VOR","hdg_t":238.5,"dist_nm":28.7,"freq":116.6,"lat":44.97963889,"lon":-97.14177778,"rng_nm":40,"alt_fmsl":1762,"id":"ATY","desc":"WATERTOWN VORTAC"},
{"type":"VOR","hdg_t":51.2,"dist_nm":32.2,"freq":109.6,"lat":45.56580556,"lon":-95.96922222,"rng_nm":25,"alt_fmsl":1132,"id":"MOX","desc":"MORRIS VOR-DME"},
{"type":"NDB","hdg_t":1.3,"dist_nm":33.1,"freq":326,"lat":45.78327778,"lon":-96.54669444,"rng_nm":50,"alt_fmsl":0,"id":"ETH","desc":"WHEATON NDB"},
{"type":"NDB","hdg_t":224.3,"dist_nm":35.7,"freq":215,"lat":44.80327778,"lon":-97.15013889,"rng_nm":50,"alt_fmsl":0,"id":"AT","desc":"LICAN NDB"},
{"type":"NDB","hdg_t":81.2,"dist_nm":39.1,"freq":239,"lat":45.32719444,"lon":-95.65091667,"rng_nm":50,"alt_fmsl":0,"id":"BBB","desc":"BENSON NDB"},
{"type":"VOR","hdg_t":112.8,"dist_nm":39.4,"freq":111.6,"lat":44.97266667,"lon":-95.71219444,"rng_nm":25,"alt_fmsl":1037,"id":"MVE","desc":"MONTEVIDEO VOR-DME"},
{"type":"NDB","hdg_t":147.2,"dist_nm":51.9,"freq":253,"lat":44.50175000,"lon":-95.91097222,"rng_nm":50,"alt_fmsl":0,"id":"GB","desc":"GARNO NDB"},
{"type":"VOR","hdg_t":190.9,"dist_nm":56.6,"freq":108.8,"lat":44.30325000,"lon":-96.81511111,"rng_nm":25,"alt_fmsl":1641,"id":"BKX","desc":"BROOKINGS VOR-DME"},
{"type":"VOR","hdg_t":145.8,"dist_nm":56.6,"freq":111,"lat":44.44841667,"lon":-95.82477778,"rng_nm":25,"alt_fmsl":1180,"id":"MML","desc":"MARSHALL VOR-DME"},
{"type":"NDB","hdg_t":64.3,"dist_nm":58.2,"freq":346,"lat":45.64430556,"lon":-95.31830556,"rng_nm":50,"alt_fmsl":0,"id":"GHW","desc":"GLENWOOD NDB"},
{"type":"NDB","hdg_t":358.4,"dist_nm":60.8,"freq":233,"lat":46.24488889,"lon":-96.60361111,"rng_nm":50,"alt_fmsl":0,"id":"BWP","desc":"BRECKENRIDGE-WAHP NDB"},
{"type":"NDB","hdg_t":305.7,"dist_nm":61,"freq":386,"lat":45.81916700,"lon":-97.74558300,"rng_nm":25,"alt_fmsl":1312,"id":"BTN","desc":"BRITTON NDB"},
{"type":"VOR","hdg_t":95.8,"dist_nm":61.4,"freq":113.7,"lat":45.11766667,"lon":-95.12705556,"rng_nm":25,"alt_fmsl":1125,"id":"BDH","desc":"WILLMAR VOR-DME"},
{"type":"NDB","hdg_t":57.2,"dist_nm":62.8,"freq":281,"lat":45.79171200,"lon":-95.30547900,"rng_nm":25,"alt_fmsl":1404,"id":"AJW","desc":"ANDRI NDB"},
{"type":"NDB","hdg_t":57.2,"dist_nm":62.8,"freq":374,"lat":45.79172222,"lon":-95.30552778,"rng_nm":50,"alt_fmsl":0,"id":"EE","desc":"TAMIE (LOM) NDB"},
{"type":"VOR","hdg_t":95.6,"dist_nm":62.9,"freq":113.7,"lat":45.11752800,"lon":-95.09061100,"rng_nm":25,"alt_fmsl":1120,"id":"ILL","desc":"WILLMAR VOR-DME"},
{"type":"NDB","hdg_t":19.5,"dist_nm":63,"freq":337,"lat":46.21980556,"lon":-96.05769444,"rng_nm":50,"alt_fmsl":0,"id":"FF","desc":"HAMRE NDB"},
{"type":"VOR","hdg_t":14.9,"dist_nm":65.7,"freq":110.4,"lat":46.28936111,"lon":-96.15680556,"rng_nm":25,"alt_fmsl":1201,"id":"FFM","desc":"FERGUS FALLS VOR-DME"},
{"type":"VOR","hdg_t":51.6,"dist_nm":71.1,"freq":112.8,"lat":45.95838889,"lon":-95.23263889,"rng_nm":40,"alt_fmsl":1367,"id":"AXN","desc":"ALEXANDRIA VOR-DME"},
{"type":"NDB","hdg_t":323.1,"dist_nm":74.8,"freq":278,"lat":46.22369444,"lon":-97.64263889,"rng_nm":50,"alt_fmsl":0,"id":"GWR","desc":"GWINNER NDB"},
{"type":"NDB","hdg_t":277.7,"dist_nm":75.2,"freq":203,"lat":45.38600000,"lon":-98.32836111,"rng_nm":50,"alt_fmsl":0,"id":"AB","desc":"RENEY NDB"},
{"type":"NDB","hdg_t":171.1,"dist_nm":75.5,"freq":284,"lat":43.98616667,"lon":-96.29636111,"rng_nm":50,"alt_fmsl":0,"id":"PQN","desc":"PIPESTONE NDB"},
{"type":"NDB","hdg_t":197.2,"dist_nm":76.4,"freq":400,"lat":44.01327778,"lon":-97.08841667,"rng_nm":50,"alt_fmsl":0,"id":"MDS","desc":"WENTWORTH NDB"},
{"type":"VOR","hdg_t":126.2,"dist_nm":76.5,"freq":113.3,"lat":44.46727778,"lon":-95.12822222,"rng_nm":130,"alt_fmsl":1061,"id":"RWF","desc":"REDWOOD FALLS VOR-DME"},
{"type":"VOR","hdg_t":278.9,"dist_nm":77.1,"freq":113,"lat":45.41736111,"lon":-98.36872222,"rng_nm":130,"alt_fmsl":1301,"id":"ABR","desc":"ABERDEEN VOR-DME"},
{"type":"VOR","hdg_t":238.1,"dist_nm":88.3,"freq":117.6,"lat":44.44008333,"lon":-98.31108333,"rng_nm":40,"alt_fmsl":1300,"id":"HON","desc":"HURON VORTAC"},
{"type":"NDB","hdg_t":238.6,"dist_nm":89.1,"freq":302,"lat":44.44388889,"lon":-98.33683333,"rng_nm":50,"alt_fmsl":0,"id":"HO","desc":"BEADY NDB"},
{"type":"VOR","hdg_t":94.7,"dist_nm":90,"freq":109,"lat":45.08747222,"lon":-94.45386111,"rng_nm":40,"alt_fmsl":1130,"id":"DWN","desc":"DARWIN VORTAC"},
{"type":"VOR","hdg_t":352.6,"dist_nm":92.1,"freq":116.2,"lat":46.75336111,"lon":-96.85133333,"rng_nm":130,"alt_fmsl":908,"id":"FAR","desc":"FARGO VORTAC"},
{"type":"VOR","hdg_t":185.6,"dist_nm":95.3,"freq":115,"lat":43.64950000,"lon":-96.78113889,"rng_nm":130,"alt_fmsl":1571,"id":"FSD","desc":"SIOUX FALLS VORTAC"},
{"type":"VOR","hdg_t":16.2,"dist_nm":99.7,"freq":111.2,"lat":46.82555556,"lon":-95.88733333,"rng_nm":25,"alt_fmsl":1387,"id":"DTL","desc":"DETROIT LAKES VOR-DME"}
]
}
