{"success":true,"source":"xp2csv.pl","last_updated":"2013/11/08 14:53:21 UTC"
,"icao":"1GA8","name":"South One Ten","lat":31.17853138,"lon":-83.2265425,"rwys":1,"ils":0,"index":1580619,"path":"w090n30/w084n31"
,"runways":[
{"len_m":912,"wid_m":21.34,"hdg":167,"surf":"Turf/grass","rwy1":"17","lat1":31.18255594,"lon1":-83.22754237,"rwy2":"35","lat2":31.17450682,"lon2":-83.22554263}
]
,"navaids":[
{"type":"NDB","hdg_t":314.7,"dist_nm":15.7,"freq":409,"lat":31.36327778,"lon":-83.44402778,"rng_nm":50,"alt_fmsl":0,"id":"TM","desc":"TIFTO NDB"},
{"type":"VOR","hdg_t":318,"dist_nm":20.1,"freq":112.5,"lat":31.42866667,"lon":-83.48886111,"rng_nm":25,"alt_fmsl":0,"id":"IFM","desc":"TIFT MYERS VOR"},
{"type":"NDB","hdg_t":48.8,"dist_nm":20.6,"freq":390,"lat":31.40483333,"lon":-82.92375000,"rng_nm":50,"alt_fmsl":0,"id":"OWC","desc":"COFFEE CO NDB"},
{"type":"VOR","hdg_t":186.5,"dist_nm":23.9,"freq":114.8,"lat":30.78044444,"lon":-83.27972222,"rng_nm":130,"alt_fmsl":199,"id":"OTK","desc":"VALDOSTA VOR-DME"},
{"type":"NDB","hdg_t":107.3,"dist_nm":24.5,"freq":209,"lat":31.05550000,"lon":-82.77208333,"rng_nm":50,"alt_fmsl":0,"id":"HOE","desc":"HOMERVILLE NDB"},
{"type":"NDB","hdg_t":352.7,"dist_nm":26.2,"freq":362,"lat":31.61297222,"lon":-83.29072222,"rng_nm":50,"alt_fmsl":0,"id":"SUR","desc":"FITZGERALD NDB"},
{"type":"VOR","hdg_t":259.1,"dist_nm":30.3,"freq":108.8,"lat":31.08227778,"lon":-83.80422222,"rng_nm":40,"alt_fmsl":290,"id":"MGR","desc":"MOULTRIE VOR-DME"},
{"type":"NDB","hdg_t":246.9,"dist_nm":33.6,"freq":245,"lat":30.95755556,"lon":-83.82666667,"rng_nm":50,"alt_fmsl":0,"id":"GTP","desc":"PATTEN NDB"},
{"type":"VOR","hdg_t":80.8,"dist_nm":34.9,"freq":110.2,"lat":31.26941667,"lon":-82.55644444,"rng_nm":40,"alt_fmsl":155,"id":"AYS","desc":"WAYCROSS VORTAC"},
{"type":"VOR","hdg_t":59.6,"dist_nm":42.6,"freq":115.1,"lat":31.53652778,"lon":-82.50808333,"rng_nm":130,"alt_fmsl":200,"id":"AMG","desc":"ALMA VORTAC"},
{"type":"NDB","hdg_t":78.1,"dist_nm":43.5,"freq":219,"lat":31.32525000,"lon":-82.39708333,"rng_nm":50,"alt_fmsl":0,"id":"AY","desc":"WIKET NDB"},
{"type":"VOR","hdg_t":217.5,"dist_nm":47.2,"freq":109,"lat":30.55133333,"lon":-83.78313889,"rng_nm":40,"alt_fmsl":220,"id":"GEF","desc":"GREENVILLE VORTAC"},
{"type":"NDB","hdg_t":250.3,"dist_nm":51.1,"freq":338,"lat":30.88816667,"lon":-84.15933333,"rng_nm":50,"alt_fmsl":0,"id":"CYR","desc":"CAIDY NDB"},
{"type":"NDB","hdg_t":35.1,"dist_nm":51.4,"freq":414,"lat":31.88019444,"lon":-82.64736111,"rng_nm":50,"alt_fmsl":0,"id":"AZE","desc":"HAZLEHURST NDB"},
{"type":"NDB","hdg_t":272.6,"dist_nm":52,"freq":369,"lat":31.21463889,"lon":-84.23686111,"rng_nm":50,"alt_fmsl":0,"id":"CXU","desc":"CAMILLA NDB"},
{"type":"VOR","hdg_t":139,"dist_nm":53.2,"freq":112.9,"lat":30.50463889,"lon":-82.55291667,"rng_nm":130,"alt_fmsl":140,"id":"TAY","desc":"TAYLOR VORTAC"},
{"type":"NDB","hdg_t":53.1,"dist_nm":53.5,"freq":376,"lat":31.71202778,"lon":-82.39016667,"rng_nm":50,"alt_fmsl":0,"id":"BHC","desc":"BAXLEY NDB"},
{"type":"NDB","hdg_t":287.3,"dist_nm":56.4,"freq":227,"lat":31.45613889,"lon":-84.27616667,"rng_nm":50,"alt_fmsl":0,"id":"AB","desc":"PUTNY NDB"},
{"type":"NDB","hdg_t":3.7,"dist_nm":57.3,"freq":366,"lat":32.13419444,"lon":-83.15391667,"rng_nm":50,"alt_fmsl":0,"id":"EZM","desc":"EASTMAN NDB"},
{"type":"NDB","hdg_t":17.6,"dist_nm":57.5,"freq":280,"lat":32.09461111,"lon":-82.88375000,"rng_nm":50,"alt_fmsl":0,"id":"MQW","desc":"MC RAE NDB"},
{"type":"NDB","hdg_t":326.5,"dist_nm":58.8,"freq":400,"lat":31.99783333,"lon":-83.86180556,"rng_nm":50,"alt_fmsl":0,"id":"OHY","desc":"CONEY NDB"},
{"type":"VOR","hdg_t":297.8,"dist_nm":61.7,"freq":116.1,"lat":31.65522222,"lon":-84.29305556,"rng_nm":130,"alt_fmsl":283,"id":"PZD","desc":"PECAN VORTAC"},
{"type":"VOR","hdg_t":347.4,"dist_nm":63.4,"freq":116.5,"lat":32.21344444,"lon":-83.49725000,"rng_nm":40,"alt_fmsl":300,"id":"VNA","desc":"VIENNA VORTAC"},
{"type":"NDB","hdg_t":259.9,"dist_nm":68,"freq":359,"lat":30.97272222,"lon":-84.52602778,"rng_nm":50,"alt_fmsl":0,"id":"LYZ","desc":"WILLIS NDB"},
{"type":"NDB","hdg_t":150.4,"dist_nm":68.2,"freq":204,"lat":30.18533333,"lon":-82.57858333,"rng_nm":50,"alt_fmsl":0,"id":"LCQ","desc":"LAKE CITY NDB"},
{"type":"VOR","hdg_t":238.1,"dist_nm":69.9,"freq":117.5,"lat":30.55622222,"lon":-84.37397222,"rng_nm":130,"alt_fmsl":180,"id":"SZW","desc":"SEMINOLE VORTAC"},
{"type":"NDB","hdg_t":228.1,"dist_nm":70.2,"freq":332,"lat":30.39142200,"lon":-84.23568300,"rng_nm":25,"alt_fmsl":51,"id":"PL","desc":"PALEE NDB"},
{"type":"NDB","hdg_t":71.6,"dist_nm":72.3,"freq":340,"lat":31.55252778,"lon":-81.88700000,"rng_nm":50,"alt_fmsl":0,"id":"JES","desc":"SLOVER NDB"},
{"type":"NDB","hdg_t":323.1,"dist_nm":74.7,"freq":242,"lat":32.17447222,"lon":-84.10816667,"rng_nm":50,"alt_fmsl":0,"id":"LKG","desc":"LINDBERGH NDB"},
{"type":"NDB","hdg_t":45.9,"dist_nm":76.1,"freq":424,"lat":32.05769444,"lon":-82.15233333,"rng_nm":50,"alt_fmsl":0,"id":"RVJ","desc":"PRISON NDB"},
{"type":"NDB","hdg_t":229.2,"dist_nm":77.6,"freq":379,"lat":30.32619444,"lon":-84.35825000,"rng_nm":50,"alt_fmsl":0,"id":"TL","desc":"WAKUL NDB"},
{"type":"NDB","hdg_t":36.9,"dist_nm":78.5,"freq":372,"lat":32.22325000,"lon":-82.29816667,"rng_nm":50,"alt_fmsl":0,"id":"UQN","desc":"ONYUN NDB"},
{"type":"NDB","hdg_t":7.9,"dist_nm":78.9,"freq":251,"lat":32.48383333,"lon":-83.01094444,"rng_nm":50,"alt_fmsl":0,"id":"DB","desc":"CREKE NDB"},
{"type":"NDB","hdg_t":340.3,"dist_nm":81.3,"freq":350,"lat":32.45741667,"lon":-83.76572222,"rng_nm":50,"alt_fmsl":0,"id":"BEP","desc":"BAY CREEK NDB"},
{"type":"NDB","hdg_t":330.9,"dist_nm":81.6,"freq":426,"lat":32.36738889,"lon":-84.00741667,"rng_nm":50,"alt_fmsl":0,"id":"IZS","desc":"MONTEZUMA NDB"},
{"type":"NDB","hdg_t":281.8,"dist_nm":83.5,"freq":344,"lat":31.45569444,"lon":-84.81911111,"rng_nm":50,"alt_fmsl":0,"id":"IWJ","desc":"BLAAK NDB"},
{"type":"NDB","hdg_t":119.7,"dist_nm":85.1,"freq":344,"lat":30.46502778,"lon":-81.80163889,"rng_nm":50,"alt_fmsl":0,"id":"JA","desc":"DINNS (LOM/NDB) NDB"},
{"type":"VOR","hdg_t":13.6,"dist_nm":85.3,"freq":113.1,"lat":32.56344444,"lon":-82.83000000,"rng_nm":40,"alt_fmsl":265,"id":"DBN","desc":"DUBLIN VORTAC"},
{"type":"NDB","hdg_t":87.5,"dist_nm":86.6,"freq":275,"lat":31.22833333,"lon":-81.54272222,"rng_nm":50,"alt_fmsl":0,"id":"BQ","desc":"JEFFI NDB"},
{"type":"VOR","hdg_t":129.5,"dist_nm":90,"freq":117.9,"lat":30.21300000,"lon":-81.89088889,"rng_nm":130,"alt_fmsl":0,"id":"VQQ","desc":"CECIL VOR"},
{"type":"NDB","hdg_t":344.3,"dist_nm":91.2,"freq":290,"lat":32.64533300,"lon":-83.71325000,"rng_nm":25,"alt_fmsl":0,"id":"MC","desc":"SOFKE NDB"},
{"type":"NDB","hdg_t":48.1,"dist_nm":92,"freq":395,"lat":32.19688889,"lon":-81.88061111,"rng_nm":50,"alt_fmsl":0,"id":"CWV","desc":"CLAXTON NDB"},
{"type":"VOR","hdg_t":94.3,"dist_nm":92,"freq":109.8,"lat":31.05050000,"lon":-81.44591667,"rng_nm":40,"alt_fmsl":6,"id":"SSI","desc":"BRUNSWICK VORTAC"},
{"type":"VOR","hdg_t":346.7,"dist_nm":93,"freq":114.2,"lat":32.69119444,"lon":-83.64719444,"rng_nm":130,"alt_fmsl":381,"id":"MCN","desc":"MACON VORTAC"},
{"type":"VOR","hdg_t":174.3,"dist_nm":94.9,"freq":112,"lat":29.59902778,"lon":-83.04872222,"rng_nm":40,"alt_fmsl":30,"id":"CTY","desc":"CROSS CITY VORTAC"},
{"type":"NDB","hdg_t":117.9,"dist_nm":95,"freq":357,"lat":30.42361111,"lon":-81.60938889,"rng_nm":50,"alt_fmsl":0,"id":"EYA","desc":"EASTPORT NDB"},
{"type":"NDB","hdg_t":65.6,"dist_nm":96.3,"freq":263,"lat":31.83116667,"lon":-81.51019444,"rng_nm":50,"alt_fmsl":0,"id":"MOQ","desc":"MC INTOSH NDB"},
{"type":"NDB","hdg_t":23.7,"dist_nm":97.4,"freq":309,"lat":32.66652778,"lon":-82.45269444,"rng_nm":50,"alt_fmsl":0,"id":"EEX","desc":"EMANUEL CO NDB"},
{"type":"SDME","hdg_t":124.7,"dist_nm":98.1,"freq":108.2,"lat":30.23486700,"lon":-81.67506700,"rng_nm":40,"alt_fmsl":20,"id":"NIP","desc":"JACKSONVILLE TACAN"}
]
}
