{"success":true,"source":"xp2csv.pl","last_updated":"2013/11/08 14:53:21 UTC"
,"icao":"1K6","name":"Ellinwood Municipal","lat":38.373345,"lon":-98.59507751,"rwys":2,"ils":0,"index":1335313,"path":"w100n30/w099n38"
,"runways":[
{"len_m":776,"wid_m":30.48,"hdg":177,"surf":"Turf/grass","rwy1":"17","lat1":38.37684017,"lon1":-98.59523319,"rwy2":"35","lat2":38.36984983,"lon2":-98.59492183},
{"len_m":657,"wid_m":45.72,"hdg":88,"surf":"Turf/grass","rwy1":"08","lat1":38.37324209,"lon1":-98.59883641,"rwy2":"26","lat2":38.37344791,"lon2":-98.59131861}
]
,"navaids":[
{"type":"NDB","hdg_t":239.4,"dist_nm":14.3,"freq":419,"lat":38.25169444,"lon":-98.85580556,"rng_nm":50,"alt_fmsl":0,"id":"GB","desc":"BABSY NDB"},
{"type":"NDB","hdg_t":266.7,"dist_nm":14.5,"freq":338,"lat":38.35908333,"lon":-98.90288889,"rng_nm":50,"alt_fmsl":0,"id":"HIL","desc":"HILYN NDB"},
{"type":"NDB","hdg_t":95,"dist_nm":17.4,"freq":386,"lat":38.34722222,"lon":-98.22700000,"rng_nm":50,"alt_fmsl":0,"id":"LYO","desc":"LYONS NDB"},
{"type":"NDB","hdg_t":246.6,"dist_nm":25.3,"freq":296,"lat":38.20436111,"lon":-99.08791667,"rng_nm":50,"alt_fmsl":0,"id":"LQR","desc":"LARNED NDB"},
{"type":"NDB","hdg_t":115.1,"dist_nm":34.9,"freq":404,"lat":38.12372222,"lon":-97.92702778,"rng_nm":50,"alt_fmsl":0,"id":"HU","desc":"SALTT NDB"},
{"type":"VOR","hdg_t":125.6,"dist_nm":38.5,"freq":116.8,"lat":37.99691667,"lon":-97.93413889,"rng_nm":40,"alt_fmsl":1542,"id":"HUT","desc":"HUTCHINSON VOR-DME"},
{"type":"NDB","hdg_t":307.7,"dist_nm":38.9,"freq":374,"lat":38.76922222,"lon":-99.25127778,"rng_nm":50,"alt_fmsl":0,"id":"HY","desc":"NETTE NDB"},
{"type":"NDB","hdg_t":190.5,"dist_nm":39.4,"freq":356,"lat":37.72630556,"lon":-98.74708333,"rng_nm":50,"alt_fmsl":0,"id":"PTT","desc":"PRATT NDB"},
{"type":"NDB","hdg_t":91.7,"dist_nm":42.8,"freq":227,"lat":38.34850000,"lon":-97.68730556,"rng_nm":50,"alt_fmsl":0,"id":"MPR","desc":"MC PHERSON NDB"},
{"type":"VOR","hdg_t":311.7,"dist_nm":42.8,"freq":110.4,"lat":38.84766667,"lon":-99.27677778,"rng_nm":40,"alt_fmsl":1990,"id":"HYS","desc":"HAYS VORTAC"},
{"type":"NDB","hdg_t":67.2,"dist_nm":48.3,"freq":344,"lat":38.68152778,"lon":-97.64505556,"rng_nm":50,"alt_fmsl":0,"id":"SL","desc":"FLORY NDB"},
{"type":"VOR","hdg_t":53.8,"dist_nm":56.4,"freq":117.1,"lat":38.92513889,"lon":-97.62136111,"rng_nm":130,"alt_fmsl":1310,"id":"SLN","desc":"SALINA VORTAC"},
{"type":"VOR","hdg_t":127.8,"dist_nm":60.9,"freq":113.8,"lat":37.74525000,"lon":-97.58383333,"rng_nm":130,"alt_fmsl":1471,"id":"ICT","desc":"WICHITA VORTAC"},
{"type":"NDB","hdg_t":101.9,"dist_nm":63.8,"freq":395,"lat":38.14491667,"lon":-97.27613889,"rng_nm":50,"alt_fmsl":0,"id":"CA","desc":"HARVS NDB"},
{"type":"NDB","hdg_t":106.1,"dist_nm":65.1,"freq":281,"lat":38.06408333,"lon":-97.27344444,"rng_nm":50,"alt_fmsl":0,"id":"EWK","desc":"NEWTON NDB"},
{"type":"NDB","hdg_t":131,"dist_nm":72,"freq":332,"lat":37.57819444,"lon":-97.45586111,"rng_nm":50,"alt_fmsl":0,"id":"IC","desc":"PICHE NDB"},
{"type":"VOR","hdg_t":245.3,"dist_nm":73.7,"freq":108.2,"lat":37.85058333,"lon":-100.00563889,"rng_nm":40,"alt_fmsl":2565,"id":"DDC","desc":"DODGE CITY VORTAC"},
{"type":"VOR","hdg_t":164.3,"dist_nm":75.5,"freq":112.9,"lat":37.15891667,"lon":-98.17072222,"rng_nm":40,"alt_fmsl":1390,"id":"ANY","desc":"ANTHONY VORTAC"},
{"type":"SDME","hdg_t":125.1,"dist_nm":77.3,"freq":116.5,"lat":37.62185300,"lon":-97.26819200,"rng_nm":40,"alt_fmsl":1374,"id":"IAB","desc":"MC CONNELL TACAN"},
{"type":"NDB","hdg_t":31.6,"dist_nm":83.3,"freq":335,"lat":39.55333333,"lon":-97.65113889,"rng_nm":50,"alt_fmsl":0,"id":"CNK","desc":"CONCORDIA NDB"},
{"type":"NDB","hdg_t":137.3,"dist_nm":85,"freq":414,"lat":37.32366667,"lon":-97.39019444,"rng_nm":50,"alt_fmsl":0,"id":"EGT","desc":"WELLINGTON NDB"},
{"type":"NDB","hdg_t":76.6,"dist_nm":86.1,"freq":407,"lat":38.69277778,"lon":-96.81111111,"rng_nm":50,"alt_fmsl":0,"id":"HRU","desc":"HERINGTON NDB"},
{"type":"NDB","hdg_t":338.1,"dist_nm":86.2,"freq":368,"lat":39.70613889,"lon":-99.28830556,"rng_nm":50,"alt_fmsl":0,"id":"PHG","desc":"PHILLIPSBURG NDB"},
{"type":"VOR","hdg_t":10.2,"dist_nm":87.3,"freq":109.8,"lat":39.80638889,"lon":-98.26002778,"rng_nm":40,"alt_fmsl":1880,"id":"TKO","desc":"MANKATO VORTAC"},
{"type":"VOR","hdg_t":65.7,"dist_nm":88.9,"freq":109.4,"lat":38.97016667,"lon":-96.86116667,"rng_nm":25,"alt_fmsl":0,"id":"FRI","desc":"FORT RILEY VOR"},
{"type":"NDB","hdg_t":47.6,"dist_nm":90.3,"freq":362,"lat":39.38075000,"lon":-97.16125000,"rng_nm":50,"alt_fmsl":0,"id":"CYW","desc":"CLAY CENTER NDB"},
{"type":"VOR","hdg_t":305.2,"dist_nm":93,"freq":113.7,"lat":39.25875000,"lon":-100.22586111,"rng_nm":130,"alt_fmsl":2690,"id":"HLC","desc":"HILL CITY VORTAC"},
{"type":"NDB","hdg_t":64.6,"dist_nm":93.1,"freq":314,"lat":39.02600000,"lon":-96.79450000,"rng_nm":50,"alt_fmsl":0,"id":"CVY","desc":"CAVALRY NDB"},
{"type":"NDB","hdg_t":26.6,"dist_nm":96.7,"freq":414,"lat":39.81327778,"lon":-97.65786111,"rng_nm":50,"alt_fmsl":0,"id":"RPB","desc":"REPUBLICAN NDB"}
]
}
