{"success":true,"source":"xp2csv.pl","last_updated":"2013/11/08 14:53:21 UTC"
,"icao":"1L6","name":"Beryl Junction","lat":37.7099725,"lon":-113.64579834,"rwys":1,"ils":0,"index":1089513,"path":"w120n30/w114n37"
,"runways":[
{"len_m":1495,"wid_m":22.86,"hdg":194,"surf":"Gravel","rwy1":"18","lat1":37.71650649,"lon1":-113.64373909,"rwy2":"36","lat2":37.70343851,"lon2":-113.64785759}
]
,"navaids":[
{"type":"VOR","hdg_t":80.2,"dist_nm":27.8,"freq":117.3,"lat":37.78733333,"lon":-113.06822222,"rng_nm":130,"alt_fmsl":5464,"id":"CDC","desc":"CEDAR CITY VOR-DME"},
{"type":"NDB","hdg_t":80.5,"dist_nm":30.1,"freq":217,"lat":37.79122222,"lon":-113.02144444,"rng_nm":50,"alt_fmsl":0,"id":"EC","desc":"MEGGI NDB"},
{"type":"VOR","hdg_t":171.5,"dist_nm":41.9,"freq":108.6,"lat":37.01761111,"lon":-113.51788889,"rng_nm":40,"alt_fmsl":2848,"id":"UTI","desc":"ST GEORGE VOR-DME"},
{"type":"VOR","hdg_t":312.5,"dist_nm":48,"freq":116.3,"lat":38.25019444,"lon":-114.39422222,"rng_nm":130,"alt_fmsl":9318,"id":"ILC","desc":"WILSON CREEK VORTAC"},
{"type":"VOR","hdg_t":37.3,"dist_nm":49.1,"freq":112.1,"lat":38.36036111,"lon":-113.01322222,"rng_nm":130,"alt_fmsl":4980,"id":"MLF","desc":"MILFORD VORTAC"},
{"type":"NDB","hdg_t":145.6,"dist_nm":54.2,"freq":403,"lat":36.96005556,"lon":-113.00916667,"rng_nm":50,"alt_fmsl":0,"id":"AZC","desc":"COLORADO CITY NDB"},
{"type":"VOR","hdg_t":90.7,"dist_nm":63.9,"freq":112.8,"lat":37.68919444,"lon":-112.30388889,"rng_nm":130,"alt_fmsl":9040,"id":"BCE","desc":"BRYCE CANYON VORTAC"},
{"type":"VOR","hdg_t":208.4,"dist_nm":63.9,"freq":114.3,"lat":36.76927778,"lon":-114.27747222,"rng_nm":40,"alt_fmsl":2120,"id":"MMM","desc":"MORMON MESA VORTAC"},
{"type":"VOR","hdg_t":29,"dist_nm":109.5,"freq":116.1,"lat":39.30233333,"lon":-112.50555556,"rng_nm":130,"alt_fmsl":4600,"id":"DTA","desc":"DELTA VORTAC"},
{"type":"VOR","hdg_t":329.6,"dist_nm":110.7,"freq":110.6,"lat":39.29813889,"lon":-114.84830556,"rng_nm":130,"alt_fmsl":6254,"id":"ELY","desc":"ELY VOR-DME"}
]
}
