{"success":true,"source":"xp2csv.pl","last_updated":"2013/11/08 14:53:21 UTC"
,"icao":"1M2","name":"Belzoni Muni","lat":33.1451945,"lon":-90.515272,"rwys":1,"ils":0,"index":1466057,"path":"w100n30/w091n33"
,"runways":[
{"len_m":914,"wid_m":15.24,"hdg":31,"surf":"Asphalt","rwy1":"03","lat1":33.14168100,"lon1":-90.51783300,"rwy2":"21","lat2":33.14870800,"lon2":-90.51271100}
]
,"radios":[
{"type":"CTAF","freq":122.9,"desc":"CTAF"}
]
,"navaids":[
{"type":"NDB","hdg_t":338.1,"dist_nm":21.6,"freq":284,"lat":33.48016667,"lon":-90.67563889,"rng_nm":50,"alt_fmsl":0,"id":"IDL","desc":"INDIANOLA NDB"},
{"type":"VOR","hdg_t":32,"dist_nm":22.5,"freq":114.7,"lat":33.46386111,"lon":-90.27733333,"rng_nm":130,"alt_fmsl":125,"id":"SQS","desc":"SIDON VORTAC"},
{"type":"NDB","hdg_t":305.6,"dist_nm":28.8,"freq":359,"lat":33.42533333,"lon":-90.98211111,"rng_nm":50,"alt_fmsl":0,"id":"MTQ","desc":"METCALF NDB"},
{"type":"VOR","hdg_t":314,"dist_nm":32.6,"freq":110.2,"lat":33.52352778,"lon":-90.98294444,"rng_nm":40,"alt_fmsl":130,"id":"GLH","desc":"GREENVILLE VOR-DME"},
{"type":"NDB","hdg_t":38.8,"dist_nm":34.4,"freq":349,"lat":33.59191667,"lon":-90.08436111,"rng_nm":50,"alt_fmsl":0,"id":"GW","desc":"TEOCK NDB"},
{"type":"NDB","hdg_t":241.2,"dist_nm":38.9,"freq":278,"lat":32.83069444,"lon":-91.19011111,"rng_nm":50,"alt_fmsl":0,"id":"BLE","desc":"LAKE PROVIDENCE NDB"},
{"type":"NDB","hdg_t":342.6,"dist_nm":41.5,"freq":272,"lat":33.80705556,"lon":-90.76261111,"rng_nm":50,"alt_fmsl":0,"id":"RNV","desc":"RENOVA NDB"},
{"type":"VOR","hdg_t":155.1,"dist_nm":42,"freq":112.6,"lat":32.50750000,"lon":-90.16766667,"rng_nm":130,"alt_fmsl":360,"id":"JAN","desc":"JACKSON VORTAC"},
{"type":"NDB","hdg_t":163.5,"dist_nm":45.6,"freq":260,"lat":32.41302778,"lon":-90.26127778,"rng_nm":50,"alt_fmsl":0,"id":"JH","desc":"BRENZ NDB"},
{"type":"NDB","hdg_t":155.3,"dist_nm":48.2,"freq":365,"lat":32.41250000,"lon":-90.11952778,"rng_nm":50,"alt_fmsl":0,"id":"JA","desc":"ALLEN NDB"},
{"type":"NDB","hdg_t":173.9,"dist_nm":50.8,"freq":375,"lat":32.30094444,"lon":-90.41066667,"rng_nm":50,"alt_fmsl":0,"id":"RYB","desc":"RAYMOND NDB"},
{"type":"NDB","hdg_t":35.5,"dist_nm":55,"freq":245,"lat":33.89111111,"lon":-89.87463889,"rng_nm":50,"alt_fmsl":0,"id":"SBQ","desc":"SCOBEY NDB"},
{"type":"NDB","hdg_t":205.7,"dist_nm":59.7,"freq":344,"lat":32.24530556,"lon":-91.02580556,"rng_nm":50,"alt_fmsl":0,"id":"TKH","desc":"TALLULAH NDB"},
{"type":"VOR","hdg_t":292.8,"dist_nm":65.2,"freq":111.6,"lat":33.56205556,"lon":-91.71569444,"rng_nm":40,"alt_fmsl":280,"id":"MON","desc":"MONTICELLO VOR-DME"},
{"type":"NDB","hdg_t":9.7,"dist_nm":66.1,"freq":391,"lat":34.23297200,"lon":-90.28978900,"rng_nm":25,"alt_fmsl":160,"id":"MMS","desc":"MARKS NDB"},
{"type":"NDB","hdg_t":311.2,"dist_nm":67.5,"freq":305,"lat":33.88440800,"lon":-91.53151400,"rng_nm":25,"alt_fmsl":163,"id":"DZM","desc":"DUMAS NDB"},
{"type":"NDB","hdg_t":251.6,"dist_nm":72.9,"freq":329,"lat":32.75469444,"lon":-91.88344444,"rng_nm":50,"alt_fmsl":0,"id":"BQP","desc":"BASTROP NDB"},
{"type":"NDB","hdg_t":106.1,"dist_nm":73.1,"freq":219,"lat":32.79825000,"lon":-89.12480556,"rng_nm":50,"alt_fmsl":0,"id":"MPE","desc":"PHILADELPHIA NDB"},
{"type":"NDB","hdg_t":89.6,"dist_nm":73.2,"freq":212,"lat":33.14375000,"lon":-89.06088889,"rng_nm":50,"alt_fmsl":0,"id":"LMS","desc":"LOUISVILLE NDB"},
{"type":"NDB","hdg_t":235.7,"dist_nm":77.6,"freq":338,"lat":32.40916667,"lon":-91.77794444,"rng_nm":50,"alt_fmsl":0,"id":"MRK","desc":"MOLLY RIDGE NDB"},
{"type":"NDB","hdg_t":77.9,"dist_nm":85.4,"freq":281,"lat":33.43205556,"lon":-88.85033333,"rng_nm":50,"alt_fmsl":0,"id":"STF","desc":"BRYAN NDB"},
{"type":"VOR","hdg_t":244.3,"dist_nm":85.5,"freq":117.2,"lat":32.51688889,"lon":-92.03600000,"rng_nm":40,"alt_fmsl":76,"id":"MLU","desc":"MONROE VORTAC"},
{"type":"NDB","hdg_t":354.6,"dist_nm":85.7,"freq":251,"lat":34.57121100,"lon":-90.67594200,"rng_nm":25,"alt_fmsl":0,"id":"HEE","desc":"THOMPSON ROBBINS NDB"},
{"type":"VOR","hdg_t":354.7,"dist_nm":86,"freq":109.6,"lat":34.57505556,"lon":-90.67438889,"rng_nm":40,"alt_fmsl":241,"id":"UJM","desc":"MARVELL VOR-DME"},
{"type":"NDB","hdg_t":30.6,"dist_nm":86.5,"freq":426,"lat":34.38508333,"lon":-89.62597222,"rng_nm":50,"alt_fmsl":0,"id":"UV","desc":"TUNNG NDB"},
{"type":"NDB","hdg_t":243.1,"dist_nm":90.3,"freq":392,"lat":32.45411111,"lon":-92.10430556,"rng_nm":50,"alt_fmsl":0,"id":"ML","desc":"SABAR NDB"},
{"type":"NDB","hdg_t":176.6,"dist_nm":92.1,"freq":407,"lat":31.60800300,"lon":-90.41028900,"rng_nm":25,"alt_fmsl":485,"id":"BVV","desc":"BROOKHAVEN NDB"},
{"type":"NDB","hdg_t":204.6,"dist_nm":95.6,"freq":388,"lat":31.69022222,"lon":-91.29330556,"rng_nm":50,"alt_fmsl":0,"id":"HAH","desc":"NATCHEZ-ADAMS CO NDB"},
{"type":"VOR","hdg_t":313.4,"dist_nm":96.6,"freq":116,"lat":34.24675000,"lon":-91.92616667,"rng_nm":40,"alt_fmsl":210,"id":"PBF","desc":"PINE BLUFF VOR-DME"},
{"type":"NDB","hdg_t":327.1,"dist_nm":97.3,"freq":338,"lat":34.50580556,"lon":-91.58177778,"rng_nm":50,"alt_fmsl":0,"id":"TT","desc":"STUTT NDB"},
{"type":"VOR","hdg_t":117.4,"dist_nm":97.9,"freq":117,"lat":32.37844444,"lon":-88.80425000,"rng_nm":130,"alt_fmsl":580,"id":"MEI","desc":"MERIDIAN VORTAC"},
{"type":"VOR","hdg_t":203.7,"dist_nm":99.7,"freq":110,"lat":31.61819444,"lon":-91.29963889,"rng_nm":40,"alt_fmsl":280,"id":"HEZ","desc":"NATCHEZ VOR-DME"}
]
}
