{"success":true,"source":"xp2csv.pl","last_updated":"2013/11/08 14:53:21 UTC"
,"icao":"1NC9","name":"Northbrook International Ultraport","lat":35.44972222,"lon":-81.42638889,"rwys":1,"ils":0,"index":1613658,"path":"w090n30/w082n35"
,"runways":[
{"len_m":366,"wid_m":22.86,"hdg":75,"surf":"Turf/grass","rwy1":"08","lat1":35.44929626,"lon1":-81.42834035,"rwy2":"26","lat2":35.45014818,"lon2":-81.42443743}
]
,"navaids":[
{"type":"NDB","hdg_t":215.6,"dist_nm":14.5,"freq":417,"lat":35.25266667,"lon":-81.59880556,"rng_nm":50,"alt_fmsl":0,"id":"SLP","desc":"FIRST RIVER NDB"},
{"type":"NDB","hdg_t":72.3,"dist_nm":17.4,"freq":432,"lat":35.53763889,"lon":-81.08647222,"rng_nm":50,"alt_fmsl":0,"id":"IZN","desc":"LINCOLNTON NDB"},
{"type":"NDB","hdg_t":322.5,"dist_nm":19.6,"freq":391,"lat":35.71022222,"lon":-81.67136111,"rng_nm":50,"alt_fmsl":0,"id":"FIQ","desc":"FIDDLERS NDB"},
{"type":"NDB","hdg_t":139.4,"dist_nm":20.3,"freq":260,"lat":35.19147222,"lon":-81.15786111,"rng_nm":50,"alt_fmsl":0,"id":"GHJ","desc":"STONIA NDB"},
{"type":"NDB","hdg_t":16.3,"dist_nm":21,"freq":332,"lat":35.78652778,"lon":-81.30530556,"rng_nm":50,"alt_fmsl":0,"id":"HK","desc":"TAWBA NDB"},
{"type":"NDB","hdg_t":42.1,"dist_nm":26.2,"freq":280,"lat":35.77455300,"lon":-81.06496400,"rng_nm":25,"alt_fmsl":964,"id":"VW","desc":"TEMKY NDB"},
{"type":"VOR","hdg_t":19.8,"dist_nm":26.7,"freq":110.8,"lat":35.86886111,"lon":-81.24052778,"rng_nm":40,"alt_fmsl":1880,"id":"BZM","desc":"BARRETTS MOUNTAIN VOR-DME"},
{"type":"VOR","hdg_t":123.5,"dist_nm":28,"freq":115,"lat":35.19027778,"lon":-80.95175000,"rng_nm":40,"alt_fmsl":732,"id":"CLT","desc":"CHARLOTTE VOR-DME"},
{"type":"VOR","hdg_t":224.7,"dist_nm":35,"freq":115.7,"lat":35.03363889,"lon":-81.92700000,"rng_nm":130,"alt_fmsl":935,"id":"SPA","desc":"SPARTANBURG VORTAC"},
{"type":"NDB","hdg_t":153,"dist_nm":37.5,"freq":227,"lat":34.89002778,"lon":-81.08091667,"rng_nm":50,"alt_fmsl":0,"id":"UZ","desc":"RALLY NDB"},
{"type":"NDB","hdg_t":164.3,"dist_nm":41.2,"freq":220,"lat":34.78575000,"lon":-81.20083333,"rng_nm":50,"alt_fmsl":0,"id":"DCM","desc":"CHESTER NDB"},
{"type":"VOR","hdg_t":266.6,"dist_nm":41.3,"freq":112.2,"lat":35.40650000,"lon":-82.26861111,"rng_nm":40,"alt_fmsl":3970,"id":"SUG","desc":"SUGARLOAF MOUNTAI VORTAC"},
{"type":"NDB","hdg_t":220,"dist_nm":42.8,"freq":248,"lat":34.90138889,"lon":-81.98538889,"rng_nm":50,"alt_fmsl":0,"id":"FRT","desc":"FAIRMONT NDB"},
{"type":"NDB","hdg_t":21.8,"dist_nm":42.8,"freq":209,"lat":36.11286111,"lon":-81.09808333,"rng_nm":50,"alt_fmsl":0,"id":"UKF","desc":"WILKI NDB"},
{"type":"NDB","hdg_t":129.7,"dist_nm":46.2,"freq":204,"lat":34.95294444,"lon":-80.70519444,"rng_nm":50,"alt_fmsl":0,"id":"TWL","desc":"WESLEY NDB"},
{"type":"NDB","hdg_t":193.1,"dist_nm":47,"freq":326,"lat":34.68402778,"lon":-81.64233333,"rng_nm":50,"alt_fmsl":0,"id":"UOT","desc":"UNION CO NDB"},
{"type":"NDB","hdg_t":332.4,"dist_nm":47.6,"freq":320,"lat":36.15347222,"lon":-81.87983333,"rng_nm":50,"alt_fmsl":0,"id":"BAR","desc":"HEMLOCK NDB"},
{"type":"NDB","hdg_t":69.4,"dist_nm":48.8,"freq":275,"lat":35.73311111,"lon":-80.48955556,"rng_nm":50,"alt_fmsl":0,"id":"RU","desc":"ROVDY (LOM/NDB) NDB"},
{"type":"NDB","hdg_t":147.1,"dist_nm":51.7,"freq":400,"lat":34.72269444,"lon":-80.85916667,"rng_nm":50,"alt_fmsl":0,"id":"LKR","desc":"LANCASTER NDB"},
{"type":"NDB","hdg_t":258.6,"dist_nm":52.3,"freq":379,"lat":35.27275000,"lon":-82.47102778,"rng_nm":50,"alt_fmsl":0,"id":"BRA","desc":"BROAD RIVER NDB"},
{"type":"NDB","hdg_t":59.3,"dist_nm":54.9,"freq":354,"lat":35.91346900,"lon":-80.45616700,"rng_nm":25,"alt_fmsl":810,"id":"DVZ","desc":"DAVIE NDB"},
{"type":"NDB","hdg_t":228.1,"dist_nm":56.6,"freq":287,"lat":34.81550000,"lon":-82.28013889,"rng_nm":50,"alt_fmsl":0,"id":"GS","desc":"GREER NDB"},
{"type":"NDB","hdg_t":275.3,"dist_nm":57.1,"freq":357,"lat":35.53277778,"lon":-82.58744444,"rng_nm":50,"alt_fmsl":0,"id":"IM","desc":"KEANS NDB"},
{"type":"NDB","hdg_t":4.9,"dist_nm":59.1,"freq":410,"lat":36.43402778,"lon":-81.32180556,"rng_nm":50,"alt_fmsl":0,"id":"JU","desc":"ASHEE NDB"},
{"type":"NDB","hdg_t":228.8,"dist_nm":60.6,"freq":521,"lat":34.78013889,"lon":-82.34977778,"rng_nm":50,"alt_fmsl":0,"id":"GM","desc":"JUDKY NDB"},
{"type":"NDB","hdg_t":33.3,"dist_nm":61.8,"freq":326,"lat":36.31005556,"lon":-80.72636111,"rng_nm":50,"alt_fmsl":0,"id":"ZEF","desc":"ZEPHYR NDB"},
{"type":"NDB","hdg_t":204.7,"dist_nm":62,"freq":307,"lat":34.50818100,"lon":-81.94981700,"rng_nm":25,"alt_fmsl":695,"id":"LUX","desc":"LAURENS NDB"},
{"type":"NDB","hdg_t":87.5,"dist_nm":65.8,"freq":346,"lat":35.48916667,"lon":-80.08341667,"rng_nm":50,"alt_fmsl":0,"id":"VU","desc":"ALLER NDB"},
{"type":"NDB","hdg_t":321.8,"dist_nm":66.2,"freq":275,"lat":36.31594444,"lon":-82.27041667,"rng_nm":50,"alt_fmsl":0,"id":"EZT","desc":"ELIZABETHTON NDB"},
{"type":"NDB","hdg_t":228,"dist_nm":67.6,"freq":338,"lat":34.69102778,"lon":-82.44363889,"rng_nm":50,"alt_fmsl":0,"id":"GY","desc":"DYANA NDB"},
{"type":"NDB","hdg_t":127.9,"dist_nm":68.2,"freq":270,"lat":34.74497222,"lon":-80.33808333,"rng_nm":50,"alt_fmsl":0,"id":"PYG","desc":"PAGELAND NDB"},
{"type":"VOR","hdg_t":330.1,"dist_nm":68.3,"freq":114.6,"lat":36.43705556,"lon":-82.12958333,"rng_nm":40,"alt_fmsl":4321,"id":"HMV","desc":"HOLSTON MOUNTAIN VORTAC"},
{"type":"NDB","hdg_t":188.6,"dist_nm":68.9,"freq":278,"lat":34.31152778,"lon":-81.63594444,"rng_nm":50,"alt_fmsl":0,"id":"EOE","desc":"ENOREE NDB"},
{"type":"NDB","hdg_t":167,"dist_nm":69.7,"freq":414,"lat":34.31441667,"lon":-81.11266667,"rng_nm":50,"alt_fmsl":0,"id":"FDW","desc":"WINNSBORO NDB"},
{"type":"NDB","hdg_t":37.4,"dist_nm":70.5,"freq":223,"lat":36.38097222,"lon":-80.54019444,"rng_nm":50,"alt_fmsl":0,"id":"AZW","desc":"MT AIRY NDB"},
{"type":"NDB","hdg_t":110.7,"dist_nm":70.7,"freq":283,"lat":35.02398100,"lon":-80.08299700,"rng_nm":25,"alt_fmsl":302,"id":"AFP","desc":"ANSON CO NDB"},
{"type":"NDB","hdg_t":58.4,"dist_nm":71.8,"freq":317,"lat":36.07091667,"lon":-80.16683333,"rng_nm":50,"alt_fmsl":0,"id":"IN","desc":"REENO NDB"},
{"type":"NDB","hdg_t":239,"dist_nm":73.5,"freq":408,"lat":34.81122222,"lon":-82.70352778,"rng_nm":50,"alt_fmsl":0,"id":"LQK","desc":"LAKE KEOWEE NDB"},
{"type":"VOR","hdg_t":129.8,"dist_nm":74.2,"freq":108.2,"lat":34.65047222,"lon":-80.27491667,"rng_nm":40,"alt_fmsl":560,"id":"CTF","desc":"CHESTERFIELD VOR-DME"},
{"type":"NDB","hdg_t":317.7,"dist_nm":77.1,"freq":221,"lat":36.39872222,"lon":-82.49625000,"rng_nm":50,"alt_fmsl":0,"id":"BO","desc":"BOOIE NDB"},
{"type":"NDB","hdg_t":77.7,"dist_nm":78,"freq":266,"lat":35.71625000,"lon":-79.86530556,"rng_nm":50,"alt_fmsl":0,"id":"CQJ","desc":"CITY LAKE NDB"},
{"type":"NDB","hdg_t":204.6,"dist_nm":78.7,"freq":239,"lat":34.25372222,"lon":-82.08622222,"rng_nm":50,"alt_fmsl":0,"id":"GIW","desc":"CORONACA NDB"},
{"type":"NDB","hdg_t":327,"dist_nm":79.1,"freq":299,"lat":36.55541667,"lon":-82.31794444,"rng_nm":50,"alt_fmsl":0,"id":"TR","desc":"MOCCA NDB"},
{"type":"VOR","hdg_t":62.8,"dist_nm":79.3,"freq":116.2,"lat":36.04569444,"lon":-79.97638889,"rng_nm":130,"alt_fmsl":879,"id":"GSO","desc":"GREENSBORO VORTAC"},
{"type":"VOR","hdg_t":206.8,"dist_nm":80.2,"freq":115.5,"lat":34.25155556,"lon":-82.15413889,"rng_nm":130,"alt_fmsl":630,"id":"GRD","desc":"GREENWOOD VORTAC"},
{"type":"NDB","hdg_t":57.2,"dist_nm":80.3,"freq":254,"lat":36.16697222,"lon":-80.03563889,"rng_nm":50,"alt_fmsl":0,"id":"GS","desc":"MARKY NDB"},
{"type":"NDB","hdg_t":341.8,"dist_nm":81,"freq":236,"lat":36.73372222,"lon":-81.94905556,"rng_nm":50,"alt_fmsl":0,"id":"VJ","desc":"WHINE NDB"},
{"type":"SDME","hdg_t":61,"dist_nm":81.3,"freq":109.7,"lat":36.09776389,"lon":-79.96214444,"rng_nm":18,"alt_fmsl":925,"id":"IIDB","desc":"KGSO 23R DME-ILS DME"},
{"type":"NDB","hdg_t":148.3,"dist_nm":81.8,"freq":263,"lat":34.28355556,"lon":-80.56152778,"rng_nm":50,"alt_fmsl":0,"id":"CDN","desc":"CAMDEN NDB"},
{"type":"VOR","hdg_t":284.8,"dist_nm":82.1,"freq":108.8,"lat":35.79011111,"lon":-83.05236111,"rng_nm":40,"alt_fmsl":4239,"id":"SOT","desc":"SNOWBIRD VORTAC"},
{"type":"NDB","hdg_t":300.3,"dist_nm":82.4,"freq":263,"lat":36.13588889,"lon":-82.89036111,"rng_nm":50,"alt_fmsl":0,"id":"DYQ","desc":"DULANEY NDB"},
{"type":"SDME","hdg_t":60.7,"dist_nm":83,"freq":109.55,"lat":36.11876111,"lon":-79.93550833,"rng_nm":18,"alt_fmsl":882,"id":"ILLG","desc":"KGSO 05L DME-ILS DME"},
{"type":"SDME","hdg_t":61.2,"dist_nm":83.6,"freq":111.9,"lat":36.11145556,"lon":-79.91745278,"rng_nm":18,"alt_fmsl":882,"id":"ILZY","desc":"KGSO 05R DME-ILS DME"},
{"type":"NDB","hdg_t":20.3,"dist_nm":83.9,"freq":269,"lat":36.76222222,"lon":-80.82194444,"rng_nm":50,"alt_fmsl":0,"id":"HLX","desc":"HILLSVILLE NDB"},
{"type":"NDB","hdg_t":228.3,"dist_nm":85.1,"freq":230,"lat":34.49810600,"lon":-82.70853600,"rng_nm":25,"alt_fmsl":760,"id":"AND","desc":"ANDERSON NDB"},
{"type":"NDB","hdg_t":237.5,"dist_nm":85.6,"freq":257,"lat":34.67383333,"lon":-82.88683333,"rng_nm":50,"alt_fmsl":0,"id":"CEU","desc":"CLEMSON NDB"},
{"type":"NDB","hdg_t":118.4,"dist_nm":87.7,"freq":409,"lat":34.74183333,"lon":-79.86561111,"rng_nm":50,"alt_fmsl":0,"id":"CQW","desc":"CHERAW NDB"},
{"type":"VOR","hdg_t":339.1,"dist_nm":88.2,"freq":110.2,"lat":36.82511111,"lon":-82.07897222,"rng_nm":40,"alt_fmsl":4200,"id":"GZG","desc":"GLADE SPRING VOR-DME"},
{"type":"NDB","hdg_t":5.7,"dist_nm":88.5,"freq":335,"lat":36.92016667,"lon":-81.24330556,"rng_nm":50,"alt_fmsl":0,"id":"MK","desc":"SUZZE NDB"},
{"type":"NDB","hdg_t":174.1,"dist_nm":89.2,"freq":362,"lat":33.96716667,"lon":-81.24469444,"rng_nm":50,"alt_fmsl":0,"id":"CA","desc":"MURRY NDB"},
{"type":"NDB","hdg_t":133.7,"dist_nm":89.7,"freq":341,"lat":34.40658333,"lon":-80.11994444,"rng_nm":50,"alt_fmsl":0,"id":"HVS","desc":"HARTSVILLE NDB"},
{"type":"VOR","hdg_t":227.7,"dist_nm":91.1,"freq":108.6,"lat":34.41919444,"lon":-82.78469444,"rng_nm":40,"alt_fmsl":736,"id":"ELW","desc":"ELECTRIC CITY VORTAC"},
{"type":"VOR","hdg_t":75.7,"dist_nm":91.3,"freq":113,"lat":35.81163889,"lon":-79.61261111,"rng_nm":40,"alt_fmsl":830,"id":"LIB","desc":"LIBERTY VORTAC"},
{"type":"VOR","hdg_t":98.3,"dist_nm":91.3,"freq":111.8,"lat":35.21547222,"lon":-79.58794444,"rng_nm":40,"alt_fmsl":590,"id":"SDZ","desc":"SANDHILLS VORTAC"},
{"type":"NDB","hdg_t":112.2,"dist_nm":92.4,"freq":375,"lat":34.85266667,"lon":-79.69366667,"rng_nm":50,"alt_fmsl":0,"id":"RCZ","desc":"ROSCOE NDB"},
{"type":"NDB","hdg_t":310.7,"dist_nm":93.1,"freq":329,"lat":36.45594444,"lon":-82.88436111,"rng_nm":50,"alt_fmsl":0,"id":"RVN","desc":"ROGERSVILLE NDB"},
{"type":"NDB","hdg_t":70,"dist_nm":95.3,"freq":361,"lat":35.97811111,"lon":-79.58483333,"rng_nm":50,"alt_fmsl":0,"id":"HB","desc":"ALAMM NDB"},
{"type":"NDB","hdg_t":160.9,"dist_nm":95.8,"freq":427,"lat":33.93572222,"lon":-80.79833333,"rng_nm":50,"alt_fmsl":0,"id":"MMT","desc":"MC ENTIRE NDB"},
{"type":"VOR","hdg_t":161.1,"dist_nm":96.4,"freq":113.2,"lat":33.92408333,"lon":-80.80233333,"rng_nm":40,"alt_fmsl":248,"id":"MMT","desc":"MC ENTIRE VORTAC"},
{"type":"NDB","hdg_t":128,"dist_nm":96.9,"freq":245,"lat":34.44325000,"lon":-79.88733333,"rng_nm":50,"alt_fmsl":0,"id":"UDG","desc":"DARLINGTON NDB"},
{"type":"NDB","hdg_t":120.2,"dist_nm":97,"freq":230,"lat":34.62022222,"lon":-79.73319444,"rng_nm":50,"alt_fmsl":0,"id":"BES","desc":"BENNETTSVILLE NDB"},
{"type":"VOR","hdg_t":168.9,"dist_nm":97.1,"freq":114.7,"lat":33.85725000,"lon":-81.05391667,"rng_nm":130,"alt_fmsl":400,"id":"CAE","desc":"COLUMBIA VORTAC"},
{"type":"NDB","hdg_t":78.4,"dist_nm":97.8,"freq":371,"lat":35.76152778,"lon":-79.46225000,"rng_nm":50,"alt_fmsl":0,"id":"TOX","desc":"SILER CITY NDB"},
{"type":"NDB","hdg_t":54.9,"dist_nm":98.4,"freq":423,"lat":36.38169444,"lon":-79.76277778,"rng_nm":50,"alt_fmsl":0,"id":"SIF","desc":"SLAMMER NDB"},
{"type":"NDB","hdg_t":104.2,"dist_nm":98.6,"freq":278,"lat":35.02794444,"lon":-79.48558333,"rng_nm":50,"alt_fmsl":0,"id":"HFF","desc":"MACKALL NDB"}
]
}
