{"success":true,"source":"xp2csv.pl","last_updated":"2013/11/08 14:53:21 UTC"
,"icao":"1OK6","name":"Stamper Ranch","lat":35.72194444,"lon":-97.20472223,"rwys":1,"ils":0,"index":1351531,"path":"w100n30/w098n35"
,"runways":[
{"len_m":456,"wid_m":15.24,"hdg":176,"surf":"Turf/grass","rwy1":"17","lat1":35.72399886,"lon1":-97.20485485,"rwy2":"35","lat2":35.71989002,"lon2":-97.20458961}
]
,"navaids":[
{"type":"NDB","hdg_t":305.7,"dist_nm":12.6,"freq":326,"lat":35.84555600,"lon":-97.41580600,"rng_nm":25,"alt_fmsl":1074,"id":"LCY","desc":"LOGAN COUNTY NDB"},
{"type":"NDB","hdg_t":89.8,"dist_nm":18.8,"freq":396,"lat":35.72227778,"lon":-96.81863889,"rng_nm":50,"alt_fmsl":0,"id":"CQB","desc":"TILGHMAN NDB"},
{"type":"SDME","hdg_t":206.6,"dist_nm":19.1,"freq":115.8,"lat":35.43650800,"lon":-97.37968900,"rng_nm":25,"alt_fmsl":1251,"id":"TIK","desc":"TINKER TACAN"},
{"type":"NDB","hdg_t":141.7,"dist_nm":20.7,"freq":264,"lat":35.44983333,"lon":-96.94300000,"rng_nm":50,"alt_fmsl":0,"id":"HN","desc":"SUYBE NDB"},
{"type":"NDB","hdg_t":64.3,"dist_nm":23.3,"freq":242,"lat":35.89011111,"lon":-96.77333333,"rng_nm":50,"alt_fmsl":0,"id":"CUH","desc":"CUSHING NDB"},
{"type":"VOR","hdg_t":242.5,"dist_nm":24.4,"freq":113.4,"lat":35.53294444,"lon":-97.64716667,"rng_nm":25,"alt_fmsl":1271,"id":"PWA","desc":"WILEY POST VOR-DME"},
{"type":"NDB","hdg_t":232.6,"dist_nm":24.6,"freq":406,"lat":35.47144444,"lon":-97.60544444,"rng_nm":50,"alt_fmsl":0,"id":"OK","desc":"TULOO NDB"},
{"type":"NDB","hdg_t":117.2,"dist_nm":26.7,"freq":314,"lat":35.51672222,"lon":-96.71863889,"rng_nm":50,"alt_fmsl":0,"id":"GGU","desc":"PRAGUE NDB"},
{"type":"VOR","hdg_t":222.4,"dist_nm":29.4,"freq":114.1,"lat":35.35858333,"lon":-97.60922222,"rng_nm":130,"alt_fmsl":1230,"id":"IRW","desc":"WILL ROGERS VORTAC"},
{"type":"VOR","hdg_t":11.2,"dist_nm":30.6,"freq":108.4,"lat":36.22425000,"lon":-97.08125000,"rng_nm":25,"alt_fmsl":1022,"id":"SWO","desc":"STILLWATER VOR-DME"},
{"type":"NDB","hdg_t":204.6,"dist_nm":31.2,"freq":370,"lat":35.24825000,"lon":-97.46997222,"rng_nm":50,"alt_fmsl":0,"id":"OUN","desc":"NORMAN NDB"},
{"type":"NDB","hdg_t":10.4,"dist_nm":31.3,"freq":255,"lat":36.23616667,"lon":-97.08730556,"rng_nm":50,"alt_fmsl":0,"id":"SW","desc":"BLAKI NDB"},
{"type":"NDB","hdg_t":216.4,"dist_nm":31.7,"freq":350,"lat":35.29505556,"lon":-97.58866667,"rng_nm":50,"alt_fmsl":0,"id":"RG","desc":"GALLY NDB"},
{"type":"NDB","hdg_t":135.9,"dist_nm":37.4,"freq":278,"lat":35.27175000,"lon":-96.67475000,"rng_nm":50,"alt_fmsl":0,"id":"SRE","desc":"SEMINOLE NDB"},
{"type":"NDB","hdg_t":85.4,"dist_nm":38.2,"freq":251,"lat":35.76980000,"lon":-96.42472800,"rng_nm":25,"alt_fmsl":929,"id":"TZO","desc":"BRISTOW NDB"},
{"type":"VOR","hdg_t":277.5,"dist_nm":39.3,"freq":114.7,"lat":35.80527778,"lon":-98.00391667,"rng_nm":130,"alt_fmsl":1110,"id":"IFI","desc":"KINGFISHER VORTAC"},
{"type":"NDB","hdg_t":181.7,"dist_nm":41.5,"freq":512,"lat":35.02897222,"lon":-97.23047222,"rng_nm":50,"alt_fmsl":0,"id":"HMY","desc":"MULDROW NDB"},
{"type":"NDB","hdg_t":319.4,"dist_nm":43.7,"freq":341,"lat":36.27502778,"lon":-97.79077778,"rng_nm":50,"alt_fmsl":0,"id":"EI","desc":"GARFY NDB"},
{"type":"VOR","hdg_t":324.1,"dist_nm":48.2,"freq":109,"lat":36.37375000,"lon":-97.78816667,"rng_nm":25,"alt_fmsl":1149,"id":"ODG","desc":"WOODRING VOR-DME"},
{"type":"VOR","hdg_t":317.2,"dist_nm":50.9,"freq":115.4,"lat":36.34497222,"lon":-97.91836111,"rng_nm":130,"alt_fmsl":1276,"id":"END","desc":"VANCE VORTAC"},
{"type":"NDB","hdg_t":134.2,"dist_nm":54.4,"freq":411,"lat":35.08527778,"lon":-96.41366667,"rng_nm":50,"alt_fmsl":0,"id":"HDL","desc":"HOLDENVILLE NDB"},
{"type":"NDB","hdg_t":61.8,"dist_nm":57.8,"freq":362,"lat":36.17297222,"lon":-96.15422222,"rng_nm":50,"alt_fmsl":0,"id":"OWP","desc":"WILLIAM POGUE NDB"},
{"type":"NDB","hdg_t":278.3,"dist_nm":60.1,"freq":359,"lat":35.86198600,"lon":-98.42535000,"rng_nm":25,"alt_fmsl":1530,"id":"JWG","desc":"WATONGA NDB"},
{"type":"NDB","hdg_t":181.1,"dist_nm":60.3,"freq":384,"lat":34.71541667,"lon":-97.22891667,"rng_nm":50,"alt_fmsl":0,"id":"PVJ","desc":"PAULS VALLEY NDB"},
{"type":"VOR","hdg_t":154.3,"dist_nm":61,"freq":117.8,"lat":34.80255556,"lon":-96.67008333,"rng_nm":25,"alt_fmsl":987,"id":"ADH","desc":"ADA VOR-DME"},
{"type":"NDB","hdg_t":107.7,"dist_nm":61.3,"freq":267,"lat":35.40455556,"lon":-96.01388889,"rng_nm":50,"alt_fmsl":0,"id":"HET","desc":"HENRYETTA NDB"},
{"type":"NDB","hdg_t":87.7,"dist_nm":61.3,"freq":388,"lat":35.75527778,"lon":-95.94872222,"rng_nm":50,"alt_fmsl":0,"id":"OK","desc":"PRESO NDB"},
{"type":"VOR","hdg_t":78.4,"dist_nm":61.4,"freq":110.6,"lat":35.92088889,"lon":-95.96863889,"rng_nm":25,"alt_fmsl":810,"id":"GNP","desc":"GLENPOOL VOR-DME"},
{"type":"VOR","hdg_t":2,"dist_nm":61.4,"freq":113.2,"lat":36.74652778,"lon":-97.16016667,"rng_nm":130,"alt_fmsl":1054,"id":"PER","desc":"PIONEER VORTAC"},
{"type":"VOR","hdg_t":91.1,"dist_nm":65.4,"freq":114.9,"lat":35.69311111,"lon":-95.86597222,"rng_nm":130,"alt_fmsl":766,"id":"OKM","desc":"OKMULGEE VOR-DME"},
{"type":"NDB","hdg_t":4.3,"dist_nm":66.2,"freq":515,"lat":36.82502778,"lon":-97.10052778,"rng_nm":50,"alt_fmsl":0,"id":"PN","desc":"PONCA NDB"},
{"type":"NDB","hdg_t":70.2,"dist_nm":67.9,"freq":338,"lat":36.09738889,"lon":-95.88877778,"rng_nm":50,"alt_fmsl":0,"id":"TU","desc":"OILLR NDB"},
{"type":"NDB","hdg_t":298.9,"dist_nm":70.5,"freq":246,"lat":36.28516700,"lon":-98.47800000,"rng_nm":25,"alt_fmsl":1273,"id":"FAU","desc":"FAIRVIEW NDB"},
{"type":"NDB","hdg_t":261.3,"dist_nm":72.6,"freq":272,"lat":35.53005200,"lon":-98.67062900,"rng_nm":25,"alt_fmsl":1581,"id":"OJA","desc":"WEATHERFORD NDB"},
{"type":"NDB","hdg_t":61.1,"dist_nm":73.6,"freq":375,"lat":36.30738889,"lon":-95.87527778,"rng_nm":50,"alt_fmsl":0,"id":"DW","desc":"OWASO NDB"},
{"type":"VOR","hdg_t":67.2,"dist_nm":74.6,"freq":114.4,"lat":36.19625000,"lon":-95.78808333,"rng_nm":130,"alt_fmsl":788,"id":"TUL","desc":"TULSA VORTAC"},
{"type":"NDB","hdg_t":226.5,"dist_nm":81.4,"freq":388,"lat":34.78138889,"lon":-98.40230556,"rng_nm":50,"alt_fmsl":0,"id":"OFZ","desc":"TRAIL NDB"},
{"type":"NDB","hdg_t":5.6,"dist_nm":82.3,"freq":353,"lat":37.08972222,"lon":-97.03625000,"rng_nm":50,"alt_fmsl":0,"id":"SO","desc":"SAWCY NDB"},
{"type":"NDB","hdg_t":263.1,"dist_nm":85.3,"freq":320,"lat":35.53921700,"lon":-98.93508300,"rng_nm":25,"alt_fmsl":1605,"id":"CLK","desc":"CLINTON NDB"},
{"type":"VOR","hdg_t":126.3,"dist_nm":87.2,"freq":112,"lat":34.84944444,"lon":-95.78230556,"rng_nm":40,"alt_fmsl":820,"id":"MLC","desc":"MC ALESTER VORTAC"},
{"type":"VOR","hdg_t":203.8,"dist_nm":87.4,"freq":111,"lat":34.38447222,"lon":-97.91683333,"rng_nm":40,"alt_fmsl":1087,"id":"DUC","desc":"DUNCAN VOR-DME"},
{"type":"NDB","hdg_t":128.7,"dist_nm":87.6,"freq":344,"lat":34.79777778,"lon":-95.82069444,"rng_nm":50,"alt_fmsl":0,"id":"ML","desc":"WAMPA NDB"},
{"type":"VOR","hdg_t":40.4,"dist_nm":88,"freq":117.9,"lat":36.83425000,"lon":-96.01830556,"rng_nm":40,"alt_fmsl":940,"id":"BVO","desc":"BARTLESVILLE VOR-DME"},
{"type":"NDB","hdg_t":40.4,"dist_nm":88.4,"freq":201,"lat":36.83950000,"lon":-96.01397222,"rng_nm":50,"alt_fmsl":0,"id":"BV","desc":"DEWIE NDB"},
{"type":"NDB","hdg_t":221.8,"dist_nm":89,"freq":308,"lat":34.60885200,"lon":-98.40377500,"rng_nm":25,"alt_fmsl":0,"id":"PFL","desc":"POST NDB"},
{"type":"NDB","hdg_t":221.8,"dist_nm":89,"freq":425,"lat":34.60886111,"lon":-98.40377778,"rng_nm":50,"alt_fmsl":0,"id":"PFL","desc":"POST NDB"},
{"type":"VOR","hdg_t":91.7,"dist_nm":89.8,"freq":108.6,"lat":35.66315400,"lon":-95.36774700,"rng_nm":25,"alt_fmsl":610,"id":"MEE","desc":"DAVIS VOR"},
{"type":"NDB","hdg_t":171.3,"dist_nm":90.2,"freq":400,"lat":34.23233333,"lon":-96.93311111,"rng_nm":50,"alt_fmsl":0,"id":"AI","desc":"ADDMO NDB"},
{"type":"VOR","hdg_t":178.8,"dist_nm":90.4,"freq":116.7,"lat":34.21158333,"lon":-97.16822222,"rng_nm":130,"alt_fmsl":937,"id":"ADM","desc":"ARDMORE VORTAC"},
{"type":"NDB","hdg_t":94,"dist_nm":94,"freq":306,"lat":35.59482000,"lon":-95.28718800,"rng_nm":25,"alt_fmsl":528,"id":"MKO","desc":"MUSKOGEE NDB"},
{"type":"VOR","hdg_t":219.3,"dist_nm":94.4,"freq":109.4,"lat":34.49616667,"lon":-98.41308333,"rng_nm":40,"alt_fmsl":1104,"id":"LAW","desc":"LAWTON VOR-DME"},
{"type":"NDB","hdg_t":354.7,"dist_nm":96.3,"freq":414,"lat":37.32366667,"lon":-97.39019444,"rng_nm":50,"alt_fmsl":0,"id":"EGT","desc":"WELLINGTON NDB"},
{"type":"VOR","hdg_t":331.7,"dist_nm":97.9,"freq":112.9,"lat":37.15891667,"lon":-98.17072222,"rng_nm":40,"alt_fmsl":1390,"id":"ANY","desc":"ANTHONY VORTAC"},
{"type":"NDB","hdg_t":261.1,"dist_nm":99,"freq":393,"lat":35.45066667,"lon":-99.20147222,"rng_nm":50,"alt_fmsl":0,"id":"BZ","desc":"FOSSI NDB"}
]
}
