{"success":true,"source":"xp2csv.pl","last_updated":"2013/11/08 14:53:21 UTC"
,"icao":"20U","name":"Beach","lat":46.9251655,"lon":-103.982053,"rwys":1,"ils":0,"index":1253944,"path":"w110n40/w104n46"
,"runways":[
{"len_m":1280,"wid_m":18.29,"hdg":133,"surf":"Asphalt","rwy1":"12","lat1":46.92912500,"lon1":-103.98815600,"rwy2":"30","lat2":46.92120600,"lon2":-103.97595000}
]
,"radios":[
{"type":"CTAF","freq":122.8,"desc":"CTAF/UNICOM"}
]
,"navaids":[
{"type":"NDB","hdg_t":290.6,"dist_nm":36,"freq":410,"lat":47.13338889,"lon":-104.80475000,"rng_nm":50,"alt_fmsl":0,"id":"GDV","desc":"GLENDIVE NDB"},
{"type":"NDB","hdg_t":198.2,"dist_nm":36.4,"freq":344,"lat":46.34797222,"lon":-104.25627778,"rng_nm":50,"alt_fmsl":0,"id":"BKU","desc":"TIMBER NDB"},
{"type":"NDB","hdg_t":350.2,"dist_nm":47.9,"freq":359,"lat":47.71147222,"lon":-104.18180556,"rng_nm":50,"alt_fmsl":0,"id":"SDY","desc":"SIDNEY NDB"},
{"type":"VOR","hdg_t":94,"dist_nm":49.8,"freq":112.9,"lat":46.85997222,"lon":-102.77350000,"rng_nm":130,"alt_fmsl":2527,"id":"DIK","desc":"DICKINSON VORTAC"},
{"type":"NDB","hdg_t":152.5,"dist_nm":49.9,"freq":374,"lat":46.18513889,"lon":-103.42875000,"rng_nm":50,"alt_fmsl":0,"id":"BOD","desc":"BOWMAN NDB"},
{"type":"NDB","hdg_t":104.7,"dist_nm":54.2,"freq":353,"lat":46.68827778,"lon":-102.71244444,"rng_nm":50,"alt_fmsl":0,"id":"DI","desc":"NOSON NDB"},
{"type":"NDB","hdg_t":28.6,"dist_nm":61,"freq":400,"lat":47.81505600,"lon":-103.25836700,"rng_nm":25,"alt_fmsl":2066,"id":"AFD","desc":"WATFORD CITY NDB"},
{"type":"NDB","hdg_t":295.2,"dist_nm":71,"freq":245,"lat":47.41833333,"lon":-105.55888889,"rng_nm":50,"alt_fmsl":0,"id":"CRR","desc":"CIRCLE NDB"},
{"type":"NDB","hdg_t":14.7,"dist_nm":74.1,"freq":275,"lat":48.11819444,"lon":-103.51155556,"rng_nm":50,"alt_fmsl":0,"id":"SF","desc":"YUSON NDB"},
{"type":"NDB","hdg_t":12.3,"dist_nm":75,"freq":275,"lat":48.14586111,"lon":-103.58380556,"rng_nm":50,"alt_fmsl":0,"id":"ISN","desc":"WILLISTON NDB"},
{"type":"VOR","hdg_t":6.6,"dist_nm":80.2,"freq":116.3,"lat":48.25341667,"lon":-103.75066667,"rng_nm":40,"alt_fmsl":2372,"id":"ISN","desc":"WILLISTON VORTAC"},
{"type":"VOR","hdg_t":164.9,"dist_nm":85.2,"freq":109.4,"lat":45.55219444,"lon":-103.45636111,"rng_nm":25,"alt_fmsl":3014,"id":"BUA","desc":"BUFFALO VOR-DME"},
{"type":"VOR","hdg_t":248.9,"dist_nm":87.7,"freq":112.1,"lat":46.38222222,"lon":-105.95352778,"rng_nm":130,"alt_fmsl":2641,"id":"MLS","desc":"MILES CITY VOR-DME"},
{"type":"NDB","hdg_t":317.6,"dist_nm":96.7,"freq":404,"lat":48.10447222,"lon":-105.60191667,"rng_nm":50,"alt_fmsl":0,"id":"OLF","desc":"WOLF POINT NDB"},
{"type":"VOR","hdg_t":127,"dist_nm":98.5,"freq":111.4,"lat":45.91977778,"lon":-102.10363889,"rng_nm":25,"alt_fmsl":0,"id":"LEM","desc":"LEMMON VOR"}
]
}
