{"success":true,"source":"xp2csv.pl","last_updated":"2013/11/08 14:53:21 UTC"
,"icao":"22J","name":"Cottondale","lat":30.78269222,"lon":-85.377985,"rwys":1,"ils":0,"index":1547826,"path":"w090n30/w086n30"
,"runways":[
{"len_m":638,"wid_m":30.48,"hdg":9,"surf":"Turf/grass","rwy1":"01","lat1":30.77984755,"lon1":-85.37850944,"rwy2":"19","lat2":30.78553689,"lon2":-85.37746056}
]
,"navaids":[
{"type":"NDB","hdg_t":56,"dist_nm":9.5,"freq":329,"lat":30.87158333,"lon":-85.22491667,"rng_nm":50,"alt_fmsl":0,"id":"SMY","desc":"SOYYA NDB"},
{"type":"NDB","hdg_t":289.7,"dist_nm":12.2,"freq":275,"lat":30.85150000,"lon":-85.60133333,"rng_nm":50,"alt_fmsl":0,"id":"BKK","desc":"TRI COUNTY NDB"},
{"type":"VOR","hdg_t":89,"dist_nm":13.1,"freq":114,"lat":30.78622222,"lon":-85.12444444,"rng_nm":40,"alt_fmsl":120,"id":"MAI","desc":"MARIANNA VORTAC"},
{"type":"VOR","hdg_t":354.7,"dist_nm":30.1,"freq":111.6,"lat":31.28458333,"lon":-85.43119444,"rng_nm":40,"alt_fmsl":381,"id":"RRS","desc":"WIREGRASS VORTAC"},
{"type":"VOR","hdg_t":328.4,"dist_nm":34.2,"freq":111.2,"lat":31.26894444,"lon":-85.72630556,"rng_nm":40,"alt_fmsl":326,"id":"OZR","desc":"CAIRNS VOR-DME"},
{"type":"NDB","hdg_t":319.6,"dist_nm":34.8,"freq":212,"lat":31.22563889,"lon":-85.81597222,"rng_nm":50,"alt_fmsl":0,"id":"OZ","desc":"RUCKR NDB"},
{"type":"VOR","hdg_t":204.9,"dist_nm":37.3,"freq":114.3,"lat":30.21625000,"lon":-85.68094444,"rng_nm":40,"alt_fmsl":10,"id":"PFN","desc":"PANAMA CITY VORTAC"},
{"type":"VOR","hdg_t":338.2,"dist_nm":38.1,"freq":110.6,"lat":31.37413889,"lon":-85.65280556,"rng_nm":25,"alt_fmsl":0,"id":"HEY","desc":"HANCHEY VOR"},
{"type":"NDB","hdg_t":338.2,"dist_nm":38.2,"freq":221,"lat":31.37608333,"lon":-85.65377778,"rng_nm":50,"alt_fmsl":0,"id":"HYE","desc":"HANCHEY NDB"},
{"type":"NDB","hdg_t":331.5,"dist_nm":39.3,"freq":269,"lat":31.36033333,"lon":-85.74350000,"rng_nm":50,"alt_fmsl":0,"id":"LOR","desc":"LOWE NDB"},
{"type":"VOR","hdg_t":318.7,"dist_nm":40.9,"freq":116.6,"lat":31.29636111,"lon":-85.90275000,"rng_nm":25,"alt_fmsl":0,"id":"EDN","desc":"ENTERPRISE VOR"},
{"type":"VOR","hdg_t":201.4,"dist_nm":42.6,"freq":114.3,"lat":30.11966667,"lon":-85.67780556,"rng_nm":40,"alt_fmsl":55,"id":"HLL","desc":"HANDLE VORTAC"},
{"type":"SDME","hdg_t":193.4,"dist_nm":43.6,"freq":117.7,"lat":30.07397000,"lon":-85.57243100,"rng_nm":130,"alt_fmsl":14,"id":"PAM","desc":"TYNDALL TACAN"},
{"type":"NDB","hdg_t":75.2,"dist_nm":45.4,"freq":359,"lat":30.97272222,"lon":-84.52602778,"rng_nm":50,"alt_fmsl":0,"id":"LYZ","desc":"WILLIS NDB"},
{"type":"NDB","hdg_t":317.1,"dist_nm":45.6,"freq":352,"lat":31.33938889,"lon":-85.98194444,"rng_nm":50,"alt_fmsl":0,"id":"BVG","desc":"BOLL WEEVIL NDB"},
{"type":"NDB","hdg_t":35.3,"dist_nm":49.5,"freq":344,"lat":31.45569444,"lon":-84.81911111,"rng_nm":50,"alt_fmsl":0,"id":"IWJ","desc":"BLAAK NDB"},
{"type":"VOR","hdg_t":104.3,"dist_nm":53.6,"freq":117.5,"lat":30.55622222,"lon":-84.37397222,"rng_nm":130,"alt_fmsl":180,"id":"SZW","desc":"SEMINOLE VORTAC"},
{"type":"NDB","hdg_t":117,"dist_nm":59.4,"freq":379,"lat":30.32619444,"lon":-84.35825000,"rng_nm":50,"alt_fmsl":0,"id":"TL","desc":"WAKUL NDB"},
{"type":"NDB","hdg_t":274.3,"dist_nm":60,"freq":201,"lat":30.85286111,"lon":-86.53661111,"rng_nm":50,"alt_fmsl":0,"id":"CE","desc":"KOBRA NDB"},
{"type":"NDB","hdg_t":301.1,"dist_nm":60.8,"freq":264,"lat":31.30508333,"lon":-86.39088889,"rng_nm":50,"alt_fmsl":0,"id":"JUY","desc":"JUDD NDB"},
{"type":"VOR","hdg_t":301.3,"dist_nm":61,"freq":110.2,"lat":31.30952778,"lon":-86.39213889,"rng_nm":25,"alt_fmsl":0,"id":"UIA","desc":"ANDALUSIA VOR"},
{"type":"NDB","hdg_t":330.5,"dist_nm":62,"freq":281,"lat":31.68433333,"lon":-85.97438889,"rng_nm":50,"alt_fmsl":0,"id":"XNE","desc":"SPRING HILL NDB"},
{"type":"NDB","hdg_t":83.9,"dist_nm":63.2,"freq":338,"lat":30.88816667,"lon":-84.15933333,"rng_nm":50,"alt_fmsl":0,"id":"CYR","desc":"CAIDY NDB"},
{"type":"NDB","hdg_t":111.3,"dist_nm":63.6,"freq":332,"lat":30.39142200,"lon":-84.23568300,"rng_nm":25,"alt_fmsl":51,"id":"PL","desc":"PALEE NDB"},
{"type":"NDB","hdg_t":65.9,"dist_nm":64.2,"freq":369,"lat":31.21463889,"lon":-84.23686111,"rng_nm":50,"alt_fmsl":0,"id":"CXU","desc":"CAMILLA NDB"},
{"type":"NDB","hdg_t":163.9,"dist_nm":65.9,"freq":349,"lat":29.72330556,"lon":-85.02805556,"rng_nm":50,"alt_fmsl":0,"id":"AAF","desc":"APALACHICOLA NDB"},
{"type":"VOR","hdg_t":272.5,"dist_nm":67.2,"freq":115.9,"lat":30.82616667,"lon":-86.67913889,"rng_nm":130,"alt_fmsl":255,"id":"CEW","desc":"CRESTVIEW VORTAC"},
{"type":"NDB","hdg_t":54.3,"dist_nm":69.6,"freq":227,"lat":31.45613889,"lon":-84.27616667,"rng_nm":50,"alt_fmsl":0,"id":"AB","desc":"PUTNY NDB"},
{"type":"VOR","hdg_t":10.2,"dist_nm":71,"freq":109.2,"lat":31.95025000,"lon":-85.13047222,"rng_nm":40,"alt_fmsl":280,"id":"EUF","desc":"EUFAULA VORTAC"},
{"type":"SDME","hdg_t":252.9,"dist_nm":71.1,"freq":110.8,"lat":30.42803600,"lon":-86.69028900,"rng_nm":25,"alt_fmsl":35,"id":"HRT","desc":"HURLBURT TACAN"},
{"type":"NDB","hdg_t":329.3,"dist_nm":73,"freq":365,"lat":31.83080556,"lon":-86.10622222,"rng_nm":50,"alt_fmsl":0,"id":"TO","desc":"BLOOD NDB"},
{"type":"VOR","hdg_t":46.6,"dist_nm":76.4,"freq":116.1,"lat":31.65522222,"lon":-84.29305556,"rng_nm":130,"alt_fmsl":283,"id":"PZD","desc":"PECAN VORTAC"},
{"type":"NDB","hdg_t":82.1,"dist_nm":80.7,"freq":245,"lat":30.95755556,"lon":-83.82666667,"rng_nm":50,"alt_fmsl":0,"id":"GTP","desc":"PATTEN NDB"},
{"type":"VOR","hdg_t":77.1,"dist_nm":83.1,"freq":108.8,"lat":31.08227778,"lon":-83.80422222,"rng_nm":40,"alt_fmsl":290,"id":"MGR","desc":"MOULTRIE VOR-DME"},
{"type":"VOR","hdg_t":99.1,"dist_nm":83.6,"freq":109,"lat":30.55133333,"lon":-83.78313889,"rng_nm":40,"alt_fmsl":220,"id":"GEF","desc":"GREENVILLE VORTAC"},
{"type":"SDME","hdg_t":268,"dist_nm":84.8,"freq":112.3,"lat":30.72400000,"lon":-87.01800000,"rng_nm":40,"alt_fmsl":179,"id":"NSE","desc":"WHITING TACAN"},
{"type":"NDB","hdg_t":11.2,"dist_nm":92.2,"freq":335,"lat":32.29319444,"lon":-85.02327778,"rng_nm":50,"alt_fmsl":0,"id":"AWS","desc":"LAWSON NDB"},
{"type":"VOR","hdg_t":11.9,"dist_nm":94.8,"freq":111.4,"lat":32.33236111,"lon":-84.99325000,"rng_nm":25,"alt_fmsl":250,"id":"LSF","desc":"LAWSON VOR-DME"},
{"type":"NDB","hdg_t":257.9,"dist_nm":95.4,"freq":326,"lat":30.43705556,"lon":-87.17836111,"rng_nm":50,"alt_fmsl":0,"id":"PKZ","desc":"PICKENS NDB"},
{"type":"VOR","hdg_t":330.9,"dist_nm":98.8,"freq":112.1,"lat":32.22227778,"lon":-86.31972222,"rng_nm":130,"alt_fmsl":270,"id":"MGM","desc":"MONTGOMERY VORTAC"}
]
}
