{"success":true,"source":"xp2csv.pl","last_updated":"2013/11/08 14:53:21 UTC"
,"icao":"23FD","name":"Scott 2000","lat":27.54725861,"lon":-80.66200167,"rwys":1,"ils":0,"index":1629537,"path":"w090n20/w081n27"
,"runways":[
{"len_m":1519,"wid_m":22.86,"hdg":176,"surf":"Turf/grass","rwy1":"18","lat1":27.55410666,"lon1":-80.66240645,"rwy2":"36","lat2":27.54041056,"lon2":-80.66159689}
]
,"navaids":[
{"type":"NDB","hdg_t":106.6,"dist_nm":10.4,"freq":338,"lat":27.49691667,"lon":-80.47427778,"rng_nm":50,"alt_fmsl":0,"id":"FJ","desc":"LUUCE NDB"},
{"type":"VOR","hdg_t":49.4,"dist_nm":12,"freq":117.3,"lat":27.67841667,"lon":-80.48972222,"rng_nm":130,"alt_fmsl":11,"id":"VRB","desc":"VERO BEACH VORTAC"},
{"type":"NDB","hdg_t":103.1,"dist_nm":15.8,"freq":275,"lat":27.48672222,"lon":-80.37327778,"rng_nm":50,"alt_fmsl":0,"id":"FPR","desc":"FORT PIERCE NDB"},
{"type":"NDB","hdg_t":356.4,"dist_nm":33.1,"freq":257,"lat":28.09947222,"lon":-80.70080556,"rng_nm":50,"alt_fmsl":0,"id":"SQT","desc":"SATELLITE NDB"},
{"type":"VOR","hdg_t":2.4,"dist_nm":33.4,"freq":110,"lat":28.10527778,"lon":-80.63533333,"rng_nm":40,"alt_fmsl":30,"id":"MLB","desc":"MELBOURNE VOR-DME"},
{"type":"SDME","hdg_t":3.6,"dist_nm":41.3,"freq":115,"lat":28.23768300,"lon":-80.61176100,"rng_nm":25,"alt_fmsl":10,"id":"COF","desc":"PATRICK TACAN"},
{"type":"NDB","hdg_t":155.3,"dist_nm":42,"freq":405,"lat":26.90897222,"lon":-80.33505556,"rng_nm":50,"alt_fmsl":0,"id":"UTX","desc":"UNITED NDB"},
{"type":"VOR","hdg_t":181.9,"dist_nm":45.7,"freq":115.4,"lat":26.78275000,"lon":-80.69144444,"rng_nm":130,"alt_fmsl":16,"id":"PHK","desc":"PAHOKEE VORTAC"},
{"type":"NDB","hdg_t":358.3,"dist_nm":47.5,"freq":247,"lat":28.34077778,"lon":-80.68844444,"rng_nm":50,"alt_fmsl":0,"id":"COI","desc":"MERRITT ISLAND NDB"},
{"type":"DME","hdg_t":150.7,"dist_nm":48.1,"freq":110.75,"lat":26.84356853,"lon":-80.22387209,"rng_nm":18,"alt_fmsl":22,"id":"IGHO","desc":"F45 08R DME-ILS"},
{"type":"VOR","hdg_t":222.3,"dist_nm":58,"freq":110.4,"lat":26.82816667,"lon":-81.39144444,"rng_nm":40,"alt_fmsl":30,"id":"LBV","desc":"LA BELLE VORTAC"},
{"type":"VOR","hdg_t":149.1,"dist_nm":60.3,"freq":115.7,"lat":26.68005556,"lon":-80.08650000,"rng_nm":130,"alt_fmsl":16,"id":"PBI","desc":"PALM BEACH VORTAC"},
{"type":"SDME","hdg_t":358.4,"dist_nm":64.5,"freq":112.25,"lat":28.62616700,"lon":-80.69583300,"rng_nm":130,"alt_fmsl":57,"id":"TTS","desc":"KENNEDY SPACE CENTER TACAN"},
{"type":"NDB","hdg_t":268.3,"dist_nm":65.1,"freq":261,"lat":27.51000000,"lon":-81.88333300,"rng_nm":25,"alt_fmsl":104,"id":"CHN","desc":"WAUCHULA NDB"},
{"type":"VOR","hdg_t":329.2,"dist_nm":69.4,"freq":112.2,"lat":28.54272222,"lon":-81.33502778,"rng_nm":130,"alt_fmsl":102,"id":"ORL","desc":"ORLANDO VORTAC"},
{"type":"NDB","hdg_t":324.6,"dist_nm":70.5,"freq":221,"lat":28.50683333,"lon":-81.43391667,"rng_nm":50,"alt_fmsl":0,"id":"OR","desc":"HERNY (LOM) NDB"},
{"type":"VOR","hdg_t":290.3,"dist_nm":76.5,"freq":116,"lat":27.98619444,"lon":-82.01388889,"rng_nm":130,"alt_fmsl":135,"id":"LAL","desc":"LAKELAND VORTAC"},
{"type":"NDB","hdg_t":287.4,"dist_nm":78.7,"freq":227,"lat":27.93538889,"lon":-82.07580556,"rng_nm":50,"alt_fmsl":0,"id":"LA","desc":"WIREY NDB"},
{"type":"NDB","hdg_t":337.5,"dist_nm":80.2,"freq":408,"lat":28.78494444,"lon":-81.24333333,"rng_nm":50,"alt_fmsl":0,"id":"SFB","desc":"SANFORD NDB"},
{"type":"VOR","hdg_t":242.3,"dist_nm":80.4,"freq":110.2,"lat":26.91677778,"lon":-81.99125000,"rng_nm":25,"alt_fmsl":0,"id":"PGD","desc":"PUNTA GORDA VOR"},
{"type":"NDB","hdg_t":166.4,"dist_nm":83.7,"freq":221,"lat":26.18563889,"lon":-80.29850000,"rng_nm":50,"alt_fmsl":0,"id":"FX","desc":"PRAIZ NDB"},
{"type":"VOR","hdg_t":224.6,"dist_nm":85.2,"freq":111.8,"lat":26.52988889,"lon":-81.77577778,"rng_nm":40,"alt_fmsl":25,"id":"RSW","desc":"LEE CO VORTAC"},
{"type":"NDB","hdg_t":297.4,"dist_nm":89.2,"freq":253,"lat":28.22708333,"lon":-82.15705556,"rng_nm":50,"alt_fmsl":0,"id":"RHZ","desc":"ZEPHYRHILLS NDB"},
{"type":"NDB","hdg_t":224.9,"dist_nm":89.3,"freq":336,"lat":26.48433333,"lon":-81.83461111,"rng_nm":50,"alt_fmsl":0,"id":"RS","desc":"MUFFE NDB"},
{"type":"NDB","hdg_t":350.7,"dist_nm":91.3,"freq":417,"lat":29.05422222,"lon":-80.94144444,"rng_nm":50,"alt_fmsl":0,"id":"EVB","desc":"NEW SMYRNA BEACH NDB"},
{"type":"VOR","hdg_t":162.9,"dist_nm":92.1,"freq":116.5,"lat":26.07416667,"lon":-80.16297222,"rng_nm":130,"alt_fmsl":12,"id":"FLL","desc":"FORT LAUDERDALE VOR-DME"},
{"type":"NDB","hdg_t":228.5,"dist_nm":92.5,"freq":341,"lat":26.51613889,"lon":-81.95027778,"rng_nm":50,"alt_fmsl":0,"id":"FM","desc":"CALOO NDB"},
{"type":"NDB","hdg_t":321.6,"dist_nm":97.3,"freq":335,"lat":28.81825000,"lon":-81.80725000,"rng_nm":50,"alt_fmsl":0,"id":"LEE","desc":"LEESBURG NDB"},
{"type":"NDB","hdg_t":262.7,"dist_nm":97.8,"freq":245,"lat":27.32822222,"lon":-82.47844444,"rng_nm":50,"alt_fmsl":0,"id":"SR","desc":"RINGY NDB"},
{"type":"NDB","hdg_t":253.3,"dist_nm":98.8,"freq":206,"lat":27.06144444,"lon":-82.43058333,"rng_nm":50,"alt_fmsl":0,"id":"VNC","desc":"VENICE NDB"}
]
}
