{"success":true,"source":"xp2csv.pl","last_updated":"2013/11/08 14:53:21 UTC"
,"icao":"24S","name":"Pinehurst State","lat":42.108192,"lon":-122.38446,"rwys":1,"ils":0,"index":942338,"path":"w130n40/w123n42"
,"runways":[
{"len_m":854,"wid_m":9.14,"hdg":40,"surf":"Asphalt","rwy1":"04","lat1":42.10525026,"lon1":-122.38778724,"rwy2":"22","lat2":42.11113374,"lon2":-122.38113276}
]
,"navaids":[
{"type":"NDB","hdg_t":190.8,"dist_nm":23.2,"freq":404,"lat":41.72727778,"lon":-122.48169444,"rng_nm":50,"alt_fmsl":0,"id":"MOG","desc":"MONTAGUE NDB"},
{"type":"NDB","hdg_t":307.8,"dist_nm":27.8,"freq":356,"lat":42.39161111,"lon":-122.87883333,"rng_nm":50,"alt_fmsl":0,"id":"MEF","desc":"MEDFORD NDB"},
{"type":"VOR","hdg_t":84.5,"dist_nm":29.4,"freq":115.9,"lat":42.15313889,"lon":-121.72752778,"rng_nm":130,"alt_fmsl":4087,"id":"LMT","desc":"KLAMATH FALLS VORTAC"},
{"type":"NDB","hdg_t":311.2,"dist_nm":31.2,"freq":373,"lat":42.45097222,"lon":-122.91336111,"rng_nm":50,"alt_fmsl":0,"id":"MF","desc":"PUMIE NDB"},
{"type":"VOR","hdg_t":313.6,"dist_nm":32.4,"freq":113.6,"lat":42.47958333,"lon":-122.91294444,"rng_nm":130,"alt_fmsl":2083,"id":"OED","desc":"ROGUE VALLEY VORTAC"},
{"type":"VOR","hdg_t":205.7,"dist_nm":43.8,"freq":109.6,"lat":41.44966667,"lon":-122.80644444,"rng_nm":40,"alt_fmsl":4900,"id":"FJS","desc":"FORT JONES VOR-DME"},
{"type":"VOR","hdg_t":326.6,"dist_nm":77.3,"freq":108.2,"lat":43.18241667,"lon":-123.35225000,"rng_nm":40,"alt_fmsl":1320,"id":"RBG","desc":"ROSEBURG VOR-DME"},
{"type":"NDB","hdg_t":327.8,"dist_nm":80.1,"freq":400,"lat":43.23525000,"lon":-123.35802778,"rng_nm":50,"alt_fmsl":0,"id":"RBG","desc":"ROSEBURG NDB"},
{"type":"VOR","hdg_t":257.2,"dist_nm":85.4,"freq":109,"lat":41.77958333,"lon":-124.24083333,"rng_nm":40,"alt_fmsl":54,"id":"CEC","desc":"CRESCENT CITY VORTAC"},
{"type":"VOR","hdg_t":73.9,"dist_nm":86.7,"freq":112,"lat":42.49286111,"lon":-120.50711111,"rng_nm":130,"alt_fmsl":7460,"id":"LKV","desc":"LAKEVIEW VORTAC"},
{"type":"VOR","hdg_t":177.4,"dist_nm":96.2,"freq":108.4,"lat":40.50455556,"lon":-122.29169444,"rng_nm":25,"alt_fmsl":490,"id":"RDD","desc":"REDDING VOR-DME"}
]
}
