{"success":true,"source":"xp2csv.pl","last_updated":"2013/11/08 14:53:21 UTC"
,"icao":"26GA","name":"Murphree","lat":33.33622805,"lon":-84.91382639,"rwys":1,"ils":0,"index":1564368,"path":"w090n30/w085n33"
,"runways":[
{"len_m":366,"wid_m":9.14,"hdg":88,"surf":"Turf/grass","rwy1":"09","lat1":33.33617061,"lon1":-84.91579511,"rwy2":"27","lat2":33.33628549,"lon2":-84.91185767}
]
,"navaids":[
{"type":"NDB","hdg_t":115.1,"dist_nm":11.1,"freq":234,"lat":33.25694444,"lon":-84.71327778,"rng_nm":50,"alt_fmsl":0,"id":"EQQ","desc":"COWETA CO NDB"},
{"type":"NDB","hdg_t":321.6,"dist_nm":17.5,"freq":278,"lat":33.56577778,"lon":-85.13088889,"rng_nm":50,"alt_fmsl":0,"id":"GPQ","desc":"CARROLLTON NDB"},
{"type":"NDB","hdg_t":95.5,"dist_nm":21.5,"freq":316,"lat":33.30063889,"lon":-84.48641667,"rng_nm":50,"alt_fmsl":0,"id":"FF","desc":"PECAT NDB"},
{"type":"VOR","hdg_t":220.6,"dist_nm":22.6,"freq":115.6,"lat":33.04911111,"lon":-85.20622222,"rng_nm":130,"alt_fmsl":798,"id":"LGC","desc":"LAGRANGE VORTAC"},
{"type":"NDB","hdg_t":28.3,"dist_nm":29,"freq":344,"lat":33.76238889,"lon":-84.63886111,"rng_nm":50,"alt_fmsl":0,"id":"FT","desc":"FLANC NDB"},
{"type":"NDB","hdg_t":175.9,"dist_nm":29.6,"freq":272,"lat":32.84286111,"lon":-84.87266667,"rng_nm":50,"alt_fmsl":0,"id":"PIM","desc":"PINE MOUNTAIN NDB"},
{"type":"VOR","hdg_t":53.7,"dist_nm":29.7,"freq":116.9,"lat":33.62908333,"lon":-84.43508333,"rng_nm":130,"alt_fmsl":1000,"id":"ATL","desc":"ATLANTA VORTAC"},
{"type":"NDB","hdg_t":58.3,"dist_nm":35.4,"freq":266,"lat":33.64538889,"lon":-84.31125000,"rng_nm":50,"alt_fmsl":0,"id":"BR","desc":"REDAN NDB"},
{"type":"NDB","hdg_t":104.5,"dist_nm":35.7,"freq":412,"lat":33.18430556,"lon":-84.22750000,"rng_nm":50,"alt_fmsl":0,"id":"JHH","desc":"GRIFFIN NDB"},
{"type":"SDME","hdg_t":30.3,"dist_nm":40.1,"freq":113,"lat":33.91464700,"lon":-84.50730600,"rng_nm":25,"alt_fmsl":1008,"id":"DOB","desc":"DOBBINS TACAN"},
{"type":"VOR","hdg_t":186.9,"dist_nm":43.4,"freq":117.1,"lat":32.61525000,"lon":-85.01763889,"rng_nm":40,"alt_fmsl":630,"id":"CSG","desc":"COLUMBUS VORTAC"},
{"type":"NDB","hdg_t":124.1,"dist_nm":44.3,"freq":339,"lat":32.91902778,"lon":-84.18741667,"rng_nm":50,"alt_fmsl":0,"id":"OP","desc":"YATES NDB"},
{"type":"VOR","hdg_t":43.4,"dist_nm":44.6,"freq":116.6,"lat":33.87563889,"lon":-84.29880556,"rng_nm":40,"alt_fmsl":970,"id":"PDK","desc":"PEACHTREE VOR-DME"},
{"type":"VOR","hdg_t":348.3,"dist_nm":50.5,"freq":115.4,"lat":34.16255556,"lon":-85.11938889,"rng_nm":130,"alt_fmsl":1149,"id":"RMG","desc":"ROME VORTAC"},
{"type":"NDB","hdg_t":3.8,"dist_nm":51.8,"freq":308,"lat":34.19958333,"lon":-84.84311111,"rng_nm":50,"alt_fmsl":0,"id":"EVZ","desc":"CARTERSVILLE NDB"},
{"type":"NDB","hdg_t":283.3,"dist_nm":52.4,"freq":211,"lat":33.53436111,"lon":-85.93080556,"rng_nm":50,"alt_fmsl":0,"id":"AN","desc":"BOGGA NDB"},
{"type":"NDB","hdg_t":187,"dist_nm":53.3,"freq":355,"lat":32.45197222,"lon":-85.04194444,"rng_nm":50,"alt_fmsl":0,"id":"CS","desc":"FENIX NDB"},
{"type":"NDB","hdg_t":208.2,"dist_nm":56.1,"freq":423,"lat":32.50925000,"lon":-85.43722222,"rng_nm":50,"alt_fmsl":0,"id":"AU","desc":"OPOLE NDB"},
{"type":"VOR","hdg_t":284.4,"dist_nm":58.4,"freq":108.8,"lat":33.57513889,"lon":-86.04269444,"rng_nm":40,"alt_fmsl":530,"id":"TDG","desc":"TALLADEGA VOR-DME"},
{"type":"NDB","hdg_t":21.1,"dist_nm":58.8,"freq":415,"lat":34.25236111,"lon":-84.48761111,"rng_nm":50,"alt_fmsl":0,"id":"DJD","desc":"CHERO NDB"},
{"type":"NDB","hdg_t":72.4,"dist_nm":59.4,"freq":370,"lat":33.62983333,"lon":-83.78211111,"rng_nm":50,"alt_fmsl":0,"id":"VOF","desc":"ALCOVY NDB"},
{"type":"NDB","hdg_t":242.8,"dist_nm":59.4,"freq":382,"lat":32.87941667,"lon":-85.96113889,"rng_nm":50,"alt_fmsl":0,"id":"DER","desc":"ALEXANDER CITY NDB"},
{"type":"VOR","hdg_t":183.8,"dist_nm":60.2,"freq":111.4,"lat":32.33236111,"lon":-84.99325000,"rng_nm":25,"alt_fmsl":250,"id":"LSF","desc":"LAWSON VOR-DME"},
{"type":"NDB","hdg_t":185,"dist_nm":62.7,"freq":335,"lat":32.29319444,"lon":-85.02327778,"rng_nm":50,"alt_fmsl":0,"id":"AWS","desc":"LAWSON NDB"},
{"type":"VOR","hdg_t":217,"dist_nm":63.6,"freq":117.3,"lat":32.48486111,"lon":-85.66930556,"rng_nm":40,"alt_fmsl":490,"id":"TGE","desc":"TUSKEGEE VOR-DME"},
{"type":"NDB","hdg_t":359.4,"dist_nm":63.8,"freq":323,"lat":34.40155556,"lon":-84.92652778,"rng_nm":50,"alt_fmsl":0,"id":"OUK","desc":"CALHOUN NDB"},
{"type":"NDB","hdg_t":67.6,"dist_nm":64.2,"freq":392,"lat":33.73761111,"lon":-83.72683333,"rng_nm":50,"alt_fmsl":0,"id":"JNM","desc":"MONROE NDB"},
{"type":"NDB","hdg_t":51.8,"dist_nm":66.6,"freq":419,"lat":34.01994444,"lon":-83.86283333,"rng_nm":50,"alt_fmsl":0,"id":"TX","desc":"GWNET NDB"},
{"type":"NDB","hdg_t":281.6,"dist_nm":68.3,"freq":257,"lat":33.55900000,"lon":-86.24941667,"rng_nm":50,"alt_fmsl":0,"id":"PLR","desc":"PELL CITY NDB"},
{"type":"VOR","hdg_t":303.5,"dist_nm":70,"freq":112.3,"lat":33.97641667,"lon":-86.08355556,"rng_nm":40,"alt_fmsl":560,"id":"GAD","desc":"GADSDEN VOR-DME"},
{"type":"NDB","hdg_t":262.5,"dist_nm":71.3,"freq":284,"lat":33.17425000,"lon":-86.31816667,"rng_nm":50,"alt_fmsl":0,"id":"SCD","desc":"SYLACAUGA NDB"},
{"type":"NDB","hdg_t":43.8,"dist_nm":72.3,"freq":365,"lat":34.20338889,"lon":-83.90630556,"rng_nm":50,"alt_fmsl":0,"id":"FKV","desc":"FLOWERY BRANCH NDB"},
{"type":"NDB","hdg_t":123.9,"dist_nm":73.3,"freq":290,"lat":32.64533300,"lon":-83.71325000,"rng_nm":25,"alt_fmsl":0,"id":"MC","desc":"SOFKE NDB"},
{"type":"NDB","hdg_t":141.4,"dist_nm":73.9,"freq":426,"lat":32.36738889,"lon":-84.00741667,"rng_nm":50,"alt_fmsl":0,"id":"IZS","desc":"MONTEZUMA NDB"},
{"type":"VOR","hdg_t":120.8,"dist_nm":74.6,"freq":114.2,"lat":32.69119444,"lon":-83.64719444,"rng_nm":130,"alt_fmsl":381,"id":"MCN","desc":"MACON VORTAC"},
{"type":"NDB","hdg_t":61.2,"dist_nm":75.4,"freq":404,"lat":33.93536111,"lon":-83.58947222,"rng_nm":50,"alt_fmsl":0,"id":"BMW","desc":"BARROW COUNTY NDB"},
{"type":"NDB","hdg_t":131.9,"dist_nm":78.3,"freq":350,"lat":32.45741667,"lon":-83.76572222,"rng_nm":50,"alt_fmsl":0,"id":"BEP","desc":"BAY CREEK NDB"},
{"type":"NDB","hdg_t":332,"dist_nm":80.4,"freq":426,"lat":34.52113889,"lon":-85.67333333,"rng_nm":50,"alt_fmsl":0,"id":"FTP","desc":"FORT PAYNE NDB"},
{"type":"NDB","hdg_t":149.4,"dist_nm":80.6,"freq":242,"lat":32.17447222,"lon":-84.10816667,"rng_nm":50,"alt_fmsl":0,"id":"LKG","desc":"LINDBERGH NDB"},
{"type":"NDB","hdg_t":57.6,"dist_nm":82.1,"freq":244,"lat":34.06222222,"lon":-83.52094444,"rng_nm":50,"alt_fmsl":0,"id":"DDA","desc":"COMMERCE NDB"},
{"type":"VOR","hdg_t":187.5,"dist_nm":83.7,"freq":109.2,"lat":31.95025000,"lon":-85.13047222,"rng_nm":40,"alt_fmsl":280,"id":"EUF","desc":"EUFAULA VORTAC"},
{"type":"NDB","hdg_t":310.3,"dist_nm":85.4,"freq":296,"lat":34.25291667,"lon":-86.22355556,"rng_nm":50,"alt_fmsl":0,"id":"ARF","desc":"SARATOGA NDB"},
{"type":"NDB","hdg_t":359,"dist_nm":87.1,"freq":400,"lat":34.79133333,"lon":-84.94352778,"rng_nm":50,"alt_fmsl":0,"id":"UWI","desc":"WHITFIELD NDB"},
{"type":"VOR","hdg_t":64.8,"dist_nm":87.6,"freq":109.6,"lat":33.94758333,"lon":-83.32475000,"rng_nm":130,"alt_fmsl":793,"id":"AHN","desc":"ATHENS VORTAC"},
{"type":"NDB","hdg_t":96.6,"dist_nm":88.9,"freq":380,"lat":33.15180556,"lon":-83.15958333,"rng_nm":50,"alt_fmsl":0,"id":"UMB","desc":"CULVR NDB"},
{"type":"NDB","hdg_t":280.8,"dist_nm":90,"freq":394,"lat":33.60761111,"lon":-86.67877778,"rng_nm":50,"alt_fmsl":0,"id":"RO","desc":"ROEBY NDB"},
{"type":"NDB","hdg_t":251.7,"dist_nm":90.3,"freq":338,"lat":32.85319444,"lon":-86.61108333,"rng_nm":50,"alt_fmsl":0,"id":"GGY","desc":"GRAGG-WADE NDB"},
{"type":"NDB","hdg_t":79.6,"dist_nm":90.3,"freq":397,"lat":33.59489400,"lon":-83.14072200,"rng_nm":25,"alt_fmsl":662,"id":"EJK","desc":"GREENSBORO NDB"},
{"type":"NDB","hdg_t":66,"dist_nm":92.5,"freq":221,"lat":33.95138889,"lon":-83.21958333,"rng_nm":50,"alt_fmsl":0,"id":"BJT","desc":"BULLDOG NDB"},
{"type":"SDME","hdg_t":232.4,"dist_nm":93.2,"freq":115,"lat":32.37933300,"lon":-86.36833300,"rng_nm":40,"alt_fmsl":170,"id":"MXF","desc":"MAXWELL TACAN"},
{"type":"SDME","hdg_t":278.4,"dist_nm":94.1,"freq":109.5,"lat":33.55216700,"lon":-86.77133300,"rng_nm":18,"alt_fmsl":644,"id":"IROE","desc":"KBHM 24 DME-ILS DME"},
{"type":"NDB","hdg_t":146,"dist_nm":96.2,"freq":400,"lat":31.99783333,"lon":-83.86180556,"rng_nm":50,"alt_fmsl":0,"id":"OHY","desc":"CONEY NDB"},
{"type":"NDB","hdg_t":78.4,"dist_nm":96.7,"freq":353,"lat":33.64613889,"lon":-83.02080556,"rng_nm":50,"alt_fmsl":0,"id":"VV","desc":"JUNNE NDB"},
{"type":"NDB","hdg_t":43.9,"dist_nm":97.5,"freq":347,"lat":34.50150000,"lon":-83.54988889,"rng_nm":50,"alt_fmsl":0,"id":"AJR","desc":"HABERSHAM NDB"},
{"type":"NDB","hdg_t":276.6,"dist_nm":97.5,"freq":224,"lat":33.51127778,"lon":-86.84561111,"rng_nm":50,"alt_fmsl":0,"id":"BH","desc":"MCDEN NDB"},
{"type":"VOR","hdg_t":227.2,"dist_nm":97.5,"freq":112.1,"lat":32.22227778,"lon":-86.31972222,"rng_nm":130,"alt_fmsl":270,"id":"MGM","desc":"MONTGOMERY VORTAC"},
{"type":"VOR","hdg_t":353,"dist_nm":98,"freq":115.8,"lat":34.96125000,"lon":-85.15336111,"rng_nm":130,"alt_fmsl":1015,"id":"GQO","desc":"CHOO CHOO VORTAC"},
{"type":"VOR","hdg_t":132.7,"dist_nm":98.2,"freq":116.5,"lat":32.21344444,"lon":-83.49725000,"rng_nm":40,"alt_fmsl":300,"id":"VNA","desc":"VIENNA VORTAC"}
]
}
