{"success":true,"source":"xp2csv.pl","last_updated":"2013/11/08 14:53:21 UTC"
,"icao":"27F","name":"Flying G","lat":32.64596583,"lon":-96.32525862,"rwys":1,"ils":0,"index":1367722,"path":"w100n30/w097n32"
,"runways":[
{"len_m":426,"wid_m":9.14,"hdg":46,"surf":"Turf/grass","rwy1":"04","lat1":32.64463203,"lon1":-96.32689895,"rwy2":"22","lat2":32.64729963,"lon2":-96.32361829}
]
,"navaids":[
{"type":"NDB","hdg_t":29.3,"dist_nm":7.8,"freq":260,"lat":32.76013889,"lon":-96.24913889,"rng_nm":50,"alt_fmsl":0,"id":"AVZ","desc":"TRAVIS NDB"},
{"type":"NDB","hdg_t":277.2,"dist_nm":10.5,"freq":388,"lat":32.66808333,"lon":-96.53225000,"rng_nm":50,"alt_fmsl":0,"id":"JUG","desc":"JECCA NDB"},
{"type":"NDB","hdg_t":313.5,"dist_nm":14.2,"freq":248,"lat":32.80936111,"lon":-96.52911111,"rng_nm":50,"alt_fmsl":0,"id":"PQF","desc":"MESQUITE NDB"},
{"type":"NDB","hdg_t":9.2,"dist_nm":23.9,"freq":316,"lat":33.04038889,"lon":-96.24858333,"rng_nm":50,"alt_fmsl":0,"id":"MII","desc":"CADDO MILLS NDB"},
{"type":"NDB","hdg_t":32.8,"dist_nm":23.9,"freq":428,"lat":32.98186111,"lon":-96.06730556,"rng_nm":50,"alt_fmsl":0,"id":"SYW","desc":"CASH NDB"},
{"type":"NDB","hdg_t":288.8,"dist_nm":24,"freq":275,"lat":32.77477200,"lon":-96.77527500,"rng_nm":25,"alt_fmsl":0,"id":"LV","desc":"CONIS NDB"},
{"type":"NDB","hdg_t":273.9,"dist_nm":27.7,"freq":287,"lat":32.67693600,"lon":-96.87106700,"rng_nm":50,"alt_fmsl":670,"id":"RBD","desc":"REDBIRD NDB"},
{"type":"VOR","hdg_t":168.8,"dist_nm":28,"freq":114.8,"lat":32.18572222,"lon":-96.21811111,"rng_nm":40,"alt_fmsl":400,"id":"CQY","desc":"CEDAR CREEK VORTAC"},
{"type":"SDME","hdg_t":27.8,"dist_nm":28.4,"freq":109.6,"lat":33.06626900,"lon":-96.06139700,"rng_nm":25,"alt_fmsl":540,"id":"MJF","desc":"ARVILLA TACAN"},
{"type":"VOR","hdg_t":296.7,"dist_nm":32.7,"freq":116.2,"lat":32.89030556,"lon":-96.90397222,"rng_nm":130,"alt_fmsl":450,"id":"CVE","desc":"COWBOY VOR-DME"},
{"type":"NDB","hdg_t":23.3,"dist_nm":33.2,"freq":201,"lat":33.15627778,"lon":-96.06361111,"rng_nm":50,"alt_fmsl":0,"id":"GV","desc":"MAJOR NDB"},
{"type":"NDB","hdg_t":188.4,"dist_nm":35.2,"freq":344,"lat":32.06413889,"lon":-96.42630556,"rng_nm":50,"alt_fmsl":0,"id":"CGQ","desc":"POWELL NDB"},
{"type":"NDB","hdg_t":284.9,"dist_nm":36.7,"freq":233,"lat":32.80215100,"lon":-97.02746200,"rng_nm":50,"alt_fmsl":500,"id":"PK","desc":"ISSUE NDB"},
{"type":"NDB","hdg_t":185.4,"dist_nm":37.1,"freq":396,"lat":32.02841667,"lon":-96.39461111,"rng_nm":50,"alt_fmsl":0,"id":"CRS","desc":"CORSICANA NDB"},
{"type":"NDB","hdg_t":139,"dist_nm":38.4,"freq":269,"lat":32.15933333,"lon":-95.83025000,"rng_nm":50,"alt_fmsl":0,"id":"AHX","desc":"ATHENS NDB"},
{"type":"VOR","hdg_t":290.4,"dist_nm":38.5,"freq":113.1,"lat":32.86916667,"lon":-97.04050000,"rng_nm":130,"alt_fmsl":540,"id":"TTT","desc":"MAVERICK VOR-DME"},
{"type":"NDB","hdg_t":340.2,"dist_nm":39.1,"freq":421,"lat":33.26166667,"lon":-96.58880556,"rng_nm":50,"alt_fmsl":585,"id":"EF","desc":"FLUET NDB"},
{"type":"NDB","hdg_t":151.7,"dist_nm":39.5,"freq":215,"lat":32.06350000,"lon":-95.95763889,"rng_nm":50,"alt_fmsl":0,"id":"CSZ","desc":"CROSSROADS NDB"},
{"type":"NDB","hdg_t":300.6,"dist_nm":41.3,"freq":219,"lat":32.99578900,"lon":-97.02959200,"rng_nm":50,"alt_fmsl":547,"id":"FL","desc":"JIFFY NDB"},
{"type":"NDB","hdg_t":153.4,"dist_nm":42.4,"freq":335,"lat":32.01071700,"lon":-95.95274200,"rng_nm":25,"alt_fmsl":383,"id":"LIQ","desc":"LOCHRIDGE RANCH NDB"},
{"type":"NDB","hdg_t":107.3,"dist_nm":45.5,"freq":320,"lat":32.41575000,"lon":-95.46961111,"rng_nm":50,"alt_fmsl":0,"id":"TY","desc":"INDOO NDB"},
{"type":"VOR","hdg_t":288.8,"dist_nm":45.6,"freq":115.7,"lat":32.88944444,"lon":-97.17941667,"rng_nm":130,"alt_fmsl":637,"id":"FUZ","desc":"RANGER VORTAC"},
{"type":"NDB","hdg_t":49.1,"dist_nm":47,"freq":338,"lat":33.15844700,"lon":-95.61828900,"rng_nm":25,"alt_fmsl":483,"id":"BHG","desc":"BRASHEAR NDB"},
{"type":"NDB","hdg_t":172,"dist_nm":47.3,"freq":418,"lat":31.86266667,"lon":-96.19747222,"rng_nm":50,"alt_fmsl":0,"id":"PYF","desc":"PYRAMID NDB"},
{"type":"VOR","hdg_t":110.1,"dist_nm":49.8,"freq":114.2,"lat":32.35586111,"lon":-95.40347222,"rng_nm":25,"alt_fmsl":540,"id":"TYR","desc":"TYLER VOR-DME"},
{"type":"VOR","hdg_t":73.5,"dist_nm":50.4,"freq":114,"lat":32.88041667,"lon":-95.36675000,"rng_nm":40,"alt_fmsl":520,"id":"UIM","desc":"QUITMAN VOR-DME"},
{"type":"VOR","hdg_t":49.8,"dist_nm":51.5,"freq":109,"lat":33.19855556,"lon":-95.54258333,"rng_nm":40,"alt_fmsl":508,"id":"SLR","desc":"SULPHUR SPRINGS VOR-DME"},
{"type":"VOR","hdg_t":130,"dist_nm":52.9,"freq":111.4,"lat":32.07461111,"lon":-95.53077778,"rng_nm":40,"alt_fmsl":305,"id":"FZT","desc":"FRANKSTON VOR-DME"},
{"type":"VOR","hdg_t":4.8,"dist_nm":53.5,"freq":114.6,"lat":33.53750000,"lon":-96.23408333,"rng_nm":130,"alt_fmsl":700,"id":"BYP","desc":"BONHAM VORTAC"},
{"type":"NDB","hdg_t":285.8,"dist_nm":55,"freq":365,"lat":32.89297222,"lon":-97.37352778,"rng_nm":50,"alt_fmsl":0,"id":"FT","desc":"MUFIN NDB"},
{"type":"SDME","hdg_t":277.8,"dist_nm":56.9,"freq":108.7,"lat":32.77151700,"lon":-97.43946400,"rng_nm":40,"alt_fmsl":663,"id":"NFW","desc":"FORT WORTH NAS JRB TACAN"},
{"type":"NDB","hdg_t":311.1,"dist_nm":58.2,"freq":257,"lat":33.28308333,"lon":-97.19625000,"rng_nm":50,"alt_fmsl":0,"id":"DT","desc":"PINCK NDB"},
{"type":"NDB","hdg_t":148.3,"dist_nm":60.8,"freq":375,"lat":31.78016667,"lon":-95.70105556,"rng_nm":50,"alt_fmsl":0,"id":"PSN","desc":"PALESTINE NDB"},
{"type":"NDB","hdg_t":189,"dist_nm":61,"freq":329,"lat":31.63961111,"lon":-96.51219444,"rng_nm":50,"alt_fmsl":0,"id":"LXY","desc":"MEXIA NDB"},
{"type":"NDB","hdg_t":93,"dist_nm":61.5,"freq":404,"lat":32.58541667,"lon":-95.11300000,"rng_nm":50,"alt_fmsl":0,"id":"ABG","desc":"AMBASSADOR NDB"},
{"type":"VOR","hdg_t":190.2,"dist_nm":64.7,"freq":108.8,"lat":31.58147222,"lon":-96.54908333,"rng_nm":40,"alt_fmsl":512,"id":"GNL","desc":"GROESBECK VOR-DME"},
{"type":"NDB","hdg_t":215.4,"dist_nm":66.3,"freq":378,"lat":31.74091667,"lon":-97.07816667,"rng_nm":50,"alt_fmsl":0,"id":"CN","desc":"LEROI NDB"},
{"type":"VOR","hdg_t":39.2,"dist_nm":69.5,"freq":113.6,"lat":33.54238889,"lon":-95.44827778,"rng_nm":40,"alt_fmsl":510,"id":"PRX","desc":"PARIS VOR-DME"},
{"type":"NDB","hdg_t":346.3,"dist_nm":72.7,"freq":341,"lat":33.82650000,"lon":-96.66888889,"rng_nm":50,"alt_fmsl":0,"id":"DNI","desc":"DENISON NDB"},
{"type":"NDB","hdg_t":129.1,"dist_nm":73.1,"freq":263,"lat":31.87016667,"lon":-95.21550000,"rng_nm":50,"alt_fmsl":0,"id":"JSO","desc":"CHEROKEE CO NDB"},
{"type":"NDB","hdg_t":66.6,"dist_nm":74.1,"freq":381,"lat":33.12845300,"lon":-94.97410300,"rng_nm":25,"alt_fmsl":404,"id":"MSA","desc":"MOUNT PLEASANT NDB"},
{"type":"VOR","hdg_t":219.4,"dist_nm":76,"freq":115.3,"lat":31.66233333,"lon":-97.26902778,"rng_nm":130,"alt_fmsl":510,"id":"ACT","desc":"WACO VORTAC"},
{"type":"NDB","hdg_t":357.2,"dist_nm":77.7,"freq":359,"lat":33.94231900,"lon":-96.39860300,"rng_nm":25,"alt_fmsl":684,"id":"DUA","desc":"DURANT NDB"},
{"type":"NDB","hdg_t":325.8,"dist_nm":77.8,"freq":330,"lat":33.71866667,"lon":-97.19866667,"rng_nm":50,"alt_fmsl":0,"id":"GLE","desc":"GAINESVILLE NDB"},
{"type":"VOR","hdg_t":357.5,"dist_nm":77.8,"freq":114.3,"lat":33.94419444,"lon":-96.39183333,"rng_nm":40,"alt_fmsl":681,"id":"URH","desc":"TEXOMA VOR-DME"},
{"type":"NDB","hdg_t":209.2,"dist_nm":78.2,"freq":400,"lat":31.50380556,"lon":-97.06958333,"rng_nm":50,"alt_fmsl":0,"id":"ROB","desc":"ROBINSON NDB"},
{"type":"NDB","hdg_t":97.9,"dist_nm":78.3,"freq":410,"lat":32.45558333,"lon":-94.79758333,"rng_nm":50,"alt_fmsl":0,"id":"GG","desc":"VEELS NDB"},
{"type":"NDB","hdg_t":109.8,"dist_nm":79.2,"freq":371,"lat":32.18794444,"lon":-94.86105556,"rng_nm":50,"alt_fmsl":0,"id":"HNO","desc":"HENDERSON NDB"},
{"type":"VOR","hdg_t":99.3,"dist_nm":80.9,"freq":112.3,"lat":32.41775000,"lon":-94.75319444,"rng_nm":40,"alt_fmsl":320,"id":"GGG","desc":"GREGG CO VORTAC"},
{"type":"VOR","hdg_t":250.1,"dist_nm":84,"freq":115,"lat":32.15958333,"lon":-97.87769444,"rng_nm":40,"alt_fmsl":1300,"id":"JEN","desc":"GLEN ROSE VORTAC"},
{"type":"VOR","hdg_t":273.6,"dist_nm":84.8,"freq":117.7,"lat":32.72619444,"lon":-97.99744444,"rng_nm":130,"alt_fmsl":900,"id":"MQP","desc":"MILLSAP VORTAC"},
{"type":"NDB","hdg_t":275.8,"dist_nm":88,"freq":266,"lat":32.78512800,"lon":-98.05726700,"rng_nm":25,"alt_fmsl":972,"id":"MWL","desc":"MINERAL WELLS NDB"},
{"type":"NDB","hdg_t":25.1,"dist_nm":92.3,"freq":323,"lat":34.03969444,"lon":-95.53938889,"rng_nm":50,"alt_fmsl":0,"id":"HHW","desc":"HUGO NDB"},
{"type":"VOR","hdg_t":305.6,"dist_nm":92.3,"freq":112.4,"lat":33.53588889,"lon":-97.82127778,"rng_nm":130,"alt_fmsl":1100,"id":"UKW","desc":"BOWIE VORTAC"},
{"type":"NDB","hdg_t":308.6,"dist_nm":92.8,"freq":356,"lat":33.60538889,"lon":-97.77336111,"rng_nm":50,"alt_fmsl":0,"id":"GMZ","desc":"GRINDSTONE MTN NDB"},
{"type":"VOR","hdg_t":168.5,"dist_nm":92.9,"freq":110.8,"lat":31.12402778,"lon":-95.96794444,"rng_nm":40,"alt_fmsl":350,"id":"LOA","desc":"LEONA VORTAC"},
{"type":"NDB","hdg_t":19.8,"dist_nm":98.5,"freq":391,"lat":34.19177778,"lon":-95.65191667,"rng_nm":50,"alt_fmsl":0,"id":"AEE","desc":"ANTLERS NDB"},
{"type":"NDB","hdg_t":342.3,"dist_nm":99.7,"freq":400,"lat":34.23233333,"lon":-96.93311111,"rng_nm":50,"alt_fmsl":0,"id":"AI","desc":"ADDMO NDB"}
]
}
