{"success":true,"source":"xp2csv.pl","last_updated":"2013/11/08 14:53:21 UTC"
,"icao":"27IS","name":"Gelfius International","lat":38.14893722,"lon":-88.67033473,"rwys":1,"ils":0,"index":1499145,"path":"w090n30/w089n38"
,"runways":[
{"len_m":549,"wid_m":21.34,"hdg":130,"surf":"Turf/grass","rwy1":"13","lat1":38.15055682,"lon1":-88.67270391,"rwy2":"31","lat2":38.14731762,"lon2":-88.66796555}
]
,"navaids":[
{"type":"VOR","hdg_t":333.1,"dist_nm":14.3,"freq":113.8,"lat":38.36194444,"lon":-88.80733333,"rng_nm":40,"alt_fmsl":558,"id":"VNN","desc":"MT VERNON VOR-DME"},
{"type":"NDB","hdg_t":41.5,"dist_nm":18.5,"freq":257,"lat":38.38005556,"lon":-88.40977778,"rng_nm":50,"alt_fmsl":0,"id":"FWC","desc":"WAYNE CO NDB"},
{"type":"NDB","hdg_t":163.6,"dist_nm":21,"freq":230,"lat":37.81158333,"lon":-88.54533333,"rng_nm":50,"alt_fmsl":0,"id":"HSB","desc":"HARRISBURG-RALEIG NDB"},
{"type":"NDB","hdg_t":217.6,"dist_nm":23.4,"freq":382,"lat":37.83916667,"lon":-88.97077778,"rng_nm":50,"alt_fmsl":0,"id":"MW","desc":"JONNY NDB"},
{"type":"NDB","hdg_t":97,"dist_nm":26.2,"freq":332,"lat":38.09350000,"lon":-88.11963889,"rng_nm":50,"alt_fmsl":0,"id":"CUL","desc":"CARMI NDB"},
{"type":"VOR","hdg_t":305.2,"dist_nm":28.2,"freq":115,"lat":38.42000000,"lon":-89.15900000,"rng_nm":130,"alt_fmsl":546,"id":"ENL","desc":"CENTRALIA VORTAC"},
{"type":"VOR","hdg_t":214.5,"dist_nm":28.6,"freq":110.4,"lat":37.75425000,"lon":-89.01166667,"rng_nm":40,"alt_fmsl":468,"id":"MWA","desc":"MARION VOR-DME"},
{"type":"NDB","hdg_t":238.6,"dist_nm":31.9,"freq":388,"lat":37.87025000,"lon":-89.24552778,"rng_nm":50,"alt_fmsl":0,"id":"MD","desc":"CABBI NDB"},
{"type":"NDB","hdg_t":18.1,"dist_nm":32.8,"freq":353,"lat":38.66893600,"lon":-88.45310300,"rng_nm":25,"alt_fmsl":472,"id":"FOA","desc":"ELM RIVER NDB"},
{"type":"NDB","hdg_t":334.8,"dist_nm":32.8,"freq":400,"lat":38.64402778,"lon":-88.96736111,"rng_nm":50,"alt_fmsl":0,"id":"SLO","desc":"SALEM NDB"},
{"type":"VOR","hdg_t":53.6,"dist_nm":34.1,"freq":116.6,"lat":38.48519444,"lon":-88.08580556,"rng_nm":40,"alt_fmsl":540,"id":"SAM","desc":"SAMSVILLE VOR-DME"},
{"type":"NDB","hdg_t":34.3,"dist_nm":41.4,"freq":272,"lat":38.71811111,"lon":-88.17280556,"rng_nm":50,"alt_fmsl":0,"id":"OLY","desc":"OLNEY NDB"},
{"type":"VOR","hdg_t":106.7,"dist_nm":45,"freq":113.3,"lat":37.92833333,"lon":-87.76238889,"rng_nm":130,"alt_fmsl":384,"id":"PXV","desc":"POCKET CITY VORTAC"},
{"type":"VOR","hdg_t":10.8,"dist_nm":47,"freq":109,"lat":38.92036111,"lon":-88.48180556,"rng_nm":40,"alt_fmsl":540,"id":"BIB","desc":"BIBLE GROVE VORTAC"},
{"type":"NDB","hdg_t":270,"dist_nm":48.8,"freq":239,"lat":38.14532800,"lon":-89.70232200,"rng_nm":25,"alt_fmsl":532,"id":"SAR","desc":"SPARTA NDB"},
{"type":"NDB","hdg_t":57.8,"dist_nm":52.5,"freq":524,"lat":38.61175000,"lon":-87.72550000,"rng_nm":50,"alt_fmsl":0,"id":"AJG","desc":"MOUNT CARMEL NDB"},
{"type":"NDB","hdg_t":321.3,"dist_nm":52.7,"freq":233,"lat":38.83421400,"lon":-89.37230000,"rng_nm":25,"alt_fmsl":539,"id":"GRE","desc":"GREENVILLE NDB"},
{"type":"NDB","hdg_t":291.6,"dist_nm":54.1,"freq":385,"lat":38.47800000,"lon":-89.73786111,"rng_nm":50,"alt_fmsl":0,"id":"JD","desc":"GOOEY NDB"},
{"type":"NDB","hdg_t":96.5,"dist_nm":54.3,"freq":284,"lat":38.04013889,"lon":-87.53094444,"rng_nm":50,"alt_fmsl":0,"id":"PDW","desc":"EVANSVILLE NDB"},
{"type":"NDB","hdg_t":290.5,"dist_nm":54.6,"freq":362,"lat":38.46475000,"lon":-89.75640300,"rng_nm":25,"alt_fmsl":419,"id":"BL","desc":"BELLEVILLE NDB"},
{"type":"NDB","hdg_t":90.9,"dist_nm":58.2,"freq":219,"lat":38.12672222,"lon":-87.44072222,"rng_nm":50,"alt_fmsl":0,"id":"EV","desc":"VICCI NDB"},
{"type":"NDB","hdg_t":180,"dist_nm":60.1,"freq":254,"lat":37.14550000,"lon":-88.67047222,"rng_nm":50,"alt_fmsl":0,"id":"BDD","desc":"BELLGRADE NDB"},
{"type":"SDME","hdg_t":293.4,"dist_nm":60.6,"freq":112.2,"lat":38.54536700,"lon":-89.85164700,"rng_nm":25,"alt_fmsl":482,"id":"SKE","desc":"SCOTT TACAN"},
{"type":"VOR","hdg_t":337.9,"dist_nm":61.1,"freq":114.3,"lat":39.09369444,"lon":-89.16247222,"rng_nm":40,"alt_fmsl":604,"id":"VLA","desc":"VANDALIA VORTAC"},
{"type":"NDB","hdg_t":57.9,"dist_nm":61.7,"freq":251,"lat":38.69075000,"lon":-87.55577778,"rng_nm":50,"alt_fmsl":0,"id":"OEA","desc":"VINCENNES NDB"},
{"type":"VOR","hdg_t":53.1,"dist_nm":62.5,"freq":108.8,"lat":38.76986111,"lon":-87.60383333,"rng_nm":25,"alt_fmsl":430,"id":"LWV","desc":"LAWRENCEVILLE VOR-DME"},
{"type":"VOR","hdg_t":301.4,"dist_nm":68.6,"freq":116,"lat":38.73916667,"lon":-89.91863889,"rng_nm":40,"alt_fmsl":570,"id":"TOY","desc":"TROY VORTAC"},
{"type":"VOR","hdg_t":186.6,"dist_nm":68.7,"freq":113.1,"lat":37.00861111,"lon":-88.83691667,"rng_nm":40,"alt_fmsl":480,"id":"CNG","desc":"CUNNINGHAM VORTAC"},
{"type":"NDB","hdg_t":289.1,"dist_nm":69.2,"freq":350,"lat":38.51991667,"lon":-90.05902778,"rng_nm":50,"alt_fmsl":0,"id":"CP","desc":"ACORE NDB"},
{"type":"VOR","hdg_t":218.1,"dist_nm":69.9,"freq":112.9,"lat":37.22752778,"lon":-89.57238889,"rng_nm":40,"alt_fmsl":340,"id":"CGI","desc":"CAPE GIRARDEAU VOR-DME"},
{"type":"NDB","hdg_t":202.2,"dist_nm":70.2,"freq":397,"lat":37.06172222,"lon":-89.22341667,"rng_nm":50,"alt_fmsl":0,"id":"CIR","desc":"CAIRO NDB"},
{"type":"VOR","hdg_t":42.3,"dist_nm":70.8,"freq":108.4,"lat":39.01763889,"lon":-87.64883333,"rng_nm":25,"alt_fmsl":452,"id":"RSV","desc":"CRAWFORD CO VOR-DME"},
{"type":"NDB","hdg_t":42.7,"dist_nm":70.9,"freq":391,"lat":39.01408333,"lon":-87.64161111,"rng_nm":50,"alt_fmsl":0,"id":"PLX","desc":"PALESTINE NDB"},
{"type":"NDB","hdg_t":222.7,"dist_nm":72.7,"freq":248,"lat":37.25341667,"lon":-89.70061111,"rng_nm":50,"alt_fmsl":0,"id":"CG","desc":"DUTCH NDB"},
{"type":"NDB","hdg_t":305.7,"dist_nm":73.1,"freq":218,"lat":38.85500000,"lon":-89.93805556,"rng_nm":50,"alt_fmsl":0,"id":"AL","desc":"ALPOS NDB"},
{"type":"VOR","hdg_t":108.3,"dist_nm":75.4,"freq":108.6,"lat":37.74355556,"lon":-87.16597222,"rng_nm":25,"alt_fmsl":401,"id":"OWB","desc":"OWENSBORO VOR-DME"},
{"type":"NDB","hdg_t":353.8,"dist_nm":75.8,"freq":365,"lat":39.40669444,"lon":-88.84369444,"rng_nm":50,"alt_fmsl":0,"id":"SYZ","desc":"SHELBYVILLE NDB"},
{"type":"NDB","hdg_t":24.1,"dist_nm":76,"freq":359,"lat":39.30522222,"lon":-88.00194444,"rng_nm":50,"alt_fmsl":0,"id":"CZB","desc":"CASEY NDB"},
{"type":"NDB","hdg_t":112.7,"dist_nm":77.9,"freq":341,"lat":37.63561111,"lon":-87.16222222,"rng_nm":50,"alt_fmsl":0,"id":"OW","desc":"HIGUY NDB"},
{"type":"NDB","hdg_t":304.7,"dist_nm":79,"freq":263,"lat":38.89230556,"lon":-90.05627778,"rng_nm":50,"alt_fmsl":0,"id":"CVM","desc":"CIVIC MEMORIAL NDB"},
{"type":"NDB","hdg_t":65.1,"dist_nm":79.5,"freq":212,"lat":38.69605556,"lon":-87.13261111,"rng_nm":50,"alt_fmsl":0,"id":"DCY","desc":"WASHINGTON NDB"},
{"type":"VOR","hdg_t":249.4,"dist_nm":79.5,"freq":115.7,"lat":37.67347222,"lon":-90.23405556,"rng_nm":130,"alt_fmsl":1222,"id":"FAM","desc":"FARMINGTON VORTAC"},
{"type":"NDB","hdg_t":16.5,"dist_nm":80.9,"freq":347,"lat":39.44241667,"lon":-88.17347222,"rng_nm":50,"alt_fmsl":0,"id":"MT","desc":"ZEBRE NDB"},
{"type":"VOR","hdg_t":124,"dist_nm":81.1,"freq":109.8,"lat":37.38241667,"lon":-87.26369444,"rng_nm":40,"alt_fmsl":450,"id":"CCT","desc":"CENTRAL CITY VORTAC"},
{"type":"NDB","hdg_t":272.5,"dist_nm":81.2,"freq":269,"lat":38.19588889,"lon":-90.38761111,"rng_nm":50,"alt_fmsl":0,"id":"FES","desc":"FESTUS NDB"},
{"type":"VOR","hdg_t":85.1,"dist_nm":81.3,"freq":109.2,"lat":38.25050000,"lon":-86.95619444,"rng_nm":25,"alt_fmsl":517,"id":"HNB","desc":"HUNTINGBURG VOR-DME"},
{"type":"NDB","hdg_t":44.4,"dist_nm":81.5,"freq":326,"lat":39.11355556,"lon":-87.44680556,"rng_nm":50,"alt_fmsl":0,"id":"SIV","desc":"SULLIVAN NDB"},
{"type":"VOR","hdg_t":12.6,"dist_nm":81.6,"freq":109.4,"lat":39.47800000,"lon":-88.28605556,"rng_nm":40,"alt_fmsl":720,"id":"MTO","desc":"MATTOON VOR-DME"},
{"type":"NDB","hdg_t":202.9,"dist_nm":84.7,"freq":208,"lat":36.84505556,"lon":-89.35675000,"rng_nm":50,"alt_fmsl":0,"id":"CHQ","desc":"CHARLESTON NDB"},
{"type":"NDB","hdg_t":297.3,"dist_nm":84.9,"freq":404,"lat":38.78805556,"lon":-90.27886111,"rng_nm":50,"alt_fmsl":0,"id":"ST","desc":"ZUMAY NDB"},
{"type":"NDB","hdg_t":255,"dist_nm":86.5,"freq":367,"lat":37.76391667,"lon":-90.42866667,"rng_nm":50,"alt_fmsl":0,"id":"PRI","desc":"PERRINE NDB"},
{"type":"NDB","hdg_t":209.7,"dist_nm":86.8,"freq":272,"lat":36.88781100,"lon":-89.56478600,"rng_nm":25,"alt_fmsl":350,"id":"SIK","desc":"SIKESTON NDB"},
{"type":"NDB","hdg_t":167.8,"dist_nm":87.5,"freq":368,"lat":36.72065556,"lon":-88.28996111,"rng_nm":15,"alt_fmsl":0,"id":"EU","desc":"MUREY NDB"},
{"type":"VOR","hdg_t":294.9,"dist_nm":87.5,"freq":116.45,"lat":38.75275000,"lon":-90.36097222,"rng_nm":130,"alt_fmsl":530,"id":"CSX","desc":"CARDINAL VOR-DME"},
{"type":"NDB","hdg_t":339.9,"dist_nm":88.6,"freq":395,"lat":39.53611111,"lon":-89.32361111,"rng_nm":50,"alt_fmsl":0,"id":"TAZ","desc":"TAYLORVILLE NDB"},
{"type":"NDB","hdg_t":127,"dist_nm":90.7,"freq":362,"lat":37.22700000,"lon":-87.15916667,"rng_nm":50,"alt_fmsl":0,"id":"GMH","desc":"MUHLENBERG NDB"},
{"type":"NDB","hdg_t":295.2,"dist_nm":93.5,"freq":338,"lat":38.80033333,"lon":-90.47475000,"rng_nm":50,"alt_fmsl":0,"id":"LM","desc":"OBLIO NDB"},
{"type":"NDB","hdg_t":290.2,"dist_nm":94,"freq":227,"lat":38.67738889,"lon":-90.54750000,"rng_nm":50,"alt_fmsl":0,"id":"FZ","desc":"EAVES NDB"},
{"type":"NDB","hdg_t":94.3,"dist_nm":94.1,"freq":206,"lat":38.01416667,"lon":-86.69019444,"rng_nm":50,"alt_fmsl":0,"id":"TEL","desc":"TELL CITY NDB"},
{"type":"NDB","hdg_t":38.4,"dist_nm":95.2,"freq":245,"lat":39.38783333,"lon":-87.39769444,"rng_nm":50,"alt_fmsl":0,"id":"HU","desc":"YINNO NDB"},
{"type":"VOR","hdg_t":297.1,"dist_nm":95.4,"freq":117.4,"lat":38.86069444,"lon":-90.48236111,"rng_nm":130,"alt_fmsl":450,"id":"STL","desc":"ST LOUIS VORTAC"},
{"type":"VOR","hdg_t":354.8,"dist_nm":95.6,"freq":117.2,"lat":39.73752778,"lon":-88.85644444,"rng_nm":130,"alt_fmsl":708,"id":"AXC","desc":"ADDERS VORTAC"},
{"type":"NDB","hdg_t":139.6,"dist_nm":99.1,"freq":356,"lat":36.88063889,"lon":-87.33758333,"rng_nm":50,"alt_fmsl":0,"id":"HIX","desc":"HONEY GROVE NDB"},
{"type":"NDB","hdg_t":352.4,"dist_nm":99.2,"freq":275,"lat":39.79052778,"lon":-88.95388889,"rng_nm":50,"alt_fmsl":0,"id":"DE","desc":"ELWIN NDB"}
]
}
