{"success":true,"source":"xp2csv.pl","last_updated":"2013/11/08 14:53:21 UTC"
,"icao":"27K","name":"Georgetown Scott Co Marshall Fld","lat":38.2344335,"lon":-84.434693,"rwys":1,"ils":0,"index":1564682,"path":"w090n30/w085n38"
,"runways":[
{"len_m":1676,"wid_m":30.48,"hdg":25,"surf":"Asphalt","rwy1":"03","lat1":38.22762800,"lon1":-84.43884700,"rwy2":"21","lat2":38.24123900,"lon2":-84.43053900}
]
,"radios":[
{"type":"CTAF","freq":123,"desc":"CTAF/UNICOM"},
{"type":"APP","freq":120.15,"desc":"LEXINGTON APP/DEP"},
{"type":"APP","freq":120.75,"desc":"LEXINGTON APP/DEP"}
]
,"navaids":[
{"type":"NDB","hdg_t":207.4,"dist_nm":7.4,"freq":340,"lat":38.12452778,"lon":-84.50697222,"rng_nm":50,"alt_fmsl":0,"id":"GN","desc":"BRIDL NDB"},
{"type":"VOR","hdg_t":186.3,"dist_nm":16.1,"freq":112.6,"lat":37.96636111,"lon":-84.47250000,"rng_nm":40,"alt_fmsl":1039,"id":"HYK","desc":"LEXINGTON VORTAC"},
{"type":"NDB","hdg_t":266.4,"dist_nm":18.2,"freq":521,"lat":38.21473600,"lon":-84.81980600,"rng_nm":50,"alt_fmsl":769,"id":"FEU","desc":"ARNOLD NDB"},
{"type":"NDB","hdg_t":215.8,"dist_nm":18.2,"freq":242,"lat":37.98686111,"lon":-84.66016667,"rng_nm":50,"alt_fmsl":0,"id":"LE","desc":"BLAYD NDB"},
{"type":"VOR","hdg_t":262.2,"dist_nm":22.6,"freq":109.4,"lat":38.18241667,"lon":-84.90861111,"rng_nm":25,"alt_fmsl":0,"id":"FFT","desc":"FRANKFORT VOR"},
{"type":"NDB","hdg_t":115.8,"dist_nm":23.8,"freq":210,"lat":38.06000000,"lon":-83.98152778,"rng_nm":50,"alt_fmsl":0,"id":"IOB","desc":"MOUNT STERLING NDB"},
{"type":"VOR","hdg_t":13.1,"dist_nm":25.5,"freq":117,"lat":38.64950000,"lon":-84.31063889,"rng_nm":130,"alt_fmsl":810,"id":"FLM","desc":"FALMOUTH VOR-DME"},
{"type":"NDB","hdg_t":145.9,"dist_nm":34.3,"freq":393,"lat":37.75800000,"lon":-84.03022222,"rng_nm":50,"alt_fmsl":0,"id":"XYC","desc":"SECO NDB"},
{"type":"NDB","hdg_t":60.4,"dist_nm":37.2,"freq":400,"lat":38.53813200,"lon":-83.74686400,"rng_nm":25,"alt_fmsl":921,"id":"FGX","desc":"FLEMINGSBURG NDB"},
{"type":"NDB","hdg_t":61,"dist_nm":42.3,"freq":400,"lat":38.57358333,"lon":-83.64702778,"rng_nm":50,"alt_fmsl":0,"id":"XW","desc":"FLMNG NDB"},
{"type":"NDB","hdg_t":201.7,"dist_nm":42.4,"freq":311,"lat":37.57641667,"lon":-84.76402778,"rng_nm":50,"alt_fmsl":0,"id":"DVK","desc":"GOODALL NDB"},
{"type":"NDB","hdg_t":33.5,"dist_nm":46.6,"freq":219,"lat":38.88201700,"lon":-83.88518100,"rng_nm":25,"alt_fmsl":954,"id":"GEO","desc":"GEORGETOWN NDB"},
{"type":"VOR","hdg_t":344.9,"dist_nm":48.5,"freq":117.3,"lat":39.01597222,"lon":-84.70333333,"rng_nm":40,"alt_fmsl":879,"id":"CVG","desc":"CINCINNATI VORTAC"},
{"type":"NDB","hdg_t":341.9,"dist_nm":51.1,"freq":321,"lat":39.04574700,"lon":-84.77296400,"rng_nm":25,"alt_fmsl":0,"id":"UR","desc":"BURLN NDB"},
{"type":"NDB","hdg_t":11.4,"dist_nm":51.5,"freq":245,"lat":39.07669444,"lon":-84.21541667,"rng_nm":50,"alt_fmsl":0,"id":"PWF","desc":"SPORTYS NDB"},
{"type":"NDB","hdg_t":226.8,"dist_nm":52.3,"freq":429,"lat":37.63463889,"lon":-85.23655556,"rng_nm":50,"alt_fmsl":0,"id":"IKY","desc":"SPRINGFIELD NDB"},
{"type":"VOR","hdg_t":262,"dist_nm":54.6,"freq":114.8,"lat":38.10347222,"lon":-85.57744444,"rng_nm":130,"alt_fmsl":720,"id":"IIU","desc":"LOUISVILLE VORTAC"},
{"type":"NDB","hdg_t":47.4,"dist_nm":55.3,"freq":359,"lat":38.85541667,"lon":-83.56377778,"rng_nm":50,"alt_fmsl":0,"id":"AMT","desc":"WEST UNION NDB"},
{"type":"NDB","hdg_t":4.4,"dist_nm":55.6,"freq":335,"lat":39.15966667,"lon":-84.34127778,"rng_nm":50,"alt_fmsl":0,"id":"LUK","desc":"CINCINNATI NDB"},
{"type":"NDB","hdg_t":264.9,"dist_nm":56.9,"freq":414,"lat":38.14483333,"lon":-85.63330556,"rng_nm":50,"alt_fmsl":0,"id":"LK","desc":"LAANG NDB"},
{"type":"NDB","hdg_t":303.4,"dist_nm":57.7,"freq":404,"lat":38.76090800,"lon":-85.46051100,"rng_nm":25,"alt_fmsl":874,"id":"IMS","desc":"MADISON NDB"},
{"type":"VOR","hdg_t":270.1,"dist_nm":58.1,"freq":112.2,"lat":38.23022222,"lon":-85.66475000,"rng_nm":25,"alt_fmsl":540,"id":"BQM","desc":"BOWMAN VOR-DME"},
{"type":"NDB","hdg_t":3.5,"dist_nm":59.3,"freq":379,"lat":39.22275000,"lon":-84.35536111,"rng_nm":50,"alt_fmsl":0,"id":"MDE","desc":"MADEIRA NDB"},
{"type":"VOR","hdg_t":290.9,"dist_nm":60.5,"freq":112.4,"lat":38.58883333,"lon":-85.63600000,"rng_nm":40,"alt_fmsl":710,"id":"ABB","desc":"NABB VORTAC"},
{"type":"NDB","hdg_t":1.9,"dist_nm":60.8,"freq":388,"lat":39.24880556,"lon":-84.38961111,"rng_nm":50,"alt_fmsl":0,"id":"ISZ","desc":"CINCINNATI-BLUE A NDB"},
{"type":"NDB","hdg_t":217.8,"dist_nm":62.9,"freq":272,"lat":37.40188889,"lon":-85.24369444,"rng_nm":50,"alt_fmsl":0,"id":"TYC","desc":"TAYLOR CO NDB"},
{"type":"NDB","hdg_t":283.5,"dist_nm":63.1,"freq":331,"lat":38.47397222,"lon":-85.73722222,"rng_nm":50,"alt_fmsl":0,"id":"JV","desc":"CATCH NDB"},
{"type":"NDB","hdg_t":51.3,"dist_nm":66.4,"freq":329,"lat":38.92119444,"lon":-83.32686111,"rng_nm":50,"alt_fmsl":0,"id":"PZO","desc":"PEEBLES NDB"},
{"type":"NDB","hdg_t":354.6,"dist_nm":68.5,"freq":260,"lat":39.37288889,"lon":-84.57211111,"rng_nm":50,"alt_fmsl":0,"id":"HAO","desc":"HAMILTON NDB"},
{"type":"VOR","hdg_t":238.8,"dist_nm":69.1,"freq":110.8,"lat":37.63180556,"lon":-85.67588889,"rng_nm":40,"alt_fmsl":960,"id":"EWO","desc":"NEW HOPE VOR-DME"},
{"type":"NDB","hdg_t":36,"dist_nm":70.6,"freq":278,"lat":39.18472222,"lon":-83.54297222,"rng_nm":50,"alt_fmsl":0,"id":"HOC","desc":"HILLSBORO NDB"},
{"type":"NDB","hdg_t":21.1,"dist_nm":72,"freq":299,"lat":39.35344444,"lon":-83.87577778,"rng_nm":50,"alt_fmsl":0,"id":"HW","desc":"CUBLA NDB"},
{"type":"VOR","hdg_t":93.1,"dist_nm":72.2,"freq":110.4,"lat":38.15836111,"lon":-82.91005556,"rng_nm":40,"alt_fmsl":1070,"id":"ECB","desc":"NEWCOMBE VORTAC"},
{"type":"VOR","hdg_t":69.8,"dist_nm":72.9,"freq":112.8,"lat":38.64413889,"lon":-82.97833333,"rng_nm":40,"alt_fmsl":1040,"id":"YRK","desc":"YORK VORTAC"},
{"type":"VOR","hdg_t":167.7,"dist_nm":73.6,"freq":116.1,"lat":37.03313889,"lon":-84.11008333,"rng_nm":40,"alt_fmsl":1245,"id":"LOZ","desc":"LONDON VORTAC"},
{"type":"NDB","hdg_t":257.7,"dist_nm":74.8,"freq":396,"lat":37.95869444,"lon":-85.97663889,"rng_nm":50,"alt_fmsl":0,"id":"GOI","desc":"GODMAN NDB"},
{"type":"NDB","hdg_t":189,"dist_nm":75.1,"freq":388,"lat":36.99622222,"lon":-84.68130556,"rng_nm":50,"alt_fmsl":0,"id":"CDX","desc":"CUMBERLAND RIVER NDB"},
{"type":"VOR","hdg_t":131.8,"dist_nm":75.2,"freq":111.2,"lat":37.39125000,"lon":-83.26300000,"rng_nm":40,"alt_fmsl":1243,"id":"AZQ","desc":"HAZARD VOR-DME"},
{"type":"VOR","hdg_t":255.4,"dist_nm":75.4,"freq":109.6,"lat":37.90741667,"lon":-85.97288889,"rng_nm":25,"alt_fmsl":740,"id":"FTK","desc":"FORT KNOX VOR-DME"},
{"type":"NDB","hdg_t":359.5,"dist_nm":75.7,"freq":239,"lat":39.49877778,"lon":-84.44752778,"rng_nm":50,"alt_fmsl":0,"id":"HKF","desc":"HOOK FLD NDB"},
{"type":"NDB","hdg_t":330.2,"dist_nm":77.2,"freq":254,"lat":39.34977778,"lon":-85.25775000,"rng_nm":50,"alt_fmsl":0,"id":"HLB","desc":"BATESVILLE NDB"},
{"type":"VOR","hdg_t":22.3,"dist_nm":77.5,"freq":112.9,"lat":39.42969444,"lon":-83.80125000,"rng_nm":25,"alt_fmsl":1050,"id":"MXQ","desc":"MIDWEST VOR-DME"},
{"type":"NDB","hdg_t":348.1,"dist_nm":78,"freq":282,"lat":39.50755556,"lon":-84.78063889,"rng_nm":50,"alt_fmsl":0,"id":"OXD","desc":"OXFORD NDB"},
{"type":"NDB","hdg_t":3.6,"dist_nm":80.7,"freq":223,"lat":39.57825000,"lon":-84.32347222,"rng_nm":50,"alt_fmsl":0,"id":"MW","desc":"ONIDA NDB"},
{"type":"NDB","hdg_t":298.1,"dist_nm":81.7,"freq":308,"lat":38.86744444,"lon":-85.97302778,"rng_nm":50,"alt_fmsl":0,"id":"EQZ","desc":"CAPTAIN NDB"},
{"type":"NDB","hdg_t":23.1,"dist_nm":82.2,"freq":407,"lat":39.49311111,"lon":-83.73816667,"rng_nm":50,"alt_fmsl":0,"id":"IL","desc":"AIRBO NDB"},
{"type":"NDB","hdg_t":193.7,"dist_nm":84.9,"freq":290,"lat":36.85621100,"lon":-84.85294700,"rng_nm":25,"alt_fmsl":950,"id":"EKQ","desc":"ELK SPRING NDB"},
{"type":"VOR","hdg_t":257.1,"dist_nm":88.1,"freq":108.2,"lat":37.89405556,"lon":-86.24452778,"rng_nm":40,"alt_fmsl":0,"id":"MYS","desc":"MYSTIC VOR"},
{"type":"NDB","hdg_t":51.1,"dist_nm":90,"freq":385,"lat":39.16691667,"lon":-82.93219444,"rng_nm":50,"alt_fmsl":0,"id":"EOP","desc":"WAVERLY NDB"},
{"type":"NDB","hdg_t":14.7,"dist_nm":91.8,"freq":395,"lat":39.71506100,"lon":-83.92993100,"rng_nm":25,"alt_fmsl":970,"id":"XEN","desc":"XENIA NDB"},
{"type":"NDB","hdg_t":315.5,"dist_nm":92,"freq":410,"lat":39.32205556,"lon":-85.81855556,"rng_nm":50,"alt_fmsl":0,"id":"BA","desc":"CLIFS NDB"},
{"type":"VOR","hdg_t":348.4,"dist_nm":93,"freq":110.6,"lat":39.75502778,"lon":-84.83886111,"rng_nm":40,"alt_fmsl":1135,"id":"RID","desc":"RICHMOND VORTAC"},
{"type":"NDB","hdg_t":339.7,"dist_nm":93.6,"freq":275,"lat":39.69756100,"lon":-85.13438900,"rng_nm":25,"alt_fmsl":867,"id":"CEV","desc":"CONNERSVILLE NDB"},
{"type":"NDB","hdg_t":30.4,"dist_nm":95.3,"freq":414,"lat":39.60086111,"lon":-83.39161111,"rng_nm":50,"alt_fmsl":0,"id":"CSS","desc":"COURT HOUSE NDB"},
{"type":"SDME","hdg_t":10.4,"dist_nm":96.6,"freq":115.2,"lat":39.81897800,"lon":-84.05548100,"rng_nm":25,"alt_fmsl":804,"id":"FFO","desc":"PATTERSON TACAN"},
{"type":"NDB","hdg_t":2.7,"dist_nm":96.7,"freq":315,"lat":39.84702778,"lon":-84.33480556,"rng_nm":50,"alt_fmsl":0,"id":"AT","desc":"BRUNY NDB"},
{"type":"NDB","hdg_t":41.9,"dist_nm":97.7,"freq":236,"lat":39.43819444,"lon":-83.02877778,"rng_nm":50,"alt_fmsl":0,"id":"RZT","desc":"ROSS CO NDB"},
{"type":"NDB","hdg_t":340.8,"dist_nm":98,"freq":227,"lat":39.77711111,"lon":-85.12988889,"rng_nm":50,"alt_fmsl":0,"id":"SQ","desc":"PNTHR NDB"},
{"type":"VOR","hdg_t":15.8,"dist_nm":99.9,"freq":113.2,"lat":39.83652778,"lon":-83.84497222,"rng_nm":25,"alt_fmsl":1047,"id":"SGH","desc":"SPRINGFIELD VOR-DME"}
]
}
