{"success":true,"source":"xp2csv.pl","last_updated":"2013/11/08 14:53:21 UTC"
,"icao":"29K","name":"Holyrood Municipal","lat":38.58751027,"lon":-98.40478834,"rwys":1,"ils":0,"index":1335330,"path":"w100n30/w099n38"
,"runways":[
{"len_m":502,"wid_m":30.48,"hdg":176,"surf":"Turf/grass","rwy1":"17","lat1":38.58977013,"lon1":-98.40493986,"rwy2":"35","lat2":38.58525041,"lon2":-98.40463682}
]
,"navaids":[
{"type":"NDB","hdg_t":149.7,"dist_nm":16.6,"freq":386,"lat":38.34722222,"lon":-98.22700000,"rng_nm":50,"alt_fmsl":0,"id":"LYO","desc":"LYONS NDB"},
{"type":"NDB","hdg_t":239.8,"dist_nm":27.1,"freq":338,"lat":38.35908333,"lon":-98.90288889,"rng_nm":50,"alt_fmsl":0,"id":"HIL","desc":"HILYN NDB"},
{"type":"NDB","hdg_t":226.7,"dist_nm":29.2,"freq":419,"lat":38.25169444,"lon":-98.85580556,"rng_nm":50,"alt_fmsl":0,"id":"GB","desc":"BABSY NDB"},
{"type":"NDB","hdg_t":140.8,"dist_nm":35.7,"freq":404,"lat":38.12372222,"lon":-97.92702778,"rng_nm":50,"alt_fmsl":0,"id":"HU","desc":"SALTT NDB"},
{"type":"NDB","hdg_t":80.7,"dist_nm":36.1,"freq":344,"lat":38.68152778,"lon":-97.64505556,"rng_nm":50,"alt_fmsl":0,"id":"SL","desc":"FLORY NDB"},
{"type":"NDB","hdg_t":112.7,"dist_nm":36.7,"freq":227,"lat":38.34850000,"lon":-97.68730556,"rng_nm":50,"alt_fmsl":0,"id":"MPR","desc":"MC PHERSON NDB"},
{"type":"NDB","hdg_t":234.7,"dist_nm":39.5,"freq":296,"lat":38.20436111,"lon":-99.08791667,"rng_nm":50,"alt_fmsl":0,"id":"LQR","desc":"LARNED NDB"},
{"type":"NDB","hdg_t":285.5,"dist_nm":41.2,"freq":374,"lat":38.76922222,"lon":-99.25127778,"rng_nm":50,"alt_fmsl":0,"id":"HY","desc":"NETTE NDB"},
{"type":"VOR","hdg_t":147.7,"dist_nm":41.8,"freq":116.8,"lat":37.99691667,"lon":-97.93413889,"rng_nm":40,"alt_fmsl":1542,"id":"HUT","desc":"HUTCHINSON VOR-DME"},
{"type":"VOR","hdg_t":60.9,"dist_nm":41.9,"freq":117.1,"lat":38.92513889,"lon":-97.62136111,"rng_nm":130,"alt_fmsl":1310,"id":"SLN","desc":"SALINA VORTAC"},
{"type":"VOR","hdg_t":291.1,"dist_nm":43.8,"freq":110.4,"lat":38.84766667,"lon":-99.27677778,"rng_nm":40,"alt_fmsl":1990,"id":"HYS","desc":"HAYS VORTAC"},
{"type":"NDB","hdg_t":197.5,"dist_nm":54,"freq":356,"lat":37.72630556,"lon":-98.74708333,"rng_nm":50,"alt_fmsl":0,"id":"PTT","desc":"PRATT NDB"},
{"type":"NDB","hdg_t":116.1,"dist_nm":59.4,"freq":395,"lat":38.14491667,"lon":-97.27613889,"rng_nm":50,"alt_fmsl":0,"id":"CA","desc":"HARVS NDB"},
{"type":"NDB","hdg_t":120,"dist_nm":61.9,"freq":281,"lat":38.06408333,"lon":-97.27344444,"rng_nm":50,"alt_fmsl":0,"id":"EWK","desc":"NEWTON NDB"},
{"type":"VOR","hdg_t":142.1,"dist_nm":63.6,"freq":113.8,"lat":37.74525000,"lon":-97.58383333,"rng_nm":130,"alt_fmsl":1471,"id":"ICT","desc":"WICHITA VORTAC"},
{"type":"NDB","hdg_t":31,"dist_nm":67.7,"freq":335,"lat":39.55333333,"lon":-97.65113889,"rng_nm":50,"alt_fmsl":0,"id":"CNK","desc":"CONCORDIA NDB"},
{"type":"VOR","hdg_t":5.2,"dist_nm":73.3,"freq":109.8,"lat":39.80638889,"lon":-98.26002778,"rng_nm":40,"alt_fmsl":1880,"id":"TKO","desc":"MANKATO VORTAC"},
{"type":"NDB","hdg_t":50.3,"dist_nm":75.1,"freq":362,"lat":39.38075000,"lon":-97.16125000,"rng_nm":50,"alt_fmsl":0,"id":"CYW","desc":"CLAY CENTER NDB"},
{"type":"NDB","hdg_t":84.6,"dist_nm":75.1,"freq":407,"lat":38.69277778,"lon":-96.81111111,"rng_nm":50,"alt_fmsl":0,"id":"HRU","desc":"HERINGTON NDB"},
{"type":"NDB","hdg_t":143,"dist_nm":75.3,"freq":332,"lat":37.57819444,"lon":-97.45586111,"rng_nm":50,"alt_fmsl":0,"id":"IC","desc":"PICHE NDB"},
{"type":"VOR","hdg_t":71.9,"dist_nm":75.9,"freq":109.4,"lat":38.97016667,"lon":-96.86116667,"rng_nm":25,"alt_fmsl":0,"id":"FRI","desc":"FORT RILEY VOR"},
{"type":"NDB","hdg_t":328.6,"dist_nm":78.7,"freq":368,"lat":39.70613889,"lon":-99.28830556,"rng_nm":50,"alt_fmsl":0,"id":"PHG","desc":"PHILLIPSBURG NDB"},
{"type":"SDME","hdg_t":136.7,"dist_nm":79,"freq":116.5,"lat":37.62185300,"lon":-97.26819200,"rng_nm":40,"alt_fmsl":1374,"id":"IAB","desc":"MC CONNELL TACAN"},
{"type":"NDB","hdg_t":70.3,"dist_nm":79.9,"freq":314,"lat":39.02600000,"lon":-96.79450000,"rng_nm":50,"alt_fmsl":0,"id":"CVY","desc":"CAVALRY NDB"},
{"type":"NDB","hdg_t":25.1,"dist_nm":81.3,"freq":414,"lat":39.81327778,"lon":-97.65786111,"rng_nm":50,"alt_fmsl":0,"id":"RPB","desc":"REPUBLICAN NDB"},
{"type":"VOR","hdg_t":172.5,"dist_nm":86.3,"freq":112.9,"lat":37.15891667,"lon":-98.17072222,"rng_nm":40,"alt_fmsl":1390,"id":"ANY","desc":"ANTHONY VORTAC"},
{"type":"VOR","hdg_t":240.2,"dist_nm":87.6,"freq":108.2,"lat":37.85058333,"lon":-100.00563889,"rng_nm":40,"alt_fmsl":2565,"id":"DDC","desc":"DODGE CITY VORTAC"},
{"type":"VOR","hdg_t":67.1,"dist_nm":87.9,"freq":110.2,"lat":39.14544444,"lon":-96.66872222,"rng_nm":25,"alt_fmsl":1044,"id":"MHK","desc":"MANHATTAN VOR-DME"},
{"type":"NDB","hdg_t":68.5,"dist_nm":89,"freq":391,"lat":39.11744200,"lon":-96.62933600,"rng_nm":50,"alt_fmsl":1060,"id":"MQD","desc":"MC DOWELL CREEK NDB"},
{"type":"NDB","hdg_t":147.2,"dist_nm":89.7,"freq":414,"lat":37.32366667,"lon":-97.39019444,"rng_nm":50,"alt_fmsl":0,"id":"EGT","desc":"WELLINGTON NDB"},
{"type":"VOR","hdg_t":295.8,"dist_nm":94.2,"freq":113.7,"lat":39.25875000,"lon":-100.22586111,"rng_nm":130,"alt_fmsl":2690,"id":"HLC","desc":"HILL CITY VORTAC"},
{"type":"NDB","hdg_t":41.6,"dist_nm":94.8,"freq":212,"lat":39.76169444,"lon":-97.04233333,"rng_nm":50,"alt_fmsl":0,"id":"DBX","desc":"MORRISON NDB"}
]
}
