{"success":true,"source":"xp2csv.pl","last_updated":"2013/11/08 14:53:21 UTC"
,"icao":"2AR1","name":"Seratt","lat":36.29213055,"lon":-94.09534167,"rwys":1,"ils":0,"index":1400723,"path":"w100n30/w095n36"
,"runways":[
{"len_m":258,"wid_m":16.76,"hdg":173,"surf":"Turf/grass","rwy1":"17","lat1":36.29328993,"lon1":-94.09549285,"rwy2":"35","lat2":36.29097117,"lon2":-94.09519049}
]
,"navaids":[
{"type":"VOR","hdg_t":204.7,"dist_nm":3,"freq":116.4,"lat":36.24641667,"lon":-94.12138889,"rng_nm":130,"alt_fmsl":1331,"id":"RZC","desc":"RAZORBACK VORTAC"},
{"type":"NDB","hdg_t":7,"dist_nm":10.2,"freq":263,"lat":36.46113889,"lon":-94.06947222,"rng_nm":50,"alt_fmsl":0,"id":"RO","desc":"ROGRS NDB"},
{"type":"VOR","hdg_t":198.4,"dist_nm":15.7,"freq":108.8,"lat":36.04288889,"lon":-94.19755556,"rng_nm":25,"alt_fmsl":1530,"id":"DAK","desc":"DRAKE VOR-DME"},
{"type":"NDB","hdg_t":252.2,"dist_nm":20,"freq":284,"lat":36.18925000,"lon":-94.48855556,"rng_nm":50,"alt_fmsl":0,"id":"SLG","desc":"SILOAM SPRINGS NDB"},
{"type":"VOR","hdg_t":333.5,"dist_nm":36.8,"freq":117.3,"lat":36.84244444,"lon":-94.43569444,"rng_nm":130,"alt_fmsl":1200,"id":"EOS","desc":"NEOSHO VOR-DME"},
{"type":"VOR","hdg_t":87.6,"dist_nm":42.8,"freq":112.5,"lat":36.31830556,"lon":-93.21327778,"rng_nm":40,"alt_fmsl":1400,"id":"HRO","desc":"HARRISON VOR-DME"},
{"type":"NDB","hdg_t":97.3,"dist_nm":45.7,"freq":395,"lat":36.19105556,"lon":-93.16019444,"rng_nm":50,"alt_fmsl":0,"id":"HR","desc":"BAKKY NDB"},
{"type":"NDB","hdg_t":64.1,"dist_nm":46.4,"freq":204,"lat":36.62756400,"lon":-93.22991100,"rng_nm":25,"alt_fmsl":933,"id":"PLK","desc":"POINT LOOKOUT NDB"},
{"type":"NDB","hdg_t":244,"dist_nm":49.4,"freq":215,"lat":35.92722222,"lon":-95.00658333,"rng_nm":50,"alt_fmsl":0,"id":"TQH","desc":"TAHLEQUAH NDB"},
{"type":"VOR","hdg_t":189,"dist_nm":54.8,"freq":110.4,"lat":35.38841667,"lon":-94.27152778,"rng_nm":40,"alt_fmsl":430,"id":"FSM","desc":"FORT SMITH VORTAC"},
{"type":"NDB","hdg_t":186,"dist_nm":56.5,"freq":223,"lat":35.35419444,"lon":-94.21700000,"rng_nm":50,"alt_fmsl":0,"id":"FS","desc":"WIZER NDB"},
{"type":"NDB","hdg_t":337.8,"dist_nm":58.9,"freq":344,"lat":37.20308333,"lon":-94.55858333,"rng_nm":50,"alt_fmsl":0,"id":"JL","desc":"LUNNS NDB"},
{"type":"NDB","hdg_t":146.2,"dist_nm":59.1,"freq":201,"lat":35.46925000,"lon":-93.42352778,"rng_nm":50,"alt_fmsl":0,"id":"CZE","desc":"CLARKSVILLE NDB"},
{"type":"NDB","hdg_t":197.7,"dist_nm":60.9,"freq":311,"lat":35.32271111,"lon":-94.47417500,"rng_nm":50,"alt_fmsl":0,"id":"GK","desc":"JEMBO NDB"},
{"type":"NDB","hdg_t":31.3,"dist_nm":62.4,"freq":404,"lat":37.18022222,"lon":-93.41719444,"rng_nm":50,"alt_fmsl":0,"id":"SG","desc":"COOLE NDB"},
{"type":"NDB","hdg_t":212.6,"dist_nm":63.4,"freq":520,"lat":35.39858333,"lon":-94.79422222,"rng_nm":50,"alt_fmsl":0,"id":"IQS","desc":"SALLISAW NDB"},
{"type":"NDB","hdg_t":27.3,"dist_nm":68.1,"freq":254,"lat":37.29940600,"lon":-93.44073100,"rng_nm":50,"alt_fmsl":0,"id":"ILJ","desc":"WILLARD NDB"},
{"type":"NDB","hdg_t":234.6,"dist_nm":71.5,"freq":306,"lat":35.59482000,"lon":-95.28718800,"rng_nm":25,"alt_fmsl":528,"id":"MKO","desc":"MUSKOGEE NDB"},
{"type":"NDB","hdg_t":351.8,"dist_nm":72.3,"freq":356,"lat":37.48700000,"lon":-94.31022222,"rng_nm":50,"alt_fmsl":0,"id":"LLU","desc":"SPRING RIVER NDB"},
{"type":"VOR","hdg_t":239,"dist_nm":72.5,"freq":108.6,"lat":35.66315400,"lon":-95.36774700,"rng_nm":25,"alt_fmsl":610,"id":"MEE","desc":"DAVIS VOR"},
{"type":"VOR","hdg_t":52.9,"dist_nm":73.3,"freq":109.4,"lat":37.02347222,"lon":-92.87691667,"rng_nm":40,"alt_fmsl":1600,"id":"DGD","desc":"DOGWOOD VORTAC"},
{"type":"VOR","hdg_t":29.6,"dist_nm":73.5,"freq":116.9,"lat":37.35594444,"lon":-93.33402778,"rng_nm":130,"alt_fmsl":1240,"id":"SGF","desc":"SPRINGFIELD VORTAC"},
{"type":"VOR","hdg_t":314.4,"dist_nm":74.4,"freq":117.6,"lat":37.15750000,"lon":-95.20363889,"rng_nm":40,"alt_fmsl":930,"id":"OSW","desc":"OSWEGO VORTAC"},
{"type":"NDB","hdg_t":336.3,"dist_nm":75.3,"freq":365,"lat":37.44247222,"lon":-94.72655556,"rng_nm":50,"alt_fmsl":0,"id":"PTS","desc":"PITTSBURG NDB"},
{"type":"NDB","hdg_t":141.4,"dist_nm":78.9,"freq":379,"lat":35.25708333,"lon":-93.09461111,"rng_nm":50,"alt_fmsl":0,"id":"RUE","desc":"RUSSELLVILLE NDB"},
{"type":"VOR","hdg_t":89.1,"dist_nm":79.3,"freq":112.8,"lat":36.29963889,"lon":-92.45838889,"rng_nm":40,"alt_fmsl":780,"id":"FLP","desc":"FLIPPIN VOR-DME"},
{"type":"VOR","hdg_t":266.5,"dist_nm":82.3,"freq":114.4,"lat":36.19625000,"lon":-95.78808333,"rng_nm":130,"alt_fmsl":788,"id":"TUL","desc":"TULSA VORTAC"},
{"type":"NDB","hdg_t":304.4,"dist_nm":85.8,"freq":212,"lat":37.09327778,"lon":-95.57133333,"rng_nm":50,"alt_fmsl":0,"id":"CFV","desc":"COFFEYVILLE NDB"},
{"type":"NDB","hdg_t":271.1,"dist_nm":86.3,"freq":375,"lat":36.30738889,"lon":-95.87527778,"rng_nm":50,"alt_fmsl":0,"id":"DW","desc":"OWASO NDB"},
{"type":"NDB","hdg_t":262.9,"dist_nm":87.8,"freq":338,"lat":36.09738889,"lon":-95.88877778,"rng_nm":50,"alt_fmsl":0,"id":"TU","desc":"OILLR NDB"},
{"type":"NDB","hdg_t":140.5,"dist_nm":90.6,"freq":410,"lat":35.11869444,"lon":-92.92516667,"rng_nm":50,"alt_fmsl":0,"id":"MPJ","desc":"MORRILTON NDB"},
{"type":"NDB","hdg_t":313,"dist_nm":92.5,"freq":258,"lat":37.33814700,"lon":-95.50870000,"rng_nm":25,"alt_fmsl":900,"id":"PPF","desc":"PARSONS NDB"},
{"type":"VOR","hdg_t":247.9,"dist_nm":93.3,"freq":114.9,"lat":35.69311111,"lon":-95.86597222,"rng_nm":130,"alt_fmsl":766,"id":"OKM","desc":"OKMULGEE VOR-DME"},
{"type":"NDB","hdg_t":300.2,"dist_nm":93.4,"freq":329,"lat":37.06583333,"lon":-95.77775000,"rng_nm":50,"alt_fmsl":0,"id":"ID","desc":"JEFFE NDB"},
{"type":"VOR","hdg_t":256.8,"dist_nm":93.7,"freq":110.6,"lat":35.92088889,"lon":-95.96863889,"rng_nm":25,"alt_fmsl":810,"id":"GNP","desc":"GLENPOOL VOR-DME"},
{"type":"NDB","hdg_t":340.5,"dist_nm":95.7,"freq":379,"lat":37.79688889,"lon":-94.76555556,"rng_nm":50,"alt_fmsl":0,"id":"FSK","desc":"FORT SCOTT NDB"},
{"type":"NDB","hdg_t":250.9,"dist_nm":95.7,"freq":388,"lat":35.75527778,"lon":-95.94872222,"rng_nm":50,"alt_fmsl":0,"id":"OK","desc":"PRESO NDB"},
{"type":"NDB","hdg_t":135.2,"dist_nm":96.6,"freq":208,"lat":35.13925000,"lon":-92.71238600,"rng_nm":25,"alt_fmsl":320,"id":"BDQ","desc":"BRIDGE NDB"},
{"type":"NDB","hdg_t":290,"dist_nm":98.3,"freq":201,"lat":36.83950000,"lon":-96.01397222,"rng_nm":50,"alt_fmsl":0,"id":"BV","desc":"DEWIE NDB"},
{"type":"VOR","hdg_t":289.8,"dist_nm":98.4,"freq":117.9,"lat":36.83425000,"lon":-96.01830556,"rng_nm":40,"alt_fmsl":940,"id":"BVO","desc":"BARTLESVILLE VOR-DME"},
{"type":"VOR","hdg_t":194.7,"dist_nm":99.7,"freq":113.5,"lat":34.68044444,"lon":-94.60900000,"rng_nm":40,"alt_fmsl":2700,"id":"PGO","desc":"RICH MOUNTAIN VORTAC"}
]
}
