{"success":true,"source":"xp2csv.pl","last_updated":"2013/11/08 14:53:21 UTC"
,"icao":"2B1","name":"Cape Cod","lat":41.68760861,"lon":-70.40363584,"rwys":3,"ils":0,"index":1794282,"path":"w080n40/w071n41"
,"runways":[
{"len_m":819,"wid_m":21.34,"hdg":74,"surf":"Turf/grass","rwy1":"09","lat1":41.68659548,"lon1":-70.40836708,"rwy2":"27","lat2":41.68862174,"lon2":-70.39890460},
{"len_m":622,"wid_m":15.24,"hdg":34,"surf":"Turf/grass","rwy1":"05","lat1":41.68528910,"lon1":-70.40573087,"rwy2":"23","lat2":41.68992812,"lon2":-70.40154081},
{"len_m":510,"wid_m":13.72,"hdg":153,"surf":"Turf/grass","rwy1":"17","lat1":41.68967213,"lon1":-70.40498355,"rwy2":"35","lat2":41.68554509,"lon2":-70.40228813}
]
,"navaids":[
{"type":"NDB","hdg_t":327.6,"dist_nm":3.1,"freq":362,"lat":41.73225000,"lon":-70.44138889,"rng_nm":50,"alt_fmsl":0,"id":"FM","desc":"BOMDE NDB"},
{"type":"NDB","hdg_t":328.1,"dist_nm":3.1,"freq":362,"lat":41.73257200,"lon":-70.44086400,"rng_nm":25,"alt_fmsl":80,"id":"FMH","desc":"OTIS NDB"},
{"type":"SDME","hdg_t":251.3,"dist_nm":5.2,"freq":115.8,"lat":41.65960600,"lon":-70.51394400,"rng_nm":40,"alt_fmsl":120,"id":"FMH","desc":"OTIS TACAN"},
{"type":"NDB","hdg_t":79.1,"dist_nm":9.1,"freq":342,"lat":41.71613889,"lon":-70.20294444,"rng_nm":50,"alt_fmsl":0,"id":"HY","desc":"BOGEY NDB"},
{"type":"NDB","hdg_t":89,"dist_nm":18.6,"freq":279,"lat":41.69177778,"lon":-69.98980556,"rng_nm":50,"alt_fmsl":0,"id":"CQX","desc":"NAUSET NDB"},
{"type":"VOR","hdg_t":208.3,"dist_nm":19.8,"freq":114.5,"lat":41.39622222,"lon":-70.61272222,"rng_nm":40,"alt_fmsl":59,"id":"MVY","desc":"MARTHAS VINEYARD VOR-DME"},
{"type":"NDB","hdg_t":19.3,"dist_nm":24.2,"freq":389,"lat":42.06880556,"lon":-70.22344444,"rng_nm":50,"alt_fmsl":0,"id":"PVC","desc":"PROVINCETOWN NDB"},
{"type":"VOR","hdg_t":39.6,"dist_nm":25.7,"freq":114.7,"lat":42.01719444,"lon":-70.03722222,"rng_nm":130,"alt_fmsl":151,"id":"LFV","desc":"MARCONI VOR-DME"},
{"type":"NDB","hdg_t":333.7,"dist_nm":27.4,"freq":368,"lat":42.09800000,"lon":-70.67577778,"rng_nm":50,"alt_fmsl":0,"id":"IMR","desc":"MARSHFIELD NDB"},
{"type":"NDB","hdg_t":262,"dist_nm":27.9,"freq":274,"lat":41.62163889,"lon":-71.01769444,"rng_nm":50,"alt_fmsl":0,"id":"EW","desc":"NEFOR NDB"},
{"type":"NDB","hdg_t":140,"dist_nm":29.3,"freq":248,"lat":41.31127778,"lon":-69.98675000,"rng_nm":50,"alt_fmsl":0,"id":"AC","desc":"WAIVS NDB"},
{"type":"VOR","hdg_t":144.9,"dist_nm":29.6,"freq":116.2,"lat":41.28188889,"lon":-70.02672222,"rng_nm":130,"alt_fmsl":99,"id":"ACK","desc":"NANTUCKET VOR-DME"},
{"type":"NDB","hdg_t":292.5,"dist_nm":29.7,"freq":227,"lat":41.87650000,"lon":-71.01700000,"rng_nm":50,"alt_fmsl":0,"id":"TAN","desc":"TAUNTON NDB"},
{"type":"NDB","hdg_t":298.2,"dist_nm":40.2,"freq":220,"lat":42.00277778,"lon":-71.19711111,"rng_nm":50,"alt_fmsl":0,"id":"IHM","desc":"MANSFIELD NDB"},
{"type":"NDB","hdg_t":308.8,"dist_nm":41.5,"freq":397,"lat":42.11975000,"lon":-71.12841667,"rng_nm":50,"alt_fmsl":0,"id":"OW","desc":"STOGE NDB"},
{"type":"NDB","hdg_t":280.1,"dist_nm":43.2,"freq":356,"lat":41.81036111,"lon":-71.35322222,"rng_nm":50,"alt_fmsl":0,"id":"AR","desc":"ARMIN NDB"},
{"type":"NDB","hdg_t":328,"dist_nm":43.5,"freq":346,"lat":42.30308333,"lon":-70.92186111,"rng_nm":50,"alt_fmsl":0,"id":"LI","desc":"HULLZ NDB"},
{"type":"NDB","hdg_t":320.8,"dist_nm":45.4,"freq":375,"lat":42.27375000,"lon":-71.04916667,"rng_nm":50,"alt_fmsl":0,"id":"BO","desc":"MILTT NDB"},
{"type":"VOR","hdg_t":273,"dist_nm":46.1,"freq":115.6,"lat":41.72433333,"lon":-71.42963889,"rng_nm":130,"alt_fmsl":49,"id":"PVD","desc":"PROVIDENCE VORTAC"},
{"type":"VOR","hdg_t":327,"dist_nm":47.9,"freq":112.7,"lat":42.35744444,"lon":-70.98955556,"rng_nm":130,"alt_fmsl":20,"id":"BOS","desc":"BOSTON VOR-DME"},
{"type":"NDB","hdg_t":267.1,"dist_nm":49.1,"freq":335,"lat":41.64177778,"lon":-71.49469444,"rng_nm":50,"alt_fmsl":0,"id":"PV","desc":"RENCH NDB"},
{"type":"NDB","hdg_t":286.2,"dist_nm":50.6,"freq":241,"lat":41.91905600,"lon":-71.48858300,"rng_nm":25,"alt_fmsl":490,"id":"SFZ","desc":"CENTRAL NDB"},
{"type":"NDB","hdg_t":331.5,"dist_nm":52.2,"freq":382,"lat":42.45202778,"lon":-70.96330556,"rng_nm":50,"alt_fmsl":0,"id":"LQ","desc":"LYNDY NDB"},
{"type":"NDB","hdg_t":323.3,"dist_nm":57.6,"freq":251,"lat":42.45575000,"lon":-71.17852778,"rng_nm":50,"alt_fmsl":0,"id":"SKR","desc":"SHAKER HILL NDB"},
{"type":"VOR","hdg_t":239.8,"dist_nm":61.4,"freq":117.8,"lat":41.16744444,"lon":-71.57608333,"rng_nm":40,"alt_fmsl":100,"id":"SEY","desc":"SANDY POINT VOR-DME"},
{"type":"NDB","hdg_t":317.5,"dist_nm":64.7,"freq":332,"lat":42.47986111,"lon":-71.38866667,"rng_nm":50,"alt_fmsl":0,"id":"BE","desc":"BEDDS (LOM) NDB"},
{"type":"VOR","hdg_t":284.4,"dist_nm":66.5,"freq":117.4,"lat":41.95547222,"lon":-71.84408333,"rng_nm":130,"alt_fmsl":652,"id":"PUT","desc":"PUTNAM VOR-DME"},
{"type":"NDB","hdg_t":328.5,"dist_nm":67.4,"freq":402,"lat":42.64413889,"lon":-71.19719444,"rng_nm":50,"alt_fmsl":0,"id":"LW","desc":"HAGET NDB"},
{"type":"NDB","hdg_t":300.3,"dist_nm":68.7,"freq":417,"lat":42.25988889,"lon":-71.73527778,"rng_nm":50,"alt_fmsl":0,"id":"EK","desc":"GOZZR NDB"},
{"type":"VOR","hdg_t":334.2,"dist_nm":70.2,"freq":112.5,"lat":42.74041667,"lon":-71.09483333,"rng_nm":40,"alt_fmsl":302,"id":"LWM","desc":"LAWRENCE VOR-DME"},
{"type":"VOR","hdg_t":264.2,"dist_nm":72.2,"freq":110,"lat":41.55638889,"lon":-71.99936111,"rng_nm":40,"alt_fmsl":310,"id":"ORW","desc":"NORWICH VOR-DME"},
{"type":"VOR","hdg_t":254.4,"dist_nm":77.3,"freq":110.85,"lat":41.33038889,"lon":-72.05197222,"rng_nm":25,"alt_fmsl":9,"id":"GON","desc":"GROTON VOR-DME"},
{"type":"NDB","hdg_t":311,"dist_nm":79.5,"freq":365,"lat":42.55091667,"lon":-71.75713889,"rng_nm":50,"alt_fmsl":0,"id":"FIT","desc":"FITCHBURG NDB"},
{"type":"NDB","hdg_t":296.4,"dist_nm":80.4,"freq":279,"lat":42.27450000,"lon":-72.01994444,"rng_nm":50,"alt_fmsl":0,"id":"RS","desc":"DUNCA NDB"},
{"type":"VOR","hdg_t":329,"dist_nm":82.8,"freq":114.4,"lat":42.86852778,"lon":-71.36952778,"rng_nm":40,"alt_fmsl":471,"id":"MHT","desc":"MANCHESTER VOR-DME"},
{"type":"VOR","hdg_t":347.3,"dist_nm":85.9,"freq":116.5,"lat":43.08447222,"lon":-70.83200000,"rng_nm":40,"alt_fmsl":99,"id":"PSM","desc":"PEASE VOR-DME"},
{"type":"NDB","hdg_t":322.3,"dist_nm":86.5,"freq":359,"lat":42.82338889,"lon":-71.60216667,"rng_nm":50,"alt_fmsl":0,"id":"AS","desc":"CHERN NDB"},
{"type":"NDB","hdg_t":324.9,"dist_nm":86.5,"freq":209,"lat":42.86422222,"lon":-71.52880556,"rng_nm":50,"alt_fmsl":0,"id":"MJ","desc":"FITZY NDB"},
{"type":"VOR","hdg_t":305.4,"dist_nm":90,"freq":110.6,"lat":42.54594444,"lon":-72.05819444,"rng_nm":40,"alt_fmsl":1280,"id":"GDM","desc":"GARDNER VOR-DME"},
{"type":"NDB","hdg_t":348.5,"dist_nm":93.8,"freq":260,"lat":43.22027778,"lon":-70.82830556,"rng_nm":50,"alt_fmsl":0,"id":"ESG","desc":"ROLLINS NDB"},
{"type":"VOR","hdg_t":269,"dist_nm":96.4,"freq":114.9,"lat":41.64111111,"lon":-72.54741667,"rng_nm":40,"alt_fmsl":849,"id":"HFD","desc":"HARTFORD VOR-DME"},
{"type":"NDB","hdg_t":331.8,"dist_nm":97.6,"freq":216,"lat":43.11883333,"lon":-71.45269444,"rng_nm":50,"alt_fmsl":0,"id":"CO","desc":"EPSOM NDB"},
{"type":"VOR","hdg_t":242.5,"dist_nm":98,"freq":113.6,"lat":40.91900000,"lon":-72.31669444,"rng_nm":130,"alt_fmsl":22,"id":"HTO","desc":"HAMPTON VORTAC"},
{"type":"NDB","hdg_t":302.7,"dist_nm":99.2,"freq":205,"lat":42.56861111,"lon":-72.28611111,"rng_nm":50,"alt_fmsl":0,"id":"ORE","desc":"ORANGE NDB"},
{"type":"VOR","hdg_t":288.5,"dist_nm":99.8,"freq":114,"lat":42.19755556,"lon":-72.52630556,"rng_nm":40,"alt_fmsl":241,"id":"CEF","desc":"WESTOVER VORTAC"}
]
}
