{"success":true,"source":"xp2csv.pl","last_updated":"2013/11/08 14:53:21 UTC"
,"icao":"2CL2","name":"Mc Cabe Ranch","lat":39.01100722,"lon":-122.09774834,"rwys":1,"ils":0,"index":942147,"path":"w130n30/w123n39"
,"runways":[
{"len_m":457,"wid_m":10.97,"hdg":155,"surf":"Gravel","rwy1":"14","lat1":39.01288660,"lon1":-122.09882521,"rwy2":"32","lat2":39.00912784,"lon2":-122.09667147}
]
,"navaids":[
{"type":"VOR","hdg_t":42.4,"dist_nm":4.8,"freq":114.4,"lat":39.07113889,"lon":-122.02725000,"rng_nm":40,"alt_fmsl":50,"id":"ILA","desc":"WILLIAMS VORTAC"},
{"type":"VOR","hdg_t":342.5,"dist_nm":19.2,"freq":110,"lat":39.31758333,"lon":-122.22152778,"rng_nm":40,"alt_fmsl":110,"id":"MXW","desc":"MAXWELL VORTAC"},
{"type":"NDB","hdg_t":67.2,"dist_nm":24.6,"freq":222,"lat":39.16939100,"lon":-121.60984800,"rng_nm":25,"alt_fmsl":64,"id":"MY","desc":"HALOW NDB"},
{"type":"VOR","hdg_t":77.7,"dist_nm":25,"freq":110.8,"lat":39.09863889,"lon":-121.57305556,"rng_nm":25,"alt_fmsl":62,"id":"MYV","desc":"MARYSVILLE VOR-DME"},
{"type":"NDB","hdg_t":118.8,"dist_nm":26.6,"freq":230,"lat":38.79494444,"lon":-121.59936111,"rng_nm":50,"alt_fmsl":0,"id":"SM","desc":"METRE NDB"},
{"type":"SDME","hdg_t":76.2,"dist_nm":31.5,"freq":108.6,"lat":39.13475400,"lon":-121.44065500,"rng_nm":25,"alt_fmsl":165,"id":"BAB","desc":"BEALE TACAN"},
{"type":"NDB","hdg_t":135.3,"dist_nm":33,"freq":400,"lat":38.61701700,"lon":-121.60329700,"rng_nm":25,"alt_fmsl":15,"id":"HU","desc":"LANEE NDB"},
{"type":"VOR","hdg_t":122.1,"dist_nm":38.4,"freq":109.2,"lat":38.66738889,"lon":-121.40416667,"rng_nm":25,"alt_fmsl":72,"id":"MCC","desc":"MC CLELLAN VOR-DME"},
{"type":"VOR","hdg_t":161.2,"dist_nm":42.1,"freq":116.4,"lat":38.34419444,"lon":-121.81072222,"rng_nm":40,"alt_fmsl":0,"id":"TZZ","desc":"TRAVIS VOR"},
{"type":"VOR","hdg_t":142.8,"dist_nm":42.5,"freq":115.2,"lat":38.44366667,"lon":-121.55161111,"rng_nm":130,"alt_fmsl":10,"id":"SAC","desc":"SACRAMENTO VORTAC"},
{"type":"VOR","hdg_t":228.2,"dist_nm":45,"freq":113,"lat":38.50816667,"lon":-122.81047222,"rng_nm":40,"alt_fmsl":117,"id":"STS","desc":"SANTA ROSA VOR-DME"},
{"type":"SDME","hdg_t":171,"dist_nm":46.4,"freq":116.6,"lat":38.24555800,"lon":-121.94507200,"rng_nm":40,"alt_fmsl":32,"id":"SUU","desc":"TRAVIS TACAN"},
{"type":"VOR","hdg_t":13.9,"dist_nm":48.1,"freq":109.8,"lat":39.78983333,"lon":-121.84719444,"rng_nm":25,"alt_fmsl":215,"id":"CIC","desc":"CHICO VOR-DME"},
{"type":"VOR","hdg_t":194.6,"dist_nm":51.5,"freq":112.1,"lat":38.17936111,"lon":-122.37313889,"rng_nm":40,"alt_fmsl":6,"id":"SGD","desc":"SCAGGS ISLAND VORTAC"},
{"type":"VOR","hdg_t":273,"dist_nm":55,"freq":112.3,"lat":39.05322222,"lon":-123.27419444,"rng_nm":130,"alt_fmsl":2980,"id":"ENI","desc":"MENDOCINO VORTAC"},
{"type":"NDB","hdg_t":286.9,"dist_nm":55.6,"freq":371,"lat":39.27586111,"lon":-123.24041667,"rng_nm":50,"alt_fmsl":0,"id":"UK","desc":"KEARN NDB"},
{"type":"NDB","hdg_t":176.9,"dist_nm":57.8,"freq":335,"lat":38.04641667,"lon":-122.03344444,"rng_nm":50,"alt_fmsl":0,"id":"CC","desc":"KANAN NDB"},
{"type":"VOR","hdg_t":177.5,"dist_nm":57.9,"freq":117,"lat":38.04491667,"lon":-122.04519444,"rng_nm":25,"alt_fmsl":5,"id":"CCR","desc":"CONCORD VOR-DME"},
{"type":"VOR","hdg_t":104.7,"dist_nm":65.4,"freq":115.5,"lat":38.72472222,"lon":-120.74925000,"rng_nm":40,"alt_fmsl":2583,"id":"HNW","desc":"HANGTOWN VOR-DME"},
{"type":"VOR","hdg_t":354.4,"dist_nm":65.5,"freq":115.7,"lat":40.09891667,"lon":-122.23636111,"rng_nm":130,"alt_fmsl":322,"id":"RBL","desc":"RED BLUFF VORTAC"},
{"type":"NDB","hdg_t":354.4,"dist_nm":66.4,"freq":338,"lat":40.11388889,"lon":-122.23744444,"rng_nm":50,"alt_fmsl":0,"id":"PBT","desc":"PROBERTA NDB"},
{"type":"VOR","hdg_t":213.2,"dist_nm":66.5,"freq":113.7,"lat":38.07975000,"lon":-122.86783333,"rng_nm":130,"alt_fmsl":1340,"id":"PYE","desc":"POINT REYES VORTAC"},
{"type":"VOR","hdg_t":196.2,"dist_nm":72.1,"freq":116.2,"lat":37.85533333,"lon":-122.52275000,"rng_nm":40,"alt_fmsl":1040,"id":"SAU","desc":"SAUSALITO VORTAC"},
{"type":"VOR","hdg_t":137.1,"dist_nm":76.1,"freq":114.8,"lat":38.07458333,"lon":-121.00386111,"rng_nm":130,"alt_fmsl":260,"id":"LIN","desc":"LINDEN VORTAC"},
{"type":"VOR","hdg_t":184.4,"dist_nm":77.2,"freq":116.8,"lat":37.72591667,"lon":-122.22358333,"rng_nm":130,"alt_fmsl":10,"id":"OAK","desc":"OAKLAND VORTAC"},
{"type":"NDB","hdg_t":165.9,"dist_nm":81.4,"freq":374,"lat":37.69222222,"lon":-121.68408333,"rng_nm":50,"alt_fmsl":0,"id":"LV","desc":"REIGA NDB"},
{"type":"VOR","hdg_t":147.9,"dist_nm":82.9,"freq":116,"lat":37.83361111,"lon":-121.17138889,"rng_nm":130,"alt_fmsl":47,"id":"ECA","desc":"MANTECA VOR-DME"},
{"type":"VOR","hdg_t":188.9,"dist_nm":84.4,"freq":115.8,"lat":37.61947222,"lon":-122.37388889,"rng_nm":40,"alt_fmsl":13,"id":"SFO","desc":"SAN FRANCISCO VOR-DME"},
{"type":"NDB","hdg_t":158.4,"dist_nm":84.8,"freq":203,"lat":37.69238889,"lon":-121.44463889,"rng_nm":50,"alt_fmsl":0,"id":"TCY","desc":"TRACY NDB"},
{"type":"VOR","hdg_t":82.6,"dist_nm":85.9,"freq":113.2,"lat":39.18033333,"lon":-120.26961111,"rng_nm":40,"alt_fmsl":8850,"id":"SWR","desc":"SQUAW VALLEY VOR-DME"},
{"type":"VOR","hdg_t":354.3,"dist_nm":89.9,"freq":108.4,"lat":40.50455556,"lon":-122.29169444,"rng_nm":25,"alt_fmsl":490,"id":"RDD","desc":"REDDING VOR-DME"},
{"type":"SDME","hdg_t":178.8,"dist_nm":94.6,"freq":117.6,"lat":37.43240300,"lon":-122.05753900,"rng_nm":25,"alt_fmsl":0,"id":"NUQ","desc":"MOFFETT TACAN"},
{"type":"VOR","hdg_t":185.1,"dist_nm":97.3,"freq":113.9,"lat":37.39250000,"lon":-122.28130556,"rng_nm":40,"alt_fmsl":2270,"id":"OSI","desc":"WOODSIDE VORTAC"},
{"type":"VOR","hdg_t":175.7,"dist_nm":98.3,"freq":114.1,"lat":37.37472222,"lon":-121.94466667,"rng_nm":40,"alt_fmsl":43,"id":"SJC","desc":"SAN JOSE VOR-DME"},
{"type":"VOR","hdg_t":146.6,"dist_nm":98.8,"freq":114.6,"lat":37.62736111,"lon":-120.95786111,"rng_nm":130,"alt_fmsl":93,"id":"MOD","desc":"MODESTO VOR-DME"}
]
}
