{"success":true,"source":"xp2csv.pl","last_updated":"2013/11/08 14:53:21 UTC"
,"icao":"2F1","name":"Shamrock Muni","lat":35.235972,"lon":-100.184722,"rwys":1,"ils":0,"index":1302347,"path":"w110n30/w101n35"
,"runways":[
{"len_m":1078,"wid_m":18.29,"hdg":180,"surf":"Asphalt","rwy1":"17","lat1":35.24083300,"lon1":-100.18472200,"rwy2":"35","lat2":35.23111100,"lon2":-100.18472200}
]
,"radios":[
{"type":"CTAF","freq":122.8,"desc":"CTAF/UNICOM"}
]
,"navaids":[
{"type":"VOR","hdg_t":76.2,"dist_nm":27.7,"freq":115.2,"lat":35.34516667,"lon":-99.63536111,"rng_nm":40,"alt_fmsl":1990,"id":"SYO","desc":"SAYRE VORTAC"},
{"type":"NDB","hdg_t":299.9,"dist_nm":45.5,"freq":368,"lat":35.61272222,"lon":-100.99194444,"rng_nm":50,"alt_fmsl":0,"id":"PPA","desc":"PAMPA NDB"},
{"type":"VOR","hdg_t":89.6,"dist_nm":48,"freq":110,"lat":35.23694444,"lon":-99.20616667,"rng_nm":25,"alt_fmsl":1780,"id":"BFV","desc":"BURNS FLAT VORTAC"},
{"type":"NDB","hdg_t":74.7,"dist_nm":49.9,"freq":393,"lat":35.45066667,"lon":-99.20147222,"rng_nm":50,"alt_fmsl":0,"id":"BZ","desc":"FOSSI NDB"},
{"type":"VOR","hdg_t":185.6,"dist_nm":52.1,"freq":117.6,"lat":34.36905556,"lon":-100.28902778,"rng_nm":40,"alt_fmsl":1920,"id":"CDS","desc":"CHILDRESS VORTAC"},
{"type":"VOR","hdg_t":127,"dist_nm":56.6,"freq":109.8,"lat":34.66275000,"lon":-99.27097222,"rng_nm":40,"alt_fmsl":1370,"id":"LTS","desc":"ALTUS VORTAC"},
{"type":"VOR","hdg_t":111.5,"dist_nm":59.5,"freq":111.8,"lat":34.86655556,"lon":-99.06338889,"rng_nm":40,"alt_fmsl":1472,"id":"HBR","desc":"HOBART VORTAC"},
{"type":"NDB","hdg_t":73.1,"dist_nm":63.9,"freq":320,"lat":35.53921700,"lon":-98.93508300,"rng_nm":25,"alt_fmsl":1605,"id":"CLK","desc":"CLINTON NDB"},
{"type":"VOR","hdg_t":300.6,"dist_nm":67.8,"freq":108.6,"lat":35.80708333,"lon":-101.38213889,"rng_nm":40,"alt_fmsl":3130,"id":"BGD","desc":"BORGER VORTAC"},
{"type":"VOR","hdg_t":12.5,"dist_nm":68,"freq":115.6,"lat":36.34372222,"lon":-99.88011111,"rng_nm":130,"alt_fmsl":2430,"id":"MMB","desc":"MITBEE VORTAC"},
{"type":"VOR","hdg_t":270.3,"dist_nm":74.4,"freq":116.6,"lat":35.23505556,"lon":-101.69902778,"rng_nm":130,"alt_fmsl":3595,"id":"PNH","desc":"PANHANDLE VORTAC"},
{"type":"NDB","hdg_t":143.2,"dist_nm":75.2,"freq":230,"lat":34.22608333,"lon":-99.27936111,"rng_nm":50,"alt_fmsl":0,"id":"VRT","desc":"WILBARGER NDB"},
{"type":"NDB","hdg_t":338.8,"dist_nm":75.6,"freq":266,"lat":36.41233333,"lon":-100.74775000,"rng_nm":50,"alt_fmsl":0,"id":"PYX","desc":"PERRYTON NDB"},
{"type":"NDB","hdg_t":76.2,"dist_nm":76.3,"freq":272,"lat":35.53005200,"lon":-98.67062900,"rng_nm":25,"alt_fmsl":1581,"id":"OJA","desc":"WEATHERFORD NDB"},
{"type":"NDB","hdg_t":23.9,"dist_nm":78.6,"freq":329,"lat":36.43431500,"lon":-99.52416800,"rng_nm":25,"alt_fmsl":2167,"id":"OWU","desc":"WEST WOODWARD NDB"},
{"type":"NDB","hdg_t":131.4,"dist_nm":79.3,"freq":222,"lat":34.35383900,"lon":-98.98647800,"rng_nm":25,"alt_fmsl":1255,"id":"FDR","desc":"FREDERICK NDB"},
{"type":"NDB","hdg_t":266.6,"dist_nm":79.8,"freq":251,"lat":35.14647222,"lon":-101.80555556,"rng_nm":50,"alt_fmsl":0,"id":"AM","desc":"PANDE NDB"},
{"type":"VOR","hdg_t":184.9,"dist_nm":87.6,"freq":114.5,"lat":33.77827778,"lon":-100.33619444,"rng_nm":40,"alt_fmsl":1940,"id":"GTH","desc":"GUTHRIE VORTAC"},
{"type":"NDB","hdg_t":106.7,"dist_nm":91.9,"freq":388,"lat":34.78138889,"lon":-98.40230556,"rng_nm":50,"alt_fmsl":0,"id":"OFZ","desc":"TRAIL NDB"},
{"type":"NDB","hdg_t":65.9,"dist_nm":93.9,"freq":359,"lat":35.86198600,"lon":-98.42535000,"rng_nm":25,"alt_fmsl":1530,"id":"JWG","desc":"WATONGA NDB"},
{"type":"NDB","hdg_t":112.6,"dist_nm":95.5,"freq":308,"lat":34.60885200,"lon":-98.40377500,"rng_nm":25,"alt_fmsl":0,"id":"PFL","desc":"POST NDB"},
{"type":"NDB","hdg_t":112.6,"dist_nm":95.5,"freq":425,"lat":34.60886111,"lon":-98.40377778,"rng_nm":50,"alt_fmsl":0,"id":"PFL","desc":"POST NDB"},
{"type":"VOR","hdg_t":116.3,"dist_nm":98,"freq":109.4,"lat":34.49616667,"lon":-98.41308333,"rng_nm":40,"alt_fmsl":1104,"id":"LAW","desc":"LAWTON VOR-DME"}
]
}
