{"success":true,"source":"xp2csv.pl","last_updated":"2013/11/08 14:53:21 UTC"
,"icao":"2IL5","name":"Sutton","lat":37.93421277,"lon":-88.23170612,"rwys":1,"ils":0,"index":1499131,"path":"w090n30/w089n37"
,"runways":[
{"len_m":702,"wid_m":21.34,"hdg":60,"surf":"Turf/grass","rwy1":"06","lat1":37.93263556,"lon1":-88.23516974,"rwy2":"24","lat2":37.93578998,"lon2":-88.22824250}
]
,"navaids":[
{"type":"NDB","hdg_t":29,"dist_nm":10.9,"freq":332,"lat":38.09350000,"lon":-88.11963889,"rng_nm":50,"alt_fmsl":0,"id":"CUL","desc":"CARMI NDB"},
{"type":"NDB","hdg_t":243.8,"dist_nm":16.6,"freq":230,"lat":37.81158333,"lon":-88.54533333,"rng_nm":50,"alt_fmsl":0,"id":"HSB","desc":"HARRISBURG-RALEIG NDB"},
{"type":"VOR","hdg_t":90.7,"dist_nm":22.2,"freq":113.3,"lat":37.92833333,"lon":-87.76238889,"rng_nm":130,"alt_fmsl":384,"id":"PXV","desc":"POCKET CITY VORTAC"},
{"type":"NDB","hdg_t":342.5,"dist_nm":28,"freq":257,"lat":38.38005556,"lon":-88.40977778,"rng_nm":50,"alt_fmsl":0,"id":"FWC","desc":"WAYNE CO NDB"},
{"type":"VOR","hdg_t":11.7,"dist_nm":33.7,"freq":116.6,"lat":38.48519444,"lon":-88.08580556,"rng_nm":40,"alt_fmsl":540,"id":"SAM","desc":"SAMSVILLE VOR-DME"},
{"type":"NDB","hdg_t":78.9,"dist_nm":33.8,"freq":284,"lat":38.04013889,"lon":-87.53094444,"rng_nm":50,"alt_fmsl":0,"id":"PDW","desc":"EVANSVILLE NDB"},
{"type":"NDB","hdg_t":261,"dist_nm":35.5,"freq":382,"lat":37.83916667,"lon":-88.97077778,"rng_nm":50,"alt_fmsl":0,"id":"MW","desc":"JONNY NDB"},
{"type":"VOR","hdg_t":313.4,"dist_nm":37.4,"freq":113.8,"lat":38.36194444,"lon":-88.80733333,"rng_nm":40,"alt_fmsl":558,"id":"VNN","desc":"MT VERNON VOR-DME"},
{"type":"VOR","hdg_t":254,"dist_nm":38.6,"freq":110.4,"lat":37.75425000,"lon":-89.01166667,"rng_nm":40,"alt_fmsl":468,"id":"MWA","desc":"MARION VOR-DME"},
{"type":"NDB","hdg_t":72.6,"dist_nm":39.2,"freq":219,"lat":38.12672222,"lon":-87.44072222,"rng_nm":50,"alt_fmsl":0,"id":"EV","desc":"VICCI NDB"},
{"type":"NDB","hdg_t":346.7,"dist_nm":45.2,"freq":353,"lat":38.66893600,"lon":-88.45310300,"rng_nm":25,"alt_fmsl":472,"id":"FOA","desc":"ELM RIVER NDB"},
{"type":"NDB","hdg_t":3.3,"dist_nm":47,"freq":272,"lat":38.71811111,"lon":-88.17280556,"rng_nm":50,"alt_fmsl":0,"id":"OLY","desc":"OLNEY NDB"},
{"type":"NDB","hdg_t":30.3,"dist_nm":47.1,"freq":524,"lat":38.61175000,"lon":-87.72550000,"rng_nm":50,"alt_fmsl":0,"id":"AJG","desc":"MOUNT CARMEL NDB"},
{"type":"NDB","hdg_t":265.7,"dist_nm":48.2,"freq":388,"lat":37.87025000,"lon":-89.24552778,"rng_nm":50,"alt_fmsl":0,"id":"MD","desc":"CABBI NDB"},
{"type":"NDB","hdg_t":204,"dist_nm":51.6,"freq":254,"lat":37.14550000,"lon":-88.67047222,"rng_nm":50,"alt_fmsl":0,"id":"BDD","desc":"BELLGRADE NDB"},
{"type":"VOR","hdg_t":102.3,"dist_nm":51.9,"freq":108.6,"lat":37.74355556,"lon":-87.16597222,"rng_nm":25,"alt_fmsl":401,"id":"OWB","desc":"OWENSBORO VOR-DME"},
{"type":"VOR","hdg_t":303.8,"dist_nm":52.6,"freq":115,"lat":38.42000000,"lon":-89.15900000,"rng_nm":130,"alt_fmsl":546,"id":"ENL","desc":"CENTRALIA VORTAC"},
{"type":"NDB","hdg_t":109,"dist_nm":53.9,"freq":341,"lat":37.63561111,"lon":-87.16222222,"rng_nm":50,"alt_fmsl":0,"id":"OW","desc":"HIGUY NDB"},
{"type":"NDB","hdg_t":320.9,"dist_nm":54.9,"freq":400,"lat":38.64402778,"lon":-88.96736111,"rng_nm":50,"alt_fmsl":0,"id":"SLO","desc":"SALEM NDB"},
{"type":"NDB","hdg_t":34.9,"dist_nm":55.4,"freq":251,"lat":38.69075000,"lon":-87.55577778,"rng_nm":50,"alt_fmsl":0,"id":"OEA","desc":"VINCENNES NDB"},
{"type":"VOR","hdg_t":125.3,"dist_nm":56.7,"freq":109.8,"lat":37.38241667,"lon":-87.26369444,"rng_nm":40,"alt_fmsl":450,"id":"CCT","desc":"CENTRAL CITY VORTAC"},
{"type":"VOR","hdg_t":30.4,"dist_nm":58.1,"freq":108.8,"lat":38.76986111,"lon":-87.60383333,"rng_nm":25,"alt_fmsl":430,"id":"LWV","desc":"LAWRENCEVILLE VOR-DME"},
{"type":"VOR","hdg_t":348.7,"dist_nm":60.2,"freq":109,"lat":38.92036111,"lon":-88.48180556,"rng_nm":40,"alt_fmsl":540,"id":"BIB","desc":"BIBLE GROVE VORTAC"},
{"type":"VOR","hdg_t":207.7,"dist_nm":62.5,"freq":113.1,"lat":37.00861111,"lon":-88.83691667,"rng_nm":40,"alt_fmsl":480,"id":"CNG","desc":"CUNNINGHAM VORTAC"},
{"type":"VOR","hdg_t":72.1,"dist_nm":63.3,"freq":109.2,"lat":38.25050000,"lon":-86.95619444,"rng_nm":25,"alt_fmsl":517,"id":"HNB","desc":"HUNTINGBURG VOR-DME"},
{"type":"NDB","hdg_t":129.3,"dist_nm":66.4,"freq":362,"lat":37.22700000,"lon":-87.15916667,"rng_nm":50,"alt_fmsl":0,"id":"GMH","desc":"MUHLENBERG NDB"},
{"type":"NDB","hdg_t":48.3,"dist_nm":69.1,"freq":212,"lat":38.69605556,"lon":-87.13261111,"rng_nm":50,"alt_fmsl":0,"id":"DCY","desc":"WASHINGTON NDB"},
{"type":"NDB","hdg_t":23,"dist_nm":70.4,"freq":391,"lat":39.01408333,"lon":-87.64161111,"rng_nm":50,"alt_fmsl":0,"id":"PLX","desc":"PALESTINE NDB"},
{"type":"NDB","hdg_t":222.4,"dist_nm":70.5,"freq":397,"lat":37.06172222,"lon":-89.22341667,"rng_nm":50,"alt_fmsl":0,"id":"CIR","desc":"CAIRO NDB"},
{"type":"VOR","hdg_t":22.7,"dist_nm":70.5,"freq":108.4,"lat":39.01763889,"lon":-87.64883333,"rng_nm":25,"alt_fmsl":452,"id":"RSV","desc":"CRAWFORD CO VOR-DME"},
{"type":"NDB","hdg_t":280.7,"dist_nm":70.8,"freq":239,"lat":38.14532800,"lon":-89.70232200,"rng_nm":25,"alt_fmsl":532,"id":"SAR","desc":"SPARTA NDB"},
{"type":"NDB","hdg_t":182.2,"dist_nm":72.7,"freq":368,"lat":36.72065556,"lon":-88.28996111,"rng_nm":15,"alt_fmsl":0,"id":"EU","desc":"MUREY NDB"},
{"type":"NDB","hdg_t":85.7,"dist_nm":73.2,"freq":206,"lat":38.01416667,"lon":-86.69019444,"rng_nm":50,"alt_fmsl":0,"id":"TEL","desc":"TELL CITY NDB"},
{"type":"NDB","hdg_t":315.4,"dist_nm":76.1,"freq":233,"lat":38.83421400,"lon":-89.37230000,"rng_nm":25,"alt_fmsl":539,"id":"GRE","desc":"GREENVILLE NDB"},
{"type":"NDB","hdg_t":145.6,"dist_nm":76.2,"freq":356,"lat":36.88063889,"lon":-87.33758333,"rng_nm":50,"alt_fmsl":0,"id":"HIX","desc":"HONEY GROVE NDB"},
{"type":"VOR","hdg_t":236.8,"dist_nm":76.6,"freq":112.9,"lat":37.22752778,"lon":-89.57238889,"rng_nm":40,"alt_fmsl":340,"id":"CGI","desc":"CAPE GIRARDEAU VOR-DME"},
{"type":"NDB","hdg_t":295,"dist_nm":78.3,"freq":385,"lat":38.47800000,"lon":-89.73786111,"rng_nm":50,"alt_fmsl":0,"id":"JD","desc":"GOOEY NDB"},
{"type":"NDB","hdg_t":294.2,"dist_nm":78.8,"freq":362,"lat":38.46475000,"lon":-89.75640300,"rng_nm":25,"alt_fmsl":419,"id":"BL","desc":"BELLEVILLE NDB"},
{"type":"NDB","hdg_t":27.3,"dist_nm":79.7,"freq":326,"lat":39.11355556,"lon":-87.44680556,"rng_nm":50,"alt_fmsl":0,"id":"SIV","desc":"SULLIVAN NDB"},
{"type":"NDB","hdg_t":240.2,"dist_nm":81,"freq":248,"lat":37.25341667,"lon":-89.70061111,"rng_nm":50,"alt_fmsl":0,"id":"CG","desc":"DUTCH NDB"},
{"type":"NDB","hdg_t":151.1,"dist_nm":81.7,"freq":273,"lat":36.73700000,"lon":-87.41386111,"rng_nm":50,"alt_fmsl":0,"id":"FK","desc":"AIRBE NDB"},
{"type":"VOR","hdg_t":328,"dist_nm":82.1,"freq":114.3,"lat":39.09369444,"lon":-89.16247222,"rng_nm":40,"alt_fmsl":604,"id":"VLA","desc":"VANDALIA VORTAC"},
{"type":"NDB","hdg_t":7.4,"dist_nm":82.8,"freq":359,"lat":39.30522222,"lon":-88.00194444,"rng_nm":50,"alt_fmsl":0,"id":"CZB","desc":"CASEY NDB"},
{"type":"SDME","hdg_t":154.6,"dist_nm":83.2,"freq":114.9,"lat":36.67643300,"lon":-87.49186400,"rng_nm":40,"alt_fmsl":572,"id":"HXW","desc":"SCREAMING EAGLE TACAN"},
{"type":"NDB","hdg_t":219.8,"dist_nm":84.5,"freq":208,"lat":36.84505556,"lon":-89.35675000,"rng_nm":50,"alt_fmsl":0,"id":"CHQ","desc":"CHARLESTON NDB"},
{"type":"SDME","hdg_t":296,"dist_nm":84.8,"freq":112.2,"lat":38.54536700,"lon":-89.85164700,"rng_nm":25,"alt_fmsl":482,"id":"SKE","desc":"SCOTT TACAN"},
{"type":"VOR","hdg_t":153.2,"dist_nm":87.8,"freq":110.6,"lat":36.62197222,"lon":-87.41266667,"rng_nm":25,"alt_fmsl":538,"id":"CKV","desc":"CLARKSVILLE VOR-DME"},
{"type":"NDB","hdg_t":65.6,"dist_nm":88,"freq":368,"lat":38.52783300,"lon":-86.52779400,"rng_nm":25,"alt_fmsl":615,"id":"RRJ","desc":"ORANJ NDB"},
{"type":"NDB","hdg_t":225.8,"dist_nm":89.4,"freq":272,"lat":36.88781100,"lon":-89.56478600,"rng_nm":25,"alt_fmsl":350,"id":"SIK","desc":"SIKESTON NDB"},
{"type":"NDB","hdg_t":1.7,"dist_nm":90.4,"freq":347,"lat":39.44241667,"lon":-88.17347222,"rng_nm":50,"alt_fmsl":0,"id":"MT","desc":"ZEBRE NDB"},
{"type":"VOR","hdg_t":358.4,"dist_nm":92.5,"freq":109.4,"lat":39.47800000,"lon":-88.28605556,"rng_nm":40,"alt_fmsl":720,"id":"MTO","desc":"MATTOON VOR-DME"},
{"type":"NDB","hdg_t":342.1,"dist_nm":92.8,"freq":365,"lat":39.40669444,"lon":-88.84369444,"rng_nm":50,"alt_fmsl":0,"id":"SYZ","desc":"SHELBYVILLE NDB"},
{"type":"VOR","hdg_t":301.7,"dist_nm":93.1,"freq":116,"lat":38.73916667,"lon":-89.91863889,"rng_nm":40,"alt_fmsl":570,"id":"TOY","desc":"TROY VORTAC"},
{"type":"NDB","hdg_t":292.6,"dist_nm":93.2,"freq":350,"lat":38.51991667,"lon":-90.05902778,"rng_nm":50,"alt_fmsl":0,"id":"CP","desc":"ACORE NDB"},
{"type":"NDB","hdg_t":154,"dist_nm":93.5,"freq":335,"lat":36.52711111,"lon":-87.38672222,"rng_nm":50,"alt_fmsl":0,"id":"CK","desc":"SNUFF NDB"},
{"type":"VOR","hdg_t":90.8,"dist_nm":94.3,"freq":108.2,"lat":37.89405556,"lon":-86.24452778,"rng_nm":40,"alt_fmsl":0,"id":"MYS","desc":"MYSTIC VOR"},
{"type":"NDB","hdg_t":23.9,"dist_nm":95.5,"freq":245,"lat":39.38783333,"lon":-87.39769444,"rng_nm":50,"alt_fmsl":0,"id":"HU","desc":"YINNO NDB"},
{"type":"VOR","hdg_t":261.2,"dist_nm":96.4,"freq":115.7,"lat":37.67347222,"lon":-90.23405556,"rng_nm":130,"alt_fmsl":1222,"id":"FAM","desc":"FARMINGTON VORTAC"},
{"type":"NDB","hdg_t":304.9,"dist_nm":97.5,"freq":218,"lat":38.85500000,"lon":-89.93805556,"rng_nm":50,"alt_fmsl":0,"id":"AL","desc":"ALPOS NDB"}
]
}
