{"success":true,"source":"xp2csv.pl","last_updated":"2013/11/08 14:53:21 UTC"
,"icao":"2M8","name":"Charles W Baker","lat":35.2784463333333,"lon":-89.9330926666667,"rwys":3,"ils":0,"index":1482576,"path":"w090n30/w090n35"
,"runways":[
{"len_m":1066,"wid_m":22.86,"hdg":184,"surf":"Asphalt","rwy1":"18","lat1":35.28382867,"lon1":-89.93096942,"rwy2":"36","lat2":35.27424533,"lon2":-89.93186858},
{"len_m":1066,"wid_m":22.86,"hdg":184,"surf":"Asphalt","rwy1":"18L","lat1":35.28382800,"lon1":-89.93096900,"rwy2":"36R","lat2":35.27424200,"lon2":-89.93186900},
{"len_m":486,"wid_m":22.86,"hdg":181,"surf":"Asphalt","rwy1":"18R","lat1":35.27946063,"lon1":-89.93636964,"rwy2":"36L","lat2":35.27507337,"lon2":-89.93651036}
]
,"radios":[
{"type":"CTAF","freq":122.8,"desc":"CTAF/UNICOM"},
{"type":"APP","freq":125.8,"desc":"MEMPHIS APP"},
{"type":"DEP","freq":124.15,"desc":"MEMPHIS DEP"}
]
,"navaids":[
{"type":"NDB","hdg_t":3.3,"dist_nm":0.1,"freq":232,"lat":35.28050000,"lon":-89.93294444,"rng_nm":50,"alt_fmsl":0,"id":"MIG","desc":"MILLINGTON NDB"},
{"type":"NDB","hdg_t":231.4,"dist_nm":7.4,"freq":414,"lat":35.20119444,"lon":-90.05119444,"rng_nm":50,"alt_fmsl":0,"id":"SPQ","desc":"SPAIN NDB"},
{"type":"NDB","hdg_t":88.2,"dist_nm":12.8,"freq":265,"lat":35.28468900,"lon":-89.67139200,"rng_nm":25,"alt_fmsl":308,"id":"LHC","desc":"LOOSAHATCHIE NDB"},
{"type":"VOR","hdg_t":188.9,"dist_nm":15.9,"freq":117.5,"lat":35.01511111,"lon":-89.98322222,"rng_nm":130,"alt_fmsl":360,"id":"MEM","desc":"MEMPHIS VORTAC"},
{"type":"NDB","hdg_t":158.3,"dist_nm":19.2,"freq":275,"lat":34.97980800,"lon":-89.78875000,"rng_nm":25,"alt_fmsl":401,"id":"OLV","desc":"OLIVE BRANCH NDB"},
{"type":"NDB","hdg_t":42.1,"dist_nm":25.1,"freq":326,"lat":35.58966667,"lon":-89.58733333,"rng_nm":50,"alt_fmsl":0,"id":"COO","desc":"COVINGTON NDB"},
{"type":"NDB","hdg_t":99.1,"dist_nm":26.9,"freq":255,"lat":35.20558333,"lon":-89.39277778,"rng_nm":50,"alt_fmsl":0,"id":"FYE","desc":"SOMERVILLE NDB"},
{"type":"VOR","hdg_t":278.8,"dist_nm":27,"freq":113,"lat":35.34702778,"lon":-90.47816667,"rng_nm":40,"alt_fmsl":211,"id":"GQE","desc":"GILMORE VOR-DME"},
{"type":"VOR","hdg_t":144.6,"dist_nm":37.2,"freq":112.4,"lat":34.77025000,"lon":-89.49650000,"rng_nm":40,"alt_fmsl":630,"id":"HLI","desc":"HOLLY SPRINGS VORTAC"},
{"type":"VOR","hdg_t":359.4,"dist_nm":40.2,"freq":111.8,"lat":35.95097222,"lon":-89.94105556,"rng_nm":40,"alt_fmsl":0,"id":"GOJ","desc":"GOSNELL VOR"},
{"type":"NDB","hdg_t":94.7,"dist_nm":43.9,"freq":404,"lat":35.21433333,"lon":-89.04213889,"rng_nm":50,"alt_fmsl":0,"id":"BAV","desc":"HARDEMAN NDB"},
{"type":"VOR","hdg_t":318.2,"dist_nm":48,"freq":108.6,"lat":35.87491667,"lon":-90.58850000,"rng_nm":25,"alt_fmsl":247,"id":"JBR","desc":"JONESBORO VOR-DME"},
{"type":"NDB","hdg_t":73.1,"dist_nm":49.9,"freq":394,"lat":35.51577778,"lon":-88.95697222,"rng_nm":50,"alt_fmsl":0,"id":"MK","desc":"MERSY NDB"},
{"type":"VOR","hdg_t":33.9,"dist_nm":53.5,"freq":116.8,"lat":36.01855556,"lon":-89.31769444,"rng_nm":40,"alt_fmsl":380,"id":"DYR","desc":"DYERSBURG VORTAC"},
{"type":"VOR","hdg_t":68.4,"dist_nm":53.7,"freq":112,"lat":35.60355556,"lon":-88.91041667,"rng_nm":25,"alt_fmsl":410,"id":"MKL","desc":"MC KELLAR VOR-DME"},
{"type":"NDB","hdg_t":329.1,"dist_nm":54.8,"freq":383,"lat":36.06277778,"lon":-90.51102778,"rng_nm":50,"alt_fmsl":0,"id":"PGR","desc":"PARAGOULD NDB"},
{"type":"NDB","hdg_t":164,"dist_nm":55.6,"freq":426,"lat":34.38508333,"lon":-89.62597222,"rng_nm":50,"alt_fmsl":0,"id":"UV","desc":"TUNNG NDB"},
{"type":"VOR","hdg_t":221.1,"dist_nm":55.7,"freq":109.6,"lat":34.57505556,"lon":-90.67438889,"rng_nm":40,"alt_fmsl":241,"id":"UJM","desc":"MARVELL VOR-DME"},
{"type":"NDB","hdg_t":221,"dist_nm":56,"freq":251,"lat":34.57121100,"lon":-90.67594200,"rng_nm":25,"alt_fmsl":0,"id":"HEE","desc":"THOMPSON ROBBINS NDB"},
{"type":"NDB","hdg_t":289.9,"dist_nm":64.9,"freq":400,"lat":35.64202200,"lon":-91.18068100,"rng_nm":25,"alt_fmsl":237,"id":"EWP","desc":"NEWPORT NDB"},
{"type":"NDB","hdg_t":195.8,"dist_nm":65,"freq":391,"lat":34.23297200,"lon":-90.28978900,"rng_nm":25,"alt_fmsl":160,"id":"MMS","desc":"MARKS NDB"},
{"type":"NDB","hdg_t":103.2,"dist_nm":66.7,"freq":334,"lat":35.01552778,"lon":-88.61569444,"rng_nm":50,"alt_fmsl":0,"id":"UU","desc":"SEYER NDB"},
{"type":"NDB","hdg_t":91.6,"dist_nm":69.6,"freq":386,"lat":35.23702778,"lon":-88.51600000,"rng_nm":50,"alt_fmsl":0,"id":"SZY","desc":"SIBLEY NDB"},
{"type":"VOR","hdg_t":315.2,"dist_nm":70.4,"freq":114.5,"lat":36.11002778,"lon":-90.95369444,"rng_nm":130,"alt_fmsl":302,"id":"ARG","desc":"WALNUT RIDGE VORTAC"},
{"type":"NDB","hdg_t":319.2,"dist_nm":73.7,"freq":227,"lat":36.20697222,"lon":-90.92311111,"rng_nm":50,"alt_fmsl":0,"id":"TNZ","desc":"LAWRENCE COUNTY NDB"},
{"type":"NDB","hdg_t":36.5,"dist_nm":76.3,"freq":212,"lat":36.29769444,"lon":-88.99486111,"rng_nm":50,"alt_fmsl":0,"id":"UC","desc":"OBION NDB"},
{"type":"VOR","hdg_t":0.7,"dist_nm":76.4,"freq":111.2,"lat":36.55511111,"lon":-89.91141667,"rng_nm":40,"alt_fmsl":280,"id":"MAW","desc":"MALDEN VORTAC"},
{"type":"VOR","hdg_t":75.5,"dist_nm":79.5,"freq":109.4,"lat":35.59900000,"lon":-88.35888889,"rng_nm":40,"alt_fmsl":630,"id":"JKS","desc":"JACKS CREEK VOR-DME"},
{"type":"NDB","hdg_t":177.9,"dist_nm":83.1,"freq":245,"lat":33.89111111,"lon":-89.87463889,"rng_nm":50,"alt_fmsl":0,"id":"SBQ","desc":"SCOBEY NDB"},
{"type":"VOR","hdg_t":138,"dist_nm":84.5,"freq":109.8,"lat":34.22386111,"lon":-88.79733333,"rng_nm":40,"alt_fmsl":360,"id":"OTB","desc":"TUPELO VOR-DME"},
{"type":"NDB","hdg_t":347.1,"dist_nm":85.5,"freq":278,"lat":36.66908333,"lon":-90.32838889,"rng_nm":50,"alt_fmsl":0,"id":"FD","desc":"EARLI NDB"},
{"type":"NDB","hdg_t":55.4,"dist_nm":86.5,"freq":217,"lat":36.08847222,"lon":-88.46686111,"rng_nm":50,"alt_fmsl":0,"id":"HZD","desc":"HUNTINGDON NDB"},
{"type":"NDB","hdg_t":138.4,"dist_nm":87.4,"freq":420,"lat":34.18038889,"lon":-88.76875000,"rng_nm":50,"alt_fmsl":0,"id":"TU","desc":"VERON NDB"},
{"type":"NDB","hdg_t":267.9,"dist_nm":88.5,"freq":323,"lat":35.21203100,"lon":-91.73263600,"rng_nm":25,"alt_fmsl":260,"id":"SRC","desc":"SEARCY NDB"},
{"type":"NDB","hdg_t":246.2,"dist_nm":89.6,"freq":269,"lat":34.66377778,"lon":-91.59044444,"rng_nm":50,"alt_fmsl":0,"id":"SGT","desc":"STUTTGART NDB"},
{"type":"NDB","hdg_t":240.8,"dist_nm":93.6,"freq":338,"lat":34.50580556,"lon":-91.58177778,"rng_nm":50,"alt_fmsl":0,"id":"TT","desc":"STUTT NDB"},
{"type":"NDB","hdg_t":51.4,"dist_nm":94.2,"freq":410,"lat":36.24955556,"lon":-88.41536111,"rng_nm":50,"alt_fmsl":0,"id":"TIQ","desc":"TRAINER NDB"},
{"type":"NDB","hdg_t":286.1,"dist_nm":94.8,"freq":335,"lat":35.70322222,"lon":-91.79769444,"rng_nm":50,"alt_fmsl":0,"id":"BV","desc":"ALMND NDB"},
{"type":"NDB","hdg_t":205.2,"dist_nm":97.2,"freq":272,"lat":33.80705556,"lon":-90.76261111,"rng_nm":50,"alt_fmsl":0,"id":"RNV","desc":"RENOVA NDB"},
{"type":"NDB","hdg_t":16.4,"dist_nm":97.9,"freq":208,"lat":36.84505556,"lon":-89.35675000,"rng_nm":50,"alt_fmsl":0,"id":"CHQ","desc":"CHARLESTON NDB"},
{"type":"NDB","hdg_t":10.4,"dist_nm":98,"freq":272,"lat":36.88781100,"lon":-89.56478600,"rng_nm":25,"alt_fmsl":350,"id":"SIK","desc":"SIKESTON NDB"}
]
}
