{"success":true,"source":"xp2csv.pl","last_updated":"2013/11/08 14:53:21 UTC"
,"icao":"2NA7","name":"Slater Farm","lat":48.02834111,"lon":-99.61652139,"rwys":1,"ils":0,"index":1319553,"path":"w100n40/w100n48"
,"runways":[
{"len_m":367,"wid_m":9.14,"hdg":89,"surf":"Dirt","rwy1":"08","lat1":48.02831239,"lon1":-99.61898196,"rwy2":"26","lat2":48.02836983,"lon2":-99.61406082}
]
,"navaids":[
{"type":"VOR","hdg_t":79.3,"dist_nm":28.8,"freq":111,"lat":48.11522222,"lon":-98.91250000,"rng_nm":40,"alt_fmsl":1448,"id":"DVL","desc":"DEVILS LAKE VOR-DME"},
{"type":"NDB","hdg_t":88.9,"dist_nm":32.7,"freq":332,"lat":48.03552778,"lon":-98.80383333,"rng_nm":50,"alt_fmsl":0,"id":"VK","desc":"VIKOR NDB"},
{"type":"VOR","hdg_t":282.3,"dist_nm":68.5,"freq":117.1,"lat":48.26033333,"lon":-101.28705556,"rng_nm":130,"alt_fmsl":1691,"id":"MOT","desc":"MINOT VORTAC"},
{"type":"SDME","hdg_t":288.9,"dist_nm":73.9,"freq":114.9,"lat":48.41537500,"lon":-101.36610600,"rng_nm":130,"alt_fmsl":1668,"id":"MIB","desc":"DEERING TACAN"},
{"type":"VOR","hdg_t":149.5,"dist_nm":76,"freq":114.5,"lat":46.93286111,"lon":-98.67877778,"rng_nm":40,"alt_fmsl":1493,"id":"JMS","desc":"JAMESTOWN VOR-DME"},
{"type":"NDB","hdg_t":148.5,"dist_nm":81.6,"freq":395,"lat":46.86286111,"lon":-98.58072222,"rng_nm":50,"alt_fmsl":0,"id":"JM","desc":"SABON NDB"},
{"type":"VOR","hdg_t":209.7,"dist_nm":87.2,"freq":116.5,"lat":46.76175000,"lon":-100.66541667,"rng_nm":40,"alt_fmsl":1853,"id":"BIS","desc":"BISMARCK VOR-DME"},
{"type":"SDME","hdg_t":91.9,"dist_nm":89.1,"freq":116.4,"lat":47.95716700,"lon":-97.40583300,"rng_nm":130,"alt_fmsl":951,"id":"RDR","desc":"RED RIVER TACAN"},
{"type":"NDB","hdg_t":208.1,"dist_nm":90.2,"freq":230,"lat":46.69808333,"lon":-100.64783333,"rng_nm":50,"alt_fmsl":0,"id":"BI","desc":"JADAN NDB"},
{"type":"VOR","hdg_t":91.6,"dist_nm":98,"freq":114.3,"lat":47.95483333,"lon":-97.18536111,"rng_nm":130,"alt_fmsl":841,"id":"GFK","desc":"GRAND FORKS VOR-DME"},
{"type":"NDB","hdg_t":95.4,"dist_nm":98.8,"freq":345,"lat":47.84638889,"lon":-97.18152778,"rng_nm":50,"alt_fmsl":0,"id":"GF","desc":"HISER NDB"}
]
}
