{"success":true,"source":"xp2csv.pl","last_updated":"2013/11/08 14:53:21 UTC"
,"icao":"2OR3","name":"Davidson Field","lat":44.794565,"lon":-123.09759584,"rwys":1,"ils":0,"index":926131,"path":"w130n40/w124n44"
,"runways":[
{"len_m":762,"wid_m":30.48,"hdg":148,"surf":"Turf/grass","rwy1":"13","lat1":44.79750399,"lon1":-123.10008433,"rwy2":"31","lat2":44.79162601,"lon2":-123.09510735}
]
,"navaids":[
{"type":"NDB","hdg_t":63,"dist_nm":7,"freq":266,"lat":44.84744444,"lon":-122.95102778,"rng_nm":50,"alt_fmsl":0,"id":"SL","desc":"TURNO NDB"},
{"type":"NDB","hdg_t":214.3,"dist_nm":13.1,"freq":225,"lat":44.61358333,"lon":-123.27066667,"rng_nm":50,"alt_fmsl":0,"id":"LWG","desc":"LEWISBURG NDB"},
{"type":"VOR","hdg_t":205.4,"dist_nm":19.5,"freq":115.4,"lat":44.49958333,"lon":-123.29366667,"rng_nm":130,"alt_fmsl":241,"id":"CVO","desc":"CORVALLIS VOR-DME"},
{"type":"NDB","hdg_t":6,"dist_nm":27.2,"freq":383,"lat":45.24613100,"lon":-123.02973600,"rng_nm":50,"alt_fmsl":159,"id":"MM","desc":"MINNE NDB"},
{"type":"NDB","hdg_t":25.2,"dist_nm":32.4,"freq":366,"lat":45.28339200,"lon":-122.77036400,"rng_nm":25,"alt_fmsl":157,"id":"PLV","desc":"PRAHL NDB"},
{"type":"VOR","hdg_t":8.5,"dist_nm":33.9,"freq":117.4,"lat":45.35322222,"lon":-122.97816667,"rng_nm":130,"alt_fmsl":1440,"id":"UBG","desc":"NEWBERG VOR-DME"},
{"type":"VOR","hdg_t":187.6,"dist_nm":40.7,"freq":112.9,"lat":44.12088889,"lon":-123.22283333,"rng_nm":130,"alt_fmsl":364,"id":"EUG","desc":"EUGENE VORTAC"},
{"type":"NDB","hdg_t":260.5,"dist_nm":41.9,"freq":350,"lat":44.67600000,"lon":-124.06511111,"rng_nm":50,"alt_fmsl":0,"id":"ON","desc":"AGGET NDB"},
{"type":"VOR","hdg_t":252.6,"dist_nm":43.2,"freq":117.1,"lat":44.57536111,"lon":-124.06058333,"rng_nm":130,"alt_fmsl":147,"id":"ONP","desc":"NEWPORT VORTAC"},
{"type":"NDB","hdg_t":2.4,"dist_nm":50.1,"freq":356,"lat":45.63027778,"lon":-123.04580556,"rng_nm":50,"alt_fmsl":0,"id":"PND","desc":"BANKS NDB"},
{"type":"SDME","hdg_t":23.2,"dist_nm":51.9,"freq":109.2,"lat":45.58863100,"lon":-122.61125300,"rng_nm":130,"alt_fmsl":22,"id":"CBU","desc":"COLUMBIA TACAN"},
{"type":"NDB","hdg_t":30.8,"dist_nm":52.2,"freq":332,"lat":45.54105556,"lon":-122.46233333,"rng_nm":50,"alt_fmsl":0,"id":"LBH","desc":"LAKER (LOM/NDB) NDB"},
{"type":"VOR","hdg_t":23.3,"dist_nm":52.2,"freq":111.8,"lat":45.59369444,"lon":-122.60627778,"rng_nm":40,"alt_fmsl":23,"id":"PDX","desc":"PORTLAND VOR-DME"},
{"type":"VOR","hdg_t":20.3,"dist_nm":61,"freq":116.6,"lat":45.74780556,"lon":-122.59152778,"rng_nm":130,"alt_fmsl":253,"id":"BTG","desc":"BATTLEGROUND VORTAC"},
{"type":"NDB","hdg_t":5.3,"dist_nm":82,"freq":256,"lat":46.15547222,"lon":-122.91263889,"rng_nm":50,"alt_fmsl":0,"id":"LSO","desc":"KELSO NDB"},
{"type":"NDB","hdg_t":345.8,"dist_nm":83.3,"freq":201,"lat":46.13952778,"lon":-123.58730556,"rng_nm":50,"alt_fmsl":0,"id":"PEN","desc":"KARPEN NDB"},
{"type":"VOR","hdg_t":112.2,"dist_nm":83.5,"freq":117.6,"lat":44.25275000,"lon":-121.30352778,"rng_nm":130,"alt_fmsl":4101,"id":"DSD","desc":"DESCHUTES VORTAC"},
{"type":"VOR","hdg_t":338.3,"dist_nm":88.4,"freq":114,"lat":46.16169444,"lon":-123.88036111,"rng_nm":40,"alt_fmsl":10,"id":"AST","desc":"ASTORIA VOR-DME"},
{"type":"NDB","hdg_t":107.3,"dist_nm":93.8,"freq":411,"lat":44.30797222,"lon":-121.01894444,"rng_nm":50,"alt_fmsl":0,"id":"RD","desc":"BODEY NDB"},
{"type":"NDB","hdg_t":186.9,"dist_nm":94.2,"freq":400,"lat":43.23525000,"lon":-123.35802778,"rng_nm":50,"alt_fmsl":0,"id":"RBG","desc":"ROSEBURG NDB"},
{"type":"VOR","hdg_t":209.6,"dist_nm":94.8,"freq":112.1,"lat":43.41550000,"lon":-124.16852778,"rng_nm":40,"alt_fmsl":707,"id":"OTH","desc":"NORTH BEND VORTAC"},
{"type":"VOR","hdg_t":186.5,"dist_nm":97.3,"freq":108.2,"lat":43.18241667,"lon":-123.35225000,"rng_nm":40,"alt_fmsl":1320,"id":"RBG","desc":"ROSEBURG VOR-DME"},
{"type":"NDB","hdg_t":212.3,"dist_nm":99,"freq":378,"lat":43.39444444,"lon":-124.31027778,"rng_nm":50,"alt_fmsl":0,"id":"OT","desc":"EMIRE NDB"}
]
}
