{"success":true,"source":"xp2csv.pl","last_updated":"2013/11/08 14:53:21 UTC"
,"icao":"2PA2","name":"Lehman","lat":41.31952472,"lon":-76.04436889,"rwys":1,"ils":0,"index":1695955,"path":"w080n40/w077n41"
,"runways":[
{"len_m":551,"wid_m":30.48,"hdg":148,"surf":"Turf/grass","rwy1":"16","lat1":41.32165255,"lon1":-76.04607124,"rwy2":"34","lat2":41.31739689,"lon2":-76.04266654}
]
,"navaids":[
{"type":"NDB","hdg_t":124.1,"dist_nm":11.6,"freq":410,"lat":41.21038889,"lon":-75.83183333,"rng_nm":50,"alt_fmsl":0,"id":"CYE","desc":"CRYSTAL LAKE NDB"},
{"type":"VOR","hdg_t":99.7,"dist_nm":16.2,"freq":111.6,"lat":41.27280556,"lon":-75.68947222,"rng_nm":40,"alt_fmsl":2119,"id":"LVZ","desc":"WILKES BARRE VORTAC"},
{"type":"VOR","hdg_t":190.1,"dist_nm":20.9,"freq":109.4,"lat":40.97508333,"lon":-76.12580556,"rng_nm":25,"alt_fmsl":0,"id":"HZL","desc":"HAZLETON VOR"},
{"type":"VOR","hdg_t":69.5,"dist_nm":27,"freq":110.8,"lat":41.47577778,"lon":-75.48263889,"rng_nm":40,"alt_fmsl":2320,"id":"LHY","desc":"LAKE HENRY VORTAC"},
{"type":"NDB","hdg_t":265.3,"dist_nm":30.2,"freq":344,"lat":41.27708333,"lon":-76.71013889,"rng_nm":50,"alt_fmsl":0,"id":"PIX","desc":"PICTURE ROCKS NDB"},
{"type":"VOR","hdg_t":272.2,"dist_nm":33,"freq":114.4,"lat":41.33855556,"lon":-76.77486111,"rng_nm":40,"alt_fmsl":2098,"id":"FQM","desc":"WILLIAMSPORT VOR-DME"},
{"type":"VOR","hdg_t":237.9,"dist_nm":33.2,"freq":109.2,"lat":41.02338889,"lon":-76.66530556,"rng_nm":40,"alt_fmsl":1000,"id":"MIP","desc":"MILTON VORTAC"},
{"type":"VOR","hdg_t":142.8,"dist_nm":44.5,"freq":117.5,"lat":40.72669444,"lon":-75.45475000,"rng_nm":40,"alt_fmsl":680,"id":"FJC","desc":"ALLENTOWN VORTAC"},
{"type":"VOR","hdg_t":159.5,"dist_nm":47.2,"freq":110.2,"lat":40.58102778,"lon":-75.68402778,"rng_nm":40,"alt_fmsl":742,"id":"ETX","desc":"EAST TEXAS VOR-DME"},
{"type":"NDB","hdg_t":8.2,"dist_nm":47.5,"freq":332,"lat":42.10475000,"lon":-75.89119444,"rng_nm":50,"alt_fmsl":0,"id":"BG","desc":"SMITE NDB"},
{"type":"VOR","hdg_t":230.5,"dist_nm":49.5,"freq":110.4,"lat":40.79083333,"lon":-76.88402778,"rng_nm":40,"alt_fmsl":620,"id":"SEG","desc":"SELINSGROVE VORTAC"},
{"type":"VOR","hdg_t":355.3,"dist_nm":50.4,"freq":112.2,"lat":42.15750000,"lon":-76.13647222,"rng_nm":40,"alt_fmsl":1583,"id":"CFB","desc":"BINGHAMTON VORTAC"},
{"type":"VOR","hdg_t":208.9,"dist_nm":52.4,"freq":114.6,"lat":40.55338889,"lon":-76.59938889,"rng_nm":40,"alt_fmsl":1750,"id":"RAV","desc":"RAVINE VORTAC"},
{"type":"VOR","hdg_t":36,"dist_nm":55.3,"freq":116.8,"lat":42.06305556,"lon":-75.31627778,"rng_nm":130,"alt_fmsl":2070,"id":"HNK","desc":"HANCOCK VOR-DME"},
{"type":"VOR","hdg_t":109.6,"dist_nm":56.6,"freq":109.6,"lat":40.99583333,"lon":-74.86902778,"rng_nm":40,"alt_fmsl":920,"id":"STW","desc":"STILLWATER VOR-DME"},
{"type":"NDB","hdg_t":203.7,"dist_nm":57.8,"freq":328,"lat":40.43591667,"lon":-76.55302778,"rng_nm":50,"alt_fmsl":0,"id":"BZJ","desc":"BELLGROVE NDB"},
{"type":"NDB","hdg_t":62.9,"dist_nm":59.6,"freq":359,"lat":41.76666667,"lon":-74.86072222,"rng_nm":50,"alt_fmsl":0,"id":"MS","desc":"MONGA NDB"},
{"type":"NDB","hdg_t":147.4,"dist_nm":63.5,"freq":208,"lat":40.42472222,"lon":-75.29777778,"rng_nm":50,"alt_fmsl":0,"id":"UKT","desc":"QUAKERTOWN NDB"},
{"type":"VOR","hdg_t":118.9,"dist_nm":63.6,"freq":114.2,"lat":40.79844444,"lon":-74.82183333,"rng_nm":40,"alt_fmsl":1050,"id":"BWZ","desc":"BROADWAY VOR-DME"},
{"type":"NDB","hdg_t":329.8,"dist_nm":63.8,"freq":245,"lat":42.23866667,"lon":-76.76394444,"rng_nm":50,"alt_fmsl":0,"id":"ALP","desc":"ALPINE NDB"},
{"type":"VOR","hdg_t":316.8,"dist_nm":64,"freq":109.65,"lat":42.09416667,"lon":-77.02480556,"rng_nm":40,"alt_fmsl":1632,"id":"ULW","desc":"ELMIRA VOR-DME"},
{"type":"VOR","hdg_t":148,"dist_nm":65.4,"freq":108.85,"lat":40.39090800,"lon":-75.28876700,"rng_nm":25,"alt_fmsl":552,"id":"CKZ","desc":"PENNRIDGE VOR-DME"},
{"type":"VOR","hdg_t":84.8,"dist_nm":65.8,"freq":116.1,"lat":41.40969444,"lon":-74.59158333,"rng_nm":130,"alt_fmsl":1300,"id":"HUO","desc":"HUGUENOT VOR-DME"},
{"type":"VOR","hdg_t":290.4,"dist_nm":65.9,"freq":108.6,"lat":41.69525000,"lon":-77.41991667,"rng_nm":40,"alt_fmsl":1985,"id":"SFK","desc":"STONYFORK VOR-DME"},
{"type":"NDB","hdg_t":347.8,"dist_nm":68.1,"freq":266,"lat":42.43005556,"lon":-76.36797222,"rng_nm":50,"alt_fmsl":0,"id":"IT","desc":"VRNAH NDB"},
{"type":"VOR","hdg_t":161.2,"dist_nm":69.3,"freq":116.5,"lat":40.22227778,"lon":-75.56027778,"rng_nm":40,"alt_fmsl":290,"id":"PTW","desc":"POTTSTOWN VORTAC"},
{"type":"VOR","hdg_t":101.9,"dist_nm":69.8,"freq":115.7,"lat":41.06755556,"lon":-74.53830556,"rng_nm":130,"alt_fmsl":1400,"id":"SAX","desc":"SPARTA VORTAC"},
{"type":"VOR","hdg_t":43.1,"dist_nm":70.9,"freq":112.1,"lat":42.17827778,"lon":-74.95694444,"rng_nm":40,"alt_fmsl":2560,"id":"DNY","desc":"DELANCEY VOR-DME"},
{"type":"NDB","hdg_t":144.2,"dist_nm":72.4,"freq":237,"lat":40.33566100,"lon":-75.12211700,"rng_nm":5,"alt_fmsl":394,"id":"DYL","desc":"DOYLESTOWN NDB"},
{"type":"VOR","hdg_t":188.9,"dist_nm":72.8,"freq":117.3,"lat":40.11997222,"lon":-76.29130556,"rng_nm":40,"alt_fmsl":399,"id":"LRP","desc":"LANCASTER VORTAC"},
{"type":"VOR","hdg_t":345.3,"dist_nm":72.9,"freq":111.8,"lat":42.49502778,"lon":-76.46000000,"rng_nm":40,"alt_fmsl":1102,"id":"ITH","desc":"ITHACA VOR-DME"},
{"type":"VOR","hdg_t":126.2,"dist_nm":73.8,"freq":112.9,"lat":40.58305556,"lon":-74.74180556,"rng_nm":40,"alt_fmsl":190,"id":"SBJ","desc":"SOLBERG VOR-DME"},
{"type":"NDB","hdg_t":211.5,"dist_nm":75.2,"freq":204,"lat":40.24638889,"lon":-76.90063889,"rng_nm":50,"alt_fmsl":0,"id":"MD","desc":"ENOLA NDB"},
{"type":"VOR","hdg_t":217.7,"dist_nm":76.8,"freq":112.5,"lat":40.30225000,"lon":-77.06955556,"rng_nm":40,"alt_fmsl":1301,"id":"HAR","desc":"HARRISBURG VORTAC"},
{"type":"VOR","hdg_t":27.4,"dist_nm":77.6,"freq":112.6,"lat":42.46636111,"lon":-75.23930556,"rng_nm":40,"alt_fmsl":2027,"id":"RKA","desc":"ROCKDALE VOR-DME"},
{"type":"NDB","hdg_t":153.9,"dist_nm":79.5,"freq":275,"lat":40.12594444,"lon":-75.28516667,"rng_nm":50,"alt_fmsl":0,"id":"ING","desc":"AMBLER NDB"},
{"type":"NDB","hdg_t":83.9,"dist_nm":79.5,"freq":353,"lat":41.44488889,"lon":-74.29113889,"rng_nm":50,"alt_fmsl":0,"id":"MG","desc":"OTIMS NDB"},
{"type":"NDB","hdg_t":252.8,"dist_nm":80.7,"freq":388,"lat":40.91030556,"lon":-77.74175000,"rng_nm":50,"alt_fmsl":0,"id":"UN","desc":"PENUE NDB"},
{"type":"NDB","hdg_t":114.8,"dist_nm":81.1,"freq":254,"lat":40.74077778,"lon":-74.42988889,"rng_nm":50,"alt_fmsl":0,"id":"CAT","desc":"CHATHAM NDB"},
{"type":"VOR","hdg_t":140.6,"dist_nm":82.2,"freq":108.2,"lat":40.25333333,"lon":-74.90761111,"rng_nm":40,"alt_fmsl":300,"id":"ARD","desc":"YARDLEY VOR-DME"},
{"type":"NDB","hdg_t":82.4,"dist_nm":82.6,"freq":335,"lat":41.48608333,"lon":-74.22791667,"rng_nm":50,"alt_fmsl":0,"id":"SW","desc":"NEELY NDB"},
{"type":"NDB","hdg_t":141.4,"dist_nm":84.4,"freq":369,"lat":40.21263889,"lon":-74.89916667,"rng_nm":50,"alt_fmsl":0,"id":"TT","desc":"TRENN NDB"},
{"type":"VOR","hdg_t":168.3,"dist_nm":85.7,"freq":113.2,"lat":39.91805556,"lon":-75.67080556,"rng_nm":40,"alt_fmsl":473,"id":"MXE","desc":"MODENA VORTAC"},
{"type":"VOR","hdg_t":278.2,"dist_nm":87.6,"freq":113.9,"lat":41.51275000,"lon":-77.97011111,"rng_nm":130,"alt_fmsl":2320,"id":"SLT","desc":"SLATE RUN VORTAC"},
{"type":"VOR","hdg_t":147.1,"dist_nm":87.9,"freq":112,"lat":40.08205556,"lon":-75.00955556,"rng_nm":25,"alt_fmsl":0,"id":"PNE","desc":"NORTH PHILADELPHI VOR"},
{"type":"VOR","hdg_t":6.2,"dist_nm":88.6,"freq":117.8,"lat":42.78894444,"lon":-75.82675000,"rng_nm":40,"alt_fmsl":2040,"id":"GGT","desc":"GEORGETOWN VORTAC"},
{"type":"NDB","hdg_t":31.6,"dist_nm":89.4,"freq":279,"lat":42.58466667,"lon":-74.98636111,"rng_nm":50,"alt_fmsl":0,"id":"OZ","desc":"KRING NDB"},
{"type":"NDB","hdg_t":81.4,"dist_nm":91.1,"freq":261,"lat":41.52800000,"lon":-74.04497222,"rng_nm":50,"alt_fmsl":0,"id":"SKU","desc":"STANWYCK NDB"},
{"type":"NDB","hdg_t":330.6,"dist_nm":91.4,"freq":260,"lat":42.64397222,"lon":-77.05613889,"rng_nm":50,"alt_fmsl":0,"id":"PYA","desc":"PENN YAN NDB"},
{"type":"VOR","hdg_t":255.3,"dist_nm":91.6,"freq":115.5,"lat":40.91625000,"lon":-77.99272222,"rng_nm":130,"alt_fmsl":2440,"id":"PSB","desc":"PHILIPSBURG VORTAC"},
{"type":"NDB","hdg_t":108.9,"dist_nm":92.1,"freq":214,"lat":40.80444444,"lon":-74.13250000,"rng_nm":50,"alt_fmsl":0,"id":"TE","desc":"TORBY NDB"},
{"type":"NDB","hdg_t":204.6,"dist_nm":92.1,"freq":254,"lat":39.92002778,"lon":-76.87755556,"rng_nm":50,"alt_fmsl":0,"id":"EUD","desc":"YORK NDB"},
{"type":"NDB","hdg_t":117.2,"dist_nm":93.2,"freq":241,"lat":40.59366700,"lon":-74.23000000,"rng_nm":25,"alt_fmsl":0,"id":"EW","desc":"CHESA NDB"},
{"type":"NDB","hdg_t":116.6,"dist_nm":93.3,"freq":373,"lat":40.60733300,"lon":-74.21797200,"rng_nm":25,"alt_fmsl":10,"id":"EZ","desc":"LIZAH NDB"},
{"type":"VOR","hdg_t":106.7,"dist_nm":94.2,"freq":108.4,"lat":40.84872222,"lon":-74.06225000,"rng_nm":25,"alt_fmsl":10,"id":"TEB","desc":"TETERBORO VOR-DME"},
{"type":"NDB","hdg_t":80,"dist_nm":95,"freq":403,"lat":41.57512800,"lon":-73.96484400,"rng_nm":25,"alt_fmsl":9,"id":"PO","desc":"MEIER NDB"},
{"type":"VOR","hdg_t":266.9,"dist_nm":95.1,"freq":116,"lat":41.21494444,"lon":-78.14275000,"rng_nm":130,"alt_fmsl":2250,"id":"ETG","desc":"KEATING VORTAC"},
{"type":"NDB","hdg_t":152.6,"dist_nm":95.4,"freq":222,"lat":39.90123100,"lon":-75.09486400,"rng_nm":25,"alt_fmsl":0,"id":"PD","desc":"SPEEZ NDB"},
{"type":"NDB","hdg_t":258.8,"dist_nm":97.1,"freq":275,"lat":40.98613889,"lon":-78.14252778,"rng_nm":50,"alt_fmsl":0,"id":"PS","desc":"PORTS NDB"},
{"type":"VOR","hdg_t":132.9,"dist_nm":97.3,"freq":113.8,"lat":40.20238889,"lon":-74.49502778,"rng_nm":130,"alt_fmsl":248,"id":"RBV","desc":"ROBBINSVILLE VORTAC"},
{"type":"VOR","hdg_t":298.3,"dist_nm":99.2,"freq":111.4,"lat":42.08963889,"lon":-77.99955556,"rng_nm":40,"alt_fmsl":2296,"id":"ELZ","desc":"WELLSVILLE VORTAC"}
]
}
