{"success":true,"source":"xp2csv.pl","last_updated":"2013/11/08 14:53:21 UTC"
,"icao":"2S0","name":"Twisp Municipal","lat":48.35042277,"lon":-120.09396834,"rwys":1,"ils":0,"index":975507,"path":"w130n40/w121n48"
,"runways":[
{"len_m":822,"wid_m":10.97,"hdg":119,"surf":"Asphalt","rwy1":"10","lat1":48.35226742,"lon1":-120.09877599,"rwy2":"28","lat2":48.34857812,"lon2":-120.08916069}
]
,"navaids":[
{"type":"NDB","hdg_t":74.7,"dist_nm":23.8,"freq":219,"lat":48.45338889,"lon":-119.51700000,"rng_nm":50,"alt_fmsl":0,"id":"OMK","desc":"OMAK NDB"},
{"type":"VOR","hdg_t":184.7,"dist_nm":57.2,"freq":111,"lat":47.39969444,"lon":-120.21086111,"rng_nm":40,"alt_fmsl":1224,"id":"EAT","desc":"WENATCHEE VOR-DME"},
{"type":"VOR","hdg_t":349.9,"dist_nm":62.9,"freq":113.9,"lat":49.38155556,"lon":-120.37377778,"rng_nm":130,"alt_fmsl":5329,"id":"YDC","desc":"PRINCETON VOR-DME"},
{"type":"NDB","hdg_t":19,"dist_nm":63.1,"freq":356,"lat":49.34250000,"lon":-119.56888889,"rng_nm":50,"alt_fmsl":0,"id":"ON","desc":"OKANAGAN NDB"},
{"type":"VOR","hdg_t":154.8,"dist_nm":64.3,"freq":112.6,"lat":47.37791667,"lon":-119.42400000,"rng_nm":130,"alt_fmsl":1250,"id":"EPH","desc":"EPHRATA VORTAC"},
{"type":"SDME","hdg_t":16.1,"dist_nm":68.9,"freq":110.3,"lat":49.45250000,"lon":-119.60361100,"rng_nm":25,"alt_fmsl":1114,"id":"XYF","desc":"PENTICTON DME"},
{"type":"NDB","hdg_t":346.1,"dist_nm":69.2,"freq":326,"lat":49.46944444,"lon":-120.51675000,"rng_nm":50,"alt_fmsl":0,"id":"DC","desc":"PRINCETON NDB"},
{"type":"NDB","hdg_t":15.7,"dist_nm":71,"freq":290,"lat":49.48772222,"lon":-119.60152778,"rng_nm":50,"alt_fmsl":0,"id":"YYF","desc":"PENTICTON NDB"},
{"type":"VOR","hdg_t":155,"dist_nm":75.2,"freq":115,"lat":47.21086111,"lon":-119.31680556,"rng_nm":130,"alt_fmsl":1194,"id":"MWH","desc":"MOSES LAKE VOR-DME"},
{"type":"NDB","hdg_t":14.3,"dist_nm":77.3,"freq":312,"lat":49.59716667,"lon":-119.60263889,"rng_nm":50,"alt_fmsl":0,"id":"UNT","desc":"NARAMATA (PENTICT NDB"},
{"type":"NDB","hdg_t":58.2,"dist_nm":77.5,"freq":250,"lat":49.01750000,"lon":-118.42361111,"rng_nm":50,"alt_fmsl":0,"id":"2J","desc":"GRAND FORKS NDB"},
{"type":"VOR","hdg_t":190.6,"dist_nm":80.9,"freq":117.9,"lat":47.02436111,"lon":-120.45841667,"rng_nm":130,"alt_fmsl":1770,"id":"ELN","desc":"ELLENSBURG VORTAC"},
{"type":"NDB","hdg_t":155.5,"dist_nm":81.2,"freq":408,"lat":47.11572222,"lon":-119.27450000,"rng_nm":50,"alt_fmsl":0,"id":"MW","desc":"PELLY NDB"},
{"type":"NDB","hdg_t":320.2,"dist_nm":81.5,"freq":245,"lat":49.38652778,"lon":-121.42416667,"rng_nm":50,"alt_fmsl":0,"id":"HE","desc":"HOPE NDB"},
{"type":"NDB","hdg_t":259.5,"dist_nm":84.2,"freq":382,"lat":48.07611111,"lon":-122.15391667,"rng_nm":50,"alt_fmsl":0,"id":"AW","desc":"WATON NDB"},
{"type":"NDB","hdg_t":298.1,"dist_nm":87.5,"freq":214,"lat":49.02166667,"lon":-122.05000000,"rng_nm":50,"alt_fmsl":0,"id":"LU","desc":"CULTUS NDB"},
{"type":"NDB","hdg_t":11.6,"dist_nm":89.5,"freq":389,"lat":49.81055069,"lon":-119.63054657,"rng_nm":25,"alt_fmsl":1129,"id":"YWB","desc":"WESTBANK NDB"},
{"type":"VOR","hdg_t":254.4,"dist_nm":91.4,"freq":110.6,"lat":47.91983333,"lon":-122.27783333,"rng_nm":40,"alt_fmsl":670,"id":"PAE","desc":"PAINE VOR-DME"},
{"type":"NDB","hdg_t":275.2,"dist_nm":93.1,"freq":240,"lat":48.46861111,"lon":-122.41841667,"rng_nm":50,"alt_fmsl":0,"id":"BVS","desc":"SKAGIT/BAY VIEW NDB"},
{"type":"NDB","hdg_t":16.2,"dist_nm":99.5,"freq":374,"lat":49.93972200,"lon":-119.37555600,"rng_nm":25,"alt_fmsl":1409,"id":"EX","desc":"RUTLAND NDB"},
{"type":"NDB","hdg_t":239.8,"dist_nm":99.7,"freq":353,"lat":47.49544444,"lon":-122.21472222,"rng_nm":50,"alt_fmsl":0,"id":"RNT","desc":"RENTON NDB"}
]
}
