{"success":true,"source":"xp2csv.pl","last_updated":"2013/11/08 14:53:21 UTC"
,"icao":"2WA8","name":"Kramer Ranch","lat":47.38166666,"lon":-118.29666667,"rwys":1,"ils":0,"index":1008218,"path":"w120n40/w119n47"
,"runways":[
{"len_m":915,"wid_m":18.29,"hdg":39,"surf":"Gravel","rwy1":"02","lat1":47.37846912,"lon1":-118.30049074,"rwy2":"20","lat2":47.38486420,"lon2":-118.29284260}
]
,"navaids":[
{"type":"SDME","hdg_t":61.7,"dist_nm":29.2,"freq":111.4,"lat":47.61069400,"lon":-117.66230300,"rng_nm":40,"alt_fmsl":2460,"id":"SKA","desc":"FAIRCHILD TACAN"},
{"type":"VOR","hdg_t":67.7,"dist_nm":29.3,"freq":115.5,"lat":47.56494444,"lon":-117.62688889,"rng_nm":130,"alt_fmsl":2756,"id":"GEG","desc":"SPOKANE VORTAC"},
{"type":"NDB","hdg_t":62.4,"dist_nm":38.7,"freq":388,"lat":47.67700000,"lon":-117.45019444,"rng_nm":50,"alt_fmsl":0,"id":"CRK","desc":"CANYON NDB"},
{"type":"VOR","hdg_t":256.5,"dist_nm":42.9,"freq":115,"lat":47.21086111,"lon":-119.31680556,"rng_nm":130,"alt_fmsl":1194,"id":"MWH","desc":"MOSES LAKE VOR-DME"},
{"type":"NDB","hdg_t":248.5,"dist_nm":43,"freq":408,"lat":47.11572222,"lon":-119.27450000,"rng_nm":50,"alt_fmsl":0,"id":"MW","desc":"PELLY NDB"},
{"type":"VOR","hdg_t":270.1,"dist_nm":45.9,"freq":112.6,"lat":47.37791667,"lon":-119.42400000,"rng_nm":130,"alt_fmsl":1250,"id":"EPH","desc":"EPHRATA VORTAC"},
{"type":"NDB","hdg_t":44.7,"dist_nm":49.8,"freq":365,"lat":47.96775000,"lon":-117.42633333,"rng_nm":50,"alt_fmsl":0,"id":"DPY","desc":"DEER PARK NDB"},
{"type":"NDB","hdg_t":67.7,"dist_nm":58.4,"freq":347,"lat":47.74286111,"lon":-116.96100000,"rng_nm":50,"alt_fmsl":0,"id":"LEN","desc":"POST FALLS NDB"},
{"type":"VOR","hdg_t":133.5,"dist_nm":61.1,"freq":109,"lat":46.67430556,"lon":-117.22350000,"rng_nm":40,"alt_fmsl":2720,"id":"PUW","desc":"PULLMAN VOR-DME"},
{"type":"VOR","hdg_t":68,"dist_nm":64.4,"freq":108.8,"lat":47.77369444,"lon":-116.82058333,"rng_nm":25,"alt_fmsl":2320,"id":"COE","desc":"COEUR D'ALENE VOR-DME"},
{"type":"NDB","hdg_t":205.4,"dist_nm":69.2,"freq":331,"lat":46.33813889,"lon":-119.01252778,"rng_nm":50,"alt_fmsl":0,"id":"PS","desc":"DUNEZ NDB"},
{"type":"NDB","hdg_t":213.4,"dist_nm":72.4,"freq":260,"lat":46.37047222,"lon":-119.25911111,"rng_nm":50,"alt_fmsl":0,"id":"RL","desc":"RIBOO NDB"},
{"type":"NDB","hdg_t":176.6,"dist_nm":72.5,"freq":353,"lat":46.17555556,"lon":-118.19636111,"rng_nm":50,"alt_fmsl":0,"id":"AL","desc":"TRINA NDB"},
{"type":"VOR","hdg_t":206.9,"dist_nm":75.1,"freq":108.4,"lat":46.26297222,"lon":-119.11572222,"rng_nm":40,"alt_fmsl":404,"id":"PSC","desc":"PASCO VOR-DME"},
{"type":"VOR","hdg_t":179.8,"dist_nm":77.7,"freq":116.4,"lat":46.08697222,"lon":-118.29252778,"rng_nm":40,"alt_fmsl":1179,"id":"ALW","desc":"WALLA WALLA VOR-DME"},
{"type":"VOR","hdg_t":271.4,"dist_nm":78,"freq":111,"lat":47.39969444,"lon":-120.21086111,"rng_nm":40,"alt_fmsl":1224,"id":"EAT","desc":"WENATCHEE VOR-DME"},
{"type":"NDB","hdg_t":323,"dist_nm":81,"freq":219,"lat":48.45338889,"lon":-119.51700000,"rng_nm":50,"alt_fmsl":0,"id":"OMK","desc":"OMAK NDB"},
{"type":"VOR","hdg_t":135.1,"dist_nm":83.9,"freq":108.2,"lat":46.38155556,"lon":-116.86950000,"rng_nm":40,"alt_fmsl":1723,"id":"MQG","desc":"NEZ PERCE VOR-DME"},
{"type":"NDB","hdg_t":23.6,"dist_nm":87.3,"freq":379,"lat":48.71019444,"lon":-117.41358333,"rng_nm":50,"alt_fmsl":0,"id":"ION","desc":"IONE NDB"},
{"type":"NDB","hdg_t":51.4,"dist_nm":88.8,"freq":264,"lat":48.29063889,"lon":-116.56322222,"rng_nm":50,"alt_fmsl":0,"id":"SZT","desc":"SANDPOE NDB"},
{"type":"VOR","hdg_t":257.1,"dist_nm":91,"freq":117.9,"lat":47.02436111,"lon":-120.45841667,"rng_nm":130,"alt_fmsl":1770,"id":"ELN","desc":"ELLENSBURG VORTAC"},
{"type":"NDB","hdg_t":357,"dist_nm":98.3,"freq":250,"lat":49.01750000,"lon":-118.42361111,"rng_nm":50,"alt_fmsl":0,"id":"2J","desc":"GRAND FORKS NDB"},
{"type":"NDB","hdg_t":239.6,"dist_nm":99.5,"freq":371,"lat":46.52563889,"lon":-120.37219444,"rng_nm":50,"alt_fmsl":0,"id":"YK","desc":"DONNY NDB"}
]
}
