{"success":true,"source":"xp2csv.pl","last_updated":"2013/11/08 14:53:21 UTC"
,"icao":"2WI2","name":"Shullsburg","lat":42.55694694,"lon":-90.22762639,"rwys":1,"ils":0,"index":1466659,"path":"w100n40/w091n42"
,"runways":[
{"len_m":488,"wid_m":91.44,"hdg":315,"surf":"Turf/grass","rwy1":"32","lat1":42.55536843,"lon1":-90.22555697,"rwy2":"14","lat2":42.55852545,"lon2":-90.22969581}
]
,"navaids":[
{"type":"NDB","hdg_t":0.1,"dist_nm":19.8,"freq":365,"lat":42.88805556,"lon":-90.22650000,"rng_nm":50,"alt_fmsl":0,"id":"MRJ","desc":"MINERAL POINT NDB"},
{"type":"NDB","hdg_t":229.7,"dist_nm":21.6,"freq":341,"lat":42.32300000,"lon":-90.59886111,"rng_nm":50,"alt_fmsl":0,"id":"DB","desc":"ZILOM NDB"},
{"type":"VOR","hdg_t":246.5,"dist_nm":23.3,"freq":115.8,"lat":42.40147222,"lon":-90.70908333,"rng_nm":130,"alt_fmsl":1051,"id":"DBQ","desc":"DUBUQUE VORTAC"},
{"type":"NDB","hdg_t":217.1,"dist_nm":37.9,"freq":386,"lat":42.05138600,"lon":-90.74095300,"rng_nm":25,"alt_fmsl":765,"id":"OQW","desc":"MAQUOKETA NDB"},
{"type":"VOR","hdg_t":5.3,"dist_nm":44.4,"freq":112.8,"lat":43.29436111,"lon":-90.13313889,"rng_nm":40,"alt_fmsl":1184,"id":"LNR","desc":"LONE ROCK VOR-DME"},
{"type":"VOR","hdg_t":138.2,"dist_nm":47.3,"freq":111.2,"lat":41.96563889,"lon":-89.52422222,"rng_nm":40,"alt_fmsl":840,"id":"PLL","desc":"POLO VOR-DME"},
{"type":"NDB","hdg_t":188.6,"dist_nm":48.8,"freq":517,"lat":41.75166667,"lon":-90.39050000,"rng_nm":50,"alt_fmsl":0,"id":"FN","desc":"HILLZ NDB"},
{"type":"NDB","hdg_t":51.7,"dist_nm":49.3,"freq":400,"lat":43.06275000,"lon":-89.34588889,"rng_nm":50,"alt_fmsl":0,"id":"MS","desc":"MONAH NDB"},
{"type":"VOR","hdg_t":89.5,"dist_nm":49.7,"freq":114.3,"lat":42.55800000,"lon":-89.10525000,"rng_nm":40,"alt_fmsl":931,"id":"JVL","desc":"JANESVILLE VOR-DME"},
{"type":"VOR","hdg_t":113.1,"dist_nm":49.8,"freq":110.8,"lat":42.22558333,"lon":-89.19927778,"rng_nm":40,"alt_fmsl":868,"id":"RFD","desc":"ROCKFORD VOR-DME"},
{"type":"VOR","hdg_t":192.7,"dist_nm":52.1,"freq":113.8,"lat":41.70855556,"lon":-90.48330556,"rng_nm":40,"alt_fmsl":767,"id":"CVA","desc":"DAVENPORT VORTAC"},
{"type":"NDB","hdg_t":85.8,"dist_nm":52.6,"freq":375,"lat":42.61511111,"lon":-89.04127778,"rng_nm":50,"alt_fmsl":0,"id":"JVL","desc":"JANESVILLE NDB"},
{"type":"VOR","hdg_t":47.7,"dist_nm":52.7,"freq":108.6,"lat":43.14483333,"lon":-89.33969444,"rng_nm":40,"alt_fmsl":857,"id":"MSN","desc":"MADISON VORTAC"},
{"type":"NDB","hdg_t":158.5,"dist_nm":54.4,"freq":254,"lat":41.71111111,"lon":-89.78561111,"rng_nm":50,"alt_fmsl":0,"id":"BOZ","desc":"WHITESIDE NDB"},
{"type":"NDB","hdg_t":200.4,"dist_nm":55.1,"freq":353,"lat":41.69486111,"lon":-90.65588889,"rng_nm":50,"alt_fmsl":0,"id":"DV","desc":"AUNEY NDB"},
{"type":"NDB","hdg_t":117.4,"dist_nm":56.8,"freq":275,"lat":42.11433333,"lon":-89.09872222,"rng_nm":50,"alt_fmsl":0,"id":"RF","desc":"GILMY NDB"},
{"type":"VOR","hdg_t":18.7,"dist_nm":63,"freq":117,"lat":43.55083333,"lon":-89.76361111,"rng_nm":130,"alt_fmsl":1022,"id":"DLL","desc":"DELLS VORTAC"},
{"type":"NDB","hdg_t":356,"dist_nm":66,"freq":251,"lat":43.65516667,"lon":-90.33308333,"rng_nm":50,"alt_fmsl":0,"id":"HBW","desc":"KICKAPOO NDB"},
{"type":"NDB","hdg_t":194.8,"dist_nm":68.7,"freq":215,"lat":41.44905556,"lon":-90.61847222,"rng_nm":50,"alt_fmsl":0,"id":"ML","desc":"MOLLI NDB"},
{"type":"VOR","hdg_t":307.3,"dist_nm":72.2,"freq":116.6,"lat":43.28008333,"lon":-91.53736111,"rng_nm":40,"alt_fmsl":1288,"id":"UKN","desc":"WAUKON VORTAC"},
{"type":"NDB","hdg_t":82.7,"dist_nm":72.8,"freq":404,"lat":42.69883333,"lon":-88.59316667,"rng_nm":50,"alt_fmsl":0,"id":"LVV","desc":"LAKE LAWN NDB"},
{"type":"NDB","hdg_t":60.3,"dist_nm":75.9,"freq":371,"lat":43.17366667,"lon":-88.72527778,"rng_nm":50,"alt_fmsl":0,"id":"RYV","desc":"ROCK RIVER NDB"},
{"type":"VOR","hdg_t":194,"dist_nm":76.3,"freq":114.4,"lat":41.32091667,"lon":-90.63822222,"rng_nm":40,"alt_fmsl":817,"id":"MZV","desc":"MOLINE VORTAC"},
{"type":"NDB","hdg_t":265.8,"dist_nm":76.7,"freq":206,"lat":42.45222222,"lon":-91.95100000,"rng_nm":50,"alt_fmsl":0,"id":"IIB","desc":"WAPSIE NDB"},
{"type":"NDB","hdg_t":118.3,"dist_nm":77.3,"freq":209,"lat":41.93402778,"lon":-88.70733333,"rng_nm":50,"alt_fmsl":0,"id":"DKB","desc":"DEKALB NDB"},
{"type":"NDB","hdg_t":276.2,"dist_nm":77.8,"freq":260,"lat":42.68413889,"lon":-91.97627778,"rng_nm":50,"alt_fmsl":0,"id":"OLZ","desc":"OELWEIN NDB"},
{"type":"NDB","hdg_t":303.3,"dist_nm":79.5,"freq":236,"lat":43.27523750,"lon":-91.74342080,"rng_nm":25,"alt_fmsl":1139,"id":"DEH","desc":"Decorah NDB"},
{"type":"VOR","hdg_t":240.4,"dist_nm":80.2,"freq":114.1,"lat":41.88755556,"lon":-91.78575000,"rng_nm":130,"alt_fmsl":876,"id":"CID","desc":"CEDAR RAPIDS VOR-DME"},
{"type":"NDB","hdg_t":227,"dist_nm":80.8,"freq":524,"lat":41.63201700,"lon":-91.54286100,"rng_nm":25,"alt_fmsl":648,"id":"UOC","desc":"HAWKEYE NDB"},
{"type":"NDB","hdg_t":240.6,"dist_nm":80.9,"freq":326,"lat":41.88566400,"lon":-91.80240600,"rng_nm":50,"alt_fmsl":0,"id":"CI","desc":"CINDY NDB"},
{"type":"VOR","hdg_t":210.3,"dist_nm":82.4,"freq":116.5,"lat":41.36638889,"lon":-91.14905556,"rng_nm":40,"alt_fmsl":540,"id":"DDD","desc":"PORT CITY VOR-DME"},
{"type":"NDB","hdg_t":318.4,"dist_nm":83,"freq":209,"lat":43.58691400,"lon":-91.49041800,"rng_nm":25,"alt_fmsl":1130,"id":"CHU","desc":"CALEDONIA NDB"},
{"type":"SDME","hdg_t":359,"dist_nm":83.1,"freq":110.4,"lat":43.94288300,"lon":-90.25901900,"rng_nm":40,"alt_fmsl":961,"id":"VOK","desc":"VOLK TACAN"},
{"type":"NDB","hdg_t":347.7,"dist_nm":84.8,"freq":412,"lat":43.93783333,"lon":-90.64186111,"rng_nm":50,"alt_fmsl":0,"id":"CMY","desc":"MC COY NDB"},
{"type":"NDB","hdg_t":51.5,"dist_nm":85.1,"freq":344,"lat":43.42900000,"lon":-88.70216667,"rng_nm":50,"alt_fmsl":0,"id":"UNU","desc":"JUNEAU NDB"},
{"type":"VOR","hdg_t":84,"dist_nm":85.6,"freq":114.5,"lat":42.68933333,"lon":-88.30177778,"rng_nm":25,"alt_fmsl":772,"id":"BUU","desc":"BURBUN VOR-DME"},
{"type":"NDB","hdg_t":145.8,"dist_nm":86.7,"freq":230,"lat":41.35475600,"lon":-89.14813900,"rng_nm":25,"alt_fmsl":652,"id":"VYS","desc":"VALLEY NDB"},
{"type":"VOR","hdg_t":225.3,"dist_nm":87.8,"freq":116.2,"lat":41.51897222,"lon":-91.61325000,"rng_nm":130,"alt_fmsl":770,"id":"IOW","desc":"IOWA CITY VORTAC"},
{"type":"VOR","hdg_t":160.8,"dist_nm":88.5,"freq":114.7,"lat":41.15972222,"lon":-89.58786111,"rng_nm":130,"alt_fmsl":810,"id":"BDF","desc":"BRADFORD VORTAC"},
{"type":"NDB","hdg_t":4,"dist_nm":88.8,"freq":233,"lat":44.03405600,"lon":-90.08263900,"rng_nm":25,"alt_fmsl":914,"id":"DAF","desc":"NECEDAH NDB"},
{"type":"VOR","hdg_t":330.6,"dist_nm":91,"freq":108.4,"lat":43.87611111,"lon":-91.25600000,"rng_nm":25,"alt_fmsl":650,"id":"LSE","desc":"LA CROSSE VOR-DME"},
{"type":"VOR","hdg_t":67.9,"dist_nm":92.1,"freq":116.4,"lat":43.11686111,"lon":-88.28433333,"rng_nm":130,"alt_fmsl":1080,"id":"BAE","desc":"BADGER VORTAC"},
{"type":"VOR","hdg_t":114.9,"dist_nm":92.7,"freq":108.4,"lat":41.89036111,"lon":-88.35016667,"rng_nm":40,"alt_fmsl":838,"id":"DPA","desc":"DUPAGE VOR-DME"},
{"type":"NDB","hdg_t":58.9,"dist_nm":93.6,"freq":200,"lat":43.34763889,"lon":-88.39522222,"rng_nm":50,"alt_fmsl":0,"id":"HXF","desc":"HARTFORD NDB"},
{"type":"NDB","hdg_t":138.9,"dist_nm":94.3,"freq":266,"lat":41.36252778,"lon":-88.85425000,"rng_nm":50,"alt_fmsl":0,"id":"OIX","desc":"OTTAWA NDB"},
{"type":"VOR","hdg_t":270.7,"dist_nm":96.2,"freq":112.2,"lat":42.55647222,"lon":-92.39894444,"rng_nm":130,"alt_fmsl":865,"id":"ALO","desc":"WATERLOO VORTAC"},
{"type":"NDB","hdg_t":300.7,"dist_nm":96.8,"freq":293,"lat":43.36602778,"lon":-92.13100000,"rng_nm":50,"alt_fmsl":0,"id":"CJJ","desc":"CRESCO NDB"},
{"type":"NDB","hdg_t":89.1,"dist_nm":97.4,"freq":389,"lat":42.56044444,"lon":-88.02877778,"rng_nm":50,"alt_fmsl":0,"id":"EN","desc":"CODEE NDB"},
{"type":"VOR","hdg_t":185.5,"dist_nm":97.5,"freq":109.8,"lat":40.93733333,"lon":-90.43447222,"rng_nm":25,"alt_fmsl":760,"id":"GBG","desc":"GALESBURG VOR-DME"},
{"type":"VOR","hdg_t":326.6,"dist_nm":97.8,"freq":117.9,"lat":43.91233333,"lon":-91.46752778,"rng_nm":130,"alt_fmsl":1282,"id":"ODI","desc":"NODINE VORTAC"},
{"type":"NDB","hdg_t":332.8,"dist_nm":97.9,"freq":272,"lat":44.00397222,"lon":-91.26066667,"rng_nm":50,"alt_fmsl":0,"id":"LS","desc":"MINDI NDB"},
{"type":"NDB","hdg_t":76.9,"dist_nm":98.9,"freq":242,"lat":42.90905556,"lon":-88.04097222,"rng_nm":50,"alt_fmsl":0,"id":"GM","desc":"TEELS NDB"}
]
}
