{"success":true,"source":"xp2csv.pl","last_updated":"2013/11/08 14:53:21 UTC"
,"icao":"2Z2","name":"Eureka Creek","lat":65.17591138,"lon":-150.22053862,"rwys":1,"ils":0,"index":485065,"path":"w160n60/w151n65"
,"runways":[
{"len_m":458,"wid_m":15.24,"hdg":186,"surf":"Dirt","rwy1":"16","lat1":65.17795735,"lon1":-150.22002642,"rwy2":"34","lat2":65.17386541,"lon2":-150.22105082}
]
,"navaids":[
{"type":"VOR","hdg_t":139.7,"dist_nm":45.8,"freq":115.8,"lat":64.59000000,"lon":-149.07286111,"rng_nm":130,"alt_fmsl":1600,"id":"ENN","desc":"NENANA VORTAC"},
{"type":"NDB","hdg_t":141.8,"dist_nm":47.9,"freq":525,"lat":64.54569444,"lon":-149.07688889,"rng_nm":50,"alt_fmsl":0,"id":"ICW","desc":"ICE POOL NDB"},
{"type":"VOR","hdg_t":270.9,"dist_nm":49.5,"freq":116.6,"lat":65.17713889,"lon":-152.17755556,"rng_nm":130,"alt_fmsl":390,"id":"TAL","desc":"TANANA VOR-DME"},
{"type":"NDB","hdg_t":270.7,"dist_nm":50.2,"freq":212,"lat":65.17388889,"lon":-152.20594444,"rng_nm":50,"alt_fmsl":0,"id":"BCC","desc":"BEAR CREEK NDB"},
{"type":"VOR","hdg_t":110.8,"dist_nm":60.6,"freq":108.6,"lat":64.80008333,"lon":-148.01197222,"rng_nm":130,"alt_fmsl":1525,"id":"FAI","desc":"FAIRBANKS VORTAC"},
{"type":"NDB","hdg_t":103.4,"dist_nm":66,"freq":510,"lat":64.89980556,"lon":-147.70666667,"rng_nm":50,"alt_fmsl":0,"id":"FA","desc":"WEARR NDB"},
{"type":"NDB","hdg_t":99.3,"dist_nm":68.2,"freq":356,"lat":64.96902778,"lon":-147.57994444,"rng_nm":50,"alt_fmsl":0,"id":"FOX","desc":"FOX NDB"},
{"type":"NDB","hdg_t":105,"dist_nm":72.3,"freq":257,"lat":64.83858333,"lon":-147.49508333,"rng_nm":50,"alt_fmsl":0,"id":"CUN","desc":"CHENA NDB"},
{"type":"SDME","hdg_t":110,"dist_nm":85.8,"freq":115.1,"lat":64.65383300,"lon":-147.09400000,"rng_nm":130,"alt_fmsl":528,"id":"EIL","desc":"EIELSON TACAN"},
{"type":"NDB","hdg_t":215.8,"dist_nm":94.8,"freq":227,"lat":63.88388889,"lon":-152.31650000,"rng_nm":50,"alt_fmsl":0,"id":"MHM","desc":"MINCHUMINA NDB"},
{"type":"NDB","hdg_t":354.3,"dist_nm":99.4,"freq":340,"lat":66.81883333,"lon":-150.63288889,"rng_nm":50,"alt_fmsl":0,"id":"PPC","desc":"PROSPECT NDB"},
{"type":"NDB","hdg_t":301.2,"dist_nm":99.5,"freq":272,"lat":65.99516667,"lon":-153.69375000,"rng_nm":50,"alt_fmsl":0,"id":"UTO","desc":"UTOPIA CREEK NDB"}
]
}
