{"success":true,"source":"xp2csv.pl","last_updated":"2013/11/08 14:53:21 UTC"
,"icao":"30A","name":"Meadowlake","lat":35.82368527,"lon":-84.53882278,"rwys":1,"ils":0,"index":1564529,"path":"w090n30/w085n35"
,"runways":[
{"len_m":793,"wid_m":12.19,"hdg":48,"surf":"Asphalt","rwy1":"05","lat1":35.82129923,"lon1":-84.54209102,"rwy2":"23","lat2":35.82607131,"lon2":-84.53555454}
]
,"navaids":[
{"type":"NDB","hdg_t":155.4,"dist_nm":18.3,"freq":361,"lat":35.54502778,"lon":-84.38300000,"rng_nm":50,"alt_fmsl":0,"id":"MNV","desc":"MADISONVILLE NDB"},
{"type":"VOR","hdg_t":263.3,"dist_nm":21.6,"freq":117.6,"lat":35.78100000,"lon":-84.97844444,"rng_nm":40,"alt_fmsl":3040,"id":"HCH","desc":"HINCH MOUNTAIN VORTAC"},
{"type":"NDB","hdg_t":102.1,"dist_nm":22.8,"freq":353,"lat":35.74222222,"lon":-84.08119444,"rng_nm":50,"alt_fmsl":0,"id":"TY","desc":"BENFI NDB"},
{"type":"NDB","hdg_t":182.4,"dist_nm":25.7,"freq":242,"lat":35.39458333,"lon":-84.56163889,"rng_nm":50,"alt_fmsl":0,"id":"MMI","desc":"MC MINN CO NDB"},
{"type":"NDB","hdg_t":223.2,"dist_nm":28,"freq":394,"lat":35.48191667,"lon":-84.93091667,"rng_nm":50,"alt_fmsl":0,"id":"DTE","desc":"MARK ANTON NDB"},
{"type":"VOR","hdg_t":81,"dist_nm":31.7,"freq":116.4,"lat":35.90483333,"lon":-83.89472222,"rng_nm":130,"alt_fmsl":1290,"id":"VXV","desc":"VOLUNTEER VORTAC"},
{"type":"NDB","hdg_t":30.7,"dist_nm":35.8,"freq":204,"lat":36.33783333,"lon":-84.16091667,"rng_nm":50,"alt_fmsl":0,"id":"JAU","desc":"JACKSBORO NDB"},
{"type":"NDB","hdg_t":4,"dist_nm":42.9,"freq":403,"lat":36.53947222,"lon":-84.47600000,"rng_nm":50,"alt_fmsl":0,"id":"BPO","desc":"PINEY GROVE NDB"},
{"type":"NDB","hdg_t":204.2,"dist_nm":43.9,"freq":369,"lat":35.15369444,"lon":-84.90577778,"rng_nm":50,"alt_fmsl":0,"id":"HDI","desc":"HARDWICK NDB"},
{"type":"NDB","hdg_t":217.7,"dist_nm":49.6,"freq":341,"lat":35.16655556,"lon":-85.15736111,"rng_nm":50,"alt_fmsl":0,"id":"CQN","desc":"DAISY NDB"},
{"type":"NDB","hdg_t":281.2,"dist_nm":51.9,"freq":233,"lat":35.98800000,"lon":-85.58627778,"rng_nm":50,"alt_fmsl":0,"id":"HEM","desc":"HUCHN NDB"},
{"type":"NDB","hdg_t":71.3,"dist_nm":54.5,"freq":346,"lat":36.11055556,"lon":-83.47563889,"rng_nm":50,"alt_fmsl":0,"id":"JXT","desc":"JEFFERSON NDB"},
{"type":"VOR","hdg_t":326.4,"dist_nm":54.8,"freq":108.4,"lat":36.58450000,"lon":-85.16661111,"rng_nm":40,"alt_fmsl":1020,"id":"LVT","desc":"LIVINGSTON VORTAC"},
{"type":"VOR","hdg_t":210.4,"dist_nm":59.8,"freq":115.8,"lat":34.96125000,"lon":-85.15336111,"rng_nm":130,"alt_fmsl":1015,"id":"GQO","desc":"CHOO CHOO VORTAC"},
{"type":"NDB","hdg_t":266.2,"dist_nm":59.9,"freq":209,"lat":35.75241667,"lon":-85.76413889,"rng_nm":50,"alt_fmsl":0,"id":"RN","desc":"WARRI NDB"},
{"type":"VOR","hdg_t":149.7,"dist_nm":60.9,"freq":109.8,"lat":34.94300000,"lon":-83.91569444,"rng_nm":40,"alt_fmsl":3660,"id":"HRS","desc":"HARRIS VORTAC"},
{"type":"NDB","hdg_t":279.1,"dist_nm":62.6,"freq":256,"lat":35.98400000,"lon":-85.80811111,"rng_nm":50,"alt_fmsl":0,"id":"SKN","desc":"HURRICANE NDB"},
{"type":"NDB","hdg_t":346.2,"dist_nm":63.7,"freq":290,"lat":36.85621100,"lon":-84.85294700,"rng_nm":25,"alt_fmsl":950,"id":"EKQ","desc":"ELK SPRING NDB"},
{"type":"NDB","hdg_t":197.9,"dist_nm":64.9,"freq":400,"lat":34.79133333,"lon":-84.94352778,"rng_nm":50,"alt_fmsl":0,"id":"UWI","desc":"WHITFIELD NDB"},
{"type":"NDB","hdg_t":228.5,"dist_nm":68.7,"freq":382,"lat":35.05963889,"lon":-85.58394444,"rng_nm":50,"alt_fmsl":0,"id":"APT","desc":"JASPER NDB"},
{"type":"NDB","hdg_t":354.4,"dist_nm":70.5,"freq":388,"lat":36.99622222,"lon":-84.68130556,"rng_nm":50,"alt_fmsl":0,"id":"CDX","desc":"CUMBERLAND RIVER NDB"},
{"type":"VOR","hdg_t":91.1,"dist_nm":72.5,"freq":108.8,"lat":35.79011111,"lon":-83.05236111,"rng_nm":40,"alt_fmsl":4239,"id":"SOT","desc":"SNOWBIRD VORTAC"},
{"type":"VOR","hdg_t":15.8,"dist_nm":75.3,"freq":116.1,"lat":37.03313889,"lon":-84.11008333,"rng_nm":40,"alt_fmsl":1245,"id":"LOZ","desc":"LONDON VORTAC"},
{"type":"NDB","hdg_t":76.4,"dist_nm":82.4,"freq":263,"lat":36.13588889,"lon":-82.89036111,"rng_nm":50,"alt_fmsl":0,"id":"DYQ","desc":"DULANEY NDB"},
{"type":"NDB","hdg_t":243.1,"dist_nm":84.3,"freq":263,"lat":35.17800000,"lon":-86.06816667,"rng_nm":50,"alt_fmsl":0,"id":"BGF","desc":"BOILING FORK NDB"},
{"type":"NDB","hdg_t":299.7,"dist_nm":84.7,"freq":245,"lat":36.51508333,"lon":-86.06097222,"rng_nm":50,"alt_fmsl":0,"id":"LFB","desc":"LAFAYETTE NDB"},
{"type":"NDB","hdg_t":255.8,"dist_nm":86,"freq":332,"lat":35.46158333,"lon":-86.24169444,"rng_nm":50,"alt_fmsl":0,"id":"ULH","desc":"BURWI NDB"},
{"type":"NDB","hdg_t":192.7,"dist_nm":87.3,"freq":323,"lat":34.40155556,"lon":-84.92652778,"rng_nm":50,"alt_fmsl":0,"id":"OUK","desc":"CALHOUN NDB"},
{"type":"VOR","hdg_t":252.8,"dist_nm":87.6,"freq":109.65,"lat":35.38041667,"lon":-86.24577778,"rng_nm":25,"alt_fmsl":0,"id":"UXM","desc":"TULLAHOMA RGNL VOR"},
{"type":"NDB","hdg_t":52.8,"dist_nm":88.6,"freq":252,"lat":36.70703300,"lon":-83.07405800,"rng_nm":25,"alt_fmsl":1670,"id":"LQV","desc":"LONG HOLLOW NDB"},
{"type":"NDB","hdg_t":64.2,"dist_nm":88.8,"freq":329,"lat":36.45594444,"lon":-82.88436111,"rng_nm":50,"alt_fmsl":0,"id":"RVN","desc":"ROGERSVILLE NDB"},
{"type":"NDB","hdg_t":284.8,"dist_nm":89.1,"freq":414,"lat":36.19216667,"lon":-86.31383333,"rng_nm":50,"alt_fmsl":0,"id":"JUE","desc":"LEBANON NDB"},
{"type":"NDB","hdg_t":275.8,"dist_nm":89.6,"freq":371,"lat":35.96125000,"lon":-86.37097222,"rng_nm":50,"alt_fmsl":0,"id":"FQW","desc":"WALTER HILL NDB"},
{"type":"VOR","hdg_t":137.5,"dist_nm":91,"freq":113.4,"lat":34.69586111,"lon":-83.29766667,"rng_nm":130,"alt_fmsl":1700,"id":"ODF","desc":"FOOTHILLS VORTAC"},
{"type":"NDB","hdg_t":148.1,"dist_nm":92.9,"freq":347,"lat":34.50150000,"lon":-83.54988889,"rng_nm":50,"alt_fmsl":0,"id":"AJR","desc":"HABERSHAM NDB"},
{"type":"NDB","hdg_t":178.4,"dist_nm":94.1,"freq":415,"lat":34.25236111,"lon":-84.48761111,"rng_nm":50,"alt_fmsl":0,"id":"DJD","desc":"CHERO NDB"},
{"type":"NDB","hdg_t":275.4,"dist_nm":94.1,"freq":391,"lat":35.95683333,"lon":-86.46391667,"rng_nm":50,"alt_fmsl":0,"id":"SWZ","desc":"SEWART NDB"},
{"type":"VOR","hdg_t":260.9,"dist_nm":94.1,"freq":109,"lat":35.56197222,"lon":-86.43916667,"rng_nm":40,"alt_fmsl":814,"id":"SYI","desc":"SHELBYVILLE VOR-DME"},
{"type":"NDB","hdg_t":215.8,"dist_nm":95.9,"freq":426,"lat":34.52113889,"lon":-85.67333333,"rng_nm":50,"alt_fmsl":0,"id":"FTP","desc":"FORT PAYNE NDB"},
{"type":"NDB","hdg_t":99.7,"dist_nm":96.9,"freq":357,"lat":35.53277778,"lon":-82.58744444,"rng_nm":50,"alt_fmsl":0,"id":"IM","desc":"KEANS NDB"},
{"type":"NDB","hdg_t":188.8,"dist_nm":98.4,"freq":308,"lat":34.19958333,"lon":-84.84311111,"rng_nm":50,"alt_fmsl":0,"id":"EVZ","desc":"CARTERSVILLE NDB"}
]
}
