{"success":true,"source":"xp2csv.pl","last_updated":"2013/11/08 14:53:21 UTC"
,"icao":"30KS","name":"Tyler","lat":37.13224972,"lon":-97.07337167,"rwys":1,"ils":0,"index":1351627,"path":"w100n30/w098n37"
,"runways":[
{"len_m":791,"wid_m":18.29,"hdg":176,"surf":"Turf/grass","rwy1":"17","lat1":37.13581071,"lon1":-97.07360576,"rwy2":"35","lat2":37.12868873,"lon2":-97.07313758}
]
,"navaids":[
{"type":"NDB","hdg_t":145,"dist_nm":3.1,"freq":353,"lat":37.08972222,"lon":-97.03625000,"rng_nm":50,"alt_fmsl":0,"id":"SO","desc":"SAWCY NDB"},
{"type":"NDB","hdg_t":184,"dist_nm":18.4,"freq":515,"lat":36.82502778,"lon":-97.10052778,"rng_nm":50,"alt_fmsl":0,"id":"PN","desc":"PONCA NDB"},
{"type":"NDB","hdg_t":307.1,"dist_nm":19,"freq":414,"lat":37.32366667,"lon":-97.39019444,"rng_nm":50,"alt_fmsl":0,"id":"EGT","desc":"WELLINGTON NDB"},
{"type":"VOR","hdg_t":190.2,"dist_nm":23.4,"freq":113.2,"lat":36.74652778,"lon":-97.16016667,"rng_nm":130,"alt_fmsl":1054,"id":"PER","desc":"PIONEER VORTAC"},
{"type":"SDME","hdg_t":342.4,"dist_nm":30.7,"freq":116.5,"lat":37.62185300,"lon":-97.26819200,"rng_nm":40,"alt_fmsl":1374,"id":"IAB","desc":"MC CONNELL TACAN"},
{"type":"NDB","hdg_t":325.7,"dist_nm":32.3,"freq":332,"lat":37.57819444,"lon":-97.45586111,"rng_nm":50,"alt_fmsl":0,"id":"IC","desc":"PICHE NDB"},
{"type":"VOR","hdg_t":326.5,"dist_nm":44,"freq":113.8,"lat":37.74525000,"lon":-97.58383333,"rng_nm":130,"alt_fmsl":1471,"id":"ICT","desc":"WICHITA VORTAC"},
{"type":"VOR","hdg_t":272,"dist_nm":52.6,"freq":112.9,"lat":37.15891667,"lon":-98.17072222,"rng_nm":40,"alt_fmsl":1390,"id":"ANY","desc":"ANTHONY VORTAC"},
{"type":"NDB","hdg_t":180.7,"dist_nm":53.6,"freq":255,"lat":36.23616667,"lon":-97.08730556,"rng_nm":50,"alt_fmsl":0,"id":"SW","desc":"BLAKI NDB"},
{"type":"VOR","hdg_t":109,"dist_nm":53.7,"freq":117.9,"lat":36.83425000,"lon":-96.01830556,"rng_nm":40,"alt_fmsl":940,"id":"BVO","desc":"BARTLESVILLE VOR-DME"},
{"type":"NDB","hdg_t":108.6,"dist_nm":53.8,"freq":201,"lat":36.83950000,"lon":-96.01397222,"rng_nm":50,"alt_fmsl":0,"id":"BV","desc":"DEWIE NDB"},
{"type":"VOR","hdg_t":180.4,"dist_nm":54.4,"freq":108.4,"lat":36.22425000,"lon":-97.08125000,"rng_nm":25,"alt_fmsl":1022,"id":"SWO","desc":"STILLWATER VOR-DME"},
{"type":"NDB","hdg_t":350.3,"dist_nm":56.6,"freq":281,"lat":38.06408333,"lon":-97.27344444,"rng_nm":50,"alt_fmsl":0,"id":"EWK","desc":"NEWTON NDB"},
{"type":"VOR","hdg_t":217.3,"dist_nm":57,"freq":109,"lat":36.37375000,"lon":-97.78816667,"rng_nm":25,"alt_fmsl":1149,"id":"ODG","desc":"WOODRING VOR-DME"},
{"type":"NDB","hdg_t":351,"dist_nm":61.4,"freq":395,"lat":38.14491667,"lon":-97.27613889,"rng_nm":50,"alt_fmsl":0,"id":"CA","desc":"HARVS NDB"},
{"type":"NDB","hdg_t":214.1,"dist_nm":61.9,"freq":341,"lat":36.27502778,"lon":-97.79077778,"rng_nm":50,"alt_fmsl":0,"id":"EI","desc":"GARFY NDB"},
{"type":"NDB","hdg_t":93.2,"dist_nm":62.3,"freq":329,"lat":37.06583333,"lon":-95.77775000,"rng_nm":50,"alt_fmsl":0,"id":"ID","desc":"JEFFE NDB"},
{"type":"VOR","hdg_t":221,"dist_nm":62.3,"freq":115.4,"lat":36.34497222,"lon":-97.91836111,"rng_nm":130,"alt_fmsl":1276,"id":"END","desc":"VANCE VORTAC"},
{"type":"VOR","hdg_t":321.8,"dist_nm":66.1,"freq":116.8,"lat":37.99691667,"lon":-97.93413889,"rng_nm":40,"alt_fmsl":1542,"id":"HUT","desc":"HUTCHINSON VOR-DME"},
{"type":"NDB","hdg_t":325.8,"dist_nm":72,"freq":404,"lat":38.12372222,"lon":-97.92702778,"rng_nm":50,"alt_fmsl":0,"id":"HU","desc":"SALTT NDB"},
{"type":"NDB","hdg_t":91.4,"dist_nm":72.1,"freq":212,"lat":37.09327778,"lon":-95.57133333,"rng_nm":50,"alt_fmsl":0,"id":"CFV","desc":"COFFEYVILLE NDB"},
{"type":"NDB","hdg_t":142,"dist_nm":72.6,"freq":362,"lat":36.17297222,"lon":-96.15422222,"rng_nm":50,"alt_fmsl":0,"id":"OWP","desc":"WILLIAM POGUE NDB"},
{"type":"NDB","hdg_t":168.8,"dist_nm":75.8,"freq":242,"lat":35.89011111,"lon":-96.77333333,"rng_nm":50,"alt_fmsl":0,"id":"CUH","desc":"CUSHING NDB"},
{"type":"NDB","hdg_t":80.1,"dist_nm":75.9,"freq":258,"lat":37.33814700,"lon":-95.50870000,"rng_nm":25,"alt_fmsl":900,"id":"PPF","desc":"PARSONS NDB"},
{"type":"NDB","hdg_t":130.1,"dist_nm":76,"freq":375,"lat":36.30738889,"lon":-95.87527778,"rng_nm":50,"alt_fmsl":0,"id":"DW","desc":"OWASO NDB"},
{"type":"VOR","hdg_t":66.8,"dist_nm":76.7,"freq":109.2,"lat":37.62613889,"lon":-95.59344444,"rng_nm":40,"alt_fmsl":1080,"id":"CNU","desc":"CHANUTE VOR-DME"},
{"type":"NDB","hdg_t":338.3,"dist_nm":78.5,"freq":227,"lat":38.34850000,"lon":-97.68730556,"rng_nm":50,"alt_fmsl":0,"id":"MPR","desc":"MC PHERSON NDB"},
{"type":"NDB","hdg_t":192.2,"dist_nm":78.8,"freq":326,"lat":35.84555600,"lon":-97.41580600,"rng_nm":25,"alt_fmsl":1074,"id":"LCY","desc":"LOGAN COUNTY NDB"},
{"type":"VOR","hdg_t":32.3,"dist_nm":82.5,"freq":112.8,"lat":38.29113889,"lon":-96.13811111,"rng_nm":40,"alt_fmsl":1233,"id":"EMP","desc":"EMPORIA VORTAC"},
{"type":"VOR","hdg_t":131.7,"dist_nm":83.6,"freq":114.4,"lat":36.19625000,"lon":-95.78808333,"rng_nm":130,"alt_fmsl":788,"id":"TUL","desc":"TULSA VORTAC"},
{"type":"NDB","hdg_t":136.9,"dist_nm":84.3,"freq":338,"lat":36.09738889,"lon":-95.88877778,"rng_nm":50,"alt_fmsl":0,"id":"TU","desc":"OILLR NDB"},
{"type":"NDB","hdg_t":233.5,"dist_nm":84.6,"freq":246,"lat":36.28516700,"lon":-98.47800000,"rng_nm":25,"alt_fmsl":1273,"id":"FAU","desc":"FAIRVIEW NDB"},
{"type":"NDB","hdg_t":171.6,"dist_nm":85.3,"freq":396,"lat":35.72227778,"lon":-96.81863889,"rng_nm":50,"alt_fmsl":0,"id":"CQB","desc":"TILGHMAN NDB"},
{"type":"NDB","hdg_t":158.7,"dist_nm":87.4,"freq":251,"lat":35.76980000,"lon":-96.42472800,"rng_nm":25,"alt_fmsl":929,"id":"TZO","desc":"BRISTOW NDB"},
{"type":"NDB","hdg_t":294.4,"dist_nm":87.5,"freq":356,"lat":37.72630556,"lon":-98.74708333,"rng_nm":50,"alt_fmsl":0,"id":"PTT","desc":"PRATT NDB"},
{"type":"NDB","hdg_t":62.9,"dist_nm":88.5,"freq":410,"lat":37.79152778,"lon":-95.41491667,"rng_nm":50,"alt_fmsl":0,"id":"MSB","desc":"MONARCH NDB"},
{"type":"VOR","hdg_t":88.4,"dist_nm":89.7,"freq":117.6,"lat":37.15750000,"lon":-95.20363889,"rng_nm":40,"alt_fmsl":930,"id":"OSW","desc":"OSWEGO VORTAC"},
{"type":"VOR","hdg_t":143.3,"dist_nm":90.1,"freq":110.6,"lat":35.92088889,"lon":-95.96863889,"rng_nm":25,"alt_fmsl":810,"id":"GNP","desc":"GLENPOOL VOR-DME"},
{"type":"NDB","hdg_t":323.3,"dist_nm":91.1,"freq":386,"lat":38.34722222,"lon":-98.22700000,"rng_nm":50,"alt_fmsl":0,"id":"LYO","desc":"LYONS NDB"},
{"type":"VOR","hdg_t":209.8,"dist_nm":91.3,"freq":114.7,"lat":35.80527778,"lon":-98.00391667,"rng_nm":130,"alt_fmsl":1110,"id":"IFI","desc":"KINGFISHER VORTAC"},
{"type":"NDB","hdg_t":7.5,"dist_nm":94.3,"freq":407,"lat":38.69277778,"lon":-96.81111111,"rng_nm":50,"alt_fmsl":0,"id":"HRU","desc":"HERINGTON NDB"},
{"type":"NDB","hdg_t":42.1,"dist_nm":95,"freq":245,"lat":38.29975000,"lon":-95.72147222,"rng_nm":50,"alt_fmsl":0,"id":"UKL","desc":"BOYD NDB"},
{"type":"NDB","hdg_t":343.8,"dist_nm":96.7,"freq":344,"lat":38.68152778,"lon":-97.64505556,"rng_nm":50,"alt_fmsl":0,"id":"SL","desc":"FLORY NDB"},
{"type":"NDB","hdg_t":169.8,"dist_nm":98.3,"freq":314,"lat":35.51672222,"lon":-96.71863889,"rng_nm":50,"alt_fmsl":0,"id":"GGU","desc":"PRAGUE NDB"},
{"type":"NDB","hdg_t":146.2,"dist_nm":98.8,"freq":388,"lat":35.75527778,"lon":-95.94872222,"rng_nm":50,"alt_fmsl":0,"id":"OK","desc":"PRESO NDB"},
{"type":"VOR","hdg_t":196.3,"dist_nm":99.7,"freq":113.4,"lat":35.53294444,"lon":-97.64716667,"rng_nm":25,"alt_fmsl":1271,"id":"PWA","desc":"WILEY POST VOR-DME"}
]
}
