{"success":true,"source":"xp2csv.pl","last_updated":"2013/11/08 14:53:21 UTC"
,"icao":"32J","name":"Triple B Airpark","lat":30.78185388,"lon":-86.46717251,"rwys":1,"ils":0,"index":1531442,"path":"w090n30/w087n30"
,"runways":[
{"len_m":547,"wid_m":38.10,"hdg":0,"surf":"Turf/grass","rwy1":"36","lat1":30.77938520,"lon1":-86.46717251,"rwy2":"18","lat2":30.78432256,"lon2":-86.46717251}
]
,"navaids":[
{"type":"NDB","hdg_t":319.8,"dist_nm":5.5,"freq":201,"lat":30.85286111,"lon":-86.53661111,"rng_nm":50,"alt_fmsl":0,"id":"CE","desc":"KOBRA NDB"},
{"type":"VOR","hdg_t":283.6,"dist_nm":11.2,"freq":115.9,"lat":30.82616667,"lon":-86.67913889,"rng_nm":130,"alt_fmsl":255,"id":"CEW","desc":"CRESTVIEW VORTAC"},
{"type":"SDME","hdg_t":208.6,"dist_nm":24.1,"freq":110.8,"lat":30.42803600,"lon":-86.69028900,"rng_nm":25,"alt_fmsl":35,"id":"HRT","desc":"HURLBURT TACAN"},
{"type":"SDME","hdg_t":263.2,"dist_nm":28.6,"freq":112.3,"lat":30.72400000,"lon":-87.01800000,"rng_nm":40,"alt_fmsl":179,"id":"NSE","desc":"WHITING TACAN"},
{"type":"NDB","hdg_t":7.1,"dist_nm":31.5,"freq":264,"lat":31.30508333,"lon":-86.39088889,"rng_nm":50,"alt_fmsl":0,"id":"JUY","desc":"JUDD NDB"},
{"type":"VOR","hdg_t":6.9,"dist_nm":31.8,"freq":110.2,"lat":31.30952778,"lon":-86.39213889,"rng_nm":25,"alt_fmsl":0,"id":"UIA","desc":"ANDALUSIA VOR"},
{"type":"NDB","hdg_t":36.7,"dist_nm":41.7,"freq":352,"lat":31.33938889,"lon":-85.98194444,"rng_nm":50,"alt_fmsl":0,"id":"BVG","desc":"BOLL WEEVIL NDB"},
{"type":"NDB","hdg_t":240.9,"dist_nm":42.2,"freq":326,"lat":30.43705556,"lon":-87.17836111,"rng_nm":50,"alt_fmsl":0,"id":"PKZ","desc":"PICKENS NDB"},
{"type":"VOR","hdg_t":43.2,"dist_nm":42.3,"freq":116.6,"lat":31.29636111,"lon":-85.90275000,"rng_nm":25,"alt_fmsl":0,"id":"EDN","desc":"ENTERPRISE VOR"},
{"type":"NDB","hdg_t":51.4,"dist_nm":42.8,"freq":212,"lat":31.22563889,"lon":-85.81597222,"rng_nm":50,"alt_fmsl":0,"id":"OZ","desc":"RUCKR NDB"},
{"type":"NDB","hdg_t":84.4,"dist_nm":44.9,"freq":275,"lat":30.85150000,"lon":-85.60133333,"rng_nm":50,"alt_fmsl":0,"id":"BKK","desc":"TRI COUNTY NDB"},
{"type":"VOR","hdg_t":52.4,"dist_nm":48,"freq":111.2,"lat":31.26894444,"lon":-85.72630556,"rng_nm":40,"alt_fmsl":326,"id":"OZR","desc":"CAIRNS VOR-DME"},
{"type":"VOR","hdg_t":247.8,"dist_nm":48.6,"freq":108.8,"lat":30.47213889,"lon":-87.33588889,"rng_nm":40,"alt_fmsl":0,"id":"NUN","desc":"SAUFLEY VOR"},
{"type":"SDME","hdg_t":240.2,"dist_nm":50.7,"freq":117.2,"lat":30.35800000,"lon":-87.31650000,"rng_nm":40,"alt_fmsl":24,"id":"NPA","desc":"PENSACOLA TACAN"},
{"type":"NDB","hdg_t":46.9,"dist_nm":50.8,"freq":269,"lat":31.36033333,"lon":-85.74350000,"rng_nm":50,"alt_fmsl":0,"id":"LOR","desc":"LOWE NDB"},
{"type":"VOR","hdg_t":129.5,"dist_nm":52.9,"freq":114.3,"lat":30.21625000,"lon":-85.68094444,"rng_nm":40,"alt_fmsl":10,"id":"PFN","desc":"PANAMA CITY VORTAC"},
{"type":"NDB","hdg_t":49.4,"dist_nm":54.9,"freq":221,"lat":31.37608333,"lon":-85.65377778,"rng_nm":50,"alt_fmsl":0,"id":"HYE","desc":"HANCHEY NDB"},
{"type":"VOR","hdg_t":49.5,"dist_nm":54.9,"freq":110.6,"lat":31.37413889,"lon":-85.65280556,"rng_nm":25,"alt_fmsl":0,"id":"HEY","desc":"HANCHEY VOR"},
{"type":"VOR","hdg_t":133.8,"dist_nm":56.9,"freq":114.3,"lat":30.11966667,"lon":-85.67780556,"rng_nm":40,"alt_fmsl":55,"id":"HLL","desc":"HANDLE VORTAC"},
{"type":"NDB","hdg_t":25,"dist_nm":59.6,"freq":281,"lat":31.68433333,"lon":-85.97438889,"rng_nm":50,"alt_fmsl":0,"id":"XNE","desc":"SPRING HILL NDB"},
{"type":"VOR","hdg_t":311.9,"dist_nm":61,"freq":116.8,"lat":31.46044444,"lon":-87.35275000,"rng_nm":40,"alt_fmsl":420,"id":"MVC","desc":"MONROEVILLE VORTAC"},
{"type":"VOR","hdg_t":60.3,"dist_nm":61.3,"freq":111.6,"lat":31.28458333,"lon":-85.43119444,"rng_nm":40,"alt_fmsl":381,"id":"RRS","desc":"WIREGRASS VORTAC"},
{"type":"SDME","hdg_t":132.1,"dist_nm":62.8,"freq":117.7,"lat":30.07397000,"lon":-85.57243100,"rng_nm":130,"alt_fmsl":14,"id":"PAM","desc":"TYNDALL TACAN"},
{"type":"NDB","hdg_t":84.8,"dist_nm":64.4,"freq":329,"lat":30.87158333,"lon":-85.22491667,"rng_nm":50,"alt_fmsl":0,"id":"SMY","desc":"SOYYA NDB"},
{"type":"NDB","hdg_t":16.3,"dist_nm":65.4,"freq":365,"lat":31.83080556,"lon":-86.10622222,"rng_nm":50,"alt_fmsl":0,"id":"TO","desc":"BLOOD NDB"},
{"type":"NDB","hdg_t":255.7,"dist_nm":67.3,"freq":204,"lat":30.49925000,"lon":-87.72566667,"rng_nm":50,"alt_fmsl":0,"id":"ESU","desc":"SUMMERDALE NDB"},
{"type":"VOR","hdg_t":89.4,"dist_nm":69.3,"freq":114,"lat":30.78622222,"lon":-85.12444444,"rng_nm":40,"alt_fmsl":120,"id":"MAI","desc":"MARIANNA VORTAC"},
{"type":"VOR","hdg_t":263.3,"dist_nm":82.7,"freq":112.8,"lat":30.61272222,"lon":-88.05550000,"rng_nm":40,"alt_fmsl":30,"id":"BFM","desc":"BROOKLEY VORTAC"},
{"type":"VOR","hdg_t":4.9,"dist_nm":86.5,"freq":112.1,"lat":32.22227778,"lon":-86.31972222,"rng_nm":130,"alt_fmsl":270,"id":"MGM","desc":"MONTGOMERY VORTAC"},
{"type":"NDB","hdg_t":358.6,"dist_nm":91.6,"freq":245,"lat":32.31161111,"lon":-86.51058333,"rng_nm":50,"alt_fmsl":0,"id":"MG","desc":"MARRA NDB"},
{"type":"NDB","hdg_t":345.2,"dist_nm":92.1,"freq":344,"lat":32.26977778,"lon":-86.92744444,"rng_nm":50,"alt_fmsl":0,"id":"SE","desc":"POLLK (LOM/NDB) NDB"},
{"type":"NDB","hdg_t":64.1,"dist_nm":93.9,"freq":344,"lat":31.45569444,"lon":-84.81911111,"rng_nm":50,"alt_fmsl":0,"id":"IWJ","desc":"BLAAK NDB"},
{"type":"SDME","hdg_t":3,"dist_nm":95.7,"freq":115,"lat":32.37933300,"lon":-86.36833300,"rng_nm":40,"alt_fmsl":170,"id":"MXF","desc":"MAXWELL TACAN"},
{"type":"VOR","hdg_t":344.1,"dist_nm":97.3,"freq":113.6,"lat":32.34461111,"lon":-86.99127778,"rng_nm":130,"alt_fmsl":160,"id":"JYU","desc":"JUNIOR VOR-DME"},
{"type":"VOR","hdg_t":268.5,"dist_nm":97.8,"freq":115.3,"lat":30.72597222,"lon":-88.35930556,"rng_nm":130,"alt_fmsl":190,"id":"SJI","desc":"SEMMES VORTAC"},
{"type":"NDB","hdg_t":129.9,"dist_nm":98,"freq":349,"lat":29.72330556,"lon":-85.02805556,"rng_nm":50,"alt_fmsl":0,"id":"AAF","desc":"APALACHICOLA NDB"},
{"type":"VOR","hdg_t":44.1,"dist_nm":98,"freq":109.2,"lat":31.95025000,"lon":-85.13047222,"rng_nm":40,"alt_fmsl":280,"id":"EUF","desc":"EUFAULA VORTAC"}
]
}
