{"success":true,"source":"xp2csv.pl","last_updated":"2013/11/08 14:53:21 UTC"
,"icao":"33CA","name":"Lloyds Landing","lat":34.90553111,"lon":-118.30174473,"rwys":2,"ils":0,"index":1007418,"path":"w120n30/w119n34"
,"runways":[
{"len_m":702,"wid_m":27.43,"hdg":74,"surf":"Dirt","rwy1":"06","lat1":34.90466163,"lon1":-118.30544214,"rwy2":"24","lat2":34.90640059,"lon2":-118.29804732},
{"len_m":418,"wid_m":18.29,"hdg":123,"surf":"Dirt","rwy1":"11","lat1":34.90658180,"lon1":-118.30364416,"rwy2":"29","lat2":34.90448042,"lon2":-118.29984530}
]
,"navaids":[
{"type":"NDB","hdg_t":157.1,"dist_nm":10.8,"freq":282,"lat":34.73869444,"lon":-118.21677778,"rng_nm":50,"alt_fmsl":0,"id":"GWF","desc":"GEN WILLIAM J FO NDB"},
{"type":"VOR","hdg_t":225.6,"dist_nm":19,"freq":108.4,"lat":34.68297222,"lon":-118.57694444,"rng_nm":40,"alt_fmsl":5790,"id":"LHS","desc":"LAKE HUGHES VORTAC"},
{"type":"VOR","hdg_t":144.3,"dist_nm":20.1,"freq":114.5,"lat":34.63138889,"lon":-118.06383333,"rng_nm":130,"alt_fmsl":2498,"id":"PMD","desc":"PALMDALE VORTAC"},
{"type":"VOR","hdg_t":257.7,"dist_nm":28.2,"freq":116.1,"lat":34.80402778,"lon":-118.86136111,"rng_nm":40,"alt_fmsl":4920,"id":"GMN","desc":"GORMAN VORTAC"},
{"type":"VOR","hdg_t":80.5,"dist_nm":28.4,"freq":116.4,"lat":34.98236111,"lon":-117.73261111,"rng_nm":40,"alt_fmsl":2354,"id":"EDW","desc":"EDWARDS VORTAC"},
{"type":"NDB","hdg_t":188.1,"dist_nm":39,"freq":370,"lat":34.25972222,"lon":-118.41341667,"rng_nm":50,"alt_fmsl":0,"id":"PAI","desc":"PACOIMA NDB"},
{"type":"VOR","hdg_t":193,"dist_nm":41.9,"freq":113.1,"lat":34.22344444,"lon":-118.49166667,"rng_nm":40,"alt_fmsl":812,"id":"VNY","desc":"VAN NUYS VOR-DME"},
{"type":"NDB","hdg_t":185.1,"dist_nm":42.5,"freq":253,"lat":34.19802778,"lon":-118.37786111,"rng_nm":50,"alt_fmsl":0,"id":"UR","desc":"VINEE NDB"},
{"type":"VOR","hdg_t":221.2,"dist_nm":43.6,"freq":112.5,"lat":34.35669444,"lon":-118.88127778,"rng_nm":40,"alt_fmsl":2200,"id":"FIM","desc":"FILLMORE VORTAC"},
{"type":"VOR","hdg_t":112.2,"dist_nm":48.7,"freq":109.4,"lat":34.59416667,"lon":-117.39000000,"rng_nm":25,"alt_fmsl":2855,"id":"VCV","desc":"VICTORVILLE VOR-DME"},
{"type":"NDB","hdg_t":164.5,"dist_nm":50.7,"freq":359,"lat":34.08830556,"lon":-118.03119444,"rng_nm":50,"alt_fmsl":0,"id":"EMT","desc":"EL MONTE NDB"},
{"type":"VOR","hdg_t":311.7,"dist_nm":52.2,"freq":115.4,"lat":35.48455556,"lon":-119.09730556,"rng_nm":130,"alt_fmsl":548,"id":"EHF","desc":"SHAFTER VORTAC"},
{"type":"VOR","hdg_t":188.2,"dist_nm":54.1,"freq":110.8,"lat":34.01025000,"lon":-118.45672222,"rng_nm":40,"alt_fmsl":114,"id":"SMO","desc":"SANTA MONICA VOR-DME"},
{"type":"SDME","hdg_t":32.4,"dist_nm":55.6,"freq":111.6,"lat":35.68792800,"lon":-117.69047200,"rng_nm":25,"alt_fmsl":2272,"id":"NID","desc":"CHINA LAKE TACAN"},
{"type":"VOR","hdg_t":152.5,"dist_nm":55.7,"freq":110.4,"lat":34.07838889,"lon":-117.78708333,"rng_nm":40,"alt_fmsl":1266,"id":"POM","desc":"POMONA VORTAC"},
{"type":"NDB","hdg_t":178.7,"dist_nm":56.3,"freq":278,"lat":33.96434200,"lon":-118.27794400,"rng_nm":25,"alt_fmsl":136,"id":"OS","desc":"ROMEN NDB"},
{"type":"VOR","hdg_t":223.6,"dist_nm":57.1,"freq":115.8,"lat":34.21252778,"lon":-119.09436111,"rng_nm":40,"alt_fmsl":63,"id":"CMA","desc":"CAMARILLO VOR-DME"},
{"type":"VOR","hdg_t":186.3,"dist_nm":58.6,"freq":113.6,"lat":33.93313889,"lon":-118.43200000,"rng_nm":130,"alt_fmsl":182,"id":"LAX","desc":"LOS ANGELES VORTAC"},
{"type":"VOR","hdg_t":218.2,"dist_nm":60.1,"freq":108.2,"lat":34.11505556,"lon":-119.04950000,"rng_nm":40,"alt_fmsl":1560,"id":"VTU","desc":"VENTURA VOR-DME"},
{"type":"NDB","hdg_t":177.4,"dist_nm":60.9,"freq":378,"lat":33.88905556,"lon":-118.24727778,"rng_nm":50,"alt_fmsl":0,"id":"CPM","desc":"COMPTON NDB"},
{"type":"SDME","hdg_t":221.1,"dist_nm":62,"freq":110.6,"lat":34.12329200,"lon":-119.12197800,"rng_nm":25,"alt_fmsl":6,"id":"NTD","desc":"POINT MUGU TACAN"},
{"type":"VOR","hdg_t":169.5,"dist_nm":68.3,"freq":115.7,"lat":33.78330556,"lon":-118.05475000,"rng_nm":40,"alt_fmsl":23,"id":"SLI","desc":"SEAL BEACH VORTAC"},
{"type":"NDB","hdg_t":137.3,"dist_nm":68.8,"freq":397,"lat":34.05647222,"lon":-117.36611111,"rng_nm":50,"alt_fmsl":0,"id":"SB","desc":"PETIS (LOM/NDB) NDB"},
{"type":"NDB","hdg_t":170.7,"dist_nm":69.7,"freq":233,"lat":33.75666667,"lon":-118.07738889,"rng_nm":50,"alt_fmsl":0,"id":"LG","desc":"BECCA NDB"},
{"type":"VOR","hdg_t":329.9,"dist_nm":69.9,"freq":109.2,"lat":35.91305556,"lon":-119.02080556,"rng_nm":40,"alt_fmsl":580,"id":"TTE","desc":"TULE VOR-DME"},
{"type":"VOR","hdg_t":146.8,"dist_nm":70.4,"freq":112.2,"lat":33.91833333,"lon":-117.53000000,"rng_nm":130,"alt_fmsl":1432,"id":"PDZ","desc":"PARADISE VORTAC"},
{"type":"VOR","hdg_t":143.1,"dist_nm":70.9,"freq":112.4,"lat":33.95519444,"lon":-117.44983333,"rng_nm":25,"alt_fmsl":0,"id":"RAL","desc":"RIVERSIDE VOR"},
{"type":"NDB","hdg_t":163.1,"dist_nm":76.1,"freq":337,"lat":33.68886111,"lon":-117.86050000,"rng_nm":50,"alt_fmsl":0,"id":"NA","desc":"MAAGG NDB"},
{"type":"VOR","hdg_t":252.3,"dist_nm":76.4,"freq":114.9,"lat":34.50952778,"lon":-119.77100000,"rng_nm":130,"alt_fmsl":3623,"id":"RZS","desc":"SAN MARCUS VORTAC"},
{"type":"VOR","hdg_t":278.7,"dist_nm":77.8,"freq":117.5,"lat":35.09308333,"lon":-119.86558333,"rng_nm":40,"alt_fmsl":3870,"id":"FLW","desc":"FELLOWS VORTAC"},
{"type":"SDME","hdg_t":139.2,"dist_nm":78.6,"freq":113,"lat":33.90646400,"lon":-117.27503300,"rng_nm":25,"alt_fmsl":1540,"id":"RIV","desc":"MARCH TACAN"},
{"type":"VOR","hdg_t":158.7,"dist_nm":78.9,"freq":117.2,"lat":33.67602778,"lon":-117.73108333,"rng_nm":25,"alt_fmsl":336,"id":"ELB","desc":"EL TORO VOR-DME"},
{"type":"VOR","hdg_t":87.2,"dist_nm":85,"freq":113.2,"lat":34.96244444,"lon":-116.57816667,"rng_nm":40,"alt_fmsl":1760,"id":"DAG","desc":"DAGGETT VORTAC"},
{"type":"VOR","hdg_t":140.3,"dist_nm":87.4,"freq":113.4,"lat":33.77633333,"lon":-117.18533333,"rng_nm":25,"alt_fmsl":0,"id":"HDF","desc":"HOMELAND VOR"},
{"type":"VOR","hdg_t":93.5,"dist_nm":91,"freq":112.7,"lat":34.79702778,"lon":-116.46291667,"rng_nm":130,"alt_fmsl":1853,"id":"HEC","desc":"HECTOR VORTAC"},
{"type":"VOR","hdg_t":256.2,"dist_nm":91.2,"freq":113.8,"lat":34.53133333,"lon":-120.09108333,"rng_nm":40,"alt_fmsl":2616,"id":"GVO","desc":"GAVIOTA VORTAC"},
{"type":"VOR","hdg_t":183.7,"dist_nm":91.8,"freq":111.4,"lat":33.37505556,"lon":-118.41991667,"rng_nm":40,"alt_fmsl":2090,"id":"SXC","desc":"SANTA CATALINA VORTAC"},
{"type":"NDB","hdg_t":319.4,"dist_nm":91.9,"freq":205,"lat":36.06605556,"lon":-119.53094444,"rng_nm":50,"alt_fmsl":0,"id":"COR","desc":"SALYER FARMS NDB"},
{"type":"NDB","hdg_t":135.4,"dist_nm":92.7,"freq":227,"lat":33.79493900,"lon":-116.99927200,"rng_nm":25,"alt_fmsl":1498,"id":"SJY","desc":"SAN JACINTO NDB"},
{"type":"VOR","hdg_t":298.8,"dist_nm":93.5,"freq":117.1,"lat":35.64697222,"lon":-119.97861111,"rng_nm":130,"alt_fmsl":710,"id":"AVE","desc":"AVENAL VORTAC"}
]
}
