{"success":true,"source":"xp2csv.pl","last_updated":"2013/11/08 14:53:21 UTC"
,"icao":"33E","name":"Mauldin Airstrip","lat":33.48198333,"lon":-113.00212751,"rwys":1,"ils":0,"index":1089243,"path":"w120n30/w114n33"
,"runways":[
{"len_m":885,"wid_m":18.29,"hdg":122,"surf":"Gravel","rwy1":"11","lat1":33.48414953,"lon1":-113.00612682,"rwy2":"29","lat2":33.47981713,"lon2":-112.99812820}
]
,"navaids":[
{"type":"VOR","hdg_t":100.8,"dist_nm":9,"freq":110.6,"lat":33.45344444,"lon":-112.82458333,"rng_nm":40,"alt_fmsl":1060,"id":"BXK","desc":"BUCKEYE VORTAC"},
{"type":"SDME","hdg_t":83.7,"dist_nm":31.3,"freq":113,"lat":33.53768300,"lon":-112.38021100,"rng_nm":40,"alt_fmsl":1076,"id":"LUF","desc":"LUKE TACAN"},
{"type":"VOR","hdg_t":152.2,"dist_nm":35.5,"freq":116.6,"lat":32.95627778,"lon":-112.67427778,"rng_nm":130,"alt_fmsl":790,"id":"GBN","desc":"GILA BEND VORTAC"},
{"type":"VOR","hdg_t":92.9,"dist_nm":51.8,"freq":115.6,"lat":33.43302778,"lon":-111.97019444,"rng_nm":130,"alt_fmsl":1182,"id":"PXR","desc":"PHOENIX VORTAC"},
{"type":"NDB","hdg_t":80.5,"dist_nm":55.5,"freq":224,"lat":33.62909700,"lon":-111.90782800,"rng_nm":25,"alt_fmsl":1542,"id":"SDL","desc":"SCOTTSDALE NDB"},
{"type":"NDB","hdg_t":101.8,"dist_nm":61.3,"freq":407,"lat":33.26650000,"lon":-111.80791667,"rng_nm":50,"alt_fmsl":0,"id":"CHD","desc":"CHANDLER NDB"},
{"type":"NDB","hdg_t":90.7,"dist_nm":63.7,"freq":281,"lat":33.46188889,"lon":-111.73308333,"rng_nm":50,"alt_fmsl":0,"id":"FFZ","desc":"FALCON FIELD NDB"},
{"type":"VOR","hdg_t":122.6,"dist_nm":65.6,"freq":114.8,"lat":32.88586111,"lon":-111.90872222,"rng_nm":130,"alt_fmsl":1316,"id":"TFD","desc":"STANFIELD VORTAC"},
{"type":"VOR","hdg_t":98.5,"dist_nm":68.6,"freq":113.3,"lat":33.30316667,"lon":-111.65144444,"rng_nm":40,"alt_fmsl":1366,"id":"IWA","desc":"WILLIE VORTAC"},
{"type":"VOR","hdg_t":19.4,"dist_nm":77.5,"freq":114.1,"lat":34.70255556,"lon":-112.48036111,"rng_nm":130,"alt_fmsl":4963,"id":"DRK","desc":"DRAKE VORTAC"},
{"type":"VOR","hdg_t":274.9,"dist_nm":88.4,"freq":117.4,"lat":33.59605556,"lon":-114.76127778,"rng_nm":130,"alt_fmsl":410,"id":"BLH","desc":"BLYTHE VORTAC"},
{"type":"VOR","hdg_t":242.5,"dist_nm":91.2,"freq":116.8,"lat":32.76813889,"lon":-114.60283333,"rng_nm":130,"alt_fmsl":130,"id":"BZA","desc":"BARD VORTAC"},
{"type":"VOR","hdg_t":294.3,"dist_nm":91.8,"freq":117.9,"lat":34.10200000,"lon":-114.68208333,"rng_nm":130,"alt_fmsl":1000,"id":"PKE","desc":"PARKER VORTAC"},
{"type":"SDME","hdg_t":238.8,"dist_nm":95.4,"freq":113.7,"lat":32.64682200,"lon":-114.61343600,"rng_nm":40,"alt_fmsl":193,"id":"NYL","desc":"YUMA TACAN"}
]
}
