{"success":true,"source":"xp2csv.pl","last_updated":"2013/11/08 14:53:21 UTC"
,"icao":"33M","name":"Water Valley Muni","lat":34.1667775,"lon":-89.6861975,"rwys":1,"ils":0,"index":1482505,"path":"w090n30/w090n34"
,"runways":[
{"len_m":914,"wid_m":15.24,"hdg":149,"surf":"Asphalt","rwy1":"15","lat1":34.17034700,"lon1":-89.68867700,"rwy2":"33","lat2":34.16320800,"lon2":-89.68371800}
]
,"radios":[
{"type":"CTAF","freq":122.9,"desc":"CTAF"}
]
,"navaids":[
{"type":"NDB","hdg_t":12.8,"dist_nm":13.4,"freq":426,"lat":34.38508333,"lon":-89.62597222,"rng_nm":50,"alt_fmsl":0,"id":"UV","desc":"TUNNG NDB"},
{"type":"NDB","hdg_t":209.6,"dist_nm":18.9,"freq":245,"lat":33.89111111,"lon":-89.87463889,"rng_nm":50,"alt_fmsl":0,"id":"SBQ","desc":"SCOBEY NDB"},
{"type":"NDB","hdg_t":277.6,"dist_nm":30.2,"freq":391,"lat":34.23297200,"lon":-90.28978900,"rng_nm":25,"alt_fmsl":160,"id":"MMS","desc":"MARKS NDB"},
{"type":"VOR","hdg_t":14.5,"dist_nm":37.3,"freq":112.4,"lat":34.77025000,"lon":-89.49650000,"rng_nm":40,"alt_fmsl":630,"id":"HLI","desc":"HOLLY SPRINGS VORTAC"},
{"type":"NDB","hdg_t":210.1,"dist_nm":39.7,"freq":349,"lat":33.59191667,"lon":-90.08436111,"rng_nm":50,"alt_fmsl":0,"id":"GW","desc":"TEOCK NDB"},
{"type":"VOR","hdg_t":85.3,"dist_nm":44.3,"freq":109.8,"lat":34.22386111,"lon":-88.79733333,"rng_nm":40,"alt_fmsl":360,"id":"OTB","desc":"TUPELO VOR-DME"},
{"type":"NDB","hdg_t":88.7,"dist_nm":45.6,"freq":420,"lat":34.18038889,"lon":-88.76875000,"rng_nm":50,"alt_fmsl":0,"id":"TU","desc":"VERON NDB"},
{"type":"NDB","hdg_t":354,"dist_nm":48.9,"freq":275,"lat":34.97980800,"lon":-89.78875000,"rng_nm":25,"alt_fmsl":401,"id":"OLV","desc":"OLIVE BRANCH NDB"},
{"type":"VOR","hdg_t":215.2,"dist_nm":51.4,"freq":114.7,"lat":33.46386111,"lon":-90.27733333,"rng_nm":130,"alt_fmsl":125,"id":"SQS","desc":"SIDON VORTAC"},
{"type":"VOR","hdg_t":343.9,"dist_nm":52.9,"freq":117.5,"lat":35.01511111,"lon":-89.98322222,"rng_nm":130,"alt_fmsl":360,"id":"MEM","desc":"MEMPHIS VORTAC"},
{"type":"NDB","hdg_t":296.5,"dist_nm":54.8,"freq":251,"lat":34.57121100,"lon":-90.67594200,"rng_nm":25,"alt_fmsl":0,"id":"HEE","desc":"THOMPSON ROBBINS NDB"},
{"type":"VOR","hdg_t":296.7,"dist_nm":54.8,"freq":109.6,"lat":34.57505556,"lon":-90.67438889,"rng_nm":40,"alt_fmsl":241,"id":"UJM","desc":"MARVELL VOR-DME"},
{"type":"NDB","hdg_t":248.4,"dist_nm":57.8,"freq":272,"lat":33.80705556,"lon":-90.76261111,"rng_nm":50,"alt_fmsl":0,"id":"RNV","desc":"RENOVA NDB"},
{"type":"NDB","hdg_t":136.2,"dist_nm":60.6,"freq":281,"lat":33.43205556,"lon":-88.85033333,"rng_nm":50,"alt_fmsl":0,"id":"STF","desc":"BRYAN NDB"},
{"type":"NDB","hdg_t":13,"dist_nm":63.8,"freq":255,"lat":35.20558333,"lon":-89.39277778,"rng_nm":50,"alt_fmsl":0,"id":"FYE","desc":"SOMERVILLE NDB"},
{"type":"NDB","hdg_t":230.5,"dist_nm":64.3,"freq":284,"lat":33.48016667,"lon":-90.67563889,"rng_nm":50,"alt_fmsl":0,"id":"IDL","desc":"INDIANOLA NDB"},
{"type":"NDB","hdg_t":343.8,"dist_nm":64.5,"freq":414,"lat":35.20119444,"lon":-90.05119444,"rng_nm":50,"alt_fmsl":0,"id":"SPQ","desc":"SPAIN NDB"},
{"type":"NDB","hdg_t":0.6,"dist_nm":66.9,"freq":265,"lat":35.28468900,"lon":-89.67139200,"rng_nm":25,"alt_fmsl":308,"id":"LHC","desc":"LOOSAHATCHIE NDB"},
{"type":"NDB","hdg_t":349.7,"dist_nm":67.8,"freq":232,"lat":35.28050000,"lon":-89.93294444,"rng_nm":50,"alt_fmsl":0,"id":"MIG","desc":"MILLINGTON NDB"},
{"type":"NDB","hdg_t":152.7,"dist_nm":68.8,"freq":212,"lat":33.14375000,"lon":-89.06088889,"rng_nm":50,"alt_fmsl":0,"id":"LMS","desc":"LOUISVILLE NDB"},
{"type":"VOR","hdg_t":116.4,"dist_nm":69.7,"freq":115.2,"lat":33.64152778,"lon":-88.43858333,"rng_nm":25,"alt_fmsl":250,"id":"CBM","desc":"CALEDONIA VORTAC"},
{"type":"NDB","hdg_t":26.7,"dist_nm":70.3,"freq":404,"lat":35.21433333,"lon":-89.04213889,"rng_nm":50,"alt_fmsl":0,"id":"BAV","desc":"HARDEMAN NDB"},
{"type":"VOR","hdg_t":124.5,"dist_nm":71.4,"freq":116.2,"lat":33.48547222,"lon":-88.51358333,"rng_nm":40,"alt_fmsl":240,"id":"IGB","desc":"BIGBEE VORTAC"},
{"type":"NDB","hdg_t":45.9,"dist_nm":73.4,"freq":334,"lat":35.01552778,"lon":-88.61569444,"rng_nm":50,"alt_fmsl":0,"id":"UU","desc":"SEYER NDB"},
{"type":"VOR","hdg_t":239.6,"dist_nm":75.3,"freq":110.2,"lat":33.52352778,"lon":-90.98294444,"rng_nm":40,"alt_fmsl":130,"id":"GLH","desc":"GREENVILLE VOR-DME"},
{"type":"NDB","hdg_t":235.9,"dist_nm":78.5,"freq":359,"lat":33.42533333,"lon":-90.98211111,"rng_nm":50,"alt_fmsl":0,"id":"MTQ","desc":"METCALF NDB"},
{"type":"VOR","hdg_t":331.2,"dist_nm":80.8,"freq":113,"lat":35.34702778,"lon":-90.47816667,"rng_nm":40,"alt_fmsl":211,"id":"GQE","desc":"GILMORE VOR-DME"},
{"type":"VOR","hdg_t":88.2,"dist_nm":83.3,"freq":110.4,"lat":34.19877778,"lon":-88.01161111,"rng_nm":40,"alt_fmsl":802,"id":"HAB","desc":"HAMILTON VORTAC"},
{"type":"NDB","hdg_t":3.2,"dist_nm":85.3,"freq":326,"lat":35.58966667,"lon":-89.58733333,"rng_nm":50,"alt_fmsl":0,"id":"COO","desc":"COVINGTON NDB"},
{"type":"NDB","hdg_t":41.7,"dist_nm":86.3,"freq":386,"lat":35.23702778,"lon":-88.51600000,"rng_nm":50,"alt_fmsl":0,"id":"SZY","desc":"SIBLEY NDB"},
{"type":"NDB","hdg_t":160.8,"dist_nm":86.6,"freq":219,"lat":32.79825000,"lon":-89.12480556,"rng_nm":50,"alt_fmsl":0,"id":"MPE","desc":"PHILADELPHIA NDB"},
{"type":"NDB","hdg_t":23.8,"dist_nm":88.4,"freq":394,"lat":35.51577778,"lon":-88.95697222,"rng_nm":50,"alt_fmsl":0,"id":"MK","desc":"MERSY NDB"},
{"type":"NDB","hdg_t":260.1,"dist_nm":93.5,"freq":305,"lat":33.88440800,"lon":-91.53151400,"rng_nm":25,"alt_fmsl":163,"id":"DZM","desc":"DUMAS NDB"},
{"type":"VOR","hdg_t":23.7,"dist_nm":94.1,"freq":112,"lat":35.60355556,"lon":-88.91041667,"rng_nm":25,"alt_fmsl":410,"id":"MKL","desc":"MC KELLAR VOR-DME"},
{"type":"NDB","hdg_t":282.7,"dist_nm":96.3,"freq":338,"lat":34.50580556,"lon":-91.58177778,"rng_nm":50,"alt_fmsl":0,"id":"TT","desc":"STUTT NDB"},
{"type":"NDB","hdg_t":129.5,"dist_nm":98.1,"freq":254,"lat":33.11401400,"lon":-88.18558600,"rng_nm":25,"alt_fmsl":0,"id":"AIV","desc":"ALICEVILLE NDB"},
{"type":"NDB","hdg_t":288,"dist_nm":99.1,"freq":269,"lat":34.66377778,"lon":-91.59044444,"rng_nm":50,"alt_fmsl":0,"id":"SGT","desc":"STUTTGART NDB"}
]
}
