{"success":true,"source":"xp2csv.pl","last_updated":"2013/11/08 14:53:21 UTC"
,"icao":"33Q","name":"Double Tree Farm","lat":39.29989111,"lon":-121.35940639,"rwys":1,"ils":0,"index":958546,"path":"w130n30/w122n39"
,"runways":[
{"len_m":487,"wid_m":6.10,"hdg":145,"surf":"Gravel","rwy1":"13","lat1":39.30171034,"lon1":-121.36099210,"rwy2":"31","lat2":39.29807188,"lon2":-121.35782068}
]
,"navaids":[
{"type":"SDME","hdg_t":200.9,"dist_nm":10.5,"freq":108.6,"lat":39.13475400,"lon":-121.44065500,"rng_nm":25,"alt_fmsl":165,"id":"BAB","desc":"BEALE TACAN"},
{"type":"NDB","hdg_t":236.2,"dist_nm":14,"freq":222,"lat":39.16939100,"lon":-121.60984800,"rng_nm":25,"alt_fmsl":64,"id":"MY","desc":"HALOW NDB"},
{"type":"VOR","hdg_t":219.6,"dist_nm":15.6,"freq":110.8,"lat":39.09863889,"lon":-121.57305556,"rng_nm":25,"alt_fmsl":62,"id":"MYV","desc":"MARYSVILLE VOR-DME"},
{"type":"NDB","hdg_t":200.4,"dist_nm":32.2,"freq":230,"lat":38.79494444,"lon":-121.59936111,"rng_nm":50,"alt_fmsl":0,"id":"SM","desc":"METRE NDB"},
{"type":"VOR","hdg_t":246.4,"dist_nm":34,"freq":114.4,"lat":39.07113889,"lon":-122.02725000,"rng_nm":40,"alt_fmsl":50,"id":"ILA","desc":"WILLIAMS VORTAC"},
{"type":"VOR","hdg_t":322.5,"dist_nm":37,"freq":109.8,"lat":39.78983333,"lon":-121.84719444,"rng_nm":25,"alt_fmsl":215,"id":"CIC","desc":"CHICO VOR-DME"},
{"type":"VOR","hdg_t":183.1,"dist_nm":37.9,"freq":109.2,"lat":38.66738889,"lon":-121.40416667,"rng_nm":25,"alt_fmsl":72,"id":"MCC","desc":"MC CLELLAN VOR-DME"},
{"type":"VOR","hdg_t":271.7,"dist_nm":40.1,"freq":110,"lat":39.31758333,"lon":-122.22152778,"rng_nm":40,"alt_fmsl":110,"id":"MXW","desc":"MAXWELL VORTAC"},
{"type":"NDB","hdg_t":195.6,"dist_nm":42.4,"freq":400,"lat":38.61701700,"lon":-121.60329700,"rng_nm":25,"alt_fmsl":15,"id":"HU","desc":"LANEE NDB"},
{"type":"VOR","hdg_t":140.1,"dist_nm":44.7,"freq":115.5,"lat":38.72472222,"lon":-120.74925000,"rng_nm":40,"alt_fmsl":2583,"id":"HNW","desc":"HANGTOWN VOR-DME"},
{"type":"VOR","hdg_t":97.6,"dist_nm":51.3,"freq":113.2,"lat":39.18033333,"lon":-120.26961111,"rng_nm":40,"alt_fmsl":8850,"id":"SWR","desc":"SQUAW VALLEY VOR-DME"},
{"type":"VOR","hdg_t":190,"dist_nm":52.1,"freq":115.2,"lat":38.44366667,"lon":-121.55161111,"rng_nm":130,"alt_fmsl":10,"id":"SAC","desc":"SACRAMENTO VORTAC"},
{"type":"VOR","hdg_t":200.4,"dist_nm":61,"freq":116.4,"lat":38.34419444,"lon":-121.81072222,"rng_nm":40,"alt_fmsl":0,"id":"TZZ","desc":"TRAVIS VOR"},
{"type":"VOR","hdg_t":319.9,"dist_nm":62.8,"freq":115.7,"lat":40.09891667,"lon":-122.23636111,"rng_nm":130,"alt_fmsl":322,"id":"RBL","desc":"RED BLUFF VORTAC"},
{"type":"NDB","hdg_t":320.4,"dist_nm":63.5,"freq":338,"lat":40.11388889,"lon":-122.23744444,"rng_nm":50,"alt_fmsl":0,"id":"PBT","desc":"PROBERTA NDB"},
{"type":"SDME","hdg_t":203.6,"dist_nm":68.9,"freq":116.6,"lat":38.24555800,"lon":-121.94507200,"rng_nm":40,"alt_fmsl":32,"id":"SUU","desc":"TRAVIS TACAN"},
{"type":"NDB","hdg_t":79.3,"dist_nm":75.1,"freq":351,"lat":39.51954200,"lon":-119.76920600,"rng_nm":15,"alt_fmsl":4400,"id":"NO","desc":"Josef NDB"},
{"type":"VOR","hdg_t":167,"dist_nm":75.3,"freq":114.8,"lat":38.07458333,"lon":-121.00386111,"rng_nm":130,"alt_fmsl":260,"id":"LIN","desc":"LINDEN VORTAC"},
{"type":"VOR","hdg_t":79.5,"dist_nm":80.4,"freq":117.9,"lat":39.53127778,"lon":-119.65608333,"rng_nm":130,"alt_fmsl":5949,"id":"FMG","desc":"MUSTANG VORTAC"},
{"type":"VOR","hdg_t":43.5,"dist_nm":80.5,"freq":109,"lat":40.26786111,"lon":-120.15197222,"rng_nm":25,"alt_fmsl":4006,"id":"AHC","desc":"AMEDEE VOR-DME"},
{"type":"NDB","hdg_t":203,"dist_nm":81.5,"freq":335,"lat":38.04641667,"lon":-122.03344444,"rng_nm":50,"alt_fmsl":0,"id":"CC","desc":"KANAN NDB"},
{"type":"VOR","hdg_t":203.4,"dist_nm":81.8,"freq":117,"lat":38.04491667,"lon":-122.04519444,"rng_nm":25,"alt_fmsl":5,"id":"CCR","desc":"CONCORD VOR-DME"},
{"type":"VOR","hdg_t":215.6,"dist_nm":82.3,"freq":112.1,"lat":38.17936111,"lon":-122.37313889,"rng_nm":40,"alt_fmsl":6,"id":"SGD","desc":"SCAGGS ISLAND VORTAC"},
{"type":"VOR","hdg_t":235.5,"dist_nm":82.8,"freq":113,"lat":38.50816667,"lon":-122.81047222,"rng_nm":40,"alt_fmsl":117,"id":"STS","desc":"SANTA ROSA VOR-DME"},
{"type":"VOR","hdg_t":329.5,"dist_nm":84,"freq":108.4,"lat":40.50455556,"lon":-122.29169444,"rng_nm":25,"alt_fmsl":490,"id":"RDD","desc":"REDDING VOR-DME"},
{"type":"NDB","hdg_t":269.6,"dist_nm":87.6,"freq":371,"lat":39.27586111,"lon":-123.24041667,"rng_nm":50,"alt_fmsl":0,"id":"UK","desc":"KEARN NDB"},
{"type":"VOR","hdg_t":174.1,"dist_nm":88.3,"freq":116,"lat":37.83361111,"lon":-121.17138889,"rng_nm":130,"alt_fmsl":47,"id":"ECA","desc":"MANTECA VOR-DME"},
{"type":"VOR","hdg_t":261.2,"dist_nm":90.5,"freq":112.3,"lat":39.05322222,"lon":-123.27419444,"rng_nm":130,"alt_fmsl":2980,"id":"ENI","desc":"MENDOCINO VORTAC"},
{"type":"NDB","hdg_t":182.4,"dist_nm":96.4,"freq":203,"lat":37.69238889,"lon":-121.44463889,"rng_nm":50,"alt_fmsl":0,"id":"TCY","desc":"TRACY NDB"},
{"type":"NDB","hdg_t":189.1,"dist_nm":97.5,"freq":374,"lat":37.69222222,"lon":-121.68408333,"rng_nm":50,"alt_fmsl":0,"id":"LV","desc":"REIGA NDB"}
]
}
