{"success":true,"source":"xp2csv.pl","last_updated":"2013/11/08 14:53:21 UTC"
,"icao":"35KS","name":"Selby Farm","lat":37.53362888,"lon":-97.31171139,"rwys":1,"ils":0,"index":1351650,"path":"w100n30/w098n37"
,"runways":[
{"len_m":401,"wid_m":45.72,"hdg":176,"surf":"Turf/grass","rwy1":"17","lat1":37.53543677,"lon1":-97.31183087,"rwy2":"35","lat2":37.53182099,"lon2":-97.31159191}
]
,"navaids":[
{"type":"SDME","hdg_t":21.4,"dist_nm":5.6,"freq":116.5,"lat":37.62185300,"lon":-97.26819200,"rng_nm":40,"alt_fmsl":1374,"id":"IAB","desc":"MC CONNELL TACAN"},
{"type":"NDB","hdg_t":291.2,"dist_nm":7.3,"freq":332,"lat":37.57819444,"lon":-97.45586111,"rng_nm":50,"alt_fmsl":0,"id":"IC","desc":"PICHE NDB"},
{"type":"NDB","hdg_t":196.6,"dist_nm":13.1,"freq":414,"lat":37.32366667,"lon":-97.39019444,"rng_nm":50,"alt_fmsl":0,"id":"EGT","desc":"WELLINGTON NDB"},
{"type":"VOR","hdg_t":314.4,"dist_nm":18.1,"freq":113.8,"lat":37.74525000,"lon":-97.58383333,"rng_nm":130,"alt_fmsl":1471,"id":"ICT","desc":"WICHITA VORTAC"},
{"type":"NDB","hdg_t":153.5,"dist_nm":29.6,"freq":353,"lat":37.08972222,"lon":-97.03625000,"rng_nm":50,"alt_fmsl":0,"id":"SO","desc":"SAWCY NDB"},
{"type":"NDB","hdg_t":3.2,"dist_nm":31.8,"freq":281,"lat":38.06408333,"lon":-97.27344444,"rng_nm":50,"alt_fmsl":0,"id":"EWK","desc":"NEWTON NDB"},
{"type":"NDB","hdg_t":2.6,"dist_nm":36.6,"freq":395,"lat":38.14491667,"lon":-97.27613889,"rng_nm":50,"alt_fmsl":0,"id":"CA","desc":"HARVS NDB"},
{"type":"VOR","hdg_t":313.3,"dist_nm":40.5,"freq":116.8,"lat":37.99691667,"lon":-97.93413889,"rng_nm":40,"alt_fmsl":1542,"id":"HUT","desc":"HUTCHINSON VOR-DME"},
{"type":"NDB","hdg_t":166.5,"dist_nm":43.6,"freq":515,"lat":36.82502778,"lon":-97.10052778,"rng_nm":50,"alt_fmsl":0,"id":"PN","desc":"PONCA NDB"},
{"type":"NDB","hdg_t":320.5,"dist_nm":45.8,"freq":404,"lat":38.12372222,"lon":-97.92702778,"rng_nm":50,"alt_fmsl":0,"id":"HU","desc":"SALTT NDB"},
{"type":"VOR","hdg_t":241.6,"dist_nm":46.8,"freq":112.9,"lat":37.15891667,"lon":-98.17072222,"rng_nm":40,"alt_fmsl":1390,"id":"ANY","desc":"ANTHONY VORTAC"},
{"type":"VOR","hdg_t":171.1,"dist_nm":47.7,"freq":113.2,"lat":36.74652778,"lon":-97.16016667,"rng_nm":130,"alt_fmsl":1054,"id":"PER","desc":"PIONEER VORTAC"},
{"type":"NDB","hdg_t":340,"dist_nm":51.9,"freq":227,"lat":38.34850000,"lon":-97.68730556,"rng_nm":50,"alt_fmsl":0,"id":"MPR","desc":"MC PHERSON NDB"},
{"type":"NDB","hdg_t":318.5,"dist_nm":65.3,"freq":386,"lat":38.34722222,"lon":-98.22700000,"rng_nm":50,"alt_fmsl":0,"id":"LYO","desc":"LYONS NDB"},
{"type":"NDB","hdg_t":280,"dist_nm":69.3,"freq":356,"lat":37.72630556,"lon":-98.74708333,"rng_nm":50,"alt_fmsl":0,"id":"PTT","desc":"PRATT NDB"},
{"type":"NDB","hdg_t":347.1,"dist_nm":70.5,"freq":344,"lat":38.68152778,"lon":-97.64505556,"rng_nm":50,"alt_fmsl":0,"id":"SL","desc":"FLORY NDB"},
{"type":"VOR","hdg_t":50.4,"dist_nm":71.8,"freq":112.8,"lat":38.29113889,"lon":-96.13811111,"rng_nm":40,"alt_fmsl":1233,"id":"EMP","desc":"EMPORIA VORTAC"},
{"type":"VOR","hdg_t":198.3,"dist_nm":73.1,"freq":109,"lat":36.37375000,"lon":-97.78816667,"rng_nm":25,"alt_fmsl":1149,"id":"ODG","desc":"WOODRING VOR-DME"},
{"type":"NDB","hdg_t":18.6,"dist_nm":73.4,"freq":407,"lat":38.69277778,"lon":-96.81111111,"rng_nm":50,"alt_fmsl":0,"id":"HRU","desc":"HERINGTON NDB"},
{"type":"NDB","hdg_t":123.3,"dist_nm":74.8,"freq":201,"lat":36.83950000,"lon":-96.01397222,"rng_nm":50,"alt_fmsl":0,"id":"BV","desc":"DEWIE NDB"},
{"type":"VOR","hdg_t":123.6,"dist_nm":74.8,"freq":117.9,"lat":36.83425000,"lon":-96.01830556,"rng_nm":40,"alt_fmsl":940,"id":"BVO","desc":"BARTLESVILLE VOR-DME"},
{"type":"VOR","hdg_t":202.4,"dist_nm":76.9,"freq":115.4,"lat":36.34497222,"lon":-97.91836111,"rng_nm":130,"alt_fmsl":1276,"id":"END","desc":"VANCE VORTAC"},
{"type":"NDB","hdg_t":172,"dist_nm":78.4,"freq":255,"lat":36.23616667,"lon":-97.08730556,"rng_nm":50,"alt_fmsl":0,"id":"SW","desc":"BLAKI NDB"},
{"type":"NDB","hdg_t":110.4,"dist_nm":78.6,"freq":329,"lat":37.06583333,"lon":-95.77775000,"rng_nm":50,"alt_fmsl":0,"id":"ID","desc":"JEFFE NDB"},
{"type":"NDB","hdg_t":197.1,"dist_nm":78.8,"freq":341,"lat":36.27502778,"lon":-97.79077778,"rng_nm":50,"alt_fmsl":0,"id":"EI","desc":"GARFY NDB"},
{"type":"VOR","hdg_t":171.8,"dist_nm":79.2,"freq":108.4,"lat":36.22425000,"lon":-97.08125000,"rng_nm":25,"alt_fmsl":1022,"id":"SWO","desc":"STILLWATER VOR-DME"},
{"type":"VOR","hdg_t":85.6,"dist_nm":82.1,"freq":109.2,"lat":37.62613889,"lon":-95.59344444,"rng_nm":40,"alt_fmsl":1080,"id":"CNU","desc":"CHANUTE VOR-DME"},
{"type":"VOR","hdg_t":350.1,"dist_nm":84.6,"freq":117.1,"lat":38.92513889,"lon":-97.62136111,"rng_nm":130,"alt_fmsl":1310,"id":"SLN","desc":"SALINA VORTAC"},
{"type":"NDB","hdg_t":300.8,"dist_nm":85,"freq":419,"lat":38.25169444,"lon":-98.85580556,"rng_nm":50,"alt_fmsl":0,"id":"GB","desc":"BABSY NDB"},
{"type":"NDB","hdg_t":97.1,"dist_nm":86.9,"freq":258,"lat":37.33814700,"lon":-95.50870000,"rng_nm":25,"alt_fmsl":900,"id":"PPF","desc":"PARSONS NDB"},
{"type":"NDB","hdg_t":107,"dist_nm":87.3,"freq":212,"lat":37.09327778,"lon":-95.57133333,"rng_nm":50,"alt_fmsl":0,"id":"CFV","desc":"COFFEYVILLE NDB"},
{"type":"NDB","hdg_t":58.2,"dist_nm":88.3,"freq":245,"lat":38.29975000,"lon":-95.72147222,"rng_nm":50,"alt_fmsl":0,"id":"UKL","desc":"BOYD NDB"},
{"type":"VOR","hdg_t":13.7,"dist_nm":88.6,"freq":109.4,"lat":38.97016667,"lon":-96.86116667,"rng_nm":25,"alt_fmsl":0,"id":"FRI","desc":"FORT RILEY VOR"},
{"type":"NDB","hdg_t":303.7,"dist_nm":90.2,"freq":338,"lat":38.35908333,"lon":-98.90288889,"rng_nm":50,"alt_fmsl":0,"id":"HIL","desc":"HILYN NDB"},
{"type":"NDB","hdg_t":79.7,"dist_nm":91.6,"freq":410,"lat":37.79152778,"lon":-95.41491667,"rng_nm":50,"alt_fmsl":0,"id":"MSB","desc":"MONARCH NDB"},
{"type":"NDB","hdg_t":15.1,"dist_nm":92.7,"freq":314,"lat":39.02600000,"lon":-96.79450000,"rng_nm":50,"alt_fmsl":0,"id":"CVY","desc":"CAVALRY NDB"},
{"type":"NDB","hdg_t":296,"dist_nm":93.4,"freq":296,"lat":38.20436111,"lon":-99.08791667,"rng_nm":50,"alt_fmsl":0,"id":"LQR","desc":"LARNED NDB"},
{"type":"NDB","hdg_t":217.2,"dist_nm":93.5,"freq":246,"lat":36.28516700,"lon":-98.47800000,"rng_nm":25,"alt_fmsl":1273,"id":"FAU","desc":"FAIRVIEW NDB"},
{"type":"NDB","hdg_t":145.2,"dist_nm":98.7,"freq":362,"lat":36.17297222,"lon":-96.15422222,"rng_nm":50,"alt_fmsl":0,"id":"OWP","desc":"WILLIAM POGUE NDB"}
]
}
