{"success":true,"source":"xp2csv.pl","last_updated":"2013/11/08 14:53:21 UTC"
,"icao":"36NE","name":"Frevert Airstrip","lat":42.51435206,"lon":-97.5812035,"rwys":1,"ils":0,"index":1351969,"path":"w100n40/w098n42"
,"runways":[
{"len_m":816,"wid_m":22.86,"hdg":158,"surf":"Turf/grass","rwy1":"15","lat1":42.51775917,"lon1":-97.58306164,"rwy2":"33","lat2":42.51094495,"lon2":-97.57934536}
]
,"navaids":[
{"type":"NDB","hdg_t":31.9,"dist_nm":23.2,"freq":347,"lat":42.84372222,"lon":-97.30211111,"rng_nm":50,"alt_fmsl":0,"id":"YK","desc":"CAGUR NDB"},
{"type":"VOR","hdg_t":19.6,"dist_nm":25.7,"freq":111.4,"lat":42.91836111,"lon":-97.38497222,"rng_nm":40,"alt_fmsl":1301,"id":"YKN","desc":"YANKTON VOR-DME"},
{"type":"NDB","hdg_t":121.3,"dist_nm":31.1,"freq":389,"lat":42.24255556,"lon":-96.98375000,"rng_nm":50,"alt_fmsl":0,"id":"LCG","desc":"WAYNE NDB"},
{"type":"VOR","hdg_t":168.2,"dist_nm":32.2,"freq":109.6,"lat":41.98791667,"lon":-97.43458333,"rng_nm":40,"alt_fmsl":1540,"id":"OFK","desc":"NORFOLK VOR-DME"},
{"type":"NDB","hdg_t":173.1,"dist_nm":37.8,"freq":510,"lat":41.88761111,"lon":-97.48025000,"rng_nm":50,"alt_fmsl":0,"id":"OF","desc":"CARSY NDB"},
{"type":"NDB","hdg_t":316.5,"dist_nm":45.5,"freq":392,"lat":43.06338889,"lon":-98.29316667,"rng_nm":50,"alt_fmsl":0,"id":"AGZ","desc":"WAGNER NDB"},
{"type":"VOR","hdg_t":267.3,"dist_nm":49.1,"freq":113.9,"lat":42.47050000,"lon":-98.68691667,"rng_nm":130,"alt_fmsl":2030,"id":"ONL","desc":"O NEILL VORTAC"},
{"type":"NDB","hdg_t":93.3,"dist_nm":49.7,"freq":305,"lat":42.46011111,"lon":-96.46222222,"rng_nm":50,"alt_fmsl":0,"id":"OI","desc":"TOMMI NDB"},
{"type":"NDB","hdg_t":204.2,"dist_nm":51.5,"freq":332,"lat":41.72958333,"lon":-98.05269444,"rng_nm":50,"alt_fmsl":0,"id":"BVN","desc":"ALABY NDB"},
{"type":"NDB","hdg_t":96.4,"dist_nm":53.4,"freq":233,"lat":42.40811111,"lon":-96.38602778,"rng_nm":50,"alt_fmsl":0,"id":"GAK","desc":"SIOUX GATEWAY NDB"},
{"type":"VOR","hdg_t":99.9,"dist_nm":56.7,"freq":116.5,"lat":42.34452778,"lon":-96.32363889,"rng_nm":40,"alt_fmsl":1087,"id":"SUX","desc":"SIOUX CITY VORTAC"},
{"type":"NDB","hdg_t":100.6,"dist_nm":58.4,"freq":414,"lat":42.32752778,"lon":-96.29050000,"rng_nm":50,"alt_fmsl":0,"id":"SU","desc":"SALIX NDB"},
{"type":"NDB","hdg_t":171.6,"dist_nm":61.6,"freq":407,"lat":41.49655556,"lon":-97.38175000,"rng_nm":50,"alt_fmsl":0,"id":"PLT","desc":"PLATTE CENTER NDB"},
{"type":"NDB","hdg_t":75.2,"dist_nm":63.4,"freq":382,"lat":42.77443300,"lon":-96.19252200,"rng_nm":25,"alt_fmsl":1190,"id":"LRJ","desc":"LE MARS NDB"},
{"type":"VOR","hdg_t":170.3,"dist_nm":64.7,"freq":111.8,"lat":41.45002778,"lon":-97.34080556,"rng_nm":40,"alt_fmsl":1442,"id":"OLU","desc":"COLUMBUS VOR-DME"},
{"type":"NDB","hdg_t":29.1,"dist_nm":67.4,"freq":245,"lat":43.49416667,"lon":-96.82877778,"rng_nm":50,"alt_fmsl":0,"id":"FS","desc":"ROKKY NDB"},
{"type":"VOR","hdg_t":141.7,"dist_nm":69.1,"freq":111,"lat":41.60475000,"lon":-96.62883333,"rng_nm":25,"alt_fmsl":1318,"id":"SCB","desc":"SCRIBNER VOR-DME"},
{"type":"NDB","hdg_t":58.3,"dist_nm":71.7,"freq":368,"lat":43.13302778,"lon":-96.18975000,"rng_nm":50,"alt_fmsl":0,"id":"SOY","desc":"SIOUX CENTER NDB"},
{"type":"NDB","hdg_t":66.4,"dist_nm":73,"freq":521,"lat":42.99138889,"lon":-96.06058333,"rng_nm":50,"alt_fmsl":0,"id":"ORC","desc":"ORANGE CITY NDB"},
{"type":"VOR","hdg_t":207.1,"dist_nm":76.5,"freq":114.8,"lat":41.37572222,"lon":-98.35358333,"rng_nm":130,"alt_fmsl":2010,"id":"OBH","desc":"WOLBACH VORTAC"},
{"type":"VOR","hdg_t":27,"dist_nm":76.6,"freq":115,"lat":43.64950000,"lon":-96.78113889,"rng_nm":130,"alt_fmsl":1571,"id":"FSD","desc":"SIOUX FALLS VORTAC"},
{"type":"VOR","hdg_t":125.3,"dist_nm":77.2,"freq":108.4,"lat":41.75958333,"lon":-96.17855556,"rng_nm":25,"alt_fmsl":0,"id":"TQE","desc":"TEKAMAH VOR"},
{"type":"VOR","hdg_t":345.3,"dist_nm":78.3,"freq":109.2,"lat":43.77702778,"lon":-98.03758333,"rng_nm":40,"alt_fmsl":1298,"id":"MHE","desc":"MITCHELL VOR-DME"},
{"type":"NDB","hdg_t":229.2,"dist_nm":81.1,"freq":356,"lat":41.62375000,"lon":-98.94800000,"rng_nm":50,"alt_fmsl":0,"id":"ODX","desc":"ORD NDB"},
{"type":"NDB","hdg_t":103.5,"dist_nm":81.9,"freq":335,"lat":42.18055556,"lon":-95.79472222,"rng_nm":50,"alt_fmsl":0,"id":"MEY","desc":"MAPLETON NDB"},
{"type":"NDB","hdg_t":238,"dist_nm":82.7,"freq":377,"lat":41.77469444,"lon":-99.14552778,"rng_nm":50,"alt_fmsl":0,"id":"BUB","desc":"BURWELL NDB"},
{"type":"NDB","hdg_t":60.8,"dist_nm":87.7,"freq":338,"lat":43.21416667,"lon":-95.83386111,"rng_nm":50,"alt_fmsl":0,"id":"SHL","desc":"SHELDON NDB"},
{"type":"VOR","hdg_t":60.9,"dist_nm":87.7,"freq":108.6,"lat":43.21213889,"lon":-95.83391667,"rng_nm":25,"alt_fmsl":1417,"id":"DDL","desc":"SHELDON VOR-DME"},
{"type":"NDB","hdg_t":149.7,"dist_nm":88.2,"freq":400,"lat":41.23916667,"lon":-96.59836111,"rng_nm":50,"alt_fmsl":0,"id":"AHQ","desc":"WAHOO NDB"},
{"type":"NDB","hdg_t":272.9,"dist_nm":88.6,"freq":341,"lat":42.57358333,"lon":-99.57780556,"rng_nm":50,"alt_fmsl":0,"id":"RBE","desc":"ROCK CO NDB"},
{"type":"NDB","hdg_t":13.3,"dist_nm":92.4,"freq":400,"lat":44.01327778,"lon":-97.08841667,"rng_nm":50,"alt_fmsl":0,"id":"MDS","desc":"WENTWORTH NDB"},
{"type":"NDB","hdg_t":56.9,"dist_nm":95.4,"freq":269,"lat":43.36802778,"lon":-95.75252778,"rng_nm":50,"alt_fmsl":0,"id":"ISB","desc":"SIBLEY NDB"},
{"type":"NDB","hdg_t":180.9,"dist_nm":96.9,"freq":257,"lat":40.89755556,"lon":-97.61700000,"rng_nm":50,"alt_fmsl":0,"id":"JYR","desc":"YORK NDB"},
{"type":"VOR","hdg_t":199.9,"dist_nm":97.5,"freq":112,"lat":40.98402778,"lon":-98.31477778,"rng_nm":40,"alt_fmsl":1840,"id":"GRI","desc":"GRAND ISLAND VORTAC"},
{"type":"NDB","hdg_t":191,"dist_nm":99,"freq":278,"lat":40.89251400,"lon":-97.99719400,"rng_nm":25,"alt_fmsl":1799,"id":"AUH","desc":"AURORA NDB"}
]
}
