{"success":true,"source":"xp2csv.pl","last_updated":"2013/11/08 14:53:21 UTC"
,"icao":"38LA","name":"Whiteville","lat":30.78436194,"lon":-92.18234556,"rwys":1,"ils":0,"index":1433139,"path":"w100n30/w093n30"
,"runways":[
{"len_m":915,"wid_m":30.48,"hdg":54,"surf":"Turf/grass","rwy1":"05","lat1":30.78194351,"lon1":-92.18622017,"rwy2":"23","lat2":30.78678037,"lon2":-92.17847095}
]
,"navaids":[
{"type":"NDB","hdg_t":331.1,"dist_nm":5.5,"freq":397,"lat":30.86541667,"lon":-92.23408333,"rng_nm":50,"alt_fmsl":0,"id":"BWK","desc":"BUNKIE NDB"},
{"type":"NDB","hdg_t":150.7,"dist_nm":8.8,"freq":335,"lat":30.65525000,"lon":-92.09869444,"rng_nm":50,"alt_fmsl":0,"id":"OPL","desc":"SAINT LANDRY NDB"},
{"type":"NDB","hdg_t":225.7,"dist_nm":19.2,"freq":263,"lat":30.55983333,"lon":-92.44808333,"rng_nm":50,"alt_fmsl":0,"id":"ECY","desc":"DURALDE NDB"},
{"type":"NDB","hdg_t":16.9,"dist_nm":19.4,"freq":347,"lat":31.09461111,"lon":-92.07266667,"rng_nm":50,"alt_fmsl":0,"id":"MKV","desc":"MARKSVILLE NDB"},
{"type":"NDB","hdg_t":252,"dist_nm":27.5,"freq":379,"lat":30.64122222,"lon":-92.68916667,"rng_nm":50,"alt_fmsl":0,"id":"LRR","desc":"OAKDALE NDB"},
{"type":"VOR","hdg_t":329.9,"dist_nm":32.7,"freq":116.1,"lat":31.25672222,"lon":-92.50097222,"rng_nm":130,"alt_fmsl":80,"id":"AEX","desc":"ALEXANDRIA VORTAC"},
{"type":"NDB","hdg_t":154.2,"dist_nm":32.8,"freq":375,"lat":30.28930556,"lon":-91.90794444,"rng_nm":50,"alt_fmsl":0,"id":"LF","desc":"LAFFS NDB"},
{"type":"NDB","hdg_t":0,"dist_nm":36.3,"freq":223,"lat":31.39205556,"lon":-92.18200000,"rng_nm":50,"alt_fmsl":0,"id":"ES","desc":"ANDRA NDB"},
{"type":"VOR","hdg_t":164.4,"dist_nm":36.6,"freq":109.8,"lat":30.19380556,"lon":-91.99258333,"rng_nm":40,"alt_fmsl":36,"id":"LFT","desc":"LAFAYETTE VORTAC"},
{"type":"NDB","hdg_t":103.9,"dist_nm":36.9,"freq":356,"lat":30.63313300,"lon":-91.48941800,"rng_nm":25,"alt_fmsl":35,"id":"HZ","desc":"HAZER NDB"},
{"type":"NDB","hdg_t":103.9,"dist_nm":36.9,"freq":356,"lat":30.63313889,"lon":-91.48941667,"rng_nm":50,"alt_fmsl":0,"id":"FWX","desc":"NEW ROADS NDB"},
{"type":"VOR","hdg_t":349.7,"dist_nm":40.3,"freq":117.9,"lat":31.44751100,"lon":-92.32193900,"rng_nm":130,"alt_fmsl":195,"id":"ESF","desc":"ESLER VORTAC"},
{"type":"NDB","hdg_t":175.9,"dist_nm":43.4,"freq":230,"lat":30.06113889,"lon":-92.12327778,"rng_nm":50,"alt_fmsl":0,"id":"BNZ","desc":"ABBEVILLE NDB"},
{"type":"VOR","hdg_t":111,"dist_nm":49.3,"freq":116.5,"lat":30.48513889,"lon":-91.29405556,"rng_nm":40,"alt_fmsl":20,"id":"BTR","desc":"BATON ROUGE VORTAC"},
{"type":"NDB","hdg_t":103.2,"dist_nm":51.6,"freq":284,"lat":30.58288889,"lon":-91.21102778,"rng_nm":50,"alt_fmsl":0,"id":"BT","desc":"RUNDI NDB"},
{"type":"NDB","hdg_t":161.4,"dist_nm":52.2,"freq":269,"lat":29.95627778,"lon":-91.86333333,"rng_nm":50,"alt_fmsl":0,"id":"AR","desc":"ACADI NDB"},
{"type":"NDB","hdg_t":286,"dist_nm":53.7,"freq":359,"lat":31.02825000,"lon":-93.18483333,"rng_nm":50,"alt_fmsl":0,"id":"GUV","desc":"GATOR NDB"},
{"type":"VOR","hdg_t":290.4,"dist_nm":56.9,"freq":108.4,"lat":31.11163889,"lon":-93.21791667,"rng_nm":25,"alt_fmsl":312,"id":"FXU","desc":"POLK VORTAC"},
{"type":"NDB","hdg_t":268.4,"dist_nm":59.6,"freq":385,"lat":30.75213889,"lon":-93.33472222,"rng_nm":50,"alt_fmsl":0,"id":"DXB","desc":"DE RIDDER NDB"},
{"type":"NDB","hdg_t":241.6,"dist_nm":59.8,"freq":418,"lat":30.30663889,"lon":-93.19619444,"rng_nm":50,"alt_fmsl":0,"id":"CW","desc":"MOSSY NDB"},
{"type":"VOR","hdg_t":231.4,"dist_nm":61.4,"freq":113.4,"lat":30.14150000,"lon":-93.10555556,"rng_nm":130,"alt_fmsl":20,"id":"LCH","desc":"LAKE CHARLES VORTAC"},
{"type":"NDB","hdg_t":287.9,"dist_nm":62.7,"freq":247,"lat":31.10236111,"lon":-93.34194444,"rng_nm":50,"alt_fmsl":0,"id":"VED","desc":"LEESVILLE NDB"},
{"type":"NDB","hdg_t":237.9,"dist_nm":66.2,"freq":353,"lat":30.19305556,"lon":-93.26313889,"rng_nm":50,"alt_fmsl":0,"id":"LC","desc":"KEYLI NDB"},
{"type":"VOR","hdg_t":42,"dist_nm":67.4,"freq":110,"lat":31.61819444,"lon":-91.29963889,"rng_nm":40,"alt_fmsl":280,"id":"HEZ","desc":"NATCHEZ VOR-DME"},
{"type":"VOR","hdg_t":188.4,"dist_nm":67.8,"freq":110.4,"lat":29.66322222,"lon":-92.37363889,"rng_nm":40,"alt_fmsl":40,"id":"LLA","desc":"WHITE LAKE VOR-DME"},
{"type":"NDB","hdg_t":318.8,"dist_nm":69.6,"freq":407,"lat":31.65744444,"lon":-93.07761111,"rng_nm":50,"alt_fmsl":0,"id":"OOC","desc":"NATCHITOCHES NDB"},
{"type":"NDB","hdg_t":252.8,"dist_nm":69.7,"freq":410,"lat":30.43533333,"lon":-93.46708333,"rng_nm":50,"alt_fmsl":0,"id":"DQU","desc":"DE QUINCY NDB"},
{"type":"NDB","hdg_t":39.9,"dist_nm":70.9,"freq":388,"lat":31.69022222,"lon":-91.29330556,"rng_nm":50,"alt_fmsl":0,"id":"HAH","desc":"NATCHEZ-ADAMS CO NDB"},
{"type":"NDB","hdg_t":241.6,"dist_nm":73.1,"freq":278,"lat":30.19852778,"lon":-93.42063889,"rng_nm":50,"alt_fmsl":0,"id":"AUR","desc":"SULPHUR NDB"},
{"type":"VOR","hdg_t":340.4,"dist_nm":75.5,"freq":113.75,"lat":31.97319444,"lon":-92.67708333,"rng_nm":130,"alt_fmsl":164,"id":"SWB","desc":"SAWMILL VOR-DME"},
{"type":"NDB","hdg_t":145.3,"dist_nm":77.6,"freq":245,"lat":29.71463889,"lon":-91.33672222,"rng_nm":50,"alt_fmsl":0,"id":"PTN","desc":"PATTERSON NDB"},
{"type":"NDB","hdg_t":304.3,"dist_nm":84.3,"freq":272,"lat":31.57127778,"lon":-93.54155556,"rng_nm":50,"alt_fmsl":0,"id":"MMY","desc":"MANY NDB"},
{"type":"NDB","hdg_t":341.9,"dist_nm":89.2,"freq":256,"lat":32.20127778,"lon":-92.72597222,"rng_nm":50,"alt_fmsl":0,"id":"JBL","desc":"HODGE NDB"},
{"type":"NDB","hdg_t":71.4,"dist_nm":90.6,"freq":413,"lat":31.25450000,"lon":-90.51041667,"rng_nm":50,"alt_fmsl":0,"id":"MC","desc":"FERNI NDB"},
{"type":"NDB","hdg_t":96.2,"dist_nm":91.7,"freq":212,"lat":30.60633333,"lon":-90.42116667,"rng_nm":50,"alt_fmsl":0,"id":"HP","desc":"ANGER NDB"},
{"type":"VOR","hdg_t":116.3,"dist_nm":92.5,"freq":110.8,"lat":30.08750000,"lon":-90.58863889,"rng_nm":40,"alt_fmsl":5,"id":"RQR","desc":"RESERVE VOR-DME"},
{"type":"VOR","hdg_t":99.3,"dist_nm":92.7,"freq":109.6,"lat":30.51941667,"lon":-90.41750000,"rng_nm":25,"alt_fmsl":0,"id":"HMU","desc":"HAMMOND VOR"},
{"type":"NDB","hdg_t":243.3,"dist_nm":93.9,"freq":211,"lat":30.07027778,"lon":-93.79494444,"rng_nm":50,"alt_fmsl":0,"id":"ORG","desc":"ORANGE NDB"},
{"type":"VOR","hdg_t":133.2,"dist_nm":97.1,"freq":112,"lat":29.66433333,"lon":-90.82908333,"rng_nm":40,"alt_fmsl":10,"id":"TBD","desc":"TIBBY VORTAC"},
{"type":"NDB","hdg_t":11.9,"dist_nm":99.4,"freq":338,"lat":32.40916667,"lon":-91.77794444,"rng_nm":50,"alt_fmsl":0,"id":"MRK","desc":"MOLLY RIDGE NDB"},
{"type":"NDB","hdg_t":348,"dist_nm":99.4,"freq":350,"lat":32.40886111,"lon":-92.58944444,"rng_nm":50,"alt_fmsl":0,"id":"TUF","desc":"STUCKEY NDB"}
]
}
