{"success":true,"source":"xp2csv.pl","last_updated":"2013/11/08 14:53:21 UTC"
,"icao":"38OR","name":"Holdana Field","lat":42.20456416,"lon":-123.29144417,"rwys":1,"ils":0,"index":925962,"path":"w130n40/w124n42"
,"runways":[
{"len_m":351,"wid_m":18.29,"hdg":117,"surf":"Dirt","rwy1":"10","lat1":42.20530462,"lon1":-123.29332415,"rwy2":"28","lat2":42.20382370,"lon2":-123.28956419}
]
,"navaids":[
{"type":"NDB","hdg_t":58.4,"dist_nm":21.5,"freq":356,"lat":42.39161111,"lon":-122.87883333,"rng_nm":50,"alt_fmsl":0,"id":"MEF","desc":"MEDFORD NDB"},
{"type":"NDB","hdg_t":48.5,"dist_nm":22.3,"freq":373,"lat":42.45097222,"lon":-122.91336111,"rng_nm":50,"alt_fmsl":0,"id":"MF","desc":"PUMIE NDB"},
{"type":"VOR","hdg_t":45.4,"dist_nm":23.5,"freq":113.6,"lat":42.47958333,"lon":-122.91294444,"rng_nm":130,"alt_fmsl":2083,"id":"OED","desc":"ROGUE VALLEY VORTAC"},
{"type":"NDB","hdg_t":128,"dist_nm":46.1,"freq":404,"lat":41.72727778,"lon":-122.48169444,"rng_nm":50,"alt_fmsl":0,"id":"MOG","desc":"MONTAGUE NDB"},
{"type":"VOR","hdg_t":239.3,"dist_nm":49.5,"freq":109,"lat":41.77958333,"lon":-124.24083333,"rng_nm":40,"alt_fmsl":54,"id":"CEC","desc":"CRESCENT CITY VORTAC"},
{"type":"VOR","hdg_t":154.1,"dist_nm":50.2,"freq":109.6,"lat":41.44966667,"lon":-122.80644444,"rng_nm":40,"alt_fmsl":4900,"id":"FJS","desc":"FORT JONES VOR-DME"},
{"type":"VOR","hdg_t":357.3,"dist_nm":58.7,"freq":108.2,"lat":43.18241667,"lon":-123.35225000,"rng_nm":40,"alt_fmsl":1320,"id":"RBG","desc":"ROSEBURG VOR-DME"},
{"type":"NDB","hdg_t":357.2,"dist_nm":61.8,"freq":400,"lat":43.23525000,"lon":-123.35802778,"rng_nm":50,"alt_fmsl":0,"id":"RBG","desc":"ROSEBURG NDB"},
{"type":"VOR","hdg_t":92,"dist_nm":69.8,"freq":115.9,"lat":42.15313889,"lon":-121.72752778,"rng_nm":130,"alt_fmsl":4087,"id":"LMT","desc":"KLAMATH FALLS VORTAC"},
{"type":"VOR","hdg_t":206.8,"dist_nm":82,"freq":110.2,"lat":40.98144444,"lon":-124.10830556,"rng_nm":40,"alt_fmsl":193,"id":"ACV","desc":"ARCATA VOR-DME"},
{"type":"VOR","hdg_t":332.2,"dist_nm":82.3,"freq":112.1,"lat":43.41550000,"lon":-124.16852778,"rng_nm":40,"alt_fmsl":707,"id":"OTH","desc":"NORTH BEND VORTAC"},
{"type":"NDB","hdg_t":328.1,"dist_nm":84.3,"freq":378,"lat":43.39444444,"lon":-124.31027778,"rng_nm":50,"alt_fmsl":0,"id":"OT","desc":"EMIRE NDB"}
]
}
