{"success":true,"source":"xp2csv.pl","last_updated":"2013/11/08 14:53:21 UTC"
,"icao":"39G","name":"Rasor","lat":43.0300275,"lon":-82.66936862,"rwys":1,"ils":0,"index":1597761,"path":"w090n40/w083n43"
,"runways":[
{"len_m":642,"wid_m":30.48,"hdg":84,"surf":"Turf/grass","rwy1":"09","lat1":43.02972644,"lon1":-82.67328704,"rwy2":"27","lat2":43.03032856,"lon2":-82.66545020}
]
,"navaids":[
{"type":"NDB","hdg_t":164,"dist_nm":11.6,"freq":332,"lat":42.84291667,"lon":-82.59669444,"rng_nm":50,"alt_fmsl":0,"id":"PH","desc":"PHURN NDB"},
{"type":"VOR","hdg_t":351,"dist_nm":13.7,"freq":114,"lat":43.25588889,"lon":-82.71791667,"rng_nm":130,"alt_fmsl":810,"id":"ECK","desc":"PECK VORTAC"},
{"type":"NDB","hdg_t":105.4,"dist_nm":19.9,"freq":404,"lat":42.94047222,"lon":-82.23383333,"rng_nm":50,"alt_fmsl":0,"id":"ZR","desc":"SARNIA NDB"},
{"type":"NDB","hdg_t":210.6,"dist_nm":25.6,"freq":215,"lat":42.66142200,"lon":-82.96548100,"rng_nm":25,"alt_fmsl":607,"id":"UIZ","desc":"BERZ NDB"},
{"type":"NDB","hdg_t":210.4,"dist_nm":37.1,"freq":338,"lat":42.49477778,"lon":-83.09330556,"rng_nm":50,"alt_fmsl":0,"id":"DE","desc":"MADDS (LOM) NDB"},
{"type":"NDB","hdg_t":197.4,"dist_nm":42.3,"freq":230,"lat":42.35625000,"lon":-82.95427778,"rng_nm":50,"alt_fmsl":0,"id":"VQ","desc":"CARGL NDB"},
{"type":"VOR","hdg_t":242.8,"dist_nm":42.9,"freq":111,"lat":42.70086111,"lon":-83.53275000,"rng_nm":40,"alt_fmsl":1148,"id":"PSI","desc":"PONTIAC VORTAC"},
{"type":"NDB","hdg_t":191.6,"dist_nm":43.9,"freq":353,"lat":42.31269444,"lon":-82.86852778,"rng_nm":50,"alt_fmsl":0,"id":"QG","desc":"WINDSOR NDB"},
{"type":"VOR","hdg_t":343.2,"dist_nm":47.2,"freq":108.2,"lat":43.78366667,"lon":-82.98319444,"rng_nm":25,"alt_fmsl":766,"id":"BAX","desc":"BAD AXE VOR-DME"},
{"type":"VOR","hdg_t":188.6,"dist_nm":47.3,"freq":113.8,"lat":42.24972222,"lon":-82.82894444,"rng_nm":40,"alt_fmsl":625,"id":"YQG","desc":"WINDSOR VOR-DME"},
{"type":"VOR","hdg_t":265.7,"dist_nm":47.5,"freq":116.9,"lat":42.96677778,"lon":-83.74697222,"rng_nm":130,"alt_fmsl":772,"id":"FNT","desc":"FLINT VORTAC"},
{"type":"NDB","hdg_t":199.6,"dist_nm":50,"freq":398,"lat":42.24388900,"lon":-83.04750000,"rng_nm":25,"alt_fmsl":0,"id":"ZQG","desc":"LAUREL NDB"},
{"type":"NDB","hdg_t":148.4,"dist_nm":50.3,"freq":236,"lat":42.31222222,"lon":-82.07777778,"rng_nm":50,"alt_fmsl":0,"id":"4L","desc":"CHATHAM-KENT NDB"},
{"type":"NDB","hdg_t":266.4,"dist_nm":53.8,"freq":269,"lat":42.96811111,"lon":-83.89008333,"rng_nm":50,"alt_fmsl":0,"id":"FN","desc":"PETLI NDB"},
{"type":"NDB","hdg_t":206.1,"dist_nm":54,"freq":223,"lat":42.22000000,"lon":-83.20330556,"rng_nm":50,"alt_fmsl":0,"id":"DM","desc":"SPENC NDB"},
{"type":"VOR","hdg_t":227.9,"dist_nm":55.3,"freq":114.3,"lat":42.40886111,"lon":-83.59419444,"rng_nm":40,"alt_fmsl":950,"id":"SVM","desc":"SALEM VORTAC"},
{"type":"VOR","hdg_t":212.4,"dist_nm":57.9,"freq":113.4,"lat":42.21313889,"lon":-83.36666667,"rng_nm":130,"alt_fmsl":638,"id":"DXO","desc":"DETROIT VOR-DME"},
{"type":"NDB","hdg_t":43.3,"dist_nm":59.4,"freq":261,"lat":43.74638889,"lon":-81.73083333,"rng_nm":50,"alt_fmsl":0,"id":"GD","desc":"GODERICH NDB"},
{"type":"NDB","hdg_t":201.2,"dist_nm":59.7,"freq":419,"lat":42.10111111,"lon":-83.15297222,"rng_nm":50,"alt_fmsl":0,"id":"RYS","desc":"GROSSE ILE NDB"},
{"type":"NDB","hdg_t":248.1,"dist_nm":62.6,"freq":243,"lat":42.63341667,"lon":-83.98252778,"rng_nm":50,"alt_fmsl":0,"id":"OZW","desc":"HOWELL NDB"},
{"type":"NDB","hdg_t":86.1,"dist_nm":63.9,"freq":382,"lat":43.09175000,"lon":-81.21869444,"rng_nm":50,"alt_fmsl":0,"id":"XU","desc":"LONDON NDB"},
{"type":"NDB","hdg_t":212,"dist_nm":64.1,"freq":388,"lat":42.12011111,"lon":-83.43172222,"rng_nm":50,"alt_fmsl":0,"id":"DT","desc":"REVUP NDB"},
{"type":"NDB","hdg_t":219.7,"dist_nm":66.4,"freq":359,"lat":42.17422222,"lon":-83.62155556,"rng_nm":50,"alt_fmsl":0,"id":"YI","desc":"YIPPS NDB"},
{"type":"VOR","hdg_t":89,"dist_nm":66.9,"freq":117.2,"lat":43.03811111,"lon":-81.14847222,"rng_nm":130,"alt_fmsl":910,"id":"YXU","desc":"LONDON VOR-DME"},
{"type":"VOR","hdg_t":210.9,"dist_nm":68.4,"freq":115.7,"lat":42.04802778,"lon":-83.45758333,"rng_nm":130,"alt_fmsl":629,"id":"CRL","desc":"CARLETON VORTAC"},
{"type":"VOR","hdg_t":296.4,"dist_nm":68.6,"freq":112.9,"lat":43.53166667,"lon":-84.07730556,"rng_nm":40,"alt_fmsl":663,"id":"MBS","desc":"SAGINAW VOR-DME"},
{"type":"NDB","hdg_t":91.8,"dist_nm":69.6,"freq":201,"lat":42.98233333,"lon":-81.08869444,"rng_nm":50,"alt_fmsl":0,"id":"ZXU","desc":"THAMES NDB"},
{"type":"NDB","hdg_t":102.1,"dist_nm":70.6,"freq":375,"lat":42.77083333,"lon":-81.10583333,"rng_nm":50,"alt_fmsl":0,"id":"7B","desc":"ST THOMAS NDB"},
{"type":"NDB","hdg_t":291.8,"dist_nm":71.1,"freq":257,"lat":43.46150000,"lon":-84.17983333,"rng_nm":50,"alt_fmsl":0,"id":"MB","desc":"OLSTE NDB"},
{"type":"NDB","hdg_t":180,"dist_nm":75,"freq":283,"lat":41.77944444,"lon":-82.67000000,"rng_nm":50,"alt_fmsl":0,"id":"PT","desc":"PELEE ISLAND NDB"},
{"type":"NDB","hdg_t":222.5,"dist_nm":80.5,"freq":239,"lat":42.03394444,"lon":-83.88633333,"rng_nm":50,"alt_fmsl":0,"id":"TCU","desc":"TECUMSEH NDB"},
{"type":"VOR","hdg_t":103.2,"dist_nm":80.9,"freq":114.2,"lat":42.70672222,"lon":-80.88791667,"rng_nm":130,"alt_fmsl":780,"id":"YQO","desc":"AYLMER VOR-DME"},
{"type":"NDB","hdg_t":259.9,"dist_nm":82,"freq":206,"lat":42.77755800,"lon":-84.49758600,"rng_nm":25,"alt_fmsl":841,"id":"LA","desc":"ARTDA NDB"},
{"type":"NDB","hdg_t":33,"dist_nm":84.3,"freq":350,"lat":44.20333333,"lon":-81.60333333,"rng_nm":50,"alt_fmsl":0,"id":"D7","desc":"KINCARDINE NDB"},
{"type":"NDB","hdg_t":240.9,"dist_nm":86.3,"freq":212,"lat":42.31783333,"lon":-84.36555556,"rng_nm":50,"alt_fmsl":0,"id":"JX","desc":"JAKSO NDB"},
{"type":"VOR","hdg_t":339.9,"dist_nm":90.7,"freq":116.1,"lat":44.44913889,"lon":-83.39427778,"rng_nm":130,"alt_fmsl":625,"id":"ASP","desc":"AU SABLE VOR-DME"},
{"type":"NDB","hdg_t":185.6,"dist_nm":91,"freq":423,"lat":41.51858333,"lon":-82.86872222,"rng_nm":50,"alt_fmsl":0,"id":"PCW","desc":"PORT CLINTON NDB"},
{"type":"VOR","hdg_t":258.8,"dist_nm":91.4,"freq":110.8,"lat":42.71738889,"lon":-84.69750000,"rng_nm":40,"alt_fmsl":888,"id":"LAN","desc":"LANSING VORTAC"},
{"type":"VOR","hdg_t":240.3,"dist_nm":91.7,"freq":109.6,"lat":42.25925000,"lon":-84.45855556,"rng_nm":40,"alt_fmsl":995,"id":"JXN","desc":"JACKSON VOR-DME"},
{"type":"NDB","hdg_t":222.4,"dist_nm":93.5,"freq":278,"lat":41.86997222,"lon":-84.07747222,"rng_nm":50,"alt_fmsl":0,"id":"ADG","desc":"ADRIAN NDB"},
{"type":"NDB","hdg_t":320.3,"dist_nm":95.6,"freq":236,"lat":44.24863100,"lon":-84.08388600,"rng_nm":25,"alt_fmsl":800,"id":"BHW","desc":"HARDWOOD NDB"},
{"type":"VOR","hdg_t":179.6,"dist_nm":95.6,"freq":109.2,"lat":41.43447222,"lon":-82.65480556,"rng_nm":40,"alt_fmsl":580,"id":"SKY","desc":"SANDUSKY VOR-DME"},
{"type":"NDB","hdg_t":306.1,"dist_nm":96.9,"freq":209,"lat":43.97019444,"lon":-84.47516667,"rng_nm":50,"alt_fmsl":0,"id":"GDW","desc":"WIGGINS NDB"},
{"type":"VOR","hdg_t":292.1,"dist_nm":97.2,"freq":110.6,"lat":43.62283333,"lon":-84.73727778,"rng_nm":40,"alt_fmsl":752,"id":"MOP","desc":"MOUNT PLEASANT VOR-DME"},
{"type":"NDB","hdg_t":45.3,"dist_nm":97.6,"freq":268,"lat":44.16222222,"lon":-81.06055556,"rng_nm":50,"alt_fmsl":0,"id":"S7","desc":"HANOVER NDB"},
{"type":"VOR","hdg_t":318.3,"dist_nm":98.2,"freq":113.2,"lat":44.24291667,"lon":-84.18377778,"rng_nm":25,"alt_fmsl":884,"id":"BXZ","desc":"PEACH LAKE VOR-DME"},
{"type":"NDB","hdg_t":87.7,"dist_nm":99.1,"freq":207,"lat":43.07333333,"lon":-80.41611111,"rng_nm":50,"alt_fmsl":0,"id":"FD","desc":"BRANTFORD NDB"},
{"type":"NDB","hdg_t":144.1,"dist_nm":99.1,"freq":263,"lat":41.68241667,"lon":-81.37900000,"rng_nm":50,"alt_fmsl":0,"id":"LQL","desc":"LAKELAND NDB"},
{"type":"SDME","hdg_t":210.6,"dist_nm":99.7,"freq":112.5,"lat":41.59370300,"lon":-83.79936400,"rng_nm":25,"alt_fmsl":671,"id":"TOL","desc":"TOLEDO TACAN"}
]
}
