{"success":true,"source":"xp2csv.pl","last_updated":"2013/11/08 14:53:21 UTC"
,"icao":"39NE","name":"Mount Echo","lat":41.53473472,"lon":-97.90089028,"rwys":1,"ils":0,"index":1351904,"path":"w100n40/w098n41"
,"runways":[
{"len_m":609,"wid_m":30.48,"hdg":156,"surf":"Turf/grass","rwy1":"15","lat1":41.53725965,"lon1":-97.90232206,"rwy2":"33","lat2":41.53220979,"lon2":-97.89945850}
]
,"navaids":[
{"type":"NDB","hdg_t":329.7,"dist_nm":13.5,"freq":332,"lat":41.72958333,"lon":-98.05269444,"rng_nm":50,"alt_fmsl":0,"id":"BVN","desc":"ALABY NDB"},
{"type":"VOR","hdg_t":245.1,"dist_nm":22.5,"freq":114.8,"lat":41.37572222,"lon":-98.35358333,"rng_nm":130,"alt_fmsl":2010,"id":"OBH","desc":"WOLBACH VORTAC"},
{"type":"NDB","hdg_t":95.4,"dist_nm":23.5,"freq":407,"lat":41.49655556,"lon":-97.38175000,"rng_nm":50,"alt_fmsl":0,"id":"PLT","desc":"PLATTE CENTER NDB"},
{"type":"VOR","hdg_t":101.1,"dist_nm":25.7,"freq":111.8,"lat":41.45002778,"lon":-97.34080556,"rng_nm":40,"alt_fmsl":1442,"id":"OLU","desc":"COLUMBUS VOR-DME"},
{"type":"NDB","hdg_t":41.6,"dist_nm":28.3,"freq":510,"lat":41.88761111,"lon":-97.48025000,"rng_nm":50,"alt_fmsl":0,"id":"OF","desc":"CARSY NDB"},
{"type":"VOR","hdg_t":37.4,"dist_nm":34.3,"freq":109.6,"lat":41.98791667,"lon":-97.43458333,"rng_nm":40,"alt_fmsl":1540,"id":"OFK","desc":"NORFOLK VOR-DME"},
{"type":"VOR","hdg_t":209.6,"dist_nm":37.9,"freq":112,"lat":40.98402778,"lon":-98.31477778,"rng_nm":40,"alt_fmsl":1840,"id":"GRI","desc":"GRAND ISLAND VORTAC"},
{"type":"NDB","hdg_t":186.4,"dist_nm":38.7,"freq":278,"lat":40.89251400,"lon":-97.99719400,"rng_nm":25,"alt_fmsl":1799,"id":"AUH","desc":"AURORA NDB"},
{"type":"NDB","hdg_t":161.3,"dist_nm":40.3,"freq":257,"lat":40.89755556,"lon":-97.61700000,"rng_nm":50,"alt_fmsl":0,"id":"JYR","desc":"YORK NDB"},
{"type":"NDB","hdg_t":205.4,"dist_nm":43.8,"freq":380,"lat":40.87288889,"lon":-98.31472222,"rng_nm":50,"alt_fmsl":0,"id":"GR","desc":"SANCY NDB"},
{"type":"NDB","hdg_t":276.8,"dist_nm":47.4,"freq":356,"lat":41.62375000,"lon":-98.94800000,"rng_nm":50,"alt_fmsl":0,"id":"ODX","desc":"ORD NDB"},
{"type":"NDB","hdg_t":138.2,"dist_nm":53.9,"freq":269,"lat":40.86127778,"lon":-97.11194444,"rng_nm":50,"alt_fmsl":0,"id":"SWT","desc":"SEWARD NDB"},
{"type":"NDB","hdg_t":207.3,"dist_nm":57.2,"freq":338,"lat":40.68625000,"lon":-98.47752778,"rng_nm":50,"alt_fmsl":0,"id":"PSS","desc":"PROSSER NDB"},
{"type":"VOR","hdg_t":85.3,"dist_nm":57.4,"freq":111,"lat":41.60475000,"lon":-96.62883333,"rng_nm":25,"alt_fmsl":1318,"id":"SCB","desc":"SCRIBNER VOR-DME"},
{"type":"NDB","hdg_t":284.8,"dist_nm":57.7,"freq":377,"lat":41.77469444,"lon":-99.14552778,"rng_nm":50,"alt_fmsl":0,"id":"BUB","desc":"BURWELL NDB"},
{"type":"NDB","hdg_t":164.9,"dist_nm":58.6,"freq":392,"lat":40.58994444,"lon":-97.56805556,"rng_nm":50,"alt_fmsl":0,"id":"FMZ","desc":"BEKLOF NDB"},
{"type":"NDB","hdg_t":43.7,"dist_nm":59,"freq":389,"lat":42.24255556,"lon":-96.98375000,"rng_nm":50,"alt_fmsl":0,"id":"LCG","desc":"WAYNE NDB"},
{"type":"VOR","hdg_t":203.4,"dist_nm":60.7,"freq":108.8,"lat":40.60452778,"lon":-98.42961111,"rng_nm":40,"alt_fmsl":1967,"id":"HSI","desc":"HASTINGS VOR-DME"},
{"type":"NDB","hdg_t":106.3,"dist_nm":61.4,"freq":400,"lat":41.23916667,"lon":-96.59836111,"rng_nm":50,"alt_fmsl":0,"id":"AHQ","desc":"WAHOO NDB"},
{"type":"VOR","hdg_t":124.5,"dist_nm":63.9,"freq":116.1,"lat":40.92380556,"lon":-96.74200000,"rng_nm":130,"alt_fmsl":1370,"id":"LNK","desc":"LINCOLN VORTAC"},
{"type":"VOR","hdg_t":328.1,"dist_nm":66.2,"freq":113.9,"lat":42.47050000,"lon":-98.68691667,"rng_nm":130,"alt_fmsl":2030,"id":"ONL","desc":"O NEILL VORTAC"},
{"type":"VOR","hdg_t":226.2,"dist_nm":69.7,"freq":111.2,"lat":40.72558333,"lon":-99.00511111,"rng_nm":40,"alt_fmsl":0,"id":"EAR","desc":"KEARNEY VOR"},
{"type":"NDB","hdg_t":132,"dist_nm":69.9,"freq":385,"lat":40.74719444,"lon":-96.76241667,"rng_nm":50,"alt_fmsl":0,"id":"LN","desc":"POTTS NDB"},
{"type":"NDB","hdg_t":140.7,"dist_nm":70.2,"freq":420,"lat":40.62411400,"lon":-96.92761100,"rng_nm":25,"alt_fmsl":1479,"id":"CEK","desc":"CRETE NDB"},
{"type":"NDB","hdg_t":223.4,"dist_nm":74.6,"freq":422,"lat":40.62613889,"lon":-99.02563889,"rng_nm":50,"alt_fmsl":0,"id":"EA","desc":"ANOKE NDB"},
{"type":"NDB","hdg_t":266.1,"dist_nm":78.4,"freq":265,"lat":41.43408900,"lon":-99.63591900,"rng_nm":25,"alt_fmsl":2530,"id":"BBW","desc":"BROKEN BOW NDB"},
{"type":"VOR","hdg_t":79.5,"dist_nm":78.6,"freq":108.4,"lat":41.75958333,"lon":-96.17855556,"rng_nm":25,"alt_fmsl":0,"id":"TQE","desc":"TEKAMAH VOR"},
{"type":"VOR","hdg_t":268.4,"dist_nm":80.6,"freq":108.2,"lat":41.48397222,"lon":-99.68905556,"rng_nm":40,"alt_fmsl":2850,"id":"CUZ","desc":"CUSTER CO VOR-DME"},
{"type":"NDB","hdg_t":18.5,"dist_nm":82.9,"freq":347,"lat":42.84372222,"lon":-97.30211111,"rng_nm":50,"alt_fmsl":0,"id":"YK","desc":"CAGUR NDB"},
{"type":"NDB","hdg_t":103.5,"dist_nm":83.2,"freq":371,"lat":41.19486111,"lon":-96.11405556,"rng_nm":50,"alt_fmsl":0,"id":"MLE","desc":"MILLARD NDB"},
{"type":"NDB","hdg_t":170.1,"dist_nm":84.2,"freq":323,"lat":40.15036111,"lon":-97.58777778,"rng_nm":50,"alt_fmsl":0,"id":"HJH","desc":"HEBRON NDB"},
{"type":"NDB","hdg_t":48.7,"dist_nm":84.9,"freq":305,"lat":42.46011111,"lon":-96.46222222,"rng_nm":50,"alt_fmsl":0,"id":"OI","desc":"TOMMI NDB"},
{"type":"NDB","hdg_t":51.8,"dist_nm":85.6,"freq":233,"lat":42.40811111,"lon":-96.38602778,"rng_nm":50,"alt_fmsl":0,"id":"GAK","desc":"SIOUX GATEWAY NDB"},
{"type":"VOR","hdg_t":54.9,"dist_nm":85.7,"freq":116.5,"lat":42.34452778,"lon":-96.32363889,"rng_nm":40,"alt_fmsl":1087,"id":"SUX","desc":"SIOUX CITY VORTAC"},
{"type":"NDB","hdg_t":144.4,"dist_nm":85.8,"freq":248,"lat":40.36361100,"lon":-96.81294200,"rng_nm":25,"alt_fmsl":1352,"id":"BJU","desc":"BIG BLUE NDB"},
{"type":"VOR","hdg_t":15.3,"dist_nm":86.1,"freq":111.4,"lat":42.91836111,"lon":-97.38497222,"rng_nm":40,"alt_fmsl":1301,"id":"YKN","desc":"YANKTON VOR-DME"},
{"type":"NDB","hdg_t":56,"dist_nm":86.3,"freq":414,"lat":42.32752778,"lon":-96.29050000,"rng_nm":50,"alt_fmsl":0,"id":"SU","desc":"SALIX NDB"},
{"type":"NDB","hdg_t":157.4,"dist_nm":88,"freq":293,"lat":40.17666667,"lon":-97.16586111,"rng_nm":50,"alt_fmsl":0,"id":"FBY","desc":"FAIRBURY NDB"},
{"type":"NDB","hdg_t":95.9,"dist_nm":88.3,"freq":320,"lat":41.36677778,"lon":-95.95630556,"rng_nm":50,"alt_fmsl":0,"id":"OM","desc":"GERFI NDB"},
{"type":"VOR","hdg_t":144.4,"dist_nm":90.4,"freq":110.6,"lat":40.30141667,"lon":-96.75463889,"rng_nm":25,"alt_fmsl":1304,"id":"BIE","desc":"BEATRICE VOR-DME"},
{"type":"NDB","hdg_t":94.3,"dist_nm":90.8,"freq":513,"lat":41.40175000,"lon":-95.89391667,"rng_nm":50,"alt_fmsl":0,"id":"PP","desc":"FLICK NDB"},
{"type":"NDB","hdg_t":145.2,"dist_nm":92.2,"freq":263,"lat":40.26500000,"lon":-96.75708100,"rng_nm":25,"alt_fmsl":1250,"id":"HWB","desc":"SHAW NDB"},
{"type":"NDB","hdg_t":225.5,"dist_nm":92.3,"freq":396,"lat":40.44816667,"lon":-99.34080556,"rng_nm":50,"alt_fmsl":0,"id":"HDE","desc":"HOLDREGE NDB"},
{"type":"NDB","hdg_t":349.3,"dist_nm":93.3,"freq":392,"lat":43.06338889,"lon":-98.29316667,"rng_nm":50,"alt_fmsl":0,"id":"AGZ","desc":"WAGNER NDB"},
{"type":"SDME","hdg_t":104.8,"dist_nm":93.8,"freq":111.7,"lat":41.11722800,"lon":-95.90000300,"rng_nm":40,"alt_fmsl":1090,"id":"OFF","desc":"OFFUTT TACAN"},
{"type":"NDB","hdg_t":100.6,"dist_nm":95.9,"freq":426,"lat":41.21958333,"lon":-95.81791667,"rng_nm":50,"alt_fmsl":0,"id":"EN","desc":"RIKKY NDB"},
{"type":"NDB","hdg_t":110.8,"dist_nm":96.7,"freq":329,"lat":40.94377778,"lon":-95.91247222,"rng_nm":50,"alt_fmsl":0,"id":"PMV","desc":"PLATTSMOUTH NDB"},
{"type":"NDB","hdg_t":310.2,"dist_nm":97.4,"freq":341,"lat":42.57358333,"lon":-99.57780556,"rng_nm":50,"alt_fmsl":0,"id":"RBE","desc":"ROCK CO NDB"},
{"type":"NDB","hdg_t":245.5,"dist_nm":97.7,"freq":326,"lat":40.84444444,"lon":-99.85622222,"rng_nm":50,"alt_fmsl":0,"id":"RRX","desc":"DARR NDB"}
]
}
