{"success":true,"source":"xp2csv.pl","last_updated":"2013/11/08 14:53:21 UTC"
,"icao":"39Z","name":"Flying-a-ranch","lat":43.10501861,"lon":-86.1236625,"rwys":1,"ils":0,"index":1532227,"path":"w090n40/w087n43"
,"runways":[
{"len_m":764,"wid_m":30.48,"hdg":87,"surf":"Turf/grass","rwy1":"09","lat1":43.10483916,"lon1":-86.12835229,"rwy2":"27","lat2":43.10519806,"lon2":-86.11897271}
]
,"navaids":[
{"type":"NDB","hdg_t":296.1,"dist_nm":2.1,"freq":219,"lat":43.12113889,"lon":-86.16858333,"rng_nm":50,"alt_fmsl":0,"id":"MK","desc":"MUSKO NDB"},
{"type":"VOR","hdg_t":43.8,"dist_nm":5.3,"freq":115.2,"lat":43.16925000,"lon":-86.03938889,"rng_nm":40,"alt_fmsl":659,"id":"MKG","desc":"MUSKEGON VORTAC"},
{"type":"VOR","hdg_t":32.1,"dist_nm":33.3,"freq":117.6,"lat":43.57486111,"lon":-85.71616667,"rng_nm":40,"alt_fmsl":920,"id":"HIC","desc":"WHITE CLOUD VOR-DME"},
{"type":"VOR","hdg_t":124.4,"dist_nm":33.5,"freq":115.95,"lat":42.78672222,"lon":-85.49708333,"rng_nm":130,"alt_fmsl":803,"id":"GRR","desc":"GRAND RAPIDS VOR-DME"},
{"type":"NDB","hdg_t":110.6,"dist_nm":35.1,"freq":263,"lat":42.89563889,"lon":-85.37858333,"rng_nm":50,"alt_fmsl":0,"id":"GR","desc":"KNOBS NDB"},
{"type":"VOR","hdg_t":178.7,"dist_nm":38.3,"freq":112.1,"lat":42.46602778,"lon":-86.10480556,"rng_nm":130,"alt_fmsl":640,"id":"PMM","desc":"PULLMAN VOR-DME"},
{"type":"NDB","hdg_t":346.4,"dist_nm":52.9,"freq":341,"lat":43.96316667,"lon":-86.40950000,"rng_nm":50,"alt_fmsl":0,"id":"LDM","desc":"LUDINGTON NDB"},
{"type":"VOR","hdg_t":179.9,"dist_nm":57.6,"freq":116.6,"lat":42.14441667,"lon":-86.12269444,"rng_nm":40,"alt_fmsl":795,"id":"ELX","desc":"KEELER VOR-DME"},
{"type":"VOR","hdg_t":153.9,"dist_nm":57.8,"freq":109,"lat":42.23700000,"lon":-85.55316667,"rng_nm":40,"alt_fmsl":870,"id":"AZO","desc":"KALAMAZOO VOR-DME"},
{"type":"NDB","hdg_t":188.2,"dist_nm":59.2,"freq":397,"lat":42.12680556,"lon":-86.31333333,"rng_nm":50,"alt_fmsl":0,"id":"BE","desc":"MALLY NDB"},
{"type":"NDB","hdg_t":136.7,"dist_nm":60.9,"freq":272,"lat":42.36200000,"lon":-85.18450000,"rng_nm":50,"alt_fmsl":0,"id":"BT","desc":"BATOL NDB"},
{"type":"VOR","hdg_t":140.7,"dist_nm":61.3,"freq":109.4,"lat":42.30980556,"lon":-85.25233333,"rng_nm":25,"alt_fmsl":922,"id":"BTL","desc":"BATTLE CREEK VORTAC"},
{"type":"NDB","hdg_t":155.5,"dist_nm":64,"freq":371,"lat":42.13105556,"lon":-85.52975000,"rng_nm":50,"alt_fmsl":0,"id":"AZ","desc":"AUSTN NDB"},
{"type":"VOR","hdg_t":109.8,"dist_nm":67,"freq":110.8,"lat":42.71738889,"lon":-84.69750000,"rng_nm":40,"alt_fmsl":888,"id":"LAN","desc":"LANSING VORTAC"},
{"type":"VOR","hdg_t":62.4,"dist_nm":68.1,"freq":110.6,"lat":43.62283333,"lon":-84.73727778,"rng_nm":40,"alt_fmsl":752,"id":"MOP","desc":"MOUNT PLEASANT VOR-DME"},
{"type":"NDB","hdg_t":359.3,"dist_nm":69.9,"freq":254,"lat":44.27075000,"lon":-86.14286111,"rng_nm":50,"alt_fmsl":0,"id":"MB","desc":"JEPOT NDB"},
{"type":"VOR","hdg_t":355.4,"dist_nm":70.1,"freq":111.4,"lat":44.27063889,"lon":-86.25405556,"rng_nm":40,"alt_fmsl":620,"id":"MBL","desc":"MANISTEE VOR-DME"},
{"type":"NDB","hdg_t":20,"dist_nm":72.4,"freq":336,"lat":44.23708333,"lon":-85.54736111,"rng_nm":50,"alt_fmsl":0,"id":"MA","desc":"WEXOR NDB"},
{"type":"NDB","hdg_t":160.8,"dist_nm":72.7,"freq":407,"lat":41.95838889,"lon":-85.59166667,"rng_nm":50,"alt_fmsl":0,"id":"HAI","desc":"THREE RIVERS NDB"},
{"type":"NDB","hdg_t":104.7,"dist_nm":74.3,"freq":206,"lat":42.77755800,"lon":-84.49758600,"rng_nm":25,"alt_fmsl":841,"id":"LA","desc":"ARTDA NDB"},
{"type":"NDB","hdg_t":268.5,"dist_nm":77.1,"freq":260,"lat":43.06002778,"lon":-87.87675000,"rng_nm":50,"alt_fmsl":0,"id":"BL","desc":"YANKS NDB"},
{"type":"VOR","hdg_t":255.1,"dist_nm":77.3,"freq":117.7,"lat":42.76216667,"lon":-87.81472222,"rng_nm":25,"alt_fmsl":669,"id":"HRK","desc":"HORLICK VOR-DME"},
{"type":"NDB","hdg_t":259.1,"dist_nm":80.4,"freq":410,"lat":42.83961111,"lon":-87.91300000,"rng_nm":50,"alt_fmsl":0,"id":"MK","desc":"CAPPY NDB"},
{"type":"VOR","hdg_t":186.2,"dist_nm":80.6,"freq":115.4,"lat":41.76861111,"lon":-86.31847222,"rng_nm":130,"alt_fmsl":804,"id":"GIJ","desc":"GIPPER VORTAC"},
{"type":"NDB","hdg_t":252.6,"dist_nm":82.3,"freq":206,"lat":42.68255556,"lon":-87.89947222,"rng_nm":50,"alt_fmsl":0,"id":"RA","desc":"PASER NDB"},
{"type":"NDB","hdg_t":158.1,"dist_nm":83.3,"freq":382,"lat":41.81313889,"lon":-85.43377778,"rng_nm":50,"alt_fmsl":0,"id":"IRS","desc":"STURGIS NDB"},
{"type":"NDB","hdg_t":243.1,"dist_nm":83.5,"freq":379,"lat":42.46405556,"lon":-87.80141667,"rng_nm":50,"alt_fmsl":0,"id":"UG","desc":"WAUKE NDB"},
{"type":"NDB","hdg_t":182.9,"dist_nm":84,"freq":341,"lat":41.70561111,"lon":-86.21902778,"rng_nm":50,"alt_fmsl":0,"id":"SB","desc":"MISHA NDB"},
{"type":"VOR","hdg_t":270.8,"dist_nm":84.1,"freq":112.5,"lat":43.10977778,"lon":-88.03727778,"rng_nm":40,"alt_fmsl":737,"id":"LJT","desc":"TIMMERMAN VOR-DME"},
{"type":"NDB","hdg_t":302.3,"dist_nm":84.7,"freq":338,"lat":43.84850000,"lon":-87.77447800,"rng_nm":25,"alt_fmsl":693,"id":"HE","desc":"SHEBB NDB"},
{"type":"NDB","hdg_t":262.7,"dist_nm":85.2,"freq":242,"lat":42.90905556,"lon":-88.04097222,"rng_nm":50,"alt_fmsl":0,"id":"GM","desc":"TEELS NDB"},
{"type":"VOR","hdg_t":298.4,"dist_nm":85.2,"freq":110,"lat":43.76877778,"lon":-87.84875000,"rng_nm":40,"alt_fmsl":744,"id":"FAH","desc":"FALLS VOR-DME"},
{"type":"VOR","hdg_t":249.7,"dist_nm":85.3,"freq":109.2,"lat":42.59905556,"lon":-87.93172222,"rng_nm":25,"alt_fmsl":734,"id":"ENW","desc":"KENOSHA VOR-DME"},
{"type":"VOR","hdg_t":135.6,"dist_nm":86.8,"freq":111.2,"lat":42.06250000,"lon":-84.76513889,"rng_nm":40,"alt_fmsl":1040,"id":"LFD","desc":"LITCHFIELD VOR-DME"},
{"type":"NDB","hdg_t":75.2,"dist_nm":87.8,"freq":257,"lat":43.46150000,"lon":-84.17983333,"rng_nm":50,"alt_fmsl":0,"id":"MB","desc":"OLSTE NDB"},
{"type":"NDB","hdg_t":53.6,"dist_nm":88.7,"freq":209,"lat":43.97019444,"lon":-84.47516667,"rng_nm":50,"alt_fmsl":0,"id":"GDW","desc":"WIGGINS NDB"},
{"type":"VOR","hdg_t":123.9,"dist_nm":89.4,"freq":109.6,"lat":42.25925000,"lon":-84.45855556,"rng_nm":40,"alt_fmsl":995,"id":"JXN","desc":"JACKSON VOR-DME"},
{"type":"VOR","hdg_t":282.9,"dist_nm":89.7,"freq":109.8,"lat":43.42197222,"lon":-88.12519444,"rng_nm":25,"alt_fmsl":0,"id":"BJB","desc":"WEST BEND VOR"},
{"type":"NDB","hdg_t":249.4,"dist_nm":90.2,"freq":389,"lat":42.56044444,"lon":-88.02877778,"rng_nm":50,"alt_fmsl":0,"id":"EN","desc":"CODEE NDB"},
{"type":"NDB","hdg_t":120.6,"dist_nm":90.9,"freq":212,"lat":42.31783333,"lon":-84.36555556,"rng_nm":50,"alt_fmsl":0,"id":"JX","desc":"JAKSO NDB"},
{"type":"VOR","hdg_t":312.6,"dist_nm":91.4,"freq":111,"lat":44.12850000,"lon":-87.67991667,"rng_nm":25,"alt_fmsl":650,"id":"MTW","desc":"MANITOWOC VOR-DME"},
{"type":"VOR","hdg_t":73.3,"dist_nm":93.2,"freq":112.9,"lat":43.53166667,"lon":-84.07730556,"rng_nm":40,"alt_fmsl":663,"id":"MBS","desc":"SAGINAW VOR-DME"},
{"type":"VOR","hdg_t":177.3,"dist_nm":94.8,"freq":113.7,"lat":41.52516667,"lon":-86.02794444,"rng_nm":130,"alt_fmsl":852,"id":"GSH","desc":"GOSHEN VORTAC"},
{"type":"VOR","hdg_t":271.1,"dist_nm":94.9,"freq":116.4,"lat":43.11686111,"lon":-88.28433333,"rng_nm":130,"alt_fmsl":1080,"id":"BAE","desc":"BADGER VORTAC"},
{"type":"NDB","hdg_t":314.2,"dist_nm":95,"freq":362,"lat":44.19963889,"lon":-87.70227778,"rng_nm":50,"alt_fmsl":0,"id":"MT","desc":"MAWOC NDB"},
{"type":"VOR","hdg_t":237.4,"dist_nm":96.7,"freq":113,"lat":42.22147222,"lon":-87.95180556,"rng_nm":130,"alt_fmsl":758,"id":"OBK","desc":"NORTHBROOK VOR-DME"},
{"type":"VOR","hdg_t":14.6,"dist_nm":97,"freq":114.6,"lat":44.66791667,"lon":-85.55002778,"rng_nm":130,"alt_fmsl":912,"id":"TVC","desc":"TRAVERSE CITY VORTAC"},
{"type":"VOR","hdg_t":39.6,"dist_nm":98.3,"freq":111.6,"lat":44.35888889,"lon":-84.66572222,"rng_nm":25,"alt_fmsl":1145,"id":"HTL","desc":"HOUGHTON LAKE VOR-DME"},
{"type":"NDB","hdg_t":105.9,"dist_nm":98.6,"freq":243,"lat":42.63341667,"lon":-83.98252778,"rng_nm":50,"alt_fmsl":0,"id":"OZW","desc":"HOWELL NDB"},
{"type":"NDB","hdg_t":94,"dist_nm":98.6,"freq":269,"lat":42.96811111,"lon":-83.89008333,"rng_nm":50,"alt_fmsl":0,"id":"FN","desc":"PETLI NDB"},
{"type":"NDB","hdg_t":151.9,"dist_nm":99.2,"freq":347,"lat":41.63977778,"lon":-85.08691667,"rng_nm":50,"alt_fmsl":0,"id":"ANQ","desc":"ANGOLA NDB"},
{"type":"VOR","hdg_t":256.1,"dist_nm":99.2,"freq":114.5,"lat":42.68933333,"lon":-88.30177778,"rng_nm":25,"alt_fmsl":772,"id":"BUU","desc":"BURBUN VOR-DME"},
{"type":"NDB","hdg_t":228.2,"dist_nm":99.8,"freq":414,"lat":41.98431700,"lon":-87.78902200,"rng_nm":25,"alt_fmsl":0,"id":"IA","desc":"TAFFS NDB"}
]
}
