{"success":true,"source":"xp2csv.pl","last_updated":"2013/11/08 14:53:21 UTC"
,"icao":"3AK6","name":"B & B Boys Ranch","lat":61.59279416,"lon":-149.26666862,"rwys":1,"ils":0,"index":501218,"path":"w150n60/w150n61"
,"runways":[
{"len_m":214,"wid_m":7.62,"hdg":75,"surf":"Gravel","rwy1":"05","lat1":61.59254568,"lon1":-149.26861788,"rwy2":"23","lat2":61.59304264,"lon2":-149.26471936}
]
,"navaids":[
{"type":"VOR","hdg_t":266.3,"dist_nm":20.1,"freq":112.5,"lat":61.56944444,"lon":-149.96713889,"rng_nm":130,"alt_fmsl":160,"id":"BGQ","desc":"BIG LAKE VORTAC"},
{"type":"SDME","hdg_t":215.6,"dist_nm":24.9,"freq":113.4,"lat":61.25500600,"lon":-149.76915000,"rng_nm":130,"alt_fmsl":360,"id":"EDF","desc":"ELMENDORF TACAN"},
{"type":"SDME","hdg_t":217.7,"dist_nm":32,"freq":111.3,"lat":61.16981900,"lon":-149.94239800,"rng_nm":90,"alt_fmsl":140,"id":"MTGN","desc":"Anchorage MLS 6L DME"},
{"type":"VOR","hdg_t":218.3,"dist_nm":32.4,"freq":113.15,"lat":61.16786560,"lon":-149.96014330,"rng_nm":130,"alt_fmsl":283,"id":"TED","desc":"ANCHORAGE VOR-DME"},
{"type":"NDB","hdg_t":221.9,"dist_nm":33.9,"freq":338,"lat":61.17102778,"lon":-150.04766667,"rng_nm":50,"alt_fmsl":0,"id":"CMQ","desc":"CAMPBELL LAKE NDB"},
{"type":"NDB","hdg_t":226.1,"dist_nm":36.6,"freq":387,"lat":61.16761111,"lon":-150.17727778,"rng_nm":50,"alt_fmsl":0,"id":"BOB","desc":"BRUCK NDB"},
{"type":"VOR","hdg_t":331.1,"dist_nm":48.6,"freq":116.2,"lat":62.29866667,"lon":-150.10558333,"rng_nm":130,"alt_fmsl":360,"id":"TKA","desc":"TALKEETNA VOR-DME"},
{"type":"NDB","hdg_t":332.4,"dist_nm":50.2,"freq":305,"lat":62.33116667,"lon":-150.09641667,"rng_nm":50,"alt_fmsl":0,"id":"PEE","desc":"PETERS CREEK NDB"},
{"type":"NDB","hdg_t":238.5,"dist_nm":70.9,"freq":356,"lat":60.96138889,"lon":-151.33391667,"rng_nm":50,"alt_fmsl":0,"id":"GRP","desc":"GRANITE POINT NDB"},
{"type":"VOR","hdg_t":224.5,"dist_nm":81.3,"freq":117.6,"lat":60.61469444,"lon":-151.19525000,"rng_nm":130,"alt_fmsl":114,"id":"ENA","desc":"KENAI VOR-DME"},
{"type":"NDB","hdg_t":215.6,"dist_nm":82,"freq":346,"lat":60.47497222,"lon":-150.87888889,"rng_nm":50,"alt_fmsl":0,"id":"OLT","desc":"SOLDOTNA NDB"},
{"type":"NDB","hdg_t":224.2,"dist_nm":82.3,"freq":379,"lat":60.59866667,"lon":-151.21119444,"rng_nm":50,"alt_fmsl":0,"id":"IWW","desc":"WILDWOOD NDB"},
{"type":"NDB","hdg_t":107.2,"dist_nm":88.7,"freq":524,"lat":61.12422222,"lon":-146.35222222,"rng_nm":50,"alt_fmsl":0,"id":"MNL","desc":"MINERAL CREEK NDB"}
]
}
