{"success":true,"source":"xp2csv.pl","last_updated":"2013/11/08 14:53:21 UTC"
,"icao":"3CA7","name":"Metz","lat":36.32829916,"lon":-121.18658834,"rwys":1,"ils":0,"index":958355,"path":"w130n30/w122n36"
,"runways":[
{"len_m":1035,"wid_m":15.24,"hdg":164,"surf":"Gravel","rwy1":"15","lat1":36.33280334,"lon1":-121.18808640,"rwy2":"33","lat2":36.32379498,"lon2":-121.18509028}
]
,"navaids":[
{"type":"NDB","hdg_t":304.9,"dist_nm":17,"freq":263,"lat":36.49091667,"lon":-121.47491667,"rng_nm":50,"alt_fmsl":0,"id":"UAD","desc":"CHUALAR NDB"},
{"type":"NDB","hdg_t":180.3,"dist_nm":21.9,"freq":209,"lat":35.96116667,"lon":-121.18916667,"rng_nm":50,"alt_fmsl":0,"id":"HGT","desc":"HUNTER LIGGETT NDB"},
{"type":"VOR","hdg_t":248.4,"dist_nm":23.7,"freq":114,"lat":36.18130556,"lon":-121.64211111,"rng_nm":40,"alt_fmsl":4080,"id":"BSR","desc":"BIG SUR VORTAC"},
{"type":"VOR","hdg_t":113.8,"dist_nm":27.7,"freq":110,"lat":36.14038889,"lon":-120.66491667,"rng_nm":40,"alt_fmsl":0,"id":"ROM","desc":"PRIEST VOR"},
{"type":"VOR","hdg_t":315,"dist_nm":28.4,"freq":117.3,"lat":36.66383333,"lon":-121.60319444,"rng_nm":130,"alt_fmsl":101,"id":"SNS","desc":"SALINAS VORTAC"},
{"type":"VOR","hdg_t":40.2,"dist_nm":30.4,"freq":112.6,"lat":36.71547222,"lon":-120.77869444,"rng_nm":40,"alt_fmsl":2060,"id":"PXN","desc":"PANOCHE VORTAC"},
{"type":"NDB","hdg_t":295.9,"dist_nm":40.3,"freq":385,"lat":36.62075000,"lon":-121.93863889,"rng_nm":50,"alt_fmsl":0,"id":"MR","desc":"MUNSO NDB"},
{"type":"NDB","hdg_t":319.6,"dist_nm":46.1,"freq":327,"lat":36.91355556,"lon":-121.80797222,"rng_nm":50,"alt_fmsl":0,"id":"PDG","desc":"PAJAR NDB"},
{"type":"VOR","hdg_t":145.1,"dist_nm":47.8,"freq":114.3,"lat":35.67247222,"lon":-120.62711111,"rng_nm":40,"alt_fmsl":817,"id":"PRB","desc":"PASO ROBLES VORTAC"},
{"type":"SDME","hdg_t":88.7,"dist_nm":59.1,"freq":113.3,"lat":36.34409700,"lon":-119.96631700,"rng_nm":25,"alt_fmsl":231,"id":"NLC","desc":"LEMOORE TACAN"},
{"type":"VOR","hdg_t":35.1,"dist_nm":65.4,"freq":114.2,"lat":37.21944444,"lon":-120.40022222,"rng_nm":40,"alt_fmsl":184,"id":"HYP","desc":"EL NIDO VOR-DME"},
{"type":"VOR","hdg_t":161.9,"dist_nm":67.7,"freq":112.4,"lat":35.25225000,"lon":-120.75955556,"rng_nm":40,"alt_fmsl":1463,"id":"MQO","desc":"MORRO BAY VORTAC"},
{"type":"NDB","hdg_t":69.6,"dist_nm":69.5,"freq":344,"lat":36.72394444,"lon":-119.83369444,"rng_nm":50,"alt_fmsl":0,"id":"FCH","desc":"CHANDLER NDB"},
{"type":"VOR","hdg_t":124.4,"dist_nm":71.5,"freq":117.1,"lat":35.64697222,"lon":-119.97861111,"rng_nm":130,"alt_fmsl":710,"id":"AVE","desc":"AVENAL VORTAC"},
{"type":"VOR","hdg_t":330,"dist_nm":72.5,"freq":114.1,"lat":37.37472222,"lon":-121.94466667,"rng_nm":40,"alt_fmsl":43,"id":"SJC","desc":"SAN JOSE VOR-DME"},
{"type":"VOR","hdg_t":62.8,"dist_nm":74.1,"freq":112.9,"lat":36.88433333,"lon":-119.81513889,"rng_nm":130,"alt_fmsl":360,"id":"CZQ","desc":"CLOVIS VORTAC"},
{"type":"NDB","hdg_t":11.9,"dist_nm":76.2,"freq":367,"lat":37.57311111,"lon":-120.85511111,"rng_nm":50,"alt_fmsl":0,"id":"MO","desc":"WOWAR NDB"},
{"type":"SDME","hdg_t":327.8,"dist_nm":78.3,"freq":117.6,"lat":37.43240300,"lon":-122.05753900,"rng_nm":25,"alt_fmsl":0,"id":"NUQ","desc":"MOFFETT TACAN"},
{"type":"VOR","hdg_t":7.9,"dist_nm":78.6,"freq":114.6,"lat":37.62736111,"lon":-120.95786111,"rng_nm":130,"alt_fmsl":93,"id":"MOD","desc":"MODESTO VOR-DME"},
{"type":"NDB","hdg_t":100.5,"dist_nm":81.9,"freq":205,"lat":36.06605556,"lon":-119.53094444,"rng_nm":50,"alt_fmsl":0,"id":"COR","desc":"SALYER FARMS NDB"},
{"type":"NDB","hdg_t":351.4,"dist_nm":82.6,"freq":203,"lat":37.69238889,"lon":-121.44463889,"rng_nm":50,"alt_fmsl":0,"id":"TCY","desc":"TRACY NDB"},
{"type":"VOR","hdg_t":87.8,"dist_nm":82.6,"freq":109.4,"lat":36.36730556,"lon":-119.48216667,"rng_nm":25,"alt_fmsl":260,"id":"VIS","desc":"VISALIA VOR-DME"},
{"type":"VOR","hdg_t":320.7,"dist_nm":82.7,"freq":113.9,"lat":37.39250000,"lon":-122.28130556,"rng_nm":40,"alt_fmsl":2270,"id":"OSI","desc":"WOODSIDE VORTAC"},
{"type":"NDB","hdg_t":343.8,"dist_nm":85.1,"freq":374,"lat":37.69222222,"lon":-121.68408333,"rng_nm":50,"alt_fmsl":0,"id":"LV","desc":"REIGA NDB"},
{"type":"VOR","hdg_t":158.2,"dist_nm":88.6,"freq":111,"lat":34.95236111,"lon":-120.52147222,"rng_nm":25,"alt_fmsl":0,"id":"GLJ","desc":"GUADALUPE VOR"},
{"type":"VOR","hdg_t":58.3,"dist_nm":89.7,"freq":115.6,"lat":37.10441667,"lon":-119.59544444,"rng_nm":40,"alt_fmsl":2380,"id":"FRA","desc":"FRIANT VORTAC"},
{"type":"VOR","hdg_t":0.4,"dist_nm":90.2,"freq":116,"lat":37.83361111,"lon":-121.17138889,"rng_nm":130,"alt_fmsl":47,"id":"ECA","desc":"MANTECA VOR-DME"},
{"type":"VOR","hdg_t":323.9,"dist_nm":96.1,"freq":115.8,"lat":37.61947222,"lon":-122.37388889,"rng_nm":40,"alt_fmsl":13,"id":"SFO","desc":"SAN FRANCISCO VOR-DME"},
{"type":"VOR","hdg_t":329.5,"dist_nm":97.4,"freq":116.8,"lat":37.72591667,"lon":-122.22358333,"rng_nm":130,"alt_fmsl":10,"id":"OAK","desc":"OAKLAND VORTAC"},
{"type":"VOR","hdg_t":138.5,"dist_nm":98.1,"freq":117.5,"lat":35.09308333,"lon":-119.86558333,"rng_nm":40,"alt_fmsl":3870,"id":"FLW","desc":"FELLOWS VORTAC"}
]
}
