{"success":true,"source":"xp2csv.pl","last_updated":"2013/11/08 14:53:21 UTC"
,"icao":"3J4","name":"Bald Eagle Air Park","lat":34.91009527,"lon":-89.95925667,"rwys":1,"ils":0,"index":1482552,"path":"w090n30/w090n34"
,"runways":[
{"len_m":912,"wid_m":21.34,"hdg":182,"surf":"Turf/grass","rwy1":"18","lat1":34.91420723,"lon1":-89.95908157,"rwy2":"36","lat2":34.90598331,"lon2":-89.95943177}
]
,"navaids":[
{"type":"VOR","hdg_t":349.3,"dist_nm":6.4,"freq":117.5,"lat":35.01511111,"lon":-89.98322222,"rng_nm":130,"alt_fmsl":360,"id":"MEM","desc":"MEMPHIS VORTAC"},
{"type":"NDB","hdg_t":63.5,"dist_nm":9.3,"freq":275,"lat":34.97980800,"lon":-89.78875000,"rng_nm":25,"alt_fmsl":401,"id":"OLV","desc":"OLIVE BRANCH NDB"},
{"type":"NDB","hdg_t":345.4,"dist_nm":18,"freq":414,"lat":35.20119444,"lon":-90.05119444,"rng_nm":50,"alt_fmsl":0,"id":"SPQ","desc":"SPAIN NDB"},
{"type":"NDB","hdg_t":3.3,"dist_nm":22.2,"freq":232,"lat":35.28050000,"lon":-89.93294444,"rng_nm":50,"alt_fmsl":0,"id":"MIG","desc":"MILLINGTON NDB"},
{"type":"VOR","hdg_t":109.9,"dist_nm":24.3,"freq":112.4,"lat":34.77025000,"lon":-89.49650000,"rng_nm":40,"alt_fmsl":630,"id":"HLI","desc":"HOLLY SPRINGS VORTAC"},
{"type":"NDB","hdg_t":32.1,"dist_nm":26.5,"freq":265,"lat":35.28468900,"lon":-89.67139200,"rng_nm":25,"alt_fmsl":308,"id":"LHC","desc":"LOOSAHATCHIE NDB"},
{"type":"NDB","hdg_t":57.4,"dist_nm":33,"freq":255,"lat":35.20558333,"lon":-89.39277778,"rng_nm":50,"alt_fmsl":0,"id":"FYE","desc":"SOMERVILLE NDB"},
{"type":"NDB","hdg_t":152.2,"dist_nm":35.5,"freq":426,"lat":34.38508333,"lon":-89.62597222,"rng_nm":50,"alt_fmsl":0,"id":"UV","desc":"TUNNG NDB"},
{"type":"VOR","hdg_t":315.8,"dist_nm":36.5,"freq":113,"lat":35.34702778,"lon":-90.47816667,"rng_nm":40,"alt_fmsl":211,"id":"GQE","desc":"GILMORE VOR-DME"},
{"type":"VOR","hdg_t":240.6,"dist_nm":40.6,"freq":109.6,"lat":34.57505556,"lon":-90.67438889,"rng_nm":40,"alt_fmsl":241,"id":"UJM","desc":"MARVELL VOR-DME"},
{"type":"NDB","hdg_t":240.3,"dist_nm":40.8,"freq":251,"lat":34.57121100,"lon":-90.67594200,"rng_nm":25,"alt_fmsl":0,"id":"HEE","desc":"THOMPSON ROBBINS NDB"},
{"type":"NDB","hdg_t":202,"dist_nm":43.7,"freq":391,"lat":34.23297200,"lon":-90.28978900,"rng_nm":25,"alt_fmsl":160,"id":"MMS","desc":"MARKS NDB"},
{"type":"NDB","hdg_t":24,"dist_nm":44.6,"freq":326,"lat":35.58966667,"lon":-89.58733333,"rng_nm":50,"alt_fmsl":0,"id":"COO","desc":"COVINGTON NDB"},
{"type":"NDB","hdg_t":67.7,"dist_nm":48.7,"freq":404,"lat":35.21433333,"lon":-89.04213889,"rng_nm":50,"alt_fmsl":0,"id":"BAV","desc":"HARDEMAN NDB"},
{"type":"NDB","hdg_t":53.3,"dist_nm":61.1,"freq":394,"lat":35.51577778,"lon":-88.95697222,"rng_nm":50,"alt_fmsl":0,"id":"MK","desc":"MERSY NDB"},
{"type":"NDB","hdg_t":176,"dist_nm":61.1,"freq":245,"lat":33.89111111,"lon":-89.87463889,"rng_nm":50,"alt_fmsl":0,"id":"SBQ","desc":"SCOBEY NDB"},
{"type":"VOR","hdg_t":0.8,"dist_nm":62.3,"freq":111.8,"lat":35.95097222,"lon":-89.94105556,"rng_nm":40,"alt_fmsl":0,"id":"GOJ","desc":"GOSNELL VOR"},
{"type":"VOR","hdg_t":332,"dist_nm":65.5,"freq":108.6,"lat":35.87491667,"lon":-90.58850000,"rng_nm":25,"alt_fmsl":247,"id":"JBR","desc":"JONESBORO VOR-DME"},
{"type":"VOR","hdg_t":50.8,"dist_nm":66.1,"freq":112,"lat":35.60355556,"lon":-88.91041667,"rng_nm":25,"alt_fmsl":410,"id":"MKL","desc":"MC KELLAR VOR-DME"},
{"type":"NDB","hdg_t":84.1,"dist_nm":66.5,"freq":334,"lat":35.01552778,"lon":-88.61569444,"rng_nm":50,"alt_fmsl":0,"id":"UU","desc":"SEYER NDB"},
{"type":"VOR","hdg_t":125.1,"dist_nm":70.7,"freq":109.8,"lat":34.22386111,"lon":-88.79733333,"rng_nm":40,"alt_fmsl":360,"id":"OTB","desc":"TUPELO VOR-DME"},
{"type":"NDB","hdg_t":126.1,"dist_nm":73.4,"freq":420,"lat":34.18038889,"lon":-88.76875000,"rng_nm":50,"alt_fmsl":0,"id":"TU","desc":"VERON NDB"},
{"type":"VOR","hdg_t":25.1,"dist_nm":73.4,"freq":116.8,"lat":36.01855556,"lon":-89.31769444,"rng_nm":40,"alt_fmsl":380,"id":"DYR","desc":"DYERSBURG VORTAC"},
{"type":"NDB","hdg_t":74.1,"dist_nm":73.7,"freq":386,"lat":35.23702778,"lon":-88.51600000,"rng_nm":50,"alt_fmsl":0,"id":"SZY","desc":"SIBLEY NDB"},
{"type":"NDB","hdg_t":338.7,"dist_nm":74.1,"freq":383,"lat":36.06277778,"lon":-90.51102778,"rng_nm":50,"alt_fmsl":0,"id":"PGR","desc":"PARAGOULD NDB"},
{"type":"NDB","hdg_t":306.5,"dist_nm":74.3,"freq":400,"lat":35.64202200,"lon":-91.18068100,"rng_nm":25,"alt_fmsl":237,"id":"EWP","desc":"NEWPORT NDB"},
{"type":"NDB","hdg_t":211.3,"dist_nm":77.1,"freq":272,"lat":33.80705556,"lon":-90.76261111,"rng_nm":50,"alt_fmsl":0,"id":"RNV","desc":"RENOVA NDB"},
{"type":"NDB","hdg_t":184.5,"dist_nm":79.1,"freq":349,"lat":33.59191667,"lon":-90.08436111,"rng_nm":50,"alt_fmsl":0,"id":"GW","desc":"TEOCK NDB"},
{"type":"NDB","hdg_t":260,"dist_nm":81.9,"freq":269,"lat":34.66377778,"lon":-91.59044444,"rng_nm":50,"alt_fmsl":0,"id":"SGT","desc":"STUTTGART NDB"},
{"type":"NDB","hdg_t":253.6,"dist_nm":83.8,"freq":338,"lat":34.50580556,"lon":-91.58177778,"rng_nm":50,"alt_fmsl":0,"id":"TT","desc":"STUTT NDB"},
{"type":"VOR","hdg_t":326.1,"dist_nm":86.8,"freq":114.5,"lat":36.11002778,"lon":-90.95369444,"rng_nm":130,"alt_fmsl":302,"id":"ARG","desc":"WALNUT RIDGE VORTAC"},
{"type":"VOR","hdg_t":190.4,"dist_nm":88,"freq":114.7,"lat":33.46386111,"lon":-90.27733333,"rng_nm":130,"alt_fmsl":125,"id":"SQS","desc":"SIDON VORTAC"},
{"type":"VOR","hdg_t":61.8,"dist_nm":88.8,"freq":109.4,"lat":35.59900000,"lon":-88.35888889,"rng_nm":40,"alt_fmsl":630,"id":"JKS","desc":"JACKS CREEK VOR-DME"},
{"type":"NDB","hdg_t":282.2,"dist_nm":89.1,"freq":323,"lat":35.21203100,"lon":-91.73263600,"rng_nm":25,"alt_fmsl":260,"id":"SRC","desc":"SEARCY NDB"},
{"type":"NDB","hdg_t":329,"dist_nm":90.8,"freq":227,"lat":36.20697222,"lon":-90.92311111,"rng_nm":50,"alt_fmsl":0,"id":"TNZ","desc":"LAWRENCE COUNTY NDB"},
{"type":"NDB","hdg_t":202.8,"dist_nm":92.7,"freq":284,"lat":33.48016667,"lon":-90.67563889,"rng_nm":50,"alt_fmsl":0,"id":"IDL","desc":"INDIANOLA NDB"},
{"type":"NDB","hdg_t":29.2,"dist_nm":95.5,"freq":212,"lat":36.29769444,"lon":-88.99486111,"rng_nm":50,"alt_fmsl":0,"id":"UC","desc":"OBION NDB"},
{"type":"VOR","hdg_t":211.8,"dist_nm":97.4,"freq":110.2,"lat":33.52352778,"lon":-90.98294444,"rng_nm":40,"alt_fmsl":130,"id":"GLH","desc":"GREENVILLE VOR-DME"},
{"type":"VOR","hdg_t":1.3,"dist_nm":98.5,"freq":111.2,"lat":36.55511111,"lon":-89.91141667,"rng_nm":40,"alt_fmsl":280,"id":"MAW","desc":"MALDEN VORTAC"},
{"type":"NDB","hdg_t":232.2,"dist_nm":99.3,"freq":305,"lat":33.88440800,"lon":-91.53151400,"rng_nm":25,"alt_fmsl":163,"id":"DZM","desc":"DUMAS NDB"}
]
}
