{"success":true,"source":"xp2csv.pl","last_updated":"2013/11/08 14:53:21 UTC"
,"icao":"3MA5","name":"Westport","lat":41.54315944,"lon":-71.03531806,"rwys":1,"ils":0,"index":1777891,"path":"w080n40/w072n41"
,"runways":[
{"len_m":655,"wid_m":15.24,"hdg":154,"surf":"Turf/grass","rwy1":"17","lat1":41.54583187,"lon1":-71.03698306,"rwy2":"35","lat2":41.54048701,"lon2":-71.03365306}
]
,"navaids":[
{"type":"NDB","hdg_t":9.5,"dist_nm":4.7,"freq":274,"lat":41.62163889,"lon":-71.01769444,"rng_nm":50,"alt_fmsl":0,"id":"EW","desc":"NEFOR NDB"},
{"type":"NDB","hdg_t":2.3,"dist_nm":20,"freq":227,"lat":41.87650000,"lon":-71.01700000,"rng_nm":50,"alt_fmsl":0,"id":"TAN","desc":"TAUNTON NDB"},
{"type":"VOR","hdg_t":301.6,"dist_nm":20.8,"freq":115.6,"lat":41.72433333,"lon":-71.42963889,"rng_nm":130,"alt_fmsl":49,"id":"PVD","desc":"PROVIDENCE VORTAC"},
{"type":"VOR","hdg_t":114.6,"dist_nm":20.9,"freq":114.5,"lat":41.39622222,"lon":-70.61272222,"rng_nm":40,"alt_fmsl":59,"id":"MVY","desc":"MARTHAS VINEYARD VOR-DME"},
{"type":"NDB","hdg_t":318.3,"dist_nm":21.4,"freq":356,"lat":41.81036111,"lon":-71.35322222,"rng_nm":50,"alt_fmsl":0,"id":"AR","desc":"ARMIN NDB"},
{"type":"NDB","hdg_t":286.1,"dist_nm":21.5,"freq":335,"lat":41.64177778,"lon":-71.49469444,"rng_nm":50,"alt_fmsl":0,"id":"PV","desc":"RENCH NDB"},
{"type":"SDME","hdg_t":73.2,"dist_nm":24.4,"freq":115.8,"lat":41.65960600,"lon":-70.51394400,"rng_nm":40,"alt_fmsl":120,"id":"FMH","desc":"OTIS TACAN"},
{"type":"NDB","hdg_t":345.2,"dist_nm":28.5,"freq":220,"lat":42.00277778,"lon":-71.19711111,"rng_nm":50,"alt_fmsl":0,"id":"IHM","desc":"MANSFIELD NDB"},
{"type":"NDB","hdg_t":66.8,"dist_nm":29,"freq":362,"lat":41.73225000,"lon":-70.44138889,"rng_nm":50,"alt_fmsl":0,"id":"FM","desc":"BOMDE NDB"},
{"type":"NDB","hdg_t":66.7,"dist_nm":29,"freq":362,"lat":41.73257200,"lon":-70.44086400,"rng_nm":25,"alt_fmsl":80,"id":"FMH","desc":"OTIS NDB"},
{"type":"NDB","hdg_t":318,"dist_nm":30.3,"freq":241,"lat":41.91905600,"lon":-71.48858300,"rng_nm":25,"alt_fmsl":490,"id":"SFZ","desc":"CENTRAL NDB"},
{"type":"VOR","hdg_t":227.4,"dist_nm":33.2,"freq":117.8,"lat":41.16744444,"lon":-71.57608333,"rng_nm":40,"alt_fmsl":100,"id":"SEY","desc":"SANDY POINT VOR-DME"},
{"type":"NDB","hdg_t":353.1,"dist_nm":34.8,"freq":397,"lat":42.11975000,"lon":-71.12841667,"rng_nm":50,"alt_fmsl":0,"id":"OW","desc":"STOGE NDB"},
{"type":"NDB","hdg_t":25.7,"dist_nm":36.9,"freq":368,"lat":42.09800000,"lon":-70.67577778,"rng_nm":50,"alt_fmsl":0,"id":"IMR","desc":"MARSHFIELD NDB"},
{"type":"NDB","hdg_t":74.2,"dist_nm":38.8,"freq":342,"lat":41.71613889,"lon":-70.20294444,"rng_nm":50,"alt_fmsl":0,"id":"HY","desc":"BOGEY NDB"},
{"type":"VOR","hdg_t":271.3,"dist_nm":43.4,"freq":110,"lat":41.55638889,"lon":-71.99936111,"rng_nm":40,"alt_fmsl":310,"id":"ORW","desc":"NORWICH VOR-DME"},
{"type":"NDB","hdg_t":359.1,"dist_nm":43.8,"freq":375,"lat":42.27375000,"lon":-71.04916667,"rng_nm":50,"alt_fmsl":0,"id":"BO","desc":"MILTT NDB"},
{"type":"VOR","hdg_t":304.5,"dist_nm":43.9,"freq":117.4,"lat":41.95547222,"lon":-71.84408333,"rng_nm":130,"alt_fmsl":652,"id":"PUT","desc":"PUTNAM VOR-DME"},
{"type":"NDB","hdg_t":6.3,"dist_nm":45.8,"freq":346,"lat":42.30308333,"lon":-70.92186111,"rng_nm":50,"alt_fmsl":0,"id":"LI","desc":"HULLZ NDB"},
{"type":"VOR","hdg_t":254.7,"dist_nm":47.6,"freq":110.85,"lat":41.33038889,"lon":-72.05197222,"rng_nm":25,"alt_fmsl":9,"id":"GON","desc":"GROTON VOR-DME"},
{"type":"NDB","hdg_t":78.9,"dist_nm":47.8,"freq":279,"lat":41.69177778,"lon":-69.98980556,"rng_nm":50,"alt_fmsl":0,"id":"CQX","desc":"NAUSET NDB"},
{"type":"NDB","hdg_t":48.8,"dist_nm":48.1,"freq":389,"lat":42.06880556,"lon":-70.22344444,"rng_nm":50,"alt_fmsl":0,"id":"PVC","desc":"PROVINCETOWN NDB"},
{"type":"VOR","hdg_t":108.6,"dist_nm":48.1,"freq":116.2,"lat":41.28188889,"lon":-70.02672222,"rng_nm":130,"alt_fmsl":99,"id":"ACK","desc":"NANTUCKET VOR-DME"},
{"type":"VOR","hdg_t":2.3,"dist_nm":48.8,"freq":112.7,"lat":42.35744444,"lon":-70.98955556,"rng_nm":130,"alt_fmsl":20,"id":"BOS","desc":"BOSTON VOR-DME"},
{"type":"NDB","hdg_t":106,"dist_nm":49.3,"freq":248,"lat":41.31127778,"lon":-69.98675000,"rng_nm":50,"alt_fmsl":0,"id":"AC","desc":"WAIVS NDB"},
{"type":"VOR","hdg_t":57.2,"dist_nm":53,"freq":114.7,"lat":42.01719444,"lon":-70.03722222,"rng_nm":130,"alt_fmsl":151,"id":"LFV","desc":"MARCONI VOR-DME"},
{"type":"NDB","hdg_t":324.1,"dist_nm":53.2,"freq":417,"lat":42.25988889,"lon":-71.73527778,"rng_nm":50,"alt_fmsl":0,"id":"EK","desc":"GOZZR NDB"},
{"type":"NDB","hdg_t":3.3,"dist_nm":54.6,"freq":382,"lat":42.45202778,"lon":-70.96330556,"rng_nm":50,"alt_fmsl":0,"id":"LQ","desc":"LYNDY NDB"},
{"type":"NDB","hdg_t":353.3,"dist_nm":55.1,"freq":251,"lat":42.45575000,"lon":-71.17852778,"rng_nm":50,"alt_fmsl":0,"id":"SKR","desc":"SHAKER HILL NDB"},
{"type":"NDB","hdg_t":344.4,"dist_nm":58.3,"freq":332,"lat":42.47986111,"lon":-71.38866667,"rng_nm":50,"alt_fmsl":0,"id":"BE","desc":"BEDDS (LOM) NDB"},
{"type":"NDB","hdg_t":315.1,"dist_nm":62.2,"freq":279,"lat":42.27450000,"lon":-72.01994444,"rng_nm":50,"alt_fmsl":0,"id":"RS","desc":"DUNCA NDB"},
{"type":"NDB","hdg_t":353.8,"dist_nm":66.4,"freq":402,"lat":42.64413889,"lon":-71.19719444,"rng_nm":50,"alt_fmsl":0,"id":"LW","desc":"HAGET NDB"},
{"type":"VOR","hdg_t":275.4,"dist_nm":68.3,"freq":114.9,"lat":41.64111111,"lon":-72.54741667,"rng_nm":40,"alt_fmsl":849,"id":"HFD","desc":"HARTFORD VOR-DME"},
{"type":"NDB","hdg_t":332.1,"dist_nm":68.5,"freq":365,"lat":42.55091667,"lon":-71.75713889,"rng_nm":50,"alt_fmsl":0,"id":"FIT","desc":"FITCHBURG NDB"},
{"type":"VOR","hdg_t":237.5,"dist_nm":69,"freq":113.6,"lat":40.91900000,"lon":-72.31669444,"rng_nm":130,"alt_fmsl":22,"id":"HTO","desc":"HAMPTON VORTAC"},
{"type":"VOR","hdg_t":357.9,"dist_nm":71.8,"freq":112.5,"lat":42.74041667,"lon":-71.09483333,"rng_nm":40,"alt_fmsl":302,"id":"LWM","desc":"LAWRENCE VOR-DME"},
{"type":"VOR","hdg_t":323,"dist_nm":75.5,"freq":110.6,"lat":42.54594444,"lon":-72.05819444,"rng_nm":40,"alt_fmsl":1280,"id":"GDM","desc":"GARDNER VOR-DME"},
{"type":"VOR","hdg_t":260.1,"dist_nm":76,"freq":110.4,"lat":41.31383333,"lon":-72.69219444,"rng_nm":40,"alt_fmsl":220,"id":"MAD","desc":"MADISON VOR-DME"},
{"type":"VOR","hdg_t":300.9,"dist_nm":77.5,"freq":114,"lat":42.19755556,"lon":-72.52630556,"rng_nm":40,"alt_fmsl":241,"id":"CEF","desc":"WESTOVER VORTAC"},
{"type":"VOR","hdg_t":288.3,"dist_nm":77.9,"freq":109,"lat":41.94100000,"lon":-72.68858333,"rng_nm":25,"alt_fmsl":160,"id":"BDL","desc":"BRADLEY VORTAC"},
{"type":"NDB","hdg_t":241.4,"dist_nm":78.8,"freq":400,"lat":40.90447222,"lon":-72.55647222,"rng_nm":50,"alt_fmsl":0,"id":"FO","desc":"SQUIR NDB"},
{"type":"NDB","hdg_t":285,"dist_nm":80.3,"freq":388,"lat":41.87738300,"lon":-72.76620600,"rng_nm":25,"alt_fmsl":0,"id":"BD","desc":"CHUPP NDB"},
{"type":"NDB","hdg_t":341.9,"dist_nm":80.8,"freq":359,"lat":42.82338889,"lon":-71.60216667,"rng_nm":50,"alt_fmsl":0,"id":"AS","desc":"CHERN NDB"},
{"type":"VOR","hdg_t":349.4,"dist_nm":80.8,"freq":114.4,"lat":42.86852778,"lon":-71.36952778,"rng_nm":40,"alt_fmsl":471,"id":"MHT","desc":"MANCHESTER VOR-DME"},
{"type":"NDB","hdg_t":344.6,"dist_nm":82.2,"freq":209,"lat":42.86422222,"lon":-71.52880556,"rng_nm":50,"alt_fmsl":0,"id":"MJ","desc":"FITZY NDB"},
{"type":"NDB","hdg_t":318.1,"dist_nm":83.1,"freq":205,"lat":42.56861111,"lon":-72.28611111,"rng_nm":50,"alt_fmsl":0,"id":"ORE","desc":"ORANGE NDB"},
{"type":"SDME","hdg_t":240.2,"dist_nm":83.7,"freq":111,"lat":40.83776600,"lon":-72.63184500,"rng_nm":25,"alt_fmsl":50,"id":"FOK","desc":"SUFFOLK CO TACAN"},
{"type":"VOR","hdg_t":296.7,"dist_nm":84,"freq":113,"lat":42.16194444,"lon":-72.71619444,"rng_nm":40,"alt_fmsl":268,"id":"BAF","desc":"BARNES VORTAC"},
{"type":"VOR","hdg_t":259.2,"dist_nm":85.2,"freq":109.8,"lat":41.26230556,"lon":-72.88519444,"rng_nm":25,"alt_fmsl":6,"id":"HVN","desc":"NEW HAVEN VOR-DME"},
{"type":"VOR","hdg_t":245.8,"dist_nm":87.8,"freq":117.2,"lat":40.92961111,"lon":-72.79886111,"rng_nm":40,"alt_fmsl":86,"id":"CCC","desc":"CALVERTON VOR-DME"},
{"type":"VOR","hdg_t":5.5,"dist_nm":92.8,"freq":116.5,"lat":43.08447222,"lon":-70.83200000,"rng_nm":40,"alt_fmsl":99,"id":"PSM","desc":"PEASE VOR-DME"},
{"type":"VOR","hdg_t":323.6,"dist_nm":93.6,"freq":109.4,"lat":42.79427778,"lon":-72.29177778,"rng_nm":40,"alt_fmsl":1380,"id":"EEN","desc":"KEENE VORTAC"},
{"type":"NDB","hdg_t":264.8,"dist_nm":94.1,"freq":362,"lat":41.38238889,"lon":-73.11250000,"rng_nm":50,"alt_fmsl":0,"id":"JWE","desc":"CLERA NDB"},
{"type":"NDB","hdg_t":265.5,"dist_nm":94.3,"freq":362,"lat":41.40251700,"lon":-73.11981900,"rng_nm":25,"alt_fmsl":0,"id":"OX","desc":"CLERA NDB"},
{"type":"NDB","hdg_t":349,"dist_nm":96.3,"freq":216,"lat":43.11883333,"lon":-71.45269444,"rng_nm":50,"alt_fmsl":0,"id":"CO","desc":"EPSOM NDB"},
{"type":"VOR","hdg_t":298.2,"dist_nm":96.7,"freq":115.1,"lat":42.29130556,"lon":-72.94938889,"rng_nm":40,"alt_fmsl":1600,"id":"CTR","desc":"CHESTER VOR-DME"},
{"type":"VOR","hdg_t":257,"dist_nm":97.1,"freq":108.8,"lat":41.16069444,"lon":-73.12450000,"rng_nm":40,"alt_fmsl":9,"id":"BDR","desc":"BRIDGEPORT VOR-DME"}
]
}
