{"success":true,"source":"xp2csv.pl","last_updated":"2013/11/08 14:53:21 UTC"
,"icao":"3MO6","name":"Kitty Hawk Estates","lat":39.33555666,"lon":-94.48356306,"rwys":1,"ils":0,"index":1400914,"path":"w100n30/w095n39"
,"runways":[
{"len_m":669,"wid_m":18.29,"hdg":5,"surf":"Turf/grass","rwy1":"36","lat1":39.33255086,"lon1":-94.48390306,"rwy2":"18","lat2":39.33856246,"lon2":-94.48322306}
]
,"navaids":[
{"type":"NDB","hdg_t":208.7,"dist_nm":7.8,"freq":344,"lat":39.22080556,"lon":-94.56433333,"rng_nm":50,"alt_fmsl":0,"id":"MK","desc":"KENZY NDB"},
{"type":"NDB","hdg_t":288.9,"dist_nm":9.5,"freq":275,"lat":39.38691667,"lon":-94.67697222,"rng_nm":50,"alt_fmsl":0,"id":"DY","desc":"LEXEY NDB"},
{"type":"VOR","hdg_t":255.7,"dist_nm":12.1,"freq":113.25,"lat":39.28527778,"lon":-94.73705556,"rng_nm":130,"alt_fmsl":1017,"id":"MCI","desc":"KANSAS CITY VORTAC"},
{"type":"VOR","hdg_t":202.2,"dist_nm":13.9,"freq":111.4,"lat":39.12038889,"lon":-94.59658333,"rng_nm":25,"alt_fmsl":740,"id":"RIS","desc":"RIVERSIDE VOR-DME"},
{"type":"NDB","hdg_t":241.1,"dist_nm":14.1,"freq":359,"lat":39.22088889,"lon":-94.74991667,"rng_nm":50,"alt_fmsl":0,"id":"DO","desc":"DOTTE NDB"},
{"type":"NDB","hdg_t":263.4,"dist_nm":17.2,"freq":416,"lat":39.30197222,"lon":-94.85111111,"rng_nm":50,"alt_fmsl":0,"id":"RN","desc":"HUGGY NDB"},
{"type":"VOR","hdg_t":130.9,"dist_nm":21.9,"freq":114,"lat":39.09541667,"lon":-94.12883333,"rng_nm":40,"alt_fmsl":878,"id":"ANX","desc":"NAPOLEON VORTAC"},
{"type":"NDB","hdg_t":166.8,"dist_nm":23,"freq":263,"lat":38.96068600,"lon":-94.37173900,"rng_nm":25,"alt_fmsl":1041,"id":"LXT","desc":"LESUMIT NDB"},
{"type":"NDB","hdg_t":22.4,"dist_nm":25.5,"freq":394,"lat":39.72941667,"lon":-94.27230556,"rng_nm":50,"alt_fmsl":0,"id":"EZZ","desc":"CAMERON NDB"},
{"type":"NDB","hdg_t":206.3,"dist_nm":26.7,"freq":526,"lat":38.93488845,"lon":-94.73732723,"rng_nm":25,"alt_fmsl":0,"id":"OJ","desc":"Furor LOM"},
{"type":"NDB","hdg_t":316.1,"dist_nm":28.3,"freq":260,"lat":39.67572222,"lon":-94.90683333,"rng_nm":50,"alt_fmsl":0,"id":"ST","desc":"TARIO NDB"},
{"type":"VOR","hdg_t":201.8,"dist_nm":31.9,"freq":113,"lat":38.84063889,"lon":-94.73675000,"rng_nm":25,"alt_fmsl":1034,"id":"OJC","desc":"JOHNSON COUNTY VOR-DME"},
{"type":"VOR","hdg_t":57.7,"dist_nm":33.3,"freq":111.2,"lat":39.63055556,"lon":-93.87527778,"rng_nm":40,"alt_fmsl":930,"id":"BQS","desc":"BRAYMER VOR-DME"},
{"type":"NDB","hdg_t":198.8,"dist_nm":36.8,"freq":420,"lat":38.75363890,"lon":-94.73785930,"rng_nm":25,"alt_fmsl":0,"id":"PK","desc":"Herbb LOM"},
{"type":"NDB","hdg_t":329.2,"dist_nm":38.3,"freq":233,"lat":39.88380556,"lon":-94.90813889,"rng_nm":50,"alt_fmsl":0,"id":"AZN","desc":"AMAZON NDB"},
{"type":"NDB","hdg_t":231.2,"dist_nm":40.2,"freq":338,"lat":38.91363889,"lon":-95.15375000,"rng_nm":50,"alt_fmsl":0,"id":"JZ","desc":"NEWBN NDB"},
{"type":"NDB","hdg_t":208.2,"dist_nm":40.5,"freq":368,"lat":38.73866667,"lon":-94.89191667,"rng_nm":50,"alt_fmsl":0,"id":"IX","desc":"DUSTT NDB"},
{"type":"VOR","hdg_t":331.4,"dist_nm":42.6,"freq":115.5,"lat":39.96058333,"lon":-94.92522222,"rng_nm":130,"alt_fmsl":1160,"id":"STJ","desc":"ST JOSEPH VORTAC"},
{"type":"VOR","hdg_t":256.8,"dist_nm":51,"freq":117.8,"lat":39.13711111,"lon":-95.54911111,"rng_nm":40,"alt_fmsl":1070,"id":"TOP","desc":"TOPEKA VORTAC"},
{"type":"NDB","hdg_t":59.7,"dist_nm":52.9,"freq":375,"lat":39.77711111,"lon":-93.49419444,"rng_nm":50,"alt_fmsl":0,"id":"CHT","desc":"CHILLICOTHE NDB"},
{"type":"VOR","hdg_t":305.6,"dist_nm":53.4,"freq":108.2,"lat":39.85083333,"lon":-95.42305556,"rng_nm":40,"alt_fmsl":1126,"id":"RBA","desc":"ROBINSON VOR-DME"},
{"type":"SDME","hdg_t":129.2,"dist_nm":56.5,"freq":109.8,"lat":38.73570000,"lon":-93.55042800,"rng_nm":40,"alt_fmsl":850,"id":"SZL","desc":"WHITEMAN TACAN"},
{"type":"NDB","hdg_t":257.4,"dist_nm":57.5,"freq":521,"lat":39.12036111,"lon":-95.68711111,"rng_nm":50,"alt_fmsl":0,"id":"TO","desc":"BILOY NDB"},
{"type":"NDB","hdg_t":242.5,"dist_nm":57.9,"freq":326,"lat":38.88486111,"lon":-95.58152778,"rng_nm":50,"alt_fmsl":0,"id":"FO","desc":"RIPLY NDB"},
{"type":"SDME","hdg_t":247.4,"dist_nm":59.6,"freq":111.6,"lat":38.94736700,"lon":-95.66117500,"rng_nm":25,"alt_fmsl":1043,"id":"FOE","desc":"FORBES TACAN"},
{"type":"NDB","hdg_t":42.4,"dist_nm":60.7,"freq":400,"lat":40.08027778,"lon":-93.59300000,"rng_nm":50,"alt_fmsl":0,"id":"TRX","desc":"TRENTON NDB"},
{"type":"NDB","hdg_t":105.9,"dist_nm":62.5,"freq":371,"lat":39.04194444,"lon":-93.19583333,"rng_nm":50,"alt_fmsl":0,"id":"PUR","desc":"MARSHALL NDB"},
{"type":"VOR","hdg_t":180.1,"dist_nm":63.7,"freq":115.9,"lat":38.27211111,"lon":-94.48822222,"rng_nm":130,"alt_fmsl":890,"id":"BUM","desc":"BUTLER VORTAC"},
{"type":"NDB","hdg_t":311.3,"dist_nm":67.6,"freq":404,"lat":40.07633333,"lon":-95.58688889,"rng_nm":50,"alt_fmsl":0,"id":"FNB","desc":"BRENNER NDB"},
{"type":"NDB","hdg_t":67.6,"dist_nm":68.7,"freq":383,"lat":39.76419444,"lon":-93.10908333,"rng_nm":50,"alt_fmsl":0,"id":"BZK","desc":"BROOKFIELD NDB"},
{"type":"NDB","hdg_t":147.1,"dist_nm":69.5,"freq":388,"lat":38.35866667,"lon":-93.68463889,"rng_nm":50,"alt_fmsl":0,"id":"GLY","desc":"GOLDEN VALLEY NDB"},
{"type":"NDB","hdg_t":121.3,"dist_nm":71.8,"freq":281,"lat":38.70438889,"lon":-93.17663889,"rng_nm":50,"alt_fmsl":0,"id":"DMO","desc":"SEDALIA NDB"},
{"type":"VOR","hdg_t":17.3,"dist_nm":79.2,"freq":116.7,"lat":40.59675000,"lon":-93.96758333,"rng_nm":130,"alt_fmsl":1140,"id":"LMN","desc":"LAMONI VORTAC"},
{"type":"NDB","hdg_t":223.4,"dist_nm":84.9,"freq":245,"lat":38.29975000,"lon":-95.72147222,"rng_nm":50,"alt_fmsl":0,"id":"UKL","desc":"BOYD NDB"},
{"type":"NDB","hdg_t":343.3,"dist_nm":86.9,"freq":353,"lat":40.72366667,"lon":-95.02797222,"rng_nm":50,"alt_fmsl":0,"id":"ICL","desc":"CLARINDA NDB"},
{"type":"NDB","hdg_t":188.2,"dist_nm":93.1,"freq":379,"lat":37.79688889,"lon":-94.76555556,"rng_nm":50,"alt_fmsl":0,"id":"FSK","desc":"FORT SCOTT NDB"},
{"type":"VOR","hdg_t":77.7,"dist_nm":94.8,"freq":112.9,"lat":39.65405556,"lon":-92.48216667,"rng_nm":40,"alt_fmsl":870,"id":"MCM","desc":"MACON VOR-DME"},
{"type":"NDB","hdg_t":333.6,"dist_nm":94.9,"freq":411,"lat":40.75169444,"lon":-95.40750000,"rng_nm":50,"alt_fmsl":0,"id":"SDA","desc":"SHENANDOAH NDB"},
{"type":"VOR","hdg_t":303.5,"dist_nm":95,"freq":112.4,"lat":40.20036111,"lon":-96.20627778,"rng_nm":130,"alt_fmsl":1360,"id":"PWE","desc":"PAWNEE CITY VORTAC"},
{"type":"NDB","hdg_t":3.6,"dist_nm":97.4,"freq":379,"lat":40.95744444,"lon":-94.34725000,"rng_nm":50,"alt_fmsl":0,"id":"UNE","desc":"UNION CO NDB"},
{"type":"NDB","hdg_t":320.5,"dist_nm":99.1,"freq":347,"lat":40.60555556,"lon":-95.86083333,"rng_nm":50,"alt_fmsl":0,"id":"AFK","desc":"NEBRASKA CITY NDB"},
{"type":"VOR","hdg_t":231.6,"dist_nm":99.6,"freq":112.8,"lat":38.29113889,"lon":-96.13811111,"rng_nm":40,"alt_fmsl":1233,"id":"EMP","desc":"EMPORIA VORTAC"},
{"type":"VOR","hdg_t":60.7,"dist_nm":99.8,"freq":114.6,"lat":40.13502778,"lon":-92.59172222,"rng_nm":130,"alt_fmsl":985,"id":"IRK","desc":"KIRKSVILLE VORTAC"}
]
}
