{"success":true,"source":"xp2csv.pl","last_updated":"2013/11/08 14:53:21 UTC"
,"icao":"3ND5","name":"Gage Flying Farmer","lat":47.06109111,"lon":-97.77121334,"rwys":1,"ils":0,"index":1352256,"path":"w100n40/w098n47"
,"runways":[
{"len_m":733,"wid_m":24.38,"hdg":126,"surf":"Turf/grass","rwy1":"12","lat1":47.06307203,"lon1":-97.77507227,"rwy2":"30","lat2":47.05911019,"lon2":-97.76735441}
]
,"navaids":[
{"type":"NDB","hdg_t":250.6,"dist_nm":35.3,"freq":395,"lat":46.86286111,"lon":-98.58072222,"rng_nm":50,"alt_fmsl":0,"id":"JM","desc":"SABON NDB"},
{"type":"VOR","hdg_t":258.6,"dist_nm":38,"freq":114.5,"lat":46.93286111,"lon":-98.67877778,"rng_nm":40,"alt_fmsl":1493,"id":"JMS","desc":"JAMESTOWN VOR-DME"},
{"type":"NDB","hdg_t":94.1,"dist_nm":39.3,"freq":365,"lat":47.00916667,"lon":-96.81516667,"rng_nm":50,"alt_fmsl":0,"id":"AA","desc":"KENIE NDB"},
{"type":"VOR","hdg_t":115.6,"dist_nm":42.1,"freq":116.2,"lat":46.75336111,"lon":-96.85133333,"rng_nm":130,"alt_fmsl":908,"id":"FAR","desc":"FARGO VORTAC"},
{"type":"NDB","hdg_t":173.9,"dist_nm":50.5,"freq":278,"lat":46.22369444,"lon":-97.64263889,"rng_nm":50,"alt_fmsl":0,"id":"GWR","desc":"GWINNER NDB"},
{"type":"NDB","hdg_t":26.7,"dist_nm":52.9,"freq":345,"lat":47.84638889,"lon":-97.18152778,"rng_nm":50,"alt_fmsl":0,"id":"GF","desc":"HISER NDB"},
{"type":"SDME","hdg_t":15.3,"dist_nm":55.8,"freq":116.4,"lat":47.95716700,"lon":-97.40583300,"rng_nm":130,"alt_fmsl":951,"id":"RDR","desc":"RED RIVER TACAN"},
{"type":"VOR","hdg_t":23.7,"dist_nm":58.7,"freq":114.3,"lat":47.95483333,"lon":-97.18536111,"rng_nm":130,"alt_fmsl":841,"id":"GFK","desc":"GRAND FORKS VOR-DME"},
{"type":"NDB","hdg_t":44.7,"dist_nm":66.3,"freq":400,"lat":47.84033333,"lon":-96.61641667,"rng_nm":50,"alt_fmsl":0,"id":"CKN","desc":"CROOKSTON NDB"},
{"type":"NDB","hdg_t":135,"dist_nm":68.7,"freq":233,"lat":46.24488889,"lon":-96.60361111,"rng_nm":50,"alt_fmsl":0,"id":"BWP","desc":"BRECKENRIDGE-WAHP NDB"},
{"type":"NDB","hdg_t":324.7,"dist_nm":71.9,"freq":332,"lat":48.03552778,"lon":-98.80383333,"rng_nm":50,"alt_fmsl":0,"id":"VK","desc":"VIKOR NDB"},
{"type":"NDB","hdg_t":179.1,"dist_nm":74.5,"freq":386,"lat":45.81916700,"lon":-97.74558300,"rng_nm":25,"alt_fmsl":1312,"id":"BTN","desc":"BRITTON NDB"},
{"type":"VOR","hdg_t":324.1,"dist_nm":78.4,"freq":111,"lat":48.11522222,"lon":-98.91250000,"rng_nm":40,"alt_fmsl":1448,"id":"DVL","desc":"DEVILS LAKE VOR-DME"},
{"type":"VOR","hdg_t":99.6,"dist_nm":78.7,"freq":111.2,"lat":46.82555556,"lon":-95.88733333,"rng_nm":25,"alt_fmsl":1387,"id":"DTL","desc":"DETROIT LAKES VOR-DME"},
{"type":"VOR","hdg_t":124.1,"dist_nm":81.2,"freq":110.4,"lat":46.28936111,"lon":-96.15680556,"rng_nm":25,"alt_fmsl":1201,"id":"FFM","desc":"FERGUS FALLS VOR-DME"},
{"type":"NDB","hdg_t":124.8,"dist_nm":86.9,"freq":337,"lat":46.21980556,"lon":-96.05769444,"rng_nm":50,"alt_fmsl":0,"id":"FF","desc":"HAMRE NDB"},
{"type":"NDB","hdg_t":68,"dist_nm":87.6,"freq":224,"lat":47.58902778,"lon":-95.76958333,"rng_nm":50,"alt_fmsl":0,"id":"FSE","desc":"FOSSTON NDB"},
{"type":"VOR","hdg_t":46.1,"dist_nm":88.3,"freq":108.4,"lat":48.06930556,"lon":-96.18644444,"rng_nm":40,"alt_fmsl":1039,"id":"TVF","desc":"THIEF RIVER FALLS VOR-DME"},
{"type":"NDB","hdg_t":49.5,"dist_nm":88.6,"freq":260,"lat":48.00655556,"lon":-96.09550000,"rng_nm":50,"alt_fmsl":0,"id":"HY","desc":"HARVI NDB"},
{"type":"NDB","hdg_t":146,"dist_nm":92,"freq":326,"lat":45.78327778,"lon":-96.54669444,"rng_nm":50,"alt_fmsl":0,"id":"ETH","desc":"WHEATON NDB"}
]
}
