{"success":true,"source":"xp2csv.pl","last_updated":"2013/11/08 14:53:21 UTC"
,"icao":"3W6","name":"Bladenboro","lat":34.55016861,"lon":-78.78307612,"rwys":1,"ils":0,"index":1662752,"path":"w080n30/w079n34"
,"runways":[
{"len_m":850,"wid_m":41.15,"hdg":13,"surf":"Turf/grass","rwy1":"02","lat1":34.54643488,"lon1":-78.78412271,"rwy2":"20","lat2":34.55390234,"lon2":-78.78202953}
]
,"navaids":[
{"type":"NDB","hdg_t":95.4,"dist_nm":13.3,"freq":398,"lat":34.52886111,"lon":-78.51597222,"rng_nm":50,"alt_fmsl":0,"id":"TGQ","desc":"ELIZABETHTOWN NDB"},
{"type":"VOR","hdg_t":285,"dist_nm":13.9,"freq":110,"lat":34.61069444,"lon":-79.05594444,"rng_nm":25,"alt_fmsl":0,"id":"LBT","desc":"LUMBERTON VOR"},
{"type":"NDB","hdg_t":285.7,"dist_nm":14.2,"freq":359,"lat":34.61447222,"lon":-79.06091667,"rng_nm":50,"alt_fmsl":0,"id":"RSY","desc":"ROBESON NDB"},
{"type":"NDB","hdg_t":167.9,"dist_nm":16.9,"freq":227,"lat":34.27319444,"lon":-78.71197222,"rng_nm":50,"alt_fmsl":0,"id":"CPC","desc":"CAMP NDB"},
{"type":"NDB","hdg_t":269.2,"dist_nm":17.6,"freq":384,"lat":34.54580556,"lon":-79.13850000,"rng_nm":50,"alt_fmsl":0,"id":"JB","desc":"JIGEL NDB"},
{"type":"NDB","hdg_t":340.4,"dist_nm":23,"freq":367,"lat":34.91244444,"lon":-78.93963889,"rng_nm":50,"alt_fmsl":0,"id":"GR","desc":"DOONE NDB"},
{"type":"VOR","hdg_t":350.1,"dist_nm":26.4,"freq":108.8,"lat":34.98555556,"lon":-78.87505556,"rng_nm":40,"alt_fmsl":179,"id":"FAY","desc":"FAYETTEVILLE VOR-DME"},
{"type":"NDB","hdg_t":258.5,"dist_nm":29.6,"freq":274,"lat":34.45013889,"lon":-79.36883333,"rng_nm":50,"alt_fmsl":0,"id":"DLC","desc":"DILLON NDB"},
{"type":"NDB","hdg_t":39,"dist_nm":32.8,"freq":412,"lat":34.97544444,"lon":-78.36305556,"rng_nm":50,"alt_fmsl":0,"id":"CTZ","desc":"CLINTON NDB"},
{"type":"NDB","hdg_t":288.7,"dist_nm":34.4,"freq":257,"lat":34.73316667,"lon":-79.44369444,"rng_nm":50,"alt_fmsl":0,"id":"ME","desc":"MAXTN NDB"},
{"type":"NDB","hdg_t":231.4,"dist_nm":34.9,"freq":388,"lat":34.18516667,"lon":-79.33311111,"rng_nm":50,"alt_fmsl":0,"id":"MAO","desc":"MARION NDB"},
{"type":"NDB","hdg_t":357.6,"dist_nm":35.3,"freq":393,"lat":35.13905556,"lon":-78.81280556,"rng_nm":50,"alt_fmsl":0,"id":"FGP","desc":"FORT BRAGG NDB"},
{"type":"SDME","hdg_t":342.5,"dist_nm":38.8,"freq":113.8,"lat":35.16848600,"lon":-79.01966900,"rng_nm":40,"alt_fmsl":240,"id":"POB","desc":"POPE TACAN"},
{"type":"NDB","hdg_t":75.3,"dist_nm":39.8,"freq":379,"lat":34.71627778,"lon":-78.00358333,"rng_nm":50,"alt_fmsl":0,"id":"ACZ","desc":"PENDY NDB"},
{"type":"NDB","hdg_t":169.1,"dist_nm":40.5,"freq":267,"lat":33.88525000,"lon":-78.62991667,"rng_nm":50,"alt_fmsl":0,"id":"CR","desc":"CALAB NDB"},
{"type":"NDB","hdg_t":348.2,"dist_nm":41.4,"freq":338,"lat":35.22683333,"lon":-78.95436111,"rng_nm":50,"alt_fmsl":0,"id":"POB","desc":"POPE NDB"},
{"type":"VOR","hdg_t":176.2,"dist_nm":44.1,"freq":117.6,"lat":33.81386111,"lon":-78.72452778,"rng_nm":40,"alt_fmsl":20,"id":"CRE","desc":"GRAND STRAND VORTAC"},
{"type":"NDB","hdg_t":309.7,"dist_nm":44.9,"freq":278,"lat":35.02794444,"lon":-79.48558333,"rng_nm":50,"alt_fmsl":0,"id":"HFF","desc":"MACKALL NDB"},
{"type":"VOR","hdg_t":104.5,"dist_nm":46.6,"freq":117,"lat":34.35166667,"lon":-77.87438889,"rng_nm":130,"alt_fmsl":20,"id":"ILM","desc":"WILMINGTON VORTAC"},
{"type":"NDB","hdg_t":201.6,"dist_nm":46.8,"freq":370,"lat":33.82330556,"lon":-79.12822222,"rng_nm":50,"alt_fmsl":0,"id":"HYW","desc":"HORRY NDB"},
{"type":"NDB","hdg_t":275.3,"dist_nm":47.2,"freq":230,"lat":34.62022222,"lon":-79.73319444,"rng_nm":50,"alt_fmsl":0,"id":"BES","desc":"BENNETTSVILLE NDB"},
{"type":"VOR","hdg_t":246.6,"dist_nm":47.3,"freq":115.2,"lat":34.23294444,"lon":-79.65711111,"rng_nm":130,"alt_fmsl":110,"id":"FLO","desc":"FLORENCE VORTAC"},
{"type":"SDME","hdg_t":109.7,"dist_nm":47.4,"freq":109.95,"lat":34.27885500,"lon":-77.88530000,"rng_nm":18,"alt_fmsl":1624,"id":"IGNM","desc":"KILM 06 DME"},
{"type":"NDB","hdg_t":292.1,"dist_nm":48.5,"freq":375,"lat":34.85266667,"lon":-79.69366667,"rng_nm":50,"alt_fmsl":0,"id":"RCZ","desc":"ROSCOE NDB"},
{"type":"NDB","hdg_t":122.8,"dist_nm":48.7,"freq":216,"lat":34.10627778,"lon":-77.96138889,"rng_nm":50,"alt_fmsl":0,"id":"CLB","desc":"CAROLINA BEACH NDB"},
{"type":"NDB","hdg_t":104.5,"dist_nm":49.8,"freq":205,"lat":34.33725000,"lon":-77.81183333,"rng_nm":50,"alt_fmsl":0,"id":"GM","desc":"WILZE NDB"},
{"type":"NDB","hdg_t":115,"dist_nm":50.3,"freq":281,"lat":34.19133333,"lon":-77.86630556,"rng_nm":50,"alt_fmsl":0,"id":"IL","desc":"AIRLI NDB"},
{"type":"NDB","hdg_t":136.3,"dist_nm":51.3,"freq":233,"lat":33.92791700,"lon":-78.07417800,"rng_nm":25,"alt_fmsl":23,"id":"SUT","desc":"YAUPON NDB"},
{"type":"NDB","hdg_t":53.5,"dist_nm":52.9,"freq":332,"lat":35.07225000,"lon":-77.91886111,"rng_nm":50,"alt_fmsl":0,"id":"DKA","desc":"KENAN NDB"},
{"type":"NDB","hdg_t":5.7,"dist_nm":53.1,"freq":417,"lat":35.43300000,"lon":-78.67475000,"rng_nm":50,"alt_fmsl":0,"id":"HQT","desc":"HARNETT NDB"},
{"type":"NDB","hdg_t":77,"dist_nm":54.7,"freq":261,"lat":34.75050000,"lon":-77.70444444,"rng_nm":50,"alt_fmsl":0,"id":"OA","desc":"ELLAS NDB"},
{"type":"NDB","hdg_t":282.3,"dist_nm":54.8,"freq":409,"lat":34.74183333,"lon":-79.86561111,"rng_nm":50,"alt_fmsl":0,"id":"CQW","desc":"CHERAW NDB"},
{"type":"NDB","hdg_t":263.6,"dist_nm":55.1,"freq":245,"lat":34.44325000,"lon":-79.88733333,"rng_nm":50,"alt_fmsl":0,"id":"UDG","desc":"DARLINGTON NDB"},
{"type":"VOR","hdg_t":315.3,"dist_nm":56.2,"freq":111.8,"lat":35.21547222,"lon":-79.58794444,"rng_nm":40,"alt_fmsl":590,"id":"SDZ","desc":"SANDHILLS VORTAC"},
{"type":"NDB","hdg_t":247.3,"dist_nm":57.7,"freq":335,"lat":34.17397222,"lon":-79.85250000,"rng_nm":50,"alt_fmsl":0,"id":"FL","desc":"ALCOT NDB"},
{"type":"NDB","hdg_t":17.5,"dist_nm":58.1,"freq":263,"lat":35.47497222,"lon":-78.42522222,"rng_nm":50,"alt_fmsl":0,"id":"JN","desc":"JURLY NDB"},
{"type":"NDB","hdg_t":342.8,"dist_nm":59.3,"freq":406,"lat":35.49730556,"lon":-79.13991667,"rng_nm":50,"alt_fmsl":0,"id":"TT","desc":"LEECO NDB"},
{"type":"NDB","hdg_t":217.1,"dist_nm":61.5,"freq":236,"lat":33.72850000,"lon":-79.52505556,"rng_nm":50,"alt_fmsl":0,"id":"HEK","desc":"STUCKEY NDB"},
{"type":"SDME","hdg_t":40.1,"dist_nm":61.7,"freq":116.5,"lat":35.33502800,"lon":-77.97160600,"rng_nm":40,"alt_fmsl":82,"id":"GSB","desc":"SEYMOUR JOHNSON TACAN"},
{"type":"NDB","hdg_t":229.9,"dist_nm":64.1,"freq":420,"lat":33.85600000,"lon":-79.76588889,"rng_nm":50,"alt_fmsl":0,"id":"CFY","desc":"EVANS NDB"},
{"type":"NDB","hdg_t":88.6,"dist_nm":65.9,"freq":198,"lat":34.56852778,"lon":-77.45294444,"rng_nm":75,"alt_fmsl":0,"id":"DIW","desc":"DIXON NDB"},
{"type":"NDB","hdg_t":262.9,"dist_nm":66.8,"freq":341,"lat":34.40658333,"lon":-80.11994444,"rng_nm":50,"alt_fmsl":0,"id":"HVS","desc":"HARTSVILLE NDB"},
{"type":"SDME","hdg_t":81.5,"dist_nm":67.1,"freq":115.4,"lat":34.70713600,"lon":-77.44029700,"rng_nm":40,"alt_fmsl":74,"id":"NCA","desc":"NEW RIVER TACAN"},
{"type":"NDB","hdg_t":51.8,"dist_nm":67.7,"freq":276,"lat":35.24391667,"lon":-77.69825000,"rng_nm":50,"alt_fmsl":0,"id":"IS","desc":"STALS NDB"},
{"type":"NDB","hdg_t":294.2,"dist_nm":70.2,"freq":283,"lat":35.02398100,"lon":-80.08299700,"rng_nm":25,"alt_fmsl":302,"id":"AFP","desc":"ANSON CO NDB"},
{"type":"NDB","hdg_t":227.2,"dist_nm":73,"freq":404,"lat":33.71777778,"lon":-79.85500000,"rng_nm":50,"alt_fmsl":0,"id":"CKI","desc":"KINGSTREE NDB"},
{"type":"VOR","hdg_t":275,"dist_nm":74.1,"freq":108.2,"lat":34.65047222,"lon":-80.27491667,"rng_nm":40,"alt_fmsl":560,"id":"CTF","desc":"CHESTERFIELD VOR-DME"},
{"type":"NDB","hdg_t":209.6,"dist_nm":75.5,"freq":255,"lat":33.45147222,"lon":-79.52725000,"rng_nm":50,"alt_fmsl":0,"id":"PHH","desc":"ANDREWS NDB"},
{"type":"NDB","hdg_t":279,"dist_nm":77.8,"freq":270,"lat":34.74497222,"lon":-80.33808333,"rng_nm":50,"alt_fmsl":0,"id":"PYG","desc":"PAGELAND NDB"},
{"type":"VOR","hdg_t":50.5,"dist_nm":77.8,"freq":109.6,"lat":35.37094444,"lon":-77.55833333,"rng_nm":40,"alt_fmsl":106,"id":"ISO","desc":"KINSTON VORTAC"},
{"type":"NDB","hdg_t":200.2,"dist_nm":78.7,"freq":242,"lat":33.31547222,"lon":-79.32452778,"rng_nm":50,"alt_fmsl":0,"id":"GGE","desc":"GEORGETOWN NDB"},
{"type":"VOR","hdg_t":359.9,"dist_nm":79.2,"freq":117.2,"lat":35.87252778,"lon":-78.78333333,"rng_nm":130,"alt_fmsl":429,"id":"RDU","desc":"RALEIGH/DURHAM VORTAC"},
{"type":"NDB","hdg_t":335.4,"dist_nm":79.8,"freq":371,"lat":35.76152778,"lon":-79.46225000,"rng_nm":50,"alt_fmsl":0,"id":"TOX","desc":"SILER CITY NDB"},
{"type":"NDB","hdg_t":2,"dist_nm":82.5,"freq":350,"lat":35.92722222,"lon":-78.72191667,"rng_nm":50,"alt_fmsl":0,"id":"LE","desc":"LEEVY NDB"},
{"type":"NDB","hdg_t":28.6,"dist_nm":83.3,"freq":235,"lat":35.76765800,"lon":-77.96459700,"rng_nm":25,"alt_fmsl":158,"id":"RW","desc":"JAMBE NDB"},
{"type":"NDB","hdg_t":311.6,"dist_nm":85.2,"freq":346,"lat":35.48916667,"lon":-80.08341667,"rng_nm":50,"alt_fmsl":0,"id":"VU","desc":"ALLER NDB"},
{"type":"NDB","hdg_t":247.3,"dist_nm":85.2,"freq":252,"lat":33.99080556,"lon":-80.36002778,"rng_nm":50,"alt_fmsl":0,"id":"SMS","desc":"SUMTER NDB"},
{"type":"VOR","hdg_t":331.8,"dist_nm":85.8,"freq":113,"lat":35.81163889,"lon":-79.61261111,"rng_nm":40,"alt_fmsl":830,"id":"LIB","desc":"LIBERTY VORTAC"},
{"type":"NDB","hdg_t":322.9,"dist_nm":87.8,"freq":266,"lat":35.71625000,"lon":-79.86530556,"rng_nm":50,"alt_fmsl":0,"id":"CQJ","desc":"CITY LAKE NDB"},
{"type":"NDB","hdg_t":70.9,"dist_nm":88.7,"freq":362,"lat":35.02155556,"lon":-77.07950000,"rng_nm":50,"alt_fmsl":0,"id":"EW","desc":"KATFI NDB"},
{"type":"NDB","hdg_t":260.2,"dist_nm":89.7,"freq":263,"lat":34.28355556,"lon":-80.56152778,"rng_nm":50,"alt_fmsl":0,"id":"CDN","desc":"CAMDEN NDB"},
{"type":"SDME","hdg_t":248.2,"dist_nm":90.4,"freq":110.1,"lat":33.97782500,"lon":-80.46622200,"rng_nm":40,"alt_fmsl":241,"id":"SSC","desc":"SHAW TACAN"},
{"type":"NDB","hdg_t":231.3,"dist_nm":91.3,"freq":381,"lat":33.58788889,"lon":-80.20613889,"rng_nm":50,"alt_fmsl":0,"id":"MNI","desc":"MANNING NDB"},
{"type":"VOR","hdg_t":69.4,"dist_nm":91.4,"freq":113.6,"lat":35.07313889,"lon":-77.04505556,"rng_nm":40,"alt_fmsl":10,"id":"EWN","desc":"NEW BERN VOR-DME"},
{"type":"NDB","hdg_t":335.5,"dist_nm":94.1,"freq":361,"lat":35.97811111,"lon":-79.58483333,"rng_nm":50,"alt_fmsl":0,"id":"HB","desc":"ALAMM NDB"},
{"type":"SDME","hdg_t":76.8,"dist_nm":96.6,"freq":112.8,"lat":34.90222800,"lon":-76.87482200,"rng_nm":40,"alt_fmsl":30,"id":"NKT","desc":"CHERRY POINT TACAN"},
{"type":"NDB","hdg_t":284.7,"dist_nm":98,"freq":204,"lat":34.95294444,"lon":-80.70519444,"rng_nm":50,"alt_fmsl":0,"id":"TWL","desc":"WESLEY NDB"},
{"type":"NDB","hdg_t":44.6,"dist_nm":98.1,"freq":230,"lat":35.70688889,"lon":-77.37188889,"rng_nm":50,"alt_fmsl":0,"id":"AQE","desc":"ALWOOD NDB"}
]
}
