{"success":true,"source":"xp2csv.pl","last_updated":"2013/11/08 14:53:21 UTC"
,"icao":"3W8","name":"Eureka Muni","lat":45.799443,"lon":-99.64148325,"rwys":2,"ils":0,"index":1319409,"path":"w100n40/w100n45"
,"runways":[
{"len_m":938,"wid_m":18.29,"hdg":136,"surf":"Asphalt","rwy1":"12","lat1":45.80305600,"lon1":-99.64611100,"rwy2":"30","lat2":45.79694400,"lon2":-99.63777800},
{"len_m":640,"wid_m":45.72,"hdg":81,"surf":"Turf/grass","rwy1":"07","lat1":45.79847500,"lon1":-99.64509700,"rwy2":"25","lat2":45.79929700,"lon2":-99.63694700}
]
,"radios":[
{"type":"CTAF","freq":122.9,"desc":"CTAF"}
]
,"navaids":[
{"type":"VOR","hdg_t":112.7,"dist_nm":58.3,"freq":113,"lat":45.41736111,"lon":-98.36872222,"rng_nm":130,"alt_fmsl":1301,"id":"ABR","desc":"ABERDEEN VOR-DME"},
{"type":"NDB","hdg_t":113.6,"dist_nm":60.6,"freq":203,"lat":45.38600000,"lon":-98.32836111,"rng_nm":50,"alt_fmsl":0,"id":"AB","desc":"RENEY NDB"},
{"type":"NDB","hdg_t":322.5,"dist_nm":68.2,"freq":230,"lat":46.69808333,"lon":-100.64783333,"rng_nm":50,"alt_fmsl":0,"id":"BI","desc":"JADAN NDB"},
{"type":"VOR","hdg_t":323.9,"dist_nm":71.7,"freq":116.5,"lat":46.76175000,"lon":-100.66541667,"rng_nm":40,"alt_fmsl":1853,"id":"BIS","desc":"BISMARCK VOR-DME"},
{"type":"NDB","hdg_t":34.2,"dist_nm":77.5,"freq":395,"lat":46.86286111,"lon":-98.58072222,"rng_nm":50,"alt_fmsl":0,"id":"JM","desc":"SABON NDB"},
{"type":"VOR","hdg_t":30.1,"dist_nm":78.9,"freq":114.5,"lat":46.93286111,"lon":-98.67877778,"rng_nm":40,"alt_fmsl":1493,"id":"JMS","desc":"JAMESTOWN VOR-DME"},
{"type":"NDB","hdg_t":88.4,"dist_nm":79.5,"freq":386,"lat":45.81916700,"lon":-97.74558300,"rng_nm":25,"alt_fmsl":1312,"id":"BTN","desc":"BRITTON NDB"},
{"type":"VOR","hdg_t":194.9,"dist_nm":87.1,"freq":112.5,"lat":44.39450000,"lon":-100.16286111,"rng_nm":40,"alt_fmsl":1789,"id":"PIR","desc":"PIERRE VORTAC"},
{"type":"NDB","hdg_t":72.3,"dist_nm":87.3,"freq":278,"lat":46.22369444,"lon":-97.64263889,"rng_nm":50,"alt_fmsl":0,"id":"GWR","desc":"GWINNER NDB"},
{"type":"VOR","hdg_t":244.4,"dist_nm":97.7,"freq":116.8,"lat":45.07816667,"lon":-101.71508333,"rng_nm":130,"alt_fmsl":2530,"id":"DPR","desc":"DUPREE VORTAC"},
{"type":"NDB","hdg_t":145.2,"dist_nm":98.4,"freq":302,"lat":44.44388889,"lon":-98.33683333,"rng_nm":50,"alt_fmsl":0,"id":"HO","desc":"BEADY NDB"},
{"type":"VOR","hdg_t":144.8,"dist_nm":99.2,"freq":117.6,"lat":44.44008333,"lon":-98.31108333,"rng_nm":40,"alt_fmsl":1300,"id":"HON","desc":"HURON VORTAC"}
]
}
