{"success":true,"source":"xp2csv.pl","last_updated":"2013/11/08 14:53:21 UTC"
,"icao":"3XS1","name":"Kubecka Aviation","lat":28.76721111,"lon":-96.30691306,"rwys":1,"ils":0,"index":1367474,"path":"w100n20/w097n28"
,"runways":[
{"len_m":803,"wid_m":30.48,"hdg":155,"surf":"Turf/grass","rwy1":"15","lat1":28.77051882,"lon1":-96.30859309,"rwy2":"33","lat2":28.76390340,"lon2":-96.30523303}
]
,"navaids":[
{"type":"VOR","hdg_t":167.2,"dist_nm":0.1,"freq":117.3,"lat":28.76441667,"lon":-96.30619444,"rng_nm":130,"alt_fmsl":6,"id":"PSX","desc":"PALACIOS VORTAC"},
{"type":"NDB","hdg_t":250.6,"dist_nm":20.9,"freq":515,"lat":28.65089700,"lon":-96.68145800,"rng_nm":25,"alt_fmsl":26,"id":"PKV","desc":"PORT LAVACA NDB"},
{"type":"NDB","hdg_t":62.3,"dist_nm":26.5,"freq":344,"lat":28.97250000,"lon":-95.85913889,"rng_nm":50,"alt_fmsl":0,"id":"BYY","desc":"BAY CITY NDB"},
{"type":"NDB","hdg_t":15.5,"dist_nm":30.2,"freq":245,"lat":29.25463889,"lon":-96.15202778,"rng_nm":50,"alt_fmsl":0,"id":"ARM","desc":"WHARTON NDB"},
{"type":"VOR","hdg_t":282.8,"dist_nm":36.2,"freq":109,"lat":28.90030556,"lon":-96.97894444,"rng_nm":40,"alt_fmsl":125,"id":"VCT","desc":"VICTORIA VOR-DME"},
{"type":"NDB","hdg_t":283.7,"dist_nm":37.6,"freq":226,"lat":28.91522222,"lon":-97.00047222,"rng_nm":50,"alt_fmsl":0,"id":"VC","desc":"FOSTR NDB"},
{"type":"NDB","hdg_t":59.8,"dist_nm":51.2,"freq":263,"lat":29.19433333,"lon":-95.46316667,"rng_nm":50,"alt_fmsl":0,"id":"LB","desc":"FREEP NDB"},
{"type":"VOR","hdg_t":359.4,"dist_nm":53.5,"freq":116.4,"lat":29.66244444,"lon":-96.31716667,"rng_nm":130,"alt_fmsl":190,"id":"ELA","desc":"EAGLE LAKE VOR-DME"},
{"type":"NDB","hdg_t":306.9,"dist_nm":54.5,"freq":350,"lat":29.31202778,"lon":-97.13863889,"rng_nm":50,"alt_fmsl":0,"id":"OKT","desc":"YOAKUM NDB"},
{"type":"NDB","hdg_t":238.6,"dist_nm":55.7,"freq":375,"lat":28.28000000,"lon":-97.20583333,"rng_nm":50,"alt_fmsl":0,"id":"MNO","desc":"MELLON RANCH NDB"},
{"type":"NDB","hdg_t":224.1,"dist_nm":56.3,"freq":391,"lat":28.09050000,"lon":-97.04655556,"rng_nm":50,"alt_fmsl":0,"id":"RKP","desc":"ROCKPORT NDB"},
{"type":"VOR","hdg_t":349.4,"dist_nm":72.3,"freq":110.2,"lat":29.95605556,"lon":-96.56219444,"rng_nm":40,"alt_fmsl":419,"id":"IDU","desc":"INDUSTRY VORTAC"},
{"type":"VOR","hdg_t":45.2,"dist_nm":75.8,"freq":117.1,"lat":29.65563889,"lon":-95.27663889,"rng_nm":130,"alt_fmsl":82,"id":"HUB","desc":"HOBBY VOR-DME"},
{"type":"NDB","hdg_t":26.4,"dist_nm":78,"freq":286,"lat":29.93386111,"lon":-95.64100000,"rng_nm":50,"alt_fmsl":0,"id":"EYQ","desc":"WEISER NDB"},
{"type":"SDME","hdg_t":49.9,"dist_nm":78.4,"freq":109.4,"lat":29.60595800,"lon":-95.15965300,"rng_nm":40,"alt_fmsl":30,"id":"EFD","desc":"ELLINGTON TACAN"},
{"type":"VOR","hdg_t":229.6,"dist_nm":79.3,"freq":115.5,"lat":27.90377778,"lon":-97.44488889,"rng_nm":130,"alt_fmsl":60,"id":"CRP","desc":"CORPUS CHRISTI VORTAC"},
{"type":"VOR","hdg_t":68,"dist_nm":81.4,"freq":113,"lat":29.26933333,"lon":-94.86772222,"rng_nm":40,"alt_fmsl":4,"id":"VUH","desc":"SCHOLES VORTAC"},
{"type":"NDB","hdg_t":253.4,"dist_nm":82.1,"freq":284,"lat":28.36862500,"lon":-97.79542500,"rng_nm":25,"alt_fmsl":269,"id":"BEA","desc":"BEEVILLE NDB"},
{"type":"VOR","hdg_t":219.2,"dist_nm":83.2,"freq":114,"lat":27.68627778,"lon":-97.29475000,"rng_nm":40,"alt_fmsl":17,"id":"NGP","desc":"TRUAX VORTAC"},
{"type":"NDB","hdg_t":49.9,"dist_nm":84.4,"freq":347,"lat":29.66841667,"lon":-95.06983333,"rng_nm":50,"alt_fmsl":0,"id":"JPA","desc":"SANJAC NDB"},
{"type":"VOR","hdg_t":35,"dist_nm":87.2,"freq":116.6,"lat":29.95691667,"lon":-95.34572222,"rng_nm":130,"alt_fmsl":90,"id":"IAH","desc":"HUMBLE VORTAC"},
{"type":"NDB","hdg_t":67,"dist_nm":88.3,"freq":206,"lat":29.33397222,"lon":-94.75622222,"rng_nm":75,"alt_fmsl":0,"id":"GLS","desc":"GALVESTON NDB"},
{"type":"NDB","hdg_t":25.3,"dist_nm":90,"freq":521,"lat":30.12552778,"lon":-95.56586111,"rng_nm":50,"alt_fmsl":0,"id":"DWH","desc":"DAVID HOOKS NDB"},
{"type":"NDB","hdg_t":337.4,"dist_nm":91,"freq":385,"lat":30.16952200,"lon":-96.97874400,"rng_nm":25,"alt_fmsl":464,"id":"GYB","desc":"LEE COUNTY NDB"},
{"type":"VOR","hdg_t":8,"dist_nm":91.9,"freq":115.9,"lat":30.28852778,"lon":-96.05822222,"rng_nm":130,"alt_fmsl":230,"id":"TNV","desc":"NAVASOTA VORTAC"},
{"type":"NDB","hdg_t":37.6,"dist_nm":93,"freq":326,"lat":29.99333333,"lon":-95.21502778,"rng_nm":50,"alt_fmsl":0,"id":"BVP","desc":"NIXIN NDB"},
{"type":"VOR","hdg_t":59.9,"dist_nm":94.2,"freq":113.6,"lat":29.54633333,"lon":-94.74750000,"rng_nm":40,"alt_fmsl":38,"id":"MHF","desc":"TRINITY VOR-DME"},
{"type":"VOR","hdg_t":261.2,"dist_nm":98.5,"freq":111.4,"lat":28.50500000,"lon":-98.15047222,"rng_nm":40,"alt_fmsl":270,"id":"THX","desc":"THREE RIVERS VORTAC"}
]
}
