{"success":true,"source":"xp2csv.pl","last_updated":"2013/11/08 14:53:21 UTC"
,"icao":"3XS5","name":"Star Smith Field","lat":29.29801472,"lon":-98.67668778,"rwys":1,"ils":0,"index":1334737,"path":"w100n20/w099n29"
,"runways":[
{"len_m":608,"wid_m":22.86,"hdg":176,"surf":"Turf/grass","rwy1":"17","lat1":29.30075394,"lon1":-98.67685239,"rwy2":"35","lat2":29.29527550,"lon2":-98.67652317}
]
,"navaids":[
{"type":"SDME","hdg_t":41.8,"dist_nm":7.5,"freq":112,"lat":29.39158300,"lon":-98.58104700,"rng_nm":40,"alt_fmsl":687,"id":"KSY","desc":"KELLY TACAN"},
{"type":"NDB","hdg_t":287.6,"dist_nm":9.4,"freq":338,"lat":29.34606900,"lon":-98.84919400,"rng_nm":25,"alt_fmsl":762,"id":"CVB","desc":"CASTROVILLE NDB"},
{"type":"VOR","hdg_t":100.9,"dist_nm":12.4,"freq":108.4,"lat":29.25838889,"lon":-98.44347222,"rng_nm":40,"alt_fmsl":0,"id":"SSF","desc":"STINSON VOR"},
{"type":"NDB","hdg_t":38,"dist_nm":13.4,"freq":219,"lat":29.47461400,"lon":-98.51861700,"rng_nm":25,"alt_fmsl":0,"id":"SA","desc":"BLUIE NDB"},
{"type":"NDB","hdg_t":235.3,"dist_nm":16.7,"freq":359,"lat":29.13833333,"lon":-98.93925000,"rng_nm":50,"alt_fmsl":0,"id":"HHH","desc":"DEVINE NDB"},
{"type":"NDB","hdg_t":16.8,"dist_nm":19.3,"freq":368,"lat":29.60758333,"lon":-98.56969444,"rng_nm":50,"alt_fmsl":0,"id":"AN","desc":"ALAMO NDB"},
{"type":"NDB","hdg_t":157.9,"dist_nm":22.1,"freq":275,"lat":28.95497200,"lon":-98.51862800,"rng_nm":25,"alt_fmsl":428,"id":"PEZ","desc":"PLEASANTON NDB"},
{"type":"VOR","hdg_t":28.5,"dist_nm":23.5,"freq":116.8,"lat":29.64402778,"lon":-98.46130556,"rng_nm":130,"alt_fmsl":1160,"id":"SAT","desc":"SAN ANTONIO VORTAC"},
{"type":"VOR","hdg_t":57,"dist_nm":24.4,"freq":112.3,"lat":29.51916667,"lon":-98.28516667,"rng_nm":25,"alt_fmsl":772,"id":"RND","desc":"RANDOLPH VORTAC"},
{"type":"SDME","hdg_t":56.1,"dist_nm":25.7,"freq":109.9,"lat":29.53694700,"lon":-98.26780300,"rng_nm":40,"alt_fmsl":773,"id":"DHK","desc":"RANDOLPH TACAN"},
{"type":"NDB","hdg_t":279.9,"dist_nm":26.3,"freq":329,"lat":29.37341667,"lon":-99.17202778,"rng_nm":50,"alt_fmsl":0,"id":"HMA","desc":"HONDO NDB"},
{"type":"VOR","hdg_t":276.7,"dist_nm":26.4,"freq":109.4,"lat":29.34911111,"lon":-99.17788889,"rng_nm":40,"alt_fmsl":947,"id":"HDO","desc":"HONDO VOR-DME"},
{"type":"NDB","hdg_t":334.8,"dist_nm":40.8,"freq":263,"lat":29.91500000,"lon":-99.00941667,"rng_nm":50,"alt_fmsl":0,"id":"ER","desc":"SHEIN NDB"},
{"type":"VOR","hdg_t":323.1,"dist_nm":46.7,"freq":117.5,"lat":29.92233333,"lon":-99.21450000,"rng_nm":130,"alt_fmsl":2080,"id":"CSI","desc":"CENTER POINT VORTAC"},
{"type":"VOR","hdg_t":358.4,"dist_nm":54.4,"freq":113.8,"lat":30.20675000,"lon":-98.70575000,"rng_nm":130,"alt_fmsl":1530,"id":"STV","desc":"STONEWALL VORTAC"},
{"type":"NDB","hdg_t":43.7,"dist_nm":54.8,"freq":272,"lat":29.95880556,"lon":-97.94897222,"rng_nm":50,"alt_fmsl":0,"id":"RU","desc":"GARYS NDB"},
{"type":"VOR","hdg_t":149.5,"dist_nm":54.9,"freq":111.4,"lat":28.50500000,"lon":-98.15047222,"rng_nm":40,"alt_fmsl":270,"id":"THX","desc":"THREE RIVERS VORTAC"},
{"type":"VOR","hdg_t":205,"dist_nm":55.1,"freq":115.8,"lat":28.46200000,"lon":-99.11852778,"rng_nm":40,"alt_fmsl":520,"id":"COT","desc":"COTULLA VORTAC"},
{"type":"NDB","hdg_t":262.8,"dist_nm":55.5,"freq":281,"lat":29.17772222,"lon":-99.72569444,"rng_nm":50,"alt_fmsl":0,"id":"UVA","desc":"UVALDE NDB"},
{"type":"NDB","hdg_t":250.7,"dist_nm":65.7,"freq":223,"lat":28.92997222,"lon":-99.85477778,"rng_nm":50,"alt_fmsl":0,"id":"LKX","desc":"LA PRYOR NDB"},
{"type":"NDB","hdg_t":47.5,"dist_nm":70.5,"freq":255,"lat":30.08972222,"lon":-97.67602778,"rng_nm":50,"alt_fmsl":0,"id":"BS","desc":"CREED NDB"},
{"type":"NDB","hdg_t":139.9,"dist_nm":72.4,"freq":284,"lat":28.36862500,"lon":-97.79542500,"rng_nm":25,"alt_fmsl":269,"id":"BEA","desc":"BEEVILLE NDB"},
{"type":"NDB","hdg_t":251.9,"dist_nm":73.6,"freq":385,"lat":28.90997222,"lon":-100.00561111,"rng_nm":50,"alt_fmsl":0,"id":"CPZ","desc":"CHAPARROSA RANCH NDB"},
{"type":"NDB","hdg_t":232.8,"dist_nm":76.3,"freq":343,"lat":28.52244444,"lon":-99.82727778,"rng_nm":50,"alt_fmsl":0,"id":"DMD","desc":"DIMMIT CO NDB"},
{"type":"NDB","hdg_t":44.1,"dist_nm":78.4,"freq":353,"lat":30.23568300,"lon":-97.62569700,"rng_nm":25,"alt_fmsl":0,"id":"AU","desc":"AUSTI NDB"},
{"type":"NDB","hdg_t":41,"dist_nm":78.7,"freq":232,"lat":30.28759400,"lon":-97.68183600,"rng_nm":25,"alt_fmsl":0,"id":"GF","desc":"BIRDY NDB"},
{"type":"NDB","hdg_t":89,"dist_nm":80.6,"freq":350,"lat":29.31202778,"lon":-97.13863889,"rng_nm":50,"alt_fmsl":0,"id":"OKT","desc":"YOAKUM NDB"},
{"type":"VOR","hdg_t":42.4,"dist_nm":88.1,"freq":112.8,"lat":30.37855556,"lon":-97.52986111,"rng_nm":130,"alt_fmsl":593,"id":"CWK","desc":"CENTEX VORTAC"},
{"type":"NDB","hdg_t":14.7,"dist_nm":89.3,"freq":341,"lat":30.74027778,"lon":-98.23622222,"rng_nm":50,"alt_fmsl":0,"id":"BMQ","desc":"BURNET NDB"},
{"type":"VOR","hdg_t":356.3,"dist_nm":89.8,"freq":108.2,"lat":30.79633333,"lon":-98.78738889,"rng_nm":40,"alt_fmsl":1200,"id":"LLO","desc":"LLANO VORTAC"},
{"type":"NDB","hdg_t":104.1,"dist_nm":91,"freq":226,"lat":28.91522222,"lon":-97.00047222,"rng_nm":50,"alt_fmsl":0,"id":"VC","desc":"FOSTR NDB"},
{"type":"NDB","hdg_t":264.7,"dist_nm":92.3,"freq":356,"lat":29.14525000,"lon":-100.42758333,"rng_nm":50,"alt_fmsl":0,"id":"PFO","desc":"SPOFFORD NDB"},
{"type":"VOR","hdg_t":104.5,"dist_nm":92.3,"freq":109,"lat":28.90030556,"lon":-96.97894444,"rng_nm":40,"alt_fmsl":125,"id":"VCT","desc":"VICTORIA VOR-DME"},
{"type":"VOR","hdg_t":297.2,"dist_nm":95,"freq":111.2,"lat":30.01461111,"lon":-100.29983333,"rng_nm":40,"alt_fmsl":2310,"id":"RSG","desc":"ROCKSPRINGS VORTAC"},
{"type":"NDB","hdg_t":31.7,"dist_nm":97.8,"freq":332,"lat":30.68438889,"lon":-97.67991667,"rng_nm":50,"alt_fmsl":0,"id":"GUO","desc":"GEORGETOWN NDB"},
{"type":"VOR","hdg_t":322.8,"dist_nm":97.9,"freq":116,"lat":30.59802778,"lon":-99.81752778,"rng_nm":130,"alt_fmsl":2280,"id":"JCT","desc":"JUNCTION VORTAC"},
{"type":"NDB","hdg_t":127.7,"dist_nm":98.6,"freq":375,"lat":28.28000000,"lon":-97.20583333,"rng_nm":50,"alt_fmsl":0,"id":"MNO","desc":"MELLON RANCH NDB"},
{"type":"VOR","hdg_t":159.4,"dist_nm":99.4,"freq":114.5,"lat":27.73980556,"lon":-98.02133333,"rng_nm":40,"alt_fmsl":0,"id":"ALI","desc":"ALICE VOR"}
]
}
