{"success":true,"source":"xp2csv.pl","last_updated":"2013/11/08 14:53:21 UTC"
,"icao":"41LA","name":"Berry","lat":32.85790666,"lon":-91.34844723,"rwys":1,"ils":0,"index":1449650,"path":"w100n30/w092n32"
,"runways":[
{"len_m":608,"wid_m":18.29,"hdg":183,"surf":"Turf/grass","rwy1":"18","lat1":32.86064588,"lon1":-91.34827633,"rwy2":"36","lat2":32.85516744,"lon2":-91.34861813}
]
,"navaids":[
{"type":"NDB","hdg_t":101.4,"dist_nm":8.1,"freq":278,"lat":32.83069444,"lon":-91.19011111,"rng_nm":50,"alt_fmsl":0,"id":"BLE","desc":"LAKE PROVIDENCE NDB"},
{"type":"NDB","hdg_t":257.2,"dist_nm":27.7,"freq":329,"lat":32.75469444,"lon":-91.88344444,"rng_nm":50,"alt_fmsl":0,"id":"BQP","desc":"BASTROP NDB"},
{"type":"NDB","hdg_t":219.1,"dist_nm":34.5,"freq":338,"lat":32.40916667,"lon":-91.77794444,"rng_nm":50,"alt_fmsl":0,"id":"MRK","desc":"MOLLY RIDGE NDB"},
{"type":"NDB","hdg_t":28.4,"dist_nm":38.6,"freq":359,"lat":33.42533333,"lon":-90.98211111,"rng_nm":50,"alt_fmsl":0,"id":"MTQ","desc":"METCALF NDB"},
{"type":"NDB","hdg_t":155.8,"dist_nm":40.1,"freq":344,"lat":32.24530556,"lon":-91.02580556,"rng_nm":50,"alt_fmsl":0,"id":"TKH","desc":"TALLULAH NDB"},
{"type":"VOR","hdg_t":239.7,"dist_nm":40.3,"freq":117.2,"lat":32.51688889,"lon":-92.03600000,"rng_nm":40,"alt_fmsl":76,"id":"MLU","desc":"MONROE VORTAC"},
{"type":"VOR","hdg_t":24.6,"dist_nm":43.9,"freq":110.2,"lat":33.52352778,"lon":-90.98294444,"rng_nm":40,"alt_fmsl":130,"id":"GLH","desc":"GREENVILLE VOR-DME"},
{"type":"NDB","hdg_t":237.9,"dist_nm":45.2,"freq":392,"lat":32.45411111,"lon":-92.10430556,"rng_nm":50,"alt_fmsl":0,"id":"ML","desc":"SABAR NDB"},
{"type":"VOR","hdg_t":336.4,"dist_nm":46,"freq":111.6,"lat":33.56205556,"lon":-91.71569444,"rng_nm":40,"alt_fmsl":280,"id":"MON","desc":"MONTICELLO VOR-DME"},
{"type":"NDB","hdg_t":42,"dist_nm":50.3,"freq":284,"lat":33.48016667,"lon":-90.67563889,"rng_nm":50,"alt_fmsl":0,"id":"IDL","desc":"INDIANOLA NDB"},
{"type":"NDB","hdg_t":124.7,"dist_nm":58,"freq":375,"lat":32.30094444,"lon":-90.41066667,"rng_nm":50,"alt_fmsl":0,"id":"RYB","desc":"RAYMOND NDB"},
{"type":"NDB","hdg_t":115.5,"dist_nm":61.1,"freq":260,"lat":32.41302778,"lon":-90.26127778,"rng_nm":50,"alt_fmsl":0,"id":"JH","desc":"BRENZ NDB"},
{"type":"NDB","hdg_t":351.5,"dist_nm":62.1,"freq":305,"lat":33.88440800,"lon":-91.53151400,"rng_nm":25,"alt_fmsl":163,"id":"DZM","desc":"DUMAS NDB"},
{"type":"VOR","hdg_t":109,"dist_nm":63.3,"freq":112.6,"lat":32.50750000,"lon":-90.16766667,"rng_nm":130,"alt_fmsl":360,"id":"JAN","desc":"JACKSON VORTAC"},
{"type":"NDB","hdg_t":27.2,"dist_nm":64,"freq":272,"lat":33.80705556,"lon":-90.76261111,"rng_nm":50,"alt_fmsl":0,"id":"RNV","desc":"RENOVA NDB"},
{"type":"NDB","hdg_t":256.9,"dist_nm":64.5,"freq":368,"lat":32.60872222,"lon":-92.58847222,"rng_nm":50,"alt_fmsl":0,"id":"ROQ","desc":"RUSTON NDB"},
{"type":"VOR","hdg_t":55.7,"dist_nm":65,"freq":114.7,"lat":33.46386111,"lon":-90.27733333,"rng_nm":130,"alt_fmsl":125,"id":"SQS","desc":"SIDON VORTAC"},
{"type":"NDB","hdg_t":112.8,"dist_nm":67.7,"freq":365,"lat":32.41250000,"lon":-90.11952778,"rng_nm":50,"alt_fmsl":0,"id":"JA","desc":"ALLEN NDB"},
{"type":"NDB","hdg_t":252.7,"dist_nm":67.9,"freq":308,"lat":32.51565600,"lon":-92.62741100,"rng_nm":25,"alt_fmsl":0,"id":"LPZ","desc":"LINCOLN PARISH NDB"},
{"type":"NDB","hdg_t":247.1,"dist_nm":68.3,"freq":350,"lat":32.40886111,"lon":-92.58944444,"rng_nm":50,"alt_fmsl":0,"id":"TUF","desc":"STUCKEY NDB"},
{"type":"NDB","hdg_t":177.6,"dist_nm":69.9,"freq":388,"lat":31.69022222,"lon":-91.29330556,"rng_nm":50,"alt_fmsl":0,"id":"HAH","desc":"NATCHEZ-ADAMS CO NDB"},
{"type":"NDB","hdg_t":290.6,"dist_nm":74.1,"freq":418,"lat":33.28605556,"lon":-92.72813889,"rng_nm":50,"alt_fmsl":0,"id":"EL","desc":"LADOS NDB"},
{"type":"VOR","hdg_t":178,"dist_nm":74.2,"freq":110,"lat":31.61819444,"lon":-91.29963889,"rng_nm":40,"alt_fmsl":280,"id":"HEZ","desc":"NATCHEZ VOR-DME"},
{"type":"VOR","hdg_t":289.1,"dist_nm":74.3,"freq":115.5,"lat":33.25616667,"lon":-92.74394444,"rng_nm":130,"alt_fmsl":230,"id":"ELD","desc":"EL DORADO VORTAC"},
{"type":"NDB","hdg_t":55,"dist_nm":77.3,"freq":349,"lat":33.59191667,"lon":-90.08436111,"rng_nm":50,"alt_fmsl":0,"id":"GW","desc":"TEOCK NDB"},
{"type":"NDB","hdg_t":241,"dist_nm":80.1,"freq":256,"lat":32.20127778,"lon":-92.72597222,"rng_nm":50,"alt_fmsl":0,"id":"JBL","desc":"HODGE NDB"},
{"type":"NDB","hdg_t":302.7,"dist_nm":84.5,"freq":335,"lat":33.61353100,"lon":-92.76752200,"rng_nm":25,"alt_fmsl":0,"id":"CDH","desc":"CAMDEN NDB"},
{"type":"VOR","hdg_t":232.2,"dist_nm":85.7,"freq":113.75,"lat":31.97319444,"lon":-92.67708333,"rng_nm":130,"alt_fmsl":164,"id":"SWB","desc":"SAWMILL VOR-DME"},
{"type":"VOR","hdg_t":340.9,"dist_nm":88,"freq":116,"lat":34.24675000,"lon":-91.92616667,"rng_nm":40,"alt_fmsl":210,"id":"PBF","desc":"PINE BLUFF VOR-DME"},
{"type":"NDB","hdg_t":147.2,"dist_nm":88.7,"freq":407,"lat":31.60800300,"lon":-90.41028900,"rng_nm":25,"alt_fmsl":485,"id":"BVV","desc":"BROOKHAVEN NDB"},
{"type":"NDB","hdg_t":49.7,"dist_nm":96.4,"freq":245,"lat":33.89111111,"lon":-89.87463889,"rng_nm":50,"alt_fmsl":0,"id":"SBQ","desc":"SCOBEY NDB"},
{"type":"NDB","hdg_t":206,"dist_nm":97.5,"freq":223,"lat":31.39205556,"lon":-92.18200000,"rng_nm":50,"alt_fmsl":0,"id":"ES","desc":"ANDRA NDB"},
{"type":"NDB","hdg_t":32.5,"dist_nm":97.9,"freq":391,"lat":34.23297200,"lon":-90.28978900,"rng_nm":25,"alt_fmsl":160,"id":"MMS","desc":"MARKS NDB"},
{"type":"VOR","hdg_t":210.6,"dist_nm":97.9,"freq":117.9,"lat":31.44751100,"lon":-92.32193900,"rng_nm":130,"alt_fmsl":195,"id":"ESF","desc":"ESLER VORTAC"},
{"type":"NDB","hdg_t":353.3,"dist_nm":99.3,"freq":338,"lat":34.50580556,"lon":-91.58177778,"rng_nm":50,"alt_fmsl":0,"id":"TT","desc":"STUTT NDB"}
]
}
