{"success":true,"source":"xp2csv.pl","last_updated":"2013/11/08 14:53:21 UTC"
,"icao":"47FD","name":"Strayhorn Ranch","lat":26.66284888,"lon":-81.77063889,"rwys":1,"ils":0,"index":1613096,"path":"w090n20/w082n26"
,"runways":[
{"len_m":729,"wid_m":30.48,"hdg":176,"surf":"Turf/grass","rwy1":"18","lat1":26.66613595,"lon1":-81.77083166,"rwy2":"36","lat2":26.65956181,"lon2":-81.77044612}
]
,"navaids":[
{"type":"VOR","hdg_t":181.9,"dist_nm":7.9,"freq":111.8,"lat":26.52988889,"lon":-81.77577778,"rng_nm":40,"alt_fmsl":25,"id":"RSW","desc":"LEE CO VORTAC"},
{"type":"NDB","hdg_t":197.8,"dist_nm":11.2,"freq":336,"lat":26.48433333,"lon":-81.83461111,"rng_nm":50,"alt_fmsl":0,"id":"RS","desc":"MUFFE NDB"},
{"type":"NDB","hdg_t":227.7,"dist_nm":13,"freq":341,"lat":26.51613889,"lon":-81.95027778,"rng_nm":50,"alt_fmsl":0,"id":"FM","desc":"CALOO NDB"},
{"type":"VOR","hdg_t":322.1,"dist_nm":19.2,"freq":110.2,"lat":26.91677778,"lon":-81.99125000,"rng_nm":25,"alt_fmsl":0,"id":"PGD","desc":"PUNTA GORDA VOR"},
{"type":"VOR","hdg_t":64,"dist_nm":22.6,"freq":110.4,"lat":26.82816667,"lon":-81.39144444,"rng_nm":40,"alt_fmsl":30,"id":"LBV","desc":"LA BELLE VORTAC"},
{"type":"VOR","hdg_t":180.7,"dist_nm":30.4,"freq":108.6,"lat":26.15341667,"lon":-81.77811111,"rng_nm":25,"alt_fmsl":10,"id":"CYY","desc":"CYPRESS VOR-DME"},
{"type":"NDB","hdg_t":304.1,"dist_nm":42.6,"freq":206,"lat":27.06144444,"lon":-82.43058333,"rng_nm":50,"alt_fmsl":0,"id":"VNC","desc":"VENICE NDB"},
{"type":"NDB","hdg_t":353.2,"dist_nm":51,"freq":261,"lat":27.51000000,"lon":-81.88333300,"rng_nm":25,"alt_fmsl":104,"id":"CHN","desc":"WAUCHULA NDB"},
{"type":"NDB","hdg_t":316.5,"dist_nm":54.9,"freq":245,"lat":27.32822222,"lon":-82.47844444,"rng_nm":50,"alt_fmsl":0,"id":"SR","desc":"RINGY NDB"},
{"type":"VOR","hdg_t":82.7,"dist_nm":58.4,"freq":115.4,"lat":26.78275000,"lon":-80.69144444,"rng_nm":130,"alt_fmsl":16,"id":"PHK","desc":"PAHOKEE VORTAC"},
{"type":"VOR","hdg_t":316.4,"dist_nm":60.7,"freq":115.2,"lat":27.39776100,"lon":-82.55426900,"rng_nm":130,"alt_fmsl":20,"id":"SRQ","desc":"SARASOTA VORTAC"},
{"type":"VOR","hdg_t":316.5,"dist_nm":61.5,"freq":117,"lat":27.40702778,"lon":-82.56363889,"rng_nm":130,"alt_fmsl":20,"id":"SRQ","desc":"SARASOTA VORTAC"},
{"type":"NDB","hdg_t":139.2,"dist_nm":63,"freq":227,"lat":25.86183333,"lon":-81.01102778,"rng_nm":50,"alt_fmsl":0,"id":"TN","desc":"MONRY NDB"},
{"type":"NDB","hdg_t":347.9,"dist_nm":77.8,"freq":227,"lat":27.93538889,"lon":-82.07580556,"rng_nm":50,"alt_fmsl":0,"id":"LA","desc":"WIREY NDB"},
{"type":"NDB","hdg_t":78.8,"dist_nm":78.4,"freq":405,"lat":26.90897222,"lon":-80.33505556,"rng_nm":50,"alt_fmsl":0,"id":"UTX","desc":"UNITED NDB"},
{"type":"VOR","hdg_t":350.7,"dist_nm":80.2,"freq":116,"lat":27.98619444,"lon":-82.01388889,"rng_nm":130,"alt_fmsl":135,"id":"LAL","desc":"LAKELAND VORTAC"},
{"type":"SDME","hdg_t":331.1,"dist_nm":81.9,"freq":111,"lat":27.86115300,"lon":-82.51350300,"rng_nm":40,"alt_fmsl":14,"id":"MCF","desc":"MACDILL TACAN"},
{"type":"NDB","hdg_t":330.1,"dist_nm":82.8,"freq":388,"lat":27.86119444,"lon":-82.54580556,"rng_nm":50,"alt_fmsl":0,"id":"AM","desc":"PICNY (LOM/NDB) NDB"},
{"type":"DME","hdg_t":82.2,"dist_nm":83.7,"freq":110.75,"lat":26.84356853,"lon":-80.22387209,"rng_nm":18,"alt_fmsl":22,"id":"IGHO","desc":"F45 08R DME-ILS"},
{"type":"NDB","hdg_t":109.4,"dist_nm":84.2,"freq":221,"lat":26.18563889,"lon":-80.29850000,"rng_nm":50,"alt_fmsl":0,"id":"FX","desc":"PRAIZ NDB"},
{"type":"NDB","hdg_t":53.9,"dist_nm":85.4,"freq":338,"lat":27.49691667,"lon":-80.47427778,"rng_nm":50,"alt_fmsl":0,"id":"FJ","desc":"LUUCE NDB"},
{"type":"VOR","hdg_t":326.9,"dist_nm":89,"freq":116.4,"lat":27.90777778,"lon":-82.68430556,"rng_nm":130,"alt_fmsl":9,"id":"PIE","desc":"ST PETERSBURG VORTAC"},
{"type":"NDB","hdg_t":56.3,"dist_nm":89.6,"freq":275,"lat":27.48672222,"lon":-80.37327778,"rng_nm":50,"alt_fmsl":0,"id":"FPR","desc":"FORT PIERCE NDB"},
{"type":"VOR","hdg_t":88.9,"dist_nm":90.5,"freq":115.7,"lat":26.68005556,"lon":-80.08650000,"rng_nm":130,"alt_fmsl":16,"id":"PBI","desc":"PALM BEACH VORTAC"},
{"type":"VOR","hdg_t":48.1,"dist_nm":91.5,"freq":117.3,"lat":27.67841667,"lon":-80.48972222,"rng_nm":130,"alt_fmsl":11,"id":"VRB","desc":"VERO BEACH VORTAC"},
{"type":"NDB","hdg_t":131.5,"dist_nm":91.6,"freq":266,"lat":25.64166667,"lon":-80.50483333,"rng_nm":50,"alt_fmsl":0,"id":"TM","desc":"QEEZY NDB"},
{"type":"VOR","hdg_t":123.6,"dist_nm":92.4,"freq":113.9,"lat":25.79997222,"lon":-80.34902778,"rng_nm":130,"alt_fmsl":7,"id":"DHP","desc":"DOLPHIN VORTAC"},
{"type":"VOR","hdg_t":111.7,"dist_nm":93.5,"freq":116.5,"lat":26.07416667,"lon":-80.16297222,"rng_nm":130,"alt_fmsl":12,"id":"FLL","desc":"FORT LAUDERDALE VOR-DME"},
{"type":"NDB","hdg_t":328.1,"dist_nm":94,"freq":360,"lat":27.99511111,"lon":-82.70386111,"rng_nm":50,"alt_fmsl":0,"id":"PI","desc":"CAPOK NDB"},
{"type":"NDB","hdg_t":334.8,"dist_nm":94.1,"freq":368,"lat":28.08527778,"lon":-82.52525000,"rng_nm":50,"alt_fmsl":0,"id":"TP","desc":"COSME NDB"},
{"type":"NDB","hdg_t":347.6,"dist_nm":95.8,"freq":253,"lat":28.22708333,"lon":-82.15705556,"rng_nm":50,"alt_fmsl":0,"id":"RHZ","desc":"ZEPHYRHILLS NDB"},
{"type":"NDB","hdg_t":121.1,"dist_nm":99.7,"freq":248,"lat":25.79069444,"lon":-80.19419444,"rng_nm":50,"alt_fmsl":0,"id":"MI","desc":"KEYES NDB"}
]
}
