{"success":true,"source":"xp2csv.pl","last_updated":"2013/11/08 14:53:21 UTC"
,"icao":"48X","name":"Airport Manatee","lat":27.64253277,"lon":-82.52092917,"rwys":1,"ils":0,"index":1596777,"path":"w090n20/w083n27"
,"runways":[
{"len_m":1134,"wid_m":30.48,"hdg":68,"surf":"Turf/grass","rwy1":"07","lat1":27.64062463,"lon1":-82.52626050,"rwy2":"25","lat2":27.64444091,"lon2":-82.51559784}
]
,"navaids":[
{"type":"SDME","hdg_t":1.7,"dist_nm":13,"freq":111,"lat":27.86115300,"lon":-82.51350300,"rng_nm":40,"alt_fmsl":14,"id":"MCF","desc":"MACDILL TACAN"},
{"type":"NDB","hdg_t":354.2,"dist_nm":13.1,"freq":388,"lat":27.86119444,"lon":-82.54580556,"rng_nm":50,"alt_fmsl":0,"id":"AM","desc":"PICNY (LOM/NDB) NDB"},
{"type":"VOR","hdg_t":189.1,"dist_nm":14.2,"freq":117,"lat":27.40702778,"lon":-82.56363889,"rng_nm":130,"alt_fmsl":20,"id":"SRQ","desc":"SARASOTA VORTAC"},
{"type":"VOR","hdg_t":186.9,"dist_nm":14.7,"freq":115.2,"lat":27.39776100,"lon":-82.55426900,"rng_nm":130,"alt_fmsl":20,"id":"SRQ","desc":"SARASOTA VORTAC"},
{"type":"VOR","hdg_t":331.3,"dist_nm":18,"freq":116.4,"lat":27.90777778,"lon":-82.68430556,"rng_nm":130,"alt_fmsl":9,"id":"PIE","desc":"ST PETERSBURG VORTAC"},
{"type":"NDB","hdg_t":173.1,"dist_nm":18.9,"freq":245,"lat":27.32822222,"lon":-82.47844444,"rng_nm":50,"alt_fmsl":0,"id":"SR","desc":"RINGY NDB"},
{"type":"NDB","hdg_t":335.2,"dist_nm":23.2,"freq":360,"lat":27.99511111,"lon":-82.70386111,"rng_nm":50,"alt_fmsl":0,"id":"PI","desc":"CAPOK NDB"},
{"type":"NDB","hdg_t":359.5,"dist_nm":26.4,"freq":368,"lat":28.08527778,"lon":-82.52525000,"rng_nm":50,"alt_fmsl":0,"id":"TP","desc":"COSME NDB"},
{"type":"NDB","hdg_t":53.4,"dist_nm":29.4,"freq":227,"lat":27.93538889,"lon":-82.07580556,"rng_nm":50,"alt_fmsl":0,"id":"LA","desc":"WIREY NDB"},
{"type":"VOR","hdg_t":52.5,"dist_nm":33.9,"freq":116,"lat":27.98619444,"lon":-82.01388889,"rng_nm":130,"alt_fmsl":135,"id":"LAL","desc":"LAKELAND VORTAC"},
{"type":"NDB","hdg_t":102.9,"dist_nm":34.9,"freq":261,"lat":27.51000000,"lon":-81.88333300,"rng_nm":25,"alt_fmsl":104,"id":"CHN","desc":"WAUCHULA NDB"},
{"type":"NDB","hdg_t":172,"dist_nm":35.1,"freq":206,"lat":27.06144444,"lon":-82.43058333,"rng_nm":50,"alt_fmsl":0,"id":"VNC","desc":"VENICE NDB"},
{"type":"NDB","hdg_t":28.8,"dist_nm":39.9,"freq":253,"lat":28.22708333,"lon":-82.15705556,"rng_nm":50,"alt_fmsl":0,"id":"RHZ","desc":"ZEPHYRHILLS NDB"},
{"type":"VOR","hdg_t":146.7,"dist_nm":51.8,"freq":110.2,"lat":26.91677778,"lon":-81.99125000,"rng_nm":25,"alt_fmsl":0,"id":"PGD","desc":"PUNTA GORDA VOR"},
{"type":"NDB","hdg_t":155.4,"dist_nm":73.9,"freq":341,"lat":26.51613889,"lon":-81.95027778,"rng_nm":50,"alt_fmsl":0,"id":"FM","desc":"CALOO NDB"},
{"type":"NDB","hdg_t":47.8,"dist_nm":77.4,"freq":221,"lat":28.50683333,"lon":-81.43391667,"rng_nm":50,"alt_fmsl":0,"id":"OR","desc":"HERNY (LOM) NDB"},
{"type":"VOR","hdg_t":128.6,"dist_nm":77.6,"freq":110.4,"lat":26.82816667,"lon":-81.39144444,"rng_nm":40,"alt_fmsl":30,"id":"LBV","desc":"LA BELLE VORTAC"},
{"type":"VOR","hdg_t":148.8,"dist_nm":77.6,"freq":111.8,"lat":26.52988889,"lon":-81.77577778,"rng_nm":40,"alt_fmsl":25,"id":"RSW","desc":"LEE CO VORTAC"},
{"type":"NDB","hdg_t":151.8,"dist_nm":78.4,"freq":336,"lat":26.48433333,"lon":-81.83461111,"rng_nm":50,"alt_fmsl":0,"id":"RS","desc":"MUFFE NDB"},
{"type":"NDB","hdg_t":28,"dist_nm":79.8,"freq":335,"lat":28.81825000,"lon":-81.80725000,"rng_nm":50,"alt_fmsl":0,"id":"LEE","desc":"LEESBURG NDB"},
{"type":"VOR","hdg_t":49.1,"dist_nm":82.8,"freq":112.2,"lat":28.54272222,"lon":-81.33502778,"rng_nm":130,"alt_fmsl":102,"id":"ORL","desc":"ORLANDO VORTAC"},
{"type":"VOR","hdg_t":9.5,"dist_nm":93.1,"freq":113.7,"lat":29.17747222,"lon":-82.22633333,"rng_nm":40,"alt_fmsl":80,"id":"OCF","desc":"OCALA REGIONAL/JI VORTAC"},
{"type":"NDB","hdg_t":44.4,"dist_nm":96.2,"freq":408,"lat":28.78494444,"lon":-81.24333333,"rng_nm":50,"alt_fmsl":0,"id":"SFB","desc":"SANFORD NDB"},
{"type":"VOR","hdg_t":155.7,"dist_nm":97.5,"freq":108.6,"lat":26.15341667,"lon":-81.77811111,"rng_nm":25,"alt_fmsl":10,"id":"CYY","desc":"CYPRESS VOR-DME"}
]
}
