{"success":true,"source":"xp2csv.pl","last_updated":"2013/11/08 14:53:21 UTC"
,"icao":"4CO7","name":"Ambrosich Field","lat":39.21776805,"lon":-104.68025167,"rwys":1,"ils":0,"index":1237065,"path":"w110n30/w105n39"
,"runways":[
{"len_m":761,"wid_m":18.29,"hdg":181,"surf":"Turf/grass","rwy1":"17","lat1":39.22119625,"lon1":-104.68017443,"rwy2":"35","lat2":39.21433985,"lon2":-104.68032891}
]
,"navaids":[
{"type":"NDB","hdg_t":331.2,"dist_nm":16,"freq":260,"lat":39.45191667,"lon":-104.84580556,"rng_nm":50,"alt_fmsl":0,"id":"AP","desc":"CASSE NDB"},
{"type":"VOR","hdg_t":172.3,"dist_nm":16.5,"freq":112.5,"lat":38.94450000,"lon":-104.63347222,"rng_nm":40,"alt_fmsl":6934,"id":"BRK","desc":"BLACK FOREST VORTAC"},
{"type":"VOR","hdg_t":5.5,"dist_nm":28.4,"freq":116.3,"lat":39.69013889,"lon":-104.62097222,"rng_nm":130,"alt_fmsl":5780,"id":"FQF","desc":"FALCON VORTAC"},
{"type":"SDME","hdg_t":353.5,"dist_nm":29.5,"freq":109.6,"lat":39.70737700,"lon":-104.75216600,"rng_nm":40,"alt_fmsl":5580,"id":"BKF","desc":"BUCKLEY TACAN"},
{"type":"NDB","hdg_t":183,"dist_nm":31.4,"freq":407,"lat":38.69430556,"lon":-104.71633333,"rng_nm":50,"alt_fmsl":0,"id":"CO","desc":"PETEY NDB"},
{"type":"VOR","hdg_t":186.3,"dist_nm":32.3,"freq":108.8,"lat":38.68069444,"lon":-104.75688889,"rng_nm":25,"alt_fmsl":5829,"id":"FCS","desc":"BUTTS VOR-DME"},
{"type":"NDB","hdg_t":186,"dist_nm":32.5,"freq":335,"lat":38.67833333,"lon":-104.75330556,"rng_nm":50,"alt_fmsl":0,"id":"IHS","desc":"IRONHORSE NDB"},
{"type":"VOR","hdg_t":1.4,"dist_nm":35.6,"freq":117.9,"lat":39.81252778,"lon":-104.66075000,"rng_nm":130,"alt_fmsl":5452,"id":"DEN","desc":"DENVER VOR-DME"},
{"type":"NDB","hdg_t":18.2,"dist_nm":36.2,"freq":321,"lat":39.79186111,"lon":-104.43422222,"rng_nm":50,"alt_fmsl":0,"id":"FT","desc":"SKIPI NDB"},
{"type":"VOR","hdg_t":3.6,"dist_nm":40.6,"freq":114.7,"lat":39.89469444,"lon":-104.62433333,"rng_nm":130,"alt_fmsl":5279,"id":"DVV","desc":"MILE HIGH VORTAC"},
{"type":"VOR","hdg_t":333,"dist_nm":46.8,"freq":115.4,"lat":39.91302778,"lon":-105.13902778,"rng_nm":130,"alt_fmsl":5728,"id":"BJC","desc":"JEFFCO VOR-DME"},
{"type":"VOR","hdg_t":46.5,"dist_nm":47.9,"freq":113.5,"lat":39.76583333,"lon":-103.92805556,"rng_nm":130,"alt_fmsl":5252,"id":"BVR","desc":"BYERS VOR-DME"},
{"type":"VOR","hdg_t":115.5,"dist_nm":55,"freq":112.1,"lat":38.81750000,"lon":-103.62138889,"rng_nm":130,"alt_fmsl":5233,"id":"HGO","desc":"HUGO VORTAC"},
{"type":"NDB","hdg_t":178.3,"dist_nm":55.9,"freq":302,"lat":38.28397222,"lon":-104.64708333,"rng_nm":50,"alt_fmsl":0,"id":"PU","desc":"MERTZ NDB"},
{"type":"VOR","hdg_t":167.9,"dist_nm":56.5,"freq":116.7,"lat":38.29425000,"lon":-104.42944444,"rng_nm":130,"alt_fmsl":4759,"id":"PUB","desc":"PUEBLO VORTAC"},
{"type":"NDB","hdg_t":164.5,"dist_nm":57.6,"freq":373,"lat":38.29086111,"lon":-104.35502778,"rng_nm":50,"alt_fmsl":0,"id":"TF","desc":"ARUBA NDB"},
{"type":"NDB","hdg_t":2.1,"dist_nm":67,"freq":348,"lat":40.33469444,"lon":-104.62611111,"rng_nm":50,"alt_fmsl":0,"id":"DC","desc":"BUFFS NDB"},
{"type":"NDB","hdg_t":348.9,"dist_nm":69.9,"freq":400,"lat":40.36316667,"lon":-104.97136111,"rng_nm":50,"alt_fmsl":0,"id":"FN","desc":"COLLN NDB"},
{"type":"VOR","hdg_t":66.6,"dist_nm":73.9,"freq":112.9,"lat":39.69830556,"lon":-103.21494444,"rng_nm":40,"alt_fmsl":4893,"id":"TXC","desc":"THURMAN VORTAC"},
{"type":"VOR","hdg_t":4.3,"dist_nm":77.3,"freq":114.2,"lat":40.50386111,"lon":-104.55302778,"rng_nm":130,"alt_fmsl":4910,"id":"GLL","desc":"GILL VOR-DME"},
{"type":"VOR","hdg_t":50.5,"dist_nm":89.3,"freq":114.4,"lat":40.15555556,"lon":-103.17972222,"rng_nm":130,"alt_fmsl":4623,"id":"AKO","desc":"AKRON VOR-DME"},
{"type":"VOR","hdg_t":300.4,"dist_nm":94.2,"freq":113.8,"lat":40.00263889,"lon":-106.44247222,"rng_nm":130,"alt_fmsl":9370,"id":"RLG","desc":"KREMMLING VOR-DME"}
]
}
