{"success":true,"source":"xp2csv.pl","last_updated":"2013/11/08 14:53:21 UTC"
,"icao":"4FD1","name":"Foxcreek Plantation","lat":30.65797611,"lon":-83.86738667,"rwys":1,"ils":0,"index":1580584,"path":"w090n30/w084n30"
,"runways":[
{"len_m":1589,"wid_m":30.48,"hdg":89,"surf":"Turf/grass","rwy1":"09","lat1":30.65785164,"lon1":-83.87567596,"rwy2":"27","lat2":30.65810058,"lon2":-83.85909738}
]
,"navaids":[
{"type":"VOR","hdg_t":145.6,"dist_nm":7.7,"freq":109,"lat":30.55133333,"lon":-83.78313889,"rng_nm":40,"alt_fmsl":220,"id":"GEF","desc":"GREENVILLE VORTAC"},
{"type":"NDB","hdg_t":6.6,"dist_nm":18,"freq":245,"lat":30.95755556,"lon":-83.82666667,"rng_nm":50,"alt_fmsl":0,"id":"GTP","desc":"PATTEN NDB"},
{"type":"NDB","hdg_t":312.4,"dist_nm":20.4,"freq":338,"lat":30.88816667,"lon":-84.15933333,"rng_nm":50,"alt_fmsl":0,"id":"CYR","desc":"CAIDY NDB"},
{"type":"NDB","hdg_t":230.1,"dist_nm":24.8,"freq":332,"lat":30.39142200,"lon":-84.23568300,"rng_nm":25,"alt_fmsl":51,"id":"PL","desc":"PALEE NDB"},
{"type":"VOR","hdg_t":7.3,"dist_nm":25.6,"freq":108.8,"lat":31.08227778,"lon":-83.80422222,"rng_nm":40,"alt_fmsl":290,"id":"MGR","desc":"MOULTRIE VOR-DME"},
{"type":"VOR","hdg_t":257,"dist_nm":26.9,"freq":117.5,"lat":30.55622222,"lon":-84.37397222,"rng_nm":130,"alt_fmsl":180,"id":"SZW","desc":"SEMINOLE VORTAC"},
{"type":"VOR","hdg_t":76.2,"dist_nm":31.2,"freq":114.8,"lat":30.78044444,"lon":-83.27972222,"rng_nm":130,"alt_fmsl":199,"id":"OTK","desc":"VALDOSTA VOR-DME"},
{"type":"NDB","hdg_t":232.1,"dist_nm":32.2,"freq":379,"lat":30.32619444,"lon":-84.35825000,"rng_nm":50,"alt_fmsl":0,"id":"TL","desc":"WAKUL NDB"},
{"type":"NDB","hdg_t":330.3,"dist_nm":38.3,"freq":369,"lat":31.21463889,"lon":-84.23686111,"rng_nm":50,"alt_fmsl":0,"id":"CXU","desc":"CAMILLA NDB"},
{"type":"NDB","hdg_t":299.1,"dist_nm":38.8,"freq":359,"lat":30.97272222,"lon":-84.52602778,"rng_nm":50,"alt_fmsl":0,"id":"LYZ","desc":"WILLIS NDB"},
{"type":"NDB","hdg_t":27.2,"dist_nm":47.5,"freq":409,"lat":31.36327778,"lon":-83.44402778,"rng_nm":50,"alt_fmsl":0,"id":"TM","desc":"TIFTO NDB"},
{"type":"VOR","hdg_t":22.8,"dist_nm":50,"freq":112.5,"lat":31.42866667,"lon":-83.48886111,"rng_nm":25,"alt_fmsl":0,"id":"IFM","desc":"TIFT MYERS VOR"},
{"type":"NDB","hdg_t":336.3,"dist_nm":52.2,"freq":227,"lat":31.45613889,"lon":-84.27616667,"rng_nm":50,"alt_fmsl":0,"id":"AB","desc":"PUTNY NDB"},
{"type":"NDB","hdg_t":66.9,"dist_nm":61.3,"freq":209,"lat":31.05550000,"lon":-82.77208333,"rng_nm":50,"alt_fmsl":0,"id":"HOE","desc":"HOMERVILLE NDB"},
{"type":"VOR","hdg_t":339.9,"dist_nm":63.5,"freq":116.1,"lat":31.65522222,"lon":-84.29305556,"rng_nm":130,"alt_fmsl":283,"id":"PZD","desc":"PECAN VORTAC"},
{"type":"NDB","hdg_t":27.2,"dist_nm":64.4,"freq":362,"lat":31.61297222,"lon":-83.29072222,"rng_nm":50,"alt_fmsl":0,"id":"SUR","desc":"FITZGERALD NDB"},
{"type":"VOR","hdg_t":277,"dist_nm":65.4,"freq":114,"lat":30.78622222,"lon":-85.12444444,"rng_nm":40,"alt_fmsl":120,"id":"MAI","desc":"MARIANNA VORTAC"},
{"type":"NDB","hdg_t":47.1,"dist_nm":66,"freq":390,"lat":31.40483333,"lon":-82.92375000,"rng_nm":50,"alt_fmsl":0,"id":"OWC","desc":"COFFEE CO NDB"},
{"type":"NDB","hdg_t":314.4,"dist_nm":68.4,"freq":344,"lat":31.45569444,"lon":-84.81911111,"rng_nm":50,"alt_fmsl":0,"id":"IWJ","desc":"BLAAK NDB"},
{"type":"VOR","hdg_t":97.3,"dist_nm":68.6,"freq":112.9,"lat":30.50463889,"lon":-82.55291667,"rng_nm":130,"alt_fmsl":140,"id":"TAY","desc":"TAYLOR VORTAC"},
{"type":"NDB","hdg_t":280.6,"dist_nm":71.3,"freq":329,"lat":30.87158333,"lon":-85.22491667,"rng_nm":50,"alt_fmsl":0,"id":"SMY","desc":"SOYYA NDB"},
{"type":"NDB","hdg_t":112.6,"dist_nm":72.5,"freq":204,"lat":30.18533333,"lon":-82.57858333,"rng_nm":50,"alt_fmsl":0,"id":"LCQ","desc":"LAKE CITY NDB"},
{"type":"VOR","hdg_t":145.8,"dist_nm":76.3,"freq":112,"lat":29.59902778,"lon":-83.04872222,"rng_nm":40,"alt_fmsl":30,"id":"CTY","desc":"CROSS CITY VORTAC"},
{"type":"VOR","hdg_t":61.2,"dist_nm":76.8,"freq":110.2,"lat":31.26941667,"lon":-82.55644444,"rng_nm":40,"alt_fmsl":155,"id":"AYS","desc":"WAYCROSS VORTAC"},
{"type":"NDB","hdg_t":0.2,"dist_nm":80.2,"freq":400,"lat":31.99783333,"lon":-83.86180556,"rng_nm":50,"alt_fmsl":0,"id":"OHY","desc":"CONEY NDB"},
{"type":"NDB","hdg_t":227.4,"dist_nm":82.2,"freq":349,"lat":29.72330556,"lon":-85.02805556,"rng_nm":50,"alt_fmsl":0,"id":"AAF","desc":"APALACHICOLA NDB"},
{"type":"NDB","hdg_t":61.8,"dist_nm":85.7,"freq":219,"lat":31.32525000,"lon":-82.39708333,"rng_nm":50,"alt_fmsl":0,"id":"AY","desc":"WIKET NDB"},
{"type":"VOR","hdg_t":52.7,"dist_nm":87.5,"freq":115.1,"lat":31.53652778,"lon":-82.50808333,"rng_nm":130,"alt_fmsl":200,"id":"AMG","desc":"ALMA VORTAC"},
{"type":"VOR","hdg_t":295.3,"dist_nm":88.9,"freq":111.6,"lat":31.28458333,"lon":-85.43119444,"rng_nm":40,"alt_fmsl":381,"id":"RRS","desc":"WIREGRASS VORTAC"},
{"type":"NDB","hdg_t":277.8,"dist_nm":90.3,"freq":275,"lat":30.85150000,"lon":-85.60133333,"rng_nm":50,"alt_fmsl":0,"id":"BKK","desc":"TRI COUNTY NDB"},
{"type":"NDB","hdg_t":352.3,"dist_nm":91.6,"freq":242,"lat":32.17447222,"lon":-84.10816667,"rng_nm":50,"alt_fmsl":0,"id":"LKG","desc":"LINDBERGH NDB"},
{"type":"VOR","hdg_t":11.4,"dist_nm":95,"freq":116.5,"lat":32.21344444,"lon":-83.49725000,"rng_nm":40,"alt_fmsl":300,"id":"VNA","desc":"VIENNA VORTAC"},
{"type":"SDME","hdg_t":248.8,"dist_nm":95.1,"freq":117.7,"lat":30.07397000,"lon":-85.57243100,"rng_nm":130,"alt_fmsl":14,"id":"PAM","desc":"TYNDALL TACAN"},
{"type":"NDB","hdg_t":22.3,"dist_nm":95.6,"freq":366,"lat":32.13419444,"lon":-83.15391667,"rng_nm":50,"alt_fmsl":0,"id":"EZM","desc":"EASTMAN NDB"},
{"type":"NDB","hdg_t":40.2,"dist_nm":96.3,"freq":414,"lat":31.88019444,"lon":-82.64736111,"rng_nm":50,"alt_fmsl":0,"id":"AZE","desc":"HAZLEHURST NDB"},
{"type":"VOR","hdg_t":254.7,"dist_nm":97.7,"freq":114.3,"lat":30.21625000,"lon":-85.68094444,"rng_nm":40,"alt_fmsl":10,"id":"PFN","desc":"PANAMA CITY VORTAC"},
{"type":"NDB","hdg_t":49.9,"dist_nm":98.8,"freq":376,"lat":31.71202778,"lon":-82.39016667,"rng_nm":50,"alt_fmsl":0,"id":"BHC","desc":"BAXLEY NDB"},
{"type":"VOR","hdg_t":251.5,"dist_nm":99.3,"freq":114.3,"lat":30.11966667,"lon":-85.67780556,"rng_nm":40,"alt_fmsl":55,"id":"HLL","desc":"HANDLE VORTAC"},
{"type":"NDB","hdg_t":30.1,"dist_nm":99.7,"freq":280,"lat":32.09461111,"lon":-82.88375000,"rng_nm":50,"alt_fmsl":0,"id":"MQW","desc":"MC RAE NDB"}
]
}
