{"success":true,"source":"xp2csv.pl","last_updated":"2013/11/08 14:53:21 UTC"
,"icao":"4G2","name":"Hamburg Inc","lat":42.7008925,"lon":-78.91475695,"rwys":1,"ils":0,"index":1663272,"path":"w080n40/w079n42"
,"runways":[
{"len_m":750,"wid_m":13.72,"hdg":0,"surf":"Asphalt","rwy1":"01","lat1":42.69751315,"lon1":-78.91475695,"rwy2":"19","lat2":42.70427185,"lon2":-78.91475695}
]
,"navaids":[
{"type":"NDB","hdg_t":22.6,"dist_nm":11.2,"freq":204,"lat":42.87388889,"lon":-78.81658333,"rng_nm":50,"alt_fmsl":0,"id":"GB","desc":"PLAZZ NDB"},
{"type":"VOR","hdg_t":40.8,"dist_nm":18.1,"freq":116.4,"lat":42.92900000,"lon":-78.64633333,"rng_nm":130,"alt_fmsl":730,"id":"BUF","desc":"BUFFALO VOR-DME"},
{"type":"VOR","hdg_t":231.7,"dist_nm":20.3,"freq":116.2,"lat":42.49055556,"lon":-79.27411111,"rng_nm":130,"alt_fmsl":680,"id":"DKK","desc":"DUNKIRK VORTAC"},
{"type":"NDB","hdg_t":32.8,"dist_nm":21.4,"freq":231,"lat":43.00027778,"lon":-78.65086111,"rng_nm":50,"alt_fmsl":0,"id":"BU","desc":"KLUMP NDB"},
{"type":"NDB","hdg_t":7.8,"dist_nm":24.7,"freq":329,"lat":43.10902778,"lon":-78.83838889,"rng_nm":50,"alt_fmsl":0,"id":"IA","desc":"KATHI NDB"},
{"type":"SDME","hdg_t":355.3,"dist_nm":24.7,"freq":111,"lat":43.11250000,"lon":-78.96027800,"rng_nm":25,"alt_fmsl":635,"id":"IAG","desc":"NIAGARA FALLS TACAN"},
{"type":"NDB","hdg_t":330.8,"dist_nm":30.6,"freq":408,"lat":43.14716667,"lon":-79.25497222,"rng_nm":50,"alt_fmsl":0,"id":"SN","desc":"ST CATHERINES NDB"},
{"type":"VOR","hdg_t":196.6,"dist_nm":32,"freq":114.7,"lat":42.18861111,"lon":-79.12130556,"rng_nm":130,"alt_fmsl":1786,"id":"JHW","desc":"JAMESTOWN VOR-DME"},
{"type":"NDB","hdg_t":134,"dist_nm":35.9,"freq":360,"lat":42.28352778,"lon":-78.33491667,"rng_nm":50,"alt_fmsl":0,"id":"LYS","desc":"OLEAN NDB"},
{"type":"NDB","hdg_t":304.7,"dist_nm":47,"freq":266,"lat":43.14421700,"lon":-79.79396900,"rng_nm":25,"alt_fmsl":0,"id":"ZHM","desc":"BINBROOK NDB"},
{"type":"VOR","hdg_t":80.8,"dist_nm":52.8,"freq":108.2,"lat":42.83438889,"lon":-77.73275000,"rng_nm":40,"alt_fmsl":990,"id":"GEE","desc":"GENESEO VOR-DME"},
{"type":"NDB","hdg_t":69.4,"dist_nm":53.8,"freq":344,"lat":43.00991667,"lon":-77.76927778,"rng_nm":50,"alt_fmsl":0,"id":"AVN","desc":"AVON NDB"},
{"type":"NDB","hdg_t":298,"dist_nm":54.3,"freq":221,"lat":43.12111111,"lon":-80.00666667,"rng_nm":50,"alt_fmsl":0,"id":"HM","desc":"HAMILTON NDB"},
{"type":"VOR","hdg_t":131.7,"dist_nm":54.7,"freq":111.4,"lat":42.08963889,"lon":-77.99955556,"rng_nm":40,"alt_fmsl":2296,"id":"ELZ","desc":"WELLSVILLE VORTAC"},
{"type":"VOR","hdg_t":166.4,"dist_nm":56.4,"freq":116.6,"lat":41.78638889,"lon":-78.61936111,"rng_nm":40,"alt_fmsl":2100,"id":"BFD","desc":"BRADFORD VOR-DME"},
{"type":"NDB","hdg_t":301.6,"dist_nm":57.4,"freq":397,"lat":43.19727200,"lon":-80.02869700,"rng_nm":25,"alt_fmsl":0,"id":"ZHA","desc":"ANCASTER NDB"},
{"type":"NDB","hdg_t":214.8,"dist_nm":57.4,"freq":258,"lat":41.91266667,"lon":-79.64844444,"rng_nm":50,"alt_fmsl":0,"id":"ORJ","desc":"CORRY NDB"},
{"type":"NDB","hdg_t":339.4,"dist_nm":58.4,"freq":257,"lat":43.61261111,"lon":-79.38561111,"rng_nm":50,"alt_fmsl":0,"id":"TZ","desc":"GIBRALTAR POINT NDB"},
{"type":"SDME","hdg_t":339.2,"dist_nm":59.5,"freq":110.15,"lat":43.62722200,"lon":-79.39944400,"rng_nm":25,"alt_fmsl":286,"id":"ITZ","desc":"CITY CENTRE DME"},
{"type":"VOR","hdg_t":65,"dist_nm":60.2,"freq":110,"lat":43.11797222,"lon":-77.67280556,"rng_nm":40,"alt_fmsl":549,"id":"ROC","desc":"ROCHESTER VOR-DME"},
{"type":"NDB","hdg_t":333.4,"dist_nm":61.7,"freq":368,"lat":43.61950000,"lon":-79.54777778,"rng_nm":50,"alt_fmsl":0,"id":"ZYZ","desc":"QUEENSWAY(TORONTO NDB"},
{"type":"NDB","hdg_t":236.9,"dist_nm":63.3,"freq":372,"lat":42.11919444,"lon":-80.10458333,"rng_nm":50,"alt_fmsl":0,"id":"CQD","desc":"CASCADE NDB"},
{"type":"VOR","hdg_t":200.8,"dist_nm":63.3,"freq":117.6,"lat":41.71302778,"lon":-79.41727778,"rng_nm":40,"alt_fmsl":1710,"id":"TDT","desc":"TIDIOUTE VORTAC"},
{"type":"NDB","hdg_t":328.5,"dist_nm":64.5,"freq":236,"lat":43.61616100,"lon":-79.68840600,"rng_nm":25,"alt_fmsl":0,"id":"ZLB","desc":"BRITANNIA NDB"},
{"type":"NDB","hdg_t":66.4,"dist_nm":65.2,"freq":400,"lat":43.12652778,"lon":-77.55394444,"rng_nm":50,"alt_fmsl":0,"id":"RO","desc":"BREIT NDB"},
{"type":"VOR","hdg_t":331.5,"dist_nm":65.4,"freq":112.15,"lat":43.65822222,"lon":-79.63152778,"rng_nm":130,"alt_fmsl":620,"id":"YYZ","desc":"TORONTO VOR-DME"},
{"type":"SDME","hdg_t":332,"dist_nm":65.4,"freq":109.1,"lat":43.66305600,"lon":-79.61861100,"rng_nm":25,"alt_fmsl":588,"id":"IJS","desc":"TORONTO DME"},
{"type":"SDME","hdg_t":333,"dist_nm":65.7,"freq":109.3,"lat":43.67555600,"lon":-79.59944400,"rng_nm":25,"alt_fmsl":565,"id":"INV","desc":"TORONTO DME"},
{"type":"NDB","hdg_t":327.4,"dist_nm":66.1,"freq":341,"lat":43.62788889,"lon":-79.73113889,"rng_nm":50,"alt_fmsl":0,"id":"ZLP","desc":"MEADOWVALE(TORONT NDB"},
{"type":"SDME","hdg_t":331.7,"dist_nm":66.1,"freq":110.95,"lat":43.67027800,"lon":-79.63444400,"rng_nm":25,"alt_fmsl":565,"id":"ITO","desc":"TORONTO DME"},
{"type":"VOR","hdg_t":330.8,"dist_nm":66.8,"freq":116.55,"lat":43.67191667,"lon":-79.66411111,"rng_nm":130,"alt_fmsl":620,"id":"YTP","desc":"PEARSON VOR-DME"},
{"type":"NDB","hdg_t":335.3,"dist_nm":68.5,"freq":385,"lat":43.73791667,"lon":-79.57147222,"rng_nm":50,"alt_fmsl":0,"id":"ZDH","desc":"REXDALE(TORONTO/L NDB"},
{"type":"NDB","hdg_t":289.1,"dist_nm":69.8,"freq":207,"lat":43.07333333,"lon":-80.41611111,"rng_nm":50,"alt_fmsl":0,"id":"FD","desc":"BRANTFORD NDB"},
{"type":"NDB","hdg_t":331.2,"dist_nm":71.2,"freq":403,"lat":43.73877778,"lon":-79.70341667,"rng_nm":50,"alt_fmsl":0,"id":"ZTO","desc":"WOODHILL(TORONTO/ NDB"},
{"type":"NDB","hdg_t":236.7,"dist_nm":71.6,"freq":349,"lat":42.03863889,"lon":-80.25536111,"rng_nm":50,"alt_fmsl":0,"id":"ER","desc":"ESMER NDB"},
{"type":"SDME","hdg_t":344.3,"dist_nm":72,"freq":111.1,"lat":43.85583300,"lon":-79.36333300,"rng_nm":130,"alt_fmsl":650,"id":"IKZ","desc":"BUTTONVILLE DME"},
{"type":"SDME","hdg_t":0.9,"dist_nm":73,"freq":111.35,"lat":43.91861100,"lon":-78.88583300,"rng_nm":25,"alt_fmsl":456,"id":"IOO","desc":"OSHAWA DME"},
{"type":"NDB","hdg_t":0.5,"dist_nm":73.1,"freq":391,"lat":43.92083333,"lon":-78.89997222,"rng_nm":50,"alt_fmsl":0,"id":"OO","desc":"OSHAWA NDB"},
{"type":"VOR","hdg_t":236.6,"dist_nm":73.7,"freq":109.4,"lat":42.01741667,"lon":-80.29269444,"rng_nm":40,"alt_fmsl":800,"id":"ERI","desc":"ERIE VORTAC"},
{"type":"NDB","hdg_t":346.3,"dist_nm":76.1,"freq":248,"lat":43.93311111,"lon":-79.32894444,"rng_nm":50,"alt_fmsl":0,"id":"KZ","desc":"BUTTONVILLE NDB"},
{"type":"NDB","hdg_t":308.6,"dist_nm":76.7,"freq":335,"lat":43.49305556,"lon":-80.28694444,"rng_nm":50,"alt_fmsl":0,"id":"ZKF","desc":"WELLINGTON NDB"},
{"type":"VOR","hdg_t":305.7,"dist_nm":78.8,"freq":115,"lat":43.45858333,"lon":-80.37938889,"rng_nm":130,"alt_fmsl":1047,"id":"YWT","desc":"WATERLOO VOR-DME"},
{"type":"NDB","hdg_t":91.7,"dist_nm":82.3,"freq":260,"lat":42.64397222,"lon":-77.05613889,"rng_nm":50,"alt_fmsl":0,"id":"PYA","desc":"PENN YAN NDB"},
{"type":"VOR","hdg_t":149,"dist_nm":82.8,"freq":113.9,"lat":41.51275000,"lon":-77.97011111,"rng_nm":130,"alt_fmsl":2320,"id":"SLT","desc":"SLATE RUN VORTAC"},
{"type":"VOR","hdg_t":209.3,"dist_nm":86.6,"freq":109.6,"lat":41.43861111,"lon":-79.85677778,"rng_nm":40,"alt_fmsl":0,"id":"FKL","desc":"FRANKLIN VOR"},
{"type":"VOR","hdg_t":270.8,"dist_nm":87.2,"freq":114.2,"lat":42.70672222,"lon":-80.88791667,"rng_nm":130,"alt_fmsl":780,"id":"YQO","desc":"AYLMER VOR-DME"},
{"type":"VOR","hdg_t":131.6,"dist_nm":89.8,"freq":108.6,"lat":41.69525000,"lon":-77.41991667,"rng_nm":40,"alt_fmsl":1985,"id":"SFK","desc":"STONYFORK VOR-DME"},
{"type":"VOR","hdg_t":112.7,"dist_nm":91.5,"freq":109.65,"lat":42.09416667,"lon":-77.02480556,"rng_nm":40,"alt_fmsl":1632,"id":"ULW","desc":"ELMIRA VOR-DME"},
{"type":"NDB","hdg_t":12.1,"dist_nm":92.8,"freq":379,"lat":44.21244444,"lon":-78.46313889,"rng_nm":50,"alt_fmsl":0,"id":"YPQ","desc":"PETERBOROUGH NDB"},
{"type":"VOR","hdg_t":353.1,"dist_nm":92.9,"freq":117.35,"lat":44.23861111,"lon":-79.17166667,"rng_nm":130,"alt_fmsl":922,"id":"YSO","desc":"SIMCOE VOR-DME"},
{"type":"VOR","hdg_t":158.5,"dist_nm":95.5,"freq":116,"lat":41.21494444,"lon":-78.14275000,"rng_nm":130,"alt_fmsl":2250,"id":"ETG","desc":"KEATING VORTAC"},
{"type":"VOR","hdg_t":194.8,"dist_nm":96.3,"freq":112.9,"lat":41.14630556,"lon":-79.45797222,"rng_nm":40,"alt_fmsl":1520,"id":"CIP","desc":"CLARION VOR-DME"},
{"type":"NDB","hdg_t":273.2,"dist_nm":96.9,"freq":375,"lat":42.77083333,"lon":-81.10583333,"rng_nm":50,"alt_fmsl":0,"id":"7B","desc":"ST THOMAS NDB"},
{"type":"NDB","hdg_t":280.7,"dist_nm":97.4,"freq":201,"lat":42.98233333,"lon":-81.08869444,"rng_nm":50,"alt_fmsl":0,"id":"ZXU","desc":"THAMES NDB"},
{"type":"NDB","hdg_t":34.3,"dist_nm":98.7,"freq":317,"lat":44.05277778,"lon":-77.62666667,"rng_nm":50,"alt_fmsl":0,"id":"ZZR","desc":"SEVERN (TRENTON) NDB"},
{"type":"VOR","hdg_t":235.9,"dist_nm":99.3,"freq":115.2,"lat":41.76011111,"lon":-80.74811111,"rng_nm":40,"alt_fmsl":900,"id":"JFN","desc":"JEFFERSON VOR-DME"},
{"type":"NDB","hdg_t":105.4,"dist_nm":99.4,"freq":245,"lat":42.23866667,"lon":-76.76394444,"rng_nm":50,"alt_fmsl":0,"id":"ALP","desc":"ALPINE NDB"}
]
}
