{"success":true,"source":"xp2csv.pl","last_updated":"2013/11/08 14:53:21 UTC"
,"icao":"4MD3","name":"Carey Field","lat":38.43972222,"lon":-75.15944445,"rwys":1,"ils":0,"index":1712155,"path":"w080n30/w076n38"
,"runways":[
{"len_m":542,"wid_m":12.19,"hdg":89,"surf":"Turf/grass","rwy1":"10","lat1":38.43967976,"lon1":-75.16255025,"rwy2":"28","lat2":38.43976468,"lon2":-75.15633865}
]
,"navaids":[
{"type":"NDB","hdg_t":201.3,"dist_nm":4.9,"freq":407,"lat":38.36261111,"lon":-75.19780556,"rng_nm":50,"alt_fmsl":0,"id":"OX","desc":"LANDY NDB"},
{"type":"NDB","hdg_t":230.3,"dist_nm":15.1,"freq":278,"lat":38.27870000,"lon":-75.40577800,"rng_nm":25,"alt_fmsl":0,"id":"SB","desc":"COLBE NDB"},
{"type":"VOR","hdg_t":251.1,"dist_nm":17.5,"freq":111.2,"lat":38.34500000,"lon":-75.51058333,"rng_nm":40,"alt_fmsl":48,"id":"SBY","desc":"SALISBURY VORTAC"},
{"type":"VOR","hdg_t":353.7,"dist_nm":22.3,"freq":112.6,"lat":38.80980556,"lon":-75.21133333,"rng_nm":40,"alt_fmsl":5,"id":"ATR","desc":"WATERLOO VOR-DME"},
{"type":"VOR","hdg_t":212.1,"dist_nm":27,"freq":112.4,"lat":38.05658333,"lon":-75.46388889,"rng_nm":40,"alt_fmsl":34,"id":"SWL","desc":"SNOW HILL VORTAC"},
{"type":"NDB","hdg_t":278.3,"dist_nm":41.4,"freq":355,"lat":38.53725000,"lon":-76.03058333,"rng_nm":50,"alt_fmsl":0,"id":"CGE","desc":"CAMBRIDGE NDB"},
{"type":"VOR","hdg_t":23,"dist_nm":42.7,"freq":114.8,"lat":39.09550000,"lon":-74.80033333,"rng_nm":130,"alt_fmsl":10,"id":"SIE","desc":"SEA ISLE VORTAC"},
{"type":"SDME","hdg_t":340.9,"dist_nm":43.9,"freq":110,"lat":39.13233300,"lon":-75.46733300,"rng_nm":25,"alt_fmsl":17,"id":"DOV","desc":"DOVER TACAN"},
{"type":"VOR","hdg_t":340.7,"dist_nm":50.3,"freq":111.4,"lat":39.23166667,"lon":-75.51591667,"rng_nm":40,"alt_fmsl":10,"id":"ENO","desc":"SMYRNA VORTAC"},
{"type":"NDB","hdg_t":1.1,"dist_nm":58.6,"freq":363,"lat":39.41811111,"lon":-75.13505556,"rng_nm":50,"alt_fmsl":0,"id":"RNB","desc":"RAINBOW NDB"},
{"type":"VOR","hdg_t":261.5,"dist_nm":59.2,"freq":117.6,"lat":38.28786111,"lon":-76.40022222,"rng_nm":40,"alt_fmsl":20,"id":"PXT","desc":"PATUXENT VORTAC"},
{"type":"NDB","hdg_t":261.4,"dist_nm":59.4,"freq":400,"lat":38.28594444,"lon":-76.40325000,"rng_nm":50,"alt_fmsl":0,"id":"NHK","desc":"PATUXENT NDB"},
{"type":"NDB","hdg_t":210.3,"dist_nm":60.2,"freq":336,"lat":37.57030556,"lon":-75.79830556,"rng_nm":50,"alt_fmsl":0,"id":"BDB","desc":"ACCOMACK NDB"},
{"type":"VOR","hdg_t":7.7,"dist_nm":66.4,"freq":115.2,"lat":39.53766667,"lon":-74.96713889,"rng_nm":40,"alt_fmsl":120,"id":"VCN","desc":"CEDAR LAKE VORTAC"},
{"type":"VOR","hdg_t":23.9,"dist_nm":66.7,"freq":108.6,"lat":39.45586111,"lon":-74.57633333,"rng_nm":40,"alt_fmsl":67,"id":"ACY","desc":"ATLANTIC CITY VORTAC"},
{"type":"NDB","hdg_t":342.8,"dist_nm":71.6,"freq":248,"lat":39.58122222,"lon":-75.61388889,"rng_nm":50,"alt_fmsl":0,"id":"IL","desc":"HADIN (LOM) NDB"},
{"type":"VOR","hdg_t":354.6,"dist_nm":72,"freq":112.8,"lat":39.63602778,"lon":-75.30302778,"rng_nm":40,"alt_fmsl":140,"id":"OOD","desc":"WOODSTOWN VORTAC"},
{"type":"VOR","hdg_t":282.5,"dist_nm":76.2,"freq":113.7,"lat":38.70586111,"lon":-76.74475000,"rng_nm":40,"alt_fmsl":210,"id":"OTT","desc":"NOTTINGHAM VORTAC"},
{"type":"VOR","hdg_t":211.5,"dist_nm":76.6,"freq":112.2,"lat":37.34752778,"lon":-75.99766667,"rng_nm":40,"alt_fmsl":10,"id":"CCV","desc":"CAPE CHARLES VORTAC"},
{"type":"VOR","hdg_t":344.4,"dist_nm":77.1,"freq":114,"lat":39.67813889,"lon":-75.60708333,"rng_nm":40,"alt_fmsl":70,"id":"DQO","desc":"DUPONT VORTAC"},
{"type":"VOR","hdg_t":322.7,"dist_nm":77.6,"freq":108.4,"lat":39.46666667,"lon":-76.17094444,"rng_nm":25,"alt_fmsl":47,"id":"PPM","desc":"PHILLIPS VOR-DME"},
{"type":"NDB","hdg_t":326.3,"dist_nm":79.2,"freq":349,"lat":39.53586111,"lon":-76.10638889,"rng_nm":50,"alt_fmsl":0,"id":"APG","desc":"ABERDEEN NDB"},
{"type":"NDB","hdg_t":281.5,"dist_nm":82,"freq":360,"lat":38.70077778,"lon":-76.87022222,"rng_nm":50,"alt_fmsl":0,"id":"RW","desc":"KIRBE NDB"},
{"type":"VOR","hdg_t":302.3,"dist_nm":82.9,"freq":115.1,"lat":39.17105556,"lon":-76.66125000,"rng_nm":40,"alt_fmsl":140,"id":"BAL","desc":"BALTIMORE VORTAC"},
{"type":"VOR","hdg_t":285.8,"dist_nm":83.2,"freq":113.1,"lat":38.80722222,"lon":-76.86625000,"rng_nm":40,"alt_fmsl":260,"id":"ADW","desc":"ANDREWS VORTAC"},
{"type":"NDB","hdg_t":297.7,"dist_nm":84.4,"freq":260,"lat":39.08405556,"lon":-76.76000000,"rng_nm":50,"alt_fmsl":0,"id":"BUH","desc":"ANNE ARUNDEL NDB"},
{"type":"NDB","hdg_t":306.9,"dist_nm":85.4,"freq":404,"lat":39.28705556,"lon":-76.62525000,"rng_nm":50,"alt_fmsl":0,"id":"IUB","desc":"INSTITUTE NDB"},
{"type":"NDB","hdg_t":290.2,"dist_nm":85.4,"freq":232,"lat":38.92000000,"lon":-76.87166700,"rng_nm":25,"alt_fmsl":74,"id":"MX","desc":"ZOOTE NDB"},
{"type":"NDB","hdg_t":282.9,"dist_nm":86.5,"freq":241,"lat":38.74888900,"lon":-76.95611100,"rng_nm":25,"alt_fmsl":115,"id":"VKX","desc":"POTOMAC NDB"},
{"type":"NDB","hdg_t":1.9,"dist_nm":87.6,"freq":222,"lat":39.90123100,"lon":-75.09486400,"rng_nm":25,"alt_fmsl":0,"id":"PD","desc":"SPEEZ NDB"},
{"type":"VOR","hdg_t":22.1,"dist_nm":89.2,"freq":113.4,"lat":39.81733333,"lon":-74.43163889,"rng_nm":130,"alt_fmsl":203,"id":"CYN","desc":"COYLE VORTAC"},
{"type":"NDB","hdg_t":283.1,"dist_nm":90,"freq":332,"lat":38.76594444,"lon":-77.02738889,"rng_nm":50,"alt_fmsl":0,"id":"DC","desc":"OXONN NDB"},
{"type":"NDB","hdg_t":304.3,"dist_nm":91.2,"freq":371,"lat":39.28736111,"lon":-76.77702778,"rng_nm":50,"alt_fmsl":0,"id":"FND","desc":"ELLICOTT NDB"},
{"type":"VOR","hdg_t":345,"dist_nm":91.7,"freq":113.2,"lat":39.91805556,"lon":-75.67080556,"rng_nm":40,"alt_fmsl":473,"id":"MXE","desc":"MODENA VORTAC"},
{"type":"VOR","hdg_t":286.5,"dist_nm":91.7,"freq":111,"lat":38.85944444,"lon":-77.03644444,"rng_nm":40,"alt_fmsl":10,"id":"DCA","desc":"WASHINGTON VOR-DME"},
{"type":"NDB","hdg_t":278.8,"dist_nm":92.7,"freq":223,"lat":38.66163889,"lon":-77.11016667,"rng_nm":50,"alt_fmsl":0,"id":"DAA","desc":"DAVEE NDB"},
{"type":"NDB","hdg_t":258,"dist_nm":93.9,"freq":396,"lat":38.10000000,"lon":-77.10000000,"rng_nm":50,"alt_fmsl":99,"id":"ZZA","desc":"ZZZ TEST A NDB"},
{"type":"VOR","hdg_t":231.5,"dist_nm":94.6,"freq":108.8,"lat":37.44866667,"lon":-76.71136111,"rng_nm":40,"alt_fmsl":8,"id":"HCM","desc":"HARCUM VORTAC"},
{"type":"NDB","hdg_t":288.2,"dist_nm":96.8,"freq":323,"lat":38.92988889,"lon":-77.12422222,"rng_nm":50,"alt_fmsl":0,"id":"GTN","desc":"GEORGETOWN NDB"},
{"type":"NDB","hdg_t":262.1,"dist_nm":97.4,"freq":397,"lat":38.20000000,"lon":-77.20000000,"rng_nm":50,"alt_fmsl":99,"id":"ZZB","desc":"ZZZ TEST B NDB"},
{"type":"VOR","hdg_t":15.4,"dist_nm":97.6,"freq":110.6,"lat":40.00947222,"lon":-74.59650000,"rng_nm":40,"alt_fmsl":119,"id":"GXU","desc":"MC GUIRE VORTAC"},
{"type":"VOR","hdg_t":4,"dist_nm":98.6,"freq":112,"lat":40.08205556,"lon":-75.00955556,"rng_nm":25,"alt_fmsl":0,"id":"PNE","desc":"NORTH PHILADELPHI VOR"},
{"type":"SDME","hdg_t":215.4,"dist_nm":99.2,"freq":112.3,"lat":37.08556100,"lon":-76.35941100,"rng_nm":40,"alt_fmsl":11,"id":"LFI","desc":"LANGLEY TACAN"}
]
}
