{"success":true,"source":"xp2csv.pl","last_updated":"2013/11/08 14:53:21 UTC"
,"icao":"4OR0","name":"Springbrook","lat":42.55512027,"lon":-123.20477862,"rwys":1,"ils":0,"index":925987,"path":"w130n40/w124n42"
,"runways":[
{"len_m":764,"wid_m":18.29,"hdg":107,"surf":"Asphalt","rwy1":"09","lat1":42.55617980,"lon1":-123.20920544,"rwy2":"27","lat2":42.55406074,"lon2":-123.20035180}
]
,"navaids":[
{"type":"VOR","hdg_t":109.1,"dist_nm":13.7,"freq":113.6,"lat":42.47958333,"lon":-122.91294444,"rng_nm":130,"alt_fmsl":2083,"id":"OED","desc":"ROGUE VALLEY VORTAC"},
{"type":"NDB","hdg_t":115.6,"dist_nm":14.3,"freq":373,"lat":42.45097222,"lon":-122.91336111,"rng_nm":50,"alt_fmsl":0,"id":"MF","desc":"PUMIE NDB"},
{"type":"NDB","hdg_t":124,"dist_nm":17.4,"freq":356,"lat":42.39161111,"lon":-122.87883333,"rng_nm":50,"alt_fmsl":0,"id":"MEF","desc":"MEDFORD NDB"},
{"type":"VOR","hdg_t":350.2,"dist_nm":38.1,"freq":108.2,"lat":43.18241667,"lon":-123.35225000,"rng_nm":40,"alt_fmsl":1320,"id":"RBG","desc":"ROSEBURG VOR-DME"},
{"type":"NDB","hdg_t":350.6,"dist_nm":41.3,"freq":400,"lat":43.23525000,"lon":-123.35802778,"rng_nm":50,"alt_fmsl":0,"id":"RBG","desc":"ROSEBURG NDB"},
{"type":"NDB","hdg_t":146.7,"dist_nm":59.2,"freq":404,"lat":41.72727778,"lon":-122.48169444,"rng_nm":50,"alt_fmsl":0,"id":"MOG","desc":"MONTAGUE NDB"},
{"type":"VOR","hdg_t":225.1,"dist_nm":65.5,"freq":109,"lat":41.77958333,"lon":-124.24083333,"rng_nm":40,"alt_fmsl":54,"id":"CEC","desc":"CRESCENT CITY VORTAC"},
{"type":"VOR","hdg_t":320.8,"dist_nm":66.8,"freq":112.1,"lat":43.41550000,"lon":-124.16852778,"rng_nm":40,"alt_fmsl":707,"id":"OTH","desc":"NORTH BEND VORTAC"},
{"type":"VOR","hdg_t":164.8,"dist_nm":68.6,"freq":109.6,"lat":41.44966667,"lon":-122.80644444,"rng_nm":40,"alt_fmsl":4900,"id":"FJS","desc":"FORT JONES VOR-DME"},
{"type":"NDB","hdg_t":316.3,"dist_nm":70,"freq":378,"lat":43.39444444,"lon":-124.31027778,"rng_nm":50,"alt_fmsl":0,"id":"OT","desc":"EMIRE NDB"},
{"type":"VOR","hdg_t":109.6,"dist_nm":70,"freq":115.9,"lat":42.15313889,"lon":-121.72752778,"rng_nm":130,"alt_fmsl":4087,"id":"LMT","desc":"KLAMATH FALLS VORTAC"},
{"type":"VOR","hdg_t":359.5,"dist_nm":93.9,"freq":112.9,"lat":44.12088889,"lon":-123.22283333,"rng_nm":130,"alt_fmsl":364,"id":"EUG","desc":"EUGENE VORTAC"}
]
}
