{"success":true,"source":"xp2csv.pl","last_updated":"2013/11/08 14:53:21 UTC"
,"icao":"4TN2","name":"Buck Creek Ranch","lat":35.88340194,"lon":-84.96884223,"rwys":1,"ils":0,"index":1564536,"path":"w090n30/w085n35"
,"runways":[
{"len_m":672,"wid_m":22.86,"hdg":107,"surf":"Turf/grass","rwy1":"11","lat1":35.88433433,"lon1":-84.97238402,"rwy2":"29","lat2":35.88246955,"lon2":-84.96530044}
]
,"navaids":[
{"type":"VOR","hdg_t":184.3,"dist_nm":6.1,"freq":117.6,"lat":35.78100000,"lon":-84.97844444,"rng_nm":40,"alt_fmsl":3040,"id":"HCH","desc":"HINCH MOUNTAIN VORTAC"},
{"type":"NDB","hdg_t":175.5,"dist_nm":24.1,"freq":394,"lat":35.48191667,"lon":-84.93091667,"rng_nm":50,"alt_fmsl":0,"id":"DTE","desc":"MARK ANTON NDB"},
{"type":"NDB","hdg_t":281.9,"dist_nm":30.7,"freq":233,"lat":35.98800000,"lon":-85.58627778,"rng_nm":50,"alt_fmsl":0,"id":"HEM","desc":"HUCHN NDB"},
{"type":"NDB","hdg_t":125.1,"dist_nm":35,"freq":361,"lat":35.54502778,"lon":-84.38300000,"rng_nm":50,"alt_fmsl":0,"id":"MNV","desc":"MADISONVILLE NDB"},
{"type":"NDB","hdg_t":145.6,"dist_nm":35.4,"freq":242,"lat":35.39458333,"lon":-84.56163889,"rng_nm":50,"alt_fmsl":0,"id":"MMI","desc":"MC MINN CO NDB"},
{"type":"NDB","hdg_t":258.8,"dist_nm":39.5,"freq":209,"lat":35.75241667,"lon":-85.76413889,"rng_nm":50,"alt_fmsl":0,"id":"RN","desc":"WARRI NDB"},
{"type":"NDB","hdg_t":278.6,"dist_nm":41.3,"freq":256,"lat":35.98400000,"lon":-85.80811111,"rng_nm":50,"alt_fmsl":0,"id":"SKN","desc":"HURRICANE NDB"},
{"type":"VOR","hdg_t":347.1,"dist_nm":43,"freq":108.4,"lat":36.58450000,"lon":-85.16661111,"rng_nm":40,"alt_fmsl":1020,"id":"LVT","desc":"LIVINGSTON VORTAC"},
{"type":"NDB","hdg_t":175.9,"dist_nm":43.8,"freq":369,"lat":35.15369444,"lon":-84.90577778,"rng_nm":50,"alt_fmsl":0,"id":"HDI","desc":"HARDWICK NDB"},
{"type":"NDB","hdg_t":192.1,"dist_nm":43.9,"freq":341,"lat":35.16655556,"lon":-85.15736111,"rng_nm":50,"alt_fmsl":0,"id":"CQN","desc":"DAISY NDB"},
{"type":"NDB","hdg_t":100.7,"dist_nm":44.1,"freq":353,"lat":35.74222222,"lon":-84.08119444,"rng_nm":50,"alt_fmsl":0,"id":"TY","desc":"BENFI NDB"},
{"type":"NDB","hdg_t":31.1,"dist_nm":46,"freq":403,"lat":36.53947222,"lon":-84.47600000,"rng_nm":50,"alt_fmsl":0,"id":"BPO","desc":"PINEY GROVE NDB"},
{"type":"NDB","hdg_t":55,"dist_nm":47.7,"freq":204,"lat":36.33783333,"lon":-84.16091667,"rng_nm":50,"alt_fmsl":0,"id":"JAU","desc":"JACKSBORO NDB"},
{"type":"VOR","hdg_t":88.2,"dist_nm":52.3,"freq":116.4,"lat":35.90483333,"lon":-83.89472222,"rng_nm":130,"alt_fmsl":1290,"id":"VXV","desc":"VOLUNTEER VORTAC"},
{"type":"VOR","hdg_t":189.3,"dist_nm":55.9,"freq":115.8,"lat":34.96125000,"lon":-85.15336111,"rng_nm":130,"alt_fmsl":1015,"id":"GQO","desc":"CHOO CHOO VORTAC"},
{"type":"NDB","hdg_t":211.5,"dist_nm":57.8,"freq":382,"lat":35.05963889,"lon":-85.58394444,"rng_nm":50,"alt_fmsl":0,"id":"APT","desc":"JASPER NDB"},
{"type":"NDB","hdg_t":5.4,"dist_nm":58.5,"freq":290,"lat":36.85621100,"lon":-84.85294700,"rng_nm":25,"alt_fmsl":950,"id":"EKQ","desc":"ELK SPRING NDB"},
{"type":"NDB","hdg_t":305.8,"dist_nm":65.1,"freq":245,"lat":36.51508333,"lon":-86.06097222,"rng_nm":50,"alt_fmsl":0,"id":"LFB","desc":"LAFAYETTE NDB"},
{"type":"NDB","hdg_t":178.9,"dist_nm":65.4,"freq":400,"lat":34.79133333,"lon":-84.94352778,"rng_nm":50,"alt_fmsl":0,"id":"UWI","desc":"WHITFIELD NDB"},
{"type":"NDB","hdg_t":248.2,"dist_nm":67.1,"freq":332,"lat":35.46158333,"lon":-86.24169444,"rng_nm":50,"alt_fmsl":0,"id":"ULH","desc":"BURWI NDB"},
{"type":"NDB","hdg_t":286.1,"dist_nm":68,"freq":414,"lat":36.19216667,"lon":-86.31383333,"rng_nm":50,"alt_fmsl":0,"id":"JUE","desc":"LEBANON NDB"},
{"type":"NDB","hdg_t":11.7,"dist_nm":68.1,"freq":388,"lat":36.99622222,"lon":-84.68130556,"rng_nm":50,"alt_fmsl":0,"id":"CDX","desc":"CUMBERLAND RIVER NDB"},
{"type":"NDB","hdg_t":232.1,"dist_nm":68.4,"freq":263,"lat":35.17800000,"lon":-86.06816667,"rng_nm":50,"alt_fmsl":0,"id":"BGF","desc":"BOILING FORK NDB"},
{"type":"NDB","hdg_t":274.3,"dist_nm":68.4,"freq":371,"lat":35.96125000,"lon":-86.37097222,"rng_nm":50,"alt_fmsl":0,"id":"FQW","desc":"WALTER HILL NDB"},
{"type":"VOR","hdg_t":244.6,"dist_nm":69.3,"freq":109.65,"lat":35.38041667,"lon":-86.24577778,"rng_nm":25,"alt_fmsl":0,"id":"UXM","desc":"TULLAHOMA RGNL VOR"},
{"type":"NDB","hdg_t":273.8,"dist_nm":72.9,"freq":391,"lat":35.95683333,"lon":-86.46391667,"rng_nm":50,"alt_fmsl":0,"id":"SWZ","desc":"SEWART NDB"},
{"type":"NDB","hdg_t":78.9,"dist_nm":73.9,"freq":346,"lat":36.11055556,"lon":-83.47563889,"rng_nm":50,"alt_fmsl":0,"id":"JXT","desc":"JEFFERSON NDB"},
{"type":"VOR","hdg_t":255.4,"dist_nm":74.3,"freq":109,"lat":35.56197222,"lon":-86.43916667,"rng_nm":40,"alt_fmsl":814,"id":"SYI","desc":"SHELBYVILLE VOR-DME"},
{"type":"VOR","hdg_t":137.1,"dist_nm":76.4,"freq":109.8,"lat":34.94300000,"lon":-83.91569444,"rng_nm":40,"alt_fmsl":3660,"id":"HRS","desc":"HARRIS VORTAC"},
{"type":"VOR","hdg_t":30.8,"dist_nm":80.4,"freq":116.1,"lat":37.03313889,"lon":-84.11008333,"rng_nm":40,"alt_fmsl":1245,"id":"LOZ","desc":"LONDON VORTAC"},
{"type":"NDB","hdg_t":323.7,"dist_nm":84.5,"freq":260,"lat":37.01752778,"lon":-86.00916667,"rng_nm":50,"alt_fmsl":0,"id":"BVQ","desc":"BEAVER CREEK NDB"},
{"type":"VOR","hdg_t":280.8,"dist_nm":84.8,"freq":114.1,"lat":36.13697222,"lon":-86.68477778,"rng_nm":130,"alt_fmsl":566,"id":"BNA","desc":"NASHVILLE VORTAC"},
{"type":"NDB","hdg_t":276.4,"dist_nm":85.8,"freq":304,"lat":36.03100000,"lon":-86.72177778,"rng_nm":50,"alt_fmsl":0,"id":"BN","desc":"DOBBS NDB"},
{"type":"NDB","hdg_t":203.2,"dist_nm":88.6,"freq":426,"lat":34.52113889,"lon":-85.67333333,"rng_nm":50,"alt_fmsl":0,"id":"FTP","desc":"FORT PAYNE NDB"},
{"type":"NDB","hdg_t":178.6,"dist_nm":88.7,"freq":323,"lat":34.40155556,"lon":-84.92652778,"rng_nm":50,"alt_fmsl":0,"id":"OUK","desc":"CALHOUN NDB"},
{"type":"NDB","hdg_t":240.2,"dist_nm":89.1,"freq":358,"lat":35.13408333,"lon":-86.54205556,"rng_nm":50,"alt_fmsl":0,"id":"TNY","desc":"KELSO NDB"},
{"type":"NDB","hdg_t":351.7,"dist_nm":91.9,"freq":272,"lat":37.40188889,"lon":-85.24369444,"rng_nm":50,"alt_fmsl":0,"id":"TYC","desc":"TAYLOR CO NDB"},
{"type":"NDB","hdg_t":256.2,"dist_nm":92.8,"freq":251,"lat":35.50050000,"lon":-86.80972222,"rng_nm":50,"alt_fmsl":0,"id":"LUG","desc":"VERONA NDB"},
{"type":"VOR","hdg_t":92.8,"dist_nm":93.6,"freq":108.8,"lat":35.79011111,"lon":-83.05236111,"rng_nm":40,"alt_fmsl":4239,"id":"SOT","desc":"SNOWBIRD VORTAC"},
{"type":"NDB","hdg_t":309.6,"dist_nm":94.5,"freq":236,"lat":36.88000000,"lon":-86.48161111,"rng_nm":50,"alt_fmsl":0,"id":"BW","desc":"NOORA NDB"},
{"type":"VOR","hdg_t":311.6,"dist_nm":94.9,"freq":117.9,"lat":36.92875000,"lon":-86.44344444,"rng_nm":130,"alt_fmsl":565,"id":"BWG","desc":"BOWLING GREEN VORTAC"}
]
}
