{"success":true,"source":"xp2csv.pl","last_updated":"2013/11/08 14:53:21 UTC"
,"icao":"4WA1","name":"Browns Cape Horn","lat":45.60833333,"lon":-122.19694445,"rwys":1,"ils":0,"index":942563,"path":"w130n40/w123n45"
,"runways":[
{"len_m":611,"wid_m":18.29,"hdg":89,"surf":"Turf/grass","rwy1":"07","lat1":45.60828546,"lon1":-122.20086486,"rwy2":"25","lat2":45.60838120,"lon2":-122.19302404}
]
,"navaids":[
{"type":"NDB","hdg_t":250.2,"dist_nm":11.8,"freq":332,"lat":45.54105556,"lon":-122.46233333,"rng_nm":50,"alt_fmsl":0,"id":"LBH","desc":"LAKER (LOM/NDB) NDB"},
{"type":"VOR","hdg_t":267.2,"dist_nm":17.2,"freq":111.8,"lat":45.59369444,"lon":-122.60627778,"rng_nm":40,"alt_fmsl":23,"id":"PDX","desc":"PORTLAND VOR-DME"},
{"type":"SDME","hdg_t":266.2,"dist_nm":17.4,"freq":109.2,"lat":45.58863100,"lon":-122.61125300,"rng_nm":130,"alt_fmsl":22,"id":"CBU","desc":"COLUMBIA TACAN"},
{"type":"VOR","hdg_t":296.9,"dist_nm":18.5,"freq":116.6,"lat":45.74780556,"lon":-122.59152778,"rng_nm":130,"alt_fmsl":253,"id":"BTG","desc":"BATTLEGROUND VORTAC"},
{"type":"NDB","hdg_t":231.3,"dist_nm":31,"freq":366,"lat":45.28339200,"lon":-122.77036400,"rng_nm":25,"alt_fmsl":157,"id":"PLV","desc":"PRAHL NDB"},
{"type":"NDB","hdg_t":272.4,"dist_nm":35.7,"freq":356,"lat":45.63027778,"lon":-123.04580556,"rng_nm":50,"alt_fmsl":0,"id":"PND","desc":"BANKS NDB"},
{"type":"VOR","hdg_t":245.3,"dist_nm":36.3,"freq":117.4,"lat":45.35322222,"lon":-122.97816667,"rng_nm":130,"alt_fmsl":1440,"id":"UBG","desc":"NEWBERG VOR-DME"},
{"type":"NDB","hdg_t":238.5,"dist_nm":41.3,"freq":383,"lat":45.24613100,"lon":-123.02973600,"rng_nm":50,"alt_fmsl":159,"id":"MM","desc":"MINNE NDB"},
{"type":"NDB","hdg_t":317.8,"dist_nm":44.4,"freq":256,"lat":46.15547222,"lon":-122.91263889,"rng_nm":50,"alt_fmsl":0,"id":"LSO","desc":"KELSO NDB"},
{"type":"VOR","hdg_t":81.8,"dist_nm":46.5,"freq":112.3,"lat":45.71355556,"lon":-121.10083333,"rng_nm":130,"alt_fmsl":3220,"id":"LTJ","desc":"KLICKITAT VOR-DME"},
{"type":"NDB","hdg_t":215.2,"dist_nm":55.7,"freq":266,"lat":44.84744444,"lon":-122.95102778,"rng_nm":50,"alt_fmsl":0,"id":"SL","desc":"TURNO NDB"},
{"type":"NDB","hdg_t":299.1,"dist_nm":66.4,"freq":201,"lat":46.13952778,"lon":-123.58730556,"rng_nm":50,"alt_fmsl":0,"id":"PEN","desc":"KARPEN NDB"},
{"type":"NDB","hdg_t":217.7,"dist_nm":75.1,"freq":225,"lat":44.61358333,"lon":-123.27066667,"rng_nm":50,"alt_fmsl":0,"id":"LWG","desc":"LEWISBURG NDB"},
{"type":"VOR","hdg_t":295.8,"dist_nm":77.9,"freq":114,"lat":46.16169444,"lon":-123.88036111,"rng_nm":40,"alt_fmsl":10,"id":"AST","desc":"ASTORIA VOR-DME"},
{"type":"VOR","hdg_t":215.4,"dist_nm":81.2,"freq":115.4,"lat":44.49958333,"lon":-123.29366667,"rng_nm":130,"alt_fmsl":241,"id":"CVO","desc":"CORVALLIS VOR-DME"},
{"type":"NDB","hdg_t":350,"dist_nm":85.3,"freq":328,"lat":47.00797222,"lon":-122.55641667,"rng_nm":50,"alt_fmsl":0,"id":"LAC","desc":"LACOMAS NDB"},
{"type":"VOR","hdg_t":340.5,"dist_nm":86.9,"freq":113.4,"lat":46.97163889,"lon":-122.90183333,"rng_nm":130,"alt_fmsl":200,"id":"OLM","desc":"OLYMPIA VORTAC"},
{"type":"VOR","hdg_t":154.5,"dist_nm":89.8,"freq":117.6,"lat":44.25275000,"lon":-121.30352778,"rng_nm":130,"alt_fmsl":4101,"id":"DSD","desc":"DESCHUTES VORTAC"},
{"type":"NDB","hdg_t":146.8,"dist_nm":92.7,"freq":411,"lat":44.30797222,"lon":-121.01894444,"rng_nm":50,"alt_fmsl":0,"id":"RD","desc":"BODEY NDB"},
{"type":"VOR","hdg_t":352.9,"dist_nm":93.1,"freq":109.6,"lat":47.14766667,"lon":-122.47502778,"rng_nm":25,"alt_fmsl":287,"id":"TCM","desc":"MCCHORD VORTAC"},
{"type":"VOR","hdg_t":51,"dist_nm":93.2,"freq":116,"lat":46.57025000,"lon":-120.44463889,"rng_nm":130,"alt_fmsl":984,"id":"YKM","desc":"YAKIMA VORTAC"},
{"type":"NDB","hdg_t":53.5,"dist_nm":94,"freq":371,"lat":46.52563889,"lon":-120.37219444,"rng_nm":50,"alt_fmsl":0,"id":"YK","desc":"DONNY NDB"},
{"type":"NDB","hdg_t":349.7,"dist_nm":94,"freq":216,"lat":47.15030556,"lon":-122.60463889,"rng_nm":50,"alt_fmsl":0,"id":"GRF","desc":"GRAYE NDB"},
{"type":"NDB","hdg_t":235.4,"dist_nm":97,"freq":350,"lat":44.67600000,"lon":-124.06511111,"rng_nm":50,"alt_fmsl":0,"id":"ON","desc":"AGGET NDB"},
{"type":"VOR","hdg_t":206.4,"dist_nm":99.4,"freq":112.9,"lat":44.12088889,"lon":-123.22283333,"rng_nm":130,"alt_fmsl":364,"id":"EUG","desc":"EUGENE VORTAC"}
]
}
