{"success":true,"source":"xp2csv.pl","last_updated":"2013/11/08 14:53:21 UTC"
,"icao":"4X6","name":"Robert Chris Mc Intosh","lat":34.84620083,"lon":-92.17209167,"rwys":1,"ils":0,"index":1433395,"path":"w100n30/w093n34"
,"runways":[
{"len_m":1217,"wid_m":30.48,"hdg":184,"surf":"Turf/grass","rwy1":"18","lat1":34.85167343,"lon1":-92.17162538,"rwy2":"36","lat2":34.84072823,"lon2":-92.17255796}
]
,"navaids":[
{"type":"SDME","hdg_t":9.3,"dist_nm":4.3,"freq":109.2,"lat":34.91806700,"lon":-92.15766700,"rng_nm":25,"alt_fmsl":328,"id":"LRF","desc":"JACKSONVILLE TACAN"},
{"type":"NDB","hdg_t":49.7,"dist_nm":9.8,"freq":290,"lat":34.95250000,"lon":-92.01950000,"rng_nm":50,"alt_fmsl":0,"id":"TYV","desc":"TONEYVILLE NDB"},
{"type":"VOR","hdg_t":182.3,"dist_nm":10.1,"freq":113.9,"lat":34.67766667,"lon":-92.18052778,"rng_nm":130,"alt_fmsl":240,"id":"LIT","desc":"LITTLE ROCK VORTAC"},
{"type":"NDB","hdg_t":211.8,"dist_nm":12.4,"freq":353,"lat":34.66900000,"lon":-92.30547222,"rng_nm":50,"alt_fmsl":0,"id":"LI","desc":"LASKY NDB"},
{"type":"NDB","hdg_t":318.6,"dist_nm":18.9,"freq":302,"lat":35.08397222,"lon":-92.42683333,"rng_nm":50,"alt_fmsl":0,"id":"CWS","desc":"CONWAY NDB"},
{"type":"NDB","hdg_t":110.6,"dist_nm":30.7,"freq":269,"lat":34.66377778,"lon":-91.59044444,"rng_nm":50,"alt_fmsl":0,"id":"SGT","desc":"STUTTGART NDB"},
{"type":"NDB","hdg_t":44.5,"dist_nm":30.8,"freq":323,"lat":35.21203100,"lon":-91.73263600,"rng_nm":25,"alt_fmsl":260,"id":"SRC","desc":"SEARCY NDB"},
{"type":"NDB","hdg_t":303.5,"dist_nm":31.8,"freq":208,"lat":35.13925000,"lon":-92.71238600,"rng_nm":25,"alt_fmsl":320,"id":"BDQ","desc":"BRIDGE NDB"},
{"type":"NDB","hdg_t":124.7,"dist_nm":35.6,"freq":338,"lat":34.50580556,"lon":-91.58177778,"rng_nm":50,"alt_fmsl":0,"id":"TT","desc":"STUTT NDB"},
{"type":"VOR","hdg_t":161.1,"dist_nm":37.9,"freq":116,"lat":34.24675000,"lon":-91.92616667,"rng_nm":40,"alt_fmsl":210,"id":"PBF","desc":"PINE BLUFF VOR-DME"},
{"type":"NDB","hdg_t":293.9,"dist_nm":40.5,"freq":410,"lat":35.11869444,"lon":-92.92516667,"rng_nm":50,"alt_fmsl":0,"id":"MPJ","desc":"MORRILTON NDB"},
{"type":"NDB","hdg_t":11.1,"dist_nm":40.8,"freq":256,"lat":35.51432800,"lon":-92.01106500,"rng_nm":25,"alt_fmsl":625,"id":"HBZ","desc":"HEBER SPRINGS NDB"},
{"type":"NDB","hdg_t":223.7,"dist_nm":42.4,"freq":215,"lat":34.33342800,"lon":-92.76238900,"rng_nm":25,"alt_fmsl":535,"id":"MVQ","desc":"MALVERN NDB"},
{"type":"VOR","hdg_t":244.4,"dist_nm":50.5,"freq":110,"lat":34.47858333,"lon":-93.09061111,"rng_nm":40,"alt_fmsl":528,"id":"HOT","desc":"HOT SPRINGS VOR-DME"},
{"type":"NDB","hdg_t":298.7,"dist_nm":51.6,"freq":379,"lat":35.25708333,"lon":-93.09461111,"rng_nm":50,"alt_fmsl":0,"id":"RUE","desc":"RUSSELLVILLE NDB"},
{"type":"NDB","hdg_t":19.6,"dist_nm":54.5,"freq":335,"lat":35.70322222,"lon":-91.79769444,"rng_nm":50,"alt_fmsl":0,"id":"BV","desc":"ALMND NDB"},
{"type":"NDB","hdg_t":243.5,"dist_nm":56.4,"freq":385,"lat":34.42261111,"lon":-93.18963889,"rng_nm":50,"alt_fmsl":0,"id":"HO","desc":"HOSSY NDB"},
{"type":"NDB","hdg_t":3.5,"dist_nm":61.3,"freq":348,"lat":35.86757500,"lon":-92.09459700,"rng_nm":25,"alt_fmsl":783,"id":"VLX","desc":"WILCOX NDB"},
{"type":"NDB","hdg_t":150.9,"dist_nm":65.8,"freq":305,"lat":33.88440800,"lon":-91.53151400,"rng_nm":25,"alt_fmsl":163,"id":"DZM","desc":"DUMAS NDB"},
{"type":"NDB","hdg_t":224.6,"dist_nm":66.2,"freq":275,"lat":34.05561111,"lon":-93.10519444,"rng_nm":50,"alt_fmsl":0,"id":"ADF","desc":"ARKADELPHIA NDB"},
{"type":"NDB","hdg_t":45.3,"dist_nm":68.1,"freq":400,"lat":35.64202200,"lon":-91.18068100,"rng_nm":25,"alt_fmsl":237,"id":"EWP","desc":"NEWPORT NDB"},
{"type":"NDB","hdg_t":301.5,"dist_nm":71.9,"freq":201,"lat":35.46925000,"lon":-93.42352778,"rng_nm":50,"alt_fmsl":0,"id":"CZE","desc":"CLARKSVILLE NDB"},
{"type":"NDB","hdg_t":102.1,"dist_nm":75.8,"freq":251,"lat":34.57121100,"lon":-90.67594200,"rng_nm":25,"alt_fmsl":0,"id":"HEE","desc":"THOMPSON ROBBINS NDB"},
{"type":"VOR","hdg_t":101.9,"dist_nm":75.8,"freq":109.6,"lat":34.57505556,"lon":-90.67438889,"rng_nm":40,"alt_fmsl":241,"id":"UJM","desc":"MARVELL VOR-DME"},
{"type":"NDB","hdg_t":202,"dist_nm":79.5,"freq":335,"lat":33.61353100,"lon":-92.76752200,"rng_nm":25,"alt_fmsl":0,"id":"CDH","desc":"CAMDEN NDB"},
{"type":"VOR","hdg_t":163.4,"dist_nm":80.1,"freq":111.6,"lat":33.56205556,"lon":-91.71569444,"rng_nm":40,"alt_fmsl":280,"id":"MON","desc":"MONTICELLO VOR-DME"},
{"type":"VOR","hdg_t":350.9,"dist_nm":88.1,"freq":112.8,"lat":36.29963889,"lon":-92.45838889,"rng_nm":40,"alt_fmsl":780,"id":"FLP","desc":"FLIPPIN VOR-DME"},
{"type":"VOR","hdg_t":69.7,"dist_nm":88.6,"freq":113,"lat":35.34702778,"lon":-90.47816667,"rng_nm":40,"alt_fmsl":211,"id":"GQE","desc":"GILMORE VOR-DME"},
{"type":"NDB","hdg_t":131.2,"dist_nm":93.6,"freq":272,"lat":33.80705556,"lon":-90.76261111,"rng_nm":50,"alt_fmsl":0,"id":"RNV","desc":"RENOVA NDB"},
{"type":"NDB","hdg_t":329.2,"dist_nm":93.9,"freq":395,"lat":36.19105556,"lon":-93.16019444,"rng_nm":50,"alt_fmsl":0,"id":"HR","desc":"BAKKY NDB"},
{"type":"NDB","hdg_t":259.4,"dist_nm":95.8,"freq":352,"lat":34.53919444,"lon":-94.07263889,"rng_nm":50,"alt_fmsl":0,"id":"VM","desc":"FENCH NDB"},
{"type":"NDB","hdg_t":259.4,"dist_nm":95.8,"freq":259,"lat":34.53910800,"lon":-94.07298100,"rng_nm":25,"alt_fmsl":0,"id":"VM","desc":"MEANA NDB"},
{"type":"VOR","hdg_t":37.9,"dist_nm":96.4,"freq":114.5,"lat":36.11002778,"lon":-90.95369444,"rng_nm":130,"alt_fmsl":302,"id":"ARG","desc":"WALNUT RIDGE VORTAC"},
{"type":"NDB","hdg_t":196.6,"dist_nm":97.4,"freq":418,"lat":33.28605556,"lon":-92.72813889,"rng_nm":50,"alt_fmsl":0,"id":"EL","desc":"LADOS NDB"},
{"type":"VOR","hdg_t":142.8,"dist_nm":98.8,"freq":110.2,"lat":33.52352778,"lon":-90.98294444,"rng_nm":40,"alt_fmsl":130,"id":"GLH","desc":"GREENVILLE VOR-DME"},
{"type":"VOR","hdg_t":51.1,"dist_nm":99.1,"freq":108.6,"lat":35.87491667,"lon":-90.58850000,"rng_nm":25,"alt_fmsl":247,"id":"JBR","desc":"JONESBORO VOR-DME"},
{"type":"VOR","hdg_t":196.8,"dist_nm":99.4,"freq":115.5,"lat":33.25616667,"lon":-92.74394444,"rng_nm":130,"alt_fmsl":230,"id":"ELD","desc":"EL DORADO VORTAC"},
{"type":"NDB","hdg_t":227.8,"dist_nm":99.8,"freq":362,"lat":33.71811111,"lon":-93.65077778,"rng_nm":50,"alt_fmsl":0,"id":"HPC","desc":"HOPE NDB"}
]
}
