{"success":true,"source":"xp2csv.pl","last_updated":"2013/11/08 14:53:21 UTC"
,"icao":"51M","name":"Oscoda County","lat":44.68056888,"lon":-84.12500556,"rwys":1,"ils":0,"index":1565099,"path":"w090n40/w085n44"
,"runways":[
{"len_m":856,"wid_m":30.48,"hdg":85,"surf":"Turf/grass","rwy1":"09","lat1":44.68023419,"lon1":-84.13038581,"rwy2":"27","lat2":44.68090357,"lon2":-84.11962531}
]
,"navaids":[
{"type":"VOR","hdg_t":270.3,"dist_nm":25.8,"freq":109.8,"lat":44.68163889,"lon":-84.72894444,"rng_nm":25,"alt_fmsl":0,"id":"CGG","desc":"GRAYLING VOR"},
{"type":"NDB","hdg_t":176,"dist_nm":25.9,"freq":236,"lat":44.24863100,"lon":-84.08388600,"rng_nm":25,"alt_fmsl":800,"id":"BHW","desc":"HARDWOOD NDB"},
{"type":"VOR","hdg_t":185.5,"dist_nm":26.3,"freq":113.2,"lat":44.24291667,"lon":-84.18377778,"rng_nm":25,"alt_fmsl":884,"id":"BXZ","desc":"PEACH LAKE VOR-DME"},
{"type":"NDB","hdg_t":54.9,"dist_nm":29.4,"freq":206,"lat":44.96077778,"lon":-83.56008333,"rng_nm":50,"alt_fmsl":0,"id":"AP","desc":"FELPS NDB"},
{"type":"VOR","hdg_t":230.4,"dist_nm":30.1,"freq":111.6,"lat":44.35888889,"lon":-84.66572222,"rng_nm":25,"alt_fmsl":1145,"id":"HTL","desc":"HOUGHTON LAKE VOR-DME"},
{"type":"NDB","hdg_t":278.1,"dist_nm":30.3,"freq":359,"lat":44.74991667,"lon":-84.82827778,"rng_nm":50,"alt_fmsl":0,"id":"GYG","desc":"GRAYLING NDB"},
{"type":"VOR","hdg_t":309,"dist_nm":31.7,"freq":109.2,"lat":45.01250000,"lon":-84.70427778,"rng_nm":40,"alt_fmsl":1318,"id":"GLR","desc":"GAYLORD VOR-DME"},
{"type":"VOR","hdg_t":44.9,"dist_nm":34.2,"freq":108.8,"lat":45.08277778,"lon":-83.55700000,"rng_nm":40,"alt_fmsl":677,"id":"APN","desc":"ALPENA VORTAC"},
{"type":"VOR","hdg_t":113.6,"dist_nm":34.2,"freq":116.1,"lat":44.44913889,"lon":-83.39427778,"rng_nm":130,"alt_fmsl":625,"id":"ASP","desc":"AU SABLE VOR-DME"},
{"type":"NDB","hdg_t":304.7,"dist_nm":35.3,"freq":375,"lat":45.01455556,"lon":-84.80797222,"rng_nm":50,"alt_fmsl":0,"id":"GL","desc":"BANGU NDB"},
{"type":"NDB","hdg_t":310.9,"dist_nm":44.7,"freq":263,"lat":45.16670000,"lon":-84.92192200,"rng_nm":25,"alt_fmsl":707,"id":"BFA","desc":"BOYNE FALLS NDB"},
{"type":"NDB","hdg_t":199.6,"dist_nm":45.2,"freq":209,"lat":43.97019444,"lon":-84.47516667,"rng_nm":50,"alt_fmsl":0,"id":"GDW","desc":"WIGGINS NDB"},
{"type":"NDB","hdg_t":16.6,"dist_nm":45.3,"freq":215,"lat":45.40425000,"lon":-83.81844444,"rng_nm":50,"alt_fmsl":0,"id":"PZQ","desc":"ROGERS CITY NDB"},
{"type":"NDB","hdg_t":285.8,"dist_nm":49.4,"freq":251,"lat":44.89938889,"lon":-85.23966667,"rng_nm":50,"alt_fmsl":0,"id":"CXK","desc":"CLAM LAKE NDB"},
{"type":"NDB","hdg_t":273.7,"dist_nm":55.9,"freq":365,"lat":44.73450000,"lon":-85.42927778,"rng_nm":50,"alt_fmsl":0,"id":"TV","desc":"GWENN NDB"},
{"type":"VOR","hdg_t":269.7,"dist_nm":61,"freq":114.6,"lat":44.66791667,"lon":-85.55002778,"rng_nm":130,"alt_fmsl":912,"id":"TVC","desc":"TRAVERSE CITY VORTAC"},
{"type":"NDB","hdg_t":307.8,"dist_nm":61.3,"freq":392,"lat":45.30180556,"lon":-85.27002778,"rng_nm":50,"alt_fmsl":0,"id":"CVX","desc":"CHARLEVOIX NDB"},
{"type":"VOR","hdg_t":338.3,"dist_nm":61.4,"freq":111.8,"lat":45.63063889,"lon":-84.66411111,"rng_nm":40,"alt_fmsl":840,"id":"PLN","desc":"PELLSTON VORTAC"},
{"type":"NDB","hdg_t":246.9,"dist_nm":66.6,"freq":336,"lat":44.23708333,"lon":-85.54736111,"rng_nm":50,"alt_fmsl":0,"id":"MA","desc":"WEXOR NDB"},
{"type":"VOR","hdg_t":202.8,"dist_nm":68.7,"freq":110.6,"lat":43.62283333,"lon":-84.73727778,"rng_nm":40,"alt_fmsl":752,"id":"MOP","desc":"MOUNT PLEASANT VOR-DME"},
{"type":"VOR","hdg_t":178.2,"dist_nm":68.9,"freq":112.9,"lat":43.53166667,"lon":-84.07730556,"rng_nm":40,"alt_fmsl":663,"id":"MBS","desc":"SAGINAW VOR-DME"},
{"type":"VOR","hdg_t":137.1,"dist_nm":72.9,"freq":108.2,"lat":43.78366667,"lon":-82.98319444,"rng_nm":25,"alt_fmsl":766,"id":"BAX","desc":"BAD AXE VOR-DME"},
{"type":"NDB","hdg_t":181.8,"dist_nm":73.1,"freq":257,"lat":43.46150000,"lon":-84.17983333,"rng_nm":50,"alt_fmsl":0,"id":"MB","desc":"OLSTE NDB"},
{"type":"NDB","hdg_t":315.4,"dist_nm":85.9,"freq":382,"lat":45.69333333,"lon":-85.55863889,"rng_nm":50,"alt_fmsl":0,"id":"SJX","desc":"ST JAMES NDB"},
{"type":"NDB","hdg_t":254.8,"dist_nm":90.1,"freq":254,"lat":44.27075000,"lon":-86.14286111,"rng_nm":50,"alt_fmsl":0,"id":"MB","desc":"JEPOT NDB"},
{"type":"VOR","hdg_t":255.6,"dist_nm":94.7,"freq":111.4,"lat":44.27063889,"lon":-86.25405556,"rng_nm":40,"alt_fmsl":620,"id":"MBL","desc":"MANISTEE VOR-DME"},
{"type":"VOR","hdg_t":226.5,"dist_nm":95.5,"freq":117.6,"lat":43.57486111,"lon":-85.71616667,"rng_nm":40,"alt_fmsl":920,"id":"HIC","desc":"WHITE CLOUD VOR-DME"},
{"type":"NDB","hdg_t":39.9,"dist_nm":98.4,"freq":245,"lat":45.92833333,"lon":-82.61527778,"rng_nm":50,"alt_fmsl":0,"id":"YZE","desc":"GORE BAY NDB"}
]
}
