{"success":true,"source":"xp2csv.pl","last_updated":"2013/11/08 14:53:21 UTC"
,"icao":"53OH","name":"Charloe","lat":41.13449361,"lon":-84.45078195,"rwys":1,"ils":0,"index":1564874,"path":"w090n40/w085n41"
,"runways":[
{"len_m":1039,"wid_m":30.48,"hdg":86,"surf":"Turf/grass","rwy1":"09","lat1":41.13416833,"lon1":-84.45695814,"rwy2":"27","lat2":41.13481889,"lon2":-84.44460576}
]
,"navaids":[
{"type":"NDB","hdg_t":4.9,"dist_nm":11.9,"freq":246,"lat":41.33369444,"lon":-84.42800000,"rng_nm":50,"alt_fmsl":0,"id":"DFI","desc":"DEFIANCE NDB"},
{"type":"NDB","hdg_t":204.4,"dist_nm":17.9,"freq":411,"lat":40.86255556,"lon":-84.61383333,"rng_nm":50,"alt_fmsl":0,"id":"VFU","desc":"STANLEY NDB"},
{"type":"NDB","hdg_t":358.1,"dist_nm":20.6,"freq":260,"lat":41.47886111,"lon":-84.46591667,"rng_nm":50,"alt_fmsl":0,"id":"BYN","desc":"BRYAN NDB"},
{"type":"NDB","hdg_t":105.8,"dist_nm":22.4,"freq":233,"lat":41.03116400,"lon":-83.97522200,"rng_nm":25,"alt_fmsl":760,"id":"PDR","desc":"OTTAWA NDB"},
{"type":"NDB","hdg_t":295.1,"dist_nm":24.6,"freq":227,"lat":41.30830556,"lon":-84.94419444,"rng_nm":50,"alt_fmsl":0,"id":"GW","desc":"SHENK NDB"},
{"type":"NDB","hdg_t":26.6,"dist_nm":31.8,"freq":375,"lat":41.60922222,"lon":-84.13272222,"rng_nm":50,"alt_fmsl":0,"id":"USE","desc":"FULTON NDB"},
{"type":"NDB","hdg_t":248.2,"dist_nm":32.7,"freq":251,"lat":40.93050000,"lon":-85.11963889,"rng_nm":50,"alt_fmsl":0,"id":"FW","desc":"HOAGY NDB"},
{"type":"VOR","hdg_t":108.5,"dist_nm":33.3,"freq":108.2,"lat":40.95533333,"lon":-83.75602778,"rng_nm":40,"alt_fmsl":820,"id":"FBC","desc":"FLAG CITY VORTAC"},
{"type":"VOR","hdg_t":139.2,"dist_nm":33.7,"freq":108.4,"lat":40.70711111,"lon":-83.96816667,"rng_nm":25,"alt_fmsl":0,"id":"AOH","desc":"ALLEN CO VOR"},
{"type":"NDB","hdg_t":43.4,"dist_nm":34.7,"freq":219,"lat":41.55347222,"lon":-83.92108333,"rng_nm":50,"alt_fmsl":0,"id":"TO","desc":"TOPHR NDB"},
{"type":"VOR","hdg_t":254.6,"dist_nm":34.7,"freq":117.8,"lat":40.97905556,"lon":-85.18805556,"rng_nm":130,"alt_fmsl":793,"id":"FWA","desc":"FORT WAYNE VORTAC"},
{"type":"NDB","hdg_t":100.5,"dist_nm":36.1,"freq":334,"lat":41.02111111,"lon":-83.66911111,"rng_nm":50,"alt_fmsl":0,"id":"BNR","desc":"BENTON RIDGE NDB"},
{"type":"VOR","hdg_t":101.1,"dist_nm":36.4,"freq":114.9,"lat":41.01488889,"lon":-83.66433333,"rng_nm":25,"alt_fmsl":0,"id":"MAH","desc":"MARATHON VOR"},
{"type":"NDB","hdg_t":187.5,"dist_nm":39.4,"freq":205,"lat":40.48200000,"lon":-84.56438889,"rng_nm":50,"alt_fmsl":0,"id":"CQA","desc":"LAKEFIELD NDB"},
{"type":"SDME","hdg_t":46.6,"dist_nm":40.3,"freq":112.5,"lat":41.59370300,"lon":-83.79936400,"rng_nm":25,"alt_fmsl":671,"id":"TOL","desc":"TOLEDO TACAN"},
{"type":"VOR","hdg_t":62.3,"dist_nm":41.3,"freq":113.1,"lat":41.45147222,"lon":-83.63869444,"rng_nm":40,"alt_fmsl":664,"id":"VWV","desc":"WATERVILLE VOR-DME"},
{"type":"NDB","hdg_t":316.7,"dist_nm":41.7,"freq":347,"lat":41.63977778,"lon":-85.08691667,"rng_nm":50,"alt_fmsl":0,"id":"ANQ","desc":"ANGOLA NDB"},
{"type":"NDB","hdg_t":20.7,"dist_nm":47.2,"freq":278,"lat":41.86997222,"lon":-84.07747222,"rng_nm":50,"alt_fmsl":0,"id":"ADG","desc":"ADRIAN NDB"},
{"type":"NDB","hdg_t":210.9,"dist_nm":47.4,"freq":257,"lat":40.45366400,"lon":-84.98355000,"rng_nm":25,"alt_fmsl":959,"id":"PLD","desc":"PORTLAND NDB"},
{"type":"NDB","hdg_t":85.7,"dist_nm":47.8,"freq":379,"lat":41.18933333,"lon":-83.39713889,"rng_nm":50,"alt_fmsl":0,"id":"FZI","desc":"FOSTORIA NDB"},
{"type":"VOR","hdg_t":278.4,"dist_nm":47.8,"freq":110.4,"lat":41.24691667,"lon":-85.49738889,"rng_nm":40,"alt_fmsl":0,"id":"OLK","desc":"WEBSTER LAKE VOR"},
{"type":"NDB","hdg_t":250.3,"dist_nm":48.9,"freq":417,"lat":40.85533333,"lon":-85.46355556,"rng_nm":50,"alt_fmsl":0,"id":"HHG","desc":"HUNTINGTON NDB"},
{"type":"NDB","hdg_t":138.3,"dist_nm":53.9,"freq":326,"lat":40.45894444,"lon":-83.66800000,"rng_nm":50,"alt_fmsl":0,"id":"RUV","desc":"RUSHSYLVANIA NDB"},
{"type":"VOR","hdg_t":159.7,"dist_nm":54,"freq":117.5,"lat":40.28780556,"lon":-84.04313889,"rng_nm":130,"alt_fmsl":1083,"id":"ROD","desc":"ROSEWOOD VORTAC"},
{"type":"NDB","hdg_t":183.4,"dist_nm":55.7,"freq":356,"lat":40.20616667,"lon":-84.52272222,"rng_nm":50,"alt_fmsl":0,"id":"VES","desc":"VERSAILLES NDB"},
{"type":"NDB","hdg_t":92,"dist_nm":56,"freq":269,"lat":41.09466667,"lon":-83.21497222,"rng_nm":50,"alt_fmsl":0,"id":"TII","desc":"TIFFIN NDB"},
{"type":"VOR","hdg_t":345.8,"dist_nm":57.4,"freq":111.2,"lat":42.06250000,"lon":-84.76513889,"rng_nm":40,"alt_fmsl":1040,"id":"LFD","desc":"LITCHFIELD VOR-DME"},
{"type":"NDB","hdg_t":25,"dist_nm":59.6,"freq":239,"lat":42.03394444,"lon":-83.88633333,"rng_nm":50,"alt_fmsl":0,"id":"TCU","desc":"TECUMSEH NDB"},
{"type":"NDB","hdg_t":312.8,"dist_nm":60.1,"freq":382,"lat":41.81313889,"lon":-85.43377778,"rng_nm":50,"alt_fmsl":0,"id":"IRS","desc":"STURGIS NDB"},
{"type":"NDB","hdg_t":250.4,"dist_nm":65.1,"freq":329,"lat":40.76365600,"lon":-85.79770600,"rng_nm":25,"alt_fmsl":792,"id":"IWH","desc":"WABASH NDB"},
{"type":"VOR","hdg_t":177.8,"dist_nm":67,"freq":114.5,"lat":40.01641667,"lon":-84.39686111,"rng_nm":40,"alt_fmsl":990,"id":"DQN","desc":"DAYTON VOR-DME"},
{"type":"VOR","hdg_t":359.7,"dist_nm":67.4,"freq":109.6,"lat":42.25925000,"lon":-84.45855556,"rng_nm":40,"alt_fmsl":995,"id":"JXN","desc":"JACKSON VOR-DME"},
{"type":"VOR","hdg_t":235.9,"dist_nm":67.8,"freq":108.6,"lat":40.49333333,"lon":-85.67925000,"rng_nm":40,"alt_fmsl":850,"id":"MZZ","desc":"MARION VOR-DME"},
{"type":"VOR","hdg_t":218.9,"dist_nm":68.9,"freq":114.4,"lat":40.23730556,"lon":-85.39402778,"rng_nm":40,"alt_fmsl":935,"id":"MIE","desc":"MUNCIE VOR-DME"},
{"type":"NDB","hdg_t":215,"dist_nm":69.6,"freq":365,"lat":40.18086111,"lon":-85.32091667,"rng_nm":50,"alt_fmsl":0,"id":"JN","desc":"BALLL NDB"},
{"type":"VOR","hdg_t":115.7,"dist_nm":70.3,"freq":109.8,"lat":40.61658333,"lon":-83.06383333,"rng_nm":25,"alt_fmsl":0,"id":"BUD","desc":"BUCKEYE VOR"},
{"type":"VOR","hdg_t":38.8,"dist_nm":70.7,"freq":115.7,"lat":42.04802778,"lon":-83.45758333,"rng_nm":130,"alt_fmsl":629,"id":"CRL","desc":"CARLETON VORTAC"},
{"type":"NDB","hdg_t":3,"dist_nm":71,"freq":212,"lat":42.31783333,"lon":-84.36555556,"rng_nm":50,"alt_fmsl":0,"id":"JX","desc":"JAKSO NDB"},
{"type":"NDB","hdg_t":314.2,"dist_nm":71.2,"freq":407,"lat":41.95838889,"lon":-85.59166667,"rng_nm":50,"alt_fmsl":0,"id":"HAI","desc":"THREE RIVERS NDB"},
{"type":"NDB","hdg_t":30.6,"dist_nm":72.6,"freq":359,"lat":42.17422222,"lon":-83.62155556,"rng_nm":50,"alt_fmsl":0,"id":"YI","desc":"YIPPS NDB"},
{"type":"NDB","hdg_t":136.9,"dist_nm":74,"freq":403,"lat":40.22672800,"lon":-83.34961400,"rng_nm":25,"alt_fmsl":997,"id":"MRT","desc":"MARYSVILLE NDB"},
{"type":"NDB","hdg_t":37.4,"dist_nm":74.8,"freq":388,"lat":42.12011111,"lon":-83.43172222,"rng_nm":50,"alt_fmsl":0,"id":"DT","desc":"REVUP NDB"},
{"type":"VOR","hdg_t":288.7,"dist_nm":75,"freq":113.7,"lat":41.52516667,"lon":-86.02794444,"rng_nm":130,"alt_fmsl":852,"id":"GSH","desc":"GOSHEN VORTAC"},
{"type":"NDB","hdg_t":71.6,"dist_nm":75.1,"freq":423,"lat":41.51858333,"lon":-82.86872222,"rng_nm":50,"alt_fmsl":0,"id":"PCW","desc":"PORT CLINTON NDB"},
{"type":"NDB","hdg_t":321.2,"dist_nm":76.9,"freq":371,"lat":42.13105556,"lon":-85.52975000,"rng_nm":50,"alt_fmsl":0,"id":"AZ","desc":"AUSTN NDB"},
{"type":"NDB","hdg_t":176,"dist_nm":77.3,"freq":315,"lat":39.84702778,"lon":-84.33480556,"rng_nm":50,"alt_fmsl":0,"id":"AT","desc":"BRUNY NDB"},
{"type":"VOR","hdg_t":333.2,"dist_nm":79.1,"freq":109.4,"lat":42.30980556,"lon":-85.25233333,"rng_nm":25,"alt_fmsl":922,"id":"BTL","desc":"BATTLE CREEK VORTAC"},
{"type":"NDB","hdg_t":129.4,"dist_nm":80.1,"freq":215,"lat":40.27688889,"lon":-83.10372222,"rng_nm":50,"alt_fmsl":0,"id":"DLZ","desc":"DELAWARE NDB"},
{"type":"NDB","hdg_t":217.5,"dist_nm":80.1,"freq":394,"lat":40.06952778,"lon":-85.51069444,"rng_nm":50,"alt_fmsl":0,"id":"AI","desc":"VIDEO NDB"},
{"type":"NDB","hdg_t":336.1,"dist_nm":80.6,"freq":272,"lat":42.36200000,"lon":-85.18450000,"rng_nm":50,"alt_fmsl":0,"id":"BT","desc":"BATOL NDB"},
{"type":"VOR","hdg_t":36.6,"dist_nm":80.9,"freq":113.4,"lat":42.21313889,"lon":-83.36666667,"rng_nm":130,"alt_fmsl":638,"id":"DXO","desc":"DETROIT VOR-DME"},
{"type":"SDME","hdg_t":166.9,"dist_nm":80.9,"freq":115.2,"lat":39.81897800,"lon":-84.05548100,"rng_nm":25,"alt_fmsl":804,"id":"FFO","desc":"PATTERSON TACAN"},
{"type":"NDB","hdg_t":157.6,"dist_nm":81.6,"freq":341,"lat":39.87363889,"lon":-83.77958333,"rng_nm":50,"alt_fmsl":0,"id":"CCJ","desc":"CLARK CO NDB"},
{"type":"VOR","hdg_t":244.1,"dist_nm":81.7,"freq":113.5,"lat":40.52777778,"lon":-86.05800000,"rng_nm":130,"alt_fmsl":827,"id":"OKK","desc":"KOKOMO VORTAC"},
{"type":"NDB","hdg_t":44.7,"dist_nm":82.2,"freq":419,"lat":42.10111111,"lon":-83.15297222,"rng_nm":50,"alt_fmsl":0,"id":"RYS","desc":"GROSSE ILE NDB"},
{"type":"VOR","hdg_t":323.5,"dist_nm":82.6,"freq":109,"lat":42.23700000,"lon":-85.55316667,"rng_nm":40,"alt_fmsl":870,"id":"AZO","desc":"KALAMAZOO VOR-DME"},
{"type":"VOR","hdg_t":160.1,"dist_nm":82.6,"freq":113.2,"lat":39.83652778,"lon":-83.84497222,"rng_nm":25,"alt_fmsl":1047,"id":"SGH","desc":"SPRINGFIELD VOR-DME"},
{"type":"VOR","hdg_t":249.7,"dist_nm":82.7,"freq":108.45,"lat":40.64491667,"lon":-86.15172222,"rng_nm":25,"alt_fmsl":808,"id":"GUS","desc":"GRISSOM VORTAC"},
{"type":"VOR","hdg_t":76.9,"dist_nm":83.2,"freq":109.2,"lat":41.43447222,"lon":-82.65480556,"rng_nm":40,"alt_fmsl":580,"id":"SKY","desc":"SANDUSKY VOR-DME"},
{"type":"VOR","hdg_t":192.2,"dist_nm":84.5,"freq":110.6,"lat":39.75502778,"lon":-84.83886111,"rng_nm":40,"alt_fmsl":1135,"id":"RID","desc":"RICHMOND VORTAC"},
{"type":"NDB","hdg_t":147.6,"dist_nm":85,"freq":263,"lat":39.93150000,"lon":-83.46397222,"rng_nm":50,"alt_fmsl":0,"id":"UYF","desc":"LONDON NDB"},
{"type":"NDB","hdg_t":208.1,"dist_nm":85,"freq":385,"lat":39.87997222,"lon":-85.31886111,"rng_nm":50,"alt_fmsl":0,"id":"UWL","desc":"NEW CASTLE NDB"},
{"type":"NDB","hdg_t":137.6,"dist_nm":85.5,"freq":515,"lat":40.07363889,"lon":-83.19805556,"rng_nm":50,"alt_fmsl":0,"id":"OS","desc":"FULER NDB"},
{"type":"VOR","hdg_t":26.4,"dist_nm":85.5,"freq":114.3,"lat":42.40886111,"lon":-83.59419444,"rng_nm":40,"alt_fmsl":950,"id":"SVM","desc":"SALEM VORTAC"},
{"type":"NDB","hdg_t":40.3,"dist_nm":85.9,"freq":223,"lat":42.22000000,"lon":-83.20330556,"rng_nm":50,"alt_fmsl":0,"id":"DM","desc":"SPENC NDB"},
{"type":"VOR","hdg_t":100,"dist_nm":85.9,"freq":108.8,"lat":40.86861111,"lon":-82.59097222,"rng_nm":40,"alt_fmsl":1210,"id":"MFD","desc":"MANSFIELD VORTAC"},
{"type":"NDB","hdg_t":293.8,"dist_nm":86.8,"freq":341,"lat":41.70561111,"lon":-86.21902778,"rng_nm":50,"alt_fmsl":0,"id":"SB","desc":"MISHA NDB"},
{"type":"NDB","hdg_t":201.1,"dist_nm":87.1,"freq":227,"lat":39.77711111,"lon":-85.12988889,"rng_nm":50,"alt_fmsl":0,"id":"SQ","desc":"PNTHR NDB"},
{"type":"NDB","hdg_t":273.8,"dist_nm":87.7,"freq":391,"lat":41.21672222,"lon":-86.38472222,"rng_nm":50,"alt_fmsl":0,"id":"CPB","desc":"CULVER NDB"},
{"type":"NDB","hdg_t":164.1,"dist_nm":88.3,"freq":395,"lat":39.71506100,"lon":-83.92993100,"rng_nm":25,"alt_fmsl":970,"id":"XEN","desc":"XENIA NDB"},
{"type":"NDB","hdg_t":63.7,"dist_nm":89.1,"freq":283,"lat":41.77944444,"lon":-82.67000000,"rng_nm":50,"alt_fmsl":0,"id":"PT","desc":"PELEE ISLAND NDB"},
{"type":"NDB","hdg_t":254.3,"dist_nm":91,"freq":263,"lat":40.70899200,"lon":-86.37359400,"rng_nm":25,"alt_fmsl":732,"id":"GGP","desc":"LOGANSPORT NDB"},
{"type":"NDB","hdg_t":200.2,"dist_nm":91.6,"freq":275,"lat":39.69756100,"lon":-85.13438900,"rng_nm":25,"alt_fmsl":867,"id":"CEV","desc":"CONNERSVILLE NDB"},
{"type":"NDB","hdg_t":43,"dist_nm":91.6,"freq":398,"lat":42.24388900,"lon":-83.04750000,"rng_nm":25,"alt_fmsl":0,"id":"ZQG","desc":"LAUREL NDB"},
{"type":"NDB","hdg_t":12.9,"dist_nm":92.3,"freq":243,"lat":42.63341667,"lon":-83.98252778,"rng_nm":50,"alt_fmsl":0,"id":"OZW","desc":"HOWELL NDB"},
{"type":"VOR","hdg_t":294.9,"dist_nm":92.4,"freq":115.4,"lat":41.76861111,"lon":-86.31847222,"rng_nm":130,"alt_fmsl":804,"id":"GIJ","desc":"GIPPER VORTAC"},
{"type":"NDB","hdg_t":176.3,"dist_nm":93.4,"freq":223,"lat":39.57825000,"lon":-84.32347222,"rng_nm":50,"alt_fmsl":0,"id":"MW","desc":"ONIDA NDB"},
{"type":"NDB","hdg_t":135.5,"dist_nm":93.6,"freq":272,"lat":40.01013889,"lon":-83.02897222,"rng_nm":50,"alt_fmsl":0,"id":"CHC","desc":"GRENS NDB"},
{"type":"NDB","hdg_t":135.5,"dist_nm":93.6,"freq":272,"lat":40.01013889,"lon":-83.02897222,"rng_nm":50,"alt_fmsl":0,"id":"CB","desc":"GRENS NDB"},
{"type":"NDB","hdg_t":102.9,"dist_nm":93.8,"freq":372,"lat":40.76633333,"lon":-82.44513889,"rng_nm":50,"alt_fmsl":0,"id":"MF","desc":"MANNS NDB"},
{"type":"VOR","hdg_t":353.4,"dist_nm":95.5,"freq":110.8,"lat":42.71738889,"lon":-84.69750000,"rng_nm":40,"alt_fmsl":888,"id":"LAN","desc":"LANSING VORTAC"},
{"type":"VOR","hdg_t":309.3,"dist_nm":96.5,"freq":116.6,"lat":42.14441667,"lon":-86.12269444,"rng_nm":40,"alt_fmsl":795,"id":"ELX","desc":"KEELER VOR-DME"},
{"type":"NDB","hdg_t":143.7,"dist_nm":97.3,"freq":230,"lat":39.81925000,"lon":-83.20488889,"rng_nm":50,"alt_fmsl":0,"id":"BU","desc":"BOUTN NDB"},
{"type":"NDB","hdg_t":179.9,"dist_nm":98,"freq":239,"lat":39.49877778,"lon":-84.44752778,"rng_nm":50,"alt_fmsl":0,"id":"HKF","desc":"HOOK FLD NDB"},
{"type":"NDB","hdg_t":358.7,"dist_nm":98.5,"freq":206,"lat":42.77755800,"lon":-84.49758600,"rng_nm":25,"alt_fmsl":841,"id":"LA","desc":"ARTDA NDB"},
{"type":"NDB","hdg_t":188.9,"dist_nm":98.7,"freq":282,"lat":39.50755556,"lon":-84.78063889,"rng_nm":50,"alt_fmsl":0,"id":"OXD","desc":"OXFORD NDB"},
{"type":"VOR","hdg_t":46.9,"dist_nm":98.9,"freq":113.8,"lat":42.24972222,"lon":-82.82894444,"rng_nm":40,"alt_fmsl":625,"id":"YQG","desc":"WINDSOR VOR-DME"},
{"type":"NDB","hdg_t":42,"dist_nm":99.4,"freq":230,"lat":42.35625000,"lon":-82.95427778,"rng_nm":50,"alt_fmsl":0,"id":"VQ","desc":"CARGL NDB"}
]
}
