{"success":true,"source":"xp2csv.pl","last_updated":"2013/11/08 14:53:21 UTC"
,"icao":"55E","name":"Burris Ranch Nr 1","lat":34.48339722,"lon":-106.61307695,"rwys":2,"ils":0,"index":1203993,"path":"w110n30/w107n34"
,"runways":[
{"len_m":1522,"wid_m":15.24,"hdg":21,"surf":"Dirt","rwy1":"01","lat1":34.47699524,"lon1":-106.61605829,"rwy2":"19","lat2":34.48979920,"lon2":-106.61009561},
{"len_m":1528,"wid_m":12.19,"hdg":90,"surf":"Dirt","rwy1":"08","lat1":34.48351690,"lon1":-106.62139490,"rwy2":"26","lat2":34.48327754,"lon2":-106.60475900}
]
,"navaids":[
{"type":"VOR","hdg_t":230,"dist_nm":13.4,"freq":116.8,"lat":34.33888889,"lon":-106.82047222,"rng_nm":130,"alt_fmsl":4910,"id":"ONM","desc":"SOCORRO VORTAC"},
{"type":"NDB","hdg_t":212,"dist_nm":27,"freq":329,"lat":34.10034400,"lon":-106.90058300,"rng_nm":25,"alt_fmsl":4660,"id":"FIA","desc":"FLORIDA NDB"},
{"type":"NDB","hdg_t":359.3,"dist_nm":30.1,"freq":247,"lat":34.98702500,"lon":-106.62039200,"rng_nm":50,"alt_fmsl":5304,"id":"ILT","desc":"ISLETA NDB"},
{"type":"VOR","hdg_t":343.3,"dist_nm":35,"freq":113.2,"lat":35.04380556,"lon":-106.81630556,"rng_nm":130,"alt_fmsl":5749,"id":"ABQ","desc":"ALBUQUERQUE VORTAC"},
{"type":"NDB","hdg_t":353.6,"dist_nm":44.2,"freq":351,"lat":35.21736111,"lon":-106.71280556,"rng_nm":50,"alt_fmsl":0,"id":"AE","desc":"DUDLE NDB"},
{"type":"VOR","hdg_t":98.2,"dist_nm":46.9,"freq":115.5,"lat":34.36702778,"lon":-105.67800000,"rng_nm":130,"alt_fmsl":6411,"id":"CNX","desc":"CORONA VORTAC"},
{"type":"VOR","hdg_t":43.2,"dist_nm":48.6,"freq":114,"lat":35.07225000,"lon":-105.93605556,"rng_nm":40,"alt_fmsl":0,"id":"OTO","desc":"OTTO VOR"},
{"type":"NDB","hdg_t":19.8,"dist_nm":68.3,"freq":341,"lat":35.55525000,"lon":-106.14013889,"rng_nm":50,"alt_fmsl":0,"id":"SG","desc":"DOMAN NDB"},
{"type":"VOR","hdg_t":22.9,"dist_nm":68.8,"freq":110.6,"lat":35.54052778,"lon":-106.06494444,"rng_nm":40,"alt_fmsl":6263,"id":"SAF","desc":"SANTA FE VORTAC"},
{"type":"VOR","hdg_t":205,"dist_nm":79.2,"freq":112.7,"lat":33.28250000,"lon":-107.28055556,"rng_nm":130,"alt_fmsl":4905,"id":"TCS","desc":"TRUTH OR CONSEQ VORTAC"},
{"type":"NDB","hdg_t":134.2,"dist_nm":84.7,"freq":278,"lat":33.48988889,"lon":-105.40433333,"rng_nm":50,"alt_fmsl":0,"id":"CEP","desc":"CAPITAN NDB"},
{"type":"VOR","hdg_t":63.7,"dist_nm":86.3,"freq":117.8,"lat":35.11172222,"lon":-105.03994444,"rng_nm":130,"alt_fmsl":5450,"id":"ACH","desc":"ANTON CHICO VORTAC"}
]
}
