{"success":true,"source":"xp2csv.pl","last_updated":"2013/11/08 14:53:21 UTC"
,"icao":"57FA","name":"Lake X","lat":28.2086115,"lon":-81.1193055,"rwys":1,"ils":0,"index":1613195,"path":"w090n20/w082n28"
,"runways":[
{"len_m":1568,"wid_m":18.29,"hdg":168,"surf":"Asphalt","rwy1":"17","lat1":28.21555600,"lon1":-81.12083300,"rwy2":"35","lat2":28.20166700,"lon2":-81.11777800}
]
,"radios":[
{"type":"CTAF","freq":122.8,"desc":"UNICOM"}
]
,"navaids":[
{"type":"VOR","hdg_t":330.3,"dist_nm":23,"freq":112.2,"lat":28.54272222,"lon":-81.33502778,"rng_nm":130,"alt_fmsl":102,"id":"ORL","desc":"ORLANDO VORTAC"},
{"type":"NDB","hdg_t":106.2,"dist_nm":23.1,"freq":257,"lat":28.09947222,"lon":-80.70080556,"rng_nm":50,"alt_fmsl":0,"id":"SQT","desc":"SATELLITE NDB"},
{"type":"NDB","hdg_t":70.7,"dist_nm":24.1,"freq":247,"lat":28.34077778,"lon":-80.68844444,"rng_nm":50,"alt_fmsl":0,"id":"COI","desc":"MERRITT ISLAND NDB"},
{"type":"NDB","hdg_t":317,"dist_nm":24.4,"freq":221,"lat":28.50683333,"lon":-81.43391667,"rng_nm":50,"alt_fmsl":0,"id":"OR","desc":"HERNY (LOM) NDB"},
{"type":"VOR","hdg_t":103.4,"dist_nm":26.4,"freq":110,"lat":28.10527778,"lon":-80.63533333,"rng_nm":40,"alt_fmsl":30,"id":"MLB","desc":"MELBOURNE VOR-DME"},
{"type":"SDME","hdg_t":86.1,"dist_nm":26.9,"freq":115,"lat":28.23768300,"lon":-80.61176100,"rng_nm":25,"alt_fmsl":10,"id":"COF","desc":"PATRICK TACAN"},
{"type":"SDME","hdg_t":41.7,"dist_nm":33.5,"freq":112.25,"lat":28.62616700,"lon":-80.69583300,"rng_nm":130,"alt_fmsl":57,"id":"TTS","desc":"KENNEDY SPACE CENTER TACAN"},
{"type":"NDB","hdg_t":349.2,"dist_nm":35.1,"freq":408,"lat":28.78494444,"lon":-81.24333333,"rng_nm":50,"alt_fmsl":0,"id":"SFB","desc":"SANFORD NDB"},
{"type":"VOR","hdg_t":133.3,"dist_nm":46.1,"freq":117.3,"lat":27.67841667,"lon":-80.48972222,"rng_nm":130,"alt_fmsl":11,"id":"VRB","desc":"VERO BEACH VORTAC"},
{"type":"VOR","hdg_t":254.5,"dist_nm":49.2,"freq":116,"lat":27.98619444,"lon":-82.01388889,"rng_nm":130,"alt_fmsl":135,"id":"LAL","desc":"LAKELAND VORTAC"},
{"type":"NDB","hdg_t":10.4,"dist_nm":51.4,"freq":417,"lat":29.05422222,"lon":-80.94144444,"rng_nm":50,"alt_fmsl":0,"id":"EVB","desc":"NEW SMYRNA BEACH NDB"},
{"type":"NDB","hdg_t":315.2,"dist_nm":51.5,"freq":335,"lat":28.81825000,"lon":-81.80725000,"rng_nm":50,"alt_fmsl":0,"id":"LEE","desc":"LEESBURG NDB"},
{"type":"NDB","hdg_t":252.3,"dist_nm":53.3,"freq":227,"lat":27.93538889,"lon":-82.07580556,"rng_nm":50,"alt_fmsl":0,"id":"LA","desc":"WIREY NDB"},
{"type":"NDB","hdg_t":140.9,"dist_nm":54.6,"freq":338,"lat":27.49691667,"lon":-80.47427778,"rng_nm":50,"alt_fmsl":0,"id":"FJ","desc":"LUUCE NDB"},
{"type":"NDB","hdg_t":271.3,"dist_nm":55,"freq":253,"lat":28.22708333,"lon":-82.15705556,"rng_nm":50,"alt_fmsl":0,"id":"RHZ","desc":"ZEPHYRHILLS NDB"},
{"type":"NDB","hdg_t":224.3,"dist_nm":58.2,"freq":261,"lat":27.51000000,"lon":-81.88333300,"rng_nm":25,"alt_fmsl":104,"id":"CHN","desc":"WAUCHULA NDB"},
{"type":"NDB","hdg_t":137.2,"dist_nm":58.6,"freq":275,"lat":27.48672222,"lon":-80.37327778,"rng_nm":50,"alt_fmsl":0,"id":"FPR","desc":"FORT PIERCE NDB"},
{"type":"VOR","hdg_t":0.3,"dist_nm":65.5,"freq":112.6,"lat":29.30325000,"lon":-81.11269444,"rng_nm":130,"alt_fmsl":19,"id":"OMN","desc":"ORMOND BEACH VORTAC"},
{"type":"NDB","hdg_t":264.6,"dist_nm":74.9,"freq":368,"lat":28.08527778,"lon":-82.52525000,"rng_nm":50,"alt_fmsl":0,"id":"TP","desc":"COSME NDB"},
{"type":"SDME","hdg_t":254.6,"dist_nm":76.8,"freq":111,"lat":27.86115300,"lon":-82.51350300,"rng_nm":40,"alt_fmsl":14,"id":"MCF","desc":"MACDILL TACAN"},
{"type":"NDB","hdg_t":254.9,"dist_nm":78.5,"freq":388,"lat":27.86119444,"lon":-82.54580556,"rng_nm":50,"alt_fmsl":0,"id":"AM","desc":"PICNY (LOM/NDB) NDB"},
{"type":"VOR","hdg_t":315,"dist_nm":82.3,"freq":113.7,"lat":29.17747222,"lon":-82.22633333,"rng_nm":40,"alt_fmsl":80,"id":"OCF","desc":"OCALA REGIONAL/JI VORTAC"},
{"type":"VOR","hdg_t":190,"dist_nm":83.8,"freq":110.4,"lat":26.82816667,"lon":-81.39144444,"rng_nm":40,"alt_fmsl":30,"id":"LBV","desc":"LA BELLE VORTAC"},
{"type":"NDB","hdg_t":261.7,"dist_nm":85,"freq":360,"lat":27.99511111,"lon":-82.70386111,"rng_nm":50,"alt_fmsl":0,"id":"PI","desc":"CAPOK NDB"},
{"type":"VOR","hdg_t":258.1,"dist_nm":85,"freq":116.4,"lat":27.90777778,"lon":-82.68430556,"rng_nm":130,"alt_fmsl":9,"id":"PIE","desc":"ST PETERSBURG VORTAC"},
{"type":"NDB","hdg_t":151.5,"dist_nm":88.2,"freq":405,"lat":26.90897222,"lon":-80.33505556,"rng_nm":50,"alt_fmsl":0,"id":"UTX","desc":"UNITED NDB"},
{"type":"VOR","hdg_t":164.9,"dist_nm":88.3,"freq":115.4,"lat":26.78275000,"lon":-80.69144444,"rng_nm":130,"alt_fmsl":16,"id":"PHK","desc":"PAHOKEE VORTAC"},
{"type":"NDB","hdg_t":234.2,"dist_nm":89.4,"freq":245,"lat":27.32822222,"lon":-82.47844444,"rng_nm":50,"alt_fmsl":0,"id":"SR","desc":"RINGY NDB"},
{"type":"VOR","hdg_t":211.2,"dist_nm":90.2,"freq":110.2,"lat":26.91677778,"lon":-81.99125000,"rng_nm":25,"alt_fmsl":0,"id":"PGD","desc":"PUNTA GORDA VOR"},
{"type":"VOR","hdg_t":237.9,"dist_nm":90.4,"freq":115.2,"lat":27.39776100,"lon":-82.55426900,"rng_nm":130,"alt_fmsl":20,"id":"SRQ","desc":"SARASOTA VORTAC"},
{"type":"VOR","hdg_t":238.3,"dist_nm":90.5,"freq":117,"lat":27.40702778,"lon":-82.56363889,"rng_nm":130,"alt_fmsl":20,"id":"SRQ","desc":"SARASOTA VORTAC"},
{"type":"NDB","hdg_t":337.2,"dist_nm":93.8,"freq":243,"lat":29.65350000,"lon":-81.81250000,"rng_nm":50,"alt_fmsl":0,"id":"IAK","desc":"PALATKA NDB"},
{"type":"DME","hdg_t":149.4,"dist_nm":94.6,"freq":110.75,"lat":26.84356853,"lon":-80.22387209,"rng_nm":18,"alt_fmsl":22,"id":"IGHO","desc":"F45 08R DME-ILS"},
{"type":"NDB","hdg_t":225.8,"dist_nm":97.9,"freq":206,"lat":27.06144444,"lon":-82.43058333,"rng_nm":50,"alt_fmsl":0,"id":"VNC","desc":"VENICE NDB"}
]
}
