{"success":true,"source":"xp2csv.pl","last_updated":"2013/11/08 14:53:21 UTC"
,"icao":"57ND","name":"Odegaard","lat":46.60829972,"lon":-97.05953251,"rwys":1,"ils":0,"index":1352227,"path":"w100n40/w098n46"
,"runways":[
{"len_m":855,"wid_m":18.29,"hdg":125,"surf":"Turf/grass","rwy1":"12","lat1":46.61055692,"lon1":-97.06405485,"rwy2":"30","lat2":46.60604252,"lon2":-97.05501017}
]
,"navaids":[
{"type":"VOR","hdg_t":44.5,"dist_nm":12.2,"freq":116.2,"lat":46.75336111,"lon":-96.85133333,"rng_nm":130,"alt_fmsl":908,"id":"FAR","desc":"FARGO VORTAC"},
{"type":"NDB","hdg_t":22.6,"dist_nm":26,"freq":365,"lat":47.00916667,"lon":-96.81516667,"rng_nm":50,"alt_fmsl":0,"id":"AA","desc":"KENIE NDB"},
{"type":"NDB","hdg_t":138.8,"dist_nm":28.8,"freq":233,"lat":46.24488889,"lon":-96.60361111,"rng_nm":50,"alt_fmsl":0,"id":"BWP","desc":"BRECKENRIDGE-WAHP NDB"},
{"type":"NDB","hdg_t":226.5,"dist_nm":33.4,"freq":278,"lat":46.22369444,"lon":-97.64263889,"rng_nm":50,"alt_fmsl":0,"id":"GWR","desc":"GWINNER NDB"},
{"type":"VOR","hdg_t":116.7,"dist_nm":42,"freq":110.4,"lat":46.28936111,"lon":-96.15680556,"rng_nm":25,"alt_fmsl":1201,"id":"FFM","desc":"FERGUS FALLS VOR-DME"},
{"type":"NDB","hdg_t":118.9,"dist_nm":47.6,"freq":337,"lat":46.21980556,"lon":-96.05769444,"rng_nm":50,"alt_fmsl":0,"id":"FF","desc":"HAMRE NDB"},
{"type":"VOR","hdg_t":74.4,"dist_nm":50.1,"freq":111.2,"lat":46.82555556,"lon":-95.88733333,"rng_nm":25,"alt_fmsl":1387,"id":"DTL","desc":"DETROIT LAKES VOR-DME"},
{"type":"NDB","hdg_t":156.4,"dist_nm":53.9,"freq":326,"lat":45.78327778,"lon":-96.54669444,"rng_nm":50,"alt_fmsl":0,"id":"ETH","desc":"WHEATON NDB"},
{"type":"NDB","hdg_t":211.3,"dist_nm":55.3,"freq":386,"lat":45.81916700,"lon":-97.74558300,"rng_nm":25,"alt_fmsl":1312,"id":"BTN","desc":"BRITTON NDB"},
{"type":"NDB","hdg_t":284.2,"dist_nm":64.6,"freq":395,"lat":46.86286111,"lon":-98.58072222,"rng_nm":50,"alt_fmsl":0,"id":"JM","desc":"SABON NDB"},
{"type":"VOR","hdg_t":286.8,"dist_nm":69.5,"freq":114.5,"lat":46.93286111,"lon":-98.67877778,"rng_nm":40,"alt_fmsl":1493,"id":"JMS","desc":"JAMESTOWN VOR-DME"},
{"type":"NDB","hdg_t":356.2,"dist_nm":74.4,"freq":345,"lat":47.84638889,"lon":-97.18152778,"rng_nm":50,"alt_fmsl":0,"id":"GF","desc":"HISER NDB"},
{"type":"NDB","hdg_t":13.6,"dist_nm":76.1,"freq":400,"lat":47.84033333,"lon":-96.61641667,"rng_nm":50,"alt_fmsl":0,"id":"CKN","desc":"CROOKSTON NDB"},
{"type":"VOR","hdg_t":143.5,"dist_nm":77.3,"freq":109.6,"lat":45.56580556,"lon":-95.96922222,"rng_nm":25,"alt_fmsl":1132,"id":"MOX","desc":"MORRIS VOR-DME"},
{"type":"NDB","hdg_t":41.4,"dist_nm":79.1,"freq":224,"lat":47.58902778,"lon":-95.76958333,"rng_nm":50,"alt_fmsl":0,"id":"FSE","desc":"FOSSTON NDB"},
{"type":"VOR","hdg_t":356.4,"dist_nm":80.9,"freq":114.3,"lat":47.95483333,"lon":-97.18536111,"rng_nm":130,"alt_fmsl":841,"id":"GFK","desc":"GRAND FORKS VOR-DME"},
{"type":"SDME","hdg_t":350.2,"dist_nm":82.1,"freq":116.4,"lat":47.95716700,"lon":-97.40583300,"rng_nm":130,"alt_fmsl":951,"id":"RDR","desc":"RED RIVER TACAN"},
{"type":"NDB","hdg_t":160.9,"dist_nm":82.8,"freq":332,"lat":45.30166667,"lon":-96.42080556,"rng_nm":50,"alt_fmsl":0,"id":"VVV","desc":"ORTONVILLE NDB"},
{"type":"VOR","hdg_t":77.3,"dist_nm":83.8,"freq":110.6,"lat":46.89813889,"lon":-95.07088889,"rng_nm":40,"alt_fmsl":1441,"id":"PKD","desc":"PARK RAPIDS VOR-DME"},
{"type":"VOR","hdg_t":116.5,"dist_nm":85.4,"freq":112.8,"lat":45.95838889,"lon":-95.23263889,"rng_nm":40,"alt_fmsl":1367,"id":"AXN","desc":"ALEXANDRIA VOR-DME"},
{"type":"NDB","hdg_t":123.2,"dist_nm":88,"freq":281,"lat":45.79171200,"lon":-95.30547900,"rng_nm":25,"alt_fmsl":1404,"id":"AJW","desc":"ANDRI NDB"},
{"type":"NDB","hdg_t":123.2,"dist_nm":88,"freq":374,"lat":45.79172222,"lon":-95.30552778,"rng_nm":50,"alt_fmsl":0,"id":"EE","desc":"TAMIE (LOM) NDB"},
{"type":"VOR","hdg_t":217.9,"dist_nm":90,"freq":113,"lat":45.41736111,"lon":-98.36872222,"rng_nm":130,"alt_fmsl":1301,"id":"ABR","desc":"ABERDEEN VOR-DME"},
{"type":"NDB","hdg_t":216.3,"dist_nm":90.5,"freq":203,"lat":45.38600000,"lon":-98.32836111,"rng_nm":50,"alt_fmsl":0,"id":"AB","desc":"RENEY NDB"},
{"type":"NDB","hdg_t":24.7,"dist_nm":92.7,"freq":260,"lat":48.00655556,"lon":-96.09550000,"rng_nm":50,"alt_fmsl":0,"id":"HY","desc":"HARVI NDB"},
{"type":"NDB","hdg_t":127.8,"dist_nm":92.8,"freq":346,"lat":45.64430556,"lon":-95.31830556,"rng_nm":50,"alt_fmsl":0,"id":"GHW","desc":"GLENWOOD NDB"},
{"type":"NDB","hdg_t":151.6,"dist_nm":93.7,"freq":356,"lat":45.22847222,"lon":-96.00955556,"rng_nm":50,"alt_fmsl":0,"id":"AQP","desc":"APPLETON NDB"},
{"type":"NDB","hdg_t":97.4,"dist_nm":94.4,"freq":257,"lat":46.38230556,"lon":-94.80491667,"rng_nm":50,"alt_fmsl":0,"id":"SAZ","desc":"STAPLES NDB"},
{"type":"VOR","hdg_t":21.7,"dist_nm":94.6,"freq":108.4,"lat":48.06930556,"lon":-96.18644444,"rng_nm":40,"alt_fmsl":1039,"id":"TVF","desc":"THIEF RIVER FALLS VOR-DME"},
{"type":"NDB","hdg_t":142,"dist_nm":96.8,"freq":239,"lat":45.32719444,"lon":-95.65091667,"rng_nm":50,"alt_fmsl":0,"id":"BBB","desc":"BENSON NDB"},
{"type":"VOR","hdg_t":182,"dist_nm":97.8,"freq":116.6,"lat":44.97963889,"lon":-97.14177778,"rng_nm":40,"alt_fmsl":1762,"id":"ATY","desc":"WATERTOWN VORTAC"}
]
}
