{"success":true,"source":"xp2csv.pl","last_updated":"2013/11/08 14:53:21 UTC"
,"icao":"58OR","name":"Umpqua","lat":43.30972222,"lon":-123.12694445,"rwys":1,"ils":0,"index":926035,"path":"w130n40/w124n43"
,"runways":[
{"len_m":581,"wid_m":15.24,"hdg":88,"surf":"Turf/grass","rwy1":"07","lat1":43.30963128,"lon1":-123.13052340,"rwy2":"25","lat2":43.30981316,"lon2":-123.12336550}
]
,"navaids":[
{"type":"NDB","hdg_t":246.2,"dist_nm":11,"freq":400,"lat":43.23525000,"lon":-123.35802778,"rng_nm":50,"alt_fmsl":0,"id":"RBG","desc":"ROSEBURG NDB"},
{"type":"VOR","hdg_t":232.3,"dist_nm":12.4,"freq":108.2,"lat":43.18241667,"lon":-123.35225000,"rng_nm":40,"alt_fmsl":1320,"id":"RBG","desc":"ROSEBURG VOR-DME"},
{"type":"VOR","hdg_t":278.2,"dist_nm":46,"freq":112.1,"lat":43.41550000,"lon":-124.16852778,"rng_nm":40,"alt_fmsl":707,"id":"OTH","desc":"NORTH BEND VORTAC"},
{"type":"VOR","hdg_t":355.1,"dist_nm":48.8,"freq":112.9,"lat":44.12088889,"lon":-123.22283333,"rng_nm":130,"alt_fmsl":364,"id":"EUG","desc":"EUGENE VORTAC"},
{"type":"VOR","hdg_t":169.1,"dist_nm":50.6,"freq":113.6,"lat":42.47958333,"lon":-122.91294444,"rng_nm":130,"alt_fmsl":2083,"id":"OED","desc":"ROGUE VALLEY VORTAC"},
{"type":"NDB","hdg_t":276,"dist_nm":52,"freq":378,"lat":43.39444444,"lon":-124.31027778,"rng_nm":50,"alt_fmsl":0,"id":"OT","desc":"EMIRE NDB"},
{"type":"NDB","hdg_t":169.5,"dist_nm":52.3,"freq":373,"lat":42.45097222,"lon":-122.91336111,"rng_nm":50,"alt_fmsl":0,"id":"MF","desc":"PUMIE NDB"},
{"type":"NDB","hdg_t":168.6,"dist_nm":56.1,"freq":356,"lat":42.39161111,"lon":-122.87883333,"rng_nm":50,"alt_fmsl":0,"id":"MEF","desc":"MEDFORD NDB"},
{"type":"VOR","hdg_t":354.2,"dist_nm":71.7,"freq":115.4,"lat":44.49958333,"lon":-123.29366667,"rng_nm":130,"alt_fmsl":241,"id":"CVO","desc":"CORVALLIS VOR-DME"},
{"type":"NDB","hdg_t":355.4,"dist_nm":78.4,"freq":225,"lat":44.61358333,"lon":-123.27066667,"rng_nm":50,"alt_fmsl":0,"id":"LWG","desc":"LEWISBURG NDB"},
{"type":"VOR","hdg_t":332.2,"dist_nm":86,"freq":117.1,"lat":44.57536111,"lon":-124.06058333,"rng_nm":130,"alt_fmsl":147,"id":"ONP","desc":"NEWPORT VORTAC"},
{"type":"NDB","hdg_t":333.9,"dist_nm":91.4,"freq":350,"lat":44.67600000,"lon":-124.06511111,"rng_nm":50,"alt_fmsl":0,"id":"ON","desc":"AGGET NDB"},
{"type":"NDB","hdg_t":4.6,"dist_nm":92.5,"freq":266,"lat":44.84744444,"lon":-122.95102778,"rng_nm":50,"alt_fmsl":0,"id":"SL","desc":"TURNO NDB"},
{"type":"VOR","hdg_t":137.7,"dist_nm":92.9,"freq":115.9,"lat":42.15313889,"lon":-121.72752778,"rng_nm":130,"alt_fmsl":4087,"id":"LMT","desc":"KLAMATH FALLS VORTAC"},
{"type":"VOR","hdg_t":53.8,"dist_nm":97.3,"freq":117.6,"lat":44.25275000,"lon":-121.30352778,"rng_nm":130,"alt_fmsl":4101,"id":"DSD","desc":"DESCHUTES VORTAC"},
{"type":"NDB","hdg_t":162.9,"dist_nm":99.1,"freq":404,"lat":41.72727778,"lon":-122.48169444,"rng_nm":50,"alt_fmsl":0,"id":"MOG","desc":"MONTAGUE NDB"}
]
}
