{"success":true,"source":"xp2csv.pl","last_updated":"2013/11/08 14:53:21 UTC"
,"icao":"59KS","name":"Dunn Field","lat":38.40835138,"lon":-95.01913445,"rwys":1,"ils":0,"index":1384475,"path":"w100n30/w096n38"
,"runways":[
{"len_m":700,"wid_m":15.24,"hdg":186,"surf":"Turf/grass","rwy1":"18","lat1":38.41148853,"lon1":-95.01871367,"rwy2":"36","lat2":38.40521423,"lon2":-95.01955523}
]
,"navaids":[
{"type":"NDB","hdg_t":16.7,"dist_nm":20.6,"freq":368,"lat":38.73866667,"lon":-94.89191667,"rng_nm":50,"alt_fmsl":0,"id":"IX","desc":"DUSTT NDB"},
{"type":"NDB","hdg_t":32.5,"dist_nm":24.5,"freq":420,"lat":38.75363890,"lon":-94.73785930,"rng_nm":25,"alt_fmsl":0,"id":"PK","desc":"Herbb LOM"},
{"type":"VOR","hdg_t":107.8,"dist_nm":26.3,"freq":115.9,"lat":38.27211111,"lon":-94.48822222,"rng_nm":130,"alt_fmsl":890,"id":"BUM","desc":"BUTLER VORTAC"},
{"type":"VOR","hdg_t":27,"dist_nm":29.1,"freq":113,"lat":38.84063889,"lon":-94.73675000,"rng_nm":25,"alt_fmsl":1034,"id":"OJC","desc":"JOHNSON COUNTY VOR-DME"},
{"type":"NDB","hdg_t":348.2,"dist_nm":30.9,"freq":338,"lat":38.91363889,"lon":-95.15375000,"rng_nm":50,"alt_fmsl":0,"id":"JZ","desc":"NEWBN NDB"},
{"type":"NDB","hdg_t":259.1,"dist_nm":33.7,"freq":245,"lat":38.29975000,"lon":-95.72147222,"rng_nm":50,"alt_fmsl":0,"id":"UKL","desc":"BOYD NDB"},
{"type":"NDB","hdg_t":22.6,"dist_nm":34.2,"freq":526,"lat":38.93488845,"lon":-94.73732723,"rng_nm":25,"alt_fmsl":0,"id":"OJ","desc":"Furor LOM"},
{"type":"NDB","hdg_t":161.7,"dist_nm":38.5,"freq":379,"lat":37.79688889,"lon":-94.76555556,"rng_nm":50,"alt_fmsl":0,"id":"FSK","desc":"FORT SCOTT NDB"},
{"type":"NDB","hdg_t":317.3,"dist_nm":38.9,"freq":326,"lat":38.88486111,"lon":-95.58152778,"rng_nm":50,"alt_fmsl":0,"id":"FO","desc":"RIPLY NDB"},
{"type":"NDB","hdg_t":207,"dist_nm":41.4,"freq":410,"lat":37.79152778,"lon":-95.41491667,"rng_nm":50,"alt_fmsl":0,"id":"MSB","desc":"MONARCH NDB"},
{"type":"SDME","hdg_t":317.1,"dist_nm":44.2,"freq":111.6,"lat":38.94736700,"lon":-95.66117500,"rng_nm":25,"alt_fmsl":1043,"id":"FOE","desc":"FORBES TACAN"},
{"type":"NDB","hdg_t":42.3,"dist_nm":44.9,"freq":263,"lat":38.96068600,"lon":-94.37173900,"rng_nm":25,"alt_fmsl":1041,"id":"LXT","desc":"LESUMIT NDB"},
{"type":"VOR","hdg_t":24.7,"dist_nm":47,"freq":111.4,"lat":39.12038889,"lon":-94.59658333,"rng_nm":25,"alt_fmsl":740,"id":"RIS","desc":"RIVERSIDE VOR-DME"},
{"type":"VOR","hdg_t":330.5,"dist_nm":50.2,"freq":117.8,"lat":39.13711111,"lon":-95.54911111,"rng_nm":40,"alt_fmsl":1070,"id":"TOP","desc":"TOPEKA VORTAC"},
{"type":"NDB","hdg_t":14.4,"dist_nm":50.3,"freq":359,"lat":39.22088889,"lon":-94.74991667,"rng_nm":50,"alt_fmsl":0,"id":"DO","desc":"DOTTE NDB"},
{"type":"NDB","hdg_t":323.9,"dist_nm":52.9,"freq":521,"lat":39.12036111,"lon":-95.68711111,"rng_nm":50,"alt_fmsl":0,"id":"TO","desc":"BILOY NDB"},
{"type":"NDB","hdg_t":23.5,"dist_nm":53.1,"freq":344,"lat":39.22080556,"lon":-94.56433333,"rng_nm":50,"alt_fmsl":0,"id":"MK","desc":"KENZY NDB"},
{"type":"VOR","hdg_t":262.7,"dist_nm":53.2,"freq":112.8,"lat":38.29113889,"lon":-96.13811111,"rng_nm":40,"alt_fmsl":1233,"id":"EMP","desc":"EMPORIA VORTAC"},
{"type":"NDB","hdg_t":8.3,"dist_nm":54.1,"freq":416,"lat":39.30197222,"lon":-94.85111111,"rng_nm":50,"alt_fmsl":0,"id":"RN","desc":"HUGGY NDB"},
{"type":"VOR","hdg_t":210.3,"dist_nm":54.2,"freq":109.2,"lat":37.62613889,"lon":-95.59344444,"rng_nm":40,"alt_fmsl":1080,"id":"CNU","desc":"CHANUTE VOR-DME"},
{"type":"VOR","hdg_t":14,"dist_nm":54.2,"freq":113.25,"lat":39.28527778,"lon":-94.73705556,"rng_nm":130,"alt_fmsl":1017,"id":"MCI","desc":"KANSAS CITY VORTAC"},
{"type":"VOR","hdg_t":45.1,"dist_nm":58.6,"freq":114,"lat":39.09541667,"lon":-94.12883333,"rng_nm":40,"alt_fmsl":878,"id":"ANX","desc":"NAPOLEON VORTAC"},
{"type":"NDB","hdg_t":166.4,"dist_nm":59.5,"freq":365,"lat":37.44247222,"lon":-94.72655556,"rng_nm":50,"alt_fmsl":0,"id":"PTS","desc":"PITTSBURG NDB"},
{"type":"NDB","hdg_t":15.1,"dist_nm":60.8,"freq":275,"lat":39.38691667,"lon":-94.67697222,"rng_nm":50,"alt_fmsl":0,"id":"DY","desc":"LEXEY NDB"},
{"type":"NDB","hdg_t":92.2,"dist_nm":63,"freq":388,"lat":38.35866667,"lon":-93.68463889,"rng_nm":50,"alt_fmsl":0,"id":"GLY","desc":"GOLDEN VALLEY NDB"},
{"type":"NDB","hdg_t":148.4,"dist_nm":64.6,"freq":356,"lat":37.48700000,"lon":-94.31022222,"rng_nm":50,"alt_fmsl":0,"id":"LLU","desc":"SPRING RIVER NDB"},
{"type":"NDB","hdg_t":200,"dist_nm":68.2,"freq":258,"lat":37.33814700,"lon":-95.50870000,"rng_nm":25,"alt_fmsl":900,"id":"PPF","desc":"PARSONS NDB"},
{"type":"SDME","hdg_t":73.6,"dist_nm":71.8,"freq":109.8,"lat":38.73570000,"lon":-93.55042800,"rng_nm":40,"alt_fmsl":850,"id":"SZL","desc":"WHITEMAN TACAN"},
{"type":"NDB","hdg_t":162.9,"dist_nm":75.4,"freq":344,"lat":37.20308333,"lon":-94.55858333,"rng_nm":50,"alt_fmsl":0,"id":"JL","desc":"LUNNS NDB"},
{"type":"VOR","hdg_t":186.7,"dist_nm":75.4,"freq":117.6,"lat":37.15750000,"lon":-95.20363889,"rng_nm":40,"alt_fmsl":930,"id":"OSW","desc":"OSWEGO VORTAC"},
{"type":"NDB","hdg_t":3.9,"dist_nm":76.1,"freq":260,"lat":39.67572222,"lon":-94.90683333,"rng_nm":50,"alt_fmsl":0,"id":"ST","desc":"TARIO NDB"},
{"type":"NDB","hdg_t":198.6,"dist_nm":83,"freq":212,"lat":37.09327778,"lon":-95.57133333,"rng_nm":50,"alt_fmsl":0,"id":"CFV","desc":"COFFEYVILLE NDB"},
{"type":"NDB","hdg_t":281.9,"dist_nm":86,"freq":407,"lat":38.69277778,"lon":-96.81111111,"rng_nm":50,"alt_fmsl":0,"id":"HRU","desc":"HERINGTON NDB"},
{"type":"NDB","hdg_t":23.5,"dist_nm":86.5,"freq":394,"lat":39.72941667,"lon":-94.27230556,"rng_nm":50,"alt_fmsl":0,"id":"EZZ","desc":"CAMERON NDB"},
{"type":"NDB","hdg_t":299.8,"dist_nm":86.6,"freq":391,"lat":39.11744200,"lon":-96.62933600,"rng_nm":50,"alt_fmsl":1060,"id":"MQD","desc":"MC DOWELL CREEK NDB"},
{"type":"NDB","hdg_t":204.4,"dist_nm":88.1,"freq":329,"lat":37.06583333,"lon":-95.77775000,"rng_nm":50,"alt_fmsl":0,"id":"ID","desc":"JEFFE NDB"},
{"type":"NDB","hdg_t":3.3,"dist_nm":88.5,"freq":233,"lat":39.88380556,"lon":-94.90813889,"rng_nm":50,"alt_fmsl":0,"id":"AZN","desc":"AMAZON NDB"},
{"type":"NDB","hdg_t":77.8,"dist_nm":88.5,"freq":281,"lat":38.70438889,"lon":-93.17663889,"rng_nm":50,"alt_fmsl":0,"id":"DMO","desc":"SEDALIA NDB"},
{"type":"VOR","hdg_t":347.8,"dist_nm":88.5,"freq":108.2,"lat":39.85083333,"lon":-95.42305556,"rng_nm":40,"alt_fmsl":1126,"id":"RBA","desc":"ROBINSON VOR-DME"},
{"type":"VOR","hdg_t":300.2,"dist_nm":89.1,"freq":110.2,"lat":39.14544444,"lon":-96.66872222,"rng_nm":25,"alt_fmsl":1044,"id":"MHK","desc":"MANHATTAN VOR-DME"},
{"type":"VOR","hdg_t":35.7,"dist_nm":90.7,"freq":111.2,"lat":39.63055556,"lon":-93.87527778,"rng_nm":40,"alt_fmsl":930,"id":"BQS","desc":"BRAYMER VOR-DME"},
{"type":"NDB","hdg_t":294.4,"dist_nm":91.2,"freq":314,"lat":39.02600000,"lon":-96.79450000,"rng_nm":50,"alt_fmsl":0,"id":"CVY","desc":"CAVALRY NDB"},
{"type":"VOR","hdg_t":291.8,"dist_nm":92.8,"freq":109.4,"lat":38.97016667,"lon":-96.86116667,"rng_nm":25,"alt_fmsl":0,"id":"FRI","desc":"FORT RILEY VOR"},
{"type":"VOR","hdg_t":2.6,"dist_nm":93.1,"freq":115.5,"lat":39.96058333,"lon":-94.92522222,"rng_nm":130,"alt_fmsl":1160,"id":"STJ","desc":"ST JOSEPH VORTAC"},
{"type":"NDB","hdg_t":65.5,"dist_nm":93.6,"freq":371,"lat":39.04194444,"lon":-93.19583333,"rng_nm":50,"alt_fmsl":0,"id":"PUR","desc":"MARSHALL NDB"},
{"type":"VOR","hdg_t":163.3,"dist_nm":97.8,"freq":117.3,"lat":36.84244444,"lon":-94.43569444,"rng_nm":130,"alt_fmsl":1200,"id":"EOS","desc":"NEOSHO VOR-DME"}
]
}
