{"success":true,"source":"xp2csv.pl","last_updated":"2013/11/08 14:53:21 UTC"
,"icao":"5AK8","name":"Memory Lake","lat":61.63279666,"lon":-149.43139028,"rwys":1,"ils":0,"index":501226,"path":"w150n60/w150n61"
,"runways":[
{"len_m":305,"wid_m":6.71,"hdg":55,"surf":"Asphalt","rwy1":"03","lat1":61.63201001,"lon1":-149.43375486,"rwy2":"21","lat2":61.63358331,"lon2":-149.42902570}
]
,"navaids":[
{"type":"VOR","hdg_t":256.2,"dist_nm":15.8,"freq":112.5,"lat":61.56944444,"lon":-149.96713889,"rng_nm":130,"alt_fmsl":160,"id":"BGQ","desc":"BIG LAKE VORTAC"},
{"type":"SDME","hdg_t":203.3,"dist_nm":24.7,"freq":113.4,"lat":61.25500600,"lon":-149.76915000,"rng_nm":130,"alt_fmsl":360,"id":"EDF","desc":"ELMENDORF TACAN"},
{"type":"SDME","hdg_t":208.1,"dist_nm":31.5,"freq":111.3,"lat":61.16981900,"lon":-149.94239800,"rng_nm":90,"alt_fmsl":140,"id":"MTGN","desc":"Anchorage MLS 6L DME"},
{"type":"VOR","hdg_t":208.8,"dist_nm":31.8,"freq":113.15,"lat":61.16786560,"lon":-149.96014330,"rng_nm":130,"alt_fmsl":283,"id":"TED","desc":"ANCHORAGE VOR-DME"},
{"type":"NDB","hdg_t":212.8,"dist_nm":32.9,"freq":338,"lat":61.17102778,"lon":-150.04766667,"rng_nm":50,"alt_fmsl":0,"id":"CMQ","desc":"CAMPBELL LAKE NDB"},
{"type":"NDB","hdg_t":217.8,"dist_nm":35.3,"freq":387,"lat":61.16761111,"lon":-150.17727778,"rng_nm":50,"alt_fmsl":0,"id":"BOB","desc":"BRUCK NDB"},
{"type":"VOR","hdg_t":334.8,"dist_nm":44.3,"freq":116.2,"lat":62.29866667,"lon":-150.10558333,"rng_nm":130,"alt_fmsl":360,"id":"TKA","desc":"TALKEETNA VOR-DME"},
{"type":"NDB","hdg_t":336.1,"dist_nm":46,"freq":305,"lat":62.33116667,"lon":-150.09641667,"rng_nm":50,"alt_fmsl":0,"id":"PEE","desc":"PETERS CREEK NDB"},
{"type":"NDB","hdg_t":234.5,"dist_nm":68.2,"freq":356,"lat":60.96138889,"lon":-151.33391667,"rng_nm":50,"alt_fmsl":0,"id":"GRP","desc":"GRANITE POINT NDB"},
{"type":"VOR","hdg_t":220.7,"dist_nm":79.9,"freq":117.6,"lat":60.61469444,"lon":-151.19525000,"rng_nm":130,"alt_fmsl":114,"id":"ENA","desc":"KENAI VOR-DME"},
{"type":"NDB","hdg_t":220.5,"dist_nm":80.9,"freq":379,"lat":60.59866667,"lon":-151.21119444,"rng_nm":50,"alt_fmsl":0,"id":"IWW","desc":"WILDWOOD NDB"},
{"type":"NDB","hdg_t":211.8,"dist_nm":81.4,"freq":346,"lat":60.47497222,"lon":-150.87888889,"rng_nm":50,"alt_fmsl":0,"id":"OLT","desc":"SOLDOTNA NDB"},
{"type":"NDB","hdg_t":107.6,"dist_nm":93.9,"freq":524,"lat":61.12422222,"lon":-146.35222222,"rng_nm":50,"alt_fmsl":0,"id":"MNL","desc":"MINERAL CREEK NDB"}
]
}
