{"success":true,"source":"xp2csv.pl","last_updated":"2013/11/08 14:53:21 UTC"
,"icao":"5AL5","name":"Big River Airpark","lat":34.691111,"lon":-87.652778,"rwys":1,"ils":0,"index":1515305,"path":"w090n30/w088n34"
,"runways":[
{"len_m":914,"wid_m":15.24,"hdg":180,"surf":"Asphalt","rwy1":"18","lat1":34.69523200,"lon1":-87.65277800,"rwy2":"36","lat2":34.68699000,"lon2":-87.65277800}
]
,"navaids":[
{"type":"VOR","hdg_t":83.2,"dist_nm":8,"freq":116.5,"lat":34.70686111,"lon":-87.49158333,"rng_nm":40,"alt_fmsl":620,"id":"MSL","desc":"MUSCLE SHOALS VORTAC"},
{"type":"VOR","hdg_t":211.2,"dist_nm":34.4,"freq":110.4,"lat":34.19877778,"lon":-88.01161111,"rng_nm":40,"alt_fmsl":802,"id":"HAB","desc":"HAMILTON VORTAC"},
{"type":"VOR","hdg_t":93.9,"dist_nm":35.3,"freq":112.8,"lat":34.64830556,"lon":-86.93952778,"rng_nm":40,"alt_fmsl":590,"id":"DCU","desc":"DECATUR VOR-DME"},
{"type":"NDB","hdg_t":30.5,"dist_nm":37.9,"freq":269,"lat":35.23552778,"lon":-87.26066667,"rng_nm":50,"alt_fmsl":0,"id":"LRT","desc":"LAWRENCEBURG NDB"},
{"type":"NDB","hdg_t":83.2,"dist_nm":43.4,"freq":350,"lat":34.77369444,"lon":-86.77902778,"rng_nm":50,"alt_fmsl":0,"id":"CWH","desc":"CAPSHAW NDB"},
{"type":"NDB","hdg_t":114.9,"dist_nm":45.4,"freq":230,"lat":34.36787300,"lon":-86.82389100,"rng_nm":25,"alt_fmsl":830,"id":"CPP","desc":"COLE SPRING NDB"},
{"type":"NDB","hdg_t":1.3,"dist_nm":46.2,"freq":257,"lat":35.46250000,"lon":-87.63027778,"rng_nm":50,"alt_fmsl":0,"id":"JHG","desc":"HOHENWALD NDB"},
{"type":"NDB","hdg_t":89.1,"dist_nm":47.7,"freq":287,"lat":34.69847222,"lon":-86.68800000,"rng_nm":50,"alt_fmsl":0,"id":"HUA","desc":"REDSTONE NDB"},
{"type":"VOR","hdg_t":82.5,"dist_nm":50.7,"freq":112.2,"lat":34.79725000,"lon":-86.63383333,"rng_nm":40,"alt_fmsl":1199,"id":"RQZ","desc":"ROCKET VORTAC"},
{"type":"NDB","hdg_t":292.5,"dist_nm":51.3,"freq":334,"lat":35.01552778,"lon":-88.61569444,"rng_nm":50,"alt_fmsl":0,"id":"UU","desc":"SEYER NDB"},
{"type":"NDB","hdg_t":307.7,"dist_nm":53.6,"freq":386,"lat":35.23702778,"lon":-88.51600000,"rng_nm":50,"alt_fmsl":0,"id":"SZY","desc":"SIBLEY NDB"},
{"type":"NDB","hdg_t":63.8,"dist_nm":60.8,"freq":358,"lat":35.13408333,"lon":-86.54205556,"rng_nm":50,"alt_fmsl":0,"id":"TNY","desc":"KELSO NDB"},
{"type":"NDB","hdg_t":26.5,"dist_nm":61.4,"freq":365,"lat":35.60819444,"lon":-87.09141667,"rng_nm":50,"alt_fmsl":0,"id":"PBC","desc":"MAURY COUNTY NDB"},
{"type":"NDB","hdg_t":241.4,"dist_nm":63.2,"freq":420,"lat":34.18038889,"lon":-88.76875000,"rng_nm":50,"alt_fmsl":0,"id":"TU","desc":"VERON NDB"},
{"type":"VOR","hdg_t":244,"dist_nm":63.3,"freq":109.8,"lat":34.22386111,"lon":-88.79733333,"rng_nm":40,"alt_fmsl":360,"id":"OTB","desc":"TUPELO VOR-DME"},
{"type":"NDB","hdg_t":40.3,"dist_nm":63.8,"freq":251,"lat":35.50050000,"lon":-86.80972222,"rng_nm":50,"alt_fmsl":0,"id":"LUG","desc":"VERONA NDB"},
{"type":"VOR","hdg_t":327.6,"dist_nm":64.5,"freq":109.4,"lat":35.59900000,"lon":-88.35888889,"rng_nm":40,"alt_fmsl":630,"id":"JKS","desc":"JACKS CREEK VOR-DME"},
{"type":"VOR","hdg_t":8.1,"dist_nm":69.1,"freq":111.6,"lat":35.83391667,"lon":-87.45175000,"rng_nm":40,"alt_fmsl":775,"id":"GHM","desc":"GRAHAM VORTAC"},
{"type":"VOR","hdg_t":148.2,"dist_nm":71.7,"freq":114.4,"lat":33.67019444,"lon":-86.89980556,"rng_nm":130,"alt_fmsl":750,"id":"VUZ","desc":"VULCAN VORTAC"},
{"type":"VOR","hdg_t":212.1,"dist_nm":74,"freq":115.2,"lat":33.64152778,"lon":-88.43858333,"rng_nm":25,"alt_fmsl":250,"id":"CBM","desc":"CALEDONIA VORTAC"},
{"type":"NDB","hdg_t":294.9,"dist_nm":75.3,"freq":404,"lat":35.21433333,"lon":-89.04213889,"rng_nm":50,"alt_fmsl":0,"id":"BAV","desc":"HARDEMAN NDB"},
{"type":"NDB","hdg_t":109.9,"dist_nm":75.5,"freq":296,"lat":34.25291667,"lon":-86.22355556,"rng_nm":50,"alt_fmsl":0,"id":"ARF","desc":"SARATOGA NDB"},
{"type":"VOR","hdg_t":48.5,"dist_nm":79.3,"freq":109,"lat":35.56197222,"lon":-86.43916667,"rng_nm":40,"alt_fmsl":814,"id":"SYI","desc":"SHELBYVILLE VOR-DME"},
{"type":"VOR","hdg_t":58.8,"dist_nm":80.6,"freq":109.65,"lat":35.38041667,"lon":-86.24577778,"rng_nm":25,"alt_fmsl":0,"id":"UXM","desc":"TULLAHOMA RGNL VOR"},
{"type":"NDB","hdg_t":307.9,"dist_nm":81,"freq":394,"lat":35.51577778,"lon":-88.95697222,"rng_nm":50,"alt_fmsl":0,"id":"MK","desc":"MERSY NDB"},
{"type":"NDB","hdg_t":142.9,"dist_nm":81,"freq":394,"lat":33.60761111,"lon":-86.67877778,"rng_nm":50,"alt_fmsl":0,"id":"RO","desc":"ROEBY NDB"},
{"type":"SDME","hdg_t":146.9,"dist_nm":81.1,"freq":109.5,"lat":33.55216700,"lon":-86.77133300,"rng_nm":18,"alt_fmsl":644,"id":"IROE","desc":"KBHM 24 DME-ILS DME"},
{"type":"NDB","hdg_t":150.1,"dist_nm":81.3,"freq":224,"lat":33.51127778,"lon":-86.84561111,"rng_nm":50,"alt_fmsl":0,"id":"BH","desc":"MCDEN NDB"},
{"type":"VOR","hdg_t":311.8,"dist_nm":82.5,"freq":112,"lat":35.60355556,"lon":-88.91041667,"rng_nm":25,"alt_fmsl":410,"id":"MKL","desc":"MC KELLAR VOR-DME"},
{"type":"NDB","hdg_t":69,"dist_nm":83.4,"freq":263,"lat":35.17800000,"lon":-86.06816667,"rng_nm":50,"alt_fmsl":0,"id":"BGF","desc":"BOILING FORK NDB"},
{"type":"NDB","hdg_t":56,"dist_nm":83.4,"freq":332,"lat":35.46158333,"lon":-86.24169444,"rng_nm":50,"alt_fmsl":0,"id":"ULH","desc":"BURWI NDB"},
{"type":"VOR","hdg_t":210.9,"dist_nm":83.9,"freq":116.2,"lat":33.48547222,"lon":-88.51358333,"rng_nm":40,"alt_fmsl":240,"id":"IGB","desc":"BIGBEE VORTAC"},
{"type":"NDB","hdg_t":357.1,"dist_nm":85.4,"freq":329,"lat":36.11616667,"lon":-87.74127778,"rng_nm":50,"alt_fmsl":0,"id":"AEY","desc":"WAVERLY NDB"},
{"type":"VOR","hdg_t":176.1,"dist_nm":85.9,"freq":117.8,"lat":33.25886111,"lon":-87.53688889,"rng_nm":40,"alt_fmsl":370,"id":"LDK","desc":"CRIMSON VORTAC"},
{"type":"NDB","hdg_t":7,"dist_nm":86.7,"freq":203,"lat":36.12730556,"lon":-87.43236111,"rng_nm":50,"alt_fmsl":0,"id":"DMZ","desc":"DICKSON NDB"},
{"type":"VOR","hdg_t":118.3,"dist_nm":88.9,"freq":112.3,"lat":33.97641667,"lon":-86.08355556,"rng_nm":40,"alt_fmsl":560,"id":"GAD","desc":"GADSDEN VOR-DME"},
{"type":"VOR","hdg_t":166.8,"dist_nm":89.2,"freq":111,"lat":33.23955556,"lon":-87.25000000,"rng_nm":40,"alt_fmsl":649,"id":"OKW","desc":"BROOKWOOD VORTAC"},
{"type":"NDB","hdg_t":156,"dist_nm":90.2,"freq":368,"lat":33.31194700,"lon":-86.92315800,"rng_nm":25,"alt_fmsl":660,"id":"BEQ","desc":"BESSEMER NDB"},
{"type":"NDB","hdg_t":290.2,"dist_nm":91.1,"freq":255,"lat":35.20558333,"lon":-89.39277778,"rng_nm":50,"alt_fmsl":0,"id":"FYE","desc":"SOMERVILLE NDB"},
{"type":"VOR","hdg_t":273.5,"dist_nm":91.2,"freq":112.4,"lat":34.77025000,"lon":-89.49650000,"rng_nm":40,"alt_fmsl":630,"id":"HLI","desc":"HOLLY SPRINGS VORTAC"},
{"type":"NDB","hdg_t":180.5,"dist_nm":91.7,"freq":362,"lat":33.15847222,"lon":-87.67030556,"rng_nm":50,"alt_fmsl":0,"id":"TC","desc":"TUSKE NDB"},
{"type":"NDB","hdg_t":29.3,"dist_nm":92.3,"freq":304,"lat":36.03100000,"lon":-86.72177778,"rng_nm":50,"alt_fmsl":0,"id":"BN","desc":"DOBBS NDB"},
{"type":"NDB","hdg_t":334.7,"dist_nm":92.7,"freq":217,"lat":36.08847222,"lon":-88.46686111,"rng_nm":50,"alt_fmsl":0,"id":"HZD","desc":"HUNTINGDON NDB"},
{"type":"NDB","hdg_t":37.2,"dist_nm":95.6,"freq":391,"lat":35.95683333,"lon":-86.46391667,"rng_nm":50,"alt_fmsl":0,"id":"SWZ","desc":"SEWART NDB"},
{"type":"NDB","hdg_t":218.7,"dist_nm":96.1,"freq":281,"lat":33.43205556,"lon":-88.85033333,"rng_nm":50,"alt_fmsl":0,"id":"STF","desc":"BRYAN NDB"},
{"type":"NDB","hdg_t":133.7,"dist_nm":97.3,"freq":257,"lat":33.55900000,"lon":-86.24941667,"rng_nm":50,"alt_fmsl":0,"id":"PLR","desc":"PELL CITY NDB"},
{"type":"NDB","hdg_t":195.8,"dist_nm":98.1,"freq":254,"lat":33.11401400,"lon":-88.18558600,"rng_nm":25,"alt_fmsl":0,"id":"AIV","desc":"ALICEVILLE NDB"},
{"type":"NDB","hdg_t":95.3,"dist_nm":98.5,"freq":426,"lat":34.52113889,"lon":-85.67333333,"rng_nm":50,"alt_fmsl":0,"id":"FTP","desc":"FORT PAYNE NDB"},
{"type":"NDB","hdg_t":39.2,"dist_nm":98.7,"freq":371,"lat":35.96125000,"lon":-86.37097222,"rng_nm":50,"alt_fmsl":0,"id":"FQW","desc":"WALTER HILL NDB"},
{"type":"VOR","hdg_t":28.4,"dist_nm":98.7,"freq":114.1,"lat":36.13697222,"lon":-86.68477778,"rng_nm":130,"alt_fmsl":566,"id":"BNA","desc":"NASHVILLE VORTAC"},
{"type":"NDB","hdg_t":259.9,"dist_nm":99.5,"freq":426,"lat":34.38508333,"lon":-89.62597222,"rng_nm":50,"alt_fmsl":0,"id":"UV","desc":"TUNNG NDB"}
]
}
