{"success":true,"source":"xp2csv.pl","last_updated":"2013/11/08 14:53:21 UTC"
,"icao":"5CA4","name":"Ludlow","lat":34.75332194,"lon":-116.15417862,"rwys":1,"ils":0,"index":1040179,"path":"w120n30/w117n34"
,"runways":[
{"len_m":795,"wid_m":18.29,"hdg":93,"surf":"Asphalt","rwy1":"08","lat1":34.75357107,"lon1":-116.15851479,"rwy2":"26","lat2":34.75307281,"lon2":-116.14984245}
]
,"navaids":[
{"type":"VOR","hdg_t":279.8,"dist_nm":15.4,"freq":112.7,"lat":34.79702778,"lon":-116.46291667,"rng_nm":130,"alt_fmsl":1853,"id":"HEC","desc":"HECTOR VORTAC"},
{"type":"VOR","hdg_t":301,"dist_nm":24.3,"freq":113.2,"lat":34.96244444,"lon":-116.57816667,"rng_nm":40,"alt_fmsl":1760,"id":"DAG","desc":"DAGGETT VORTAC"},
{"type":"VOR","hdg_t":153.4,"dist_nm":42.8,"freq":114.2,"lat":34.11222222,"lon":-115.76991667,"rng_nm":40,"alt_fmsl":1374,"id":"TNP","desc":"TWENTYNINE PALMS VORTAC"},
{"type":"VOR","hdg_t":64.5,"dist_nm":53.2,"freq":114.4,"lat":35.13113889,"lon":-115.17644444,"rng_nm":40,"alt_fmsl":4000,"id":"GFS","desc":"GOFFS VORTAC"},
{"type":"VOR","hdg_t":194.5,"dist_nm":54.6,"freq":115.5,"lat":33.87002778,"lon":-116.42977778,"rng_nm":40,"alt_fmsl":1600,"id":"PSP","desc":"PALM SPRINGS VORTAC"},
{"type":"VOR","hdg_t":261.4,"dist_nm":61.8,"freq":109.4,"lat":34.59416667,"lon":-117.39000000,"rng_nm":25,"alt_fmsl":2855,"id":"VCV","desc":"VICTORVILLE VOR-DME"},
{"type":"VOR","hdg_t":180.2,"dist_nm":67.3,"freq":116.2,"lat":33.62808333,"lon":-116.16019444,"rng_nm":130,"alt_fmsl":-87,"id":"TRM","desc":"THERMAL VORTAC"},
{"type":"NDB","hdg_t":216.4,"dist_nm":71.1,"freq":227,"lat":33.79493900,"lon":-116.99927200,"rng_nm":25,"alt_fmsl":1498,"id":"SJY","desc":"SAN JACINTO NDB"},
{"type":"NDB","hdg_t":235.5,"dist_nm":73.2,"freq":397,"lat":34.05647222,"lon":-117.36611111,"rng_nm":50,"alt_fmsl":0,"id":"SB","desc":"PETIS (LOM/NDB) NDB"},
{"type":"SDME","hdg_t":227.9,"dist_nm":75.3,"freq":113,"lat":33.90646400,"lon":-117.27503300,"rng_nm":25,"alt_fmsl":1540,"id":"RIV","desc":"MARCH TACAN"},
{"type":"VOR","hdg_t":221.5,"dist_nm":77.8,"freq":113.4,"lat":33.77633333,"lon":-117.18533333,"rng_nm":25,"alt_fmsl":0,"id":"HDF","desc":"HOMELAND VOR"},
{"type":"VOR","hdg_t":280.4,"dist_nm":79.1,"freq":116.4,"lat":34.98236111,"lon":-117.73261111,"rng_nm":40,"alt_fmsl":2354,"id":"EDW","desc":"EDWARDS VORTAC"},
{"type":"VOR","hdg_t":233.7,"dist_nm":80.1,"freq":112.4,"lat":33.95519444,"lon":-117.44983333,"rng_nm":25,"alt_fmsl":0,"id":"RAL","desc":"RIVERSIDE VOR"},
{"type":"VOR","hdg_t":117.6,"dist_nm":82.8,"freq":117.9,"lat":34.10200000,"lon":-114.68208333,"rng_nm":130,"alt_fmsl":1000,"id":"PKE","desc":"PARKER VORTAC"},
{"type":"VOR","hdg_t":88.9,"dist_nm":83,"freq":115.2,"lat":34.76600000,"lon":-114.47411111,"rng_nm":130,"alt_fmsl":620,"id":"EED","desc":"NEEDLES VORTAC"},
{"type":"VOR","hdg_t":234.1,"dist_nm":84.7,"freq":112.2,"lat":33.91833333,"lon":-117.53000000,"rng_nm":130,"alt_fmsl":1432,"id":"PDZ","desc":"PARADISE VORTAC"},
{"type":"VOR","hdg_t":243.9,"dist_nm":90.5,"freq":110.4,"lat":34.07838889,"lon":-117.78708333,"rng_nm":40,"alt_fmsl":1266,"id":"POM","desc":"POMONA VORTAC"},
{"type":"VOR","hdg_t":31.2,"dist_nm":93.2,"freq":116.9,"lat":36.07969444,"lon":-115.15980556,"rng_nm":130,"alt_fmsl":2141,"id":"LAS","desc":"LAS VEGAS VORTAC"},
{"type":"SDME","hdg_t":306.9,"dist_nm":94,"freq":111.6,"lat":35.68792800,"lon":-117.69047200,"rng_nm":25,"alt_fmsl":2272,"id":"NID","desc":"CHINA LAKE TACAN"},
{"type":"VOR","hdg_t":266.1,"dist_nm":94.7,"freq":114.5,"lat":34.63138889,"lon":-118.06383333,"rng_nm":130,"alt_fmsl":2498,"id":"PMD","desc":"PALMDALE VORTAC"},
{"type":"VOR","hdg_t":40,"dist_nm":97.7,"freq":116.7,"lat":35.99577778,"lon":-114.86358333,"rng_nm":130,"alt_fmsl":3650,"id":"BLD","desc":"BOULDER CITY VORTAC"},
{"type":"VOR","hdg_t":134.5,"dist_nm":98,"freq":117.4,"lat":33.59605556,"lon":-114.76127778,"rng_nm":130,"alt_fmsl":410,"id":"BLH","desc":"BLYTHE VORTAC"},
{"type":"VOR","hdg_t":192.6,"dist_nm":98.9,"freq":114,"lat":33.14047222,"lon":-116.58594444,"rng_nm":40,"alt_fmsl":5560,"id":"JLI","desc":"JULIAN VORTAC"}
]
}
