{"success":true,"source":"xp2csv.pl","last_updated":"2013/11/08 14:53:21 UTC"
,"icao":"5CL0","name":"Grupe Ranch","lat":37.34049722,"lon":-119.86210556,"rwys":1,"ils":0,"index":991184,"path":"w120n30/w120n37"
,"runways":[
{"len_m":855,"wid_m":15.24,"hdg":104,"surf":"Asphalt","rwy1":"09","lat1":37.34149113,"lon1":-119.86677111,"rwy2":"27","lat2":37.33950331,"lon2":-119.85744001}
]
,"navaids":[
{"type":"VOR","hdg_t":137.8,"dist_nm":19,"freq":115.6,"lat":37.10441667,"lon":-119.59544444,"rng_nm":40,"alt_fmsl":2380,"id":"FRA","desc":"FRIANT VORTAC"},
{"type":"VOR","hdg_t":254.4,"dist_nm":26.7,"freq":114.2,"lat":37.21944444,"lon":-120.40022222,"rng_nm":40,"alt_fmsl":184,"id":"HYP","desc":"EL NIDO VOR-DME"},
{"type":"VOR","hdg_t":175.2,"dist_nm":27.4,"freq":112.9,"lat":36.88433333,"lon":-119.81513889,"rng_nm":130,"alt_fmsl":360,"id":"CZQ","desc":"CLOVIS VORTAC"},
{"type":"NDB","hdg_t":177.8,"dist_nm":36.9,"freq":344,"lat":36.72394444,"lon":-119.83369444,"rng_nm":50,"alt_fmsl":0,"id":"FCH","desc":"CHANDLER NDB"},
{"type":"NDB","hdg_t":286.6,"dist_nm":49.4,"freq":367,"lat":37.57311111,"lon":-120.85511111,"rng_nm":50,"alt_fmsl":0,"id":"MO","desc":"WOWAR NDB"},
{"type":"VOR","hdg_t":288.5,"dist_nm":55,"freq":114.6,"lat":37.62736111,"lon":-120.95786111,"rng_nm":130,"alt_fmsl":93,"id":"MOD","desc":"MODESTO VOR-DME"},
{"type":"VOR","hdg_t":229.8,"dist_nm":57.8,"freq":112.6,"lat":36.71547222,"lon":-120.77869444,"rng_nm":40,"alt_fmsl":2060,"id":"PXN","desc":"PANOCHE VORTAC"},
{"type":"SDME","hdg_t":184.8,"dist_nm":59.9,"freq":113.3,"lat":36.34409700,"lon":-119.96631700,"rng_nm":25,"alt_fmsl":231,"id":"NLC","desc":"LEMOORE TACAN"},
{"type":"VOR","hdg_t":162.4,"dist_nm":61.1,"freq":109.4,"lat":36.36730556,"lon":-119.48216667,"rng_nm":25,"alt_fmsl":260,"id":"VIS","desc":"VISALIA VOR-DME"},
{"type":"VOR","hdg_t":295.7,"dist_nm":69,"freq":116,"lat":37.83361111,"lon":-121.17138889,"rng_nm":130,"alt_fmsl":47,"id":"ECA","desc":"MANTECA VOR-DME"},
{"type":"VOR","hdg_t":309.3,"dist_nm":69.9,"freq":114.8,"lat":38.07458333,"lon":-121.00386111,"rng_nm":130,"alt_fmsl":260,"id":"LIN","desc":"LINDEN VORTAC"},
{"type":"VOR","hdg_t":87.7,"dist_nm":71.5,"freq":109.6,"lat":37.37694444,"lon":-118.36652778,"rng_nm":25,"alt_fmsl":4117,"id":"BIH","desc":"BISHOP VOR-DME"},
{"type":"NDB","hdg_t":168,"dist_nm":78,"freq":205,"lat":36.06605556,"lon":-119.53094444,"rng_nm":50,"alt_fmsl":0,"id":"COR","desc":"SALYER FARMS NDB"},
{"type":"NDB","hdg_t":286,"dist_nm":78.4,"freq":203,"lat":37.69238889,"lon":-121.44463889,"rng_nm":50,"alt_fmsl":0,"id":"TCY","desc":"TRACY NDB"},
{"type":"VOR","hdg_t":208.5,"dist_nm":81.6,"freq":110,"lat":36.14038889,"lon":-120.66491667,"rng_nm":40,"alt_fmsl":0,"id":"ROM","desc":"PRIEST VOR"},
{"type":"NDB","hdg_t":284.1,"dist_nm":89.4,"freq":374,"lat":37.69222222,"lon":-121.68408333,"rng_nm":50,"alt_fmsl":0,"id":"LV","desc":"REIGA NDB"},
{"type":"NDB","hdg_t":237.2,"dist_nm":92.8,"freq":263,"lat":36.49091667,"lon":-121.47491667,"rng_nm":50,"alt_fmsl":0,"id":"UAD","desc":"CHUALAR NDB"},
{"type":"VOR","hdg_t":244.6,"dist_nm":92.9,"freq":117.3,"lat":36.66383333,"lon":-121.60319444,"rng_nm":130,"alt_fmsl":101,"id":"SNS","desc":"SALINAS VORTAC"},
{"type":"VOR","hdg_t":333.3,"dist_nm":93,"freq":115.5,"lat":38.72472222,"lon":-120.74925000,"rng_nm":40,"alt_fmsl":2583,"id":"HNW","desc":"HANGTOWN VOR-DME"},
{"type":"VOR","hdg_t":154.3,"dist_nm":94.6,"freq":109.2,"lat":35.91305556,"lon":-119.02080556,"rng_nm":40,"alt_fmsl":580,"id":"TTE","desc":"TULE VOR-DME"},
{"type":"NDB","hdg_t":255.2,"dist_nm":96.8,"freq":327,"lat":36.91355556,"lon":-121.80797222,"rng_nm":50,"alt_fmsl":0,"id":"PDG","desc":"PAJAR NDB"},
{"type":"VOR","hdg_t":271.8,"dist_nm":99.6,"freq":114.1,"lat":37.37472222,"lon":-121.94466667,"rng_nm":40,"alt_fmsl":43,"id":"SJC","desc":"SAN JOSE VOR-DME"}
]
}
