{"success":true,"source":"xp2csv.pl","last_updated":"2013/11/08 14:53:21 UTC"
,"icao":"5J4","name":"Harpers","lat":32.75850194,"lon":-81.22482473,"rwys":1,"ils":0,"index":1613491,"path":"w090n30/w082n32"
,"runways":[
{"len_m":975,"wid_m":25.91,"hdg":36,"surf":"Turf/grass","rwy1":"04","lat1":32.75495135,"lon1":-81.22789225,"rwy2":"22","lat2":32.76205253,"lon2":-81.22175721}
]
,"navaids":[
{"type":"VOR","hdg_t":347.3,"dist_nm":15.5,"freq":116.7,"lat":33.01250000,"lon":-81.29222222,"rng_nm":40,"alt_fmsl":0,"id":"ALD","desc":"ALLENDALE VOR"},
{"type":"NDB","hdg_t":250.8,"dist_nm":19.8,"freq":245,"lat":32.64916667,"lon":-81.59427778,"rng_nm":50,"alt_fmsl":0,"id":"JYL","desc":"SYLVANIA NDB"},
{"type":"NDB","hdg_t":227.4,"dist_nm":30.2,"freq":407,"lat":32.41536111,"lon":-81.66402778,"rng_nm":50,"alt_fmsl":0,"id":"BZ","desc":"BULLO NDB"},
{"type":"SDME","hdg_t":122.9,"dist_nm":30.6,"freq":110.5,"lat":32.47903600,"lon":-80.71733300,"rng_nm":40,"alt_fmsl":49,"id":"NBC","desc":"BEAUFORT TACAN"},
{"type":"NDB","hdg_t":71.1,"dist_nm":31.2,"freq":221,"lat":32.92580556,"lon":-80.64019444,"rng_nm":50,"alt_fmsl":0,"id":"RBW","desc":"WALTERBORO NDB"},
{"type":"NDB","hdg_t":344.1,"dist_nm":36.6,"freq":392,"lat":33.34680300,"lon":-81.42405800,"rng_nm":25,"alt_fmsl":380,"id":"BKO","desc":"BARNWELL NDB"},
{"type":"VOR","hdg_t":177.9,"dist_nm":36.6,"freq":115.95,"lat":32.14627778,"lon":-81.19911111,"rng_nm":130,"alt_fmsl":9,"id":"SAV","desc":"SAVANNAH VORTAC"},
{"type":"NDB","hdg_t":188.2,"dist_nm":38,"freq":368,"lat":32.12986111,"lon":-81.33155556,"rng_nm":50,"alt_fmsl":0,"id":"SA","desc":"MAVIS NDB"},
{"type":"NDB","hdg_t":282.4,"dist_nm":38.3,"freq":205,"lat":32.89463889,"lon":-81.96694444,"rng_nm":50,"alt_fmsl":0,"id":"LNH","desc":"MILLEN NDB"},
{"type":"NDB","hdg_t":293.5,"dist_nm":42.9,"freq":356,"lat":33.04252778,"lon":-82.00483333,"rng_nm":50,"alt_fmsl":0,"id":"BXG","desc":"BURKE CO NDB"},
{"type":"VOR","hdg_t":174.5,"dist_nm":44.9,"freq":111.6,"lat":32.01194444,"lon":-81.14086111,"rng_nm":25,"alt_fmsl":40,"id":"SVN","desc":"HUNTER VOR-DME"},
{"type":"VOR","hdg_t":23.7,"dist_nm":45.6,"freq":111.4,"lat":33.45572222,"lon":-80.85841667,"rng_nm":25,"alt_fmsl":188,"id":"EDS","desc":"EDISTO VOR-DME"},
{"type":"NDB","hdg_t":164.9,"dist_nm":46.7,"freq":335,"lat":32.00397222,"lon":-80.98619444,"rng_nm":50,"alt_fmsl":0,"id":"SV","desc":"WASSA NDB"},
{"type":"NDB","hdg_t":224.8,"dist_nm":47.3,"freq":395,"lat":32.19688889,"lon":-81.88061111,"rng_nm":50,"alt_fmsl":0,"id":"CWV","desc":"CLAXTON NDB"},
{"type":"NDB","hdg_t":311.1,"dist_nm":48.2,"freq":233,"lat":33.28694444,"lon":-81.94688889,"rng_nm":50,"alt_fmsl":0,"id":"AG","desc":"BUSHE (LOM) NDB"},
{"type":"NDB","hdg_t":68.9,"dist_nm":51.1,"freq":365,"lat":33.06127778,"lon":-80.27730556,"rng_nm":50,"alt_fmsl":0,"id":"DYB","desc":"DORCHESTER CO NDB"},
{"type":"NDB","hdg_t":317.5,"dist_nm":57.3,"freq":385,"lat":33.46280556,"lon":-81.99686111,"rng_nm":50,"alt_fmsl":0,"id":"EMR","desc":"EMORY NDB"},
{"type":"NDB","hdg_t":194.7,"dist_nm":57.3,"freq":263,"lat":31.83116667,"lon":-81.51019444,"rng_nm":50,"alt_fmsl":0,"id":"MOQ","desc":"MC INTOSH NDB"},
{"type":"VOR","hdg_t":42.1,"dist_nm":58,"freq":110.4,"lat":33.47483333,"lon":-80.44863889,"rng_nm":40,"alt_fmsl":140,"id":"VAN","desc":"VANCE VORTAC"},
{"type":"NDB","hdg_t":337,"dist_nm":58.1,"freq":347,"lat":33.65180556,"lon":-81.67705556,"rng_nm":50,"alt_fmsl":0,"id":"AIK","desc":"AIKEN NDB"},
{"type":"NDB","hdg_t":76.7,"dist_nm":58.4,"freq":329,"lat":32.97633333,"lon":-80.09744444,"rng_nm":50,"alt_fmsl":0,"id":"CH","desc":"ASHLY (LOM/NDB) NDB"},
{"type":"VOR","hdg_t":81.9,"dist_nm":60.5,"freq":113.5,"lat":32.89430556,"lon":-80.03780556,"rng_nm":130,"alt_fmsl":39,"id":"CHS","desc":"CHARLESTON VORTAC"},
{"type":"NDB","hdg_t":265.2,"dist_nm":62.4,"freq":309,"lat":32.66652778,"lon":-82.45269444,"rng_nm":50,"alt_fmsl":0,"id":"EEX","desc":"EMANUEL CO NDB"},
{"type":"NDB","hdg_t":228.5,"dist_nm":63,"freq":424,"lat":32.05769444,"lon":-82.15233333,"rng_nm":50,"alt_fmsl":0,"id":"RVJ","desc":"PRISON NDB"},
{"type":"NDB","hdg_t":239.8,"dist_nm":63.1,"freq":372,"lat":32.22325000,"lon":-82.29816667,"rng_nm":50,"alt_fmsl":0,"id":"UQN","desc":"ONYUN NDB"},
{"type":"NDB","hdg_t":66.3,"dist_nm":65.4,"freq":354,"lat":33.19100000,"lon":-80.03341667,"rng_nm":50,"alt_fmsl":0,"id":"MKS","desc":"MONCKS CORNER NDB"},
{"type":"VOR","hdg_t":7.3,"dist_nm":66.3,"freq":114.7,"lat":33.85725000,"lon":-81.05391667,"rng_nm":130,"alt_fmsl":400,"id":"CAE","desc":"COLUMBIA VORTAC"},
{"type":"NDB","hdg_t":45.6,"dist_nm":71.4,"freq":381,"lat":33.58788889,"lon":-80.20613889,"rng_nm":50,"alt_fmsl":0,"id":"MNI","desc":"MANNING NDB"},
{"type":"NDB","hdg_t":359.2,"dist_nm":72.3,"freq":362,"lat":33.96716667,"lon":-81.24469444,"rng_nm":50,"alt_fmsl":0,"id":"CA","desc":"MURRY NDB"},
{"type":"VOR","hdg_t":16.8,"dist_nm":72.9,"freq":113.2,"lat":33.92408333,"lon":-80.80233333,"rng_nm":40,"alt_fmsl":248,"id":"MMT","desc":"MC ENTIRE VORTAC"},
{"type":"NDB","hdg_t":16.7,"dist_nm":73.6,"freq":427,"lat":33.93572222,"lon":-80.79833333,"rng_nm":50,"alt_fmsl":0,"id":"MMT","desc":"MC ENTIRE NDB"},
{"type":"VOR","hdg_t":320.5,"dist_nm":73.8,"freq":113.9,"lat":33.70736111,"lon":-82.16205556,"rng_nm":130,"alt_fmsl":428,"id":"IRQ","desc":"COLLIERS VORTAC"},
{"type":"NDB","hdg_t":205.2,"dist_nm":79.6,"freq":340,"lat":31.55252778,"lon":-81.88700000,"rng_nm":50,"alt_fmsl":0,"id":"JES","desc":"SLOVER NDB"},
{"type":"NDB","hdg_t":305.6,"dist_nm":79.6,"freq":333,"lat":33.52740600,"lon":-82.51563900,"rng_nm":25,"alt_fmsl":452,"id":"HQU","desc":"THOMSON MCDUFFIE NDB"},
{"type":"VOR","hdg_t":262.2,"dist_nm":82.1,"freq":113.1,"lat":32.56344444,"lon":-82.83000000,"rng_nm":40,"alt_fmsl":265,"id":"DBN","desc":"DUBLIN VORTAC"},
{"type":"SDME","hdg_t":27.3,"dist_nm":82.3,"freq":110.1,"lat":33.97782500,"lon":-80.46622200,"rng_nm":40,"alt_fmsl":241,"id":"SSC","desc":"SHAW TACAN"},
{"type":"NDB","hdg_t":303.9,"dist_nm":83.9,"freq":341,"lat":33.53327778,"lon":-82.61436111,"rng_nm":50,"alt_fmsl":0,"id":"AA","desc":"CEDAR NDB"},
{"type":"NDB","hdg_t":30.2,"dist_nm":85.6,"freq":252,"lat":33.99080556,"lon":-80.36002778,"rng_nm":50,"alt_fmsl":0,"id":"SMS","desc":"SUMTER NDB"},
{"type":"NDB","hdg_t":223.7,"dist_nm":86.2,"freq":376,"lat":31.71202778,"lon":-82.39016667,"rng_nm":50,"alt_fmsl":0,"id":"BHC","desc":"BAXLEY NDB"},
{"type":"NDB","hdg_t":280.5,"dist_nm":87.9,"freq":360,"lat":33.01694444,"lon":-82.93941667,"rng_nm":50,"alt_fmsl":0,"id":"HIT","desc":"KAOLIN NDB"},
{"type":"NDB","hdg_t":234.3,"dist_nm":89.4,"freq":414,"lat":31.88019444,"lon":-82.64736111,"rng_nm":50,"alt_fmsl":0,"id":"AZE","desc":"HAZLEHURST NDB"},
{"type":"NDB","hdg_t":49.8,"dist_nm":89.7,"freq":404,"lat":33.71777778,"lon":-79.85500000,"rng_nm":50,"alt_fmsl":0,"id":"CKI","desc":"KINGSTREE NDB"},
{"type":"NDB","hdg_t":260.1,"dist_nm":91.9,"freq":251,"lat":32.48383333,"lon":-83.01094444,"rng_nm":50,"alt_fmsl":0,"id":"DB","desc":"CREKE NDB"},
{"type":"NDB","hdg_t":190.1,"dist_nm":93,"freq":275,"lat":31.22833333,"lon":-81.54272222,"rng_nm":50,"alt_fmsl":0,"id":"BQ","desc":"JEFFI NDB"},
{"type":"NDB","hdg_t":245.1,"dist_nm":93.1,"freq":280,"lat":32.09461111,"lon":-82.88375000,"rng_nm":50,"alt_fmsl":0,"id":"MQW","desc":"MC RAE NDB"},
{"type":"NDB","hdg_t":3.4,"dist_nm":93.3,"freq":414,"lat":34.31441667,"lon":-81.11266667,"rng_nm":50,"alt_fmsl":0,"id":"FDW","desc":"WINNSBORO NDB"},
{"type":"NDB","hdg_t":63.6,"dist_nm":95,"freq":255,"lat":33.45147222,"lon":-79.52725000,"rng_nm":50,"alt_fmsl":0,"id":"PHH","desc":"ANDREWS NDB"},
{"type":"NDB","hdg_t":347.6,"dist_nm":95.2,"freq":278,"lat":34.31152778,"lon":-81.63594444,"rng_nm":50,"alt_fmsl":0,"id":"EOE","desc":"ENOREE NDB"},
{"type":"NDB","hdg_t":19.8,"dist_nm":97.2,"freq":263,"lat":34.28355556,"lon":-80.56152778,"rng_nm":50,"alt_fmsl":0,"id":"CDN","desc":"CAMDEN NDB"},
{"type":"VOR","hdg_t":222.1,"dist_nm":98.1,"freq":115.1,"lat":31.53652778,"lon":-82.50808333,"rng_nm":130,"alt_fmsl":200,"id":"AMG","desc":"ALMA VORTAC"},
{"type":"NDB","hdg_t":47.7,"dist_nm":98.4,"freq":420,"lat":33.85600000,"lon":-79.76588889,"rng_nm":50,"alt_fmsl":0,"id":"CFY","desc":"EVANS NDB"},
{"type":"NDB","hdg_t":334.4,"dist_nm":99.4,"freq":239,"lat":34.25372222,"lon":-82.08622222,"rng_nm":50,"alt_fmsl":0,"id":"GIW","desc":"CORONACA NDB"}
]
}
