{"success":true,"source":"xp2csv.pl","last_updated":"2013/11/08 14:53:21 UTC"
,"icao":"5M5","name":"Crystal Lake","lat":36.343554,"lon":-94.4448095,"rwys":1,"ils":0,"index":1400722,"path":"w100n30/w095n36"
,"runways":[
{"len_m":1178,"wid_m":22.86,"hdg":134,"surf":"Asphalt","rwy1":"13","lat1":36.34727200,"lon1":-94.44949400,"rwy2":"31","lat2":36.33983600,"lon2":-94.44012500}
]
,"radios":[
{"type":"CTAF","freq":122.8,"desc":"CTAF/UNICOM"},
{"type":"APP","freq":121,"desc":"RAZORBACK APP/DEP"},
{"type":"APP","freq":121.72,"desc":"RAZORBACK APP/DEP"}
]
,"navaids":[
{"type":"NDB","hdg_t":192.9,"dist_nm":9.4,"freq":284,"lat":36.18925000,"lon":-94.48855556,"rng_nm":50,"alt_fmsl":0,"id":"SLG","desc":"SILOAM SPRINGS NDB"},
{"type":"VOR","hdg_t":110.2,"dist_nm":16.7,"freq":116.4,"lat":36.24641667,"lon":-94.12138889,"rng_nm":130,"alt_fmsl":1331,"id":"RZC","desc":"RAZORBACK VORTAC"},
{"type":"NDB","hdg_t":68.7,"dist_nm":19.4,"freq":263,"lat":36.46113889,"lon":-94.06947222,"rng_nm":50,"alt_fmsl":0,"id":"RO","desc":"ROGRS NDB"},
{"type":"VOR","hdg_t":146.2,"dist_nm":21.6,"freq":108.8,"lat":36.04288889,"lon":-94.19755556,"rng_nm":25,"alt_fmsl":1530,"id":"DAK","desc":"DRAKE VOR-DME"},
{"type":"VOR","hdg_t":0.8,"dist_nm":29.8,"freq":117.3,"lat":36.84244444,"lon":-94.43569444,"rng_nm":130,"alt_fmsl":1200,"id":"EOS","desc":"NEOSHO VOR-DME"},
{"type":"NDB","hdg_t":227.7,"dist_nm":36.9,"freq":215,"lat":35.92722222,"lon":-95.00658333,"rng_nm":50,"alt_fmsl":0,"id":"TQH","desc":"TAHLEQUAH NDB"},
{"type":"NDB","hdg_t":353.9,"dist_nm":51.7,"freq":344,"lat":37.20308333,"lon":-94.55858333,"rng_nm":50,"alt_fmsl":0,"id":"JL","desc":"LUNNS NDB"},
{"type":"VOR","hdg_t":171.5,"dist_nm":57.8,"freq":110.4,"lat":35.38841667,"lon":-94.27152778,"rng_nm":40,"alt_fmsl":430,"id":"FSM","desc":"FORT SMITH VORTAC"},
{"type":"NDB","hdg_t":196.8,"dist_nm":59.1,"freq":520,"lat":35.39858333,"lon":-94.79422222,"rng_nm":50,"alt_fmsl":0,"id":"IQS","desc":"SALLISAW NDB"},
{"type":"VOR","hdg_t":91,"dist_nm":59.7,"freq":112.5,"lat":36.31830556,"lon":-93.21327778,"rng_nm":40,"alt_fmsl":1400,"id":"HRO","desc":"HARRISON VOR-DME"},
{"type":"NDB","hdg_t":169.3,"dist_nm":60.3,"freq":223,"lat":35.35419444,"lon":-94.21700000,"rng_nm":50,"alt_fmsl":0,"id":"FS","desc":"WIZER NDB"},
{"type":"VOR","hdg_t":228,"dist_nm":60.6,"freq":108.6,"lat":35.66315400,"lon":-95.36774700,"rng_nm":25,"alt_fmsl":610,"id":"MEE","desc":"DAVIS VOR"},
{"type":"NDB","hdg_t":222.6,"dist_nm":60.7,"freq":306,"lat":35.59482000,"lon":-95.28718800,"rng_nm":25,"alt_fmsl":528,"id":"MKO","desc":"MUSKOGEE NDB"},
{"type":"VOR","hdg_t":323.3,"dist_nm":60.9,"freq":117.6,"lat":37.15750000,"lon":-95.20363889,"rng_nm":40,"alt_fmsl":930,"id":"OSW","desc":"OSWEGO VORTAC"},
{"type":"NDB","hdg_t":181.3,"dist_nm":61.1,"freq":311,"lat":35.32271111,"lon":-94.47417500,"rng_nm":50,"alt_fmsl":0,"id":"GK","desc":"JEMBO NDB"},
{"type":"NDB","hdg_t":73.4,"dist_nm":61.1,"freq":204,"lat":36.62756400,"lon":-93.22991100,"rng_nm":25,"alt_fmsl":933,"id":"PLK","desc":"POINT LOOKOUT NDB"},
{"type":"NDB","hdg_t":97.9,"dist_nm":62.9,"freq":395,"lat":36.19105556,"lon":-93.16019444,"rng_nm":50,"alt_fmsl":0,"id":"HR","desc":"BAKKY NDB"},
{"type":"VOR","hdg_t":262.6,"dist_nm":65.7,"freq":114.4,"lat":36.19625000,"lon":-95.78808333,"rng_nm":130,"alt_fmsl":788,"id":"TUL","desc":"TULSA VORTAC"},
{"type":"NDB","hdg_t":348.4,"dist_nm":67.2,"freq":365,"lat":37.44247222,"lon":-94.72655556,"rng_nm":50,"alt_fmsl":0,"id":"PTS","desc":"PITTSBURG NDB"},
{"type":"NDB","hdg_t":5.3,"dist_nm":68.8,"freq":356,"lat":37.48700000,"lon":-94.31022222,"rng_nm":50,"alt_fmsl":0,"id":"LLU","desc":"SPRING RIVER NDB"},
{"type":"NDB","hdg_t":268.6,"dist_nm":69.3,"freq":375,"lat":36.30738889,"lon":-95.87527778,"rng_nm":50,"alt_fmsl":0,"id":"DW","desc":"OWASO NDB"},
{"type":"NDB","hdg_t":44.3,"dist_nm":70.4,"freq":404,"lat":37.18022222,"lon":-93.41719444,"rng_nm":50,"alt_fmsl":0,"id":"SG","desc":"COOLE NDB"},
{"type":"NDB","hdg_t":309.9,"dist_nm":70.5,"freq":212,"lat":37.09327778,"lon":-95.57133333,"rng_nm":50,"alt_fmsl":0,"id":"CFV","desc":"COFFEYVILLE NDB"},
{"type":"NDB","hdg_t":258.5,"dist_nm":71.6,"freq":338,"lat":36.09738889,"lon":-95.88877778,"rng_nm":50,"alt_fmsl":0,"id":"TU","desc":"OILLR NDB"},
{"type":"NDB","hdg_t":136.1,"dist_nm":72.2,"freq":201,"lat":35.46925000,"lon":-93.42352778,"rng_nm":50,"alt_fmsl":0,"id":"CZE","desc":"CLARKSVILLE NDB"},
{"type":"NDB","hdg_t":39.8,"dist_nm":74.9,"freq":254,"lat":37.29940600,"lon":-93.44073100,"rng_nm":50,"alt_fmsl":0,"id":"ILJ","desc":"WILLARD NDB"},
{"type":"NDB","hdg_t":304.3,"dist_nm":77.5,"freq":329,"lat":37.06583333,"lon":-95.77775000,"rng_nm":50,"alt_fmsl":0,"id":"ID","desc":"JEFFE NDB"},
{"type":"VOR","hdg_t":251.5,"dist_nm":78.2,"freq":110.6,"lat":35.92088889,"lon":-95.96863889,"rng_nm":25,"alt_fmsl":810,"id":"GNP","desc":"GLENPOOL VOR-DME"},
{"type":"NDB","hdg_t":319.6,"dist_nm":78.5,"freq":258,"lat":37.33814700,"lon":-95.50870000,"rng_nm":25,"alt_fmsl":900,"id":"PPF","desc":"PARSONS NDB"},
{"type":"VOR","hdg_t":241,"dist_nm":79.3,"freq":114.9,"lat":35.69311111,"lon":-95.86597222,"rng_nm":130,"alt_fmsl":766,"id":"OKM","desc":"OKMULGEE VOR-DME"},
{"type":"VOR","hdg_t":41,"dist_nm":80.8,"freq":116.9,"lat":37.35594444,"lon":-93.33402778,"rng_nm":130,"alt_fmsl":1240,"id":"SGF","desc":"SPRINGFIELD VORTAC"},
{"type":"NDB","hdg_t":244.7,"dist_nm":81.2,"freq":388,"lat":35.75527778,"lon":-95.94872222,"rng_nm":50,"alt_fmsl":0,"id":"OK","desc":"PRESO NDB"},
{"type":"NDB","hdg_t":291.8,"dist_nm":81.4,"freq":201,"lat":36.83950000,"lon":-96.01397222,"rng_nm":50,"alt_fmsl":0,"id":"BV","desc":"DEWIE NDB"},
{"type":"VOR","hdg_t":291.6,"dist_nm":81.5,"freq":117.9,"lat":36.83425000,"lon":-96.01830556,"rng_nm":40,"alt_fmsl":940,"id":"BVO","desc":"BARTLESVILLE VOR-DME"},
{"type":"NDB","hdg_t":263.4,"dist_nm":83.5,"freq":362,"lat":36.17297222,"lon":-96.15422222,"rng_nm":50,"alt_fmsl":0,"id":"OWP","desc":"WILLIAM POGUE NDB"},
{"type":"VOR","hdg_t":61.2,"dist_nm":85.9,"freq":109.4,"lat":37.02347222,"lon":-92.87691667,"rng_nm":40,"alt_fmsl":1600,"id":"DGD","desc":"DOGWOOD VORTAC"},
{"type":"NDB","hdg_t":350,"dist_nm":88.4,"freq":379,"lat":37.79688889,"lon":-94.76555556,"rng_nm":50,"alt_fmsl":0,"id":"FSK","desc":"FORT SCOTT NDB"},
{"type":"NDB","hdg_t":134.2,"dist_nm":92.6,"freq":379,"lat":35.25708333,"lon":-93.09461111,"rng_nm":50,"alt_fmsl":0,"id":"RUE","desc":"RUSSELLVILLE NDB"},
{"type":"VOR","hdg_t":324.6,"dist_nm":94.6,"freq":109.2,"lat":37.62613889,"lon":-95.59344444,"rng_nm":40,"alt_fmsl":1080,"id":"CNU","desc":"CHANUTE VOR-DME"},
{"type":"NDB","hdg_t":234.1,"dist_nm":94.9,"freq":267,"lat":35.40455556,"lon":-96.01388889,"rng_nm":50,"alt_fmsl":0,"id":"HET","desc":"HENRYETTA NDB"},
{"type":"VOR","hdg_t":90.9,"dist_nm":96.3,"freq":112.8,"lat":36.29963889,"lon":-92.45838889,"rng_nm":40,"alt_fmsl":780,"id":"FLP","desc":"FLIPPIN VOR-DME"},
{"type":"NDB","hdg_t":332,"dist_nm":98.4,"freq":410,"lat":37.79152778,"lon":-95.41491667,"rng_nm":50,"alt_fmsl":0,"id":"MSB","desc":"MONARCH NDB"},
{"type":"VOR","hdg_t":184.6,"dist_nm":99.9,"freq":113.5,"lat":34.68044444,"lon":-94.60900000,"rng_nm":40,"alt_fmsl":2700,"id":"PGO","desc":"RICH MOUNTAIN VORTAC"}
]
}
