{"success":true,"source":"xp2csv.pl","last_updated":"2013/11/08 14:53:21 UTC"
,"icao":"5MI2","name":"Mc Questions","lat":44.07723444,"lon":-85.43755084,"rwys":1,"ils":0,"index":1548674,"path":"w090n40/w086n44"
,"runways":[
{"len_m":548,"wid_m":15.24,"hdg":165,"surf":"Turf/grass","rwy1":"17","lat1":44.07962979,"lon1":-85.43838217,"rwy2":"35","lat2":44.07483909,"lon2":-85.43671951}
]
,"navaids":[
{"type":"NDB","hdg_t":333.7,"dist_nm":10.6,"freq":336,"lat":44.23708333,"lon":-85.54736111,"rng_nm":50,"alt_fmsl":0,"id":"MA","desc":"WEXOR NDB"},
{"type":"VOR","hdg_t":201.9,"dist_nm":32.4,"freq":117.6,"lat":43.57486111,"lon":-85.71616667,"rng_nm":40,"alt_fmsl":920,"id":"HIC","desc":"WHITE CLOUD VOR-DME"},
{"type":"NDB","hdg_t":291.1,"dist_nm":32.5,"freq":254,"lat":44.27075000,"lon":-86.14286111,"rng_nm":50,"alt_fmsl":0,"id":"MB","desc":"JEPOT NDB"},
{"type":"VOR","hdg_t":352.2,"dist_nm":35.7,"freq":114.6,"lat":44.66791667,"lon":-85.55002778,"rng_nm":130,"alt_fmsl":912,"id":"TVC","desc":"TRAVERSE CITY VORTAC"},
{"type":"VOR","hdg_t":288.5,"dist_nm":37.1,"freq":111.4,"lat":44.27063889,"lon":-86.25405556,"rng_nm":40,"alt_fmsl":620,"id":"MBL","desc":"MANISTEE VOR-DME"},
{"type":"VOR","hdg_t":62.8,"dist_nm":37.3,"freq":111.6,"lat":44.35888889,"lon":-84.66572222,"rng_nm":25,"alt_fmsl":1145,"id":"HTL","desc":"HOUGHTON LAKE VOR-DME"},
{"type":"NDB","hdg_t":0.5,"dist_nm":39.4,"freq":365,"lat":44.73450000,"lon":-85.42927778,"rng_nm":50,"alt_fmsl":0,"id":"TV","desc":"GWENN NDB"},
{"type":"VOR","hdg_t":131.6,"dist_nm":40.8,"freq":110.6,"lat":43.62283333,"lon":-84.73727778,"rng_nm":40,"alt_fmsl":752,"id":"MOP","desc":"MOUNT PLEASANT VOR-DME"},
{"type":"NDB","hdg_t":98.4,"dist_nm":42.1,"freq":209,"lat":43.97019444,"lon":-84.47516667,"rng_nm":50,"alt_fmsl":0,"id":"GDW","desc":"WIGGINS NDB"},
{"type":"NDB","hdg_t":261.1,"dist_nm":42.6,"freq":341,"lat":43.96316667,"lon":-86.40950000,"rng_nm":50,"alt_fmsl":0,"id":"LDM","desc":"LUDINGTON NDB"},
{"type":"VOR","hdg_t":39.8,"dist_nm":47.3,"freq":109.8,"lat":44.68163889,"lon":-84.72894444,"rng_nm":25,"alt_fmsl":0,"id":"CGG","desc":"GRAYLING VOR"},
{"type":"NDB","hdg_t":32.7,"dist_nm":48.1,"freq":359,"lat":44.74991667,"lon":-84.82827778,"rng_nm":50,"alt_fmsl":0,"id":"GYG","desc":"GRAYLING NDB"},
{"type":"NDB","hdg_t":9.7,"dist_nm":50,"freq":251,"lat":44.89938889,"lon":-85.23966667,"rng_nm":50,"alt_fmsl":0,"id":"CXK","desc":"CLAM LAKE NDB"},
{"type":"VOR","hdg_t":79.1,"dist_nm":55,"freq":113.2,"lat":44.24291667,"lon":-84.18377778,"rng_nm":25,"alt_fmsl":884,"id":"BXZ","desc":"PEACH LAKE VOR-DME"},
{"type":"NDB","hdg_t":79.5,"dist_nm":59.3,"freq":236,"lat":44.24863100,"lon":-84.08388600,"rng_nm":25,"alt_fmsl":800,"id":"BHW","desc":"HARDWOOD NDB"},
{"type":"VOR","hdg_t":205.9,"dist_nm":60.4,"freq":115.2,"lat":43.16925000,"lon":-86.03938889,"rng_nm":40,"alt_fmsl":659,"id":"MKG","desc":"MUSKEGON VORTAC"},
{"type":"NDB","hdg_t":25.4,"dist_nm":62.3,"freq":375,"lat":45.01455556,"lon":-84.80797222,"rng_nm":50,"alt_fmsl":0,"id":"GL","desc":"BANGU NDB"},
{"type":"VOR","hdg_t":29,"dist_nm":64.3,"freq":109.2,"lat":45.01250000,"lon":-84.70427778,"rng_nm":40,"alt_fmsl":1318,"id":"GLR","desc":"GAYLORD VOR-DME"},
{"type":"NDB","hdg_t":209.3,"dist_nm":65.6,"freq":219,"lat":43.12113889,"lon":-86.16858333,"rng_nm":50,"alt_fmsl":0,"id":"MK","desc":"MUSKO NDB"},
{"type":"NDB","hdg_t":123.6,"dist_nm":65.9,"freq":257,"lat":43.46150000,"lon":-84.17983333,"rng_nm":50,"alt_fmsl":0,"id":"MB","desc":"OLSTE NDB"},
{"type":"VOR","hdg_t":118.5,"dist_nm":67.5,"freq":112.9,"lat":43.53166667,"lon":-84.07730556,"rng_nm":40,"alt_fmsl":663,"id":"MBS","desc":"SAGINAW VOR-DME"},
{"type":"NDB","hdg_t":18.4,"dist_nm":69,"freq":263,"lat":45.16670000,"lon":-84.92192200,"rng_nm":25,"alt_fmsl":707,"id":"BFA","desc":"BOYNE FALLS NDB"},
{"type":"NDB","hdg_t":177.8,"dist_nm":70.9,"freq":263,"lat":42.89563889,"lon":-85.37858333,"rng_nm":50,"alt_fmsl":0,"id":"GR","desc":"KNOBS NDB"},
{"type":"NDB","hdg_t":5.5,"dist_nm":73.8,"freq":392,"lat":45.30180556,"lon":-85.27002778,"rng_nm":50,"alt_fmsl":0,"id":"CVX","desc":"CHARLEVOIX NDB"},
{"type":"VOR","hdg_t":181.9,"dist_nm":77.4,"freq":115.95,"lat":42.78672222,"lon":-85.49708333,"rng_nm":130,"alt_fmsl":803,"id":"GRR","desc":"GRAND RAPIDS VOR-DME"},
{"type":"VOR","hdg_t":158,"dist_nm":87.7,"freq":110.8,"lat":42.71738889,"lon":-84.69750000,"rng_nm":40,"alt_fmsl":888,"id":"LAN","desc":"LANSING VORTAC"},
{"type":"NDB","hdg_t":151.8,"dist_nm":88.1,"freq":206,"lat":42.77755800,"lon":-84.49758600,"rng_nm":25,"alt_fmsl":841,"id":"LA","desc":"ARTDA NDB"},
{"type":"VOR","hdg_t":75,"dist_nm":90.8,"freq":116.1,"lat":44.44913889,"lon":-83.39427778,"rng_nm":130,"alt_fmsl":625,"id":"ASP","desc":"AU SABLE VOR-DME"},
{"type":"NDB","hdg_t":134,"dist_nm":94.8,"freq":269,"lat":42.96811111,"lon":-83.89008333,"rng_nm":50,"alt_fmsl":0,"id":"FN","desc":"PETLI NDB"},
{"type":"NDB","hdg_t":295.9,"dist_nm":95.6,"freq":224,"lat":44.75594444,"lon":-87.44922222,"rng_nm":50,"alt_fmsl":0,"id":"II","desc":"FICHY NDB"},
{"type":"NDB","hdg_t":56,"dist_nm":96.4,"freq":206,"lat":44.96077778,"lon":-83.56008333,"rng_nm":50,"alt_fmsl":0,"id":"AP","desc":"FELPS NDB"},
{"type":"NDB","hdg_t":298.8,"dist_nm":96.7,"freq":414,"lat":44.83688889,"lon":-87.42247222,"rng_nm":50,"alt_fmsl":0,"id":"SUE","desc":"STURGEON BAY NDB"},
{"type":"VOR","hdg_t":272.5,"dist_nm":96.9,"freq":111,"lat":44.12850000,"lon":-87.67991667,"rng_nm":25,"alt_fmsl":650,"id":"MTW","desc":"MANITOWOC VOR-DME"},
{"type":"NDB","hdg_t":356.9,"dist_nm":97.1,"freq":382,"lat":45.69333333,"lon":-85.55863889,"rng_nm":50,"alt_fmsl":0,"id":"SJX","desc":"ST JAMES NDB"},
{"type":"NDB","hdg_t":275,"dist_nm":98.1,"freq":362,"lat":44.19963889,"lon":-87.70227778,"rng_nm":50,"alt_fmsl":0,"id":"MT","desc":"MAWOC NDB"},
{"type":"VOR","hdg_t":19.2,"dist_nm":98.8,"freq":111.8,"lat":45.63063889,"lon":-84.66411111,"rng_nm":40,"alt_fmsl":840,"id":"PLN","desc":"PELLSTON VORTAC"},
{"type":"VOR","hdg_t":131.4,"dist_nm":99.4,"freq":116.9,"lat":42.96677778,"lon":-83.74697222,"rng_nm":130,"alt_fmsl":772,"id":"FNT","desc":"FLINT VORTAC"}
]
}
