{"success":true,"source":"xp2csv.pl","last_updated":"2013/11/08 14:53:21 UTC"
,"icao":"5NE5","name":"Trego","lat":41.20666083,"lon":-101.1434925,"rwys":1,"ils":0,"index":1286347,"path":"w110n40/w102n41"
,"runways":[
{"len_m":1039,"wid_m":15.24,"hdg":108,"surf":"Turf/grass","rwy1":"10","lat1":41.20817898,"lon1":-101.14935292,"rwy2":"28","lat2":41.20514268,"lon2":-101.13763208}
]
,"navaids":[
{"type":"VOR","hdg_t":117.6,"dist_nm":20.3,"freq":117.4,"lat":41.04869444,"lon":-100.74711111,"rng_nm":40,"alt_fmsl":3069,"id":"LBF","desc":"NORTH PLATTE VORTAC"},
{"type":"NDB","hdg_t":107.5,"dist_nm":27.1,"freq":416,"lat":41.06827778,"lon":-100.57255556,"rng_nm":50,"alt_fmsl":0,"id":"LB","desc":"PANBE NDB"},
{"type":"VOR","hdg_t":259.8,"dist_nm":29.1,"freq":110.2,"lat":41.11911111,"lon":-101.77605556,"rng_nm":25,"alt_fmsl":3280,"id":"SAE","desc":"SEARLE VOR-DME"},
{"type":"NDB","hdg_t":233.1,"dist_nm":33.3,"freq":359,"lat":40.87094444,"lon":-101.73044444,"rng_nm":50,"alt_fmsl":0,"id":"GGF","desc":"GRANT NDB"},
{"type":"VOR","hdg_t":167.4,"dist_nm":46.2,"freq":117.7,"lat":40.45405556,"lon":-100.92358333,"rng_nm":130,"alt_fmsl":3010,"id":"HCT","desc":"HAYES CENTER VORTAC"},
{"type":"NDB","hdg_t":208,"dist_nm":47.1,"freq":283,"lat":40.51155556,"lon":-101.62752778,"rng_nm":50,"alt_fmsl":0,"id":"IML","desc":"IMPERIAL NDB"},
{"type":"VOR","hdg_t":22.2,"dist_nm":50.2,"freq":108.6,"lat":41.98166667,"lon":-100.71902778,"rng_nm":40,"alt_fmsl":3175,"id":"TDD","desc":"THEDFORD VOR-DME"},
{"type":"NDB","hdg_t":112,"dist_nm":52.5,"freq":353,"lat":40.87277778,"lon":-100.07261111,"rng_nm":50,"alt_fmsl":0,"id":"DWL","desc":"WILLOW NDB"},
{"type":"VOR","hdg_t":110.9,"dist_nm":55.5,"freq":109,"lat":40.87033333,"lon":-100.00375000,"rng_nm":25,"alt_fmsl":0,"id":"OZB","desc":"COZAD VOR"},
{"type":"NDB","hdg_t":282.4,"dist_nm":55.8,"freq":233,"lat":41.40113889,"lon":-102.35086111,"rng_nm":50,"alt_fmsl":0,"id":"OKS","desc":"OSHKOSH NDB"},
{"type":"NDB","hdg_t":262.9,"dist_nm":60.1,"freq":383,"lat":41.07666667,"lon":-102.45888889,"rng_nm":50,"alt_fmsl":0,"id":"CNP","desc":"CHAPPELL NDB"},
{"type":"NDB","hdg_t":109.9,"dist_nm":62.3,"freq":326,"lat":40.84444444,"lon":-99.85622222,"rng_nm":50,"alt_fmsl":0,"id":"RRX","desc":"DARR NDB"},
{"type":"NDB","hdg_t":234.4,"dist_nm":63.9,"freq":404,"lat":40.58138100,"lon":-102.28130000,"rng_nm":25,"alt_fmsl":3717,"id":"HEQ","desc":"HEGINBOTHAM NDB"},
{"type":"VOR","hdg_t":157.1,"dist_nm":65.1,"freq":115.3,"lat":40.20380556,"lon":-100.59422222,"rng_nm":130,"alt_fmsl":2571,"id":"MCK","desc":"MC COOK B NEL REG VOR-DME"},
{"type":"VOR","hdg_t":75.3,"dist_nm":67.7,"freq":108.2,"lat":41.48397222,"lon":-99.68905556,"rng_nm":40,"alt_fmsl":2850,"id":"CUZ","desc":"CUSTER CO VOR-DME"},
{"type":"NDB","hdg_t":78.1,"dist_nm":69.5,"freq":265,"lat":41.43408900,"lon":-99.63591900,"rng_nm":25,"alt_fmsl":2530,"id":"BBW","desc":"BROKEN BOW NDB"},
{"type":"NDB","hdg_t":139.9,"dist_nm":70.3,"freq":389,"lat":40.30427778,"lon":-100.15772222,"rng_nm":50,"alt_fmsl":0,"id":"CSB","desc":"HARRY STRUNK NDB"},
{"type":"NDB","hdg_t":176.8,"dist_nm":82.1,"freq":365,"lat":39.83863889,"lon":-101.04505556,"rng_nm":50,"alt_fmsl":0,"id":"ADT","desc":"ATWOOD NDB"},
{"type":"VOR","hdg_t":266,"dist_nm":83.6,"freq":115.9,"lat":41.09666667,"lon":-102.98300000,"rng_nm":130,"alt_fmsl":4300,"id":"SNY","desc":"SIDNEY VORTAC"},
{"type":"NDB","hdg_t":161.2,"dist_nm":87,"freq":341,"lat":39.82972222,"lon":-100.53763889,"rng_nm":50,"alt_fmsl":0,"id":"OIN","desc":"OBERLIN NDB"},
{"type":"NDB","hdg_t":304.4,"dist_nm":89.8,"freq":380,"lat":42.04322222,"lon":-102.79947222,"rng_nm":50,"alt_fmsl":0,"id":"ALU","desc":"ALLIANCE NDB"},
{"type":"VOR","hdg_t":304.8,"dist_nm":90.4,"freq":111.8,"lat":42.05563889,"lon":-102.80444444,"rng_nm":40,"alt_fmsl":3927,"id":"AIA","desc":"ALLIANCE VOR-DME"},
{"type":"NDB","hdg_t":197.9,"dist_nm":93.1,"freq":386,"lat":39.72694444,"lon":-101.76488889,"rng_nm":50,"alt_fmsl":0,"id":"SYF","desc":"SAINT FRANCIS NDB"},
{"type":"NDB","hdg_t":118.3,"dist_nm":93.8,"freq":396,"lat":40.44816667,"lon":-99.34080556,"rng_nm":50,"alt_fmsl":0,"id":"HDE","desc":"HOLDREGE NDB"},
{"type":"NDB","hdg_t":68.6,"dist_nm":96.3,"freq":377,"lat":41.77469444,"lon":-99.14552778,"rng_nm":50,"alt_fmsl":0,"id":"BUB","desc":"BURWELL NDB"},
{"type":"VOR","hdg_t":31.9,"dist_nm":96.6,"freq":112.7,"lat":42.56911111,"lon":-99.98966667,"rng_nm":40,"alt_fmsl":2582,"id":"ANW","desc":"AINSWORTH VOR-DME"},
{"type":"NDB","hdg_t":144.3,"dist_nm":99.2,"freq":230,"lat":39.85527778,"lon":-99.89030556,"rng_nm":50,"alt_fmsl":0,"id":"NRN","desc":"NORTON NDB"}
]
}
