{"success":true,"source":"xp2csv.pl","last_updated":"2013/11/08 14:53:21 UTC"
,"icao":"5R4","name":"Foley Muni","lat":30.427558,"lon":-87.700819,"rwys":1,"ils":0,"index":1515033,"path":"w090n30/w088n30"
,"runways":[
{"len_m":1127,"wid_m":22.86,"hdg":180,"surf":"Asphalt","rwy1":"18","lat1":30.43264400,"lon1":-87.70081900,"rwy2":"36","lat2":30.42247200,"lon2":-87.70081900}
]
,"radios":[
{"type":"CTAF","freq":123.05,"desc":"CTAF/UNICOM"},
{"type":"APP","freq":118.6,"desc":"PENSACOLA APP/DEP"}
]
,"navaids":[
{"type":"NDB","hdg_t":343.2,"dist_nm":4.4,"freq":204,"lat":30.49925000,"lon":-87.72566667,"rng_nm":50,"alt_fmsl":0,"id":"ESU","desc":"SUMMERDALE NDB"},
{"type":"VOR","hdg_t":81.8,"dist_nm":19.1,"freq":108.8,"lat":30.47213889,"lon":-87.33588889,"rng_nm":40,"alt_fmsl":0,"id":"NUN","desc":"SAUFLEY VOR"},
{"type":"SDME","hdg_t":101.6,"dist_nm":20.3,"freq":117.2,"lat":30.35800000,"lon":-87.31650000,"rng_nm":40,"alt_fmsl":24,"id":"NPA","desc":"PENSACOLA TACAN"},
{"type":"VOR","hdg_t":301.1,"dist_nm":21.4,"freq":112.8,"lat":30.61272222,"lon":-88.05550000,"rng_nm":40,"alt_fmsl":30,"id":"BFM","desc":"BROOKLEY VORTAC"},
{"type":"NDB","hdg_t":88.6,"dist_nm":27.1,"freq":326,"lat":30.43705556,"lon":-87.17836111,"rng_nm":50,"alt_fmsl":0,"id":"PKZ","desc":"PICKENS NDB"},
{"type":"VOR","hdg_t":297.8,"dist_nm":38.5,"freq":115.3,"lat":30.72597222,"lon":-88.35930556,"rng_nm":130,"alt_fmsl":190,"id":"SJI","desc":"SEMMES VORTAC"},
{"type":"SDME","hdg_t":63.1,"dist_nm":39.5,"freq":112.3,"lat":30.72400000,"lon":-87.01800000,"rng_nm":40,"alt_fmsl":179,"id":"NSE","desc":"WHITING TACAN"},
{"type":"NDB","hdg_t":279.4,"dist_nm":44.7,"freq":209,"lat":30.54816667,"lon":-88.55316667,"rng_nm":50,"alt_fmsl":0,"id":"PQ","desc":"TLOTT NDB"},
{"type":"SDME","hdg_t":89.7,"dist_nm":52.4,"freq":110.8,"lat":30.42803600,"lon":-86.69028900,"rng_nm":25,"alt_fmsl":35,"id":"HRT","desc":"HURLBURT TACAN"},
{"type":"VOR","hdg_t":314.8,"dist_nm":57,"freq":115.7,"lat":31.09797222,"lon":-88.48613889,"rng_nm":130,"alt_fmsl":300,"id":"GCV","desc":"GREENE CO VORTAC"},
{"type":"VOR","hdg_t":65.4,"dist_nm":58,"freq":115.9,"lat":30.82616667,"lon":-86.67913889,"rng_nm":130,"alt_fmsl":255,"id":"CEW","desc":"CRESTVIEW VORTAC"},
{"type":"SDME","hdg_t":269.2,"dist_nm":63.7,"freq":111.8,"lat":30.40708600,"lon":-88.92971100,"rng_nm":25,"alt_fmsl":10,"id":"BIX","desc":"KEESLER TACAN"},
{"type":"VOR","hdg_t":16.1,"dist_nm":64.3,"freq":116.8,"lat":31.46044444,"lon":-87.35275000,"rng_nm":40,"alt_fmsl":420,"id":"MVC","desc":"MONROEVILLE VORTAC"},
{"type":"NDB","hdg_t":66.8,"dist_nm":65.4,"freq":201,"lat":30.85286111,"lon":-86.53661111,"rng_nm":50,"alt_fmsl":0,"id":"CE","desc":"KOBRA NDB"},
{"type":"VOR","hdg_t":269.3,"dist_nm":71.3,"freq":109,"lat":30.40683333,"lon":-89.07677778,"rng_nm":40,"alt_fmsl":23,"id":"GPT","desc":"GULFPORT VORTAC"},
{"type":"NDB","hdg_t":272.9,"dist_nm":75.8,"freq":360,"lat":30.48555556,"lon":-89.16225000,"rng_nm":50,"alt_fmsl":0,"id":"GP","desc":"BAYOU NDB"},
{"type":"NDB","hdg_t":51.8,"dist_nm":85.6,"freq":264,"lat":31.30508333,"lon":-86.39088889,"rng_nm":50,"alt_fmsl":0,"id":"JUY","desc":"JUDD NDB"},
{"type":"VOR","hdg_t":51.6,"dist_nm":85.7,"freq":110.2,"lat":31.30952778,"lon":-86.39213889,"rng_nm":25,"alt_fmsl":0,"id":"UIA","desc":"ANDALUSIA VOR"},
{"type":"NDB","hdg_t":271.3,"dist_nm":91,"freq":221,"lat":30.45133333,"lon":-89.45552778,"rng_nm":50,"alt_fmsl":0,"id":"HS","desc":"HANCO (OM/NDB) NDB"}
]
}
