{"success":true,"source":"xp2csv.pl","last_updated":"2013/11/08 14:53:21 UTC"
,"icao":"5TS0","name":"Diehl Ranch","lat":29.41245666,"lon":-95.12243,"rwys":1,"ils":0,"index":1383899,"path":"w100n20/w096n29"
,"runways":[
{"len_m":577,"wid_m":30.48,"hdg":185,"surf":"Turf/grass","rwy1":"18","lat1":29.41505258,"lon1":-95.12216928,"rwy2":"36","lat2":29.40986074,"lon2":-95.12269072}
]
,"navaids":[
{"type":"SDME","hdg_t":350.4,"dist_nm":11.7,"freq":109.4,"lat":29.60595800,"lon":-95.15965300,"rng_nm":40,"alt_fmsl":30,"id":"EFD","desc":"ELLINGTON TACAN"},
{"type":"NDB","hdg_t":10.1,"dist_nm":15.5,"freq":347,"lat":29.66841667,"lon":-95.06983333,"rng_nm":50,"alt_fmsl":0,"id":"JPA","desc":"SANJAC NDB"},
{"type":"VOR","hdg_t":122.6,"dist_nm":15.8,"freq":113,"lat":29.26933333,"lon":-94.86772222,"rng_nm":40,"alt_fmsl":4,"id":"VUH","desc":"SCHOLES VORTAC"},
{"type":"VOR","hdg_t":331,"dist_nm":16.6,"freq":117.1,"lat":29.65563889,"lon":-95.27663889,"rng_nm":130,"alt_fmsl":82,"id":"HUB","desc":"HOBBY VOR-DME"},
{"type":"NDB","hdg_t":103.6,"dist_nm":19.7,"freq":206,"lat":29.33397222,"lon":-94.75622222,"rng_nm":75,"alt_fmsl":0,"id":"GLS","desc":"GALVESTON NDB"},
{"type":"VOR","hdg_t":67.7,"dist_nm":21.2,"freq":113.6,"lat":29.54633333,"lon":-94.74750000,"rng_nm":40,"alt_fmsl":38,"id":"MHF","desc":"TRINITY VOR-DME"},
{"type":"NDB","hdg_t":233.9,"dist_nm":22.1,"freq":263,"lat":29.19433333,"lon":-95.46316667,"rng_nm":50,"alt_fmsl":0,"id":"LB","desc":"FREEP NDB"},
{"type":"VOR","hdg_t":340.3,"dist_nm":34.6,"freq":116.6,"lat":29.95691667,"lon":-95.34572222,"rng_nm":130,"alt_fmsl":90,"id":"IAH","desc":"HUMBLE VORTAC"},
{"type":"NDB","hdg_t":352.1,"dist_nm":35.1,"freq":326,"lat":29.99333333,"lon":-95.21502778,"rng_nm":50,"alt_fmsl":0,"id":"BVP","desc":"NIXIN NDB"},
{"type":"NDB","hdg_t":319.1,"dist_nm":41.3,"freq":286,"lat":29.93386111,"lon":-95.64100000,"rng_nm":50,"alt_fmsl":0,"id":"EYQ","desc":"WEISER NDB"},
{"type":"NDB","hdg_t":235.9,"dist_nm":46.7,"freq":344,"lat":28.97250000,"lon":-95.85913889,"rng_nm":50,"alt_fmsl":0,"id":"BYY","desc":"BAY CITY NDB"},
{"type":"NDB","hdg_t":331.6,"dist_nm":48.5,"freq":521,"lat":30.12552778,"lon":-95.56586111,"rng_nm":50,"alt_fmsl":0,"id":"DWH","desc":"DAVID HOOKS NDB"},
{"type":"VOR","hdg_t":28,"dist_nm":52.7,"freq":116.9,"lat":30.18972222,"lon":-94.64497222,"rng_nm":130,"alt_fmsl":76,"id":"DAS","desc":"DAISETTA VORTAC"},
{"type":"NDB","hdg_t":260.3,"dist_nm":54.8,"freq":245,"lat":29.25463889,"lon":-96.15202778,"rng_nm":50,"alt_fmsl":0,"id":"ARM","desc":"WHARTON NDB"},
{"type":"VOR","hdg_t":73.6,"dist_nm":59,"freq":115.4,"lat":29.68672222,"lon":-94.03797222,"rng_nm":40,"alt_fmsl":10,"id":"SBI","desc":"SABINE PASS VOR-DME"},
{"type":"NDB","hdg_t":50.1,"dist_nm":61.7,"freq":368,"lat":30.07047222,"lon":-94.21102778,"rng_nm":50,"alt_fmsl":0,"id":"GDE","desc":"GOODHUE NDB"},
{"type":"NDB","hdg_t":343.2,"dist_nm":63.7,"freq":281,"lat":30.43200000,"lon":-95.47625000,"rng_nm":50,"alt_fmsl":0,"id":"CX","desc":"ALIBI NDB"},
{"type":"VOR","hdg_t":283.7,"dist_nm":64.2,"freq":116.4,"lat":29.66244444,"lon":-96.31716667,"rng_nm":130,"alt_fmsl":190,"id":"ELA","desc":"EAGLE LAKE VOR-DME"},
{"type":"VOR","hdg_t":60.8,"dist_nm":66,"freq":114.5,"lat":29.94605556,"lon":-94.01622222,"rng_nm":40,"alt_fmsl":10,"id":"BPT","desc":"BEAUMONT VOR-DME"},
{"type":"NDB","hdg_t":38.9,"dist_nm":71.2,"freq":524,"lat":30.33633333,"lon":-94.26036111,"rng_nm":50,"alt_fmsl":0,"id":"HRD","desc":"HARDIN CO NDB"},
{"type":"VOR","hdg_t":317.2,"dist_nm":71.6,"freq":115.9,"lat":30.28852778,"lon":-96.05822222,"rng_nm":130,"alt_fmsl":230,"id":"TNV","desc":"NAVASOTA VORTAC"},
{"type":"VOR","hdg_t":238.3,"dist_nm":73.3,"freq":117.3,"lat":28.76441667,"lon":-96.30619444,"rng_nm":130,"alt_fmsl":6,"id":"PSX","desc":"PALACIOS VORTAC"},
{"type":"NDB","hdg_t":60,"dist_nm":79.7,"freq":211,"lat":30.07027778,"lon":-93.79494444,"rng_nm":50,"alt_fmsl":0,"id":"ORG","desc":"ORANGE NDB"},
{"type":"VOR","hdg_t":293.7,"dist_nm":81.9,"freq":110.2,"lat":29.95605556,"lon":-96.56219444,"rng_nm":40,"alt_fmsl":419,"id":"IDU","desc":"INDUSTRY VORTAC"},
{"type":"NDB","hdg_t":343,"dist_nm":83.1,"freq":308,"lat":30.74075000,"lon":-95.59086111,"rng_nm":50,"alt_fmsl":0,"id":"UTS","desc":"HUNTSVILLE NDB"},
{"type":"NDB","hdg_t":315.9,"dist_nm":90.5,"freq":260,"lat":30.49372222,"lon":-96.33769444,"rng_nm":50,"alt_fmsl":0,"id":"CL","desc":"ROWDY NDB"},
{"type":"NDB","hdg_t":241.3,"dist_nm":93.8,"freq":515,"lat":28.65089700,"lon":-96.68145800,"rng_nm":25,"alt_fmsl":26,"id":"PKV","desc":"PORT LAVACA NDB"},
{"type":"VOR","hdg_t":316.8,"dist_nm":98.3,"freq":113.3,"lat":30.60500000,"lon":-96.42069444,"rng_nm":40,"alt_fmsl":275,"id":"CLL","desc":"COLLEGE STATION VORTAC"}
]
}
