{"success":true,"source":"xp2csv.pl","last_updated":"2013/11/08 14:53:21 UTC"
,"icao":"5TS1","name":"Uno Mas Ranch","lat":28.2058365,"lon":-99.134472,"rwys":1,"ils":0,"index":1318283,"path":"w100n20/w100n28"
,"runways":[
{"len_m":1371,"wid_m":15.24,"hdg":119,"surf":"Asphalt","rwy1":"12","lat1":28.20893100,"lon1":-99.14052200,"rwy2":"30","lat2":28.20274200,"lon2":-99.12842200}
]
,"navaids":[
{"type":"VOR","hdg_t":3.1,"dist_nm":15.3,"freq":115.8,"lat":28.46200000,"lon":-99.11852778,"rng_nm":40,"alt_fmsl":520,"id":"COT","desc":"COTULLA VORTAC"},
{"type":"NDB","hdg_t":207.1,"dist_nm":37.8,"freq":405,"lat":27.64236111,"lon":-99.45813889,"rng_nm":50,"alt_fmsl":0,"id":"AGH","desc":"ARDYTH NDB"},
{"type":"NDB","hdg_t":297.4,"dist_nm":41.2,"freq":343,"lat":28.52244444,"lon":-99.82727778,"rng_nm":50,"alt_fmsl":0,"id":"DMD","desc":"DIMMIT CO NDB"},
{"type":"VOR","hdg_t":199.1,"dist_nm":46,"freq":117.4,"lat":27.47872222,"lon":-99.41766667,"rng_nm":130,"alt_fmsl":580,"id":"LRD","desc":"LAREDO VORTAC"},
{"type":"VOR","hdg_t":206.6,"dist_nm":51.2,"freq":112.6,"lat":27.43938889,"lon":-99.56458333,"rng_nm":130,"alt_fmsl":484,"id":"NLD","desc":"NEWLA VOR-DME"},
{"type":"NDB","hdg_t":157.7,"dist_nm":55,"freq":266,"lat":27.35391667,"lon":-98.74413889,"rng_nm":50,"alt_fmsl":0,"id":"HBV","desc":"HEBBRONVILLE NDB"},
{"type":"VOR","hdg_t":70.7,"dist_nm":55,"freq":111.4,"lat":28.50500000,"lon":-98.15047222,"rng_nm":40,"alt_fmsl":270,"id":"THX","desc":"THREE RIVERS VORTAC"},
{"type":"NDB","hdg_t":35.8,"dist_nm":55.3,"freq":275,"lat":28.95497200,"lon":-98.51862800,"rng_nm":25,"alt_fmsl":428,"id":"PEZ","desc":"PLEASANTON NDB"},
{"type":"NDB","hdg_t":10.4,"dist_nm":56.7,"freq":359,"lat":29.13833333,"lon":-98.93925000,"rng_nm":50,"alt_fmsl":0,"id":"HHH","desc":"DEVINE NDB"},
{"type":"NDB","hdg_t":318.8,"dist_nm":57.6,"freq":223,"lat":28.92997222,"lon":-99.85477778,"rng_nm":50,"alt_fmsl":0,"id":"LKX","desc":"LA PRYOR NDB"},
{"type":"NDB","hdg_t":312.6,"dist_nm":62.4,"freq":385,"lat":28.90997222,"lon":-100.00561111,"rng_nm":50,"alt_fmsl":0,"id":"CPZ","desc":"CHAPARROSA RANCH NDB"},
{"type":"VOR","hdg_t":114.9,"dist_nm":65.3,"freq":114.5,"lat":27.73980556,"lon":-98.02133333,"rng_nm":40,"alt_fmsl":0,"id":"ALI","desc":"ALICE VOR"},
{"type":"NDB","hdg_t":331.9,"dist_nm":65.9,"freq":281,"lat":29.17772222,"lon":-99.72569444,"rng_nm":50,"alt_fmsl":0,"id":"UVA","desc":"UVALDE NDB"},
{"type":"NDB","hdg_t":122.5,"dist_nm":66.2,"freq":347,"lat":27.60633333,"lon":-98.08586111,"rng_nm":50,"alt_fmsl":0,"id":"TKB","desc":"KLEBERG CO NDB"},
{"type":"VOR","hdg_t":358,"dist_nm":68.4,"freq":109.4,"lat":29.34911111,"lon":-99.17788889,"rng_nm":40,"alt_fmsl":947,"id":"HDO","desc":"HONDO VOR-DME"},
{"type":"NDB","hdg_t":12.3,"dist_nm":69.8,"freq":338,"lat":29.34606900,"lon":-98.84919400,"rng_nm":25,"alt_fmsl":762,"id":"CVB","desc":"CASTROVILLE NDB"},
{"type":"NDB","hdg_t":358.3,"dist_nm":69.9,"freq":329,"lat":29.37341667,"lon":-99.17202778,"rng_nm":50,"alt_fmsl":0,"id":"HMA","desc":"HONDO NDB"},
{"type":"NDB","hdg_t":81.8,"dist_nm":71.5,"freq":284,"lat":28.36862500,"lon":-97.79542500,"rng_nm":25,"alt_fmsl":269,"id":"BEA","desc":"BEEVILLE NDB"},
{"type":"VOR","hdg_t":29.8,"dist_nm":72.7,"freq":108.4,"lat":29.25838889,"lon":-98.44347222,"rng_nm":40,"alt_fmsl":0,"id":"SSF","desc":"STINSON VOR"},
{"type":"SDME","hdg_t":22.2,"dist_nm":76.7,"freq":112,"lat":29.39158300,"lon":-98.58104700,"rng_nm":40,"alt_fmsl":687,"id":"KSY","desc":"KELLY TACAN"},
{"type":"VOR","hdg_t":289.2,"dist_nm":78.5,"freq":113.6,"lat":28.63183333,"lon":-100.53838889,"rng_nm":130,"alt_fmsl":901,"id":"PNG","desc":"PIEDRAS VOR-DME"},
{"type":"NDB","hdg_t":137.7,"dist_nm":80.5,"freq":353,"lat":27.20694444,"lon":-98.12177778,"rng_nm":50,"alt_fmsl":0,"id":"BKS","desc":"BROOKS CO NDB"},
{"type":"SDME","hdg_t":120.5,"dist_nm":82.3,"freq":117.8,"lat":27.49930300,"lon":-97.80552500,"rng_nm":130,"alt_fmsl":46,"id":"NQI","desc":"KINGSVILLE TACAN"},
{"type":"NDB","hdg_t":22.9,"dist_nm":82.5,"freq":219,"lat":29.47461400,"lon":-98.51861700,"rng_nm":25,"alt_fmsl":0,"id":"SA","desc":"BLUIE NDB"},
{"type":"NDB","hdg_t":309.7,"dist_nm":88.4,"freq":356,"lat":29.14525000,"lon":-100.42758333,"rng_nm":50,"alt_fmsl":0,"id":"PFO","desc":"SPOFFORD NDB"},
{"type":"NDB","hdg_t":19.3,"dist_nm":89,"freq":368,"lat":29.60758333,"lon":-98.56969444,"rng_nm":50,"alt_fmsl":0,"id":"AN","desc":"ALAMO NDB"},
{"type":"VOR","hdg_t":29.4,"dist_nm":90.4,"freq":112.3,"lat":29.51916667,"lon":-98.28516667,"rng_nm":25,"alt_fmsl":772,"id":"RND","desc":"RANDOLPH VORTAC"},
{"type":"VOR","hdg_t":100.9,"dist_nm":91.4,"freq":115.5,"lat":27.90377778,"lon":-97.44488889,"rng_nm":130,"alt_fmsl":60,"id":"CRP","desc":"CORPUS CHRISTI VORTAC"},
{"type":"SDME","hdg_t":29.6,"dist_nm":91.8,"freq":109.9,"lat":29.53694700,"lon":-98.26780300,"rng_nm":40,"alt_fmsl":773,"id":"DHK","desc":"RANDOLPH TACAN"},
{"type":"VOR","hdg_t":22.2,"dist_nm":93,"freq":116.8,"lat":29.64402778,"lon":-98.46130556,"rng_nm":130,"alt_fmsl":1160,"id":"SAT","desc":"SAN ANTONIO VORTAC"},
{"type":"NDB","hdg_t":161.3,"dist_nm":93.8,"freq":260,"lat":26.71894444,"lon":-98.57725000,"rng_nm":50,"alt_fmsl":0,"id":"SNE","desc":"SANTA ELENA NDB"},
{"type":"NDB","hdg_t":307.7,"dist_nm":98.8,"freq":269,"lat":29.20858333,"lon":-100.62397222,"rng_nm":50,"alt_fmsl":0,"id":"BRX","desc":"LA FONDA RANCH NDB"}
]
}
