{"success":true,"source":"xp2csv.pl","last_updated":"2013/11/08 14:53:21 UTC"
,"icao":"5U4","name":"Torgerson","lat":48.55831722,"lon":-112.10920362,"rwys":1,"ils":0,"index":1106595,"path":"w120n40/w113n48"
,"runways":[
{"len_m":672,"wid_m":18.29,"hdg":107,"surf":"Turf/grass","rwy1":"09","lat1":48.55924961,"lon1":-112.11353930,"rwy2":"27","lat2":48.55738483,"lon2":-112.10486794}
]
,"navaids":[
{"type":"VOR","hdg_t":272.5,"dist_nm":9.3,"freq":114.4,"lat":48.56491667,"lon":-112.34325000,"rng_nm":40,"alt_fmsl":3780,"id":"CTB","desc":"CUT BANK VORTAC"},
{"type":"NDB","hdg_t":95.9,"dist_nm":9.8,"freq":347,"lat":48.54097222,"lon":-111.86241667,"rng_nm":50,"alt_fmsl":0,"id":"SBX","desc":"SHELBY NDB"},
{"type":"NDB","hdg_t":160.7,"dist_nm":23.6,"freq":293,"lat":48.18561111,"lon":-111.91413889,"rng_nm":50,"alt_fmsl":0,"id":"CRD","desc":"CONRAD NDB"},
{"type":"NDB","hdg_t":183.2,"dist_nm":44.2,"freq":269,"lat":47.82247222,"lon":-112.17102778,"rng_nm":50,"alt_fmsl":0,"id":"CII","desc":"CHOTEAU NDB"},
{"type":"NDB","hdg_t":93.4,"dist_nm":45,"freq":323,"lat":48.50805556,"lon":-110.98083333,"rng_nm":50,"alt_fmsl":0,"id":"LTY","desc":"CHESTER NDB"},
{"type":"VOR","hdg_t":341.3,"dist_nm":68.2,"freq":115.7,"lat":49.63444444,"lon":-112.66786111,"rng_nm":130,"alt_fmsl":3109,"id":"YQL","desc":"LETHBRIDGE VOR-DME"},
{"type":"NDB","hdg_t":334,"dist_nm":70,"freq":248,"lat":49.60527778,"lon":-112.89388889,"rng_nm":50,"alt_fmsl":0,"id":"QL","desc":"LETHBRIDGE NDB"},
{"type":"VOR","hdg_t":156.8,"dist_nm":72.2,"freq":115.1,"lat":47.44997222,"lon":-111.41216667,"rng_nm":130,"alt_fmsl":3672,"id":"GTF","desc":"GREAT FALLS VORTAC"},
{"type":"SDME","hdg_t":149.1,"dist_nm":73.4,"freq":115.8,"lat":47.50406100,"lon":-111.18205600,"rng_nm":40,"alt_fmsl":3501,"id":"GFA","desc":"MALMSTROM TACAN"},
{"type":"NDB","hdg_t":357.9,"dist_nm":76.1,"freq":388,"lat":49.82583300,"lon":-112.17805600,"rng_nm":25,"alt_fmsl":2648,"id":"3Z","desc":"TABER NDB-DME"},
{"type":"SDME","hdg_t":357.9,"dist_nm":76.1,"freq":111,"lat":49.82583300,"lon":-112.17805600,"rng_nm":25,"alt_fmsl":2648,"id":"3Z","desc":"TABER NDB-DME"},
{"type":"NDB","hdg_t":157.1,"dist_nm":77.5,"freq":371,"lat":47.36588889,"lon":-111.37286111,"rng_nm":50,"alt_fmsl":0,"id":"ITU","desc":"TRULY NDB"},
{"type":"VOR","hdg_t":256.7,"dist_nm":85.1,"freq":113.2,"lat":48.21411111,"lon":-114.17588889,"rng_nm":130,"alt_fmsl":2984,"id":"FCA","desc":"KALISPELL VOR-DME"},
{"type":"VOR","hdg_t":89.7,"dist_nm":93.2,"freq":111.8,"lat":48.54047222,"lon":-109.77000000,"rng_nm":40,"alt_fmsl":2583,"id":"HVR","desc":"HAVRE VOR-DME"},
{"type":"NDB","hdg_t":308.5,"dist_nm":94.4,"freq":311,"lat":49.52333300,"lon":-113.99861100,"rng_nm":25,"alt_fmsl":0,"id":"9Y","desc":"PINCHER CREEK NDB"},
{"type":"NDB","hdg_t":89.5,"dist_nm":96.4,"freq":389,"lat":48.54541400,"lon":-109.69036700,"rng_nm":25,"alt_fmsl":2547,"id":"LDS","desc":"LEEDS NDB"},
{"type":"NDB","hdg_t":254.8,"dist_nm":97.9,"freq":515,"lat":48.10827778,"lon":-114.46125000,"rng_nm":50,"alt_fmsl":0,"id":"SAK","desc":"SMITH LAKE NDB"},
{"type":"VOR","hdg_t":30.5,"dist_nm":98.5,"freq":116.5,"lat":49.96475000,"lon":-110.81444444,"rng_nm":130,"alt_fmsl":2474,"id":"YXH","desc":"MEDICINE HAT VOR-DME"}
]
}
