{"success":true,"source":"xp2csv.pl","last_updated":"2013/11/08 14:53:21 UTC"
,"icao":"5W3","name":"Riverside","lat":35.90127249,"lon":-76.71216584,"rwys":1,"ils":0,"index":1695609,"path":"w080n30/w077n35"
,"runways":[
{"len_m":981,"wid_m":27.43,"hdg":1,"surf":"Turf/grass","rwy1":"01","lat1":35.89685148,"lon1":-76.71226111,"rwy2":"19","lat2":35.90569350,"lon2":-76.71207057}
]
,"navaids":[
{"type":"NDB","hdg_t":204.2,"dist_nm":6,"freq":221,"lat":35.80988300,"lon":-76.76272200,"rng_nm":25,"alt_fmsl":38,"id":"PMZ","desc":"PLYMOUTH NDB"},
{"type":"NDB","hdg_t":43.5,"dist_nm":10.2,"freq":265,"lat":36.02544444,"lon":-76.56650000,"rng_nm":50,"alt_fmsl":0,"id":"EDE","desc":"EDENTON NDB"},
{"type":"NDB","hdg_t":263.7,"dist_nm":22.8,"freq":336,"lat":35.85905556,"lon":-77.17794444,"rng_nm":50,"alt_fmsl":0,"id":"MCZ","desc":"WILLIAMSTON NDB"},
{"type":"VOR","hdg_t":344.7,"dist_nm":29.3,"freq":114.6,"lat":36.37291667,"lon":-76.87152778,"rng_nm":40,"alt_fmsl":70,"id":"CVI","desc":"COFIELD VORTAC"},
{"type":"NDB","hdg_t":42.7,"dist_nm":29.5,"freq":254,"lat":36.26300000,"lon":-76.29802778,"rng_nm":50,"alt_fmsl":0,"id":"LLW","desc":"WOODVILLE NDB"},
{"type":"NDB","hdg_t":219.5,"dist_nm":30.3,"freq":388,"lat":35.50966667,"lon":-77.10661111,"rng_nm":50,"alt_fmsl":0,"id":"RNW","desc":"CHOCOWINITY NDB"},
{"type":"VOR","hdg_t":50.5,"dist_nm":33.7,"freq":112.5,"lat":36.25758333,"lon":-76.17563889,"rng_nm":40,"alt_fmsl":10,"id":"ECG","desc":"ELIZABETH CITY VOR-DME"},
{"type":"NDB","hdg_t":250.3,"dist_nm":34.2,"freq":230,"lat":35.70688889,"lon":-77.37188889,"rng_nm":50,"alt_fmsl":0,"id":"AQE","desc":"ALWOOD NDB"},
{"type":"NDB","hdg_t":273.1,"dist_nm":40.7,"freq":257,"lat":35.93544444,"lon":-77.54636111,"rng_nm":50,"alt_fmsl":0,"id":"ETC","desc":"TARBORO NDB"},
{"type":"VOR","hdg_t":275.6,"dist_nm":48.5,"freq":117.8,"lat":35.97677778,"lon":-77.70375000,"rng_nm":40,"alt_fmsl":70,"id":"TYI","desc":"TAR RIVER VORTAC"},
{"type":"VOR","hdg_t":88.3,"dist_nm":49.4,"freq":111.6,"lat":35.92050000,"lon":-75.69694444,"rng_nm":25,"alt_fmsl":10,"id":"RBX","desc":"WRIGHT BROTHERS VOR-DME"},
{"type":"NDB","hdg_t":88.7,"dist_nm":49.5,"freq":370,"lat":35.91533333,"lon":-75.69505556,"rng_nm":50,"alt_fmsl":0,"id":"MQI","desc":"MANTEO NDB"},
{"type":"VOR","hdg_t":343.4,"dist_nm":50.8,"freq":110.6,"lat":36.71425000,"lon":-77.01238889,"rng_nm":40,"alt_fmsl":84,"id":"FKN","desc":"FRANKLIN VORTAC"},
{"type":"VOR","hdg_t":232.7,"dist_nm":52.1,"freq":109.6,"lat":35.37094444,"lon":-77.55833333,"rng_nm":40,"alt_fmsl":106,"id":"ISO","desc":"KINSTON VORTAC"},
{"type":"VOR","hdg_t":198.2,"dist_nm":52.2,"freq":113.6,"lat":35.07313889,"lon":-77.04505556,"rng_nm":40,"alt_fmsl":10,"id":"EWN","desc":"NEW BERN VOR-DME"},
{"type":"NDB","hdg_t":321.3,"dist_nm":55.1,"freq":261,"lat":36.61797222,"lon":-77.42550000,"rng_nm":50,"alt_fmsl":0,"id":"ELQ","desc":"EMPORIA NDB"},
{"type":"NDB","hdg_t":198.9,"dist_nm":55.6,"freq":362,"lat":35.02155556,"lon":-77.07950000,"rng_nm":50,"alt_fmsl":0,"id":"EW","desc":"KATFI NDB"},
{"type":"NDB","hdg_t":304,"dist_nm":58.2,"freq":407,"lat":36.44097222,"lon":-77.70830556,"rng_nm":50,"alt_fmsl":0,"id":"RZZ","desc":"RAPIDS NDB"},
{"type":"SDME","hdg_t":187.6,"dist_nm":60.3,"freq":112.8,"lat":34.90222800,"lon":-76.87482200,"rng_nm":40,"alt_fmsl":30,"id":"NKT","desc":"CHERRY POINT TACAN"},
{"type":"NDB","hdg_t":21.5,"dist_nm":60.5,"freq":329,"lat":36.84047222,"lon":-76.25122222,"rng_nm":50,"alt_fmsl":0,"id":"OR","desc":"INGLE NDB"},
{"type":"NDB","hdg_t":262.9,"dist_nm":61.6,"freq":235,"lat":35.76765800,"lon":-77.96459700,"rng_nm":25,"alt_fmsl":158,"id":"RW","desc":"JAMBE NDB"},
{"type":"NDB","hdg_t":231,"dist_nm":62.2,"freq":276,"lat":35.24391667,"lon":-77.69825000,"rng_nm":50,"alt_fmsl":0,"id":"IS","desc":"STALS NDB"},
{"type":"SDME","hdg_t":30.4,"dist_nm":64.2,"freq":116.6,"lat":36.82421900,"lon":-76.03704700,"rng_nm":40,"alt_fmsl":64,"id":"NTU","desc":"OCEANA TACAN"},
{"type":"VOR","hdg_t":22.5,"dist_nm":64.3,"freq":116.9,"lat":36.89188889,"lon":-76.20033333,"rng_nm":130,"alt_fmsl":20,"id":"ORF","desc":"NORFOLK VORTAC"},
{"type":"SDME","hdg_t":18.5,"dist_nm":65.7,"freq":111.1,"lat":36.93998100,"lon":-76.27729400,"rng_nm":40,"alt_fmsl":45,"id":"NGU","desc":"CHAMBERS TACAN"},
{"type":"NDB","hdg_t":347.9,"dist_nm":66.3,"freq":274,"lat":36.98319444,"lon":-77.00108333,"rng_nm":50,"alt_fmsl":0,"id":"AKQ","desc":"WAKEFIELD NDB"},
{"type":"NDB","hdg_t":177.9,"dist_nm":70.1,"freq":269,"lat":34.73122222,"lon":-76.66211111,"rng_nm":50,"alt_fmsl":0,"id":"MRH","desc":"MOREHEAD NDB"},
{"type":"SDME","hdg_t":241.5,"dist_nm":70.3,"freq":116.5,"lat":35.33502800,"lon":-77.97160600,"rng_nm":40,"alt_fmsl":82,"id":"GSB","desc":"SEYMOUR JOHNSON TACAN"},
{"type":"SDME","hdg_t":13.4,"dist_nm":72.9,"freq":112.3,"lat":37.08556100,"lon":-76.35941100,"rng_nm":40,"alt_fmsl":11,"id":"LFI","desc":"LANGLEY TACAN"},
{"type":"NDB","hdg_t":3.4,"dist_nm":74.2,"freq":226,"lat":37.13877778,"lon":-76.61855556,"rng_nm":50,"alt_fmsl":0,"id":"FAF","desc":"FELKER NDB"},
{"type":"NDB","hdg_t":8.1,"dist_nm":74.5,"freq":375,"lat":37.13280556,"lon":-76.49319444,"rng_nm":50,"alt_fmsl":0,"id":"PJS","desc":"HENRY NDB"},
{"type":"NDB","hdg_t":230.3,"dist_nm":77.2,"freq":332,"lat":35.07225000,"lon":-77.91886111,"rng_nm":50,"alt_fmsl":0,"id":"DKA","desc":"KENAN NDB"},
{"type":"NDB","hdg_t":303.6,"dist_nm":77.8,"freq":373,"lat":36.61455556,"lon":-78.05316667,"rng_nm":50,"alt_fmsl":0,"id":"AEA","desc":"JONES NDB"},
{"type":"VOR","hdg_t":313.9,"dist_nm":79.6,"freq":112.9,"lat":36.81802778,"lon":-77.90297222,"rng_nm":40,"alt_fmsl":350,"id":"LVL","desc":"LAWRENCEVILLE VORTAC"},
{"type":"SDME","hdg_t":206.7,"dist_nm":79.9,"freq":115.4,"lat":34.70713600,"lon":-77.44029700,"rng_nm":40,"alt_fmsl":74,"id":"NCA","desc":"NEW RIVER TACAN"},
{"type":"NDB","hdg_t":215.5,"dist_nm":84.4,"freq":261,"lat":34.75050000,"lon":-77.70444444,"rng_nm":50,"alt_fmsl":0,"id":"OA","desc":"ELLAS NDB"},
{"type":"NDB","hdg_t":330.7,"dist_nm":84.6,"freq":284,"lat":37.13027778,"lon":-77.57447222,"rng_nm":50,"alt_fmsl":0,"id":"PTB","desc":"PETERSBURG NDB"},
{"type":"NDB","hdg_t":253.5,"dist_nm":87.5,"freq":263,"lat":35.47497222,"lon":-78.42522222,"rng_nm":50,"alt_fmsl":0,"id":"JN","desc":"JURLY NDB"},
{"type":"NDB","hdg_t":204.7,"dist_nm":87.7,"freq":198,"lat":34.56852778,"lon":-77.45294444,"rng_nm":75,"alt_fmsl":0,"id":"DIW","desc":"DIXON NDB"},
{"type":"VOR","hdg_t":347.2,"dist_nm":87.7,"freq":112,"lat":37.32886111,"lon":-77.11594444,"rng_nm":40,"alt_fmsl":70,"id":"HPW","desc":"HOPEWELL VORTAC"},
{"type":"VOR","hdg_t":0,"dist_nm":92.7,"freq":108.8,"lat":37.44866667,"lon":-76.71136111,"rng_nm":40,"alt_fmsl":8,"id":"HCM","desc":"HARCUM VORTAC"},
{"type":"VOR","hdg_t":21.5,"dist_nm":93.2,"freq":112.2,"lat":37.34752778,"lon":-75.99766667,"rng_nm":40,"alt_fmsl":10,"id":"CCV","desc":"CAPE CHARLES VORTAC"},
{"type":"NDB","hdg_t":222.1,"dist_nm":95.1,"freq":379,"lat":34.71627778,"lon":-78.00358333,"rng_nm":50,"alt_fmsl":0,"id":"ACZ","desc":"PENDY NDB"},
{"type":"NDB","hdg_t":285,"dist_nm":95.7,"freq":271,"lat":36.30122222,"lon":-78.61850000,"rng_nm":50,"alt_fmsl":0,"id":"HXO","desc":"HUNTSBORO NDB"},
{"type":"NDB","hdg_t":319.1,"dist_nm":97.7,"freq":326,"lat":37.12744444,"lon":-78.04452778,"rng_nm":50,"alt_fmsl":0,"id":"BKT","desc":"BLACKSTONE NDB"},
{"type":"NDB","hdg_t":271.4,"dist_nm":97.9,"freq":350,"lat":35.92722222,"lon":-78.72191667,"rng_nm":50,"alt_fmsl":0,"id":"LE","desc":"LEEVY NDB"},
{"type":"NDB","hdg_t":236,"dist_nm":98.1,"freq":412,"lat":34.97544444,"lon":-78.36305556,"rng_nm":50,"alt_fmsl":0,"id":"CTZ","desc":"CLINTON NDB"},
{"type":"NDB","hdg_t":254.2,"dist_nm":99.9,"freq":417,"lat":35.43300000,"lon":-78.67475000,"rng_nm":50,"alt_fmsl":0,"id":"HQT","desc":"HARNETT NDB"}
]
}
