{"success":true,"source":"xp2csv.pl","last_updated":"2013/11/08 14:53:21 UTC"
,"icao":"5WA0","name":"Sourdough","lat":48.59563888,"lon":-119.10058334,"rwys":1,"ils":0,"index":991907,"path":"w120n40/w120n48"
,"runways":[
{"len_m":809,"wid_m":18.29,"hdg":138,"surf":"Turf/grass","rwy1":"12","lat1":48.59838183,"lon1":-119.10418861,"rwy2":"30","lat2":48.59289593,"lon2":-119.09697807}
]
,"navaids":[
{"type":"NDB","hdg_t":242.9,"dist_nm":18.6,"freq":219,"lat":48.45338889,"lon":-119.51700000,"rng_nm":50,"alt_fmsl":0,"id":"OMK","desc":"OMAK NDB"},
{"type":"NDB","hdg_t":46.4,"dist_nm":36.9,"freq":250,"lat":49.01750000,"lon":-118.42361111,"rng_nm":50,"alt_fmsl":0,"id":"2J","desc":"GRAND FORKS NDB"},
{"type":"NDB","hdg_t":337.7,"dist_nm":48.5,"freq":356,"lat":49.34250000,"lon":-119.56888889,"rng_nm":50,"alt_fmsl":0,"id":"ON","desc":"OKANAGAN NDB"},
{"type":"SDME","hdg_t":339,"dist_nm":55.1,"freq":110.3,"lat":49.45250000,"lon":-119.60361100,"rng_nm":25,"alt_fmsl":1114,"id":"XYF","desc":"PENTICTON DME"},
{"type":"NDB","hdg_t":339.9,"dist_nm":57.1,"freq":290,"lat":49.48772222,"lon":-119.60152778,"rng_nm":50,"alt_fmsl":0,"id":"YYF","desc":"PENTICTON NDB"},
{"type":"NDB","hdg_t":341.9,"dist_nm":63.3,"freq":312,"lat":49.59716667,"lon":-119.60263889,"rng_nm":50,"alt_fmsl":0,"id":"UNT","desc":"NARAMATA (PENTICT NDB"},
{"type":"NDB","hdg_t":83.5,"dist_nm":67.4,"freq":379,"lat":48.71019444,"lon":-117.41358333,"rng_nm":50,"alt_fmsl":0,"id":"ION","desc":"IONE NDB"},
{"type":"VOR","hdg_t":313.6,"dist_nm":68.9,"freq":113.9,"lat":49.38155556,"lon":-120.37377778,"rng_nm":130,"alt_fmsl":5329,"id":"YDC","desc":"PRINCETON VOR-DME"},
{"type":"SDME","hdg_t":54.7,"dist_nm":69.2,"freq":110.1,"lat":49.25222200,"lon":-117.66277800,"rng_nm":25,"alt_fmsl":1695,"id":"XCG","desc":"CASTLEGAR DME"},
{"type":"NDB","hdg_t":55,"dist_nm":70.2,"freq":206,"lat":49.25625000,"lon":-117.63486111,"rng_nm":50,"alt_fmsl":0,"id":"EF","desc":"CHAMPION NDB"},
{"type":"NDB","hdg_t":52.3,"dist_nm":72.6,"freq":269,"lat":49.32527800,"lon":-117.63500000,"rng_nm":25,"alt_fmsl":0,"id":"YK","desc":"BRILLIANT NDB"},
{"type":"VOR","hdg_t":190.2,"dist_nm":74.2,"freq":112.6,"lat":47.37791667,"lon":-119.42400000,"rng_nm":130,"alt_fmsl":1250,"id":"EPH","desc":"EPHRATA VORTAC"},
{"type":"NDB","hdg_t":344.2,"dist_nm":75.8,"freq":389,"lat":49.81055069,"lon":-119.63054657,"rng_nm":25,"alt_fmsl":1129,"id":"YWB","desc":"WESTBANK NDB"},
{"type":"NDB","hdg_t":313.7,"dist_nm":76.6,"freq":326,"lat":49.46944444,"lon":-120.51675000,"rng_nm":50,"alt_fmsl":0,"id":"DC","desc":"PRINCETON NDB"},
{"type":"NDB","hdg_t":118.7,"dist_nm":76.9,"freq":365,"lat":47.96775000,"lon":-117.42633333,"rng_nm":50,"alt_fmsl":0,"id":"DPY","desc":"DEER PARK NDB"},
{"type":"NDB","hdg_t":49.1,"dist_nm":79,"freq":227,"lat":49.44722222,"lon":-117.57500000,"rng_nm":50,"alt_fmsl":0,"id":"CG","desc":"CASTLEGAR NDB"},
{"type":"NDB","hdg_t":352.4,"dist_nm":81.4,"freq":374,"lat":49.93972200,"lon":-119.37555600,"rng_nm":25,"alt_fmsl":1409,"id":"EX","desc":"RUTLAND NDB"},
{"type":"SDME","hdg_t":135,"dist_nm":82.7,"freq":111.4,"lat":47.61069400,"lon":-117.66230300,"rng_nm":40,"alt_fmsl":2460,"id":"SKA","desc":"FAIRCHILD TACAN"},
{"type":"VOR","hdg_t":186,"dist_nm":83.5,"freq":115,"lat":47.21086111,"lon":-119.31680556,"rng_nm":130,"alt_fmsl":1194,"id":"MWH","desc":"MOSES LAKE VOR-DME"},
{"type":"VOR","hdg_t":212.3,"dist_nm":84.5,"freq":111,"lat":47.39969444,"lon":-120.21086111,"rng_nm":40,"alt_fmsl":1224,"id":"EAT","desc":"WENATCHEE VOR-DME"},
{"type":"VOR","hdg_t":135.6,"dist_nm":85.6,"freq":115.5,"lat":47.56494444,"lon":-117.62688889,"rng_nm":130,"alt_fmsl":2756,"id":"GEG","desc":"SPOKANE VORTAC"},
{"type":"NDB","hdg_t":129.1,"dist_nm":86.2,"freq":388,"lat":47.67700000,"lon":-117.45019444,"rng_nm":50,"alt_fmsl":0,"id":"CRK","desc":"CANYON NDB"},
{"type":"NDB","hdg_t":352.1,"dist_nm":88.8,"freq":257,"lat":50.06086111,"lon":-119.41638889,"rng_nm":50,"alt_fmsl":0,"id":"LW","desc":"KELOWNA NDB"},
{"type":"NDB","hdg_t":184.5,"dist_nm":89.1,"freq":408,"lat":47.11572222,"lon":-119.27450000,"rng_nm":50,"alt_fmsl":0,"id":"MW","desc":"PELLY NDB"}
]
}
