{"success":true,"source":"xp2csv.pl","last_updated":"2013/11/08 14:53:21 UTC"
,"icao":"5Y4","name":"Lost Creek","lat":44.66001472,"lon":-84.23751195,"rwys":2,"ils":0,"index":1565099,"path":"w090n40/w085n44"
,"runways":[
{"len_m":792,"wid_m":30.48,"hdg":173,"surf":"Turf/grass","rwy1":"18","lat1":44.66356106,"lon1":-84.23803598,"rwy2":"36","lat2":44.65646838,"lon2":-84.23698792},
{"len_m":671,"wid_m":30.48,"hdg":44,"surf":"Turf/grass","rwy1":"05","lat1":44.65784427,"lon1":-84.24045868,"rwy2":"23","lat2":44.66218517,"lon2":-84.23456522}
]
,"navaids":[
{"type":"VOR","hdg_t":273.7,"dist_nm":21,"freq":109.8,"lat":44.68163889,"lon":-84.72894444,"rng_nm":25,"alt_fmsl":0,"id":"CGG","desc":"GRAYLING VOR"},
{"type":"VOR","hdg_t":174.7,"dist_nm":25.1,"freq":113.2,"lat":44.24291667,"lon":-84.18377778,"rng_nm":25,"alt_fmsl":884,"id":"BXZ","desc":"PEACH LAKE VOR-DME"},
{"type":"NDB","hdg_t":164.9,"dist_nm":25.5,"freq":236,"lat":44.24863100,"lon":-84.08388600,"rng_nm":25,"alt_fmsl":800,"id":"BHW","desc":"HARDWOOD NDB"},
{"type":"VOR","hdg_t":225.6,"dist_nm":25.7,"freq":111.6,"lat":44.35888889,"lon":-84.66572222,"rng_nm":25,"alt_fmsl":1145,"id":"HTL","desc":"HOUGHTON LAKE VOR-DME"},
{"type":"NDB","hdg_t":282.2,"dist_nm":25.8,"freq":359,"lat":44.74991667,"lon":-84.82827778,"rng_nm":50,"alt_fmsl":0,"id":"GYG","desc":"GRAYLING NDB"},
{"type":"VOR","hdg_t":316.8,"dist_nm":29,"freq":109.2,"lat":45.01250000,"lon":-84.70427778,"rng_nm":40,"alt_fmsl":1318,"id":"GLR","desc":"GAYLORD VOR-DME"},
{"type":"NDB","hdg_t":311.3,"dist_nm":32.3,"freq":375,"lat":45.01455556,"lon":-84.80797222,"rng_nm":50,"alt_fmsl":0,"id":"GL","desc":"BANGU NDB"},
{"type":"NDB","hdg_t":57.8,"dist_nm":34.1,"freq":206,"lat":44.96077778,"lon":-83.56008333,"rng_nm":50,"alt_fmsl":0,"id":"AP","desc":"FELPS NDB"},
{"type":"VOR","hdg_t":108.9,"dist_nm":38.3,"freq":116.1,"lat":44.44913889,"lon":-83.39427778,"rng_nm":130,"alt_fmsl":625,"id":"ASP","desc":"AU SABLE VOR-DME"},
{"type":"VOR","hdg_t":48.6,"dist_nm":38.5,"freq":108.8,"lat":45.08277778,"lon":-83.55700000,"rng_nm":40,"alt_fmsl":677,"id":"APN","desc":"ALPENA VORTAC"},
{"type":"NDB","hdg_t":316.4,"dist_nm":42.1,"freq":263,"lat":45.16670000,"lon":-84.92192200,"rng_nm":25,"alt_fmsl":707,"id":"BFA","desc":"BOYNE FALLS NDB"},
{"type":"NDB","hdg_t":193.9,"dist_nm":42.6,"freq":209,"lat":43.97019444,"lon":-84.47516667,"rng_nm":50,"alt_fmsl":0,"id":"GDW","desc":"WIGGINS NDB"},
{"type":"NDB","hdg_t":288.8,"dist_nm":45.1,"freq":251,"lat":44.89938889,"lon":-85.23966667,"rng_nm":50,"alt_fmsl":0,"id":"CXK","desc":"CLAM LAKE NDB"},
{"type":"NDB","hdg_t":21.6,"dist_nm":48,"freq":215,"lat":45.40425000,"lon":-83.81844444,"rng_nm":50,"alt_fmsl":0,"id":"PZQ","desc":"ROGERS CITY NDB"},
{"type":"NDB","hdg_t":275.4,"dist_nm":51.1,"freq":365,"lat":44.73450000,"lon":-85.42927778,"rng_nm":50,"alt_fmsl":0,"id":"TV","desc":"GWENN NDB"},
{"type":"VOR","hdg_t":270.9,"dist_nm":56.2,"freq":114.6,"lat":44.66791667,"lon":-85.55002778,"rng_nm":130,"alt_fmsl":912,"id":"TVC","desc":"TRAVERSE CITY VORTAC"},
{"type":"NDB","hdg_t":311.5,"dist_nm":58.4,"freq":392,"lat":45.30180556,"lon":-85.27002778,"rng_nm":50,"alt_fmsl":0,"id":"CVX","desc":"CHARLEVOIX NDB"},
{"type":"VOR","hdg_t":342.8,"dist_nm":60.9,"freq":111.8,"lat":45.63063889,"lon":-84.66411111,"rng_nm":40,"alt_fmsl":840,"id":"PLN","desc":"PELLSTON VORTAC"},
{"type":"NDB","hdg_t":246.1,"dist_nm":61.7,"freq":336,"lat":44.23708333,"lon":-85.54736111,"rng_nm":50,"alt_fmsl":0,"id":"MA","desc":"WEXOR NDB"},
{"type":"VOR","hdg_t":199.3,"dist_nm":65.8,"freq":110.6,"lat":43.62283333,"lon":-84.73727778,"rng_nm":40,"alt_fmsl":752,"id":"MOP","desc":"MOUNT PLEASANT VOR-DME"},
{"type":"VOR","hdg_t":174.1,"dist_nm":68,"freq":112.9,"lat":43.53166667,"lon":-84.07730556,"rng_nm":40,"alt_fmsl":663,"id":"MBS","desc":"SAGINAW VOR-DME"},
{"type":"NDB","hdg_t":177.9,"dist_nm":71.9,"freq":257,"lat":43.46150000,"lon":-84.17983333,"rng_nm":50,"alt_fmsl":0,"id":"MB","desc":"OLSTE NDB"},
{"type":"VOR","hdg_t":133.7,"dist_nm":75.4,"freq":108.2,"lat":43.78366667,"lon":-82.98319444,"rng_nm":25,"alt_fmsl":766,"id":"BAX","desc":"BAD AXE VOR-DME"},
{"type":"NDB","hdg_t":318.3,"dist_nm":83.5,"freq":382,"lat":45.69333333,"lon":-85.55863889,"rng_nm":50,"alt_fmsl":0,"id":"SJX","desc":"ST JAMES NDB"},
{"type":"NDB","hdg_t":254.7,"dist_nm":85.1,"freq":254,"lat":44.27075000,"lon":-86.14286111,"rng_nm":50,"alt_fmsl":0,"id":"MB","desc":"JEPOT NDB"},
{"type":"VOR","hdg_t":255.6,"dist_nm":89.7,"freq":111.4,"lat":44.27063889,"lon":-86.25405556,"rng_nm":40,"alt_fmsl":620,"id":"MBL","desc":"MANISTEE VOR-DME"},
{"type":"VOR","hdg_t":224.9,"dist_nm":91.2,"freq":117.6,"lat":43.57486111,"lon":-85.71616667,"rng_nm":40,"alt_fmsl":920,"id":"HIC","desc":"WHITE CLOUD VOR-DME"}
]
}
