{"success":true,"source":"xp2csv.pl","last_updated":"2013/11/08 14:53:21 UTC"
,"icao":"60OR","name":"Whitaker","lat":43.42650722,"lon":-123.27979778,"rwys":1,"ils":0,"index":926042,"path":"w130n40/w124n43"
,"runways":[
{"len_m":610,"wid_m":30.48,"hdg":29,"surf":"Gravel","rwy1":"01","lat1":43.42410816,"lon1":-123.28162885,"rwy2":"19","lat2":43.42890628,"lon2":-123.27796671}
]
,"navaids":[
{"type":"NDB","hdg_t":196.6,"dist_nm":11.9,"freq":400,"lat":43.23525000,"lon":-123.35802778,"rng_nm":50,"alt_fmsl":0,"id":"RBG","desc":"ROSEBURG NDB"},
{"type":"VOR","hdg_t":192.2,"dist_nm":14.9,"freq":108.2,"lat":43.18241667,"lon":-123.35225000,"rng_nm":40,"alt_fmsl":1320,"id":"RBG","desc":"ROSEBURG VOR-DME"},
{"type":"VOR","hdg_t":269.3,"dist_nm":38.8,"freq":112.1,"lat":43.41550000,"lon":-124.16852778,"rng_nm":40,"alt_fmsl":707,"id":"OTH","desc":"NORTH BEND VORTAC"},
{"type":"VOR","hdg_t":3.3,"dist_nm":41.7,"freq":112.9,"lat":44.12088889,"lon":-123.22283333,"rng_nm":130,"alt_fmsl":364,"id":"EUG","desc":"EUGENE VORTAC"},
{"type":"NDB","hdg_t":267.9,"dist_nm":45.1,"freq":378,"lat":43.39444444,"lon":-124.31027778,"rng_nm":50,"alt_fmsl":0,"id":"OT","desc":"EMIRE NDB"},
{"type":"VOR","hdg_t":163.9,"dist_nm":59,"freq":113.6,"lat":42.47958333,"lon":-122.91294444,"rng_nm":130,"alt_fmsl":2083,"id":"OED","desc":"ROGUE VALLEY VORTAC"},
{"type":"NDB","hdg_t":164.4,"dist_nm":60.7,"freq":373,"lat":42.45097222,"lon":-122.91336111,"rng_nm":50,"alt_fmsl":0,"id":"MF","desc":"PUMIE NDB"},
{"type":"VOR","hdg_t":359.4,"dist_nm":64.3,"freq":115.4,"lat":44.49958333,"lon":-123.29366667,"rng_nm":130,"alt_fmsl":241,"id":"CVO","desc":"CORVALLIS VOR-DME"},
{"type":"NDB","hdg_t":163.9,"dist_nm":64.5,"freq":356,"lat":42.39161111,"lon":-122.87883333,"rng_nm":50,"alt_fmsl":0,"id":"MEF","desc":"MEDFORD NDB"},
{"type":"NDB","hdg_t":0.3,"dist_nm":71.2,"freq":225,"lat":44.61358333,"lon":-123.27066667,"rng_nm":50,"alt_fmsl":0,"id":"LWG","desc":"LEWISBURG NDB"},
{"type":"VOR","hdg_t":334.1,"dist_nm":76.7,"freq":117.1,"lat":44.57536111,"lon":-124.06058333,"rng_nm":130,"alt_fmsl":147,"id":"ONP","desc":"NEWPORT VORTAC"},
{"type":"NDB","hdg_t":335.8,"dist_nm":82.3,"freq":350,"lat":44.67600000,"lon":-124.06511111,"rng_nm":50,"alt_fmsl":0,"id":"ON","desc":"AGGET NDB"},
{"type":"NDB","hdg_t":9.3,"dist_nm":86.4,"freq":266,"lat":44.84744444,"lon":-122.95102778,"rng_nm":50,"alt_fmsl":0,"id":"SL","desc":"TURNO NDB"},
{"type":"VOR","hdg_t":59.3,"dist_nm":99.1,"freq":117.6,"lat":44.25275000,"lon":-121.30352778,"rng_nm":130,"alt_fmsl":4101,"id":"DSD","desc":"DESCHUTES VORTAC"}
]
}
