{"success":true,"source":"xp2csv.pl","last_updated":"2013/11/08 14:53:21 UTC"
,"icao":"61I","name":"Chain-o-lakes","lat":41.66254666,"lon":-86.35417723,"rwys":3,"ils":0,"index":1532138,"path":"w090n40/w087n41"
,"runways":[
{"len_m":640,"wid_m":38.10,"hdg":147,"surf":"Turf/grass","rwy1":"15","lat1":41.66498915,"lon1":-86.35622018,"rwy2":"33","lat2":41.66010417,"lon2":-86.35213428},
{"len_m":458,"wid_m":33.53,"hdg":58,"surf":"Turf/grass","rwy1":"06","lat1":41.66145649,"lon1":-86.35651252,"rwy2":"24","lat2":41.66363683,"lon2":-86.35184194},
{"len_m":406,"wid_m":25.91,"hdg":88,"surf":"Turf/grass","rwy1":"09","lat1":41.66248300,"lon1":-86.35661738,"rwy2":"27","lat2":41.66261032,"lon2":-86.35173708}
]
,"navaids":[
{"type":"VOR","hdg_t":14.1,"dist_nm":6.5,"freq":115.4,"lat":41.76861111,"lon":-86.31847222,"rng_nm":130,"alt_fmsl":804,"id":"GIJ","desc":"GIPPER VORTAC"},
{"type":"NDB","hdg_t":66.9,"dist_nm":6.6,"freq":341,"lat":41.70561111,"lon":-86.21902778,"rng_nm":50,"alt_fmsl":0,"id":"SB","desc":"MISHA NDB"},
{"type":"VOR","hdg_t":119.1,"dist_nm":16.8,"freq":113.7,"lat":41.52516667,"lon":-86.02794444,"rng_nm":130,"alt_fmsl":852,"id":"GSH","desc":"GOSHEN VORTAC"},
{"type":"NDB","hdg_t":242.5,"dist_nm":21.1,"freq":356,"lat":41.49897222,"lon":-86.77119444,"rng_nm":50,"alt_fmsl":0,"id":"IUL","desc":"LA PORTE NDB"},
{"type":"VOR","hdg_t":213.1,"dist_nm":24.3,"freq":115.6,"lat":41.32205556,"lon":-86.64930556,"rng_nm":130,"alt_fmsl":690,"id":"OXI","desc":"KNOX VOR-DME"},
{"type":"NDB","hdg_t":182.9,"dist_nm":26.7,"freq":391,"lat":41.21672222,"lon":-86.38472222,"rng_nm":50,"alt_fmsl":0,"id":"CPB","desc":"CULVER NDB"},
{"type":"NDB","hdg_t":241.9,"dist_nm":26.7,"freq":212,"lat":41.45113889,"lon":-86.87752778,"rng_nm":50,"alt_fmsl":0,"id":"VP","desc":"SEDLY NDB"},
{"type":"NDB","hdg_t":3.7,"dist_nm":27.9,"freq":397,"lat":42.12680556,"lon":-86.31333333,"rng_nm":50,"alt_fmsl":0,"id":"BE","desc":"MALLY NDB"},
{"type":"VOR","hdg_t":19.6,"dist_nm":30.7,"freq":116.6,"lat":42.14441667,"lon":-86.12269444,"rng_nm":40,"alt_fmsl":795,"id":"ELX","desc":"KEELER VOR-DME"},
{"type":"NDB","hdg_t":62.3,"dist_nm":38.5,"freq":407,"lat":41.95838889,"lon":-85.59166667,"rng_nm":50,"alt_fmsl":0,"id":"HAI","desc":"THREE RIVERS NDB"},
{"type":"NDB","hdg_t":77.3,"dist_nm":42.3,"freq":382,"lat":41.81313889,"lon":-85.43377778,"rng_nm":50,"alt_fmsl":0,"id":"IRS","desc":"STURGIS NDB"},
{"type":"NDB","hdg_t":263.2,"dist_nm":44.1,"freq":236,"lat":41.57241667,"lon":-87.32702778,"rng_nm":50,"alt_fmsl":0,"id":"GY","desc":"GARIE NDB"},
{"type":"VOR","hdg_t":122.5,"dist_nm":45.9,"freq":110.4,"lat":41.24691667,"lon":-85.49738889,"rng_nm":40,"alt_fmsl":0,"id":"OLK","desc":"WEBSTER LAKE VOR"},
{"type":"NDB","hdg_t":52.4,"dist_nm":46.4,"freq":371,"lat":42.13105556,"lon":-85.52975000,"rng_nm":50,"alt_fmsl":0,"id":"AZ","desc":"AUSTN NDB"},
{"type":"VOR","hdg_t":12.9,"dist_nm":49.4,"freq":112.1,"lat":42.46602778,"lon":-86.10480556,"rng_nm":130,"alt_fmsl":640,"id":"PMM","desc":"PULLMAN VOR-DME"},
{"type":"VOR","hdg_t":45.8,"dist_nm":49.7,"freq":109,"lat":42.23700000,"lon":-85.55316667,"rng_nm":40,"alt_fmsl":870,"id":"AZO","desc":"KALAMAZOO VOR-DME"},
{"type":"VOR","hdg_t":260.9,"dist_nm":55.5,"freq":114.2,"lat":41.51000000,"lon":-87.57155556,"rng_nm":40,"alt_fmsl":634,"id":"CGT","desc":"CHICAGO HEIGHTS VORTAC"},
{"type":"NDB","hdg_t":90.9,"dist_nm":57,"freq":347,"lat":41.63977778,"lon":-85.08691667,"rng_nm":50,"alt_fmsl":0,"id":"ANQ","desc":"ANGOLA NDB"},
{"type":"NDB","hdg_t":180.8,"dist_nm":57.1,"freq":263,"lat":40.70899200,"lon":-86.37359400,"rng_nm":25,"alt_fmsl":732,"id":"GGP","desc":"LOGANSPORT NDB"},
{"type":"NDB","hdg_t":154.7,"dist_nm":59.5,"freq":329,"lat":40.76365600,"lon":-85.79770600,"rng_nm":25,"alt_fmsl":792,"id":"IWH","desc":"WABASH NDB"},
{"type":"NDB","hdg_t":198,"dist_nm":60,"freq":377,"lat":40.71031700,"lon":-86.76223300,"rng_nm":25,"alt_fmsl":676,"id":"MCX","desc":"WHITE CO NDB"},
{"type":"NDB","hdg_t":274.9,"dist_nm":60.2,"freq":248,"lat":41.74150000,"lon":-87.68966667,"rng_nm":50,"alt_fmsl":0,"id":"MX","desc":"KEDZI NDB"},
{"type":"VOR","hdg_t":171.3,"dist_nm":61.7,"freq":108.45,"lat":40.64491667,"lon":-86.15172222,"rng_nm":25,"alt_fmsl":808,"id":"GUS","desc":"GRISSOM VORTAC"},
{"type":"VOR","hdg_t":51.4,"dist_nm":62.7,"freq":109.4,"lat":42.30980556,"lon":-85.25233333,"rng_nm":25,"alt_fmsl":922,"id":"BTL","desc":"BATTLE CREEK VORTAC"},
{"type":"NDB","hdg_t":139.9,"dist_nm":62.9,"freq":417,"lat":40.85533333,"lon":-85.46355556,"rng_nm":50,"alt_fmsl":0,"id":"HHG","desc":"HUNTINGTON NDB"},
{"type":"NDB","hdg_t":273.4,"dist_nm":66.7,"freq":332,"lat":41.71897222,"lon":-87.83638889,"rng_nm":50,"alt_fmsl":0,"id":"HK","desc":"ERMIN NDB"},
{"type":"VOR","hdg_t":127.4,"dist_nm":66.7,"freq":117.8,"lat":40.97905556,"lon":-85.18805556,"rng_nm":130,"alt_fmsl":793,"id":"FWA","desc":"FORT WAYNE VORTAC"},
{"type":"NDB","hdg_t":283,"dist_nm":66.8,"freq":385,"lat":41.90486100,"lon":-87.80691700,"rng_nm":25,"alt_fmsl":0,"id":"ID","desc":"INDDY NDB"},
{"type":"NDB","hdg_t":50.8,"dist_nm":67,"freq":272,"lat":42.36200000,"lon":-85.18450000,"rng_nm":50,"alt_fmsl":0,"id":"BT","desc":"BATOL NDB"},
{"type":"NDB","hdg_t":108,"dist_nm":67,"freq":227,"lat":41.30830556,"lon":-84.94419444,"rng_nm":50,"alt_fmsl":0,"id":"GW","desc":"SHENK NDB"},
{"type":"NDB","hdg_t":287.1,"dist_nm":67.1,"freq":414,"lat":41.98431700,"lon":-87.78902200,"rng_nm":25,"alt_fmsl":0,"id":"IA","desc":"TAFFS NDB"},
{"type":"VOR","hdg_t":250.4,"dist_nm":68.9,"freq":113.2,"lat":41.26963889,"lon":-87.79105556,"rng_nm":40,"alt_fmsl":689,"id":"EON","desc":"PEOTONE VORTAC"},
{"type":"VOR","hdg_t":168.7,"dist_nm":69.3,"freq":113.5,"lat":40.52777778,"lon":-86.05800000,"rng_nm":130,"alt_fmsl":827,"id":"OKK","desc":"KOKOMO VORTAC"},
{"type":"NDB","hdg_t":127.7,"dist_nm":71,"freq":251,"lat":40.93050000,"lon":-85.11963889,"rng_nm":50,"alt_fmsl":0,"id":"FW","desc":"HOAGY NDB"},
{"type":"VOR","hdg_t":286.1,"dist_nm":72.2,"freq":113.9,"lat":41.98766667,"lon":-87.90488889,"rng_nm":40,"alt_fmsl":650,"id":"ORD","desc":"CHICAGO O'HARE IN VOR-DME"},
{"type":"DME","hdg_t":286.6,"dist_nm":73.5,"freq":111.75,"lat":42.00391666,"lon":-87.93006695,"rng_nm":18,"alt_fmsl":668,"id":"KORD","desc":"09L DME-ILS"},
{"type":"DME","hdg_t":286.6,"dist_nm":73.5,"freq":111.75,"lat":42.00391667,"lon":-87.93006690,"rng_nm":18,"alt_fmsl":668,"id":"KORD","desc":"27R DME-ILS"},
{"type":"VOR","hdg_t":206.2,"dist_nm":73.8,"freq":115.1,"lat":40.55611111,"lon":-87.06933333,"rng_nm":130,"alt_fmsl":750,"id":"BVT","desc":"BOILER VORTAC"},
{"type":"VOR","hdg_t":70.8,"dist_nm":75.1,"freq":111.2,"lat":42.06250000,"lon":-84.76513889,"rng_nm":40,"alt_fmsl":1040,"id":"LFD","desc":"LITCHFIELD VOR-DME"},
{"type":"VOR","hdg_t":242.9,"dist_nm":76.2,"freq":111.6,"lat":41.07441667,"lon":-87.84977778,"rng_nm":40,"alt_fmsl":625,"id":"IKK","desc":"KANKAKEE VOR-DME"},
{"type":"VOR","hdg_t":156.1,"dist_nm":76.5,"freq":108.6,"lat":40.49333333,"lon":-85.67925000,"rng_nm":40,"alt_fmsl":850,"id":"MZZ","desc":"MARION VOR-DME"},
{"type":"NDB","hdg_t":284.2,"dist_nm":77.2,"freq":350,"lat":41.96777200,"lon":-88.02670000,"rng_nm":50,"alt_fmsl":699,"id":"ME","desc":"DEANA NDB"},
{"type":"NDB","hdg_t":288.9,"dist_nm":77.3,"freq":368,"lat":42.06918300,"lon":-87.99088300,"rng_nm":25,"alt_fmsl":0,"id":"OH","desc":"LEAMA NDB"},
{"type":"VOR","hdg_t":29.2,"dist_nm":77.4,"freq":115.95,"lat":42.78672222,"lon":-85.49708333,"rng_nm":130,"alt_fmsl":803,"id":"GRR","desc":"GRAND RAPIDS VOR-DME"},
{"type":"NDB","hdg_t":288.2,"dist_nm":77.8,"freq":394,"lat":42.05593600,"lon":-88.00779200,"rng_nm":25,"alt_fmsl":0,"id":"OR","desc":"CHSTR NDB"},
{"type":"VOR","hdg_t":295.6,"dist_nm":78.9,"freq":113,"lat":42.22147222,"lon":-87.95180556,"rng_nm":130,"alt_fmsl":758,"id":"OBK","desc":"NORTHBROOK VOR-DME"},
{"type":"NDB","hdg_t":241.6,"dist_nm":79.9,"freq":272,"lat":41.01788889,"lon":-87.90372222,"rng_nm":50,"alt_fmsl":0,"id":"IK","desc":"LUKOW NDB"},
{"type":"NDB","hdg_t":307.1,"dist_nm":80.5,"freq":379,"lat":42.46405556,"lon":-87.80141667,"rng_nm":50,"alt_fmsl":0,"id":"UG","desc":"WAUKE NDB"},
{"type":"NDB","hdg_t":203.3,"dist_nm":80.6,"freq":401,"lat":40.42644444,"lon":-87.05180556,"rng_nm":50,"alt_fmsl":0,"id":"LA","desc":"EARLE NDB"},
{"type":"NDB","hdg_t":186.5,"dist_nm":84,"freq":278,"lat":40.27050000,"lon":-86.56275000,"rng_nm":50,"alt_fmsl":0,"id":"FKR","desc":"FRANKFORT NDB"},
{"type":"NDB","hdg_t":96.7,"dist_nm":85.7,"freq":260,"lat":41.47886111,"lon":-84.46591667,"rng_nm":50,"alt_fmsl":0,"id":"BYN","desc":"BRYAN NDB"},
{"type":"NDB","hdg_t":30.1,"dist_nm":85.7,"freq":263,"lat":42.89563889,"lon":-85.37858333,"rng_nm":50,"alt_fmsl":0,"id":"GR","desc":"KNOBS NDB"},
{"type":"NDB","hdg_t":5.3,"dist_nm":87.8,"freq":219,"lat":43.12113889,"lon":-86.16858333,"rng_nm":50,"alt_fmsl":0,"id":"MK","desc":"MUSKO NDB"},
{"type":"VOR","hdg_t":266.1,"dist_nm":88.6,"freq":112.3,"lat":41.54641667,"lon":-88.31841667,"rng_nm":130,"alt_fmsl":592,"id":"JOT","desc":"JOLIET VORTAC"},
{"type":"NDB","hdg_t":102.1,"dist_nm":89,"freq":246,"lat":41.33369444,"lon":-84.42800000,"rng_nm":50,"alt_fmsl":0,"id":"DFI","desc":"DEFIANCE NDB"},
{"type":"VOR","hdg_t":309.1,"dist_nm":90,"freq":109.2,"lat":42.59905556,"lon":-87.93172222,"rng_nm":25,"alt_fmsl":734,"id":"ENW","desc":"KENOSHA VOR-DME"},
{"type":"VOR","hdg_t":279.3,"dist_nm":90.6,"freq":108.4,"lat":41.89036111,"lon":-88.35016667,"rng_nm":40,"alt_fmsl":838,"id":"DPA","desc":"DUPAGE VOR-DME"},
{"type":"VOR","hdg_t":8.6,"dist_nm":91.4,"freq":115.2,"lat":43.16925000,"lon":-86.03938889,"rng_nm":40,"alt_fmsl":659,"id":"MKG","desc":"MUSKEGON VORTAC"},
{"type":"VOR","hdg_t":66.5,"dist_nm":92,"freq":109.6,"lat":42.25925000,"lon":-84.45855556,"rng_nm":40,"alt_fmsl":995,"id":"JXN","desc":"JACKSON VOR-DME"},
{"type":"NDB","hdg_t":306.3,"dist_nm":92.1,"freq":389,"lat":42.56044444,"lon":-88.02877778,"rng_nm":50,"alt_fmsl":0,"id":"EN","desc":"CODEE NDB"},
{"type":"NDB","hdg_t":312.1,"dist_nm":92.1,"freq":206,"lat":42.68255556,"lon":-87.89947222,"rng_nm":50,"alt_fmsl":0,"id":"RA","desc":"PASER NDB"},
{"type":"NDB","hdg_t":120.7,"dist_nm":92.2,"freq":411,"lat":40.86255556,"lon":-84.61383333,"rng_nm":50,"alt_fmsl":0,"id":"VFU","desc":"STANLEY NDB"},
{"type":"VOR","hdg_t":315.8,"dist_nm":92.6,"freq":117.7,"lat":42.76216667,"lon":-87.81472222,"rng_nm":25,"alt_fmsl":669,"id":"HRK","desc":"HORLICK VOR-DME"},
{"type":"NDB","hdg_t":138.9,"dist_nm":95.5,"freq":257,"lat":40.45366400,"lon":-84.98355000,"rng_nm":25,"alt_fmsl":959,"id":"PLD","desc":"PORTLAND NDB"},
{"type":"VOR","hdg_t":152.6,"dist_nm":95.9,"freq":114.4,"lat":40.23730556,"lon":-85.39402778,"rng_nm":40,"alt_fmsl":935,"id":"MIE","desc":"MUNCIE VOR-DME"},
{"type":"NDB","hdg_t":65.5,"dist_nm":97.2,"freq":212,"lat":42.31783333,"lon":-84.36555556,"rng_nm":50,"alt_fmsl":0,"id":"JX","desc":"JAKSO NDB"},
{"type":"VOR","hdg_t":48.8,"dist_nm":97.2,"freq":110.8,"lat":42.71738889,"lon":-84.69750000,"rng_nm":40,"alt_fmsl":888,"id":"LAN","desc":"LANSING VORTAC"},
{"type":"NDB","hdg_t":213.3,"dist_nm":98.1,"freq":332,"lat":40.28952778,"lon":-87.52975000,"rng_nm":50,"alt_fmsl":0,"id":"DN","desc":"JULIP NDB"},
{"type":"VOR","hdg_t":214,"dist_nm":98.6,"freq":111,"lat":40.29377778,"lon":-87.55719444,"rng_nm":40,"alt_fmsl":700,"id":"DNV","desc":"DANVILLE VORTAC"},
{"type":"NDB","hdg_t":315.9,"dist_nm":99,"freq":410,"lat":42.83961111,"lon":-87.91300000,"rng_nm":50,"alt_fmsl":0,"id":"MK","desc":"CAPPY NDB"},
{"type":"NDB","hdg_t":91,"dist_nm":99.9,"freq":375,"lat":41.60922222,"lon":-84.13272222,"rng_nm":50,"alt_fmsl":0,"id":"USE","desc":"FULTON NDB"}
]
}
