{"success":true,"source":"xp2csv.pl","last_updated":"2013/11/08 14:53:21 UTC"
,"icao":"61S","name":"Cottage Grove State","lat":43.804097,"lon":-123.0320415,"rwys":1,"ils":0,"index":926067,"path":"w130n40/w124n43"
,"runways":[
{"len_m":972,"wid_m":18.29,"hdg":167,"surf":"Asphalt","rwy1":"15","lat1":43.80836100,"lon1":-123.03338900,"rwy2":"33","lat2":43.79983300,"lon2":-123.03069400}
]
,"radios":[
{"type":"CTAF","freq":122.8,"desc":"CTAF/UNICOM"}
]
,"navaids":[
{"type":"VOR","hdg_t":336.5,"dist_nm":20.7,"freq":112.9,"lat":44.12088889,"lon":-123.22283333,"rng_nm":130,"alt_fmsl":364,"id":"EUG","desc":"EUGENE VORTAC"},
{"type":"NDB","hdg_t":202.7,"dist_nm":36.9,"freq":400,"lat":43.23525000,"lon":-123.35802778,"rng_nm":50,"alt_fmsl":0,"id":"RBG","desc":"ROSEBURG NDB"},
{"type":"VOR","hdg_t":200.6,"dist_nm":39.8,"freq":108.2,"lat":43.18241667,"lon":-123.35225000,"rng_nm":40,"alt_fmsl":1320,"id":"RBG","desc":"ROSEBURG VOR-DME"},
{"type":"VOR","hdg_t":344.9,"dist_nm":43.2,"freq":115.4,"lat":44.49958333,"lon":-123.29366667,"rng_nm":130,"alt_fmsl":241,"id":"CVO","desc":"CORVALLIS VOR-DME"},
{"type":"NDB","hdg_t":348.1,"dist_nm":49.6,"freq":225,"lat":44.61358333,"lon":-123.27066667,"rng_nm":50,"alt_fmsl":0,"id":"LWG","desc":"LEWISBURG NDB"},
{"type":"VOR","hdg_t":245.1,"dist_nm":54.7,"freq":112.1,"lat":43.41550000,"lon":-124.16852778,"rng_nm":40,"alt_fmsl":707,"id":"OTH","desc":"NORTH BEND VORTAC"},
{"type":"NDB","hdg_t":246.6,"dist_nm":60.9,"freq":378,"lat":43.39444444,"lon":-124.31027778,"rng_nm":50,"alt_fmsl":0,"id":"OT","desc":"EMIRE NDB"},
{"type":"NDB","hdg_t":3.1,"dist_nm":62.6,"freq":266,"lat":44.84744444,"lon":-122.95102778,"rng_nm":50,"alt_fmsl":0,"id":"SL","desc":"TURNO NDB"},
{"type":"VOR","hdg_t":316.5,"dist_nm":64.1,"freq":117.1,"lat":44.57536111,"lon":-124.06058333,"rng_nm":130,"alt_fmsl":147,"id":"ONP","desc":"NEWPORT VORTAC"},
{"type":"NDB","hdg_t":319.9,"dist_nm":68.7,"freq":350,"lat":44.67600000,"lon":-124.06511111,"rng_nm":50,"alt_fmsl":0,"id":"ON","desc":"AGGET NDB"},
{"type":"VOR","hdg_t":69.6,"dist_nm":79.5,"freq":117.6,"lat":44.25275000,"lon":-121.30352778,"rng_nm":130,"alt_fmsl":4101,"id":"DSD","desc":"DESCHUTES VORTAC"},
{"type":"VOR","hdg_t":176.1,"dist_nm":79.6,"freq":113.6,"lat":42.47958333,"lon":-122.91294444,"rng_nm":130,"alt_fmsl":2083,"id":"OED","desc":"ROGUE VALLEY VORTAC"},
{"type":"NDB","hdg_t":176.2,"dist_nm":81.3,"freq":373,"lat":42.45097222,"lon":-122.91336111,"rng_nm":50,"alt_fmsl":0,"id":"MF","desc":"PUMIE NDB"},
{"type":"NDB","hdg_t":175.4,"dist_nm":84.9,"freq":356,"lat":42.39161111,"lon":-122.87883333,"rng_nm":50,"alt_fmsl":0,"id":"MEF","desc":"MEDFORD NDB"},
{"type":"NDB","hdg_t":0,"dist_nm":86.5,"freq":383,"lat":45.24613100,"lon":-123.02973600,"rng_nm":50,"alt_fmsl":159,"id":"MM","desc":"MINNE NDB"},
{"type":"NDB","hdg_t":7.1,"dist_nm":89.4,"freq":366,"lat":45.28339200,"lon":-122.77036400,"rng_nm":25,"alt_fmsl":157,"id":"PLV","desc":"PRAHL NDB"},
{"type":"NDB","hdg_t":70.1,"dist_nm":92.1,"freq":411,"lat":44.30797222,"lon":-121.01894444,"rng_nm":50,"alt_fmsl":0,"id":"RD","desc":"BODEY NDB"},
{"type":"VOR","hdg_t":1.4,"dist_nm":92.9,"freq":117.4,"lat":45.35322222,"lon":-122.97816667,"rng_nm":130,"alt_fmsl":1440,"id":"UBG","desc":"NEWBERG VOR-DME"}
]
}
