{"success":true,"source":"xp2csv.pl","last_updated":"2013/11/08 14:53:21 UTC"
,"icao":"62GA","name":"Seven Lakes","lat":33.324565,"lon":-83.91629584,"rwys":1,"ils":0,"index":1580752,"path":"w090n30/w084n33"
,"runways":[
{"len_m":891,"wid_m":39.62,"hdg":177,"surf":"Turf/grass","rwy1":"18","lat1":33.32858102,"lon1":-83.91646368,"rwy2":"36","lat2":33.32054898,"lon2":-83.91612800}
]
,"navaids":[
{"type":"NDB","hdg_t":241.8,"dist_nm":17.7,"freq":412,"lat":33.18430556,"lon":-84.22750000,"rng_nm":50,"alt_fmsl":0,"id":"JHH","desc":"GRIFFIN NDB"},
{"type":"NDB","hdg_t":20.1,"dist_nm":19.4,"freq":370,"lat":33.62983333,"lon":-83.78211111,"rng_nm":50,"alt_fmsl":0,"id":"VOF","desc":"ALCOVY NDB"},
{"type":"NDB","hdg_t":20.9,"dist_nm":26.4,"freq":392,"lat":33.73761111,"lon":-83.72683333,"rng_nm":50,"alt_fmsl":0,"id":"JNM","desc":"MONROE NDB"},
{"type":"NDB","hdg_t":314.2,"dist_nm":27.6,"freq":266,"lat":33.64538889,"lon":-84.31125000,"rng_nm":50,"alt_fmsl":0,"id":"BR","desc":"REDAN NDB"},
{"type":"NDB","hdg_t":209.4,"dist_nm":27.8,"freq":339,"lat":32.91902778,"lon":-84.18741667,"rng_nm":50,"alt_fmsl":0,"id":"OP","desc":"YATES NDB"},
{"type":"NDB","hdg_t":267.2,"dist_nm":28.7,"freq":316,"lat":33.30063889,"lon":-84.48641667,"rng_nm":50,"alt_fmsl":0,"id":"FF","desc":"PECAT NDB"},
{"type":"VOR","hdg_t":305.1,"dist_nm":31.7,"freq":116.9,"lat":33.62908333,"lon":-84.43508333,"rng_nm":130,"alt_fmsl":1000,"id":"ATL","desc":"ATLANTA VORTAC"},
{"type":"VOR","hdg_t":329.9,"dist_nm":38.1,"freq":116.6,"lat":33.87563889,"lon":-84.29880556,"rng_nm":40,"alt_fmsl":970,"id":"PDK","desc":"PEACHTREE VOR-DME"},
{"type":"NDB","hdg_t":104.9,"dist_nm":39.4,"freq":380,"lat":33.15180556,"lon":-83.15958333,"rng_nm":50,"alt_fmsl":0,"id":"UMB","desc":"CULVR NDB"},
{"type":"NDB","hdg_t":24,"dist_nm":40,"freq":404,"lat":33.93536111,"lon":-83.58947222,"rng_nm":50,"alt_fmsl":0,"id":"BMW","desc":"BARROW COUNTY NDB"},
{"type":"NDB","hdg_t":264.4,"dist_nm":40.2,"freq":234,"lat":33.25694444,"lon":-84.71327778,"rng_nm":50,"alt_fmsl":0,"id":"EQQ","desc":"COWETA CO NDB"},
{"type":"VOR","hdg_t":160.2,"dist_nm":40.2,"freq":114.2,"lat":32.69119444,"lon":-83.64719444,"rng_nm":130,"alt_fmsl":381,"id":"MCN","desc":"MACON VORTAC"},
{"type":"NDB","hdg_t":3.6,"dist_nm":41.7,"freq":419,"lat":34.01994444,"lon":-83.86283333,"rng_nm":50,"alt_fmsl":0,"id":"TX","desc":"GWNET NDB"},
{"type":"NDB","hdg_t":165.8,"dist_nm":41.9,"freq":290,"lat":32.64533300,"lon":-83.71325000,"rng_nm":25,"alt_fmsl":0,"id":"MC","desc":"SOFKE NDB"},
{"type":"NDB","hdg_t":67.2,"dist_nm":42.1,"freq":397,"lat":33.59489400,"lon":-83.14072200,"rng_nm":25,"alt_fmsl":662,"id":"EJK","desc":"GREENSBORO NDB"},
{"type":"NDB","hdg_t":306,"dist_nm":44.7,"freq":344,"lat":33.76238889,"lon":-84.63886111,"rng_nm":50,"alt_fmsl":0,"id":"FT","desc":"FLANC NDB"},
{"type":"SDME","hdg_t":320.2,"dist_nm":46.1,"freq":113,"lat":33.91464700,"lon":-84.50730600,"rng_nm":25,"alt_fmsl":1008,"id":"DOB","desc":"DOBBINS TACAN"},
{"type":"VOR","hdg_t":38.2,"dist_nm":47.6,"freq":109.6,"lat":33.94758333,"lon":-83.32475000,"rng_nm":130,"alt_fmsl":793,"id":"AHN","desc":"ATHENS VORTAC"},
{"type":"NDB","hdg_t":24,"dist_nm":48.4,"freq":244,"lat":34.06222222,"lon":-83.52094444,"rng_nm":50,"alt_fmsl":0,"id":"DDA","desc":"COMMERCE NDB"},
{"type":"NDB","hdg_t":66.5,"dist_nm":48.8,"freq":353,"lat":33.64613889,"lon":-83.02080556,"rng_nm":50,"alt_fmsl":0,"id":"VV","desc":"JUNNE NDB"},
{"type":"NDB","hdg_t":42.7,"dist_nm":51.2,"freq":221,"lat":33.95138889,"lon":-83.21958333,"rng_nm":50,"alt_fmsl":0,"id":"BJT","desc":"BULLDOG NDB"},
{"type":"NDB","hdg_t":171.6,"dist_nm":52.4,"freq":350,"lat":32.45741667,"lon":-83.76572222,"rng_nm":50,"alt_fmsl":0,"id":"BEP","desc":"BAY CREEK NDB"},
{"type":"NDB","hdg_t":110.2,"dist_nm":52.5,"freq":360,"lat":33.01694444,"lon":-82.93941667,"rng_nm":50,"alt_fmsl":0,"id":"HIT","desc":"KAOLIN NDB"},
{"type":"NDB","hdg_t":0.5,"dist_nm":52.6,"freq":365,"lat":34.20338889,"lon":-83.90630556,"rng_nm":50,"alt_fmsl":0,"id":"FKV","desc":"FLOWERY BRANCH NDB"},
{"type":"NDB","hdg_t":239.3,"dist_nm":56.1,"freq":272,"lat":32.84286111,"lon":-84.87266667,"rng_nm":50,"alt_fmsl":0,"id":"PIM","desc":"PINE MOUNTAIN NDB"},
{"type":"NDB","hdg_t":184.6,"dist_nm":57.5,"freq":426,"lat":32.36738889,"lon":-84.00741667,"rng_nm":50,"alt_fmsl":0,"id":"IZS","desc":"MONTEZUMA NDB"},
{"type":"NDB","hdg_t":63.7,"dist_nm":61.5,"freq":435,"lat":33.77486111,"lon":-82.81319444,"rng_nm":50,"alt_fmsl":0,"id":"IIY","desc":"WASHINGTON-WILKE NDB"},
{"type":"NDB","hdg_t":332.9,"dist_nm":62.4,"freq":415,"lat":34.25236111,"lon":-84.48761111,"rng_nm":50,"alt_fmsl":0,"id":"DJD","desc":"CHERO NDB"},
{"type":"NDB","hdg_t":283.6,"dist_nm":62.6,"freq":278,"lat":33.56577778,"lon":-85.13088889,"rng_nm":50,"alt_fmsl":0,"id":"GPQ","desc":"CARROLLTON NDB"},
{"type":"NDB","hdg_t":78.8,"dist_nm":66.5,"freq":341,"lat":33.53327778,"lon":-82.61436111,"rng_nm":50,"alt_fmsl":0,"id":"AA","desc":"CEDAR NDB"},
{"type":"VOR","hdg_t":256.1,"dist_nm":67,"freq":115.6,"lat":33.04911111,"lon":-85.20622222,"rng_nm":130,"alt_fmsl":798,"id":"LGC","desc":"LAGRANGE VORTAC"},
{"type":"NDB","hdg_t":137.5,"dist_nm":68,"freq":251,"lat":32.48383333,"lon":-83.01094444,"rng_nm":50,"alt_fmsl":0,"id":"DB","desc":"CREKE NDB"},
{"type":"NDB","hdg_t":188,"dist_nm":69.5,"freq":242,"lat":32.17447222,"lon":-84.10816667,"rng_nm":50,"alt_fmsl":0,"id":"LKG","desc":"LINDBERGH NDB"},
{"type":"VOR","hdg_t":162.2,"dist_nm":69.8,"freq":116.5,"lat":32.21344444,"lon":-83.49725000,"rng_nm":40,"alt_fmsl":300,"id":"VNA","desc":"VIENNA VORTAC"},
{"type":"NDB","hdg_t":318.7,"dist_nm":69.9,"freq":308,"lat":34.19958333,"lon":-84.84311111,"rng_nm":50,"alt_fmsl":0,"id":"EVZ","desc":"CARTERSVILLE NDB"},
{"type":"VOR","hdg_t":232.9,"dist_nm":69.9,"freq":117.1,"lat":32.61525000,"lon":-85.01763889,"rng_nm":40,"alt_fmsl":630,"id":"CSG","desc":"COLUMBUS VORTAC"},
{"type":"NDB","hdg_t":79.8,"dist_nm":71.3,"freq":333,"lat":33.52740600,"lon":-82.51563900,"rng_nm":25,"alt_fmsl":452,"id":"HQU","desc":"THOMSON MCDUFFIE NDB"},
{"type":"VOR","hdg_t":129.4,"dist_nm":71.3,"freq":113.1,"lat":32.56344444,"lon":-82.83000000,"rng_nm":40,"alt_fmsl":265,"id":"DBN","desc":"DUBLIN VORTAC"},
{"type":"NDB","hdg_t":14.4,"dist_nm":72.8,"freq":347,"lat":34.50150000,"lon":-83.54988889,"rng_nm":50,"alt_fmsl":0,"id":"AJR","desc":"HABERSHAM NDB"},
{"type":"NDB","hdg_t":227.7,"dist_nm":77.2,"freq":355,"lat":32.45197222,"lon":-85.04194444,"rng_nm":50,"alt_fmsl":0,"id":"CS","desc":"FENIX NDB"},
{"type":"VOR","hdg_t":310.1,"dist_nm":78.3,"freq":115.4,"lat":34.16255556,"lon":-85.11938889,"rng_nm":130,"alt_fmsl":1149,"id":"RMG","desc":"ROME VORTAC"},
{"type":"NDB","hdg_t":177.9,"dist_nm":79.4,"freq":400,"lat":31.99783333,"lon":-83.86180556,"rng_nm":50,"alt_fmsl":0,"id":"OHY","desc":"CONEY NDB"},
{"type":"VOR","hdg_t":222.7,"dist_nm":80.5,"freq":111.4,"lat":32.33236111,"lon":-84.99325000,"rng_nm":25,"alt_fmsl":250,"id":"LSF","desc":"LAWSON VOR-DME"},
{"type":"NDB","hdg_t":151.3,"dist_nm":81,"freq":366,"lat":32.13419444,"lon":-83.15391667,"rng_nm":50,"alt_fmsl":0,"id":"EZM","desc":"EASTMAN NDB"},
{"type":"NDB","hdg_t":322.2,"dist_nm":81.9,"freq":323,"lat":34.40155556,"lon":-84.92652778,"rng_nm":50,"alt_fmsl":0,"id":"OUK","desc":"CALHOUN NDB"},
{"type":"NDB","hdg_t":222.4,"dist_nm":83.3,"freq":335,"lat":32.29319444,"lon":-85.02327778,"rng_nm":50,"alt_fmsl":0,"id":"AWS","desc":"LAWSON NDB"},
{"type":"NDB","hdg_t":117.6,"dist_nm":83.7,"freq":309,"lat":32.66652778,"lon":-82.45269444,"rng_nm":50,"alt_fmsl":0,"id":"EEX","desc":"EMANUEL CO NDB"},
{"type":"VOR","hdg_t":40.4,"dist_nm":86.5,"freq":108.6,"lat":34.41919444,"lon":-82.78469444,"rng_nm":40,"alt_fmsl":736,"id":"ELW","desc":"ELECTRIC CITY VORTAC"},
{"type":"VOR","hdg_t":20.4,"dist_nm":87.7,"freq":113.4,"lat":34.69586111,"lon":-83.29766667,"rng_nm":130,"alt_fmsl":1700,"id":"ODF","desc":"FOOTHILLS VORTAC"},
{"type":"NDB","hdg_t":144.3,"dist_nm":90.3,"freq":280,"lat":32.09461111,"lon":-82.88375000,"rng_nm":50,"alt_fmsl":0,"id":"MQW","desc":"MC RAE NDB"},
{"type":"VOR","hdg_t":74.9,"dist_nm":90.9,"freq":113.9,"lat":33.70736111,"lon":-82.16205556,"rng_nm":130,"alt_fmsl":428,"id":"IRQ","desc":"COLLIERS VORTAC"},
{"type":"NDB","hdg_t":237.9,"dist_nm":91,"freq":423,"lat":32.50925000,"lon":-85.43722222,"rng_nm":50,"alt_fmsl":0,"id":"AU","desc":"OPOLE NDB"},
{"type":"NDB","hdg_t":40.2,"dist_nm":92.6,"freq":230,"lat":34.49810600,"lon":-82.70853600,"rng_nm":25,"alt_fmsl":760,"id":"AND","desc":"ANDERSON NDB"},
{"type":"NDB","hdg_t":32.1,"dist_nm":95.7,"freq":257,"lat":34.67383333,"lon":-82.88683333,"rng_nm":50,"alt_fmsl":0,"id":"CEU","desc":"CLEMSON NDB"},
{"type":"NDB","hdg_t":84.5,"dist_nm":96.7,"freq":385,"lat":33.46280556,"lon":-81.99686111,"rng_nm":50,"alt_fmsl":0,"id":"EMR","desc":"EMORY NDB"},
{"type":"VOR","hdg_t":0,"dist_nm":96.9,"freq":109.8,"lat":34.94300000,"lon":-83.91569444,"rng_nm":40,"alt_fmsl":3660,"id":"HRS","desc":"HARRIS VORTAC"},
{"type":"NDB","hdg_t":99.4,"dist_nm":97.7,"freq":356,"lat":33.04252778,"lon":-82.00483333,"rng_nm":50,"alt_fmsl":0,"id":"BXG","desc":"BURKE CO NDB"},
{"type":"NDB","hdg_t":90.7,"dist_nm":99,"freq":233,"lat":33.28694444,"lon":-81.94688889,"rng_nm":50,"alt_fmsl":0,"id":"AG","desc":"BUSHE (LOM) NDB"}
]
}
