{"success":true,"source":"xp2csv.pl","last_updated":"2013/11/08 14:53:21 UTC"
,"icao":"62K","name":"Seneca Municipal","lat":39.84722083,"lon":-96.11278084,"rwys":1,"ils":0,"index":1368179,"path":"w100n30/w097n39"
,"runways":[
{"len_m":730,"wid_m":30.48,"hdg":186,"surf":"Turf/grass","rwy1":"18","lat1":39.85049438,"lon1":-96.11233270,"rwy2":"36","lat2":39.84394728,"lon2":-96.11322898}
]
,"navaids":[
{"type":"VOR","hdg_t":348.5,"dist_nm":21.6,"freq":112.4,"lat":40.20036111,"lon":-96.20627778,"rng_nm":130,"alt_fmsl":1360,"id":"PWE","desc":"PAWNEE CITY VORTAC"},
{"type":"NDB","hdg_t":60.3,"dist_nm":27.8,"freq":404,"lat":40.07633333,"lon":-95.58688889,"rng_nm":50,"alt_fmsl":0,"id":"FNB","desc":"BRENNER NDB"},
{"type":"VOR","hdg_t":89.3,"dist_nm":31.8,"freq":108.2,"lat":39.85083333,"lon":-95.42305556,"rng_nm":40,"alt_fmsl":1126,"id":"RBA","desc":"ROBINSON VOR-DME"},
{"type":"NDB","hdg_t":310.3,"dist_nm":38.8,"freq":263,"lat":40.26500000,"lon":-96.75708100,"rng_nm":25,"alt_fmsl":1250,"id":"HWB","desc":"SHAW NDB"},
{"type":"VOR","hdg_t":312.8,"dist_nm":40.1,"freq":110.6,"lat":40.30141667,"lon":-96.75463889,"rng_nm":25,"alt_fmsl":1304,"id":"BIE","desc":"BEATRICE VOR-DME"},
{"type":"NDB","hdg_t":263.4,"dist_nm":43.2,"freq":212,"lat":39.76169444,"lon":-97.04233333,"rng_nm":50,"alt_fmsl":0,"id":"DBX","desc":"MORRISON NDB"},
{"type":"NDB","hdg_t":314,"dist_nm":44.6,"freq":248,"lat":40.36361100,"lon":-96.81294200,"rng_nm":25,"alt_fmsl":1352,"id":"BJU","desc":"BIG BLUE NDB"},
{"type":"NDB","hdg_t":14.2,"dist_nm":46.9,"freq":347,"lat":40.60555556,"lon":-95.86083333,"rng_nm":50,"alt_fmsl":0,"id":"AFK","desc":"NEBRASKA CITY NDB"},
{"type":"NDB","hdg_t":155.4,"dist_nm":47.8,"freq":521,"lat":39.12036111,"lon":-95.68711111,"rng_nm":50,"alt_fmsl":0,"id":"TO","desc":"BILOY NDB"},
{"type":"VOR","hdg_t":211.7,"dist_nm":49.3,"freq":110.2,"lat":39.14544444,"lon":-96.66872222,"rng_nm":25,"alt_fmsl":1044,"id":"MHK","desc":"MANHATTAN VOR-DME"},
{"type":"NDB","hdg_t":208.9,"dist_nm":49.8,"freq":391,"lat":39.11744200,"lon":-96.62933600,"rng_nm":50,"alt_fmsl":1060,"id":"MQD","desc":"MC DOWELL CREEK NDB"},
{"type":"VOR","hdg_t":148.2,"dist_nm":49.9,"freq":117.8,"lat":39.13711111,"lon":-95.54911111,"rng_nm":40,"alt_fmsl":1070,"id":"TOP","desc":"TOPEKA VORTAC"},
{"type":"NDB","hdg_t":292.4,"dist_nm":52.4,"freq":293,"lat":40.17666667,"lon":-97.16586111,"rng_nm":50,"alt_fmsl":0,"id":"FBY","desc":"FAIRBURY NDB"},
{"type":"VOR","hdg_t":82.5,"dist_nm":55.2,"freq":115.5,"lat":39.96058333,"lon":-94.92522222,"rng_nm":130,"alt_fmsl":1160,"id":"STJ","desc":"ST JOSEPH VORTAC"},
{"type":"NDB","hdg_t":87.3,"dist_nm":55.6,"freq":233,"lat":39.88380556,"lon":-94.90813889,"rng_nm":50,"alt_fmsl":0,"id":"AZN","desc":"AMAZON NDB"},
{"type":"NDB","hdg_t":240.4,"dist_nm":56,"freq":362,"lat":39.38075000,"lon":-97.16125000,"rng_nm":50,"alt_fmsl":0,"id":"CYW","desc":"CLAY CENTER NDB"},
{"type":"NDB","hdg_t":100,"dist_nm":56.7,"freq":260,"lat":39.67572222,"lon":-94.90683333,"rng_nm":50,"alt_fmsl":0,"id":"ST","desc":"TARIO NDB"},
{"type":"SDME","hdg_t":158.5,"dist_nm":57.8,"freq":111.6,"lat":38.94736700,"lon":-95.66117500,"rng_nm":25,"alt_fmsl":1043,"id":"FOE","desc":"FORBES TACAN"},
{"type":"NDB","hdg_t":212.9,"dist_nm":58.5,"freq":314,"lat":39.02600000,"lon":-96.79450000,"rng_nm":50,"alt_fmsl":0,"id":"CVY","desc":"CAVALRY NDB"},
{"type":"NDB","hdg_t":321.4,"dist_nm":59.7,"freq":420,"lat":40.62411400,"lon":-96.92761100,"rng_nm":25,"alt_fmsl":1479,"id":"CEK","desc":"CRETE NDB"},
{"type":"NDB","hdg_t":331.2,"dist_nm":61.6,"freq":385,"lat":40.74719444,"lon":-96.76241667,"rng_nm":50,"alt_fmsl":0,"id":"LN","desc":"POTTS NDB"},
{"type":"NDB","hdg_t":156.6,"dist_nm":62.7,"freq":326,"lat":38.88486111,"lon":-95.58152778,"rng_nm":50,"alt_fmsl":0,"id":"FO","desc":"RIPLY NDB"},
{"type":"VOR","hdg_t":213.7,"dist_nm":63,"freq":109.4,"lat":38.97016667,"lon":-96.86116667,"rng_nm":25,"alt_fmsl":0,"id":"FRI","desc":"FORT RILEY VOR"},
{"type":"NDB","hdg_t":30.6,"dist_nm":63.1,"freq":411,"lat":40.75169444,"lon":-95.40750000,"rng_nm":50,"alt_fmsl":0,"id":"SDA","desc":"SHENANDOAH NDB"},
{"type":"NDB","hdg_t":7.8,"dist_nm":66.3,"freq":329,"lat":40.94377778,"lon":-95.91247222,"rng_nm":50,"alt_fmsl":0,"id":"PMV","desc":"PLATTSMOUTH NDB"},
{"type":"NDB","hdg_t":118.7,"dist_nm":67,"freq":416,"lat":39.30197222,"lon":-94.85111111,"rng_nm":50,"alt_fmsl":0,"id":"RN","desc":"HUGGY NDB"},
{"type":"NDB","hdg_t":285.4,"dist_nm":70.3,"freq":323,"lat":40.15036111,"lon":-97.58777778,"rng_nm":50,"alt_fmsl":0,"id":"HJH","desc":"HEBRON NDB"},
{"type":"VOR","hdg_t":336.1,"dist_nm":70.7,"freq":116.1,"lat":40.92380556,"lon":-96.74200000,"rng_nm":130,"alt_fmsl":1370,"id":"LNK","desc":"LINCOLN VORTAC"},
{"type":"NDB","hdg_t":268.8,"dist_nm":71.4,"freq":414,"lat":39.81327778,"lon":-97.65786111,"rng_nm":50,"alt_fmsl":0,"id":"RPB","desc":"REPUBLICAN NDB"},
{"type":"NDB","hdg_t":141.1,"dist_nm":71.5,"freq":338,"lat":38.91363889,"lon":-95.15375000,"rng_nm":50,"alt_fmsl":0,"id":"JZ","desc":"NEWBN NDB"},
{"type":"NDB","hdg_t":112,"dist_nm":72,"freq":275,"lat":39.38691667,"lon":-94.67697222,"rng_nm":50,"alt_fmsl":0,"id":"DY","desc":"LEXEY NDB"},
{"type":"VOR","hdg_t":117.3,"dist_nm":72.1,"freq":113.25,"lat":39.28527778,"lon":-94.73705556,"rng_nm":130,"alt_fmsl":1017,"id":"MCI","desc":"KANSAS CITY VORTAC"},
{"type":"NDB","hdg_t":43.1,"dist_nm":72.4,"freq":353,"lat":40.72366667,"lon":-95.02797222,"rng_nm":50,"alt_fmsl":0,"id":"ICL","desc":"CLARINDA NDB"},
{"type":"NDB","hdg_t":256.6,"dist_nm":73.3,"freq":335,"lat":39.55333333,"lon":-97.65113889,"rng_nm":50,"alt_fmsl":0,"id":"CNK","desc":"CONCORDIA NDB"},
{"type":"NDB","hdg_t":120.2,"dist_nm":73.5,"freq":359,"lat":39.22088889,"lon":-94.74991667,"rng_nm":50,"alt_fmsl":0,"id":"DO","desc":"DOTTE NDB"},
{"type":"NDB","hdg_t":323.3,"dist_nm":76.1,"freq":269,"lat":40.86127778,"lon":-97.11194444,"rng_nm":50,"alt_fmsl":0,"id":"SWT","desc":"SEWARD NDB"},
{"type":"NDB","hdg_t":205.4,"dist_nm":76.4,"freq":407,"lat":38.69277778,"lon":-96.81111111,"rng_nm":50,"alt_fmsl":0,"id":"HRU","desc":"HERINGTON NDB"},
{"type":"SDME","hdg_t":7.2,"dist_nm":76.7,"freq":111.7,"lat":41.11722800,"lon":-95.90000300,"rng_nm":40,"alt_fmsl":1090,"id":"OFF","desc":"OFFUTT TACAN"},
{"type":"NDB","hdg_t":29,"dist_nm":80.2,"freq":230,"lat":41.01525000,"lon":-95.25575000,"rng_nm":50,"alt_fmsl":0,"id":"RDK","desc":"RED OAK NDB"},
{"type":"NDB","hdg_t":304.1,"dist_nm":80.3,"freq":392,"lat":40.58994444,"lon":-97.56805556,"rng_nm":50,"alt_fmsl":0,"id":"FMZ","desc":"BEKLOF NDB"},
{"type":"NDB","hdg_t":359.9,"dist_nm":80.8,"freq":371,"lat":41.19486111,"lon":-96.11405556,"rng_nm":50,"alt_fmsl":0,"id":"MLE","desc":"MILLARD NDB"},
{"type":"VOR","hdg_t":12.1,"dist_nm":80.9,"freq":116.3,"lat":41.16727778,"lon":-95.73672222,"rng_nm":130,"alt_fmsl":1300,"id":"OVR","desc":"OMAHA VORTAC"},
{"type":"NDB","hdg_t":117,"dist_nm":81,"freq":344,"lat":39.22080556,"lon":-94.56433333,"rng_nm":50,"alt_fmsl":0,"id":"MK","desc":"KENZY NDB"},
{"type":"VOR","hdg_t":121.2,"dist_nm":82.8,"freq":111.4,"lat":39.12038889,"lon":-94.59658333,"rng_nm":25,"alt_fmsl":740,"id":"RIS","desc":"RIVERSIDE VOR-DME"},
{"type":"NDB","hdg_t":9.2,"dist_nm":83.3,"freq":426,"lat":41.21958333,"lon":-95.81791667,"rng_nm":50,"alt_fmsl":0,"id":"EN","desc":"RIKKY NDB"},
{"type":"NDB","hdg_t":130,"dist_nm":84.1,"freq":526,"lat":38.93488845,"lon":-94.73732723,"rng_nm":25,"alt_fmsl":0,"id":"OJ","desc":"Furor LOM"},
{"type":"NDB","hdg_t":94.1,"dist_nm":85.4,"freq":394,"lat":39.72941667,"lon":-94.27230556,"rng_nm":50,"alt_fmsl":0,"id":"EZZ","desc":"CAMERON NDB"},
{"type":"NDB","hdg_t":345.2,"dist_nm":86.3,"freq":400,"lat":41.23916667,"lon":-96.59836111,"rng_nm":50,"alt_fmsl":0,"id":"AHQ","desc":"WAHOO NDB"},
{"type":"NDB","hdg_t":139,"dist_nm":87.4,"freq":368,"lat":38.73866667,"lon":-94.89191667,"rng_nm":50,"alt_fmsl":0,"id":"IX","desc":"DUSTT NDB"},
{"type":"VOR","hdg_t":132.8,"dist_nm":87.9,"freq":113,"lat":38.84063889,"lon":-94.73675000,"rng_nm":25,"alt_fmsl":1034,"id":"OJC","desc":"JOHNSON COUNTY VOR-DME"},
{"type":"VOR","hdg_t":232.2,"dist_nm":89.3,"freq":117.1,"lat":38.92513889,"lon":-97.62136111,"rng_nm":130,"alt_fmsl":1310,"id":"SLN","desc":"SALINA VORTAC"},
{"type":"NDB","hdg_t":4.4,"dist_nm":91.3,"freq":320,"lat":41.36677778,"lon":-95.95630556,"rng_nm":50,"alt_fmsl":0,"id":"OM","desc":"GERFI NDB"},
{"type":"NDB","hdg_t":135.2,"dist_nm":91.6,"freq":420,"lat":38.75363890,"lon":-94.73785930,"rng_nm":25,"alt_fmsl":0,"id":"PK","desc":"Herbb LOM"},
{"type":"NDB","hdg_t":41.6,"dist_nm":92.7,"freq":278,"lat":40.99638889,"lon":-94.75691667,"rng_nm":50,"alt_fmsl":0,"id":"CRZ","desc":"CORNING NDB"},
{"type":"VOR","hdg_t":180.7,"dist_nm":93.2,"freq":112.8,"lat":38.29113889,"lon":-96.13811111,"rng_nm":40,"alt_fmsl":1233,"id":"EMP","desc":"EMPORIA VORTAC"},
{"type":"NDB","hdg_t":312.8,"dist_nm":93.4,"freq":257,"lat":40.89755556,"lon":-97.61700000,"rng_nm":50,"alt_fmsl":0,"id":"JYR","desc":"YORK NDB"},
{"type":"NDB","hdg_t":6,"dist_nm":93.7,"freq":513,"lat":41.40175000,"lon":-95.89391667,"rng_nm":50,"alt_fmsl":0,"id":"PP","desc":"FLICK NDB"},
{"type":"NDB","hdg_t":168.7,"dist_nm":94.5,"freq":245,"lat":38.29975000,"lon":-95.72147222,"rng_nm":50,"alt_fmsl":0,"id":"UKL","desc":"BOYD NDB"},
{"type":"NDB","hdg_t":122.7,"dist_nm":96.8,"freq":263,"lat":38.96068600,"lon":-94.37173900,"rng_nm":25,"alt_fmsl":1041,"id":"LXT","desc":"LESUMIT NDB"},
{"type":"VOR","hdg_t":269.2,"dist_nm":99.2,"freq":109.8,"lat":39.80638889,"lon":-98.26002778,"rng_nm":40,"alt_fmsl":1880,"id":"TKO","desc":"MANKATO VORTAC"},
{"type":"NDB","hdg_t":226.1,"dist_nm":99.9,"freq":344,"lat":38.68152778,"lon":-97.64505556,"rng_nm":50,"alt_fmsl":0,"id":"SL","desc":"FLORY NDB"}
]
}
