{"success":true,"source":"xp2csv.pl","last_updated":"2013/11/08 14:53:21 UTC"
,"icao":"62NM","name":"Seven Rivers","lat":32.598725,"lon":-104.42635,"rwys":2,"ils":0,"index":1236642,"path":"w110n30/w105n32"
,"runways":[
{"len_m":980,"wid_m":9.14,"hdg":108,"surf":"Asphalt","rwy1":"10","lat1":32.60013198,"lon1":-104.43130167,"rwy2":"28","lat2":32.59731802,"lon2":-104.42139833},
{"len_m":671,"wid_m":15.24,"hdg":48,"surf":"Turf/grass","rwy1":"04","lat1":32.59673114,"lon1":-104.42903809,"rwy2":"22","lat2":32.60071886,"lon2":-104.42366191}
]
,"navaids":[
{"type":"NDB","hdg_t":353.5,"dist_nm":15.3,"freq":414,"lat":32.85269444,"lon":-104.46050000,"rng_nm":50,"alt_fmsl":0,"id":"ATS","desc":"ARTESIA NDB"},
{"type":"NDB","hdg_t":167.3,"dist_nm":20.3,"freq":402,"lat":32.26675000,"lon":-104.33852778,"rng_nm":50,"alt_fmsl":0,"id":"CV","desc":"CARLZ NDB"},
{"type":"VOR","hdg_t":153.5,"dist_nm":22.8,"freq":116.3,"lat":32.25661111,"lon":-104.22605556,"rng_nm":40,"alt_fmsl":3250,"id":"CNM","desc":"CARLSBAD VORTAC"},
{"type":"VOR","hdg_t":264.8,"dist_nm":44.7,"freq":110.4,"lat":32.52919444,"lon":-105.30525000,"rng_nm":40,"alt_fmsl":6580,"id":"PIO","desc":"PINON VOR-DME"},
{"type":"VOR","hdg_t":347.5,"dist_nm":45.3,"freq":116.1,"lat":33.33747222,"lon":-104.62125000,"rng_nm":130,"alt_fmsl":3772,"id":"CME","desc":"CHISUM VORTAC"},
{"type":"NDB","hdg_t":359,"dist_nm":45.9,"freq":305,"lat":33.36536111,"lon":-104.44213889,"rng_nm":50,"alt_fmsl":0,"id":"RO","desc":"TOPAN NDB"},
{"type":"VOR","hdg_t":87.3,"dist_nm":58.6,"freq":111,"lat":32.63825000,"lon":-103.26930556,"rng_nm":40,"alt_fmsl":3664,"id":"HOB","desc":"HOBBS VORTAC"},
{"type":"VOR","hdg_t":213.6,"dist_nm":61,"freq":113,"lat":31.74811111,"lon":-105.08680556,"rng_nm":40,"alt_fmsl":3730,"id":"SFL","desc":"SALT FLAT VORTAC"},
{"type":"NDB","hdg_t":317.5,"dist_nm":72.6,"freq":278,"lat":33.48988889,"lon":-105.40433333,"rng_nm":50,"alt_fmsl":0,"id":"CEP","desc":"CAPITAN NDB"},
{"type":"VOR","hdg_t":125.4,"dist_nm":74.1,"freq":112.1,"lat":31.87475000,"lon":-103.24377778,"rng_nm":130,"alt_fmsl":2860,"id":"INK","desc":"WINK VORTAC"},
{"type":"VOR","hdg_t":218.3,"dist_nm":78.4,"freq":115,"lat":31.56869444,"lon":-105.37630556,"rng_nm":40,"alt_fmsl":4390,"id":"HUP","desc":"HUDSPETH VORTAC"},
{"type":"VOR","hdg_t":147,"dist_nm":80.3,"freq":111.8,"lat":31.46930556,"lon":-103.57475000,"rng_nm":40,"alt_fmsl":2650,"id":"PEQ","desc":"PECOS VOR-DME"},
{"type":"VOR","hdg_t":279.8,"dist_nm":81.4,"freq":109.6,"lat":32.82125000,"lon":-106.01316667,"rng_nm":40,"alt_fmsl":4100,"id":"BWS","desc":"BOLES VOR-DME"},
{"type":"SDME","hdg_t":280.9,"dist_nm":86.6,"freq":114.5,"lat":32.86210600,"lon":-106.10911900,"rng_nm":40,"alt_fmsl":4120,"id":"HMN","desc":"HOLLOMAN TACAN"},
{"type":"NDB","hdg_t":86.7,"dist_nm":90.3,"freq":344,"lat":32.67169444,"lon":-102.64572222,"rng_nm":50,"alt_fmsl":0,"id":"GNC","desc":"GAINES CO NDB"},
{"type":"NDB","hdg_t":191.4,"dist_nm":93.8,"freq":233,"lat":31.06169444,"lon":-104.78672222,"rng_nm":50,"alt_fmsl":0,"id":"VHN","desc":"VAN HORN NDB"}
]
}
