{"success":true,"source":"xp2csv.pl","last_updated":"2013/11/08 14:53:21 UTC"
,"icao":"63KY","name":"W.r. Belcher","lat":38.05674722,"lon":-83.70908195,"rwys":1,"ils":0,"index":1581057,"path":"w090n30/w084n38"
,"runways":[
{"len_m":608,"wid_m":15.24,"hdg":175,"surf":"Turf/grass","rwy1":"18","lat1":38.05948352,"lon1":-83.70932495,"rwy2":"36","lat2":38.05401092,"lon2":-83.70883895}
]
,"navaids":[
{"type":"NDB","hdg_t":270.9,"dist_nm":12.9,"freq":210,"lat":38.06000000,"lon":-83.98152778,"rng_nm":50,"alt_fmsl":0,"id":"IOB","desc":"MOUNT STERLING NDB"},
{"type":"NDB","hdg_t":220.5,"dist_nm":23.5,"freq":393,"lat":37.75800000,"lon":-84.03022222,"rng_nm":50,"alt_fmsl":0,"id":"XYC","desc":"SECO NDB"},
{"type":"NDB","hdg_t":356.4,"dist_nm":28.9,"freq":400,"lat":38.53813200,"lon":-83.74686400,"rng_nm":25,"alt_fmsl":921,"id":"FGX","desc":"FLEMINGSBURG NDB"},
{"type":"NDB","hdg_t":5.3,"dist_nm":31.1,"freq":400,"lat":38.57358333,"lon":-83.64702778,"rng_nm":50,"alt_fmsl":0,"id":"XW","desc":"FLMNG NDB"},
{"type":"VOR","hdg_t":261.7,"dist_nm":36.6,"freq":112.6,"lat":37.96636111,"lon":-84.47250000,"rng_nm":40,"alt_fmsl":1039,"id":"HYK","desc":"LEXINGTON VORTAC"},
{"type":"NDB","hdg_t":276.3,"dist_nm":38,"freq":340,"lat":38.12452778,"lon":-84.50697222,"rng_nm":50,"alt_fmsl":0,"id":"GN","desc":"BRIDL NDB"},
{"type":"VOR","hdg_t":80.6,"dist_nm":38.3,"freq":110.4,"lat":38.15836111,"lon":-82.91005556,"rng_nm":40,"alt_fmsl":1070,"id":"ECB","desc":"NEWCOMBE VORTAC"},
{"type":"VOR","hdg_t":151.8,"dist_nm":45.1,"freq":111.2,"lat":37.39125000,"lon":-83.26300000,"rng_nm":40,"alt_fmsl":1243,"id":"AZQ","desc":"HAZARD VOR-DME"},
{"type":"NDB","hdg_t":264.9,"dist_nm":45.2,"freq":242,"lat":37.98686111,"lon":-84.66016667,"rng_nm":50,"alt_fmsl":0,"id":"LE","desc":"BLAYD NDB"},
{"type":"VOR","hdg_t":321.5,"dist_nm":45.4,"freq":117,"lat":38.64950000,"lon":-84.31063889,"rng_nm":130,"alt_fmsl":810,"id":"FLM","desc":"FALMOUTH VOR-DME"},
{"type":"NDB","hdg_t":8,"dist_nm":48.3,"freq":359,"lat":38.85541667,"lon":-83.56377778,"rng_nm":50,"alt_fmsl":0,"id":"AMT","desc":"WEST UNION NDB"},
{"type":"VOR","hdg_t":44.1,"dist_nm":49.2,"freq":112.8,"lat":38.64413889,"lon":-82.97833333,"rng_nm":40,"alt_fmsl":1040,"id":"YRK","desc":"YORK VORTAC"},
{"type":"NDB","hdg_t":350.5,"dist_nm":50.1,"freq":219,"lat":38.88201700,"lon":-83.88518100,"rng_nm":25,"alt_fmsl":954,"id":"GEO","desc":"GEORGETOWN NDB"},
{"type":"NDB","hdg_t":280.5,"dist_nm":53.4,"freq":521,"lat":38.21473600,"lon":-84.81980600,"rng_nm":50,"alt_fmsl":769,"id":"FEU","desc":"ARNOLD NDB"},
{"type":"NDB","hdg_t":19,"dist_nm":54.8,"freq":329,"lat":38.92119444,"lon":-83.32686111,"rng_nm":50,"alt_fmsl":0,"id":"PZO","desc":"PEEBLES NDB"},
{"type":"VOR","hdg_t":277.9,"dist_nm":57.2,"freq":109.4,"lat":38.18241667,"lon":-84.90861111,"rng_nm":25,"alt_fmsl":0,"id":"FFT","desc":"FRANKFORT VOR"},
{"type":"NDB","hdg_t":240.4,"dist_nm":57.8,"freq":311,"lat":37.57641667,"lon":-84.76402778,"rng_nm":50,"alt_fmsl":0,"id":"DVK","desc":"GOODALL NDB"},
{"type":"VOR","hdg_t":197.4,"dist_nm":64.2,"freq":116.1,"lat":37.03313889,"lon":-84.11008333,"rng_nm":40,"alt_fmsl":1245,"id":"LOZ","desc":"LONDON VORTAC"},
{"type":"NDB","hdg_t":338.8,"dist_nm":65.6,"freq":245,"lat":39.07669444,"lon":-84.21541667,"rng_nm":50,"alt_fmsl":0,"id":"PWF","desc":"SPORTYS NDB"},
{"type":"NDB","hdg_t":6.5,"dist_nm":68,"freq":278,"lat":39.18472222,"lon":-83.54297222,"rng_nm":50,"alt_fmsl":0,"id":"HOC","desc":"HILLSBORO NDB"},
{"type":"NDB","hdg_t":335.9,"dist_nm":72.4,"freq":335,"lat":39.15966667,"lon":-84.34127778,"rng_nm":50,"alt_fmsl":0,"id":"LUK","desc":"CINCINNATI NDB"},
{"type":"VOR","hdg_t":321.1,"dist_nm":74.1,"freq":117.3,"lat":39.01597222,"lon":-84.70333333,"rng_nm":40,"alt_fmsl":879,"id":"CVG","desc":"CINCINNATI VORTAC"},
{"type":"NDB","hdg_t":28.5,"dist_nm":75.9,"freq":385,"lat":39.16691667,"lon":-82.93219444,"rng_nm":50,"alt_fmsl":0,"id":"EOP","desc":"WAVERLY NDB"},
{"type":"NDB","hdg_t":336.7,"dist_nm":76.2,"freq":379,"lat":39.22275000,"lon":-84.35536111,"rng_nm":50,"alt_fmsl":0,"id":"MDE","desc":"MADEIRA NDB"},
{"type":"NDB","hdg_t":251.2,"dist_nm":76.8,"freq":429,"lat":37.63463889,"lon":-85.23655556,"rng_nm":50,"alt_fmsl":0,"id":"IKY","desc":"SPRINGFIELD NDB"},
{"type":"NDB","hdg_t":320.1,"dist_nm":77.5,"freq":321,"lat":39.04574700,"lon":-84.77296400,"rng_nm":25,"alt_fmsl":0,"id":"UR","desc":"BURLN NDB"},
{"type":"NDB","hdg_t":354.2,"dist_nm":78.1,"freq":299,"lat":39.35344444,"lon":-83.87577778,"rng_nm":50,"alt_fmsl":0,"id":"HW","desc":"CUBLA NDB"},
{"type":"NDB","hdg_t":336,"dist_nm":78.2,"freq":388,"lat":39.24880556,"lon":-84.38961111,"rng_nm":50,"alt_fmsl":0,"id":"ISZ","desc":"CINCINNATI-BLUE A NDB"},
{"type":"NDB","hdg_t":216.4,"dist_nm":78.6,"freq":388,"lat":36.99622222,"lon":-84.68130556,"rng_nm":50,"alt_fmsl":0,"id":"CDX","desc":"CUMBERLAND RIVER NDB"},
{"type":"VOR","hdg_t":357,"dist_nm":82.4,"freq":112.9,"lat":39.42969444,"lon":-83.80125000,"rng_nm":25,"alt_fmsl":1050,"id":"MXQ","desc":"MIDWEST VOR-DME"},
{"type":"NDB","hdg_t":242.2,"dist_nm":82.9,"freq":272,"lat":37.40188889,"lon":-85.24369444,"rng_nm":50,"alt_fmsl":0,"id":"TYC","desc":"TAYLOR CO NDB"},
{"type":"NDB","hdg_t":359.1,"dist_nm":86.1,"freq":407,"lat":39.49311111,"lon":-83.73816667,"rng_nm":50,"alt_fmsl":0,"id":"IL","desc":"AIRBO NDB"},
{"type":"NDB","hdg_t":159.2,"dist_nm":86.3,"freq":252,"lat":36.70703300,"lon":-83.07405800,"rng_nm":25,"alt_fmsl":1670,"id":"LQV","desc":"LONG HOLLOW NDB"},
{"type":"NDB","hdg_t":56.9,"dist_nm":86.5,"freq":420,"lat":38.83341667,"lon":-82.16152778,"rng_nm":50,"alt_fmsl":0,"id":"GAS","desc":"GALLIPOLIS NDB"},
{"type":"NDB","hdg_t":100.3,"dist_nm":87,"freq":293,"lat":37.78205556,"lon":-81.90872222,"rng_nm":50,"alt_fmsl":0,"id":"GTC","desc":"GUYANDOT NDB"},
{"type":"VOR","hdg_t":272.3,"dist_nm":88.5,"freq":114.8,"lat":38.10347222,"lon":-85.57744444,"rng_nm":130,"alt_fmsl":720,"id":"IIU","desc":"LOUISVILLE VORTAC"},
{"type":"NDB","hdg_t":333,"dist_nm":88.6,"freq":260,"lat":39.37288889,"lon":-84.57211111,"rng_nm":50,"alt_fmsl":0,"id":"HAO","desc":"HAMILTON NDB"},
{"type":"NDB","hdg_t":20.8,"dist_nm":88.7,"freq":236,"lat":39.43819444,"lon":-83.02877778,"rng_nm":50,"alt_fmsl":0,"id":"RZT","desc":"ROSS CO NDB"},
{"type":"VOR","hdg_t":61.7,"dist_nm":89.7,"freq":115.9,"lat":38.75411111,"lon":-82.02616667,"rng_nm":130,"alt_fmsl":880,"id":"HNN","desc":"HENDERSON VORTAC"},
{"type":"NDB","hdg_t":217.5,"dist_nm":90.3,"freq":290,"lat":36.85621100,"lon":-84.85294700,"rng_nm":25,"alt_fmsl":950,"id":"EKQ","desc":"ELK SPRING NDB"},
{"type":"NDB","hdg_t":273.9,"dist_nm":91.2,"freq":414,"lat":38.14483333,"lon":-85.63330556,"rng_nm":50,"alt_fmsl":0,"id":"LK","desc":"LAANG NDB"},
{"type":"NDB","hdg_t":297.6,"dist_nm":92.7,"freq":404,"lat":38.76090800,"lon":-85.46051100,"rng_nm":25,"alt_fmsl":874,"id":"IMS","desc":"MADISON NDB"},
{"type":"NDB","hdg_t":338.3,"dist_nm":93.1,"freq":239,"lat":39.49877778,"lon":-84.44752778,"rng_nm":50,"alt_fmsl":0,"id":"HKF","desc":"HOOK FLD NDB"},
{"type":"VOR","hdg_t":277,"dist_nm":93.1,"freq":112.2,"lat":38.23022222,"lon":-85.66475000,"rng_nm":25,"alt_fmsl":540,"id":"BQM","desc":"BOWMAN VOR-DME"},
{"type":"VOR","hdg_t":78.5,"dist_nm":93.3,"freq":117.4,"lat":38.34966667,"lon":-81.76991667,"rng_nm":130,"alt_fmsl":1099,"id":"HVQ","desc":"CHARLESTON VORTAC"},
{"type":"NDB","hdg_t":9,"dist_nm":93.7,"freq":414,"lat":39.60086111,"lon":-83.39161111,"rng_nm":50,"alt_fmsl":0,"id":"CSS","desc":"COURT HOUSE NDB"},
{"type":"VOR","hdg_t":21,"dist_nm":94.5,"freq":112.5,"lat":39.52688889,"lon":-82.97794444,"rng_nm":25,"alt_fmsl":0,"id":"XUB","desc":"YELLOW BUD VOR"},
{"type":"NDB","hdg_t":342.6,"dist_nm":95.6,"freq":223,"lat":39.57825000,"lon":-84.32347222,"rng_nm":50,"alt_fmsl":0,"id":"MW","desc":"ONIDA NDB"},
{"type":"VOR","hdg_t":289.9,"dist_nm":96.4,"freq":112.4,"lat":38.58883333,"lon":-85.63600000,"rng_nm":40,"alt_fmsl":710,"id":"ABB","desc":"NABB VORTAC"},
{"type":"VOR","hdg_t":255.3,"dist_nm":96.8,"freq":110.8,"lat":37.63180556,"lon":-85.67588889,"rng_nm":40,"alt_fmsl":960,"id":"EWO","desc":"NEW HOPE VOR-DME"},
{"type":"NDB","hdg_t":202.2,"dist_nm":98,"freq":403,"lat":36.53947222,"lon":-84.47600000,"rng_nm":50,"alt_fmsl":0,"id":"BPO","desc":"PINEY GROVE NDB"},
{"type":"NDB","hdg_t":285.2,"dist_nm":99,"freq":331,"lat":38.47397222,"lon":-85.73722222,"rng_nm":50,"alt_fmsl":0,"id":"JV","desc":"CATCH NDB"},
{"type":"NDB","hdg_t":354.1,"dist_nm":99.9,"freq":395,"lat":39.71506100,"lon":-83.92993100,"rng_nm":25,"alt_fmsl":970,"id":"XEN","desc":"XENIA NDB"}
]
}
