{"success":true,"source":"xp2csv.pl","last_updated":"2013/11/08 14:53:21 UTC"
,"icao":"63S","name":"Colville Municipal","lat":48.54156944,"lon":-117.88442473,"rwys":1,"ils":0,"index":1024672,"path":"w120n40/w118n48"
,"runways":[
{"len_m":736,"wid_m":30.48,"hdg":30,"surf":"Asphalt","rwy1":"01","lat1":48.53870460,"lon1":-117.88692296,"rwy2":"19","lat2":48.54443428,"lon2":-117.88192650}
]
,"navaids":[
{"type":"NDB","hdg_t":61.4,"dist_nm":21.3,"freq":379,"lat":48.71019444,"lon":-117.41358333,"rng_nm":50,"alt_fmsl":0,"id":"ION","desc":"IONE NDB"},
{"type":"NDB","hdg_t":323.3,"dist_nm":35.7,"freq":250,"lat":49.01750000,"lon":-118.42361111,"rng_nm":50,"alt_fmsl":0,"id":"2J","desc":"GRAND FORKS NDB"},
{"type":"NDB","hdg_t":151.7,"dist_nm":39,"freq":365,"lat":47.96775000,"lon":-117.42633333,"rng_nm":50,"alt_fmsl":0,"id":"DPY","desc":"DEER PARK NDB"},
{"type":"SDME","hdg_t":11.5,"dist_nm":43.5,"freq":110.1,"lat":49.25222200,"lon":-117.66277800,"rng_nm":25,"alt_fmsl":1695,"id":"XCG","desc":"CASTLEGAR DME"},
{"type":"NDB","hdg_t":12.8,"dist_nm":44,"freq":206,"lat":49.25625000,"lon":-117.63486111,"rng_nm":50,"alt_fmsl":0,"id":"EF","desc":"CHAMPION NDB"},
{"type":"NDB","hdg_t":11.7,"dist_nm":48,"freq":269,"lat":49.32527800,"lon":-117.63500000,"rng_nm":25,"alt_fmsl":0,"id":"YK","desc":"BRILLIANT NDB"},
{"type":"NDB","hdg_t":161.2,"dist_nm":54.7,"freq":388,"lat":47.67700000,"lon":-117.45019444,"rng_nm":50,"alt_fmsl":0,"id":"CRK","desc":"CANYON NDB"},
{"type":"NDB","hdg_t":105.4,"dist_nm":54.9,"freq":264,"lat":48.29063889,"lon":-116.56322222,"rng_nm":50,"alt_fmsl":0,"id":"SZT","desc":"SANDPOE NDB"},
{"type":"NDB","hdg_t":12.5,"dist_nm":55.7,"freq":227,"lat":49.44722222,"lon":-117.57500000,"rng_nm":50,"alt_fmsl":0,"id":"CG","desc":"CASTLEGAR NDB"},
{"type":"SDME","hdg_t":170.8,"dist_nm":56.5,"freq":111.4,"lat":47.61069400,"lon":-117.66230300,"rng_nm":40,"alt_fmsl":2460,"id":"SKA","desc":"FAIRCHILD TACAN"},
{"type":"VOR","hdg_t":169.8,"dist_nm":59.5,"freq":115.5,"lat":47.56494444,"lon":-117.62688889,"rng_nm":130,"alt_fmsl":2756,"id":"GEG","desc":"SPOKANE VORTAC"},
{"type":"NDB","hdg_t":141.9,"dist_nm":60.6,"freq":347,"lat":47.74286111,"lon":-116.96100000,"rng_nm":50,"alt_fmsl":0,"id":"LEN","desc":"POST FALLS NDB"},
{"type":"VOR","hdg_t":136.7,"dist_nm":62.8,"freq":108.8,"lat":47.77369444,"lon":-116.82058333,"rng_nm":25,"alt_fmsl":2320,"id":"COE","desc":"COEUR D'ALENE VOR-DME"},
{"type":"NDB","hdg_t":265.9,"dist_nm":65.3,"freq":219,"lat":48.45338889,"lon":-119.51700000,"rng_nm":50,"alt_fmsl":0,"id":"OMK","desc":"OMAK NDB"},
{"type":"NDB","hdg_t":306.4,"dist_nm":82.1,"freq":356,"lat":49.34250000,"lon":-119.56888889,"rng_nm":50,"alt_fmsl":0,"id":"ON","desc":"OKANAGAN NDB"},
{"type":"SDME","hdg_t":309.4,"dist_nm":87.2,"freq":110.3,"lat":49.45250000,"lon":-119.60361100,"rng_nm":25,"alt_fmsl":1114,"id":"XYF","desc":"PENTICTON DME"},
{"type":"NDB","hdg_t":310.5,"dist_nm":88.4,"freq":290,"lat":49.48772222,"lon":-119.60152778,"rng_nm":50,"alt_fmsl":0,"id":"YYF","desc":"PENTICTON NDB"},
{"type":"NDB","hdg_t":313.7,"dist_nm":92.8,"freq":312,"lat":49.59716667,"lon":-119.60263889,"rng_nm":50,"alt_fmsl":0,"id":"UNT","desc":"NARAMATA (PENTICT NDB"},
{"type":"VOR","hdg_t":48.7,"dist_nm":93.3,"freq":112.1,"lat":49.55427778,"lon":-116.08830556,"rng_nm":130,"alt_fmsl":7558,"id":"YXC","desc":"CRANBROOK VOR-DME"},
{"type":"VOR","hdg_t":222.2,"dist_nm":93.4,"freq":112.6,"lat":47.37791667,"lon":-119.42400000,"rng_nm":130,"alt_fmsl":1250,"id":"EPH","desc":"EPHRATA VORTAC"},
{"type":"NDB","hdg_t":97.5,"dist_nm":96.5,"freq":414,"lat":48.30444444,"lon":-115.49527778,"rng_nm":50,"alt_fmsl":0,"id":"LYI","desc":"LIBBY NDB"},
{"type":"VOR","hdg_t":216.4,"dist_nm":98.6,"freq":115,"lat":47.21086111,"lon":-119.31680556,"rng_nm":130,"alt_fmsl":1194,"id":"MWH","desc":"MOSES LAKE VOR-DME"}
]
}
