{"success":true,"source":"xp2csv.pl","last_updated":"2013/11/08 14:53:21 UTC"
,"icao":"65OH","name":"Wiita Farms","lat":41.07172083,"lon":-81.75124167,"rwys":1,"ils":0,"index":1614016,"path":"w090n40/w082n41"
,"runways":[
{"len_m":764,"wid_m":6.10,"hdg":74,"surf":"Turf/grass","rwy1":"08","lat1":41.07077575,"lon1":-81.75561354,"rwy2":"26","lat2":41.07266591,"lon2":-81.74686980}
]
,"navaids":[
{"type":"NDB","hdg_t":197.5,"dist_nm":12.3,"freq":400,"lat":40.87505600,"lon":-81.83319200,"rng_nm":25,"alt_fmsl":1170,"id":"SLW","desc":"SMITHVILLE NDB"},
{"type":"NDB","hdg_t":90.2,"dist_nm":16.5,"freq":362,"lat":41.06975000,"lon":-81.38747222,"rng_nm":50,"alt_fmsl":0,"id":"AK","desc":"AKRON NDB"},
{"type":"NDB","hdg_t":328.9,"dist_nm":18.6,"freq":344,"lat":41.33862800,"lon":-81.96443300,"rng_nm":50,"alt_fmsl":800,"id":"CL","desc":"HARRI NDB"},
{"type":"NDB","hdg_t":254.2,"dist_nm":23.7,"freq":329,"lat":40.96333333,"lon":-82.25336111,"rng_nm":50,"alt_fmsl":0,"id":"AAU","desc":"ASHLAND NDB"},
{"type":"VOR","hdg_t":143.7,"dist_nm":24.5,"freq":112.4,"lat":40.74069444,"lon":-81.43211111,"rng_nm":40,"alt_fmsl":1221,"id":"BSV","desc":"BRIGGS VOR-DME"},
{"type":"NDB","hdg_t":2.9,"dist_nm":25,"freq":226,"lat":41.48891900,"lon":-81.72283100,"rng_nm":25,"alt_fmsl":617,"id":"EZE","desc":"ENGEL NDB"},
{"type":"VOR","hdg_t":84.8,"dist_nm":25,"freq":114.4,"lat":41.10788889,"lon":-81.20152778,"rng_nm":40,"alt_fmsl":1193,"id":"ACO","desc":"AKRON VOR-DME"},
{"type":"VOR","hdg_t":312.8,"dist_nm":25.3,"freq":113.6,"lat":41.35805556,"lon":-82.16197222,"rng_nm":130,"alt_fmsl":780,"id":"DJB","desc":"DRYER VOR-DME"},
{"type":"NDB","hdg_t":8.2,"dist_nm":27.6,"freq":416,"lat":41.52874700,"lon":-81.66336700,"rng_nm":25,"alt_fmsl":581,"id":"BKL","desc":"BURKE LAKEFRONT NDB"},
{"type":"NDB","hdg_t":14.9,"dist_nm":30.8,"freq":248,"lat":41.56913889,"lon":-81.57375000,"rng_nm":50,"alt_fmsl":0,"id":"BF","desc":"TABEY NDB"},
{"type":"NDB","hdg_t":22.6,"dist_nm":32.6,"freq":521,"lat":41.57411111,"lon":-81.47122222,"rng_nm":50,"alt_fmsl":0,"id":"GF","desc":"HOGAF NDB"},
{"type":"NDB","hdg_t":240.1,"dist_nm":36.4,"freq":372,"lat":40.76633333,"lon":-82.44513889,"rng_nm":50,"alt_fmsl":0,"id":"MF","desc":"MANNS NDB"},
{"type":"VOR","hdg_t":44.6,"dist_nm":37.6,"freq":112.7,"lat":41.51694444,"lon":-81.16319444,"rng_nm":130,"alt_fmsl":1310,"id":"CXR","desc":"CHARDON VOR-DME"},
{"type":"VOR","hdg_t":252.5,"dist_nm":40,"freq":108.8,"lat":40.86861111,"lon":-82.59097222,"rng_nm":40,"alt_fmsl":1210,"id":"MFD","desc":"MANSFIELD VORTAC"},
{"type":"NDB","hdg_t":24.5,"dist_nm":40.2,"freq":263,"lat":41.68241667,"lon":-81.37900000,"rng_nm":50,"alt_fmsl":0,"id":"LQL","desc":"LAKELAND NDB"},
{"type":"VOR","hdg_t":205,"dist_nm":40.5,"freq":116.5,"lat":40.45802778,"lon":-82.12683333,"rng_nm":40,"alt_fmsl":1340,"id":"TVT","desc":"TIVERTON VOR-DME"},
{"type":"NDB","hdg_t":134.6,"dist_nm":43.2,"freq":395,"lat":40.56263300,"lon":-81.07759700,"rng_nm":25,"alt_fmsl":1184,"id":"TSO","desc":"TOLSON NDB"},
{"type":"VOR","hdg_t":298.3,"dist_nm":46.3,"freq":109.2,"lat":41.43447222,"lon":-82.65480556,"rng_nm":40,"alt_fmsl":580,"id":"SKY","desc":"SANDUSKY VOR-DME"},
{"type":"VOR","hdg_t":71.9,"dist_nm":51.1,"freq":109,"lat":41.33102778,"lon":-80.67466667,"rng_nm":40,"alt_fmsl":1160,"id":"YNG","desc":"YOUNGSTOWN VORTAC"},
{"type":"VOR","hdg_t":165.9,"dist_nm":52,"freq":111.8,"lat":40.22922222,"lon":-81.47647222,"rng_nm":40,"alt_fmsl":1180,"id":"CTW","desc":"NEWCOMERSTOWN VOR-DME"},
{"type":"NDB","hdg_t":81.2,"dist_nm":52.9,"freq":338,"lat":41.20052778,"lon":-80.59613889,"rng_nm":50,"alt_fmsl":0,"id":"YN","desc":"FETCH NDB"},
{"type":"NDB","hdg_t":84.5,"dist_nm":55.5,"freq":408,"lat":41.15288889,"lon":-80.53144444,"rng_nm":50,"alt_fmsl":0,"id":"HBD","desc":"HUBBARD NDB"},
{"type":"NDB","hdg_t":298.3,"dist_nm":57.2,"freq":423,"lat":41.51858333,"lon":-82.86872222,"rng_nm":50,"alt_fmsl":0,"id":"PCW","desc":"PORT CLINTON NDB"},
{"type":"NDB","hdg_t":315.9,"dist_nm":59.3,"freq":283,"lat":41.77944444,"lon":-82.67000000,"rng_nm":50,"alt_fmsl":0,"id":"PT","desc":"PELEE ISLAND NDB"},
{"type":"NDB","hdg_t":145.8,"dist_nm":60.3,"freq":239,"lat":40.23672222,"lon":-81.01313889,"rng_nm":50,"alt_fmsl":0,"id":"CFX","desc":"CADIZ NDB"},
{"type":"NDB","hdg_t":92.3,"dist_nm":60.6,"freq":272,"lat":41.02300000,"lon":-80.41583333,"rng_nm":50,"alt_fmsl":0,"id":"UCP","desc":"CASTLE NDB"},
{"type":"VOR","hdg_t":47.3,"dist_nm":61.2,"freq":115.2,"lat":41.76011111,"lon":-80.74811111,"rng_nm":40,"alt_fmsl":900,"id":"JFN","desc":"JEFFERSON VOR-DME"},
{"type":"VOR","hdg_t":245.8,"dist_nm":65.7,"freq":109.8,"lat":40.61658333,"lon":-83.06383333,"rng_nm":25,"alt_fmsl":0,"id":"BUD","desc":"BUCKEYE VOR"},
{"type":"NDB","hdg_t":271.6,"dist_nm":66.4,"freq":269,"lat":41.09466667,"lon":-83.21497222,"rng_nm":50,"alt_fmsl":0,"id":"TII","desc":"TIFFIN NDB"},
{"type":"VOR","hdg_t":214.9,"dist_nm":67.1,"freq":116.7,"lat":40.15105556,"lon":-82.58830556,"rng_nm":130,"alt_fmsl":1350,"id":"APE","desc":"APPLETON VORTAC"},
{"type":"VOR","hdg_t":185.4,"dist_nm":68.1,"freq":111.4,"lat":39.94086111,"lon":-81.89261111,"rng_nm":40,"alt_fmsl":898,"id":"ZZV","desc":"ZANESVILLE VOR-DME"},
{"type":"NDB","hdg_t":186.3,"dist_nm":70.2,"freq":204,"lat":39.90630556,"lon":-81.91927778,"rng_nm":50,"alt_fmsl":0,"id":"HRA","desc":"ZANESVILLE NDB"},
{"type":"NDB","hdg_t":207.6,"dist_nm":70.6,"freq":524,"lat":40.02591667,"lon":-82.46352778,"rng_nm":50,"alt_fmsl":0,"id":"HEH","desc":"NEWARK NDB"},
{"type":"VOR","hdg_t":101.4,"dist_nm":71.5,"freq":115.8,"lat":40.82494444,"lon":-80.21155556,"rng_nm":130,"alt_fmsl":1227,"id":"EWC","desc":"ELLWOOD CITY VORTAC"},
{"type":"VOR","hdg_t":131.6,"dist_nm":72.6,"freq":112.2,"lat":40.25988889,"lon":-80.56861111,"rng_nm":40,"alt_fmsl":1269,"id":"HLG","desc":"WHEELING VOR-DME"},
{"type":"NDB","hdg_t":275.9,"dist_nm":74.9,"freq":379,"lat":41.18933333,"lon":-83.39713889,"rng_nm":50,"alt_fmsl":0,"id":"FZI","desc":"FOSTORIA NDB"},
{"type":"NDB","hdg_t":139.5,"dist_nm":75.4,"freq":212,"lat":40.10963889,"lon":-80.68869444,"rng_nm":50,"alt_fmsl":0,"id":"HL","desc":"DORCH (OM) NDB"},
{"type":"NDB","hdg_t":348.9,"dist_nm":75.8,"freq":236,"lat":42.31222222,"lon":-82.07777778,"rng_nm":50,"alt_fmsl":0,"id":"4L","desc":"CHATHAM-KENT NDB"},
{"type":"VOR","hdg_t":145.6,"dist_nm":76.3,"freq":117.1,"lat":40.01702778,"lon":-80.81725000,"rng_nm":130,"alt_fmsl":1290,"id":"AIR","desc":"BELLAIRE VOR-DME"},
{"type":"NDB","hdg_t":232.7,"dist_nm":77.9,"freq":215,"lat":40.27688889,"lon":-83.10372222,"rng_nm":50,"alt_fmsl":0,"id":"DLZ","desc":"DELAWARE NDB"},
{"type":"VOR","hdg_t":115.7,"dist_nm":79.1,"freq":112,"lat":40.48813889,"lon":-80.19386111,"rng_nm":40,"alt_fmsl":1200,"id":"MMJ","desc":"MONTOUR VORTAC"},
{"type":"NDB","hdg_t":215.5,"dist_nm":79.6,"freq":391,"lat":39.98622222,"lon":-82.75450000,"rng_nm":50,"alt_fmsl":0,"id":"CM","desc":"SUMIE NDB"},
{"type":"VOR","hdg_t":325.9,"dist_nm":85.6,"freq":113.8,"lat":42.24972222,"lon":-82.82894444,"rng_nm":40,"alt_fmsl":625,"id":"YQG","desc":"WINDSOR VOR-DME"},
{"type":"NDB","hdg_t":222.9,"dist_nm":86.4,"freq":272,"lat":40.01013889,"lon":-83.02897222,"rng_nm":50,"alt_fmsl":0,"id":"CHC","desc":"GRENS NDB"},
{"type":"NDB","hdg_t":222.9,"dist_nm":86.4,"freq":272,"lat":40.01013889,"lon":-83.02897222,"rng_nm":50,"alt_fmsl":0,"id":"CB","desc":"GRENS NDB"},
{"type":"VOR","hdg_t":48.7,"dist_nm":86.7,"freq":109.4,"lat":42.01741667,"lon":-80.29269444,"rng_nm":40,"alt_fmsl":800,"id":"ERI","desc":"ERIE VORTAC"},
{"type":"NDB","hdg_t":215.1,"dist_nm":86.9,"freq":376,"lat":39.88105556,"lon":-82.83608333,"rng_nm":50,"alt_fmsl":0,"id":"LC","desc":"PICKL NDB"},
{"type":"VOR","hdg_t":268.3,"dist_nm":86.9,"freq":114.9,"lat":41.01488889,"lon":-83.66433333,"rng_nm":25,"alt_fmsl":0,"id":"MAH","desc":"MARATHON VOR"},
{"type":"NDB","hdg_t":204.6,"dist_nm":87,"freq":338,"lat":39.74888889,"lon":-82.53530556,"rng_nm":50,"alt_fmsl":0,"id":"LH","desc":"CASER NDB"},
{"type":"NDB","hdg_t":268.6,"dist_nm":87.1,"freq":334,"lat":41.02111111,"lon":-83.66911111,"rng_nm":50,"alt_fmsl":0,"id":"BNR","desc":"BENTON RIDGE NDB"},
{"type":"NDB","hdg_t":314.8,"dist_nm":88.2,"freq":419,"lat":42.10111111,"lon":-83.15297222,"rng_nm":50,"alt_fmsl":0,"id":"RYS","desc":"GROSSE ILE NDB"},
{"type":"VOR","hdg_t":285.5,"dist_nm":88.3,"freq":113.1,"lat":41.45147222,"lon":-83.63869444,"rng_nm":40,"alt_fmsl":664,"id":"VWV","desc":"WATERVILLE VOR-DME"},
{"type":"VOR","hdg_t":74.9,"dist_nm":88.5,"freq":109.6,"lat":41.43861111,"lon":-79.85677778,"rng_nm":40,"alt_fmsl":0,"id":"FKL","desc":"FRANKLIN VOR"},
{"type":"NDB","hdg_t":48.7,"dist_nm":88.8,"freq":349,"lat":42.03863889,"lon":-80.25536111,"rng_nm":50,"alt_fmsl":0,"id":"ER","desc":"ESMER NDB"},
{"type":"NDB","hdg_t":235.7,"dist_nm":88.8,"freq":403,"lat":40.22672800,"lon":-83.34961400,"rng_nm":25,"alt_fmsl":997,"id":"MRT","desc":"MARYSVILLE NDB"},
{"type":"NDB","hdg_t":228.3,"dist_nm":89.2,"freq":515,"lat":40.07363889,"lon":-83.19805556,"rng_nm":50,"alt_fmsl":0,"id":"OS","desc":"FULER NDB"},
{"type":"NDB","hdg_t":326.3,"dist_nm":89.7,"freq":353,"lat":42.31269444,"lon":-82.86852778,"rng_nm":50,"alt_fmsl":0,"id":"QG","desc":"WINDSOR NDB"},
{"type":"NDB","hdg_t":320.7,"dist_nm":91.3,"freq":398,"lat":42.24388900,"lon":-83.04750000,"rng_nm":25,"alt_fmsl":0,"id":"ZQG","desc":"LAUREL NDB"},
{"type":"VOR","hdg_t":266.2,"dist_nm":91.3,"freq":108.2,"lat":40.95533333,"lon":-83.75602778,"rng_nm":40,"alt_fmsl":820,"id":"FBC","desc":"FLAG CITY VORTAC"},
{"type":"VOR","hdg_t":120.7,"dist_nm":91.4,"freq":110,"lat":40.27866667,"lon":-80.04086111,"rng_nm":40,"alt_fmsl":1289,"id":"AGC","desc":"ALLEGHENY VOR-DME"},
{"type":"NDB","hdg_t":325.3,"dist_nm":94.1,"freq":230,"lat":42.35625000,"lon":-82.95427778,"rng_nm":50,"alt_fmsl":0,"id":"VQ","desc":"CARGL NDB"},
{"type":"NDB","hdg_t":247.8,"dist_nm":94.7,"freq":326,"lat":40.45894444,"lon":-83.66800000,"rng_nm":50,"alt_fmsl":0,"id":"RUV","desc":"RUSHSYLVANIA NDB"},
{"type":"NDB","hdg_t":316.9,"dist_nm":94.9,"freq":223,"lat":42.22000000,"lon":-83.20330556,"rng_nm":50,"alt_fmsl":0,"id":"DM","desc":"SPENC NDB"},
{"type":"VOR","hdg_t":307.8,"dist_nm":96.6,"freq":115.7,"lat":42.04802778,"lon":-83.45758333,"rng_nm":130,"alt_fmsl":629,"id":"CRL","desc":"CARLETON VORTAC"},
{"type":"NDB","hdg_t":49.1,"dist_nm":97.1,"freq":372,"lat":42.11919444,"lon":-80.10458333,"rng_nm":50,"alt_fmsl":0,"id":"CQD","desc":"CASCADE NDB"},
{"type":"SDME","hdg_t":289.3,"dist_nm":97.7,"freq":112.5,"lat":41.59370300,"lon":-83.79936400,"rng_nm":25,"alt_fmsl":671,"id":"TOL","desc":"TOLEDO TACAN"},
{"type":"NDB","hdg_t":310.2,"dist_nm":98.3,"freq":388,"lat":42.12011111,"lon":-83.43172222,"rng_nm":50,"alt_fmsl":0,"id":"DT","desc":"REVUP NDB"},
{"type":"NDB","hdg_t":216.5,"dist_nm":98.6,"freq":253,"lat":39.74294444,"lon":-83.02033333,"rng_nm":50,"alt_fmsl":0,"id":"DD","desc":"COBBS NDB"},
{"type":"VOR","hdg_t":169.8,"dist_nm":99.2,"freq":108.6,"lat":39.44116667,"lon":-81.37475000,"rng_nm":40,"alt_fmsl":1030,"id":"JPU","desc":"PARKERSBURG VORTAC"},
{"type":"NDB","hdg_t":114.8,"dist_nm":99.6,"freq":287,"lat":40.35530556,"lon":-79.78100000,"rng_nm":50,"alt_fmsl":0,"id":"MKP","desc":"MC KEESPORT NDB"},
{"type":"VOR","hdg_t":313.8,"dist_nm":99.8,"freq":113.4,"lat":42.21313889,"lon":-83.36666667,"rng_nm":130,"alt_fmsl":638,"id":"DXO","desc":"DETROIT VOR-DME"}
]
}
