{"success":true,"source":"xp2csv.pl","last_updated":"2013/11/08 14:53:21 UTC"
,"icao":"66F","name":"Gesin Ranches","lat":32.40012138,"lon":-100.36704778,"rwys":1,"ils":0,"index":1302170,"path":"w110n30/w101n32"
,"runways":[
{"len_m":791,"wid_m":53.34,"hdg":167,"surf":"Turf/grass","rwy1":"16","lat1":32.40360933,"lon1":-100.36792586,"rwy2":"34","lat2":32.39663343,"lon2":-100.36616970}
]
,"navaids":[
{"type":"NDB","hdg_t":306.3,"dist_nm":6.2,"freq":275,"lat":32.46163889,"lon":-100.46558333,"rng_nm":50,"alt_fmsl":0,"id":"SWW","desc":"SWEETWATER NDB"},
{"type":"VOR","hdg_t":79,"dist_nm":26,"freq":113.7,"lat":32.48133333,"lon":-99.86344444,"rng_nm":130,"alt_fmsl":1810,"id":"ABI","desc":"ABILENE VORTAC"},
{"type":"VOR","hdg_t":109.2,"dist_nm":29.6,"freq":111.6,"lat":32.23575000,"lon":-99.81677778,"rng_nm":40,"alt_fmsl":2018,"id":"TQA","desc":"TUSCOLA VOR-DME"},
{"type":"NDB","hdg_t":301.7,"dist_nm":34.4,"freq":359,"lat":32.70141667,"lon":-100.94613889,"rng_nm":50,"alt_fmsl":0,"id":"SDR","desc":"SNYDER NDB"},
{"type":"NDB","hdg_t":99.5,"dist_nm":35.7,"freq":353,"lat":32.29888889,"lon":-99.67419444,"rng_nm":50,"alt_fmsl":0,"id":"AB","desc":"TOMHI NDB"},
{"type":"NDB","hdg_t":154.9,"dist_nm":47.5,"freq":239,"lat":31.68047222,"lon":-99.97491667,"rng_nm":50,"alt_fmsl":0,"id":"UBC","desc":"BALLINGER NDB"},
{"type":"VOR","hdg_t":269.4,"dist_nm":56.7,"freq":114.3,"lat":32.38558333,"lon":-101.48369444,"rng_nm":40,"alt_fmsl":2670,"id":"BGS","desc":"BIG SPRING VORTAC"},
{"type":"NDB","hdg_t":34.4,"dist_nm":57.5,"freq":407,"lat":33.19105556,"lon":-99.72000000,"rng_nm":50,"alt_fmsl":0,"id":"AKL","desc":"HASKELL NDB"},
{"type":"NDB","hdg_t":124,"dist_nm":59.3,"freq":385,"lat":31.84125600,"lon":-99.40617500,"rng_nm":25,"alt_fmsl":88,"id":"COM","desc":"COLEMAN NDB"},
{"type":"VOR","hdg_t":184.2,"dist_nm":61.5,"freq":115.1,"lat":31.37494444,"lon":-100.45486111,"rng_nm":130,"alt_fmsl":1890,"id":"SJT","desc":"SAN ANGELO VORTAC"},
{"type":"NDB","hdg_t":189.1,"dist_nm":67.9,"freq":356,"lat":31.27977778,"lon":-100.57613889,"rng_nm":50,"alt_fmsl":0,"id":"SJ","desc":"WOOLE NDB"},
{"type":"NDB","hdg_t":74,"dist_nm":77.6,"freq":245,"lat":32.74734400,"lon":-98.89117800,"rng_nm":25,"alt_fmsl":1226,"id":"BKD","desc":"BRECKENRIDGE NDB"},
{"type":"VOR","hdg_t":112.5,"dist_nm":77.9,"freq":108.6,"lat":31.89258333,"lon":-98.95747222,"rng_nm":40,"alt_fmsl":1574,"id":"BWD","desc":"BROWNWOOD VOR-DME"},
{"type":"NDB","hdg_t":89.6,"dist_nm":79,"freq":410,"lat":32.39847222,"lon":-98.81033333,"rng_nm":50,"alt_fmsl":0,"id":"OIP","desc":"OLD RIP NDB"},
{"type":"NDB","hdg_t":285.6,"dist_nm":81.4,"freq":338,"lat":32.75844444,"lon":-101.91608333,"rng_nm":50,"alt_fmsl":0,"id":"LSA","desc":"LAMESA NDB"},
{"type":"VOR","hdg_t":1,"dist_nm":82.5,"freq":114.5,"lat":33.77827778,"lon":-100.33619444,"rng_nm":40,"alt_fmsl":1940,"id":"GTH","desc":"GUTHRIE VORTAC"},
{"type":"NDB","hdg_t":329.2,"dist_nm":85.4,"freq":332,"lat":33.62413889,"lon":-101.23886111,"rng_nm":50,"alt_fmsl":0,"id":"CZX","desc":"CROSBYTON NDB"},
{"type":"NDB","hdg_t":143.5,"dist_nm":90.5,"freq":380,"lat":31.17788889,"lon":-99.32258333,"rng_nm":50,"alt_fmsl":0,"id":"BBD","desc":"BRADY NDB"},
{"type":"VOR","hdg_t":256.3,"dist_nm":95.7,"freq":114.8,"lat":32.00933333,"lon":-102.19038889,"rng_nm":40,"alt_fmsl":2860,"id":"MAF","desc":"MIDLAND VORTAC"}
]
}
