{"success":true,"source":"xp2csv.pl","last_updated":"2013/11/08 14:53:21 UTC"
,"icao":"66N","name":"Sunset Strip","lat":40.24649,"lon":-75.49795473,"rwys":1,"ils":0,"index":1712266,"path":"w080n40/w076n40"
,"runways":[
{"len_m":412,"wid_m":33.53,"hdg":79,"surf":"Turf/grass","rwy1":"09","lat1":40.24613671,"lon1":-75.50033592,"rwy2":"27","lat2":40.24684329,"lon2":-75.49557354}
]
,"navaids":[
{"type":"VOR","hdg_t":243.1,"dist_nm":3.2,"freq":116.5,"lat":40.22227778,"lon":-75.56027778,"rng_nm":40,"alt_fmsl":290,"id":"PTW","desc":"POTTSTOWN VORTAC"},
{"type":"NDB","hdg_t":126.3,"dist_nm":12.1,"freq":275,"lat":40.12594444,"lon":-75.28516667,"rng_nm":50,"alt_fmsl":0,"id":"ING","desc":"AMBLER NDB"},
{"type":"VOR","hdg_t":47.8,"dist_nm":12.9,"freq":108.85,"lat":40.39090800,"lon":-75.28876700,"rng_nm":25,"alt_fmsl":552,"id":"CKZ","desc":"PENNRIDGE VOR-DME"},
{"type":"NDB","hdg_t":40.6,"dist_nm":14,"freq":208,"lat":40.42472222,"lon":-75.29777778,"rng_nm":50,"alt_fmsl":0,"id":"UKT","desc":"QUAKERTOWN NDB"},
{"type":"NDB","hdg_t":72.6,"dist_nm":18,"freq":237,"lat":40.33566100,"lon":-75.12211700,"rng_nm":5,"alt_fmsl":394,"id":"DYL","desc":"DOYLESTOWN NDB"},
{"type":"VOR","hdg_t":202,"dist_nm":21.2,"freq":113.2,"lat":39.91805556,"lon":-75.67080556,"rng_nm":40,"alt_fmsl":473,"id":"MXE","desc":"MODENA VORTAC"},
{"type":"VOR","hdg_t":337,"dist_nm":21.7,"freq":110.2,"lat":40.58102778,"lon":-75.68402778,"rng_nm":40,"alt_fmsl":742,"id":"ETX","desc":"EAST TEXAS VOR-DME"},
{"type":"VOR","hdg_t":113.5,"dist_nm":24.5,"freq":112,"lat":40.08205556,"lon":-75.00955556,"rng_nm":25,"alt_fmsl":0,"id":"PNE","desc":"NORTH PHILADELPHI VOR"},
{"type":"VOR","hdg_t":88.9,"dist_nm":27.1,"freq":108.2,"lat":40.25333333,"lon":-74.90761111,"rng_nm":40,"alt_fmsl":300,"id":"ARD","desc":"YARDLEY VOR-DME"},
{"type":"NDB","hdg_t":94,"dist_nm":27.5,"freq":369,"lat":40.21263889,"lon":-74.89916667,"rng_nm":50,"alt_fmsl":0,"id":"TT","desc":"TRENN NDB"},
{"type":"NDB","hdg_t":137.9,"dist_nm":27.8,"freq":222,"lat":39.90123100,"lon":-75.09486400,"rng_nm":25,"alt_fmsl":0,"id":"PD","desc":"SPEEZ NDB"},
{"type":"VOR","hdg_t":3.9,"dist_nm":28.8,"freq":117.5,"lat":40.72669444,"lon":-75.45475000,"rng_nm":40,"alt_fmsl":680,"id":"FJC","desc":"ALLENTOWN VORTAC"},
{"type":"VOR","hdg_t":188.4,"dist_nm":34.4,"freq":114,"lat":39.67813889,"lon":-75.60708333,"rng_nm":40,"alt_fmsl":70,"id":"DQO","desc":"DUPONT VORTAC"},
{"type":"VOR","hdg_t":258.5,"dist_nm":37.2,"freq":117.3,"lat":40.11997222,"lon":-76.29130556,"rng_nm":40,"alt_fmsl":399,"id":"LRP","desc":"LANCASTER VORTAC"},
{"type":"VOR","hdg_t":166.1,"dist_nm":37.6,"freq":112.8,"lat":39.63602778,"lon":-75.30302778,"rng_nm":40,"alt_fmsl":140,"id":"OOD","desc":"WOODSTOWN VORTAC"},
{"type":"VOR","hdg_t":59.5,"dist_nm":40.1,"freq":112.9,"lat":40.58305556,"lon":-74.74180556,"rng_nm":40,"alt_fmsl":190,"id":"SBJ","desc":"SOLBERG VOR-DME"},
{"type":"NDB","hdg_t":187.6,"dist_nm":40.2,"freq":248,"lat":39.58122222,"lon":-75.61388889,"rng_nm":50,"alt_fmsl":0,"id":"IL","desc":"HADIN (LOM) NDB"},
{"type":"VOR","hdg_t":108.6,"dist_nm":43.8,"freq":110.6,"lat":40.00947222,"lon":-74.59650000,"rng_nm":40,"alt_fmsl":119,"id":"GXU","desc":"MC GUIRE VORTAC"},
{"type":"VOR","hdg_t":42.8,"dist_nm":45.3,"freq":114.2,"lat":40.79844444,"lon":-74.82183333,"rng_nm":40,"alt_fmsl":1050,"id":"BWZ","desc":"BROADWAY VOR-DME"},
{"type":"VOR","hdg_t":92.9,"dist_nm":46.1,"freq":113.8,"lat":40.20238889,"lon":-74.49502778,"rng_nm":130,"alt_fmsl":248,"id":"RBV","desc":"ROBBINSVILLE VORTAC"},
{"type":"VOR","hdg_t":149.8,"dist_nm":49,"freq":115.2,"lat":39.53766667,"lon":-74.96713889,"rng_nm":40,"alt_fmsl":120,"id":"VCN","desc":"CEDAR LAKE VORTAC"},
{"type":"NDB","hdg_t":283.5,"dist_nm":49.7,"freq":328,"lat":40.43591667,"lon":-76.55302778,"rng_nm":50,"alt_fmsl":0,"id":"BZJ","desc":"BELLGROVE NDB"},
{"type":"NDB","hdg_t":213.6,"dist_nm":51,"freq":349,"lat":39.53586111,"lon":-76.10638889,"rng_nm":50,"alt_fmsl":0,"id":"APG","desc":"ABERDEEN NDB"},
{"type":"VOR","hdg_t":326.9,"dist_nm":52.2,"freq":109.4,"lat":40.97508333,"lon":-76.12580556,"rng_nm":25,"alt_fmsl":0,"id":"HZL","desc":"HAZLETON VOR"},
{"type":"NDB","hdg_t":161.2,"dist_nm":52.4,"freq":363,"lat":39.41811111,"lon":-75.13505556,"rng_nm":50,"alt_fmsl":0,"id":"RNB","desc":"RAINBOW NDB"},
{"type":"VOR","hdg_t":32.3,"dist_nm":53.3,"freq":109.6,"lat":40.99583333,"lon":-74.86902778,"rng_nm":40,"alt_fmsl":920,"id":"STW","desc":"STILLWATER VOR-DME"},
{"type":"VOR","hdg_t":290.3,"dist_nm":53.7,"freq":114.6,"lat":40.55338889,"lon":-76.59938889,"rng_nm":40,"alt_fmsl":1750,"id":"RAV","desc":"RAVINE VORTAC"},
{"type":"SDME","hdg_t":103,"dist_nm":54.1,"freq":111.8,"lat":40.03696100,"lon":-74.35313700,"rng_nm":25,"alt_fmsl":144,"id":"NEL","desc":"LAKEHURST TACAN"},
{"type":"NDB","hdg_t":102.3,"dist_nm":54.8,"freq":396,"lat":40.04486111,"lon":-74.33547222,"rng_nm":50,"alt_fmsl":0,"id":"NEL","desc":"LAKEHURST NDB"},
{"type":"VOR","hdg_t":117.2,"dist_nm":55.4,"freq":113.4,"lat":39.81733333,"lon":-74.43163889,"rng_nm":130,"alt_fmsl":203,"id":"CYN","desc":"COYLE VORTAC"},
{"type":"VOR","hdg_t":213.8,"dist_nm":56.1,"freq":108.4,"lat":39.46666667,"lon":-76.17094444,"rng_nm":25,"alt_fmsl":47,"id":"PPM","desc":"PHILLIPS VOR-DME"},
{"type":"NDB","hdg_t":58.4,"dist_nm":57.1,"freq":254,"lat":40.74077778,"lon":-74.42988889,"rng_nm":50,"alt_fmsl":0,"id":"CAT","desc":"CHATHAM NDB"},
{"type":"NDB","hdg_t":345.3,"dist_nm":59.7,"freq":410,"lat":41.21038889,"lon":-75.83183333,"rng_nm":50,"alt_fmsl":0,"id":"CYE","desc":"CRYSTAL LAKE NDB"},
{"type":"VOR","hdg_t":180.7,"dist_nm":60.8,"freq":111.4,"lat":39.23166667,"lon":-75.51591667,"rng_nm":40,"alt_fmsl":10,"id":"ENO","desc":"SMYRNA VORTAC"},
{"type":"VOR","hdg_t":85.9,"dist_nm":61.5,"freq":115.4,"lat":40.31163889,"lon":-74.15972222,"rng_nm":40,"alt_fmsl":129,"id":"COL","desc":"COLTS NECK VOR-DME"},
{"type":"NDB","hdg_t":69.8,"dist_nm":61.7,"freq":241,"lat":40.59366700,"lon":-74.23000000,"rng_nm":25,"alt_fmsl":0,"id":"EW","desc":"CHESA NDB"},
{"type":"VOR","hdg_t":351.9,"dist_nm":62.1,"freq":111.6,"lat":41.27280556,"lon":-75.68947222,"rng_nm":40,"alt_fmsl":2119,"id":"LVZ","desc":"WILKES BARRE VORTAC"},
{"type":"NDB","hdg_t":69.3,"dist_nm":62.5,"freq":373,"lat":40.60733300,"lon":-74.21797200,"rng_nm":25,"alt_fmsl":10,"id":"EZ","desc":"LIZAH NDB"},
{"type":"VOR","hdg_t":137.7,"dist_nm":63.7,"freq":108.6,"lat":39.45586111,"lon":-74.57633333,"rng_nm":40,"alt_fmsl":67,"id":"ACY","desc":"ATLANTIC CITY VORTAC"},
{"type":"NDB","hdg_t":270.4,"dist_nm":64.4,"freq":204,"lat":40.24638889,"lon":-76.90063889,"rng_nm":50,"alt_fmsl":0,"id":"MD","desc":"ENOLA NDB"},
{"type":"VOR","hdg_t":41.3,"dist_nm":65.9,"freq":115.7,"lat":41.06755556,"lon":-74.53830556,"rng_nm":130,"alt_fmsl":1400,"id":"SAX","desc":"SPARTA VORTAC"},
{"type":"NDB","hdg_t":253.3,"dist_nm":66.4,"freq":254,"lat":39.92002778,"lon":-76.87755556,"rng_nm":50,"alt_fmsl":0,"id":"EUD","desc":"YORK NDB"},
{"type":"SDME","hdg_t":178.7,"dist_nm":66.8,"freq":110,"lat":39.13233300,"lon":-75.46733300,"rng_nm":25,"alt_fmsl":17,"id":"DOV","desc":"DOVER TACAN"},
{"type":"NDB","hdg_t":61.3,"dist_nm":70.8,"freq":214,"lat":40.80444444,"lon":-74.13250000,"rng_nm":50,"alt_fmsl":0,"id":"TE","desc":"TORBY NDB"},
{"type":"VOR","hdg_t":311.5,"dist_nm":70.8,"freq":109.2,"lat":41.02338889,"lon":-76.66530556,"rng_nm":40,"alt_fmsl":1000,"id":"MIP","desc":"MILTON VORTAC"},
{"type":"VOR","hdg_t":297.6,"dist_nm":71.3,"freq":110.4,"lat":40.79083333,"lon":-76.88402778,"rng_nm":40,"alt_fmsl":620,"id":"SEG","desc":"SELINSGROVE VORTAC"},
{"type":"VOR","hdg_t":273.1,"dist_nm":72.2,"freq":112.5,"lat":40.30225000,"lon":-77.06955556,"rng_nm":40,"alt_fmsl":1301,"id":"HAR","desc":"HARRISBURG VORTAC"},
{"type":"VOR","hdg_t":0.5,"dist_nm":73.7,"freq":110.8,"lat":41.47577778,"lon":-75.48263889,"rng_nm":40,"alt_fmsl":2320,"id":"LHY","desc":"LAKE HENRY VORTAC"},
{"type":"VOR","hdg_t":60.7,"dist_nm":74.9,"freq":108.4,"lat":40.84872222,"lon":-74.06225000,"rng_nm":25,"alt_fmsl":10,"id":"TEB","desc":"TETERBORO VOR-DME"},
{"type":"VOR","hdg_t":154.6,"dist_nm":76.1,"freq":114.8,"lat":39.09550000,"lon":-74.80033333,"rng_nm":130,"alt_fmsl":10,"id":"SIE","desc":"SEA ISLE VORTAC"},
{"type":"NDB","hdg_t":74.8,"dist_nm":76.4,"freq":414,"lat":40.56813889,"lon":-73.88297222,"rng_nm":50,"alt_fmsl":0,"id":"OGY","desc":"BRIDGE NDB"},
{"type":"VOR","hdg_t":72.8,"dist_nm":76.6,"freq":112.3,"lat":40.61247222,"lon":-73.89444444,"rng_nm":25,"alt_fmsl":10,"id":"CRI","desc":"CANARSIE VOR-DME"},
{"type":"NDB","hdg_t":222.5,"dist_nm":77.6,"freq":404,"lat":39.28705556,"lon":-76.62525000,"rng_nm":50,"alt_fmsl":0,"id":"IUB","desc":"INSTITUTE NDB"},
{"type":"NDB","hdg_t":74.7,"dist_nm":80.4,"freq":373,"lat":40.58698600,"lon":-73.79965000,"rng_nm":25,"alt_fmsl":0,"id":"JF","desc":"CONDA NDB"},
{"type":"VOR","hdg_t":30.3,"dist_nm":81,"freq":116.1,"lat":41.40969444,"lon":-74.59158333,"rng_nm":130,"alt_fmsl":1300,"id":"HUO","desc":"HUGUENOT VOR-DME"},
{"type":"VOR","hdg_t":66.1,"dist_nm":81.2,"freq":113.1,"lat":40.78372222,"lon":-73.86861111,"rng_nm":40,"alt_fmsl":9,"id":"LGA","desc":"LA GUARDIA VOR-DME"},
{"type":"VOR","hdg_t":237.1,"dist_nm":81.9,"freq":117.9,"lat":39.49500000,"lon":-76.97858333,"rng_nm":130,"alt_fmsl":820,"id":"EMI","desc":"WESTMINSTER VORTAC"},
{"type":"VOR","hdg_t":73.1,"dist_nm":82.4,"freq":115.9,"lat":40.63288889,"lon":-73.77138889,"rng_nm":130,"alt_fmsl":11,"id":"JFK","desc":"KENNEDY VOR-DME"},
{"type":"NDB","hdg_t":226.2,"dist_nm":82.5,"freq":371,"lat":39.28736111,"lon":-76.77702778,"rng_nm":50,"alt_fmsl":0,"id":"FND","desc":"ELLICOTT NDB"},
{"type":"NDB","hdg_t":318.5,"dist_nm":82.9,"freq":344,"lat":41.27708333,"lon":-76.71013889,"rng_nm":50,"alt_fmsl":0,"id":"PIX","desc":"PICTURE ROCKS NDB"},
{"type":"VOR","hdg_t":220.2,"dist_nm":84,"freq":115.1,"lat":39.17105556,"lon":-76.66125000,"rng_nm":40,"alt_fmsl":140,"id":"BAL","desc":"BALTIMORE VORTAC"},
{"type":"NDB","hdg_t":63.8,"dist_nm":85.9,"freq":385,"lat":40.86638889,"lon":-73.80355556,"rng_nm":50,"alt_fmsl":0,"id":"UR","desc":"ORCHY NDB"},
{"type":"VOR","hdg_t":171.1,"dist_nm":87.1,"freq":112.6,"lat":38.80980556,"lon":-75.21133333,"rng_nm":40,"alt_fmsl":5,"id":"ATR","desc":"WATERLOO VOR-DME"},
{"type":"VOR","hdg_t":318.7,"dist_nm":87.5,"freq":114.4,"lat":41.33855556,"lon":-76.77486111,"rng_nm":40,"alt_fmsl":2098,"id":"FQM","desc":"WILLIAMSPORT VOR-DME"},
{"type":"NDB","hdg_t":37,"dist_nm":90.4,"freq":353,"lat":41.44488889,"lon":-74.29113889,"rng_nm":50,"alt_fmsl":0,"id":"MG","desc":"OTIMS NDB"},
{"type":"NDB","hdg_t":220.4,"dist_nm":90.9,"freq":260,"lat":39.08405556,"lon":-76.76000000,"rng_nm":50,"alt_fmsl":0,"id":"BUH","desc":"ANNE ARUNDEL NDB"},
{"type":"NDB","hdg_t":37.4,"dist_nm":94.1,"freq":335,"lat":41.48608333,"lon":-74.22791667,"rng_nm":50,"alt_fmsl":0,"id":"SW","desc":"NEELY NDB"},
{"type":"NDB","hdg_t":17.4,"dist_nm":95.6,"freq":359,"lat":41.76666667,"lon":-74.86072222,"rng_nm":50,"alt_fmsl":0,"id":"MS","desc":"MONGA NDB"},
{"type":"NDB","hdg_t":70.3,"dist_nm":97.5,"freq":407,"lat":40.77652778,"lon":-73.48241667,"rng_nm":50,"alt_fmsl":0,"id":"FR","desc":"FRIKK NDB"}
]
}
