{"success":true,"source":"xp2csv.pl","last_updated":"2013/11/08 14:53:21 UTC"
,"icao":"66S","name":"Cavanaugh Bay","lat":48.51850898,"lon":-116.82212556,"rwys":1,"ils":0,"index":1041056,"path":"w120n40/w117n48"
,"runways":[
{"len_m":965,"wid_m":36.58,"hdg":168,"surf":"Turf/grass","rwy1":"15","lat1":48.52276595,"lon1":-116.82340025,"rwy2":"33","lat2":48.51425201,"lon2":-116.82085086}
]
,"navaids":[
{"type":"NDB","hdg_t":142.7,"dist_nm":17.1,"freq":264,"lat":48.29063889,"lon":-116.56322222,"rng_nm":50,"alt_fmsl":0,"id":"SZT","desc":"SANDPOE NDB"},
{"type":"NDB","hdg_t":296.2,"dist_nm":26.2,"freq":379,"lat":48.71019444,"lon":-117.41358333,"rng_nm":50,"alt_fmsl":0,"id":"ION","desc":"IONE NDB"},
{"type":"NDB","hdg_t":216.4,"dist_nm":40.9,"freq":365,"lat":47.96775000,"lon":-117.42633333,"rng_nm":50,"alt_fmsl":0,"id":"DPY","desc":"DEER PARK NDB"},
{"type":"VOR","hdg_t":179.9,"dist_nm":44.7,"freq":108.8,"lat":47.77369444,"lon":-116.82058333,"rng_nm":25,"alt_fmsl":2320,"id":"COE","desc":"COEUR D'ALENE VOR-DME"},
{"type":"NDB","hdg_t":186.8,"dist_nm":46.9,"freq":347,"lat":47.74286111,"lon":-116.96100000,"rng_nm":50,"alt_fmsl":0,"id":"LEN","desc":"POST FALLS NDB"},
{"type":"NDB","hdg_t":103.1,"dist_nm":54.5,"freq":414,"lat":48.30444444,"lon":-115.49527778,"rng_nm":50,"alt_fmsl":0,"id":"LYI","desc":"LIBBY NDB"},
{"type":"NDB","hdg_t":324.3,"dist_nm":54.7,"freq":206,"lat":49.25625000,"lon":-117.63486111,"rng_nm":50,"alt_fmsl":0,"id":"EF","desc":"CHAMPION NDB"},
{"type":"SDME","hdg_t":323.2,"dist_nm":55.2,"freq":110.1,"lat":49.25222200,"lon":-117.66277800,"rng_nm":25,"alt_fmsl":1695,"id":"XCG","desc":"CASTLEGAR DME"},
{"type":"NDB","hdg_t":206.7,"dist_nm":56.4,"freq":388,"lat":47.67700000,"lon":-117.45019444,"rng_nm":50,"alt_fmsl":0,"id":"CRK","desc":"CANYON NDB"},
{"type":"NDB","hdg_t":326.7,"dist_nm":58.1,"freq":269,"lat":49.32527800,"lon":-117.63500000,"rng_nm":25,"alt_fmsl":0,"id":"YK","desc":"BRILLIANT NDB"},
{"type":"NDB","hdg_t":332.2,"dist_nm":63.2,"freq":227,"lat":49.44722222,"lon":-117.57500000,"rng_nm":50,"alt_fmsl":0,"id":"CG","desc":"CASTLEGAR NDB"},
{"type":"SDME","hdg_t":212.1,"dist_nm":64.1,"freq":111.4,"lat":47.61069400,"lon":-117.66230300,"rng_nm":40,"alt_fmsl":2460,"id":"SKA","desc":"FAIRCHILD TACAN"},
{"type":"VOR","hdg_t":209.8,"dist_nm":65.7,"freq":115.5,"lat":47.56494444,"lon":-117.62688889,"rng_nm":130,"alt_fmsl":2756,"id":"GEG","desc":"SPOKANE VORTAC"},
{"type":"VOR","hdg_t":24.7,"dist_nm":68.6,"freq":112.1,"lat":49.55427778,"lon":-116.08830556,"rng_nm":130,"alt_fmsl":7558,"id":"YXC","desc":"CRANBROOK VOR-DME"},
{"type":"NDB","hdg_t":295.8,"dist_nm":70.2,"freq":250,"lat":49.01750000,"lon":-118.42361111,"rng_nm":50,"alt_fmsl":0,"id":"2J","desc":"GRAND FORKS NDB"},
{"type":"NDB","hdg_t":68,"dist_nm":74,"freq":392,"lat":48.96597222,"lon":-115.08433333,"rng_nm":50,"alt_fmsl":0,"id":"EUR","desc":"EUREKA NDB"},
{"type":"SDME","hdg_t":31.3,"dist_nm":77.6,"freq":110.3,"lat":49.61833300,"lon":-115.78750000,"rng_nm":25,"alt_fmsl":3050,"id":"IXC","desc":"CRANBROOK DME"},
{"type":"VOR","hdg_t":142.9,"dist_nm":79.4,"freq":117.8,"lat":47.45691667,"lon":-115.64605556,"rng_nm":130,"alt_fmsl":6100,"id":"MLP","desc":"MULLAN PASS VOR-DME"},
{"type":"NDB","hdg_t":29.9,"dist_nm":81,"freq":242,"lat":49.68333333,"lon":-115.78333333,"rng_nm":50,"alt_fmsl":0,"id":"XC","desc":"CRANBROOK NDB"},
{"type":"NDB","hdg_t":24.7,"dist_nm":95.2,"freq":368,"lat":49.95491667,"lon":-115.79233333,"rng_nm":50,"alt_fmsl":0,"id":"SX","desc":"SKOOKUM NDB"},
{"type":"NDB","hdg_t":103.7,"dist_nm":97.7,"freq":515,"lat":48.10827778,"lon":-114.46125000,"rng_nm":50,"alt_fmsl":0,"id":"SAK","desc":"SMITH LAKE NDB"}
]
}
