{"success":true,"source":"xp2csv.pl","last_updated":"2013/11/08 14:53:21 UTC"
,"icao":"66TX","name":"Oliver Till","lat":27.62392027,"lon":-97.88305417,"rwys":1,"ils":0,"index":1351008,"path":"w100n20/w098n27"
,"runways":[
{"len_m":403,"wid_m":10.06,"hdg":96,"surf":"Turf/grass","rwy1":"09","lat1":27.62414090,"lon1":-97.88508222,"rwy2":"27","lat2":27.62369964,"lon2":-97.88102612}
]
,"navaids":[
{"type":"SDME","hdg_t":150.9,"dist_nm":8.5,"freq":117.8,"lat":27.49930300,"lon":-97.80552500,"rng_nm":130,"alt_fmsl":46,"id":"NQI","desc":"KINGSVILLE TACAN"},
{"type":"VOR","hdg_t":313.3,"dist_nm":10.1,"freq":114.5,"lat":27.73980556,"lon":-98.02133333,"rng_nm":40,"alt_fmsl":0,"id":"ALI","desc":"ALICE VOR"},
{"type":"NDB","hdg_t":264.4,"dist_nm":10.8,"freq":347,"lat":27.60633333,"lon":-98.08586111,"rng_nm":50,"alt_fmsl":0,"id":"TKB","desc":"KLEBERG CO NDB"},
{"type":"NDB","hdg_t":207.1,"dist_nm":28,"freq":353,"lat":27.20694444,"lon":-98.12177778,"rng_nm":50,"alt_fmsl":0,"id":"BKS","desc":"BROOKS CO NDB"},
{"type":"VOR","hdg_t":54.2,"dist_nm":28.7,"freq":115.5,"lat":27.90377778,"lon":-97.44488889,"rng_nm":130,"alt_fmsl":60,"id":"CRP","desc":"CORPUS CHRISTI VORTAC"},
{"type":"VOR","hdg_t":83,"dist_nm":31.5,"freq":114,"lat":27.68627778,"lon":-97.29475000,"rng_nm":40,"alt_fmsl":17,"id":"NGP","desc":"TRUAX VORTAC"},
{"type":"NDB","hdg_t":5.9,"dist_nm":44.8,"freq":284,"lat":28.36862500,"lon":-97.79542500,"rng_nm":25,"alt_fmsl":269,"id":"BEA","desc":"BEEVILLE NDB"},
{"type":"NDB","hdg_t":250.8,"dist_nm":48.7,"freq":266,"lat":27.35391667,"lon":-98.74413889,"rng_nm":50,"alt_fmsl":0,"id":"HBV","desc":"HEBBRONVILLE NDB"},
{"type":"NDB","hdg_t":57.6,"dist_nm":52.5,"freq":391,"lat":28.09050000,"lon":-97.04655556,"rng_nm":50,"alt_fmsl":0,"id":"RKP","desc":"ROCKPORT NDB"},
{"type":"NDB","hdg_t":42.3,"dist_nm":53.2,"freq":375,"lat":28.28000000,"lon":-97.20583333,"rng_nm":50,"alt_fmsl":0,"id":"MNO","desc":"MELLON RANCH NDB"},
{"type":"VOR","hdg_t":344.9,"dist_nm":54.5,"freq":111.4,"lat":28.50500000,"lon":-98.15047222,"rng_nm":40,"alt_fmsl":270,"id":"THX","desc":"THREE RIVERS VORTAC"},
{"type":"NDB","hdg_t":214.6,"dist_nm":65.6,"freq":260,"lat":26.71894444,"lon":-98.57725000,"rng_nm":50,"alt_fmsl":0,"id":"SNE","desc":"SANTA ELENA NDB"},
{"type":"NDB","hdg_t":171.2,"dist_nm":79.8,"freq":338,"lat":26.30516667,"lon":-97.65736111,"rng_nm":50,"alt_fmsl":0,"id":"HR","desc":"SEBAS NDB"},
{"type":"VOR","hdg_t":264.2,"dist_nm":82.2,"freq":117.4,"lat":27.47872222,"lon":-99.41766667,"rng_nm":130,"alt_fmsl":580,"id":"LRD","desc":"LAREDO VORTAC"},
{"type":"VOR","hdg_t":307.6,"dist_nm":82.5,"freq":115.8,"lat":28.46200000,"lon":-99.11852778,"rng_nm":40,"alt_fmsl":520,"id":"COT","desc":"COTULLA VORTAC"},
{"type":"NDB","hdg_t":271.1,"dist_nm":83.9,"freq":405,"lat":27.64236111,"lon":-99.45813889,"rng_nm":50,"alt_fmsl":0,"id":"AGH","desc":"ARDYTH NDB"},
{"type":"VOR","hdg_t":171.5,"dist_nm":84.3,"freq":109.2,"lat":26.22922222,"lon":-97.65227778,"rng_nm":40,"alt_fmsl":32,"id":"HRL","desc":"HARLINGEN VOR-DME"},
{"type":"NDB","hdg_t":195.7,"dist_nm":85.1,"freq":330,"lat":26.25386111,"lon":-98.31038889,"rng_nm":50,"alt_fmsl":0,"id":"MF","desc":"MISSI NDB"},
{"type":"NDB","hdg_t":337.2,"dist_nm":86.4,"freq":275,"lat":28.95497200,"lon":-98.51862800,"rng_nm":25,"alt_fmsl":428,"id":"PEZ","desc":"PLEASANTON NDB"},
{"type":"NDB","hdg_t":45.7,"dist_nm":88.5,"freq":515,"lat":28.65089700,"lon":-96.68145800,"rng_nm":25,"alt_fmsl":26,"id":"PKV","desc":"PORT LAVACA NDB"},
{"type":"VOR","hdg_t":192.5,"dist_nm":88.8,"freq":117.2,"lat":26.17388889,"lon":-98.24077778,"rng_nm":130,"alt_fmsl":100,"id":"MFE","desc":"MC ALLEN VOR-DME"},
{"type":"VOR","hdg_t":31.8,"dist_nm":90.1,"freq":109,"lat":28.90030556,"lon":-96.97894444,"rng_nm":40,"alt_fmsl":125,"id":"VCT","desc":"VICTORIA VOR-DME"},
{"type":"NDB","hdg_t":30.9,"dist_nm":90.3,"freq":226,"lat":28.91522222,"lon":-97.00047222,"rng_nm":50,"alt_fmsl":0,"id":"VC","desc":"FOSTR NDB"},
{"type":"VOR","hdg_t":263.3,"dist_nm":90.3,"freq":112.6,"lat":27.43938889,"lon":-99.56458333,"rng_nm":130,"alt_fmsl":484,"id":"NLD","desc":"NEWLA VOR-DME"},
{"type":"VOR","hdg_t":191,"dist_nm":98.3,"freq":112.4,"lat":26.01063889,"lon":-98.23186111,"rng_nm":130,"alt_fmsl":139,"id":"REX","desc":"REYNOSA VOR-DME"}
]
}
