{"success":true,"source":"xp2csv.pl","last_updated":"2013/11/08 14:53:21 UTC"
,"icao":"6M2","name":"Horseshoe Bend","lat":36.2213665,"lon":-91.755481,"rwys":1,"ils":0,"index":1449864,"path":"w100n30/w092n36"
,"runways":[
{"len_m":1379,"wid_m":15.24,"hdg":125,"surf":"Asphalt","rwy1":"13","lat1":36.22496900,"lon1":-91.76173100,"rwy2":"31","lat2":36.21776400,"lon2":-91.74923100}
]
,"radios":[
{"type":"CTAF","freq":122.8,"desc":"CTAF/UNICOM"}
]
,"navaids":[
{"type":"NDB","hdg_t":217.9,"dist_nm":26.8,"freq":348,"lat":35.86757500,"lon":-92.09459700,"rng_nm":25,"alt_fmsl":783,"id":"VLX","desc":"WILCOX NDB"},
{"type":"NDB","hdg_t":183.8,"dist_nm":31.1,"freq":335,"lat":35.70322222,"lon":-91.79769444,"rng_nm":50,"alt_fmsl":0,"id":"BV","desc":"ALMND NDB"},
{"type":"VOR","hdg_t":278,"dist_nm":34.4,"freq":112.8,"lat":36.29963889,"lon":-92.45838889,"rng_nm":40,"alt_fmsl":780,"id":"FLP","desc":"FLIPPIN VOR-DME"},
{"type":"VOR","hdg_t":349.8,"dist_nm":39.5,"freq":111.6,"lat":36.87138889,"lon":-91.90000000,"rng_nm":40,"alt_fmsl":1220,"id":"HUW","desc":"HUTTON VOR-DME"},
{"type":"VOR","hdg_t":99.4,"dist_nm":39.5,"freq":114.5,"lat":36.11002778,"lon":-90.95369444,"rng_nm":130,"alt_fmsl":302,"id":"ARG","desc":"WALNUT RIDGE VORTAC"},
{"type":"NDB","hdg_t":90.9,"dist_nm":40.4,"freq":227,"lat":36.20697222,"lon":-90.92311111,"rng_nm":50,"alt_fmsl":0,"id":"TNZ","desc":"LAWRENCE COUNTY NDB"},
{"type":"NDB","hdg_t":196.4,"dist_nm":44.1,"freq":256,"lat":35.51432800,"lon":-92.01106500,"rng_nm":25,"alt_fmsl":625,"id":"HBZ","desc":"HEBER SPRINGS NDB"},
{"type":"NDB","hdg_t":140.9,"dist_nm":44.6,"freq":400,"lat":35.64202200,"lon":-91.18068100,"rng_nm":25,"alt_fmsl":237,"id":"EWP","desc":"NEWPORT NDB"},
{"type":"NDB","hdg_t":2.5,"dist_nm":46.3,"freq":365,"lat":36.99394444,"lon":-91.71263889,"rng_nm":50,"alt_fmsl":0,"id":"MNF","desc":"MOUNTAIN VIEW NDB"},
{"type":"NDB","hdg_t":178.9,"dist_nm":60.4,"freq":323,"lat":35.21203100,"lon":-91.73263600,"rng_nm":25,"alt_fmsl":260,"id":"SRC","desc":"SEARCY NDB"},
{"type":"VOR","hdg_t":109.7,"dist_nm":60.4,"freq":108.6,"lat":35.87491667,"lon":-90.58850000,"rng_nm":25,"alt_fmsl":247,"id":"JBR","desc":"JONESBORO VOR-DME"},
{"type":"NDB","hdg_t":98.5,"dist_nm":61.2,"freq":383,"lat":36.06277778,"lon":-90.51102778,"rng_nm":50,"alt_fmsl":0,"id":"PGR","desc":"PARAGOULD NDB"},
{"type":"NDB","hdg_t":268.8,"dist_nm":68.2,"freq":395,"lat":36.19105556,"lon":-93.16019444,"rng_nm":50,"alt_fmsl":0,"id":"HR","desc":"BAKKY NDB"},
{"type":"VOR","hdg_t":275.1,"dist_nm":70.9,"freq":112.5,"lat":36.31830556,"lon":-93.21327778,"rng_nm":40,"alt_fmsl":1400,"id":"HRO","desc":"HARRISON VOR-DME"},
{"type":"VOR","hdg_t":311.9,"dist_nm":72.4,"freq":109.4,"lat":37.02347222,"lon":-92.87691667,"rng_nm":40,"alt_fmsl":1600,"id":"DGD","desc":"DOGWOOD VORTAC"},
{"type":"NDB","hdg_t":68.3,"dist_nm":74.1,"freq":278,"lat":36.66908333,"lon":-90.32838889,"rng_nm":50,"alt_fmsl":0,"id":"FD","desc":"EARLI NDB"},
{"type":"NDB","hdg_t":289.2,"dist_nm":75.4,"freq":204,"lat":36.62756400,"lon":-93.22991100,"rng_nm":25,"alt_fmsl":933,"id":"PLK","desc":"POINT LOOKOUT NDB"},
{"type":"NDB","hdg_t":205.9,"dist_nm":75.6,"freq":302,"lat":35.08397222,"lon":-92.42683333,"rng_nm":50,"alt_fmsl":0,"id":"CWS","desc":"CONWAY NDB"},
{"type":"NDB","hdg_t":189.7,"dist_nm":77.1,"freq":290,"lat":34.95250000,"lon":-92.01950000,"rng_nm":50,"alt_fmsl":0,"id":"TYV","desc":"TONEYVILLE NDB"},
{"type":"NDB","hdg_t":216,"dist_nm":79.9,"freq":208,"lat":35.13925000,"lon":-92.71238600,"rng_nm":25,"alt_fmsl":320,"id":"BDQ","desc":"BRIDGE NDB"},
{"type":"SDME","hdg_t":194.2,"dist_nm":80.5,"freq":109.2,"lat":34.91806700,"lon":-92.15766700,"rng_nm":25,"alt_fmsl":328,"id":"LRF","desc":"JACKSONVILLE TACAN"},
{"type":"VOR","hdg_t":129.6,"dist_nm":81.4,"freq":113,"lat":35.34702778,"lon":-90.47816667,"rng_nm":40,"alt_fmsl":211,"id":"GQE","desc":"GILMORE VOR-DME"},
{"type":"VOR","hdg_t":358.8,"dist_nm":82,"freq":113.4,"lat":37.59077778,"lon":-91.78858333,"rng_nm":40,"alt_fmsl":1370,"id":"MAP","desc":"MAPLES VORTAC"},
{"type":"NDB","hdg_t":228.9,"dist_nm":87.2,"freq":379,"lat":35.25708333,"lon":-93.09461111,"rng_nm":50,"alt_fmsl":0,"id":"RUE","desc":"RUSSELLVILLE NDB"},
{"type":"NDB","hdg_t":221.2,"dist_nm":87.3,"freq":410,"lat":35.11869444,"lon":-92.92516667,"rng_nm":50,"alt_fmsl":0,"id":"MPJ","desc":"MORRILTON NDB"},
{"type":"VOR","hdg_t":99.8,"dist_nm":89.7,"freq":111.8,"lat":35.95097222,"lon":-89.94105556,"rng_nm":40,"alt_fmsl":0,"id":"GOJ","desc":"GOSNELL VOR"},
{"type":"NDB","hdg_t":349.3,"dist_nm":90,"freq":391,"lat":37.69755556,"lon":-92.10380556,"rng_nm":50,"alt_fmsl":0,"id":"BHN","desc":"BUCKHORN NDB"},
{"type":"VOR","hdg_t":76.8,"dist_nm":91.5,"freq":111.2,"lat":36.55511111,"lon":-89.91141667,"rng_nm":40,"alt_fmsl":280,"id":"MAW","desc":"MALDEN VORTAC"},
{"type":"NDB","hdg_t":332,"dist_nm":91.8,"freq":414,"lat":37.57127778,"lon":-92.65780556,"rng_nm":50,"alt_fmsl":0,"id":"IEB","desc":"LEBANON NDB"},
{"type":"VOR","hdg_t":348.6,"dist_nm":92.9,"freq":110,"lat":37.74241667,"lon":-92.13900000,"rng_nm":40,"alt_fmsl":0,"id":"TBN","desc":"FORNEY VOR"},
{"type":"NDB","hdg_t":241.5,"dist_nm":93,"freq":201,"lat":35.46925000,"lon":-93.42352778,"rng_nm":50,"alt_fmsl":0,"id":"CZE","desc":"CLARKSVILLE NDB"},
{"type":"NDB","hdg_t":174.9,"dist_nm":93.6,"freq":269,"lat":34.66377778,"lon":-91.59044444,"rng_nm":50,"alt_fmsl":0,"id":"SGT","desc":"STUTTGART NDB"},
{"type":"VOR","hdg_t":192.8,"dist_nm":94.7,"freq":113.9,"lat":34.67766667,"lon":-92.18052778,"rng_nm":130,"alt_fmsl":240,"id":"LIT","desc":"LITTLE ROCK VORTAC"},
{"type":"NDB","hdg_t":196.3,"dist_nm":96.8,"freq":353,"lat":34.66900000,"lon":-92.30547222,"rng_nm":50,"alt_fmsl":0,"id":"LI","desc":"LASKY NDB"},
{"type":"NDB","hdg_t":306.1,"dist_nm":98.6,"freq":404,"lat":37.18022222,"lon":-93.41719444,"rng_nm":50,"alt_fmsl":0,"id":"SG","desc":"COOLE NDB"}
]
}
