{"success":true,"source":"xp2csv.pl","last_updated":"2013/11/08 14:53:21 UTC"
,"icao":"6MO1","name":"Markt Air Strip","lat":39.96666194,"lon":-95.06691834,"rwys":1,"ils":0,"index":1384571,"path":"w100n30/w096n39"
,"runways":[
{"len_m":121,"wid_m":9.14,"hdg":5,"surf":"Turf/grass","rwy1":"36","lat1":39.96611543,"lon1":-95.06698073,"rwy2":"18","lat2":39.96720845,"lon2":-95.06685595}
]
,"navaids":[
{"type":"VOR","hdg_t":93.1,"dist_nm":6.5,"freq":115.5,"lat":39.96058333,"lon":-94.92522222,"rng_nm":130,"alt_fmsl":1160,"id":"STJ","desc":"ST JOSEPH VORTAC"},
{"type":"NDB","hdg_t":124,"dist_nm":8.8,"freq":233,"lat":39.88380556,"lon":-94.90813889,"rng_nm":50,"alt_fmsl":0,"id":"AZN","desc":"AMAZON NDB"},
{"type":"VOR","hdg_t":247.2,"dist_nm":17.8,"freq":108.2,"lat":39.85083333,"lon":-95.42305556,"rng_nm":40,"alt_fmsl":1126,"id":"RBA","desc":"ROBINSON VOR-DME"},
{"type":"NDB","hdg_t":156.9,"dist_nm":18.9,"freq":260,"lat":39.67572222,"lon":-94.90683333,"rng_nm":50,"alt_fmsl":0,"id":"ST","desc":"TARIO NDB"},
{"type":"NDB","hdg_t":285.5,"dist_nm":24.8,"freq":404,"lat":40.07633333,"lon":-95.58688889,"rng_nm":50,"alt_fmsl":0,"id":"FNB","desc":"BRENNER NDB"},
{"type":"NDB","hdg_t":152.4,"dist_nm":39.1,"freq":275,"lat":39.38691667,"lon":-94.67697222,"rng_nm":50,"alt_fmsl":0,"id":"DY","desc":"LEXEY NDB"},
{"type":"NDB","hdg_t":110.9,"dist_nm":39.3,"freq":394,"lat":39.72941667,"lon":-94.27230556,"rng_nm":50,"alt_fmsl":0,"id":"EZZ","desc":"CAMERON NDB"},
{"type":"NDB","hdg_t":165.8,"dist_nm":41,"freq":416,"lat":39.30197222,"lon":-94.85111111,"rng_nm":50,"alt_fmsl":0,"id":"RN","desc":"HUGGY NDB"},
{"type":"VOR","hdg_t":159.3,"dist_nm":43.6,"freq":113.25,"lat":39.28527778,"lon":-94.73705556,"rng_nm":130,"alt_fmsl":1017,"id":"MCI","desc":"KANSAS CITY VORTAC"},
{"type":"NDB","hdg_t":2.2,"dist_nm":45.4,"freq":353,"lat":40.72366667,"lon":-95.02797222,"rng_nm":50,"alt_fmsl":0,"id":"ICL","desc":"CLARINDA NDB"},
{"type":"NDB","hdg_t":161.6,"dist_nm":47,"freq":359,"lat":39.22088889,"lon":-94.74991667,"rng_nm":50,"alt_fmsl":0,"id":"DO","desc":"DOTTE NDB"},
{"type":"NDB","hdg_t":341.7,"dist_nm":49.5,"freq":411,"lat":40.75169444,"lon":-95.40750000,"rng_nm":50,"alt_fmsl":0,"id":"SDA","desc":"SHENANDOAH NDB"},
{"type":"NDB","hdg_t":152.3,"dist_nm":50.4,"freq":344,"lat":39.22080556,"lon":-94.56433333,"rng_nm":50,"alt_fmsl":0,"id":"MK","desc":"KENZY NDB"},
{"type":"NDB","hdg_t":316.6,"dist_nm":52.8,"freq":347,"lat":40.60555556,"lon":-95.86083333,"rng_nm":50,"alt_fmsl":0,"id":"AFK","desc":"NEBRASKA CITY NDB"},
{"type":"VOR","hdg_t":285.3,"dist_nm":54.3,"freq":112.4,"lat":40.20036111,"lon":-96.20627778,"rng_nm":130,"alt_fmsl":1360,"id":"PWE","desc":"PAWNEE CITY VORTAC"},
{"type":"VOR","hdg_t":204.3,"dist_nm":54.5,"freq":117.8,"lat":39.13711111,"lon":-95.54911111,"rng_nm":40,"alt_fmsl":1070,"id":"TOP","desc":"TOPEKA VORTAC"},
{"type":"VOR","hdg_t":156.5,"dist_nm":55.2,"freq":111.4,"lat":39.12038889,"lon":-94.59658333,"rng_nm":25,"alt_fmsl":740,"id":"RIS","desc":"RIVERSIDE VOR-DME"},
{"type":"NDB","hdg_t":209.7,"dist_nm":58.3,"freq":521,"lat":39.12036111,"lon":-95.68711111,"rng_nm":50,"alt_fmsl":0,"id":"TO","desc":"BILOY NDB"},
{"type":"VOR","hdg_t":109.7,"dist_nm":58.6,"freq":111.2,"lat":39.63055556,"lon":-93.87527778,"rng_nm":40,"alt_fmsl":930,"id":"BQS","desc":"BRAYMER VOR-DME"},
{"type":"VOR","hdg_t":52.8,"dist_nm":63,"freq":116.7,"lat":40.59675000,"lon":-93.96758333,"rng_nm":130,"alt_fmsl":1140,"id":"LMN","desc":"LAMONI VORTAC"},
{"type":"NDB","hdg_t":183.6,"dist_nm":63.2,"freq":338,"lat":38.91363889,"lon":-95.15375000,"rng_nm":50,"alt_fmsl":0,"id":"JZ","desc":"NEWBN NDB"},
{"type":"NDB","hdg_t":12.8,"dist_nm":63.3,"freq":278,"lat":40.99638889,"lon":-94.75691667,"rng_nm":50,"alt_fmsl":0,"id":"CRZ","desc":"CORNING NDB"},
{"type":"NDB","hdg_t":352.2,"dist_nm":63.4,"freq":230,"lat":41.01525000,"lon":-95.25575000,"rng_nm":50,"alt_fmsl":0,"id":"RDK","desc":"RED OAK NDB"},
{"type":"NDB","hdg_t":165.9,"dist_nm":63.7,"freq":526,"lat":38.93488845,"lon":-94.73732723,"rng_nm":25,"alt_fmsl":0,"id":"OJ","desc":"Furor LOM"},
{"type":"SDME","hdg_t":204.5,"dist_nm":67,"freq":111.6,"lat":38.94736700,"lon":-95.66117500,"rng_nm":25,"alt_fmsl":1043,"id":"FOE","desc":"FORBES TACAN"},
{"type":"NDB","hdg_t":28.7,"dist_nm":67.9,"freq":379,"lat":40.95744444,"lon":-94.34725000,"rng_nm":50,"alt_fmsl":0,"id":"UNE","desc":"UNION CO NDB"},
{"type":"VOR","hdg_t":139.8,"dist_nm":68,"freq":114,"lat":39.09541667,"lon":-94.12883333,"rng_nm":40,"alt_fmsl":878,"id":"ANX","desc":"NAPOLEON VORTAC"},
{"type":"NDB","hdg_t":83.8,"dist_nm":68.2,"freq":400,"lat":40.08027778,"lon":-93.59300000,"rng_nm":50,"alt_fmsl":0,"id":"TRX","desc":"TRENTON NDB"},
{"type":"NDB","hdg_t":151.6,"dist_nm":68.4,"freq":263,"lat":38.96068600,"lon":-94.37173900,"rng_nm":25,"alt_fmsl":1041,"id":"LXT","desc":"LESUMIT NDB"},
{"type":"NDB","hdg_t":200.4,"dist_nm":69.1,"freq":326,"lat":38.88486111,"lon":-95.58152778,"rng_nm":50,"alt_fmsl":0,"id":"FO","desc":"RIPLY NDB"},
{"type":"VOR","hdg_t":167,"dist_nm":69.2,"freq":113,"lat":38.84063889,"lon":-94.73675000,"rng_nm":25,"alt_fmsl":1034,"id":"OJC","desc":"JOHNSON COUNTY VOR-DME"},
{"type":"NDB","hdg_t":326.8,"dist_nm":70.2,"freq":329,"lat":40.94377778,"lon":-95.91247222,"rng_nm":50,"alt_fmsl":0,"id":"PMV","desc":"PLATTSMOUTH NDB"},
{"type":"NDB","hdg_t":98.3,"dist_nm":73.5,"freq":375,"lat":39.77711111,"lon":-93.49419444,"rng_nm":50,"alt_fmsl":0,"id":"CHT","desc":"CHILLICOTHE NDB"},
{"type":"NDB","hdg_t":173.6,"dist_nm":74,"freq":368,"lat":38.73866667,"lon":-94.89191667,"rng_nm":50,"alt_fmsl":0,"id":"IX","desc":"DUSTT NDB"},
{"type":"NDB","hdg_t":168,"dist_nm":74.3,"freq":420,"lat":38.75363890,"lon":-94.73785930,"rng_nm":25,"alt_fmsl":0,"id":"PK","desc":"Herbb LOM"},
{"type":"VOR","hdg_t":337.1,"dist_nm":78.2,"freq":116.3,"lat":41.16727778,"lon":-95.73672222,"rng_nm":130,"alt_fmsl":1300,"id":"OVR","desc":"OMAHA VORTAC"},
{"type":"SDME","hdg_t":331.3,"dist_nm":78.8,"freq":111.7,"lat":41.11722800,"lon":-95.90000300,"rng_nm":40,"alt_fmsl":1090,"id":"OFF","desc":"OFFUTT TACAN"},
{"type":"NDB","hdg_t":283.4,"dist_nm":79.8,"freq":263,"lat":40.26500000,"lon":-96.75708100,"rng_nm":25,"alt_fmsl":1250,"id":"HWB","desc":"SHAW NDB"},
{"type":"VOR","hdg_t":285,"dist_nm":80.2,"freq":110.6,"lat":40.30141667,"lon":-96.75463889,"rng_nm":25,"alt_fmsl":1304,"id":"BIE","desc":"BEATRICE VOR-DME"},
{"type":"NDB","hdg_t":335.6,"dist_nm":82.5,"freq":426,"lat":41.21958333,"lon":-95.81791667,"rng_nm":50,"alt_fmsl":0,"id":"EN","desc":"RIKKY NDB"},
{"type":"NDB","hdg_t":287,"dist_nm":83.7,"freq":248,"lat":40.36361100,"lon":-96.81294200,"rng_nm":25,"alt_fmsl":1352,"id":"BJU","desc":"BIG BLUE NDB"},
{"type":"NDB","hdg_t":0.6,"dist_nm":86.1,"freq":365,"lat":41.40397222,"lon":-95.04625000,"rng_nm":50,"alt_fmsl":0,"id":"AIO","desc":"ATLANTIC NDB"},
{"type":"NDB","hdg_t":327.3,"dist_nm":87.8,"freq":371,"lat":41.19486111,"lon":-96.11405556,"rng_nm":50,"alt_fmsl":0,"id":"MLE","desc":"MILLARD NDB"},
{"type":"NDB","hdg_t":235.4,"dist_nm":88.6,"freq":391,"lat":39.11744200,"lon":-96.62933600,"rng_nm":50,"alt_fmsl":1060,"id":"MQD","desc":"MC DOWELL CREEK NDB"},
{"type":"VOR","hdg_t":236.9,"dist_nm":89.1,"freq":110.2,"lat":39.14544444,"lon":-96.66872222,"rng_nm":25,"alt_fmsl":1044,"id":"MHK","desc":"MANHATTAN VOR-DME"},
{"type":"NDB","hdg_t":301.5,"dist_nm":90.7,"freq":385,"lat":40.74719444,"lon":-96.76241667,"rng_nm":50,"alt_fmsl":0,"id":"LN","desc":"POTTS NDB"},
{"type":"NDB","hdg_t":97,"dist_nm":91.2,"freq":383,"lat":39.76419444,"lon":-93.10908333,"rng_nm":50,"alt_fmsl":0,"id":"BZK","desc":"BROOKFIELD NDB"},
{"type":"NDB","hdg_t":262.9,"dist_nm":92,"freq":212,"lat":39.76169444,"lon":-97.04233333,"rng_nm":50,"alt_fmsl":0,"id":"DBX","desc":"MORRISON NDB"},
{"type":"NDB","hdg_t":334.4,"dist_nm":93.2,"freq":320,"lat":41.36677778,"lon":-95.95630556,"rng_nm":50,"alt_fmsl":0,"id":"OM","desc":"GERFI NDB"},
{"type":"NDB","hdg_t":336.5,"dist_nm":93.9,"freq":513,"lat":41.40175000,"lon":-95.89391667,"rng_nm":50,"alt_fmsl":0,"id":"PP","desc":"FLICK NDB"},
{"type":"NDB","hdg_t":295.3,"dist_nm":94,"freq":420,"lat":40.62411400,"lon":-96.92761100,"rng_nm":25,"alt_fmsl":1479,"id":"CEK","desc":"CRETE NDB"},
{"type":"VOR","hdg_t":307.3,"dist_nm":95.8,"freq":116.1,"lat":40.92380556,"lon":-96.74200000,"rng_nm":130,"alt_fmsl":1370,"id":"LNK","desc":"LINCOLN VORTAC"},
{"type":"NDB","hdg_t":278,"dist_nm":97.4,"freq":293,"lat":40.17666667,"lon":-97.16586111,"rng_nm":50,"alt_fmsl":0,"id":"FBY","desc":"FAIRBURY NDB"},
{"type":"NDB","hdg_t":352.7,"dist_nm":97.4,"freq":272,"lat":41.57897222,"lon":-95.34097222,"rng_nm":50,"alt_fmsl":0,"id":"HNR","desc":"HARLAN NDB"},
{"type":"NDB","hdg_t":235.4,"dist_nm":98,"freq":314,"lat":39.02600000,"lon":-96.79450000,"rng_nm":50,"alt_fmsl":0,"id":"CVY","desc":"CAVALRY NDB"}
]
}
