{"success":true,"source":"xp2csv.pl","last_updated":"2013/11/08 14:53:21 UTC"
,"icao":"6NC7","name":"Rattlesnake Ridge","lat":35.08737166,"lon":-79.9228325,"rwys":1,"ils":0,"index":1646400,"path":"w080n30/w080n35"
,"runways":[
{"len_m":791,"wid_m":24.38,"hdg":163,"surf":"Turf/grass","rwy1":"17","lat1":35.09079940,"lon1":-79.92403367,"rwy2":"35","lat2":35.08394392,"lon2":-79.92163133}
]
,"navaids":[
{"type":"NDB","hdg_t":244.3,"dist_nm":8.7,"freq":283,"lat":35.02398100,"lon":-80.08299700,"rng_nm":25,"alt_fmsl":302,"id":"AFP","desc":"ANSON CO NDB"},
{"type":"NDB","hdg_t":141.1,"dist_nm":18,"freq":375,"lat":34.85266667,"lon":-79.69366667,"rng_nm":50,"alt_fmsl":0,"id":"RCZ","desc":"ROSCOE NDB"},
{"type":"VOR","hdg_t":64.9,"dist_nm":18.1,"freq":111.8,"lat":35.21547222,"lon":-79.58794444,"rng_nm":40,"alt_fmsl":590,"id":"SDZ","desc":"SANDHILLS VORTAC"},
{"type":"NDB","hdg_t":172.2,"dist_nm":20.8,"freq":409,"lat":34.74183333,"lon":-79.86561111,"rng_nm":50,"alt_fmsl":0,"id":"CQW","desc":"CHERAW NDB"},
{"type":"NDB","hdg_t":99.2,"dist_nm":21.8,"freq":278,"lat":35.02794444,"lon":-79.48558333,"rng_nm":50,"alt_fmsl":0,"id":"HFF","desc":"MACKALL NDB"},
{"type":"NDB","hdg_t":341.9,"dist_nm":25.3,"freq":346,"lat":35.48916667,"lon":-80.08341667,"rng_nm":50,"alt_fmsl":0,"id":"VU","desc":"ALLER NDB"},
{"type":"NDB","hdg_t":225,"dist_nm":28.9,"freq":270,"lat":34.74497222,"lon":-80.33808333,"rng_nm":50,"alt_fmsl":0,"id":"PYG","desc":"PAGELAND NDB"},
{"type":"NDB","hdg_t":161.4,"dist_nm":29.5,"freq":230,"lat":34.62022222,"lon":-79.73319444,"rng_nm":50,"alt_fmsl":0,"id":"BES","desc":"BENNETTSVILLE NDB"},
{"type":"VOR","hdg_t":213.6,"dist_nm":31.4,"freq":108.2,"lat":34.65047222,"lon":-80.27491667,"rng_nm":40,"alt_fmsl":560,"id":"CTF","desc":"CHESTERFIELD VOR-DME"},
{"type":"NDB","hdg_t":131.7,"dist_nm":31.7,"freq":257,"lat":34.73316667,"lon":-79.44369444,"rng_nm":50,"alt_fmsl":0,"id":"ME","desc":"MAXTN NDB"},
{"type":"NDB","hdg_t":4.2,"dist_nm":37.7,"freq":266,"lat":35.71625000,"lon":-79.86530556,"rng_nm":50,"alt_fmsl":0,"id":"CQJ","desc":"CITY LAKE NDB"},
{"type":"NDB","hdg_t":177.3,"dist_nm":38.6,"freq":245,"lat":34.44325000,"lon":-79.88733333,"rng_nm":50,"alt_fmsl":0,"id":"UDG","desc":"DARLINGTON NDB"},
{"type":"NDB","hdg_t":258.4,"dist_nm":39.3,"freq":204,"lat":34.95294444,"lon":-80.70519444,"rng_nm":50,"alt_fmsl":0,"id":"TWL","desc":"WESLEY NDB"},
{"type":"NDB","hdg_t":193.4,"dist_nm":41.9,"freq":341,"lat":34.40658333,"lon":-80.11994444,"rng_nm":50,"alt_fmsl":0,"id":"HVS","desc":"HARTSVILLE NDB"},
{"type":"SDME","hdg_t":83.5,"dist_nm":44.7,"freq":113.8,"lat":35.16848600,"lon":-79.01966900,"rng_nm":40,"alt_fmsl":240,"id":"POB","desc":"POPE TACAN"},
{"type":"NDB","hdg_t":57.2,"dist_nm":45.6,"freq":406,"lat":35.49730556,"lon":-79.13991667,"rng_nm":50,"alt_fmsl":0,"id":"TT","desc":"LEECO NDB"},
{"type":"VOR","hdg_t":19.2,"dist_nm":45.9,"freq":113,"lat":35.81163889,"lon":-79.61261111,"rng_nm":40,"alt_fmsl":830,"id":"LIB","desc":"LIBERTY VORTAC"},
{"type":"NDB","hdg_t":29,"dist_nm":46.2,"freq":371,"lat":35.76152778,"lon":-79.46225000,"rng_nm":50,"alt_fmsl":0,"id":"TOX","desc":"SILER CITY NDB"},
{"type":"NDB","hdg_t":144.1,"dist_nm":46.9,"freq":274,"lat":34.45013889,"lon":-79.36883333,"rng_nm":50,"alt_fmsl":0,"id":"DLC","desc":"DILLON NDB"},
{"type":"NDB","hdg_t":324.4,"dist_nm":47.6,"freq":275,"lat":35.73311111,"lon":-80.48955556,"rng_nm":50,"alt_fmsl":0,"id":"RU","desc":"ROVDY (LOM/NDB) NDB"},
{"type":"NDB","hdg_t":79.7,"dist_nm":48.3,"freq":338,"lat":35.22683333,"lon":-78.95436111,"rng_nm":50,"alt_fmsl":0,"id":"POB","desc":"POPE NDB"},
{"type":"NDB","hdg_t":101.9,"dist_nm":49.5,"freq":367,"lat":34.91244444,"lon":-78.93963889,"rng_nm":50,"alt_fmsl":0,"id":"GR","desc":"DOONE NDB"},
{"type":"NDB","hdg_t":129.7,"dist_nm":50.5,"freq":384,"lat":34.54580556,"lon":-79.13850000,"rng_nm":50,"alt_fmsl":0,"id":"JB","desc":"JIGEL NDB"},
{"type":"VOR","hdg_t":277.2,"dist_nm":51,"freq":115,"lat":35.19027778,"lon":-80.95175000,"rng_nm":40,"alt_fmsl":732,"id":"CLT","desc":"CHARLOTTE VOR-DME"},
{"type":"NDB","hdg_t":244.9,"dist_nm":51.1,"freq":400,"lat":34.72269444,"lon":-80.85916667,"rng_nm":50,"alt_fmsl":0,"id":"LKR","desc":"LANCASTER NDB"},
{"type":"NDB","hdg_t":123.3,"dist_nm":51.1,"freq":359,"lat":34.61447222,"lon":-79.06091667,"rng_nm":50,"alt_fmsl":0,"id":"RSY","desc":"ROBESON NDB"},
{"type":"VOR","hdg_t":123.4,"dist_nm":51.4,"freq":110,"lat":34.61069444,"lon":-79.05594444,"rng_nm":25,"alt_fmsl":0,"id":"LBT","desc":"LUMBERTON VOR"},
{"type":"VOR","hdg_t":96.4,"dist_nm":51.9,"freq":108.8,"lat":34.98555556,"lon":-78.87505556,"rng_nm":40,"alt_fmsl":179,"id":"FAY","desc":"FAYETTEVILLE VOR-DME"},
{"type":"VOR","hdg_t":165.5,"dist_nm":52.8,"freq":115.2,"lat":34.23294444,"lon":-79.65711111,"rng_nm":130,"alt_fmsl":110,"id":"FLO","desc":"FLORENCE VORTAC"},
{"type":"NDB","hdg_t":86.4,"dist_nm":54.7,"freq":393,"lat":35.13905556,"lon":-78.81280556,"rng_nm":50,"alt_fmsl":0,"id":"FGP","desc":"FORT BRAGG NDB"},
{"type":"NDB","hdg_t":176.3,"dist_nm":54.8,"freq":335,"lat":34.17397222,"lon":-79.85250000,"rng_nm":50,"alt_fmsl":0,"id":"FL","desc":"ALCOT NDB"},
{"type":"NDB","hdg_t":17.1,"dist_nm":55.8,"freq":361,"lat":35.97811111,"lon":-79.58483333,"rng_nm":50,"alt_fmsl":0,"id":"HB","desc":"ALAMM NDB"},
{"type":"NDB","hdg_t":332.3,"dist_nm":55.9,"freq":354,"lat":35.91346900,"lon":-80.45616700,"rng_nm":25,"alt_fmsl":810,"id":"DVZ","desc":"DAVIE NDB"},
{"type":"VOR","hdg_t":357.4,"dist_nm":57.4,"freq":116.2,"lat":36.04569444,"lon":-79.97638889,"rng_nm":130,"alt_fmsl":879,"id":"GSO","desc":"GREENSBORO VORTAC"},
{"type":"NDB","hdg_t":213.4,"dist_nm":57.5,"freq":263,"lat":34.28355556,"lon":-80.56152778,"rng_nm":50,"alt_fmsl":0,"id":"CDN","desc":"CAMDEN NDB"},
{"type":"NDB","hdg_t":258.6,"dist_nm":58.3,"freq":227,"lat":34.89002778,"lon":-81.08091667,"rng_nm":50,"alt_fmsl":0,"id":"UZ","desc":"RALLY NDB"},
{"type":"NDB","hdg_t":348.6,"dist_nm":60.1,"freq":317,"lat":36.07091667,"lon":-80.16683333,"rng_nm":50,"alt_fmsl":0,"id":"IN","desc":"REENO NDB"},
{"type":"SDME","hdg_t":358.1,"dist_nm":60.5,"freq":109.7,"lat":36.09776389,"lon":-79.96214444,"rng_nm":18,"alt_fmsl":925,"id":"IIDB","desc":"KGSO 23R DME-ILS DME"},
{"type":"NDB","hdg_t":276.2,"dist_nm":61,"freq":260,"lat":35.19147222,"lon":-81.15786111,"rng_nm":50,"alt_fmsl":0,"id":"GHJ","desc":"STONIA NDB"},
{"type":"SDME","hdg_t":0.2,"dist_nm":61.3,"freq":111.9,"lat":36.11145556,"lon":-79.91745278,"rng_nm":18,"alt_fmsl":882,"id":"ILZY","desc":"KGSO 05R DME-ILS DME"},
{"type":"NDB","hdg_t":151.4,"dist_nm":61.4,"freq":388,"lat":34.18516667,"lon":-79.33311111,"rng_nm":50,"alt_fmsl":0,"id":"MAO","desc":"MARION NDB"},
{"type":"SDME","hdg_t":359.4,"dist_nm":61.7,"freq":109.55,"lat":36.11876111,"lon":-79.93550833,"rng_nm":18,"alt_fmsl":882,"id":"ILLG","desc":"KGSO 05L DME-ILS DME"},
{"type":"NDB","hdg_t":295.6,"dist_nm":63.1,"freq":432,"lat":35.53763889,"lon":-81.08647222,"rng_nm":50,"alt_fmsl":0,"id":"IZN","desc":"LINCOLNTON NDB"},
{"type":"NDB","hdg_t":70.9,"dist_nm":64.7,"freq":417,"lat":35.43300000,"lon":-78.67475000,"rng_nm":50,"alt_fmsl":0,"id":"HQT","desc":"HARNETT NDB"},
{"type":"NDB","hdg_t":355.1,"dist_nm":64.9,"freq":254,"lat":36.16697222,"lon":-80.03563889,"rng_nm":50,"alt_fmsl":0,"id":"GS","desc":"MARKY NDB"},
{"type":"NDB","hdg_t":254.3,"dist_nm":65.5,"freq":220,"lat":34.78575000,"lon":-81.20083333,"rng_nm":50,"alt_fmsl":0,"id":"DCM","desc":"CHESTER NDB"},
{"type":"NDB","hdg_t":198.3,"dist_nm":69.1,"freq":252,"lat":33.99080556,"lon":-80.36002778,"rng_nm":50,"alt_fmsl":0,"id":"SMS","desc":"SUMTER NDB"},
{"type":"NDB","hdg_t":306.6,"dist_nm":69.5,"freq":280,"lat":35.77455300,"lon":-81.06496400,"rng_nm":25,"alt_fmsl":964,"id":"VW","desc":"TEMKY NDB"},
{"type":"SDME","hdg_t":202.2,"dist_nm":71.7,"freq":110.1,"lat":33.97782500,"lon":-80.46622200,"rng_nm":40,"alt_fmsl":241,"id":"SSC","desc":"SHAW TACAN"},
{"type":"VOR","hdg_t":49.5,"dist_nm":73,"freq":117.2,"lat":35.87252778,"lon":-78.78333333,"rng_nm":130,"alt_fmsl":429,"id":"RDU","desc":"RALEIGH/DURHAM VORTAC"},
{"type":"NDB","hdg_t":173.9,"dist_nm":74.1,"freq":420,"lat":33.85600000,"lon":-79.76588889,"rng_nm":50,"alt_fmsl":0,"id":"CFY","desc":"EVANS NDB"},
{"type":"NDB","hdg_t":232.1,"dist_nm":74.8,"freq":414,"lat":34.31441667,"lon":-81.11266667,"rng_nm":50,"alt_fmsl":0,"id":"FDW","desc":"WINNSBORO NDB"},
{"type":"NDB","hdg_t":94.5,"dist_nm":77.1,"freq":412,"lat":34.97544444,"lon":-78.36305556,"rng_nm":50,"alt_fmsl":0,"id":"CTZ","desc":"CLINTON NDB"},
{"type":"NDB","hdg_t":115.2,"dist_nm":77.1,"freq":398,"lat":34.52886111,"lon":-78.51597222,"rng_nm":50,"alt_fmsl":0,"id":"TGQ","desc":"ELIZABETHTOWN NDB"},
{"type":"NDB","hdg_t":72,"dist_nm":77.1,"freq":263,"lat":35.47497222,"lon":-78.42522222,"rng_nm":50,"alt_fmsl":0,"id":"JN","desc":"JURLY NDB"},
{"type":"NDB","hdg_t":128.7,"dist_nm":77.2,"freq":227,"lat":34.27319444,"lon":-78.71197222,"rng_nm":50,"alt_fmsl":0,"id":"CPC","desc":"CAMP NDB"},
{"type":"NDB","hdg_t":49.1,"dist_nm":77.4,"freq":350,"lat":35.92722222,"lon":-78.72191667,"rng_nm":50,"alt_fmsl":0,"id":"LE","desc":"LEEVY NDB"},
{"type":"NDB","hdg_t":5.7,"dist_nm":77.9,"freq":423,"lat":36.38169444,"lon":-79.76277778,"rng_nm":50,"alt_fmsl":0,"id":"SIF","desc":"SLAMMER NDB"},
{"type":"NDB","hdg_t":302.1,"dist_nm":79.6,"freq":332,"lat":35.78652778,"lon":-81.30530556,"rng_nm":50,"alt_fmsl":0,"id":"HK","desc":"TAWBA NDB"},
{"type":"VOR","hdg_t":306.3,"dist_nm":79.7,"freq":110.8,"lat":35.86886111,"lon":-81.24052778,"rng_nm":40,"alt_fmsl":1880,"id":"BZM","desc":"BARRETTS MOUNTAIN VOR-DME"},
{"type":"NDB","hdg_t":31.1,"dist_nm":80.4,"freq":220,"lat":36.23327778,"lon":-79.06588889,"rng_nm":50,"alt_fmsl":0,"id":"HUR","desc":"PERSON(LOM/NDB) NDB"},
{"type":"NDB","hdg_t":212.4,"dist_nm":81.5,"freq":427,"lat":33.93572222,"lon":-80.79833333,"rng_nm":50,"alt_fmsl":0,"id":"MMT","desc":"MC ENTIRE NDB"},
{"type":"NDB","hdg_t":177.6,"dist_nm":82.1,"freq":404,"lat":33.71777778,"lon":-79.85500000,"rng_nm":50,"alt_fmsl":0,"id":"CKI","desc":"KINGSTREE NDB"},
{"type":"VOR","hdg_t":212.2,"dist_nm":82.2,"freq":113.2,"lat":33.92408333,"lon":-80.80233333,"rng_nm":40,"alt_fmsl":248,"id":"MMT","desc":"MC ENTIRE VORTAC"},
{"type":"NDB","hdg_t":277.3,"dist_nm":83,"freq":417,"lat":35.25266667,"lon":-81.59880556,"rng_nm":50,"alt_fmsl":0,"id":"SLP","desc":"FIRST RIVER NDB"},
{"type":"NDB","hdg_t":338.9,"dist_nm":83.1,"freq":223,"lat":36.38097222,"lon":-80.54019444,"rng_nm":50,"alt_fmsl":0,"id":"AZW","desc":"MT AIRY NDB"},
{"type":"NDB","hdg_t":332,"dist_nm":83.1,"freq":326,"lat":36.31005556,"lon":-80.72636111,"rng_nm":50,"alt_fmsl":0,"id":"ZEF","desc":"ZEPHYR NDB"},
{"type":"NDB","hdg_t":166.2,"dist_nm":83.7,"freq":236,"lat":33.72850000,"lon":-79.52505556,"rng_nm":50,"alt_fmsl":0,"id":"HEK","desc":"STUCKEY NDB"},
{"type":"NDB","hdg_t":317.2,"dist_nm":84.1,"freq":209,"lat":36.11286111,"lon":-81.09808333,"rng_nm":50,"alt_fmsl":0,"id":"UKF","desc":"WILKI NDB"},
{"type":"NDB","hdg_t":152.2,"dist_nm":85.3,"freq":370,"lat":33.82330556,"lon":-79.12822222,"rng_nm":50,"alt_fmsl":0,"id":"HYW","desc":"HORRY NDB"},
{"type":"NDB","hdg_t":254.6,"dist_nm":88.2,"freq":326,"lat":34.68402778,"lon":-81.64233333,"rng_nm":50,"alt_fmsl":0,"id":"UOT","desc":"UNION CO NDB"},
{"type":"NDB","hdg_t":0.1,"dist_nm":90,"freq":396,"lat":36.59008333,"lon":-79.91744444,"rng_nm":50,"alt_fmsl":0,"id":"UV","desc":"BALES NDB"},
{"type":"NDB","hdg_t":188.9,"dist_nm":90.9,"freq":381,"lat":33.58788889,"lon":-80.20613889,"rng_nm":50,"alt_fmsl":0,"id":"MNI","desc":"MANNING NDB"},
{"type":"VOR","hdg_t":217.6,"dist_nm":92.6,"freq":114.7,"lat":33.85725000,"lon":-81.05391667,"rng_nm":130,"alt_fmsl":400,"id":"CAE","desc":"COLUMBIA VORTAC"},
{"type":"VOR","hdg_t":17.6,"dist_nm":93.2,"freq":113.1,"lat":36.56886111,"lon":-79.33669444,"rng_nm":40,"alt_fmsl":0,"id":"DAN","desc":"DANVILLE VOR"},
{"type":"NDB","hdg_t":294,"dist_nm":93.5,"freq":391,"lat":35.71022222,"lon":-81.67136111,"rng_nm":50,"alt_fmsl":0,"id":"FIQ","desc":"FIDDLERS NDB"},
{"type":"NDB","hdg_t":224.6,"dist_nm":93.7,"freq":362,"lat":33.96716667,"lon":-81.24469444,"rng_nm":50,"alt_fmsl":0,"id":"CA","desc":"MURRY NDB"},
{"type":"NDB","hdg_t":137.9,"dist_nm":96.4,"freq":267,"lat":33.88525000,"lon":-78.62991667,"rng_nm":50,"alt_fmsl":0,"id":"CR","desc":"CALAB NDB"},
{"type":"NDB","hdg_t":241.7,"dist_nm":96.6,"freq":278,"lat":34.31152778,"lon":-81.63594444,"rng_nm":50,"alt_fmsl":0,"id":"EOE","desc":"ENOREE NDB"},
{"type":"NDB","hdg_t":40.8,"dist_nm":96.7,"freq":271,"lat":36.30122222,"lon":-78.61850000,"rng_nm":50,"alt_fmsl":0,"id":"HXO","desc":"HUNTSBORO NDB"},
{"type":"VOR","hdg_t":141.7,"dist_nm":96.7,"freq":117.6,"lat":33.81386111,"lon":-78.72452778,"rng_nm":40,"alt_fmsl":20,"id":"CRE","desc":"GRAND STRAND VORTAC"},
{"type":"SDME","hdg_t":80.6,"dist_nm":97,"freq":116.5,"lat":35.33502800,"lon":-77.97160600,"rng_nm":40,"alt_fmsl":82,"id":"GSB","desc":"SEYMOUR JOHNSON TACAN"},
{"type":"NDB","hdg_t":102.6,"dist_nm":97.2,"freq":379,"lat":34.71627778,"lon":-78.00358333,"rng_nm":50,"alt_fmsl":0,"id":"ACZ","desc":"PENDY NDB"},
{"type":"NDB","hdg_t":89.9,"dist_nm":98.6,"freq":332,"lat":35.07225000,"lon":-77.91886111,"rng_nm":50,"alt_fmsl":0,"id":"DKA","desc":"KENAN NDB"},
{"type":"VOR","hdg_t":268.7,"dist_nm":98.7,"freq":115.7,"lat":35.03363889,"lon":-81.92700000,"rng_nm":130,"alt_fmsl":935,"id":"SPA","desc":"SPARTANBURG VORTAC"},
{"type":"NDB","hdg_t":168.5,"dist_nm":99.9,"freq":255,"lat":33.45147222,"lon":-79.52725000,"rng_nm":50,"alt_fmsl":0,"id":"PHH","desc":"ANDREWS NDB"}
]
}
