{"success":true,"source":"xp2csv.pl","last_updated":"2013/11/08 14:53:21 UTC"
,"icao":"6NE7","name":"Lee Field","lat":40.24517022,"lon":-100.33300692,"rwys":1,"ils":0,"index":1302666,"path":"w110n40/w101n40"
,"runways":[
{"len_m":617,"wid_m":35.97,"hdg":83,"surf":"Transparent","rwy1":"09","lat1":40.24483728,"lon1":-100.33661138,"rwy2":"27","lat2":40.24550315,"lon2":-100.32940246}
]
,"navaids":[
{"type":"NDB","hdg_t":66.1,"dist_nm":8.7,"freq":389,"lat":40.30427778,"lon":-100.15772222,"rng_nm":50,"alt_fmsl":0,"id":"CSB","desc":"HARRY STRUNK NDB"},
{"type":"VOR","hdg_t":258.4,"dist_nm":12.2,"freq":115.3,"lat":40.20380556,"lon":-100.59422222,"rng_nm":130,"alt_fmsl":2571,"id":"MCK","desc":"MC COOK B NEL REG VOR-DME"},
{"type":"NDB","hdg_t":200.8,"dist_nm":26.6,"freq":341,"lat":39.82972222,"lon":-100.53763889,"rng_nm":50,"alt_fmsl":0,"id":"OIN","desc":"OBERLIN NDB"},
{"type":"VOR","hdg_t":295,"dist_nm":29.8,"freq":117.7,"lat":40.45405556,"lon":-100.92358333,"rng_nm":130,"alt_fmsl":3010,"id":"HCT","desc":"HAYES CENTER VORTAC"},
{"type":"NDB","hdg_t":138.7,"dist_nm":31,"freq":230,"lat":39.85527778,"lon":-99.89030556,"rng_nm":50,"alt_fmsl":0,"id":"NRN","desc":"NORTON NDB"},
{"type":"NDB","hdg_t":17.4,"dist_nm":39.4,"freq":353,"lat":40.87277778,"lon":-100.07261111,"rng_nm":50,"alt_fmsl":0,"id":"DWL","desc":"WILLOW NDB"},
{"type":"VOR","hdg_t":21.7,"dist_nm":40.3,"freq":109,"lat":40.87033333,"lon":-100.00375000,"rng_nm":25,"alt_fmsl":0,"id":"OZB","desc":"COZAD VOR"},
{"type":"NDB","hdg_t":233.6,"dist_nm":40.8,"freq":365,"lat":39.83863889,"lon":-101.04505556,"rng_nm":50,"alt_fmsl":0,"id":"ADT","desc":"ATWOOD NDB"},
{"type":"NDB","hdg_t":31.1,"dist_nm":42,"freq":326,"lat":40.84444444,"lon":-99.85622222,"rng_nm":50,"alt_fmsl":0,"id":"RRX","desc":"DARR NDB"},
{"type":"NDB","hdg_t":74.7,"dist_nm":47.1,"freq":396,"lat":40.44816667,"lon":-99.34080556,"rng_nm":50,"alt_fmsl":0,"id":"HDE","desc":"HOLDREGE NDB"},
{"type":"NDB","hdg_t":347.5,"dist_nm":50.5,"freq":416,"lat":41.06827778,"lon":-100.57255556,"rng_nm":50,"alt_fmsl":0,"id":"LB","desc":"PANBE NDB"},
{"type":"VOR","hdg_t":338.7,"dist_nm":51.7,"freq":117.4,"lat":41.04869444,"lon":-100.74711111,"rng_nm":40,"alt_fmsl":3069,"id":"LBF","desc":"NORTH PLATTE VORTAC"},
{"type":"NDB","hdg_t":217,"dist_nm":55,"freq":408,"lat":39.50986111,"lon":-101.04763889,"rng_nm":50,"alt_fmsl":0,"id":"JDM","desc":"WHEATFIELD NDB"},
{"type":"NDB","hdg_t":123.5,"dist_nm":58,"freq":368,"lat":39.70613889,"lon":-99.28830556,"rng_nm":50,"alt_fmsl":0,"id":"PHG","desc":"PHILLIPSBURG NDB"},
{"type":"VOR","hdg_t":175.1,"dist_nm":59.3,"freq":113.7,"lat":39.25875000,"lon":-100.22586111,"rng_nm":130,"alt_fmsl":2690,"id":"HLC","desc":"HILL CITY VORTAC"},
{"type":"NDB","hdg_t":285.4,"dist_nm":61.4,"freq":283,"lat":40.51155556,"lon":-101.62752778,"rng_nm":50,"alt_fmsl":0,"id":"IML","desc":"IMPERIAL NDB"},
{"type":"NDB","hdg_t":68.7,"dist_nm":64.1,"freq":422,"lat":40.62613889,"lon":-99.02563889,"rng_nm":50,"alt_fmsl":0,"id":"EA","desc":"ANOKE NDB"},
{"type":"VOR","hdg_t":64.2,"dist_nm":67.2,"freq":111.2,"lat":40.72558333,"lon":-99.00511111,"rng_nm":40,"alt_fmsl":0,"id":"EAR","desc":"KEARNEY VOR"},
{"type":"NDB","hdg_t":198.3,"dist_nm":71.4,"freq":380,"lat":39.11252778,"lon":-100.81530556,"rng_nm":50,"alt_fmsl":0,"id":"OEL","desc":"OAKLEY NDB"},
{"type":"NDB","hdg_t":245.2,"dist_nm":72.9,"freq":386,"lat":39.72694444,"lon":-101.76488889,"rng_nm":50,"alt_fmsl":0,"id":"SYF","desc":"SAINT FRANCIS NDB"},
{"type":"NDB","hdg_t":300.8,"dist_nm":74.1,"freq":359,"lat":40.87094444,"lon":-101.73044444,"rng_nm":50,"alt_fmsl":0,"id":"GGF","desc":"GRANT NDB"},
{"type":"NDB","hdg_t":23.7,"dist_nm":78,"freq":265,"lat":41.43408900,"lon":-99.63591900,"rng_nm":25,"alt_fmsl":2530,"id":"BBW","desc":"BROKEN BOW NDB"},
{"type":"VOR","hdg_t":21.3,"dist_nm":79.8,"freq":108.2,"lat":41.48397222,"lon":-99.68905556,"rng_nm":40,"alt_fmsl":2850,"id":"CUZ","desc":"CUSTER CO VOR-DME"},
{"type":"VOR","hdg_t":231.1,"dist_nm":81.1,"freq":115.1,"lat":39.38786111,"lon":-101.69230556,"rng_nm":130,"alt_fmsl":3650,"id":"GLD","desc":"GOODLAND VORTAC"},
{"type":"NDB","hdg_t":226.1,"dist_nm":81.7,"freq":414,"lat":39.29383333,"lon":-101.60030556,"rng_nm":50,"alt_fmsl":0,"id":"GL","desc":"SHUGR NDB"},
{"type":"VOR","hdg_t":308.9,"dist_nm":84.1,"freq":110.2,"lat":41.11911111,"lon":-101.77605556,"rng_nm":25,"alt_fmsl":3280,"id":"SAE","desc":"SEARLE VOR-DME"},
{"type":"NDB","hdg_t":72.1,"dist_nm":88.9,"freq":338,"lat":40.68625000,"lon":-98.47752778,"rng_nm":50,"alt_fmsl":0,"id":"PSS","desc":"PROSSER NDB"},
{"type":"VOR","hdg_t":75.5,"dist_nm":89.8,"freq":108.8,"lat":40.60452778,"lon":-98.42961111,"rng_nm":40,"alt_fmsl":1967,"id":"HSI","desc":"HASTINGS VOR-DME"},
{"type":"NDB","hdg_t":283.3,"dist_nm":91.5,"freq":404,"lat":40.58138100,"lon":-102.28130000,"rng_nm":25,"alt_fmsl":3717,"id":"HEQ","desc":"HEGINBOTHAM NDB"},
{"type":"VOR","hdg_t":149.3,"dist_nm":97,"freq":110.4,"lat":38.84766667,"lon":-99.27677778,"rng_nm":40,"alt_fmsl":1990,"id":"HYS","desc":"HAYS VORTAC"},
{"type":"VOR","hdg_t":104.7,"dist_nm":99,"freq":109.8,"lat":39.80638889,"lon":-98.26002778,"rng_nm":40,"alt_fmsl":1880,"id":"TKO","desc":"MANKATO VORTAC"},
{"type":"NDB","hdg_t":67.1,"dist_nm":99.6,"freq":380,"lat":40.87288889,"lon":-98.31472222,"rng_nm":50,"alt_fmsl":0,"id":"GR","desc":"SANCY NDB"}
]
}
