{"success":true,"source":"xp2csv.pl","last_updated":"2013/11/08 14:53:21 UTC"
,"icao":"6PA7","name":"Domin","lat":41.38341583,"lon":-75.51629639,"rwys":1,"ils":0,"index":1712345,"path":"w080n40/w076n41"
,"runways":[
{"len_m":548,"wid_m":30.48,"hdg":347,"surf":"Turf/grass","rwy1":"36","lat1":41.38100109,"lon1":-75.51561231,"rwy2":"18","lat2":41.38583057,"lon2":-75.51698047}
]
,"navaids":[
{"type":"VOR","hdg_t":15.3,"dist_nm":5.7,"freq":110.8,"lat":41.47577778,"lon":-75.48263889,"rng_nm":40,"alt_fmsl":2320,"id":"LHY","desc":"LAKE HENRY VORTAC"},
{"type":"VOR","hdg_t":229.7,"dist_nm":10.2,"freq":111.6,"lat":41.27280556,"lon":-75.68947222,"rng_nm":40,"alt_fmsl":2119,"id":"LVZ","desc":"WILKES BARRE VORTAC"},
{"type":"NDB","hdg_t":234,"dist_nm":17.6,"freq":410,"lat":41.21038889,"lon":-75.83183333,"rng_nm":50,"alt_fmsl":0,"id":"CYE","desc":"CRYSTAL LAKE NDB"},
{"type":"VOR","hdg_t":228.6,"dist_nm":36.9,"freq":109.4,"lat":40.97508333,"lon":-76.12580556,"rng_nm":25,"alt_fmsl":0,"id":"HZL","desc":"HAZLETON VOR"},
{"type":"NDB","hdg_t":51.8,"dist_nm":37.4,"freq":359,"lat":41.76666667,"lon":-74.86072222,"rng_nm":50,"alt_fmsl":0,"id":"MS","desc":"MONGA NDB"},
{"type":"VOR","hdg_t":128.1,"dist_nm":37.4,"freq":109.6,"lat":40.99583333,"lon":-74.86902778,"rng_nm":40,"alt_fmsl":920,"id":"STW","desc":"STILLWATER VOR-DME"},
{"type":"VOR","hdg_t":175.9,"dist_nm":39.4,"freq":117.5,"lat":40.72669444,"lon":-75.45475000,"rng_nm":40,"alt_fmsl":680,"id":"FJC","desc":"ALLENTOWN VORTAC"},
{"type":"VOR","hdg_t":12.3,"dist_nm":41.7,"freq":116.8,"lat":42.06305556,"lon":-75.31627778,"rng_nm":130,"alt_fmsl":2070,"id":"HNK","desc":"HANCOCK VOR-DME"},
{"type":"VOR","hdg_t":87.5,"dist_nm":41.7,"freq":116.1,"lat":41.40969444,"lon":-74.59158333,"rng_nm":130,"alt_fmsl":1300,"id":"HUO","desc":"HUGUENOT VOR-DME"},
{"type":"NDB","hdg_t":338.8,"dist_nm":46.4,"freq":332,"lat":42.10475000,"lon":-75.89119444,"rng_nm":50,"alt_fmsl":0,"id":"BG","desc":"SMITE NDB"},
{"type":"VOR","hdg_t":137.8,"dist_nm":47.1,"freq":114.2,"lat":40.79844444,"lon":-74.82183333,"rng_nm":40,"alt_fmsl":1050,"id":"BWZ","desc":"BROADWAY VOR-DME"},
{"type":"VOR","hdg_t":112.8,"dist_nm":48.1,"freq":115.7,"lat":41.06755556,"lon":-74.53830556,"rng_nm":130,"alt_fmsl":1400,"id":"SAX","desc":"SPARTA VORTAC"},
{"type":"VOR","hdg_t":189,"dist_nm":48.7,"freq":110.2,"lat":40.58102778,"lon":-75.68402778,"rng_nm":40,"alt_fmsl":742,"id":"ETX","desc":"EAST TEXAS VOR-DME"},
{"type":"VOR","hdg_t":27.5,"dist_nm":53.8,"freq":112.1,"lat":42.17827778,"lon":-74.95694444,"rng_nm":40,"alt_fmsl":2560,"id":"DNY","desc":"DELANCEY VOR-DME"},
{"type":"VOR","hdg_t":329.2,"dist_nm":54.1,"freq":112.2,"lat":42.15750000,"lon":-76.13647222,"rng_nm":40,"alt_fmsl":1583,"id":"CFB","desc":"BINGHAMTON VORTAC"},
{"type":"NDB","hdg_t":263.6,"dist_nm":54.3,"freq":344,"lat":41.27708333,"lon":-76.71013889,"rng_nm":50,"alt_fmsl":0,"id":"PIX","desc":"PICTURE ROCKS NDB"},
{"type":"NDB","hdg_t":85.7,"dist_nm":55.4,"freq":353,"lat":41.44488889,"lon":-74.29113889,"rng_nm":50,"alt_fmsl":0,"id":"MG","desc":"OTIMS NDB"},
{"type":"VOR","hdg_t":247.8,"dist_nm":56.3,"freq":109.2,"lat":41.02338889,"lon":-76.66530556,"rng_nm":40,"alt_fmsl":1000,"id":"MIP","desc":"MILTON VORTAC"},
{"type":"VOR","hdg_t":267.7,"dist_nm":56.9,"freq":114.4,"lat":41.33855556,"lon":-76.77486111,"rng_nm":40,"alt_fmsl":2098,"id":"FQM","desc":"WILLIAMSPORT VOR-DME"},
{"type":"NDB","hdg_t":170.1,"dist_nm":58.3,"freq":208,"lat":40.42472222,"lon":-75.29777778,"rng_nm":50,"alt_fmsl":0,"id":"UKT","desc":"QUAKERTOWN NDB"},
{"type":"NDB","hdg_t":83.5,"dist_nm":58.4,"freq":335,"lat":41.48608333,"lon":-74.22791667,"rng_nm":50,"alt_fmsl":0,"id":"SW","desc":"NEELY NDB"},
{"type":"VOR","hdg_t":143.4,"dist_nm":59.5,"freq":112.9,"lat":40.58305556,"lon":-74.74180556,"rng_nm":40,"alt_fmsl":190,"id":"SBJ","desc":"SOLBERG VOR-DME"},
{"type":"VOR","hdg_t":170,"dist_nm":60.4,"freq":108.85,"lat":40.39090800,"lon":-75.28876700,"rng_nm":25,"alt_fmsl":552,"id":"CKZ","desc":"PENNRIDGE VOR-DME"},
{"type":"NDB","hdg_t":127.6,"dist_nm":62.5,"freq":254,"lat":40.74077778,"lon":-74.42988889,"rng_nm":50,"alt_fmsl":0,"id":"CAT","desc":"CHATHAM NDB"},
{"type":"NDB","hdg_t":163.9,"dist_nm":65.3,"freq":237,"lat":40.33566100,"lon":-75.12211700,"rng_nm":5,"alt_fmsl":394,"id":"DYL","desc":"DOYLESTOWN NDB"},
{"type":"VOR","hdg_t":10.7,"dist_nm":66.1,"freq":112.6,"lat":42.46636111,"lon":-75.23930556,"rng_nm":40,"alt_fmsl":2027,"id":"RKA","desc":"ROCKDALE VOR-DME"},
{"type":"NDB","hdg_t":82,"dist_nm":66.9,"freq":261,"lat":41.52800000,"lon":-74.04497222,"rng_nm":50,"alt_fmsl":0,"id":"SKU","desc":"STANWYCK NDB"},
{"type":"VOR","hdg_t":181.6,"dist_nm":69.6,"freq":116.5,"lat":40.22227778,"lon":-75.56027778,"rng_nm":40,"alt_fmsl":290,"id":"PTW","desc":"POTTSTOWN VORTAC"},
{"type":"VOR","hdg_t":225,"dist_nm":70,"freq":114.6,"lat":40.55338889,"lon":-76.59938889,"rng_nm":40,"alt_fmsl":1750,"id":"RAV","desc":"RAVINE VORTAC"},
{"type":"NDB","hdg_t":80.1,"dist_nm":70.9,"freq":403,"lat":41.57512800,"lon":-73.96484400,"rng_nm":25,"alt_fmsl":9,"id":"PO","desc":"MEIER NDB"},
{"type":"VOR","hdg_t":240.6,"dist_nm":71.5,"freq":110.4,"lat":40.79083333,"lon":-76.88402778,"rng_nm":40,"alt_fmsl":620,"id":"SEG","desc":"SELINSGROVE VORTAC"},
{"type":"NDB","hdg_t":118.4,"dist_nm":71.7,"freq":214,"lat":40.80444444,"lon":-74.13250000,"rng_nm":50,"alt_fmsl":0,"id":"TE","desc":"TORBY NDB"},
{"type":"VOR","hdg_t":157.5,"dist_nm":73.2,"freq":108.2,"lat":40.25333333,"lon":-74.90761111,"rng_nm":40,"alt_fmsl":300,"id":"ARD","desc":"YARDLEY VOR-DME"},
{"type":"VOR","hdg_t":115.4,"dist_nm":73.3,"freq":108.4,"lat":40.84872222,"lon":-74.06225000,"rng_nm":25,"alt_fmsl":10,"id":"TEB","desc":"TETERBORO VOR-DME"},
{"type":"NDB","hdg_t":328.9,"dist_nm":73.4,"freq":266,"lat":42.43005556,"lon":-76.36797222,"rng_nm":50,"alt_fmsl":0,"id":"IT","desc":"VRNAH NDB"},
{"type":"NDB","hdg_t":220,"dist_nm":73.8,"freq":328,"lat":40.43591667,"lon":-76.55302778,"rng_nm":50,"alt_fmsl":0,"id":"BZJ","desc":"BELLGROVE NDB"},
{"type":"NDB","hdg_t":127.8,"dist_nm":75.1,"freq":373,"lat":40.60733300,"lon":-74.21797200,"rng_nm":25,"alt_fmsl":10,"id":"EZ","desc":"LIZAH NDB"},
{"type":"NDB","hdg_t":128.5,"dist_nm":75.2,"freq":241,"lat":40.59366700,"lon":-74.23000000,"rng_nm":25,"alt_fmsl":0,"id":"EW","desc":"CHESA NDB"},
{"type":"NDB","hdg_t":157.9,"dist_nm":75.6,"freq":369,"lat":40.21263889,"lon":-74.89916667,"rng_nm":50,"alt_fmsl":0,"id":"TT","desc":"TRENN NDB"},
{"type":"NDB","hdg_t":18,"dist_nm":75.8,"freq":279,"lat":42.58466667,"lon":-74.98636111,"rng_nm":50,"alt_fmsl":0,"id":"OZ","desc":"KRING NDB"},
{"type":"NDB","hdg_t":312.9,"dist_nm":75.9,"freq":245,"lat":42.23866667,"lon":-76.76394444,"rng_nm":50,"alt_fmsl":0,"id":"ALP","desc":"ALPINE NDB"},
{"type":"NDB","hdg_t":171.9,"dist_nm":76.1,"freq":275,"lat":40.12594444,"lon":-75.28516667,"rng_nm":50,"alt_fmsl":0,"id":"ING","desc":"AMBLER NDB"},
{"type":"VOR","hdg_t":76.9,"dist_nm":78.1,"freq":117.6,"lat":41.66544444,"lon":-73.82222222,"rng_nm":40,"alt_fmsl":580,"id":"IGN","desc":"KINGSTON VOR-DME"},
{"type":"VOR","hdg_t":327.9,"dist_nm":78.9,"freq":111.8,"lat":42.49502778,"lon":-76.46000000,"rng_nm":40,"alt_fmsl":1102,"id":"ITH","desc":"ITHACA VOR-DME"},
{"type":"VOR","hdg_t":302.6,"dist_nm":80,"freq":109.65,"lat":42.09416667,"lon":-77.02480556,"rng_nm":40,"alt_fmsl":1632,"id":"ULW","desc":"ELMIRA VOR-DME"},
{"type":"VOR","hdg_t":163.3,"dist_nm":81.3,"freq":112,"lat":40.08205556,"lon":-75.00955556,"rng_nm":25,"alt_fmsl":0,"id":"PNE","desc":"NORTH PHILADELPHI VOR"},
{"type":"VOR","hdg_t":115.1,"dist_nm":82.9,"freq":113.1,"lat":40.78372222,"lon":-73.86861111,"rng_nm":40,"alt_fmsl":9,"id":"LGA","desc":"LA GUARDIA VOR-DME"},
{"type":"VOR","hdg_t":205.2,"dist_nm":83.5,"freq":117.3,"lat":40.11997222,"lon":-76.29130556,"rng_nm":40,"alt_fmsl":399,"id":"LRP","desc":"LANCASTER VORTAC"},
{"type":"NDB","hdg_t":111.1,"dist_nm":83.6,"freq":385,"lat":40.86638889,"lon":-73.80355556,"rng_nm":50,"alt_fmsl":0,"id":"UR","desc":"ORCHY NDB"},
{"type":"VOR","hdg_t":146.3,"dist_nm":84.7,"freq":113.8,"lat":40.20238889,"lon":-74.49502778,"rng_nm":130,"alt_fmsl":248,"id":"RBV","desc":"ROBBINSVILLE VORTAC"},
{"type":"VOR","hdg_t":350.7,"dist_nm":85.4,"freq":117.8,"lat":42.78894444,"lon":-75.82675000,"rng_nm":40,"alt_fmsl":2040,"id":"GGT","desc":"GEORGETOWN VORTAC"},
{"type":"VOR","hdg_t":121.5,"dist_nm":86.9,"freq":112.3,"lat":40.61247222,"lon":-73.89444444,"rng_nm":25,"alt_fmsl":10,"id":"CRI","desc":"CANARSIE VOR-DME"},
{"type":"VOR","hdg_t":93.4,"dist_nm":87.6,"freq":116.6,"lat":41.28005556,"lon":-73.58136111,"rng_nm":40,"alt_fmsl":690,"id":"CMK","desc":"CARMEL VOR-DME"},
{"type":"VOR","hdg_t":282.9,"dist_nm":87.7,"freq":108.6,"lat":41.69525000,"lon":-77.41991667,"rng_nm":40,"alt_fmsl":1985,"id":"SFK","desc":"STONYFORK VOR-DME"},
{"type":"VOR","hdg_t":184.6,"dist_nm":88.1,"freq":113.2,"lat":39.91805556,"lon":-75.67080556,"rng_nm":40,"alt_fmsl":473,"id":"MXE","desc":"MODENA VORTAC"},
{"type":"NDB","hdg_t":122.8,"dist_nm":88.8,"freq":414,"lat":40.56813889,"lon":-73.88297222,"rng_nm":50,"alt_fmsl":0,"id":"OGY","desc":"BRIDGE NDB"},
{"type":"VOR","hdg_t":135.6,"dist_nm":89.1,"freq":115.4,"lat":40.31163889,"lon":-74.15972222,"rng_nm":40,"alt_fmsl":129,"id":"COL","desc":"COLTS NECK VOR-DME"},
{"type":"VOR","hdg_t":74.3,"dist_nm":89.3,"freq":114.3,"lat":41.76975000,"lon":-73.60055556,"rng_nm":40,"alt_fmsl":1250,"id":"PWL","desc":"PAWLING VOR-DME"},
{"type":"NDB","hdg_t":167.6,"dist_nm":90.9,"freq":222,"lat":39.90123100,"lon":-75.09486400,"rng_nm":25,"alt_fmsl":0,"id":"PD","desc":"SPEEZ NDB"},
{"type":"VOR","hdg_t":119,"dist_nm":91.1,"freq":115.9,"lat":40.63288889,"lon":-73.77138889,"rng_nm":130,"alt_fmsl":11,"id":"JFK","desc":"KENNEDY VOR-DME"},
{"type":"NDB","hdg_t":120.9,"dist_nm":91.4,"freq":373,"lat":40.58698600,"lon":-73.79965000,"rng_nm":25,"alt_fmsl":0,"id":"JF","desc":"CONDA NDB"},
{"type":"VOR","hdg_t":152.6,"dist_nm":92.4,"freq":110.6,"lat":40.00947222,"lon":-74.59650000,"rng_nm":40,"alt_fmsl":119,"id":"GXU","desc":"MC GUIRE VORTAC"},
{"type":"NDB","hdg_t":223.2,"dist_nm":92.8,"freq":204,"lat":40.24638889,"lon":-76.90063889,"rng_nm":50,"alt_fmsl":0,"id":"MD","desc":"ENOLA NDB"},
{"type":"NDB","hdg_t":56.4,"dist_nm":95.8,"freq":272,"lat":42.25311111,"lon":-73.72341667,"rng_nm":50,"alt_fmsl":0,"id":"PFH","desc":"PHILMONT NDB"},
{"type":"VOR","hdg_t":228,"dist_nm":95.9,"freq":112.5,"lat":40.30225000,"lon":-77.06955556,"rng_nm":40,"alt_fmsl":1301,"id":"HAR","desc":"HARRISBURG VORTAC"},
{"type":"NDB","hdg_t":145.7,"dist_nm":96.6,"freq":396,"lat":40.04486111,"lon":-74.33547222,"rng_nm":50,"alt_fmsl":0,"id":"NEL","desc":"LAKEHURST NDB"},
{"type":"SDME","hdg_t":146.2,"dist_nm":96.6,"freq":111.8,"lat":40.03696100,"lon":-74.35313700,"rng_nm":25,"alt_fmsl":144,"id":"NEL","desc":"LAKEHURST TACAN"},
{"type":"NDB","hdg_t":110.8,"dist_nm":99.1,"freq":407,"lat":40.77652778,"lon":-73.48241667,"rng_nm":50,"alt_fmsl":0,"id":"FR","desc":"FRIKK NDB"},
{"type":"VOR","hdg_t":8.9,"dist_nm":99.7,"freq":111.2,"lat":43.02652778,"lon":-75.16452778,"rng_nm":40,"alt_fmsl":1420,"id":"UCA","desc":"UTICA VORTAC"}
]
}
