{"success":true,"source":"xp2csv.pl","last_updated":"2013/11/08 14:53:21 UTC"
,"icao":"6T1","name":"Norman & White","lat":26.36145777,"lon":-98.15250945,"rwys":1,"ils":0,"index":1334547,"path":"w100n20/w099n26"
,"runways":[
{"len_m":1222,"wid_m":91.44,"hdg":96,"surf":"Turf/grass","rwy1":"09","lat1":26.36212634,"lon1":-98.15858646,"rwy2":"27","lat2":26.36078920,"lon2":-98.14643244}
]
,"navaids":[
{"type":"NDB","hdg_t":232.9,"dist_nm":10.6,"freq":330,"lat":26.25386111,"lon":-98.31038889,"rng_nm":50,"alt_fmsl":0,"id":"MF","desc":"MISSI NDB"},
{"type":"VOR","hdg_t":203,"dist_nm":12.1,"freq":117.2,"lat":26.17388889,"lon":-98.24077778,"rng_nm":130,"alt_fmsl":100,"id":"MFE","desc":"MC ALLEN VOR-DME"},
{"type":"VOR","hdg_t":191.5,"dist_nm":21.4,"freq":112.4,"lat":26.01063889,"lon":-98.23186111,"rng_nm":130,"alt_fmsl":139,"id":"REX","desc":"REYNOSA VOR-DME"},
{"type":"NDB","hdg_t":97,"dist_nm":26.9,"freq":338,"lat":26.30516667,"lon":-97.65736111,"rng_nm":50,"alt_fmsl":0,"id":"HR","desc":"SEBAS NDB"},
{"type":"VOR","hdg_t":106.2,"dist_nm":28.1,"freq":109.2,"lat":26.22922222,"lon":-97.65227778,"rng_nm":40,"alt_fmsl":32,"id":"HRL","desc":"HARLINGEN VOR-DME"},
{"type":"NDB","hdg_t":313.1,"dist_nm":31.3,"freq":260,"lat":26.71894444,"lon":-98.57725000,"rng_nm":50,"alt_fmsl":0,"id":"SNE","desc":"SANTA ELENA NDB"},
{"type":"NDB","hdg_t":122.9,"dist_nm":41.4,"freq":393,"lat":25.98361111,"lon":-97.50908333,"rng_nm":50,"alt_fmsl":0,"id":"BR","desc":"DEPOO NDB"},
{"type":"VOR","hdg_t":135.9,"dist_nm":49,"freq":114.3,"lat":25.77083333,"lon":-97.52391667,"rng_nm":130,"alt_fmsl":25,"id":"MAM","desc":"MATAMOROS VOR-DME"},
{"type":"VOR","hdg_t":121.7,"dist_nm":49.4,"freq":116.3,"lat":25.92408333,"lon":-97.37527778,"rng_nm":130,"alt_fmsl":10,"id":"BRO","desc":"BROWNSVILLE VORTAC"},
{"type":"NDB","hdg_t":1.8,"dist_nm":50.6,"freq":353,"lat":27.20694444,"lon":-98.12177778,"rng_nm":50,"alt_fmsl":0,"id":"BKS","desc":"BROOKS CO NDB"},
{"type":"NDB","hdg_t":332,"dist_nm":67.3,"freq":266,"lat":27.35391667,"lon":-98.74413889,"rng_nm":50,"alt_fmsl":0,"id":"HBV","desc":"HEBBRONVILLE NDB"},
{"type":"SDME","hdg_t":15.2,"dist_nm":70.5,"freq":117.8,"lat":27.49930300,"lon":-97.80552500,"rng_nm":130,"alt_fmsl":46,"id":"NQI","desc":"KINGSVILLE TACAN"},
{"type":"NDB","hdg_t":2.7,"dist_nm":74.5,"freq":347,"lat":27.60633333,"lon":-98.08586111,"rng_nm":50,"alt_fmsl":0,"id":"TKB","desc":"KLEBERG CO NDB"},
{"type":"VOR","hdg_t":4.8,"dist_nm":82.7,"freq":114.5,"lat":27.73980556,"lon":-98.02133333,"rng_nm":40,"alt_fmsl":0,"id":"ALI","desc":"ALICE VOR"},
{"type":"VOR","hdg_t":29.9,"dist_nm":91.6,"freq":114,"lat":27.68627778,"lon":-97.29475000,"rng_nm":40,"alt_fmsl":17,"id":"NGP","desc":"TRUAX VORTAC"},
{"type":"VOR","hdg_t":314.8,"dist_nm":95.2,"freq":117.4,"lat":27.47872222,"lon":-99.41766667,"rng_nm":130,"alt_fmsl":580,"id":"LRD","desc":"LAREDO VORTAC"},
{"type":"VOR","hdg_t":310.7,"dist_nm":99.4,"freq":112.6,"lat":27.43938889,"lon":-99.56458333,"rng_nm":130,"alt_fmsl":484,"id":"NLD","desc":"NEWLA VOR-DME"},
{"type":"VOR","hdg_t":22.1,"dist_nm":99.7,"freq":115.5,"lat":27.90377778,"lon":-97.44488889,"rng_nm":130,"alt_fmsl":60,"id":"CRP","desc":"CORPUS CHRISTI VORTAC"}
]
}
