{"success":true,"source":"xp2csv.pl","last_updated":"2013/11/08 14:53:21 UTC"
,"icao":"6TS3","name":"Dale Acres","lat":32.15987194,"lon":-96.94194334,"rwys":1,"ils":0,"index":1367688,"path":"w100n30/w097n32"
,"runways":[
{"len_m":547,"wid_m":12.19,"hdg":186,"surf":"Turf/grass","rwy1":"18","lat1":32.16232710,"lon1":-96.94163852,"rwy2":"36","lat2":32.15741678,"lon2":-96.94224816}
]
,"navaids":[
{"type":"NDB","hdg_t":195.5,"dist_nm":26,"freq":378,"lat":31.74091667,"lon":-97.07816667,"rng_nm":50,"alt_fmsl":0,"id":"CN","desc":"LEROI NDB"},
{"type":"NDB","hdg_t":102.1,"dist_nm":26.8,"freq":344,"lat":32.06413889,"lon":-96.42630556,"rng_nm":50,"alt_fmsl":0,"id":"CGQ","desc":"POWELL NDB"},
{"type":"NDB","hdg_t":105.6,"dist_nm":28.9,"freq":396,"lat":32.02841667,"lon":-96.39461111,"rng_nm":50,"alt_fmsl":0,"id":"CRS","desc":"CORSICANA NDB"},
{"type":"NDB","hdg_t":6.6,"dist_nm":31.1,"freq":287,"lat":32.67693600,"lon":-96.87106700,"rng_nm":50,"alt_fmsl":670,"id":"RBD","desc":"REDBIRD NDB"},
{"type":"VOR","hdg_t":209.3,"dist_nm":34.1,"freq":115.3,"lat":31.66233333,"lon":-97.26902778,"rng_nm":130,"alt_fmsl":510,"id":"ACT","desc":"WACO VORTAC"},
{"type":"NDB","hdg_t":34.2,"dist_nm":36.8,"freq":388,"lat":32.66808333,"lon":-96.53225000,"rng_nm":50,"alt_fmsl":0,"id":"JUG","desc":"JECCA NDB"},
{"type":"VOR","hdg_t":87.4,"dist_nm":36.8,"freq":114.8,"lat":32.18572222,"lon":-96.21811111,"rng_nm":40,"alt_fmsl":400,"id":"CQY","desc":"CEDAR CREEK VORTAC"},
{"type":"NDB","hdg_t":12.8,"dist_nm":37.7,"freq":275,"lat":32.77477200,"lon":-96.77527500,"rng_nm":25,"alt_fmsl":0,"id":"LV","desc":"CONIS NDB"},
{"type":"NDB","hdg_t":144.7,"dist_nm":38.1,"freq":329,"lat":31.63961111,"lon":-96.51219444,"rng_nm":50,"alt_fmsl":0,"id":"LXY","desc":"MEXIA NDB"},
{"type":"NDB","hdg_t":353.5,"dist_nm":38.7,"freq":233,"lat":32.80215100,"lon":-97.02746200,"rng_nm":50,"alt_fmsl":500,"id":"PK","desc":"ISSUE NDB"},
{"type":"NDB","hdg_t":189.4,"dist_nm":39.8,"freq":400,"lat":31.50380556,"lon":-97.06958333,"rng_nm":50,"alt_fmsl":0,"id":"ROB","desc":"ROBINSON NDB"},
{"type":"VOR","hdg_t":149.7,"dist_nm":40,"freq":108.8,"lat":31.58147222,"lon":-96.54908333,"rng_nm":40,"alt_fmsl":512,"id":"GNL","desc":"GROESBECK VOR-DME"},
{"type":"NDB","hdg_t":114.9,"dist_nm":41.9,"freq":418,"lat":31.86266667,"lon":-96.19747222,"rng_nm":50,"alt_fmsl":0,"id":"PYF","desc":"PYRAMID NDB"},
{"type":"VOR","hdg_t":353.3,"dist_nm":42.7,"freq":113.1,"lat":32.86916667,"lon":-97.04050000,"rng_nm":130,"alt_fmsl":540,"id":"TTT","desc":"MAVERICK VOR-DME"},
{"type":"VOR","hdg_t":2.5,"dist_nm":43.7,"freq":116.2,"lat":32.89030556,"lon":-96.90397222,"rng_nm":130,"alt_fmsl":450,"id":"CVE","desc":"COWBOY VOR-DME"},
{"type":"NDB","hdg_t":28.2,"dist_nm":44.1,"freq":248,"lat":32.80936111,"lon":-96.52911111,"rng_nm":50,"alt_fmsl":0,"id":"PQF","desc":"MESQUITE NDB"},
{"type":"SDME","hdg_t":325.5,"dist_nm":44.4,"freq":108.7,"lat":32.77151700,"lon":-97.43946400,"rng_nm":40,"alt_fmsl":663,"id":"NFW","desc":"FORT WORTH NAS JRB TACAN"},
{"type":"VOR","hdg_t":344.6,"dist_nm":45.3,"freq":115.7,"lat":32.88944444,"lon":-97.17941667,"rng_nm":130,"alt_fmsl":637,"id":"FUZ","desc":"RANGER VORTAC"},
{"type":"VOR","hdg_t":270.2,"dist_nm":47.6,"freq":115,"lat":32.15958333,"lon":-97.87769444,"rng_nm":40,"alt_fmsl":1300,"id":"JEN","desc":"GLEN ROSE VORTAC"},
{"type":"NDB","hdg_t":333.6,"dist_nm":49,"freq":365,"lat":32.89297222,"lon":-97.37352778,"rng_nm":50,"alt_fmsl":0,"id":"FT","desc":"MUFIN NDB"},
{"type":"NDB","hdg_t":354.9,"dist_nm":50.2,"freq":219,"lat":32.99578900,"lon":-97.02959200,"rng_nm":50,"alt_fmsl":547,"id":"FL","desc":"JIFFY NDB"},
{"type":"NDB","hdg_t":44.1,"dist_nm":50.2,"freq":260,"lat":32.76013889,"lon":-96.24913889,"rng_nm":50,"alt_fmsl":0,"id":"AVZ","desc":"TRAVIS NDB"},
{"type":"NDB","hdg_t":96.3,"dist_nm":50.4,"freq":215,"lat":32.06350000,"lon":-95.95763889,"rng_nm":50,"alt_fmsl":0,"id":"CSZ","desc":"CROSSROADS NDB"},
{"type":"NDB","hdg_t":99.7,"dist_nm":51.2,"freq":335,"lat":32.01071700,"lon":-95.95274200,"rng_nm":25,"alt_fmsl":383,"id":"LIQ","desc":"LOCHRIDGE RANCH NDB"},
{"type":"NDB","hdg_t":89.7,"dist_nm":56.6,"freq":269,"lat":32.15933333,"lon":-95.83025000,"rng_nm":50,"alt_fmsl":0,"id":"AHX","desc":"ATHENS NDB"},
{"type":"VOR","hdg_t":203.6,"dist_nm":62,"freq":110.4,"lat":31.20933333,"lon":-97.42497222,"rng_nm":40,"alt_fmsl":710,"id":"TPL","desc":"TEMPLE VOR-DME"},
{"type":"NDB","hdg_t":33.4,"dist_nm":63.3,"freq":316,"lat":33.04038889,"lon":-96.24858333,"rng_nm":50,"alt_fmsl":0,"id":"MII","desc":"CADDO MILLS NDB"},
{"type":"VOR","hdg_t":302.6,"dist_nm":63.4,"freq":117.7,"lat":32.72619444,"lon":-97.99744444,"rng_nm":130,"alt_fmsl":900,"id":"MQP","desc":"MILLSAP VORTAC"},
{"type":"NDB","hdg_t":41.7,"dist_nm":66.2,"freq":428,"lat":32.98186111,"lon":-96.06730556,"rng_nm":50,"alt_fmsl":0,"id":"SYW","desc":"CASH NDB"},
{"type":"NDB","hdg_t":109.4,"dist_nm":67.2,"freq":375,"lat":31.78016667,"lon":-95.70105556,"rng_nm":50,"alt_fmsl":0,"id":"PSN","desc":"PALESTINE NDB"},
{"type":"NDB","hdg_t":303.7,"dist_nm":67.8,"freq":266,"lat":32.78512800,"lon":-98.05726700,"rng_nm":25,"alt_fmsl":972,"id":"MWL","desc":"MINERAL WELLS NDB"},
{"type":"NDB","hdg_t":15,"dist_nm":68.3,"freq":421,"lat":33.26166667,"lon":-96.58880556,"rng_nm":50,"alt_fmsl":585,"id":"EF","desc":"FLUET NDB"},
{"type":"NDB","hdg_t":349.2,"dist_nm":68.4,"freq":257,"lat":33.28308333,"lon":-97.19625000,"rng_nm":50,"alt_fmsl":0,"id":"DT","desc":"PINCK NDB"},
{"type":"NDB","hdg_t":242.7,"dist_nm":69.5,"freq":251,"lat":31.62150000,"lon":-98.14891667,"rng_nm":50,"alt_fmsl":0,"id":"MNZ","desc":"HAMILTON NDB"},
{"type":"SDME","hdg_t":39.1,"dist_nm":70.2,"freq":109.6,"lat":33.06626900,"lon":-96.06139700,"rng_nm":25,"alt_fmsl":540,"id":"MJF","desc":"ARVILLA TACAN"},
{"type":"VOR","hdg_t":93.6,"dist_nm":72,"freq":111.4,"lat":32.07461111,"lon":-95.53077778,"rng_nm":40,"alt_fmsl":305,"id":"FZT","desc":"FRANKSTON VOR-DME"},
{"type":"NDB","hdg_t":212.7,"dist_nm":73.2,"freq":347,"lat":31.12905556,"lon":-97.71141667,"rng_nm":50,"alt_fmsl":0,"id":"HLR","desc":"HOOD NDB"},
{"type":"NDB","hdg_t":36.4,"dist_nm":74.4,"freq":201,"lat":33.15627778,"lon":-96.06361111,"rng_nm":50,"alt_fmsl":0,"id":"GV","desc":"MAJOR NDB"},
{"type":"NDB","hdg_t":219.1,"dist_nm":76.3,"freq":323,"lat":31.16783333,"lon":-97.87822222,"rng_nm":50,"alt_fmsl":0,"id":"GR","desc":"STARN NDB"},
{"type":"NDB","hdg_t":78,"dist_nm":76.4,"freq":320,"lat":32.41575000,"lon":-95.46961111,"rng_nm":50,"alt_fmsl":0,"id":"TY","desc":"INDOO NDB"},
{"type":"NDB","hdg_t":210.2,"dist_nm":78.5,"freq":278,"lat":31.02411111,"lon":-97.70813889,"rng_nm":50,"alt_fmsl":0,"id":"IL","desc":"IRESH NDB"},
{"type":"VOR","hdg_t":81,"dist_nm":79.1,"freq":114.2,"lat":32.35586111,"lon":-95.40347222,"rng_nm":25,"alt_fmsl":540,"id":"TYR","desc":"TYLER VOR-DME"},
{"type":"VOR","hdg_t":140.9,"dist_nm":79.5,"freq":110.8,"lat":31.12402778,"lon":-95.96794444,"rng_nm":40,"alt_fmsl":350,"id":"LOA","desc":"LEONA VORTAC"},
{"type":"VOR","hdg_t":213.7,"dist_nm":80.9,"freq":111.8,"lat":31.03288889,"lon":-97.81377778,"rng_nm":25,"alt_fmsl":980,"id":"GRK","desc":"GRAY VOR-DME"},
{"type":"VOR","hdg_t":226.8,"dist_nm":84.7,"freq":112.5,"lat":31.18550000,"lon":-98.14186111,"rng_nm":130,"alt_fmsl":1290,"id":"AGJ","desc":"GOOCH SPRINGS VORTAC"},
{"type":"NDB","hdg_t":302.8,"dist_nm":88.3,"freq":280,"lat":32.95150000,"lon":-98.41311111,"rng_nm":50,"alt_fmsl":0,"id":"GZV","desc":"BRAZOS RIVER NDB"},
{"type":"NDB","hdg_t":100.6,"dist_nm":89.7,"freq":263,"lat":31.87016667,"lon":-95.21550000,"rng_nm":50,"alt_fmsl":0,"id":"JSO","desc":"CHEROKEE CO NDB"},
{"type":"NDB","hdg_t":47.9,"dist_nm":89.8,"freq":338,"lat":33.15844700,"lon":-95.61828900,"rng_nm":25,"alt_fmsl":483,"id":"BHG","desc":"BRASHEAR NDB"},
{"type":"VOR","hdg_t":23.2,"dist_nm":89.9,"freq":114.6,"lat":33.53750000,"lon":-96.23408333,"rng_nm":130,"alt_fmsl":700,"id":"BYP","desc":"BONHAM VORTAC"},
{"type":"VOR","hdg_t":61.2,"dist_nm":90.8,"freq":114,"lat":32.88041667,"lon":-95.36675000,"rng_nm":40,"alt_fmsl":520,"id":"UIM","desc":"QUITMAN VOR-DME"},
{"type":"VOR","hdg_t":331.8,"dist_nm":93.6,"freq":112.4,"lat":33.53588889,"lon":-97.82127778,"rng_nm":130,"alt_fmsl":1100,"id":"UKW","desc":"BOWIE VORTAC"},
{"type":"NDB","hdg_t":352.1,"dist_nm":94.2,"freq":330,"lat":33.71866667,"lon":-97.19866667,"rng_nm":50,"alt_fmsl":0,"id":"GLE","desc":"GAINESVILLE NDB"},
{"type":"VOR","hdg_t":48.3,"dist_nm":94.2,"freq":109,"lat":33.19855556,"lon":-95.54258333,"rng_nm":40,"alt_fmsl":508,"id":"SLR","desc":"SULPHUR SPRINGS VOR-DME"},
{"type":"NDB","hdg_t":203.4,"dist_nm":96.1,"freq":332,"lat":30.68438889,"lon":-97.67991667,"rng_nm":50,"alt_fmsl":0,"id":"GUO","desc":"GEORGETOWN NDB"},
{"type":"NDB","hdg_t":279,"dist_nm":96.1,"freq":410,"lat":32.39847222,"lon":-98.81033333,"rng_nm":50,"alt_fmsl":0,"id":"OIP","desc":"OLD RIP NDB"},
{"type":"NDB","hdg_t":334.3,"dist_nm":96.2,"freq":356,"lat":33.60538889,"lon":-97.77336111,"rng_nm":50,"alt_fmsl":0,"id":"GMZ","desc":"GRINDSTONE MTN NDB"},
{"type":"NDB","hdg_t":74.1,"dist_nm":96.3,"freq":404,"lat":32.58541667,"lon":-95.11300000,"rng_nm":50,"alt_fmsl":0,"id":"ABG","desc":"AMBASSADOR NDB"},
{"type":"VOR","hdg_t":163.8,"dist_nm":96.8,"freq":113.3,"lat":30.60500000,"lon":-96.42069444,"rng_nm":40,"alt_fmsl":275,"id":"CLL","desc":"COLLEGE STATION VORTAC"},
{"type":"NDB","hdg_t":307.8,"dist_nm":99.1,"freq":371,"lat":33.16586111,"lon":-98.49661111,"rng_nm":50,"alt_fmsl":0,"id":"GHX","desc":"GRAHAM NDB"}
]
}
