{"success":true,"source":"xp2csv.pl","last_updated":"2013/11/08 14:53:21 UTC"
,"icao":"6U4","name":"Ox Bow Ranch","lat":46.97910916,"lon":-112.00499945,"rwys":1,"ils":0,"index":1106491,"path":"w120n40/w113n46"
,"runways":[
{"len_m":1466,"wid_m":22.86,"hdg":126,"surf":"Turf/grass","rwy1":"11","lat1":46.98307100,"lon1":-112.01270546,"rwy2":"29","lat2":46.97514732,"lon2":-111.99729344}
]
,"navaids":[
{"type":"VOR","hdg_t":174.5,"dist_nm":22.4,"freq":117.7,"lat":46.60683333,"lon":-111.95347222,"rng_nm":130,"alt_fmsl":3823,"id":"HLN","desc":"HELENA VORTAC"},
{"type":"NDB","hdg_t":172.8,"dist_nm":22.5,"freq":335,"lat":46.60666667,"lon":-111.93716667,"rng_nm":50,"alt_fmsl":0,"id":"CVP","desc":"CAPITOL NDB"},
{"type":"NDB","hdg_t":157.4,"dist_nm":26.6,"freq":386,"lat":46.56888889,"lon":-111.75805556,"rng_nm":50,"alt_fmsl":0,"id":"HAU","desc":"HAUSER NDB"},
{"type":"NDB","hdg_t":47.8,"dist_nm":34.7,"freq":371,"lat":47.36588889,"lon":-111.37286111,"rng_nm":50,"alt_fmsl":0,"id":"ITU","desc":"TRULY NDB"},
{"type":"VOR","hdg_t":40.4,"dist_nm":37.2,"freq":115.1,"lat":47.44997222,"lon":-111.41216667,"rng_nm":130,"alt_fmsl":3672,"id":"GTF","desc":"GREAT FALLS VORTAC"},
{"type":"SDME","hdg_t":46.5,"dist_nm":46,"freq":115.8,"lat":47.50406100,"lon":-111.18205600,"rng_nm":40,"alt_fmsl":3501,"id":"GFA","desc":"MALMSTROM TACAN"},
{"type":"NDB","hdg_t":352.4,"dist_nm":51,"freq":269,"lat":47.82247222,"lon":-112.17102778,"rng_nm":50,"alt_fmsl":0,"id":"CII","desc":"CHOTEAU NDB"},
{"type":"VOR","hdg_t":247.5,"dist_nm":52.8,"freq":117.1,"lat":46.63609700,"lon":-113.18659400,"rng_nm":40,"alt_fmsl":4150,"id":"DRU","desc":"DRUMMOND VOR"},
{"type":"VOR","hdg_t":208.6,"dist_nm":64.6,"freq":111.6,"lat":46.03200000,"lon":-112.74752778,"rng_nm":40,"alt_fmsl":5780,"id":"CPN","desc":"COPPERTOWN VOR-DME"},
{"type":"VOR","hdg_t":185.8,"dist_nm":67.4,"freq":113.7,"lat":45.86180556,"lon":-112.16961111,"rng_nm":130,"alt_fmsl":4652,"id":"HIA","desc":"WHITEHALL VOR-DME"},
{"type":"NDB","hdg_t":2.8,"dist_nm":72.5,"freq":293,"lat":48.18561111,"lon":-111.91413889,"rng_nm":50,"alt_fmsl":0,"id":"CRD","desc":"CONRAD NDB"},
{"type":"NDB","hdg_t":155.5,"dist_nm":72.8,"freq":266,"lat":45.87180556,"lon":-111.28572222,"rng_nm":50,"alt_fmsl":0,"id":"BZ","desc":"MANNI NDB"},
{"type":"VOR","hdg_t":153.4,"dist_nm":79.9,"freq":112.4,"lat":45.78388889,"lon":-111.15544444,"rng_nm":130,"alt_fmsl":4430,"id":"BZN","desc":"BOZEMAN VOR-DME"},
{"type":"VOR","hdg_t":267.8,"dist_nm":85.5,"freq":112.8,"lat":46.90797222,"lon":-114.08363889,"rng_nm":40,"alt_fmsl":3202,"id":"MSO","desc":"MISSOULA VOR-DME"},
{"type":"NDB","hdg_t":257.9,"dist_nm":92.2,"freq":275,"lat":46.63609700,"lon":-114.18789400,"rng_nm":50,"alt_fmsl":2936,"id":"PLS","desc":"POLSON NDB"},
{"type":"NDB","hdg_t":3.4,"dist_nm":93.9,"freq":347,"lat":48.54097222,"lon":-111.86241667,"rng_nm":50,"alt_fmsl":0,"id":"SBX","desc":"SHELBY NDB"},
{"type":"NDB","hdg_t":109.2,"dist_nm":95.4,"freq":242,"lat":46.43494444,"lon":-109.83241667,"rng_nm":50,"alt_fmsl":0,"id":"HWQ","desc":"HARLOWTON NDB"},
{"type":"VOR","hdg_t":351.9,"dist_nm":96.1,"freq":114.4,"lat":48.56491667,"lon":-112.34325000,"rng_nm":40,"alt_fmsl":3780,"id":"CTB","desc":"CUT BANK VORTAC"},
{"type":"NDB","hdg_t":274.9,"dist_nm":98.3,"freq":521,"lat":47.09436111,"lon":-114.39677778,"rng_nm":50,"alt_fmsl":0,"id":"INE","desc":"KONNA NDB"},
{"type":"VOR","hdg_t":86.5,"dist_nm":98.5,"freq":112,"lat":47.05297222,"lon":-109.60613889,"rng_nm":130,"alt_fmsl":4133,"id":"LWT","desc":"LEWISTOWN VOR-DME"}
]
}
