{"success":true,"source":"xp2csv.pl","last_updated":"2013/11/08 14:53:21 UTC"
,"icao":"6U6","name":"Hogeland","lat":48.85889444,"lon":-108.65931278,"rwys":2,"ils":0,"index":1172145,"path":"w110n40/w109n48"
,"runways":[
{"len_m":960,"wid_m":18.29,"hdg":86,"surf":"Turf/grass","rwy1":"07","lat1":48.85859404,"lon1":-108.66584248,"rwy2":"25","lat2":48.85919484,"lon2":-108.65278308},
{"len_m":375,"wid_m":15.24,"hdg":175,"surf":"Turf/grass","rwy1":"16","lat1":48.86057726,"lon1":-108.65949164,"rwy2":"34","lat2":48.85721162,"lon2":-108.65913392}
]
,"navaids":[
{"type":"NDB","hdg_t":134.6,"dist_nm":41.6,"freq":272,"lat":48.36886111,"lon":-107.91730556,"rng_nm":50,"alt_fmsl":0,"id":"MLK","desc":"MALTA NDB"},
{"type":"NDB","hdg_t":245.7,"dist_nm":45,"freq":389,"lat":48.54541400,"lon":-109.69036700,"rng_nm":25,"alt_fmsl":2547,"id":"LDS","desc":"LEEDS NDB"},
{"type":"VOR","hdg_t":247,"dist_nm":48.1,"freq":111.8,"lat":48.54047222,"lon":-109.77000000,"rng_nm":40,"alt_fmsl":2583,"id":"HVR","desc":"HAVRE VOR-DME"},
{"type":"NDB","hdg_t":332.9,"dist_nm":70.2,"freq":238,"lat":49.89694400,"lon":-109.48361100,"rng_nm":25,"alt_fmsl":2517,"id":"K5","desc":"MAPLE CREEK NDB"},
{"type":"VOR","hdg_t":114.7,"dist_nm":89.8,"freq":113.9,"lat":48.21530556,"lon":-106.62541667,"rng_nm":130,"alt_fmsl":2283,"id":"GGW","desc":"GLASGOW VOR-DME"},
{"type":"NDB","hdg_t":114.9,"dist_nm":90,"freq":339,"lat":48.20788889,"lon":-106.62616667,"rng_nm":50,"alt_fmsl":0,"id":"MKR","desc":"MILK RIVER NDB"},
{"type":"VOR","hdg_t":23.2,"dist_nm":94.2,"freq":117.4,"lat":50.29705556,"lon":-107.69088889,"rng_nm":130,"alt_fmsl":2668,"id":"YYN","desc":"SWIFT CURRENT VOR-DME"},
{"type":"NDB","hdg_t":258,"dist_nm":94.6,"freq":323,"lat":48.50805556,"lon":-110.98083333,"rng_nm":50,"alt_fmsl":0,"id":"LTY","desc":"CHESTER NDB"},
{"type":"VOR","hdg_t":308.9,"dist_nm":107.4,"freq":116.5,"lat":49.96475000,"lon":-110.81444444,"rng_nm":130,"alt_fmsl":2474,"id":"YXH","desc":"MEDICINE HAT VOR-DME"},
{"type":"NDB","hdg_t":310.4,"dist_nm":108.7,"freq":332,"lat":50.01305556,"lon":-110.79916667,"rng_nm":50,"alt_fmsl":0,"id":"XH","desc":"MEDICINE HAT NDB"}
]
}
