{"success":true,"source":"xp2csv.pl","last_updated":"2013/11/08 14:53:21 UTC"
,"icao":"6Y0","name":"Moorestown Airpark","lat":44.46251194,"lon":-84.99587445,"rwys":2,"ils":0,"index":1565080,"path":"w090n40/w085n44"
,"runways":[
{"len_m":852,"wid_m":30.48,"hdg":25,"surf":"Turf/grass","rwy1":"03","lat1":44.45903653,"lon1":-84.99814514,"rwy2":"21","lat2":44.46598735,"lon2":-84.99360376},
{"len_m":794,"wid_m":30.48,"hdg":85,"surf":"Turf/grass","rwy1":"09","lat1":44.46220139,"lon1":-85.00084787,"rwy2":"27","lat2":44.46282249,"lon2":-84.99090103}
]
,"navaids":[
{"type":"VOR","hdg_t":113.5,"dist_nm":15.5,"freq":111.6,"lat":44.35888889,"lon":-84.66572222,"rng_nm":25,"alt_fmsl":1145,"id":"HTL","desc":"HOUGHTON LAKE VOR-DME"},
{"type":"VOR","hdg_t":40.9,"dist_nm":17.4,"freq":109.8,"lat":44.68163889,"lon":-84.72894444,"rng_nm":25,"alt_fmsl":0,"id":"CGG","desc":"GRAYLING VOR"},
{"type":"NDB","hdg_t":22.5,"dist_nm":18.6,"freq":359,"lat":44.74991667,"lon":-84.82827778,"rng_nm":50,"alt_fmsl":0,"id":"GYG","desc":"GRAYLING NDB"},
{"type":"NDB","hdg_t":311.4,"dist_nm":24.7,"freq":365,"lat":44.73450000,"lon":-85.42927778,"rng_nm":50,"alt_fmsl":0,"id":"TV","desc":"GWENN NDB"},
{"type":"VOR","hdg_t":297.6,"dist_nm":26.7,"freq":114.6,"lat":44.66791667,"lon":-85.55002778,"rng_nm":130,"alt_fmsl":912,"id":"TVC","desc":"TRAVERSE CITY VORTAC"},
{"type":"NDB","hdg_t":240.5,"dist_nm":27.3,"freq":336,"lat":44.23708333,"lon":-85.54736111,"rng_nm":50,"alt_fmsl":0,"id":"MA","desc":"WEXOR NDB"},
{"type":"NDB","hdg_t":338.3,"dist_nm":28.2,"freq":251,"lat":44.89938889,"lon":-85.23966667,"rng_nm":50,"alt_fmsl":0,"id":"CXK","desc":"CLAM LAKE NDB"},
{"type":"NDB","hdg_t":13.5,"dist_nm":34,"freq":375,"lat":45.01455556,"lon":-84.80797222,"rng_nm":50,"alt_fmsl":0,"id":"GL","desc":"BANGU NDB"},
{"type":"VOR","hdg_t":20.5,"dist_nm":35.2,"freq":109.2,"lat":45.01250000,"lon":-84.70427778,"rng_nm":40,"alt_fmsl":1318,"id":"GLR","desc":"GAYLORD VOR-DME"},
{"type":"NDB","hdg_t":142.5,"dist_nm":37.1,"freq":209,"lat":43.97019444,"lon":-84.47516667,"rng_nm":50,"alt_fmsl":0,"id":"GDW","desc":"WIGGINS NDB"},
{"type":"VOR","hdg_t":110.3,"dist_nm":37.3,"freq":113.2,"lat":44.24291667,"lon":-84.18377778,"rng_nm":25,"alt_fmsl":884,"id":"BXZ","desc":"PEACH LAKE VOR-DME"},
{"type":"NDB","hdg_t":107.7,"dist_nm":41.3,"freq":236,"lat":44.24863100,"lon":-84.08388600,"rng_nm":25,"alt_fmsl":800,"id":"BHW","desc":"HARDWOOD NDB"},
{"type":"NDB","hdg_t":4.2,"dist_nm":42.3,"freq":263,"lat":45.16670000,"lon":-84.92192200,"rng_nm":25,"alt_fmsl":707,"id":"BFA","desc":"BOYNE FALLS NDB"},
{"type":"NDB","hdg_t":257.2,"dist_nm":50.6,"freq":254,"lat":44.27075000,"lon":-86.14286111,"rng_nm":50,"alt_fmsl":0,"id":"MB","desc":"JEPOT NDB"},
{"type":"VOR","hdg_t":167.3,"dist_nm":51.6,"freq":110.6,"lat":43.62283333,"lon":-84.73727778,"rng_nm":40,"alt_fmsl":752,"id":"MOP","desc":"MOUNT PLEASANT VOR-DME"},
{"type":"NDB","hdg_t":347,"dist_nm":51.7,"freq":392,"lat":45.30180556,"lon":-85.27002778,"rng_nm":50,"alt_fmsl":0,"id":"CVX","desc":"CHARLEVOIX NDB"},
{"type":"VOR","hdg_t":258.4,"dist_nm":55.3,"freq":111.4,"lat":44.27063889,"lon":-86.25405556,"rng_nm":40,"alt_fmsl":620,"id":"MBL","desc":"MANISTEE VOR-DME"},
{"type":"VOR","hdg_t":210.6,"dist_nm":61.7,"freq":117.6,"lat":43.57486111,"lon":-85.71616667,"rng_nm":40,"alt_fmsl":920,"id":"HIC","desc":"WHITE CLOUD VOR-DME"},
{"type":"NDB","hdg_t":244.3,"dist_nm":67.9,"freq":341,"lat":43.96316667,"lon":-86.40950000,"rng_nm":50,"alt_fmsl":0,"id":"LDM","desc":"LUDINGTON NDB"},
{"type":"NDB","hdg_t":63.5,"dist_nm":68.3,"freq":206,"lat":44.96077778,"lon":-83.56008333,"rng_nm":50,"alt_fmsl":0,"id":"AP","desc":"FELPS NDB"},
{"type":"VOR","hdg_t":144.2,"dist_nm":68.5,"freq":112.9,"lat":43.53166667,"lon":-84.07730556,"rng_nm":40,"alt_fmsl":663,"id":"MBS","desc":"SAGINAW VOR-DME"},
{"type":"VOR","hdg_t":90.1,"dist_nm":68.8,"freq":116.1,"lat":44.44913889,"lon":-83.39427778,"rng_nm":130,"alt_fmsl":625,"id":"ASP","desc":"AU SABLE VOR-DME"},
{"type":"NDB","hdg_t":149.2,"dist_nm":69.6,"freq":257,"lat":43.46150000,"lon":-84.17983333,"rng_nm":50,"alt_fmsl":0,"id":"MB","desc":"OLSTE NDB"},
{"type":"VOR","hdg_t":11.2,"dist_nm":71.5,"freq":111.8,"lat":45.63063889,"lon":-84.66411111,"rng_nm":40,"alt_fmsl":840,"id":"PLN","desc":"PELLSTON VORTAC"},
{"type":"VOR","hdg_t":58.3,"dist_nm":71.8,"freq":108.8,"lat":45.08277778,"lon":-83.55700000,"rng_nm":40,"alt_fmsl":677,"id":"APN","desc":"ALPENA VORTAC"},
{"type":"NDB","hdg_t":41.1,"dist_nm":75.5,"freq":215,"lat":45.40425000,"lon":-83.81844444,"rng_nm":50,"alt_fmsl":0,"id":"PZQ","desc":"ROGERS CITY NDB"},
{"type":"NDB","hdg_t":342.2,"dist_nm":77.6,"freq":382,"lat":45.69333333,"lon":-85.55863889,"rng_nm":50,"alt_fmsl":0,"id":"SJX","desc":"ST JAMES NDB"},
{"type":"VOR","hdg_t":210.6,"dist_nm":89.8,"freq":115.2,"lat":43.16925000,"lon":-86.03938889,"rng_nm":40,"alt_fmsl":659,"id":"MKG","desc":"MUSKEGON VORTAC"},
{"type":"NDB","hdg_t":212.7,"dist_nm":95.2,"freq":219,"lat":43.12113889,"lon":-86.16858333,"rng_nm":50,"alt_fmsl":0,"id":"MK","desc":"MUSKO NDB"},
{"type":"NDB","hdg_t":190.1,"dist_nm":95.4,"freq":263,"lat":42.89563889,"lon":-85.37858333,"rng_nm":50,"alt_fmsl":0,"id":"GR","desc":"KNOBS NDB"},
{"type":"VOR","hdg_t":114.3,"dist_nm":96,"freq":108.2,"lat":43.78366667,"lon":-82.98319444,"rng_nm":25,"alt_fmsl":766,"id":"BAX","desc":"BAD AXE VOR-DME"}
]
}
