{"success":true,"source":"xp2csv.pl","last_updated":"2013/11/08 14:53:21 UTC"
,"icao":"70S","name":"Mead Flying Service","lat":47.78718667,"lon":-117.35818278,"rwys":1,"ils":0,"index":1024626,"path":"w120n40/w118n47"
,"runways":[
{"len_m":756,"wid_m":9.14,"hdg":179,"surf":"Asphalt","rwy1":"16","lat1":47.79058722,"lon1":-117.35821667,"rwy2":"34","lat2":47.78378612,"lon2":-117.35814888}
]
,"navaids":[
{"type":"NDB","hdg_t":209.4,"dist_nm":7.5,"freq":388,"lat":47.67700000,"lon":-117.45019444,"rng_nm":50,"alt_fmsl":0,"id":"CRK","desc":"CANYON NDB"},
{"type":"NDB","hdg_t":345.7,"dist_nm":11.1,"freq":365,"lat":47.96775000,"lon":-117.42633333,"rng_nm":50,"alt_fmsl":0,"id":"DPY","desc":"DEER PARK NDB"},
{"type":"NDB","hdg_t":99.2,"dist_nm":16.2,"freq":347,"lat":47.74286111,"lon":-116.96100000,"rng_nm":50,"alt_fmsl":0,"id":"LEN","desc":"POST FALLS NDB"},
{"type":"SDME","hdg_t":229.4,"dist_nm":16.2,"freq":111.4,"lat":47.61069400,"lon":-117.66230300,"rng_nm":40,"alt_fmsl":2460,"id":"SKA","desc":"FAIRCHILD TACAN"},
{"type":"VOR","hdg_t":219.3,"dist_nm":17.2,"freq":115.5,"lat":47.56494444,"lon":-117.62688889,"rng_nm":130,"alt_fmsl":2756,"id":"GEG","desc":"SPOKANE VORTAC"},
{"type":"VOR","hdg_t":91.9,"dist_nm":21.7,"freq":108.8,"lat":47.77369444,"lon":-116.82058333,"rng_nm":25,"alt_fmsl":2320,"id":"COE","desc":"COEUR D'ALENE VOR-DME"},
{"type":"NDB","hdg_t":46.3,"dist_nm":44,"freq":264,"lat":48.29063889,"lon":-116.56322222,"rng_nm":50,"alt_fmsl":0,"id":"SZT","desc":"SANDPOE NDB"},
{"type":"NDB","hdg_t":357.7,"dist_nm":55.4,"freq":379,"lat":48.71019444,"lon":-117.41358333,"rng_nm":50,"alt_fmsl":0,"id":"ION","desc":"IONE NDB"},
{"type":"VOR","hdg_t":175.2,"dist_nm":67,"freq":109,"lat":46.67430556,"lon":-117.22350000,"rng_nm":40,"alt_fmsl":2720,"id":"PUW","desc":"PULLMAN VOR-DME"},
{"type":"VOR","hdg_t":105.2,"dist_nm":72.2,"freq":117.8,"lat":47.45691667,"lon":-115.64605556,"rng_nm":130,"alt_fmsl":6100,"id":"MLP","desc":"MULLAN PASS VOR-DME"},
{"type":"NDB","hdg_t":66.8,"dist_nm":81.1,"freq":414,"lat":48.30444444,"lon":-115.49527778,"rng_nm":50,"alt_fmsl":0,"id":"LYI","desc":"LIBBY NDB"},
{"type":"NDB","hdg_t":330.4,"dist_nm":85.2,"freq":250,"lat":49.01750000,"lon":-118.42361111,"rng_nm":50,"alt_fmsl":0,"id":"2J","desc":"GRAND FORKS NDB"},
{"type":"VOR","hdg_t":166.4,"dist_nm":86.7,"freq":108.2,"lat":46.38155556,"lon":-116.86950000,"rng_nm":40,"alt_fmsl":1723,"id":"MQG","desc":"NEZ PERCE VOR-DME"},
{"type":"VOR","hdg_t":247.2,"dist_nm":86.8,"freq":115,"lat":47.21086111,"lon":-119.31680556,"rng_nm":130,"alt_fmsl":1194,"id":"MWH","desc":"MOSES LAKE VOR-DME"},
{"type":"VOR","hdg_t":254.4,"dist_nm":87.4,"freq":112.6,"lat":47.37791667,"lon":-119.42400000,"rng_nm":130,"alt_fmsl":1250,"id":"EPH","desc":"EPHRATA VORTAC"},
{"type":"NDB","hdg_t":243.3,"dist_nm":87.8,"freq":408,"lat":47.11572222,"lon":-119.27450000,"rng_nm":50,"alt_fmsl":0,"id":"MW","desc":"PELLY NDB"},
{"type":"NDB","hdg_t":352.9,"dist_nm":88.8,"freq":206,"lat":49.25625000,"lon":-117.63486111,"rng_nm":50,"alt_fmsl":0,"id":"EF","desc":"CHAMPION NDB"},
{"type":"SDME","hdg_t":352.2,"dist_nm":88.8,"freq":110.1,"lat":49.25222200,"lon":-117.66277800,"rng_nm":25,"alt_fmsl":1695,"id":"XCG","desc":"CASTLEGAR DME"},
{"type":"NDB","hdg_t":353.2,"dist_nm":93,"freq":269,"lat":49.32527800,"lon":-117.63500000,"rng_nm":25,"alt_fmsl":0,"id":"YK","desc":"BRILLIANT NDB"},
{"type":"NDB","hdg_t":295.5,"dist_nm":95.5,"freq":219,"lat":48.45338889,"lon":-119.51700000,"rng_nm":50,"alt_fmsl":0,"id":"OMK","desc":"OMAK NDB"}
]
}
