{"success":true,"source":"xp2csv.pl","last_updated":"2013/11/08 14:53:21 UTC"
,"icao":"70VA","name":"Burnt Chimney","lat":37.07541833,"lon":-79.827255,"rwys":1,"ils":0,"index":1646528,"path":"w080n30/w080n37"
,"runways":[
{"len_m":549,"wid_m":15.24,"hdg":54,"surf":"Turf/grass","rwy1":"06","lat1":37.07396727,"lon1":-79.82975826,"rwy2":"24","lat2":37.07686939,"lon2":-79.82475174}
]
,"navaids":[
{"type":"NDB","hdg_t":341.3,"dist_nm":8.1,"freq":277,"lat":37.20405556,"lon":-79.88163889,"rng_nm":50,"alt_fmsl":0,"id":"VIT","desc":"VINTN NDB"},
{"type":"VOR","hdg_t":334,"dist_nm":16.5,"freq":114.9,"lat":37.32419444,"lon":-79.97897222,"rng_nm":25,"alt_fmsl":0,"id":"ODR","desc":"WOODRUM VOR"},
{"type":"NDB","hdg_t":305.1,"dist_nm":19.3,"freq":379,"lat":37.26139700,"lon":-80.15815000,"rng_nm":25,"alt_fmsl":1220,"id":"CNQ","desc":"CALLAHAN NDB"},
{"type":"VOR","hdg_t":324.1,"dist_nm":19.8,"freq":109.4,"lat":37.34347222,"lon":-80.07038889,"rng_nm":40,"alt_fmsl":3072,"id":"ROA","desc":"ROANOKE VORTAC"},
{"type":"NDB","hdg_t":286.2,"dist_nm":28.7,"freq":368,"lat":37.20861111,"lon":-80.40344444,"rng_nm":50,"alt_fmsl":0,"id":"TEC","desc":"TECH NDB"},
{"type":"NDB","hdg_t":188.5,"dist_nm":29.4,"freq":396,"lat":36.59008333,"lon":-79.91744444,"rng_nm":50,"alt_fmsl":0,"id":"UV","desc":"BALES NDB"},
{"type":"NDB","hdg_t":68,"dist_nm":30.1,"freq":385,"lat":37.26241667,"lon":-79.24313889,"rng_nm":50,"alt_fmsl":0,"id":"LY","desc":"BOJAR NDB"},
{"type":"VOR","hdg_t":69,"dist_nm":30.3,"freq":109.2,"lat":37.25458333,"lon":-79.23638889,"rng_nm":40,"alt_fmsl":871,"id":"LYH","desc":"LYNCHBURG VORTAC"},
{"type":"VOR","hdg_t":141.9,"dist_nm":38.4,"freq":113.1,"lat":36.56886111,"lon":-79.33669444,"rng_nm":40,"alt_fmsl":0,"id":"DAN","desc":"DANVILLE VOR"},
{"type":"NDB","hdg_t":175.7,"dist_nm":41.6,"freq":423,"lat":36.38169444,"lon":-79.76277778,"rng_nm":50,"alt_fmsl":0,"id":"SIF","desc":"SLAMMER NDB"},
{"type":"VOR","hdg_t":271.2,"dist_nm":42.5,"freq":116.8,"lat":37.08769444,"lon":-80.71288889,"rng_nm":130,"alt_fmsl":2120,"id":"PSK","desc":"PULASKI VORTAC"},
{"type":"VOR","hdg_t":121.2,"dist_nm":45.8,"freq":110.4,"lat":36.67502778,"lon":-79.01450000,"rng_nm":40,"alt_fmsl":530,"id":"SBV","desc":"SOUTH BOSTON VORTAC"},
{"type":"VOR","hdg_t":331.3,"dist_nm":47,"freq":108.4,"lat":37.76392200,"lon":-80.30164700,"rng_nm":25,"alt_fmsl":3330,"id":"SSU","desc":"WHITE SULPHUR SPRINGS VOR"},
{"type":"NDB","hdg_t":248.8,"dist_nm":51.4,"freq":269,"lat":36.76222222,"lon":-80.82194444,"rng_nm":50,"alt_fmsl":0,"id":"HLX","desc":"HILLSVILLE NDB"},
{"type":"NDB","hdg_t":324.3,"dist_nm":52.2,"freq":346,"lat":37.78216667,"lon":-80.46844444,"rng_nm":50,"alt_fmsl":0,"id":"LW","desc":"BUSHI NDB"},
{"type":"NDB","hdg_t":219.7,"dist_nm":53.9,"freq":223,"lat":36.38097222,"lon":-80.54019444,"rng_nm":50,"alt_fmsl":0,"id":"AZW","desc":"MT AIRY NDB"},
{"type":"VOR","hdg_t":330.4,"dist_nm":54.4,"freq":116.05,"lat":37.86380556,"lon":-80.39202778,"rng_nm":40,"alt_fmsl":2319,"id":"LWB","desc":"GREENBRIER VOR-DME"},
{"type":"NDB","hdg_t":3.3,"dist_nm":54.6,"freq":400,"lat":37.98646900,"lon":-79.75946900,"rng_nm":25,"alt_fmsl":2080,"id":"HS","desc":"DURAN NDB"},
{"type":"NDB","hdg_t":190.5,"dist_nm":55.3,"freq":254,"lat":36.16697222,"lon":-80.03563889,"rng_nm":50,"alt_fmsl":0,"id":"GS","desc":"MARKY NDB"},
{"type":"SDME","hdg_t":185.2,"dist_nm":57.5,"freq":109.55,"lat":36.11876111,"lon":-79.93550833,"rng_nm":18,"alt_fmsl":882,"id":"ILLG","desc":"KGSO 05L DME-ILS DME"},
{"type":"SDME","hdg_t":184.3,"dist_nm":57.9,"freq":111.9,"lat":36.11145556,"lon":-79.91745278,"rng_nm":18,"alt_fmsl":882,"id":"ILZY","desc":"KGSO 05R DME-ILS DME"},
{"type":"SDME","hdg_t":186.3,"dist_nm":58.9,"freq":109.7,"lat":36.09776389,"lon":-79.96214444,"rng_nm":18,"alt_fmsl":925,"id":"IIDB","desc":"KGSO 23R DME-ILS DME"},
{"type":"VOR","hdg_t":34.6,"dist_nm":60.2,"freq":115.3,"lat":37.90052778,"lon":-79.10688889,"rng_nm":40,"alt_fmsl":3460,"id":"MOL","desc":"MONTEBELLO VOR-DME"},
{"type":"VOR","hdg_t":186.7,"dist_nm":62.1,"freq":116.2,"lat":36.04569444,"lon":-79.97638889,"rng_nm":130,"alt_fmsl":879,"id":"GSO","desc":"GREENSBORO VORTAC"},
{"type":"NDB","hdg_t":195.3,"dist_nm":62.3,"freq":317,"lat":36.07091667,"lon":-80.16683333,"rng_nm":50,"alt_fmsl":0,"id":"IN","desc":"REENO NDB"},
{"type":"NDB","hdg_t":143.7,"dist_nm":62.4,"freq":220,"lat":36.23327778,"lon":-79.06588889,"rng_nm":50,"alt_fmsl":0,"id":"HUR","desc":"PERSON(LOM/NDB) NDB"},
{"type":"NDB","hdg_t":223.6,"dist_nm":63.1,"freq":326,"lat":36.31005556,"lon":-80.72636111,"rng_nm":50,"alt_fmsl":0,"id":"ZEF","desc":"ZEPHYR NDB"},
{"type":"NDB","hdg_t":169.8,"dist_nm":66.7,"freq":361,"lat":35.97811111,"lon":-79.58483333,"rng_nm":50,"alt_fmsl":0,"id":"HB","desc":"ALAMM NDB"},
{"type":"VOR","hdg_t":282.3,"dist_nm":66.9,"freq":110,"lat":37.30644444,"lon":-81.19427778,"rng_nm":40,"alt_fmsl":2900,"id":"BLF","desc":"BLUEFIELD VORTAC"},
{"type":"NDB","hdg_t":75.5,"dist_nm":68.6,"freq":367,"lat":37.35300000,"lon":-78.43752778,"rng_nm":50,"alt_fmsl":0,"id":"FVX","desc":"FARMVILLE NDB"},
{"type":"NDB","hdg_t":262.6,"dist_nm":68.6,"freq":335,"lat":36.92016667,"lon":-81.24330556,"rng_nm":50,"alt_fmsl":0,"id":"MK","desc":"SUZZE NDB"},
{"type":"VOR","hdg_t":319.3,"dist_nm":71.3,"freq":116.6,"lat":37.97530556,"lon":-80.80650000,"rng_nm":40,"alt_fmsl":0,"id":"RNL","desc":"RAINELLE VOR"},
{"type":"NDB","hdg_t":128.1,"dist_nm":74.5,"freq":271,"lat":36.30122222,"lon":-78.61850000,"rng_nm":50,"alt_fmsl":0,"id":"HXO","desc":"HUNTSBORO NDB"},
{"type":"VOR","hdg_t":304.6,"dist_nm":74.9,"freq":117.7,"lat":37.78030556,"lon":-81.12344444,"rng_nm":130,"alt_fmsl":2517,"id":"BKW","desc":"BECKLEY VORTAC"},
{"type":"NDB","hdg_t":203.7,"dist_nm":75.9,"freq":354,"lat":35.91346900,"lon":-80.45616700,"rng_nm":25,"alt_fmsl":810,"id":"DVZ","desc":"DAVIE NDB"},
{"type":"VOR","hdg_t":172.1,"dist_nm":76.4,"freq":113,"lat":35.81163889,"lon":-79.61261111,"rng_nm":40,"alt_fmsl":830,"id":"LIB","desc":"LIBERTY VORTAC"},
{"type":"NDB","hdg_t":31.2,"dist_nm":79.2,"freq":375,"lat":38.20175000,"lon":-78.95736111,"rng_nm":50,"alt_fmsl":0,"id":"SH","desc":"STAUT NDB"},
{"type":"NDB","hdg_t":167.2,"dist_nm":80.6,"freq":371,"lat":35.76152778,"lon":-79.46225000,"rng_nm":50,"alt_fmsl":0,"id":"TOX","desc":"SILER CITY NDB"},
{"type":"NDB","hdg_t":181.3,"dist_nm":81.4,"freq":266,"lat":35.71625000,"lon":-79.86530556,"rng_nm":50,"alt_fmsl":0,"id":"CQJ","desc":"CITY LAKE NDB"},
{"type":"NDB","hdg_t":242.3,"dist_nm":81.6,"freq":410,"lat":36.43402778,"lon":-81.32180556,"rng_nm":50,"alt_fmsl":0,"id":"JU","desc":"ASHEE NDB"},
{"type":"NDB","hdg_t":47.7,"dist_nm":83.9,"freq":336,"lat":38.01016667,"lon":-78.51808333,"rng_nm":50,"alt_fmsl":0,"id":"AZS","desc":"AZALEA PARK NDB"},
{"type":"NDB","hdg_t":322,"dist_nm":83.9,"freq":272,"lat":38.17505600,"lon":-80.91998600,"rng_nm":25,"alt_fmsl":1880,"id":"IJZ","desc":"NICHOLAS NDB"},
{"type":"NDB","hdg_t":227.1,"dist_nm":84.2,"freq":209,"lat":36.11286111,"lon":-81.09808333,"rng_nm":50,"alt_fmsl":0,"id":"UKF","desc":"WILKI NDB"},
{"type":"NDB","hdg_t":87.3,"dist_nm":85.6,"freq":326,"lat":37.12744444,"lon":-78.04452778,"rng_nm":50,"alt_fmsl":0,"id":"BKT","desc":"BLACKSTONE NDB"},
{"type":"NDB","hdg_t":201.9,"dist_nm":86.5,"freq":275,"lat":35.73311111,"lon":-80.48955556,"rng_nm":50,"alt_fmsl":0,"id":"RU","desc":"ROVDY (LOM/NDB) NDB"},
{"type":"NDB","hdg_t":141.8,"dist_nm":87.1,"freq":350,"lat":35.92722222,"lon":-78.72191667,"rng_nm":50,"alt_fmsl":0,"id":"LE","desc":"LEEVY NDB"},
{"type":"VOR","hdg_t":144.6,"dist_nm":88,"freq":117.2,"lat":35.87252778,"lon":-78.78333333,"rng_nm":130,"alt_fmsl":429,"id":"RDU","desc":"RALEIGH/DURHAM VORTAC"},
{"type":"NDB","hdg_t":107.3,"dist_nm":89.7,"freq":373,"lat":36.61455556,"lon":-78.05316667,"rng_nm":50,"alt_fmsl":0,"id":"AEA","desc":"JONES NDB"},
{"type":"VOR","hdg_t":98.8,"dist_nm":93.8,"freq":112.9,"lat":36.81802778,"lon":-77.90297222,"rng_nm":40,"alt_fmsl":350,"id":"LVL","desc":"LAWRENCEVILLE VORTAC"},
{"type":"NDB","hdg_t":187.5,"dist_nm":95.8,"freq":346,"lat":35.48916667,"lon":-80.08341667,"rng_nm":50,"alt_fmsl":0,"id":"VU","desc":"ALLER NDB"},
{"type":"VOR","hdg_t":54.3,"dist_nm":97.6,"freq":115.6,"lat":38.01361111,"lon":-78.15302778,"rng_nm":130,"alt_fmsl":382,"id":"GVE","desc":"GORDONSVILLE VORTAC"},
{"type":"NDB","hdg_t":217.9,"dist_nm":98.3,"freq":280,"lat":35.77455300,"lon":-81.06496400,"rng_nm":25,"alt_fmsl":964,"id":"VW","desc":"TEMKY NDB"},
{"type":"VOR","hdg_t":73.5,"dist_nm":99.4,"freq":113.3,"lat":37.52850000,"lon":-77.82822222,"rng_nm":130,"alt_fmsl":460,"id":"FAK","desc":"FLAT ROCK VORTAC"},
{"type":"VOR","hdg_t":223.8,"dist_nm":99.5,"freq":110.8,"lat":35.86886111,"lon":-81.24052778,"rng_nm":40,"alt_fmsl":1880,"id":"BZM","desc":"BARRETTS MOUNTAIN VOR-DME"}
]
}
