{"success":true,"source":"xp2csv.pl","last_updated":"2013/11/08 14:53:21 UTC"
,"icao":"72F","name":"Throckmorton Muni","lat":33.1793055,"lon":-99.149722,"rwys":1,"ils":0,"index":1318603,"path":"w100n30/w100n33"
,"runways":[
{"len_m":955,"wid_m":15.24,"hdg":180,"surf":"Asphalt","rwy1":"17","lat1":33.18361100,"lon1":-99.14972200,"rwy2":"35","lat2":33.17500000,"lon2":-99.14972200}
]
,"radios":[
{"type":"CTAF","freq":122.9,"desc":"CTAF"}
]
,"navaids":[
{"type":"NDB","hdg_t":271.5,"dist_nm":28.7,"freq":407,"lat":33.19105556,"lon":-99.72000000,"rng_nm":50,"alt_fmsl":0,"id":"AKL","desc":"HASKELL NDB"},
{"type":"NDB","hdg_t":153.1,"dist_nm":28.9,"freq":245,"lat":32.74734400,"lon":-98.89117800,"rng_nm":25,"alt_fmsl":1226,"id":"BKD","desc":"BRECKENRIDGE NDB"},
{"type":"NDB","hdg_t":91.2,"dist_nm":32.9,"freq":371,"lat":33.16586111,"lon":-98.49661111,"rng_nm":50,"alt_fmsl":0,"id":"GHX","desc":"GRAHAM NDB"},
{"type":"NDB","hdg_t":109.9,"dist_nm":39.5,"freq":280,"lat":32.95150000,"lon":-98.41311111,"rng_nm":50,"alt_fmsl":0,"id":"GZV","desc":"BRAZOS RIVER NDB"},
{"type":"NDB","hdg_t":42.4,"dist_nm":49,"freq":344,"lat":33.78227778,"lon":-98.48816667,"rng_nm":50,"alt_fmsl":0,"id":"SKB","desc":"SCOTLAND NDB"},
{"type":"NDB","hdg_t":159.7,"dist_nm":49.8,"freq":410,"lat":32.39847222,"lon":-98.81033333,"rng_nm":50,"alt_fmsl":0,"id":"OIP","desc":"OLD RIP NDB"},
{"type":"VOR","hdg_t":220.9,"dist_nm":55.2,"freq":113.7,"lat":32.48133333,"lon":-99.86344444,"rng_nm":130,"alt_fmsl":1810,"id":"ABI","desc":"ABILENE VORTAC"},
{"type":"VOR","hdg_t":29.7,"dist_nm":55.8,"freq":112.7,"lat":33.98727778,"lon":-98.59347222,"rng_nm":130,"alt_fmsl":1133,"id":"SPS","desc":"WICHITA FALLS VORTAC"},
{"type":"NDB","hdg_t":38.3,"dist_nm":55.9,"freq":296,"lat":33.91072222,"lon":-98.45466667,"rng_nm":50,"alt_fmsl":0,"id":"ICF","desc":"MADISON NDB"},
{"type":"NDB","hdg_t":38.3,"dist_nm":55.9,"freq":296,"lat":33.91063889,"lon":-98.45491667,"rng_nm":50,"alt_fmsl":0,"id":"SP","desc":"SHAWN NDB"},
{"type":"SDME","hdg_t":34.4,"dist_nm":58.4,"freq":110.8,"lat":33.98258300,"lon":-98.48733300,"rng_nm":40,"alt_fmsl":1020,"id":"SHP","desc":"SHEPPARD TACAN"},
{"type":"NDB","hdg_t":206.8,"dist_nm":59,"freq":353,"lat":32.29888889,"lon":-99.67419444,"rng_nm":50,"alt_fmsl":0,"id":"AB","desc":"TOMHI NDB"},
{"type":"NDB","hdg_t":112.8,"dist_nm":59.9,"freq":266,"lat":32.78512800,"lon":-98.05726700,"rng_nm":25,"alt_fmsl":972,"id":"MWL","desc":"MINERAL WELLS NDB"},
{"type":"NDB","hdg_t":354.1,"dist_nm":63,"freq":230,"lat":34.22608333,"lon":-99.27936111,"rng_nm":50,"alt_fmsl":0,"id":"VRT","desc":"WILBARGER NDB"},
{"type":"VOR","hdg_t":114.6,"dist_nm":64.1,"freq":117.7,"lat":32.72619444,"lon":-97.99744444,"rng_nm":130,"alt_fmsl":900,"id":"MQP","desc":"MILLSAP VORTAC"},
{"type":"VOR","hdg_t":211,"dist_nm":65.8,"freq":111.6,"lat":32.23575000,"lon":-99.81677778,"rng_nm":40,"alt_fmsl":2018,"id":"TQA","desc":"TUSCOLA VOR-DME"},
{"type":"VOR","hdg_t":301.3,"dist_nm":69.5,"freq":114.5,"lat":33.77827778,"lon":-100.33619444,"rng_nm":40,"alt_fmsl":1940,"id":"GTH","desc":"GUTHRIE VORTAC"},
{"type":"VOR","hdg_t":71.8,"dist_nm":70,"freq":112.4,"lat":33.53588889,"lon":-97.82127778,"rng_nm":130,"alt_fmsl":1100,"id":"UKW","desc":"BOWIE VORTAC"},
{"type":"NDB","hdg_t":6.5,"dist_nm":70.8,"freq":222,"lat":34.35383900,"lon":-98.98647800,"rng_nm":25,"alt_fmsl":1255,"id":"FDR","desc":"FREDERICK NDB"},
{"type":"NDB","hdg_t":69.3,"dist_nm":73.7,"freq":356,"lat":33.60538889,"lon":-97.77336111,"rng_nm":50,"alt_fmsl":0,"id":"GMZ","desc":"GRINDSTONE MTN NDB"},
{"type":"VOR","hdg_t":172.7,"dist_nm":77.6,"freq":108.6,"lat":31.89258333,"lon":-98.95747222,"rng_nm":40,"alt_fmsl":1574,"id":"BWD","desc":"BROWNWOOD VOR-DME"},
{"type":"NDB","hdg_t":237.4,"dist_nm":79.2,"freq":275,"lat":32.46163889,"lon":-100.46558333,"rng_nm":50,"alt_fmsl":0,"id":"SWW","desc":"SWEETWATER NDB"},
{"type":"NDB","hdg_t":189.2,"dist_nm":81.1,"freq":385,"lat":31.84125600,"lon":-99.40617500,"rng_nm":25,"alt_fmsl":88,"id":"COM","desc":"COLEMAN NDB"},
{"type":"VOR","hdg_t":24.8,"dist_nm":87,"freq":109.4,"lat":34.49616667,"lon":-98.41308333,"rng_nm":40,"alt_fmsl":1104,"id":"LAW","desc":"LAWTON VOR-DME"},
{"type":"VOR","hdg_t":133.1,"dist_nm":88.7,"freq":115,"lat":32.15958333,"lon":-97.87769444,"rng_nm":40,"alt_fmsl":1300,"id":"JEN","desc":"GLEN ROSE VORTAC"},
{"type":"VOR","hdg_t":356.1,"dist_nm":89,"freq":109.8,"lat":34.66275000,"lon":-99.27097222,"rng_nm":40,"alt_fmsl":1370,"id":"LTS","desc":"ALTUS VORTAC"},
{"type":"SDME","hdg_t":105.3,"dist_nm":89.7,"freq":108.7,"lat":32.77151700,"lon":-97.43946400,"rng_nm":40,"alt_fmsl":663,"id":"NFW","desc":"FORT WORTH NAS JRB TACAN"},
{"type":"NDB","hdg_t":100.3,"dist_nm":91.2,"freq":365,"lat":32.89297222,"lon":-97.37352778,"rng_nm":50,"alt_fmsl":0,"id":"FT","desc":"MUFIN NDB"},
{"type":"VOR","hdg_t":321.6,"dist_nm":91.2,"freq":117.6,"lat":34.36905556,"lon":-100.28902778,"rng_nm":40,"alt_fmsl":1920,"id":"CDS","desc":"CHILDRESS VORTAC"},
{"type":"NDB","hdg_t":23.3,"dist_nm":93.3,"freq":308,"lat":34.60885200,"lon":-98.40377500,"rng_nm":25,"alt_fmsl":0,"id":"PFL","desc":"POST NDB"},
{"type":"NDB","hdg_t":23.3,"dist_nm":93.3,"freq":425,"lat":34.60886111,"lon":-98.40377778,"rng_nm":50,"alt_fmsl":0,"id":"PFL","desc":"POST NDB"},
{"type":"VOR","hdg_t":40.1,"dist_nm":94.9,"freq":111,"lat":34.38447222,"lon":-97.91683333,"rng_nm":40,"alt_fmsl":1087,"id":"DUC","desc":"DUNCAN VOR-DME"},
{"type":"NDB","hdg_t":252.9,"dist_nm":95.1,"freq":359,"lat":32.70141667,"lon":-100.94613889,"rng_nm":50,"alt_fmsl":0,"id":"SDR","desc":"SNYDER NDB"},
{"type":"NDB","hdg_t":85.8,"dist_nm":98.5,"freq":257,"lat":33.28308333,"lon":-97.19625000,"rng_nm":50,"alt_fmsl":0,"id":"DT","desc":"PINCK NDB"},
{"type":"NDB","hdg_t":205.2,"dist_nm":99,"freq":239,"lat":31.68047222,"lon":-99.97491667,"rng_nm":50,"alt_fmsl":0,"id":"UBC","desc":"BALLINGER NDB"}
]
}
