{"success":true,"source":"xp2csv.pl","last_updated":"2013/11/08 14:53:21 UTC"
,"icao":"72R","name":"El Paisano","lat":30.03355444,"lon":-96.6846975,"rwys":2,"ils":0,"index":1367553,"path":"w100n30/w097n30"
,"runways":[
{"len_m":580,"wid_m":15.24,"hdg":86,"surf":"Turf/grass","rwy1":"08","lat1":30.03337267,"lon1":-96.68770014,"rwy2":"26","lat2":30.03373621,"lon2":-96.68169486},
{"len_m":532,"wid_m":15.24,"hdg":26,"surf":"Turf/grass","rwy1":"02","lat1":30.03139724,"lon1":-96.68591282,"rwy2":"20","lat2":30.03571164,"lon2":-96.68348218}
]
,"navaids":[
{"type":"VOR","hdg_t":125.9,"dist_nm":7.8,"freq":110.2,"lat":29.95605556,"lon":-96.56219444,"rng_nm":40,"alt_fmsl":419,"id":"IDU","desc":"INDUSTRY VORTAC"},
{"type":"NDB","hdg_t":298,"dist_nm":17.3,"freq":385,"lat":30.16952200,"lon":-96.97874400,"rng_nm":25,"alt_fmsl":464,"id":"GYB","desc":"LEE COUNTY NDB"},
{"type":"VOR","hdg_t":139.1,"dist_nm":29.3,"freq":116.4,"lat":29.66244444,"lon":-96.31716667,"rng_nm":130,"alt_fmsl":190,"id":"ELA","desc":"EAGLE LAKE VOR-DME"},
{"type":"NDB","hdg_t":33.1,"dist_nm":32.9,"freq":260,"lat":30.49372222,"lon":-96.33769444,"rng_nm":50,"alt_fmsl":0,"id":"CL","desc":"ROWDY NDB"},
{"type":"VOR","hdg_t":64.7,"dist_nm":35.9,"freq":115.9,"lat":30.28852778,"lon":-96.05822222,"rng_nm":130,"alt_fmsl":230,"id":"TNV","desc":"NAVASOTA VORTAC"},
{"type":"VOR","hdg_t":21.7,"dist_nm":36.8,"freq":113.3,"lat":30.60500000,"lon":-96.42069444,"rng_nm":40,"alt_fmsl":275,"id":"CLL","desc":"COLLEGE STATION VORTAC"},
{"type":"VOR","hdg_t":295.3,"dist_nm":48.5,"freq":112.8,"lat":30.37855556,"lon":-97.52986111,"rng_nm":130,"alt_fmsl":593,"id":"CWK","desc":"CENTEX VORTAC"},
{"type":"NDB","hdg_t":208.8,"dist_nm":49.2,"freq":350,"lat":29.31202778,"lon":-97.13863889,"rng_nm":50,"alt_fmsl":0,"id":"OKT","desc":"YOAKUM NDB"},
{"type":"NDB","hdg_t":284.1,"dist_nm":50.4,"freq":353,"lat":30.23568300,"lon":-97.62569700,"rng_nm":25,"alt_fmsl":0,"id":"AU","desc":"AUSTI NDB"},
{"type":"NDB","hdg_t":273.9,"dist_nm":51.7,"freq":255,"lat":30.08972222,"lon":-97.67602778,"rng_nm":50,"alt_fmsl":0,"id":"BS","desc":"CREED NDB"},
{"type":"NDB","hdg_t":286.5,"dist_nm":54,"freq":232,"lat":30.28759400,"lon":-97.68183600,"rng_nm":25,"alt_fmsl":0,"id":"GF","desc":"BIRDY NDB"},
{"type":"NDB","hdg_t":149,"dist_nm":54.3,"freq":245,"lat":29.25463889,"lon":-96.15202778,"rng_nm":50,"alt_fmsl":0,"id":"ARM","desc":"WHARTON NDB"},
{"type":"NDB","hdg_t":96,"dist_nm":54.7,"freq":286,"lat":29.93386111,"lon":-95.64100000,"rng_nm":50,"alt_fmsl":0,"id":"EYQ","desc":"WEISER NDB"},
{"type":"NDB","hdg_t":84.3,"dist_nm":58.5,"freq":521,"lat":30.12552778,"lon":-95.56586111,"rng_nm":50,"alt_fmsl":0,"id":"DWH","desc":"DAVID HOOKS NDB"},
{"type":"NDB","hdg_t":307.2,"dist_nm":64.7,"freq":332,"lat":30.68438889,"lon":-97.67991667,"rng_nm":50,"alt_fmsl":0,"id":"GUO","desc":"GEORGETOWN NDB"},
{"type":"NDB","hdg_t":266.4,"dist_nm":66,"freq":272,"lat":29.95880556,"lon":-97.94897222,"rng_nm":50,"alt_fmsl":0,"id":"RU","desc":"GARYS NDB"},
{"type":"NDB","hdg_t":68.9,"dist_nm":67.1,"freq":281,"lat":30.43200000,"lon":-95.47625000,"rng_nm":50,"alt_fmsl":0,"id":"CX","desc":"ALIBI NDB"},
{"type":"NDB","hdg_t":193.9,"dist_nm":68.9,"freq":226,"lat":28.91522222,"lon":-97.00047222,"rng_nm":50,"alt_fmsl":0,"id":"VC","desc":"FOSTR NDB"},
{"type":"VOR","hdg_t":192.8,"dist_nm":69.5,"freq":109,"lat":28.90030556,"lon":-96.97894444,"rng_nm":40,"alt_fmsl":125,"id":"VCT","desc":"VICTORIA VOR-DME"},
{"type":"VOR","hdg_t":93.4,"dist_nm":69.9,"freq":116.6,"lat":29.95691667,"lon":-95.34572222,"rng_nm":130,"alt_fmsl":90,"id":"IAH","desc":"HUMBLE VORTAC"},
{"type":"NDB","hdg_t":53,"dist_nm":70.8,"freq":308,"lat":30.74075000,"lon":-95.59086111,"rng_nm":50,"alt_fmsl":0,"id":"UTS","desc":"HUNTSVILLE NDB"},
{"type":"VOR","hdg_t":29.4,"dist_nm":75,"freq":110.8,"lat":31.12402778,"lon":-95.96794444,"rng_nm":40,"alt_fmsl":350,"id":"LOA","desc":"LEONA VORTAC"},
{"type":"NDB","hdg_t":91.4,"dist_nm":76.5,"freq":326,"lat":29.99333333,"lon":-95.21502778,"rng_nm":50,"alt_fmsl":0,"id":"BVP","desc":"NIXIN NDB"},
{"type":"NDB","hdg_t":145.5,"dist_nm":76.8,"freq":344,"lat":28.97250000,"lon":-95.85913889,"rng_nm":50,"alt_fmsl":0,"id":"BYY","desc":"BAY CITY NDB"},
{"type":"VOR","hdg_t":106.7,"dist_nm":76.8,"freq":117.1,"lat":29.65563889,"lon":-95.27663889,"rng_nm":130,"alt_fmsl":82,"id":"HUB","desc":"HOBBY VOR-DME"},
{"type":"VOR","hdg_t":165.2,"dist_nm":78.5,"freq":117.3,"lat":28.76441667,"lon":-96.30619444,"rng_nm":130,"alt_fmsl":6,"id":"PSX","desc":"PALACIOS VORTAC"},
{"type":"NDB","hdg_t":318.4,"dist_nm":79.5,"freq":278,"lat":31.02411111,"lon":-97.70813889,"rng_nm":50,"alt_fmsl":0,"id":"IL","desc":"IRESH NDB"},
{"type":"VOR","hdg_t":331.6,"dist_nm":80.1,"freq":110.4,"lat":31.20933333,"lon":-97.42497222,"rng_nm":40,"alt_fmsl":710,"id":"TPL","desc":"TEMPLE VOR-DME"},
{"type":"NDB","hdg_t":127.8,"dist_nm":81.2,"freq":263,"lat":29.19433333,"lon":-95.46316667,"rng_nm":50,"alt_fmsl":0,"id":"LB","desc":"FREEP NDB"},
{"type":"NDB","hdg_t":179.8,"dist_nm":82.7,"freq":515,"lat":28.65089700,"lon":-96.68145800,"rng_nm":25,"alt_fmsl":26,"id":"PKV","desc":"PORT LAVACA NDB"},
{"type":"VOR","hdg_t":315.9,"dist_nm":83.6,"freq":111.8,"lat":31.03288889,"lon":-97.81377778,"rng_nm":25,"alt_fmsl":980,"id":"GRK","desc":"GRAY VOR-DME"},
{"type":"SDME","hdg_t":107.4,"dist_nm":83.6,"freq":109.4,"lat":29.60595800,"lon":-95.15965300,"rng_nm":40,"alt_fmsl":30,"id":"EFD","desc":"ELLINGTON TACAN"},
{"type":"NDB","hdg_t":321.2,"dist_nm":84.4,"freq":347,"lat":31.12905556,"lon":-97.71141667,"rng_nm":50,"alt_fmsl":0,"id":"HLR","desc":"HOOD NDB"},
{"type":"NDB","hdg_t":104.1,"dist_nm":87,"freq":347,"lat":29.66841667,"lon":-95.06983333,"rng_nm":50,"alt_fmsl":0,"id":"JPA","desc":"SANJAC NDB"},
{"type":"SDME","hdg_t":250.6,"dist_nm":87.8,"freq":109.9,"lat":29.53694700,"lon":-98.26780300,"rng_nm":40,"alt_fmsl":773,"id":"DHK","desc":"RANDOLPH TACAN"},
{"type":"VOR","hdg_t":250.1,"dist_nm":89,"freq":112.3,"lat":29.51916667,"lon":-98.28516667,"rng_nm":25,"alt_fmsl":772,"id":"RND","desc":"RANDOLPH VORTAC"},
{"type":"NDB","hdg_t":347.3,"dist_nm":90.2,"freq":400,"lat":31.50380556,"lon":-97.06958333,"rng_nm":50,"alt_fmsl":0,"id":"ROB","desc":"ROBINSON NDB"},
{"type":"NDB","hdg_t":298.1,"dist_nm":90.9,"freq":341,"lat":30.74027778,"lon":-98.23622222,"rng_nm":50,"alt_fmsl":0,"id":"BMQ","desc":"BURNET NDB"},
{"type":"NDB","hdg_t":317.9,"dist_nm":91.8,"freq":323,"lat":31.16783333,"lon":-97.87822222,"rng_nm":50,"alt_fmsl":0,"id":"GR","desc":"STARN NDB"},
{"type":"VOR","hdg_t":4.2,"dist_nm":92.9,"freq":108.8,"lat":31.58147222,"lon":-96.54908333,"rng_nm":40,"alt_fmsl":512,"id":"GNL","desc":"GROESBECK VOR-DME"},
{"type":"VOR","hdg_t":256.3,"dist_nm":95.5,"freq":116.8,"lat":29.64402778,"lon":-98.46130556,"rng_nm":130,"alt_fmsl":1160,"id":"SAT","desc":"SAN ANTONIO VORTAC"},
{"type":"NDB","hdg_t":5.2,"dist_nm":96.5,"freq":329,"lat":31.63961111,"lon":-96.51219444,"rng_nm":50,"alt_fmsl":0,"id":"LXY","desc":"MEXIA NDB"}
]
}
