{"success":true,"source":"xp2csv.pl","last_updated":"2013/11/08 14:53:21 UTC"
,"icao":"73CO","name":"Woods","lat":38.38887611,"lon":-107.82311612,"rwys":1,"ils":0,"index":1187864,"path":"w110n30/w108n38"
,"runways":[
{"len_m":609,"wid_m":9.14,"hdg":142,"surf":"Turf/grass","rwy1":"13","lat1":38.39106675,"lon1":-107.82522219,"rwy2":"31","lat2":38.38668547,"lon2":-107.82101005}
]
,"navaids":[
{"type":"VOR","hdg_t":333,"dist_nm":7.9,"freq":117.1,"lat":38.50644444,"lon":-107.89927778,"rng_nm":130,"alt_fmsl":5713,"id":"MTJ","desc":"MONTROSE VOR-DME"},
{"type":"VOR","hdg_t":224.7,"dist_nm":29.3,"freq":110.2,"lat":38.04025000,"lon":-108.25858333,"rng_nm":40,"alt_fmsl":8460,"id":"ETL","desc":"CONES VOR-DME"},
{"type":"NDB","hdg_t":256.2,"dist_nm":36.1,"freq":375,"lat":38.24276800,"lon":-108.56675800,"rng_nm":25,"alt_fmsl":5936,"id":"HPL","desc":"HOPKINS NDB"},
{"type":"VOR","hdg_t":83.8,"dist_nm":37.1,"freq":114.9,"lat":38.45216667,"lon":-107.03980556,"rng_nm":130,"alt_fmsl":8730,"id":"HBU","desc":"BLUE MESA VOR-DME"},
{"type":"VOR","hdg_t":311.7,"dist_nm":60.7,"freq":112.4,"lat":39.05955556,"lon":-108.79258333,"rng_nm":130,"alt_fmsl":7100,"id":"JNC","desc":"GRAND JUNCTION VOR-DME"},
{"type":"VOR","hdg_t":236.8,"dist_nm":62.9,"freq":114.6,"lat":37.80875000,"lon":-108.93127778,"rng_nm":130,"alt_fmsl":6990,"id":"DVC","desc":"DOVE CREEK VORTAC"},
{"type":"VOR","hdg_t":3.5,"dist_nm":68.2,"freq":111.45,"lat":39.52455556,"lon":-107.73250000,"rng_nm":40,"alt_fmsl":5484,"id":"RGA","desc":"RIFLE VOR-DME"},
{"type":"NDB","hdg_t":26.6,"dist_nm":68.7,"freq":344,"lat":39.41163889,"lon":-107.15950000,"rng_nm":50,"alt_fmsl":0,"id":"CQL","desc":"CARBONDALE NDB"},
{"type":"VOR","hdg_t":210.5,"dist_nm":69.3,"freq":108.4,"lat":37.38986111,"lon":-108.56175000,"rng_nm":40,"alt_fmsl":6223,"id":"CEZ","desc":"CORTEZ VOR-DME"},
{"type":"VOR","hdg_t":177.2,"dist_nm":74.1,"freq":108.2,"lat":37.15325000,"lon":-107.74961111,"rng_nm":40,"alt_fmsl":6660,"id":"DRO","desc":"DURANGO VOR-DME"},
{"type":"VOR","hdg_t":34.3,"dist_nm":76.5,"freq":113,"lat":39.43933333,"lon":-106.89466667,"rng_nm":130,"alt_fmsl":11800,"id":"DBL","desc":"RED TABLE VOR-DME"},
{"type":"VOR","hdg_t":27.3,"dist_nm":83.9,"freq":109.2,"lat":39.62947222,"lon":-106.99113889,"rng_nm":40,"alt_fmsl":8060,"id":"SXW","desc":"SNOW VOR-DME"},
{"type":"NDB","hdg_t":29.1,"dist_nm":86.5,"freq":357,"lat":39.64655556,"lon":-106.91427778,"rng_nm":50,"alt_fmsl":0,"id":"EGE","desc":"EAGLE NDB"},
{"type":"VOR","hdg_t":284.2,"dist_nm":93.2,"freq":109.8,"lat":38.75625000,"lon":-109.74927778,"rng_nm":25,"alt_fmsl":4542,"id":"OAB","desc":"MOAB VOR-DME"},
{"type":"VOR","hdg_t":187.7,"dist_nm":99.1,"freq":115.3,"lat":36.74838889,"lon":-108.09888889,"rng_nm":130,"alt_fmsl":5823,"id":"RSK","desc":"RATTLESNAKE VORTAC"}
]
}
