{"success":true,"source":"xp2csv.pl","last_updated":"2013/11/08 14:53:21 UTC"
,"icao":"73J","name":"Beaufort Co","lat":32.4121615,"lon":-80.6343545,"rwys":1,"ils":0,"index":1629849,"path":"w090n30/w081n32"
,"runways":[
{"len_m":1046,"wid_m":22.86,"hdg":60,"surf":"Asphalt","rwy1":"07","lat1":32.40983100,"lon1":-80.63919200,"rwy2":"25","lat2":32.41449200,"lon2":-80.62951700}
]
,"radios":[
{"type":"CTAF","freq":122.7,"desc":"CTAF/UNICOM"},
{"type":"APP","freq":118.45,"desc":"APP/DEP"}
]
,"navaids":[
{"type":"SDME","hdg_t":313.5,"dist_nm":5.8,"freq":110.5,"lat":32.47903600,"lon":-80.71733300,"rng_nm":40,"alt_fmsl":49,"id":"NBC","desc":"BEAUFORT TACAN"},
{"type":"NDB","hdg_t":216.3,"dist_nm":30.3,"freq":335,"lat":32.00397222,"lon":-80.98619444,"rng_nm":50,"alt_fmsl":0,"id":"SV","desc":"WASSA NDB"},
{"type":"NDB","hdg_t":359.4,"dist_nm":30.7,"freq":221,"lat":32.92580556,"lon":-80.64019444,"rng_nm":50,"alt_fmsl":0,"id":"RBW","desc":"WALTERBORO NDB"},
{"type":"VOR","hdg_t":241.1,"dist_nm":32.8,"freq":115.95,"lat":32.14627778,"lon":-81.19911111,"rng_nm":130,"alt_fmsl":9,"id":"SAV","desc":"SAVANNAH VORTAC"},
{"type":"VOR","hdg_t":227.2,"dist_nm":35.1,"freq":111.6,"lat":32.01194444,"lon":-81.14086111,"rng_nm":25,"alt_fmsl":40,"id":"SVN","desc":"HUNTER VOR-DME"},
{"type":"NDB","hdg_t":244.7,"dist_nm":39.2,"freq":368,"lat":32.12986111,"lon":-81.33155556,"rng_nm":50,"alt_fmsl":0,"id":"SA","desc":"MAVIS NDB"},
{"type":"VOR","hdg_t":46.1,"dist_nm":41.7,"freq":113.5,"lat":32.89430556,"lon":-80.03780556,"rng_nm":130,"alt_fmsl":39,"id":"CHS","desc":"CHARLESTON VORTAC"},
{"type":"NDB","hdg_t":24.8,"dist_nm":42.8,"freq":365,"lat":33.06127778,"lon":-80.27730556,"rng_nm":50,"alt_fmsl":0,"id":"DYB","desc":"DORCHESTER CO NDB"},
{"type":"NDB","hdg_t":38.6,"dist_nm":43.3,"freq":329,"lat":32.97633333,"lon":-80.09744444,"rng_nm":50,"alt_fmsl":0,"id":"CH","desc":"ASHLY (LOM/NDB) NDB"},
{"type":"VOR","hdg_t":317.3,"dist_nm":49,"freq":116.7,"lat":33.01250000,"lon":-81.29222222,"rng_nm":40,"alt_fmsl":0,"id":"ALD","desc":"ALLENDALE VOR"},
{"type":"NDB","hdg_t":286.5,"dist_nm":50.7,"freq":245,"lat":32.64916667,"lon":-81.59427778,"rng_nm":50,"alt_fmsl":0,"id":"JYL","desc":"SYLVANIA NDB"},
{"type":"NDB","hdg_t":270.4,"dist_nm":52.2,"freq":407,"lat":32.41536111,"lon":-81.66402778,"rng_nm":50,"alt_fmsl":0,"id":"BZ","desc":"BULLO NDB"},
{"type":"NDB","hdg_t":32.9,"dist_nm":55.6,"freq":354,"lat":33.19100000,"lon":-80.03341667,"rng_nm":50,"alt_fmsl":0,"id":"MKS","desc":"MONCKS CORNER NDB"},
{"type":"NDB","hdg_t":232.2,"dist_nm":56.5,"freq":263,"lat":31.83116667,"lon":-81.51019444,"rng_nm":50,"alt_fmsl":0,"id":"MOQ","desc":"MC INTOSH NDB"},
{"type":"VOR","hdg_t":349.7,"dist_nm":63.5,"freq":111.4,"lat":33.45572222,"lon":-80.85841667,"rng_nm":25,"alt_fmsl":188,"id":"EDS","desc":"EDISTO VOR-DME"},
{"type":"VOR","hdg_t":8.3,"dist_nm":64.3,"freq":110.4,"lat":33.47483333,"lon":-80.44863889,"rng_nm":40,"alt_fmsl":140,"id":"VAN","desc":"VANCE VORTAC"},
{"type":"NDB","hdg_t":258.8,"dist_nm":64.6,"freq":395,"lat":32.19688889,"lon":-81.88061111,"rng_nm":50,"alt_fmsl":0,"id":"CWV","desc":"CLAXTON NDB"},
{"type":"NDB","hdg_t":324.7,"dist_nm":68.7,"freq":392,"lat":33.34680300,"lon":-81.42405800,"rng_nm":25,"alt_fmsl":380,"id":"BKO","desc":"BARNWELL NDB"},
{"type":"NDB","hdg_t":293.5,"dist_nm":73.4,"freq":205,"lat":32.89463889,"lon":-81.96694444,"rng_nm":50,"alt_fmsl":0,"id":"LNH","desc":"MILLEN NDB"},
{"type":"NDB","hdg_t":16.9,"dist_nm":73.6,"freq":381,"lat":33.58788889,"lon":-80.20613889,"rng_nm":50,"alt_fmsl":0,"id":"MNI","desc":"MANNING NDB"},
{"type":"NDB","hdg_t":298.9,"dist_nm":78.9,"freq":356,"lat":33.04252778,"lon":-82.00483333,"rng_nm":50,"alt_fmsl":0,"id":"BXG","desc":"BURKE CO NDB"},
{"type":"NDB","hdg_t":255,"dist_nm":80.1,"freq":424,"lat":32.05769444,"lon":-82.15233333,"rng_nm":50,"alt_fmsl":0,"id":"RVJ","desc":"PRISON NDB"},
{"type":"NDB","hdg_t":231.4,"dist_nm":82,"freq":340,"lat":31.55252778,"lon":-81.88700000,"rng_nm":50,"alt_fmsl":0,"id":"JES","desc":"SLOVER NDB"},
{"type":"NDB","hdg_t":41.6,"dist_nm":83.6,"freq":255,"lat":33.45147222,"lon":-79.52725000,"rng_nm":50,"alt_fmsl":0,"id":"PHH","desc":"ANDREWS NDB"},
{"type":"NDB","hdg_t":308.6,"dist_nm":84.5,"freq":233,"lat":33.28694444,"lon":-81.94688889,"rng_nm":50,"alt_fmsl":0,"id":"AG","desc":"BUSHE (LOM) NDB"},
{"type":"NDB","hdg_t":213.4,"dist_nm":84.7,"freq":275,"lat":31.22833333,"lon":-81.54272222,"rng_nm":50,"alt_fmsl":0,"id":"BQ","desc":"JEFFI NDB"},
{"type":"NDB","hdg_t":262.8,"dist_nm":85.3,"freq":372,"lat":32.22325000,"lon":-82.29816667,"rng_nm":50,"alt_fmsl":0,"id":"UQN","desc":"ONYUN NDB"},
{"type":"NDB","hdg_t":50.3,"dist_nm":85.4,"freq":242,"lat":33.31547222,"lon":-79.32452778,"rng_nm":50,"alt_fmsl":0,"id":"GGE","desc":"GEORGETOWN NDB"},
{"type":"NDB","hdg_t":26.4,"dist_nm":87.5,"freq":404,"lat":33.71777778,"lon":-79.85500000,"rng_nm":50,"alt_fmsl":0,"id":"CKI","desc":"KINGSTREE NDB"},
{"type":"VOR","hdg_t":346.3,"dist_nm":89,"freq":114.7,"lat":33.85725000,"lon":-81.05391667,"rng_nm":130,"alt_fmsl":400,"id":"CAE","desc":"COLUMBIA VORTAC"},
{"type":"NDB","hdg_t":324.9,"dist_nm":90.9,"freq":347,"lat":33.65180556,"lon":-81.67705556,"rng_nm":50,"alt_fmsl":0,"id":"AIK","desc":"AIKEN NDB"},
{"type":"VOR","hdg_t":354.7,"dist_nm":90.9,"freq":113.2,"lat":33.92408333,"lon":-80.80233333,"rng_nm":40,"alt_fmsl":248,"id":"MMT","desc":"MC ENTIRE VORTAC"},
{"type":"VOR","hdg_t":207.2,"dist_nm":91.4,"freq":109.8,"lat":31.05050000,"lon":-81.44591667,"rng_nm":40,"alt_fmsl":6,"id":"SSI","desc":"BRUNSWICK VORTAC"},
{"type":"NDB","hdg_t":354.8,"dist_nm":91.6,"freq":427,"lat":33.93572222,"lon":-80.79833333,"rng_nm":50,"alt_fmsl":0,"id":"MMT","desc":"MC ENTIRE NDB"},
{"type":"NDB","hdg_t":312.8,"dist_nm":93.2,"freq":385,"lat":33.46280556,"lon":-81.99686111,"rng_nm":50,"alt_fmsl":0,"id":"EMR","desc":"EMORY NDB"},
{"type":"NDB","hdg_t":279.8,"dist_nm":93.4,"freq":309,"lat":32.66652778,"lon":-82.45269444,"rng_nm":50,"alt_fmsl":0,"id":"EEX","desc":"EMANUEL CO NDB"},
{"type":"SDME","hdg_t":5.1,"dist_nm":94.1,"freq":110.1,"lat":33.97782500,"lon":-80.46622200,"rng_nm":40,"alt_fmsl":241,"id":"SSC","desc":"SHAW TACAN"},
{"type":"NDB","hdg_t":8.2,"dist_nm":95.5,"freq":252,"lat":33.99080556,"lon":-80.36002778,"rng_nm":50,"alt_fmsl":0,"id":"SMS","desc":"SUMTER NDB"},
{"type":"NDB","hdg_t":35,"dist_nm":96.6,"freq":236,"lat":33.72850000,"lon":-79.52505556,"rng_nm":50,"alt_fmsl":0,"id":"HEK","desc":"STUCKEY NDB"},
{"type":"NDB","hdg_t":26.6,"dist_nm":96.9,"freq":420,"lat":33.85600000,"lon":-79.76588889,"rng_nm":50,"alt_fmsl":0,"id":"CFY","desc":"EVANS NDB"},
{"type":"NDB","hdg_t":341.9,"dist_nm":98,"freq":362,"lat":33.96716667,"lon":-81.24469444,"rng_nm":50,"alt_fmsl":0,"id":"CA","desc":"MURRY NDB"},
{"type":"NDB","hdg_t":245.3,"dist_nm":98.8,"freq":376,"lat":31.71202778,"lon":-82.39016667,"rng_nm":50,"alt_fmsl":0,"id":"BHC","desc":"BAXLEY NDB"}
]
}
