{"success":true,"source":"xp2csv.pl","last_updated":"2013/11/08 14:53:21 UTC"
,"icao":"73WA","name":"7 Bays","lat":47.85099111,"lon":-118.33026556,"rwys":1,"ils":0,"index":1008242,"path":"w120n40/w119n47"
,"runways":[
{"len_m":793,"wid_m":18.29,"hdg":200,"surf":"Turf/grass","rwy1":"18","lat1":47.85434194,"lon1":-118.32844814,"rwy2":"36","lat2":47.84764028,"lon2":-118.33208298}
]
,"navaids":[
{"type":"SDME","hdg_t":117.8,"dist_nm":30.6,"freq":111.4,"lat":47.61069400,"lon":-117.66230300,"rng_nm":40,"alt_fmsl":2460,"id":"SKA","desc":"FAIRCHILD TACAN"},
{"type":"VOR","hdg_t":120.8,"dist_nm":33.2,"freq":115.5,"lat":47.56494444,"lon":-117.62688889,"rng_nm":130,"alt_fmsl":2756,"id":"GEG","desc":"SPOKANE VORTAC"},
{"type":"NDB","hdg_t":106,"dist_nm":37.1,"freq":388,"lat":47.67700000,"lon":-117.45019444,"rng_nm":50,"alt_fmsl":0,"id":"CRK","desc":"CANYON NDB"},
{"type":"NDB","hdg_t":78.7,"dist_nm":37.1,"freq":365,"lat":47.96775000,"lon":-117.42633333,"rng_nm":50,"alt_fmsl":0,"id":"DPY","desc":"DEER PARK NDB"},
{"type":"VOR","hdg_t":237.7,"dist_nm":52.7,"freq":112.6,"lat":47.37791667,"lon":-119.42400000,"rng_nm":130,"alt_fmsl":1250,"id":"EPH","desc":"EPHRATA VORTAC"},
{"type":"VOR","hdg_t":226.5,"dist_nm":55.5,"freq":115,"lat":47.21086111,"lon":-119.31680556,"rng_nm":130,"alt_fmsl":1194,"id":"MWH","desc":"MOSES LAKE VOR-DME"},
{"type":"NDB","hdg_t":96.1,"dist_nm":55.7,"freq":347,"lat":47.74286111,"lon":-116.96100000,"rng_nm":50,"alt_fmsl":0,"id":"LEN","desc":"POST FALLS NDB"},
{"type":"NDB","hdg_t":221.3,"dist_nm":58.5,"freq":408,"lat":47.11572222,"lon":-119.27450000,"rng_nm":50,"alt_fmsl":0,"id":"MW","desc":"PELLY NDB"},
{"type":"NDB","hdg_t":307.6,"dist_nm":59.8,"freq":219,"lat":48.45338889,"lon":-119.51700000,"rng_nm":50,"alt_fmsl":0,"id":"OMK","desc":"OMAK NDB"},
{"type":"VOR","hdg_t":93.7,"dist_nm":61.2,"freq":108.8,"lat":47.77369444,"lon":-116.82058333,"rng_nm":25,"alt_fmsl":2320,"id":"COE","desc":"COEUR D'ALENE VOR-DME"},
{"type":"NDB","hdg_t":35.1,"dist_nm":63.3,"freq":379,"lat":48.71019444,"lon":-117.41358333,"rng_nm":50,"alt_fmsl":0,"id":"ION","desc":"IONE NDB"},
{"type":"NDB","hdg_t":356.9,"dist_nm":70.1,"freq":250,"lat":49.01750000,"lon":-118.42361111,"rng_nm":50,"alt_fmsl":0,"id":"2J","desc":"GRAND FORKS NDB"},
{"type":"NDB","hdg_t":68.9,"dist_nm":75.8,"freq":264,"lat":48.29063889,"lon":-116.56322222,"rng_nm":50,"alt_fmsl":0,"id":"SZT","desc":"SANDPOE NDB"},
{"type":"VOR","hdg_t":251.1,"dist_nm":80.9,"freq":111,"lat":47.39969444,"lon":-120.21086111,"rng_nm":40,"alt_fmsl":1224,"id":"EAT","desc":"WENATCHEE VOR-DME"},
{"type":"VOR","hdg_t":146.9,"dist_nm":83.8,"freq":109,"lat":46.67430556,"lon":-117.22350000,"rng_nm":40,"alt_fmsl":2720,"id":"PUW","desc":"PULLMAN VOR-DME"},
{"type":"SDME","hdg_t":17.3,"dist_nm":88.2,"freq":110.1,"lat":49.25222200,"lon":-117.66277800,"rng_nm":25,"alt_fmsl":1695,"id":"XCG","desc":"CASTLEGAR DME"},
{"type":"NDB","hdg_t":17.9,"dist_nm":88.8,"freq":206,"lat":49.25625000,"lon":-117.63486111,"rng_nm":50,"alt_fmsl":0,"id":"EF","desc":"CHAMPION NDB"},
{"type":"NDB","hdg_t":17.1,"dist_nm":92.7,"freq":269,"lat":49.32527800,"lon":-117.63500000,"rng_nm":25,"alt_fmsl":0,"id":"YK","desc":"BRILLIANT NDB"},
{"type":"NDB","hdg_t":197.3,"dist_nm":95,"freq":331,"lat":46.33813889,"lon":-119.01252778,"rng_nm":50,"alt_fmsl":0,"id":"PS","desc":"DUNEZ NDB"},
{"type":"NDB","hdg_t":203.5,"dist_nm":96.6,"freq":260,"lat":46.37047222,"lon":-119.25911111,"rng_nm":50,"alt_fmsl":0,"id":"RL","desc":"RIBOO NDB"},
{"type":"VOR","hdg_t":240.9,"dist_nm":99.8,"freq":117.9,"lat":47.02436111,"lon":-120.45841667,"rng_nm":130,"alt_fmsl":1770,"id":"ELN","desc":"ELLENSBURG VORTAC"}
]
}
