{"success":true,"source":"xp2csv.pl","last_updated":"2013/11/08 14:53:21 UTC"
,"icao":"74OR","name":"Stan Jost","lat":45.32372833,"lon":-123.01899167,"rwys":1,"ils":0,"index":926163,"path":"w130n40/w124n45"
,"runways":[
{"len_m":396,"wid_m":24.38,"hdg":169,"surf":"Turf/grass","rwy1":"15","lat1":45.32548418,"lon1":-123.01943201,"rwy2":"33","lat2":45.32197248,"lon2":-123.01855133}
]
,"navaids":[
{"type":"VOR","hdg_t":44.2,"dist_nm":2.4,"freq":117.4,"lat":45.35322222,"lon":-122.97816667,"rng_nm":130,"alt_fmsl":1440,"id":"UBG","desc":"NEWBERG VOR-DME"},
{"type":"NDB","hdg_t":185.5,"dist_nm":4.6,"freq":383,"lat":45.24613100,"lon":-123.02973600,"rng_nm":50,"alt_fmsl":159,"id":"MM","desc":"MINNE NDB"},
{"type":"NDB","hdg_t":102.8,"dist_nm":10.8,"freq":366,"lat":45.28339200,"lon":-122.77036400,"rng_nm":25,"alt_fmsl":157,"id":"PLV","desc":"PRAHL NDB"},
{"type":"NDB","hdg_t":356.4,"dist_nm":18.4,"freq":356,"lat":45.63027778,"lon":-123.04580556,"rng_nm":50,"alt_fmsl":0,"id":"PND","desc":"BANKS NDB"},
{"type":"SDME","hdg_t":47.1,"dist_nm":23.4,"freq":109.2,"lat":45.58863100,"lon":-122.61125300,"rng_nm":130,"alt_fmsl":22,"id":"CBU","desc":"COLUMBIA TACAN"},
{"type":"VOR","hdg_t":46.9,"dist_nm":23.7,"freq":111.8,"lat":45.59369444,"lon":-122.60627778,"rng_nm":40,"alt_fmsl":23,"id":"PDX","desc":"PORTLAND VOR-DME"},
{"type":"NDB","hdg_t":60.7,"dist_nm":26.8,"freq":332,"lat":45.54105556,"lon":-122.46233333,"rng_nm":50,"alt_fmsl":0,"id":"LBH","desc":"LAKER (LOM/NDB) NDB"},
{"type":"NDB","hdg_t":174.2,"dist_nm":28.7,"freq":266,"lat":44.84744444,"lon":-122.95102778,"rng_nm":50,"alt_fmsl":0,"id":"SL","desc":"TURNO NDB"},
{"type":"VOR","hdg_t":35.1,"dist_nm":31.1,"freq":116.6,"lat":45.74780556,"lon":-122.59152778,"rng_nm":130,"alt_fmsl":253,"id":"BTG","desc":"BATTLEGROUND VORTAC"},
{"type":"NDB","hdg_t":194.2,"dist_nm":43.9,"freq":225,"lat":44.61358333,"lon":-123.27066667,"rng_nm":50,"alt_fmsl":0,"id":"LWG","desc":"LEWISBURG NDB"},
{"type":"NDB","hdg_t":5,"dist_nm":50.1,"freq":256,"lat":46.15547222,"lon":-122.91263889,"rng_nm":50,"alt_fmsl":0,"id":"LSO","desc":"KELSO NDB"},
{"type":"VOR","hdg_t":193.4,"dist_nm":50.8,"freq":115.4,"lat":44.49958333,"lon":-123.29366667,"rng_nm":130,"alt_fmsl":241,"id":"CVO","desc":"CORVALLIS VOR-DME"},
{"type":"NDB","hdg_t":334.1,"dist_nm":54.4,"freq":201,"lat":46.13952778,"lon":-123.58730556,"rng_nm":50,"alt_fmsl":0,"id":"PEN","desc":"KARPEN NDB"},
{"type":"NDB","hdg_t":229.2,"dist_nm":59.1,"freq":350,"lat":44.67600000,"lon":-124.06511111,"rng_nm":50,"alt_fmsl":0,"id":"ON","desc":"AGGET NDB"},
{"type":"VOR","hdg_t":324.5,"dist_nm":61.9,"freq":114,"lat":46.16169444,"lon":-123.88036111,"rng_nm":40,"alt_fmsl":10,"id":"AST","desc":"ASTORIA VOR-DME"},
{"type":"VOR","hdg_t":225,"dist_nm":63.1,"freq":117.1,"lat":44.57536111,"lon":-124.06058333,"rng_nm":130,"alt_fmsl":147,"id":"ONP","desc":"NEWPORT VORTAC"},
{"type":"VOR","hdg_t":186.9,"dist_nm":72.6,"freq":112.9,"lat":44.12088889,"lon":-123.22283333,"rng_nm":130,"alt_fmsl":364,"id":"EUG","desc":"EUGENE VORTAC"},
{"type":"VOR","hdg_t":73.1,"dist_nm":84.2,"freq":112.3,"lat":45.71355556,"lon":-121.10083333,"rng_nm":130,"alt_fmsl":3220,"id":"LTJ","desc":"KLICKITAT VOR-DME"},
{"type":"VOR","hdg_t":130.6,"dist_nm":97.4,"freq":117.6,"lat":44.25275000,"lon":-121.30352778,"rng_nm":130,"alt_fmsl":4101,"id":"DSD","desc":"DESCHUTES VORTAC"},
{"type":"VOR","hdg_t":2.7,"dist_nm":99,"freq":113.4,"lat":46.97163889,"lon":-122.90183333,"rng_nm":130,"alt_fmsl":200,"id":"OLM","desc":"OLYMPIA VORTAC"}
]
}
