{"success":true,"source":"xp2csv.pl","last_updated":"2013/11/08 14:53:21 UTC"
,"icao":"75K","name":"Bethany Memorial","lat":40.27694555,"lon":-94.00773,"rwys":1,"ils":0,"index":1400979,"path":"w100n40/w095n40"
,"runways":[
{"len_m":686,"wid_m":12.19,"hdg":34,"surf":"Asphalt","rwy1":"03","lat1":40.27438726,"lon1":-94.00999179,"rwy2":"21","lat2":40.27950384,"lon2":-94.00546821}
]
,"navaids":[
{"type":"VOR","hdg_t":5.4,"dist_nm":19.2,"freq":116.7,"lat":40.59675000,"lon":-93.96758333,"rng_nm":130,"alt_fmsl":1140,"id":"LMN","desc":"LAMONI VORTAC"},
{"type":"NDB","hdg_t":121.5,"dist_nm":22.4,"freq":400,"lat":40.08027778,"lon":-93.59300000,"rng_nm":50,"alt_fmsl":0,"id":"TRX","desc":"TRENTON NDB"},
{"type":"NDB","hdg_t":200.4,"dist_nm":35,"freq":394,"lat":39.72941667,"lon":-94.27230556,"rng_nm":50,"alt_fmsl":0,"id":"EZZ","desc":"CAMERON NDB"},
{"type":"NDB","hdg_t":141.5,"dist_nm":38.1,"freq":375,"lat":39.77711111,"lon":-93.49419444,"rng_nm":50,"alt_fmsl":0,"id":"CHT","desc":"CHILLICOTHE NDB"},
{"type":"VOR","hdg_t":170.9,"dist_nm":39.2,"freq":111.2,"lat":39.63055556,"lon":-93.87527778,"rng_nm":40,"alt_fmsl":930,"id":"BQS","desc":"BRAYMER VOR-DME"},
{"type":"NDB","hdg_t":339.2,"dist_nm":43.6,"freq":379,"lat":40.95744444,"lon":-94.34725000,"rng_nm":50,"alt_fmsl":0,"id":"UNE","desc":"UNION CO NDB"},
{"type":"VOR","hdg_t":246.1,"dist_nm":46.2,"freq":115.5,"lat":39.96058333,"lon":-94.92522222,"rng_nm":130,"alt_fmsl":1160,"id":"STJ","desc":"ST JOSEPH VORTAC"},
{"type":"NDB","hdg_t":240.6,"dist_nm":47.6,"freq":233,"lat":39.88380556,"lon":-94.90813889,"rng_nm":50,"alt_fmsl":0,"id":"AZN","desc":"AMAZON NDB"},
{"type":"NDB","hdg_t":126.2,"dist_nm":51.5,"freq":383,"lat":39.76419444,"lon":-93.10908333,"rng_nm":50,"alt_fmsl":0,"id":"BZK","desc":"BROOKFIELD NDB"},
{"type":"NDB","hdg_t":33.4,"dist_nm":53.2,"freq":335,"lat":41.01675000,"lon":-93.36194444,"rng_nm":50,"alt_fmsl":0,"id":"CNC","desc":"CHARITON NDB"},
{"type":"NDB","hdg_t":300.1,"dist_nm":53.8,"freq":353,"lat":40.72366667,"lon":-95.02797222,"rng_nm":50,"alt_fmsl":0,"id":"ICL","desc":"CLARINDA NDB"},
{"type":"NDB","hdg_t":229.2,"dist_nm":54.9,"freq":260,"lat":39.67572222,"lon":-94.90683333,"rng_nm":50,"alt_fmsl":0,"id":"ST","desc":"TARIO NDB"},
{"type":"NDB","hdg_t":321.8,"dist_nm":55,"freq":278,"lat":40.99638889,"lon":-94.75691667,"rng_nm":50,"alt_fmsl":0,"id":"CRZ","desc":"CORNING NDB"},
{"type":"NDB","hdg_t":210.3,"dist_nm":61.6,"freq":275,"lat":39.38691667,"lon":-94.67697222,"rng_nm":50,"alt_fmsl":0,"id":"DY","desc":"LEXEY NDB"},
{"type":"VOR","hdg_t":96.9,"dist_nm":65.6,"freq":114.6,"lat":40.13502778,"lon":-92.59172222,"rng_nm":130,"alt_fmsl":985,"id":"IRK","desc":"KIRKSVILLE VORTAC"},
{"type":"NDB","hdg_t":202.3,"dist_nm":68.3,"freq":344,"lat":39.22080556,"lon":-94.56433333,"rng_nm":50,"alt_fmsl":0,"id":"MK","desc":"KENZY NDB"},
{"type":"VOR","hdg_t":209.8,"dist_nm":68.3,"freq":113.25,"lat":39.28527778,"lon":-94.73705556,"rng_nm":130,"alt_fmsl":1017,"id":"MCI","desc":"KANSAS CITY VORTAC"},
{"type":"NDB","hdg_t":294.4,"dist_nm":70,"freq":411,"lat":40.75169444,"lon":-95.40750000,"rng_nm":50,"alt_fmsl":0,"id":"SDA","desc":"SHENANDOAH NDB"},
{"type":"VOR","hdg_t":249,"dist_nm":70,"freq":108.2,"lat":39.85083333,"lon":-95.42305556,"rng_nm":40,"alt_fmsl":1126,"id":"RBA","desc":"ROBINSON VOR-DME"},
{"type":"NDB","hdg_t":213.9,"dist_nm":70.2,"freq":416,"lat":39.30197222,"lon":-94.85111111,"rng_nm":50,"alt_fmsl":0,"id":"RN","desc":"HUGGY NDB"},
{"type":"VOR","hdg_t":184.5,"dist_nm":71,"freq":114,"lat":39.09541667,"lon":-94.12883333,"rng_nm":40,"alt_fmsl":878,"id":"ANX","desc":"NAPOLEON VORTAC"},
{"type":"VOR","hdg_t":13.1,"dist_nm":71.4,"freq":117.5,"lat":41.43761111,"lon":-93.64855556,"rng_nm":130,"alt_fmsl":951,"id":"DSM","desc":"DES MOINES VORTAC"},
{"type":"NDB","hdg_t":208.7,"dist_nm":72,"freq":359,"lat":39.22088889,"lon":-94.74991667,"rng_nm":50,"alt_fmsl":0,"id":"DO","desc":"DOTTE NDB"},
{"type":"NDB","hdg_t":308.2,"dist_nm":72.1,"freq":230,"lat":41.01525000,"lon":-95.25575000,"rng_nm":50,"alt_fmsl":0,"id":"RDK","desc":"RED OAK NDB"},
{"type":"NDB","hdg_t":261.1,"dist_nm":73.6,"freq":404,"lat":40.07633333,"lon":-95.58688889,"rng_nm":50,"alt_fmsl":0,"id":"FNB","desc":"BRENNER NDB"},
{"type":"VOR","hdg_t":201.6,"dist_nm":74.5,"freq":111.4,"lat":39.12038889,"lon":-94.59658333,"rng_nm":25,"alt_fmsl":740,"id":"RIS","desc":"RIVERSIDE VOR-DME"},
{"type":"NDB","hdg_t":14.9,"dist_nm":74.8,"freq":344,"lat":41.48213889,"lon":-93.58072222,"rng_nm":50,"alt_fmsl":0,"id":"DS","desc":"FOREM NDB"},
{"type":"NDB","hdg_t":68.2,"dist_nm":77.4,"freq":269,"lat":40.74502778,"lon":-92.43047222,"rng_nm":50,"alt_fmsl":0,"id":"BEX","desc":"BLOOMFIELD NDB"},
{"type":"VOR","hdg_t":117.4,"dist_nm":79.6,"freq":112.9,"lat":39.65405556,"lon":-92.48216667,"rng_nm":40,"alt_fmsl":870,"id":"MCM","desc":"MACON VOR-DME"},
{"type":"NDB","hdg_t":192.1,"dist_nm":80.6,"freq":263,"lat":38.96068600,"lon":-94.37173900,"rng_nm":25,"alt_fmsl":1041,"id":"LXT","desc":"LESUMIT NDB"},
{"type":"NDB","hdg_t":325.3,"dist_nm":82.4,"freq":365,"lat":41.40397222,"lon":-95.04625000,"rng_nm":50,"alt_fmsl":0,"id":"AIO","desc":"ATLANTIC NDB"},
{"type":"NDB","hdg_t":152.8,"dist_nm":83,"freq":371,"lat":39.04194444,"lon":-93.19583333,"rng_nm":50,"alt_fmsl":0,"id":"PUR","desc":"MARSHALL NDB"},
{"type":"NDB","hdg_t":35.2,"dist_nm":83.1,"freq":257,"lat":41.40452778,"lon":-92.94463889,"rng_nm":50,"alt_fmsl":0,"id":"PEA","desc":"PELLA NDB"},
{"type":"NDB","hdg_t":283.6,"dist_nm":87.1,"freq":347,"lat":40.60555556,"lon":-95.86083333,"rng_nm":50,"alt_fmsl":0,"id":"AFK","desc":"NEBRASKA CITY NDB"},
{"type":"NDB","hdg_t":203,"dist_nm":87.2,"freq":526,"lat":38.93488845,"lon":-94.73732723,"rng_nm":25,"alt_fmsl":0,"id":"OJ","desc":"Furor LOM"},
{"type":"VOR","hdg_t":59,"dist_nm":89,"freq":111.6,"lat":41.02913889,"lon":-92.32591667,"rng_nm":40,"alt_fmsl":820,"id":"OTM","desc":"OTTUMWA INDUSTRIA VOR-DME"},
{"type":"NDB","hdg_t":50.1,"dist_nm":89.6,"freq":414,"lat":41.22550000,"lon":-92.48738889,"rng_nm":50,"alt_fmsl":0,"id":"OOA","desc":"OSKALOOSA NDB"},
{"type":"VOR","hdg_t":201.6,"dist_nm":92.5,"freq":113,"lat":38.84063889,"lon":-94.73675000,"rng_nm":25,"alt_fmsl":1034,"id":"OJC","desc":"JOHNSON COUNTY VOR-DME"},
{"type":"NDB","hdg_t":334.4,"dist_nm":94.1,"freq":266,"lat":41.69027778,"lon":-94.90997222,"rng_nm":50,"alt_fmsl":0,"id":"ADU","desc":"AUDUBON NDB"},
{"type":"SDME","hdg_t":166.9,"dist_nm":94.8,"freq":109.8,"lat":38.73570000,"lon":-93.55042800,"rng_nm":40,"alt_fmsl":850,"id":"SZL","desc":"WHITEMAN TACAN"},
{"type":"VOR","hdg_t":304.6,"dist_nm":95.2,"freq":116.3,"lat":41.16727778,"lon":-95.73672222,"rng_nm":130,"alt_fmsl":1300,"id":"OVR","desc":"OMAHA VORTAC"},
{"type":"NDB","hdg_t":295.2,"dist_nm":95.7,"freq":329,"lat":40.94377778,"lon":-95.91247222,"rng_nm":50,"alt_fmsl":0,"id":"PMV","desc":"PLATTSMOUTH NDB"},
{"type":"NDB","hdg_t":200.6,"dist_nm":97.4,"freq":420,"lat":38.75363890,"lon":-94.73785930,"rng_nm":25,"alt_fmsl":0,"id":"PK","desc":"Herbb LOM"},
{"type":"NDB","hdg_t":213.4,"dist_nm":97.4,"freq":338,"lat":38.91363889,"lon":-95.15375000,"rng_nm":50,"alt_fmsl":0,"id":"JZ","desc":"NEWBN NDB"},
{"type":"NDB","hdg_t":9.1,"dist_nm":98.7,"freq":362,"lat":41.90302778,"lon":-93.65888889,"rng_nm":50,"alt_fmsl":0,"id":"EE","desc":"MERLE NDB"},
{"type":"NDB","hdg_t":322.6,"dist_nm":98.8,"freq":272,"lat":41.57897222,"lon":-95.34097222,"rng_nm":50,"alt_fmsl":0,"id":"HNR","desc":"HARLAN NDB"},
{"type":"VOR","hdg_t":226.7,"dist_nm":98.8,"freq":117.8,"lat":39.13711111,"lon":-95.54911111,"rng_nm":40,"alt_fmsl":1070,"id":"TOP","desc":"TOPEKA VORTAC"},
{"type":"VOR","hdg_t":24,"dist_nm":99.1,"freq":112.5,"lat":41.78383333,"lon":-93.10897222,"rng_nm":40,"alt_fmsl":980,"id":"TNU","desc":"NEWTON VOR-DME"},
{"type":"SDME","hdg_t":300.8,"dist_nm":99.9,"freq":111.7,"lat":41.11722800,"lon":-95.90000300,"rng_nm":40,"alt_fmsl":1090,"id":"OFF","desc":"OFFUTT TACAN"}
]
}
