{"success":true,"source":"xp2csv.pl","last_updated":"2013/11/08 14:53:21 UTC"
,"icao":"75TX","name":"Leona Ranch","lat":29.5002305,"lon":-100.3670255,"rwys":1,"ils":0,"index":1301986,"path":"w110n20/w101n29"
,"runways":[
{"len_m":1295,"wid_m":15.24,"hdg":146,"surf":"Asphalt","rwy1":"14","lat1":29.50510400,"lon1":-100.37071100,"rwy2":"32","lat2":29.49535700,"lon2":-100.36334000}
]
,"navaids":[
{"type":"NDB","hdg_t":188.5,"dist_nm":21.4,"freq":356,"lat":29.14525000,"lon":-100.42758333,"rng_nm":50,"alt_fmsl":0,"id":"PFO","desc":"SPOFFORD NDB"},
{"type":"NDB","hdg_t":217.7,"dist_nm":22,"freq":269,"lat":29.20858333,"lon":-100.62397222,"rng_nm":50,"alt_fmsl":0,"id":"BRX","desc":"LA FONDA RANCH NDB"},
{"type":"VOR","hdg_t":248.6,"dist_nm":22.7,"freq":114.4,"lat":29.36088889,"lon":-100.77172222,"rng_nm":130,"alt_fmsl":1071,"id":"DLF","desc":"LAUGHLIN VORTAC"},
{"type":"VOR","hdg_t":6.4,"dist_nm":30.9,"freq":111.2,"lat":30.01461111,"lon":-100.29983333,"rng_nm":40,"alt_fmsl":2310,"id":"RSG","desc":"ROCKSPRINGS VORTAC"},
{"type":"NDB","hdg_t":119.6,"dist_nm":38.7,"freq":281,"lat":29.17772222,"lon":-99.72569444,"rng_nm":50,"alt_fmsl":0,"id":"UVA","desc":"UVALDE NDB"},
{"type":"NDB","hdg_t":151.6,"dist_nm":40.1,"freq":385,"lat":28.90997222,"lon":-100.00561111,"rng_nm":50,"alt_fmsl":0,"id":"CPZ","desc":"CHAPARROSA RANCH NDB"},
{"type":"NDB","hdg_t":141.6,"dist_nm":43.4,"freq":223,"lat":28.92997222,"lon":-99.85477778,"rng_nm":50,"alt_fmsl":0,"id":"LKX","desc":"LA PRYOR NDB"},
{"type":"VOR","hdg_t":189.8,"dist_nm":52.7,"freq":113.6,"lat":28.63183333,"lon":-100.53838889,"rng_nm":130,"alt_fmsl":901,"id":"PNG","desc":"PIEDRAS VOR-DME"},
{"type":"VOR","hdg_t":97.9,"dist_nm":62.9,"freq":109.4,"lat":29.34911111,"lon":-99.17788889,"rng_nm":40,"alt_fmsl":947,"id":"HDO","desc":"HONDO VOR-DME"},
{"type":"NDB","hdg_t":96.6,"dist_nm":63,"freq":329,"lat":29.37341667,"lon":-99.17202778,"rng_nm":50,"alt_fmsl":0,"id":"HMA","desc":"HONDO NDB"},
{"type":"NDB","hdg_t":153.9,"dist_nm":65,"freq":343,"lat":28.52244444,"lon":-99.82727778,"rng_nm":50,"alt_fmsl":0,"id":"DMD","desc":"DIMMIT CO NDB"},
{"type":"VOR","hdg_t":66.9,"dist_nm":65.3,"freq":117.5,"lat":29.92233333,"lon":-99.21450000,"rng_nm":130,"alt_fmsl":2080,"id":"CSI","desc":"CENTER POINT VORTAC"},
{"type":"NDB","hdg_t":347.3,"dist_nm":66.3,"freq":371,"lat":30.58180556,"lon":-100.64694444,"rng_nm":50,"alt_fmsl":0,"id":"SOA","desc":"SONORA NDB"},
{"type":"VOR","hdg_t":23.3,"dist_nm":71.6,"freq":116,"lat":30.59802778,"lon":-99.81752778,"rng_nm":130,"alt_fmsl":2280,"id":"JCT","desc":"JUNCTION VORTAC"},
{"type":"NDB","hdg_t":70.3,"dist_nm":75.1,"freq":263,"lat":29.91500000,"lon":-99.00941667,"rng_nm":50,"alt_fmsl":0,"id":"ER","desc":"SHEIN NDB"},
{"type":"NDB","hdg_t":105.7,"dist_nm":77.9,"freq":359,"lat":29.13833333,"lon":-98.93925000,"rng_nm":50,"alt_fmsl":0,"id":"HHH","desc":"DEVINE NDB"},
{"type":"NDB","hdg_t":96.2,"dist_nm":80,"freq":338,"lat":29.34606900,"lon":-98.84919400,"rng_nm":25,"alt_fmsl":762,"id":"CVB","desc":"CASTROVILLE NDB"},
{"type":"VOR","hdg_t":133,"dist_nm":90.4,"freq":115.8,"lat":28.46200000,"lon":-99.11852778,"rng_nm":40,"alt_fmsl":520,"id":"COT","desc":"COTULLA VORTAC"},
{"type":"SDME","hdg_t":93.5,"dist_nm":93.7,"freq":112,"lat":29.39158300,"lon":-98.58104700,"rng_nm":40,"alt_fmsl":687,"id":"KSY","desc":"KELLY TACAN"},
{"type":"NDB","hdg_t":85.6,"dist_nm":94.2,"freq":368,"lat":29.60758333,"lon":-98.56969444,"rng_nm":50,"alt_fmsl":0,"id":"AN","desc":"ALAMO NDB"},
{"type":"VOR","hdg_t":63.5,"dist_nm":96.4,"freq":113.8,"lat":30.20675000,"lon":-98.70575000,"rng_nm":130,"alt_fmsl":1530,"id":"STV","desc":"STONEWALL VORTAC"},
{"type":"NDB","hdg_t":90.4,"dist_nm":96.8,"freq":219,"lat":29.47461400,"lon":-98.51861700,"rng_nm":25,"alt_fmsl":0,"id":"SA","desc":"BLUIE NDB"}
]
}
