{"success":true,"source":"xp2csv.pl","last_updated":"2013/11/08 14:53:21 UTC"
,"icao":"77CA","name":"Daulton","lat":37.12077944,"lon":-119.98793973,"rwys":1,"ils":0,"index":991168,"path":"w120n30/w120n37"
,"runways":[
{"len_m":519,"wid_m":28.96,"hdg":105,"surf":"Dirt","rwy1":"09","lat1":37.12142210,"lon1":-119.99075050,"rwy2":"27","lat2":37.12013678,"lon2":-119.98512896}
]
,"navaids":[
{"type":"VOR","hdg_t":149.5,"dist_nm":16.4,"freq":112.9,"lat":36.88433333,"lon":-119.81513889,"rng_nm":130,"alt_fmsl":360,"id":"CZQ","desc":"CLOVIS VORTAC"},
{"type":"VOR","hdg_t":92.8,"dist_nm":18.8,"freq":115.6,"lat":37.10441667,"lon":-119.59544444,"rng_nm":40,"alt_fmsl":2380,"id":"FRA","desc":"FRIANT VORTAC"},
{"type":"VOR","hdg_t":286.7,"dist_nm":20.6,"freq":114.2,"lat":37.21944444,"lon":-120.40022222,"rng_nm":40,"alt_fmsl":184,"id":"HYP","desc":"EL NIDO VOR-DME"},
{"type":"NDB","hdg_t":162.6,"dist_nm":24.9,"freq":344,"lat":36.72394444,"lon":-119.83369444,"rng_nm":50,"alt_fmsl":0,"id":"FCH","desc":"CHANDLER NDB"},
{"type":"VOR","hdg_t":237.6,"dist_nm":45.1,"freq":112.6,"lat":36.71547222,"lon":-120.77869444,"rng_nm":40,"alt_fmsl":2060,"id":"PXN","desc":"PANOCHE VORTAC"},
{"type":"SDME","hdg_t":178.7,"dist_nm":46.5,"freq":113.3,"lat":36.34409700,"lon":-119.96631700,"rng_nm":25,"alt_fmsl":231,"id":"NLC","desc":"LEMOORE TACAN"},
{"type":"NDB","hdg_t":303.4,"dist_nm":49.5,"freq":367,"lat":37.57311111,"lon":-120.85511111,"rng_nm":50,"alt_fmsl":0,"id":"MO","desc":"WOWAR NDB"},
{"type":"VOR","hdg_t":151.4,"dist_nm":51.3,"freq":109.4,"lat":36.36730556,"lon":-119.48216667,"rng_nm":25,"alt_fmsl":260,"id":"VIS","desc":"VISALIA VOR-DME"},
{"type":"VOR","hdg_t":303.4,"dist_nm":55.4,"freq":114.6,"lat":37.62736111,"lon":-120.95786111,"rng_nm":130,"alt_fmsl":93,"id":"MOD","desc":"MODESTO VOR-DME"},
{"type":"NDB","hdg_t":160.6,"dist_nm":66.9,"freq":205,"lat":36.06605556,"lon":-119.53094444,"rng_nm":50,"alt_fmsl":0,"id":"COR","desc":"SALYER FARMS NDB"},
{"type":"VOR","hdg_t":209.3,"dist_nm":67.2,"freq":110,"lat":36.14038889,"lon":-120.66491667,"rng_nm":40,"alt_fmsl":0,"id":"ROM","desc":"PRIEST VOR"},
{"type":"VOR","hdg_t":307.4,"dist_nm":70.8,"freq":116,"lat":37.83361111,"lon":-121.17138889,"rng_nm":130,"alt_fmsl":47,"id":"ECA","desc":"MANTECA VOR-DME"},
{"type":"VOR","hdg_t":320,"dist_nm":74.9,"freq":114.8,"lat":38.07458333,"lon":-121.00386111,"rng_nm":130,"alt_fmsl":260,"id":"LIN","desc":"LINDEN VORTAC"},
{"type":"NDB","hdg_t":296.6,"dist_nm":77.6,"freq":203,"lat":37.69238889,"lon":-121.44463889,"rng_nm":50,"alt_fmsl":0,"id":"TCY","desc":"TRACY NDB"},
{"type":"VOR","hdg_t":78.3,"dist_nm":79.1,"freq":109.6,"lat":37.37694444,"lon":-118.36652778,"rng_nm":25,"alt_fmsl":4117,"id":"BIH","desc":"BISHOP VOR-DME"},
{"type":"NDB","hdg_t":242.6,"dist_nm":80.9,"freq":263,"lat":36.49091667,"lon":-121.47491667,"rng_nm":50,"alt_fmsl":0,"id":"UAD","desc":"CHUALAR NDB"},
{"type":"VOR","hdg_t":251,"dist_nm":82.4,"freq":117.3,"lat":36.66383333,"lon":-121.60319444,"rng_nm":130,"alt_fmsl":101,"id":"SNS","desc":"SALINAS VORTAC"},
{"type":"VOR","hdg_t":146.8,"dist_nm":86.1,"freq":109.2,"lat":35.91305556,"lon":-119.02080556,"rng_nm":40,"alt_fmsl":580,"id":"TTE","desc":"TULE VOR-DME"},
{"type":"NDB","hdg_t":293.4,"dist_nm":88,"freq":374,"lat":37.69222222,"lon":-121.68408333,"rng_nm":50,"alt_fmsl":0,"id":"LV","desc":"REIGA NDB"},
{"type":"NDB","hdg_t":262.4,"dist_nm":88.3,"freq":327,"lat":36.91355556,"lon":-121.80797222,"rng_nm":50,"alt_fmsl":0,"id":"PDG","desc":"PAJAR NDB"},
{"type":"VOR","hdg_t":179.7,"dist_nm":88.3,"freq":117.1,"lat":35.64697222,"lon":-119.97861111,"rng_nm":130,"alt_fmsl":710,"id":"AVE","desc":"AVENAL VORTAC"},
{"type":"NDB","hdg_t":220.2,"dist_nm":90.5,"freq":209,"lat":35.96116667,"lon":-121.18916667,"rng_nm":50,"alt_fmsl":0,"id":"HGT","desc":"HUNTER LIGGETT NDB"},
{"type":"VOR","hdg_t":199.8,"dist_nm":92.1,"freq":114.3,"lat":35.67247222,"lon":-120.62711111,"rng_nm":40,"alt_fmsl":817,"id":"PRB","desc":"PASO ROBLES VORTAC"},
{"type":"VOR","hdg_t":279.8,"dist_nm":94.9,"freq":114.1,"lat":37.37472222,"lon":-121.94466667,"rng_nm":40,"alt_fmsl":43,"id":"SJC","desc":"SAN JOSE VOR-DME"},
{"type":"VOR","hdg_t":235.3,"dist_nm":97.7,"freq":114,"lat":36.18130556,"lon":-121.64211111,"rng_nm":40,"alt_fmsl":4080,"id":"BSR","desc":"BIG SUR VORTAC"},
{"type":"NDB","hdg_t":252.8,"dist_nm":98.5,"freq":385,"lat":36.62075000,"lon":-121.93863889,"rng_nm":50,"alt_fmsl":0,"id":"MR","desc":"MUNSO NDB"}
]
}
