{"success":true,"source":"xp2csv.pl","last_updated":"2013/11/08 14:53:21 UTC"
,"icao":"77XS","name":"Garrett Ranch","lat":29.28722225,"lon":-95.359722,"rwys":2,"ils":0,"index":1383890,"path":"w100n20/w096n29"
,"runways":[
{"len_m":1196,"wid_m":18.29,"hdg":59,"surf":"Asphalt","rwy1":"06","lat1":29.28444400,"lon1":-95.36500000,"rwy2":"24","lat2":29.29000000,"lon2":-95.35444400},
{"len_m":508,"wid_m":18.29,"hdg":147,"surf":"Turf/grass","rwy1":"15","lat1":29.28916700,"lon1":-95.36111100,"rwy2":"33","lat2":29.28527800,"lon2":-95.35833300}
]
,"navaids":[
{"type":"NDB","hdg_t":224.3,"dist_nm":7.7,"freq":263,"lat":29.19433333,"lon":-95.46316667,"rng_nm":50,"alt_fmsl":0,"id":"LB","desc":"FREEP NDB"},
{"type":"SDME","hdg_t":28.7,"dist_nm":21.7,"freq":109.4,"lat":29.60595800,"lon":-95.15965300,"rng_nm":40,"alt_fmsl":30,"id":"EFD","desc":"ELLINGTON TACAN"},
{"type":"VOR","hdg_t":11.1,"dist_nm":22.4,"freq":117.1,"lat":29.65563889,"lon":-95.27663889,"rng_nm":130,"alt_fmsl":82,"id":"HUB","desc":"HOBBY VOR-DME"},
{"type":"VOR","hdg_t":92.2,"dist_nm":25.8,"freq":113,"lat":29.26933333,"lon":-94.86772222,"rng_nm":40,"alt_fmsl":4,"id":"VUH","desc":"SCHOLES VORTAC"},
{"type":"NDB","hdg_t":33.5,"dist_nm":27.4,"freq":347,"lat":29.66841667,"lon":-95.06983333,"rng_nm":50,"alt_fmsl":0,"id":"JPA","desc":"SANJAC NDB"},
{"type":"NDB","hdg_t":84.8,"dist_nm":31.7,"freq":206,"lat":29.33397222,"lon":-94.75622222,"rng_nm":75,"alt_fmsl":0,"id":"GLS","desc":"GALVESTON NDB"},
{"type":"NDB","hdg_t":234.4,"dist_nm":32.3,"freq":344,"lat":28.97250000,"lon":-95.85913889,"rng_nm":50,"alt_fmsl":0,"id":"BYY","desc":"BAY CITY NDB"},
{"type":"VOR","hdg_t":64,"dist_nm":35.6,"freq":113.6,"lat":29.54633333,"lon":-94.74750000,"rng_nm":40,"alt_fmsl":38,"id":"MHF","desc":"TRINITY VOR-DME"},
{"type":"VOR","hdg_t":1,"dist_nm":40,"freq":116.6,"lat":29.95691667,"lon":-95.34572222,"rng_nm":130,"alt_fmsl":90,"id":"IAH","desc":"HUMBLE VORTAC"},
{"type":"NDB","hdg_t":339.2,"dist_nm":41.4,"freq":286,"lat":29.93386111,"lon":-95.64100000,"rng_nm":50,"alt_fmsl":0,"id":"EYQ","desc":"WEISER NDB"},
{"type":"NDB","hdg_t":267.5,"dist_nm":41.6,"freq":245,"lat":29.25463889,"lon":-96.15202778,"rng_nm":50,"alt_fmsl":0,"id":"ARM","desc":"WHARTON NDB"},
{"type":"NDB","hdg_t":10.1,"dist_nm":42.9,"freq":326,"lat":29.99333333,"lon":-95.21502778,"rng_nm":50,"alt_fmsl":0,"id":"BVP","desc":"NIXIN NDB"},
{"type":"NDB","hdg_t":347.9,"dist_nm":51.3,"freq":521,"lat":30.12552778,"lon":-95.56586111,"rng_nm":50,"alt_fmsl":0,"id":"DWH","desc":"DAVID HOOKS NDB"},
{"type":"VOR","hdg_t":294.3,"dist_nm":54.9,"freq":116.4,"lat":29.66244444,"lon":-96.31716667,"rng_nm":130,"alt_fmsl":190,"id":"ELA","desc":"EAGLE LAKE VOR-DME"},
{"type":"VOR","hdg_t":238,"dist_nm":58.7,"freq":117.3,"lat":28.76441667,"lon":-96.30619444,"rng_nm":130,"alt_fmsl":6,"id":"PSX","desc":"PALACIOS VORTAC"},
{"type":"VOR","hdg_t":34.4,"dist_nm":65.6,"freq":116.9,"lat":30.18972222,"lon":-94.64497222,"rng_nm":130,"alt_fmsl":76,"id":"DAS","desc":"DAISETTA VORTAC"},
{"type":"NDB","hdg_t":354.9,"dist_nm":68.7,"freq":281,"lat":30.43200000,"lon":-95.47625000,"rng_nm":50,"alt_fmsl":0,"id":"CX","desc":"ALIBI NDB"},
{"type":"VOR","hdg_t":328.8,"dist_nm":70.1,"freq":115.9,"lat":30.28852778,"lon":-96.05822222,"rng_nm":130,"alt_fmsl":230,"id":"TNV","desc":"NAVASOTA VORTAC"},
{"type":"VOR","hdg_t":70.6,"dist_nm":73.2,"freq":115.4,"lat":29.68672222,"lon":-94.03797222,"rng_nm":40,"alt_fmsl":10,"id":"SBI","desc":"SABINE PASS VOR-DME"},
{"type":"VOR","hdg_t":302.7,"dist_nm":74.5,"freq":110.2,"lat":29.95605556,"lon":-96.56219444,"rng_nm":40,"alt_fmsl":419,"id":"IDU","desc":"INDUSTRY VORTAC"},
{"type":"NDB","hdg_t":51.7,"dist_nm":76.1,"freq":368,"lat":30.07047222,"lon":-94.21102778,"rng_nm":50,"alt_fmsl":0,"id":"GDE","desc":"GOODHUE NDB"},
{"type":"NDB","hdg_t":241.6,"dist_nm":79.3,"freq":515,"lat":28.65089700,"lon":-96.68145800,"rng_nm":25,"alt_fmsl":26,"id":"PKV","desc":"PORT LAVACA NDB"},
{"type":"VOR","hdg_t":60.3,"dist_nm":80.5,"freq":114.5,"lat":29.94605556,"lon":-94.01622222,"rng_nm":40,"alt_fmsl":10,"id":"BPT","desc":"BEAUMONT VOR-DME"},
{"type":"NDB","hdg_t":42.1,"dist_nm":85,"freq":524,"lat":30.33633333,"lon":-94.26036111,"rng_nm":50,"alt_fmsl":0,"id":"HRD","desc":"HARDIN CO NDB"},
{"type":"NDB","hdg_t":352.1,"dist_nm":87.8,"freq":308,"lat":30.74075000,"lon":-95.59086111,"rng_nm":50,"alt_fmsl":0,"id":"UTS","desc":"HUNTSVILLE NDB"},
{"type":"VOR","hdg_t":255.1,"dist_nm":88.2,"freq":109,"lat":28.90030556,"lon":-96.97894444,"rng_nm":40,"alt_fmsl":125,"id":"VCT","desc":"VICTORIA VOR-DME"},
{"type":"NDB","hdg_t":325,"dist_nm":88.4,"freq":260,"lat":30.49372222,"lon":-96.33769444,"rng_nm":50,"alt_fmsl":0,"id":"CL","desc":"ROWDY NDB"},
{"type":"NDB","hdg_t":255.9,"dist_nm":89,"freq":226,"lat":28.91522222,"lon":-97.00047222,"rng_nm":50,"alt_fmsl":0,"id":"VC","desc":"FOSTR NDB"},
{"type":"NDB","hdg_t":271.3,"dist_nm":93.3,"freq":350,"lat":29.31202778,"lon":-97.13863889,"rng_nm":50,"alt_fmsl":0,"id":"OKT","desc":"YOAKUM NDB"},
{"type":"NDB","hdg_t":59.7,"dist_nm":94.2,"freq":211,"lat":30.07027778,"lon":-93.79494444,"rng_nm":50,"alt_fmsl":0,"id":"ORG","desc":"ORANGE NDB"},
{"type":"VOR","hdg_t":325.2,"dist_nm":96.3,"freq":113.3,"lat":30.60500000,"lon":-96.42069444,"rng_nm":40,"alt_fmsl":275,"id":"CLL","desc":"COLLEGE STATION VORTAC"},
{"type":"NDB","hdg_t":302.3,"dist_nm":99.7,"freq":385,"lat":30.16952200,"lon":-96.97874400,"rng_nm":25,"alt_fmsl":464,"id":"GYB","desc":"LEE COUNTY NDB"}
]
}
