{"success":true,"source":"xp2csv.pl","last_updated":"2013/11/08 14:53:21 UTC"
,"icao":"78WA","name":"Center Island","lat":48.49010111,"lon":-122.83212112,"rwys":1,"ils":0,"index":942744,"path":"w130n40/w123n48"
,"runways":[
{"len_m":488,"wid_m":30.48,"hdg":191,"surf":"Turf/grass","rwy1":"17","lat1":48.49225518,"lon1":-122.83148935,"rwy2":"35","lat2":48.48794704,"lon2":-122.83275289}
]
,"navaids":[
{"type":"NDB","hdg_t":259.6,"dist_nm":3.6,"freq":356,"lat":48.47927778,"lon":-122.92100000,"rng_nm":50,"alt_fmsl":0,"id":"OPZ","desc":"LOPEZ ISLAND NDB"},
{"type":"NDB","hdg_t":279.8,"dist_nm":7.7,"freq":284,"lat":48.51213889,"lon":-123.02386111,"rng_nm":50,"alt_fmsl":0,"id":"FHR","desc":"FRIDAY HARBOR NDB"},
{"type":"SDME","hdg_t":139.9,"dist_nm":10.5,"freq":113.8,"lat":48.35489700,"lon":-122.66173600,"rng_nm":130,"alt_fmsl":51,"id":"NUW","desc":"WHIDBEY ISLAND TACAN"},
{"type":"VOR","hdg_t":163.6,"dist_nm":15.3,"freq":117.2,"lat":48.24469444,"lon":-122.72441667,"rng_nm":40,"alt_fmsl":200,"id":"CVV","desc":"PENN COVE VOR-DME"},
{"type":"NDB","hdg_t":94.3,"dist_nm":16.5,"freq":240,"lat":48.46861111,"lon":-122.41841667,"rng_nm":50,"alt_fmsl":0,"id":"BVS","desc":"SKAGIT/BAY VIEW NDB"},
{"type":"NDB","hdg_t":292.4,"dist_nm":24.4,"freq":200,"lat":48.64416667,"lon":-123.39947222,"rng_nm":50,"alt_fmsl":0,"id":"YJ","desc":"VICTORIA NDB"},
{"type":"NDB","hdg_t":25.5,"dist_nm":27.2,"freq":338,"lat":48.89910000,"lon":-122.53477200,"rng_nm":50,"alt_fmsl":44,"id":"BL","desc":"BENZA NDB"},
{"type":"VOR","hdg_t":20,"dist_nm":29.1,"freq":113,"lat":48.94527778,"lon":-122.57925000,"rng_nm":130,"alt_fmsl":83,"id":"HUH","desc":"WHATCOM VORTAC"},
{"type":"NDB","hdg_t":321.8,"dist_nm":29.3,"freq":378,"lat":48.87386111,"lon":-123.29000000,"rng_nm":50,"alt_fmsl":0,"id":"AP","desc":"ACTIVE PASS NDB"},
{"type":"VOR","hdg_t":298.9,"dist_nm":29.6,"freq":113.7,"lat":48.72702778,"lon":-123.48436111,"rng_nm":130,"alt_fmsl":1997,"id":"YYJ","desc":"VICTORIA VOR-DME"},
{"type":"NDB","hdg_t":291.4,"dist_nm":30.1,"freq":293,"lat":48.67166667,"lon":-123.53666667,"rng_nm":50,"alt_fmsl":0,"id":"MB","desc":"MILL BAY NDB"},
{"type":"NDB","hdg_t":5.9,"dist_nm":30.9,"freq":332,"lat":49.00333333,"lon":-122.75027778,"rng_nm":50,"alt_fmsl":0,"id":"WC","desc":"WHITE ROCK NDB"},
{"type":"NDB","hdg_t":227.6,"dist_nm":31,"freq":338,"lat":48.13991667,"lon":-123.40338889,"rng_nm":50,"alt_fmsl":0,"id":"K","desc":"EDIZ HOOK NDB"},
{"type":"NDB","hdg_t":23.3,"dist_nm":34.3,"freq":344,"lat":49.01544444,"lon":-122.48777778,"rng_nm":50,"alt_fmsl":0,"id":"XX","desc":"ABBOTSFORD NDB"},
{"type":"NDB","hdg_t":132.1,"dist_nm":36.8,"freq":382,"lat":48.07611111,"lon":-122.15391667,"rng_nm":50,"alt_fmsl":0,"id":"AW","desc":"WATON NDB"},
{"type":"VOR","hdg_t":340.4,"dist_nm":37.4,"freq":115.9,"lat":49.07733333,"lon":-123.14908333,"rng_nm":130,"alt_fmsl":17,"id":"YVR","desc":"VANCOUVER VOR-DME"},
{"type":"NDB","hdg_t":239,"dist_nm":39.2,"freq":515,"lat":48.15019444,"lon":-123.67025000,"rng_nm":50,"alt_fmsl":0,"id":"CL","desc":"ELWHA NDB"},
{"type":"VOR","hdg_t":146.7,"dist_nm":40.8,"freq":110.6,"lat":47.91983333,"lon":-122.27783333,"rng_nm":40,"alt_fmsl":670,"id":"PAE","desc":"PAINE VOR-DME"},
{"type":"NDB","hdg_t":347.8,"dist_nm":41.9,"freq":266,"lat":49.17286111,"lon":-123.05716667,"rng_nm":50,"alt_fmsl":0,"id":"VR","desc":"VANCOUVER NDB"},
{"type":"VOR","hdg_t":6,"dist_nm":43.8,"freq":112.4,"lat":49.21583333,"lon":-122.71500000,"rng_nm":40,"alt_fmsl":0,"id":"YPK","desc":"PITT MEADOWS VOR"},
{"type":"NDB","hdg_t":43.9,"dist_nm":44.5,"freq":214,"lat":49.02166667,"lon":-122.05000000,"rng_nm":50,"alt_fmsl":0,"id":"LU","desc":"CULTUS NDB"},
{"type":"NDB","hdg_t":340.1,"dist_nm":44.8,"freq":368,"lat":49.19138889,"lon":-123.21972222,"rng_nm":50,"alt_fmsl":0,"id":"ZVR","desc":"SEA ISLAND NDB"},
{"type":"SDME","hdg_t":309.9,"dist_nm":53.4,"freq":111.45,"lat":49.05722200,"lon":-123.87166700,"rng_nm":25,"alt_fmsl":83,"id":"1CD","desc":"NANAIMO DME"},
{"type":"NDB","hdg_t":160.7,"dist_nm":54.4,"freq":362,"lat":47.63252778,"lon":-122.38952778,"rng_nm":50,"alt_fmsl":0,"id":"BF","desc":"NOLLA NDB"},
{"type":"NDB","hdg_t":313.2,"dist_nm":56.2,"freq":251,"lat":49.12791667,"lon":-123.87169444,"rng_nm":50,"alt_fmsl":0,"id":"YCD","desc":"NANAIMO NDB"},
{"type":"NDB","hdg_t":177,"dist_nm":59.9,"freq":206,"lat":47.49230556,"lon":-122.75661111,"rng_nm":50,"alt_fmsl":0,"id":"PWT","desc":"KITSAP NDB"},
{"type":"NDB","hdg_t":159.6,"dist_nm":61.2,"freq":281,"lat":47.53237700,"lon":-122.30695900,"rng_nm":50,"alt_fmsl":0,"id":"SZ","desc":"PARKK NDB"},
{"type":"NDB","hdg_t":157.1,"dist_nm":64.6,"freq":353,"lat":47.49544444,"lon":-122.21472222,"rng_nm":50,"alt_fmsl":0,"id":"RNT","desc":"RENTON NDB"},
{"type":"NDB","hdg_t":180.2,"dist_nm":64.8,"freq":274,"lat":47.41058333,"lon":-122.83886111,"rng_nm":50,"alt_fmsl":0,"id":"CAN","desc":"CARNEY NDB"},
{"type":"VOR","hdg_t":161.4,"dist_nm":66.7,"freq":116.8,"lat":47.43536111,"lon":-122.30961111,"rng_nm":130,"alt_fmsl":354,"id":"SEA","desc":"SEATTLE VORTAC"},
{"type":"VOR","hdg_t":261.6,"dist_nm":72.6,"freq":112.2,"lat":48.29988889,"lon":-124.62705556,"rng_nm":130,"alt_fmsl":1650,"id":"TOU","desc":"TATOOSH VORTAC"},
{"type":"NDB","hdg_t":187.9,"dist_nm":75.2,"freq":348,"lat":47.24808333,"lon":-123.08636111,"rng_nm":50,"alt_fmsl":0,"id":"MNC","desc":"MASON CO NDB"},
{"type":"NDB","hdg_t":45.4,"dist_nm":77.4,"freq":245,"lat":49.38652778,"lon":-121.42416667,"rng_nm":50,"alt_fmsl":0,"id":"HE","desc":"HOPE NDB"},
{"type":"NDB","hdg_t":173.3,"dist_nm":80.9,"freq":216,"lat":47.15030556,"lon":-122.60463889,"rng_nm":50,"alt_fmsl":0,"id":"GRF","desc":"GRAYE NDB"},
{"type":"VOR","hdg_t":169.7,"dist_nm":81.8,"freq":109.6,"lat":47.14766667,"lon":-122.47502778,"rng_nm":25,"alt_fmsl":287,"id":"TCM","desc":"MCCHORD VORTAC"},
{"type":"NDB","hdg_t":172.7,"dist_nm":89.6,"freq":328,"lat":47.00797222,"lon":-122.55641667,"rng_nm":50,"alt_fmsl":0,"id":"LAC","desc":"LACOMAS NDB"},
{"type":"VOR","hdg_t":181.7,"dist_nm":91.2,"freq":113.4,"lat":46.97163889,"lon":-122.90183333,"rng_nm":130,"alt_fmsl":200,"id":"OLM","desc":"OLYMPIA VORTAC"}
]
}
