{"success":true,"source":"xp2csv.pl","last_updated":"2013/11/08 14:53:21 UTC"
,"icao":"79B","name":"Hapworths Private Lndg Area","lat":44.64034194,"lon":-69.67032584,"rwys":1,"ils":0,"index":1810857,"path":"w070n40/w070n44"
,"runways":[
{"len_m":917,"wid_m":15.24,"hdg":72,"surf":"Turf/grass","rwy1":"09","lat1":44.63907050,"lon1":-69.67582538,"rwy2":"27","lat2":44.64161338,"lon2":-69.66482630}
]
,"navaids":[
{"type":"NDB","hdg_t":75.4,"dist_nm":13.7,"freq":348,"lat":44.69772222,"lon":-69.35858333,"rng_nm":50,"alt_fmsl":0,"id":"BUP","desc":"BURNHAM NDB"},
{"type":"NDB","hdg_t":210.7,"dist_nm":16,"freq":366,"lat":44.41091667,"lon":-69.86066667,"rng_nm":50,"alt_fmsl":0,"id":"AU","desc":"DUNNS NDB"},
{"type":"VOR","hdg_t":195.8,"dist_nm":19.9,"freq":111.4,"lat":44.32002778,"lon":-69.79655556,"rng_nm":40,"alt_fmsl":349,"id":"AUG","desc":"AUGUSTA VOR-DME"},
{"type":"NDB","hdg_t":115.6,"dist_nm":31.4,"freq":278,"lat":44.41122222,"lon":-69.01094444,"rng_nm":50,"alt_fmsl":0,"id":"BST","desc":"BELFAST NDB"},
{"type":"VOR","hdg_t":70.1,"dist_nm":36.1,"freq":114.8,"lat":44.84180556,"lon":-68.87397222,"rng_nm":130,"alt_fmsl":360,"id":"BGR","desc":"BANGOR VORTAC"},
{"type":"NDB","hdg_t":149.2,"dist_nm":38.1,"freq":334,"lat":44.09347222,"lon":-69.21900000,"rng_nm":50,"alt_fmsl":0,"id":"RM","desc":"NOXKS NDB"},
{"type":"NDB","hdg_t":145.3,"dist_nm":42.9,"freq":356,"lat":44.05013889,"lon":-69.10502778,"rng_nm":50,"alt_fmsl":0,"id":"SUH","desc":"SPRUCEHEAD NDB"},
{"type":"SDME","hdg_t":193.3,"dist_nm":47.2,"freq":115.2,"lat":43.87351400,"lon":-69.92191100,"rng_nm":25,"alt_fmsl":181,"id":"NHZ","desc":"BRUNSWICK TACAN"},
{"type":"NDB","hdg_t":63.2,"dist_nm":49.3,"freq":272,"lat":45.00572222,"lon":-68.63427778,"rng_nm":50,"alt_fmsl":0,"id":"OLD","desc":"OLD TOWN NDB"},
{"type":"NDB","hdg_t":291.3,"dist_nm":49.4,"freq":221,"lat":44.93458333,"lon":-70.75119444,"rng_nm":50,"alt_fmsl":0,"id":"RQM","desc":"RANGELEY NDB"},
{"type":"NDB","hdg_t":215.4,"dist_nm":49.8,"freq":240,"lat":43.96225000,"lon":-70.33794444,"rng_nm":50,"alt_fmsl":0,"id":"LE","desc":"LEWIE NDB"},
{"type":"NDB","hdg_t":359.8,"dist_nm":52.8,"freq":236,"lat":45.52172222,"lon":-69.67450000,"rng_nm":50,"alt_fmsl":0,"id":"XQA","desc":"SQUAW NDB"},
{"type":"NDB","hdg_t":95.4,"dist_nm":58.7,"freq":330,"lat":44.53872222,"lon":-68.30661111,"rng_nm":50,"alt_fmsl":0,"id":"BH","desc":"SURRY NDB"},
{"type":"NDB","hdg_t":47.9,"dist_nm":64.6,"freq":216,"lat":45.35644444,"lon":-68.53697222,"rng_nm":50,"alt_fmsl":0,"id":"LRG","desc":"LINCOLN NDB"},
{"type":"NDB","hdg_t":267.1,"dist_nm":64.7,"freq":281,"lat":44.57690300,"lon":-71.17909200,"rng_nm":25,"alt_fmsl":1158,"id":"HXK","desc":"HORNEBROOK NDB"},
{"type":"VOR","hdg_t":270.1,"dist_nm":64.9,"freq":110.4,"lat":44.63341667,"lon":-71.18611111,"rng_nm":25,"alt_fmsl":1731,"id":"BML","desc":"BERLIN VOR-DME"},
{"type":"NDB","hdg_t":227.7,"dist_nm":65.1,"freq":227,"lat":43.90405556,"lon":-70.78233333,"rng_nm":50,"alt_fmsl":0,"id":"SZO","desc":"SEBAGO NDB"},
{"type":"VOR","hdg_t":40.4,"dist_nm":75,"freq":117.9,"lat":45.58672222,"lon":-68.51547222,"rng_nm":130,"alt_fmsl":550,"id":"MLT","desc":"MILLINOCKET VOR-DME"},
{"type":"NDB","hdg_t":37.7,"dist_nm":76.9,"freq":344,"lat":45.64861111,"lon":-68.55030556,"rng_nm":50,"alt_fmsl":0,"id":"LNT","desc":"MILNOT NDB"},
{"type":"VOR","hdg_t":209.5,"dist_nm":83.5,"freq":117.1,"lat":43.42566667,"lon":-70.61352778,"rng_nm":130,"alt_fmsl":192,"id":"ENE","desc":"KENNEBUNK VORTAC"},
{"type":"NDB","hdg_t":259.7,"dist_nm":88.1,"freq":386,"lat":44.36233333,"lon":-71.68591667,"rng_nm":50,"alt_fmsl":0,"id":"GMA","desc":"MAHN NDB"},
{"type":"VOR","hdg_t":327.5,"dist_nm":91.7,"freq":117.2,"lat":45.92500000,"lon":-70.84611111,"rng_nm":130,"alt_fmsl":1584,"id":"VLV","desc":"BEAUCE VOR-DME"},
{"type":"NDB","hdg_t":213.1,"dist_nm":93.1,"freq":349,"lat":43.33419444,"lon":-70.83452778,"rng_nm":50,"alt_fmsl":0,"id":"SF","desc":"SANFD NDB"},
{"type":"VOR","hdg_t":63,"dist_nm":93.3,"freq":114.3,"lat":45.32919444,"lon":-67.70419444,"rng_nm":40,"alt_fmsl":398,"id":"PNN","desc":"PRINCETON VOR-DME"},
{"type":"NDB","hdg_t":210.9,"dist_nm":98.8,"freq":260,"lat":43.22027778,"lon":-70.82830556,"rng_nm":50,"alt_fmsl":0,"id":"ESG","desc":"ROLLINS NDB"},
{"type":"VOR","hdg_t":294.9,"dist_nm":98.8,"freq":113.2,"lat":45.31644444,"lon":-71.78813889,"rng_nm":130,"alt_fmsl":1000,"id":"YSC","desc":"SHERBROOKE VORTAC"}
]
}
