{"success":true,"source":"xp2csv.pl","last_updated":"2013/11/08 14:53:21 UTC"
,"icao":"7AK2","name":"Snettisham","lat":58.13439583,"lon":-133.72951306,"rwys":1,"ils":0,"index":763145,"path":"w140n50/w134n58"
,"runways":[
{"len_m":763,"wid_m":30.48,"hdg":177,"surf":"Gravel","rwy1":"15","lat1":58.13782247,"lon1":-133.72973972,"rwy2":"33","lat2":58.13096919,"lon2":-133.72928640}
]
,"waterways":[
{"len_m":918,"wid_m":82,"hdg_t":68,"buoys":false,"rwy1":"04","lat1":58.13285452,"lon1":-133.73673917,"rwy2":"22","lat2":58.13593714,"lon2":-133.72228695}
]
,"navaids":[
{"type":"NDB","hdg_t":294.1,"dist_nm":33.6,"freq":212,"lat":58.35925000,"lon":-134.69958333,"rng_nm":50,"alt_fmsl":0,"id":"CGL","desc":"COGHLAN ISLAND NDB"},
{"type":"NDB","hdg_t":273.2,"dist_nm":48.6,"freq":391,"lat":58.17097222,"lon":-135.25791667,"rng_nm":50,"alt_fmsl":0,"id":"EEF","desc":"ELEPHANT NDB"},
{"type":"VOR","hdg_t":273.7,"dist_nm":48.6,"freq":114,"lat":58.17766667,"lon":-135.25886111,"rng_nm":130,"alt_fmsl":40,"id":"SSR","desc":"SISTERS ISLAND VORTAC"},
{"type":"NDB","hdg_t":82.1,"dist_nm":49.1,"freq":242,"lat":58.23694400,"lon":-132.19555600,"rng_nm":50,"alt_fmsl":0,"id":"3P","desc":"MUDDY LAKE NDB"},
{"type":"NDB","hdg_t":176.4,"dist_nm":51.9,"freq":295,"lat":57.27138900,"lon":-133.63000000,"rng_nm":50,"alt_fmsl":0,"id":"FF","desc":"FIVE FINGER NDB"},
{"type":"NDB","hdg_t":286.2,"dist_nm":64.9,"freq":219,"lat":58.42163889,"lon":-135.70611111,"rng_nm":50,"alt_fmsl":0,"id":"GAV","desc":"GUSTAVUS NDB"},
{"type":"NDB","hdg_t":184.8,"dist_nm":70.6,"freq":223,"lat":56.96391667,"lon":-133.91188889,"rng_nm":50,"alt_fmsl":0,"id":"AFE","desc":"KAKE NDB"},
{"type":"NDB","hdg_t":321.2,"dist_nm":83.9,"freq":245,"lat":59.21208333,"lon":-135.43086111,"rng_nm":50,"alt_fmsl":0,"id":"HNS","desc":"HAINES NDB"},
{"type":"NDB","hdg_t":219.6,"dist_nm":84,"freq":414,"lat":57.04736111,"lon":-135.36583333,"rng_nm":50,"alt_fmsl":0,"id":"IME","desc":"MT EDGECUMBE NDB"},
{"type":"NDB","hdg_t":159.5,"dist_nm":85.9,"freq":372,"lat":56.79225000,"lon":-132.82097222,"rng_nm":50,"alt_fmsl":0,"id":"FPN","desc":"FREDERICKS POINT NDB"},
{"type":"NDB","hdg_t":1,"dist_nm":89.7,"freq":260,"lat":59.62600000,"lon":-133.67700000,"rng_nm":50,"alt_fmsl":0,"id":"YSQ","desc":"ATLIN NDB"},
{"type":"NDB","hdg_t":217.9,"dist_nm":96.6,"freq":358,"lat":56.85461111,"lon":-135.53436111,"rng_nm":50,"alt_fmsl":0,"id":"SIT","desc":"SITKA NDB"},
{"type":"VOR","hdg_t":218.3,"dist_nm":96.7,"freq":113.8,"lat":56.85941667,"lon":-135.55130556,"rng_nm":130,"alt_fmsl":260,"id":"BKA","desc":"BIORKA ISLAND VORTAC"}
]
}
