{"success":true,"source":"xp2csv.pl","last_updated":"2013/11/08 14:53:21 UTC"
,"icao":"7G6","name":"Johnson","lat":41.78062,"lon":-78.26917889,"rwys":1,"ils":0,"index":1663218,"path":"w080n40/w079n41"
,"runways":[
{"len_m":837,"wid_m":13.72,"hdg":169,"surf":"Turf/grass","rwy1":"18","lat1":41.78433430,"lon1":-78.27005717,"rwy2":"36","lat2":41.77690570,"lon2":-78.26830061}
]
,"navaids":[
{"type":"VOR","hdg_t":271.3,"dist_nm":15.7,"freq":116.6,"lat":41.78638889,"lon":-78.61936111,"rng_nm":40,"alt_fmsl":2100,"id":"BFD","desc":"BRADFORD VOR-DME"},
{"type":"VOR","hdg_t":139.9,"dist_nm":20.9,"freq":113.9,"lat":41.51275000,"lon":-77.97011111,"rng_nm":130,"alt_fmsl":2320,"id":"SLT","desc":"SLATE RUN VORTAC"},
{"type":"VOR","hdg_t":32.9,"dist_nm":22.1,"freq":111.4,"lat":42.08963889,"lon":-77.99955556,"rng_nm":40,"alt_fmsl":2296,"id":"ELZ","desc":"WELLSVILLE VORTAC"},
{"type":"NDB","hdg_t":354.4,"dist_nm":30.3,"freq":360,"lat":42.28352778,"lon":-78.33491667,"rng_nm":50,"alt_fmsl":0,"id":"LYS","desc":"OLEAN NDB"},
{"type":"VOR","hdg_t":170.4,"dist_nm":34.3,"freq":116,"lat":41.21494444,"lon":-78.14275000,"rng_nm":130,"alt_fmsl":2250,"id":"ETG","desc":"KEATING VORTAC"},
{"type":"VOR","hdg_t":97.3,"dist_nm":38.4,"freq":108.6,"lat":41.69525000,"lon":-77.41991667,"rng_nm":40,"alt_fmsl":1985,"id":"SFK","desc":"STONYFORK VOR-DME"},
{"type":"VOR","hdg_t":302.9,"dist_nm":45.3,"freq":114.7,"lat":42.18861111,"lon":-79.12130556,"rng_nm":130,"alt_fmsl":1786,"id":"JHW","desc":"JAMESTOWN VOR-DME"},
{"type":"NDB","hdg_t":173.1,"dist_nm":47.9,"freq":275,"lat":40.98613889,"lon":-78.14252778,"rng_nm":50,"alt_fmsl":0,"id":"PS","desc":"PORTS NDB"},
{"type":"VOR","hdg_t":265.8,"dist_nm":51.7,"freq":117.6,"lat":41.71302778,"lon":-79.41727778,"rng_nm":40,"alt_fmsl":1710,"id":"TDT","desc":"TIDIOUTE VORTAC"},
{"type":"VOR","hdg_t":166.3,"dist_nm":53.3,"freq":115.5,"lat":40.91625000,"lon":-77.99272222,"rng_nm":130,"alt_fmsl":2440,"id":"PSB","desc":"PHILIPSBURG VORTAC"},
{"type":"NDB","hdg_t":155.2,"dist_nm":57.3,"freq":388,"lat":40.91030556,"lon":-77.74175000,"rng_nm":50,"alt_fmsl":0,"id":"UN","desc":"PENUE NDB"},
{"type":"VOR","hdg_t":70.9,"dist_nm":58.8,"freq":109.65,"lat":42.09416667,"lon":-77.02480556,"rng_nm":40,"alt_fmsl":1632,"id":"ULW","desc":"ELMIRA VOR-DME"},
{"type":"VOR","hdg_t":313.8,"dist_nm":61.8,"freq":116.2,"lat":42.49055556,"lon":-79.27411111,"rng_nm":130,"alt_fmsl":680,"id":"DKK","desc":"DUNKIRK VORTAC"},
{"type":"NDB","hdg_t":277.7,"dist_nm":62.3,"freq":258,"lat":41.91266667,"lon":-79.64844444,"rng_nm":50,"alt_fmsl":0,"id":"ORJ","desc":"CORRY NDB"},
{"type":"VOR","hdg_t":182.5,"dist_nm":62.7,"freq":114.9,"lat":40.73511111,"lon":-78.33130556,"rng_nm":40,"alt_fmsl":2630,"id":"TON","desc":"TYRONE VORTAC"},
{"type":"VOR","hdg_t":235,"dist_nm":65.7,"freq":112.9,"lat":41.14630556,"lon":-79.45797222,"rng_nm":40,"alt_fmsl":1520,"id":"CIP","desc":"CLARION VOR-DME"},
{"type":"VOR","hdg_t":20.5,"dist_nm":67.5,"freq":108.2,"lat":42.83438889,"lon":-77.73275000,"rng_nm":40,"alt_fmsl":990,"id":"GEE","desc":"GENESEO VOR-DME"},
{"type":"NDB","hdg_t":339.8,"dist_nm":69.9,"freq":204,"lat":42.87388889,"lon":-78.81658333,"rng_nm":50,"alt_fmsl":0,"id":"GB","desc":"PLAZZ NDB"},
{"type":"VOR","hdg_t":346.4,"dist_nm":70.8,"freq":116.4,"lat":42.92900000,"lon":-78.64633333,"rng_nm":130,"alt_fmsl":730,"id":"BUF","desc":"BUFFALO VOR-DME"},
{"type":"VOR","hdg_t":111,"dist_nm":72.3,"freq":114.4,"lat":41.33855556,"lon":-76.77486111,"rng_nm":40,"alt_fmsl":2098,"id":"FQM","desc":"WILLIAMSPORT VOR-DME"},
{"type":"NDB","hdg_t":67.3,"dist_nm":72.7,"freq":245,"lat":42.23866667,"lon":-76.76394444,"rng_nm":50,"alt_fmsl":0,"id":"ALP","desc":"ALPINE NDB"},
{"type":"VOR","hdg_t":254.5,"dist_nm":74.3,"freq":109.6,"lat":41.43861111,"lon":-79.85677778,"rng_nm":40,"alt_fmsl":0,"id":"FKL","desc":"FRANKLIN VOR"},
{"type":"NDB","hdg_t":45.8,"dist_nm":74.8,"freq":260,"lat":42.64397222,"lon":-77.05613889,"rng_nm":50,"alt_fmsl":0,"id":"PYA","desc":"PENN YAN NDB"},
{"type":"NDB","hdg_t":347,"dist_nm":75,"freq":231,"lat":43.00027778,"lon":-78.65086111,"rng_nm":50,"alt_fmsl":0,"id":"BU","desc":"KLUMP NDB"},
{"type":"NDB","hdg_t":112.7,"dist_nm":76.4,"freq":344,"lat":41.27708333,"lon":-76.71013889,"rng_nm":50,"alt_fmsl":0,"id":"PIX","desc":"PICTURE ROCKS NDB"},
{"type":"NDB","hdg_t":16.6,"dist_nm":77,"freq":344,"lat":43.00991667,"lon":-77.76927778,"rng_nm":50,"alt_fmsl":0,"id":"AVN","desc":"AVON NDB"},
{"type":"VOR","hdg_t":196.4,"dist_nm":77.1,"freq":110.6,"lat":40.54647222,"lon":-78.74702778,"rng_nm":40,"alt_fmsl":2340,"id":"REC","desc":"REVLOC VOR-DME"},
{"type":"NDB","hdg_t":207.9,"dist_nm":77.7,"freq":242,"lat":40.63191667,"lon":-79.06591667,"rng_nm":50,"alt_fmsl":0,"id":"INP","desc":"INDIANA NDB"},
{"type":"NDB","hdg_t":342.5,"dist_nm":83.5,"freq":329,"lat":43.10902778,"lon":-78.83838889,"rng_nm":50,"alt_fmsl":0,"id":"IA","desc":"KATHI NDB"},
{"type":"VOR","hdg_t":18,"dist_nm":84.4,"freq":110,"lat":43.11797222,"lon":-77.67280556,"rng_nm":40,"alt_fmsl":549,"id":"ROC","desc":"ROCHESTER VOR-DME"},
{"type":"NDB","hdg_t":284.4,"dist_nm":84.6,"freq":372,"lat":42.11919444,"lon":-80.10458333,"rng_nm":50,"alt_fmsl":0,"id":"CQD","desc":"CASCADE NDB"},
{"type":"VOR","hdg_t":121.5,"dist_nm":85.4,"freq":109.2,"lat":41.02338889,"lon":-76.66530556,"rng_nm":40,"alt_fmsl":1000,"id":"MIP","desc":"MILTON VORTAC"},
{"type":"SDME","hdg_t":339.2,"dist_nm":85.5,"freq":111,"lat":43.11250000,"lon":-78.96027800,"rng_nm":25,"alt_fmsl":635,"id":"IAG","desc":"NIAGARA FALLS TACAN"},
{"type":"VOR","hdg_t":132.9,"dist_nm":86.3,"freq":110.4,"lat":40.79083333,"lon":-76.88402778,"rng_nm":40,"alt_fmsl":620,"id":"SEG","desc":"SELINSGROVE VORTAC"},
{"type":"NDB","hdg_t":21.2,"dist_nm":86.7,"freq":400,"lat":43.12652778,"lon":-77.55394444,"rng_nm":50,"alt_fmsl":0,"id":"RO","desc":"BREIT NDB"},
{"type":"VOR","hdg_t":181,"dist_nm":87.2,"freq":108.8,"lat":40.32544444,"lon":-78.30369444,"rng_nm":25,"alt_fmsl":0,"id":"AOO","desc":"ALTOONA VOR"},
{"type":"NDB","hdg_t":280.5,"dist_nm":90.3,"freq":349,"lat":42.03863889,"lon":-80.25536111,"rng_nm":50,"alt_fmsl":0,"id":"ER","desc":"ESMER NDB"},
{"type":"VOR","hdg_t":61.4,"dist_nm":91.4,"freq":111.8,"lat":42.49502778,"lon":-76.46000000,"rng_nm":40,"alt_fmsl":1102,"id":"ITH","desc":"ITHACA VOR-DME"},
{"type":"VOR","hdg_t":196.4,"dist_nm":91.4,"freq":113,"lat":40.31672222,"lon":-78.83416667,"rng_nm":40,"alt_fmsl":2280,"id":"JST","desc":"JOHNSTOWN VORTAC"},
{"type":"VOR","hdg_t":279.5,"dist_nm":91.7,"freq":109.4,"lat":42.01741667,"lon":-80.29269444,"rng_nm":40,"alt_fmsl":800,"id":"ERI","desc":"ERIE VORTAC"},
{"type":"NDB","hdg_t":332.2,"dist_nm":92.9,"freq":408,"lat":43.14716667,"lon":-79.25497222,"rng_nm":50,"alt_fmsl":0,"id":"SN","desc":"ST CATHERINES NDB"},
{"type":"NDB","hdg_t":64.7,"dist_nm":93.4,"freq":266,"lat":42.43005556,"lon":-76.36797222,"rng_nm":50,"alt_fmsl":0,"id":"IT","desc":"VRNAH NDB"},
{"type":"NDB","hdg_t":208.6,"dist_nm":95.7,"freq":382,"lat":40.37544444,"lon":-79.27172222,"rng_nm":50,"alt_fmsl":0,"id":"BHU","desc":"BENJE NDB"},
{"type":"VOR","hdg_t":75.9,"dist_nm":98,"freq":112.2,"lat":42.15750000,"lon":-76.13647222,"rng_nm":40,"alt_fmsl":1583,"id":"CFB","desc":"BINGHAMTON VORTAC"}
]
}
