{"success":true,"source":"xp2csv.pl","last_updated":"2013/11/08 14:53:21 UTC"
,"icao":"7IS7","name":"Hammock Field","lat":38.91393527,"lon":-89.67009001,"rwys":1,"ils":0,"index":1482809,"path":"w090n30/w090n38"
,"runways":[
{"len_m":736,"wid_m":21.34,"hdg":181,"surf":"Turf/grass","rwy1":"18","lat1":38.91725377,"lon1":-89.67001557,"rwy2":"36","lat2":38.91061677,"lon2":-89.67016445}
]
,"navaids":[
{"type":"NDB","hdg_t":254.3,"dist_nm":13,"freq":218,"lat":38.85500000,"lon":-89.93805556,"rng_nm":50,"alt_fmsl":0,"id":"AL","desc":"ALPOS NDB"},
{"type":"NDB","hdg_t":108.8,"dist_nm":14.7,"freq":233,"lat":38.83421400,"lon":-89.37230000,"rng_nm":25,"alt_fmsl":539,"id":"GRE","desc":"GREENVILLE NDB"},
{"type":"VOR","hdg_t":228.1,"dist_nm":15.6,"freq":116,"lat":38.73916667,"lon":-89.91863889,"rng_nm":40,"alt_fmsl":570,"id":"TOY","desc":"TROY VORTAC"},
{"type":"NDB","hdg_t":266,"dist_nm":18.1,"freq":263,"lat":38.89230556,"lon":-90.05627778,"rng_nm":50,"alt_fmsl":0,"id":"CVM","desc":"CIVIC MEMORIAL NDB"},
{"type":"SDME","hdg_t":201.1,"dist_nm":23.6,"freq":112.2,"lat":38.54536700,"lon":-89.85164700,"rng_nm":25,"alt_fmsl":482,"id":"SKE","desc":"SCOTT TACAN"},
{"type":"VOR","hdg_t":65.4,"dist_nm":26,"freq":114.3,"lat":39.09369444,"lon":-89.16247222,"rng_nm":40,"alt_fmsl":604,"id":"VLA","desc":"VANDALIA VORTAC"},
{"type":"NDB","hdg_t":186.9,"dist_nm":26.3,"freq":385,"lat":38.47800000,"lon":-89.73786111,"rng_nm":50,"alt_fmsl":0,"id":"JD","desc":"GOOEY NDB"},
{"type":"NDB","hdg_t":188.5,"dist_nm":27.2,"freq":362,"lat":38.46475000,"lon":-89.75640300,"rng_nm":25,"alt_fmsl":419,"id":"BL","desc":"BELLEVILLE NDB"},
{"type":"NDB","hdg_t":255.3,"dist_nm":29.5,"freq":404,"lat":38.78805556,"lon":-90.27886111,"rng_nm":50,"alt_fmsl":0,"id":"ST","desc":"ZUMAY NDB"},
{"type":"NDB","hdg_t":217.8,"dist_nm":29.8,"freq":350,"lat":38.51991667,"lon":-90.05902778,"rng_nm":50,"alt_fmsl":0,"id":"CP","desc":"ACORE NDB"},
{"type":"VOR","hdg_t":253.6,"dist_nm":33.8,"freq":116.45,"lat":38.75275000,"lon":-90.36097222,"rng_nm":130,"alt_fmsl":530,"id":"CSX","desc":"CARDINAL VOR-DME"},
{"type":"NDB","hdg_t":115.9,"dist_nm":36.7,"freq":400,"lat":38.64402778,"lon":-88.96736111,"rng_nm":50,"alt_fmsl":0,"id":"SLO","desc":"SALEM NDB"},
{"type":"VOR","hdg_t":140.7,"dist_nm":38.1,"freq":115,"lat":38.42000000,"lon":-89.15900000,"rng_nm":130,"alt_fmsl":546,"id":"ENL","desc":"CENTRALIA VORTAC"},
{"type":"VOR","hdg_t":265.4,"dist_nm":38.1,"freq":117.4,"lat":38.86069444,"lon":-90.48236111,"rng_nm":130,"alt_fmsl":450,"id":"STL","desc":"ST LOUIS VORTAC"},
{"type":"NDB","hdg_t":260,"dist_nm":38.3,"freq":338,"lat":38.80033333,"lon":-90.47475000,"rng_nm":50,"alt_fmsl":0,"id":"LM","desc":"OBLIO NDB"},
{"type":"NDB","hdg_t":23.3,"dist_nm":40.6,"freq":395,"lat":39.53611111,"lon":-89.32361111,"rng_nm":50,"alt_fmsl":0,"id":"TAZ","desc":"TAYLORVILLE NDB"},
{"type":"NDB","hdg_t":251.2,"dist_nm":43.5,"freq":227,"lat":38.67738889,"lon":-90.54750000,"rng_nm":50,"alt_fmsl":0,"id":"FZ","desc":"EAVES NDB"},
{"type":"NDB","hdg_t":181.8,"dist_nm":46,"freq":239,"lat":38.14532800,"lon":-89.70232200,"rng_nm":25,"alt_fmsl":532,"id":"SAR","desc":"SPARTA NDB"},
{"type":"NDB","hdg_t":52.2,"dist_nm":48.5,"freq":365,"lat":39.40669444,"lon":-88.84369444,"rng_nm":50,"alt_fmsl":0,"id":"SYZ","desc":"SHELBYVILLE NDB"},
{"type":"NDB","hdg_t":355.3,"dist_nm":51.6,"freq":382,"lat":39.77313889,"lon":-89.75988889,"rng_nm":50,"alt_fmsl":0,"id":"SP","desc":"HUSKK NDB"},
{"type":"VOR","hdg_t":128.9,"dist_nm":52.3,"freq":113.8,"lat":38.36194444,"lon":-88.80733333,"rng_nm":40,"alt_fmsl":558,"id":"VNN","desc":"MT VERNON VOR-DME"},
{"type":"NDB","hdg_t":3.8,"dist_nm":52.9,"freq":240,"lat":39.79461111,"lon":-89.59275000,"rng_nm":50,"alt_fmsl":0,"id":"CJ","desc":"CALDE NDB"},
{"type":"NDB","hdg_t":252.5,"dist_nm":54,"freq":326,"lat":38.63908333,"lon":-90.76694444,"rng_nm":50,"alt_fmsl":0,"id":"SU","desc":"SNOOP NDB"},
{"type":"NDB","hdg_t":218.3,"dist_nm":54.7,"freq":269,"lat":38.19588889,"lon":-90.38761111,"rng_nm":50,"alt_fmsl":0,"id":"FES","desc":"FESTUS NDB"},
{"type":"VOR","hdg_t":359.6,"dist_nm":55.4,"freq":112.7,"lat":39.83972222,"lon":-89.67772222,"rng_nm":130,"alt_fmsl":586,"id":"SPI","desc":"SPINNER VORTAC"},
{"type":"VOR","hdg_t":89.2,"dist_nm":55.6,"freq":109,"lat":38.92036111,"lon":-88.48180556,"rng_nm":40,"alt_fmsl":540,"id":"BIB","desc":"BIBLE GROVE VORTAC"},
{"type":"VOR","hdg_t":333,"dist_nm":58,"freq":108.6,"lat":39.77644444,"lon":-90.23872222,"rng_nm":25,"alt_fmsl":615,"id":"IJX","desc":"JACKSONVILLE VOR-DME"},
{"type":"NDB","hdg_t":104,"dist_nm":58.9,"freq":353,"lat":38.66893600,"lon":-88.45310300,"rng_nm":25,"alt_fmsl":472,"id":"FOA","desc":"ELM RIVER NDB"},
{"type":"NDB","hdg_t":2.9,"dist_nm":59.9,"freq":375,"lat":39.91202778,"lon":-89.60305556,"rng_nm":50,"alt_fmsl":0,"id":"LQ","desc":"LICOL NDB"},
{"type":"NDB","hdg_t":32.1,"dist_nm":62.2,"freq":275,"lat":39.79052778,"lon":-88.95388889,"rng_nm":50,"alt_fmsl":0,"id":"DE","desc":"ELWIN NDB"},
{"type":"VOR","hdg_t":37.2,"dist_nm":62.2,"freq":117.2,"lat":39.73752778,"lon":-88.85644444,"rng_nm":130,"alt_fmsl":708,"id":"AXC","desc":"ADDERS VORTAC"},
{"type":"VOR","hdg_t":258.2,"dist_nm":62.4,"freq":110.8,"lat":38.69433333,"lon":-90.97116667,"rng_nm":40,"alt_fmsl":818,"id":"FTZ","desc":"FORISTELL VORTAC"},
{"type":"NDB","hdg_t":162.1,"dist_nm":65.6,"freq":388,"lat":37.87025000,"lon":-89.24552778,"rng_nm":50,"alt_fmsl":0,"id":"MD","desc":"CABBI NDB"},
{"type":"NDB","hdg_t":117.9,"dist_nm":67.3,"freq":257,"lat":38.38005556,"lon":-88.40977778,"rng_nm":50,"alt_fmsl":0,"id":"FWC","desc":"WAYNE CO NDB"},
{"type":"NDB","hdg_t":310.3,"dist_nm":67.7,"freq":344,"lat":39.64031700,"lon":-90.78280000,"rng_nm":25,"alt_fmsl":702,"id":"PPQ","desc":"PITTSFIELD NDB"},
{"type":"NDB","hdg_t":99,"dist_nm":71.1,"freq":272,"lat":38.71811111,"lon":-88.17280556,"rng_nm":50,"alt_fmsl":0,"id":"OLY","desc":"OLNEY NDB"},
{"type":"NDB","hdg_t":152.6,"dist_nm":72.3,"freq":382,"lat":37.83916667,"lon":-88.97077778,"rng_nm":50,"alt_fmsl":0,"id":"MW","desc":"JONNY NDB"},
{"type":"VOR","hdg_t":61.9,"dist_nm":72.8,"freq":109.4,"lat":39.47800000,"lon":-88.28605556,"rng_nm":40,"alt_fmsl":720,"id":"MTO","desc":"MATTOON VOR-DME"},
{"type":"VOR","hdg_t":155.7,"dist_nm":76.1,"freq":110.4,"lat":37.75425000,"lon":-89.01166667,"rng_nm":40,"alt_fmsl":468,"id":"MWA","desc":"MARION VOR-DME"},
{"type":"NDB","hdg_t":11.5,"dist_nm":76.2,"freq":329,"lat":40.16013889,"lon":-89.33775000,"rng_nm":50,"alt_fmsl":0,"id":"AAA","desc":"ABRAHAM NDB"},
{"type":"NDB","hdg_t":65.1,"dist_nm":76.6,"freq":347,"lat":39.44241667,"lon":-88.17347222,"rng_nm":50,"alt_fmsl":0,"id":"MT","desc":"ZEBRE NDB"},
{"type":"NDB","hdg_t":207.6,"dist_nm":77.6,"freq":367,"lat":37.76391667,"lon":-90.42866667,"rng_nm":50,"alt_fmsl":0,"id":"PRI","desc":"PERRINE NDB"},
{"type":"VOR","hdg_t":108.5,"dist_nm":78.7,"freq":116.6,"lat":38.48519444,"lon":-88.08580556,"rng_nm":40,"alt_fmsl":540,"id":"SAM","desc":"SAMSVILLE VOR-DME"},
{"type":"VOR","hdg_t":199.8,"dist_nm":78.9,"freq":115.7,"lat":37.67347222,"lon":-90.23405556,"rng_nm":130,"alt_fmsl":1222,"id":"FAM","desc":"FARMINGTON VORTAC"},
{"type":"NDB","hdg_t":240.4,"dist_nm":81.2,"freq":356,"lat":38.23552778,"lon":-91.16408333,"rng_nm":50,"alt_fmsl":0,"id":"UUV","desc":"SULLIVAN NDB"},
{"type":"NDB","hdg_t":72.7,"dist_nm":81.3,"freq":359,"lat":39.30522222,"lon":-88.00194444,"rng_nm":50,"alt_fmsl":0,"id":"CZB","desc":"CASEY NDB"},
{"type":"NDB","hdg_t":140.8,"dist_nm":84.7,"freq":230,"lat":37.81158333,"lon":-88.54533333,"rng_nm":50,"alt_fmsl":0,"id":"HSB","desc":"HARRISBURG-RALEIG NDB"},
{"type":"NDB","hdg_t":123.4,"dist_nm":88,"freq":332,"lat":38.09350000,"lon":-88.11963889,"rng_nm":50,"alt_fmsl":0,"id":"CUL","desc":"CARMI NDB"},
{"type":"NDB","hdg_t":100.6,"dist_nm":93,"freq":524,"lat":38.61175000,"lon":-87.72550000,"rng_nm":50,"alt_fmsl":0,"id":"AJG","desc":"MOUNT CARMEL NDB"},
{"type":"VOR","hdg_t":43.5,"dist_nm":93.3,"freq":110,"lat":40.03452778,"lon":-88.27605556,"rng_nm":40,"alt_fmsl":745,"id":"CMI","desc":"CHAMPAIGN VORTAC"},
{"type":"VOR","hdg_t":307.3,"dist_nm":93.4,"freq":113.6,"lat":39.84786111,"lon":-91.27891667,"rng_nm":130,"alt_fmsl":715,"id":"UIN","desc":"QUINCY VORTAC"},
{"type":"NDB","hdg_t":47.1,"dist_nm":93.5,"freq":407,"lat":39.96622222,"lon":-88.18244444,"rng_nm":50,"alt_fmsl":0,"id":"CM","desc":"VEALS NDB"},
{"type":"NDB","hdg_t":308.8,"dist_nm":93.9,"freq":293,"lat":39.88686111,"lon":-91.25369444,"rng_nm":50,"alt_fmsl":0,"id":"UI","desc":"QUINCY NDB"},
{"type":"VOR","hdg_t":85.6,"dist_nm":94.7,"freq":108.4,"lat":39.01763889,"lon":-87.64883333,"rng_nm":25,"alt_fmsl":452,"id":"RSV","desc":"CRAWFORD CO VOR-DME"},
{"type":"NDB","hdg_t":85.7,"dist_nm":95.1,"freq":391,"lat":39.01408333,"lon":-87.64161111,"rng_nm":50,"alt_fmsl":0,"id":"PLX","desc":"PALESTINE NDB"},
{"type":"VOR","hdg_t":94.4,"dist_nm":97.2,"freq":108.8,"lat":38.76986111,"lon":-87.60383333,"rng_nm":25,"alt_fmsl":430,"id":"LWV","desc":"LAWRENCEVILLE VOR-DME"},
{"type":"NDB","hdg_t":180.8,"dist_nm":99.5,"freq":248,"lat":37.25341667,"lon":-89.70061111,"rng_nm":50,"alt_fmsl":0,"id":"CG","desc":"DUTCH NDB"},
{"type":"VOR","hdg_t":19.7,"dist_nm":99.9,"freq":108.2,"lat":40.48080556,"lon":-88.93127778,"rng_nm":40,"alt_fmsl":882,"id":"BMI","desc":"BLOOMINGTON VOR-DME"}
]
}
