{"success":true,"source":"xp2csv.pl","last_updated":"2013/11/08 14:53:21 UTC"
,"icao":"7NA9","name":"Sjule Private Airstrip","lat":48.92834833,"lon":-100.57792778,"rwys":1,"ils":0,"index":1303225,"path":"w110n40/w101n48"
,"runways":[
{"len_m":1189,"wid_m":30.48,"hdg":180,"surf":"Turf/grass","rwy1":"17","lat1":48.93369714,"lon1":-100.57792778,"rwy2":"35","lat2":48.92299952,"lon2":-100.57792778}
]
,"navaids":[
{"type":"SDME","hdg_t":225.7,"dist_nm":43.9,"freq":114.9,"lat":48.41537500,"lon":-101.36610600,"rng_nm":130,"alt_fmsl":1668,"id":"MIB","desc":"DEERING TACAN"},
{"type":"VOR","hdg_t":215.4,"dist_nm":49,"freq":117.1,"lat":48.26033333,"lon":-101.28705556,"rng_nm":130,"alt_fmsl":1691,"id":"MOT","desc":"MINOT VORTAC"},
{"type":"NDB","hdg_t":18.3,"dist_nm":62,"freq":233,"lat":49.90802778,"lon":-100.07375000,"rng_nm":50,"alt_fmsl":0,"id":"BR","desc":"BRANDON NDB"},
{"type":"VOR","hdg_t":22.5,"dist_nm":63.9,"freq":113.8,"lat":49.90988889,"lon":-99.94566667,"rng_nm":130,"alt_fmsl":1346,"id":"YBR","desc":"BRANDON VOR-DME"},
{"type":"NDB","hdg_t":303.4,"dist_nm":79.5,"freq":310,"lat":49.64556700,"lon":-102.28103600,"rng_nm":50,"alt_fmsl":2074,"id":"8A","desc":"CARLYLE NDB"},
{"type":"VOR","hdg_t":125.6,"dist_nm":82.4,"freq":111,"lat":48.11522222,"lon":-98.91250000,"rng_nm":40,"alt_fmsl":1448,"id":"DVL","desc":"DEVILS LAKE VOR-DME"},
{"type":"NDB","hdg_t":126.4,"dist_nm":88.8,"freq":332,"lat":48.03552778,"lon":-98.80383333,"rng_nm":50,"alt_fmsl":0,"id":"VK","desc":"VIKOR NDB"},
{"type":"NDB","hdg_t":281.4,"dist_nm":91.6,"freq":395,"lat":49.20972222,"lon":-102.86000000,"rng_nm":50,"alt_fmsl":0,"id":"L7","desc":"ESTEVAN NDB"},
{"type":"NDB","hdg_t":338,"dist_nm":99.7,"freq":304,"lat":50.46500800,"lon":-101.55183100,"rng_nm":50,"alt_fmsl":1585,"id":"D4","desc":"ROCANVILLE NDB"},
{"type":"VOR","hdg_t":56.3,"dist_nm":107.6,"freq":114.6,"lat":49.89966667,"lon":-98.26725000,"rng_nm":130,"alt_fmsl":900,"id":"YPG","desc":"PORTAGE VOR-DME"}
]
}
