{"success":true,"source":"xp2csv.pl","last_updated":"2013/11/08 14:53:21 UTC"
,"icao":"7OR4","name":"Pineridge Ranch","lat":44.30956083,"lon":-121.44282084,"rwys":1,"ils":0,"index":958866,"path":"w130n40/w122n44"
,"runways":[
{"len_m":823,"wid_m":91.44,"hdg":189,"surf":"Turf/grass","rwy1":"17","lat1":44.31321826,"lon1":-121.44201131,"rwy2":"35","lat2":44.30590340,"lon2":-121.44363037}
]
,"navaids":[
{"type":"VOR","hdg_t":119.5,"dist_nm":6.9,"freq":117.6,"lat":44.25275000,"lon":-121.30352778,"rng_nm":130,"alt_fmsl":4101,"id":"DSD","desc":"DESCHUTES VORTAC"},
{"type":"NDB","hdg_t":90.1,"dist_nm":18.2,"freq":411,"lat":44.30797222,"lon":-121.01894444,"rng_nm":50,"alt_fmsl":0,"id":"RD","desc":"BODEY NDB"},
{"type":"NDB","hdg_t":297,"dist_nm":72.2,"freq":266,"lat":44.84744444,"lon":-122.95102778,"rng_nm":50,"alt_fmsl":0,"id":"SL","desc":"TURNO NDB"},
{"type":"VOR","hdg_t":74.1,"dist_nm":77,"freq":115.6,"lat":44.64838889,"lon":-119.71163889,"rng_nm":130,"alt_fmsl":5220,"id":"IMB","desc":"KIMBERLY VORTAC"},
{"type":"VOR","hdg_t":262.2,"dist_nm":77.6,"freq":112.9,"lat":44.12088889,"lon":-123.22283333,"rng_nm":130,"alt_fmsl":364,"id":"EUG","desc":"EUGENE VORTAC"},
{"type":"VOR","hdg_t":278.7,"dist_nm":80.4,"freq":115.4,"lat":44.49958333,"lon":-123.29366667,"rng_nm":130,"alt_fmsl":241,"id":"CVO","desc":"CORVALLIS VOR-DME"},
{"type":"NDB","hdg_t":283.7,"dist_nm":80.6,"freq":225,"lat":44.61358333,"lon":-123.27066667,"rng_nm":50,"alt_fmsl":0,"id":"LWG","desc":"LEWISBURG NDB"},
{"type":"NDB","hdg_t":316.3,"dist_nm":81.4,"freq":366,"lat":45.28339200,"lon":-122.77036400,"rng_nm":25,"alt_fmsl":157,"id":"PLV","desc":"PRAHL NDB"},
{"type":"VOR","hdg_t":9.6,"dist_nm":85.4,"freq":112.3,"lat":45.71355556,"lon":-121.10083333,"rng_nm":130,"alt_fmsl":3220,"id":"LTJ","desc":"KLICKITAT VOR-DME"},
{"type":"NDB","hdg_t":329.8,"dist_nm":85.7,"freq":332,"lat":45.54105556,"lon":-122.46233333,"rng_nm":50,"alt_fmsl":0,"id":"LBH","desc":"LAKER (LOM/NDB) NDB"},
{"type":"NDB","hdg_t":310.2,"dist_nm":88,"freq":383,"lat":45.24613100,"lon":-123.02973600,"rng_nm":50,"alt_fmsl":159,"id":"MM","desc":"MINNE NDB"},
{"type":"VOR","hdg_t":314.2,"dist_nm":90.6,"freq":117.4,"lat":45.35322222,"lon":-122.97816667,"rng_nm":130,"alt_fmsl":1440,"id":"UBG","desc":"NEWBERG VOR-DME"},
{"type":"SDME","hdg_t":327.4,"dist_nm":91.4,"freq":109.2,"lat":45.58863100,"lon":-122.61125300,"rng_nm":130,"alt_fmsl":22,"id":"CBU","desc":"COLUMBIA TACAN"},
{"type":"VOR","hdg_t":327.6,"dist_nm":91.6,"freq":111.8,"lat":45.59369444,"lon":-122.60627778,"rng_nm":40,"alt_fmsl":23,"id":"PDX","desc":"PORTLAND VOR-DME"},
{"type":"VOR","hdg_t":330.8,"dist_nm":99.1,"freq":116.6,"lat":45.74780556,"lon":-122.59152778,"rng_nm":130,"alt_fmsl":253,"id":"BTG","desc":"BATTLEGROUND VORTAC"}
]
}
