{"success":true,"source":"xp2csv.pl","last_updated":"2013/11/08 14:53:21 UTC"
,"icao":"7S4","name":"Wisdom","lat":45.59158972,"lon":-113.45922556,"rwys":1,"ils":0,"index":1090018,"path":"w120n40/w114n45"
,"runways":[
{"len_m":1050,"wid_m":18.29,"hdg":27,"surf":"Turf/grass","rwy1":"01","lat1":45.58738113,"lon1":-113.46228998,"rwy2":"19","lat2":45.59579831,"lon2":-113.45616114}
]
,"navaids":[
{"type":"VOR","hdg_t":48.2,"dist_nm":39.8,"freq":111.6,"lat":46.03200000,"lon":-112.74752778,"rng_nm":40,"alt_fmsl":5780,"id":"CPN","desc":"COPPERTOWN VOR-DME"},
{"type":"VOR","hdg_t":217.9,"dist_nm":43.2,"freq":113.5,"lat":45.02130556,"lon":-114.08425000,"rng_nm":130,"alt_fmsl":9258,"id":"LKT","desc":"SALMON VOR-DME"},
{"type":"VOR","hdg_t":117.7,"dist_nm":43.6,"freq":113,"lat":45.24858333,"lon":-112.54713889,"rng_nm":130,"alt_fmsl":5257,"id":"DLN","desc":"DILLON VOR-DME"},
{"type":"VOR","hdg_t":72.8,"dist_nm":56.5,"freq":113.7,"lat":45.86180556,"lon":-112.16961111,"rng_nm":130,"alt_fmsl":4652,"id":"HIA","desc":"WHITEHALL VOR-DME"},
{"type":"VOR","hdg_t":10.1,"dist_nm":63.7,"freq":117.1,"lat":46.63609700,"lon":-113.18659400,"rng_nm":40,"alt_fmsl":4150,"id":"DRU","desc":"DRUMMOND VOR"},
{"type":"NDB","hdg_t":334.3,"dist_nm":69.6,"freq":275,"lat":46.63609700,"lon":-114.18789400,"rng_nm":50,"alt_fmsl":2936,"id":"PLS","desc":"POLSON NDB"},
{"type":"NDB","hdg_t":103.7,"dist_nm":78.8,"freq":286,"lat":45.26583333,"lon":-111.65138889,"rng_nm":50,"alt_fmsl":0,"id":"EKS","desc":"ENNIS NDB"},
{"type":"VOR","hdg_t":342,"dist_nm":83.1,"freq":112.8,"lat":46.90797222,"lon":-114.08363889,"rng_nm":40,"alt_fmsl":3202,"id":"MSO","desc":"MISSOULA VOR-DME"},
{"type":"VOR","hdg_t":45.3,"dist_nm":87.5,"freq":117.7,"lat":46.60683333,"lon":-111.95347222,"rng_nm":130,"alt_fmsl":3823,"id":"HLN","desc":"HELENA VORTAC"},
{"type":"NDB","hdg_t":45.6,"dist_nm":88,"freq":335,"lat":46.60666667,"lon":-111.93716667,"rng_nm":50,"alt_fmsl":0,"id":"CVP","desc":"CAPITOL NDB"},
{"type":"NDB","hdg_t":49.8,"dist_nm":92.1,"freq":386,"lat":46.56888889,"lon":-111.75805556,"rng_nm":50,"alt_fmsl":0,"id":"HAU","desc":"HAUSER NDB"},
{"type":"NDB","hdg_t":78.7,"dist_nm":92.8,"freq":266,"lat":45.87180556,"lon":-111.28572222,"rng_nm":50,"alt_fmsl":0,"id":"BZ","desc":"MANNI NDB"},
{"type":"VOR","hdg_t":82.3,"dist_nm":97.5,"freq":112.4,"lat":45.78388889,"lon":-111.15544444,"rng_nm":130,"alt_fmsl":4430,"id":"BZN","desc":"BOZEMAN VOR-DME"},
{"type":"NDB","hdg_t":336.9,"dist_nm":98.2,"freq":521,"lat":47.09436111,"lon":-114.39677778,"rng_nm":50,"alt_fmsl":0,"id":"INE","desc":"KONNA NDB"}
]
}
