{"success":true,"source":"xp2csv.pl","last_updated":"2013/11/08 14:53:21 UTC"
,"icao":"7TA5","name":"Weber Ranch","lat":30.58714555,"lon":-96.63413862,"rwys":1,"ils":0,"index":1367585,"path":"w100n30/w097n30"
,"runways":[
{"len_m":851,"wid_m":22.86,"hdg":166,"surf":"Turf/grass","rwy1":"16","lat1":30.59088730,"lon1":-96.63514210,"rwy2":"34","lat2":30.58340380,"lon2":-96.63313514}
]
,"navaids":[
{"type":"VOR","hdg_t":84.4,"dist_nm":11.1,"freq":113.3,"lat":30.60500000,"lon":-96.42069444,"rng_nm":40,"alt_fmsl":275,"id":"CLL","desc":"COLLEGE STATION VORTAC"},
{"type":"NDB","hdg_t":109.9,"dist_nm":16.3,"freq":260,"lat":30.49372222,"lon":-96.33769444,"rng_nm":50,"alt_fmsl":0,"id":"CL","desc":"ROWDY NDB"},
{"type":"NDB","hdg_t":215.6,"dist_nm":30.7,"freq":385,"lat":30.16952200,"lon":-96.97874400,"rng_nm":25,"alt_fmsl":464,"id":"GYB","desc":"LEE COUNTY NDB"},
{"type":"VOR","hdg_t":120.7,"dist_nm":34.8,"freq":115.9,"lat":30.28852778,"lon":-96.05822222,"rng_nm":130,"alt_fmsl":230,"id":"TNV","desc":"NAVASOTA VORTAC"},
{"type":"VOR","hdg_t":174.3,"dist_nm":37.9,"freq":110.2,"lat":29.95605556,"lon":-96.56219444,"rng_nm":40,"alt_fmsl":419,"id":"IDU","desc":"INDUSTRY VORTAC"},
{"type":"VOR","hdg_t":46.7,"dist_nm":47,"freq":110.8,"lat":31.12402778,"lon":-95.96794444,"rng_nm":40,"alt_fmsl":350,"id":"LOA","desc":"LEONA VORTAC"},
{"type":"VOR","hdg_t":255.1,"dist_nm":48,"freq":112.8,"lat":30.37855556,"lon":-97.52986111,"rng_nm":130,"alt_fmsl":593,"id":"CWK","desc":"CENTEX VORTAC"},
{"type":"NDB","hdg_t":276.4,"dist_nm":54.4,"freq":332,"lat":30.68438889,"lon":-97.67991667,"rng_nm":50,"alt_fmsl":0,"id":"GUO","desc":"GEORGETOWN NDB"},
{"type":"NDB","hdg_t":80,"dist_nm":54.7,"freq":308,"lat":30.74075000,"lon":-95.59086111,"rng_nm":50,"alt_fmsl":0,"id":"UTS","desc":"HUNTSVILLE NDB"},
{"type":"VOR","hdg_t":312.5,"dist_nm":55.2,"freq":110.4,"lat":31.20933333,"lon":-97.42497222,"rng_nm":40,"alt_fmsl":710,"id":"TPL","desc":"TEMPLE VOR-DME"},
{"type":"NDB","hdg_t":248,"dist_nm":55.5,"freq":353,"lat":30.23568300,"lon":-97.62569700,"rng_nm":25,"alt_fmsl":0,"id":"AU","desc":"AUSTI NDB"},
{"type":"NDB","hdg_t":252,"dist_nm":57.2,"freq":232,"lat":30.28759400,"lon":-97.68183600,"rng_nm":25,"alt_fmsl":0,"id":"GF","desc":"BIRDY NDB"},
{"type":"VOR","hdg_t":163.3,"dist_nm":57.7,"freq":116.4,"lat":29.66244444,"lon":-96.31716667,"rng_nm":130,"alt_fmsl":190,"id":"ELA","desc":"EAGLE LAKE VOR-DME"},
{"type":"NDB","hdg_t":337.8,"dist_nm":59.2,"freq":400,"lat":31.50380556,"lon":-97.06958333,"rng_nm":50,"alt_fmsl":0,"id":"ROB","desc":"ROBINSON NDB"},
{"type":"VOR","hdg_t":4.1,"dist_nm":59.6,"freq":108.8,"lat":31.58147222,"lon":-96.54908333,"rng_nm":40,"alt_fmsl":512,"id":"GNL","desc":"GROESBECK VOR-DME"},
{"type":"NDB","hdg_t":98.5,"dist_nm":60.7,"freq":281,"lat":30.43200000,"lon":-95.47625000,"rng_nm":50,"alt_fmsl":0,"id":"CX","desc":"ALIBI NDB"},
{"type":"NDB","hdg_t":295.5,"dist_nm":61.3,"freq":278,"lat":31.02411111,"lon":-97.70813889,"rng_nm":50,"alt_fmsl":0,"id":"IL","desc":"IRESH NDB"},
{"type":"NDB","hdg_t":241.4,"dist_nm":61.7,"freq":255,"lat":30.08972222,"lon":-97.67602778,"rng_nm":50,"alt_fmsl":0,"id":"BS","desc":"CREED NDB"},
{"type":"NDB","hdg_t":116.2,"dist_nm":61.9,"freq":521,"lat":30.12552778,"lon":-95.56586111,"rng_nm":50,"alt_fmsl":0,"id":"DWH","desc":"DAVID HOOKS NDB"},
{"type":"NDB","hdg_t":5.6,"dist_nm":63.3,"freq":329,"lat":31.63961111,"lon":-96.51219444,"rng_nm":50,"alt_fmsl":0,"id":"LXY","desc":"MEXIA NDB"},
{"type":"NDB","hdg_t":300.5,"dist_nm":64.4,"freq":347,"lat":31.12905556,"lon":-97.71141667,"rng_nm":50,"alt_fmsl":0,"id":"HLR","desc":"HOOD NDB"},
{"type":"NDB","hdg_t":126.9,"dist_nm":64.7,"freq":286,"lat":29.93386111,"lon":-95.64100000,"rng_nm":50,"alt_fmsl":0,"id":"EYQ","desc":"WEISER NDB"},
{"type":"VOR","hdg_t":293.9,"dist_nm":66.5,"freq":111.8,"lat":31.03288889,"lon":-97.81377778,"rng_nm":25,"alt_fmsl":980,"id":"GRK","desc":"GRAY VOR-DME"},
{"type":"VOR","hdg_t":333.2,"dist_nm":72.1,"freq":115.3,"lat":31.66233333,"lon":-97.26902778,"rng_nm":130,"alt_fmsl":510,"id":"ACT","desc":"WACO VORTAC"},
{"type":"NDB","hdg_t":341.8,"dist_nm":72.7,"freq":378,"lat":31.74091667,"lon":-97.07816667,"rng_nm":50,"alt_fmsl":0,"id":"CN","desc":"LEROI NDB"},
{"type":"NDB","hdg_t":298.7,"dist_nm":73,"freq":323,"lat":31.16783333,"lon":-97.87822222,"rng_nm":50,"alt_fmsl":0,"id":"GR","desc":"STARN NDB"},
{"type":"VOR","hdg_t":119,"dist_nm":76.8,"freq":116.6,"lat":29.95691667,"lon":-95.34572222,"rng_nm":130,"alt_fmsl":90,"id":"IAH","desc":"HUMBLE VORTAC"},
{"type":"NDB","hdg_t":241.4,"dist_nm":77.9,"freq":272,"lat":29.95880556,"lon":-97.94897222,"rng_nm":50,"alt_fmsl":0,"id":"RU","desc":"GARYS NDB"},
{"type":"NDB","hdg_t":16.2,"dist_nm":79.5,"freq":418,"lat":31.86266667,"lon":-96.19747222,"rng_nm":50,"alt_fmsl":0,"id":"PYF","desc":"PYRAMID NDB"},
{"type":"NDB","hdg_t":199.1,"dist_nm":80.7,"freq":350,"lat":29.31202778,"lon":-97.13863889,"rng_nm":50,"alt_fmsl":0,"id":"OKT","desc":"YOAKUM NDB"},
{"type":"NDB","hdg_t":115.3,"dist_nm":81.8,"freq":326,"lat":29.99333333,"lon":-95.21502778,"rng_nm":50,"alt_fmsl":0,"id":"BVP","desc":"NIXIN NDB"},
{"type":"NDB","hdg_t":276.7,"dist_nm":83.4,"freq":341,"lat":30.74027778,"lon":-98.23622222,"rng_nm":50,"alt_fmsl":0,"id":"BMQ","desc":"BURNET NDB"},
{"type":"NDB","hdg_t":162.3,"dist_nm":83.6,"freq":245,"lat":29.25463889,"lon":-96.15202778,"rng_nm":50,"alt_fmsl":0,"id":"ARM","desc":"WHARTON NDB"},
{"type":"VOR","hdg_t":295,"dist_nm":85.6,"freq":112.5,"lat":31.18550000,"lon":-98.14186111,"rng_nm":130,"alt_fmsl":1290,"id":"AGJ","desc":"GOOCH SPRINGS VORTAC"},
{"type":"NDB","hdg_t":33.6,"dist_nm":86,"freq":375,"lat":31.78016667,"lon":-95.70105556,"rng_nm":50,"alt_fmsl":0,"id":"PSN","desc":"PALESTINE NDB"},
{"type":"NDB","hdg_t":8,"dist_nm":87.1,"freq":396,"lat":32.02841667,"lon":-96.39461111,"rng_nm":50,"alt_fmsl":0,"id":"CRS","desc":"CORSICANA NDB"},
{"type":"NDB","hdg_t":6.8,"dist_nm":89,"freq":344,"lat":32.06413889,"lon":-96.42630556,"rng_nm":50,"alt_fmsl":0,"id":"CGQ","desc":"POWELL NDB"},
{"type":"VOR","hdg_t":127.9,"dist_nm":89.9,"freq":117.1,"lat":29.65563889,"lon":-95.27663889,"rng_nm":130,"alt_fmsl":82,"id":"HUB","desc":"HOBBY VOR-DME"},
{"type":"NDB","hdg_t":22.1,"dist_nm":92.1,"freq":335,"lat":32.01071700,"lon":-95.95274200,"rng_nm":25,"alt_fmsl":383,"id":"LIQ","desc":"LOCHRIDGE RANCH NDB"},
{"type":"NDB","hdg_t":21.2,"dist_nm":94.9,"freq":215,"lat":32.06350000,"lon":-95.95763889,"rng_nm":50,"alt_fmsl":0,"id":"CSZ","desc":"CROSSROADS NDB"},
{"type":"SDME","hdg_t":127,"dist_nm":96.6,"freq":109.4,"lat":29.60595800,"lon":-95.15965300,"rng_nm":40,"alt_fmsl":30,"id":"EFD","desc":"ELLINGTON TACAN"},
{"type":"VOR","hdg_t":12.4,"dist_nm":98,"freq":114.8,"lat":32.18572222,"lon":-96.21811111,"rng_nm":40,"alt_fmsl":400,"id":"CQY","desc":"CEDAR CREEK VORTAC"},
{"type":"NDB","hdg_t":123.6,"dist_nm":98.2,"freq":347,"lat":29.66841667,"lon":-95.06983333,"rng_nm":50,"alt_fmsl":0,"id":"JPA","desc":"SANJAC NDB"},
{"type":"NDB","hdg_t":308.8,"dist_nm":99.6,"freq":251,"lat":31.62150000,"lon":-98.14891667,"rng_nm":50,"alt_fmsl":0,"id":"MNZ","desc":"HAMILTON NDB"}
]
}
