{"success":true,"source":"xp2csv.pl","last_updated":"2013/11/08 14:53:21 UTC"
,"icao":"7WI8","name":"Fellows","lat":42.75084027,"lon":-89.19122612,"rwys":1,"ils":0,"index":1483059,"path":"w090n40/w090n42"
,"runways":[
{"len_m":1127,"wid_m":21.34,"hdg":180,"surf":"Turf/grass","rwy1":"18","lat1":42.75591478,"lon1":-89.19122612,"rwy2":"36","lat2":42.74576576,"lon2":-89.19122612}
]
,"navaids":[
{"type":"NDB","hdg_t":140.7,"dist_nm":10.5,"freq":375,"lat":42.61511111,"lon":-89.04127778,"rng_nm":50,"alt_fmsl":0,"id":"JVL","desc":"JANESVILLE NDB"},
{"type":"VOR","hdg_t":161.7,"dist_nm":12.1,"freq":114.3,"lat":42.55800000,"lon":-89.10525000,"rng_nm":40,"alt_fmsl":931,"id":"JVL","desc":"JANESVILLE VOR-DME"},
{"type":"NDB","hdg_t":340,"dist_nm":19.9,"freq":400,"lat":43.06275000,"lon":-89.34588889,"rng_nm":50,"alt_fmsl":0,"id":"MS","desc":"MONAH NDB"},
{"type":"VOR","hdg_t":344.5,"dist_nm":24.5,"freq":108.6,"lat":43.14483333,"lon":-89.33969444,"rng_nm":40,"alt_fmsl":857,"id":"MSN","desc":"MADISON VORTAC"},
{"type":"NDB","hdg_t":96.5,"dist_nm":26.6,"freq":404,"lat":42.69883333,"lon":-88.59316667,"rng_nm":50,"alt_fmsl":0,"id":"LVV","desc":"LAKE LAWN NDB"},
{"type":"VOR","hdg_t":180.6,"dist_nm":31.5,"freq":110.8,"lat":42.22558333,"lon":-89.19927778,"rng_nm":40,"alt_fmsl":868,"id":"RFD","desc":"ROCKFORD VOR-DME"},
{"type":"NDB","hdg_t":38.8,"dist_nm":32.6,"freq":371,"lat":43.17366667,"lon":-88.72527778,"rng_nm":50,"alt_fmsl":0,"id":"RYV","desc":"ROCK RIVER NDB"},
{"type":"NDB","hdg_t":173.8,"dist_nm":38.3,"freq":275,"lat":42.11433333,"lon":-89.09872222,"rng_nm":50,"alt_fmsl":0,"id":"RF","desc":"GILMY NDB"},
{"type":"VOR","hdg_t":95,"dist_nm":39.5,"freq":114.5,"lat":42.68933333,"lon":-88.30177778,"rng_nm":25,"alt_fmsl":772,"id":"BUU","desc":"BURBUN VOR-DME"},
{"type":"VOR","hdg_t":60.9,"dist_nm":45.6,"freq":116.4,"lat":43.11686111,"lon":-88.28433333,"rng_nm":130,"alt_fmsl":1080,"id":"BAE","desc":"BADGER VORTAC"},
{"type":"NDB","hdg_t":27.6,"dist_nm":46,"freq":344,"lat":43.42900000,"lon":-88.70216667,"rng_nm":50,"alt_fmsl":0,"id":"UNU","desc":"JUNEAU NDB"},
{"type":"NDB","hdg_t":280.5,"dist_nm":46.4,"freq":365,"lat":42.88805556,"lon":-90.22650000,"rng_nm":50,"alt_fmsl":0,"id":"MRJ","desc":"MINERAL POINT NDB"},
{"type":"VOR","hdg_t":197.5,"dist_nm":49.3,"freq":111.2,"lat":41.96563889,"lon":-89.52422222,"rng_nm":40,"alt_fmsl":840,"id":"PLL","desc":"POLO VOR-DME"},
{"type":"NDB","hdg_t":44,"dist_nm":50,"freq":200,"lat":43.34763889,"lon":-88.39522222,"rng_nm":50,"alt_fmsl":0,"id":"HXF","desc":"HARTFORD NDB"},
{"type":"NDB","hdg_t":79,"dist_nm":51.6,"freq":242,"lat":42.90905556,"lon":-88.04097222,"rng_nm":50,"alt_fmsl":0,"id":"GM","desc":"TEELS NDB"},
{"type":"NDB","hdg_t":102.1,"dist_nm":52.7,"freq":389,"lat":42.56044444,"lon":-88.02877778,"rng_nm":50,"alt_fmsl":0,"id":"EN","desc":"CODEE NDB"},
{"type":"VOR","hdg_t":308.5,"dist_nm":52.7,"freq":112.8,"lat":43.29436111,"lon":-90.13313889,"rng_nm":40,"alt_fmsl":1184,"id":"LNR","desc":"LONE ROCK VOR-DME"},
{"type":"NDB","hdg_t":156.1,"dist_nm":53.5,"freq":209,"lat":41.93402778,"lon":-88.70733333,"rng_nm":50,"alt_fmsl":0,"id":"DKB","desc":"DEKALB NDB"},
{"type":"VOR","hdg_t":332.5,"dist_nm":54.1,"freq":117,"lat":43.55083333,"lon":-89.76361111,"rng_nm":130,"alt_fmsl":1022,"id":"DLL","desc":"DELLS VORTAC"},
{"type":"VOR","hdg_t":66.6,"dist_nm":55.2,"freq":112.5,"lat":43.10977778,"lon":-88.03727778,"rng_nm":40,"alt_fmsl":737,"id":"LJT","desc":"TIMMERMAN VOR-DME"},
{"type":"VOR","hdg_t":98.8,"dist_nm":56.4,"freq":109.2,"lat":42.59905556,"lon":-87.93172222,"rng_nm":25,"alt_fmsl":734,"id":"ENW","desc":"KENOSHA VOR-DME"},
{"type":"NDB","hdg_t":84.1,"dist_nm":56.7,"freq":410,"lat":42.83961111,"lon":-87.91300000,"rng_nm":50,"alt_fmsl":0,"id":"MK","desc":"CAPPY NDB"},
{"type":"NDB","hdg_t":93.6,"dist_nm":57.2,"freq":206,"lat":42.68255556,"lon":-87.89947222,"rng_nm":50,"alt_fmsl":0,"id":"RA","desc":"PASER NDB"},
{"type":"NDB","hdg_t":71.8,"dist_nm":60.8,"freq":260,"lat":43.06002778,"lon":-87.87675000,"rng_nm":50,"alt_fmsl":0,"id":"BL","desc":"YANKS NDB"},
{"type":"VOR","hdg_t":88.8,"dist_nm":60.8,"freq":117.7,"lat":42.76216667,"lon":-87.81472222,"rng_nm":25,"alt_fmsl":669,"id":"HRK","desc":"HORLICK VOR-DME"},
{"type":"VOR","hdg_t":48.9,"dist_nm":61.7,"freq":109.8,"lat":43.42197222,"lon":-88.12519444,"rng_nm":25,"alt_fmsl":0,"id":"BJB","desc":"WEST BEND VOR"},
{"type":"VOR","hdg_t":119.5,"dist_nm":63.5,"freq":113,"lat":42.22147222,"lon":-87.95180556,"rng_nm":130,"alt_fmsl":758,"id":"OBK","desc":"NORTHBROOK VOR-DME"},
{"type":"VOR","hdg_t":143.7,"dist_nm":63.7,"freq":108.4,"lat":41.89036111,"lon":-88.35016667,"rng_nm":40,"alt_fmsl":838,"id":"DPA","desc":"DUPAGE VOR-DME"},
{"type":"NDB","hdg_t":105.1,"dist_nm":63.9,"freq":379,"lat":42.46405556,"lon":-87.80141667,"rng_nm":50,"alt_fmsl":0,"id":"UG","desc":"WAUKE NDB"},
{"type":"NDB","hdg_t":127.9,"dist_nm":67.1,"freq":394,"lat":42.05593600,"lon":-88.00779200,"rng_nm":25,"alt_fmsl":0,"id":"OR","desc":"CHSTR NDB"},
{"type":"NDB","hdg_t":127,"dist_nm":67.2,"freq":368,"lat":42.06918300,"lon":-87.99088300,"rng_nm":25,"alt_fmsl":0,"id":"OH","desc":"LEAMA NDB"},
{"type":"NDB","hdg_t":248.1,"dist_nm":67.5,"freq":341,"lat":42.32300000,"lon":-90.59886111,"rng_nm":50,"alt_fmsl":0,"id":"DB","desc":"ZILOM NDB"},
{"type":"NDB","hdg_t":203.2,"dist_nm":67.7,"freq":254,"lat":41.71111111,"lon":-89.78561111,"rng_nm":50,"alt_fmsl":0,"id":"BOZ","desc":"WHITESIDE NDB"},
{"type":"NDB","hdg_t":26.6,"dist_nm":68.5,"freq":248,"lat":43.76954400,"lon":-88.48462800,"rng_nm":25,"alt_fmsl":0,"id":"FLD","desc":"FOND DU LAC NDB"},
{"type":"NDB","hdg_t":131.8,"dist_nm":69.9,"freq":350,"lat":41.96777200,"lon":-88.02670000,"rng_nm":50,"alt_fmsl":699,"id":"ME","desc":"DEANA NDB"},
{"type":"VOR","hdg_t":253.2,"dist_nm":70.4,"freq":115.8,"lat":42.40147222,"lon":-90.70908333,"rng_nm":130,"alt_fmsl":1051,"id":"DBQ","desc":"DUBUQUE VORTAC"},
{"type":"DME","hdg_t":128.1,"dist_nm":71.7,"freq":111.75,"lat":42.00391666,"lon":-87.93006695,"rng_nm":18,"alt_fmsl":668,"id":"KORD","desc":"09L DME-ILS"},
{"type":"DME","hdg_t":128.1,"dist_nm":71.7,"freq":111.75,"lat":42.00391667,"lon":-87.93006690,"rng_nm":18,"alt_fmsl":668,"id":"KORD","desc":"27R DME-ILS"},
{"type":"NDB","hdg_t":22.1,"dist_nm":72.8,"freq":395,"lat":43.87380556,"lon":-88.55761111,"rng_nm":50,"alt_fmsl":0,"id":"OS","desc":"POBER NDB"},
{"type":"VOR","hdg_t":128.2,"dist_nm":73.2,"freq":113.9,"lat":41.98766667,"lon":-87.90488889,"rng_nm":40,"alt_fmsl":650,"id":"ORD","desc":"CHICAGO O'HARE IN VOR-DME"},
{"type":"NDB","hdg_t":317.6,"dist_nm":73.8,"freq":251,"lat":43.65516667,"lon":-90.33308333,"rng_nm":50,"alt_fmsl":0,"id":"HBW","desc":"KICKAPOO NDB"},
{"type":"NDB","hdg_t":125.9,"dist_nm":77.4,"freq":414,"lat":41.98431700,"lon":-87.78902200,"rng_nm":25,"alt_fmsl":0,"id":"IA","desc":"TAFFS NDB"},
{"type":"VOR","hdg_t":20.2,"dist_nm":79.3,"freq":111.8,"lat":43.99041667,"lon":-88.55594444,"rng_nm":40,"alt_fmsl":780,"id":"OSH","desc":"OSHKOSH VORTAC"},
{"type":"NDB","hdg_t":129,"dist_nm":79.8,"freq":385,"lat":41.90486100,"lon":-87.80691700,"rng_nm":25,"alt_fmsl":0,"id":"ID","desc":"INDDY NDB"},
{"type":"NDB","hdg_t":222.1,"dist_nm":80.2,"freq":517,"lat":41.75166667,"lon":-90.39050000,"rng_nm":50,"alt_fmsl":0,"id":"FN","desc":"HILLZ NDB"},
{"type":"NDB","hdg_t":239.1,"dist_nm":80.6,"freq":386,"lat":42.05138600,"lon":-90.74095300,"rng_nm":25,"alt_fmsl":765,"id":"OQW","desc":"MAQUOKETA NDB"},
{"type":"VOR","hdg_t":151.3,"dist_nm":82,"freq":112.3,"lat":41.54641667,"lon":-88.31841667,"rng_nm":130,"alt_fmsl":592,"id":"JOT","desc":"JOLIET VORTAC"},
{"type":"NDB","hdg_t":178.6,"dist_nm":83.7,"freq":230,"lat":41.35475600,"lon":-89.14813900,"rng_nm":25,"alt_fmsl":652,"id":"VYS","desc":"VALLEY NDB"},
{"type":"NDB","hdg_t":169.6,"dist_nm":84.6,"freq":266,"lat":41.36252778,"lon":-88.85425000,"rng_nm":50,"alt_fmsl":0,"id":"OIX","desc":"OTTAWA NDB"},
{"type":"VOR","hdg_t":43.4,"dist_nm":84.8,"freq":110,"lat":43.76877778,"lon":-87.84875000,"rng_nm":40,"alt_fmsl":744,"id":"FAH","desc":"FALLS VOR-DME"},
{"type":"VOR","hdg_t":223,"dist_nm":84.9,"freq":113.8,"lat":41.70855556,"lon":-90.48330556,"rng_nm":40,"alt_fmsl":767,"id":"CVA","desc":"DAVENPORT VORTAC"},
{"type":"SDME","hdg_t":327.1,"dist_nm":85.4,"freq":110.4,"lat":43.94288300,"lon":-90.25901900,"rng_nm":40,"alt_fmsl":961,"id":"VOK","desc":"VOLK TACAN"},
{"type":"NDB","hdg_t":333.4,"dist_nm":86.2,"freq":233,"lat":44.03405600,"lon":-90.08263900,"rng_nm":25,"alt_fmsl":914,"id":"DAF","desc":"NECEDAH NDB"},
{"type":"NDB","hdg_t":135.2,"dist_nm":86.4,"freq":332,"lat":41.71897222,"lon":-87.83638889,"rng_nm":50,"alt_fmsl":0,"id":"HK","desc":"ERMIN NDB"},
{"type":"NDB","hdg_t":17.1,"dist_nm":88.7,"freq":230,"lat":44.16250000,"lon":-88.58502778,"rng_nm":50,"alt_fmsl":0,"id":"AT","desc":"GAMIE NDB"},
{"type":"NDB","hdg_t":131.6,"dist_nm":90.2,"freq":248,"lat":41.74150000,"lon":-87.68966667,"rng_nm":50,"alt_fmsl":0,"id":"MX","desc":"KEDZI NDB"},
{"type":"NDB","hdg_t":42.8,"dist_nm":90.4,"freq":338,"lat":43.84850000,"lon":-87.77447800,"rng_nm":25,"alt_fmsl":693,"id":"HE","desc":"SHEBB NDB"},
{"type":"NDB","hdg_t":226.3,"dist_nm":90.9,"freq":353,"lat":41.69486111,"lon":-90.65588889,"rng_nm":50,"alt_fmsl":0,"id":"DV","desc":"AUNEY NDB"},
{"type":"NDB","hdg_t":21.2,"dist_nm":94.4,"freq":407,"lat":44.21588889,"lon":-88.39894444,"rng_nm":50,"alt_fmsl":0,"id":"AQ","desc":"KOOKY NDB"},
{"type":"NDB","hdg_t":4.4,"dist_nm":95.2,"freq":382,"lat":44.33436111,"lon":-89.01969444,"rng_nm":50,"alt_fmsl":0,"id":"PCZ","desc":"WAUPACA NDB"},
{"type":"NDB","hdg_t":318.7,"dist_nm":95.4,"freq":412,"lat":43.93783333,"lon":-90.64186111,"rng_nm":50,"alt_fmsl":0,"id":"CMY","desc":"MC COY NDB"},
{"type":"NDB","hdg_t":341.6,"dist_nm":95.4,"freq":326,"lat":44.25983333,"lon":-89.88788889,"rng_nm":50,"alt_fmsl":0,"id":"EK","desc":"NEPCO NDB"},
{"type":"VOR","hdg_t":190.6,"dist_nm":97,"freq":114.7,"lat":41.15972222,"lon":-89.58786111,"rng_nm":130,"alt_fmsl":810,"id":"BDF","desc":"BRADFORD VORTAC"}
]
}
