{"success":true,"source":"xp2csv.pl","last_updated":"2013/11/08 14:53:21 UTC"
,"icao":"80T","name":"Quincy Muni","lat":47.2116,"lon":-119.839832,"rwys":1,"ils":0,"index":991816,"path":"w120n40/w120n47"
,"runways":[
{"len_m":1115,"wid_m":15.24,"hdg":106,"surf":"Asphalt","rwy1":"09","lat1":47.21299700,"lon1":-119.84690300,"rwy2":"27","lat2":47.21020300,"lon2":-119.83276100}
]
,"radios":[
{"type":"CTAF","freq":122.9,"desc":"CTAF"}
]
,"navaids":[
{"type":"VOR","hdg_t":306.8,"dist_nm":18.8,"freq":111,"lat":47.39969444,"lon":-120.21086111,"rng_nm":40,"alt_fmsl":1224,"id":"EAT","desc":"WENATCHEE VOR-DME"},
{"type":"VOR","hdg_t":59.3,"dist_nm":19.7,"freq":112.6,"lat":47.37791667,"lon":-119.42400000,"rng_nm":130,"alt_fmsl":1250,"id":"EPH","desc":"EPHRATA VORTAC"},
{"type":"VOR","hdg_t":89.9,"dist_nm":21.3,"freq":115,"lat":47.21086111,"lon":-119.31680556,"rng_nm":130,"alt_fmsl":1194,"id":"MWH","desc":"MOSES LAKE VOR-DME"},
{"type":"NDB","hdg_t":103.7,"dist_nm":23.8,"freq":408,"lat":47.11572222,"lon":-119.27450000,"rng_nm":50,"alt_fmsl":0,"id":"MW","desc":"PELLY NDB"},
{"type":"VOR","hdg_t":246.3,"dist_nm":27.7,"freq":117.9,"lat":47.02436111,"lon":-120.45841667,"rng_nm":130,"alt_fmsl":1770,"id":"ELN","desc":"ELLENSBURG VORTAC"},
{"type":"VOR","hdg_t":213.1,"dist_nm":45.8,"freq":116,"lat":46.57025000,"lon":-120.44463889,"rng_nm":130,"alt_fmsl":984,"id":"YKM","desc":"YAKIMA VORTAC"},
{"type":"NDB","hdg_t":208.2,"dist_nm":46.6,"freq":371,"lat":46.52563889,"lon":-120.37219444,"rng_nm":50,"alt_fmsl":0,"id":"YK","desc":"DONNY NDB"},
{"type":"NDB","hdg_t":154.4,"dist_nm":55.8,"freq":260,"lat":46.37047222,"lon":-119.25911111,"rng_nm":50,"alt_fmsl":0,"id":"RL","desc":"RIBOO NDB"},
{"type":"NDB","hdg_t":146.6,"dist_nm":62.5,"freq":331,"lat":46.33813889,"lon":-119.01252778,"rng_nm":50,"alt_fmsl":0,"id":"PS","desc":"DUNEZ NDB"},
{"type":"VOR","hdg_t":152,"dist_nm":64.3,"freq":108.4,"lat":46.26297222,"lon":-119.11572222,"rng_nm":40,"alt_fmsl":404,"id":"PSC","desc":"PASCO VOR-DME"},
{"type":"NDB","hdg_t":9.8,"dist_nm":75.6,"freq":219,"lat":48.45338889,"lon":-119.51700000,"rng_nm":50,"alt_fmsl":0,"id":"OMK","desc":"OMAK NDB"},
{"type":"SDME","hdg_t":74,"dist_nm":91.9,"freq":111.4,"lat":47.61069400,"lon":-117.66230300,"rng_nm":40,"alt_fmsl":2460,"id":"SKA","desc":"FAIRCHILD TACAN"},
{"type":"NDB","hdg_t":131.8,"dist_nm":92,"freq":353,"lat":46.17555556,"lon":-118.19636111,"rng_nm":50,"alt_fmsl":0,"id":"AL","desc":"TRINA NDB"},
{"type":"VOR","hdg_t":75.9,"dist_nm":92.6,"freq":115.5,"lat":47.56494444,"lon":-117.62688889,"rng_nm":130,"alt_fmsl":2756,"id":"GEG","desc":"SPOKANE VORTAC"},
{"type":"VOR","hdg_t":135.9,"dist_nm":92.9,"freq":116.4,"lat":46.08697222,"lon":-118.29252778,"rng_nm":40,"alt_fmsl":1179,"id":"ALW","desc":"WALLA WALLA VOR-DME"},
{"type":"VOR","hdg_t":157.3,"dist_nm":98.2,"freq":114.7,"lat":45.69841667,"lon":-118.93869444,"rng_nm":130,"alt_fmsl":1559,"id":"PDT","desc":"PENDLETON VORTAC"},
{"type":"NDB","hdg_t":280.8,"dist_nm":98.3,"freq":353,"lat":47.49544444,"lon":-122.21472222,"rng_nm":50,"alt_fmsl":0,"id":"RNT","desc":"RENTON NDB"}
]
}
