{"success":true,"source":"xp2csv.pl","last_updated":"2013/11/08 14:53:21 UTC"
,"icao":"80U","name":"Taylor Ranch Landing Area","lat":45.10408027,"lon":-114.85537473,"rwys":1,"ils":0,"index":1073600,"path":"w120n40/w115n45"
,"runways":[
{"len_m":703,"wid_m":30.48,"hdg":106,"surf":"Turf/grass","rwy1":"09","lat1":45.10500254,"lon1":-114.85964861,"rwy2":"27","lat2":45.10315800,"lon2":-114.85110085}
]
,"navaids":[
{"type":"VOR","hdg_t":98.3,"dist_nm":33.1,"freq":113.5,"lat":45.02130556,"lon":-114.08425000,"rng_nm":130,"alt_fmsl":9258,"id":"LKT","desc":"SALMON VOR-DME"},
{"type":"VOR","hdg_t":251.1,"dist_nm":61,"freq":116.2,"lat":44.76711111,"lon":-116.20627778,"rng_nm":130,"alt_fmsl":7333,"id":"DNJ","desc":"DONNELLY VORTAC"},
{"type":"NDB","hdg_t":16.6,"dist_nm":96.1,"freq":275,"lat":46.63609700,"lon":-114.18789400,"rng_nm":50,"alt_fmsl":2936,"id":"PLS","desc":"POLSON NDB"},
{"type":"VOR","hdg_t":84.1,"dist_nm":98.3,"freq":113,"lat":45.24858333,"lon":-112.54713889,"rng_nm":130,"alt_fmsl":5257,"id":"DLN","desc":"DILLON VOR-DME"},
{"type":"VOR","hdg_t":57.1,"dist_nm":104.8,"freq":111.6,"lat":46.03200000,"lon":-112.74752778,"rng_nm":40,"alt_fmsl":5780,"id":"CPN","desc":"COPPERTOWN VOR-DME"},
{"type":"VOR","hdg_t":212.2,"dist_nm":109.4,"freq":113.3,"lat":43.55280556,"lon":-116.19213889,"rng_nm":130,"alt_fmsl":2876,"id":"BOI","desc":"BOISE VORTAC"},
{"type":"NDB","hdg_t":165.8,"dist_nm":109.6,"freq":220,"lat":43.32977778,"lon":-114.24369444,"rng_nm":50,"alt_fmsl":0,"id":"HLE","desc":"HAILEY NDB"},
{"type":"NDB","hdg_t":215.3,"dist_nm":110.1,"freq":359,"lat":43.59686111,"lon":-116.31522222,"rng_nm":50,"alt_fmsl":0,"id":"BO","desc":"USTIK NDB"},
{"type":"NDB","hdg_t":235.5,"dist_nm":112.9,"freq":305,"lat":44.01975000,"lon":-117.00833333,"rng_nm":50,"alt_fmsl":0,"id":"ONO","desc":"ONTARIO NDB"},
{"type":"VOR","hdg_t":16.3,"dist_nm":112.9,"freq":112.8,"lat":46.90797222,"lon":-114.08363889,"rng_nm":40,"alt_fmsl":3202,"id":"MSO","desc":"MISSOULA VOR-DME"}
]
}
