{"success":true,"source":"xp2csv.pl","last_updated":"2013/11/08 14:53:21 UTC"
,"icao":"81R","name":"San Saba Co Muni","lat":31.235139,"lon":-98.7169445,"rwys":1,"ils":0,"index":1334857,"path":"w100n30/w099n31"
,"runways":[
{"len_m":1149,"wid_m":18.29,"hdg":136,"surf":"Asphalt","rwy1":"13","lat1":31.23888900,"lon1":-98.72111100,"rwy2":"31","lat2":31.23138900,"lon2":-98.71277800}
]
,"radios":[
{"type":"CTAF","freq":122.8,"desc":"CTAF/UNICOM"}
]
,"navaids":[
{"type":"VOR","hdg_t":187.8,"dist_nm":26.5,"freq":108.2,"lat":30.79633333,"lon":-98.78738889,"rng_nm":40,"alt_fmsl":1200,"id":"LLO","desc":"LLANO VORTAC"},
{"type":"VOR","hdg_t":95.5,"dist_nm":29.7,"freq":112.5,"lat":31.18550000,"lon":-98.14186111,"rng_nm":130,"alt_fmsl":1290,"id":"AGJ","desc":"GOOCH SPRINGS VORTAC"},
{"type":"NDB","hdg_t":263.8,"dist_nm":31.3,"freq":380,"lat":31.17788889,"lon":-99.32258333,"rng_nm":50,"alt_fmsl":0,"id":"BBD","desc":"BRADY NDB"},
{"type":"NDB","hdg_t":51.4,"dist_nm":37.2,"freq":251,"lat":31.62150000,"lon":-98.14891667,"rng_nm":50,"alt_fmsl":0,"id":"MNZ","desc":"HAMILTON NDB"},
{"type":"NDB","hdg_t":139.9,"dist_nm":38.6,"freq":341,"lat":30.74027778,"lon":-98.23622222,"rng_nm":50,"alt_fmsl":0,"id":"BMQ","desc":"BURNET NDB"},
{"type":"VOR","hdg_t":342.6,"dist_nm":41.2,"freq":108.6,"lat":31.89258333,"lon":-98.95747222,"rng_nm":40,"alt_fmsl":1574,"id":"BWD","desc":"BROWNWOOD VOR-DME"},
{"type":"NDB","hdg_t":95.1,"dist_nm":43.3,"freq":323,"lat":31.16783333,"lon":-97.87822222,"rng_nm":50,"alt_fmsl":0,"id":"GR","desc":"STARN NDB"},
{"type":"VOR","hdg_t":104.3,"dist_nm":48,"freq":111.8,"lat":31.03288889,"lon":-97.81377778,"rng_nm":25,"alt_fmsl":980,"id":"GRK","desc":"GRAY VOR-DME"},
{"type":"NDB","hdg_t":315.9,"dist_nm":50.6,"freq":385,"lat":31.84125600,"lon":-99.40617500,"rng_nm":25,"alt_fmsl":88,"id":"COM","desc":"COLEMAN NDB"},
{"type":"NDB","hdg_t":96.7,"dist_nm":52.1,"freq":347,"lat":31.12905556,"lon":-97.71141667,"rng_nm":50,"alt_fmsl":0,"id":"HLR","desc":"HOOD NDB"},
{"type":"NDB","hdg_t":103.4,"dist_nm":53.4,"freq":278,"lat":31.02411111,"lon":-97.70813889,"rng_nm":50,"alt_fmsl":0,"id":"IL","desc":"IRESH NDB"},
{"type":"VOR","hdg_t":179.4,"dist_nm":61.5,"freq":113.8,"lat":30.20675000,"lon":-98.70575000,"rng_nm":130,"alt_fmsl":1530,"id":"STV","desc":"STONEWALL VORTAC"},
{"type":"NDB","hdg_t":121.3,"dist_nm":62.8,"freq":332,"lat":30.68438889,"lon":-97.67991667,"rng_nm":50,"alt_fmsl":0,"id":"GUO","desc":"GEORGETOWN NDB"},
{"type":"VOR","hdg_t":90.9,"dist_nm":66.4,"freq":110.4,"lat":31.20933333,"lon":-97.42497222,"rng_nm":40,"alt_fmsl":710,"id":"TPL","desc":"TEMPLE VOR-DME"},
{"type":"VOR","hdg_t":236.4,"dist_nm":68.4,"freq":116,"lat":30.59802778,"lon":-99.81752778,"rng_nm":130,"alt_fmsl":2280,"id":"JCT","desc":"JUNCTION VORTAC"},
{"type":"NDB","hdg_t":292.7,"dist_nm":69.8,"freq":239,"lat":31.68047222,"lon":-99.97491667,"rng_nm":50,"alt_fmsl":0,"id":"UBC","desc":"BALLINGER NDB"},
{"type":"NDB","hdg_t":356.1,"dist_nm":69.8,"freq":410,"lat":32.39847222,"lon":-98.81033333,"rng_nm":50,"alt_fmsl":0,"id":"OIP","desc":"OLD RIP NDB"},
{"type":"VOR","hdg_t":37.5,"dist_nm":70,"freq":115,"lat":32.15958333,"lon":-97.87769444,"rng_nm":40,"alt_fmsl":1300,"id":"JEN","desc":"GLEN ROSE VORTAC"},
{"type":"NDB","hdg_t":136.4,"dist_nm":77.9,"freq":232,"lat":30.28759400,"lon":-97.68183600,"rng_nm":25,"alt_fmsl":0,"id":"GF","desc":"BIRDY NDB"},
{"type":"VOR","hdg_t":70.6,"dist_nm":78.5,"freq":115.3,"lat":31.66233333,"lon":-97.26902778,"rng_nm":130,"alt_fmsl":510,"id":"ACT","desc":"WACO VORTAC"},
{"type":"VOR","hdg_t":129.5,"dist_nm":79.9,"freq":112.8,"lat":30.37855556,"lon":-97.52986111,"rng_nm":130,"alt_fmsl":593,"id":"CWK","desc":"CENTEX VORTAC"},
{"type":"NDB","hdg_t":322.6,"dist_nm":80.3,"freq":353,"lat":32.29888889,"lon":-99.67419444,"rng_nm":50,"alt_fmsl":0,"id":"AB","desc":"TOMHI NDB"},
{"type":"NDB","hdg_t":190.9,"dist_nm":80.4,"freq":263,"lat":29.91500000,"lon":-99.00941667,"rng_nm":50,"alt_fmsl":0,"id":"ER","desc":"SHEIN NDB"},
{"type":"VOR","hdg_t":317,"dist_nm":82.1,"freq":111.6,"lat":32.23575000,"lon":-99.81677778,"rng_nm":40,"alt_fmsl":2018,"id":"TQA","desc":"TUSCOLA VOR-DME"},
{"type":"NDB","hdg_t":136.3,"dist_nm":82.2,"freq":353,"lat":30.23568300,"lon":-97.62569700,"rng_nm":25,"alt_fmsl":0,"id":"AU","desc":"AUSTI NDB"},
{"type":"VOR","hdg_t":198.2,"dist_nm":82.7,"freq":117.5,"lat":29.92233333,"lon":-99.21450000,"rng_nm":130,"alt_fmsl":2080,"id":"CSI","desc":"CENTER POINT VORTAC"},
{"type":"NDB","hdg_t":152.3,"dist_nm":86.1,"freq":272,"lat":29.95880556,"lon":-97.94897222,"rng_nm":50,"alt_fmsl":0,"id":"RU","desc":"GARYS NDB"},
{"type":"NDB","hdg_t":78.8,"dist_nm":86.1,"freq":400,"lat":31.50380556,"lon":-97.06958333,"rng_nm":50,"alt_fmsl":0,"id":"ROB","desc":"ROBINSON NDB"},
{"type":"NDB","hdg_t":141.5,"dist_nm":87.1,"freq":255,"lat":30.08972222,"lon":-97.67602778,"rng_nm":50,"alt_fmsl":0,"id":"BS","desc":"CREED NDB"},
{"type":"NDB","hdg_t":69.7,"dist_nm":89.3,"freq":378,"lat":31.74091667,"lon":-97.07816667,"rng_nm":50,"alt_fmsl":0,"id":"CN","desc":"LEROI NDB"},
{"type":"VOR","hdg_t":275.8,"dist_nm":89.7,"freq":115.1,"lat":31.37494444,"lon":-100.45486111,"rng_nm":130,"alt_fmsl":1890,"id":"SJT","desc":"SAN ANGELO VORTAC"},
{"type":"NDB","hdg_t":354.4,"dist_nm":90.9,"freq":245,"lat":32.74734400,"lon":-98.89117800,"rng_nm":25,"alt_fmsl":1226,"id":"BKD","desc":"BRECKENRIDGE NDB"},
{"type":"VOR","hdg_t":322.1,"dist_nm":94.8,"freq":113.7,"lat":32.48133333,"lon":-99.86344444,"rng_nm":130,"alt_fmsl":1810,"id":"ABI","desc":"ABILENE VORTAC"},
{"type":"NDB","hdg_t":272,"dist_nm":95.6,"freq":356,"lat":31.27977778,"lon":-100.57613889,"rng_nm":50,"alt_fmsl":0,"id":"SJ","desc":"WOOLE NDB"},
{"type":"VOR","hdg_t":172,"dist_nm":96.1,"freq":116.8,"lat":29.64402778,"lon":-98.46130556,"rng_nm":130,"alt_fmsl":1160,"id":"SAT","desc":"SAN ANTONIO VORTAC"},
{"type":"VOR","hdg_t":22.1,"dist_nm":96.5,"freq":117.7,"lat":32.72619444,"lon":-97.99744444,"rng_nm":130,"alt_fmsl":900,"id":"MQP","desc":"MILLSAP VORTAC"},
{"type":"NDB","hdg_t":175.4,"dist_nm":97.7,"freq":368,"lat":29.60758333,"lon":-98.56969444,"rng_nm":50,"alt_fmsl":0,"id":"AN","desc":"ALAMO NDB"},
{"type":"NDB","hdg_t":19.7,"dist_nm":98.7,"freq":266,"lat":32.78512800,"lon":-98.05726700,"rng_nm":25,"alt_fmsl":972,"id":"MWL","desc":"MINERAL WELLS NDB"}
]
}
