{"success":true,"source":"xp2csv.pl","last_updated":"2013/11/08 14:53:21 UTC"
,"icao":"81X","name":"Potter","lat":28.71638388,"lon":-81.62118528,"rwys":1,"ils":0,"index":1613225,"path":"w090n20/w082n28"
,"runways":[
{"len_m":790,"wid_m":32.00,"hdg":176,"surf":"Turf/grass","rwy1":"18","lat1":28.71994487,"lon1":-81.62139808,"rwy2":"36","lat2":28.71282289,"lon2":-81.62097248}
]
,"navaids":[
{"type":"NDB","hdg_t":301.8,"dist_nm":11.5,"freq":335,"lat":28.81825000,"lon":-81.80725000,"rng_nm":50,"alt_fmsl":0,"id":"LEE","desc":"LEESBURG NDB"},
{"type":"NDB","hdg_t":141.6,"dist_nm":15.9,"freq":221,"lat":28.50683333,"lon":-81.43391667,"rng_nm":50,"alt_fmsl":0,"id":"OR","desc":"HERNY (LOM) NDB"},
{"type":"VOR","hdg_t":124.4,"dist_nm":18.3,"freq":112.2,"lat":28.54272222,"lon":-81.33502778,"rng_nm":130,"alt_fmsl":102,"id":"ORL","desc":"ORLANDO VORTAC"},
{"type":"NDB","hdg_t":78.2,"dist_nm":20.3,"freq":408,"lat":28.78494444,"lon":-81.24333333,"rng_nm":50,"alt_fmsl":0,"id":"SFB","desc":"SANFORD NDB"},
{"type":"NDB","hdg_t":224.1,"dist_nm":40.7,"freq":253,"lat":28.22708333,"lon":-82.15705556,"rng_nm":50,"alt_fmsl":0,"id":"RHZ","desc":"ZEPHYRHILLS NDB"},
{"type":"NDB","hdg_t":60.3,"dist_nm":41.1,"freq":417,"lat":29.05422222,"lon":-80.94144444,"rng_nm":50,"alt_fmsl":0,"id":"EVB","desc":"NEW SMYRNA BEACH NDB"},
{"type":"VOR","hdg_t":311,"dist_nm":42.1,"freq":113.7,"lat":29.17747222,"lon":-82.22633333,"rng_nm":40,"alt_fmsl":80,"id":"OCF","desc":"OCALA REGIONAL/JI VORTAC"},
{"type":"VOR","hdg_t":37.1,"dist_nm":44.1,"freq":112.6,"lat":29.30325000,"lon":-81.11269444,"rng_nm":130,"alt_fmsl":19,"id":"OMN","desc":"ORMOND BEACH VORTAC"},
{"type":"VOR","hdg_t":205.5,"dist_nm":48.3,"freq":116,"lat":27.98619444,"lon":-82.01388889,"rng_nm":130,"alt_fmsl":135,"id":"LAL","desc":"LAKELAND VORTAC"},
{"type":"SDME","hdg_t":96,"dist_nm":49.1,"freq":112.25,"lat":28.62616700,"lon":-80.69583300,"rng_nm":130,"alt_fmsl":57,"id":"TTS","desc":"KENNEDY SPACE CENTER TACAN"},
{"type":"NDB","hdg_t":207.3,"dist_nm":52.5,"freq":227,"lat":27.93538889,"lon":-82.07580556,"rng_nm":50,"alt_fmsl":0,"id":"LA","desc":"WIREY NDB"},
{"type":"NDB","hdg_t":114.2,"dist_nm":54.1,"freq":247,"lat":28.34077778,"lon":-80.68844444,"rng_nm":50,"alt_fmsl":0,"id":"COI","desc":"MERRITT ISLAND NDB"},
{"type":"NDB","hdg_t":349.8,"dist_nm":56.9,"freq":243,"lat":29.65350000,"lon":-81.81250000,"rng_nm":50,"alt_fmsl":0,"id":"IAK","desc":"PALATKA NDB"},
{"type":"SDME","hdg_t":117.9,"dist_nm":60.5,"freq":115,"lat":28.23768300,"lon":-80.61176100,"rng_nm":25,"alt_fmsl":10,"id":"COF","desc":"PATRICK TACAN"},
{"type":"NDB","hdg_t":231.9,"dist_nm":60.9,"freq":368,"lat":28.08527778,"lon":-82.52525000,"rng_nm":50,"alt_fmsl":0,"id":"TP","desc":"COSME NDB"},
{"type":"NDB","hdg_t":126.9,"dist_nm":61.1,"freq":257,"lat":28.09947222,"lon":-80.70080556,"rng_nm":50,"alt_fmsl":0,"id":"SQT","desc":"SATELLITE NDB"},
{"type":"VOR","hdg_t":124.7,"dist_nm":63.7,"freq":110,"lat":28.10527778,"lon":-80.63533333,"rng_nm":40,"alt_fmsl":30,"id":"MLB","desc":"MELBOURNE VOR-DME"},
{"type":"NDB","hdg_t":333.2,"dist_nm":63.9,"freq":269,"lat":29.67002778,"lon":-82.17213889,"rng_nm":50,"alt_fmsl":0,"id":"GN","desc":"WYNDS NDB"},
{"type":"VOR","hdg_t":329.7,"dist_nm":67.6,"freq":116.2,"lat":29.69211111,"lon":-82.27297222,"rng_nm":40,"alt_fmsl":128,"id":"GNV","desc":"GATORS VORTAC"},
{"type":"SDME","hdg_t":222.9,"dist_nm":69.6,"freq":111,"lat":27.86115300,"lon":-82.51350300,"rng_nm":40,"alt_fmsl":14,"id":"MCF","desc":"MACDILL TACAN"},
{"type":"NDB","hdg_t":223.9,"dist_nm":70.8,"freq":388,"lat":27.86119444,"lon":-82.54580556,"rng_nm":50,"alt_fmsl":0,"id":"AM","desc":"PICNY (LOM/NDB) NDB"},
{"type":"NDB","hdg_t":233.2,"dist_nm":71.7,"freq":360,"lat":27.99511111,"lon":-82.70386111,"rng_nm":50,"alt_fmsl":0,"id":"PI","desc":"CAPOK NDB"},
{"type":"NDB","hdg_t":190.9,"dist_nm":73.5,"freq":261,"lat":27.51000000,"lon":-81.88333300,"rng_nm":25,"alt_fmsl":104,"id":"CHN","desc":"WAUCHULA NDB"},
{"type":"VOR","hdg_t":229.5,"dist_nm":74.2,"freq":116.4,"lat":27.90777778,"lon":-82.68430556,"rng_nm":130,"alt_fmsl":9,"id":"PIE","desc":"ST PETERSBURG VORTAC"},
{"type":"VOR","hdg_t":11.5,"dist_nm":75.7,"freq":109.4,"lat":29.95672222,"lon":-81.33022222,"rng_nm":25,"alt_fmsl":6,"id":"SGJ","desc":"ST AUGUSTINE VOR-DME"},
{"type":"VOR","hdg_t":135.7,"dist_nm":86.3,"freq":117.3,"lat":27.67841667,"lon":-80.48972222,"rng_nm":130,"alt_fmsl":11,"id":"VRB","desc":"VERO BEACH VORTAC"},
{"type":"VOR","hdg_t":351.1,"dist_nm":90.6,"freq":117.9,"lat":30.21300000,"lon":-81.89088889,"rng_nm":130,"alt_fmsl":0,"id":"VQQ","desc":"CECIL VOR"},
{"type":"SDME","hdg_t":358.2,"dist_nm":90.9,"freq":108.2,"lat":30.23486700,"lon":-81.67506700,"rng_nm":40,"alt_fmsl":20,"id":"NIP","desc":"JACKSONVILLE TACAN"},
{"type":"VOR","hdg_t":305.5,"dist_nm":91.7,"freq":112,"lat":29.59902778,"lon":-83.04872222,"rng_nm":40,"alt_fmsl":30,"id":"CTY","desc":"CROSS CITY VORTAC"},
{"type":"VOR","hdg_t":212.7,"dist_nm":92.9,"freq":117,"lat":27.40702778,"lon":-82.56363889,"rng_nm":130,"alt_fmsl":20,"id":"SRQ","desc":"SARASOTA VORTAC"},
{"type":"VOR","hdg_t":212.3,"dist_nm":93.1,"freq":115.2,"lat":27.39776100,"lon":-82.55426900,"rng_nm":130,"alt_fmsl":20,"id":"SRQ","desc":"SARASOTA VORTAC"},
{"type":"NDB","hdg_t":208.9,"dist_nm":94.7,"freq":245,"lat":27.32822222,"lon":-82.47844444,"rng_nm":50,"alt_fmsl":0,"id":"SR","desc":"RINGY NDB"},
{"type":"NDB","hdg_t":139.9,"dist_nm":95,"freq":338,"lat":27.49691667,"lon":-80.47427778,"rng_nm":50,"alt_fmsl":0,"id":"FJ","desc":"LUUCE NDB"},
{"type":"VOR","hdg_t":3.4,"dist_nm":97.2,"freq":114.5,"lat":30.33888889,"lon":-81.50991667,"rng_nm":130,"alt_fmsl":42,"id":"CRG","desc":"CRAIG VORTAC"},
{"type":"NDB","hdg_t":137.7,"dist_nm":98.9,"freq":275,"lat":27.48672222,"lon":-80.37327778,"rng_nm":50,"alt_fmsl":0,"id":"FPR","desc":"FORT PIERCE NDB"}
]
}
