{"success":true,"source":"xp2csv.pl","last_updated":"2013/11/08 14:53:21 UTC"
,"icao":"83E","name":"King Ranch","lat":34.64810527,"lon":-108.00561445,"rwys":2,"ils":0,"index":1171243,"path":"w110n30/w109n34"
,"runways":[
{"len_m":1217,"wid_m":18.29,"hdg":22,"surf":"Dirt","rwy1":"01","lat1":34.64301878,"lon1":-108.00811254,"rwy2":"19","lat2":34.65319176,"lon2":-108.00311636},
{"len_m":917,"wid_m":18.29,"hdg":91,"surf":"Dirt","rwy1":"08","lat1":34.64824886,"lon1":-108.01061283,"rwy2":"26","lat2":34.64796168,"lon2":-108.00061607}
]
,"navaids":[
{"type":"VOR","hdg_t":256.9,"dist_nm":57.9,"freq":112.3,"lat":34.42405556,"lon":-109.14352778,"rng_nm":130,"alt_fmsl":6840,"id":"SJN","desc":"ST JOHNS VORTAC"},
{"type":"VOR","hdg_t":288.8,"dist_nm":59.8,"freq":113.4,"lat":34.96575000,"lon":-109.15450000,"rng_nm":130,"alt_fmsl":6550,"id":"ZUN","desc":"ZUNI VORTAC"},
{"type":"VOR","hdg_t":107.1,"dist_nm":61.6,"freq":116.8,"lat":34.33888889,"lon":-106.82047222,"rng_nm":130,"alt_fmsl":4910,"id":"ONM","desc":"SOCORRO VORTAC"},
{"type":"VOR","hdg_t":67.6,"dist_nm":63.3,"freq":113.2,"lat":35.04380556,"lon":-106.81630556,"rng_nm":130,"alt_fmsl":5749,"id":"ABQ","desc":"ALBUQUERQUE VORTAC"},
{"type":"NDB","hdg_t":120.5,"dist_nm":63.9,"freq":329,"lat":34.10034400,"lon":-106.90058300,"rng_nm":25,"alt_fmsl":4660,"id":"FIA","desc":"FLORIDA NDB"},
{"type":"VOR","hdg_t":319.5,"dist_nm":65.4,"freq":115.1,"lat":35.47600000,"lon":-108.87261111,"rng_nm":130,"alt_fmsl":7053,"id":"GUP","desc":"GALLUP VORTAC"},
{"type":"NDB","hdg_t":73,"dist_nm":71.3,"freq":247,"lat":34.98702500,"lon":-106.62039200,"rng_nm":50,"alt_fmsl":5304,"id":"ILT","desc":"ISLETA NDB"},
{"type":"NDB","hdg_t":61.4,"dist_nm":72.3,"freq":351,"lat":35.21736111,"lon":-106.71280556,"rng_nm":50,"alt_fmsl":0,"id":"AE","desc":"DUDLE NDB"},
{"type":"NDB","hdg_t":319.6,"dist_nm":80.2,"freq":254,"lat":35.66447222,"lon":-109.06813889,"rng_nm":50,"alt_fmsl":0,"id":"AWR","desc":"WINDOW ROCK NDB"},
{"type":"VOR","hdg_t":155.9,"dist_nm":89.4,"freq":112.7,"lat":33.28250000,"lon":-107.28055556,"rng_nm":130,"alt_fmsl":4905,"id":"TCS","desc":"TRUTH OR CONSEQ VORTAC"}
]
}
