{"success":true,"source":"xp2csv.pl","last_updated":"2013/11/08 14:53:21 UTC"
,"icao":"8422","name":"Plan De Dieu","lat":44.180765,"lon":4.92195245,"rwys":2,"ils":0,"index":3023243,"path":"e000n40/e004n44"
,"runways":[
{"len_m":1972,"wid_m":36.88,"hdg":340,"surf":"Asphalt","rwy1":"16","lat1":44.17133500,"lon1":4.92297000,"rwy2":"34","lat2":44.18809700,"lon2":4.91485800},
{"len_m":618,"wid_m":49.99,"hdg":349,"surf":"Turf/grass","rwy1":"17","lat1":44.17907968,"lon1":4.92571714,"rwy2":"35","lat2":44.18454832,"lon2":4.92426467}
]
,"radios":[
{"type":"CTAF","freq":120.7,"desc":"PLAN DE DIEU MULT"}
]
,"navaids":[
{"type":"NDB","hdg_t":235.2,"dist_nm":3.4,"freq":328,"lat":44.14836100,"lon":4.85719400,"rng_nm":80,"alt_fmsl":197,"id":"ORG","desc":"ORANGE NDB"},
{"type":"SDME","hdg_t":224.1,"dist_nm":3.4,"freq":109.4,"lat":44.13930600,"lon":4.86605600,"rng_nm":50,"alt_fmsl":197,"id":"ORG","desc":"ORANGE TACAN"},
{"type":"VOR","hdg_t":214.3,"dist_nm":13.4,"freq":112.3,"lat":43.99536100,"lon":4.74638900,"rng_nm":60,"alt_fmsl":159,"id":"AVN","desc":"AVIGNON Pujaut VOR"},
{"type":"NDB","hdg_t":182.5,"dist_nm":16.3,"freq":369,"lat":43.90827800,"lon":4.90538900,"rng_nm":20,"alt_fmsl":160,"id":"CM","desc":"AVIGNON NDB"},
{"type":"VOR","hdg_t":344.8,"dist_nm":23.2,"freq":113.65,"lat":44.55494400,"lon":4.77986100,"rng_nm":100,"alt_fmsl":656,"id":"MTL","desc":"MONTELIMAR ANCONE VOR-DME"},
{"type":"NDB","hdg_t":341.3,"dist_nm":25.1,"freq":362,"lat":44.57749900,"lon":4.73416700,"rng_nm":50,"alt_fmsl":0,"id":"MTL","desc":"MONTELIMAR NDB"},
{"type":"NDB","hdg_t":107,"dist_nm":26.3,"freq":348,"lat":44.05069400,"lon":5.50347200,"rng_nm":15,"alt_fmsl":0,"id":"SCL","desc":"SAINT CHRISTOL NDB"},
{"type":"NDB","hdg_t":303.2,"dist_nm":28.7,"freq":427,"lat":44.44222222,"lon":4.36194444,"rng_nm":25,"alt_fmsl":676,"id":"AUB","desc":"Aubenas Ardeche Meridionale NDB"},
{"type":"NDB","hdg_t":229.1,"dist_nm":29.5,"freq":354,"lat":43.85719400,"lon":4.40627800,"rng_nm":40,"alt_fmsl":0,"id":"NG","desc":"NIMES/GARONS NDB"},
{"type":"SDME","hdg_t":220,"dist_nm":33.9,"freq":111.6,"lat":43.74583300,"lon":4.41955600,"rng_nm":50,"alt_fmsl":309,"id":"NIM","desc":"NIMES TACAN"},
{"type":"NDB","hdg_t":258.7,"dist_nm":34.3,"freq":402,"lat":44.06643900,"lon":4.14238300,"rng_nm":22,"alt_fmsl":712,"id":"DA","desc":"ALES NDB"},
{"type":"NDB","hdg_t":167.1,"dist_nm":35,"freq":334,"lat":43.61080600,"lon":5.10070400,"rng_nm":75,"alt_fmsl":197,"id":"SAL","desc":"SALON NDB"},
{"type":"SDME","hdg_t":166.9,"dist_nm":35,"freq":115.15,"lat":43.61183300,"lon":5.10280600,"rng_nm":50,"alt_fmsl":195,"id":"SAL","desc":"SALON TACAN"},
{"type":"NDB","hdg_t":179.4,"dist_nm":39.2,"freq":390,"lat":43.52625000,"lon":4.92994400,"rng_nm":60,"alt_fmsl":82,"id":"ITR","desc":"ISTRES NDB"},
{"type":"SDME","hdg_t":179.6,"dist_nm":39.2,"freq":115.7,"lat":43.52608300,"lon":4.92691700,"rng_nm":50,"alt_fmsl":82,"id":"ITR","desc":"ISTRES TACAN"},
{"type":"NDB","hdg_t":2,"dist_nm":40.1,"freq":320,"lat":44.84900000,"lon":4.95550000,"rng_nm":30,"alt_fmsl":0,"id":"VE","desc":"CHABEUIL NDB"},
{"type":"VOR","hdg_t":178.8,"dist_nm":40.8,"freq":112.7,"lat":43.50019400,"lon":4.94000000,"rng_nm":100,"alt_fmsl":85,"id":"ITS","desc":"ISTRES LE TUBE VOR-DME"},
{"type":"NDB","hdg_t":167.2,"dist_nm":42.4,"freq":383,"lat":43.48980600,"lon":5.13725000,"rng_nm":25,"alt_fmsl":0,"id":"MAR","desc":"MARSEILLE/PROVENCE NDB"},
{"type":"NDB","hdg_t":154.5,"dist_nm":44.6,"freq":413,"lat":43.50777800,"lon":5.36047200,"rng_nm":25,"alt_fmsl":367,"id":"ALM","desc":"AIX LES MILLES NDB"},
{"type":"NDB","hdg_t":74.4,"dist_nm":45.9,"freq":297,"lat":44.38138888,"lon":5.95027777,"rng_nm":25,"alt_fmsl":1870,"id":"GA","desc":"Gap Tallard NDB"},
{"type":"NDB","hdg_t":163.8,"dist_nm":46.3,"freq":406,"lat":43.43831800,"lon":5.21747700,"rng_nm":50,"alt_fmsl":54,"id":"MJ","desc":"MARSEILLE NDB"},
{"type":"VOR","hdg_t":171.3,"dist_nm":48.1,"freq":117.3,"lat":43.38630600,"lon":5.08683300,"rng_nm":200,"alt_fmsl":650,"id":"MTG","desc":"MARTIGUES VOR-DME"},
{"type":"NDB","hdg_t":161.5,"dist_nm":50,"freq":343,"lat":43.38861100,"lon":5.28347200,"rng_nm":25,"alt_fmsl":0,"id":"MS","desc":"MARSEILLE/PROVENCE NDB"},
{"type":"VOR","hdg_t":159.8,"dist_nm":51.3,"freq":108.8,"lat":43.37733300,"lon":5.32644400,"rng_nm":100,"alt_fmsl":771,"id":"MRM","desc":"MARSEILLE PROVENCE VOR-DME"},
{"type":"VOR","hdg_t":102.1,"dist_nm":52.2,"freq":113.85,"lat":43.99138900,"lon":6.10083300,"rng_nm":150,"alt_fmsl":3027,"id":"DGN","desc":"DIGNE VOR"},
{"type":"NDB","hdg_t":226.7,"dist_nm":54.3,"freq":339,"lat":43.55677800,"lon":4.01405600,"rng_nm":100,"alt_fmsl":16,"id":"FG","desc":"Mediterranee NDB"},
{"type":"VOR","hdg_t":229,"dist_nm":54.7,"freq":114.45,"lat":43.57836100,"lon":3.97472200,"rng_nm":80,"alt_fmsl":7,"id":"FJR","desc":"MONPELLIER MEDITERRANEE VOR-DME"},
{"type":"NDB","hdg_t":152,"dist_nm":62,"freq":366,"lat":43.26527778,"lon":5.58638000,"rng_nm":25,"alt_fmsl":590,"id":"ADC","desc":"Le Castellet NDB"},
{"type":"NDB","hdg_t":150.1,"dist_nm":65.5,"freq":395,"lat":43.22983300,"lon":5.66541700,"rng_nm":50,"alt_fmsl":0,"id":"OB","desc":"MARSEILLE/PROVENCE NDB"},
{"type":"NDB","hdg_t":290.8,"dist_nm":66.6,"freq":393,"lat":44.56694444,"lon":3.46916666,"rng_nm":25,"alt_fmsl":4062,"id":"BX","desc":"Mende Brenoux NDB"},
{"type":"NDB","hdg_t":317,"dist_nm":69,"freq":372,"lat":45.01777777,"lon":3.81500000,"rng_nm":25,"alt_fmsl":2884,"id":"PY","desc":"Le Puy Loudes NDB"},
{"type":"NDB","hdg_t":7.8,"dist_nm":71.5,"freq":291,"lat":45.36230000,"lon":5.15297200,"rng_nm":25,"alt_fmsl":1129,"id":"WS","desc":"Grenoble saint Geoirs NDB"},
{"type":"NDB","hdg_t":15.8,"dist_nm":73.8,"freq":397,"lat":45.36389000,"lon":5.39750000,"rng_nm":25,"alt_fmsl":1384,"id":"EG","desc":"Grenoble Saint Geoirs NDB"},
{"type":"NDB","hdg_t":259,"dist_nm":74.1,"freq":315,"lat":43.93305555,"lon":3.24361111,"rng_nm":25,"alt_fmsl":2460,"id":"MIL","desc":"Millau Larzac NDB"},
{"type":"VOR","hdg_t":129,"dist_nm":75.1,"freq":113,"lat":43.38277800,"lon":6.25591700,"rng_nm":100,"alt_fmsl":266,"id":"LUC","desc":"LE LUC LE CANNET VOR-DME"},
{"type":"NDB","hdg_t":289.2,"dist_nm":79.9,"freq":376,"lat":44.60611000,"lon":3.16111100,"rng_nm":50,"alt_fmsl":0,"id":"MEN","desc":"MENDE NASBINALS NDB"},
{"type":"VOR","hdg_t":289.3,"dist_nm":79.9,"freq":115.3,"lat":44.60833300,"lon":3.16241700,"rng_nm":100,"alt_fmsl":4514,"id":"MEN","desc":"MENDE-Nasbinals VOR-DME"},
{"type":"VOR","hdg_t":15.5,"dist_nm":81.5,"freq":115.55,"lat":45.48897200,"lon":5.43905600,"rng_nm":80,"alt_fmsl":2165,"id":"LTP","desc":"LA TOUR DU PIN-Lyon Est VOR-DME"},
{"type":"VOR","hdg_t":358.8,"dist_nm":82.5,"freq":108.2,"lat":45.55644400,"lon":4.88341700,"rng_nm":30,"alt_fmsl":0,"id":"VNE","desc":"VIENNE VOR"},
{"type":"SDME","hdg_t":140,"dist_nm":83.9,"freq":109,"lat":43.10030600,"lon":6.14763900,"rng_nm":100,"alt_fmsl":7,"id":"HYE","desc":"HYERES TACAN"},
{"type":"NDB","hdg_t":123.7,"dist_nm":84.4,"freq":378,"lat":43.38686100,"lon":6.52516700,"rng_nm":50,"alt_fmsl":0,"id":"LU","desc":"LE LUC NDB"},
{"type":"NDB","hdg_t":341.9,"dist_nm":84.6,"freq":299,"lat":45.52027800,"lon":4.29889000,"rng_nm":25,"alt_fmsl":1371,"id":"BO","desc":"Saint Etienne Boutheon NDB"},
{"type":"NDB","hdg_t":1.9,"dist_nm":86.1,"freq":388,"lat":45.61583328,"lon":4.99278355,"rng_nm":25,"alt_fmsl":1044,"id":"BR","desc":"Lyon Bron NDB"},
{"type":"NDB","hdg_t":141.6,"dist_nm":87.3,"freq":322,"lat":43.03269400,"lon":6.15280600,"rng_nm":70,"alt_fmsl":0,"id":"TLN","desc":"HYERES NDB"},
{"type":"NDB","hdg_t":122.5,"dist_nm":87.4,"freq":428,"lat":43.38459400,"lon":6.60635600,"rng_nm":40,"alt_fmsl":1500,"id":"MUS","desc":"NICE COTE D AZUR NDB"},
{"type":"NDB","hdg_t":234.8,"dist_nm":87.7,"freq":397,"lat":43.32722222,"lon":3.28305555,"rng_nm":25,"alt_fmsl":46,"id":"ZR","desc":"Beziers Vias NDB"},
{"type":"NDB","hdg_t":342.9,"dist_nm":91.5,"freq":379,"lat":45.63777777,"lon":4.28388888,"rng_nm":25,"alt_fmsl":1230,"id":"EB","desc":"Saint Etienne Boutheon NDB"},
{"type":"VOR","hdg_t":113,"dist_nm":92.4,"freq":111.4,"lat":43.56036100,"lon":6.87094400,"rng_nm":60,"alt_fmsl":0,"id":"CNM","desc":"CANNES-Tanneron VOR"},
{"type":"VOR","hdg_t":127.6,"dist_nm":93.1,"freq":116.5,"lat":43.21947200,"lon":6.60180600,"rng_nm":200,"alt_fmsl":1089,"id":"STP","desc":"SAINT TROPEZ VOR-DME"},
{"type":"NDB","hdg_t":25.5,"dist_nm":94.1,"freq":346,"lat":45.59250000,"lon":5.88361100,"rng_nm":25,"alt_fmsl":840,"id":"CH","desc":"Chambery Aix les Bains NDB"},
{"type":"VOR","hdg_t":4.3,"dist_nm":94.1,"freq":114.75,"lat":45.74552800,"lon":5.09058300,"rng_nm":140,"alt_fmsl":820,"id":"LSE","desc":"LYON SAINT EXUPERY VOR-DME"},
{"type":"VOR","hdg_t":303.3,"dist_nm":98.3,"freq":109.8,"lat":45.06647200,"lon":2.99075000,"rng_nm":25,"alt_fmsl":3222,"id":"SFC","desc":"SAINT FLOUR/COLTINES VOR"}
]
}
