{"success":true,"source":"xp2csv.pl","last_updated":"2013/11/08 14:53:21 UTC"
,"icao":"85KY","name":"Deer Run Airpark","lat":38.47027777,"lon":-85.13861112,"rwys":1,"ils":0,"index":1548315,"path":"w090n30/w086n38"
,"runways":[
{"len_m":945,"wid_m":18.29,"hdg":137,"surf":"Turf/grass","rwy1":"14","lat1":38.47343734,"lon1":-85.14224476,"rwy2":"32","lat2":38.46711820,"lon2":-85.13497748}
]
,"navaids":[
{"type":"VOR","hdg_t":147.7,"dist_nm":20.3,"freq":109.4,"lat":38.18241667,"lon":-84.90861111,"rng_nm":25,"alt_fmsl":0,"id":"FFT","desc":"FRANKFORT VOR"},
{"type":"NDB","hdg_t":135.4,"dist_nm":21.4,"freq":521,"lat":38.21473600,"lon":-84.81980600,"rng_nm":50,"alt_fmsl":769,"id":"FEU","desc":"ARNOLD NDB"},
{"type":"NDB","hdg_t":319.1,"dist_nm":23,"freq":404,"lat":38.76090800,"lon":-85.46051100,"rng_nm":25,"alt_fmsl":874,"id":"IMS","desc":"MADISON NDB"},
{"type":"VOR","hdg_t":287,"dist_nm":24.4,"freq":112.4,"lat":38.58883333,"lon":-85.63600000,"rng_nm":40,"alt_fmsl":710,"id":"ABB","desc":"NABB VORTAC"},
{"type":"NDB","hdg_t":270.6,"dist_nm":28.2,"freq":331,"lat":38.47397222,"lon":-85.73722222,"rng_nm":50,"alt_fmsl":0,"id":"JV","desc":"CATCH NDB"},
{"type":"VOR","hdg_t":240,"dist_nm":28.7,"freq":112.2,"lat":38.23022222,"lon":-85.66475000,"rng_nm":25,"alt_fmsl":540,"id":"BQM","desc":"BOWMAN VOR-DME"},
{"type":"VOR","hdg_t":223.4,"dist_nm":30.2,"freq":114.8,"lat":38.10347222,"lon":-85.57744444,"rng_nm":130,"alt_fmsl":720,"id":"IIU","desc":"LOUISVILLE VORTAC"},
{"type":"NDB","hdg_t":230.2,"dist_nm":30.4,"freq":414,"lat":38.14483333,"lon":-85.63330556,"rng_nm":50,"alt_fmsl":0,"id":"LK","desc":"LAANG NDB"},
{"type":"NDB","hdg_t":124.5,"dist_nm":36.3,"freq":340,"lat":38.12452778,"lon":-84.50697222,"rng_nm":50,"alt_fmsl":0,"id":"GN","desc":"BRIDL NDB"},
{"type":"NDB","hdg_t":141.8,"dist_nm":36.7,"freq":242,"lat":37.98686111,"lon":-84.66016667,"rng_nm":50,"alt_fmsl":0,"id":"LE","desc":"BLAYD NDB"},
{"type":"NDB","hdg_t":26.3,"dist_nm":38.5,"freq":321,"lat":39.04574700,"lon":-84.77296400,"rng_nm":25,"alt_fmsl":0,"id":"UR","desc":"BURLN NDB"},
{"type":"VOR","hdg_t":31.8,"dist_nm":38.5,"freq":117.3,"lat":39.01597222,"lon":-84.70333333,"rng_nm":40,"alt_fmsl":879,"id":"CVG","desc":"CINCINNATI VORTAC"},
{"type":"VOR","hdg_t":74.3,"dist_nm":40.4,"freq":117,"lat":38.64950000,"lon":-84.31063889,"rng_nm":130,"alt_fmsl":810,"id":"FLM","desc":"FALMOUTH VOR-DME"},
{"type":"VOR","hdg_t":133.5,"dist_nm":43.6,"freq":112.6,"lat":37.96636111,"lon":-84.47250000,"rng_nm":40,"alt_fmsl":1039,"id":"HYK","desc":"LEXINGTON VORTAC"},
{"type":"NDB","hdg_t":301.5,"dist_nm":45.8,"freq":308,"lat":38.86744444,"lon":-85.97302778,"rng_nm":50,"alt_fmsl":0,"id":"EQZ","desc":"CAPTAIN NDB"},
{"type":"NDB","hdg_t":232.5,"dist_nm":50.1,"freq":396,"lat":37.95869444,"lon":-85.97663889,"rng_nm":50,"alt_fmsl":0,"id":"GOI","desc":"GODMAN NDB"},
{"type":"NDB","hdg_t":185.3,"dist_nm":50.2,"freq":429,"lat":37.63463889,"lon":-85.23655556,"rng_nm":50,"alt_fmsl":0,"id":"IKY","desc":"SPRINGFIELD NDB"},
{"type":"VOR","hdg_t":229.7,"dist_nm":51.9,"freq":109.6,"lat":37.90741667,"lon":-85.97288889,"rng_nm":25,"alt_fmsl":740,"id":"FTK","desc":"FORT KNOX VOR-DME"},
{"type":"NDB","hdg_t":353.9,"dist_nm":53,"freq":254,"lat":39.34977778,"lon":-85.25775000,"rng_nm":50,"alt_fmsl":0,"id":"HLB","desc":"BATESVILLE NDB"},
{"type":"NDB","hdg_t":41.8,"dist_nm":55.7,"freq":335,"lat":39.15966667,"lon":-84.34127778,"rng_nm":50,"alt_fmsl":0,"id":"LUK","desc":"CINCINNATI NDB"},
{"type":"VOR","hdg_t":207,"dist_nm":56.3,"freq":110.8,"lat":37.63180556,"lon":-85.67588889,"rng_nm":40,"alt_fmsl":960,"id":"EWO","desc":"NEW HOPE VOR-DME"},
{"type":"NDB","hdg_t":161.5,"dist_nm":56.4,"freq":311,"lat":37.57641667,"lon":-84.76402778,"rng_nm":50,"alt_fmsl":0,"id":"DVK","desc":"GOODALL NDB"},
{"type":"NDB","hdg_t":49.7,"dist_nm":56.5,"freq":245,"lat":39.07669444,"lon":-84.21541667,"rng_nm":50,"alt_fmsl":0,"id":"PWF","desc":"SPORTYS NDB"},
{"type":"NDB","hdg_t":38.9,"dist_nm":58.1,"freq":379,"lat":39.22275000,"lon":-84.35536111,"rng_nm":50,"alt_fmsl":0,"id":"MDE","desc":"MADEIRA NDB"},
{"type":"NDB","hdg_t":36.7,"dist_nm":58.3,"freq":388,"lat":39.24880556,"lon":-84.38961111,"rng_nm":50,"alt_fmsl":0,"id":"ISZ","desc":"CINCINNATI-BLUE A NDB"},
{"type":"NDB","hdg_t":113.8,"dist_nm":59.9,"freq":210,"lat":38.06000000,"lon":-83.98152778,"rng_nm":50,"alt_fmsl":0,"id":"IOB","desc":"MOUNT STERLING NDB"},
{"type":"NDB","hdg_t":328.2,"dist_nm":60.1,"freq":410,"lat":39.32205556,"lon":-85.81855556,"rng_nm":50,"alt_fmsl":0,"id":"BA","desc":"CLIFS NDB"},
{"type":"NDB","hdg_t":25.9,"dist_nm":60.2,"freq":260,"lat":39.37288889,"lon":-84.57211111,"rng_nm":50,"alt_fmsl":0,"id":"HAO","desc":"HAMILTON NDB"},
{"type":"VOR","hdg_t":236.9,"dist_nm":62.6,"freq":108.2,"lat":37.89405556,"lon":-86.24452778,"rng_nm":40,"alt_fmsl":0,"id":"MYS","desc":"MYSTIC VOR"},
{"type":"NDB","hdg_t":66.8,"dist_nm":63.8,"freq":219,"lat":38.88201700,"lon":-83.88518100,"rng_nm":25,"alt_fmsl":954,"id":"GEO","desc":"GEORGETOWN NDB"},
{"type":"NDB","hdg_t":184.4,"dist_nm":64.2,"freq":272,"lat":37.40188889,"lon":-85.24369444,"rng_nm":50,"alt_fmsl":0,"id":"TYC","desc":"TAYLOR CO NDB"},
{"type":"NDB","hdg_t":14.9,"dist_nm":64.3,"freq":282,"lat":39.50755556,"lon":-84.78063889,"rng_nm":50,"alt_fmsl":0,"id":"OXD","desc":"OXFORD NDB"},
{"type":"NDB","hdg_t":290.3,"dist_nm":64.8,"freq":344,"lat":38.83963889,"lon":-86.43636111,"rng_nm":50,"alt_fmsl":0,"id":"BFR","desc":"BEDFORD NDB"},
{"type":"NDB","hdg_t":273.4,"dist_nm":65.5,"freq":368,"lat":38.52783300,"lon":-86.52779400,"rng_nm":25,"alt_fmsl":615,"id":"RRJ","desc":"ORANJ NDB"},
{"type":"NDB","hdg_t":86,"dist_nm":65.6,"freq":400,"lat":38.53813200,"lon":-83.74686400,"rng_nm":25,"alt_fmsl":921,"id":"FGX","desc":"FLEMINGSBURG NDB"},
{"type":"NDB","hdg_t":128.7,"dist_nm":67.6,"freq":393,"lat":37.75800000,"lon":-84.03022222,"rng_nm":50,"alt_fmsl":0,"id":"XYC","desc":"SECO NDB"},
{"type":"NDB","hdg_t":27.4,"dist_nm":69.6,"freq":239,"lat":39.49877778,"lon":-84.44752778,"rng_nm":50,"alt_fmsl":0,"id":"HKF","desc":"HOOK FLD NDB"},
{"type":"NDB","hdg_t":84.4,"dist_nm":70.5,"freq":400,"lat":38.57358333,"lon":-83.64702778,"rng_nm":50,"alt_fmsl":0,"id":"XW","desc":"FLMNG NDB"},
{"type":"NDB","hdg_t":0.1,"dist_nm":73.5,"freq":275,"lat":39.69756100,"lon":-85.13438900,"rng_nm":25,"alt_fmsl":867,"id":"CEV","desc":"CONNERSVILLE NDB"},
{"type":"NDB","hdg_t":29.5,"dist_nm":76.5,"freq":223,"lat":39.57825000,"lon":-84.32347222,"rng_nm":50,"alt_fmsl":0,"id":"MW","desc":"ONIDA NDB"},
{"type":"VOR","hdg_t":335.5,"dist_nm":76.6,"freq":112,"lat":39.63255556,"lon":-85.82430556,"rng_nm":40,"alt_fmsl":810,"id":"SHB","desc":"SHELBYVILLE VORTAC"},
{"type":"NDB","hdg_t":72.1,"dist_nm":77.5,"freq":359,"lat":38.85541667,"lon":-83.56377778,"rng_nm":50,"alt_fmsl":0,"id":"AMT","desc":"WEST UNION NDB"},
{"type":"NDB","hdg_t":250,"dist_nm":78.2,"freq":206,"lat":38.01416667,"lon":-86.69019444,"rng_nm":50,"alt_fmsl":0,"id":"TEL","desc":"TELL CITY NDB"},
{"type":"VOR","hdg_t":10.2,"dist_nm":78.2,"freq":110.6,"lat":39.75502778,"lon":-84.83886111,"rng_nm":40,"alt_fmsl":1135,"id":"RID","desc":"RICHMOND VORTAC"},
{"type":"NDB","hdg_t":0.2,"dist_nm":78.3,"freq":227,"lat":39.77711111,"lon":-85.12988889,"rng_nm":50,"alt_fmsl":0,"id":"SQ","desc":"PNTHR NDB"},
{"type":"NDB","hdg_t":47.7,"dist_nm":79.3,"freq":299,"lat":39.35344444,"lon":-83.87577778,"rng_nm":50,"alt_fmsl":0,"id":"HW","desc":"CUBLA NDB"},
{"type":"VOR","hdg_t":300.7,"dist_nm":80,"freq":110.2,"lat":39.14383333,"lon":-86.61302778,"rng_nm":40,"alt_fmsl":845,"id":"OOM","desc":"HOOSIER VORTAC"},
{"type":"NDB","hdg_t":327.7,"dist_nm":82.6,"freq":398,"lat":39.63266667,"lon":-86.09072222,"rng_nm":50,"alt_fmsl":0,"id":"HFY","desc":"GREENWOOD NDB"},
{"type":"NDB","hdg_t":354.3,"dist_nm":84.9,"freq":385,"lat":39.87997222,"lon":-85.31886111,"rng_nm":50,"alt_fmsl":0,"id":"UWL","desc":"NEW CASTLE NDB"},
{"type":"VOR","hdg_t":47,"dist_nm":85,"freq":112.9,"lat":39.42969444,"lon":-83.80125000,"rng_nm":25,"alt_fmsl":1050,"id":"MXQ","desc":"MIDWEST VOR-DME"},
{"type":"NDB","hdg_t":59.7,"dist_nm":86.2,"freq":278,"lat":39.18472222,"lon":-83.54297222,"rng_nm":50,"alt_fmsl":0,"id":"HOC","desc":"HILLSBORO NDB"},
{"type":"NDB","hdg_t":325.8,"dist_nm":86.3,"freq":232,"lat":39.65686111,"lon":-86.18541667,"rng_nm":50,"alt_fmsl":0,"id":"CO","desc":"COLFA NDB"},
{"type":"VOR","hdg_t":261.8,"dist_nm":86.7,"freq":109.2,"lat":38.25050000,"lon":-86.95619444,"rng_nm":25,"alt_fmsl":517,"id":"HNB","desc":"HUNTINGBURG VOR-DME"},
{"type":"NDB","hdg_t":71.8,"dist_nm":89.2,"freq":329,"lat":38.92119444,"lon":-83.32686111,"rng_nm":50,"alt_fmsl":0,"id":"PZO","desc":"PEEBLES NDB"},
{"type":"NDB","hdg_t":46.4,"dist_nm":89.7,"freq":407,"lat":39.49311111,"lon":-83.73816667,"rng_nm":50,"alt_fmsl":0,"id":"IL","desc":"AIRBO NDB"},
{"type":"NDB","hdg_t":24.1,"dist_nm":90.6,"freq":315,"lat":39.84702778,"lon":-84.33480556,"rng_nm":50,"alt_fmsl":0,"id":"AT","desc":"BRUNY NDB"},
{"type":"NDB","hdg_t":319.6,"dist_nm":90.8,"freq":219,"lat":39.61725000,"lon":-86.40786111,"rng_nm":50,"alt_fmsl":0,"id":"OQ","desc":"BRINN NDB"},
{"type":"NDB","hdg_t":166,"dist_nm":90.9,"freq":388,"lat":36.99622222,"lon":-84.68130556,"rng_nm":50,"alt_fmsl":0,"id":"CDX","desc":"CUMBERLAND RIVER NDB"},
{"type":"NDB","hdg_t":319.6,"dist_nm":91.6,"freq":266,"lat":39.62900000,"lon":-86.41833333,"rng_nm":50,"alt_fmsl":0,"id":"IN","desc":"PULLY NDB"},
{"type":"NDB","hdg_t":328.2,"dist_nm":93,"freq":349,"lat":39.78644444,"lon":-86.19625000,"rng_nm":50,"alt_fmsl":0,"id":"FV","desc":"LAREZ NDB"},
{"type":"NDB","hdg_t":36.7,"dist_nm":93.5,"freq":395,"lat":39.71506100,"lon":-83.92993100,"rng_nm":25,"alt_fmsl":970,"id":"XEN","desc":"XENIA NDB"},
{"type":"NDB","hdg_t":278.8,"dist_nm":94.7,"freq":212,"lat":38.69605556,"lon":-87.13261111,"rng_nm":50,"alt_fmsl":0,"id":"DCY","desc":"WASHINGTON NDB"},
{"type":"SDME","hdg_t":31.6,"dist_nm":95.3,"freq":115.2,"lat":39.81897800,"lon":-84.05548100,"rng_nm":25,"alt_fmsl":804,"id":"FFO","desc":"PATTERSON TACAN"},
{"type":"NDB","hdg_t":205.7,"dist_nm":96.4,"freq":260,"lat":37.01752778,"lon":-86.00916667,"rng_nm":50,"alt_fmsl":0,"id":"BVQ","desc":"BEAVER CREEK NDB"},
{"type":"NDB","hdg_t":349.8,"dist_nm":97.4,"freq":394,"lat":40.06952778,"lon":-85.51069444,"rng_nm":50,"alt_fmsl":0,"id":"AI","desc":"VIDEO NDB"},
{"type":"NDB","hdg_t":171.9,"dist_nm":97.6,"freq":290,"lat":36.85621100,"lon":-84.85294700,"rng_nm":25,"alt_fmsl":950,"id":"EKQ","desc":"ELK SPRING NDB"},
{"type":"NDB","hdg_t":334.4,"dist_nm":97.7,"freq":338,"lat":39.93769444,"lon":-86.05022222,"rng_nm":50,"alt_fmsl":0,"id":"UMP","desc":"METROPOLITAN NDB"},
{"type":"VOR","hdg_t":324.9,"dist_nm":98.9,"freq":116.3,"lat":39.81472222,"lon":-86.36747222,"rng_nm":130,"alt_fmsl":823,"id":"VHP","desc":"BRICKYARD VORTAC"},
{"type":"VOR","hdg_t":20.2,"dist_nm":98.9,"freq":114.5,"lat":40.01641667,"lon":-84.39686111,"rng_nm":40,"alt_fmsl":990,"id":"DQN","desc":"DAYTON VOR-DME"},
{"type":"VOR","hdg_t":150,"dist_nm":99,"freq":116.1,"lat":37.03313889,"lon":-84.11008333,"rng_nm":40,"alt_fmsl":1245,"id":"LOZ","desc":"LONDON VORTAC"}
]
}
