{"success":true,"source":"xp2csv.pl","last_updated":"2013/11/08 14:53:21 UTC"
,"icao":"85N","name":"Hollands International Field","lat":43.26672277,"lon":-78.76781362,"rwys":1,"ils":0,"index":1663312,"path":"w080n40/w079n43"
,"runways":[
{"len_m":876,"wid_m":22.86,"hdg":35,"surf":"Turf/grass","rwy1":"05","lat1":43.26349395,"lon1":-78.77091845,"rwy2":"23","lat2":43.26995159,"lon2":-78.76470879}
]
,"navaids":[
{"type":"NDB","hdg_t":198.1,"dist_nm":9.9,"freq":329,"lat":43.10902778,"lon":-78.83838889,"rng_nm":50,"alt_fmsl":0,"id":"IA","desc":"KATHI NDB"},
{"type":"SDME","hdg_t":222.4,"dist_nm":12.5,"freq":111,"lat":43.11250000,"lon":-78.96027800,"rng_nm":25,"alt_fmsl":635,"id":"IAG","desc":"NIAGARA FALLS TACAN"},
{"type":"NDB","hdg_t":162.1,"dist_nm":16.7,"freq":231,"lat":43.00027778,"lon":-78.65086111,"rng_nm":50,"alt_fmsl":0,"id":"BU","desc":"KLUMP NDB"},
{"type":"VOR","hdg_t":165.1,"dist_nm":20.9,"freq":116.4,"lat":42.92900000,"lon":-78.64633333,"rng_nm":130,"alt_fmsl":730,"id":"BUF","desc":"BUFFALO VOR-DME"},
{"type":"NDB","hdg_t":251.6,"dist_nm":22.5,"freq":408,"lat":43.14716667,"lon":-79.25497222,"rng_nm":50,"alt_fmsl":0,"id":"SN","desc":"ST CATHERINES NDB"},
{"type":"NDB","hdg_t":185.2,"dist_nm":23.6,"freq":204,"lat":42.87388889,"lon":-78.81658333,"rng_nm":50,"alt_fmsl":0,"id":"GB","desc":"PLAZZ NDB"},
{"type":"NDB","hdg_t":307.7,"dist_nm":34,"freq":257,"lat":43.61261111,"lon":-79.38561111,"rng_nm":50,"alt_fmsl":0,"id":"TZ","desc":"GIBRALTAR POINT NDB"},
{"type":"SDME","hdg_t":308.2,"dist_nm":35,"freq":110.15,"lat":43.62722200,"lon":-79.39944400,"rng_nm":25,"alt_fmsl":286,"id":"ITZ","desc":"CITY CENTRE DME"},
{"type":"SDME","hdg_t":352.5,"dist_nm":39.4,"freq":111.35,"lat":43.91861100,"lon":-78.88583300,"rng_nm":25,"alt_fmsl":456,"id":"IOO","desc":"OSHAWA DME"},
{"type":"NDB","hdg_t":351.6,"dist_nm":39.6,"freq":391,"lat":43.92083333,"lon":-78.89997222,"rng_nm":50,"alt_fmsl":0,"id":"OO","desc":"OSHAWA NDB"},
{"type":"NDB","hdg_t":302,"dist_nm":40.1,"freq":368,"lat":43.61950000,"lon":-79.54777778,"rng_nm":50,"alt_fmsl":0,"id":"ZYZ","desc":"QUEENSWAY(TORONTO NDB"},
{"type":"SDME","hdg_t":323.8,"dist_nm":43.8,"freq":111.1,"lat":43.85583300,"lon":-79.36333300,"rng_nm":130,"alt_fmsl":650,"id":"IKZ","desc":"BUTTONVILLE DME"},
{"type":"SDME","hdg_t":304.3,"dist_nm":43.8,"freq":109.3,"lat":43.67555600,"lon":-79.59944400,"rng_nm":25,"alt_fmsl":565,"id":"INV","desc":"TORONTO DME"},
{"type":"SDME","hdg_t":302.8,"dist_nm":44.1,"freq":109.1,"lat":43.66305600,"lon":-79.61861100,"rng_nm":25,"alt_fmsl":588,"id":"IJS","desc":"TORONTO DME"},
{"type":"VOR","hdg_t":302.1,"dist_nm":44.4,"freq":112.15,"lat":43.65822222,"lon":-79.63152778,"rng_nm":130,"alt_fmsl":620,"id":"YYZ","desc":"TORONTO VOR-DME"},
{"type":"SDME","hdg_t":302.8,"dist_nm":44.9,"freq":110.95,"lat":43.67027800,"lon":-79.63444400,"rng_nm":25,"alt_fmsl":565,"id":"ITO","desc":"TORONTO DME"},
{"type":"NDB","hdg_t":309.1,"dist_nm":45,"freq":385,"lat":43.73791667,"lon":-79.57147222,"rng_nm":50,"alt_fmsl":0,"id":"ZDH","desc":"REXDALE(TORONTO/L NDB"},
{"type":"NDB","hdg_t":297.8,"dist_nm":45.3,"freq":236,"lat":43.61616100,"lon":-79.68840600,"rng_nm":25,"alt_fmsl":0,"id":"ZLB","desc":"BRITANNIA NDB"},
{"type":"NDB","hdg_t":261,"dist_nm":45.6,"freq":266,"lat":43.14421700,"lon":-79.79396900,"rng_nm":25,"alt_fmsl":0,"id":"ZHM","desc":"BINBROOK NDB"},
{"type":"VOR","hdg_t":302.1,"dist_nm":46,"freq":116.55,"lat":43.67191667,"lon":-79.66411111,"rng_nm":130,"alt_fmsl":620,"id":"YTP","desc":"PEARSON VOR-DME"},
{"type":"NDB","hdg_t":109,"dist_nm":46.4,"freq":344,"lat":43.00991667,"lon":-77.76927778,"rng_nm":50,"alt_fmsl":0,"id":"AVN","desc":"AVON NDB"},
{"type":"NDB","hdg_t":328.7,"dist_nm":46.8,"freq":248,"lat":43.93311111,"lon":-79.32894444,"rng_nm":50,"alt_fmsl":0,"id":"KZ","desc":"BUTTONVILLE NDB"},
{"type":"NDB","hdg_t":297.5,"dist_nm":47.3,"freq":341,"lat":43.62788889,"lon":-79.73113889,"rng_nm":50,"alt_fmsl":0,"id":"ZLP","desc":"MEADOWVALE(TORONT NDB"},
{"type":"VOR","hdg_t":100.1,"dist_nm":48.8,"freq":110,"lat":43.11797222,"lon":-77.67280556,"rng_nm":40,"alt_fmsl":549,"id":"ROC","desc":"ROCHESTER VOR-DME"},
{"type":"NDB","hdg_t":305,"dist_nm":49.7,"freq":403,"lat":43.73877778,"lon":-79.70341667,"rng_nm":50,"alt_fmsl":0,"id":"ZTO","desc":"WOODHILL(TORONTO/ NDB"},
{"type":"VOR","hdg_t":205.8,"dist_nm":51.6,"freq":116.2,"lat":42.49055556,"lon":-79.27411111,"rng_nm":130,"alt_fmsl":680,"id":"DKK","desc":"DUNKIRK VORTAC"},
{"type":"VOR","hdg_t":119.3,"dist_nm":52.4,"freq":108.2,"lat":42.83438889,"lon":-77.73275000,"rng_nm":40,"alt_fmsl":990,"id":"GEE","desc":"GENESEO VOR-DME"},
{"type":"NDB","hdg_t":98.5,"dist_nm":53.9,"freq":400,"lat":43.12652778,"lon":-77.55394444,"rng_nm":50,"alt_fmsl":0,"id":"RO","desc":"BREIT NDB"},
{"type":"NDB","hdg_t":261.2,"dist_nm":55,"freq":221,"lat":43.12111111,"lon":-80.00666667,"rng_nm":50,"alt_fmsl":0,"id":"HM","desc":"HAMILTON NDB"},
{"type":"NDB","hdg_t":266.1,"dist_nm":55.4,"freq":397,"lat":43.19727200,"lon":-80.02869700,"rng_nm":25,"alt_fmsl":0,"id":"ZHA","desc":"ANCASTER NDB"},
{"type":"NDB","hdg_t":13,"dist_nm":58.2,"freq":379,"lat":44.21244444,"lon":-78.46313889,"rng_nm":50,"alt_fmsl":0,"id":"YPQ","desc":"PETERBOROUGH NDB"},
{"type":"VOR","hdg_t":343.3,"dist_nm":60.8,"freq":117.35,"lat":44.23861111,"lon":-79.17166667,"rng_nm":130,"alt_fmsl":922,"id":"YSO","desc":"SIMCOE VOR-DME"},
{"type":"NDB","hdg_t":161.8,"dist_nm":61.9,"freq":360,"lat":42.28352778,"lon":-78.33491667,"rng_nm":50,"alt_fmsl":0,"id":"LYS","desc":"OLEAN NDB"},
{"type":"VOR","hdg_t":193.7,"dist_nm":66.5,"freq":114.7,"lat":42.18861111,"lon":-79.12130556,"rng_nm":130,"alt_fmsl":1786,"id":"JHW","desc":"JAMESTOWN VOR-DME"},
{"type":"NDB","hdg_t":282,"dist_nm":67.8,"freq":335,"lat":43.49305556,"lon":-80.28694444,"rng_nm":50,"alt_fmsl":0,"id":"ZKF","desc":"WELLINGTON NDB"},
{"type":"NDB","hdg_t":46.1,"dist_nm":68.5,"freq":317,"lat":44.05277778,"lon":-77.62666667,"rng_nm":50,"alt_fmsl":0,"id":"ZZR","desc":"SEVERN (TRENTON) NDB"},
{"type":"VOR","hdg_t":279.8,"dist_nm":71.4,"freq":115,"lat":43.45858333,"lon":-80.37938889,"rng_nm":130,"alt_fmsl":1047,"id":"YWT","desc":"WATERLOO VOR-DME"},
{"type":"NDB","hdg_t":261.4,"dist_nm":73.2,"freq":207,"lat":43.07333333,"lon":-80.41611111,"rng_nm":50,"alt_fmsl":0,"id":"FD","desc":"BRANTFORD NDB"},
{"type":"SDME","hdg_t":46,"dist_nm":74.4,"freq":109.7,"lat":44.12116100,"lon":-77.52890600,"rng_nm":130,"alt_fmsl":285,"id":"UTR","desc":"TRENTON TACAN"},
{"type":"VOR","hdg_t":154,"dist_nm":78.3,"freq":111.4,"lat":42.08963889,"lon":-77.99955556,"rng_nm":40,"alt_fmsl":2296,"id":"ELZ","desc":"WELLSVILLE VORTAC"},
{"type":"VOR","hdg_t":35.5,"dist_nm":78.9,"freq":113.5,"lat":44.33305556,"lon":-77.70283333,"rng_nm":40,"alt_fmsl":620,"id":"YCF","desc":"CAMPBELLFORD VOR-DME"},
{"type":"VOR","hdg_t":311.7,"dist_nm":79.7,"freq":114.5,"lat":44.14316667,"lon":-80.14641667,"rng_nm":130,"alt_fmsl":1680,"id":"YMS","desc":"MANS VOR-DME"},
{"type":"NDB","hdg_t":46.3,"dist_nm":81.3,"freq":215,"lat":44.19361111,"lon":-77.40333333,"rng_nm":50,"alt_fmsl":0,"id":"YTR","desc":"TRENTON NDB"},
{"type":"NDB","hdg_t":115.7,"dist_nm":84.1,"freq":260,"lat":42.64397222,"lon":-77.05613889,"rng_nm":50,"alt_fmsl":0,"id":"PYA","desc":"PENN YAN NDB"},
{"type":"NDB","hdg_t":48.2,"dist_nm":84.4,"freq":283,"lat":44.19505000,"lon":-77.30834400,"rng_nm":25,"alt_fmsl":320,"id":"6M","desc":"BELLEVILLE NDB"},
{"type":"VOR","hdg_t":175.7,"dist_nm":89,"freq":116.6,"lat":41.78638889,"lon":-78.61936111,"rng_nm":40,"alt_fmsl":2100,"id":"BFD","desc":"BRADFORD VOR-DME"},
{"type":"NDB","hdg_t":205.9,"dist_nm":90.1,"freq":258,"lat":41.91266667,"lon":-79.64844444,"rng_nm":50,"alt_fmsl":0,"id":"ORJ","desc":"CORRY NDB"},
{"type":"VOR","hdg_t":330.9,"dist_nm":90.5,"freq":112.8,"lat":44.58180556,"lon":-79.79322222,"rng_nm":130,"alt_fmsl":800,"id":"YEE","desc":"MIDLAND VOR-DME"},
{"type":"NDB","hdg_t":221.1,"dist_nm":90.7,"freq":372,"lat":42.11919444,"lon":-80.10458333,"rng_nm":50,"alt_fmsl":0,"id":"CQD","desc":"CASCADE NDB"},
{"type":"VOR","hdg_t":24.1,"dist_nm":91.9,"freq":115.1,"lat":44.66088889,"lon":-77.88808333,"rng_nm":40,"alt_fmsl":902,"id":"VIE","desc":"COEHILL VOR-DME"},
{"type":"VOR","hdg_t":197.4,"dist_nm":97.5,"freq":117.6,"lat":41.71302778,"lon":-79.41727778,"rng_nm":40,"alt_fmsl":1710,"id":"TDT","desc":"TIDIOUTE VORTAC"},
{"type":"NDB","hdg_t":222.3,"dist_nm":98.8,"freq":349,"lat":42.03863889,"lon":-80.25536111,"rng_nm":50,"alt_fmsl":0,"id":"ER","desc":"ESMER NDB"},
{"type":"VOR","hdg_t":250.9,"dist_nm":99.2,"freq":114.2,"lat":42.70672222,"lon":-80.88791667,"rng_nm":130,"alt_fmsl":780,"id":"YQO","desc":"AYLMER VOR-DME"}
]
}
