{"success":true,"source":"xp2csv.pl","last_updated":"2013/11/08 14:53:21 UTC"
,"icao":"86T","name":"Fowler","lat":30.56129944,"lon":-98.56697667,"rwys":1,"ils":0,"index":1334817,"path":"w100n30/w099n30"
,"runways":[
{"len_m":881,"wid_m":30.48,"hdg":187,"surf":"Dirt","rwy1":"18","lat1":30.56524712,"lon1":-98.56641376,"rwy2":"36","lat2":30.55735176,"lon2":-98.56753958}
]
,"navaids":[
{"type":"VOR","hdg_t":321,"dist_nm":18.1,"freq":108.2,"lat":30.79633333,"lon":-98.78738889,"rng_nm":40,"alt_fmsl":1200,"id":"LLO","desc":"LLANO VORTAC"},
{"type":"NDB","hdg_t":57.8,"dist_nm":20.1,"freq":341,"lat":30.74027778,"lon":-98.23622222,"rng_nm":50,"alt_fmsl":0,"id":"BMQ","desc":"BURNET NDB"},
{"type":"VOR","hdg_t":198.7,"dist_nm":22.4,"freq":113.8,"lat":30.20675000,"lon":-98.70575000,"rng_nm":130,"alt_fmsl":1530,"id":"STV","desc":"STONEWALL VORTAC"},
{"type":"VOR","hdg_t":30.3,"dist_nm":43.3,"freq":112.5,"lat":31.18550000,"lon":-98.14186111,"rng_nm":130,"alt_fmsl":1290,"id":"AGJ","desc":"GOOCH SPRINGS VORTAC"},
{"type":"NDB","hdg_t":210.8,"dist_nm":45,"freq":263,"lat":29.91500000,"lon":-99.00941667,"rng_nm":50,"alt_fmsl":0,"id":"ER","desc":"SHEIN NDB"},
{"type":"NDB","hdg_t":80.6,"dist_nm":46.5,"freq":332,"lat":30.68438889,"lon":-97.67991667,"rng_nm":50,"alt_fmsl":0,"id":"GUO","desc":"GEORGETOWN NDB"},
{"type":"VOR","hdg_t":53.8,"dist_nm":48,"freq":111.8,"lat":31.03288889,"lon":-97.81377778,"rng_nm":25,"alt_fmsl":980,"id":"GRK","desc":"GRAY VOR-DME"},
{"type":"NDB","hdg_t":138.1,"dist_nm":48.2,"freq":272,"lat":29.95880556,"lon":-97.94897222,"rng_nm":50,"alt_fmsl":0,"id":"RU","desc":"GARYS NDB"},
{"type":"NDB","hdg_t":109.4,"dist_nm":48.7,"freq":232,"lat":30.28759400,"lon":-97.68183600,"rng_nm":25,"alt_fmsl":0,"id":"GF","desc":"BIRDY NDB"},
{"type":"NDB","hdg_t":44.2,"dist_nm":50.8,"freq":323,"lat":31.16783333,"lon":-97.87822222,"rng_nm":50,"alt_fmsl":0,"id":"GR","desc":"STARN NDB"},
{"type":"VOR","hdg_t":221.5,"dist_nm":50.9,"freq":117.5,"lat":29.92233333,"lon":-99.21450000,"rng_nm":130,"alt_fmsl":2080,"id":"CSI","desc":"CENTER POINT VORTAC"},
{"type":"NDB","hdg_t":57.8,"dist_nm":52.3,"freq":278,"lat":31.02411111,"lon":-97.70813889,"rng_nm":50,"alt_fmsl":0,"id":"IL","desc":"IRESH NDB"},
{"type":"NDB","hdg_t":111.5,"dist_nm":52.5,"freq":353,"lat":30.23568300,"lon":-97.62569700,"rng_nm":25,"alt_fmsl":0,"id":"AU","desc":"AUSTI NDB"},
{"type":"NDB","hdg_t":313.6,"dist_nm":53.7,"freq":380,"lat":31.17788889,"lon":-99.32258333,"rng_nm":50,"alt_fmsl":0,"id":"BBD","desc":"BRADY NDB"},
{"type":"NDB","hdg_t":121.1,"dist_nm":54.1,"freq":255,"lat":30.08972222,"lon":-97.67602778,"rng_nm":50,"alt_fmsl":0,"id":"BS","desc":"CREED NDB"},
{"type":"VOR","hdg_t":101.2,"dist_nm":54.8,"freq":112.8,"lat":30.37855556,"lon":-97.52986111,"rng_nm":130,"alt_fmsl":593,"id":"CWK","desc":"CENTEX VORTAC"},
{"type":"VOR","hdg_t":174.2,"dist_nm":55.1,"freq":116.8,"lat":29.64402778,"lon":-98.46130556,"rng_nm":130,"alt_fmsl":1160,"id":"SAT","desc":"SAN ANTONIO VORTAC"},
{"type":"NDB","hdg_t":52.2,"dist_nm":55.7,"freq":347,"lat":31.12905556,"lon":-97.71141667,"rng_nm":50,"alt_fmsl":0,"id":"HLR","desc":"HOOD NDB"},
{"type":"NDB","hdg_t":180.1,"dist_nm":57,"freq":368,"lat":29.60758333,"lon":-98.56969444,"rng_nm":50,"alt_fmsl":0,"id":"AN","desc":"ALAMO NDB"},
{"type":"SDME","hdg_t":165.6,"dist_nm":63.2,"freq":109.9,"lat":29.53694700,"lon":-98.26780300,"rng_nm":40,"alt_fmsl":773,"id":"DHK","desc":"RANDOLPH TACAN"},
{"type":"VOR","hdg_t":166.6,"dist_nm":64,"freq":112.3,"lat":29.51916667,"lon":-98.28516667,"rng_nm":25,"alt_fmsl":772,"id":"RND","desc":"RANDOLPH VORTAC"},
{"type":"VOR","hdg_t":272.2,"dist_nm":64.8,"freq":116,"lat":30.59802778,"lon":-99.81752778,"rng_nm":130,"alt_fmsl":2280,"id":"JCT","desc":"JUNCTION VORTAC"},
{"type":"NDB","hdg_t":177.7,"dist_nm":65,"freq":219,"lat":29.47461400,"lon":-98.51861700,"rng_nm":25,"alt_fmsl":0,"id":"SA","desc":"BLUIE NDB"},
{"type":"NDB","hdg_t":18.6,"dist_nm":67,"freq":251,"lat":31.62150000,"lon":-98.14891667,"rng_nm":50,"alt_fmsl":0,"id":"MNZ","desc":"HAMILTON NDB"},
{"type":"SDME","hdg_t":180.6,"dist_nm":70,"freq":112,"lat":29.39158300,"lon":-98.58104700,"rng_nm":40,"alt_fmsl":687,"id":"KSY","desc":"KELLY TACAN"},
{"type":"VOR","hdg_t":56.3,"dist_nm":70.5,"freq":110.4,"lat":31.20933333,"lon":-97.42497222,"rng_nm":40,"alt_fmsl":710,"id":"TPL","desc":"TEMPLE VOR-DME"},
{"type":"NDB","hdg_t":191.5,"dist_nm":74.2,"freq":338,"lat":29.34606900,"lon":-98.84919400,"rng_nm":25,"alt_fmsl":762,"id":"CVB","desc":"CASTROVILLE NDB"},
{"type":"NDB","hdg_t":204,"dist_nm":77.7,"freq":329,"lat":29.37341667,"lon":-99.17202778,"rng_nm":50,"alt_fmsl":0,"id":"HMA","desc":"HONDO NDB"},
{"type":"VOR","hdg_t":175.2,"dist_nm":78.2,"freq":108.4,"lat":29.25838889,"lon":-98.44347222,"rng_nm":40,"alt_fmsl":0,"id":"SSF","desc":"STINSON VOR"},
{"type":"VOR","hdg_t":203.8,"dist_nm":79.2,"freq":109.4,"lat":29.34911111,"lon":-99.17788889,"rng_nm":40,"alt_fmsl":947,"id":"HDO","desc":"HONDO VOR-DME"},
{"type":"VOR","hdg_t":345.9,"dist_nm":82.1,"freq":108.6,"lat":31.89258333,"lon":-98.95747222,"rng_nm":40,"alt_fmsl":1574,"id":"BWD","desc":"BROWNWOOD VOR-DME"},
{"type":"NDB","hdg_t":105.4,"dist_nm":85.7,"freq":385,"lat":30.16952200,"lon":-96.97874400,"rng_nm":25,"alt_fmsl":464,"id":"GYB","desc":"LEE COUNTY NDB"},
{"type":"NDB","hdg_t":192.9,"dist_nm":87.3,"freq":359,"lat":29.13833333,"lon":-98.93925000,"rng_nm":50,"alt_fmsl":0,"id":"HHH","desc":"DEVINE NDB"},
{"type":"NDB","hdg_t":330.8,"dist_nm":87.9,"freq":385,"lat":31.84125600,"lon":-99.40617500,"rng_nm":25,"alt_fmsl":88,"id":"COM","desc":"COLEMAN NDB"},
{"type":"VOR","hdg_t":45,"dist_nm":93.8,"freq":115.3,"lat":31.66233333,"lon":-97.26902778,"rng_nm":130,"alt_fmsl":510,"id":"ACT","desc":"WACO VORTAC"},
{"type":"NDB","hdg_t":53.4,"dist_nm":95.6,"freq":400,"lat":31.50380556,"lon":-97.06958333,"rng_nm":50,"alt_fmsl":0,"id":"ROB","desc":"ROBINSON NDB"},
{"type":"VOR","hdg_t":250.4,"dist_nm":95.7,"freq":111.2,"lat":30.01461111,"lon":-100.29983333,"rng_nm":40,"alt_fmsl":2310,"id":"RSG","desc":"ROCKSPRINGS VORTAC"},
{"type":"NDB","hdg_t":178.4,"dist_nm":96.1,"freq":275,"lat":28.95497200,"lon":-98.51862800,"rng_nm":25,"alt_fmsl":428,"id":"PEZ","desc":"PLEASANTON NDB"},
{"type":"NDB","hdg_t":313,"dist_nm":98.7,"freq":239,"lat":31.68047222,"lon":-99.97491667,"rng_nm":50,"alt_fmsl":0,"id":"UBC","desc":"BALLINGER NDB"}
]
}
