{"success":true,"source":"xp2csv.pl","last_updated":"2013/11/08 14:53:21 UTC"
,"icao":"8CO8","name":"Koenig","lat":40.10831944,"lon":-102.72826556,"rwys":1,"ils":0,"index":1269889,"path":"w110n40/w103n40"
,"runways":[
{"len_m":824,"wid_m":12.19,"hdg":129,"surf":"Turf/grass","rwy1":"12","lat1":40.11069970,"lon1":-102.73197447,"rwy2":"30","lat2":40.10593918,"lon2":-102.72455665}
]
,"navaids":[
{"type":"VOR","hdg_t":277.9,"dist_nm":20.9,"freq":114.4,"lat":40.15555556,"lon":-103.17972222,"rng_nm":130,"alt_fmsl":4623,"id":"AKO","desc":"AKRON VOR-DME"},
{"type":"VOR","hdg_t":222.5,"dist_nm":33.3,"freq":112.9,"lat":39.69830556,"lon":-103.21494444,"rng_nm":40,"alt_fmsl":4893,"id":"TXC","desc":"THURMAN VORTAC"},
{"type":"NDB","hdg_t":317.9,"dist_nm":34.2,"freq":392,"lat":40.53205556,"lon":-103.23011111,"rng_nm":50,"alt_fmsl":0,"id":"BAJ","desc":"BATTEN NDB"},
{"type":"NDB","hdg_t":35.7,"dist_nm":34.9,"freq":404,"lat":40.58138100,"lon":-102.28130000,"rng_nm":25,"alt_fmsl":3717,"id":"HEQ","desc":"HEGINBOTHAM NDB"},
{"type":"NDB","hdg_t":116.8,"dist_nm":50,"freq":386,"lat":39.72694444,"lon":-101.76488889,"rng_nm":50,"alt_fmsl":0,"id":"SYF","desc":"SAINT FRANCIS NDB"},
{"type":"NDB","hdg_t":158.1,"dist_nm":55.6,"freq":209,"lat":39.24625000,"lon":-102.28383333,"rng_nm":50,"alt_fmsl":0,"id":"ITR","desc":"KIT CARSON NDB"},
{"type":"NDB","hdg_t":64,"dist_nm":56,"freq":283,"lat":40.51155556,"lon":-101.62752778,"rng_nm":50,"alt_fmsl":0,"id":"IML","desc":"IMPERIAL NDB"},
{"type":"VOR","hdg_t":250,"dist_nm":59,"freq":113.5,"lat":39.76583333,"lon":-103.92805556,"rng_nm":130,"alt_fmsl":5252,"id":"BVR","desc":"BYERS VOR-DME"},
{"type":"NDB","hdg_t":11.8,"dist_nm":59.3,"freq":383,"lat":41.07666667,"lon":-102.45888889,"rng_nm":50,"alt_fmsl":0,"id":"CNP","desc":"CHAPPELL NDB"},
{"type":"VOR","hdg_t":348.9,"dist_nm":60.3,"freq":115.9,"lat":41.09666667,"lon":-102.98300000,"rng_nm":130,"alt_fmsl":4300,"id":"SNY","desc":"SIDNEY VORTAC"},
{"type":"VOR","hdg_t":131.6,"dist_nm":64.5,"freq":115.1,"lat":39.38786111,"lon":-101.69230556,"rng_nm":130,"alt_fmsl":3650,"id":"GLD","desc":"GOODLAND VORTAC"},
{"type":"NDB","hdg_t":44.6,"dist_nm":64.6,"freq":359,"lat":40.87094444,"lon":-101.73044444,"rng_nm":50,"alt_fmsl":0,"id":"GGF","desc":"GRANT NDB"},
{"type":"NDB","hdg_t":132.7,"dist_nm":71.5,"freq":414,"lat":39.29383333,"lon":-101.60030556,"rng_nm":50,"alt_fmsl":0,"id":"GL","desc":"SHUGR NDB"},
{"type":"VOR","hdg_t":35.3,"dist_nm":74.6,"freq":110.2,"lat":41.11911111,"lon":-101.77605556,"rng_nm":25,"alt_fmsl":3280,"id":"SAE","desc":"SEARLE VOR-DME"},
{"type":"NDB","hdg_t":326.7,"dist_nm":77.8,"freq":317,"lat":41.19136900,"lon":-103.66983100,"rng_nm":25,"alt_fmsl":4897,"id":"IBM","desc":"KIMBALL NDB"},
{"type":"NDB","hdg_t":101.2,"dist_nm":79.3,"freq":365,"lat":39.83863889,"lon":-101.04505556,"rng_nm":50,"alt_fmsl":0,"id":"ADT","desc":"ATWOOD NDB"},
{"type":"NDB","hdg_t":12.3,"dist_nm":79.4,"freq":233,"lat":41.40113889,"lon":-102.35086111,"rng_nm":50,"alt_fmsl":0,"id":"OKS","desc":"OSHKOSH NDB"},
{"type":"NDB","hdg_t":256.9,"dist_nm":80.9,"freq":321,"lat":39.79186111,"lon":-104.43422222,"rng_nm":50,"alt_fmsl":0,"id":"FT","desc":"SKIPI NDB"},
{"type":"VOR","hdg_t":75.3,"dist_nm":85.4,"freq":117.7,"lat":40.45405556,"lon":-100.92358333,"rng_nm":130,"alt_fmsl":3010,"id":"HCT","desc":"HAYES CENTER VORTAC"},
{"type":"NDB","hdg_t":114.2,"dist_nm":85.5,"freq":408,"lat":39.50986111,"lon":-101.04763889,"rng_nm":50,"alt_fmsl":0,"id":"JDM","desc":"WHEATFIELD NDB"},
{"type":"VOR","hdg_t":286.3,"dist_nm":87,"freq":114.2,"lat":40.50386111,"lon":-104.55302778,"rng_nm":130,"alt_fmsl":4910,"id":"GLL","desc":"GILL VOR-DME"},
{"type":"VOR","hdg_t":208.4,"dist_nm":87.8,"freq":112.1,"lat":38.81750000,"lon":-103.62138889,"rng_nm":130,"alt_fmsl":5233,"id":"HGO","desc":"HUGO VORTAC"},
{"type":"NDB","hdg_t":279.4,"dist_nm":88.2,"freq":348,"lat":40.33469444,"lon":-104.62611111,"rng_nm":50,"alt_fmsl":0,"id":"DC","desc":"BUFFS NDB"},
{"type":"VOR","hdg_t":262.2,"dist_nm":88.3,"freq":114.7,"lat":39.89469444,"lon":-104.62433333,"rng_nm":130,"alt_fmsl":5279,"id":"DVV","desc":"MILE HIGH VORTAC"},
{"type":"VOR","hdg_t":259.3,"dist_nm":90.9,"freq":117.9,"lat":39.81252778,"lon":-104.66075000,"rng_nm":130,"alt_fmsl":5452,"id":"DEN","desc":"DENVER VOR-DME"},
{"type":"VOR","hdg_t":254.6,"dist_nm":90.9,"freq":116.3,"lat":39.69013889,"lon":-104.62097222,"rng_nm":130,"alt_fmsl":5780,"id":"FQF","desc":"FALCON VORTAC"},
{"type":"SDME","hdg_t":256.2,"dist_nm":96.4,"freq":109.6,"lat":39.70737700,"lon":-104.75216600,"rng_nm":40,"alt_fmsl":5580,"id":"BKF","desc":"BUCKLEY TACAN"},
{"type":"VOR","hdg_t":85.9,"dist_nm":98.3,"freq":115.3,"lat":40.20380556,"lon":-100.59422222,"rng_nm":130,"alt_fmsl":2571,"id":"MCK","desc":"MC COOK B NEL REG VOR-DME"}
]
}
