{"success":true,"source":"xp2csv.pl","last_updated":"2013/11/08 14:53:21 UTC"
,"icao":"8KS1","name":"Neu Field","lat":39.17194611,"lon":-94.98079917,"rwys":1,"ils":0,"index":1400904,"path":"w100n30/w095n39"
,"runways":[
{"len_m":609,"wid_m":12.19,"hdg":174,"surf":"Turf/grass","rwy1":"17","lat1":39.17467865,"lon1":-94.98110754,"rwy2":"35","lat2":39.16921357,"lon2":-94.98049080}
]
,"navaids":[
{"type":"NDB","hdg_t":37.7,"dist_nm":9.8,"freq":416,"lat":39.30197222,"lon":-94.85111111,"rng_nm":50,"alt_fmsl":0,"id":"RN","desc":"HUGGY NDB"},
{"type":"NDB","hdg_t":74.6,"dist_nm":11.1,"freq":359,"lat":39.22088889,"lon":-94.74991667,"rng_nm":50,"alt_fmsl":0,"id":"DO","desc":"DOTTE NDB"},
{"type":"VOR","hdg_t":59,"dist_nm":13.2,"freq":113.25,"lat":39.28527778,"lon":-94.73705556,"rng_nm":130,"alt_fmsl":1017,"id":"MCI","desc":"KANSAS CITY VORTAC"},
{"type":"NDB","hdg_t":207.6,"dist_nm":17.4,"freq":338,"lat":38.91363889,"lon":-95.15375000,"rng_nm":50,"alt_fmsl":0,"id":"JZ","desc":"NEWBN NDB"},
{"type":"VOR","hdg_t":99.6,"dist_nm":18.1,"freq":111.4,"lat":39.12038889,"lon":-94.59658333,"rng_nm":25,"alt_fmsl":740,"id":"RIS","desc":"RIVERSIDE VOR-DME"},
{"type":"NDB","hdg_t":141.2,"dist_nm":18.2,"freq":526,"lat":38.93488845,"lon":-94.73732723,"rng_nm":25,"alt_fmsl":0,"id":"OJ","desc":"Furor LOM"},
{"type":"NDB","hdg_t":47.5,"dist_nm":19.1,"freq":275,"lat":39.38691667,"lon":-94.67697222,"rng_nm":50,"alt_fmsl":0,"id":"DY","desc":"LEXEY NDB"},
{"type":"NDB","hdg_t":81.2,"dist_nm":19.6,"freq":344,"lat":39.22080556,"lon":-94.56433333,"rng_nm":50,"alt_fmsl":0,"id":"MK","desc":"KENZY NDB"},
{"type":"VOR","hdg_t":150,"dist_nm":22.9,"freq":113,"lat":38.84063889,"lon":-94.73675000,"rng_nm":25,"alt_fmsl":1034,"id":"OJC","desc":"JOHNSON COUNTY VOR-DME"},
{"type":"NDB","hdg_t":170.8,"dist_nm":26.3,"freq":368,"lat":38.73866667,"lon":-94.89191667,"rng_nm":50,"alt_fmsl":0,"id":"IX","desc":"DUSTT NDB"},
{"type":"VOR","hdg_t":265.6,"dist_nm":26.6,"freq":117.8,"lat":39.13711111,"lon":-95.54911111,"rng_nm":40,"alt_fmsl":1070,"id":"TOP","desc":"TOPEKA VORTAC"},
{"type":"NDB","hdg_t":155.5,"dist_nm":27.5,"freq":420,"lat":38.75363890,"lon":-94.73785930,"rng_nm":25,"alt_fmsl":0,"id":"PK","desc":"Herbb LOM"},
{"type":"NDB","hdg_t":6.4,"dist_nm":30.3,"freq":260,"lat":39.67572222,"lon":-94.90683333,"rng_nm":50,"alt_fmsl":0,"id":"ST","desc":"TARIO NDB"},
{"type":"NDB","hdg_t":113.7,"dist_nm":31.1,"freq":263,"lat":38.96068600,"lon":-94.37173900,"rng_nm":25,"alt_fmsl":1041,"id":"LXT","desc":"LESUMIT NDB"},
{"type":"NDB","hdg_t":238.6,"dist_nm":32.9,"freq":326,"lat":38.88486111,"lon":-95.58152778,"rng_nm":50,"alt_fmsl":0,"id":"FO","desc":"RIPLY NDB"},
{"type":"NDB","hdg_t":264.8,"dist_nm":33.1,"freq":521,"lat":39.12036111,"lon":-95.68711111,"rng_nm":50,"alt_fmsl":0,"id":"TO","desc":"BILOY NDB"},
{"type":"SDME","hdg_t":247.2,"dist_nm":34.5,"freq":111.6,"lat":38.94736700,"lon":-95.66117500,"rng_nm":25,"alt_fmsl":1043,"id":"FOE","desc":"FORBES TACAN"},
{"type":"VOR","hdg_t":96.3,"dist_nm":40,"freq":114,"lat":39.09541667,"lon":-94.12883333,"rng_nm":40,"alt_fmsl":878,"id":"ANX","desc":"NAPOLEON VORTAC"},
{"type":"NDB","hdg_t":4.4,"dist_nm":42.8,"freq":233,"lat":39.88380556,"lon":-94.90813889,"rng_nm":50,"alt_fmsl":0,"id":"AZN","desc":"AMAZON NDB"},
{"type":"VOR","hdg_t":333.3,"dist_nm":45.5,"freq":108.2,"lat":39.85083333,"lon":-95.42305556,"rng_nm":40,"alt_fmsl":1126,"id":"RBA","desc":"ROBINSON VOR-DME"},
{"type":"NDB","hdg_t":44.3,"dist_nm":46.9,"freq":394,"lat":39.72941667,"lon":-94.27230556,"rng_nm":50,"alt_fmsl":0,"id":"EZZ","desc":"CAMERON NDB"},
{"type":"VOR","hdg_t":3.1,"dist_nm":47.3,"freq":115.5,"lat":39.96058333,"lon":-94.92522222,"rng_nm":130,"alt_fmsl":1160,"id":"STJ","desc":"ST JOSEPH VORTAC"},
{"type":"VOR","hdg_t":61.5,"dist_nm":58.3,"freq":111.2,"lat":39.63055556,"lon":-93.87527778,"rng_nm":40,"alt_fmsl":930,"id":"BQS","desc":"BRAYMER VOR-DME"},
{"type":"VOR","hdg_t":156.6,"dist_nm":58.6,"freq":115.9,"lat":38.27211111,"lon":-94.48822222,"rng_nm":130,"alt_fmsl":890,"id":"BUM","desc":"BUTLER VORTAC"},
{"type":"NDB","hdg_t":332.7,"dist_nm":61,"freq":404,"lat":40.07633333,"lon":-95.58688889,"rng_nm":50,"alt_fmsl":0,"id":"FNB","desc":"BRENNER NDB"},
{"type":"NDB","hdg_t":213.8,"dist_nm":62.7,"freq":245,"lat":38.29975000,"lon":-95.72147222,"rng_nm":50,"alt_fmsl":0,"id":"UKL","desc":"BOYD NDB"},
{"type":"SDME","hdg_t":110.8,"dist_nm":71.8,"freq":109.8,"lat":38.73570000,"lon":-93.55042800,"rng_nm":40,"alt_fmsl":850,"id":"SZL","desc":"WHITEMAN TACAN"},
{"type":"VOR","hdg_t":226.1,"dist_nm":75.7,"freq":112.8,"lat":38.29113889,"lon":-96.13811111,"rng_nm":40,"alt_fmsl":1233,"id":"EMP","desc":"EMPORIA VORTAC"},
{"type":"NDB","hdg_t":268,"dist_nm":77,"freq":391,"lat":39.11744200,"lon":-96.62933600,"rng_nm":50,"alt_fmsl":1060,"id":"MQD","desc":"MC DOWELL CREEK NDB"},
{"type":"NDB","hdg_t":128.3,"dist_nm":77.9,"freq":388,"lat":38.35866667,"lon":-93.68463889,"rng_nm":50,"alt_fmsl":0,"id":"GLY","desc":"GOLDEN VALLEY NDB"},
{"type":"NDB","hdg_t":61.8,"dist_nm":78,"freq":375,"lat":39.77711111,"lon":-93.49419444,"rng_nm":50,"alt_fmsl":0,"id":"CHT","desc":"CHILLICOTHE NDB"},
{"type":"VOR","hdg_t":269.3,"dist_nm":78.7,"freq":110.2,"lat":39.14544444,"lon":-96.66872222,"rng_nm":25,"alt_fmsl":1044,"id":"MHK","desc":"MANHATTAN VOR-DME"},
{"type":"NDB","hdg_t":172.9,"dist_nm":83,"freq":379,"lat":37.79688889,"lon":-94.76555556,"rng_nm":50,"alt_fmsl":0,"id":"FSK","desc":"FORT SCOTT NDB"},
{"type":"NDB","hdg_t":94.7,"dist_nm":83.7,"freq":371,"lat":39.04194444,"lon":-93.19583333,"rng_nm":50,"alt_fmsl":0,"id":"PUR","desc":"MARSHALL NDB"},
{"type":"VOR","hdg_t":317.7,"dist_nm":83.8,"freq":112.4,"lat":40.20036111,"lon":-96.20627778,"rng_nm":130,"alt_fmsl":1360,"id":"PWE","desc":"PAWNEE CITY VORTAC"},
{"type":"NDB","hdg_t":49.3,"dist_nm":84.2,"freq":400,"lat":40.08027778,"lon":-93.59300000,"rng_nm":50,"alt_fmsl":0,"id":"TRX","desc":"TRENTON NDB"},
{"type":"NDB","hdg_t":264.6,"dist_nm":85.1,"freq":314,"lat":39.02600000,"lon":-96.79450000,"rng_nm":50,"alt_fmsl":0,"id":"CVY","desc":"CAVALRY NDB"},
{"type":"NDB","hdg_t":194,"dist_nm":85.2,"freq":410,"lat":37.79152778,"lon":-95.41491667,"rng_nm":50,"alt_fmsl":0,"id":"MSB","desc":"MONARCH NDB"},
{"type":"VOR","hdg_t":262.7,"dist_nm":88.6,"freq":109.4,"lat":38.97016667,"lon":-96.86116667,"rng_nm":25,"alt_fmsl":0,"id":"FRI","desc":"FORT RILEY VOR"},
{"type":"NDB","hdg_t":107.7,"dist_nm":88.9,"freq":281,"lat":38.70438889,"lon":-93.17663889,"rng_nm":50,"alt_fmsl":0,"id":"DMO","desc":"SEDALIA NDB"},
{"type":"NDB","hdg_t":252,"dist_nm":90.3,"freq":407,"lat":38.69277778,"lon":-96.81111111,"rng_nm":50,"alt_fmsl":0,"id":"HRU","desc":"HERINGTON NDB"},
{"type":"NDB","hdg_t":358.6,"dist_nm":93,"freq":353,"lat":40.72366667,"lon":-95.02797222,"rng_nm":50,"alt_fmsl":0,"id":"ICL","desc":"CLARINDA NDB"},
{"type":"NDB","hdg_t":67.1,"dist_nm":93.9,"freq":383,"lat":39.76419444,"lon":-93.10908333,"rng_nm":50,"alt_fmsl":0,"id":"BZK","desc":"BROOKFIELD NDB"},
{"type":"NDB","hdg_t":334.9,"dist_nm":95,"freq":347,"lat":40.60555556,"lon":-95.86083333,"rng_nm":50,"alt_fmsl":0,"id":"AFK","desc":"NEBRASKA CITY NDB"},
{"type":"NDB","hdg_t":348.3,"dist_nm":96.7,"freq":411,"lat":40.75169444,"lon":-95.40750000,"rng_nm":50,"alt_fmsl":0,"id":"SDA","desc":"SHENANDOAH NDB"},
{"type":"VOR","hdg_t":197.5,"dist_nm":97,"freq":109.2,"lat":37.62613889,"lon":-95.59344444,"rng_nm":40,"alt_fmsl":1080,"id":"CNU","desc":"CHANUTE VOR-DME"},
{"type":"VOR","hdg_t":28.3,"dist_nm":97.3,"freq":116.7,"lat":40.59675000,"lon":-93.96758333,"rng_nm":130,"alt_fmsl":1140,"id":"LMN","desc":"LAMONI VORTAC"}
]
}
