{"success":true,"source":"xp2csv.pl","last_updated":"2013/11/08 14:53:21 UTC"
,"icao":"8LA9","name":"Koll","lat":30.35714861,"lon":-92.74458806,"rwys":1,"ils":0,"index":1433105,"path":"w100n30/w093n30"
,"runways":[
{"len_m":794,"wid_m":56.39,"hdg":93,"surf":"Turf/grass","rwy1":"09","lat1":30.35739735,"lon1":-92.74871046,"rwy2":"27","lat2":30.35689987,"lon2":-92.74046566}
]
,"navaids":[
{"type":"NDB","hdg_t":9.5,"dist_nm":17.2,"freq":379,"lat":30.64122222,"lon":-92.68916667,"rng_nm":50,"alt_fmsl":0,"id":"LRR","desc":"OAKDALE NDB"},
{"type":"NDB","hdg_t":51.6,"dist_nm":19.5,"freq":263,"lat":30.55983333,"lon":-92.44808333,"rng_nm":50,"alt_fmsl":0,"id":"ECY","desc":"DURALDE NDB"},
{"type":"VOR","hdg_t":235.5,"dist_nm":22.7,"freq":113.4,"lat":30.14150000,"lon":-93.10555556,"rng_nm":130,"alt_fmsl":20,"id":"LCH","desc":"LAKE CHARLES VORTAC"},
{"type":"NDB","hdg_t":262.7,"dist_nm":23.6,"freq":418,"lat":30.30663889,"lon":-93.19619444,"rng_nm":50,"alt_fmsl":0,"id":"CW","desc":"MOSSY NDB"},
{"type":"NDB","hdg_t":250,"dist_nm":28.6,"freq":353,"lat":30.19305556,"lon":-93.26313889,"rng_nm":50,"alt_fmsl":0,"id":"LC","desc":"KEYLI NDB"},
{"type":"NDB","hdg_t":255,"dist_nm":36.3,"freq":278,"lat":30.19852778,"lon":-93.42063889,"rng_nm":50,"alt_fmsl":0,"id":"AUR","desc":"SULPHUR NDB"},
{"type":"NDB","hdg_t":118.5,"dist_nm":36.8,"freq":230,"lat":30.06113889,"lon":-92.12327778,"rng_nm":50,"alt_fmsl":0,"id":"BNZ","desc":"ABBEVILLE NDB"},
{"type":"NDB","hdg_t":277.2,"dist_nm":37.7,"freq":410,"lat":30.43533333,"lon":-93.46708333,"rng_nm":50,"alt_fmsl":0,"id":"DQU","desc":"DE QUINCY NDB"},
{"type":"NDB","hdg_t":61.7,"dist_nm":37.9,"freq":335,"lat":30.65525000,"lon":-92.09869444,"rng_nm":50,"alt_fmsl":0,"id":"OPL","desc":"SAINT LANDRY NDB"},
{"type":"NDB","hdg_t":307.8,"dist_nm":38.6,"freq":385,"lat":30.75213889,"lon":-93.33472222,"rng_nm":50,"alt_fmsl":0,"id":"DXB","desc":"DE RIDDER NDB"},
{"type":"VOR","hdg_t":103.8,"dist_nm":40.2,"freq":109.8,"lat":30.19380556,"lon":-91.99258333,"rng_nm":40,"alt_fmsl":36,"id":"LFT","desc":"LAFAYETTE VORTAC"},
{"type":"NDB","hdg_t":40.8,"dist_nm":40.3,"freq":397,"lat":30.86541667,"lon":-92.23408333,"rng_nm":50,"alt_fmsl":0,"id":"BWK","desc":"BUNKIE NDB"},
{"type":"NDB","hdg_t":95.1,"dist_nm":43.6,"freq":375,"lat":30.28930556,"lon":-91.90794444,"rng_nm":50,"alt_fmsl":0,"id":"LF","desc":"LAFFS NDB"},
{"type":"VOR","hdg_t":154.9,"dist_nm":45.8,"freq":110.4,"lat":29.66322222,"lon":-92.37363889,"rng_nm":40,"alt_fmsl":40,"id":"LLA","desc":"WHITE LAKE VOR-DME"},
{"type":"NDB","hdg_t":330.5,"dist_nm":46.1,"freq":359,"lat":31.02825000,"lon":-93.18483333,"rng_nm":50,"alt_fmsl":0,"id":"GUV","desc":"GATOR NDB"},
{"type":"VOR","hdg_t":331.6,"dist_nm":51.3,"freq":108.4,"lat":31.11163889,"lon":-93.21791667,"rng_nm":25,"alt_fmsl":312,"id":"FXU","desc":"POLK VORTAC"},
{"type":"NDB","hdg_t":117.4,"dist_nm":51.7,"freq":269,"lat":29.95627778,"lon":-91.86333333,"rng_nm":50,"alt_fmsl":0,"id":"AR","desc":"ACADI NDB"},
{"type":"NDB","hdg_t":325.4,"dist_nm":54.2,"freq":247,"lat":31.10236111,"lon":-93.34194444,"rng_nm":50,"alt_fmsl":0,"id":"VED","desc":"LEESVILLE NDB"},
{"type":"VOR","hdg_t":13,"dist_nm":55.3,"freq":116.1,"lat":31.25672222,"lon":-92.50097222,"rng_nm":130,"alt_fmsl":80,"id":"AEX","desc":"ALEXANDRIA VORTAC"},
{"type":"NDB","hdg_t":38,"dist_nm":56.1,"freq":347,"lat":31.09461111,"lon":-92.07266667,"rng_nm":50,"alt_fmsl":0,"id":"MKV","desc":"MARKSVILLE NDB"},
{"type":"NDB","hdg_t":252.8,"dist_nm":57.2,"freq":211,"lat":30.07027778,"lon":-93.79494444,"rng_nm":50,"alt_fmsl":0,"id":"ORG","desc":"ORANGE NDB"},
{"type":"NDB","hdg_t":75.4,"dist_nm":67.1,"freq":356,"lat":30.63313300,"lon":-91.48941800,"rng_nm":25,"alt_fmsl":35,"id":"HZ","desc":"HAZER NDB"},
{"type":"NDB","hdg_t":75.4,"dist_nm":67.1,"freq":356,"lat":30.63313889,"lon":-91.48941667,"rng_nm":50,"alt_fmsl":0,"id":"FWX","desc":"NEW ROADS NDB"},
{"type":"NDB","hdg_t":24.9,"dist_nm":68.4,"freq":223,"lat":31.39205556,"lon":-92.18200000,"rng_nm":50,"alt_fmsl":0,"id":"ES","desc":"ANDRA NDB"},
{"type":"VOR","hdg_t":18.3,"dist_nm":68.8,"freq":117.9,"lat":31.44751100,"lon":-92.32193900,"rng_nm":130,"alt_fmsl":195,"id":"ESF","desc":"ESLER VORTAC"},
{"type":"VOR","hdg_t":249.9,"dist_nm":70.5,"freq":114.5,"lat":29.94605556,"lon":-94.01622222,"rng_nm":40,"alt_fmsl":10,"id":"BPT","desc":"BEAUMONT VOR-DME"},
{"type":"VOR","hdg_t":83.8,"dist_nm":75.6,"freq":116.5,"lat":30.48513889,"lon":-91.29405556,"rng_nm":40,"alt_fmsl":20,"id":"BTR","desc":"BATON ROUGE VORTAC"},
{"type":"NDB","hdg_t":257.6,"dist_nm":78.1,"freq":368,"lat":30.07047222,"lon":-94.21102778,"rng_nm":50,"alt_fmsl":0,"id":"GDE","desc":"GOODHUE NDB"},
{"type":"VOR","hdg_t":239.5,"dist_nm":78.4,"freq":115.4,"lat":29.68672222,"lon":-94.03797222,"rng_nm":40,"alt_fmsl":10,"id":"SBI","desc":"SABINE PASS VOR-DME"},
{"type":"NDB","hdg_t":269.4,"dist_nm":78.7,"freq":524,"lat":30.33633333,"lon":-94.26036111,"rng_nm":50,"alt_fmsl":0,"id":"HRD","desc":"HARDIN CO NDB"},
{"type":"NDB","hdg_t":347.6,"dist_nm":79.7,"freq":407,"lat":31.65744444,"lon":-93.07761111,"rng_nm":50,"alt_fmsl":0,"id":"OOC","desc":"NATCHITOCHES NDB"},
{"type":"NDB","hdg_t":79.9,"dist_nm":80.6,"freq":284,"lat":30.58288889,"lon":-91.21102778,"rng_nm":50,"alt_fmsl":0,"id":"BT","desc":"RUNDI NDB"},
{"type":"NDB","hdg_t":117.3,"dist_nm":82.7,"freq":245,"lat":29.71463889,"lon":-91.33672222,"rng_nm":50,"alt_fmsl":0,"id":"PTN","desc":"PATTERSON NDB"},
{"type":"NDB","hdg_t":330.7,"dist_nm":83.5,"freq":272,"lat":31.57127778,"lon":-93.54155556,"rng_nm":50,"alt_fmsl":0,"id":"MMY","desc":"MANY NDB"},
{"type":"VOR","hdg_t":2,"dist_nm":96.8,"freq":113.75,"lat":31.97319444,"lon":-92.67708333,"rng_nm":130,"alt_fmsl":164,"id":"SWB","desc":"SAWMILL VOR-DME"},
{"type":"VOR","hdg_t":264.6,"dist_nm":99.2,"freq":116.9,"lat":30.18972222,"lon":-94.64497222,"rng_nm":130,"alt_fmsl":76,"id":"DAS","desc":"DAISETTA VORTAC"}
]
}
