{"success":true,"source":"xp2csv.pl","last_updated":"2013/11/08 14:53:21 UTC"
,"icao":"8M8","name":"Garland","lat":44.804181,"lon":-84.273625,"rwys":1,"ils":0,"index":1565106,"path":"w090n40/w085n44"
,"runways":[
{"len_m":1538,"wid_m":22.86,"hdg":173,"surf":"Asphalt","rwy1":"18","lat1":44.81105600,"lon1":-84.27473900,"rwy2":"36","lat2":44.79730600,"lon2":-84.27251100}
]
,"radios":[
{"type":"CTAF","freq":122.8,"desc":"CTAF/UNICOM"}
]
,"navaids":[
{"type":"VOR","hdg_t":249.4,"dist_nm":20.8,"freq":109.8,"lat":44.68163889,"lon":-84.72894444,"rng_nm":25,"alt_fmsl":0,"id":"CGG","desc":"GRAYLING VOR"},
{"type":"VOR","hdg_t":304.3,"dist_nm":22.2,"freq":109.2,"lat":45.01250000,"lon":-84.70427778,"rng_nm":40,"alt_fmsl":1318,"id":"GLR","desc":"GAYLORD VOR-DME"},
{"type":"NDB","hdg_t":262.3,"dist_nm":23.9,"freq":359,"lat":44.74991667,"lon":-84.82827778,"rng_nm":50,"alt_fmsl":0,"id":"GYG","desc":"GRAYLING NDB"},
{"type":"NDB","hdg_t":299.1,"dist_nm":26,"freq":375,"lat":45.01455556,"lon":-84.80797222,"rng_nm":50,"alt_fmsl":0,"id":"GL","desc":"BANGU NDB"},
{"type":"VOR","hdg_t":212.3,"dist_nm":31.5,"freq":111.6,"lat":44.35888889,"lon":-84.66572222,"rng_nm":25,"alt_fmsl":1145,"id":"HTL","desc":"HOUGHTON LAKE VOR-DME"},
{"type":"NDB","hdg_t":72.5,"dist_nm":31.8,"freq":206,"lat":44.96077778,"lon":-83.56008333,"rng_nm":50,"alt_fmsl":0,"id":"AP","desc":"FELPS NDB"},
{"type":"VOR","hdg_t":173.4,"dist_nm":33.8,"freq":113.2,"lat":44.24291667,"lon":-84.18377778,"rng_nm":25,"alt_fmsl":884,"id":"BXZ","desc":"PEACH LAKE VOR-DME"},
{"type":"NDB","hdg_t":166.2,"dist_nm":34.3,"freq":236,"lat":44.24863100,"lon":-84.08388600,"rng_nm":25,"alt_fmsl":800,"id":"BHW","desc":"HARDWOOD NDB"},
{"type":"VOR","hdg_t":61,"dist_nm":34.8,"freq":108.8,"lat":45.08277778,"lon":-83.55700000,"rng_nm":40,"alt_fmsl":677,"id":"APN","desc":"ALPENA VORTAC"},
{"type":"NDB","hdg_t":308.4,"dist_nm":35.1,"freq":263,"lat":45.16670000,"lon":-84.92192200,"rng_nm":25,"alt_fmsl":707,"id":"BFA","desc":"BOYNE FALLS NDB"},
{"type":"NDB","hdg_t":28,"dist_nm":40.8,"freq":215,"lat":45.40425000,"lon":-83.81844444,"rng_nm":50,"alt_fmsl":0,"id":"PZQ","desc":"ROGERS CITY NDB"},
{"type":"NDB","hdg_t":278.2,"dist_nm":41.6,"freq":251,"lat":44.89938889,"lon":-85.23966667,"rng_nm":50,"alt_fmsl":0,"id":"CXK","desc":"CLAM LAKE NDB"},
{"type":"VOR","hdg_t":119.1,"dist_nm":43.2,"freq":116.1,"lat":44.44913889,"lon":-83.39427778,"rng_nm":130,"alt_fmsl":625,"id":"ASP","desc":"AU SABLE VOR-DME"},
{"type":"NDB","hdg_t":265.5,"dist_nm":49.5,"freq":365,"lat":44.73450000,"lon":-85.42927778,"rng_nm":50,"alt_fmsl":0,"id":"TV","desc":"GWENN NDB"},
{"type":"NDB","hdg_t":189.9,"dist_nm":50.7,"freq":209,"lat":43.97019444,"lon":-84.47516667,"rng_nm":50,"alt_fmsl":0,"id":"GDW","desc":"WIGGINS NDB"},
{"type":"NDB","hdg_t":305.5,"dist_nm":51.8,"freq":392,"lat":45.30180556,"lon":-85.27002778,"rng_nm":50,"alt_fmsl":0,"id":"CVX","desc":"CHARLEVOIX NDB"},
{"type":"VOR","hdg_t":341.6,"dist_nm":52.2,"freq":111.8,"lat":45.63063889,"lon":-84.66411111,"rng_nm":40,"alt_fmsl":840,"id":"PLN","desc":"PELLSTON VORTAC"},
{"type":"VOR","hdg_t":261.9,"dist_nm":55.1,"freq":114.6,"lat":44.66791667,"lon":-85.55002778,"rng_nm":130,"alt_fmsl":912,"id":"TVC","desc":"TRAVERSE CITY VORTAC"},
{"type":"NDB","hdg_t":238.5,"dist_nm":64.3,"freq":336,"lat":44.23708333,"lon":-85.54736111,"rng_nm":50,"alt_fmsl":0,"id":"MA","desc":"WEXOR NDB"},
{"type":"VOR","hdg_t":195.9,"dist_nm":73.6,"freq":110.6,"lat":43.62283333,"lon":-84.73727778,"rng_nm":40,"alt_fmsl":752,"id":"MOP","desc":"MOUNT PLEASANT VOR-DME"},
{"type":"NDB","hdg_t":314.8,"dist_nm":76.2,"freq":382,"lat":45.69333333,"lon":-85.55863889,"rng_nm":50,"alt_fmsl":0,"id":"SJX","desc":"ST JAMES NDB"},
{"type":"VOR","hdg_t":173.5,"dist_nm":76.8,"freq":112.9,"lat":43.53166667,"lon":-84.07730556,"rng_nm":40,"alt_fmsl":663,"id":"MBS","desc":"SAGINAW VOR-DME"},
{"type":"NDB","hdg_t":177,"dist_nm":80.6,"freq":257,"lat":43.46150000,"lon":-84.17983333,"rng_nm":50,"alt_fmsl":0,"id":"MB","desc":"OLSTE NDB"},
{"type":"VOR","hdg_t":137.3,"dist_nm":82.7,"freq":108.2,"lat":43.78366667,"lon":-82.98319444,"rng_nm":25,"alt_fmsl":766,"id":"BAX","desc":"BAD AXE VOR-DME"},
{"type":"NDB","hdg_t":248.9,"dist_nm":86.3,"freq":254,"lat":44.27075000,"lon":-86.14286111,"rng_nm":50,"alt_fmsl":0,"id":"MB","desc":"JEPOT NDB"},
{"type":"VOR","hdg_t":250,"dist_nm":90.8,"freq":111.4,"lat":44.27063889,"lon":-86.25405556,"rng_nm":40,"alt_fmsl":620,"id":"MBL","desc":"MANISTEE VOR-DME"},
{"type":"NDB","hdg_t":353,"dist_nm":92.4,"freq":400,"lat":46.33252778,"lon":-84.54247222,"rng_nm":50,"alt_fmsl":0,"id":"CI","desc":"KOLOE NDB"},
{"type":"VOR","hdg_t":358.9,"dist_nm":96.5,"freq":112.2,"lat":46.41211111,"lon":-84.31486111,"rng_nm":130,"alt_fmsl":687,"id":"SSM","desc":"SAULT STE MARIE VOR-DME"},
{"type":"VOR","hdg_t":220.6,"dist_nm":96.5,"freq":117.6,"lat":43.57486111,"lon":-85.71616667,"rng_nm":40,"alt_fmsl":920,"id":"HIC","desc":"WHITE CLOUD VOR-DME"},
{"type":"NDB","hdg_t":45.5,"dist_nm":97.3,"freq":245,"lat":45.92833333,"lon":-82.61527778,"rng_nm":50,"alt_fmsl":0,"id":"YZE","desc":"GORE BAY NDB"}
]
}
