{"success":true,"source":"xp2csv.pl","last_updated":"2013/11/08 14:53:21 UTC"
,"icao":"8NA3","name":"Haugen Airstrip","lat":48.36555444,"lon":-99.53930306,"rwys":1,"ils":0,"index":1319569,"path":"w100n40/w100n48"
,"runways":[
{"len_m":795,"wid_m":18.29,"hdg":98,"surf":"Turf/grass","rwy1":"09","lat1":48.36611227,"lon1":-99.54460424,"rwy2":"27","lat2":48.36499661,"lon2":-99.53400188}
]
,"navaids":[
{"type":"VOR","hdg_t":120.6,"dist_nm":29.2,"freq":111,"lat":48.11522222,"lon":-98.91250000,"rng_nm":40,"alt_fmsl":1448,"id":"DVL","desc":"DEVILS LAKE VOR-DME"},
{"type":"NDB","hdg_t":123.5,"dist_nm":35.5,"freq":332,"lat":48.03552778,"lon":-98.80383333,"rng_nm":50,"alt_fmsl":0,"id":"VK","desc":"VIKOR NDB"},
{"type":"VOR","hdg_t":265.4,"dist_nm":70.2,"freq":117.1,"lat":48.26033333,"lon":-101.28705556,"rng_nm":130,"alt_fmsl":1691,"id":"MOT","desc":"MINOT VORTAC"},
{"type":"SDME","hdg_t":273,"dist_nm":73.1,"freq":114.9,"lat":48.41537500,"lon":-101.36610600,"rng_nm":130,"alt_fmsl":1668,"id":"MIB","desc":"DEERING TACAN"},
{"type":"SDME","hdg_t":105.1,"dist_nm":89.1,"freq":116.4,"lat":47.95716700,"lon":-97.40583300,"rng_nm":130,"alt_fmsl":951,"id":"RDR","desc":"RED RIVER TACAN"},
{"type":"VOR","hdg_t":157.5,"dist_nm":92.8,"freq":114.5,"lat":46.93286111,"lon":-98.67877778,"rng_nm":40,"alt_fmsl":1493,"id":"JMS","desc":"JAMESTOWN VOR-DME"},
{"type":"VOR","hdg_t":350.3,"dist_nm":94.1,"freq":113.8,"lat":49.90988889,"lon":-99.94566667,"rng_nm":130,"alt_fmsl":1346,"id":"YBR","desc":"BRANDON VOR-DME"},
{"type":"NDB","hdg_t":347.3,"dist_nm":94.9,"freq":233,"lat":49.90802778,"lon":-100.07375000,"rng_nm":50,"alt_fmsl":0,"id":"BR","desc":"BRANDON NDB"},
{"type":"VOR","hdg_t":103.7,"dist_nm":97.7,"freq":114.3,"lat":47.95483333,"lon":-97.18536111,"rng_nm":130,"alt_fmsl":841,"id":"GFK","desc":"GRAND FORKS VOR-DME"},
{"type":"NDB","hdg_t":156.3,"dist_nm":98.2,"freq":395,"lat":46.86286111,"lon":-98.58072222,"rng_nm":50,"alt_fmsl":0,"id":"JM","desc":"SABON NDB"},
{"type":"NDB","hdg_t":107.3,"dist_nm":99.7,"freq":345,"lat":47.84638889,"lon":-97.18152778,"rng_nm":50,"alt_fmsl":0,"id":"GF","desc":"HISER NDB"}
]
}
