{"success":true,"source":"xp2csv.pl","last_updated":"2013/11/08 14:53:21 UTC"
,"icao":"8S2","name":"Cashmere-dryden","lat":47.51484611,"lon":-120.48480251,"rwys":1,"ils":0,"index":975458,"path":"w130n40/w121n47"
,"runways":[
{"len_m":550,"wid_m":15.24,"hdg":89,"surf":"Asphalt","rwy1":"07","lat1":47.51484611,"lon1":-120.48845766,"rwy2":"25","lat2":47.51484611,"lon2":-120.48114736}
]
,"navaids":[
{"type":"VOR","hdg_t":121.6,"dist_nm":13.1,"freq":111,"lat":47.39969444,"lon":-120.21086111,"rng_nm":40,"alt_fmsl":1224,"id":"EAT","desc":"WENATCHEE VOR-DME"},
{"type":"VOR","hdg_t":177.8,"dist_nm":29.4,"freq":117.9,"lat":47.02436111,"lon":-120.45841667,"rng_nm":130,"alt_fmsl":1770,"id":"ELN","desc":"ELLENSBURG VORTAC"},
{"type":"VOR","hdg_t":100.3,"dist_nm":43.9,"freq":112.6,"lat":47.37791667,"lon":-119.42400000,"rng_nm":130,"alt_fmsl":1250,"id":"EPH","desc":"EPHRATA VORTAC"},
{"type":"VOR","hdg_t":110.5,"dist_nm":51,"freq":115,"lat":47.21086111,"lon":-119.31680556,"rng_nm":130,"alt_fmsl":1194,"id":"MWH","desc":"MOSES LAKE VOR-DME"},
{"type":"NDB","hdg_t":115.4,"dist_nm":54.9,"freq":408,"lat":47.11572222,"lon":-119.27450000,"rng_nm":50,"alt_fmsl":0,"id":"MW","desc":"PELLY NDB"},
{"type":"VOR","hdg_t":178.3,"dist_nm":56.7,"freq":116,"lat":46.57025000,"lon":-120.44463889,"rng_nm":130,"alt_fmsl":984,"id":"YKM","desc":"YAKIMA VORTAC"},
{"type":"NDB","hdg_t":175.5,"dist_nm":59.5,"freq":371,"lat":46.52563889,"lon":-120.37219444,"rng_nm":50,"alt_fmsl":0,"id":"YK","desc":"DONNY NDB"},
{"type":"NDB","hdg_t":34.3,"dist_nm":68.5,"freq":219,"lat":48.45338889,"lon":-119.51700000,"rng_nm":50,"alt_fmsl":0,"id":"OMK","desc":"OMAK NDB"},
{"type":"NDB","hdg_t":269.6,"dist_nm":70.3,"freq":353,"lat":47.49544444,"lon":-122.21472222,"rng_nm":50,"alt_fmsl":0,"id":"RNT","desc":"RENTON NDB"},
{"type":"NDB","hdg_t":271.4,"dist_nm":74.1,"freq":281,"lat":47.53237700,"lon":-122.30695900,"rng_nm":50,"alt_fmsl":0,"id":"SZ","desc":"PARKK NDB"},
{"type":"VOR","hdg_t":266.9,"dist_nm":74.4,"freq":116.8,"lat":47.43536111,"lon":-122.30961111,"rng_nm":130,"alt_fmsl":354,"id":"SEA","desc":"SEATTLE VORTAC"},
{"type":"NDB","hdg_t":297.1,"dist_nm":75.4,"freq":382,"lat":48.07611111,"lon":-122.15391667,"rng_nm":50,"alt_fmsl":0,"id":"AW","desc":"WATON NDB"},
{"type":"VOR","hdg_t":289.1,"dist_nm":76.6,"freq":110.6,"lat":47.91983333,"lon":-122.27783333,"rng_nm":40,"alt_fmsl":670,"id":"PAE","desc":"PAINE VOR-DME"},
{"type":"NDB","hdg_t":275.9,"dist_nm":77.6,"freq":362,"lat":47.63252778,"lon":-122.38952778,"rng_nm":50,"alt_fmsl":0,"id":"BF","desc":"NOLLA NDB"},
{"type":"VOR","hdg_t":255.5,"dist_nm":84.1,"freq":109.6,"lat":47.14766667,"lon":-122.47502778,"rng_nm":25,"alt_fmsl":287,"id":"TCM","desc":"MCCHORD VORTAC"},
{"type":"NDB","hdg_t":143.2,"dist_nm":85.1,"freq":260,"lat":46.37047222,"lon":-119.25911111,"rng_nm":50,"alt_fmsl":0,"id":"RL","desc":"RIBOO NDB"},
{"type":"NDB","hdg_t":256.5,"dist_nm":89.2,"freq":216,"lat":47.15030556,"lon":-122.60463889,"rng_nm":50,"alt_fmsl":0,"id":"GRF","desc":"GRAYE NDB"},
{"type":"NDB","hdg_t":250.9,"dist_nm":89.9,"freq":328,"lat":47.00797222,"lon":-122.55641667,"rng_nm":50,"alt_fmsl":0,"id":"LAC","desc":"LACOMAS NDB"},
{"type":"NDB","hdg_t":269.9,"dist_nm":92.4,"freq":206,"lat":47.49230556,"lon":-122.75661111,"rng_nm":50,"alt_fmsl":0,"id":"PWT","desc":"KITSAP NDB"},
{"type":"NDB","hdg_t":138.8,"dist_nm":93,"freq":331,"lat":46.33813889,"lon":-119.01252778,"rng_nm":50,"alt_fmsl":0,"id":"PS","desc":"DUNEZ NDB"},
{"type":"VOR","hdg_t":142.6,"dist_nm":93.9,"freq":108.4,"lat":46.26297222,"lon":-119.11572222,"rng_nm":40,"alt_fmsl":404,"id":"PSC","desc":"PASCO VOR-DME"},
{"type":"NDB","hdg_t":267.1,"dist_nm":96,"freq":274,"lat":47.41058333,"lon":-122.83886111,"rng_nm":50,"alt_fmsl":0,"id":"CAN","desc":"CARNEY NDB"},
{"type":"NDB","hdg_t":307,"dist_nm":96.6,"freq":240,"lat":48.46861111,"lon":-122.41841667,"rng_nm":50,"alt_fmsl":0,"id":"BVS","desc":"SKAGIT/BAY VIEW NDB"}
]
}
