{"success":true,"source":"xp2csv.pl","last_updated":"2013/11/08 14:53:21 UTC"
,"icao":"8S4","name":"Enterprise Municipal","lat":45.42487305,"lon":-117.26489112,"rwys":1,"ils":0,"index":1024474,"path":"w120n40/w118n45"
,"runways":[
{"len_m":864,"wid_m":15.24,"hdg":137,"surf":"Asphalt","rwy1":"12","lat1":45.42775947,"lon1":-117.26859414,"rwy2":"30","lat2":45.42198663,"lon2":-117.26118810}
]
,"navaids":[
{"type":"NDB","hdg_t":260.7,"dist_nm":29.9,"freq":296,"lat":45.34250000,"lon":-117.96275000,"rng_nm":50,"alt_fmsl":0,"id":"LGD","desc":"LA GRANDE NDB"},
{"type":"VOR","hdg_t":213.5,"dist_nm":41.9,"freq":115.3,"lat":44.84061111,"lon":-117.80786111,"rng_nm":130,"alt_fmsl":3380,"id":"BKE","desc":"BAKER CITY VOR-DME"},
{"type":"VOR","hdg_t":312.9,"dist_nm":58.6,"freq":116.4,"lat":46.08697222,"lon":-118.29252778,"rng_nm":40,"alt_fmsl":1179,"id":"ALW","desc":"WALLA WALLA VOR-DME"},
{"type":"NDB","hdg_t":319.3,"dist_nm":59.6,"freq":353,"lat":46.17555556,"lon":-118.19636111,"rng_nm":50,"alt_fmsl":0,"id":"AL","desc":"TRINA NDB"},
{"type":"VOR","hdg_t":15.9,"dist_nm":59.7,"freq":108.2,"lat":46.38155556,"lon":-116.86950000,"rng_nm":40,"alt_fmsl":1723,"id":"MQG","desc":"NEZ PERCE VOR-DME"},
{"type":"VOR","hdg_t":130.8,"dist_nm":59.8,"freq":116.2,"lat":44.76711111,"lon":-116.20627778,"rng_nm":130,"alt_fmsl":7333,"id":"DNJ","desc":"DONNELLY VORTAC"},
{"type":"VOR","hdg_t":283.6,"dist_nm":72.4,"freq":114.7,"lat":45.69841667,"lon":-118.93869444,"rng_nm":130,"alt_fmsl":1559,"id":"PDT","desc":"PENDLETON VORTAC"},
{"type":"VOR","hdg_t":1.3,"dist_nm":75,"freq":109,"lat":46.67430556,"lon":-117.22350000,"rng_nm":40,"alt_fmsl":2720,"id":"PUW","desc":"PULLMAN VOR-DME"},
{"type":"NDB","hdg_t":172.4,"dist_nm":85,"freq":305,"lat":44.01975000,"lon":-117.00833333,"rng_nm":50,"alt_fmsl":0,"id":"ONO","desc":"ONTARIO NDB"},
{"type":"NDB","hdg_t":307.4,"dist_nm":91.4,"freq":331,"lat":46.33813889,"lon":-119.01252778,"rng_nm":50,"alt_fmsl":0,"id":"PS","desc":"DUNEZ NDB"},
{"type":"VOR","hdg_t":303.6,"dist_nm":92.4,"freq":108.4,"lat":46.26297222,"lon":-119.11572222,"rng_nm":40,"alt_fmsl":404,"id":"PSC","desc":"PASCO VOR-DME"}
]
}
