{"success":true,"source":"xp2csv.pl","last_updated":"2013/11/08 14:53:21 UTC"
,"icao":"8TA0","name":"John B Connally Ranch","lat":29.1358,"lon":-98.2764,"rwys":1,"ils":0,"index":1334730,"path":"w100n20/w099n29"
,"runways":[
{"len_m":1234,"wid_m":18.29,"hdg":110,"surf":"Asphalt","rwy1":"11","lat1":29.13770600,"lon1":-98.28236100,"rwy2":"29","lat2":29.13389400,"lon2":-98.27043900}
]
,"navaids":[
{"type":"VOR","hdg_t":309.9,"dist_nm":11.4,"freq":108.4,"lat":29.25838889,"lon":-98.44347222,"rng_nm":40,"alt_fmsl":0,"id":"SSF","desc":"STINSON VOR"},
{"type":"NDB","hdg_t":229.7,"dist_nm":16.7,"freq":275,"lat":28.95497200,"lon":-98.51862800,"rng_nm":25,"alt_fmsl":428,"id":"PEZ","desc":"PLEASANTON NDB"},
{"type":"SDME","hdg_t":313.8,"dist_nm":22.1,"freq":112,"lat":29.39158300,"lon":-98.58104700,"rng_nm":40,"alt_fmsl":687,"id":"KSY","desc":"KELLY TACAN"},
{"type":"VOR","hdg_t":358.8,"dist_nm":22.9,"freq":112.3,"lat":29.51916667,"lon":-98.28516667,"rng_nm":25,"alt_fmsl":772,"id":"RND","desc":"RANDOLPH VORTAC"},
{"type":"NDB","hdg_t":327.9,"dist_nm":23.9,"freq":219,"lat":29.47461400,"lon":-98.51861700,"rng_nm":25,"alt_fmsl":0,"id":"SA","desc":"BLUIE NDB"},
{"type":"SDME","hdg_t":1,"dist_nm":24,"freq":109.9,"lat":29.53694700,"lon":-98.26780300,"rng_nm":40,"alt_fmsl":773,"id":"DHK","desc":"RANDOLPH TACAN"},
{"type":"VOR","hdg_t":342.3,"dist_nm":31.9,"freq":116.8,"lat":29.64402778,"lon":-98.46130556,"rng_nm":130,"alt_fmsl":1160,"id":"SAT","desc":"SAN ANTONIO VORTAC"},
{"type":"NDB","hdg_t":331.5,"dist_nm":32.1,"freq":368,"lat":29.60758333,"lon":-98.56969444,"rng_nm":50,"alt_fmsl":0,"id":"AN","desc":"ALAMO NDB"},
{"type":"NDB","hdg_t":292.8,"dist_nm":32.5,"freq":338,"lat":29.34606900,"lon":-98.84919400,"rng_nm":25,"alt_fmsl":762,"id":"CVB","desc":"CASTROVILLE NDB"},
{"type":"NDB","hdg_t":270.4,"dist_nm":34.8,"freq":359,"lat":29.13833333,"lon":-98.93925000,"rng_nm":50,"alt_fmsl":0,"id":"HHH","desc":"DEVINE NDB"},
{"type":"VOR","hdg_t":169.9,"dist_nm":38.3,"freq":111.4,"lat":28.50500000,"lon":-98.15047222,"rng_nm":40,"alt_fmsl":270,"id":"THX","desc":"THREE RIVERS VORTAC"},
{"type":"VOR","hdg_t":285.3,"dist_nm":49,"freq":109.4,"lat":29.34911111,"lon":-99.17788889,"rng_nm":40,"alt_fmsl":947,"id":"HDO","desc":"HONDO VOR-DME"},
{"type":"NDB","hdg_t":287,"dist_nm":49.1,"freq":329,"lat":29.37341667,"lon":-99.17202778,"rng_nm":50,"alt_fmsl":0,"id":"HMA","desc":"HONDO NDB"},
{"type":"NDB","hdg_t":19.1,"dist_nm":52.1,"freq":272,"lat":29.95880556,"lon":-97.94897222,"rng_nm":50,"alt_fmsl":0,"id":"RU","desc":"GARYS NDB"},
{"type":"NDB","hdg_t":150.9,"dist_nm":52.4,"freq":284,"lat":28.36862500,"lon":-97.79542500,"rng_nm":25,"alt_fmsl":269,"id":"BEA","desc":"BEEVILLE NDB"},
{"type":"VOR","hdg_t":227.9,"dist_nm":59.9,"freq":115.8,"lat":28.46200000,"lon":-99.11852778,"rng_nm":40,"alt_fmsl":520,"id":"COT","desc":"COTULLA VORTAC"},
{"type":"NDB","hdg_t":320.7,"dist_nm":60.3,"freq":263,"lat":29.91500000,"lon":-99.00941667,"rng_nm":50,"alt_fmsl":0,"id":"ER","desc":"SHEIN NDB"},
{"type":"NDB","hdg_t":79.7,"dist_nm":60.6,"freq":350,"lat":29.31202778,"lon":-97.13863889,"rng_nm":50,"alt_fmsl":0,"id":"OKT","desc":"YOAKUM NDB"},
{"type":"NDB","hdg_t":28.6,"dist_nm":65.1,"freq":255,"lat":30.08972222,"lon":-97.67602778,"rng_nm":50,"alt_fmsl":0,"id":"BS","desc":"CREED NDB"},
{"type":"VOR","hdg_t":340.8,"dist_nm":67.9,"freq":113.8,"lat":30.20675000,"lon":-98.70575000,"rng_nm":130,"alt_fmsl":1530,"id":"STV","desc":"STONEWALL VORTAC"},
{"type":"VOR","hdg_t":314,"dist_nm":68,"freq":117.5,"lat":29.92233333,"lon":-99.21450000,"rng_nm":130,"alt_fmsl":2080,"id":"CSI","desc":"CENTER POINT VORTAC"},
{"type":"NDB","hdg_t":100.8,"dist_nm":68.3,"freq":226,"lat":28.91522222,"lon":-97.00047222,"rng_nm":50,"alt_fmsl":0,"id":"VC","desc":"FOSTR NDB"},
{"type":"VOR","hdg_t":101.3,"dist_nm":69.6,"freq":109,"lat":28.90030556,"lon":-96.97894444,"rng_nm":40,"alt_fmsl":125,"id":"VCT","desc":"VICTORIA VOR-DME"},
{"type":"NDB","hdg_t":27.1,"dist_nm":74,"freq":353,"lat":30.23568300,"lon":-97.62569700,"rng_nm":25,"alt_fmsl":0,"id":"AU","desc":"AUSTI NDB"},
{"type":"NDB","hdg_t":24.1,"dist_nm":75.6,"freq":232,"lat":30.28759400,"lon":-97.68183600,"rng_nm":25,"alt_fmsl":0,"id":"GF","desc":"BIRDY NDB"},
{"type":"NDB","hdg_t":272.2,"dist_nm":76.1,"freq":281,"lat":29.17772222,"lon":-99.72569444,"rng_nm":50,"alt_fmsl":0,"id":"UVA","desc":"UVALDE NDB"},
{"type":"NDB","hdg_t":131.9,"dist_nm":76.2,"freq":375,"lat":28.28000000,"lon":-97.20583333,"rng_nm":50,"alt_fmsl":0,"id":"MNO","desc":"MELLON RANCH NDB"},
{"type":"NDB","hdg_t":261.9,"dist_nm":83.9,"freq":223,"lat":28.92997222,"lon":-99.85477778,"rng_nm":50,"alt_fmsl":0,"id":"LKX","desc":"LA PRYOR NDB"},
{"type":"VOR","hdg_t":27.4,"dist_nm":83.9,"freq":112.8,"lat":30.37855556,"lon":-97.52986111,"rng_nm":130,"alt_fmsl":593,"id":"CWK","desc":"CENTEX VORTAC"},
{"type":"VOR","hdg_t":170.7,"dist_nm":84.6,"freq":114.5,"lat":27.73980556,"lon":-98.02133333,"rng_nm":40,"alt_fmsl":0,"id":"ALI","desc":"ALICE VOR"},
{"type":"VOR","hdg_t":149,"dist_nm":85.8,"freq":115.5,"lat":27.90377778,"lon":-97.44488889,"rng_nm":130,"alt_fmsl":60,"id":"CRP","desc":"CORPUS CHRISTI VORTAC"},
{"type":"NDB","hdg_t":108.6,"dist_nm":88.8,"freq":515,"lat":28.65089700,"lon":-96.68145800,"rng_nm":25,"alt_fmsl":26,"id":"PKV","desc":"PORT LAVACA NDB"},
{"type":"NDB","hdg_t":246.1,"dist_nm":89.5,"freq":343,"lat":28.52244444,"lon":-99.82727778,"rng_nm":50,"alt_fmsl":0,"id":"DMD","desc":"DIMMIT CO NDB"},
{"type":"NDB","hdg_t":133.6,"dist_nm":90.1,"freq":391,"lat":28.09050000,"lon":-97.04655556,"rng_nm":50,"alt_fmsl":0,"id":"RKP","desc":"ROCKPORT NDB"},
{"type":"NDB","hdg_t":47.3,"dist_nm":91.8,"freq":385,"lat":30.16952200,"lon":-96.97874400,"rng_nm":25,"alt_fmsl":464,"id":"GYB","desc":"LEE COUNTY NDB"},
{"type":"NDB","hdg_t":261.9,"dist_nm":91.9,"freq":385,"lat":28.90997222,"lon":-100.00561111,"rng_nm":50,"alt_fmsl":0,"id":"CPZ","desc":"CHAPARROSA RANCH NDB"},
{"type":"NDB","hdg_t":173.6,"dist_nm":92,"freq":347,"lat":27.60633333,"lon":-98.08586111,"rng_nm":50,"alt_fmsl":0,"id":"TKB","desc":"KLEBERG CO NDB"},
{"type":"NDB","hdg_t":1.2,"dist_nm":96,"freq":341,"lat":30.74027778,"lon":-98.23622222,"rng_nm":50,"alt_fmsl":0,"id":"BMQ","desc":"BURNET NDB"},
{"type":"NDB","hdg_t":18.4,"dist_nm":97.7,"freq":332,"lat":30.68438889,"lon":-97.67991667,"rng_nm":50,"alt_fmsl":0,"id":"GUO","desc":"GEORGETOWN NDB"}
]
}
