{"success":true,"source":"xp2csv.pl","last_updated":"2013/11/08 14:53:21 UTC"
,"icao":"8TX3","name":"Edwards","lat":31.34294305,"lon":-98.61559778,"rwys":2,"ils":0,"index":1334865,"path":"w100n30/w099n31"
,"runways":[
{"len_m":471,"wid_m":30.48,"hdg":177,"surf":"Turf/grass","rwy1":"17","lat1":31.34506756,"lon1":-98.61568465,"rwy2":"35","lat2":31.34081854,"lon2":-98.61551091},
{"len_m":412,"wid_m":33.53,"hdg":97,"surf":"Turf/grass","rwy1":"09","lat1":31.34320073,"lon1":-98.61774455,"rwy2":"27","lat2":31.34268537,"lon2":-98.61345101}
]
,"navaids":[
{"type":"VOR","hdg_t":111,"dist_nm":26.1,"freq":112.5,"lat":31.18550000,"lon":-98.14186111,"rng_nm":130,"alt_fmsl":1290,"id":"AGJ","desc":"GOOCH SPRINGS VORTAC"},
{"type":"NDB","hdg_t":55,"dist_nm":29.1,"freq":251,"lat":31.62150000,"lon":-98.14891667,"rng_nm":50,"alt_fmsl":0,"id":"MNZ","desc":"HAMILTON NDB"},
{"type":"VOR","hdg_t":195.1,"dist_nm":33.8,"freq":108.2,"lat":30.79633333,"lon":-98.78738889,"rng_nm":40,"alt_fmsl":1200,"id":"LLO","desc":"LLANO VORTAC"},
{"type":"VOR","hdg_t":332,"dist_nm":37.2,"freq":108.6,"lat":31.89258333,"lon":-98.95747222,"rng_nm":40,"alt_fmsl":1574,"id":"BWD","desc":"BROWNWOOD VOR-DME"},
{"type":"NDB","hdg_t":254.9,"dist_nm":37.6,"freq":380,"lat":31.17788889,"lon":-99.32258333,"rng_nm":50,"alt_fmsl":0,"id":"BBD","desc":"BRADY NDB"},
{"type":"NDB","hdg_t":105.2,"dist_nm":39.3,"freq":323,"lat":31.16783333,"lon":-97.87822222,"rng_nm":50,"alt_fmsl":0,"id":"GR","desc":"STARN NDB"},
{"type":"NDB","hdg_t":151.4,"dist_nm":41,"freq":341,"lat":30.74027778,"lon":-98.23622222,"rng_nm":50,"alt_fmsl":0,"id":"BMQ","desc":"BURNET NDB"},
{"type":"VOR","hdg_t":114,"dist_nm":45.2,"freq":111.8,"lat":31.03288889,"lon":-97.81377778,"rng_nm":25,"alt_fmsl":980,"id":"GRK","desc":"GRAY VOR-DME"},
{"type":"NDB","hdg_t":105.1,"dist_nm":48.2,"freq":347,"lat":31.12905556,"lon":-97.71141667,"rng_nm":50,"alt_fmsl":0,"id":"HLR","desc":"HOOD NDB"},
{"type":"NDB","hdg_t":306.5,"dist_nm":50.3,"freq":385,"lat":31.84125600,"lon":-99.40617500,"rng_nm":25,"alt_fmsl":88,"id":"COM","desc":"COLEMAN NDB"},
{"type":"NDB","hdg_t":111.9,"dist_nm":50.4,"freq":278,"lat":31.02411111,"lon":-97.70813889,"rng_nm":50,"alt_fmsl":0,"id":"IL","desc":"IRESH NDB"},
{"type":"VOR","hdg_t":37.4,"dist_nm":61.7,"freq":115,"lat":32.15958333,"lon":-97.87769444,"rng_nm":40,"alt_fmsl":1300,"id":"JEN","desc":"GLEN ROSE VORTAC"},
{"type":"VOR","hdg_t":97.1,"dist_nm":61.7,"freq":110.4,"lat":31.20933333,"lon":-97.42497222,"rng_nm":40,"alt_fmsl":710,"id":"TPL","desc":"TEMPLE VOR-DME"},
{"type":"NDB","hdg_t":129,"dist_nm":62.3,"freq":332,"lat":30.68438889,"lon":-97.67991667,"rng_nm":50,"alt_fmsl":0,"id":"GUO","desc":"GEORGETOWN NDB"},
{"type":"NDB","hdg_t":351.1,"dist_nm":63.9,"freq":410,"lat":32.39847222,"lon":-98.81033333,"rng_nm":50,"alt_fmsl":0,"id":"OIP","desc":"OLD RIP NDB"},
{"type":"VOR","hdg_t":183.9,"dist_nm":68.1,"freq":113.8,"lat":30.20675000,"lon":-98.70575000,"rng_nm":130,"alt_fmsl":1530,"id":"STV","desc":"STONEWALL VORTAC"},
{"type":"VOR","hdg_t":74.1,"dist_nm":71.6,"freq":115.3,"lat":31.66233333,"lon":-97.26902778,"rng_nm":130,"alt_fmsl":510,"id":"ACT","desc":"WACO VORTAC"},
{"type":"NDB","hdg_t":286.5,"dist_nm":72.5,"freq":239,"lat":31.68047222,"lon":-99.97491667,"rng_nm":50,"alt_fmsl":0,"id":"UBC","desc":"BALLINGER NDB"},
{"type":"VOR","hdg_t":234.5,"dist_nm":76.3,"freq":116,"lat":30.59802778,"lon":-99.81752778,"rng_nm":130,"alt_fmsl":2280,"id":"JCT","desc":"JUNCTION VORTAC"},
{"type":"NDB","hdg_t":316.8,"dist_nm":78.7,"freq":353,"lat":32.29888889,"lon":-99.67419444,"rng_nm":50,"alt_fmsl":0,"id":"AB","desc":"TOMHI NDB"},
{"type":"NDB","hdg_t":142.3,"dist_nm":79.4,"freq":232,"lat":30.28759400,"lon":-97.68183600,"rng_nm":25,"alt_fmsl":0,"id":"GF","desc":"BIRDY NDB"},
{"type":"NDB","hdg_t":82.6,"dist_nm":79.9,"freq":400,"lat":31.50380556,"lon":-97.06958333,"rng_nm":50,"alt_fmsl":0,"id":"ROB","desc":"ROBINSON NDB"},
{"type":"VOR","hdg_t":135.5,"dist_nm":80.4,"freq":112.8,"lat":30.37855556,"lon":-97.52986111,"rng_nm":130,"alt_fmsl":593,"id":"CWK","desc":"CENTEX VORTAC"},
{"type":"VOR","hdg_t":311.3,"dist_nm":81.4,"freq":111.6,"lat":32.23575000,"lon":-99.81677778,"rng_nm":40,"alt_fmsl":2018,"id":"TQA","desc":"TUSCOLA VOR-DME"},
{"type":"NDB","hdg_t":72.7,"dist_nm":82.3,"freq":378,"lat":31.74091667,"lon":-97.07816667,"rng_nm":50,"alt_fmsl":0,"id":"CN","desc":"LEROI NDB"},
{"type":"NDB","hdg_t":142,"dist_nm":83.7,"freq":353,"lat":30.23568300,"lon":-97.62569700,"rng_nm":25,"alt_fmsl":0,"id":"AU","desc":"AUSTI NDB"},
{"type":"NDB","hdg_t":350.5,"dist_nm":85.2,"freq":245,"lat":32.74734400,"lon":-98.89117800,"rng_nm":25,"alt_fmsl":1226,"id":"BKD","desc":"BRECKENRIDGE NDB"},
{"type":"NDB","hdg_t":193.5,"dist_nm":87.8,"freq":263,"lat":29.91500000,"lon":-99.00941667,"rng_nm":50,"alt_fmsl":0,"id":"ER","desc":"SHEIN NDB"},
{"type":"VOR","hdg_t":20.6,"dist_nm":88.6,"freq":117.7,"lat":32.72619444,"lon":-97.99744444,"rng_nm":130,"alt_fmsl":900,"id":"MQP","desc":"MILLSAP VORTAC"},
{"type":"NDB","hdg_t":146.8,"dist_nm":89.3,"freq":255,"lat":30.08972222,"lon":-97.67602778,"rng_nm":50,"alt_fmsl":0,"id":"BS","desc":"CREED NDB"},
{"type":"NDB","hdg_t":157.2,"dist_nm":89.7,"freq":272,"lat":29.95880556,"lon":-97.94897222,"rng_nm":50,"alt_fmsl":0,"id":"RU","desc":"GARYS NDB"},
{"type":"VOR","hdg_t":200.1,"dist_nm":90.5,"freq":117.5,"lat":29.92233333,"lon":-99.21450000,"rng_nm":130,"alt_fmsl":2080,"id":"CSI","desc":"CENTER POINT VORTAC"},
{"type":"NDB","hdg_t":18,"dist_nm":90.9,"freq":266,"lat":32.78512800,"lon":-98.05726700,"rng_nm":25,"alt_fmsl":972,"id":"MWL","desc":"MINERAL WELLS NDB"},
{"type":"VOR","hdg_t":317.2,"dist_nm":93.3,"freq":113.7,"lat":32.48133333,"lon":-99.86344444,"rng_nm":130,"alt_fmsl":1810,"id":"ABI","desc":"ABILENE VORTAC"},
{"type":"VOR","hdg_t":271.6,"dist_nm":94.5,"freq":115.1,"lat":31.37494444,"lon":-100.45486111,"rng_nm":130,"alt_fmsl":1890,"id":"SJT","desc":"SAN ANGELO VORTAC"},
{"type":"NDB","hdg_t":6,"dist_nm":96.8,"freq":280,"lat":32.95150000,"lon":-98.41311111,"rng_nm":50,"alt_fmsl":0,"id":"GZV","desc":"BRAZOS RIVER NDB"}
]
}
