{"success":true,"source":"xp2csv.pl","last_updated":"2013/11/08 14:53:21 UTC"
,"icao":"8U4","name":"Spotted Bear Usfs","lat":47.95828083,"lon":-113.55925556,"rwys":1,"ils":0,"index":1090169,"path":"w120n40/w114n47"
,"runways":[
{"len_m":1159,"wid_m":23.77,"hdg":157,"surf":"Turf/grass","rwy1":"14","lat1":47.96311300,"lon1":-113.56217090,"rwy2":"32","lat2":47.95344866,"lon2":-113.55634022}
]
,"navaids":[
{"type":"VOR","hdg_t":301.9,"dist_nm":29.1,"freq":113.2,"lat":48.21411111,"lon":-114.17588889,"rng_nm":130,"alt_fmsl":2984,"id":"FCA","desc":"KALISPELL VOR-DME"},
{"type":"NDB","hdg_t":284.2,"dist_nm":37.4,"freq":515,"lat":48.10827778,"lon":-114.46125000,"rng_nm":50,"alt_fmsl":0,"id":"SAK","desc":"SMITH LAKE NDB"},
{"type":"NDB","hdg_t":97.7,"dist_nm":56.6,"freq":269,"lat":47.82247222,"lon":-112.17102778,"rng_nm":50,"alt_fmsl":0,"id":"CII","desc":"CHOTEAU NDB"},
{"type":"VOR","hdg_t":52.7,"dist_nm":60.8,"freq":114.4,"lat":48.56491667,"lon":-112.34325000,"rng_nm":40,"alt_fmsl":3780,"id":"CTB","desc":"CUT BANK VORTAC"},
{"type":"NDB","hdg_t":213.5,"dist_nm":62,"freq":521,"lat":47.09436111,"lon":-114.39677778,"rng_nm":50,"alt_fmsl":0,"id":"INE","desc":"KONNA NDB"},
{"type":"VOR","hdg_t":198.9,"dist_nm":66.5,"freq":112.8,"lat":46.90797222,"lon":-114.08363889,"rng_nm":40,"alt_fmsl":3202,"id":"MSO","desc":"MISSOULA VOR-DME"},
{"type":"NDB","hdg_t":77.7,"dist_nm":67.5,"freq":293,"lat":48.18561111,"lon":-111.91413889,"rng_nm":50,"alt_fmsl":0,"id":"CRD","desc":"CONRAD NDB"},
{"type":"NDB","hdg_t":62.1,"dist_nm":76.5,"freq":347,"lat":48.54097222,"lon":-111.86241667,"rng_nm":50,"alt_fmsl":0,"id":"SBX","desc":"SHELBY NDB"},
{"type":"NDB","hdg_t":285.6,"dist_nm":80.5,"freq":414,"lat":48.30444444,"lon":-115.49527778,"rng_nm":50,"alt_fmsl":0,"id":"LYI","desc":"LIBBY NDB"},
{"type":"VOR","hdg_t":169,"dist_nm":80.8,"freq":117.1,"lat":46.63609700,"lon":-113.18659400,"rng_nm":40,"alt_fmsl":4150,"id":"DRU","desc":"DRUMMOND VOR"},
{"type":"NDB","hdg_t":198.1,"dist_nm":83.4,"freq":275,"lat":46.63609700,"lon":-114.18789400,"rng_nm":50,"alt_fmsl":2936,"id":"PLS","desc":"POLSON NDB"},
{"type":"NDB","hdg_t":315.3,"dist_nm":85.8,"freq":392,"lat":48.96597222,"lon":-115.08433333,"rng_nm":50,"alt_fmsl":0,"id":"EUR","desc":"EUREKA NDB"},
{"type":"VOR","hdg_t":251.1,"dist_nm":89.7,"freq":117.8,"lat":47.45691667,"lon":-115.64605556,"rng_nm":130,"alt_fmsl":6100,"id":"MLP","desc":"MULLAN PASS VOR-DME"},
{"type":"VOR","hdg_t":108.5,"dist_nm":92.2,"freq":115.1,"lat":47.44997222,"lon":-111.41216667,"rng_nm":130,"alt_fmsl":3672,"id":"GTF","desc":"GREAT FALLS VORTAC"},
{"type":"NDB","hdg_t":349.6,"dist_nm":95.5,"freq":311,"lat":49.52333300,"lon":-113.99861100,"rng_nm":25,"alt_fmsl":0,"id":"9Y","desc":"PINCHER CREEK NDB"},
{"type":"NDB","hdg_t":111,"dist_nm":95.5,"freq":371,"lat":47.36588889,"lon":-111.37286111,"rng_nm":50,"alt_fmsl":0,"id":"ITU","desc":"TRULY NDB"}
]
}
