{"success":true,"source":"xp2csv.pl","last_updated":"2013/11/08 14:53:21 UTC"
,"icao":"8V6","name":"Dove Creek","lat":37.7638775,"lon":-108.88871695,"rwys":1,"ils":0,"index":1171440,"path":"w110n30/w109n37"
,"runways":[
{"len_m":1279,"wid_m":15.24,"hdg":23,"surf":"Dirt","rwy1":"01","lat1":37.75857515,"lon1":-108.89156400,"rwy2":"19","lat2":37.76917985,"lon2":-108.88586990}
]
,"navaids":[
{"type":"VOR","hdg_t":323,"dist_nm":3.3,"freq":114.6,"lat":37.80875000,"lon":-108.93127778,"rng_nm":130,"alt_fmsl":6990,"id":"DVC","desc":"DOVE CREEK VORTAC"},
{"type":"VOR","hdg_t":145,"dist_nm":27.3,"freq":108.4,"lat":37.38986111,"lon":-108.56175000,"rng_nm":40,"alt_fmsl":6223,"id":"CEZ","desc":"CORTEZ VOR-DME"},
{"type":"NDB","hdg_t":27.9,"dist_nm":32.5,"freq":375,"lat":38.24276800,"lon":-108.56675800,"rng_nm":25,"alt_fmsl":5936,"id":"HPL","desc":"HOPKINS NDB"},
{"type":"VOR","hdg_t":60.8,"dist_nm":34.2,"freq":110.2,"lat":38.04025000,"lon":-108.25858333,"rng_nm":40,"alt_fmsl":8460,"id":"ETL","desc":"CONES VOR-DME"},
{"type":"VOR","hdg_t":46.1,"dist_nm":64.6,"freq":117.1,"lat":38.50644444,"lon":-107.89927778,"rng_nm":130,"alt_fmsl":5713,"id":"MTJ","desc":"MONTROSE VOR-DME"},
{"type":"VOR","hdg_t":123.5,"dist_nm":65.5,"freq":108.2,"lat":37.15325000,"lon":-107.74961111,"rng_nm":40,"alt_fmsl":6660,"id":"DRO","desc":"DURANGO VOR-DME"},
{"type":"VOR","hdg_t":147.8,"dist_nm":71.6,"freq":115.3,"lat":36.74838889,"lon":-108.09888889,"rng_nm":130,"alt_fmsl":5823,"id":"RSK","desc":"RATTLESNAKE VORTAC"},
{"type":"VOR","hdg_t":325.9,"dist_nm":72,"freq":109.8,"lat":38.75625000,"lon":-109.74927778,"rng_nm":25,"alt_fmsl":4542,"id":"OAB","desc":"MOAB VOR-DME"},
{"type":"VOR","hdg_t":3.3,"dist_nm":77.7,"freq":112.4,"lat":39.05955556,"lon":-108.79258333,"rng_nm":130,"alt_fmsl":7100,"id":"JNC","desc":"GRAND JUNCTION VOR-DME"},
{"type":"VOR","hdg_t":295,"dist_nm":94.2,"freq":115.9,"lat":38.41680556,"lon":-110.69972222,"rng_nm":130,"alt_fmsl":4430,"id":"HVE","desc":"HANKSVILLE VORTAC"},
{"type":"VOR","hdg_t":64.2,"dist_nm":96.7,"freq":114.9,"lat":38.45216667,"lon":-107.03980556,"rng_nm":130,"alt_fmsl":8730,"id":"HBU","desc":"BLUE MESA VOR-DME"}
]
}
