{"success":true,"source":"xp2csv.pl","last_updated":"2013/11/08 14:53:21 UTC"
,"icao":"93WA","name":"Harris","lat":47.44793916,"lon":-117.80633001,"rwys":1,"ils":0,"index":1024600,"path":"w120n40/w118n47"
,"runways":[
{"len_m":764,"wid_m":6.10,"hdg":59,"surf":"Turf/grass","rwy1":"04","lat1":47.44617324,"lon1":-117.81067596,"rwy2":"22","lat2":47.44970508,"lon2":-117.80198406}
]
,"navaids":[
{"type":"VOR","hdg_t":46,"dist_nm":10.1,"freq":115.5,"lat":47.56494444,"lon":-117.62688889,"rng_nm":130,"alt_fmsl":2756,"id":"GEG","desc":"SPOKANE VORTAC"},
{"type":"SDME","hdg_t":30.8,"dist_nm":11.3,"freq":111.4,"lat":47.61069400,"lon":-117.66230300,"rng_nm":40,"alt_fmsl":2460,"id":"SKA","desc":"FAIRCHILD TACAN"},
{"type":"NDB","hdg_t":46.3,"dist_nm":19.9,"freq":388,"lat":47.67700000,"lon":-117.45019444,"rng_nm":50,"alt_fmsl":0,"id":"CRK","desc":"CANYON NDB"},
{"type":"NDB","hdg_t":26.1,"dist_nm":34.7,"freq":365,"lat":47.96775000,"lon":-117.42633333,"rng_nm":50,"alt_fmsl":0,"id":"DPY","desc":"DEER PARK NDB"},
{"type":"NDB","hdg_t":62.4,"dist_nm":38.6,"freq":347,"lat":47.74286111,"lon":-116.96100000,"rng_nm":50,"alt_fmsl":0,"id":"LEN","desc":"POST FALLS NDB"},
{"type":"VOR","hdg_t":63.5,"dist_nm":44.5,"freq":108.8,"lat":47.77369444,"lon":-116.82058333,"rng_nm":25,"alt_fmsl":2320,"id":"COE","desc":"COEUR D'ALENE VOR-DME"},
{"type":"VOR","hdg_t":152.5,"dist_nm":52.2,"freq":109,"lat":46.67430556,"lon":-117.22350000,"rng_nm":40,"alt_fmsl":2720,"id":"PUW","desc":"PULLMAN VOR-DME"},
{"type":"NDB","hdg_t":252.1,"dist_nm":63.2,"freq":408,"lat":47.11572222,"lon":-119.27450000,"rng_nm":50,"alt_fmsl":0,"id":"MW","desc":"PELLY NDB"},
{"type":"VOR","hdg_t":257.5,"dist_nm":63.2,"freq":115,"lat":47.21086111,"lon":-119.31680556,"rng_nm":130,"alt_fmsl":1194,"id":"MWH","desc":"MOSES LAKE VOR-DME"},
{"type":"VOR","hdg_t":266.9,"dist_nm":66,"freq":112.6,"lat":47.37791667,"lon":-119.42400000,"rng_nm":130,"alt_fmsl":1250,"id":"EPH","desc":"EPHRATA VORTAC"},
{"type":"NDB","hdg_t":44.3,"dist_nm":71.2,"freq":264,"lat":48.29063889,"lon":-116.56322222,"rng_nm":50,"alt_fmsl":0,"id":"SZT","desc":"SANDPOE NDB"},
{"type":"VOR","hdg_t":148.6,"dist_nm":74.7,"freq":108.2,"lat":46.38155556,"lon":-116.86950000,"rng_nm":40,"alt_fmsl":1723,"id":"MQG","desc":"NEZ PERCE VOR-DME"},
{"type":"NDB","hdg_t":11.6,"dist_nm":77.4,"freq":379,"lat":48.71019444,"lon":-117.41358333,"rng_nm":50,"alt_fmsl":0,"id":"ION","desc":"IONE NDB"},
{"type":"NDB","hdg_t":192,"dist_nm":78,"freq":353,"lat":46.17555556,"lon":-118.19636111,"rng_nm":50,"alt_fmsl":0,"id":"AL","desc":"TRINA NDB"},
{"type":"NDB","hdg_t":217.1,"dist_nm":83,"freq":331,"lat":46.33813889,"lon":-119.01252778,"rng_nm":50,"alt_fmsl":0,"id":"PS","desc":"DUNEZ NDB"},
{"type":"VOR","hdg_t":193.9,"dist_nm":84.1,"freq":116.4,"lat":46.08697222,"lon":-118.29252778,"rng_nm":40,"alt_fmsl":1179,"id":"ALW","desc":"WALLA WALLA VOR-DME"},
{"type":"VOR","hdg_t":88.8,"dist_nm":87.9,"freq":117.8,"lat":47.45691667,"lon":-115.64605556,"rng_nm":130,"alt_fmsl":6100,"id":"MLP","desc":"MULLAN PASS VOR-DME"},
{"type":"NDB","hdg_t":223.2,"dist_nm":88,"freq":260,"lat":46.37047222,"lon":-119.25911111,"rng_nm":50,"alt_fmsl":0,"id":"RL","desc":"RIBOO NDB"},
{"type":"VOR","hdg_t":217.6,"dist_nm":89.2,"freq":108.4,"lat":46.26297222,"lon":-119.11572222,"rng_nm":40,"alt_fmsl":404,"id":"PSC","desc":"PASCO VOR-DME"},
{"type":"NDB","hdg_t":311.8,"dist_nm":91.6,"freq":219,"lat":48.45338889,"lon":-119.51700000,"rng_nm":50,"alt_fmsl":0,"id":"OMK","desc":"OMAK NDB"},
{"type":"NDB","hdg_t":345.5,"dist_nm":97.4,"freq":250,"lat":49.01750000,"lon":-118.42361111,"rng_nm":50,"alt_fmsl":0,"id":"2J","desc":"GRAND FORKS NDB"},
{"type":"VOR","hdg_t":269.1,"dist_nm":98,"freq":111,"lat":47.39969444,"lon":-120.21086111,"rng_nm":40,"alt_fmsl":1224,"id":"EAT","desc":"WENATCHEE VOR-DME"}
]
}
