{"success":true,"source":"xp2csv.pl","last_updated":"2013/11/08 14:53:21 UTC"
,"icao":"95FD","name":"South Point","lat":26.76833333,"lon":-81.53888889,"rwys":1,"ils":0,"index":1613105,"path":"w090n20/w082n26"
,"runways":[
{"len_m":565,"wid_m":30.48,"hdg":87,"surf":"Turf/grass","rwy1":"09","lat1":26.76820054,"lon1":-81.54172679,"rwy2":"27","lat2":26.76846612,"lon2":-81.53605099}
]
,"navaids":[
{"type":"VOR","hdg_t":65.6,"dist_nm":8.6,"freq":110.4,"lat":26.82816667,"lon":-81.39144444,"rng_nm":40,"alt_fmsl":30,"id":"LBV","desc":"LA BELLE VORTAC"},
{"type":"VOR","hdg_t":221.8,"dist_nm":19.1,"freq":111.8,"lat":26.52988889,"lon":-81.77577778,"rng_nm":40,"alt_fmsl":25,"id":"RSW","desc":"LEE CO VORTAC"},
{"type":"NDB","hdg_t":223.1,"dist_nm":23.2,"freq":336,"lat":26.48433333,"lon":-81.83461111,"rng_nm":50,"alt_fmsl":0,"id":"RS","desc":"MUFFE NDB"},
{"type":"VOR","hdg_t":290.1,"dist_nm":25.8,"freq":110.2,"lat":26.91677778,"lon":-81.99125000,"rng_nm":25,"alt_fmsl":0,"id":"PGD","desc":"PUNTA GORDA VOR"},
{"type":"NDB","hdg_t":235.7,"dist_nm":26.7,"freq":341,"lat":26.51613889,"lon":-81.95027778,"rng_nm":50,"alt_fmsl":0,"id":"FM","desc":"CALOO NDB"},
{"type":"VOR","hdg_t":199.3,"dist_nm":38.9,"freq":108.6,"lat":26.15341667,"lon":-81.77811111,"rng_nm":25,"alt_fmsl":10,"id":"CYY","desc":"CYPRESS VOR-DME"},
{"type":"VOR","hdg_t":88.7,"dist_nm":45.5,"freq":115.4,"lat":26.78275000,"lon":-80.69144444,"rng_nm":130,"alt_fmsl":16,"id":"PHK","desc":"PAHOKEE VORTAC"},
{"type":"NDB","hdg_t":337.5,"dist_nm":48,"freq":261,"lat":27.51000000,"lon":-81.88333300,"rng_nm":25,"alt_fmsl":104,"id":"CHN","desc":"WAUCHULA NDB"},
{"type":"NDB","hdg_t":290.3,"dist_nm":50.9,"freq":206,"lat":27.06144444,"lon":-82.43058333,"rng_nm":50,"alt_fmsl":0,"id":"VNC","desc":"VENICE NDB"},
{"type":"NDB","hdg_t":303.8,"dist_nm":60.4,"freq":245,"lat":27.32822222,"lon":-82.47844444,"rng_nm":50,"alt_fmsl":0,"id":"SR","desc":"RINGY NDB"},
{"type":"NDB","hdg_t":152.1,"dist_nm":61.2,"freq":227,"lat":25.86183333,"lon":-81.01102778,"rng_nm":50,"alt_fmsl":0,"id":"TN","desc":"MONRY NDB"},
{"type":"NDB","hdg_t":82.3,"dist_nm":65.1,"freq":405,"lat":26.90897222,"lon":-80.33505556,"rng_nm":50,"alt_fmsl":0,"id":"UTX","desc":"UNITED NDB"},
{"type":"VOR","hdg_t":304.9,"dist_nm":66.1,"freq":115.2,"lat":27.39776100,"lon":-82.55426900,"rng_nm":130,"alt_fmsl":20,"id":"SRQ","desc":"SARASOTA VORTAC"},
{"type":"VOR","hdg_t":305,"dist_nm":66.8,"freq":117,"lat":27.40702778,"lon":-82.56363889,"rng_nm":130,"alt_fmsl":20,"id":"SRQ","desc":"SARASOTA VORTAC"},
{"type":"DME","hdg_t":86,"dist_nm":70.7,"freq":110.75,"lat":26.84356853,"lon":-80.22387209,"rng_nm":18,"alt_fmsl":22,"id":"IGHO","desc":"F45 08R DME-ILS"},
{"type":"NDB","hdg_t":52.3,"dist_nm":71.7,"freq":338,"lat":27.49691667,"lon":-80.47427778,"rng_nm":50,"alt_fmsl":0,"id":"FJ","desc":"LUUCE NDB"},
{"type":"NDB","hdg_t":117.2,"dist_nm":75.3,"freq":221,"lat":26.18563889,"lon":-80.29850000,"rng_nm":50,"alt_fmsl":0,"id":"FX","desc":"PRAIZ NDB"},
{"type":"NDB","hdg_t":337.7,"dist_nm":75.4,"freq":227,"lat":27.93538889,"lon":-82.07580556,"rng_nm":50,"alt_fmsl":0,"id":"LA","desc":"WIREY NDB"},
{"type":"NDB","hdg_t":55.1,"dist_nm":75.7,"freq":275,"lat":27.48672222,"lon":-80.37327778,"rng_nm":50,"alt_fmsl":0,"id":"FPR","desc":"FORT PIERCE NDB"},
{"type":"VOR","hdg_t":340.9,"dist_nm":77.1,"freq":116,"lat":27.98619444,"lon":-82.01388889,"rng_nm":130,"alt_fmsl":135,"id":"LAL","desc":"LAKELAND VORTAC"},
{"type":"VOR","hdg_t":45.6,"dist_nm":78.1,"freq":117.3,"lat":27.67841667,"lon":-80.48972222,"rng_nm":130,"alt_fmsl":11,"id":"VRB","desc":"VERO BEACH VORTAC"},
{"type":"VOR","hdg_t":93.5,"dist_nm":78.2,"freq":115.7,"lat":26.68005556,"lon":-80.08650000,"rng_nm":130,"alt_fmsl":16,"id":"PBI","desc":"PALM BEACH VORTAC"},
{"type":"SDME","hdg_t":321.6,"dist_nm":83.5,"freq":111,"lat":27.86115300,"lon":-82.51350300,"rng_nm":40,"alt_fmsl":14,"id":"MCF","desc":"MACDILL TACAN"},
{"type":"NDB","hdg_t":320.7,"dist_nm":84.6,"freq":388,"lat":27.86119444,"lon":-82.54580556,"rng_nm":50,"alt_fmsl":0,"id":"AM","desc":"PICNY (LOM/NDB) NDB"},
{"type":"VOR","hdg_t":118.9,"dist_nm":84.9,"freq":116.5,"lat":26.07416667,"lon":-80.16297222,"rng_nm":130,"alt_fmsl":12,"id":"FLL","desc":"FORT LAUDERDALE VOR-DME"},
{"type":"VOR","hdg_t":131.8,"dist_nm":86.4,"freq":113.9,"lat":25.79997222,"lon":-80.34902778,"rng_nm":130,"alt_fmsl":7,"id":"DHP","desc":"DOLPHIN VORTAC"},
{"type":"NDB","hdg_t":140.1,"dist_nm":87.5,"freq":266,"lat":25.64166667,"lon":-80.50483333,"rng_nm":50,"alt_fmsl":0,"id":"TM","desc":"QEEZY NDB"},
{"type":"NDB","hdg_t":29.1,"dist_nm":91.3,"freq":257,"lat":28.09947222,"lon":-80.70080556,"rng_nm":50,"alt_fmsl":0,"id":"SQT","desc":"SATELLITE NDB"},
{"type":"VOR","hdg_t":318.3,"dist_nm":91.6,"freq":116.4,"lat":27.90777778,"lon":-82.68430556,"rng_nm":130,"alt_fmsl":9,"id":"PIE","desc":"ST PETERSBURG VORTAC"},
{"type":"NDB","hdg_t":128.5,"dist_nm":93.1,"freq":248,"lat":25.79069444,"lon":-80.19419444,"rng_nm":50,"alt_fmsl":0,"id":"MI","desc":"KEYES NDB"},
{"type":"NDB","hdg_t":339.4,"dist_nm":93.3,"freq":253,"lat":28.22708333,"lon":-82.15705556,"rng_nm":50,"alt_fmsl":0,"id":"RHZ","desc":"ZEPHYRHILLS NDB"},
{"type":"VOR","hdg_t":30.8,"dist_nm":93.4,"freq":110,"lat":28.10527778,"lon":-80.63533333,"rng_nm":40,"alt_fmsl":30,"id":"MLB","desc":"MELBOURNE VOR-DME"},
{"type":"NDB","hdg_t":326.4,"dist_nm":94.7,"freq":368,"lat":28.08527778,"lon":-82.52525000,"rng_nm":50,"alt_fmsl":0,"id":"TP","desc":"COSME NDB"},
{"type":"NDB","hdg_t":319.9,"dist_nm":96.2,"freq":360,"lat":27.99511111,"lon":-82.70386111,"rng_nm":50,"alt_fmsl":0,"id":"PI","desc":"CAPOK NDB"},
{"type":"VOR","hdg_t":128.8,"dist_nm":96.3,"freq":117.1,"lat":25.75188889,"lon":-80.15444444,"rng_nm":130,"alt_fmsl":12,"id":"VKZ","desc":"VIRGINIA KEY VOR-DME"},
{"type":"SDME","hdg_t":140.4,"dist_nm":98.8,"freq":108.2,"lat":25.48952800,"lon":-80.37944400,"rng_nm":40,"alt_fmsl":53,"id":"HST","desc":"HOMESTEAD TACAN"}
]
}
