{"success":true,"source":"xp2csv.pl","last_updated":"2013/11/08 14:53:21 UTC"
,"icao":"95WA","name":"Black Diamond","lat":47.31565638,"lon":-122.00983584,"rwys":1,"ils":0,"index":942675,"path":"w130n40/w123n47"
,"runways":[
{"len_m":640,"wid_m":12.19,"hdg":200,"surf":"Asphalt","rwy1":"18","lat1":47.31836282,"lon1":-122.00838286,"rwy2":"36","lat2":47.31294994,"lon2":-122.01128882}
]
,"navaids":[
{"type":"NDB","hdg_t":322.3,"dist_nm":13.6,"freq":353,"lat":47.49544444,"lon":-122.21472222,"rng_nm":50,"alt_fmsl":0,"id":"RNT","desc":"RENTON NDB"},
{"type":"VOR","hdg_t":300.5,"dist_nm":14.1,"freq":116.8,"lat":47.43536111,"lon":-122.30961111,"rng_nm":130,"alt_fmsl":354,"id":"SEA","desc":"SEATTLE VORTAC"},
{"type":"NDB","hdg_t":317.1,"dist_nm":17.7,"freq":281,"lat":47.53237700,"lon":-122.30695900,"rng_nm":50,"alt_fmsl":0,"id":"SZ","desc":"PARKK NDB"},
{"type":"VOR","hdg_t":242.2,"dist_nm":21.5,"freq":109.6,"lat":47.14766667,"lon":-122.47502778,"rng_nm":25,"alt_fmsl":287,"id":"TCM","desc":"MCCHORD VORTAC"},
{"type":"NDB","hdg_t":321,"dist_nm":24.5,"freq":362,"lat":47.63252778,"lon":-122.38952778,"rng_nm":50,"alt_fmsl":0,"id":"BF","desc":"NOLLA NDB"},
{"type":"NDB","hdg_t":248,"dist_nm":26.2,"freq":216,"lat":47.15030556,"lon":-122.60463889,"rng_nm":50,"alt_fmsl":0,"id":"GRF","desc":"GRAYE NDB"},
{"type":"NDB","hdg_t":230.6,"dist_nm":29,"freq":328,"lat":47.00797222,"lon":-122.55641667,"rng_nm":50,"alt_fmsl":0,"id":"LAC","desc":"LACOMAS NDB"},
{"type":"NDB","hdg_t":289.4,"dist_nm":32.2,"freq":206,"lat":47.49230556,"lon":-122.75661111,"rng_nm":50,"alt_fmsl":0,"id":"PWT","desc":"KITSAP NDB"},
{"type":"NDB","hdg_t":279.8,"dist_nm":34.2,"freq":274,"lat":47.41058333,"lon":-122.83886111,"rng_nm":50,"alt_fmsl":0,"id":"CAN","desc":"CARNEY NDB"},
{"type":"VOR","hdg_t":343.4,"dist_nm":37.8,"freq":110.6,"lat":47.91983333,"lon":-122.27783333,"rng_nm":40,"alt_fmsl":670,"id":"PAE","desc":"PAINE VOR-DME"},
{"type":"VOR","hdg_t":240.8,"dist_nm":41.9,"freq":113.4,"lat":46.97163889,"lon":-122.90183333,"rng_nm":130,"alt_fmsl":200,"id":"OLM","desc":"OLYMPIA VORTAC"},
{"type":"NDB","hdg_t":265.1,"dist_nm":44.1,"freq":348,"lat":47.24808333,"lon":-123.08636111,"rng_nm":50,"alt_fmsl":0,"id":"MNC","desc":"MASON CO NDB"},
{"type":"NDB","hdg_t":352.7,"dist_nm":46,"freq":382,"lat":48.07611111,"lon":-122.15391667,"rng_nm":50,"alt_fmsl":0,"id":"AW","desc":"WATON NDB"},
{"type":"VOR","hdg_t":332.8,"dist_nm":62.8,"freq":117.2,"lat":48.24469444,"lon":-122.72441667,"rng_nm":40,"alt_fmsl":200,"id":"CVV","desc":"PENN COVE VOR-DME"},
{"type":"VOR","hdg_t":104.8,"dist_nm":65.8,"freq":117.9,"lat":47.02436111,"lon":-120.45841667,"rng_nm":130,"alt_fmsl":1770,"id":"ELN","desc":"ELLENSBURG VORTAC"},
{"type":"SDME","hdg_t":337.3,"dist_nm":67.7,"freq":113.8,"lat":48.35489700,"lon":-122.66173600,"rng_nm":130,"alt_fmsl":51,"id":"NUW","desc":"WHIDBEY ISLAND TACAN"},
{"type":"NDB","hdg_t":346.7,"dist_nm":71.1,"freq":240,"lat":48.46861111,"lon":-122.41841667,"rng_nm":50,"alt_fmsl":0,"id":"BVS","desc":"SKAGIT/BAY VIEW NDB"},
{"type":"VOR","hdg_t":85.4,"dist_nm":73.5,"freq":111,"lat":47.39969444,"lon":-120.21086111,"rng_nm":40,"alt_fmsl":1224,"id":"EAT","desc":"WENATCHEE VOR-DME"},
{"type":"NDB","hdg_t":311.7,"dist_nm":75,"freq":338,"lat":48.13991667,"lon":-123.40338889,"rng_nm":50,"alt_fmsl":0,"id":"K","desc":"EDIZ HOOK NDB"},
{"type":"VOR","hdg_t":124.2,"dist_nm":78.3,"freq":116,"lat":46.57025000,"lon":-120.44463889,"rng_nm":130,"alt_fmsl":984,"id":"YKM","desc":"YAKIMA VORTAC"},
{"type":"NDB","hdg_t":208.4,"dist_nm":78.9,"freq":256,"lat":46.15547222,"lon":-122.91263889,"rng_nm":50,"alt_fmsl":0,"id":"LSO","desc":"KELSO NDB"},
{"type":"NDB","hdg_t":332.5,"dist_nm":78.9,"freq":356,"lat":48.47927778,"lon":-122.92100000,"rng_nm":50,"alt_fmsl":0,"id":"OPZ","desc":"LOPEZ ISLAND NDB"},
{"type":"NDB","hdg_t":124.5,"dist_nm":82.3,"freq":371,"lat":46.52563889,"lon":-120.37219444,"rng_nm":50,"alt_fmsl":0,"id":"YK","desc":"DONNY NDB"},
{"type":"NDB","hdg_t":330.7,"dist_nm":82.6,"freq":284,"lat":48.51213889,"lon":-123.02386111,"rng_nm":50,"alt_fmsl":0,"id":"FHR","desc":"FRIDAY HARBOR NDB"},
{"type":"NDB","hdg_t":307.2,"dist_nm":83.8,"freq":515,"lat":48.15019444,"lon":-123.67025000,"rng_nm":50,"alt_fmsl":0,"id":"CL","desc":"ELWHA NDB"},
{"type":"VOR","hdg_t":256.6,"dist_nm":90.3,"freq":117.7,"lat":46.94702778,"lon":-124.14927778,"rng_nm":130,"alt_fmsl":10,"id":"HQM","desc":"HOQUIAM VORTAC"},
{"type":"NDB","hdg_t":223.2,"dist_nm":96,"freq":201,"lat":46.13952778,"lon":-123.58730556,"rng_nm":50,"alt_fmsl":0,"id":"PEN","desc":"KARPEN NDB"},
{"type":"VOR","hdg_t":194.5,"dist_nm":97.1,"freq":116.6,"lat":45.74780556,"lon":-122.59152778,"rng_nm":130,"alt_fmsl":253,"id":"BTG","desc":"BATTLEGROUND VORTAC"},
{"type":"NDB","hdg_t":347.6,"dist_nm":97.3,"freq":338,"lat":48.89910000,"lon":-122.53477200,"rng_nm":50,"alt_fmsl":44,"id":"BL","desc":"BENZA NDB"},
{"type":"NDB","hdg_t":325.4,"dist_nm":97.4,"freq":200,"lat":48.64416667,"lon":-123.39947222,"rng_nm":50,"alt_fmsl":0,"id":"YJ","desc":"VICTORIA NDB"}
]
}
