{"success":true,"source":"xp2csv.pl","last_updated":"2013/11/08 14:53:21 UTC"
,"icao":"97NJ","name":"Mullica Landing","lat":39.55678361,"lon":-74.66710334,"rwys":1,"ils":0,"index":1728609,"path":"w080n30/w075n39"
,"runways":[
{"len_m":655,"wid_m":30.48,"hdg":127,"surf":"Turf/grass","rwy1":"14","lat1":39.55859564,"lon1":-74.67011152,"rwy2":"32","lat2":39.55497158,"lon2":-74.66409516}
]
,"navaids":[
{"type":"VOR","hdg_t":145.1,"dist_nm":7.3,"freq":108.6,"lat":39.45586111,"lon":-74.57633333,"rng_nm":40,"alt_fmsl":67,"id":"ACY","desc":"ATLANTIC CITY VORTAC"},
{"type":"VOR","hdg_t":265.3,"dist_nm":13.9,"freq":115.2,"lat":39.53766667,"lon":-74.96713889,"rng_nm":40,"alt_fmsl":120,"id":"VCN","desc":"CEDAR LAKE VORTAC"},
{"type":"VOR","hdg_t":34.8,"dist_nm":19,"freq":113.4,"lat":39.81733333,"lon":-74.43163889,"rng_nm":130,"alt_fmsl":203,"id":"CYN","desc":"COYLE VORTAC"},
{"type":"NDB","hdg_t":249.2,"dist_nm":23.2,"freq":363,"lat":39.41811111,"lon":-75.13505556,"rng_nm":50,"alt_fmsl":0,"id":"RNB","desc":"RAINBOW NDB"},
{"type":"VOR","hdg_t":6.8,"dist_nm":27.3,"freq":110.6,"lat":40.00947222,"lon":-74.59650000,"rng_nm":40,"alt_fmsl":119,"id":"GXU","desc":"MC GUIRE VORTAC"},
{"type":"VOR","hdg_t":192.6,"dist_nm":28.3,"freq":114.8,"lat":39.09550000,"lon":-74.80033333,"rng_nm":130,"alt_fmsl":10,"id":"SIE","desc":"SEA ISLE VORTAC"},
{"type":"NDB","hdg_t":316.3,"dist_nm":28.6,"freq":222,"lat":39.90123100,"lon":-75.09486400,"rng_nm":25,"alt_fmsl":0,"id":"PD","desc":"SPEEZ NDB"},
{"type":"VOR","hdg_t":279.3,"dist_nm":29.8,"freq":112.8,"lat":39.63602778,"lon":-75.30302778,"rng_nm":40,"alt_fmsl":140,"id":"OOD","desc":"WOODSTOWN VORTAC"},
{"type":"SDME","hdg_t":26.6,"dist_nm":32.2,"freq":111.8,"lat":40.03696100,"lon":-74.35313700,"rng_nm":25,"alt_fmsl":144,"id":"NEL","desc":"LAKEHURST TACAN"},
{"type":"NDB","hdg_t":27.5,"dist_nm":33,"freq":396,"lat":40.04486111,"lon":-74.33547222,"rng_nm":50,"alt_fmsl":0,"id":"NEL","desc":"LAKEHURST NDB"},
{"type":"VOR","hdg_t":333.4,"dist_nm":35.2,"freq":112,"lat":40.08205556,"lon":-75.00955556,"rng_nm":25,"alt_fmsl":0,"id":"PNE","desc":"NORTH PHILADELPHI VOR"},
{"type":"VOR","hdg_t":11.5,"dist_nm":39.5,"freq":113.8,"lat":40.20238889,"lon":-74.49502778,"rng_nm":130,"alt_fmsl":248,"id":"RBV","desc":"ROBBINSVILLE VORTAC"},
{"type":"NDB","hdg_t":344.8,"dist_nm":40.7,"freq":369,"lat":40.21263889,"lon":-74.89916667,"rng_nm":50,"alt_fmsl":0,"id":"TT","desc":"TRENN NDB"},
{"type":"VOR","hdg_t":345.1,"dist_nm":43.2,"freq":108.2,"lat":40.25333333,"lon":-74.90761111,"rng_nm":40,"alt_fmsl":300,"id":"ARD","desc":"YARDLEY VOR-DME"},
{"type":"NDB","hdg_t":272.2,"dist_nm":43.9,"freq":248,"lat":39.58122222,"lon":-75.61388889,"rng_nm":50,"alt_fmsl":0,"id":"IL","desc":"HADIN (LOM) NDB"},
{"type":"VOR","hdg_t":243.9,"dist_nm":44,"freq":111.4,"lat":39.23166667,"lon":-75.51591667,"rng_nm":40,"alt_fmsl":10,"id":"ENO","desc":"SMYRNA VORTAC"},
{"type":"VOR","hdg_t":279.7,"dist_nm":44.1,"freq":114,"lat":39.67813889,"lon":-75.60708333,"rng_nm":40,"alt_fmsl":70,"id":"DQO","desc":"DUPONT VORTAC"},
{"type":"NDB","hdg_t":320.2,"dist_nm":44.4,"freq":275,"lat":40.12594444,"lon":-75.28516667,"rng_nm":50,"alt_fmsl":0,"id":"ING","desc":"AMBLER NDB"},
{"type":"SDME","hdg_t":235.9,"dist_nm":45.1,"freq":110,"lat":39.13233300,"lon":-75.46733300,"rng_nm":25,"alt_fmsl":17,"id":"DOV","desc":"DOVER TACAN"},
{"type":"VOR","hdg_t":27.1,"dist_nm":50.9,"freq":115.4,"lat":40.31163889,"lon":-74.15972222,"rng_nm":40,"alt_fmsl":129,"id":"COL","desc":"COLTS NECK VOR-DME"},
{"type":"NDB","hdg_t":335.9,"dist_nm":51.1,"freq":237,"lat":40.33566100,"lon":-75.12211700,"rng_nm":5,"alt_fmsl":394,"id":"DYL","desc":"DOYLESTOWN NDB"},
{"type":"VOR","hdg_t":295.3,"dist_nm":51.2,"freq":113.2,"lat":39.91805556,"lon":-75.67080556,"rng_nm":40,"alt_fmsl":473,"id":"MXE","desc":"MODENA VORTAC"},
{"type":"VOR","hdg_t":209.7,"dist_nm":51.4,"freq":112.6,"lat":38.80980556,"lon":-75.21133333,"rng_nm":40,"alt_fmsl":5,"id":"ATR","desc":"WATERLOO VOR-DME"},
{"type":"VOR","hdg_t":314.3,"dist_nm":57.3,"freq":116.5,"lat":40.22227778,"lon":-75.56027778,"rng_nm":40,"alt_fmsl":290,"id":"PTW","desc":"POTTSTOWN VORTAC"},
{"type":"VOR","hdg_t":330.3,"dist_nm":57.6,"freq":108.85,"lat":40.39090800,"lon":-75.28876700,"rng_nm":25,"alt_fmsl":552,"id":"CKZ","desc":"PENNRIDGE VOR-DME"},
{"type":"NDB","hdg_t":331,"dist_nm":59.6,"freq":208,"lat":40.42472222,"lon":-75.29777778,"rng_nm":50,"alt_fmsl":0,"id":"UKT","desc":"QUAKERTOWN NDB"},
{"type":"VOR","hdg_t":356.8,"dist_nm":61.6,"freq":112.9,"lat":40.58305556,"lon":-74.74180556,"rng_nm":40,"alt_fmsl":190,"id":"SBJ","desc":"SOLBERG VOR-DME"},
{"type":"NDB","hdg_t":17.8,"dist_nm":65.3,"freq":241,"lat":40.59366700,"lon":-74.23000000,"rng_nm":25,"alt_fmsl":0,"id":"EW","desc":"CHESA NDB"},
{"type":"NDB","hdg_t":18,"dist_nm":66.2,"freq":373,"lat":40.60733300,"lon":-74.21797200,"rng_nm":25,"alt_fmsl":10,"id":"EZ","desc":"LIZAH NDB"},
{"type":"NDB","hdg_t":269.3,"dist_nm":66.8,"freq":349,"lat":39.53586111,"lon":-76.10638889,"rng_nm":50,"alt_fmsl":0,"id":"APG","desc":"ABERDEEN NDB"},
{"type":"VOR","hdg_t":266,"dist_nm":70,"freq":108.4,"lat":39.46666667,"lon":-76.17094444,"rng_nm":25,"alt_fmsl":47,"id":"PPM","desc":"PHILLIPS VOR-DME"},
{"type":"NDB","hdg_t":30.5,"dist_nm":70.5,"freq":414,"lat":40.56813889,"lon":-73.88297222,"rng_nm":50,"alt_fmsl":0,"id":"OGY","desc":"BRIDGE NDB"},
{"type":"NDB","hdg_t":8.6,"dist_nm":71.8,"freq":254,"lat":40.74077778,"lon":-74.42988889,"rng_nm":50,"alt_fmsl":0,"id":"CAT","desc":"CHATHAM NDB"},
{"type":"VOR","hdg_t":29,"dist_nm":72.6,"freq":112.3,"lat":40.61247222,"lon":-73.89444444,"rng_nm":25,"alt_fmsl":10,"id":"CRI","desc":"CANARSIE VOR-DME"},
{"type":"NDB","hdg_t":32.6,"dist_nm":73.5,"freq":373,"lat":40.58698600,"lon":-73.79965000,"rng_nm":25,"alt_fmsl":0,"id":"JF","desc":"CONDA NDB"},
{"type":"VOR","hdg_t":354.5,"dist_nm":74.7,"freq":114.2,"lat":40.79844444,"lon":-74.82183333,"rng_nm":40,"alt_fmsl":1050,"id":"BWZ","desc":"BROADWAY VOR-DME"},
{"type":"NDB","hdg_t":199.3,"dist_nm":75.7,"freq":407,"lat":38.36261111,"lon":-75.19780556,"rng_nm":50,"alt_fmsl":0,"id":"OX","desc":"LANDY NDB"},
{"type":"VOR","hdg_t":32.3,"dist_nm":76.5,"freq":115.9,"lat":40.63288889,"lon":-73.77138889,"rng_nm":130,"alt_fmsl":11,"id":"JFK","desc":"KENNEDY VOR-DME"},
{"type":"VOR","hdg_t":322.9,"dist_nm":77.2,"freq":110.2,"lat":40.58102778,"lon":-75.68402778,"rng_nm":40,"alt_fmsl":742,"id":"ETX","desc":"EAST TEXAS VOR-DME"},
{"type":"NDB","hdg_t":18,"dist_nm":78.7,"freq":214,"lat":40.80444444,"lon":-74.13250000,"rng_nm":50,"alt_fmsl":0,"id":"TE","desc":"TORBY NDB"},
{"type":"VOR","hdg_t":332.9,"dist_nm":78.9,"freq":117.5,"lat":40.72669444,"lon":-75.45475000,"rng_nm":40,"alt_fmsl":680,"id":"FJC","desc":"ALLENTOWN VORTAC"},
{"type":"VOR","hdg_t":26.2,"dist_nm":82.2,"freq":113.1,"lat":40.78372222,"lon":-73.86861111,"rng_nm":40,"alt_fmsl":9,"id":"LGA","desc":"LA GUARDIA VOR-DME"},
{"type":"VOR","hdg_t":19.5,"dist_nm":82.2,"freq":108.4,"lat":40.84872222,"lon":-74.06225000,"rng_nm":25,"alt_fmsl":10,"id":"TEB","desc":"TETERBORO VOR-DME"},
{"type":"VOR","hdg_t":294.7,"dist_nm":82.3,"freq":117.3,"lat":40.11997222,"lon":-76.29130556,"rng_nm":40,"alt_fmsl":399,"id":"LRP","desc":"LANCASTER VORTAC"},
{"type":"VOR","hdg_t":208.7,"dist_nm":82.6,"freq":111.2,"lat":38.34500000,"lon":-75.51058333,"rng_nm":40,"alt_fmsl":48,"id":"SBY","desc":"SALISBURY VORTAC"},
{"type":"NDB","hdg_t":204.5,"dist_nm":84,"freq":278,"lat":38.27870000,"lon":-75.40577800,"rng_nm":25,"alt_fmsl":0,"id":"SB","desc":"COLBE NDB"},
{"type":"VOR","hdg_t":353.9,"dist_nm":86.7,"freq":109.6,"lat":40.99583333,"lon":-74.86902778,"rng_nm":40,"alt_fmsl":920,"id":"STW","desc":"STILLWATER VOR-DME"},
{"type":"NDB","hdg_t":26.5,"dist_nm":87.9,"freq":385,"lat":40.86638889,"lon":-73.80355556,"rng_nm":50,"alt_fmsl":0,"id":"UR","desc":"ORCHY NDB"},
{"type":"NDB","hdg_t":226.6,"dist_nm":88.2,"freq":355,"lat":38.53725000,"lon":-76.03058333,"rng_nm":50,"alt_fmsl":0,"id":"CGE","desc":"CAMBRIDGE NDB"},
{"type":"NDB","hdg_t":41,"dist_nm":89.2,"freq":275,"lat":40.67252778,"lon":-73.38438889,"rng_nm":50,"alt_fmsl":0,"id":"BBN","desc":"BABYLON NDB"},
{"type":"VOR","hdg_t":3.6,"dist_nm":90.7,"freq":115.7,"lat":41.06755556,"lon":-74.53830556,"rng_nm":130,"alt_fmsl":1400,"id":"SAX","desc":"SPARTA VORTAC"},
{"type":"NDB","hdg_t":36.3,"dist_nm":91.1,"freq":407,"lat":40.77652778,"lon":-73.48241667,"rng_nm":50,"alt_fmsl":0,"id":"FR","desc":"FRIKK NDB"},
{"type":"NDB","hdg_t":260.5,"dist_nm":92.4,"freq":404,"lat":39.28705556,"lon":-76.62525000,"rng_nm":50,"alt_fmsl":0,"id":"IUB","desc":"INSTITUTE NDB"},
{"type":"VOR","hdg_t":256.6,"dist_nm":95.6,"freq":115.1,"lat":39.17105556,"lon":-76.66125000,"rng_nm":40,"alt_fmsl":140,"id":"BAL","desc":"BALTIMORE VORTAC"},
{"type":"VOR","hdg_t":39.8,"dist_nm":97,"freq":117.7,"lat":40.79177778,"lon":-73.30366667,"rng_nm":40,"alt_fmsl":117,"id":"DPK","desc":"DEER PARK VOR-DME"},
{"type":"VOR","hdg_t":202.8,"dist_nm":97.3,"freq":112.4,"lat":38.05658333,"lon":-75.46388889,"rng_nm":40,"alt_fmsl":34,"id":"SWL","desc":"SNOW HILL VORTAC"},
{"type":"NDB","hdg_t":43.5,"dist_nm":97.7,"freq":366,"lat":40.72897222,"lon":-73.19022222,"rng_nm":50,"alt_fmsl":0,"id":"IS","desc":"LOKKS NDB"},
{"type":"NDB","hdg_t":261.3,"dist_nm":99.4,"freq":371,"lat":39.28736111,"lon":-76.77702778,"rng_nm":50,"alt_fmsl":0,"id":"FND","desc":"ELLICOTT NDB"}
]
}
