{"success":true,"source":"xp2csv.pl","last_updated":"2013/11/08 14:53:21 UTC"
,"icao":"97NY","name":"Hunter Mountain","lat":42.23425361,"lon":-74.23764334,"rwys":1,"ils":0,"index":1728779,"path":"w080n40/w075n42"
,"runways":[
{"len_m":777,"wid_m":22.86,"hdg":346,"surf":"Gravel","rwy1":"36","lat1":42.23084595,"lon1":-74.23658078,"rwy2":"18","lat2":42.23766127,"lon2":-74.23870590}
]
,"navaids":[
{"type":"NDB","hdg_t":87,"dist_nm":22.9,"freq":272,"lat":42.25311111,"lon":-73.72341667,"rng_nm":50,"alt_fmsl":0,"id":"PFH","desc":"PHILMONT NDB"},
{"type":"VOR","hdg_t":264.2,"dist_nm":32.2,"freq":112.1,"lat":42.17827778,"lon":-74.95694444,"rng_nm":40,"alt_fmsl":2560,"id":"DNY","desc":"DELANCEY VOR-DME"},
{"type":"VOR","hdg_t":31.9,"dist_nm":36.3,"freq":115.3,"lat":42.74727778,"lon":-73.80319444,"rng_nm":40,"alt_fmsl":274,"id":"ALB","desc":"ALBANY VORTAC"},
{"type":"NDB","hdg_t":94.4,"dist_nm":37.2,"freq":395,"lat":42.18297222,"lon":-73.40402778,"rng_nm":50,"alt_fmsl":0,"id":"GBR","desc":"GREAT BARRINGTON NDB"},
{"type":"VOR","hdg_t":151.2,"dist_nm":38.8,"freq":117.6,"lat":41.66544444,"lon":-73.82222222,"rng_nm":40,"alt_fmsl":580,"id":"IGN","desc":"KINGSTON VOR-DME"},
{"type":"NDB","hdg_t":302.5,"dist_nm":39.3,"freq":279,"lat":42.58466667,"lon":-74.98636111,"rng_nm":50,"alt_fmsl":0,"id":"OZ","desc":"KRING NDB"},
{"type":"NDB","hdg_t":19.8,"dist_nm":39.5,"freq":356,"lat":42.85419444,"lon":-73.93347222,"rng_nm":50,"alt_fmsl":0,"id":"HEU","desc":"HUNTER NDB"},
{"type":"NDB","hdg_t":225,"dist_nm":39.5,"freq":359,"lat":41.76666667,"lon":-74.86072222,"rng_nm":50,"alt_fmsl":0,"id":"MS","desc":"MONGA NDB"},
{"type":"NDB","hdg_t":28.4,"dist_nm":39.8,"freq":219,"lat":42.81730556,"lon":-73.80850000,"rng_nm":50,"alt_fmsl":0,"id":"AL","desc":"HAWKY NDB"},
{"type":"VOR","hdg_t":134.1,"dist_nm":39.8,"freq":114.3,"lat":41.76975000,"lon":-73.60055556,"rng_nm":40,"alt_fmsl":1250,"id":"PWL","desc":"PAWLING VOR-DME"},
{"type":"NDB","hdg_t":162.7,"dist_nm":41.3,"freq":403,"lat":41.57512800,"lon":-73.96484400,"rng_nm":25,"alt_fmsl":9,"id":"PO","desc":"MEIER NDB"},
{"type":"NDB","hdg_t":168.4,"dist_nm":43.2,"freq":261,"lat":41.52800000,"lon":-74.04497222,"rng_nm":50,"alt_fmsl":0,"id":"SKU","desc":"STANWYCK NDB"},
{"type":"NDB","hdg_t":179.4,"dist_nm":44.8,"freq":335,"lat":41.48608333,"lon":-74.22791667,"rng_nm":50,"alt_fmsl":0,"id":"SW","desc":"NEELY NDB"},
{"type":"NDB","hdg_t":354.8,"dist_nm":46,"freq":523,"lat":42.99941667,"lon":-74.33144444,"rng_nm":50,"alt_fmsl":0,"id":"JJH","desc":"JOHNSTOWN NDB"},
{"type":"VOR","hdg_t":287.6,"dist_nm":46.6,"freq":112.6,"lat":42.46636111,"lon":-75.23930556,"rng_nm":40,"alt_fmsl":2027,"id":"RKA","desc":"ROCKDALE VOR-DME"},
{"type":"NDB","hdg_t":182.9,"dist_nm":47.4,"freq":353,"lat":41.44488889,"lon":-74.29113889,"rng_nm":50,"alt_fmsl":0,"id":"MG","desc":"OTIMS NDB"},
{"type":"VOR","hdg_t":258.3,"dist_nm":49.2,"freq":116.8,"lat":42.06305556,"lon":-75.31627778,"rng_nm":130,"alt_fmsl":2070,"id":"HNK","desc":"HANCOCK VOR-DME"},
{"type":"VOR","hdg_t":197.9,"dist_nm":51.9,"freq":116.1,"lat":41.40969444,"lon":-74.59158333,"rng_nm":130,"alt_fmsl":1300,"id":"HUO","desc":"HUGUENOT VOR-DME"},
{"type":"VOR","hdg_t":86.1,"dist_nm":57.4,"freq":115.1,"lat":42.29130556,"lon":-72.94938889,"rng_nm":40,"alt_fmsl":1600,"id":"CTR","desc":"CHESTER VOR-DME"},
{"type":"VOR","hdg_t":40.6,"dist_nm":60.3,"freq":115,"lat":42.99427778,"lon":-73.34402778,"rng_nm":40,"alt_fmsl":1490,"id":"CAM","desc":"CAMBRIDGE VOR-DME"},
{"type":"VOR","hdg_t":319.4,"dist_nm":62.7,"freq":111.2,"lat":43.02652778,"lon":-75.16452778,"rng_nm":40,"alt_fmsl":1420,"id":"UCA","desc":"UTICA VORTAC"},
{"type":"VOR","hdg_t":152.5,"dist_nm":64.3,"freq":116.6,"lat":41.28005556,"lon":-73.58136111,"rng_nm":40,"alt_fmsl":690,"id":"CMK","desc":"CARMEL VOR-DME"},
{"type":"NDB","hdg_t":317.5,"dist_nm":66.9,"freq":275,"lat":43.05280800,"lon":-75.26429400,"rng_nm":15,"alt_fmsl":0,"id":"CJY","desc":"CLAY NDB"},
{"type":"NDB","hdg_t":24.3,"dist_nm":67.3,"freq":209,"lat":43.25511111,"lon":-73.60577778,"rng_nm":50,"alt_fmsl":0,"id":"GF","desc":"GANSE NDB"},
{"type":"VOR","hdg_t":93.1,"dist_nm":67.9,"freq":113,"lat":42.16194444,"lon":-72.71619444,"rng_nm":40,"alt_fmsl":268,"id":"BAF","desc":"BARNES VORTAC"},
{"type":"NDB","hdg_t":107.5,"dist_nm":69.1,"freq":388,"lat":41.87738300,"lon":-72.76620600,"rng_nm":25,"alt_fmsl":0,"id":"BD","desc":"CHUPP NDB"},
{"type":"NDB","hdg_t":134.4,"dist_nm":70.7,"freq":362,"lat":41.40251700,"lon":-73.11981900,"rng_nm":25,"alt_fmsl":0,"id":"OX","desc":"CLERA NDB"},
{"type":"VOR","hdg_t":191,"dist_nm":71.2,"freq":115.7,"lat":41.06755556,"lon":-74.53830556,"rng_nm":130,"alt_fmsl":1400,"id":"SAX","desc":"SPARTA VORTAC"},
{"type":"VOR","hdg_t":103.7,"dist_nm":71.4,"freq":109,"lat":41.94100000,"lon":-72.68858333,"rng_nm":25,"alt_fmsl":160,"id":"BDL","desc":"BRADLEY VORTAC"},
{"type":"NDB","hdg_t":134.9,"dist_nm":71.8,"freq":362,"lat":41.38238889,"lon":-73.11250000,"rng_nm":50,"alt_fmsl":0,"id":"JWE","desc":"CLERA NDB"},
{"type":"VOR","hdg_t":22.3,"dist_nm":71.9,"freq":110.2,"lat":43.34169444,"lon":-73.61177778,"rng_nm":40,"alt_fmsl":319,"id":"GFL","desc":"GLENS FALLS VORTAC"},
{"type":"VOR","hdg_t":231.2,"dist_nm":72,"freq":110.8,"lat":41.47577778,"lon":-75.48263889,"rng_nm":40,"alt_fmsl":2320,"id":"LHY","desc":"LAKE HENRY VORTAC"},
{"type":"NDB","hdg_t":55.2,"dist_nm":73.7,"freq":224,"lat":42.92758333,"lon":-72.86400000,"rng_nm":50,"alt_fmsl":0,"id":"VWD","desc":"MOUNT SNOW NDB"},
{"type":"NDB","hdg_t":264.5,"dist_nm":74.1,"freq":332,"lat":42.10475000,"lon":-75.89119444,"rng_nm":50,"alt_fmsl":0,"id":"BG","desc":"SMITE NDB"},
{"type":"VOR","hdg_t":91,"dist_nm":76.3,"freq":114,"lat":42.19755556,"lon":-72.52630556,"rng_nm":40,"alt_fmsl":241,"id":"CEF","desc":"WESTOVER VORTAC"},
{"type":"VOR","hdg_t":295.7,"dist_nm":77.9,"freq":117.8,"lat":42.78894444,"lon":-75.82675000,"rng_nm":40,"alt_fmsl":2040,"id":"GGT","desc":"GEORGETOWN VORTAC"},
{"type":"VOR","hdg_t":201.1,"dist_nm":79.5,"freq":109.6,"lat":40.99583333,"lon":-74.86902778,"rng_nm":40,"alt_fmsl":920,"id":"STW","desc":"STILLWATER VOR-DME"},
{"type":"NDB","hdg_t":317.5,"dist_nm":80.8,"freq":329,"lat":43.22245600,"lon":-75.48256700,"rng_nm":15,"alt_fmsl":450,"id":"BK","desc":"PLEIN NDB"},
{"type":"VOR","hdg_t":141.7,"dist_nm":81.5,"freq":108.8,"lat":41.16069444,"lon":-73.12450000,"rng_nm":40,"alt_fmsl":9,"id":"BDR","desc":"BRIDGEPORT VOR-DME"},
{"type":"VOR","hdg_t":174.5,"dist_nm":83.4,"freq":108.4,"lat":40.84872222,"lon":-74.06225000,"rng_nm":25,"alt_fmsl":10,"id":"TEB","desc":"TETERBORO VOR-DME"},
{"type":"VOR","hdg_t":114.6,"dist_nm":83.6,"freq":114.9,"lat":41.64111111,"lon":-72.54741667,"rng_nm":40,"alt_fmsl":849,"id":"HFD","desc":"HARTFORD VOR-DME"},
{"type":"VOR","hdg_t":133.3,"dist_nm":84.1,"freq":109.8,"lat":41.26230556,"lon":-72.88519444,"rng_nm":25,"alt_fmsl":6,"id":"HVN","desc":"NEW HAVEN VOR-DME"},
{"type":"NDB","hdg_t":166.4,"dist_nm":84.3,"freq":385,"lat":40.86638889,"lon":-73.80355556,"rng_nm":50,"alt_fmsl":0,"id":"UR","desc":"ORCHY NDB"},
{"type":"VOR","hdg_t":267.5,"dist_nm":84.8,"freq":112.2,"lat":42.15750000,"lon":-76.13647222,"rng_nm":40,"alt_fmsl":1583,"id":"CFB","desc":"BINGHAMTON VORTAC"},
{"type":"NDB","hdg_t":176.8,"dist_nm":85.8,"freq":214,"lat":40.80444444,"lon":-74.13250000,"rng_nm":50,"alt_fmsl":0,"id":"TE","desc":"TORBY NDB"},
{"type":"VOR","hdg_t":228.9,"dist_nm":87,"freq":111.6,"lat":41.27280556,"lon":-75.68947222,"rng_nm":40,"alt_fmsl":2119,"id":"LVZ","desc":"WILKES BARRE VORTAC"},
{"type":"VOR","hdg_t":169,"dist_nm":88.5,"freq":113.1,"lat":40.78372222,"lon":-73.86861111,"rng_nm":40,"alt_fmsl":9,"id":"LGA","desc":"LA GUARDIA VOR-DME"},
{"type":"VOR","hdg_t":127.9,"dist_nm":88.6,"freq":110.4,"lat":41.31383333,"lon":-72.69219444,"rng_nm":40,"alt_fmsl":220,"id":"MAD","desc":"MADISON VOR-DME"},
{"type":"NDB","hdg_t":76.3,"dist_nm":89,"freq":205,"lat":42.56861111,"lon":-72.28611111,"rng_nm":50,"alt_fmsl":0,"id":"ORE","desc":"ORANGE NDB"},
{"type":"NDB","hdg_t":185.5,"dist_nm":89.9,"freq":254,"lat":40.74077778,"lon":-74.42988889,"rng_nm":50,"alt_fmsl":0,"id":"CAT","desc":"CHATHAM NDB"},
{"type":"VOR","hdg_t":197.1,"dist_nm":90,"freq":114.2,"lat":40.79844444,"lon":-74.82183333,"rng_nm":40,"alt_fmsl":1050,"id":"BWZ","desc":"BROADWAY VOR-DME"},
{"type":"VOR","hdg_t":68,"dist_nm":92.6,"freq":109.4,"lat":42.79427778,"lon":-72.29177778,"rng_nm":40,"alt_fmsl":1380,"id":"EEN","desc":"KEENE VORTAC"},
{"type":"NDB","hdg_t":158.4,"dist_nm":93.8,"freq":407,"lat":40.77652778,"lon":-73.48241667,"rng_nm":50,"alt_fmsl":0,"id":"FR","desc":"FRIKK NDB"},
{"type":"NDB","hdg_t":304.5,"dist_nm":94.2,"freq":242,"lat":43.11220600,"lon":-76.00272500,"rng_nm":15,"alt_fmsl":403,"id":"SY","desc":"KIRKI NDB"},
{"type":"NDB","hdg_t":229.9,"dist_nm":94.3,"freq":410,"lat":41.21038889,"lon":-75.83183333,"rng_nm":50,"alt_fmsl":0,"id":"CYE","desc":"CRYSTAL LAKE NDB"},
{"type":"NDB","hdg_t":277.7,"dist_nm":95.5,"freq":266,"lat":42.43005556,"lon":-76.36797222,"rng_nm":50,"alt_fmsl":0,"id":"IT","desc":"VRNAH NDB"},
{"type":"VOR","hdg_t":35.7,"dist_nm":96,"freq":111,"lat":43.52661111,"lon":-72.95066667,"rng_nm":25,"alt_fmsl":781,"id":"RUT","desc":"RUTLAND VOR-DME"},
{"type":"VOR","hdg_t":153.7,"dist_nm":96.2,"freq":117.7,"lat":40.79177778,"lon":-73.30366667,"rng_nm":40,"alt_fmsl":117,"id":"DPK","desc":"DEER PARK VOR-DME"},
{"type":"NDB","hdg_t":179.4,"dist_nm":97.5,"freq":373,"lat":40.60733300,"lon":-74.21797200,"rng_nm":25,"alt_fmsl":10,"id":"EZ","desc":"LIZAH NDB"},
{"type":"NDB","hdg_t":179.7,"dist_nm":98.3,"freq":241,"lat":40.59366700,"lon":-74.23000000,"rng_nm":25,"alt_fmsl":0,"id":"EW","desc":"CHESA NDB"},
{"type":"VOR","hdg_t":167.4,"dist_nm":98.3,"freq":115.9,"lat":40.63288889,"lon":-73.77138889,"rng_nm":130,"alt_fmsl":11,"id":"JFK","desc":"KENNEDY VOR-DME"},
{"type":"VOR","hdg_t":170.8,"dist_nm":98.4,"freq":112.3,"lat":40.61247222,"lon":-73.89444444,"rng_nm":25,"alt_fmsl":10,"id":"CRI","desc":"CANARSIE VOR-DME"},
{"type":"VOR","hdg_t":78.3,"dist_nm":98.6,"freq":110.6,"lat":42.54594444,"lon":-72.05819444,"rng_nm":40,"alt_fmsl":1280,"id":"GDM","desc":"GARDNER VOR-DME"},
{"type":"NDB","hdg_t":87.8,"dist_nm":98.8,"freq":279,"lat":42.27450000,"lon":-72.01994444,"rng_nm":50,"alt_fmsl":0,"id":"RS","desc":"DUNCA NDB"}
]
}
