{"success":true,"source":"xp2csv.pl","last_updated":"2013/11/08 14:53:21 UTC"
,"icao":"97OR","name":"Hi Country No 2","lat":44.43515833,"lon":-118.66244584,"rwys":1,"ils":0,"index":1008025,"path":"w120n40/w119n44"
,"runways":[
{"len_m":762,"wid_m":15.24,"hdg":157,"surf":"Gravel","rwy1":"14","lat1":44.43833739,"lon1":-118.66424464,"rwy2":"32","lat2":44.43197927,"lon2":-118.66064704}
]
,"navaids":[
{"type":"VOR","hdg_t":56,"dist_nm":43.9,"freq":115.3,"lat":44.84061111,"lon":-117.80786111,"rng_nm":130,"alt_fmsl":3380,"id":"BKE","desc":"BAKER CITY VOR-DME"},
{"type":"VOR","hdg_t":286.2,"dist_nm":46.8,"freq":115.6,"lat":44.64838889,"lon":-119.71163889,"rng_nm":130,"alt_fmsl":5220,"id":"IMB","desc":"KIMBERLY VORTAC"},
{"type":"VOR","hdg_t":194.1,"dist_nm":52,"freq":113.8,"lat":43.59313889,"lon":-118.95505556,"rng_nm":40,"alt_fmsl":4146,"id":"ILR","desc":"WILDHORSE VOR-DME"},
{"type":"NDB","hdg_t":28.4,"dist_nm":62,"freq":296,"lat":45.34250000,"lon":-117.96275000,"rng_nm":50,"alt_fmsl":0,"id":"LGD","desc":"LA GRANDE NDB"},
{"type":"NDB","hdg_t":108.6,"dist_nm":75.5,"freq":305,"lat":44.01975000,"lon":-117.00833333,"rng_nm":50,"alt_fmsl":0,"id":"ONO","desc":"ONTARIO NDB"},
{"type":"VOR","hdg_t":351.2,"dist_nm":76.7,"freq":114.7,"lat":45.69841667,"lon":-118.93869444,"rng_nm":130,"alt_fmsl":1559,"id":"PDT","desc":"PENDLETON VORTAC"},
{"type":"VOR","hdg_t":8.8,"dist_nm":100.3,"freq":116.4,"lat":46.08697222,"lon":-118.29252778,"rng_nm":40,"alt_fmsl":1179,"id":"ALW","desc":"WALLA WALLA VOR-DME"},
{"type":"NDB","hdg_t":266.5,"dist_nm":101.6,"freq":411,"lat":44.30797222,"lon":-121.01894444,"rng_nm":50,"alt_fmsl":0,"id":"RD","desc":"BODEY NDB"},
{"type":"NDB","hdg_t":117.7,"dist_nm":104.5,"freq":238,"lat":43.60336111,"lon":-116.53905556,"rng_nm":50,"alt_fmsl":0,"id":"MPA","desc":"MERIDIAN NDB"},
{"type":"NDB","hdg_t":10.5,"dist_nm":106.2,"freq":353,"lat":46.17555556,"lon":-118.19636111,"rng_nm":50,"alt_fmsl":0,"id":"AL","desc":"TRINA NDB"}
]
}
