{"success":true,"source":"xp2csv.pl","last_updated":"2013/11/08 14:53:21 UTC"
,"icao":"99LA","name":"Lawson Field","lat":30.28936944,"lon":-92.38902084,"rwys":1,"ils":0,"index":1433106,"path":"w100n30/w093n30"
,"runways":[
{"len_m":608,"wid_m":15.24,"hdg":153,"surf":"Turf/grass","rwy1":"15","lat1":30.29183481,"lon1":-92.39041338,"rwy2":"33","lat2":30.28690407,"lon2":-92.38762830}
]
,"navaids":[
{"type":"NDB","hdg_t":349.2,"dist_nm":16.4,"freq":263,"lat":30.55983333,"lon":-92.44808333,"rng_nm":50,"alt_fmsl":0,"id":"ECY","desc":"DURALDE NDB"},
{"type":"NDB","hdg_t":134.6,"dist_nm":19.4,"freq":230,"lat":30.06113889,"lon":-92.12327778,"rng_nm":50,"alt_fmsl":0,"id":"BNZ","desc":"ABBEVILLE NDB"},
{"type":"VOR","hdg_t":105.4,"dist_nm":21.3,"freq":109.8,"lat":30.19380556,"lon":-91.99258333,"rng_nm":40,"alt_fmsl":36,"id":"LFT","desc":"LAFAYETTE VORTAC"},
{"type":"NDB","hdg_t":89.8,"dist_nm":24.9,"freq":375,"lat":30.28930556,"lon":-91.90794444,"rng_nm":50,"alt_fmsl":0,"id":"LF","desc":"LAFFS NDB"},
{"type":"NDB","hdg_t":323.6,"dist_nm":26.1,"freq":379,"lat":30.64122222,"lon":-92.68916667,"rng_nm":50,"alt_fmsl":0,"id":"LRR","desc":"OAKDALE NDB"},
{"type":"NDB","hdg_t":34.4,"dist_nm":26.5,"freq":335,"lat":30.65525000,"lon":-92.09869444,"rng_nm":50,"alt_fmsl":0,"id":"OPL","desc":"SAINT LANDRY NDB"},
{"type":"NDB","hdg_t":125.9,"dist_nm":33.8,"freq":269,"lat":29.95627778,"lon":-91.86333333,"rng_nm":50,"alt_fmsl":0,"id":"AR","desc":"ACADI NDB"},
{"type":"NDB","hdg_t":13,"dist_nm":35.4,"freq":397,"lat":30.86541667,"lon":-92.23408333,"rng_nm":50,"alt_fmsl":0,"id":"BWK","desc":"BUNKIE NDB"},
{"type":"VOR","hdg_t":178.7,"dist_nm":37.4,"freq":110.4,"lat":29.66322222,"lon":-92.37363889,"rng_nm":40,"alt_fmsl":40,"id":"LLA","desc":"WHITE LAKE VOR-DME"},
{"type":"VOR","hdg_t":256.8,"dist_nm":38.2,"freq":113.4,"lat":30.14150000,"lon":-93.10555556,"rng_nm":130,"alt_fmsl":20,"id":"LCH","desc":"LAKE CHARLES VORTAC"},
{"type":"NDB","hdg_t":271.6,"dist_nm":41.9,"freq":418,"lat":30.30663889,"lon":-93.19619444,"rng_nm":50,"alt_fmsl":0,"id":"CW","desc":"MOSSY NDB"},
{"type":"NDB","hdg_t":262.9,"dist_nm":45.7,"freq":353,"lat":30.19305556,"lon":-93.26313889,"rng_nm":50,"alt_fmsl":0,"id":"LC","desc":"KEYLI NDB"},
{"type":"NDB","hdg_t":65.9,"dist_nm":50.9,"freq":356,"lat":30.63313300,"lon":-91.48941800,"rng_nm":25,"alt_fmsl":35,"id":"HZ","desc":"HAZER NDB"},
{"type":"NDB","hdg_t":18.6,"dist_nm":50.9,"freq":347,"lat":31.09461111,"lon":-92.07266667,"rng_nm":50,"alt_fmsl":0,"id":"MKV","desc":"MARKSVILLE NDB"},
{"type":"NDB","hdg_t":65.9,"dist_nm":50.9,"freq":356,"lat":30.63313889,"lon":-91.48941667,"rng_nm":50,"alt_fmsl":0,"id":"FWX","desc":"NEW ROADS NDB"},
{"type":"NDB","hdg_t":264.4,"dist_nm":53.8,"freq":278,"lat":30.19852778,"lon":-93.42063889,"rng_nm":50,"alt_fmsl":0,"id":"AUR","desc":"SULPHUR NDB"},
{"type":"NDB","hdg_t":299.7,"dist_nm":56.2,"freq":385,"lat":30.75213889,"lon":-93.33472222,"rng_nm":50,"alt_fmsl":0,"id":"DXB","desc":"DE RIDDER NDB"},
{"type":"NDB","hdg_t":279.1,"dist_nm":56.6,"freq":410,"lat":30.43533333,"lon":-93.46708333,"rng_nm":50,"alt_fmsl":0,"id":"DQU","desc":"DE QUINCY NDB"},
{"type":"VOR","hdg_t":78,"dist_nm":58,"freq":116.5,"lat":30.48513889,"lon":-91.29405556,"rng_nm":40,"alt_fmsl":20,"id":"BTR","desc":"BATON ROUGE VORTAC"},
{"type":"VOR","hdg_t":354.3,"dist_nm":58.1,"freq":116.1,"lat":31.25672222,"lon":-92.50097222,"rng_nm":130,"alt_fmsl":80,"id":"AEX","desc":"ALEXANDRIA VORTAC"},
{"type":"NDB","hdg_t":317.2,"dist_nm":60.4,"freq":359,"lat":31.02825000,"lon":-93.18483333,"rng_nm":50,"alt_fmsl":0,"id":"GUV","desc":"GATOR NDB"},
{"type":"NDB","hdg_t":73.6,"dist_nm":63.5,"freq":284,"lat":30.58288889,"lon":-91.21102778,"rng_nm":50,"alt_fmsl":0,"id":"BT","desc":"RUNDI NDB"},
{"type":"NDB","hdg_t":121.8,"dist_nm":64.7,"freq":245,"lat":29.71463889,"lon":-91.33672222,"rng_nm":50,"alt_fmsl":0,"id":"PTN","desc":"PATTERSON NDB"},
{"type":"VOR","hdg_t":319.1,"dist_nm":65.2,"freq":108.4,"lat":31.11163889,"lon":-93.21791667,"rng_nm":25,"alt_fmsl":312,"id":"FXU","desc":"POLK VORTAC"},
{"type":"NDB","hdg_t":9.1,"dist_nm":66.8,"freq":223,"lat":31.39205556,"lon":-92.18200000,"rng_nm":50,"alt_fmsl":0,"id":"ES","desc":"ANDRA NDB"},
{"type":"NDB","hdg_t":314.8,"dist_nm":69.2,"freq":247,"lat":31.10236111,"lon":-93.34194444,"rng_nm":50,"alt_fmsl":0,"id":"VED","desc":"LEESVILLE NDB"},
{"type":"VOR","hdg_t":2.8,"dist_nm":69.4,"freq":117.9,"lat":31.44751100,"lon":-92.32193900,"rng_nm":130,"alt_fmsl":195,"id":"ESF","desc":"ESLER VORTAC"},
{"type":"NDB","hdg_t":260.1,"dist_nm":74.2,"freq":211,"lat":30.07027778,"lon":-93.79494444,"rng_nm":50,"alt_fmsl":0,"id":"ORG","desc":"ORANGE NDB"},
{"type":"VOR","hdg_t":256.7,"dist_nm":87.1,"freq":114.5,"lat":29.94605556,"lon":-94.01622222,"rng_nm":40,"alt_fmsl":10,"id":"BPT","desc":"BEAUMONT VOR-DME"},
{"type":"NDB","hdg_t":336.7,"dist_nm":89.2,"freq":407,"lat":31.65744444,"lon":-93.07761111,"rng_nm":50,"alt_fmsl":0,"id":"OOC","desc":"NATCHITOCHES NDB"},
{"type":"VOR","hdg_t":114.3,"dist_nm":89.4,"freq":112,"lat":29.66433333,"lon":-90.82908333,"rng_nm":40,"alt_fmsl":10,"id":"TBD","desc":"TIBBY VORTAC"},
{"type":"VOR","hdg_t":247.6,"dist_nm":93.1,"freq":115.4,"lat":29.68672222,"lon":-94.03797222,"rng_nm":40,"alt_fmsl":10,"id":"SBI","desc":"SABINE PASS VOR-DME"},
{"type":"VOR","hdg_t":96.9,"dist_nm":94.3,"freq":110.8,"lat":30.08750000,"lon":-90.58863889,"rng_nm":40,"alt_fmsl":5,"id":"RQR","desc":"RESERVE VOR-DME"},
{"type":"NDB","hdg_t":262.5,"dist_nm":95.6,"freq":368,"lat":30.07047222,"lon":-94.21102778,"rng_nm":50,"alt_fmsl":0,"id":"GDE","desc":"GOODHUE NDB"},
{"type":"NDB","hdg_t":322.5,"dist_nm":97,"freq":272,"lat":31.57127778,"lon":-93.54155556,"rng_nm":50,"alt_fmsl":0,"id":"MMY","desc":"MANY NDB"},
{"type":"NDB","hdg_t":272.1,"dist_nm":97.2,"freq":524,"lat":30.33633333,"lon":-94.26036111,"rng_nm":50,"alt_fmsl":0,"id":"HRD","desc":"HARDIN CO NDB"},
{"type":"VOR","hdg_t":34.9,"dist_nm":97.3,"freq":110,"lat":31.61819444,"lon":-91.29963889,"rng_nm":40,"alt_fmsl":280,"id":"HEZ","desc":"NATCHEZ VOR-DME"},
{"type":"NDB","hdg_t":112.1,"dist_nm":97.5,"freq":219,"lat":29.66327778,"lon":-90.65969444,"rng_nm":50,"alt_fmsl":0,"id":"HU","desc":"HOUMA NDB"}
]
}
