{"success":true,"source":"xp2csv.pl","last_updated":"2013/11/08 14:53:21 UTC"
,"icao":"99V","name":"Crawford","lat":38.70393875,"lon":-107.6443775,"rwys":2,"ils":0,"index":1187881,"path":"w110n30/w108n38"
,"runways":[
{"len_m":1493,"wid_m":6.10,"hdg":80,"surf":"Asphalt","rwy1":"07","lat1":38.70305600,"lon1":-107.65250000,"rwy2":"25","lat2":38.70517200,"lon2":-107.63554400},
{"len_m":764,"wid_m":38.10,"hdg":80,"surf":"Dirt","rwy1":"07R","lat1":38.70320800,"lon1":-107.64906900,"rwy2":"25L","lat2":38.70431900,"lon2":-107.64039700}
]
,"radios":[
{"type":"CTAF","freq":122.8,"desc":"CTAF/UNICOM"}
]
,"navaids":[
{"type":"VOR","hdg_t":225.4,"dist_nm":16.8,"freq":117.1,"lat":38.50644444,"lon":-107.89927778,"rng_nm":130,"alt_fmsl":5713,"id":"MTJ","desc":"MONTROSE VOR-DME"},
{"type":"VOR","hdg_t":117.7,"dist_nm":32.2,"freq":114.9,"lat":38.45216667,"lon":-107.03980556,"rng_nm":130,"alt_fmsl":8730,"id":"HBU","desc":"BLUE MESA VOR-DME"},
{"type":"NDB","hdg_t":27.9,"dist_nm":48,"freq":344,"lat":39.41163889,"lon":-107.15950000,"rng_nm":50,"alt_fmsl":0,"id":"CQL","desc":"CARBONDALE NDB"},
{"type":"VOR","hdg_t":216.2,"dist_nm":49.2,"freq":110.2,"lat":38.04025000,"lon":-108.25858333,"rng_nm":40,"alt_fmsl":8460,"id":"ETL","desc":"CONES VOR-DME"},
{"type":"VOR","hdg_t":355.2,"dist_nm":49.3,"freq":111.45,"lat":39.52455556,"lon":-107.73250000,"rng_nm":40,"alt_fmsl":5484,"id":"RGA","desc":"RIFLE VOR-DME"},
{"type":"NDB","hdg_t":237.8,"dist_nm":51.5,"freq":375,"lat":38.24276800,"lon":-108.56675800,"rng_nm":25,"alt_fmsl":5936,"id":"HPL","desc":"HOPKINS NDB"},
{"type":"VOR","hdg_t":38.2,"dist_nm":56.3,"freq":113,"lat":39.43933333,"lon":-106.89466667,"rng_nm":130,"alt_fmsl":11800,"id":"DBL","desc":"RED TABLE VOR-DME"},
{"type":"VOR","hdg_t":291.9,"dist_nm":57.8,"freq":112.4,"lat":39.05955556,"lon":-108.79258333,"rng_nm":130,"alt_fmsl":7100,"id":"JNC","desc":"GRAND JUNCTION VOR-DME"},
{"type":"VOR","hdg_t":28.5,"dist_nm":63.3,"freq":109.2,"lat":39.62947222,"lon":-106.99113889,"rng_nm":40,"alt_fmsl":8060,"id":"SXW","desc":"SNOW VOR-DME"},
{"type":"NDB","hdg_t":30.8,"dist_nm":65.9,"freq":357,"lat":39.64655556,"lon":-106.91427778,"rng_nm":50,"alt_fmsl":0,"id":"EGE","desc":"EAGLE NDB"},
{"type":"VOR","hdg_t":228.9,"dist_nm":81.1,"freq":114.6,"lat":37.80875000,"lon":-108.93127778,"rng_nm":130,"alt_fmsl":6990,"id":"DVC","desc":"DOVE CREEK VORTAC"},
{"type":"VOR","hdg_t":351,"dist_nm":82.7,"freq":115.2,"lat":40.06741667,"lon":-107.92494444,"rng_nm":130,"alt_fmsl":7631,"id":"EKR","desc":"MEEKER VOR-DME"},
{"type":"VOR","hdg_t":209.1,"dist_nm":89.9,"freq":108.4,"lat":37.38986111,"lon":-108.56175000,"rng_nm":40,"alt_fmsl":6223,"id":"CEZ","desc":"CORTEZ VOR-DME"},
{"type":"VOR","hdg_t":183.1,"dist_nm":93,"freq":108.2,"lat":37.15325000,"lon":-107.74961111,"rng_nm":40,"alt_fmsl":6660,"id":"DRO","desc":"DURANGO VOR-DME"},
{"type":"VOR","hdg_t":35.3,"dist_nm":95.8,"freq":113.8,"lat":40.00263889,"lon":-106.44247222,"rng_nm":130,"alt_fmsl":9370,"id":"RLG","desc":"KREMMLING VOR-DME"},
{"type":"VOR","hdg_t":272.4,"dist_nm":98.8,"freq":109.8,"lat":38.75625000,"lon":-109.74927778,"rng_nm":25,"alt_fmsl":4542,"id":"OAB","desc":"MOAB VOR-DME"}
]
}
