{"success":true,"source":"xp2csv.pl","last_updated":"2013/11/08 14:53:21 UTC"
,"icao":"9IL9","name":"Kreilings","lat":40.35337444,"lon":-89.78733251,"rwys":1,"ils":0,"index":1482896,"path":"w090n40/w090n40"
,"runways":[
{"len_m":492,"wid_m":30.48,"hdg":90,"surf":"Turf/grass","rwy1":"09","lat1":40.35341298,"lon1":-89.79022959,"rwy2":"27","lat2":40.35333590,"lon2":-89.78443543}
]
,"navaids":[
{"type":"NDB","hdg_t":30.3,"dist_nm":17.5,"freq":356,"lat":40.60566667,"lon":-89.59313889,"rng_nm":50,"alt_fmsl":0,"id":"PI","desc":"TUNGG NDB"},
{"type":"NDB","hdg_t":313.9,"dist_nm":18.3,"freq":236,"lat":40.56586111,"lon":-90.07705556,"rng_nm":50,"alt_fmsl":0,"id":"CTK","desc":"CANTON NDB"},
{"type":"VOR","hdg_t":359.2,"dist_nm":19.5,"freq":115.2,"lat":40.68008333,"lon":-89.79302778,"rng_nm":40,"alt_fmsl":731,"id":"PIA","desc":"PEORIA VORTAC"},
{"type":"NDB","hdg_t":119.1,"dist_nm":23.6,"freq":329,"lat":40.16013889,"lon":-89.33775000,"rng_nm":50,"alt_fmsl":0,"id":"AAA","desc":"ABRAHAM NDB"},
{"type":"NDB","hdg_t":162.1,"dist_nm":27.7,"freq":375,"lat":39.91202778,"lon":-89.60305556,"rng_nm":50,"alt_fmsl":0,"id":"LQ","desc":"LICOL NDB"},
{"type":"VOR","hdg_t":170.6,"dist_nm":31.2,"freq":112.7,"lat":39.83972222,"lon":-89.67772222,"rng_nm":130,"alt_fmsl":586,"id":"SPI","desc":"SPINNER VORTAC"},
{"type":"NDB","hdg_t":164.9,"dist_nm":34.6,"freq":240,"lat":39.79461111,"lon":-89.59275000,"rng_nm":50,"alt_fmsl":0,"id":"CJ","desc":"CALDE NDB"},
{"type":"NDB","hdg_t":177.9,"dist_nm":34.8,"freq":382,"lat":39.77313889,"lon":-89.75988889,"rng_nm":50,"alt_fmsl":0,"id":"SP","desc":"HUSKK NDB"},
{"type":"NDB","hdg_t":285.8,"dist_nm":36.7,"freq":251,"lat":40.51836111,"lon":-90.56041667,"rng_nm":50,"alt_fmsl":0,"id":"JZY","desc":"MACOMB NDB"},
{"type":"VOR","hdg_t":78.7,"dist_nm":39.9,"freq":108.2,"lat":40.48080556,"lon":-88.93127778,"rng_nm":40,"alt_fmsl":882,"id":"BMI","desc":"BLOOMINGTON VOR-DME"},
{"type":"VOR","hdg_t":211.1,"dist_nm":40.3,"freq":108.6,"lat":39.77644444,"lon":-90.23872222,"rng_nm":25,"alt_fmsl":615,"id":"IJX","desc":"JACKSONVILLE VOR-DME"},
{"type":"NDB","hdg_t":73.1,"dist_nm":43.6,"freq":334,"lat":40.56036111,"lon":-88.87463889,"rng_nm":50,"alt_fmsl":0,"id":"LH","desc":"EGROW NDB"},
{"type":"VOR","hdg_t":320,"dist_nm":45.8,"freq":109.8,"lat":40.93733333,"lon":-90.43447222,"rng_nm":25,"alt_fmsl":760,"id":"GBG","desc":"GALESBURG VOR-DME"},
{"type":"VOR","hdg_t":10.5,"dist_nm":49.1,"freq":114.7,"lat":41.15972222,"lon":-89.58786111,"rng_nm":130,"alt_fmsl":810,"id":"BDF","desc":"BRADFORD VORTAC"},
{"type":"NDB","hdg_t":131,"dist_nm":51.1,"freq":275,"lat":39.79052778,"lon":-88.95388889,"rng_nm":50,"alt_fmsl":0,"id":"DE","desc":"ELWIN NDB"},
{"type":"NDB","hdg_t":156.2,"dist_nm":53.4,"freq":395,"lat":39.53611111,"lon":-89.32361111,"rng_nm":50,"alt_fmsl":0,"id":"TAZ","desc":"TAYLORVILLE NDB"},
{"type":"VOR","hdg_t":59.4,"dist_nm":55.7,"freq":109.6,"lat":40.82119444,"lon":-88.73350000,"rng_nm":40,"alt_fmsl":679,"id":"PNT","desc":"PONTIAC VOR-DME"},
{"type":"VOR","hdg_t":130.4,"dist_nm":56.5,"freq":117.2,"lat":39.73752778,"lon":-88.85644444,"rng_nm":130,"alt_fmsl":708,"id":"AXC","desc":"ADDERS VORTAC"},
{"type":"VOR","hdg_t":293.4,"dist_nm":56.6,"freq":111.4,"lat":40.72338889,"lon":-90.92588889,"rng_nm":40,"alt_fmsl":730,"id":"BRL","desc":"BURLINGTON VORTAC"},
{"type":"NDB","hdg_t":227.3,"dist_nm":62.7,"freq":344,"lat":39.64031700,"lon":-90.78280000,"rng_nm":25,"alt_fmsl":702,"id":"PPQ","desc":"PITTSFIELD NDB"},
{"type":"NDB","hdg_t":286.8,"dist_nm":63.7,"freq":390,"lat":40.65425000,"lon":-91.12300000,"rng_nm":50,"alt_fmsl":0,"id":"BR","desc":"BURNS NDB"},
{"type":"NDB","hdg_t":25.6,"dist_nm":66.7,"freq":230,"lat":41.35475600,"lon":-89.14813900,"rng_nm":25,"alt_fmsl":652,"id":"VYS","desc":"VALLEY NDB"},
{"type":"VOR","hdg_t":326.5,"dist_nm":69.7,"freq":114.4,"lat":41.32091667,"lon":-90.63822222,"rng_nm":40,"alt_fmsl":817,"id":"MZV","desc":"MOLINE VORTAC"},
{"type":"NDB","hdg_t":142.1,"dist_nm":71.5,"freq":365,"lat":39.40669444,"lon":-88.84369444,"rng_nm":50,"alt_fmsl":0,"id":"SYZ","desc":"SHELBYVILLE NDB"},
{"type":"VOR","hdg_t":104.8,"dist_nm":72,"freq":110,"lat":40.03452778,"lon":-88.27605556,"rng_nm":40,"alt_fmsl":745,"id":"CMI","desc":"CHAMPAIGN VORTAC"},
{"type":"NDB","hdg_t":247.9,"dist_nm":73,"freq":293,"lat":39.88686111,"lon":-91.25369444,"rng_nm":50,"alt_fmsl":0,"id":"UI","desc":"QUINCY NDB"},
{"type":"NDB","hdg_t":34.7,"dist_nm":73.9,"freq":266,"lat":41.36252778,"lon":-88.85425000,"rng_nm":50,"alt_fmsl":0,"id":"OIX","desc":"OTTAWA NDB"},
{"type":"VOR","hdg_t":246.6,"dist_nm":75,"freq":113.6,"lat":39.84786111,"lon":-91.27891667,"rng_nm":130,"alt_fmsl":715,"id":"UIN","desc":"QUINCY VORTAC"},
{"type":"VOR","hdg_t":79,"dist_nm":75.5,"freq":116.8,"lat":40.58169444,"lon":-88.16427778,"rng_nm":40,"alt_fmsl":780,"id":"RBS","desc":"ROBERTS VOR-DME"},
{"type":"NDB","hdg_t":275.5,"dist_nm":75.7,"freq":366,"lat":40.46469444,"lon":-91.43358333,"rng_nm":50,"alt_fmsl":0,"id":"EOK","desc":"KEOKUK NDB"},
{"type":"NDB","hdg_t":330.3,"dist_nm":75.8,"freq":215,"lat":41.44905556,"lon":-90.61847222,"rng_nm":50,"alt_fmsl":0,"id":"ML","desc":"MOLLI NDB"},
{"type":"NDB","hdg_t":106.9,"dist_nm":77.3,"freq":407,"lat":39.96622222,"lon":-88.18244444,"rng_nm":50,"alt_fmsl":0,"id":"CM","desc":"VEALS NDB"},
{"type":"VOR","hdg_t":158.8,"dist_nm":80.8,"freq":114.3,"lat":39.09369444,"lon":-89.16247222,"rng_nm":40,"alt_fmsl":604,"id":"VLA","desc":"VANDALIA VORTAC"},
{"type":"NDB","hdg_t":0,"dist_nm":81.4,"freq":254,"lat":41.71111111,"lon":-89.78561111,"rng_nm":50,"alt_fmsl":0,"id":"BOZ","desc":"WHITESIDE NDB"},
{"type":"NDB","hdg_t":102.4,"dist_nm":86.5,"freq":281,"lat":40.02641667,"lon":-87.95308333,"rng_nm":50,"alt_fmsl":0,"id":"HMJ","desc":"HOMER NDB"},
{"type":"NDB","hdg_t":294.9,"dist_nm":86.6,"freq":212,"lat":40.94905556,"lon":-91.51516667,"rng_nm":50,"alt_fmsl":0,"id":"MPZ","desc":"MOUNT PLEASANT NDB"},
{"type":"VOR","hdg_t":314.8,"dist_nm":86.7,"freq":116.5,"lat":41.36638889,"lon":-91.14905556,"rng_nm":40,"alt_fmsl":540,"id":"DDD","desc":"PORT CITY VOR-DME"},
{"type":"VOR","hdg_t":126.6,"dist_nm":86.9,"freq":109.4,"lat":39.47800000,"lon":-88.28605556,"rng_nm":40,"alt_fmsl":720,"id":"MTO","desc":"MATTOON VOR-DME"},
{"type":"VOR","hdg_t":338.9,"dist_nm":87.1,"freq":113.8,"lat":41.70855556,"lon":-90.48330556,"rng_nm":40,"alt_fmsl":767,"id":"CVA","desc":"DAVENPORT VORTAC"},
{"type":"NDB","hdg_t":342.1,"dist_nm":88.2,"freq":517,"lat":41.75166667,"lon":-90.39050000,"rng_nm":50,"alt_fmsl":0,"id":"FN","desc":"HILLZ NDB"},
{"type":"NDB","hdg_t":188.1,"dist_nm":88.4,"freq":263,"lat":38.89230556,"lon":-90.05627778,"rng_nm":50,"alt_fmsl":0,"id":"CVM","desc":"CIVIC MEMORIAL NDB"},
{"type":"NDB","hdg_t":334.1,"dist_nm":89.5,"freq":353,"lat":41.69486111,"lon":-90.65588889,"rng_nm":50,"alt_fmsl":0,"id":"DV","desc":"AUNEY NDB"},
{"type":"NDB","hdg_t":184.4,"dist_nm":90,"freq":218,"lat":38.85500000,"lon":-89.93805556,"rng_nm":50,"alt_fmsl":0,"id":"AL","desc":"ALPOS NDB"},
{"type":"NDB","hdg_t":125.7,"dist_nm":92.3,"freq":347,"lat":39.44241667,"lon":-88.17347222,"rng_nm":50,"alt_fmsl":0,"id":"MT","desc":"ZEBRE NDB"},
{"type":"NDB","hdg_t":167.9,"dist_nm":93,"freq":233,"lat":38.83421400,"lon":-89.37230000,"rng_nm":25,"alt_fmsl":539,"id":"GRE","desc":"GREENVILLE NDB"},
{"type":"NDB","hdg_t":64.5,"dist_nm":94.7,"freq":272,"lat":41.01788889,"lon":-87.90372222,"rng_nm":50,"alt_fmsl":0,"id":"IK","desc":"LUKOW NDB"},
{"type":"VOR","hdg_t":200,"dist_nm":95.1,"freq":117.4,"lat":38.86069444,"lon":-90.48236111,"rng_nm":130,"alt_fmsl":450,"id":"STL","desc":"ST LOUIS VORTAC"},
{"type":"NDB","hdg_t":193.8,"dist_nm":96.5,"freq":404,"lat":38.78805556,"lon":-90.27886111,"rng_nm":50,"alt_fmsl":0,"id":"ST","desc":"ZUMAY NDB"},
{"type":"VOR","hdg_t":183.6,"dist_nm":96.9,"freq":116,"lat":38.73916667,"lon":-89.91863889,"rng_nm":40,"alt_fmsl":570,"id":"TOY","desc":"TROY VORTAC"},
{"type":"VOR","hdg_t":6.9,"dist_nm":97.4,"freq":111.2,"lat":41.96563889,"lon":-89.52422222,"rng_nm":40,"alt_fmsl":840,"id":"PLL","desc":"POLO VOR-DME"},
{"type":"VOR","hdg_t":42.5,"dist_nm":97.8,"freq":112.3,"lat":41.54641667,"lon":-88.31841667,"rng_nm":130,"alt_fmsl":592,"id":"JOT","desc":"JOLIET VORTAC"},
{"type":"NDB","hdg_t":199.1,"dist_nm":98.4,"freq":338,"lat":38.80033333,"lon":-90.47475000,"rng_nm":50,"alt_fmsl":0,"id":"LM","desc":"OBLIO NDB"},
{"type":"VOR","hdg_t":63.3,"dist_nm":98.4,"freq":111.6,"lat":41.07441667,"lon":-87.84977778,"rng_nm":40,"alt_fmsl":625,"id":"IKK","desc":"KANKAKEE VOR-DME"},
{"type":"VOR","hdg_t":195.6,"dist_nm":99.5,"freq":116.45,"lat":38.75275000,"lon":-90.36097222,"rng_nm":130,"alt_fmsl":530,"id":"CSX","desc":"CARDINAL VOR-DME"}
]
}
