{"success":true,"source":"xp2csv.pl","last_updated":"2013/11/08 14:53:21 UTC"
,"icao":"9KS4","name":"Rose Port","lat":39.6364,"lon":-98.35977945,"rwys":1,"ils":0,"index":1335402,"path":"w100n30/w099n39"
,"runways":[
{"len_m":791,"wid_m":15.24,"hdg":166,"surf":"Turf/grass","rwy1":"16","lat1":39.63987448,"lon1":-98.36082105,"rwy2":"34","lat2":39.63292552,"lon2":-98.35873785}
]
,"navaids":[
{"type":"VOR","hdg_t":24.3,"dist_nm":11.1,"freq":109.8,"lat":39.80638889,"lon":-98.26002778,"rng_nm":40,"alt_fmsl":1880,"id":"TKO","desc":"MANKATO VORTAC"},
{"type":"NDB","hdg_t":98.3,"dist_nm":33.2,"freq":335,"lat":39.55333333,"lon":-97.65113889,"rng_nm":50,"alt_fmsl":0,"id":"CNK","desc":"CONCORDIA NDB"},
{"type":"NDB","hdg_t":71.7,"dist_nm":34.1,"freq":414,"lat":39.81327778,"lon":-97.65786111,"rng_nm":50,"alt_fmsl":0,"id":"RPB","desc":"REPUBLICAN NDB"},
{"type":"NDB","hdg_t":275.8,"dist_nm":43.2,"freq":368,"lat":39.70613889,"lon":-99.28830556,"rng_nm":50,"alt_fmsl":0,"id":"PHG","desc":"PHILLIPSBURG NDB"},
{"type":"NDB","hdg_t":48.9,"dist_nm":47.1,"freq":323,"lat":40.15036111,"lon":-97.58777778,"rng_nm":50,"alt_fmsl":0,"id":"HJH","desc":"HEBRON NDB"},
{"type":"VOR","hdg_t":140.8,"dist_nm":54.7,"freq":117.1,"lat":38.92513889,"lon":-97.62136111,"rng_nm":130,"alt_fmsl":1310,"id":"SLN","desc":"SALINA VORTAC"},
{"type":"NDB","hdg_t":105,"dist_nm":57.7,"freq":362,"lat":39.38075000,"lon":-97.16125000,"rng_nm":50,"alt_fmsl":0,"id":"CYW","desc":"CLAY CENTER NDB"},
{"type":"VOR","hdg_t":356.8,"dist_nm":58.1,"freq":108.8,"lat":40.60452778,"lon":-98.42961111,"rng_nm":40,"alt_fmsl":1967,"id":"HSI","desc":"HASTINGS VOR-DME"},
{"type":"NDB","hdg_t":82.5,"dist_nm":61.4,"freq":212,"lat":39.76169444,"lon":-97.04233333,"rng_nm":50,"alt_fmsl":0,"id":"DBX","desc":"MORRISON NDB"},
{"type":"NDB","hdg_t":355.1,"dist_nm":63.1,"freq":338,"lat":40.68625000,"lon":-98.47752778,"rng_nm":50,"alt_fmsl":0,"id":"PSS","desc":"PROSSER NDB"},
{"type":"VOR","hdg_t":222.4,"dist_nm":63.7,"freq":110.4,"lat":38.84766667,"lon":-99.27677778,"rng_nm":40,"alt_fmsl":1990,"id":"HYS","desc":"HAYS VORTAC"},
{"type":"NDB","hdg_t":59.1,"dist_nm":63.9,"freq":293,"lat":40.17666667,"lon":-97.16586111,"rng_nm":50,"alt_fmsl":0,"id":"FBY","desc":"FAIRBURY NDB"},
{"type":"NDB","hdg_t":149.5,"dist_nm":66.2,"freq":344,"lat":38.68152778,"lon":-97.64505556,"rng_nm":50,"alt_fmsl":0,"id":"SL","desc":"FLORY NDB"},
{"type":"NDB","hdg_t":317.4,"dist_nm":66.4,"freq":396,"lat":40.44816667,"lon":-99.34080556,"rng_nm":50,"alt_fmsl":0,"id":"HDE","desc":"HOLDREGE NDB"},
{"type":"NDB","hdg_t":218.9,"dist_nm":66.5,"freq":374,"lat":38.76922222,"lon":-99.25127778,"rng_nm":50,"alt_fmsl":0,"id":"HY","desc":"NETTE NDB"},
{"type":"NDB","hdg_t":332.9,"dist_nm":66.7,"freq":422,"lat":40.62613889,"lon":-99.02563889,"rng_nm":50,"alt_fmsl":0,"id":"EA","desc":"ANOKE NDB"},
{"type":"NDB","hdg_t":32.2,"dist_nm":67.7,"freq":392,"lat":40.58994444,"lon":-97.56805556,"rng_nm":50,"alt_fmsl":0,"id":"FMZ","desc":"BEKLOF NDB"},
{"type":"VOR","hdg_t":335.7,"dist_nm":71.7,"freq":111.2,"lat":40.72558333,"lon":-99.00511111,"rng_nm":40,"alt_fmsl":0,"id":"EAR","desc":"KEARNEY VOR"},
{"type":"NDB","hdg_t":280.9,"dist_nm":72,"freq":230,"lat":39.85527778,"lon":-99.89030556,"rng_nm":50,"alt_fmsl":0,"id":"NRN","desc":"NORTON NDB"},
{"type":"NDB","hdg_t":1.5,"dist_nm":74.1,"freq":380,"lat":40.87288889,"lon":-98.31472222,"rng_nm":50,"alt_fmsl":0,"id":"GR","desc":"SANCY NDB"},
{"type":"NDB","hdg_t":12.3,"dist_nm":77.1,"freq":278,"lat":40.89251400,"lon":-97.99719400,"rng_nm":25,"alt_fmsl":1799,"id":"AUH","desc":"AURORA NDB"},
{"type":"NDB","hdg_t":175.3,"dist_nm":77.5,"freq":386,"lat":38.34722222,"lon":-98.22700000,"rng_nm":50,"alt_fmsl":0,"id":"LYO","desc":"LYONS NDB"},
{"type":"VOR","hdg_t":119.3,"dist_nm":80.4,"freq":109.4,"lat":38.97016667,"lon":-96.86116667,"rng_nm":25,"alt_fmsl":0,"id":"FRI","desc":"FORT RILEY VOR"},
{"type":"NDB","hdg_t":198.5,"dist_nm":80.6,"freq":338,"lat":38.35908333,"lon":-98.90288889,"rng_nm":50,"alt_fmsl":0,"id":"HIL","desc":"HILYN NDB"},
{"type":"VOR","hdg_t":1.4,"dist_nm":80.8,"freq":112,"lat":40.98402778,"lon":-98.31477778,"rng_nm":40,"alt_fmsl":1840,"id":"GRI","desc":"GRAND ISLAND VORTAC"},
{"type":"NDB","hdg_t":116.1,"dist_nm":81.5,"freq":314,"lat":39.02600000,"lon":-96.79450000,"rng_nm":50,"alt_fmsl":0,"id":"CVY","desc":"CAVALRY NDB"},
{"type":"NDB","hdg_t":62.4,"dist_nm":82.9,"freq":263,"lat":40.26500000,"lon":-96.75708100,"rng_nm":25,"alt_fmsl":1250,"id":"HWB","desc":"SHAW NDB"},
{"type":"NDB","hdg_t":24,"dist_nm":82.9,"freq":257,"lat":40.89755556,"lon":-97.61700000,"rng_nm":50,"alt_fmsl":0,"id":"JYR","desc":"YORK NDB"},
{"type":"NDB","hdg_t":157.6,"dist_nm":83.3,"freq":227,"lat":38.34850000,"lon":-97.68730556,"rng_nm":50,"alt_fmsl":0,"id":"MPR","desc":"MC PHERSON NDB"},
{"type":"NDB","hdg_t":58,"dist_nm":83.5,"freq":248,"lat":40.36361100,"lon":-96.81294200,"rng_nm":25,"alt_fmsl":1352,"id":"BJU","desc":"BIG BLUE NDB"},
{"type":"VOR","hdg_t":109.9,"dist_nm":83.9,"freq":110.2,"lat":39.14544444,"lon":-96.66872222,"rng_nm":25,"alt_fmsl":1044,"id":"MHK","desc":"MANHATTAN VOR-DME"},
{"type":"VOR","hdg_t":61.1,"dist_nm":84,"freq":110.6,"lat":40.30141667,"lon":-96.75463889,"rng_nm":25,"alt_fmsl":1304,"id":"BIE","desc":"BEATRICE VOR-DME"},
{"type":"NDB","hdg_t":195.7,"dist_nm":86.1,"freq":419,"lat":38.25169444,"lon":-98.85580556,"rng_nm":50,"alt_fmsl":0,"id":"GB","desc":"BABSY NDB"},
{"type":"NDB","hdg_t":110.5,"dist_nm":86.3,"freq":391,"lat":39.11744200,"lon":-96.62933600,"rng_nm":50,"alt_fmsl":1060,"id":"MQD","desc":"MC DOWELL CREEK NDB"},
{"type":"NDB","hdg_t":47.6,"dist_nm":88.6,"freq":420,"lat":40.62411400,"lon":-96.92761100,"rng_nm":25,"alt_fmsl":1479,"id":"CEK","desc":"CRETE NDB"},
{"type":"VOR","hdg_t":255.9,"dist_nm":89.6,"freq":113.7,"lat":39.25875000,"lon":-100.22586111,"rng_nm":130,"alt_fmsl":2690,"id":"HLC","desc":"HILL CITY VORTAC"},
{"type":"NDB","hdg_t":127.5,"dist_nm":91.7,"freq":407,"lat":38.69277778,"lon":-96.81111111,"rng_nm":50,"alt_fmsl":0,"id":"HRU","desc":"HERINGTON NDB"},
{"type":"NDB","hdg_t":296.3,"dist_nm":92,"freq":389,"lat":40.30427778,"lon":-100.15772222,"rng_nm":50,"alt_fmsl":0,"id":"CSB","desc":"HARRY STRUNK NDB"},
{"type":"NDB","hdg_t":201.8,"dist_nm":92.3,"freq":296,"lat":38.20436111,"lon":-99.08791667,"rng_nm":50,"alt_fmsl":0,"id":"LQR","desc":"LARNED NDB"},
{"type":"NDB","hdg_t":167.2,"dist_nm":92.9,"freq":404,"lat":38.12372222,"lon":-97.92702778,"rng_nm":50,"alt_fmsl":0,"id":"HU","desc":"SALTT NDB"},
{"type":"NDB","hdg_t":37.5,"dist_nm":93.1,"freq":269,"lat":40.86127778,"lon":-97.11194444,"rng_nm":50,"alt_fmsl":0,"id":"SWT","desc":"SEWARD NDB"},
{"type":"NDB","hdg_t":47.2,"dist_nm":99.1,"freq":385,"lat":40.74719444,"lon":-96.76241667,"rng_nm":50,"alt_fmsl":0,"id":"LN","desc":"POTTS NDB"},
{"type":"NDB","hdg_t":316.9,"dist_nm":99.8,"freq":326,"lat":40.84444444,"lon":-99.85622222,"rng_nm":50,"alt_fmsl":0,"id":"RRX","desc":"DARR NDB"}
]
}
