{"success":true,"source":"xp2csv.pl","last_updated":"2013/11/08 14:53:21 UTC"
,"icao":"9M8","name":"Sheridan Muni","lat":34.328193,"lon":-92.350972,"rwys":1,"ils":0,"index":1433362,"path":"w100n30/w093n34"
,"runways":[
{"len_m":922,"wid_m":15.24,"hdg":14,"surf":"Asphalt","rwy1":"01","lat1":34.32416400,"lon1":-92.35221900,"rwy2":"19","lat2":34.33222200,"lon2":-92.34972500}
]
,"radios":[
{"type":"CTAF","freq":122.8,"desc":"CTAF/UNICOM"}
]
,"navaids":[
{"type":"NDB","hdg_t":270.9,"dist_nm":20.4,"freq":215,"lat":34.33342800,"lon":-92.76238900,"rng_nm":25,"alt_fmsl":535,"id":"MVQ","desc":"MALVERN NDB"},
{"type":"NDB","hdg_t":6.2,"dist_nm":20.5,"freq":353,"lat":34.66900000,"lon":-92.30547222,"rng_nm":50,"alt_fmsl":0,"id":"LI","desc":"LASKY NDB"},
{"type":"VOR","hdg_t":102.8,"dist_nm":21.6,"freq":116,"lat":34.24675000,"lon":-91.92616667,"rng_nm":40,"alt_fmsl":210,"id":"PBF","desc":"PINE BLUFF VOR-DME"},
{"type":"VOR","hdg_t":21.9,"dist_nm":22.5,"freq":113.9,"lat":34.67766667,"lon":-92.18052778,"rng_nm":130,"alt_fmsl":240,"id":"LIT","desc":"LITTLE ROCK VORTAC"},
{"type":"SDME","hdg_t":15.1,"dist_nm":36.6,"freq":109.2,"lat":34.91806700,"lon":-92.15766700,"rng_nm":25,"alt_fmsl":328,"id":"LRF","desc":"JACKSONVILLE TACAN"},
{"type":"VOR","hdg_t":283.9,"dist_nm":37.8,"freq":110,"lat":34.47858333,"lon":-93.09061111,"rng_nm":40,"alt_fmsl":528,"id":"HOT","desc":"HOT SPRINGS VOR-DME"},
{"type":"NDB","hdg_t":74.2,"dist_nm":39.6,"freq":338,"lat":34.50580556,"lon":-91.58177778,"rng_nm":50,"alt_fmsl":0,"id":"TT","desc":"STUTT NDB"},
{"type":"NDB","hdg_t":23.5,"dist_nm":40.8,"freq":290,"lat":34.95250000,"lon":-92.01950000,"rng_nm":50,"alt_fmsl":0,"id":"TYV","desc":"TONEYVILLE NDB"},
{"type":"NDB","hdg_t":246.7,"dist_nm":40.9,"freq":275,"lat":34.05561111,"lon":-93.10519444,"rng_nm":50,"alt_fmsl":0,"id":"ADF","desc":"ARKADELPHIA NDB"},
{"type":"NDB","hdg_t":277.9,"dist_nm":42,"freq":385,"lat":34.42261111,"lon":-93.18963889,"rng_nm":50,"alt_fmsl":0,"id":"HO","desc":"HOSSY NDB"},
{"type":"NDB","hdg_t":61.7,"dist_nm":42.7,"freq":269,"lat":34.66377778,"lon":-91.59044444,"rng_nm":50,"alt_fmsl":0,"id":"SGT","desc":"STUTTGART NDB"},
{"type":"NDB","hdg_t":355.2,"dist_nm":45.4,"freq":302,"lat":35.08397222,"lon":-92.42683333,"rng_nm":50,"alt_fmsl":0,"id":"CWS","desc":"CONWAY NDB"},
{"type":"NDB","hdg_t":206,"dist_nm":47.5,"freq":335,"lat":33.61353100,"lon":-92.76752200,"rng_nm":25,"alt_fmsl":0,"id":"CDH","desc":"CAMDEN NDB"},
{"type":"NDB","hdg_t":122.8,"dist_nm":48.7,"freq":305,"lat":33.88440800,"lon":-91.53151400,"rng_nm":25,"alt_fmsl":163,"id":"DZM","desc":"DUMAS NDB"},
{"type":"NDB","hdg_t":339.9,"dist_nm":51.7,"freq":208,"lat":35.13925000,"lon":-92.71238600,"rng_nm":25,"alt_fmsl":320,"id":"BDQ","desc":"BRIDGE NDB"},
{"type":"NDB","hdg_t":329.2,"dist_nm":55.2,"freq":410,"lat":35.11869444,"lon":-92.92516667,"rng_nm":50,"alt_fmsl":0,"id":"MPJ","desc":"MORRILTON NDB"},
{"type":"VOR","hdg_t":145.1,"dist_nm":55.7,"freq":111.6,"lat":33.56205556,"lon":-91.71569444,"rng_nm":40,"alt_fmsl":280,"id":"MON","desc":"MONTICELLO VOR-DME"},
{"type":"NDB","hdg_t":29.8,"dist_nm":61.1,"freq":323,"lat":35.21203100,"lon":-91.73263600,"rng_nm":25,"alt_fmsl":260,"id":"SRC","desc":"SEARCY NDB"},
{"type":"NDB","hdg_t":196.9,"dist_nm":65.2,"freq":418,"lat":33.28605556,"lon":-92.72813889,"rng_nm":50,"alt_fmsl":0,"id":"EL","desc":"LADOS NDB"},
{"type":"NDB","hdg_t":326.7,"dist_nm":66.6,"freq":379,"lat":35.25708333,"lon":-93.09461111,"rng_nm":50,"alt_fmsl":0,"id":"RUE","desc":"RUSSELLVILLE NDB"},
{"type":"VOR","hdg_t":197.1,"dist_nm":67.1,"freq":115.5,"lat":33.25616667,"lon":-92.74394444,"rng_nm":130,"alt_fmsl":230,"id":"ELD","desc":"EL DORADO VORTAC"},
{"type":"NDB","hdg_t":13.1,"dist_nm":73,"freq":256,"lat":35.51432800,"lon":-92.01106500,"rng_nm":25,"alt_fmsl":625,"id":"HBZ","desc":"HEBER SPRINGS NDB"},
{"type":"NDB","hdg_t":240.9,"dist_nm":74.4,"freq":362,"lat":33.71811111,"lon":-93.65077778,"rng_nm":50,"alt_fmsl":0,"id":"HPC","desc":"HOPE NDB"},
{"type":"VOR","hdg_t":124.8,"dist_nm":83.5,"freq":110.2,"lat":33.52352778,"lon":-90.98294444,"rng_nm":40,"alt_fmsl":130,"id":"GLH","desc":"GREENVILLE VOR-DME"},
{"type":"NDB","hdg_t":79.5,"dist_nm":84.3,"freq":251,"lat":34.57121100,"lon":-90.67594200,"rng_nm":25,"alt_fmsl":0,"id":"HEE","desc":"THOMPSON ROBBINS NDB"},
{"type":"VOR","hdg_t":79.4,"dist_nm":84.4,"freq":109.6,"lat":34.57505556,"lon":-90.67438889,"rng_nm":40,"alt_fmsl":241,"id":"UJM","desc":"MARVELL VOR-DME"},
{"type":"NDB","hdg_t":111,"dist_nm":85,"freq":272,"lat":33.80705556,"lon":-90.76261111,"rng_nm":50,"alt_fmsl":0,"id":"RNV","desc":"RENOVA NDB"},
{"type":"NDB","hdg_t":278.9,"dist_nm":86.3,"freq":352,"lat":34.53919444,"lon":-94.07263889,"rng_nm":50,"alt_fmsl":0,"id":"VM","desc":"FENCH NDB"},
{"type":"NDB","hdg_t":278.8,"dist_nm":86.3,"freq":259,"lat":34.53910800,"lon":-94.07298100,"rng_nm":25,"alt_fmsl":0,"id":"VM","desc":"MEANA NDB"},
{"type":"NDB","hdg_t":322.5,"dist_nm":86.4,"freq":201,"lat":35.46925000,"lon":-93.42352778,"rng_nm":50,"alt_fmsl":0,"id":"CZE","desc":"CLARKSVILLE NDB"},
{"type":"NDB","hdg_t":18.1,"dist_nm":86.7,"freq":335,"lat":35.70322222,"lon":-91.79769444,"rng_nm":50,"alt_fmsl":0,"id":"BV","desc":"ALMND NDB"},
{"type":"NDB","hdg_t":127.9,"dist_nm":87.1,"freq":359,"lat":33.42533333,"lon":-90.98211111,"rng_nm":50,"alt_fmsl":0,"id":"MTQ","desc":"METCALF NDB"},
{"type":"NDB","hdg_t":238.6,"dist_nm":91.3,"freq":234,"lat":33.52411111,"lon":-93.90605556,"rng_nm":50,"alt_fmsl":0,"id":"TX","desc":"TECCO NDB"},
{"type":"NDB","hdg_t":7.7,"dist_nm":93,"freq":348,"lat":35.86757500,"lon":-92.09459700,"rng_nm":25,"alt_fmsl":783,"id":"VLX","desc":"WILCOX NDB"},
{"type":"NDB","hdg_t":165.8,"dist_nm":97.1,"freq":329,"lat":32.75469444,"lon":-91.88344444,"rng_nm":50,"alt_fmsl":0,"id":"BQP","desc":"BASTROP NDB"},
{"type":"NDB","hdg_t":35.9,"dist_nm":97.5,"freq":400,"lat":35.64202200,"lon":-91.18068100,"rng_nm":25,"alt_fmsl":237,"id":"EWP","desc":"NEWPORT NDB"},
{"type":"NDB","hdg_t":120.7,"dist_nm":97.8,"freq":284,"lat":33.48016667,"lon":-90.67563889,"rng_nm":50,"alt_fmsl":0,"id":"IDL","desc":"INDIANOLA NDB"},
{"type":"VOR","hdg_t":240.9,"dist_nm":98.8,"freq":116.3,"lat":33.51388889,"lon":-94.07325000,"rng_nm":130,"alt_fmsl":270,"id":"TXK","desc":"TEXARKANA VORTAC"}
]
}
