{"success":true,"source":"xp2csv.pl","last_updated":"2013/11/08 14:53:21 UTC"
,"icao":"9PN1","name":"Seitz Field","lat":40.03896333,"lon":-79.7900425,"rwys":1,"ils":0,"index":1646720,"path":"w080n40/w080n40"
,"runways":[
{"len_m":457,"wid_m":30.48,"hdg":151,"surf":"Turf/grass","rwy1":"16","lat1":40.04077976,"lon1":-79.79130400,"rwy2":"34","lat2":40.03714690,"lon2":-79.78878100}
]
,"navaids":[
{"type":"NDB","hdg_t":167.3,"dist_nm":9.5,"freq":299,"lat":39.88277778,"lon":-79.74472222,"rng_nm":50,"alt_fmsl":0,"id":"VV","desc":"CAMOR NDB"},
{"type":"VOR","hdg_t":321.3,"dist_nm":18.4,"freq":110,"lat":40.27866667,"lon":-80.04086111,"rng_nm":40,"alt_fmsl":1289,"id":"AGC","desc":"ALLEGHENY VOR-DME"},
{"type":"NDB","hdg_t":1.2,"dist_nm":18.9,"freq":287,"lat":40.35530556,"lon":-79.78100000,"rng_nm":50,"alt_fmsl":0,"id":"MKP","desc":"MC KEESPORT NDB"},
{"type":"VOR","hdg_t":100.8,"dist_nm":20.2,"freq":108.2,"lat":39.97425000,"lon":-79.35836111,"rng_nm":40,"alt_fmsl":2820,"id":"IHD","desc":"INDIAN HEAD VORTAC"},
{"type":"VOR","hdg_t":186.4,"dist_nm":29,"freq":111.6,"lat":39.55669444,"lon":-79.86038889,"rng_nm":40,"alt_fmsl":2339,"id":"MGW","desc":"MORGANTOWN VORTAC"},
{"type":"NDB","hdg_t":49.5,"dist_nm":31.2,"freq":382,"lat":40.37544444,"lon":-79.27172222,"rng_nm":50,"alt_fmsl":0,"id":"BHU","desc":"BENJE NDB"},
{"type":"VOR","hdg_t":325.5,"dist_nm":32.7,"freq":112,"lat":40.48813889,"lon":-80.19386111,"rng_nm":40,"alt_fmsl":1200,"id":"MMJ","desc":"MONTOUR VORTAC"},
{"type":"VOR","hdg_t":290.5,"dist_nm":38.1,"freq":112.2,"lat":40.25988889,"lon":-80.56861111,"rng_nm":40,"alt_fmsl":1269,"id":"HLG","desc":"WHEELING VOR-DME"},
{"type":"NDB","hdg_t":85.7,"dist_nm":40.3,"freq":209,"lat":40.08569444,"lon":-78.91655556,"rng_nm":50,"alt_fmsl":0,"id":"SYS","desc":"STOYSTOWN NDB"},
{"type":"NDB","hdg_t":276.1,"dist_nm":41.6,"freq":212,"lat":40.10963889,"lon":-80.68869444,"rng_nm":50,"alt_fmsl":0,"id":"HL","desc":"DORCH (OM) NDB"},
{"type":"VOR","hdg_t":125,"dist_nm":41.8,"freq":112.3,"lat":39.63502778,"lon":-79.05052778,"rng_nm":40,"alt_fmsl":2640,"id":"GRV","desc":"GRANTSVILLE VOR-DME"},
{"type":"VOR","hdg_t":68.9,"dist_nm":47,"freq":113,"lat":40.31672222,"lon":-78.83416667,"rng_nm":40,"alt_fmsl":2280,"id":"JST","desc":"JOHNSTOWN VORTAC"},
{"type":"VOR","hdg_t":268.7,"dist_nm":47.3,"freq":117.1,"lat":40.01702778,"lon":-80.81725000,"rng_nm":130,"alt_fmsl":1290,"id":"AIR","desc":"BELLAIRE VOR-DME"},
{"type":"NDB","hdg_t":42.8,"dist_nm":48.6,"freq":242,"lat":40.63191667,"lon":-79.06591667,"rng_nm":50,"alt_fmsl":0,"id":"INP","desc":"INDIANA NDB"},
{"type":"VOR","hdg_t":337.8,"dist_nm":50.9,"freq":115.8,"lat":40.82494444,"lon":-80.21155556,"rng_nm":130,"alt_fmsl":1227,"id":"EWC","desc":"ELLWOOD CITY VORTAC"},
{"type":"VOR","hdg_t":205.3,"dist_nm":52,"freq":112.6,"lat":39.25322222,"lon":-80.26786111,"rng_nm":40,"alt_fmsl":1430,"id":"CKB","desc":"CLARKSBURG VOR-DME"},
{"type":"NDB","hdg_t":115.5,"dist_nm":53.5,"freq":317,"lat":39.64825000,"lon":-78.74719444,"rng_nm":50,"alt_fmsl":0,"id":"CBE","desc":"CUMBERLAND NDB"},
{"type":"VOR","hdg_t":57.2,"dist_nm":56.7,"freq":110.6,"lat":40.54647222,"lon":-78.74702778,"rng_nm":40,"alt_fmsl":2340,"id":"REC","desc":"REVLOC VOR-DME"},
{"type":"NDB","hdg_t":282.2,"dist_nm":57.5,"freq":239,"lat":40.23672222,"lon":-81.01313889,"rng_nm":50,"alt_fmsl":0,"id":"CFX","desc":"CADIZ NDB"},
{"type":"VOR","hdg_t":142.4,"dist_nm":61.2,"freq":110.8,"lat":39.22550000,"lon":-78.98950000,"rng_nm":40,"alt_fmsl":2590,"id":"ESL","desc":"KESSEL VOR-DME"},
{"type":"NDB","hdg_t":334.3,"dist_nm":65.5,"freq":272,"lat":41.02300000,"lon":-80.41583333,"rng_nm":50,"alt_fmsl":0,"id":"UCP","desc":"CASTLE NDB"},
{"type":"NDB","hdg_t":298.3,"dist_nm":66.9,"freq":395,"lat":40.56263300,"lon":-81.07759700,"rng_nm":25,"alt_fmsl":1184,"id":"TSO","desc":"TOLSON NDB"},
{"type":"VOR","hdg_t":12.7,"dist_nm":68.1,"freq":112.9,"lat":41.14630556,"lon":-79.45797222,"rng_nm":40,"alt_fmsl":1520,"id":"CIP","desc":"CLARION VOR-DME"},
{"type":"NDB","hdg_t":182.7,"dist_nm":68.7,"freq":284,"lat":38.89394444,"lon":-79.85941667,"rng_nm":50,"alt_fmsl":0,"id":"RQY","desc":"RANDOLPH CO NDB"},
{"type":"VOR","hdg_t":192.1,"dist_nm":68.9,"freq":114.2,"lat":38.91444444,"lon":-80.09927778,"rng_nm":40,"alt_fmsl":2160,"id":"EKN","desc":"ELKINS VORTAC"},
{"type":"VOR","hdg_t":75.4,"dist_nm":70.4,"freq":108.8,"lat":40.32544444,"lon":-78.30369444,"rng_nm":25,"alt_fmsl":0,"id":"AOO","desc":"ALTOONA VOR"},
{"type":"NDB","hdg_t":333.3,"dist_nm":74.8,"freq":408,"lat":41.15288889,"lon":-80.53144444,"rng_nm":50,"alt_fmsl":0,"id":"HBD","desc":"HUBBARD NDB"},
{"type":"VOR","hdg_t":278.9,"dist_nm":78.4,"freq":111.8,"lat":40.22922222,"lon":-81.47647222,"rng_nm":40,"alt_fmsl":1180,"id":"CTW","desc":"NEWCOMERSTOWN VOR-DME"},
{"type":"NDB","hdg_t":332.3,"dist_nm":78.7,"freq":338,"lat":41.20052778,"lon":-80.59613889,"rng_nm":50,"alt_fmsl":0,"id":"YN","desc":"FETCH NDB"},
{"type":"VOR","hdg_t":57.5,"dist_nm":78.8,"freq":114.9,"lat":40.73511111,"lon":-78.33130556,"rng_nm":40,"alt_fmsl":2630,"id":"TON","desc":"TYRONE VORTAC"},
{"type":"VOR","hdg_t":244.4,"dist_nm":81.6,"freq":108.6,"lat":39.44116667,"lon":-81.37475000,"rng_nm":40,"alt_fmsl":1030,"id":"JPU","desc":"PARKERSBURG VORTAC"},
{"type":"VOR","hdg_t":357.9,"dist_nm":83.9,"freq":109.6,"lat":41.43861111,"lon":-79.85677778,"rng_nm":40,"alt_fmsl":0,"id":"FKL","desc":"FRANKLIN VOR"},
{"type":"VOR","hdg_t":93.6,"dist_nm":85,"freq":115,"lat":39.93322222,"lon":-77.95094444,"rng_nm":40,"alt_fmsl":2340,"id":"THS","desc":"ST THOMAS VORTAC"},
{"type":"VOR","hdg_t":299.7,"dist_nm":86.2,"freq":112.4,"lat":40.74069444,"lon":-81.43211111,"rng_nm":40,"alt_fmsl":1221,"id":"BSV","desc":"BRIGGS VOR-DME"},
{"type":"VOR","hdg_t":332.7,"dist_nm":87.3,"freq":109,"lat":41.33102778,"lon":-80.67466667,"rng_nm":40,"alt_fmsl":1160,"id":"YNG","desc":"YOUNGSTOWN VORTAC"},
{"type":"VOR","hdg_t":315.2,"dist_nm":90.9,"freq":114.4,"lat":41.10788889,"lon":-81.20152778,"rng_nm":40,"alt_fmsl":1193,"id":"ACO","desc":"AKRON VOR-DME"},
{"type":"NDB","hdg_t":239.6,"dist_nm":91.5,"freq":388,"lat":39.25408333,"lon":-81.48494444,"rng_nm":50,"alt_fmsl":0,"id":"PK","desc":"VERSI NDB"},
{"type":"VOR","hdg_t":102.2,"dist_nm":91.6,"freq":109.8,"lat":39.69772222,"lon":-77.85572222,"rng_nm":40,"alt_fmsl":0,"id":"HGR","desc":"HAGERSTOWN VOR"},
{"type":"NDB","hdg_t":52.4,"dist_nm":94.3,"freq":275,"lat":40.98613889,"lon":-78.14252778,"rng_nm":50,"alt_fmsl":0,"id":"PS","desc":"PORTS NDB"},
{"type":"NDB","hdg_t":310.7,"dist_nm":95.6,"freq":362,"lat":41.06975000,"lon":-81.38747222,"rng_nm":50,"alt_fmsl":0,"id":"AK","desc":"AKRON NDB"},
{"type":"VOR","hdg_t":267.2,"dist_nm":97.1,"freq":111.4,"lat":39.94086111,"lon":-81.89261111,"rng_nm":40,"alt_fmsl":898,"id":"ZZV","desc":"ZANESVILLE VOR-DME"},
{"type":"VOR","hdg_t":56.8,"dist_nm":97.6,"freq":115.5,"lat":40.91625000,"lon":-77.99272222,"rng_nm":130,"alt_fmsl":2440,"id":"PSB","desc":"PHILIPSBURG VORTAC"},
{"type":"VOR","hdg_t":112.9,"dist_nm":98,"freq":112.1,"lat":39.38558333,"lon":-77.84836111,"rng_nm":40,"alt_fmsl":600,"id":"MRB","desc":"MARTINSBURG VORTAC"},
{"type":"NDB","hdg_t":125,"dist_nm":98.1,"freq":364,"lat":39.08650000,"lon":-78.06861111,"rng_nm":50,"alt_fmsl":0,"id":"TZ","desc":"COGAN NDB"},
{"type":"NDB","hdg_t":266,"dist_nm":98.5,"freq":204,"lat":39.90630556,"lon":-81.91927778,"rng_nm":50,"alt_fmsl":0,"id":"HRA","desc":"ZANESVILLE NDB"}
]
}
