{"success":true,"source":"xp2csv.pl","last_updated":"2013/11/08 14:53:21 UTC"
,"icao":"9S2","name":"Scobey","lat":48.8077275,"lon":-105.4394695,"rwys":1,"ils":0,"index":1221298,"path":"w110n40/w106n48"
,"runways":[
{"len_m":1223,"wid_m":22.86,"hdg":133,"surf":"Asphalt","rwy1":"12","lat1":48.81154700,"lon1":-105.44546700,"rwy2":"30","lat2":48.80390800,"lon2":-105.43347200}
]
,"radios":[
{"type":"CTAF","freq":122.8,"desc":"CTAF/UNICOM"},
{"type":"APP","freq":126.85,"desc":"SALT LAKE CITY CNTR"}
]
,"navaids":[
{"type":"NDB","hdg_t":67.6,"dist_nm":0.1,"freq":283,"lat":48.80863889,"lon":-105.43611111,"rng_nm":50,"alt_fmsl":0,"id":"SCO","desc":"SCOBEY NDB"},
{"type":"NDB","hdg_t":91.3,"dist_nm":36.2,"freq":251,"lat":48.79002778,"lon":-104.52716667,"rng_nm":50,"alt_fmsl":0,"id":"PWD","desc":"PLENTYWOOD NDB"},
{"type":"NDB","hdg_t":188.7,"dist_nm":42.7,"freq":404,"lat":48.10447222,"lon":-105.60191667,"rng_nm":50,"alt_fmsl":0,"id":"OLF","desc":"WOLF POINT NDB"},
{"type":"NDB","hdg_t":340.2,"dist_nm":58.7,"freq":278,"lat":49.72833300,"lon":-105.94916700,"rng_nm":25,"alt_fmsl":2370,"id":"NI","desc":"ASSINIBOIA NDB"},
{"type":"VOR","hdg_t":233.5,"dist_nm":59.1,"freq":113.9,"lat":48.21530556,"lon":-106.62541667,"rng_nm":130,"alt_fmsl":2283,"id":"GGW","desc":"GLASGOW VOR-DME"},
{"type":"NDB","hdg_t":233.1,"dist_nm":59.4,"freq":339,"lat":48.20788889,"lon":-106.62616667,"rng_nm":50,"alt_fmsl":0,"id":"MKR","desc":"MILK RIVER NDB"},
{"type":"VOR","hdg_t":115.6,"dist_nm":75.1,"freq":116.3,"lat":48.25341667,"lon":-103.75066667,"rng_nm":40,"alt_fmsl":2372,"id":"ISN","desc":"WILLISTON VORTAC"},
{"type":"NDB","hdg_t":142,"dist_nm":82.9,"freq":359,"lat":47.71147222,"lon":-104.18180556,"rng_nm":50,"alt_fmsl":0,"id":"SDY","desc":"SIDNEY NDB"},
{"type":"NDB","hdg_t":183.3,"dist_nm":83.5,"freq":245,"lat":47.41833333,"lon":-105.55888889,"rng_nm":50,"alt_fmsl":0,"id":"CRR","desc":"CIRCLE NDB"},
{"type":"NDB","hdg_t":49.6,"dist_nm":83.5,"freq":298,"lat":49.69640000,"lon":-103.80357500,"rng_nm":50,"alt_fmsl":1963,"id":"3N","desc":"WEYBURN NDB"},
{"type":"NDB","hdg_t":117.5,"dist_nm":84,"freq":275,"lat":48.14586111,"lon":-103.58380556,"rng_nm":50,"alt_fmsl":0,"id":"ISN","desc":"WILLISTON NDB"},
{"type":"NDB","hdg_t":117.5,"dist_nm":87.4,"freq":275,"lat":48.11819444,"lon":-103.51155556,"rng_nm":50,"alt_fmsl":0,"id":"SF","desc":"YUSON NDB"},
{"type":"NDB","hdg_t":359.9,"dist_nm":89.1,"freq":375,"lat":50.29166667,"lon":-105.44222222,"rng_nm":50,"alt_fmsl":0,"id":"BD","desc":"BAILDON NDB"},
{"type":"VOR","hdg_t":357,"dist_nm":91.6,"freq":113.4,"lat":50.33113889,"lon":-105.56336111,"rng_nm":130,"alt_fmsl":1898,"id":"YMJ","desc":"MOOSE JAW VORTAC"},
{"type":"NDB","hdg_t":1.1,"dist_nm":97.6,"freq":272,"lat":50.43333300,"lon":-105.38666700,"rng_nm":25,"alt_fmsl":1896,"id":"V1","desc":"MOOSE JAW MUNI NDB"},
{"type":"NDB","hdg_t":19.5,"dist_nm":99.7,"freq":290,"lat":50.36972222,"lon":-104.57305556,"rng_nm":50,"alt_fmsl":0,"id":"QR","desc":"REGINA NDB"}
]
}
