{"success":true,"source":"xp2csv.pl","last_updated":"2013/11/08 14:53:21 UTC"
,"icao":"9TX1","name":"Bar S Ranch","lat":30.14327277,"lon":-96.85609084,"rwys":1,"ils":0,"index":1367560,"path":"w100n30/w097n30"
,"runways":[
{"len_m":883,"wid_m":24.38,"hdg":136,"surf":"Turf/grass","rwy1":"13","lat1":30.14618160,"lon1":-96.85922753,"rwy2":"31","lat2":30.14036394,"lon2":-96.85295415}
]
,"navaids":[
{"type":"NDB","hdg_t":283.8,"dist_nm":6.5,"freq":385,"lat":30.16952200,"lon":-96.97874400,"rng_nm":25,"alt_fmsl":464,"id":"GYB","desc":"LEE COUNTY NDB"},
{"type":"VOR","hdg_t":126.1,"dist_nm":18.9,"freq":110.2,"lat":29.95605556,"lon":-96.56219444,"rng_nm":40,"alt_fmsl":419,"id":"IDU","desc":"INDUSTRY VORTAC"},
{"type":"NDB","hdg_t":51.9,"dist_nm":34.1,"freq":260,"lat":30.49372222,"lon":-96.33769444,"rng_nm":50,"alt_fmsl":0,"id":"CL","desc":"ROWDY NDB"},
{"type":"VOR","hdg_t":39.1,"dist_nm":35.7,"freq":113.3,"lat":30.60500000,"lon":-96.42069444,"rng_nm":40,"alt_fmsl":275,"id":"CLL","desc":"COLLEGE STATION VORTAC"},
{"type":"VOR","hdg_t":292,"dist_nm":37.7,"freq":112.8,"lat":30.37855556,"lon":-97.52986111,"rng_nm":130,"alt_fmsl":593,"id":"CWK","desc":"CENTEX VORTAC"},
{"type":"VOR","hdg_t":135.5,"dist_nm":40.2,"freq":116.4,"lat":29.66244444,"lon":-96.31716667,"rng_nm":130,"alt_fmsl":190,"id":"ELA","desc":"EAGLE LAKE VOR-DME"},
{"type":"NDB","hdg_t":278,"dist_nm":40.3,"freq":353,"lat":30.23568300,"lon":-97.62569700,"rng_nm":25,"alt_fmsl":0,"id":"AU","desc":"AUSTI NDB"},
{"type":"VOR","hdg_t":77.9,"dist_nm":42.3,"freq":115.9,"lat":30.28852778,"lon":-96.05822222,"rng_nm":130,"alt_fmsl":230,"id":"TNV","desc":"NAVASOTA VORTAC"},
{"type":"NDB","hdg_t":265.9,"dist_nm":42.7,"freq":255,"lat":30.08972222,"lon":-97.67602778,"rng_nm":50,"alt_fmsl":0,"id":"BS","desc":"CREED NDB"},
{"type":"NDB","hdg_t":281.5,"dist_nm":43.7,"freq":232,"lat":30.28759400,"lon":-97.68183600,"rng_nm":25,"alt_fmsl":0,"id":"GF","desc":"BIRDY NDB"},
{"type":"NDB","hdg_t":196.5,"dist_nm":51.8,"freq":350,"lat":29.31202778,"lon":-97.13863889,"rng_nm":50,"alt_fmsl":0,"id":"OKT","desc":"YOAKUM NDB"},
{"type":"NDB","hdg_t":307.3,"dist_nm":53.6,"freq":332,"lat":30.68438889,"lon":-97.67991667,"rng_nm":50,"alt_fmsl":0,"id":"GUO","desc":"GEORGETOWN NDB"},
{"type":"NDB","hdg_t":259.2,"dist_nm":57.9,"freq":272,"lat":29.95880556,"lon":-97.94897222,"rng_nm":50,"alt_fmsl":0,"id":"RU","desc":"GARYS NDB"},
{"type":"NDB","hdg_t":100.8,"dist_nm":64.5,"freq":286,"lat":29.93386111,"lon":-95.64100000,"rng_nm":50,"alt_fmsl":0,"id":"EYQ","desc":"WEISER NDB"},
{"type":"NDB","hdg_t":145.1,"dist_nm":64.6,"freq":245,"lat":29.25463889,"lon":-96.15202778,"rng_nm":50,"alt_fmsl":0,"id":"ARM","desc":"WHARTON NDB"},
{"type":"NDB","hdg_t":90.5,"dist_nm":67.1,"freq":521,"lat":30.12552778,"lon":-95.56586111,"rng_nm":50,"alt_fmsl":0,"id":"DWH","desc":"DAVID HOOKS NDB"},
{"type":"NDB","hdg_t":320.2,"dist_nm":68.7,"freq":278,"lat":31.02411111,"lon":-97.70813889,"rng_nm":50,"alt_fmsl":0,"id":"IL","desc":"IRESH NDB"},
{"type":"VOR","hdg_t":335.3,"dist_nm":70.2,"freq":110.4,"lat":31.20933333,"lon":-97.42497222,"rng_nm":40,"alt_fmsl":710,"id":"TPL","desc":"TEMPLE VOR-DME"},
{"type":"VOR","hdg_t":317.2,"dist_nm":72.7,"freq":111.8,"lat":31.03288889,"lon":-97.81377778,"rng_nm":25,"alt_fmsl":980,"id":"GRK","desc":"GRAY VOR-DME"},
{"type":"NDB","hdg_t":76,"dist_nm":73.7,"freq":281,"lat":30.43200000,"lon":-95.47625000,"rng_nm":50,"alt_fmsl":0,"id":"CX","desc":"ALIBI NDB"},
{"type":"NDB","hdg_t":323.3,"dist_nm":73.7,"freq":347,"lat":31.12905556,"lon":-97.71141667,"rng_nm":50,"alt_fmsl":0,"id":"HLR","desc":"HOOD NDB"},
{"type":"NDB","hdg_t":185.9,"dist_nm":73.8,"freq":226,"lat":28.91522222,"lon":-97.00047222,"rng_nm":50,"alt_fmsl":0,"id":"VC","desc":"FOSTR NDB"},
{"type":"VOR","hdg_t":37.8,"dist_nm":74.5,"freq":110.8,"lat":31.12402778,"lon":-95.96794444,"rng_nm":40,"alt_fmsl":350,"id":"LOA","desc":"LEONA VORTAC"},
{"type":"VOR","hdg_t":184.9,"dist_nm":74.6,"freq":109,"lat":28.90030556,"lon":-96.97894444,"rng_nm":40,"alt_fmsl":125,"id":"VCT","desc":"VICTORIA VOR-DME"},
{"type":"NDB","hdg_t":61,"dist_nm":74.7,"freq":308,"lat":30.74075000,"lon":-95.59086111,"rng_nm":50,"alt_fmsl":0,"id":"UTS","desc":"HUNTSVILLE NDB"},
{"type":"VOR","hdg_t":97.6,"dist_nm":79.4,"freq":116.6,"lat":29.95691667,"lon":-95.34572222,"rng_nm":130,"alt_fmsl":90,"id":"IAH","desc":"HUMBLE VORTAC"},
{"type":"NDB","hdg_t":296.8,"dist_nm":80,"freq":341,"lat":30.74027778,"lon":-98.23622222,"rng_nm":50,"alt_fmsl":0,"id":"BMQ","desc":"BURNET NDB"},
{"type":"NDB","hdg_t":319.4,"dist_nm":80.9,"freq":323,"lat":31.16783333,"lon":-97.87822222,"rng_nm":50,"alt_fmsl":0,"id":"GR","desc":"STARN NDB"},
{"type":"NDB","hdg_t":352.3,"dist_nm":82.1,"freq":400,"lat":31.50380556,"lon":-97.06958333,"rng_nm":50,"alt_fmsl":0,"id":"ROB","desc":"ROBINSON NDB"},
{"type":"SDME","hdg_t":244.1,"dist_nm":82.1,"freq":109.9,"lat":29.53694700,"lon":-98.26780300,"rng_nm":40,"alt_fmsl":773,"id":"DHK","desc":"RANDOLPH TACAN"},
{"type":"VOR","hdg_t":243.7,"dist_nm":83.4,"freq":112.3,"lat":29.51916667,"lon":-98.28516667,"rng_nm":25,"alt_fmsl":772,"id":"RND","desc":"RANDOLPH VORTAC"},
{"type":"NDB","hdg_t":95.5,"dist_nm":85.9,"freq":326,"lat":29.99333333,"lon":-95.21502778,"rng_nm":50,"alt_fmsl":0,"id":"BVP","desc":"NIXIN NDB"},
{"type":"NDB","hdg_t":143,"dist_nm":87.3,"freq":344,"lat":28.97250000,"lon":-95.85913889,"rng_nm":50,"alt_fmsl":0,"id":"BYY","desc":"BAY CITY NDB"},
{"type":"VOR","hdg_t":109.1,"dist_nm":87.3,"freq":117.1,"lat":29.65563889,"lon":-95.27663889,"rng_nm":130,"alt_fmsl":82,"id":"HUB","desc":"HOBBY VOR-DME"},
{"type":"VOR","hdg_t":160.6,"dist_nm":87.4,"freq":117.3,"lat":28.76441667,"lon":-96.30619444,"rng_nm":130,"alt_fmsl":6,"id":"PSX","desc":"PALACIOS VORTAC"},
{"type":"VOR","hdg_t":10.3,"dist_nm":87.5,"freq":108.8,"lat":31.58147222,"lon":-96.54908333,"rng_nm":40,"alt_fmsl":512,"id":"GNL","desc":"GROESBECK VOR-DME"},
{"type":"VOR","hdg_t":250.7,"dist_nm":88.8,"freq":116.8,"lat":29.64402778,"lon":-98.46130556,"rng_nm":130,"alt_fmsl":1160,"id":"SAT","desc":"SAN ANTONIO VORTAC"},
{"type":"NDB","hdg_t":174.1,"dist_nm":89.7,"freq":515,"lat":28.65089700,"lon":-96.68145800,"rng_nm":25,"alt_fmsl":26,"id":"PKV","desc":"PORT LAVACA NDB"},
{"type":"VOR","hdg_t":313.4,"dist_nm":91.2,"freq":112.5,"lat":31.18550000,"lon":-98.14186111,"rng_nm":130,"alt_fmsl":1290,"id":"AGJ","desc":"GOOCH SPRINGS VORTAC"},
{"type":"NDB","hdg_t":11.1,"dist_nm":91.3,"freq":329,"lat":31.63961111,"lon":-96.51219444,"rng_nm":50,"alt_fmsl":0,"id":"LXY","desc":"MEXIA NDB"},
{"type":"NDB","hdg_t":127.6,"dist_nm":92.3,"freq":263,"lat":29.19433333,"lon":-95.46316667,"rng_nm":50,"alt_fmsl":0,"id":"LB","desc":"FREEP NDB"},
{"type":"VOR","hdg_t":346.9,"dist_nm":93.4,"freq":115.3,"lat":31.66233333,"lon":-97.26902778,"rng_nm":130,"alt_fmsl":510,"id":"ACT","desc":"WACO VORTAC"},
{"type":"SDME","hdg_t":109.5,"dist_nm":94.1,"freq":109.4,"lat":29.60595800,"lon":-95.15965300,"rng_nm":40,"alt_fmsl":30,"id":"EFD","desc":"ELLINGTON TACAN"},
{"type":"NDB","hdg_t":250.6,"dist_nm":94.9,"freq":368,"lat":29.60758333,"lon":-98.56969444,"rng_nm":50,"alt_fmsl":0,"id":"AN","desc":"ALAMO NDB"},
{"type":"NDB","hdg_t":245.6,"dist_nm":95.5,"freq":219,"lat":29.47461400,"lon":-98.51861700,"rng_nm":25,"alt_fmsl":0,"id":"SA","desc":"BLUIE NDB"},
{"type":"VOR","hdg_t":272.7,"dist_nm":96.2,"freq":113.8,"lat":30.20675000,"lon":-98.70575000,"rng_nm":130,"alt_fmsl":1530,"id":"STV","desc":"STONEWALL VORTAC"},
{"type":"NDB","hdg_t":353.2,"dist_nm":96.3,"freq":378,"lat":31.74091667,"lon":-97.07816667,"rng_nm":50,"alt_fmsl":0,"id":"CN","desc":"LEROI NDB"},
{"type":"NDB","hdg_t":106.5,"dist_nm":97.3,"freq":347,"lat":29.66841667,"lon":-95.06983333,"rng_nm":50,"alt_fmsl":0,"id":"JPA","desc":"SANJAC NDB"},
{"type":"VOR","hdg_t":237.8,"dist_nm":98.4,"freq":108.4,"lat":29.25838889,"lon":-98.44347222,"rng_nm":40,"alt_fmsl":0,"id":"SSF","desc":"STINSON VOR"}
]
}
