{"success":true,"source":"xp2csv.pl","last_updated":"2013/11/08 14:53:21 UTC"
,"icao":"9V7","name":"Eads Muni","lat":38.475121,"lon":-102.810843,"rwys":1,"ils":0,"index":1269784,"path":"w110n30/w103n38"
,"runways":[
{"len_m":1118,"wid_m":18.29,"hdg":179,"surf":"Asphalt","rwy1":"17","lat1":38.48016100,"lon1":-102.81086400,"rwy2":"35","lat2":38.47008100,"lon2":-102.81082200}
]
,"radios":[
{"type":"CTAF","freq":122.9,"desc":"CTAF"}
]
,"navaids":[
{"type":"VOR","hdg_t":160.7,"dist_nm":17.6,"freq":116.9,"lat":38.19708333,"lon":-102.68752778,"rng_nm":130,"alt_fmsl":3944,"id":"LAA","desc":"LAMAR VORTAC"},
{"type":"VOR","hdg_t":298.5,"dist_nm":43.2,"freq":112.1,"lat":38.81750000,"lon":-103.62138889,"rng_nm":130,"alt_fmsl":5233,"id":"HGO","desc":"HUGO VORTAC"},
{"type":"NDB","hdg_t":27.9,"dist_nm":52.4,"freq":209,"lat":39.24625000,"lon":-102.28383333,"rng_nm":50,"alt_fmsl":0,"id":"ITR","desc":"KIT CARSON NDB"},
{"type":"NDB","hdg_t":134.2,"dist_nm":71.6,"freq":341,"lat":37.63558333,"lon":-101.73461111,"rng_nm":50,"alt_fmsl":0,"id":"JHN","desc":"BEAR CREEK NDB"},
{"type":"NDB","hdg_t":261.8,"dist_nm":73.6,"freq":373,"lat":38.29086111,"lon":-104.35502778,"rng_nm":50,"alt_fmsl":0,"id":"TF","desc":"ARUBA NDB"},
{"type":"NDB","hdg_t":48.7,"dist_nm":74.9,"freq":414,"lat":39.29383333,"lon":-101.60030556,"rng_nm":50,"alt_fmsl":0,"id":"GL","desc":"SHUGR NDB"},
{"type":"VOR","hdg_t":43.3,"dist_nm":75.7,"freq":115.1,"lat":39.38786111,"lon":-101.69230556,"rng_nm":130,"alt_fmsl":3650,"id":"GLD","desc":"GOODLAND VORTAC"},
{"type":"VOR","hdg_t":345.6,"dist_nm":75.7,"freq":112.9,"lat":39.69830556,"lon":-103.21494444,"rng_nm":40,"alt_fmsl":4893,"id":"TXC","desc":"THURMAN VORTAC"},
{"type":"VOR","hdg_t":262.4,"dist_nm":77.1,"freq":116.7,"lat":38.29425000,"lon":-104.42944444,"rng_nm":130,"alt_fmsl":4759,"id":"PUB","desc":"PUEBLO VORTAC"},
{"type":"VOR","hdg_t":207.4,"dist_nm":81.9,"freq":111.2,"lat":37.25866667,"lon":-103.60005556,"rng_nm":40,"alt_fmsl":5730,"id":"TBE","desc":"TOBE VORTAC"},
{"type":"NDB","hdg_t":127.1,"dist_nm":86.2,"freq":395,"lat":37.59711111,"lon":-101.36802778,"rng_nm":50,"alt_fmsl":0,"id":"ULS","desc":"ULYSSES NDB"},
{"type":"NDB","hdg_t":263,"dist_nm":87.3,"freq":302,"lat":38.28397222,"lon":-104.64708333,"rng_nm":50,"alt_fmsl":0,"id":"PU","desc":"MERTZ NDB"},
{"type":"NDB","hdg_t":32.7,"dist_nm":89.5,"freq":386,"lat":39.72694444,"lon":-101.76488889,"rng_nm":50,"alt_fmsl":0,"id":"SYF","desc":"SAINT FRANCIS NDB"},
{"type":"VOR","hdg_t":288.7,"dist_nm":90.1,"freq":112.5,"lat":38.94450000,"lon":-104.63347222,"rng_nm":40,"alt_fmsl":6934,"id":"BRK","desc":"BLACK FOREST VORTAC"},
{"type":"NDB","hdg_t":89.2,"dist_nm":90.5,"freq":256,"lat":38.48013889,"lon":-100.88833333,"rng_nm":50,"alt_fmsl":0,"id":"TQK","desc":"SCOTT CITY NDB"},
{"type":"NDB","hdg_t":278.9,"dist_nm":90.6,"freq":407,"lat":38.69430556,"lon":-104.71633333,"rng_nm":50,"alt_fmsl":0,"id":"CO","desc":"PETEY NDB"},
{"type":"NDB","hdg_t":278.1,"dist_nm":92.2,"freq":335,"lat":38.67833333,"lon":-104.75330556,"rng_nm":50,"alt_fmsl":0,"id":"IHS","desc":"IRONHORSE NDB"},
{"type":"VOR","hdg_t":278.2,"dist_nm":92.3,"freq":108.8,"lat":38.68069444,"lon":-104.75688889,"rng_nm":25,"alt_fmsl":5829,"id":"FCS","desc":"BUTTS VOR-DME"},
{"type":"VOR","hdg_t":326.3,"dist_nm":93.3,"freq":113.5,"lat":39.76583333,"lon":-103.92805556,"rng_nm":130,"alt_fmsl":5252,"id":"BVR","desc":"BYERS VOR-DME"},
{"type":"NDB","hdg_t":153.1,"dist_nm":98.7,"freq":377,"lat":37.00113889,"lon":-101.88452778,"rng_nm":50,"alt_fmsl":0,"id":"EHA","desc":"ELKHART NDB"}
]
}
