{"success":true,"source":"xp2csv.pl","last_updated":"2013/11/08 14:53:21 UTC"
,"icao":"AGGD","name":"Mbambanakira","lat":-9.74757503,"lon":159.83963765,"rwys":1,"ils":0,"index":5559318,"path":"e150s10/e159s10"
,"runways":[
{"len_m":762,"wid_m":74.07,"hdg":177,"surf":"Turf/grass","rwy1":"17","lat1":-9.74413212,"lon1":159.83947291,"rwy2":"35","lat2":-9.75101794,"lon2":159.83980240}
]
,"navaids":[
{"type":"VOR","hdg_t":30.1,"dist_nm":21,"freq":112.6,"lat":-9.44291667,"lon":160.01777778,"rng_nm":130,"alt_fmsl":28,"id":"HN","desc":"HONIARA VOR-DME"},
{"type":"NDB","hdg_t":32.8,"dist_nm":23.3,"freq":348,"lat":-9.41833300,"lon":160.05333300,"rng_nm":150,"alt_fmsl":74,"id":"HN","desc":"HONIARA NDB"},
{"type":"NDB","hdg_t":41.1,"dist_nm":77.6,"freq":360,"lat":-8.76686111,"lon":160.69925000,"rng_nm":50,"alt_fmsl":0,"id":"AI","desc":"AUKI NDB"},
{"type":"NDB","hdg_t":172.9,"dist_nm":108.7,"freq":312,"lat":-11.55513889,"lon":160.06500000,"rng_nm":50,"alt_fmsl":0,"id":"RNL","desc":"RENNELL NDB"},
{"type":"NDB","hdg_t":109,"dist_nm":129.8,"freq":288,"lat":-10.45016667,"lon":161.91591667,"rng_nm":50,"alt_fmsl":0,"id":"KK","desc":"KIRA KIRA NDB"},
{"type":"NDB","hdg_t":298.7,"dist_nm":174.9,"freq":400,"lat":-8.32916667,"lon":157.26027778,"rng_nm":50,"alt_fmsl":0,"id":"MUD","desc":"MUNDA NDB"},
{"type":"NDB","hdg_t":100,"dist_nm":356.3,"freq":370,"lat":-10.73055556,"lon":165.78194444,"rng_nm":50,"alt_fmsl":0,"id":"GB","desc":"GRACIOSA BAY NDB"},
{"type":"NDB","hdg_t":309.4,"dist_nm":401.2,"freq":269,"lat":-5.44302778,"lon":154.66716667,"rng_nm":50,"alt_fmsl":0,"id":"BUK","desc":"BUKA NDB"},
{"type":"NDB","hdg_t":261.6,"dist_nm":418.1,"freq":218,"lat":-10.68818300,"lon":152.83481700,"rng_nm":65,"alt_fmsl":0,"id":"MIS","desc":"MISIMA NDB"},
{"type":"NDB","hdg_t":118.7,"dist_nm":453.1,"freq":334,"lat":-13.32500000,"lon":166.62500000,"rng_nm":25,"alt_fmsl":0,"id":"LN","desc":"LO-LINUA NDB"}
]
}
