{"success":true,"source":"xp2csv.pl","last_updated":"2013/11/08 14:53:21 UTC"
,"icao":"AK06","name":"Denali","lat":63.64509944,"lon":-148.79813056,"rwys":1,"ils":0,"index":517736,"path":"w150n60/w149n63"
,"runways":[
{"len_m":1529,"wid_m":45.72,"hdg":146,"surf":"Gravel","rwy1":"12","lat1":63.65085058,"lon1":-148.80654368,"rwy2":"30","lat2":63.63934830,"lon2":-148.78971744}
]
,"navaids":[
{"type":"NDB","hdg_t":204.1,"dist_nm":21.9,"freq":326,"lat":63.31130556,"lon":-149.13066667,"rng_nm":50,"alt_fmsl":0,"id":"UMM","desc":"SUMMIT NDB"},
{"type":"NDB","hdg_t":352.4,"dist_nm":54.7,"freq":525,"lat":64.54569444,"lon":-149.07688889,"rng_nm":50,"alt_fmsl":0,"id":"ICW","desc":"ICE POOL NDB"},
{"type":"VOR","hdg_t":352.8,"dist_nm":57.3,"freq":115.8,"lat":64.59000000,"lon":-149.07286111,"rng_nm":130,"alt_fmsl":1600,"id":"ENN","desc":"NENANA VORTAC"},
{"type":"VOR","hdg_t":16.1,"dist_nm":72.5,"freq":108.6,"lat":64.80008333,"lon":-148.01197222,"rng_nm":130,"alt_fmsl":1525,"id":"FAI","desc":"FAIRBANKS VORTAC"},
{"type":"SDME","hdg_t":35.6,"dist_nm":75.4,"freq":115.1,"lat":64.65383300,"lon":-147.09400000,"rng_nm":130,"alt_fmsl":528,"id":"EIL","desc":"EIELSON TACAN"},
{"type":"NDB","hdg_t":24.8,"dist_nm":79.5,"freq":257,"lat":64.83858333,"lon":-147.49508333,"rng_nm":50,"alt_fmsl":0,"id":"CUN","desc":"CHENA NDB"},
{"type":"NDB","hdg_t":20.2,"dist_nm":80.7,"freq":510,"lat":64.89980556,"lon":-147.70666667,"rng_nm":50,"alt_fmsl":0,"id":"FA","desc":"WEARR NDB"},
{"type":"VOR","hdg_t":73.8,"dist_nm":84.7,"freq":114.9,"lat":64.00438889,"lon":-145.71716667,"rng_nm":130,"alt_fmsl":1230,"id":"BIG","desc":"BIG DELTA VORTAC"},
{"type":"NDB","hdg_t":73.2,"dist_nm":85.7,"freq":347,"lat":64.02350000,"lon":-145.68677778,"rng_nm":50,"alt_fmsl":0,"id":"DJN","desc":"DELTA JUNCTION NDB"},
{"type":"NDB","hdg_t":21.2,"dist_nm":85.8,"freq":356,"lat":64.96902778,"lon":-147.57994444,"rng_nm":50,"alt_fmsl":0,"id":"FOX","desc":"FOX NDB"},
{"type":"NDB","hdg_t":204.7,"dist_nm":86.6,"freq":305,"lat":62.33116667,"lon":-150.09641667,"rng_nm":50,"alt_fmsl":0,"id":"PEE","desc":"PETERS CREEK NDB"},
{"type":"VOR","hdg_t":204.4,"dist_nm":88.5,"freq":116.2,"lat":62.29866667,"lon":-150.10558333,"rng_nm":130,"alt_fmsl":360,"id":"TKA","desc":"TALKEETNA VOR-DME"},
{"type":"NDB","hdg_t":280.2,"dist_nm":94.8,"freq":227,"lat":63.88388889,"lon":-152.31650000,"rng_nm":50,"alt_fmsl":0,"id":"MHM","desc":"MINCHUMINA NDB"}
]
}
