{"success":true,"source":"xp2csv.pl","last_updated":"2013/11/08 14:53:21 UTC"
,"icao":"AL51","name":"Flying Cs Plantation","lat":32.41611111,"lon":-85.29916667,"rwys":1,"ils":0,"index":1547930,"path":"w090n30/w086n32"
,"runways":[
{"len_m":610,"wid_m":30.48,"hdg":118,"surf":"Turf/grass","rwy1":"12","lat1":32.41744093,"lon1":-85.30200857,"rwy2":"30","lat2":32.41478129,"lon2":-85.29632477}
]
,"navaids":[
{"type":"NDB","hdg_t":308.5,"dist_nm":8.9,"freq":423,"lat":32.50925000,"lon":-85.43722222,"rng_nm":50,"alt_fmsl":0,"id":"AU","desc":"OPOLE NDB"},
{"type":"NDB","hdg_t":80.5,"dist_nm":13.2,"freq":355,"lat":32.45197222,"lon":-85.04194444,"rng_nm":50,"alt_fmsl":0,"id":"CS","desc":"FENIX NDB"},
{"type":"NDB","hdg_t":117.6,"dist_nm":15.8,"freq":335,"lat":32.29319444,"lon":-85.02327778,"rng_nm":50,"alt_fmsl":0,"id":"AWS","desc":"LAWSON NDB"},
{"type":"VOR","hdg_t":107.7,"dist_nm":16.3,"freq":111.4,"lat":32.33236111,"lon":-84.99325000,"rng_nm":25,"alt_fmsl":250,"id":"LSF","desc":"LAWSON VOR-DME"},
{"type":"VOR","hdg_t":50,"dist_nm":18.6,"freq":117.1,"lat":32.61525000,"lon":-85.01763889,"rng_nm":40,"alt_fmsl":630,"id":"CSG","desc":"COLUMBUS VORTAC"},
{"type":"VOR","hdg_t":282.4,"dist_nm":19.2,"freq":117.3,"lat":32.48486111,"lon":-85.66930556,"rng_nm":40,"alt_fmsl":490,"id":"TGE","desc":"TUSKEGEE VOR-DME"},
{"type":"VOR","hdg_t":162.8,"dist_nm":29.1,"freq":109.2,"lat":31.95025000,"lon":-85.13047222,"rng_nm":40,"alt_fmsl":280,"id":"EUF","desc":"EUFAULA VORTAC"},
{"type":"NDB","hdg_t":40.1,"dist_nm":33.4,"freq":272,"lat":32.84286111,"lon":-84.87266667,"rng_nm":50,"alt_fmsl":0,"id":"PIM","desc":"PINE MOUNTAIN NDB"},
{"type":"VOR","hdg_t":7,"dist_nm":38.1,"freq":115.6,"lat":33.04911111,"lon":-85.20622222,"rng_nm":130,"alt_fmsl":798,"id":"LGC","desc":"LAGRANGE VORTAC"},
{"type":"NDB","hdg_t":309.7,"dist_nm":43.5,"freq":382,"lat":32.87941667,"lon":-85.96113889,"rng_nm":50,"alt_fmsl":0,"id":"DER","desc":"ALEXANDER CITY NDB"},
{"type":"VOR","hdg_t":257.6,"dist_nm":53.1,"freq":112.1,"lat":32.22227778,"lon":-86.31972222,"rng_nm":130,"alt_fmsl":270,"id":"MGM","desc":"MONTGOMERY VORTAC"},
{"type":"NDB","hdg_t":229.7,"dist_nm":54,"freq":365,"lat":31.83080556,"lon":-86.10622222,"rng_nm":50,"alt_fmsl":0,"id":"TO","desc":"BLOOD NDB"},
{"type":"SDME","hdg_t":267.9,"dist_nm":54.3,"freq":115,"lat":32.37933300,"lon":-86.36833300,"rng_nm":40,"alt_fmsl":170,"id":"MXF","desc":"MAXWELL TACAN"},
{"type":"NDB","hdg_t":218.3,"dist_nm":55.7,"freq":281,"lat":31.68433333,"lon":-85.97438889,"rng_nm":50,"alt_fmsl":0,"id":"XNE","desc":"SPRING HILL NDB"},
{"type":"NDB","hdg_t":30.3,"dist_nm":58.4,"freq":234,"lat":33.25694444,"lon":-84.71327778,"rng_nm":50,"alt_fmsl":0,"id":"EQQ","desc":"COWETA CO NDB"},
{"type":"NDB","hdg_t":264.5,"dist_nm":61.8,"freq":245,"lat":32.31161111,"lon":-86.51058333,"rng_nm":50,"alt_fmsl":0,"id":"MG","desc":"MARRA NDB"},
{"type":"NDB","hdg_t":103.1,"dist_nm":62.2,"freq":242,"lat":32.17447222,"lon":-84.10816667,"rng_nm":50,"alt_fmsl":0,"id":"LKG","desc":"LINDBERGH NDB"},
{"type":"NDB","hdg_t":156.7,"dist_nm":62.5,"freq":344,"lat":31.45569444,"lon":-84.81911111,"rng_nm":50,"alt_fmsl":0,"id":"IWJ","desc":"BLAAK NDB"},
{"type":"NDB","hdg_t":61.5,"dist_nm":63.8,"freq":339,"lat":32.91902778,"lon":-84.18741667,"rng_nm":50,"alt_fmsl":0,"id":"OP","desc":"YATES NDB"},
{"type":"NDB","hdg_t":196.3,"dist_nm":64.8,"freq":221,"lat":31.37608333,"lon":-85.65377778,"rng_nm":50,"alt_fmsl":0,"id":"HYE","desc":"HANCHEY NDB"},
{"type":"VOR","hdg_t":196.2,"dist_nm":64.9,"freq":110.6,"lat":31.37413889,"lon":-85.65280556,"rng_nm":25,"alt_fmsl":0,"id":"HEY","desc":"HANCHEY VOR"},
{"type":"NDB","hdg_t":92.1,"dist_nm":65.6,"freq":426,"lat":32.36738889,"lon":-84.00741667,"rng_nm":50,"alt_fmsl":0,"id":"IZS","desc":"MONTEZUMA NDB"},
{"type":"NDB","hdg_t":37.5,"dist_nm":67,"freq":316,"lat":33.30063889,"lon":-84.48641667,"rng_nm":50,"alt_fmsl":0,"id":"FF","desc":"PECAT NDB"},
{"type":"NDB","hdg_t":199.8,"dist_nm":67.1,"freq":269,"lat":31.36033333,"lon":-85.74350000,"rng_nm":50,"alt_fmsl":0,"id":"LOR","desc":"LOWE NDB"},
{"type":"VOR","hdg_t":185.7,"dist_nm":68,"freq":111.6,"lat":31.28458333,"lon":-85.43119444,"rng_nm":40,"alt_fmsl":381,"id":"RRS","desc":"WIREGRASS VORTAC"},
{"type":"NDB","hdg_t":311.6,"dist_nm":68.6,"freq":284,"lat":33.17425000,"lon":-86.31816667,"rng_nm":50,"alt_fmsl":0,"id":"SCD","desc":"SYLACAUGA NDB"},
{"type":"VOR","hdg_t":131.3,"dist_nm":68.6,"freq":116.1,"lat":31.65522222,"lon":-84.29305556,"rng_nm":130,"alt_fmsl":283,"id":"PZD","desc":"PECAN VORTAC"},
{"type":"NDB","hdg_t":6.9,"dist_nm":69.3,"freq":278,"lat":33.56577778,"lon":-85.13088889,"rng_nm":50,"alt_fmsl":0,"id":"GPQ","desc":"CARROLLTON NDB"},
{"type":"NDB","hdg_t":49.3,"dist_nm":71,"freq":412,"lat":33.18430556,"lon":-84.22750000,"rng_nm":50,"alt_fmsl":0,"id":"JHH","desc":"GRIFFIN NDB"},
{"type":"NDB","hdg_t":291.8,"dist_nm":71.4,"freq":338,"lat":32.85319444,"lon":-86.61108333,"rng_nm":50,"alt_fmsl":0,"id":"GGY","desc":"GRAGG-WADE NDB"},
{"type":"VOR","hdg_t":197.7,"dist_nm":72,"freq":111.2,"lat":31.26894444,"lon":-85.72630556,"rng_nm":40,"alt_fmsl":326,"id":"OZR","desc":"CAIRNS VOR-DME"},
{"type":"NDB","hdg_t":208.5,"dist_nm":73.2,"freq":352,"lat":31.33938889,"lon":-85.98194444,"rng_nm":50,"alt_fmsl":0,"id":"BVG","desc":"BOLL WEEVIL NDB"},
{"type":"VOR","hdg_t":204.8,"dist_nm":73.7,"freq":116.6,"lat":31.29636111,"lon":-85.90275000,"rng_nm":25,"alt_fmsl":0,"id":"EDN","desc":"ENTERPRISE VOR"},
{"type":"NDB","hdg_t":334.7,"dist_nm":74.1,"freq":211,"lat":33.53436111,"lon":-85.93080556,"rng_nm":50,"alt_fmsl":0,"id":"AN","desc":"BOGGA NDB"},
{"type":"NDB","hdg_t":200.4,"dist_nm":76,"freq":212,"lat":31.22563889,"lon":-85.81597222,"rng_nm":50,"alt_fmsl":0,"id":"OZ","desc":"RUCKR NDB"},
{"type":"NDB","hdg_t":108.5,"dist_nm":77.3,"freq":400,"lat":31.99783333,"lon":-83.86180556,"rng_nm":50,"alt_fmsl":0,"id":"OHY","desc":"CONEY NDB"},
{"type":"NDB","hdg_t":137.4,"dist_nm":77.6,"freq":227,"lat":31.45613889,"lon":-84.27616667,"rng_nm":50,"alt_fmsl":0,"id":"AB","desc":"PUTNY NDB"},
{"type":"NDB","hdg_t":87.7,"dist_nm":77.9,"freq":350,"lat":32.45741667,"lon":-83.76572222,"rng_nm":50,"alt_fmsl":0,"id":"BEP","desc":"BAY CREEK NDB"},
{"type":"VOR","hdg_t":331.8,"dist_nm":78.8,"freq":108.8,"lat":33.57513889,"lon":-86.04269444,"rng_nm":40,"alt_fmsl":530,"id":"TDG","desc":"TALLADEGA VOR-DME"},
{"type":"NDB","hdg_t":79.8,"dist_nm":81.6,"freq":290,"lat":32.64533300,"lon":-83.71325000,"rng_nm":25,"alt_fmsl":0,"id":"MC","desc":"SOFKE NDB"},
{"type":"NDB","hdg_t":264.3,"dist_nm":83.2,"freq":344,"lat":32.26977778,"lon":-86.92744444,"rng_nm":50,"alt_fmsl":0,"id":"SE","desc":"POLLK (LOM/NDB) NDB"},
{"type":"NDB","hdg_t":325.2,"dist_nm":83.5,"freq":257,"lat":33.55900000,"lon":-86.24941667,"rng_nm":50,"alt_fmsl":0,"id":"PLR","desc":"PELL CITY NDB"},
{"type":"VOR","hdg_t":30.7,"dist_nm":84.7,"freq":116.9,"lat":33.62908333,"lon":-84.43508333,"rng_nm":130,"alt_fmsl":1000,"id":"ATL","desc":"ATLANTA VORTAC"},
{"type":"VOR","hdg_t":78.4,"dist_nm":85.3,"freq":114.2,"lat":32.69119444,"lon":-83.64719444,"rng_nm":130,"alt_fmsl":381,"id":"MCN","desc":"MACON VORTAC"},
{"type":"VOR","hdg_t":267.6,"dist_nm":86,"freq":113.6,"lat":32.34461111,"lon":-86.99127778,"rng_nm":130,"alt_fmsl":160,"id":"JYU","desc":"JUNIOR VOR-DME"},
{"type":"VOR","hdg_t":220.4,"dist_nm":86.6,"freq":110.2,"lat":31.30952778,"lon":-86.39213889,"rng_nm":25,"alt_fmsl":0,"id":"UIA","desc":"ANDALUSIA VOR"},
{"type":"NDB","hdg_t":220.2,"dist_nm":86.8,"freq":264,"lat":31.30508333,"lon":-86.39088889,"rng_nm":50,"alt_fmsl":0,"id":"JUY","desc":"JUDD NDB"},
{"type":"NDB","hdg_t":22.2,"dist_nm":87.2,"freq":344,"lat":33.76238889,"lon":-84.63886111,"rng_nm":50,"alt_fmsl":0,"id":"FT","desc":"FLANC NDB"},
{"type":"NDB","hdg_t":33.8,"dist_nm":88.8,"freq":266,"lat":33.64538889,"lon":-84.31125000,"rng_nm":50,"alt_fmsl":0,"id":"BR","desc":"REDAN NDB"},
{"type":"NDB","hdg_t":142.6,"dist_nm":90.1,"freq":369,"lat":31.21463889,"lon":-84.23686111,"rng_nm":50,"alt_fmsl":0,"id":"CXU","desc":"CAMILLA NDB"},
{"type":"VOR","hdg_t":97,"dist_nm":92.4,"freq":116.5,"lat":32.21344444,"lon":-83.49725000,"rng_nm":40,"alt_fmsl":300,"id":"VNA","desc":"VIENNA VORTAC"},
{"type":"NDB","hdg_t":177.6,"dist_nm":92.5,"freq":329,"lat":30.87158333,"lon":-85.22491667,"rng_nm":50,"alt_fmsl":0,"id":"SMY","desc":"SOYYA NDB"},
{"type":"NDB","hdg_t":189.4,"dist_nm":94.9,"freq":275,"lat":30.85150000,"lon":-85.60133333,"rng_nm":50,"alt_fmsl":0,"id":"BKK","desc":"TRI COUNTY NDB"},
{"type":"NDB","hdg_t":155.1,"dist_nm":95,"freq":359,"lat":30.97272222,"lon":-84.52602778,"rng_nm":50,"alt_fmsl":0,"id":"LYZ","desc":"WILLIS NDB"},
{"type":"VOR","hdg_t":174.7,"dist_nm":97.9,"freq":114,"lat":30.78622222,"lon":-85.12444444,"rng_nm":40,"alt_fmsl":120,"id":"MAI","desc":"MARIANNA VORTAC"},
{"type":"NDB","hdg_t":303.6,"dist_nm":98,"freq":368,"lat":33.31194700,"lon":-86.92315800,"rng_nm":25,"alt_fmsl":660,"id":"BEQ","desc":"BESSEMER NDB"},
{"type":"SDME","hdg_t":23.7,"dist_nm":98.2,"freq":113,"lat":33.91464700,"lon":-84.50730600,"rng_nm":25,"alt_fmsl":1008,"id":"DOB","desc":"DOBBINS TACAN"},
{"type":"NDB","hdg_t":316,"dist_nm":99.6,"freq":394,"lat":33.60761111,"lon":-86.67877778,"rng_nm":50,"alt_fmsl":0,"id":"RO","desc":"ROEBY NDB"}
]
}
