{"success":true,"source":"xp2csv.pl","last_updated":"2013/11/08 14:53:21 UTC"
,"icao":"AL56","name":"Jones Light Aviation","lat":32.50014083,"lon":-85.08326862,"rwys":1,"ils":0,"index":1547939,"path":"w090n30/w086n32"
,"runways":[
{"len_m":610,"wid_m":30.48,"hdg":49,"surf":"Turf/grass","rwy1":"05","lat1":32.49834127,"lon1":-85.08572318,"rwy2":"23","lat2":32.50194039,"lon2":-85.08081406}
]
,"navaids":[
{"type":"NDB","hdg_t":143.9,"dist_nm":3.5,"freq":355,"lat":32.45197222,"lon":-85.04194444,"rng_nm":50,"alt_fmsl":0,"id":"CS","desc":"FENIX NDB"},
{"type":"VOR","hdg_t":25.7,"dist_nm":7.6,"freq":117.1,"lat":32.61525000,"lon":-85.01763889,"rng_nm":40,"alt_fmsl":630,"id":"CSG","desc":"COLUMBUS VORTAC"},
{"type":"VOR","hdg_t":155.5,"dist_nm":11,"freq":111.4,"lat":32.33236111,"lon":-84.99325000,"rng_nm":25,"alt_fmsl":250,"id":"LSF","desc":"LAWSON VOR-DME"},
{"type":"NDB","hdg_t":166.1,"dist_nm":12.7,"freq":335,"lat":32.29319444,"lon":-85.02327778,"rng_nm":50,"alt_fmsl":0,"id":"AWS","desc":"LAWSON NDB"},
{"type":"NDB","hdg_t":271.8,"dist_nm":17.9,"freq":423,"lat":32.50925000,"lon":-85.43722222,"rng_nm":50,"alt_fmsl":0,"id":"AU","desc":"OPOLE NDB"},
{"type":"NDB","hdg_t":27.4,"dist_nm":23.1,"freq":272,"lat":32.84286111,"lon":-84.87266667,"rng_nm":50,"alt_fmsl":0,"id":"PIM","desc":"PINE MOUNTAIN NDB"},
{"type":"VOR","hdg_t":268.3,"dist_nm":29.7,"freq":117.3,"lat":32.48486111,"lon":-85.66930556,"rng_nm":40,"alt_fmsl":490,"id":"TGE","desc":"TUSKEGEE VOR-DME"},
{"type":"VOR","hdg_t":184.1,"dist_nm":33,"freq":109.2,"lat":31.95025000,"lon":-85.13047222,"rng_nm":40,"alt_fmsl":280,"id":"EUF","desc":"EUFAULA VORTAC"},
{"type":"VOR","hdg_t":349.3,"dist_nm":33.4,"freq":115.6,"lat":33.04911111,"lon":-85.20622222,"rng_nm":130,"alt_fmsl":798,"id":"LGC","desc":"LAGRANGE VORTAC"},
{"type":"NDB","hdg_t":22.3,"dist_nm":49,"freq":234,"lat":33.25694444,"lon":-84.71327778,"rng_nm":50,"alt_fmsl":0,"id":"EQQ","desc":"COWETA CO NDB"},
{"type":"NDB","hdg_t":297.2,"dist_nm":49.9,"freq":382,"lat":32.87941667,"lon":-85.96113889,"rng_nm":50,"alt_fmsl":0,"id":"DER","desc":"ALEXANDER CITY NDB"},
{"type":"NDB","hdg_t":60.8,"dist_nm":51.8,"freq":339,"lat":32.91902778,"lon":-84.18741667,"rng_nm":50,"alt_fmsl":0,"id":"OP","desc":"YATES NDB"},
{"type":"NDB","hdg_t":111.2,"dist_nm":53.2,"freq":242,"lat":32.17447222,"lon":-84.10816667,"rng_nm":50,"alt_fmsl":0,"id":"LKG","desc":"LINDBERGH NDB"},
{"type":"NDB","hdg_t":97.9,"dist_nm":55.2,"freq":426,"lat":32.36738889,"lon":-84.00741667,"rng_nm":50,"alt_fmsl":0,"id":"IZS","desc":"MONTEZUMA NDB"},
{"type":"NDB","hdg_t":32,"dist_nm":56.6,"freq":316,"lat":33.30063889,"lon":-84.48641667,"rng_nm":50,"alt_fmsl":0,"id":"FF","desc":"PECAT NDB"},
{"type":"NDB","hdg_t":46.3,"dist_nm":59.5,"freq":412,"lat":33.18430556,"lon":-84.22750000,"rng_nm":50,"alt_fmsl":0,"id":"JHH","desc":"GRIFFIN NDB"},
{"type":"NDB","hdg_t":357.8,"dist_nm":63.8,"freq":278,"lat":33.56577778,"lon":-85.13088889,"rng_nm":50,"alt_fmsl":0,"id":"GPQ","desc":"CARROLLTON NDB"},
{"type":"NDB","hdg_t":167.7,"dist_nm":63.9,"freq":344,"lat":31.45569444,"lon":-84.81911111,"rng_nm":50,"alt_fmsl":0,"id":"IWJ","desc":"BLAAK NDB"},
{"type":"VOR","hdg_t":141.2,"dist_nm":64.6,"freq":116.1,"lat":31.65522222,"lon":-84.29305556,"rng_nm":130,"alt_fmsl":283,"id":"PZD","desc":"PECAN VORTAC"},
{"type":"VOR","hdg_t":255.5,"dist_nm":65,"freq":112.1,"lat":32.22227778,"lon":-86.31972222,"rng_nm":130,"alt_fmsl":270,"id":"MGM","desc":"MONTGOMERY VORTAC"},
{"type":"SDME","hdg_t":264,"dist_nm":65.6,"freq":115,"lat":32.37933300,"lon":-86.36833300,"rng_nm":40,"alt_fmsl":170,"id":"MXF","desc":"MAXWELL TACAN"},
{"type":"NDB","hdg_t":232.7,"dist_nm":65.7,"freq":365,"lat":31.83080556,"lon":-86.10622222,"rng_nm":50,"alt_fmsl":0,"id":"TO","desc":"BLOOD NDB"},
{"type":"NDB","hdg_t":223.1,"dist_nm":66.7,"freq":281,"lat":31.68433333,"lon":-85.97438889,"rng_nm":50,"alt_fmsl":0,"id":"XNE","desc":"SPRING HILL NDB"},
{"type":"NDB","hdg_t":91.8,"dist_nm":66.9,"freq":350,"lat":32.45741667,"lon":-83.76572222,"rng_nm":50,"alt_fmsl":0,"id":"BEP","desc":"BAY CREEK NDB"},
{"type":"NDB","hdg_t":115.4,"dist_nm":69,"freq":400,"lat":31.99783333,"lon":-83.86180556,"rng_nm":50,"alt_fmsl":0,"id":"OHY","desc":"CONEY NDB"},
{"type":"NDB","hdg_t":82.4,"dist_nm":70,"freq":290,"lat":32.64533300,"lon":-83.71325000,"rng_nm":25,"alt_fmsl":0,"id":"MC","desc":"SOFKE NDB"},
{"type":"NDB","hdg_t":203.5,"dist_nm":73.3,"freq":221,"lat":31.37608333,"lon":-85.65377778,"rng_nm":50,"alt_fmsl":0,"id":"HYE","desc":"HANCHEY NDB"},
{"type":"NDB","hdg_t":261.5,"dist_nm":73.3,"freq":245,"lat":32.31161111,"lon":-86.51058333,"rng_nm":50,"alt_fmsl":0,"id":"MG","desc":"MARRA NDB"},
{"type":"VOR","hdg_t":203.4,"dist_nm":73.4,"freq":110.6,"lat":31.37413889,"lon":-85.65280556,"rng_nm":25,"alt_fmsl":0,"id":"HEY","desc":"HANCHEY VOR"},
{"type":"VOR","hdg_t":80.6,"dist_nm":73.6,"freq":114.2,"lat":32.69119444,"lon":-83.64719444,"rng_nm":130,"alt_fmsl":381,"id":"MCN","desc":"MACON VORTAC"},
{"type":"NDB","hdg_t":303.2,"dist_nm":74.3,"freq":284,"lat":33.17425000,"lon":-86.31816667,"rng_nm":50,"alt_fmsl":0,"id":"SCD","desc":"SYLACAUGA NDB"},
{"type":"NDB","hdg_t":146.4,"dist_nm":74.8,"freq":227,"lat":31.45613889,"lon":-84.27616667,"rng_nm":50,"alt_fmsl":0,"id":"AB","desc":"PUTNY NDB"},
{"type":"VOR","hdg_t":193.8,"dist_nm":74.9,"freq":111.6,"lat":31.28458333,"lon":-85.43119444,"rng_nm":40,"alt_fmsl":381,"id":"RRS","desc":"WIREGRASS VORTAC"},
{"type":"VOR","hdg_t":25.6,"dist_nm":75,"freq":116.9,"lat":33.62908333,"lon":-84.43508333,"rng_nm":130,"alt_fmsl":1000,"id":"ATL","desc":"ATLANTA VORTAC"},
{"type":"NDB","hdg_t":325.6,"dist_nm":75.2,"freq":211,"lat":33.53436111,"lon":-85.93080556,"rng_nm":50,"alt_fmsl":0,"id":"AN","desc":"BOGGA NDB"},
{"type":"NDB","hdg_t":206.4,"dist_nm":76.1,"freq":269,"lat":31.36033333,"lon":-85.74350000,"rng_nm":50,"alt_fmsl":0,"id":"LOR","desc":"LOWE NDB"},
{"type":"NDB","hdg_t":16.3,"dist_nm":78.8,"freq":344,"lat":33.76238889,"lon":-84.63886111,"rng_nm":50,"alt_fmsl":0,"id":"FT","desc":"FLANC NDB"},
{"type":"NDB","hdg_t":29.3,"dist_nm":78.8,"freq":266,"lat":33.64538889,"lon":-84.31125000,"rng_nm":50,"alt_fmsl":0,"id":"BR","desc":"REDAN NDB"},
{"type":"NDB","hdg_t":285.6,"dist_nm":80.2,"freq":338,"lat":32.85319444,"lon":-86.61108333,"rng_nm":50,"alt_fmsl":0,"id":"GGY","desc":"GRAGG-WADE NDB"},
{"type":"VOR","hdg_t":323.3,"dist_nm":80.5,"freq":108.8,"lat":33.57513889,"lon":-86.04269444,"rng_nm":40,"alt_fmsl":530,"id":"TDG","desc":"TALLADEGA VOR-DME"},
{"type":"VOR","hdg_t":204.1,"dist_nm":80.7,"freq":111.2,"lat":31.26894444,"lon":-85.72630556,"rng_nm":40,"alt_fmsl":326,"id":"OZR","desc":"CAIRNS VOR-DME"},
{"type":"VOR","hdg_t":101.5,"dist_nm":82.4,"freq":116.5,"lat":32.21344444,"lon":-83.49725000,"rng_nm":40,"alt_fmsl":300,"id":"VNA","desc":"VIENNA VORTAC"},
{"type":"NDB","hdg_t":213.6,"dist_nm":83.2,"freq":352,"lat":31.33938889,"lon":-85.98194444,"rng_nm":50,"alt_fmsl":0,"id":"BVG","desc":"BOLL WEEVIL NDB"},
{"type":"VOR","hdg_t":210.3,"dist_nm":83.3,"freq":116.6,"lat":31.29636111,"lon":-85.90275000,"rng_nm":25,"alt_fmsl":0,"id":"EDN","desc":"ENTERPRISE VOR"},
{"type":"NDB","hdg_t":206.3,"dist_nm":84.9,"freq":212,"lat":31.22563889,"lon":-85.81597222,"rng_nm":50,"alt_fmsl":0,"id":"OZ","desc":"RUCKR NDB"},
{"type":"NDB","hdg_t":317.4,"dist_nm":86.4,"freq":257,"lat":33.55900000,"lon":-86.24941667,"rng_nm":50,"alt_fmsl":0,"id":"PLR","desc":"PELL CITY NDB"},
{"type":"NDB","hdg_t":150.4,"dist_nm":88.2,"freq":369,"lat":31.21463889,"lon":-84.23686111,"rng_nm":50,"alt_fmsl":0,"id":"CXU","desc":"CAMILLA NDB"},
{"type":"SDME","hdg_t":18.7,"dist_nm":89.5,"freq":113,"lat":33.91464700,"lon":-84.50730600,"rng_nm":25,"alt_fmsl":1008,"id":"DOB","desc":"DOBBINS TACAN"},
{"type":"VOR","hdg_t":25.4,"dist_nm":91.3,"freq":116.6,"lat":33.87563889,"lon":-84.29880556,"rng_nm":40,"alt_fmsl":970,"id":"PDK","desc":"PEACHTREE VOR-DME"},
{"type":"NDB","hdg_t":43.7,"dist_nm":94.2,"freq":370,"lat":33.62983333,"lon":-83.78211111,"rng_nm":50,"alt_fmsl":0,"id":"VOF","desc":"ALCOVY NDB"},
{"type":"NDB","hdg_t":262.1,"dist_nm":94.7,"freq":344,"lat":32.26977778,"lon":-86.92744444,"rng_nm":50,"alt_fmsl":0,"id":"SE","desc":"POLLK (LOM/NDB) NDB"},
{"type":"NDB","hdg_t":162.5,"dist_nm":95.7,"freq":359,"lat":30.97272222,"lon":-84.52602778,"rng_nm":50,"alt_fmsl":0,"id":"LYZ","desc":"WILLIS NDB"},
{"type":"VOR","hdg_t":265,"dist_nm":97.3,"freq":113.6,"lat":32.34461111,"lon":-86.99127778,"rng_nm":130,"alt_fmsl":160,"id":"JYU","desc":"JUNIOR VOR-DME"},
{"type":"NDB","hdg_t":184.2,"dist_nm":97.7,"freq":329,"lat":30.87158333,"lon":-85.22491667,"rng_nm":50,"alt_fmsl":0,"id":"SMY","desc":"SOYYA NDB"},
{"type":"VOR","hdg_t":223.5,"dist_nm":97.7,"freq":110.2,"lat":31.30952778,"lon":-86.39213889,"rng_nm":25,"alt_fmsl":0,"id":"UIA","desc":"ANDALUSIA VOR"},
{"type":"NDB","hdg_t":223.3,"dist_nm":97.8,"freq":264,"lat":31.30508333,"lon":-86.39088889,"rng_nm":50,"alt_fmsl":0,"id":"JUY","desc":"JUDD NDB"},
{"type":"VOR","hdg_t":358.9,"dist_nm":99.5,"freq":115.4,"lat":34.16255556,"lon":-85.11938889,"rng_nm":130,"alt_fmsl":1149,"id":"RMG","desc":"ROME VORTAC"}
]
}
