{"success":true,"source":"xp2csv.pl","last_updated":"2013/11/08 14:53:21 UTC"
,"icao":"AMG","name":"Amboin","lat":-4.596223,"lon":143.522213,"rwys":1,"ils":0,"index":5297500,"path":"e140s10/e143s05"
,"runways":[
{"len_m":608,"wid_m":60.05,"hdg":314,"surf":"Dirt","rwy1":"32","lat1":-4.59816258,"lon1":143.52415884,"rwy2":"14","lat2":-4.59428342,"lon2":143.52026716}
]
,"radios":[
{"type":"ATIS","freq":127.7,"desc":"AMG AWOS"}
]
,"navaids":[
{"type":"VOR","hdg_t":8.6,"dist_nm":61.1,"freq":116.6,"lat":-3.58352778,"lon":143.67594444,"rng_nm":130,"alt_fmsl":19,"id":"WK","desc":"WEWAK VOR-DME"},
{"type":"NDB","hdg_t":8.7,"dist_nm":61.3,"freq":336,"lat":-3.58136111,"lon":143.67750000,"rng_nm":50,"alt_fmsl":0,"id":"WK","desc":"WEWAK NDB"},
{"type":"NDB","hdg_t":147.6,"dist_nm":87.8,"freq":1689,"lat":-5.83786700,"lon":144.30853300,"rng_nm":40,"alt_fmsl":5425,"id":"MH","desc":"MOUNT HAGEN NDB-DME"},
{"type":"SDME","hdg_t":147.6,"dist_nm":87.8,"freq":115,"lat":-5.83786700,"lon":144.30853300,"rng_nm":40,"alt_fmsl":5425,"id":"MH","desc":"MOUNT HAGEN NDB-DME"},
{"type":"NDB","hdg_t":188.6,"dist_nm":106.6,"freq":1642,"lat":-6.36286700,"lon":143.25433300,"rng_nm":35,"alt_fmsl":2750,"id":"MOR","desc":"MORO NDB-DME"},
{"type":"SDME","hdg_t":188.6,"dist_nm":106.6,"freq":114.6,"lat":-6.36286700,"lon":143.25433300,"rng_nm":35,"alt_fmsl":2750,"id":"MOR","desc":"MORO NDB-DME"},
{"type":"NDB","hdg_t":176,"dist_nm":137.3,"freq":215,"lat":-6.89031700,"lon":143.67910000,"rng_nm":25,"alt_fmsl":183,"id":"GBE","desc":"GOBE NDB-DME"},
{"type":"SDME","hdg_t":176,"dist_nm":137.3,"freq":113.6,"lat":-6.89031700,"lon":143.67910000,"rng_nm":25,"alt_fmsl":183,"id":"GBE","desc":"GOBE NDB-DME"},
{"type":"VOR","hdg_t":105.3,"dist_nm":139.9,"freq":116.3,"lat":-5.21163300,"lon":145.77678300,"rng_nm":50,"alt_fmsl":11,"id":"MD","desc":"MADANG VOR-DME"},
{"type":"NDB","hdg_t":105.3,"dist_nm":140.3,"freq":362,"lat":-5.21285000,"lon":145.78363300,"rng_nm":50,"alt_fmsl":100,"id":"MD","desc":"MADANG NDB"}
]
}
