{"success":true,"source":"xp2csv.pl","last_updated":"2013/11/08 14:53:21 UTC"
,"icao":"AR15","name":"Reed-joseph Land Co","lat":33.34790305,"lon":-93.73156806,"rwys":1,"ils":0,"index":1416913,"path":"w100n30/w094n33"
,"runways":[
{"len_m":912,"wid_m":45.72,"hdg":185,"surf":"Turf/grass","rwy1":"18","lat1":33.35200186,"lon1":-93.73113878,"rwy2":"36","lat2":33.34380424,"lon2":-93.73199734}
]
,"navaids":[
{"type":"NDB","hdg_t":320.3,"dist_nm":13.7,"freq":234,"lat":33.52411111,"lon":-93.90605556,"rng_nm":50,"alt_fmsl":0,"id":"TX","desc":"TECCO NDB"},
{"type":"VOR","hdg_t":300.1,"dist_nm":19.8,"freq":116.3,"lat":33.51388889,"lon":-94.07325000,"rng_nm":130,"alt_fmsl":270,"id":"TXK","desc":"TEXARKANA VORTAC"},
{"type":"NDB","hdg_t":10.3,"dist_nm":22.5,"freq":362,"lat":33.71811111,"lon":-93.65077778,"rng_nm":50,"alt_fmsl":0,"id":"HPC","desc":"HOPE NDB"},
{"type":"NDB","hdg_t":237.7,"dist_nm":27.3,"freq":347,"lat":33.10375000,"lon":-94.19047222,"rng_nm":50,"alt_fmsl":0,"id":"ATA","desc":"ATLANTA NDB"},
{"type":"NDB","hdg_t":205.7,"dist_nm":32.4,"freq":284,"lat":32.85958333,"lon":-94.01019444,"rng_nm":50,"alt_fmsl":0,"id":"VIV","desc":"VIVIAN NDB"},
{"type":"VOR","hdg_t":186.5,"dist_nm":34.7,"freq":117.4,"lat":32.77136111,"lon":-93.80991667,"rng_nm":130,"alt_fmsl":190,"id":"EIC","desc":"BELCHER VORTAC"},
{"type":"VOR","hdg_t":180.5,"dist_nm":48.3,"freq":108.6,"lat":32.53986111,"lon":-93.74130556,"rng_nm":25,"alt_fmsl":0,"id":"DTN","desc":"DOWNTOWN VOR"},
{"type":"VOR","hdg_t":96,"dist_nm":49.9,"freq":115.5,"lat":33.25616667,"lon":-92.74394444,"rng_nm":130,"alt_fmsl":230,"id":"ELD","desc":"EL DORADO VORTAC"},
{"type":"NDB","hdg_t":93.9,"dist_nm":50.5,"freq":418,"lat":33.28605556,"lon":-92.72813889,"rng_nm":50,"alt_fmsl":0,"id":"EL","desc":"LADOS NDB"},
{"type":"SDME","hdg_t":176.3,"dist_nm":50.6,"freq":115.8,"lat":32.50333800,"lon":-93.66776300,"rng_nm":40,"alt_fmsl":163,"id":"BAD","desc":"BARKSDALE TACAN"},
{"type":"NDB","hdg_t":71.5,"dist_nm":50.9,"freq":335,"lat":33.61353100,"lon":-92.76752200,"rng_nm":25,"alt_fmsl":0,"id":"CDH","desc":"CAMDEN NDB"},
{"type":"NDB","hdg_t":188.3,"dist_nm":51.2,"freq":230,"lat":32.50177778,"lon":-93.87811111,"rng_nm":50,"alt_fmsl":0,"id":"SH","desc":"CRAKK NDB"},
{"type":"NDB","hdg_t":36.3,"dist_nm":52.7,"freq":275,"lat":34.05561111,"lon":-93.10519444,"rng_nm":50,"alt_fmsl":0,"id":"ADF","desc":"ARKADELPHIA NDB"},
{"type":"VOR","hdg_t":173,"dist_nm":57.1,"freq":111.2,"lat":32.40016667,"lon":-93.59513889,"rng_nm":40,"alt_fmsl":160,"id":"EMG","desc":"ELM GROVE VORTAC"},
{"type":"NDB","hdg_t":258.4,"dist_nm":63.8,"freq":381,"lat":33.12845300,"lon":-94.97410300,"rng_nm":25,"alt_fmsl":404,"id":"MSA","desc":"MOUNT PLEASANT NDB"},
{"type":"NDB","hdg_t":301.2,"dist_nm":64.9,"freq":271,"lat":33.90602600,"lon":-94.84305100,"rng_nm":25,"alt_fmsl":1208,"id":"IBO","desc":"IDABEL NDB"},
{"type":"NDB","hdg_t":22.6,"dist_nm":69.8,"freq":385,"lat":34.42261111,"lon":-93.18963889,"rng_nm":50,"alt_fmsl":0,"id":"HO","desc":"HOSSY NDB"},
{"type":"NDB","hdg_t":127.1,"dist_nm":72.7,"freq":368,"lat":32.60872222,"lon":-92.58847222,"rng_nm":50,"alt_fmsl":0,"id":"ROQ","desc":"RUSTON NDB"},
{"type":"NDB","hdg_t":346.6,"dist_nm":73.3,"freq":352,"lat":34.53919444,"lon":-94.07263889,"rng_nm":50,"alt_fmsl":0,"id":"VM","desc":"FENCH NDB"},
{"type":"NDB","hdg_t":346.6,"dist_nm":73.3,"freq":259,"lat":34.53910800,"lon":-94.07298100,"rng_nm":25,"alt_fmsl":0,"id":"VM","desc":"MEANA NDB"},
{"type":"NDB","hdg_t":131.4,"dist_nm":74.7,"freq":308,"lat":32.51565600,"lon":-92.62741100,"rng_nm":25,"alt_fmsl":0,"id":"LPZ","desc":"LINCOLN PARISH NDB"},
{"type":"VOR","hdg_t":25.1,"dist_nm":74.9,"freq":110,"lat":34.47858333,"lon":-93.09061111,"rng_nm":40,"alt_fmsl":528,"id":"HOT","desc":"HOT SPRINGS VOR-DME"},
{"type":"NDB","hdg_t":202.3,"dist_nm":75.5,"freq":332,"lat":32.18025000,"lon":-94.29641667,"rng_nm":50,"alt_fmsl":0,"id":"RPF","desc":"CARTHAGE NDB"},
{"type":"NDB","hdg_t":225.5,"dist_nm":75.8,"freq":410,"lat":32.45558333,"lon":-94.79758333,"rng_nm":50,"alt_fmsl":0,"id":"GG","desc":"VEELS NDB"},
{"type":"VOR","hdg_t":223.1,"dist_nm":75.9,"freq":112.3,"lat":32.41775000,"lon":-94.75319444,"rng_nm":40,"alt_fmsl":320,"id":"GGG","desc":"GREGG CO VORTAC"},
{"type":"NDB","hdg_t":39.1,"dist_nm":76.3,"freq":215,"lat":34.33342800,"lon":-92.76238900,"rng_nm":25,"alt_fmsl":535,"id":"MVQ","desc":"MALVERN NDB"},
{"type":"NDB","hdg_t":181.2,"dist_nm":76.8,"freq":414,"lat":32.06430556,"lon":-93.76444444,"rng_nm":50,"alt_fmsl":0,"id":"MSD","desc":"MANSFIELD NDB"},
{"type":"NDB","hdg_t":133.9,"dist_nm":80.5,"freq":350,"lat":32.40886111,"lon":-92.58944444,"rng_nm":50,"alt_fmsl":0,"id":"TUF","desc":"STUCKEY NDB"},
{"type":"NDB","hdg_t":237.1,"dist_nm":83.3,"freq":404,"lat":32.58541667,"lon":-95.11300000,"rng_nm":50,"alt_fmsl":0,"id":"ABG","desc":"AMBASSADOR NDB"},
{"type":"NDB","hdg_t":143.1,"dist_nm":85.4,"freq":256,"lat":32.20127778,"lon":-92.72597222,"rng_nm":50,"alt_fmsl":0,"id":"JBL","desc":"HODGE NDB"},
{"type":"VOR","hdg_t":278.1,"dist_nm":86.9,"freq":113.6,"lat":33.54238889,"lon":-95.44827778,"rng_nm":40,"alt_fmsl":510,"id":"PRX","desc":"PARIS VOR-DME"},
{"type":"VOR","hdg_t":251.6,"dist_nm":87,"freq":114,"lat":32.88041667,"lon":-95.36675000,"rng_nm":40,"alt_fmsl":520,"id":"UIM","desc":"QUITMAN VOR-DME"},
{"type":"NDB","hdg_t":219.7,"dist_nm":89.9,"freq":371,"lat":32.18794444,"lon":-94.86105556,"rng_nm":50,"alt_fmsl":0,"id":"HNO","desc":"HENDERSON NDB"},
{"type":"VOR","hdg_t":331.5,"dist_nm":91,"freq":113.5,"lat":34.68044444,"lon":-94.60900000,"rng_nm":40,"alt_fmsl":2700,"id":"PGO","desc":"RICH MOUNTAIN VORTAC"},
{"type":"VOR","hdg_t":264.8,"dist_nm":91.5,"freq":109,"lat":33.19855556,"lon":-95.54258333,"rng_nm":40,"alt_fmsl":508,"id":"SLR","desc":"SULPHUR SPRINGS VOR-DME"},
{"type":"NDB","hdg_t":193.3,"dist_nm":93.2,"freq":341,"lat":31.83286111,"lon":-94.15375000,"rng_nm":50,"alt_fmsl":0,"id":"CZJ","desc":"AMASON NDB"},
{"type":"NDB","hdg_t":263.7,"dist_nm":95.6,"freq":338,"lat":33.15844700,"lon":-95.61828900,"rng_nm":25,"alt_fmsl":483,"id":"BHG","desc":"BRASHEAR NDB"},
{"type":"NDB","hdg_t":122.6,"dist_nm":98,"freq":392,"lat":32.45411111,"lon":-92.10430556,"rng_nm":50,"alt_fmsl":0,"id":"ML","desc":"SABAR NDB"},
{"type":"VOR","hdg_t":146.7,"dist_nm":98.1,"freq":113.75,"lat":31.97319444,"lon":-92.67708333,"rng_nm":130,"alt_fmsl":164,"id":"SWB","desc":"SAWMILL VOR-DME"},
{"type":"VOR","hdg_t":119.7,"dist_nm":99,"freq":117.2,"lat":32.51688889,"lon":-92.03600000,"rng_nm":40,"alt_fmsl":76,"id":"MLU","desc":"MONROE VORTAC"},
{"type":"NDB","hdg_t":295,"dist_nm":99.5,"freq":323,"lat":34.03969444,"lon":-95.53938889,"rng_nm":50,"alt_fmsl":0,"id":"HHW","desc":"HUGO NDB"},
{"type":"NDB","hdg_t":110.3,"dist_nm":99.7,"freq":329,"lat":32.75469444,"lon":-91.88344444,"rng_nm":50,"alt_fmsl":0,"id":"BQP","desc":"BASTROP NDB"}
]
}
