{"success":true,"source":"xp2csv.pl","last_updated":"2013/11/08 14:53:21 UTC"
,"icao":"AT21","name":"Rumdoodle Skiway","lat":-67.74952113,"lon":62.76545001,"rwys":1,"ils":0,"index":3966353,"path":"e060s70/e062s68"
,"runways":[
{"len_m":401,"wid_m":49.99,"hdg":179,"surf":"Snow","rwy1":"17","lat1":-67.74772126,"lon1":62.76539599,"rwy2":"35","lat2":-67.75132100,"lon2":62.76550402}
]
,"navaids":[
{"type":"SDME","hdg_t":179.9,"dist_nm":1341.1,"freq":115.3,"lat":-89.99516700,"lon":120.92883300,"rng_nm":50,"alt_fmsl":9327,"id":"ZSP","desc":"SOUTH POLE STATION TACAN"},
{"type":"SDME","hdg_t":154,"dist_nm":1662.5,"freq":113.3,"lat":-77.95494700,"lon":166.51257800,"rng_nm":130,"alt_fmsl":40,"id":"ZPG","desc":"PEGASUS TACAN"},
{"type":"SDME","hdg_t":153.8,"dist_nm":1665.8,"freq":112.8,"lat":-77.85395000,"lon":166.46876100,"rng_nm":130,"alt_fmsl":1,"id":"ZIR","desc":"ICE RUNWAY TACAN"},
{"type":"SDME","hdg_t":154,"dist_nm":1671.2,"freq":114.3,"lat":-77.86735800,"lon":167.05657200,"rng_nm":130,"alt_fmsl":68,"id":"ZWD","desc":"WILLIAMS FLD TACAN"},
{"type":"VOR","hdg_t":308.5,"dist_nm":2395.7,"freq":112.9,"lat":-33.99250600,"lon":25.60573600,"rng_nm":100,"alt_fmsl":225,"id":"PEV","desc":"PORT ELIZABETH VOR-DME"},
{"type":"NDB","hdg_t":310.3,"dist_nm":2397.4,"freq":232,"lat":-33.56035000,"lon":26.87806700,"rng_nm":100,"alt_fmsl":275,"id":"PA","desc":"PORT ALFRED NDB"},
{"type":"VOR","hdg_t":311.7,"dist_nm":2410.6,"freq":114.5,"lat":-33.03700300,"lon":27.82302800,"rng_nm":100,"alt_fmsl":435,"id":"ELV","desc":"EAST LONDON VORTAC"},
{"type":"NDB","hdg_t":305.7,"dist_nm":2431.7,"freq":277,"lat":-34.09049700,"lon":23.32596900,"rng_nm":50,"alt_fmsl":443,"id":"PY","desc":"PLETTENBERG BAY NDB"},
{"type":"NDB","hdg_t":304.8,"dist_nm":2452.2,"freq":260,"lat":-34.00205000,"lon":22.48558100,"rng_nm":200,"alt_fmsl":671,"id":"GG","desc":"GEORGE NDB"},
{"type":"VOR","hdg_t":304.6,"dist_nm":2454,"freq":112.5,"lat":-34.00730600,"lon":22.37761400,"rng_nm":100,"alt_fmsl":632,"id":"GGV","desc":"GEORGE VOR-DME"}
]
}
