{"success":true,"source":"xp2csv.pl","last_updated":"2013/11/08 14:53:21 UTC"
,"icao":"AU26","name":"Merrigum","lat":-36.38623395,"lon":145.12468846,"rwys":1,"ils":0,"index":5328224,"path":"e140s40/e145s37"
,"runways":[
{"len_m":785,"wid_m":24.08,"hdg":90,"surf":"Turf/grass","rwy1":"9","lat1":-36.38621895,"lon1":145.12030937,"rwy2":"27","lat2":-36.38624894,"lon2":145.12906754}
]
,"navaids":[
{"type":"NDB","hdg_t":100.9,"dist_nm":13.3,"freq":212,"lat":-36.42836100,"lon":145.39602200,"rng_nm":30,"alt_fmsl":0,"id":"SHT","desc":"SHEPPARTON NDB"},
{"type":"NDB","hdg_t":307,"dist_nm":21.9,"freq":341,"lat":-36.16538100,"lon":144.76459200,"rng_nm":30,"alt_fmsl":0,"id":"ECH","desc":"ECHUCA NDB"},
{"type":"VOR","hdg_t":173.6,"dist_nm":30.1,"freq":113.2,"lat":-36.88611100,"lon":145.19416700,"rng_nm":130,"alt_fmsl":467,"id":"MNG","desc":"MANGALORE VOR"},
{"type":"NDB","hdg_t":174.9,"dist_nm":30.7,"freq":254,"lat":-36.89722200,"lon":145.18111100,"rng_nm":65,"alt_fmsl":0,"id":"MNG","desc":"MANGALORE NDB"},
{"type":"NDB","hdg_t":133.4,"dist_nm":40.7,"freq":413,"lat":-36.85276100,"lon":145.73848100,"rng_nm":35,"alt_fmsl":0,"id":"SBG","desc":"STRATHBOGIE NDB"},
{"type":"NDB","hdg_t":240.7,"dist_nm":44.1,"freq":245,"lat":-36.74277800,"lon":144.32611100,"rng_nm":60,"alt_fmsl":700,"id":"BDG","desc":"BENDIGO NDB"},
{"type":"NDB","hdg_t":350.3,"dist_nm":50.6,"freq":392,"lat":-35.55202800,"lon":144.95179400,"rng_nm":55,"alt_fmsl":305,"id":"DLQ","desc":"DENILIQUIN NDB"},
{"type":"NDB","hdg_t":92.4,"dist_nm":57.1,"freq":203,"lat":-36.42151400,"lon":146.30453100,"rng_nm":30,"alt_fmsl":0,"id":"WGT","desc":"WANGARATTA NDB"},
{"type":"VOR","hdg_t":145.3,"dist_nm":59.8,"freq":112.3,"lat":-37.20633300,"lon":145.83505800,"rng_nm":130,"alt_fmsl":0,"id":"ELW","desc":"EILDON WEIR VOR"},
{"type":"NDB","hdg_t":129.2,"dist_nm":62.9,"freq":284,"lat":-37.04722200,"lon":146.13972200,"rng_nm":45,"alt_fmsl":0,"id":"MFD","desc":"MANSFIELD NDB"},
{"type":"NDB","hdg_t":68.6,"dist_nm":64.4,"freq":380,"lat":-35.98746700,"lon":146.35719700,"rng_nm":75,"alt_fmsl":464,"id":"COR","desc":"COROWA NDB"},
{"type":"NDB","hdg_t":193.5,"dist_nm":66.3,"freq":362,"lat":-37.46222200,"lon":144.79833300,"rng_nm":30,"alt_fmsl":0,"id":"BOL","desc":"BOLINDA NDB"},
{"type":"NDB","hdg_t":191.5,"dist_nm":73.3,"freq":338,"lat":-37.58472200,"lon":144.81777800,"rng_nm":30,"alt_fmsl":0,"id":"ROC","desc":"ROCKDALE NDB"},
{"type":"NDB","hdg_t":183.4,"dist_nm":77.1,"freq":377,"lat":-37.67166700,"lon":145.02638900,"rng_nm":40,"alt_fmsl":0,"id":"EPP","desc":"EPPING NDB"},
{"type":"VOR","hdg_t":190,"dist_nm":77.5,"freq":114.1,"lat":-37.66000000,"lon":144.84194400,"rng_nm":130,"alt_fmsl":412,"id":"ML","desc":"MELBOURNE VOR-DME"},
{"type":"NDB","hdg_t":180.4,"dist_nm":79.9,"freq":218,"lat":-37.72027800,"lon":145.11138900,"rng_nm":36,"alt_fmsl":0,"id":"PLE","desc":"PLENTY NDB"},
{"type":"NDB","hdg_t":187.2,"dist_nm":80.9,"freq":356,"lat":-37.72666700,"lon":144.91138900,"rng_nm":60,"alt_fmsl":0,"id":"EN","desc":"ESSENDON NDB"},
{"type":"VOR","hdg_t":78.5,"dist_nm":91.3,"freq":115.6,"lat":-36.06805600,"lon":146.96611100,"rng_nm":50,"alt_fmsl":550,"id":"AY","desc":"ALBURY VOR-DME"},
{"type":"NDB","hdg_t":78.5,"dist_nm":91.5,"freq":236,"lat":-36.06861100,"lon":146.96972200,"rng_nm":65,"alt_fmsl":0,"id":"AY","desc":"ALBURY NDB"},
{"type":"NDB","hdg_t":223.1,"dist_nm":93.1,"freq":239,"lat":-37.51361100,"lon":143.79055600,"rng_nm":30,"alt_fmsl":0,"id":"BLT","desc":"BALLARAT NDB"},
{"type":"NDB","hdg_t":190.7,"dist_nm":93.9,"freq":419,"lat":-37.92682500,"lon":144.75637800,"rng_nm":25,"alt_fmsl":0,"id":"PCK","desc":"POINT COOK NDB"},
{"type":"NDB","hdg_t":198.3,"dist_nm":95.2,"freq":224,"lat":-37.89250000,"lon":144.49194400,"rng_nm":25,"alt_fmsl":0,"id":"RPY","desc":"RIPLEY NDB"},
{"type":"NDB","hdg_t":180.9,"dist_nm":95.3,"freq":398,"lat":-37.97651100,"lon":145.09032200,"rng_nm":65,"alt_fmsl":0,"id":"MB","desc":"MOORABBIN NDB"},
{"type":"NDB","hdg_t":307.4,"dist_nm":97.9,"freq":407,"lat":-35.38050000,"lon":143.54030600,"rng_nm":45,"alt_fmsl":0,"id":"SWH","desc":"SWAN HILL NDB"}
]
}
