{"success":true,"source":"xp2csv.pl","last_updated":"2013/11/08 14:53:21 UTC"
,"icao":"AYGN","name":"Gurney","lat":-10.31153186,"lon":150.33375559,"rwys":1,"ils":0,"index":5411818,"path":"e150s20/e150s11"
,"runways":[
{"len_m":1692,"wid_m":29.87,"hdg":281,"surf":"Asphalt","rwy1":"09","lat1":-10.31302166,"lon1":150.34133372,"rwy2":"27","lat2":-10.31004205,"lon2":150.32617745}
]
,"radios":[
{"type":"ATIS","freq":122.2,"desc":"AYGN ATIS"},
{"type":"CTAF","freq":119.6,"desc":"ACTIVATE LIGHTS ONLY MULTICOM"},
{"type":"GND","freq":122.9,"desc":"GURNEY GND"},
{"type":"TWR","freq":119.4,"desc":"GURNEY TWR"}
]
,"navaids":[
{"type":"VOR","hdg_t":98.8,"dist_nm":1.6,"freq":115.6,"lat":-10.31583333,"lon":150.36172222,"rng_nm":130,"alt_fmsl":23,"id":"GNY","desc":"GURNEY VOR-DME"},
{"type":"NDB","hdg_t":100.4,"dist_nm":1.9,"freq":1623,"lat":-10.31750000,"lon":150.36647222,"rng_nm":50,"alt_fmsl":0,"id":"GNY","desc":"GURNEY NDB"},
{"type":"NDB","hdg_t":22.6,"dist_nm":116.7,"freq":287,"lat":-8.50558333,"lon":151.08875000,"rng_nm":50,"alt_fmsl":0,"id":"KWA","desc":"KIRIWINA NDB"},
{"type":"NDB","hdg_t":98.8,"dist_nm":149.5,"freq":218,"lat":-10.68818300,"lon":152.83481700,"rng_nm":65,"alt_fmsl":0,"id":"MIS","desc":"MISIMA NDB"},
{"type":"SDME","hdg_t":307,"dist_nm":154.7,"freq":116.5,"lat":-8.74500000,"lon":148.25366700,"rng_nm":30,"alt_fmsl":232,"id":"GUA","desc":"GIRUA NDB-DME"},
{"type":"NDB","hdg_t":307.1,"dist_nm":155,"freq":224,"lat":-8.73611100,"lon":148.25416700,"rng_nm":30,"alt_fmsl":232,"id":"GUA","desc":"GIRUA NDB-DME"},
{"type":"NDB","hdg_t":281.5,"dist_nm":173,"freq":350,"lat":-9.71796700,"lon":147.47221700,"rng_nm":50,"alt_fmsl":0,"id":"TVI","desc":"TAVAI NDB"},
{"type":"NDB","hdg_t":285.1,"dist_nm":190.5,"freq":368,"lat":-9.46105000,"lon":147.23254400,"rng_nm":40,"alt_fmsl":146,"id":"PY","desc":"PORT MORESBY NDB"},
{"type":"VOR","hdg_t":285.2,"dist_nm":191.6,"freq":117,"lat":-9.45297222,"lon":147.21508333,"rng_nm":25,"alt_fmsl":526,"id":"PY","desc":"PORT MORESBY VOR-DME"},
{"type":"NDB","hdg_t":286.3,"dist_nm":195.1,"freq":380,"lat":-9.37615000,"lon":147.17686700,"rng_nm":40,"alt_fmsl":0,"id":"JSN","desc":"JACKSON NDB"}
]
}
