{"success":true,"source":"xp2csv.pl","last_updated":"2013/11/08 14:53:21 UTC"
,"icao":"AYKM","name":"Kerema","lat":-7.9634995,"lon":145.7711155,"rwys":2,"ils":0,"index":5330054,"path":"e140s10/e145s08"
,"runways":[
{"len_m":927,"wid_m":18.29,"hdg":145,"surf":"Asphalt","rwy1":"14","lat1":-7.96000000,"lon1":145.76888900,"rwy2":"32","lat2":-7.96694400,"lon2":145.77361100},
{"len_m":942,"wid_m":30.48,"hdg":328,"surf":"Dirt","rwy1":"33","lat1":-7.96717135,"lon1":145.77319207,"rwy2":"15","lat2":-7.95988265,"lon2":145.76876993}
]
,"radios":[
{"type":"ATIS","freq":127.7,"desc":"KMA AWOS"}
]
,"navaids":[
{"type":"NDB","hdg_t":77.1,"dist_nm":0.2,"freq":401,"lat":-7.96261700,"lon":145.77500000,"rng_nm":55,"alt_fmsl":223,"id":"KRM","desc":"KEREMA NDB-DME"},
{"type":"SDME","hdg_t":77.1,"dist_nm":0.2,"freq":116.9,"lat":-7.96261700,"lon":145.77500000,"rng_nm":55,"alt_fmsl":223,"id":"KRM","desc":"KEREMA NDB-DME"},
{"type":"NDB","hdg_t":265.1,"dist_nm":72.3,"freq":1737,"lat":-8.06435000,"lon":144.56060000,"rng_nm":50,"alt_fmsl":0,"id":"KUT","desc":"KUMUL PLATFORM NDB"},
{"type":"NDB","hdg_t":126.7,"dist_nm":72.9,"freq":1662,"lat":-8.69305000,"lon":146.75525000,"rng_nm":30,"alt_fmsl":0,"id":"KUB","desc":"KUBUNA NDB"},
{"type":"NDB","hdg_t":289.3,"dist_nm":96,"freq":308,"lat":-7.42747222,"lon":144.25077778,"rng_nm":50,"alt_fmsl":0,"id":"KIK","desc":"KIKORI NDB"},
{"type":"NDB","hdg_t":33.9,"dist_nm":100.2,"freq":1615,"lat":-6.57000000,"lon":146.70833300,"rng_nm":50,"alt_fmsl":0,"id":"NZ","desc":"NADZAB NDB"},
{"type":"VOR","hdg_t":33.9,"dist_nm":100.3,"freq":113.9,"lat":-6.56833333,"lon":146.70894444,"rng_nm":130,"alt_fmsl":267,"id":"NZ","desc":"NADZAB VOR-DME"},
{"type":"NDB","hdg_t":45,"dist_nm":103.4,"freq":388,"lat":-6.73726700,"lon":146.99806700,"rng_nm":30,"alt_fmsl":0,"id":"LAE","desc":"LAE NDB"},
{"type":"NDB","hdg_t":348.5,"dist_nm":114.8,"freq":1725,"lat":-6.07781700,"lon":145.38970000,"rng_nm":20,"alt_fmsl":5208,"id":"GA","desc":"GOROKA NDB"},
{"type":"NDB","hdg_t":135.1,"dist_nm":115,"freq":395,"lat":-9.32666700,"lon":147.14025000,"rng_nm":40,"alt_fmsl":0,"id":"PRE","desc":"PARER NDB"}
]
}
