{"success":true,"source":"xp2csv.pl","last_updated":"2013/11/08 14:53:21 UTC"
,"icao":"AZ07","name":"Cross Y Ranch","lat":34.11669944,"lon":-112.09515667,"rwys":1,"ils":0,"index":1105667,"path":"w120n30/w113n34"
,"runways":[
{"len_m":699,"wid_m":22.86,"hdg":193,"surf":"Dirt","rwy1":"18","lat1":34.11977302,"lon1":-112.09429957,"rwy2":"36","lat2":34.11362586,"lon2":-112.09601377}
]
,"navaids":[
{"type":"NDB","hdg_t":162.1,"dist_nm":30.6,"freq":224,"lat":33.62909700,"lon":-111.90782800,"rng_nm":25,"alt_fmsl":1542,"id":"SDL","desc":"SCOTTSDALE NDB"},
{"type":"SDME","hdg_t":202.4,"dist_nm":37.4,"freq":113,"lat":33.53768300,"lon":-112.38021100,"rng_nm":40,"alt_fmsl":1076,"id":"LUF","desc":"LUKE TACAN"},
{"type":"VOR","hdg_t":331.5,"dist_nm":39.9,"freq":114.1,"lat":34.70255556,"lon":-112.48036111,"rng_nm":130,"alt_fmsl":4963,"id":"DRK","desc":"DRAKE VORTAC"},
{"type":"VOR","hdg_t":171.2,"dist_nm":41.4,"freq":115.6,"lat":33.43302778,"lon":-111.97019444,"rng_nm":130,"alt_fmsl":1182,"id":"PXR","desc":"PHOENIX VORTAC"},
{"type":"NDB","hdg_t":155.1,"dist_nm":43.1,"freq":281,"lat":33.46188889,"lon":-111.73308333,"rng_nm":50,"alt_fmsl":0,"id":"FFZ","desc":"FALCON FIELD NDB"},
{"type":"NDB","hdg_t":164.1,"dist_nm":52.9,"freq":407,"lat":33.26650000,"lon":-111.80791667,"rng_nm":50,"alt_fmsl":0,"id":"CHD","desc":"CHANDLER NDB"},
{"type":"VOR","hdg_t":155.3,"dist_nm":53.5,"freq":113.3,"lat":33.30316667,"lon":-111.65144444,"rng_nm":40,"alt_fmsl":1366,"id":"IWA","desc":"WILLIE VORTAC"},
{"type":"VOR","hdg_t":222.7,"dist_nm":53.9,"freq":110.6,"lat":33.45344444,"lon":-112.82458333,"rng_nm":40,"alt_fmsl":1060,"id":"BXK","desc":"BUCKEYE VORTAC"},
{"type":"NDB","hdg_t":18.7,"dist_nm":64.9,"freq":379,"lat":35.14187400,"lon":-111.67071600,"rng_nm":25,"alt_fmsl":6994,"id":"PUU","desc":"PULLIAM NDB"},
{"type":"VOR","hdg_t":18.5,"dist_nm":65.1,"freq":113.85,"lat":35.14719444,"lon":-111.67416667,"rng_nm":130,"alt_fmsl":7026,"id":"FLG","desc":"FLAGSTAFF VOR-DME"},
{"type":"VOR","hdg_t":172.7,"dist_nm":74.3,"freq":114.8,"lat":32.88586111,"lon":-111.90872222,"rng_nm":130,"alt_fmsl":1316,"id":"TFD","desc":"STANFIELD VORTAC"},
{"type":"VOR","hdg_t":202.8,"dist_nm":75.3,"freq":116.6,"lat":32.95627778,"lon":-112.67427778,"rng_nm":130,"alt_fmsl":790,"id":"GBN","desc":"GILA BEND VORTAC"},
{"type":"VOR","hdg_t":48.3,"dist_nm":85.7,"freq":112.6,"lat":35.06161111,"lon":-110.79502778,"rng_nm":130,"alt_fmsl":4910,"id":"INW","desc":"WINSLOW VORTAC"}
]
}
