{"success":true,"source":"xp2csv.pl","last_updated":"2013/11/08 14:53:21 UTC"
,"icao":"AZ63","name":"Twin Hawks Airpark","lat":32.52777777,"lon":-111.19583334,"rwys":1,"ils":0,"index":1121955,"path":"w120n30/w112n32"
,"runways":[
{"len_m":854,"wid_m":22.86,"hdg":52,"surf":"Dirt","rwy1":"04","lat1":32.52541352,"lon1":-111.19942246,"rwy2":"22","lat2":32.53014202,"lon2":-111.19224422}
]
,"helipads":[
{"rwy1":"H1","len_m":30,"wid_m":30.48,"hdg":-111,"surf":"Dirt","lat1":32.52777777,"lon1":-111.19583334}
]
,"navaids":[
{"type":"NDB","hdg_t":188.2,"dist_nm":7,"freq":245,"lat":32.41183333,"lon":-111.21558333,"rng_nm":50,"alt_fmsl":0,"id":"AVQ","desc":"MARANA NDB"},
{"type":"NDB","hdg_t":175.7,"dist_nm":23.3,"freq":338,"lat":32.13838889,"lon":-111.16152778,"rng_nm":50,"alt_fmsl":0,"id":"RYN","desc":"RYAN NDB"},
{"type":"SDME","hdg_t":143.9,"dist_nm":27.2,"freq":117.6,"lat":32.15991700,"lon":-110.88090800,"rng_nm":40,"alt_fmsl":2663,"id":"DMA","desc":"DAVIS MONTHAN TACAN"},
{"type":"NDB","hdg_t":197.1,"dist_nm":28.4,"freq":220,"lat":32.07405556,"lon":-111.36030556,"rng_nm":50,"alt_fmsl":0,"id":"RBJ","desc":"ROBLES NDB"},
{"type":"VOR","hdg_t":151,"dist_nm":29.5,"freq":116,"lat":32.09519444,"lon":-110.91486111,"rng_nm":130,"alt_fmsl":2672,"id":"TUS","desc":"TUCSON VORTAC"},
{"type":"VOR","hdg_t":300.9,"dist_nm":41.9,"freq":114.8,"lat":32.88586111,"lon":-111.90872222,"rng_nm":130,"alt_fmsl":1316,"id":"TFD","desc":"STANFIELD VORTAC"},
{"type":"VOR","hdg_t":333.7,"dist_nm":51.8,"freq":113.3,"lat":33.30316667,"lon":-111.65144444,"rng_nm":40,"alt_fmsl":1366,"id":"IWA","desc":"WILLIE VORTAC"},
{"type":"NDB","hdg_t":325.2,"dist_nm":53.9,"freq":407,"lat":33.26650000,"lon":-111.80791667,"rng_nm":50,"alt_fmsl":0,"id":"CHD","desc":"CHANDLER NDB"},
{"type":"NDB","hdg_t":334.2,"dist_nm":62.1,"freq":281,"lat":33.46188889,"lon":-111.73308333,"rng_nm":50,"alt_fmsl":0,"id":"FFZ","desc":"FALCON FIELD NDB"},
{"type":"VOR","hdg_t":324.4,"dist_nm":66.8,"freq":115.6,"lat":33.43302778,"lon":-111.97019444,"rng_nm":130,"alt_fmsl":1182,"id":"PXR","desc":"PHOENIX VORTAC"},
{"type":"NDB","hdg_t":164.8,"dist_nm":68.6,"freq":394,"lat":31.42136111,"lon":-110.84644444,"rng_nm":50,"alt_fmsl":0,"id":"ENZ","desc":"NOGALES NDB"},
{"type":"VOR","hdg_t":165,"dist_nm":68.9,"freq":108.2,"lat":31.41494444,"lon":-110.84888889,"rng_nm":40,"alt_fmsl":3870,"id":"OLS","desc":"NOGALES VOR-DME"},
{"type":"VOR","hdg_t":142.4,"dist_nm":70.6,"freq":113.6,"lat":31.58966667,"lon":-110.35494444,"rng_nm":25,"alt_fmsl":0,"id":"FHU","desc":"LIBBY VOR"},
{"type":"NDB","hdg_t":142.1,"dist_nm":71.1,"freq":410,"lat":31.58566667,"lon":-110.34425000,"rng_nm":50,"alt_fmsl":0,"id":"DAO","desc":"DRAGOO NDB"},
{"type":"SDME","hdg_t":142,"dist_nm":71.3,"freq":111.6,"lat":31.58558100,"lon":-110.33898300,"rng_nm":25,"alt_fmsl":4659,"id":"ARH","desc":"LIBBY TACAN"},
{"type":"NDB","hdg_t":331.6,"dist_nm":75,"freq":224,"lat":33.62909700,"lon":-111.90782800,"rng_nm":25,"alt_fmsl":1542,"id":"SDL","desc":"SCOTTSDALE NDB"},
{"type":"VOR","hdg_t":111.6,"dist_nm":78.8,"freq":115.8,"lat":32.03338889,"lon":-109.75819444,"rng_nm":130,"alt_fmsl":4230,"id":"CIE","desc":"COCHISE VORTAC"},
{"type":"VOR","hdg_t":289.3,"dist_nm":79,"freq":116.6,"lat":32.95627778,"lon":-112.67427778,"rng_nm":130,"alt_fmsl":790,"id":"GBN","desc":"GILA BEND VORTAC"},
{"type":"SDME","hdg_t":315.6,"dist_nm":85,"freq":113,"lat":33.53768300,"lon":-112.38021100,"rng_nm":40,"alt_fmsl":1076,"id":"LUF","desc":"LUKE TACAN"},
{"type":"VOR","hdg_t":304.4,"dist_nm":99.1,"freq":110.6,"lat":33.45344444,"lon":-112.82458333,"rng_nm":40,"alt_fmsl":1060,"id":"BXK","desc":"BUCKEYE VORTAC"},
{"type":"VOR","hdg_t":98.4,"dist_nm":99.3,"freq":115.4,"lat":32.26925000,"lon":-109.26308333,"rng_nm":130,"alt_fmsl":3600,"id":"SSO","desc":"SAN SIMON VORTAC"}
]
}
