{"success":true,"source":"xp2csv.pl","last_updated":"2013/11/08 14:53:21 UTC"
,"icao":"BIHR","name":"Hvolsvollur","lat":63.754158,"lon":-20.2444,"rwys":1,"ils":0,"index":2614897,"path":"w030n60/w021n63"
,"runways":[
{"len_m":688,"wid_m":27.43,"hdg":178,"surf":"Turf/grass","rwy1":"20","lat1":63.75724613,"lon1":-20.24452189,"rwy2":"02","lat2":63.75106987,"lon2":-20.24427811}
]
,"navaids":[
{"type":"NDB","hdg_t":182.9,"dist_nm":19.8,"freq":345,"lat":63.42425000,"lon":-20.28194444,"rng_nm":15,"alt_fmsl":0,"id":"HL","desc":"HELGAFELL NDB"},
{"type":"SDME","hdg_t":182.1,"dist_nm":20.1,"freq":110.7,"lat":63.42013889,"lon":-20.27216667,"rng_nm":25,"alt_fmsl":616,"id":"HL","desc":"HELGAFELL DME"},
{"type":"NDB","hdg_t":183.1,"dist_nm":21.3,"freq":375,"lat":63.39958333,"lon":-20.28830556,"rng_nm":150,"alt_fmsl":0,"id":"VM","desc":"VESTMANNAEYJAR NDB"},
{"type":"NDB","hdg_t":296.9,"dist_nm":23.4,"freq":397,"lat":63.92888889,"lon":-21.03416667,"rng_nm":25,"alt_fmsl":0,"id":"SE","desc":"SELFOSS NDB"},
{"type":"NDB","hdg_t":296.6,"dist_nm":44.9,"freq":335,"lat":64.08111111,"lon":-21.77072222,"rng_nm":100,"alt_fmsl":0,"id":"EL","desc":"ELLIDAVATN NDB"},
{"type":"SDME","hdg_t":297.6,"dist_nm":50,"freq":109.1,"lat":64.13013889,"lon":-21.93269444,"rng_nm":25,"alt_fmsl":146,"id":"IRE","desc":"REYKJAVIK DME"},
{"type":"NDB","hdg_t":298.6,"dist_nm":50.8,"freq":319,"lat":64.14955556,"lon":-21.94155556,"rng_nm":15,"alt_fmsl":0,"id":"GF","desc":"GROF NDB"},
{"type":"NDB","hdg_t":297.4,"dist_nm":50.8,"freq":370,"lat":64.13388889,"lon":-21.96172222,"rng_nm":15,"alt_fmsl":0,"id":"NS","desc":"NES NDB"},
{"type":"NDB","hdg_t":297.6,"dist_nm":52.9,"freq":355,"lat":64.15147222,"lon":-22.02883333,"rng_nm":100,"alt_fmsl":0,"id":"RK","desc":"REYKJAVIK NDB"},
{"type":"NDB","hdg_t":306.8,"dist_nm":56.3,"freq":379,"lat":64.30544444,"lon":-21.97127778,"rng_nm":25,"alt_fmsl":0,"id":"SA","desc":"SKAGI NDB"},
{"type":"NDB","hdg_t":333.9,"dist_nm":61.2,"freq":325,"lat":64.66416667,"lon":-21.28638889,"rng_nm":50,"alt_fmsl":0,"id":"RH","desc":"REYKHOLT NDB"},
{"type":"VOR","hdg_t":283.6,"dist_nm":64.4,"freq":112,"lat":63.98680556,"lon":-22.61450000,"rng_nm":20,"alt_fmsl":174,"id":"KEF","desc":"KEFLAVIK VORTAC"},
{"type":"NDB","hdg_t":283,"dist_nm":67.4,"freq":392,"lat":63.98502778,"lon":-22.73161111,"rng_nm":100,"alt_fmsl":0,"id":"KF","desc":"KEFLAVIK NDB"},
{"type":"VOR","hdg_t":86.6,"dist_nm":96,"freq":112.4,"lat":63.80305556,"lon":-16.63805556,"rng_nm":130,"alt_fmsl":250,"id":"ING","desc":"INGO VOR-DME"}
]
}
