{"success":true,"source":"xp2csv.pl","last_updated":"2013/11/08 14:53:21 UTC"
,"icao":"C22","name":"Centre Muni","lat":34.1598725,"lon":-85.6351265,"rwys":1,"ils":0,"index":1548041,"path":"w090n30/w086n34"
,"runways":[
{"len_m":1036,"wid_m":24.38,"hdg":89,"surf":"Asphalt","rwy1":"09","lat1":34.15983100,"lon1":-85.64074700,"rwy2":"27","lat2":34.15991400,"lon2":-85.62950600}
]
,"radios":[
{"type":"CTAF","freq":122.9,"desc":"CTAF"}
]
,"navaids":[
{"type":"NDB","hdg_t":354.9,"dist_nm":21.7,"freq":426,"lat":34.52113889,"lon":-85.67333333,"rng_nm":50,"alt_fmsl":0,"id":"FTP","desc":"FORT PAYNE NDB"},
{"type":"VOR","hdg_t":243.9,"dist_nm":24.9,"freq":112.3,"lat":33.97641667,"lon":-86.08355556,"rng_nm":40,"alt_fmsl":560,"id":"GAD","desc":"GADSDEN VOR-DME"},
{"type":"VOR","hdg_t":89.4,"dist_nm":25.6,"freq":115.4,"lat":34.16255556,"lon":-85.11938889,"rng_nm":130,"alt_fmsl":1149,"id":"RMG","desc":"ROME VORTAC"},
{"type":"NDB","hdg_t":280.9,"dist_nm":29.8,"freq":296,"lat":34.25291667,"lon":-86.22355556,"rng_nm":50,"alt_fmsl":0,"id":"ARF","desc":"SARATOGA NDB"},
{"type":"NDB","hdg_t":67.4,"dist_nm":38,"freq":323,"lat":34.40155556,"lon":-84.92652778,"rng_nm":50,"alt_fmsl":0,"id":"OUK","desc":"CALHOUN NDB"},
{"type":"NDB","hdg_t":86.3,"dist_nm":39.4,"freq":308,"lat":34.19958333,"lon":-84.84311111,"rng_nm":50,"alt_fmsl":0,"id":"EVZ","desc":"CARTERSVILLE NDB"},
{"type":"NDB","hdg_t":201.6,"dist_nm":40.2,"freq":211,"lat":33.53436111,"lon":-85.93080556,"rng_nm":50,"alt_fmsl":0,"id":"AN","desc":"BOGGA NDB"},
{"type":"VOR","hdg_t":210.2,"dist_nm":40.5,"freq":108.8,"lat":33.57513889,"lon":-86.04269444,"rng_nm":40,"alt_fmsl":530,"id":"TDG","desc":"TALLADEGA VOR-DME"},
{"type":"NDB","hdg_t":144.5,"dist_nm":43.5,"freq":278,"lat":33.56577778,"lon":-85.13088889,"rng_nm":50,"alt_fmsl":0,"id":"GPQ","desc":"CARROLLTON NDB"},
{"type":"NDB","hdg_t":220.6,"dist_nm":47.2,"freq":257,"lat":33.55900000,"lon":-86.24941667,"rng_nm":50,"alt_fmsl":0,"id":"PLR","desc":"PELL CITY NDB"},
{"type":"NDB","hdg_t":42,"dist_nm":51,"freq":400,"lat":34.79133333,"lon":-84.94352778,"rng_nm":50,"alt_fmsl":0,"id":"UWI","desc":"WHITFIELD NDB"},
{"type":"VOR","hdg_t":26.3,"dist_nm":53.6,"freq":115.8,"lat":34.96125000,"lon":-85.15336111,"rng_nm":130,"alt_fmsl":1015,"id":"GQO","desc":"CHOO CHOO VORTAC"},
{"type":"NDB","hdg_t":2.6,"dist_nm":53.9,"freq":382,"lat":35.05963889,"lon":-85.58394444,"rng_nm":50,"alt_fmsl":0,"id":"APT","desc":"JASPER NDB"},
{"type":"NDB","hdg_t":115.3,"dist_nm":55.1,"freq":344,"lat":33.76238889,"lon":-84.63886111,"rng_nm":50,"alt_fmsl":0,"id":"FT","desc":"FLANC NDB"},
{"type":"NDB","hdg_t":84.1,"dist_nm":57.3,"freq":415,"lat":34.25236111,"lon":-84.48761111,"rng_nm":50,"alt_fmsl":0,"id":"DJD","desc":"CHERO NDB"},
{"type":"SDME","hdg_t":104.3,"dist_nm":58.1,"freq":113,"lat":33.91464700,"lon":-84.50730600,"rng_nm":25,"alt_fmsl":1008,"id":"DOB","desc":"DOBBINS TACAN"},
{"type":"NDB","hdg_t":282.2,"dist_nm":60.4,"freq":230,"lat":34.36787300,"lon":-86.82389100,"rng_nm":25,"alt_fmsl":830,"id":"CPP","desc":"COLE SPRING NDB"},
{"type":"NDB","hdg_t":301.9,"dist_nm":61.4,"freq":287,"lat":34.69847222,"lon":-86.68800000,"rng_nm":50,"alt_fmsl":0,"id":"HUA","desc":"REDSTONE NDB"},
{"type":"NDB","hdg_t":237.8,"dist_nm":61.7,"freq":394,"lat":33.60761111,"lon":-86.67877778,"rng_nm":50,"alt_fmsl":0,"id":"RO","desc":"ROEBY NDB"},
{"type":"VOR","hdg_t":307.9,"dist_nm":62.5,"freq":112.2,"lat":34.79725000,"lon":-86.63383333,"rng_nm":40,"alt_fmsl":1199,"id":"RQZ","desc":"ROCKET VORTAC"},
{"type":"NDB","hdg_t":340.7,"dist_nm":64.6,"freq":263,"lat":35.17800000,"lon":-86.06816667,"rng_nm":50,"alt_fmsl":0,"id":"BGF","desc":"BOILING FORK NDB"},
{"type":"NDB","hdg_t":21.2,"dist_nm":64.7,"freq":341,"lat":35.16655556,"lon":-85.15736111,"rng_nm":50,"alt_fmsl":0,"id":"CQN","desc":"DAISY NDB"},
{"type":"SDME","hdg_t":237.6,"dist_nm":67.4,"freq":109.5,"lat":33.55216700,"lon":-86.77133300,"rng_nm":18,"alt_fmsl":644,"id":"IROE","desc":"KBHM 24 DME-ILS DME"},
{"type":"NDB","hdg_t":303.2,"dist_nm":67.6,"freq":350,"lat":34.77369444,"lon":-86.77902778,"rng_nm":50,"alt_fmsl":0,"id":"CWH","desc":"CAPSHAW NDB"},
{"type":"VOR","hdg_t":117.6,"dist_nm":67.8,"freq":116.9,"lat":33.62908333,"lon":-84.43508333,"rng_nm":130,"alt_fmsl":1000,"id":"ATL","desc":"ATLANTA VORTAC"},
{"type":"NDB","hdg_t":210.2,"dist_nm":68.2,"freq":284,"lat":33.17425000,"lon":-86.31816667,"rng_nm":50,"alt_fmsl":0,"id":"SCD","desc":"SYLACAUGA NDB"},
{"type":"VOR","hdg_t":103.9,"dist_nm":68.7,"freq":116.6,"lat":33.87563889,"lon":-84.29880556,"rng_nm":40,"alt_fmsl":970,"id":"PDK","desc":"PEACHTREE VOR-DME"},
{"type":"NDB","hdg_t":31,"dist_nm":69.6,"freq":369,"lat":35.15369444,"lon":-84.90577778,"rng_nm":50,"alt_fmsl":0,"id":"HDI","desc":"HARDWICK NDB"},
{"type":"VOR","hdg_t":245.4,"dist_nm":69.6,"freq":114.4,"lat":33.67019444,"lon":-86.89980556,"rng_nm":130,"alt_fmsl":750,"id":"VUZ","desc":"VULCAN VORTAC"},
{"type":"VOR","hdg_t":161.9,"dist_nm":69.9,"freq":115.6,"lat":33.04911111,"lon":-85.20622222,"rng_nm":130,"alt_fmsl":798,"id":"LGC","desc":"LAGRANGE VORTAC"},
{"type":"NDB","hdg_t":139.2,"dist_nm":71,"freq":234,"lat":33.25694444,"lon":-84.71327778,"rng_nm":50,"alt_fmsl":0,"id":"EQQ","desc":"COWETA CO NDB"},
{"type":"VOR","hdg_t":294.6,"dist_nm":71,"freq":112.8,"lat":34.64830556,"lon":-86.93952778,"rng_nm":40,"alt_fmsl":590,"id":"DCU","desc":"DECATUR VOR-DME"},
{"type":"NDB","hdg_t":237.6,"dist_nm":71.8,"freq":224,"lat":33.51127778,"lon":-86.84561111,"rng_nm":50,"alt_fmsl":0,"id":"BH","desc":"MCDEN NDB"},
{"type":"NDB","hdg_t":114.6,"dist_nm":72.9,"freq":266,"lat":33.64538889,"lon":-84.31125000,"rng_nm":50,"alt_fmsl":0,"id":"BR","desc":"REDAN NDB"},
{"type":"NDB","hdg_t":322.6,"dist_nm":73.6,"freq":358,"lat":35.13408333,"lon":-86.54205556,"rng_nm":50,"alt_fmsl":0,"id":"TNY","desc":"KELSO NDB"},
{"type":"NDB","hdg_t":131.5,"dist_nm":77.1,"freq":316,"lat":33.30063889,"lon":-84.48641667,"rng_nm":50,"alt_fmsl":0,"id":"FF","desc":"PECAT NDB"},
{"type":"NDB","hdg_t":192.1,"dist_nm":78.4,"freq":382,"lat":32.87941667,"lon":-85.96113889,"rng_nm":50,"alt_fmsl":0,"id":"DER","desc":"ALEXANDER CITY NDB"},
{"type":"VOR","hdg_t":337.7,"dist_nm":79,"freq":109.65,"lat":35.38041667,"lon":-86.24577778,"rng_nm":25,"alt_fmsl":0,"id":"UXM","desc":"TULLAHOMA RGNL VOR"},
{"type":"NDB","hdg_t":232.1,"dist_nm":82,"freq":368,"lat":33.31194700,"lon":-86.92315800,"rng_nm":25,"alt_fmsl":660,"id":"BEQ","desc":"BESSEMER NDB"},
{"type":"NDB","hdg_t":339.1,"dist_nm":83.5,"freq":332,"lat":35.46158333,"lon":-86.24169444,"rng_nm":50,"alt_fmsl":0,"id":"ULH","desc":"BURWI NDB"},
{"type":"NDB","hdg_t":87.7,"dist_nm":86,"freq":365,"lat":34.20338889,"lon":-83.90630556,"rng_nm":50,"alt_fmsl":0,"id":"FKV","desc":"FLOWERY BRANCH NDB"},
{"type":"NDB","hdg_t":23.5,"dist_nm":86.4,"freq":394,"lat":35.48191667,"lon":-84.93091667,"rng_nm":50,"alt_fmsl":0,"id":"DTE","desc":"MARK ANTON NDB"},
{"type":"NDB","hdg_t":153.9,"dist_nm":87.6,"freq":272,"lat":32.84286111,"lon":-84.87266667,"rng_nm":50,"alt_fmsl":0,"id":"PIM","desc":"PINE MOUNTAIN NDB"},
{"type":"NDB","hdg_t":94.9,"dist_nm":88.7,"freq":419,"lat":34.01994444,"lon":-83.86283333,"rng_nm":50,"alt_fmsl":0,"id":"TX","desc":"GWNET NDB"},
{"type":"NDB","hdg_t":35.3,"dist_nm":91,"freq":242,"lat":35.39458333,"lon":-84.56163889,"rng_nm":50,"alt_fmsl":0,"id":"MMI","desc":"MC MINN CO NDB"},
{"type":"NDB","hdg_t":129.2,"dist_nm":91.5,"freq":412,"lat":33.18430556,"lon":-84.22750000,"rng_nm":50,"alt_fmsl":0,"id":"JHH","desc":"GRIFFIN NDB"},
{"type":"NDB","hdg_t":212.3,"dist_nm":92.3,"freq":338,"lat":32.85319444,"lon":-86.61108333,"rng_nm":50,"alt_fmsl":0,"id":"GGY","desc":"GRAGG-WADE NDB"},
{"type":"VOR","hdg_t":334.9,"dist_nm":92.8,"freq":109,"lat":35.56197222,"lon":-86.43916667,"rng_nm":40,"alt_fmsl":814,"id":"SYI","desc":"SHELBYVILLE VOR-DME"},
{"type":"NDB","hdg_t":356.2,"dist_nm":95.6,"freq":209,"lat":35.75241667,"lon":-85.76413889,"rng_nm":50,"alt_fmsl":0,"id":"RN","desc":"WARRI NDB"},
{"type":"VOR","hdg_t":60.6,"dist_nm":97.2,"freq":109.8,"lat":34.94300000,"lon":-83.91569444,"rng_nm":40,"alt_fmsl":3660,"id":"HRS","desc":"HARRIS VORTAC"},
{"type":"VOR","hdg_t":161.2,"dist_nm":97.5,"freq":117.1,"lat":32.61525000,"lon":-85.01763889,"rng_nm":40,"alt_fmsl":630,"id":"CSG","desc":"COLUMBUS VORTAC"},
{"type":"VOR","hdg_t":290,"dist_nm":97.7,"freq":116.5,"lat":34.70686111,"lon":-87.49158333,"rng_nm":40,"alt_fmsl":620,"id":"MSL","desc":"MUSCLE SHOALS VORTAC"},
{"type":"NDB","hdg_t":108.4,"dist_nm":97.8,"freq":370,"lat":33.62983333,"lon":-83.78211111,"rng_nm":50,"alt_fmsl":0,"id":"VOF","desc":"ALCOVY NDB"},
{"type":"VOR","hdg_t":236.1,"dist_nm":97.8,"freq":111,"lat":33.23955556,"lon":-87.25000000,"rng_nm":40,"alt_fmsl":649,"id":"OKW","desc":"BROOKWOOD VORTAC"},
{"type":"NDB","hdg_t":104.3,"dist_nm":98.5,"freq":392,"lat":33.73761111,"lon":-83.72683333,"rng_nm":50,"alt_fmsl":0,"id":"JNM","desc":"MONROE NDB"},
{"type":"NDB","hdg_t":324.4,"dist_nm":99,"freq":251,"lat":35.50050000,"lon":-86.80972222,"rng_nm":50,"alt_fmsl":0,"id":"LUG","desc":"VERONA NDB"},
{"type":"NDB","hdg_t":174.1,"dist_nm":99.3,"freq":423,"lat":32.50925000,"lon":-85.43722222,"rng_nm":50,"alt_fmsl":0,"id":"AU","desc":"OPOLE NDB"}
]
}
