{"success":true,"source":"xp2csv.pl","last_updated":"2013/11/08 14:53:21 UTC"
,"icao":"C53","name":"John Deere Dubuque Works","lat":42.57277722,"lon":-90.70929362,"rwys":1,"ils":0,"index":1466657,"path":"w100n40/w091n42"
,"runways":[
{"len_m":1219,"wid_m":15.24,"hdg":150,"surf":"Concrete","rwy1":"15","lat1":42.57757535,"lon1":-90.71290522,"rwy2":"33","lat2":42.56797909,"lon2":-90.70568202}
]
,"navaids":[
{"type":"VOR","hdg_t":179.9,"dist_nm":10.2,"freq":115.8,"lat":42.40147222,"lon":-90.70908333,"rng_nm":130,"alt_fmsl":1051,"id":"DBQ","desc":"DUBUQUE VORTAC"},
{"type":"NDB","hdg_t":161.8,"dist_nm":15.7,"freq":341,"lat":42.32300000,"lon":-90.59886111,"rng_nm":50,"alt_fmsl":0,"id":"DB","desc":"ZILOM NDB"},
{"type":"NDB","hdg_t":48.3,"dist_nm":28.5,"freq":365,"lat":42.88805556,"lon":-90.22650000,"rng_nm":50,"alt_fmsl":0,"id":"MRJ","desc":"MINERAL POINT NDB"},
{"type":"NDB","hdg_t":182.5,"dist_nm":31.3,"freq":386,"lat":42.05138600,"lon":-90.74095300,"rng_nm":25,"alt_fmsl":765,"id":"OQW","desc":"MAQUOKETA NDB"},
{"type":"VOR","hdg_t":30.2,"dist_nm":50.1,"freq":112.8,"lat":43.29436111,"lon":-90.13313889,"rng_nm":40,"alt_fmsl":1184,"id":"LNR","desc":"LONE ROCK VOR-DME"},
{"type":"NDB","hdg_t":163.7,"dist_nm":51.2,"freq":517,"lat":41.75166667,"lon":-90.39050000,"rng_nm":50,"alt_fmsl":0,"id":"FN","desc":"HILLZ NDB"},
{"type":"NDB","hdg_t":177.3,"dist_nm":52.7,"freq":353,"lat":41.69486111,"lon":-90.65588889,"rng_nm":50,"alt_fmsl":0,"id":"DV","desc":"AUNEY NDB"},
{"type":"VOR","hdg_t":168.9,"dist_nm":52.8,"freq":113.8,"lat":41.70855556,"lon":-90.48330556,"rng_nm":40,"alt_fmsl":767,"id":"CVA","desc":"DAVENPORT VORTAC"},
{"type":"NDB","hdg_t":262.9,"dist_nm":55.5,"freq":206,"lat":42.45222222,"lon":-91.95100000,"rng_nm":50,"alt_fmsl":0,"id":"IIB","desc":"WAPSIE NDB"},
{"type":"VOR","hdg_t":319.5,"dist_nm":55.9,"freq":116.6,"lat":43.28008333,"lon":-91.53736111,"rng_nm":40,"alt_fmsl":1288,"id":"UKN","desc":"WAUKON VORTAC"},
{"type":"NDB","hdg_t":277.2,"dist_nm":56.5,"freq":260,"lat":42.68413889,"lon":-91.97627778,"rng_nm":50,"alt_fmsl":0,"id":"OLZ","desc":"OELWEIN NDB"},
{"type":"NDB","hdg_t":313,"dist_nm":62,"freq":236,"lat":43.27523750,"lon":-91.74342080,"rng_nm":25,"alt_fmsl":1139,"id":"DEH","desc":"Decorah NDB"},
{"type":"VOR","hdg_t":229.7,"dist_nm":63.1,"freq":114.1,"lat":41.88755556,"lon":-91.78575000,"rng_nm":130,"alt_fmsl":876,"id":"CID","desc":"CEDAR RAPIDS VOR-DME"},
{"type":"NDB","hdg_t":230.1,"dist_nm":63.8,"freq":326,"lat":41.88566400,"lon":-91.80240600,"rng_nm":50,"alt_fmsl":0,"id":"CI","desc":"CINDY NDB"},
{"type":"VOR","hdg_t":124.1,"dist_nm":64.1,"freq":111.2,"lat":41.96563889,"lon":-89.52422222,"rng_nm":40,"alt_fmsl":840,"id":"PLL","desc":"POLO VOR-DME"},
{"type":"NDB","hdg_t":141.1,"dist_nm":66.1,"freq":254,"lat":41.71111111,"lon":-89.78561111,"rng_nm":50,"alt_fmsl":0,"id":"BOZ","desc":"WHITESIDE NDB"},
{"type":"NDB","hdg_t":63.5,"dist_nm":66.9,"freq":400,"lat":43.06275000,"lon":-89.34588889,"rng_nm":50,"alt_fmsl":0,"id":"MS","desc":"MONAH NDB"},
{"type":"NDB","hdg_t":14.1,"dist_nm":67,"freq":251,"lat":43.65516667,"lon":-90.33308333,"rng_nm":50,"alt_fmsl":0,"id":"HBW","desc":"KICKAPOO NDB"},
{"type":"NDB","hdg_t":213.6,"dist_nm":67.5,"freq":524,"lat":41.63201700,"lon":-91.54286100,"rng_nm":25,"alt_fmsl":648,"id":"UOC","desc":"HAWKEYE NDB"},
{"type":"NDB","hdg_t":176.5,"dist_nm":67.5,"freq":215,"lat":41.44905556,"lon":-90.61847222,"rng_nm":50,"alt_fmsl":0,"id":"ML","desc":"MOLLI NDB"},
{"type":"VOR","hdg_t":59.9,"dist_nm":69.4,"freq":108.6,"lat":43.14483333,"lon":-89.33969444,"rng_nm":40,"alt_fmsl":857,"id":"MSN","desc":"MADISON VORTAC"},
{"type":"NDB","hdg_t":330.8,"dist_nm":69.8,"freq":209,"lat":43.58691400,"lon":-91.49041800,"rng_nm":25,"alt_fmsl":1130,"id":"CHU","desc":"CALEDONIA NDB"},
{"type":"VOR","hdg_t":106.7,"dist_nm":70.2,"freq":110.8,"lat":42.22558333,"lon":-89.19927778,"rng_nm":40,"alt_fmsl":868,"id":"RFD","desc":"ROCKFORD VOR-DME"},
{"type":"VOR","hdg_t":90.1,"dist_nm":71.1,"freq":114.3,"lat":42.55800000,"lon":-89.10525000,"rng_nm":40,"alt_fmsl":931,"id":"JVL","desc":"JANESVILLE VOR-DME"},
{"type":"VOR","hdg_t":35,"dist_nm":71.9,"freq":117,"lat":43.55083333,"lon":-89.76361111,"rng_nm":130,"alt_fmsl":1022,"id":"DLL","desc":"DELLS VORTAC"},
{"type":"NDB","hdg_t":87.4,"dist_nm":73.9,"freq":375,"lat":42.61511111,"lon":-89.04127778,"rng_nm":50,"alt_fmsl":0,"id":"JVL","desc":"JANESVILLE NDB"},
{"type":"VOR","hdg_t":195.3,"dist_nm":74.9,"freq":116.5,"lat":41.36638889,"lon":-91.14905556,"rng_nm":40,"alt_fmsl":540,"id":"DDD","desc":"PORT CITY VOR-DME"},
{"type":"VOR","hdg_t":269.8,"dist_nm":74.9,"freq":112.2,"lat":42.55647222,"lon":-92.39894444,"rng_nm":130,"alt_fmsl":865,"id":"ALO","desc":"WATERLOO VORTAC"},
{"type":"VOR","hdg_t":212.8,"dist_nm":75,"freq":116.2,"lat":41.51897222,"lon":-91.61325000,"rng_nm":130,"alt_fmsl":770,"id":"IOW","desc":"IOWA CITY VORTAC"},
{"type":"VOR","hdg_t":177.5,"dist_nm":75.1,"freq":114.4,"lat":41.32091667,"lon":-90.63822222,"rng_nm":40,"alt_fmsl":817,"id":"MZV","desc":"MOLINE VORTAC"},
{"type":"NDB","hdg_t":110.4,"dist_nm":76.7,"freq":275,"lat":42.11433333,"lon":-89.09872222,"rng_nm":50,"alt_fmsl":0,"id":"RF","desc":"GILMY NDB"},
{"type":"NDB","hdg_t":307.7,"dist_nm":78.6,"freq":293,"lat":43.36602778,"lon":-92.13100000,"rng_nm":50,"alt_fmsl":0,"id":"CJJ","desc":"CRESCO NDB"},
{"type":"NDB","hdg_t":272.7,"dist_nm":79.8,"freq":382,"lat":42.62216667,"lon":-92.50941667,"rng_nm":50,"alt_fmsl":0,"id":"AL","desc":"PRICE NDB"},
{"type":"VOR","hdg_t":343.1,"dist_nm":81.7,"freq":108.4,"lat":43.87611111,"lon":-91.25600000,"rng_nm":25,"alt_fmsl":650,"id":"LSE","desc":"LA CROSSE VOR-DME"},
{"type":"NDB","hdg_t":2,"dist_nm":81.9,"freq":412,"lat":43.93783333,"lon":-90.64186111,"rng_nm":50,"alt_fmsl":0,"id":"CMY","desc":"MC COY NDB"},
{"type":"SDME","hdg_t":13.3,"dist_nm":84.5,"freq":110.4,"lat":43.94288300,"lon":-90.25901900,"rng_nm":40,"alt_fmsl":961,"id":"VOK","desc":"VOLK TACAN"},
{"type":"VOR","hdg_t":337.7,"dist_nm":86.9,"freq":117.9,"lat":43.91233333,"lon":-91.46752778,"rng_nm":130,"alt_fmsl":1282,"id":"ODI","desc":"NODINE VORTAC"},
{"type":"NDB","hdg_t":209.4,"dist_nm":88.7,"freq":219,"lat":41.27977778,"lon":-91.67258333,"rng_nm":50,"alt_fmsl":0,"id":"AWG","desc":"WASHINGTON NDB"},
{"type":"NDB","hdg_t":290.1,"dist_nm":88.9,"freq":375,"lat":43.06847222,"lon":-92.60822222,"rng_nm":50,"alt_fmsl":0,"id":"CCY","desc":"CHARLES CITY NDB"},
{"type":"NDB","hdg_t":344.4,"dist_nm":89.1,"freq":272,"lat":44.00397222,"lon":-91.26066667,"rng_nm":50,"alt_fmsl":0,"id":"LS","desc":"MINDI NDB"},
{"type":"NDB","hdg_t":17.1,"dist_nm":91.8,"freq":233,"lat":44.03405600,"lon":-90.08263900,"rng_nm":25,"alt_fmsl":914,"id":"DAF","desc":"NECEDAH NDB"},
{"type":"NDB","hdg_t":84.6,"dist_nm":94,"freq":404,"lat":42.69883333,"lon":-88.59316667,"rng_nm":50,"alt_fmsl":0,"id":"LVV","desc":"LAKE LAWN NDB"},
{"type":"NDB","hdg_t":66.9,"dist_nm":94.6,"freq":371,"lat":43.17366667,"lon":-88.72527778,"rng_nm":50,"alt_fmsl":0,"id":"RYV","desc":"ROCK RIVER NDB"},
{"type":"NDB","hdg_t":291.3,"dist_nm":95.2,"freq":417,"lat":43.13391667,"lon":-92.72819444,"rng_nm":50,"alt_fmsl":0,"id":"IY","desc":"CHUKK NDB"},
{"type":"NDB","hdg_t":336.2,"dist_nm":96,"freq":264,"lat":44.03479435,"lon":-91.60121996,"rng_nm":15,"alt_fmsl":656,"id":"ON","desc":"BOLLN LOM"},
{"type":"NDB","hdg_t":112.5,"dist_nm":97,"freq":209,"lat":41.93402778,"lon":-88.70733333,"rng_nm":50,"alt_fmsl":0,"id":"DKB","desc":"DEKALB NDB"},
{"type":"VOR","hdg_t":148.9,"dist_nm":98.5,"freq":114.7,"lat":41.15972222,"lon":-89.58786111,"rng_nm":130,"alt_fmsl":810,"id":"BDF","desc":"BRADFORD VORTAC"},
{"type":"VOR","hdg_t":172.7,"dist_nm":98.8,"freq":109.8,"lat":40.93733333,"lon":-90.43447222,"rng_nm":25,"alt_fmsl":760,"id":"GBG","desc":"GALESBURG VOR-DME"}
]
}
