{"success":true,"source":"xp2csv.pl","last_updated":"2013/11/08 14:53:21 UTC"
,"icao":"C72","name":"Cross Winds","lat":47.978420475,"lon":-117.52744801,"rwys":2,"ils":0,"index":1024633,"path":"w120n40/w118n47"
,"runways":[
{"len_m":1142,"wid_m":38.10,"hdg":145,"surf":"Turf/grass","rwy1":"13L","lat1":47.98360887,"lon1":-117.53219401,"rwy2":"31R","lat2":47.97512431,"lon2":-117.52356489},
{"len_m":630,"wid_m":15.24,"hdg":145,"surf":"Turf/grass","rwy1":"13R","lat1":47.97982250,"lon1":-117.52938253,"rwy2":"31L","lat2":47.97512623,"lon2":-117.52465061}
]
,"navaids":[
{"type":"NDB","hdg_t":98.8,"dist_nm":4.1,"freq":365,"lat":47.96775000,"lon":-117.42633333,"rng_nm":50,"alt_fmsl":0,"id":"DPY","desc":"DEER PARK NDB"},
{"type":"NDB","hdg_t":170.1,"dist_nm":18.3,"freq":388,"lat":47.67700000,"lon":-117.45019444,"rng_nm":50,"alt_fmsl":0,"id":"CRK","desc":"CANYON NDB"},
{"type":"SDME","hdg_t":193.9,"dist_nm":22.7,"freq":111.4,"lat":47.61069400,"lon":-117.66230300,"rng_nm":40,"alt_fmsl":2460,"id":"SKA","desc":"FAIRCHILD TACAN"},
{"type":"VOR","hdg_t":189.2,"dist_nm":25.1,"freq":115.5,"lat":47.56494444,"lon":-117.62688889,"rng_nm":130,"alt_fmsl":2756,"id":"GEG","desc":"SPOKANE VORTAC"},
{"type":"NDB","hdg_t":121.5,"dist_nm":26.9,"freq":347,"lat":47.74286111,"lon":-116.96100000,"rng_nm":50,"alt_fmsl":0,"id":"LEN","desc":"POST FALLS NDB"},
{"type":"VOR","hdg_t":113,"dist_nm":31,"freq":108.8,"lat":47.77369444,"lon":-116.82058333,"rng_nm":25,"alt_fmsl":2320,"id":"COE","desc":"COEUR D'ALENE VOR-DME"},
{"type":"NDB","hdg_t":63.8,"dist_nm":43,"freq":264,"lat":48.29063889,"lon":-116.56322222,"rng_nm":50,"alt_fmsl":0,"id":"SZT","desc":"SANDPOE NDB"},
{"type":"NDB","hdg_t":5.8,"dist_nm":44.1,"freq":379,"lat":48.71019444,"lon":-117.41358333,"rng_nm":50,"alt_fmsl":0,"id":"ION","desc":"IONE NDB"},
{"type":"NDB","hdg_t":330.5,"dist_nm":71.9,"freq":250,"lat":49.01750000,"lon":-118.42361111,"rng_nm":50,"alt_fmsl":0,"id":"2J","desc":"GRAND FORKS NDB"},
{"type":"SDME","hdg_t":356,"dist_nm":76.6,"freq":110.1,"lat":49.25222200,"lon":-117.66277800,"rng_nm":25,"alt_fmsl":1695,"id":"XCG","desc":"CASTLEGAR DME"},
{"type":"NDB","hdg_t":356.8,"dist_nm":76.8,"freq":206,"lat":49.25625000,"lon":-117.63486111,"rng_nm":50,"alt_fmsl":0,"id":"EF","desc":"CHAMPION NDB"},
{"type":"VOR","hdg_t":170.8,"dist_nm":79.2,"freq":109,"lat":46.67430556,"lon":-117.22350000,"rng_nm":40,"alt_fmsl":2720,"id":"PUW","desc":"PULLMAN VOR-DME"},
{"type":"NDB","hdg_t":357,"dist_nm":80.9,"freq":269,"lat":49.32527800,"lon":-117.63500000,"rng_nm":25,"alt_fmsl":0,"id":"YK","desc":"BRILLIANT NDB"},
{"type":"VOR","hdg_t":111.6,"dist_nm":82.3,"freq":117.8,"lat":47.45691667,"lon":-115.64605556,"rng_nm":130,"alt_fmsl":6100,"id":"MLP","desc":"MULLAN PASS VOR-DME"},
{"type":"NDB","hdg_t":75.7,"dist_nm":83.9,"freq":414,"lat":48.30444444,"lon":-115.49527778,"rng_nm":50,"alt_fmsl":0,"id":"LYI","desc":"LIBBY NDB"},
{"type":"NDB","hdg_t":290.3,"dist_nm":84.7,"freq":219,"lat":48.45338889,"lon":-119.51700000,"rng_nm":50,"alt_fmsl":0,"id":"OMK","desc":"OMAK NDB"},
{"type":"VOR","hdg_t":245.5,"dist_nm":84.9,"freq":112.6,"lat":47.37791667,"lon":-119.42400000,"rng_nm":130,"alt_fmsl":1250,"id":"EPH","desc":"EPHRATA VORTAC"},
{"type":"VOR","hdg_t":238.2,"dist_nm":86,"freq":115,"lat":47.21086111,"lon":-119.31680556,"rng_nm":130,"alt_fmsl":1194,"id":"MWH","desc":"MOSES LAKE VOR-DME"},
{"type":"NDB","hdg_t":234.5,"dist_nm":87.8,"freq":408,"lat":47.11572222,"lon":-119.27450000,"rng_nm":50,"alt_fmsl":0,"id":"MW","desc":"PELLY NDB"},
{"type":"NDB","hdg_t":358.7,"dist_nm":88.2,"freq":227,"lat":49.44722222,"lon":-117.57500000,"rng_nm":50,"alt_fmsl":0,"id":"CG","desc":"CASTLEGAR NDB"},
{"type":"VOR","hdg_t":164,"dist_nm":99.5,"freq":108.2,"lat":46.38155556,"lon":-116.86950000,"rng_nm":40,"alt_fmsl":1723,"id":"MQG","desc":"NEZ PERCE VOR-DME"}
]
}
