{"success":true,"source":"xp2csv.pl","last_updated":"2013/11/08 14:53:21 UTC"
,"icao":"CA39","name":"Graywood Ranch","lat":38.43463305,"lon":-122.56359362,"rwys":2,"ils":0,"index":942105,"path":"w130n30/w123n38"
,"runways":[
{"len_m":764,"wid_m":21.34,"hdg":105,"surf":"Dirt","rwy1":"09","lat1":38.43557813,"lon1":-122.56780124,"rwy2":"27","lat2":38.43368797,"lon2":-122.55938600},
{"len_m":456,"wid_m":24.38,"hdg":16,"surf":"Dirt","rwy1":"36","lat1":38.43265551,"lon1":-122.56431753,"rwy2":"18","lat2":38.43661059,"lon2":-122.56286971}
]
,"navaids":[
{"type":"VOR","hdg_t":290.8,"dist_nm":12.4,"freq":113,"lat":38.50816667,"lon":-122.81047222,"rng_nm":40,"alt_fmsl":117,"id":"STS","desc":"SANTA ROSA VOR-DME"},
{"type":"VOR","hdg_t":149.4,"dist_nm":17.7,"freq":112.1,"lat":38.17936111,"lon":-122.37313889,"rng_nm":40,"alt_fmsl":6,"id":"SGD","desc":"SCAGGS ISLAND VORTAC"},
{"type":"VOR","hdg_t":214.1,"dist_nm":25.6,"freq":113.7,"lat":38.07975000,"lon":-122.86783333,"rng_nm":130,"alt_fmsl":1340,"id":"PYE","desc":"POINT REYES VORTAC"},
{"type":"SDME","hdg_t":111,"dist_nm":31.3,"freq":116.6,"lat":38.24555800,"lon":-121.94507200,"rng_nm":40,"alt_fmsl":32,"id":"SUU","desc":"TRAVIS TACAN"},
{"type":"VOR","hdg_t":133.4,"dist_nm":33.8,"freq":117,"lat":38.04491667,"lon":-122.04519444,"rng_nm":25,"alt_fmsl":5,"id":"CCR","desc":"CONCORD VOR-DME"},
{"type":"NDB","hdg_t":132.7,"dist_nm":34.1,"freq":335,"lat":38.04641667,"lon":-122.03344444,"rng_nm":50,"alt_fmsl":0,"id":"CC","desc":"KANAN NDB"},
{"type":"VOR","hdg_t":176.8,"dist_nm":34.7,"freq":116.2,"lat":37.85533333,"lon":-122.52275000,"rng_nm":40,"alt_fmsl":1040,"id":"SAU","desc":"SAUSALITO VORTAC"},
{"type":"VOR","hdg_t":98.4,"dist_nm":35.9,"freq":116.4,"lat":38.34419444,"lon":-121.81072222,"rng_nm":40,"alt_fmsl":0,"id":"TZZ","desc":"TRAVIS VOR"},
{"type":"VOR","hdg_t":159.1,"dist_nm":45.4,"freq":116.8,"lat":37.72591667,"lon":-122.22358333,"rng_nm":130,"alt_fmsl":10,"id":"OAK","desc":"OAKLAND VORTAC"},
{"type":"VOR","hdg_t":33.2,"dist_nm":45.7,"freq":114.4,"lat":39.07113889,"lon":-122.02725000,"rng_nm":40,"alt_fmsl":50,"id":"ILA","desc":"WILLIAMS VORTAC"},
{"type":"NDB","hdg_t":76.1,"dist_nm":46.5,"freq":400,"lat":38.61701700,"lon":-121.60329700,"rng_nm":25,"alt_fmsl":15,"id":"HU","desc":"LANEE NDB"},
{"type":"VOR","hdg_t":89,"dist_nm":47.7,"freq":115.2,"lat":38.44366667,"lon":-121.55161111,"rng_nm":130,"alt_fmsl":10,"id":"SAC","desc":"SACRAMENTO VORTAC"},
{"type":"VOR","hdg_t":169.5,"dist_nm":49.6,"freq":115.8,"lat":37.61947222,"lon":-122.37388889,"rng_nm":40,"alt_fmsl":13,"id":"SFO","desc":"SAN FRANCISCO VOR-DME"},
{"type":"VOR","hdg_t":318.2,"dist_nm":49.8,"freq":112.3,"lat":39.05322222,"lon":-123.27419444,"rng_nm":130,"alt_fmsl":2980,"id":"ENI","desc":"MENDOCINO VORTAC"},
{"type":"NDB","hdg_t":64.2,"dist_nm":50.2,"freq":230,"lat":38.79494444,"lon":-121.59936111,"rng_nm":50,"alt_fmsl":0,"id":"SM","desc":"METRE NDB"},
{"type":"VOR","hdg_t":16.7,"dist_nm":55.2,"freq":110,"lat":39.31758333,"lon":-122.22152778,"rng_nm":40,"alt_fmsl":110,"id":"MXW","desc":"MAXWELL VORTAC"},
{"type":"VOR","hdg_t":75.2,"dist_nm":56.3,"freq":109.2,"lat":38.66738889,"lon":-121.40416667,"rng_nm":25,"alt_fmsl":72,"id":"MCC","desc":"MC CLELLAN VOR-DME"},
{"type":"NDB","hdg_t":328,"dist_nm":59.5,"freq":371,"lat":39.27586111,"lon":-123.24041667,"rng_nm":50,"alt_fmsl":0,"id":"UK","desc":"KEARN NDB"},
{"type":"NDB","hdg_t":136.6,"dist_nm":60.9,"freq":374,"lat":37.69222222,"lon":-121.68408333,"rng_nm":50,"alt_fmsl":0,"id":"LV","desc":"REIGA NDB"},
{"type":"VOR","hdg_t":49.1,"dist_nm":61.1,"freq":110.8,"lat":39.09863889,"lon":-121.57305556,"rng_nm":25,"alt_fmsl":62,"id":"MYV","desc":"MARYSVILLE VOR-DME"},
{"type":"NDB","hdg_t":45.1,"dist_nm":62.7,"freq":222,"lat":39.16939100,"lon":-121.60984800,"rng_nm":25,"alt_fmsl":64,"id":"MY","desc":"HALOW NDB"},
{"type":"VOR","hdg_t":167.8,"dist_nm":63.8,"freq":113.9,"lat":37.39250000,"lon":-122.28130556,"rng_nm":40,"alt_fmsl":2270,"id":"OSI","desc":"WOODSIDE VORTAC"},
{"type":"SDME","hdg_t":158,"dist_nm":64.6,"freq":117.6,"lat":37.43240300,"lon":-122.05753900,"rng_nm":25,"alt_fmsl":0,"id":"NUQ","desc":"MOFFETT TACAN"},
{"type":"SDME","hdg_t":51.1,"dist_nm":67.3,"freq":108.6,"lat":39.13475400,"lon":-121.44065500,"rng_nm":25,"alt_fmsl":165,"id":"BAB","desc":"BEALE TACAN"},
{"type":"NDB","hdg_t":129.6,"dist_nm":69.2,"freq":203,"lat":37.69238889,"lon":-121.44463889,"rng_nm":50,"alt_fmsl":0,"id":"TCY","desc":"TRACY NDB"},
{"type":"VOR","hdg_t":154.9,"dist_nm":69.9,"freq":114.1,"lat":37.37472222,"lon":-121.94466667,"rng_nm":40,"alt_fmsl":43,"id":"SJC","desc":"SAN JOSE VOR-DME"},
{"type":"VOR","hdg_t":118.2,"dist_nm":75.1,"freq":116,"lat":37.83361111,"lon":-121.17138889,"rng_nm":130,"alt_fmsl":47,"id":"ECA","desc":"MANTECA VOR-DME"},
{"type":"VOR","hdg_t":105.8,"dist_nm":76.8,"freq":114.8,"lat":38.07458333,"lon":-121.00386111,"rng_nm":130,"alt_fmsl":260,"id":"LIN","desc":"LINDEN VORTAC"},
{"type":"VOR","hdg_t":77.9,"dist_nm":87.1,"freq":115.5,"lat":38.72472222,"lon":-120.74925000,"rng_nm":40,"alt_fmsl":2583,"id":"HNW","desc":"HANGTOWN VOR-DME"},
{"type":"VOR","hdg_t":22.1,"dist_nm":87.8,"freq":109.8,"lat":39.78983333,"lon":-121.84719444,"rng_nm":25,"alt_fmsl":215,"id":"CIC","desc":"CHICO VOR-DME"},
{"type":"VOR","hdg_t":121.9,"dist_nm":90.1,"freq":114.6,"lat":37.62736111,"lon":-120.95786111,"rng_nm":130,"alt_fmsl":93,"id":"MOD","desc":"MODESTO VOR-DME"},
{"type":"NDB","hdg_t":121.9,"dist_nm":96,"freq":367,"lat":37.57311111,"lon":-120.85511111,"rng_nm":50,"alt_fmsl":0,"id":"MO","desc":"WOWAR NDB"},
{"type":"NDB","hdg_t":158.2,"dist_nm":98,"freq":327,"lat":36.91355556,"lon":-121.80797222,"rng_nm":50,"alt_fmsl":0,"id":"PDG","desc":"PAJAR NDB"}
]
}
