{"success":true,"source":"xp2csv.pl","last_updated":"2013/11/08 14:53:21 UTC"
,"icao":"CA51","name":"The Sea Ranch","lat":38.70463416,"lon":-123.43250862,"rwys":1,"ils":0,"index":925738,"path":"w130n30/w124n38"
,"runways":[
{"len_m":793,"wid_m":12.19,"hdg":135,"surf":"Asphalt","rwy1":"12","lat1":38.70719924,"lon1":-123.43568280,"rwy2":"30","lat2":38.70206908,"lon2":-123.42933444}
]
,"navaids":[
{"type":"VOR","hdg_t":19.4,"dist_nm":22.1,"freq":112.3,"lat":39.05322222,"lon":-123.27419444,"rng_nm":130,"alt_fmsl":2980,"id":"ENI","desc":"MENDOCINO VORTAC"},
{"type":"VOR","hdg_t":111.7,"dist_nm":31.5,"freq":113,"lat":38.50816667,"lon":-122.81047222,"rng_nm":40,"alt_fmsl":117,"id":"STS","desc":"SANTA ROSA VOR-DME"},
{"type":"NDB","hdg_t":14.6,"dist_nm":35.4,"freq":371,"lat":39.27586111,"lon":-123.24041667,"rng_nm":50,"alt_fmsl":0,"id":"UK","desc":"KEARN NDB"},
{"type":"VOR","hdg_t":144.4,"dist_nm":45.9,"freq":113.7,"lat":38.07975000,"lon":-122.86783333,"rng_nm":130,"alt_fmsl":1340,"id":"PYE","desc":"POINT REYES VORTAC"},
{"type":"VOR","hdg_t":121.8,"dist_nm":59,"freq":112.1,"lat":38.17936111,"lon":-122.37313889,"rng_nm":40,"alt_fmsl":6,"id":"SGD","desc":"SCAGGS ISLAND VORTAC"},
{"type":"VOR","hdg_t":139.5,"dist_nm":66.6,"freq":116.2,"lat":37.85533333,"lon":-122.52275000,"rng_nm":40,"alt_fmsl":1040,"id":"SAU","desc":"SAUSALITO VORTAC"},
{"type":"VOR","hdg_t":56.6,"dist_nm":67.5,"freq":110,"lat":39.31758333,"lon":-122.22152778,"rng_nm":40,"alt_fmsl":110,"id":"MXW","desc":"MAXWELL VORTAC"},
{"type":"VOR","hdg_t":71.1,"dist_nm":69.4,"freq":114.4,"lat":39.07113889,"lon":-122.02725000,"rng_nm":40,"alt_fmsl":50,"id":"ILA","desc":"WILLIAMS VORTAC"},
{"type":"SDME","hdg_t":110.9,"dist_nm":75.2,"freq":116.6,"lat":38.24555800,"lon":-121.94507200,"rng_nm":40,"alt_fmsl":32,"id":"SUU","desc":"TRAVIS TACAN"},
{"type":"VOR","hdg_t":120.7,"dist_nm":76.4,"freq":117,"lat":38.04491667,"lon":-122.04519444,"rng_nm":25,"alt_fmsl":5,"id":"CCR","desc":"CONCORD VOR-DME"},
{"type":"NDB","hdg_t":120.4,"dist_nm":76.9,"freq":335,"lat":38.04641667,"lon":-122.03344444,"rng_nm":50,"alt_fmsl":0,"id":"CC","desc":"KANAN NDB"},
{"type":"VOR","hdg_t":105.2,"dist_nm":79.3,"freq":116.4,"lat":38.34419444,"lon":-121.81072222,"rng_nm":40,"alt_fmsl":0,"id":"TZZ","desc":"TRAVIS VOR"},
{"type":"VOR","hdg_t":135.3,"dist_nm":81.9,"freq":116.8,"lat":37.72591667,"lon":-122.22358333,"rng_nm":130,"alt_fmsl":10,"id":"OAK","desc":"OAKLAND VORTAC"},
{"type":"VOR","hdg_t":142,"dist_nm":82,"freq":115.8,"lat":37.61947222,"lon":-122.37388889,"rng_nm":40,"alt_fmsl":13,"id":"SFO","desc":"SAN FRANCISCO VOR-DME"},
{"type":"NDB","hdg_t":92.9,"dist_nm":86.1,"freq":400,"lat":38.61701700,"lon":-121.60329700,"rng_nm":25,"alt_fmsl":15,"id":"HU","desc":"LANEE NDB"},
{"type":"NDB","hdg_t":85.8,"dist_nm":86.2,"freq":230,"lat":38.79494444,"lon":-121.59936111,"rng_nm":50,"alt_fmsl":0,"id":"SM","desc":"METRE NDB"},
{"type":"NDB","hdg_t":71.3,"dist_nm":89.7,"freq":222,"lat":39.16939100,"lon":-121.60984800,"rng_nm":25,"alt_fmsl":64,"id":"MY","desc":"HALOW NDB"},
{"type":"VOR","hdg_t":99.4,"dist_nm":89.8,"freq":115.2,"lat":38.44366667,"lon":-121.55161111,"rng_nm":130,"alt_fmsl":10,"id":"SAC","desc":"SACRAMENTO VORTAC"},
{"type":"VOR","hdg_t":74.2,"dist_nm":90.2,"freq":110.8,"lat":39.09863889,"lon":-121.57305556,"rng_nm":25,"alt_fmsl":62,"id":"MYV","desc":"MARYSVILLE VOR-DME"},
{"type":"VOR","hdg_t":90.7,"dist_nm":95.3,"freq":109.2,"lat":38.66738889,"lon":-121.40416667,"rng_nm":25,"alt_fmsl":72,"id":"MCC","desc":"MC CLELLAN VOR-DME"},
{"type":"VOR","hdg_t":144.8,"dist_nm":95.7,"freq":113.9,"lat":37.39250000,"lon":-122.28130556,"rng_nm":40,"alt_fmsl":2270,"id":"OSI","desc":"WOODSIDE VORTAC"},
{"type":"SDME","hdg_t":73.9,"dist_nm":96.7,"freq":108.6,"lat":39.13475400,"lon":-121.44065500,"rng_nm":25,"alt_fmsl":165,"id":"BAB","desc":"BEALE TACAN"},
{"type":"VOR","hdg_t":48.1,"dist_nm":98.4,"freq":109.8,"lat":39.78983333,"lon":-121.84719444,"rng_nm":25,"alt_fmsl":215,"id":"CIC","desc":"CHICO VOR-DME"}
]
}
