{"success":true,"source":"xp2csv.pl","last_updated":"2013/11/08 14:53:21 UTC"
,"icao":"CDA4","name":"Pokemouche","lat":47.716393,"lon":-64.882421,"rwys":1,"ils":0,"index":1892968,"path":"w070n40/w065n47"
,"runways":[
{"len_m":909,"wid_m":22.86,"hdg":105,"surf":"Asphalt","rwy1":"13","lat1":47.71745800,"lon1":-64.88827500,"rwy2":"31","lat2":47.71532800,"lon2":-64.87656700}
]
,"radios":[
{"type":"CTAF","freq":123,"desc":"CTAF/UNICOM"}
]
,"navaids":[
{"type":"NDB","hdg_t":238.8,"dist_nm":0.1,"freq":329,"lat":47.71500000,"lon":-64.88583333,"rng_nm":50,"alt_fmsl":0,"id":"2T","desc":"POKEMOUCHE NDB"},
{"type":"NDB","hdg_t":261.9,"dist_nm":35.3,"freq":363,"lat":47.63058333,"lon":-65.74458333,"rng_nm":50,"alt_fmsl":0,"id":"1F","desc":"BATHURST NDB"},
{"type":"SDME","hdg_t":262,"dist_nm":35.3,"freq":114.4,"lat":47.63138900,"lon":-65.74444400,"rng_nm":25,"alt_fmsl":191,"id":"2F","desc":"BATHURST DME"},
{"type":"NDB","hdg_t":310.4,"dist_nm":36,"freq":243,"lat":48.10358333,"lon":-65.56472222,"rng_nm":50,"alt_fmsl":0,"id":"YVB","desc":"BONAVENTURE NDB"},
{"type":"NDB","hdg_t":17.6,"dist_nm":41.9,"freq":219,"lat":48.38166667,"lon":-64.56500000,"rng_nm":50,"alt_fmsl":0,"id":"W7","desc":"PABOK(DU ROCHER-P NDB"},
{"type":"NDB","hdg_t":209.5,"dist_nm":48.6,"freq":520,"lat":47.01000000,"lon":-65.46750000,"rng_nm":50,"alt_fmsl":0,"id":"F9","desc":"MIRAMICHI NDB"},
{"type":"SDME","hdg_t":209.5,"dist_nm":48.6,"freq":110.9,"lat":47.00944400,"lon":-65.46694400,"rng_nm":130,"alt_fmsl":110,"id":"F9","desc":"MIRAMICHI DME"},
{"type":"NDB","hdg_t":286.1,"dist_nm":65.2,"freq":207,"lat":48.00888889,"lon":-66.43694444,"rng_nm":50,"alt_fmsl":0,"id":"CL","desc":"CHARLO NDB"},
{"type":"VOR","hdg_t":16.7,"dist_nm":65.7,"freq":115.4,"lat":48.76316667,"lon":-64.40480556,"rng_nm":130,"alt_fmsl":108,"id":"YGP","desc":"GASPE VOR-DME"},
{"type":"NDB","hdg_t":17.3,"dist_nm":66.2,"freq":232,"lat":48.76808333,"lon":-64.38530556,"rng_nm":50,"alt_fmsl":0,"id":"GP","desc":"GASPE NDB"},
{"type":"NDB","hdg_t":152.2,"dist_nm":89.2,"freq":254,"lat":46.39694444,"lon":-63.88166667,"rng_nm":50,"alt_fmsl":0,"id":"5B","desc":"SUMMERSIDE NDB"},
{"type":"VOR","hdg_t":171.9,"dist_nm":92.5,"freq":117.3,"lat":46.18894444,"lon":-64.57075000,"rng_nm":130,"alt_fmsl":172,"id":"YQM","desc":"MONCTON VOR-DME"},
{"type":"NDB","hdg_t":177.7,"dist_nm":96.8,"freq":366,"lat":46.10416667,"lon":-64.79194444,"rng_nm":50,"alt_fmsl":0,"id":"ZMN","desc":"LEWISVILLE(MONCTO NDB"},
{"type":"NDB","hdg_t":172.5,"dist_nm":97.1,"freq":224,"lat":46.11055556,"lon":-64.58194444,"rng_nm":50,"alt_fmsl":0,"id":"QM","desc":"MONCTON NDB"}
]
}
