{"success":true,"source":"xp2csv.pl","last_updated":"2013/11/08 14:53:21 UTC"
,"icao":"CEH3","name":"Ponoka Industrial","lat":52.6515275,"lon":-113.6056905,"rwys":1,"ils":0,"index":1090473,"path":"w120n50/w114n52"
,"runways":[
{"len_m":958,"wid_m":22.86,"hdg":178,"surf":"Asphalt","rwy1":"16","lat1":52.65583300,"lon1":-113.60583100,"rwy2":"34","lat2":52.64722200,"lon2":-113.60555000}
]
,"radios":[
{"type":"CTAF","freq":123.3,"desc":"CTAF/UNICOM"}
]
,"navaids":[
{"type":"NDB","hdg_t":359.2,"dist_nm":1.9,"freq":363,"lat":52.68333300,"lon":-113.60638900,"rng_nm":25,"alt_fmsl":0,"id":"D3","desc":"PONOKA INDUS NDB"},
{"type":"NDB","hdg_t":20.3,"dist_nm":20.2,"freq":334,"lat":52.96694400,"lon":-113.41194400,"rng_nm":50,"alt_fmsl":2540,"id":"P2","desc":"WETASKIWIN NDB-DME"},
{"type":"SDME","hdg_t":20.3,"dist_nm":20.2,"freq":112.7,"lat":52.96694400,"lon":-113.41194400,"rng_nm":50,"alt_fmsl":2540,"id":"P2","desc":"WETASKIWIN NDB-DME"},
{"type":"SDME","hdg_t":199.9,"dist_nm":30,"freq":111.6,"lat":52.18116700,"lon":-113.88261100,"rng_nm":25,"alt_fmsl":2985,"id":"6G","desc":"RED DEER DME"},
{"type":"NDB","hdg_t":199,"dist_nm":33.2,"freq":320,"lat":52.12833333,"lon":-113.89944444,"rng_nm":50,"alt_fmsl":0,"id":"YQF","desc":"RED DEER NDB"},
{"type":"VOR","hdg_t":343.6,"dist_nm":33.4,"freq":117.6,"lat":53.18555556,"lon":-113.86686111,"rng_nm":130,"alt_fmsl":2557,"id":"YEG","desc":"EDMONTON VOR-DME"},
{"type":"NDB","hdg_t":6.7,"dist_nm":35.7,"freq":215,"lat":53.24305600,"lon":-113.48944400,"rng_nm":25,"alt_fmsl":0,"id":"ZAB","desc":"LEDUC NDB"},
{"type":"NDB","hdg_t":356.9,"dist_nm":36.3,"freq":308,"lat":53.25500000,"lon":-113.66000000,"rng_nm":25,"alt_fmsl":0,"id":"ZZD","desc":"CALMAR NDB"},
{"type":"SDME","hdg_t":51.1,"dist_nm":36.7,"freq":108.2,"lat":53.03277800,"lon":-112.81444400,"rng_nm":25,"alt_fmsl":2449,"id":"2K","desc":"CAMROSE DME"},
{"type":"NDB","hdg_t":51.2,"dist_nm":36.8,"freq":405,"lat":53.03222200,"lon":-112.81333300,"rng_nm":50,"alt_fmsl":2426,"id":"2K","desc":"CAMROSE NDB"},
{"type":"NDB","hdg_t":123,"dist_nm":37.4,"freq":286,"lat":52.30833300,"lon":-112.75444400,"rng_nm":25,"alt_fmsl":2700,"id":"8G","desc":"STETTLER NDB-DME"},
{"type":"SDME","hdg_t":123,"dist_nm":37.4,"freq":108.4,"lat":52.30861100,"lon":-112.75361100,"rng_nm":25,"alt_fmsl":2700,"id":"8G","desc":"STETTLER NDB-DME"},
{"type":"NDB","hdg_t":356.7,"dist_nm":42.2,"freq":292,"lat":53.35333300,"lon":-113.67250000,"rng_nm":25,"alt_fmsl":0,"id":"ZET","desc":"DEVON NDB"},
{"type":"NDB","hdg_t":5,"dist_nm":44.8,"freq":379,"lat":53.39527800,"lon":-113.49500000,"rng_nm":25,"alt_fmsl":0,"id":"ZEG","desc":"NISKU NDB"},
{"type":"NDB","hdg_t":3.7,"dist_nm":51,"freq":201,"lat":53.49944400,"lon":-113.51277800,"rng_nm":25,"alt_fmsl":0,"id":"ZXD","desc":"BLATCHFORD NDB"},
{"type":"SDME","hdg_t":3.5,"dist_nm":55.2,"freq":109.5,"lat":53.56888900,"lon":-113.51111100,"rng_nm":25,"alt_fmsl":2200,"id":"IXD","desc":"EDMONTON MUNI DME"},
{"type":"NDB","hdg_t":94,"dist_nm":55.7,"freq":261,"lat":52.57638900,"lon":-112.08611100,"rng_nm":25,"alt_fmsl":2352,"id":"7J","desc":"FORESTBURG NDB"},
{"type":"NDB","hdg_t":165.7,"dist_nm":59.1,"freq":305,"lat":51.69722200,"lon":-113.21666700,"rng_nm":25,"alt_fmsl":2975,"id":"Z1","desc":"THREE HILLS NDB"},
{"type":"NDB","hdg_t":198.3,"dist_nm":59.5,"freq":376,"lat":51.71027800,"lon":-114.10861100,"rng_nm":25,"alt_fmsl":3360,"id":"K2","desc":"OLDS-DIDSBURY NDB"},
{"type":"NDB","hdg_t":3.1,"dist_nm":59.7,"freq":266,"lat":53.64361111,"lon":-113.51305556,"rng_nm":50,"alt_fmsl":0,"id":"XD","desc":"EDMONTON NDB"},
{"type":"NDB","hdg_t":307.5,"dist_nm":61.3,"freq":385,"lat":53.26638900,"lon":-114.95500000,"rng_nm":25,"alt_fmsl":2785,"id":"3M","desc":"DRAYTON VALLEY INDUSTRIAL NDB-DME"},
{"type":"SDME","hdg_t":307.6,"dist_nm":61.4,"freq":110.6,"lat":53.26805600,"lon":-114.95722200,"rng_nm":25,"alt_fmsl":2785,"id":"3M","desc":"DRAYTON VALLEY INDUSTRIAL NDB-DME"},
{"type":"VOR","hdg_t":262.5,"dist_nm":63.5,"freq":114.3,"lat":52.50219444,"lon":-115.32355556,"rng_nm":130,"alt_fmsl":3526,"id":"YRM","desc":"ROCKY MOUNTAIN VOR-DME"},
{"type":"NDB","hdg_t":217.6,"dist_nm":65.7,"freq":405,"lat":51.78000000,"lon":-114.68333300,"rng_nm":50,"alt_fmsl":3656,"id":"9G","desc":"SUNDRE NDB"},
{"type":"NDB","hdg_t":155,"dist_nm":75.9,"freq":395,"lat":51.50250000,"lon":-112.75083300,"rng_nm":50,"alt_fmsl":2625,"id":"5V","desc":"DRUMHELLER NDB-DME"},
{"type":"SDME","hdg_t":155,"dist_nm":75.9,"freq":110,"lat":51.50166700,"lon":-112.75083300,"rng_nm":50,"alt_fmsl":2625,"id":"5V","desc":"DRUMHELLER NDB-DME"},
{"type":"NDB","hdg_t":112.7,"dist_nm":86.5,"freq":328,"lat":52.07444400,"lon":-111.44833300,"rng_nm":75,"alt_fmsl":2595,"id":"5J","desc":"CORONATION NDB"},
{"type":"NDB","hdg_t":133.6,"dist_nm":88,"freq":221,"lat":51.62777800,"lon":-111.90083300,"rng_nm":25,"alt_fmsl":2738,"id":"9A","desc":"HANNA NDB"},
{"type":"NDB","hdg_t":190.1,"dist_nm":88.7,"freq":254,"lat":51.19638900,"lon":-114.02138900,"rng_nm":25,"alt_fmsl":0,"id":"ZYC","desc":"SARCEE NDB"},
{"type":"NDB","hdg_t":356.7,"dist_nm":89.7,"freq":236,"lat":54.14305600,"lon":-113.74805600,"rng_nm":25,"alt_fmsl":2230,"id":"9Z","desc":"WESTLOCK NDB-DME"},
{"type":"SDME","hdg_t":356.7,"dist_nm":89.7,"freq":108.8,"lat":54.14305600,"lon":-113.74916700,"rng_nm":25,"alt_fmsl":2230,"id":"9Z","desc":"WESTLOCK NDB-DME"},
{"type":"VOR","hdg_t":186.4,"dist_nm":92.8,"freq":116.7,"lat":51.11505556,"lon":-113.88208333,"rng_nm":130,"alt_fmsl":3566,"id":"YYC","desc":"CALGARY VOR-DME"},
{"type":"SDME","hdg_t":189.6,"dist_nm":94.5,"freq":111.5,"lat":51.09924200,"lon":-114.02309400,"rng_nm":25,"alt_fmsl":3551,"id":"IYC","desc":"CALGARY DME"},
{"type":"NDB","hdg_t":186.9,"dist_nm":95,"freq":344,"lat":51.08083333,"lon":-113.90888889,"rng_nm":50,"alt_fmsl":0,"id":"YC","desc":"CALGARY NDB"},
{"type":"VOR","hdg_t":197.3,"dist_nm":97,"freq":108.6,"lat":51.10666700,"lon":-114.37305600,"rng_nm":40,"alt_fmsl":3971,"id":"YBW","desc":"CALGARY SPRINGBANK VOR-DME"},
{"type":"NDB","hdg_t":189.1,"dist_nm":98.4,"freq":233,"lat":51.03305600,"lon":-114.02111100,"rng_nm":25,"alt_fmsl":0,"id":"ZCA","desc":"BLACKFOOT NDB"}
]
}
