{"success":true,"source":"xp2csv.pl","last_updated":"2013/11/08 14:53:21 UTC"
,"icao":"CFT9","name":"Zama Lake","lat":59.0615305,"lon":-118.887915,"rwys":1,"ils":0,"index":1008960,"path":"w120n50/w119n59"
,"runways":[
{"len_m":1285,"wid_m":15.24,"hdg":142,"surf":"Asphalt","rwy1":"12","lat1":59.06611400,"lon1":-118.89471900,"rwy2":"30","lat2":59.05694700,"lon2":-118.88111100}
]
,"radios":[
{"type":"CTAF","freq":122.8,"desc":"CTAF/UNICOM"}
]
,"navaids":[
{"type":"NDB","hdg_t":148.7,"dist_nm":2.6,"freq":227,"lat":59.02333300,"lon":-118.84305600,"rng_nm":50,"alt_fmsl":0,"id":"1K","desc":"ZAMA LAKE NDB"},
{"type":"SDME","hdg_t":205.9,"dist_nm":37.8,"freq":111.7,"lat":58.49500000,"lon":-119.41277800,"rng_nm":25,"alt_fmsl":1790,"id":"Z2","desc":"RAINBOW LAKE DME"},
{"type":"NDB","hdg_t":197.5,"dist_nm":38.1,"freq":344,"lat":58.45666667,"lon":-119.25166667,"rng_nm":50,"alt_fmsl":0,"id":"YOP","desc":"RAINBOW LAKE NDB"},
{"type":"NDB","hdg_t":291,"dist_nm":62.4,"freq":364,"lat":59.42138889,"lon":-120.78944444,"rng_nm":50,"alt_fmsl":0,"id":"4D","desc":"HELMUT NDB"},
{"type":"NDB","hdg_t":118.2,"dist_nm":63,"freq":239,"lat":58.55344444,"lon":-117.12100000,"rng_nm":50,"alt_fmsl":0,"id":"OJ","desc":"HIGH LEVEL NDB"},
{"type":"VOR","hdg_t":117.8,"dist_nm":63.7,"freq":113.3,"lat":58.55425000,"lon":-117.09302778,"rng_nm":130,"alt_fmsl":1096,"id":"YOJ","desc":"HIGH LEVEL VOR-DME"},
{"type":"NDB","hdg_t":259.3,"dist_nm":78,"freq":397,"lat":58.79833300,"lon":-121.34500000,"rng_nm":50,"alt_fmsl":0,"id":"3I","desc":"MOBIL SIERRA NDB"},
{"type":"NDB","hdg_t":184.5,"dist_nm":91.4,"freq":317,"lat":57.54500000,"lon":-119.11138900,"rng_nm":25,"alt_fmsl":2280,"id":"A5","desc":"CHINCHAGA NDB"},
{"type":"NDB","hdg_t":112,"dist_nm":100,"freq":261,"lat":58.40250000,"lon":-115.95111100,"rng_nm":25,"alt_fmsl":836,"id":"5U","desc":"FORT VERMILION NDB-DME"},
{"type":"SDME","hdg_t":112,"dist_nm":100.1,"freq":108.8,"lat":58.40333300,"lon":-115.94583300,"rng_nm":25,"alt_fmsl":836,"id":"5U","desc":"FORT VERMILION NDB-DME"}
]
}
