{"success":true,"source":"xp2csv.pl","last_updated":"2013/11/08 14:53:21 UTC"
,"icao":"CJE3","name":"Weyburn","lat":49.6984984,"lon":-103.80094524,"rwys":2,"ils":0,"index":1254120,"path":"w110n40/w104n49"
,"runways":[
{"len_m":1218,"wid_m":22.86,"hdg":132,"surf":"Asphalt","rwy1":"12","lat1":49.70080177,"lon1":-103.80767550,"rwy2":"30","lat2":49.69341231,"lon2":-103.79520823},
{"len_m":978,"wid_m":22.86,"hdg":72,"surf":"Asphalt","rwy1":"06","lat1":49.69856990,"lon1":-103.80692065,"rwy2":"24","lat2":49.70120962,"lon2":-103.79397658}
]
,"radios":[
{"type":"CTAF","freq":122.8,"desc":"CTAF/UNICOM"}
]
,"navaids":[
{"type":"NDB","hdg_t":219.1,"dist_nm":0.1,"freq":298,"lat":49.69640000,"lon":-103.80357500,"rng_nm":50,"alt_fmsl":1963,"id":"3N","desc":"WEYBURN NDB"},
{"type":"NDB","hdg_t":128.1,"dist_nm":47.1,"freq":395,"lat":49.20972222,"lon":-102.86000000,"rng_nm":50,"alt_fmsl":0,"id":"L7","desc":"ESTEVAN NDB"},
{"type":"NDB","hdg_t":323.7,"dist_nm":50.1,"freq":290,"lat":50.36972222,"lon":-104.57305556,"rng_nm":50,"alt_fmsl":0,"id":"QR","desc":"REGINA NDB"},
{"type":"NDB","hdg_t":327.6,"dist_nm":52,"freq":204,"lat":50.42891400,"lon":-104.52722200,"rng_nm":25,"alt_fmsl":0,"id":"ZQR","desc":"FINDLAY NDB"},
{"type":"NDB","hdg_t":319.2,"dist_nm":58.2,"freq":414,"lat":50.42891700,"lon":-104.79084400,"rng_nm":25,"alt_fmsl":0,"id":"ZRG","desc":"BROPHY NDB"},
{"type":"NDB","hdg_t":92.4,"dist_nm":59.3,"freq":310,"lat":49.64556700,"lon":-102.28103600,"rng_nm":50,"alt_fmsl":2074,"id":"8A","desc":"CARLYLE NDB"},
{"type":"NDB","hdg_t":322.9,"dist_nm":59.4,"freq":219,"lat":50.48530600,"lon":-104.73611900,"rng_nm":25,"alt_fmsl":0,"id":"ZRS","desc":"AJAX NDB"},
{"type":"NDB","hdg_t":207.9,"dist_nm":61.5,"freq":251,"lat":48.79002778,"lon":-104.52716667,"rng_nm":50,"alt_fmsl":0,"id":"PWD","desc":"PLENTYWOOD NDB"},
{"type":"VOR","hdg_t":50.2,"dist_nm":63,"freq":117.5,"lat":50.36294444,"lon":-102.54030556,"rng_nm":130,"alt_fmsl":2002,"id":"YDR","desc":"BROADVIEW VOR-DME"},
{"type":"VOR","hdg_t":324.5,"dist_nm":71.7,"freq":114.2,"lat":50.66700000,"lon":-104.89030556,"rng_nm":130,"alt_fmsl":1895,"id":"VLN","desc":"LUMSDEN VORTAC"},
{"type":"NDB","hdg_t":299.9,"dist_nm":72.8,"freq":375,"lat":50.29166667,"lon":-105.44222222,"rng_nm":50,"alt_fmsl":0,"id":"BD","desc":"BAILDON NDB"},
{"type":"NDB","hdg_t":306.3,"dist_nm":75.5,"freq":272,"lat":50.43333300,"lon":-105.38666700,"rng_nm":25,"alt_fmsl":1896,"id":"V1","desc":"MOOSE JAW MUNI NDB"},
{"type":"VOR","hdg_t":299.7,"dist_nm":78,"freq":113.4,"lat":50.33113889,"lon":-105.56336111,"rng_nm":130,"alt_fmsl":1898,"id":"YMJ","desc":"MOOSE JAW VORTAC"},
{"type":"NDB","hdg_t":230.8,"dist_nm":83.5,"freq":283,"lat":48.80863889,"lon":-105.43611111,"rng_nm":50,"alt_fmsl":0,"id":"SCO","desc":"SCOBEY NDB"},
{"type":"NDB","hdg_t":272,"dist_nm":83.6,"freq":278,"lat":49.72833300,"lon":-105.94916700,"rng_nm":25,"alt_fmsl":2370,"id":"NI","desc":"ASSINIBOIA NDB"},
{"type":"VOR","hdg_t":178.6,"dist_nm":86.7,"freq":116.3,"lat":48.25341667,"lon":-103.75066667,"rng_nm":40,"alt_fmsl":2372,"id":"ISN","desc":"WILLISTON VORTAC"},
{"type":"NDB","hdg_t":174.6,"dist_nm":93.6,"freq":275,"lat":48.14586111,"lon":-103.58380556,"rng_nm":50,"alt_fmsl":0,"id":"ISN","desc":"WILLISTON NDB"},
{"type":"NDB","hdg_t":173,"dist_nm":95.5,"freq":275,"lat":48.11819444,"lon":-103.51155556,"rng_nm":50,"alt_fmsl":0,"id":"SF","desc":"YUSON NDB"},
{"type":"NDB","hdg_t":61.2,"dist_nm":98.3,"freq":304,"lat":50.46500800,"lon":-101.55183100,"rng_nm":50,"alt_fmsl":1585,"id":"D4","desc":"ROCANVILLE NDB"}
]
}
