{"success":true,"source":"xp2csv.pl","last_updated":"2013/11/08 14:53:21 UTC"
,"icao":"CJG2","name":"Eatonia (elvie Smith) Muni","lat":51.2194,"lon":-109.39250208,"rwys":1,"ils":0,"index":1155914,"path":"w110n50/w110n51"
,"runways":[
{"len_m":764,"wid_m":17.98,"hdg":100,"surf":"Turf/grass","rwy1":"08","lat1":51.22005423,"lon1":-109.39787565,"rwy2":"26","lat2":51.21874577,"lon2":-109.38712850}
]
,"navaids":[
{"type":"NDB","hdg_t":24.2,"dist_nm":19.6,"freq":402,"lat":51.51706700,"lon":-109.17781900,"rng_nm":50,"alt_fmsl":2277,"id":"M3","desc":"KINDERSLEY NDB"},
{"type":"VOR","hdg_t":232.3,"dist_nm":28.6,"freq":115.9,"lat":50.92644444,"lon":-109.98913889,"rng_nm":130,"alt_fmsl":2436,"id":"YEA","desc":"EMPRESS VOR-DME"},
{"type":"NDB","hdg_t":314.1,"dist_nm":69.9,"freq":276,"lat":52.02277800,"lon":-110.74555600,"rng_nm":50,"alt_fmsl":2499,"id":"3H","desc":"CONSORT NDB"},
{"type":"NDB","hdg_t":334.2,"dist_nm":74.5,"freq":208,"lat":52.33277800,"lon":-110.27305600,"rng_nm":25,"alt_fmsl":2216,"id":"8J","desc":"PROVOST NDB"},
{"type":"SDME","hdg_t":334.2,"dist_nm":74.5,"freq":109,"lat":52.33361100,"lon":-110.27333300,"rng_nm":25,"alt_fmsl":2216,"id":"8J","desc":"PROVOST DME"},
{"type":"NDB","hdg_t":106.4,"dist_nm":76.6,"freq":212,"lat":50.84213889,"lon":-107.46016667,"rng_nm":50,"alt_fmsl":0,"id":"BY","desc":"BEECHY NDB"},
{"type":"NDB","hdg_t":182.5,"dist_nm":79.5,"freq":238,"lat":49.89694400,"lon":-109.48361100,"rng_nm":25,"alt_fmsl":2517,"id":"K5","desc":"MAPLE CREEK NDB"},
{"type":"VOR","hdg_t":129.8,"dist_nm":85.2,"freq":117.4,"lat":50.29705556,"lon":-107.69088889,"rng_nm":130,"alt_fmsl":2668,"id":"YYN","desc":"SWIFT CURRENT VOR-DME"},
{"type":"NDB","hdg_t":217.1,"dist_nm":90.2,"freq":332,"lat":50.01305556,"lon":-110.79916667,"rng_nm":50,"alt_fmsl":0,"id":"XH","desc":"MEDICINE HAT NDB"},
{"type":"NDB","hdg_t":304.5,"dist_nm":92.4,"freq":328,"lat":52.07444400,"lon":-111.44833300,"rng_nm":75,"alt_fmsl":2595,"id":"5J","desc":"CORONATION NDB"},
{"type":"VOR","hdg_t":216.3,"dist_nm":92.9,"freq":116.5,"lat":49.96475000,"lon":-110.81444444,"rng_nm":130,"alt_fmsl":2474,"id":"YXH","desc":"MEDICINE HAT VOR-DME"},
{"type":"NDB","hdg_t":285.5,"dist_nm":97.3,"freq":221,"lat":51.62777800,"lon":-111.90083300,"rng_nm":25,"alt_fmsl":2738,"id":"9A","desc":"HANNA NDB"}
]
}
