{"success":true,"source":"xp2csv.pl","last_updated":"2013/11/08 14:53:21 UTC"
,"icao":"CJK3","name":"Beauval","lat":55.110336,"lon":-107.716339,"rwys":1,"ils":0,"index":1188929,"path":"w110n50/w108n55"
,"runways":[
{"len_m":979,"wid_m":22.86,"hdg":110,"surf":"Gravel","rwy1":"10","lat1":55.11190879,"lon1":-107.72350208,"rwy2":"28","lat2":55.10876321,"lon2":-107.70917592}
]
,"navaids":[
{"type":"NDB","hdg_t":341.9,"dist_nm":23.6,"freq":384,"lat":55.48388900,"lon":-107.93083300,"rng_nm":50,"alt_fmsl":1394,"id":"3F","desc":"ILE-A-LA-CROSSE NDB"},
{"type":"NDB","hdg_t":329.6,"dist_nm":51.6,"freq":332,"lat":55.84886111,"lon":-108.48888889,"rng_nm":50,"alt_fmsl":0,"id":"VT","desc":"BUFFALO NARROWS NDB"},
{"type":"NDB","hdg_t":209.5,"dist_nm":66.8,"freq":406,"lat":54.13833300,"lon":-108.65000000,"rng_nm":25,"alt_fmsl":0,"id":"YLJ","desc":"MEADOW LAKE NDB"},
{"type":"NDB","hdg_t":90,"dist_nm":82.6,"freq":317,"lat":55.08611111,"lon":-105.31833333,"rng_nm":50,"alt_fmsl":0,"id":"VC","desc":"LA RONGE NDB"},
{"type":"VOR","hdg_t":87,"dist_nm":84.4,"freq":112.3,"lat":55.15833333,"lon":-105.26666667,"rng_nm":130,"alt_fmsl":1344,"id":"YVC","desc":"LA RONGE VOR-DME"},
{"type":"NDB","hdg_t":245.2,"dist_nm":98.6,"freq":398,"lat":54.39694400,"lon":-110.27166700,"rng_nm":25,"alt_fmsl":1775,"id":"YOD","desc":"COLD LAKE NDB"},
{"type":"SDME","hdg_t":245.8,"dist_nm":99,"freq":113.5,"lat":54.40861100,"lon":-110.29583300,"rng_nm":130,"alt_fmsl":1806,"id":"UOD","desc":"COLD LAKE TACAN"},
{"type":"NDB","hdg_t":325.9,"dist_nm":100,"freq":410,"lat":56.47833300,"lon":-109.40083300,"rng_nm":50,"alt_fmsl":1500,"id":"6Z","desc":"LA LOCHE NDB"},
{"type":"NDB","hdg_t":279.5,"dist_nm":101.1,"freq":283,"lat":55.35555600,"lon":-110.62972200,"rng_nm":50,"alt_fmsl":2245,"id":"W2","desc":"KIRBY NDB"},
{"type":"SDME","hdg_t":246.6,"dist_nm":115.9,"freq":109.8,"lat":54.30638900,"lon":-110.74388900,"rng_nm":25,"alt_fmsl":1864,"id":"Y3","desc":"BONNYVILLE DME"}
]
}
