{"success":true,"source":"xp2csv.pl","last_updated":"2013/11/08 14:53:21 UTC"
,"icao":"CJK9","name":"Preeceville","lat":51.95137139,"lon":-102.62812224,"rwys":1,"ils":0,"index":1270649,"path":"w110n50/w103n51"
,"runways":[
{"len_m":755,"wid_m":46.02,"hdg":79,"surf":"Turf/grass","rwy1":"07","lat1":51.95078076,"lon1":-102.63353540,"rwy2":"25","lat2":51.95196201,"lon2":-102.62270908}
]
,"navaids":[
{"type":"VOR","hdg_t":171.7,"dist_nm":41.7,"freq":115.8,"lat":51.26405556,"lon":-102.46872222,"rng_nm":130,"alt_fmsl":1665,"id":"YQV","desc":"YORKTON VOR-DME"},
{"type":"NDB","hdg_t":175.7,"dist_nm":44.2,"freq":385,"lat":51.21666667,"lon":-102.54166667,"rng_nm":50,"alt_fmsl":0,"id":"QV","desc":"YORKTON NDB"},
{"type":"NDB","hdg_t":78.6,"dist_nm":52.5,"freq":350,"lat":52.11527800,"lon":-101.23500000,"rng_nm":25,"alt_fmsl":1100,"id":"N4","desc":"SWAN RIVER NDB"},
{"type":"NDB","hdg_t":16.5,"dist_nm":56.2,"freq":337,"lat":52.84777800,"lon":-102.18666700,"rng_nm":25,"alt_fmsl":0,"id":"7D","desc":"HUDSON BAY NDB"},
{"type":"NDB","hdg_t":267,"dist_nm":72.2,"freq":368,"lat":51.87305556,"lon":-104.56972222,"rng_nm":50,"alt_fmsl":0,"id":"VX","desc":"DAFOE NDB"},
{"type":"NDB","hdg_t":314.9,"dist_nm":72.6,"freq":295,"lat":52.79805600,"lon":-104.03944400,"rng_nm":50,"alt_fmsl":0,"id":"E2","desc":"TISDALE NDB"},
{"type":"NDB","hdg_t":144.3,"dist_nm":87.1,"freq":263,"lat":50.76416700,"lon":-101.29638900,"rng_nm":25,"alt_fmsl":1825,"id":"3Z","desc":"RUSSELL NDB"},
{"type":"NDB","hdg_t":279.2,"dist_nm":93.3,"freq":277,"lat":52.17416700,"lon":-105.12416700,"rng_nm":50,"alt_fmsl":1865,"id":"V2","desc":"HUMBOLDT NDB"},
{"type":"VOR","hdg_t":177.9,"dist_nm":95.4,"freq":117.5,"lat":50.36294444,"lon":-102.54030556,"rng_nm":130,"alt_fmsl":2002,"id":"YDR","desc":"BROADVIEW VOR-DME"},
{"type":"NDB","hdg_t":305.4,"dist_nm":97.2,"freq":391,"lat":52.87138900,"lon":-104.80638900,"rng_nm":25,"alt_fmsl":0,"id":"D5","desc":"MELFORT NDB"},
{"type":"NDB","hdg_t":329.2,"dist_nm":97.2,"freq":402,"lat":53.33472200,"lon":-104.00888900,"rng_nm":50,"alt_fmsl":1220,"id":"L4","desc":"NIPAWIN NDB"},
{"type":"NDB","hdg_t":155.1,"dist_nm":98,"freq":304,"lat":50.46500800,"lon":-101.55183100,"rng_nm":50,"alt_fmsl":1585,"id":"D4","desc":"ROCANVILLE NDB"}
]
}
