{"success":true,"source":"xp2csv.pl","last_updated":"2013/11/08 14:53:21 UTC"
,"icao":"CJN4","name":"Assiniboia","lat":49.73319616,"lon":-105.94498729,"rwys":2,"ils":0,"index":1221352,"path":"w110n40/w106n49"
,"runways":[
{"len_m":902,"wid_m":46.02,"hdg":87,"surf":"Asphalt","rwy1":"08","lat1":49.73082194,"lon1":-105.95301360,"rwy2":"26","lat2":49.73117489,"lon2":-105.94050696},
{"len_m":870,"wid_m":46.02,"hdg":147,"surf":"Asphalt","rwy1":"13","lat1":49.73869041,"lon1":-105.94646364,"rwy2":"31","lat2":49.73209739,"lon2":-105.93996496}
]
,"navaids":[
{"type":"NDB","hdg_t":209.1,"dist_nm":0.3,"freq":278,"lat":49.72833300,"lon":-105.94916700,"rng_nm":25,"alt_fmsl":2370,"id":"NI","desc":"ASSINIBOIA NDB"},
{"type":"NDB","hdg_t":29.9,"dist_nm":38.7,"freq":375,"lat":50.29166667,"lon":-105.44222222,"rng_nm":50,"alt_fmsl":0,"id":"BD","desc":"BAILDON NDB"},
{"type":"VOR","hdg_t":22.2,"dist_nm":38.8,"freq":113.4,"lat":50.33113889,"lon":-105.56336111,"rng_nm":130,"alt_fmsl":1898,"id":"YMJ","desc":"MOOSE JAW VORTAC"},
{"type":"NDB","hdg_t":26.9,"dist_nm":47.2,"freq":272,"lat":50.43333300,"lon":-105.38666700,"rng_nm":25,"alt_fmsl":1896,"id":"V1","desc":"MOOSE JAW MUNI NDB"},
{"type":"NDB","hdg_t":160,"dist_nm":59,"freq":283,"lat":48.80863889,"lon":-105.43611111,"rng_nm":50,"alt_fmsl":0,"id":"SCO","desc":"SCOBEY NDB"},
{"type":"NDB","hdg_t":46.4,"dist_nm":61.1,"freq":414,"lat":50.42891700,"lon":-104.79084400,"rng_nm":25,"alt_fmsl":0,"id":"ZRG","desc":"BROPHY NDB"},
{"type":"NDB","hdg_t":45.4,"dist_nm":64.9,"freq":219,"lat":50.48530600,"lon":-104.73611900,"rng_nm":25,"alt_fmsl":0,"id":"ZRS","desc":"AJAX NDB"},
{"type":"NDB","hdg_t":53.7,"dist_nm":65.3,"freq":290,"lat":50.36972222,"lon":-104.57305556,"rng_nm":50,"alt_fmsl":0,"id":"QR","desc":"REGINA NDB"},
{"type":"NDB","hdg_t":52.1,"dist_nm":68.9,"freq":204,"lat":50.42891400,"lon":-104.52722200,"rng_nm":25,"alt_fmsl":0,"id":"ZQR","desc":"FINDLAY NDB"},
{"type":"VOR","hdg_t":35.5,"dist_nm":69.2,"freq":114.2,"lat":50.66700000,"lon":-104.89030556,"rng_nm":130,"alt_fmsl":1895,"id":"VLN","desc":"LUMSDEN VORTAC"},
{"type":"VOR","hdg_t":297.2,"dist_nm":75.5,"freq":117.4,"lat":50.29705556,"lon":-107.69088889,"rng_nm":130,"alt_fmsl":2668,"id":"YYN","desc":"SWIFT CURRENT VOR-DME"},
{"type":"NDB","hdg_t":134.9,"dist_nm":79.4,"freq":251,"lat":48.79002778,"lon":-104.52716667,"rng_nm":50,"alt_fmsl":0,"id":"PWD","desc":"PLENTYWOOD NDB"},
{"type":"NDB","hdg_t":90.7,"dist_nm":83.4,"freq":298,"lat":49.69640000,"lon":-103.80357500,"rng_nm":50,"alt_fmsl":1963,"id":"3N","desc":"WEYBURN NDB"},
{"type":"NDB","hdg_t":319.3,"dist_nm":88.5,"freq":212,"lat":50.84213889,"lon":-107.46016667,"rng_nm":50,"alt_fmsl":0,"id":"BY","desc":"BEECHY NDB"},
{"type":"VOR","hdg_t":196.6,"dist_nm":95,"freq":113.9,"lat":48.21530556,"lon":-106.62541667,"rng_nm":130,"alt_fmsl":2283,"id":"GGW","desc":"GLASGOW VOR-DME"},
{"type":"NDB","hdg_t":196.6,"dist_nm":95.4,"freq":339,"lat":48.20788889,"lon":-106.62616667,"rng_nm":50,"alt_fmsl":0,"id":"MKR","desc":"MILK RIVER NDB"},
{"type":"NDB","hdg_t":171.9,"dist_nm":98.7,"freq":404,"lat":48.10447222,"lon":-105.60191667,"rng_nm":50,"alt_fmsl":0,"id":"OLF","desc":"WOLF POINT NDB"}
]
}
