{"success":true,"source":"xp2csv.pl","last_updated":"2013/11/08 14:53:21 UTC"
,"icao":"CKC6","name":"Lanigan","lat":51.845276,"lon":-104.992226,"rwys":1,"ils":0,"index":1237872,"path":"w110n50/w105n51"
,"runways":[
{"len_m":1346,"wid_m":27.13,"hdg":91,"surf":"Turf/grass","rwy1":"08","lat1":51.84548660,"lon1":-105.00198807,"rwy2":"26","lat2":51.84506540,"lon2":-104.98246393}
]
,"navaids":[
{"type":"NDB","hdg_t":83.7,"dist_nm":15.8,"freq":368,"lat":51.87305556,"lon":-104.56972222,"rng_nm":50,"alt_fmsl":0,"id":"VX","desc":"DAFOE NDB"},
{"type":"NDB","hdg_t":346.1,"dist_nm":20.3,"freq":277,"lat":52.17416700,"lon":-105.12416700,"rng_nm":50,"alt_fmsl":1865,"id":"V2","desc":"HUMBOLDT NDB"},
{"type":"NDB","hdg_t":288.5,"dist_nm":61.6,"freq":356,"lat":52.16138900,"lon":-106.57444400,"rng_nm":25,"alt_fmsl":0,"id":"ZXE","desc":"BARNES NDB"},
{"type":"NDB","hdg_t":6.2,"dist_nm":62,"freq":391,"lat":52.87138900,"lon":-104.80638900,"rng_nm":25,"alt_fmsl":0,"id":"D5","desc":"MELFORT NDB"},
{"type":"NDB","hdg_t":284.5,"dist_nm":63.8,"freq":201,"lat":52.10000000,"lon":-106.66194400,"rng_nm":25,"alt_fmsl":0,"id":"ZSK","desc":"MOONLAKE NDB"},
{"type":"NDB","hdg_t":31.1,"dist_nm":67.1,"freq":295,"lat":52.79805600,"lon":-104.03944400,"rng_nm":50,"alt_fmsl":0,"id":"E2","desc":"TISDALE NDB"},
{"type":"VOR","hdg_t":288.1,"dist_nm":67.1,"freq":116.2,"lat":52.18116667,"lon":-106.71977778,"rng_nm":130,"alt_fmsl":1700,"id":"YXE","desc":"SASKATOON VORTAC"},
{"type":"NDB","hdg_t":290.8,"dist_nm":69,"freq":397,"lat":52.24166700,"lon":-106.74083300,"rng_nm":50,"alt_fmsl":0,"id":"ZSS","desc":"YELLOWHEAD NDB"},
{"type":"NDB","hdg_t":287.7,"dist_nm":70.6,"freq":257,"lat":52.18975000,"lon":-106.81380556,"rng_nm":50,"alt_fmsl":0,"id":"XE","desc":"SASKATOON NDB"},
{"type":"VOR","hdg_t":176.8,"dist_nm":70.8,"freq":114.2,"lat":50.66700000,"lon":-104.89030556,"rng_nm":130,"alt_fmsl":1895,"id":"VLN","desc":"LUMSDEN VORTAC"},
{"type":"NDB","hdg_t":173.1,"dist_nm":82.2,"freq":219,"lat":50.48530600,"lon":-104.73611900,"rng_nm":25,"alt_fmsl":0,"id":"ZRS","desc":"AJAX NDB"},
{"type":"NDB","hdg_t":346.4,"dist_nm":84.8,"freq":372,"lat":53.21722200,"lon":-105.54444400,"rng_nm":25,"alt_fmsl":0,"id":"ZPA","desc":"GLASS NDB"},
{"type":"NDB","hdg_t":174.8,"dist_nm":85.4,"freq":414,"lat":50.42891700,"lon":-104.79084400,"rng_nm":25,"alt_fmsl":0,"id":"ZRG","desc":"BROPHY NDB"},
{"type":"VOR","hdg_t":343.5,"dist_nm":86,"freq":113,"lat":53.21641667,"lon":-105.66647222,"rng_nm":130,"alt_fmsl":1414,"id":"YPA","desc":"PRINCE ALBERT VOR-DME"},
{"type":"NDB","hdg_t":190.1,"dist_nm":86.1,"freq":272,"lat":50.43333300,"lon":-105.38666700,"rng_nm":25,"alt_fmsl":1896,"id":"V1","desc":"MOOSE JAW MUNI NDB"},
{"type":"NDB","hdg_t":168.1,"dist_nm":86.8,"freq":204,"lat":50.42891400,"lon":-104.52722200,"rng_nm":25,"alt_fmsl":0,"id":"ZQR","desc":"FINDLAY NDB"},
{"type":"NDB","hdg_t":340.6,"dist_nm":87.5,"freq":347,"lat":53.21805556,"lon":-105.79527778,"rng_nm":50,"alt_fmsl":0,"id":"PA","desc":"PRINCE ALBERT NDB"},
{"type":"NDB","hdg_t":169.6,"dist_nm":90,"freq":290,"lat":50.36972222,"lon":-104.57305556,"rng_nm":50,"alt_fmsl":0,"id":"QR","desc":"REGINA NDB"},
{"type":"VOR","hdg_t":193.5,"dist_nm":93.4,"freq":113.4,"lat":50.33113889,"lon":-105.56336111,"rng_nm":130,"alt_fmsl":1898,"id":"YMJ","desc":"MOOSE JAW VORTAC"},
{"type":"NDB","hdg_t":190.5,"dist_nm":94.8,"freq":375,"lat":50.29166667,"lon":-105.44222222,"rng_nm":50,"alt_fmsl":0,"id":"BD","desc":"BAILDON NDB"},
{"type":"NDB","hdg_t":21.5,"dist_nm":96.4,"freq":402,"lat":53.33472200,"lon":-104.00888900,"rng_nm":50,"alt_fmsl":1220,"id":"L4","desc":"NIPAWIN NDB"},
{"type":"NDB","hdg_t":111.3,"dist_nm":99.2,"freq":385,"lat":51.21666667,"lon":-102.54166667,"rng_nm":50,"alt_fmsl":0,"id":"QV","desc":"YORKTON NDB"}
]
}
