{"success":true,"source":"xp2csv.pl","last_updated":"2013/11/08 14:53:21 UTC"
,"icao":"CKC9","name":"Pangman","lat":49.64649,"lon":-104.66522,"rwys":1,"ils":0,"index":1237737,"path":"w110n40/w105n49"
,"runways":[
{"len_m":793,"wid_m":29.87,"hdg":180,"surf":"Turf/grass","rwy1":"17","lat1":49.65005593,"lon1":-104.66522000,"rwy2":"35","lat2":49.64292407,"lon2":-104.66522000}
]
,"navaids":[
{"type":"NDB","hdg_t":84.5,"dist_nm":33.7,"freq":298,"lat":49.69640000,"lon":-103.80357500,"rng_nm":50,"alt_fmsl":1963,"id":"3N","desc":"WEYBURN NDB"},
{"type":"NDB","hdg_t":4.6,"dist_nm":43.5,"freq":290,"lat":50.36972222,"lon":-104.57305556,"rng_nm":50,"alt_fmsl":0,"id":"QR","desc":"REGINA NDB"},
{"type":"NDB","hdg_t":354.1,"dist_nm":47.2,"freq":414,"lat":50.42891700,"lon":-104.79084400,"rng_nm":25,"alt_fmsl":0,"id":"ZRG","desc":"BROPHY NDB"},
{"type":"NDB","hdg_t":6.4,"dist_nm":47.2,"freq":204,"lat":50.42891400,"lon":-104.52722200,"rng_nm":25,"alt_fmsl":0,"id":"ZQR","desc":"FINDLAY NDB"},
{"type":"NDB","hdg_t":322.4,"dist_nm":49,"freq":375,"lat":50.29166667,"lon":-105.44222222,"rng_nm":50,"alt_fmsl":0,"id":"BD","desc":"BAILDON NDB"},
{"type":"NDB","hdg_t":276.1,"dist_nm":50.2,"freq":278,"lat":49.72833300,"lon":-105.94916700,"rng_nm":25,"alt_fmsl":2370,"id":"NI","desc":"ASSINIBOIA NDB"},
{"type":"NDB","hdg_t":356.9,"dist_nm":50.4,"freq":219,"lat":50.48530600,"lon":-104.73611900,"rng_nm":25,"alt_fmsl":0,"id":"ZRS","desc":"AJAX NDB"},
{"type":"NDB","hdg_t":173.9,"dist_nm":51.7,"freq":251,"lat":48.79002778,"lon":-104.52716667,"rng_nm":50,"alt_fmsl":0,"id":"PWD","desc":"PLENTYWOOD NDB"},
{"type":"VOR","hdg_t":320.1,"dist_nm":53.8,"freq":113.4,"lat":50.33113889,"lon":-105.56336111,"rng_nm":130,"alt_fmsl":1898,"id":"YMJ","desc":"MOOSE JAW VORTAC"},
{"type":"NDB","hdg_t":329.7,"dist_nm":54.8,"freq":272,"lat":50.43333300,"lon":-105.38666700,"rng_nm":25,"alt_fmsl":1896,"id":"V1","desc":"MOOSE JAW MUNI NDB"},
{"type":"NDB","hdg_t":211.3,"dist_nm":58.7,"freq":283,"lat":48.80863889,"lon":-105.43611111,"rng_nm":50,"alt_fmsl":0,"id":"SCO","desc":"SCOBEY NDB"},
{"type":"VOR","hdg_t":352,"dist_nm":61.9,"freq":114.2,"lat":50.66700000,"lon":-104.89030556,"rng_nm":130,"alt_fmsl":1895,"id":"VLN","desc":"LUMSDEN VORTAC"},
{"type":"NDB","hdg_t":109.6,"dist_nm":75.4,"freq":395,"lat":49.20972222,"lon":-102.86000000,"rng_nm":50,"alt_fmsl":0,"id":"L7","desc":"ESTEVAN NDB"},
{"type":"VOR","hdg_t":156.2,"dist_nm":91.1,"freq":116.3,"lat":48.25341667,"lon":-103.75066667,"rng_nm":40,"alt_fmsl":2372,"id":"ISN","desc":"WILLISTON VORTAC"},
{"type":"VOR","hdg_t":61.5,"dist_nm":92.8,"freq":117.5,"lat":50.36294444,"lon":-102.54030556,"rng_nm":130,"alt_fmsl":2002,"id":"YDR","desc":"BROADVIEW VOR-DME"},
{"type":"NDB","hdg_t":89.1,"dist_nm":92.9,"freq":310,"lat":49.64556700,"lon":-102.28103600,"rng_nm":50,"alt_fmsl":2074,"id":"8A","desc":"CARLYLE NDB"},
{"type":"NDB","hdg_t":154.1,"dist_nm":99.7,"freq":275,"lat":48.14586111,"lon":-103.58380556,"rng_nm":50,"alt_fmsl":0,"id":"ISN","desc":"WILLISTON NDB"},
{"type":"NDB","hdg_t":202.1,"dist_nm":99.7,"freq":404,"lat":48.10447222,"lon":-105.60191667,"rng_nm":50,"alt_fmsl":0,"id":"OLF","desc":"WOLF POINT NDB"}
]
}
