{"success":true,"source":"xp2csv.pl","last_updated":"2013/11/08 14:53:21 UTC"
,"icao":"CKH3","name":"Debden","lat":53.531944,"lon":-106.883888,"rwys":1,"ils":0,"index":1205216,"path":"w110n50/w107n53"
,"runways":[
{"len_m":916,"wid_m":29.87,"hdg":140,"surf":"Turf/grass","rwy1":"13","lat1":53.53514154,"lon1":-106.88824438,"rwy2":"31","lat2":53.52874646,"lon2":-106.87953162}
]
,"navaids":[
{"type":"NDB","hdg_t":115.3,"dist_nm":43.4,"freq":347,"lat":53.21805556,"lon":-105.79527778,"rng_nm":50,"alt_fmsl":0,"id":"PA","desc":"PRINCE ALBERT NDB"},
{"type":"VOR","hdg_t":112.9,"dist_nm":47.6,"freq":113,"lat":53.21641667,"lon":-105.66647222,"rng_nm":130,"alt_fmsl":1414,"id":"YPA","desc":"PRINCE ALBERT VOR-DME"},
{"type":"NDB","hdg_t":110.9,"dist_nm":51.7,"freq":372,"lat":53.21722200,"lon":-105.54444400,"rng_nm":25,"alt_fmsl":0,"id":"ZPA","desc":"GLASS NDB"},
{"type":"NDB","hdg_t":230.7,"dist_nm":68.2,"freq":302,"lat":52.80375000,"lon":-108.33511111,"rng_nm":50,"alt_fmsl":0,"id":"QW","desc":"NORTH BATTLEFORD NDB"},
{"type":"NDB","hdg_t":300.8,"dist_nm":72.5,"freq":406,"lat":54.13833300,"lon":-108.65000000,"rng_nm":25,"alt_fmsl":0,"id":"YLJ","desc":"MEADOW LAKE NDB"},
{"type":"NDB","hdg_t":176.1,"dist_nm":77.7,"freq":397,"lat":52.24166700,"lon":-106.74083300,"rng_nm":50,"alt_fmsl":0,"id":"ZSS","desc":"YELLOWHEAD NDB"},
{"type":"NDB","hdg_t":178.1,"dist_nm":80.6,"freq":257,"lat":52.18975000,"lon":-106.81380556,"rng_nm":50,"alt_fmsl":0,"id":"XE","desc":"SASKATOON NDB"},
{"type":"VOR","hdg_t":175.7,"dist_nm":81.3,"freq":116.2,"lat":52.18116667,"lon":-106.71977778,"rng_nm":130,"alt_fmsl":1700,"id":"YXE","desc":"SASKATOON VORTAC"},
{"type":"NDB","hdg_t":172,"dist_nm":83.1,"freq":356,"lat":52.16138900,"lon":-106.57444400,"rng_nm":25,"alt_fmsl":0,"id":"ZXE","desc":"BARNES NDB"},
{"type":"NDB","hdg_t":117,"dist_nm":84.8,"freq":391,"lat":52.87138900,"lon":-104.80638900,"rng_nm":25,"alt_fmsl":0,"id":"D5","desc":"MELFORT NDB"},
{"type":"NDB","hdg_t":174.5,"dist_nm":86.4,"freq":201,"lat":52.10000000,"lon":-106.66194400,"rng_nm":25,"alt_fmsl":0,"id":"ZSK","desc":"MOONLAKE NDB"}
]
}
