{"success":true,"source":"xp2csv.pl","last_updated":"2013/11/08 14:53:21 UTC"
,"icao":"CKP2","name":"Spring Valley (north)","lat":50.060001,"lon":-105.401947,"rwys":1,"ils":0,"index":1221378,"path":"w110n50/w106n50"
,"runways":[
{"len_m":915,"wid_m":6.10,"hdg":178,"surf":"Gravel","rwy1":"17","lat1":50.06411484,"lon1":-105.40205885,"rwy2":"35","lat2":50.05588716,"lon2":-105.40183515}
]
,"navaids":[
{"type":"NDB","hdg_t":353.6,"dist_nm":14,"freq":375,"lat":50.29166667,"lon":-105.44222222,"rng_nm":50,"alt_fmsl":0,"id":"BD","desc":"BAILDON NDB"},
{"type":"VOR","hdg_t":339.1,"dist_nm":17.4,"freq":113.4,"lat":50.33113889,"lon":-105.56336111,"rng_nm":130,"alt_fmsl":1898,"id":"YMJ","desc":"MOOSE JAW VORTAC"},
{"type":"NDB","hdg_t":1.4,"dist_nm":22.4,"freq":272,"lat":50.43333300,"lon":-105.38666700,"rng_nm":25,"alt_fmsl":1896,"id":"V1","desc":"MOOSE JAW MUNI NDB"},
{"type":"NDB","hdg_t":227,"dist_nm":29.1,"freq":278,"lat":49.72833300,"lon":-105.94916700,"rng_nm":25,"alt_fmsl":2370,"id":"NI","desc":"ASSINIBOIA NDB"},
{"type":"NDB","hdg_t":46.4,"dist_nm":32.3,"freq":414,"lat":50.42891700,"lon":-104.79084400,"rng_nm":25,"alt_fmsl":0,"id":"ZRG","desc":"BROPHY NDB"},
{"type":"NDB","hdg_t":44.8,"dist_nm":36.1,"freq":219,"lat":50.48530600,"lon":-104.73611900,"rng_nm":25,"alt_fmsl":0,"id":"ZRS","desc":"AJAX NDB"},
{"type":"NDB","hdg_t":59.4,"dist_nm":36.9,"freq":290,"lat":50.36972222,"lon":-104.57305556,"rng_nm":50,"alt_fmsl":0,"id":"QR","desc":"REGINA NDB"},
{"type":"NDB","hdg_t":56.3,"dist_nm":40.3,"freq":204,"lat":50.42891400,"lon":-104.52722200,"rng_nm":25,"alt_fmsl":0,"id":"ZQR","desc":"FINDLAY NDB"},
{"type":"VOR","hdg_t":28.1,"dist_nm":41.4,"freq":114.2,"lat":50.66700000,"lon":-104.89030556,"rng_nm":130,"alt_fmsl":1895,"id":"VLN","desc":"LUMSDEN VORTAC"},
{"type":"NDB","hdg_t":108.7,"dist_nm":65.7,"freq":298,"lat":49.69640000,"lon":-103.80357500,"rng_nm":50,"alt_fmsl":1963,"id":"3N","desc":"WEYBURN NDB"},
{"type":"NDB","hdg_t":181,"dist_nm":75.1,"freq":283,"lat":48.80863889,"lon":-105.43611111,"rng_nm":50,"alt_fmsl":0,"id":"SCO","desc":"SCOBEY NDB"},
{"type":"NDB","hdg_t":155.4,"dist_nm":83.6,"freq":251,"lat":48.79002778,"lon":-104.52716667,"rng_nm":50,"alt_fmsl":0,"id":"PWD","desc":"PLENTYWOOD NDB"},
{"type":"VOR","hdg_t":280,"dist_nm":89.4,"freq":117.4,"lat":50.29705556,"lon":-107.69088889,"rng_nm":130,"alt_fmsl":2668,"id":"YYN","desc":"SWIFT CURRENT VOR-DME"},
{"type":"NDB","hdg_t":301.5,"dist_nm":91.8,"freq":212,"lat":50.84213889,"lon":-107.46016667,"rng_nm":50,"alt_fmsl":0,"id":"BY","desc":"BEECHY NDB"}
]
}
