{"success":true,"source":"xp2csv.pl","last_updated":"2013/11/08 14:53:21 UTC"
,"icao":"CKS7","name":"Wadena","lat":51.933327,"lon":-103.833328,"rwys":1,"ils":0,"index":1254264,"path":"w110n50/w104n51"
,"runways":[
{"len_m":764,"wid_m":22.86,"hdg":109,"surf":"Gravel","rwy1":"10","lat1":51.93449969,"lon1":-103.83855353,"rwy2":"28","lat2":51.93215431,"lon2":-103.82810247}
]
,"navaids":[
{"type":"NDB","hdg_t":262.7,"dist_nm":27.6,"freq":368,"lat":51.87305556,"lon":-104.56972222,"rng_nm":50,"alt_fmsl":0,"id":"VX","desc":"DAFOE NDB"},
{"type":"NDB","hdg_t":287.3,"dist_nm":49.9,"freq":277,"lat":52.17416700,"lon":-105.12416700,"rng_nm":50,"alt_fmsl":1865,"id":"V2","desc":"HUMBOLDT NDB"},
{"type":"NDB","hdg_t":351.7,"dist_nm":52.5,"freq":295,"lat":52.79805600,"lon":-104.03944400,"rng_nm":50,"alt_fmsl":0,"id":"E2","desc":"TISDALE NDB"},
{"type":"NDB","hdg_t":131.1,"dist_nm":64.7,"freq":385,"lat":51.21666667,"lon":-102.54166667,"rng_nm":50,"alt_fmsl":0,"id":"QV","desc":"YORKTON NDB"},
{"type":"VOR","hdg_t":127.6,"dist_nm":64.9,"freq":115.8,"lat":51.26405556,"lon":-102.46872222,"rng_nm":130,"alt_fmsl":1665,"id":"YQV","desc":"YORKTON VOR-DME"},
{"type":"NDB","hdg_t":327.9,"dist_nm":66.7,"freq":391,"lat":52.87138900,"lon":-104.80638900,"rng_nm":25,"alt_fmsl":0,"id":"D5","desc":"MELFORT NDB"},
{"type":"NDB","hdg_t":47.1,"dist_nm":81.7,"freq":337,"lat":52.84777800,"lon":-102.18666700,"rng_nm":25,"alt_fmsl":0,"id":"7D","desc":"HUDSON BAY NDB"},
{"type":"NDB","hdg_t":355.7,"dist_nm":84.4,"freq":402,"lat":53.33472200,"lon":-104.00888900,"rng_nm":50,"alt_fmsl":1220,"id":"L4","desc":"NIPAWIN NDB"},
{"type":"VOR","hdg_t":208,"dist_nm":85.8,"freq":114.2,"lat":50.66700000,"lon":-104.89030556,"rng_nm":130,"alt_fmsl":1895,"id":"VLN","desc":"LUMSDEN VORTAC"},
{"type":"NDB","hdg_t":201.7,"dist_nm":93.4,"freq":219,"lat":50.48530600,"lon":-104.73611900,"rng_nm":25,"alt_fmsl":0,"id":"ZRS","desc":"AJAX NDB"},
{"type":"NDB","hdg_t":196.4,"dist_nm":94,"freq":204,"lat":50.42891400,"lon":-104.52722200,"rng_nm":25,"alt_fmsl":0,"id":"ZQR","desc":"FINDLAY NDB"},
{"type":"NDB","hdg_t":82.5,"dist_nm":96.9,"freq":350,"lat":52.11527800,"lon":-101.23500000,"rng_nm":25,"alt_fmsl":1100,"id":"N4","desc":"SWAN RIVER NDB"},
{"type":"NDB","hdg_t":202.1,"dist_nm":97.3,"freq":414,"lat":50.42891700,"lon":-104.79084400,"rng_nm":25,"alt_fmsl":0,"id":"ZRG","desc":"BROPHY NDB"},
{"type":"NDB","hdg_t":196.8,"dist_nm":97.9,"freq":290,"lat":50.36972222,"lon":-104.57305556,"rng_nm":50,"alt_fmsl":0,"id":"QR","desc":"REGINA NDB"},
{"type":"NDB","hdg_t":321.6,"dist_nm":99.3,"freq":372,"lat":53.21722200,"lon":-105.54444400,"rng_nm":25,"alt_fmsl":0,"id":"ZPA","desc":"GLASS NDB"}
]
}
