{"success":true,"source":"xp2csv.pl","last_updated":"2013/11/08 14:53:21 UTC"
,"icao":"CL18","name":"Danby Airstrip","lat":34.55499916,"lon":-115.35609389,"rwys":1,"ils":0,"index":1056546,"path":"w120n30/w116n34"
,"runways":[
{"len_m":1159,"wid_m":16.76,"hdg":54,"surf":"Dirt","rwy1":"04","lat1":34.55193582,"lon1":-115.36121338,"rwy2":"22","lat2":34.55806250,"lon2":-115.35097440}
]
,"navaids":[
{"type":"VOR","hdg_t":217.9,"dist_nm":33.5,"freq":114.2,"lat":34.11222222,"lon":-115.76991667,"rng_nm":40,"alt_fmsl":1374,"id":"TNP","desc":"TWENTYNINE PALMS VORTAC"},
{"type":"VOR","hdg_t":14.3,"dist_nm":35.6,"freq":114.4,"lat":35.13113889,"lon":-115.17644444,"rng_nm":40,"alt_fmsl":4000,"id":"GFS","desc":"GOFFS VORTAC"},
{"type":"VOR","hdg_t":128.8,"dist_nm":43.1,"freq":117.9,"lat":34.10200000,"lon":-114.68208333,"rng_nm":130,"alt_fmsl":1000,"id":"PKE","desc":"PARKER VORTAC"},
{"type":"VOR","hdg_t":73.6,"dist_nm":45.4,"freq":115.2,"lat":34.76600000,"lon":-114.47411111,"rng_nm":130,"alt_fmsl":620,"id":"EED","desc":"NEEDLES VORTAC"},
{"type":"VOR","hdg_t":285.1,"dist_nm":56.6,"freq":112.7,"lat":34.79702778,"lon":-116.46291667,"rng_nm":130,"alt_fmsl":1853,"id":"HEC","desc":"HECTOR VORTAC"},
{"type":"VOR","hdg_t":152.5,"dist_nm":64.6,"freq":117.4,"lat":33.59605556,"lon":-114.76127778,"rng_nm":130,"alt_fmsl":410,"id":"BLH","desc":"BLYTHE VORTAC"},
{"type":"VOR","hdg_t":292.3,"dist_nm":65.1,"freq":113.2,"lat":34.96244444,"lon":-116.57816667,"rng_nm":40,"alt_fmsl":1760,"id":"DAG","desc":"DAGGETT VORTAC"},
{"type":"VOR","hdg_t":232.7,"dist_nm":67.3,"freq":115.5,"lat":33.87002778,"lon":-116.42977778,"rng_nm":40,"alt_fmsl":1600,"id":"PSP","desc":"PALM SPRINGS VORTAC"},
{"type":"VOR","hdg_t":216,"dist_nm":68.4,"freq":116.2,"lat":33.62808333,"lon":-116.16019444,"rng_nm":130,"alt_fmsl":-87,"id":"TRM","desc":"THERMAL VORTAC"},
{"type":"VOR","hdg_t":58.5,"dist_nm":81.9,"freq":108.8,"lat":35.26052778,"lon":-113.93408333,"rng_nm":40,"alt_fmsl":3410,"id":"IGM","desc":"KINGMAN VOR-DME"},
{"type":"VOR","hdg_t":15.5,"dist_nm":89.6,"freq":116.7,"lat":35.99577778,"lon":-114.86358333,"rng_nm":130,"alt_fmsl":3650,"id":"BLD","desc":"BOULDER CITY VORTAC"},
{"type":"VOR","hdg_t":5.9,"dist_nm":91.8,"freq":116.9,"lat":36.07969444,"lon":-115.15980556,"rng_nm":130,"alt_fmsl":2141,"id":"LAS","desc":"LAS VEGAS VORTAC"},
{"type":"NDB","hdg_t":241.3,"dist_nm":93.6,"freq":227,"lat":33.79493900,"lon":-116.99927200,"rng_nm":25,"alt_fmsl":1498,"id":"SJY","desc":"SAN JACINTO NDB"}
]
}
