{"success":true,"source":"xp2csv.pl","last_updated":"2013/11/08 14:53:21 UTC"
,"icao":"CNA3","name":"Springwater Barrie Airpark","lat":44.409861,"lon":-79.727082,"rwys":1,"ils":0,"index":1647001,"path":"w080n40/w080n44"
,"runways":[
{"len_m":648,"wid_m":30.48,"hdg":58,"surf":"Asphalt","rwy1":"07","lat1":44.40833300,"lon1":-79.73055300,"rwy2":"25","lat2":44.41138900,"lon2":-79.72361100}
]
,"radios":[
{"type":"CTAF","freq":123,"desc":"CTAF/UNICOM"},
{"type":"APP","freq":124.02,"desc":"TORONTO CNTR"}
]
,"navaids":[
{"type":"VOR","hdg_t":344.6,"dist_nm":10.7,"freq":112.8,"lat":44.58180556,"lon":-79.79322222,"rng_nm":130,"alt_fmsl":800,"id":"YEE","desc":"MIDLAND VOR-DME"},
{"type":"VOR","hdg_t":228.6,"dist_nm":24.1,"freq":114.5,"lat":44.14316667,"lon":-80.14641667,"rng_nm":130,"alt_fmsl":1680,"id":"YMS","desc":"MANS VOR-DME"},
{"type":"VOR","hdg_t":113,"dist_nm":26,"freq":117.35,"lat":44.23861111,"lon":-79.17166667,"rng_nm":130,"alt_fmsl":922,"id":"YSO","desc":"SIMCOE VOR-DME"},
{"type":"NDB","hdg_t":148.8,"dist_nm":33.3,"freq":248,"lat":43.93311111,"lon":-79.32894444,"rng_nm":50,"alt_fmsl":0,"id":"KZ","desc":"BUTTONVILLE NDB"},
{"type":"SDME","hdg_t":154.5,"dist_nm":36.7,"freq":111.1,"lat":43.85583300,"lon":-79.36333300,"rng_nm":130,"alt_fmsl":650,"id":"IKZ","desc":"BUTTONVILLE DME"},
{"type":"NDB","hdg_t":178.5,"dist_nm":40.2,"freq":403,"lat":43.73877778,"lon":-79.70341667,"rng_nm":50,"alt_fmsl":0,"id":"ZTO","desc":"WOODHILL(TORONTO/ NDB"},
{"type":"NDB","hdg_t":170.4,"dist_nm":40.8,"freq":385,"lat":43.73791667,"lon":-79.57147222,"rng_nm":50,"alt_fmsl":0,"id":"ZDH","desc":"REXDALE(TORONTO/L NDB"},
{"type":"NDB","hdg_t":26.5,"dist_nm":42.2,"freq":272,"lat":45.03802778,"lon":-79.28338889,"rng_nm":50,"alt_fmsl":0,"id":"YQA","desc":"MUSKOKA NDB"},
{"type":"VOR","hdg_t":176.4,"dist_nm":44.3,"freq":116.55,"lat":43.67191667,"lon":-79.66411111,"rng_nm":130,"alt_fmsl":620,"id":"YTP","desc":"PEARSON VOR-DME"},
{"type":"SDME","hdg_t":172.8,"dist_nm":44.4,"freq":109.3,"lat":43.67555600,"lon":-79.59944400,"rng_nm":25,"alt_fmsl":565,"id":"INV","desc":"TORONTO DME"},
{"type":"SDME","hdg_t":174.8,"dist_nm":44.5,"freq":110.95,"lat":43.67027800,"lon":-79.63444400,"rng_nm":25,"alt_fmsl":565,"id":"ITO","desc":"TORONTO DME"},
{"type":"SDME","hdg_t":173.9,"dist_nm":45,"freq":109.1,"lat":43.66305600,"lon":-79.61861100,"rng_nm":25,"alt_fmsl":588,"id":"IJS","desc":"TORONTO DME"},
{"type":"VOR","hdg_t":174.7,"dist_nm":45.2,"freq":112.15,"lat":43.65822222,"lon":-79.63152778,"rng_nm":130,"alt_fmsl":620,"id":"YYZ","desc":"TORONTO VOR-DME"},
{"type":"NDB","hdg_t":129.1,"dist_nm":46.2,"freq":391,"lat":43.92083333,"lon":-78.89997222,"rng_nm":50,"alt_fmsl":0,"id":"OO","desc":"OSHAWA NDB"},
{"type":"SDME","hdg_t":128.7,"dist_nm":46.7,"freq":111.35,"lat":43.91861100,"lon":-78.88583300,"rng_nm":25,"alt_fmsl":456,"id":"IOO","desc":"OSHAWA DME"},
{"type":"NDB","hdg_t":180.2,"dist_nm":46.9,"freq":341,"lat":43.62788889,"lon":-79.73113889,"rng_nm":50,"alt_fmsl":0,"id":"ZLP","desc":"MEADOWVALE(TORONT NDB"},
{"type":"NDB","hdg_t":177.9,"dist_nm":47.6,"freq":236,"lat":43.61616100,"lon":-79.68840600,"rng_nm":25,"alt_fmsl":0,"id":"ZLB","desc":"BRITANNIA NDB"},
{"type":"NDB","hdg_t":170.6,"dist_nm":48,"freq":368,"lat":43.61950000,"lon":-79.54777778,"rng_nm":50,"alt_fmsl":0,"id":"ZYZ","desc":"QUEENSWAY(TORONTO NDB"},
{"type":"SDME","hdg_t":163,"dist_nm":49,"freq":110.15,"lat":43.62722200,"lon":-79.39944400,"rng_nm":25,"alt_fmsl":286,"id":"ITZ","desc":"CITY CENTRE DME"},
{"type":"NDB","hdg_t":162.7,"dist_nm":50,"freq":257,"lat":43.61261111,"lon":-79.38561111,"rng_nm":50,"alt_fmsl":0,"id":"TZ","desc":"GIBRALTAR POINT NDB"},
{"type":"NDB","hdg_t":354.8,"dist_nm":51.7,"freq":353,"lat":45.26888889,"lon":-79.83666667,"rng_nm":50,"alt_fmsl":0,"id":"F7","desc":"GEORGIAN BAY NDB"},
{"type":"NDB","hdg_t":101.8,"dist_nm":55.7,"freq":379,"lat":44.21244444,"lon":-78.46313889,"rng_nm":50,"alt_fmsl":0,"id":"YPQ","desc":"PETERBOROUGH NDB"},
{"type":"NDB","hdg_t":255.9,"dist_nm":59.3,"freq":268,"lat":44.16222222,"lon":-81.06055556,"rng_nm":50,"alt_fmsl":0,"id":"S7","desc":"HANOVER NDB"},
{"type":"NDB","hdg_t":204,"dist_nm":60.1,"freq":335,"lat":43.49305556,"lon":-80.28694444,"rng_nm":50,"alt_fmsl":0,"id":"ZKF","desc":"WELLINGTON NDB"},
{"type":"VOR","hdg_t":289.2,"dist_nm":62.4,"freq":117.7,"lat":44.74477778,"lon":-81.10541667,"rng_nm":130,"alt_fmsl":730,"id":"YVV","desc":"WIARTON VOR-DME"},
{"type":"VOR","hdg_t":206.5,"dist_nm":63.6,"freq":115,"lat":43.45858333,"lon":-80.37938889,"rng_nm":130,"alt_fmsl":1047,"id":"YWT","desc":"WATERLOO VOR-DME"},
{"type":"NDB","hdg_t":286,"dist_nm":64.6,"freq":326,"lat":44.69805556,"lon":-81.17972222,"rng_nm":50,"alt_fmsl":0,"id":"VV","desc":"WIARTON NDB"},
{"type":"NDB","hdg_t":190.3,"dist_nm":73.9,"freq":397,"lat":43.19727200,"lon":-80.02869700,"rng_nm":25,"alt_fmsl":0,"id":"ZHA","desc":"ANCASTER NDB"},
{"type":"NDB","hdg_t":182.2,"dist_nm":75.9,"freq":266,"lat":43.14421700,"lon":-79.79396900,"rng_nm":25,"alt_fmsl":0,"id":"ZHM","desc":"BINBROOK NDB"},
{"type":"NDB","hdg_t":189,"dist_nm":78.2,"freq":221,"lat":43.12111111,"lon":-80.00666667,"rng_nm":50,"alt_fmsl":0,"id":"HM","desc":"HAMILTON NDB"},
{"type":"NDB","hdg_t":164.6,"dist_nm":78.4,"freq":408,"lat":43.14716667,"lon":-79.25497222,"rng_nm":50,"alt_fmsl":0,"id":"SN","desc":"ST CATHERINES NDB"},
{"type":"VOR","hdg_t":78.5,"dist_nm":80.3,"freq":115.1,"lat":44.66088889,"lon":-77.88808333,"rng_nm":40,"alt_fmsl":902,"id":"VIE","desc":"COEHILL VOR-DME"},
{"type":"NDB","hdg_t":261.9,"dist_nm":81.7,"freq":350,"lat":44.20333333,"lon":-81.60333333,"rng_nm":50,"alt_fmsl":0,"id":"D7","desc":"KINCARDINE NDB"},
{"type":"SDME","hdg_t":156.5,"dist_nm":84.6,"freq":111,"lat":43.11250000,"lon":-78.96027800,"rng_nm":25,"alt_fmsl":635,"id":"IAG","desc":"NIAGARA FALLS TACAN"},
{"type":"NDB","hdg_t":200.7,"dist_nm":85.5,"freq":207,"lat":43.07333333,"lon":-80.41611111,"rng_nm":50,"alt_fmsl":0,"id":"FD","desc":"BRANTFORD NDB"},
{"type":"NDB","hdg_t":153.3,"dist_nm":87,"freq":329,"lat":43.10902778,"lon":-78.83838889,"rng_nm":50,"alt_fmsl":0,"id":"IA","desc":"KATHI NDB"},
{"type":"VOR","hdg_t":92.3,"dist_nm":87.2,"freq":113.5,"lat":44.33305556,"lon":-77.70283333,"rng_nm":40,"alt_fmsl":620,"id":"YCF","desc":"CAMPBELLFORD VOR-DME"},
{"type":"NDB","hdg_t":102.5,"dist_nm":93.1,"freq":317,"lat":44.05277778,"lon":-77.62666667,"rng_nm":50,"alt_fmsl":0,"id":"ZZR","desc":"SEVERN (TRENTON) NDB"},
{"type":"NDB","hdg_t":246,"dist_nm":95.3,"freq":261,"lat":43.74638889,"lon":-81.73083333,"rng_nm":50,"alt_fmsl":0,"id":"GD","desc":"GODERICH NDB"},
{"type":"SDME","hdg_t":99.5,"dist_nm":96.3,"freq":109.7,"lat":44.12116100,"lon":-77.52890600,"rng_nm":130,"alt_fmsl":285,"id":"UTR","desc":"TRENTON TACAN"},
{"type":"NDB","hdg_t":150.6,"dist_nm":96.6,"freq":231,"lat":43.00027778,"lon":-78.65086111,"rng_nm":50,"alt_fmsl":0,"id":"BU","desc":"KLUMP NDB"}
]
}
