{"success":true,"source":"xp2csv.pl","last_updated":"2013/11/08 14:53:21 UTC"
,"icao":"CO09","name":"Youtsey","lat":38.26666833,"lon":-104.28385473,"rwys":1,"ils":0,"index":1237010,"path":"w110n30/w105n38"
,"runways":[
{"len_m":702,"wid_m":10.67,"hdg":120,"surf":"Gravel","rwy1":"11","lat1":38.26829298,"lon1":-104.28729855,"rwy2":"29","lat2":38.26504368,"lon2":-104.28041091}
]
,"navaids":[
{"type":"NDB","hdg_t":293.3,"dist_nm":3.6,"freq":373,"lat":38.29086111,"lon":-104.35502778,"rng_nm":50,"alt_fmsl":0,"id":"TF","desc":"ARUBA NDB"},
{"type":"VOR","hdg_t":283.5,"dist_nm":7,"freq":116.7,"lat":38.29425000,"lon":-104.42944444,"rng_nm":130,"alt_fmsl":4759,"id":"PUB","desc":"PUEBLO VORTAC"},
{"type":"NDB","hdg_t":273.5,"dist_nm":17.1,"freq":302,"lat":38.28397222,"lon":-104.64708333,"rng_nm":50,"alt_fmsl":0,"id":"PU","desc":"MERTZ NDB"},
{"type":"NDB","hdg_t":321.6,"dist_nm":32.7,"freq":407,"lat":38.69430556,"lon":-104.71633333,"rng_nm":50,"alt_fmsl":0,"id":"CO","desc":"PETEY NDB"},
{"type":"NDB","hdg_t":318.2,"dist_nm":33.1,"freq":335,"lat":38.67833333,"lon":-104.75330556,"rng_nm":50,"alt_fmsl":0,"id":"IHS","desc":"IRONHORSE NDB"},
{"type":"VOR","hdg_t":318.2,"dist_nm":33.3,"freq":108.8,"lat":38.68069444,"lon":-104.75688889,"rng_nm":25,"alt_fmsl":5829,"id":"FCS","desc":"BUTTS VOR-DME"},
{"type":"VOR","hdg_t":338,"dist_nm":43.8,"freq":112.5,"lat":38.94450000,"lon":-104.63347222,"rng_nm":40,"alt_fmsl":6934,"id":"BRK","desc":"BLACK FOREST VORTAC"},
{"type":"VOR","hdg_t":43.1,"dist_nm":45.4,"freq":112.1,"lat":38.81750000,"lon":-103.62138889,"rng_nm":130,"alt_fmsl":5233,"id":"HGO","desc":"HUGO VORTAC"},
{"type":"NDB","hdg_t":182.3,"dist_nm":57.6,"freq":329,"lat":37.30611111,"lon":-104.33336111,"rng_nm":50,"alt_fmsl":0,"id":"TAD","desc":"TRINIDAD NDB"},
{"type":"VOR","hdg_t":151.4,"dist_nm":68.6,"freq":111.2,"lat":37.25866667,"lon":-103.60005556,"rng_nm":40,"alt_fmsl":5730,"id":"TBE","desc":"TOBE VORTAC"},
{"type":"VOR","hdg_t":92.6,"dist_nm":75.5,"freq":116.9,"lat":38.19708333,"lon":-102.68752778,"rng_nm":130,"alt_fmsl":3944,"id":"LAA","desc":"LAMAR VORTAC"},
{"type":"NDB","hdg_t":339.8,"dist_nm":75.7,"freq":260,"lat":39.45191667,"lon":-104.84580556,"rng_nm":50,"alt_fmsl":0,"id":"AP","desc":"CASSE NDB"},
{"type":"VOR","hdg_t":349.6,"dist_nm":86.7,"freq":116.3,"lat":39.69013889,"lon":-104.62097222,"rng_nm":130,"alt_fmsl":5780,"id":"FQF","desc":"FALCON VORTAC"},
{"type":"SDME","hdg_t":345.9,"dist_nm":89,"freq":109.6,"lat":39.70737700,"lon":-104.75216600,"rng_nm":40,"alt_fmsl":5580,"id":"BKF","desc":"BUCKLEY TACAN"},
{"type":"VOR","hdg_t":233.4,"dist_nm":91.2,"freq":113.9,"lat":37.34916667,"lon":-105.81552778,"rng_nm":130,"alt_fmsl":7535,"id":"ALS","desc":"ALAMOSA VORTAC"},
{"type":"VOR","hdg_t":10.3,"dist_nm":91.3,"freq":113.5,"lat":39.76583333,"lon":-103.92805556,"rng_nm":130,"alt_fmsl":5252,"id":"BVR","desc":"BYERS VOR-DME"},
{"type":"NDB","hdg_t":355.6,"dist_nm":91.6,"freq":321,"lat":39.79186111,"lon":-104.43422222,"rng_nm":50,"alt_fmsl":0,"id":"FT","desc":"SKIPI NDB"},
{"type":"VOR","hdg_t":349.3,"dist_nm":94.3,"freq":117.9,"lat":39.81252778,"lon":-104.66075000,"rng_nm":130,"alt_fmsl":5452,"id":"DEN","desc":"DENVER VOR-DME"},
{"type":"NDB","hdg_t":235.5,"dist_nm":95.5,"freq":400,"lat":37.35442500,"lon":-105.93101100,"rng_nm":25,"alt_fmsl":0,"id":"VQ","desc":"BESAQ NDB"},
{"type":"VOR","hdg_t":350.8,"dist_nm":98.8,"freq":114.7,"lat":39.89469444,"lon":-104.62433333,"rng_nm":130,"alt_fmsl":5279,"id":"DVV","desc":"MILE HIGH VORTAC"},
{"type":"VOR","hdg_t":29.8,"dist_nm":99.3,"freq":112.9,"lat":39.69830556,"lon":-103.21494444,"rng_nm":40,"alt_fmsl":4893,"id":"TXC","desc":"THURMAN VORTAC"}
]
}
