{"success":true,"source":"xp2csv.pl","last_updated":"2013/11/08 14:53:21 UTC"
,"icao":"CS27","name":"Gunnar Mine Airstrip","lat":59.40975017,"lon":-108.85870002,"rwys":1,"ils":0,"index":1172824,"path":"w110n50/w109n59"
,"runways":[
{"len_m":1122,"wid_m":49.99,"hdg":107,"surf":"Gravel","rwy1":"11","lat1":59.41130035,"lon1":-108.86810005,"rwy2":"29","lat2":59.40820000,"lon2":-108.84930000}
]
,"navaids":[
{"type":"NDB","hdg_t":49.9,"dist_nm":13.6,"freq":379,"lat":59.55500000,"lon":-108.51750000,"rng_nm":50,"alt_fmsl":0,"id":"YBE","desc":"URANIUM CITY NDB"},
{"type":"NDB","hdg_t":93.9,"dist_nm":51.4,"freq":233,"lat":59.34027800,"lon":-107.18722200,"rng_nm":50,"alt_fmsl":814,"id":"ZFD","desc":"FOND-DU-LAC NDB"},
{"type":"NDB","hdg_t":198.4,"dist_nm":66.4,"freq":243,"lat":58.36027800,"lon":-109.52500000,"rng_nm":50,"alt_fmsl":0,"id":"3X","desc":"CLUFF LAKE NDB"},
{"type":"NDB","hdg_t":241.7,"dist_nm":79.8,"freq":207,"lat":58.76166667,"lon":-111.10888889,"rng_nm":50,"alt_fmsl":0,"id":"PY","desc":"FORT CHIPEWYAN NDB"},
{"type":"NDB","hdg_t":94.4,"dist_nm":93.3,"freq":287,"lat":59.25555556,"lon":-105.83611111,"rng_nm":50,"alt_fmsl":0,"id":"YSF","desc":"STONY RAPIDS NDB"},
{"type":"NDB","hdg_t":291.6,"dist_nm":97.2,"freq":254,"lat":59.97138889,"lon":-111.85694444,"rng_nm":50,"alt_fmsl":0,"id":"SM","desc":"FORT SMITH NDB"},
{"type":"VOR","hdg_t":292.5,"dist_nm":101.4,"freq":112.4,"lat":60.02027778,"lon":-111.96944444,"rng_nm":130,"alt_fmsl":708,"id":"YSM","desc":"FORT SMITH VOR-DME"},
{"type":"NDB","hdg_t":127.6,"dist_nm":155.7,"freq":405,"lat":57.76916700,"lon":-105.02027800,"rng_nm":25,"alt_fmsl":0,"id":"D5","desc":"MCARTHUR RIVER NDB"},
{"type":"NDB","hdg_t":118.9,"dist_nm":157.2,"freq":222,"lat":58.06972200,"lon":-104.53861100,"rng_nm":50,"alt_fmsl":0,"id":"6Q","desc":"CIGAR LAKE NDB"},
{"type":"NDB","hdg_t":112.6,"dist_nm":163.9,"freq":368,"lat":58.26916700,"lon":-104.08000000,"rng_nm":50,"alt_fmsl":1620,"id":"4H","desc":"POINTS NORTH LANDING NDB"}
]
}
