{"success":true,"source":"xp2csv.pl","last_updated":"2013/11/08 14:53:21 UTC"
,"icao":"CYBC","name":"Baie Comeau","lat":49.1322705,"lon":-68.207207,"rwys":1,"ils":0,"index":1827531,"path":"w070n40/w069n49"
,"runways":[
{"len_m":1828,"wid_m":45.72,"hdg":80,"surf":"Asphalt","rwy1":"10","lat1":49.13091900,"lon1":-68.21956700,"rwy2":"28","lat2":49.13362200,"lon2":-68.19484700}
]
,"radios":[
{"type":"APP","freq":134.65,"desc":"MONTREAL CNTR"}
]
,"navaids":[
{"type":"VOR","hdg_t":280.2,"dist_nm":0.5,"freq":117.7,"lat":49.13402778,"lon":-68.22202778,"rng_nm":130,"alt_fmsl":86,"id":"YBC","desc":"BAIE-COMEAU VOR-DME"},
{"type":"NDB","hdg_t":259.5,"dist_nm":4.7,"freq":414,"lat":49.11782500,"lon":-68.32610300,"rng_nm":50,"alt_fmsl":0,"id":"BC","desc":"BAIE COMEAU NDB"},
{"type":"VOR","hdg_t":180.1,"dist_nm":31.2,"freq":115.9,"lat":48.61213889,"lon":-68.20900000,"rng_nm":130,"alt_fmsl":190,"id":"YYY","desc":"MONT JOLI VOR-DME"},
{"type":"NDB","hdg_t":124.3,"dist_nm":31.5,"freq":216,"lat":48.83338889,"lon":-67.54944444,"rng_nm":50,"alt_fmsl":0,"id":"ME","desc":"MATANE NDB"},
{"type":"NDB","hdg_t":183.4,"dist_nm":34,"freq":340,"lat":48.56669444,"lon":-68.25866667,"rng_nm":50,"alt_fmsl":0,"id":"YY","desc":"MONT-JOLI NDB"},
{"type":"NDB","hdg_t":196.7,"dist_nm":41,"freq":373,"lat":48.47775000,"lon":-68.50305556,"rng_nm":50,"alt_fmsl":0,"id":"YXK","desc":"RIMOUSKI NDB"},
{"type":"NDB","hdg_t":237.7,"dist_nm":44.8,"freq":239,"lat":48.73000000,"lon":-69.16250000,"rng_nm":50,"alt_fmsl":0,"id":"FE","desc":"FORESTVILLE NDB"},
{"type":"NDB","hdg_t":89.5,"dist_nm":65.3,"freq":211,"lat":49.12861111,"lon":-66.55000000,"rng_nm":50,"alt_fmsl":0,"id":"K7","desc":"STE-ANNE-DES-MONT NDB"},
{"type":"NDB","hdg_t":133,"dist_nm":97.5,"freq":207,"lat":48.00888889,"lon":-66.43694444,"rng_nm":50,"alt_fmsl":0,"id":"CL","desc":"CHARLO NDB"},
{"type":"NDB","hdg_t":48.1,"dist_nm":98.6,"freq":354,"lat":50.21200300,"lon":-66.30102500,"rng_nm":25,"alt_fmsl":0,"id":"ZZV","desc":"MONOGHAN NDB"},
{"type":"NDB","hdg_t":214.1,"dist_nm":98.7,"freq":201,"lat":47.76363889,"lon":-69.57811111,"rng_nm":50,"alt_fmsl":0,"id":"RI","desc":"RIVIERE-DU-LOUP NDB"},
{"type":"VOR","hdg_t":214.3,"dist_nm":99.3,"freq":113.9,"lat":47.75752778,"lon":-69.58977778,"rng_nm":130,"alt_fmsl":0,"id":"YRI","desc":"RIVIERE DU LOUP VOR"}
]
}
