{"success":true,"source":"xp2csv.pl","last_updated":"2013/11/08 14:53:21 UTC"
,"icao":"CYBE","name":"Uranium City","lat":59.561382,"lon":-108.481392,"rwys":1,"ils":0,"index":1172834,"path":"w110n50/w109n59"
,"runways":[
{"len_m":1197,"wid_m":29.87,"hdg":74,"surf":"Asphalt","rwy1":"06","lat1":59.55995378,"lon1":-108.49160593,"rwy2":"24","lat2":59.56281022,"lon2":-108.47117807}
]
,"radios":[
{"type":"CTAF","freq":123.2,"desc":"CTAF"}
]
,"navaids":[
{"type":"NDB","hdg_t":250.8,"dist_nm":1.1,"freq":379,"lat":59.55500000,"lon":-108.51750000,"rng_nm":50,"alt_fmsl":0,"id":"YBE","desc":"URANIUM CITY NDB"},
{"type":"NDB","hdg_t":107.9,"dist_nm":41.8,"freq":233,"lat":59.34027800,"lon":-107.18722200,"rng_nm":50,"alt_fmsl":814,"id":"ZFD","desc":"FOND-DU-LAC NDB"},
{"type":"NDB","hdg_t":204.6,"dist_nm":79.1,"freq":243,"lat":58.36027800,"lon":-109.52500000,"rng_nm":50,"alt_fmsl":0,"id":"3X","desc":"CLUFF LAKE NDB"},
{"type":"NDB","hdg_t":101.6,"dist_nm":83.1,"freq":287,"lat":59.25555556,"lon":-105.83611111,"rng_nm":50,"alt_fmsl":0,"id":"YSF","desc":"STONY RAPIDS NDB"},
{"type":"NDB","hdg_t":240.4,"dist_nm":94.3,"freq":207,"lat":58.76166667,"lon":-111.10888889,"rng_nm":50,"alt_fmsl":0,"id":"PY","desc":"FORT CHIPEWYAN NDB"},
{"type":"NDB","hdg_t":284.9,"dist_nm":105.3,"freq":254,"lat":59.97138889,"lon":-111.85694444,"rng_nm":50,"alt_fmsl":0,"id":"SM","desc":"FORT SMITH NDB"},
{"type":"VOR","hdg_t":286.1,"dist_nm":109.2,"freq":112.4,"lat":60.02027778,"lon":-111.96944444,"rng_nm":130,"alt_fmsl":708,"id":"YSM","desc":"FORT SMITH VOR-DME"},
{"type":"NDB","hdg_t":124.4,"dist_nm":152.2,"freq":222,"lat":58.06972200,"lon":-104.53861100,"rng_nm":50,"alt_fmsl":0,"id":"6Q","desc":"CIGAR LAKE NDB"},
{"type":"NDB","hdg_t":133.3,"dist_nm":152.8,"freq":405,"lat":57.76916700,"lon":-105.02027800,"rng_nm":25,"alt_fmsl":0,"id":"D5","desc":"MCARTHUR RIVER NDB"},
{"type":"NDB","hdg_t":117.6,"dist_nm":157.4,"freq":368,"lat":58.26916700,"lon":-104.08000000,"rng_nm":50,"alt_fmsl":1620,"id":"4H","desc":"POINTS NORTH LANDING NDB"}
]
}
