{"success":true,"source":"xp2csv.pl","last_updated":"2013/11/08 14:53:21 UTC"
,"icao":"CYHI","name":"Ulukhaktok Holman","lat":70.763054,"lon":-117.805832,"rwys":1,"ils":0,"index":1026096,"path":"w120n70/w118n70"
,"runways":[
{"len_m":1310,"wid_m":30.48,"hdg":61,"surf":"Gravel","rwy1":"06T","lat1":70.76029700,"lon1":-117.82156100,"rwy2":"24T","lat2":70.76581100,"lon2":-117.79010300}
]
,"radios":[
{"type":"CTAF","freq":122.1,"desc":"MANDATORY FREQ"}
]
,"navaids":[
{"type":"NDB","hdg_t":99,"dist_nm":0.3,"freq":361,"lat":70.76222222,"lon":-117.79000000,"rng_nm":50,"alt_fmsl":0,"id":"HI","desc":"HOLMAN NDB"},
{"type":"NDB","hdg_t":239.5,"dist_nm":154.3,"freq":276,"lat":69.35083333,"lon":-124.07527778,"rng_nm":50,"alt_fmsl":0,"id":"YPC","desc":"PAULATUK NDB"},
{"type":"NDB","hdg_t":300.6,"dist_nm":162.2,"freq":321,"lat":71.99138889,"lon":-125.31472222,"rng_nm":50,"alt_fmsl":0,"id":"YSY","desc":"SACHS HARBOUR NDB"},
{"type":"NDB","hdg_t":160.6,"dist_nm":186.3,"freq":372,"lat":67.82111111,"lon":-115.09805556,"rng_nm":50,"alt_fmsl":0,"id":"YCO","desc":"COPPERMINE NDB"},
{"type":"NDB","hdg_t":190.3,"dist_nm":247.5,"freq":367,"lat":66.70888900,"lon":-119.67222200,"rng_nm":50,"alt_fmsl":562,"id":"D1","desc":"GREAT BEAR LAKE NDB"},
{"type":"VOR","hdg_t":104.7,"dist_nm":278.7,"freq":112.7,"lat":69.11727778,"lon":-105.17272222,"rng_nm":40,"alt_fmsl":92,"id":"YCB","desc":"CAMBRIDGE BAY VOR-DME"},
{"type":"NDB","hdg_t":104.8,"dist_nm":280.2,"freq":327,"lat":69.10194400,"lon":-105.11666700,"rng_nm":25,"alt_fmsl":90,"id":"MG","desc":"WEST ARM NDB"},
{"type":"NDB","hdg_t":104.4,"dist_nm":281.8,"freq":245,"lat":69.11477778,"lon":-105.01591667,"rng_nm":50,"alt_fmsl":0,"id":"CB","desc":"CAMBRIDGE BAY NDB"},
{"type":"NDB","hdg_t":262.8,"dist_nm":321.3,"freq":380,"lat":69.43447222,"lon":-133.01722222,"rng_nm":50,"alt_fmsl":0,"id":"YUB","desc":"TUKTOYAKTUK NDB"},
{"type":"NDB","hdg_t":262.8,"dist_nm":321.3,"freq":380,"lat":69.43444400,"lon":-133.01722200,"rng_nm":50,"alt_fmsl":15,"id":"UB","desc":"TUKTOYAKTUK NDB"}
]
}
