{"success":true,"source":"xp2csv.pl","last_updated":"2013/11/08 14:53:21 UTC"
,"icao":"CYHN","name":"Hornepayne Muni","lat":49.193056,"lon":-84.758889,"rwys":1,"ils":0,"index":1565384,"path":"w090n40/w085n49"
,"runways":[
{"len_m":1084,"wid_m":22.86,"hdg":59,"surf":"Asphalt","rwy1":"07","lat1":49.19055600,"lon1":-84.76527800,"rwy2":"25","lat2":49.19555600,"lon2":-84.75250000}
]
,"radios":[
{"type":"CTAF","freq":122.8,"desc":"CTAF/UNICOM"}
]
,"navaids":[
{"type":"NDB","hdg_t":76.3,"dist_nm":4,"freq":329,"lat":49.20894700,"lon":-84.65883100,"rng_nm":50,"alt_fmsl":0,"id":"YHN","desc":"HORNEPAYNE NDB"},
{"type":"VOR","hdg_t":10.5,"dist_nm":35.7,"freq":112.4,"lat":49.77811111,"lon":-84.59105556,"rng_nm":130,"alt_fmsl":870,"id":"YAN","desc":"AMESON VOR-DME"},
{"type":"NDB","hdg_t":259.5,"dist_nm":45.8,"freq":219,"lat":49.04861111,"lon":-85.90083333,"rng_nm":50,"alt_fmsl":0,"id":"YMG","desc":"MANITOUWADGE NDB"},
{"type":"NDB","hdg_t":54.5,"dist_nm":49.4,"freq":241,"lat":49.66673600,"lon":-83.72520000,"rng_nm":50,"alt_fmsl":0,"id":"HF","desc":"HEARST NDB"},
{"type":"VOR","hdg_t":247,"dist_nm":67.6,"freq":115.9,"lat":48.74338889,"lon":-86.32744444,"rng_nm":130,"alt_fmsl":1200,"id":"YSP","desc":"MARATHON VOR-DME"},
{"type":"NDB","hdg_t":179.4,"dist_nm":70.3,"freq":205,"lat":48.02113889,"lon":-84.74358333,"rng_nm":50,"alt_fmsl":0,"id":"XZ","desc":"WAWA NDB"},
{"type":"VOR","hdg_t":181.9,"dist_nm":74.6,"freq":112.7,"lat":47.95066667,"lon":-84.82280556,"rng_nm":130,"alt_fmsl":1263,"id":"YXZ","desc":"WAWA VOR-DME"},
{"type":"NDB","hdg_t":78.6,"dist_nm":89.9,"freq":341,"lat":49.46472222,"lon":-82.50583333,"rng_nm":50,"alt_fmsl":0,"id":"YYU","desc":"KASING NDB"},
{"type":"SDME","hdg_t":80.8,"dist_nm":91,"freq":109.3,"lat":49.41201400,"lon":-82.46488300,"rng_nm":25,"alt_fmsl":750,"id":"YU","desc":"KAPUSKASING DME"},
{"type":"NDB","hdg_t":292.7,"dist_nm":93.2,"freq":362,"lat":49.77227200,"lon":-86.97139700,"rng_nm":50,"alt_fmsl":1144,"id":"C7","desc":"GERALDTON NDB"},
{"type":"VOR","hdg_t":292.5,"dist_nm":93.7,"freq":114.2,"lat":49.76972222,"lon":-86.98433333,"rng_nm":130,"alt_fmsl":1201,"id":"YGQ","desc":"GERALDTON VOR-DME"},
{"type":"NDB","hdg_t":309.8,"dist_nm":93.9,"freq":233,"lat":50.18000000,"lon":-86.62916667,"rng_nm":50,"alt_fmsl":0,"id":"QN","desc":"NAKINA NDB"},
{"type":"NDB","hdg_t":256.7,"dist_nm":97.9,"freq":250,"lat":48.79504200,"lon":-87.16167500,"rng_nm":25,"alt_fmsl":0,"id":"YTJ","desc":"TERRACE BAY NDB"}
]
}
