{"success":true,"source":"xp2csv.pl","last_updated":"2013/11/08 14:53:21 UTC"
,"icao":"CYIF","name":"St Augustin","lat":51.211666,"lon":-58.658333,"rwys":1,"ils":1,"index":1991497,"path":"w060n50/w059n51"
,"runways":[
{"len_m":1399,"wid_m":30.48,"hdg":352,"surf":"Asphalt","rwy1":"02","lat1":51.20542700,"lon1":-58.65709000,"rwy2":"20","lat2":51.21790500,"lon2":-58.65957600}
]
,"radios":[
{"type":"CTAF","freq":123.5,"desc":"CTAF/UNICOM"}
]
,"ils":[
{"type":"LOC","freq":108.7,"lat":51.20333300,"lon":-58.65500000,"rng_nm":18,"alt_fmsl":20,"id":"IIF","rwy":"20","desc":"LOC"}
]
,"navaids":[
{"type":"SDME","hdg_t":169.4,"dist_nm":0.7,"freq":108.7,"lat":51.19944400,"lon":-58.65472200,"rng_nm":25,"alt_fmsl":33,"id":"IIF","desc":"ST-AUGUSTIN DME"},
{"type":"NDB","hdg_t":170,"dist_nm":1.3,"freq":201,"lat":51.18888889,"lon":-58.65194444,"rng_nm":50,"alt_fmsl":0,"id":"YIF","desc":"ST-AUGUSTIN NDB"},
{"type":"NDB","hdg_t":76.4,"dist_nm":56.2,"freq":220,"lat":51.42138889,"lon":-57.20305556,"rng_nm":50,"alt_fmsl":0,"id":"BX","desc":"BLANC-SABLON NDB"},
{"type":"SDME","hdg_t":75,"dist_nm":57.3,"freq":109.1,"lat":51.44920600,"lon":-57.18159200,"rng_nm":25,"alt_fmsl":121,"id":"IBX","desc":"LOURDES-DE-BLANC-SABLON DME"},
{"type":"SDME","hdg_t":220.1,"dist_nm":57.5,"freq":109.7,"lat":50.47472200,"lon":-59.62583300,"rng_nm":25,"alt_fmsl":39,"id":"IHR","desc":"CHEVERY DME"},
{"type":"NDB","hdg_t":219.9,"dist_nm":58.2,"freq":276,"lat":50.46500000,"lon":-59.63444444,"rng_nm":50,"alt_fmsl":0,"id":"YHR","desc":"CHEVERY NDB"},
{"type":"NDB","hdg_t":82.7,"dist_nm":97,"freq":356,"lat":51.38638889,"lon":-56.09638889,"rng_nm":50,"alt_fmsl":0,"id":"AY","desc":"ST ANTHONY NDB"},
{"type":"VOR","hdg_t":82.5,"dist_nm":97.5,"freq":113.7,"lat":51.39388889,"lon":-56.08388889,"rng_nm":130,"alt_fmsl":114,"id":"YAY","desc":"ST ANTHONY VOR-DME"},
{"type":"NDB","hdg_t":47.2,"dist_nm":117.9,"freq":367,"lat":52.52032200,"lon":-56.29515000,"rng_nm":25,"alt_fmsl":347,"id":"6F","desc":"PORT HOPE SIMPSON NDB"},
{"type":"NDB","hdg_t":56.7,"dist_nm":124.4,"freq":250,"lat":52.31527778,"lon":-55.83222222,"rng_nm":50,"alt_fmsl":0,"id":"YMH","desc":"MARY'S HARBOUR NDB"}
]
}
