{"success":true,"source":"xp2csv.pl","last_updated":"2013/11/08 14:53:21 UTC"
,"icao":"CYOO","name":"Oshawa","lat":43.9227775,"lon":-78.89583325,"rwys":2,"ils":1,"index":1663352,"path":"w080n40/w079n43"
,"runways":[
{"len_m":1227,"wid_m":30.48,"hdg":109,"surf":"Asphalt","rwy1":"12","lat1":43.92444400,"lon1":-78.90388900,"rwy2":"30","lat2":43.92083300,"lon2":-78.88944400},
{"len_m":815,"wid_m":30.48,"hdg":29,"surf":"Asphalt","rwy1":"04","lat1":43.91972200,"lon1":-78.89750000,"rwy2":"22","lat2":43.92611100,"lon2":-78.89250000}
]
,"radios":[
{"type":"ATIS","freq":125.67,"desc":"ATIS"},
{"type":"GND","freq":118.4,"desc":"GND"},
{"type":"TWR","freq":120.1,"desc":"MF"},
{"type":"TWR","freq":120.1,"desc":"TWR"},
{"type":"APP","freq":133.4,"desc":"TORONTO TRML"}
]
,"ils":[
{"type":"LOC","freq":111.35,"lat":43.92039100,"lon":-78.88784000,"rng_nm":18,"alt_fmsl":459,"id":"IOO","rwy":"12","desc":"LOC"}
]
,"navaids":[
{"type":"NDB","hdg_t":236.9,"dist_nm":0.2,"freq":391,"lat":43.92083333,"lon":-78.89997222,"rng_nm":50,"alt_fmsl":0,"id":"OO","desc":"OSHAWA NDB"},
{"type":"SDME","hdg_t":119.9,"dist_nm":0.5,"freq":111.35,"lat":43.91861100,"lon":-78.88583300,"rng_nm":25,"alt_fmsl":456,"id":"IOO","desc":"OSHAWA DME"},
{"type":"NDB","hdg_t":272,"dist_nm":18.7,"freq":248,"lat":43.93311111,"lon":-79.32894444,"rng_nm":50,"alt_fmsl":0,"id":"KZ","desc":"BUTTONVILLE NDB"},
{"type":"SDME","hdg_t":258.9,"dist_nm":20.6,"freq":111.1,"lat":43.85583300,"lon":-79.36333300,"rng_nm":130,"alt_fmsl":650,"id":"IKZ","desc":"BUTTONVILLE DME"},
{"type":"VOR","hdg_t":327.9,"dist_nm":22.3,"freq":117.35,"lat":44.23861111,"lon":-79.17166667,"rng_nm":130,"alt_fmsl":922,"id":"YSO","desc":"SIMCOE VOR-DME"},
{"type":"NDB","hdg_t":46.9,"dist_nm":25.5,"freq":379,"lat":44.21244444,"lon":-78.46313889,"rng_nm":50,"alt_fmsl":0,"id":"YPQ","desc":"PETERBOROUGH NDB"},
{"type":"SDME","hdg_t":231.1,"dist_nm":28.1,"freq":110.15,"lat":43.62722200,"lon":-79.39944400,"rng_nm":25,"alt_fmsl":286,"id":"ITZ","desc":"CITY CENTRE DME"},
{"type":"NDB","hdg_t":229,"dist_nm":28.2,"freq":257,"lat":43.61261111,"lon":-79.38561111,"rng_nm":50,"alt_fmsl":0,"id":"TZ","desc":"GIBRALTAR POINT NDB"},
{"type":"NDB","hdg_t":249.5,"dist_nm":31.3,"freq":385,"lat":43.73791667,"lon":-79.57147222,"rng_nm":50,"alt_fmsl":0,"id":"ZDH","desc":"REXDALE(TORONTO/L NDB"},
{"type":"NDB","hdg_t":237.5,"dist_nm":33.6,"freq":368,"lat":43.61950000,"lon":-79.54777778,"rng_nm":50,"alt_fmsl":0,"id":"ZYZ","desc":"QUEENSWAY(TORONTO NDB"},
{"type":"SDME","hdg_t":244.3,"dist_nm":33.9,"freq":109.3,"lat":43.67555600,"lon":-79.59944400,"rng_nm":25,"alt_fmsl":565,"id":"INV","desc":"TORONTO DME"},
{"type":"SDME","hdg_t":243.8,"dist_nm":35,"freq":109.1,"lat":43.66305600,"lon":-79.61861100,"rng_nm":25,"alt_fmsl":588,"id":"IJS","desc":"TORONTO DME"},
{"type":"SDME","hdg_t":244.9,"dist_nm":35.4,"freq":110.95,"lat":43.67027800,"lon":-79.63444400,"rng_nm":25,"alt_fmsl":565,"id":"ITO","desc":"TORONTO DME"},
{"type":"VOR","hdg_t":243.8,"dist_nm":35.6,"freq":112.15,"lat":43.65822222,"lon":-79.63152778,"rng_nm":130,"alt_fmsl":620,"id":"YYZ","desc":"TORONTO VOR-DME"},
{"type":"VOR","hdg_t":246,"dist_nm":36.6,"freq":116.55,"lat":43.67191667,"lon":-79.66411111,"rng_nm":130,"alt_fmsl":620,"id":"YTP","desc":"PEARSON VOR-DME"},
{"type":"NDB","hdg_t":252.8,"dist_nm":36.7,"freq":403,"lat":43.73877778,"lon":-79.70341667,"rng_nm":50,"alt_fmsl":0,"id":"ZTO","desc":"WOODHILL(TORONTO/ NDB"},
{"type":"NDB","hdg_t":242.1,"dist_nm":39,"freq":236,"lat":43.61616100,"lon":-79.68840600,"rng_nm":25,"alt_fmsl":0,"id":"ZLB","desc":"BRITANNIA NDB"},
{"type":"NDB","hdg_t":244.3,"dist_nm":40.3,"freq":341,"lat":43.62788889,"lon":-79.73113889,"rng_nm":50,"alt_fmsl":0,"id":"ZLP","desc":"MEADOWVALE(TORONT NDB"},
{"type":"SDME","hdg_t":183.3,"dist_nm":48.6,"freq":111,"lat":43.11250000,"lon":-78.96027800,"rng_nm":25,"alt_fmsl":635,"id":"IAG","desc":"NIAGARA FALLS TACAN"},
{"type":"NDB","hdg_t":177,"dist_nm":48.8,"freq":329,"lat":43.10902778,"lon":-78.83838889,"rng_nm":50,"alt_fmsl":0,"id":"IA","desc":"KATHI NDB"},
{"type":"NDB","hdg_t":198.7,"dist_nm":49,"freq":408,"lat":43.14716667,"lon":-79.25497222,"rng_nm":50,"alt_fmsl":0,"id":"SN","desc":"ST CATHERINES NDB"},
{"type":"VOR","hdg_t":315.9,"dist_nm":55.3,"freq":112.8,"lat":44.58180556,"lon":-79.79322222,"rng_nm":130,"alt_fmsl":800,"id":"YEE","desc":"MIDLAND VOR-DME"},
{"type":"NDB","hdg_t":81.4,"dist_nm":55.5,"freq":317,"lat":44.05277778,"lon":-77.62666667,"rng_nm":50,"alt_fmsl":0,"id":"ZZR","desc":"SEVERN (TRENTON) NDB"},
{"type":"VOR","hdg_t":284.1,"dist_nm":55.7,"freq":114.5,"lat":44.14316667,"lon":-80.14641667,"rng_nm":130,"alt_fmsl":1680,"id":"YMS","desc":"MANS VOR-DME"},
{"type":"NDB","hdg_t":168.9,"dist_nm":56.3,"freq":231,"lat":43.00027778,"lon":-78.65086111,"rng_nm":50,"alt_fmsl":0,"id":"BU","desc":"KLUMP NDB"},
{"type":"VOR","hdg_t":64,"dist_nm":57.1,"freq":113.5,"lat":44.33305556,"lon":-77.70283333,"rng_nm":40,"alt_fmsl":620,"id":"YCF","desc":"CAMPBELLFORD VOR-DME"},
{"type":"SDME","hdg_t":78.1,"dist_nm":60.3,"freq":109.7,"lat":44.12116100,"lon":-77.52890600,"rng_nm":130,"alt_fmsl":285,"id":"UTR","desc":"TRENTON TACAN"},
{"type":"VOR","hdg_t":169.5,"dist_nm":60.6,"freq":116.4,"lat":42.92900000,"lon":-78.64633333,"rng_nm":130,"alt_fmsl":730,"id":"BUF","desc":"BUFFALO VOR-DME"},
{"type":"NDB","hdg_t":220.3,"dist_nm":60.9,"freq":266,"lat":43.14421700,"lon":-79.79396900,"rng_nm":25,"alt_fmsl":0,"id":"ZHM","desc":"BINBROOK NDB"},
{"type":"VOR","hdg_t":44,"dist_nm":62,"freq":115.1,"lat":44.66088889,"lon":-77.88808333,"rng_nm":40,"alt_fmsl":902,"id":"VIE","desc":"COEHILL VOR-DME"},
{"type":"NDB","hdg_t":176.8,"dist_nm":63,"freq":204,"lat":42.87388889,"lon":-78.81658333,"rng_nm":50,"alt_fmsl":0,"id":"GB","desc":"PLAZZ NDB"},
{"type":"NDB","hdg_t":229,"dist_nm":65.8,"freq":397,"lat":43.19727200,"lon":-80.02869700,"rng_nm":25,"alt_fmsl":0,"id":"ZHA","desc":"ANCASTER NDB"},
{"type":"NDB","hdg_t":247.4,"dist_nm":65.8,"freq":335,"lat":43.49305556,"lon":-80.28694444,"rng_nm":50,"alt_fmsl":0,"id":"ZKF","desc":"WELLINGTON NDB"},
{"type":"NDB","hdg_t":75.3,"dist_nm":66.5,"freq":215,"lat":44.19361111,"lon":-77.40333333,"rng_nm":50,"alt_fmsl":0,"id":"YTR","desc":"TRENTON NDB"},
{"type":"NDB","hdg_t":225.6,"dist_nm":68.2,"freq":221,"lat":43.12111111,"lon":-80.00666667,"rng_nm":50,"alt_fmsl":0,"id":"HM","desc":"HAMILTON NDB"},
{"type":"NDB","hdg_t":346.1,"dist_nm":68.9,"freq":272,"lat":45.03802778,"lon":-79.28338889,"rng_nm":50,"alt_fmsl":0,"id":"YQA","desc":"MUSKOKA NDB"},
{"type":"VOR","hdg_t":247.1,"dist_nm":70.3,"freq":115,"lat":43.45858333,"lon":-80.37938889,"rng_nm":130,"alt_fmsl":1047,"id":"YWT","desc":"WATERLOO VOR-DME"},
{"type":"NDB","hdg_t":76,"dist_nm":70.5,"freq":283,"lat":44.19505000,"lon":-77.30834400,"rng_nm":25,"alt_fmsl":320,"id":"6M","desc":"BELLEVILLE NDB"},
{"type":"VOR","hdg_t":131.6,"dist_nm":71.9,"freq":110,"lat":43.11797222,"lon":-77.67280556,"rng_nm":40,"alt_fmsl":549,"id":"ROC","desc":"ROCHESTER VOR-DME"},
{"type":"NDB","hdg_t":137.6,"dist_nm":73.6,"freq":344,"lat":43.00991667,"lon":-77.76927778,"rng_nm":50,"alt_fmsl":0,"id":"AVN","desc":"AVON NDB"},
{"type":"NDB","hdg_t":128.7,"dist_nm":75.5,"freq":400,"lat":43.12652778,"lon":-77.55394444,"rng_nm":50,"alt_fmsl":0,"id":"RO","desc":"BREIT NDB"},
{"type":"VOR","hdg_t":141.6,"dist_nm":82.7,"freq":108.2,"lat":42.83438889,"lon":-77.73275000,"rng_nm":40,"alt_fmsl":990,"id":"GEE","desc":"GENESEO VOR-DME"},
{"type":"NDB","hdg_t":233,"dist_nm":83.6,"freq":207,"lat":43.07333333,"lon":-80.41611111,"rng_nm":50,"alt_fmsl":0,"id":"FD","desc":"BRANTFORD NDB"},
{"type":"VOR","hdg_t":191,"dist_nm":87.5,"freq":116.2,"lat":42.49055556,"lon":-79.27411111,"rng_nm":130,"alt_fmsl":680,"id":"DKK","desc":"DUNKIRK VORTAC"},
{"type":"NDB","hdg_t":333.7,"dist_nm":90.2,"freq":353,"lat":45.26888889,"lon":-79.83666667,"rng_nm":50,"alt_fmsl":0,"id":"F7","desc":"GEORGIAN BAY NDB"},
{"type":"NDB","hdg_t":279.4,"dist_nm":94.7,"freq":268,"lat":44.16222222,"lon":-81.06055556,"rng_nm":50,"alt_fmsl":0,"id":"S7","desc":"HANOVER NDB"}
]
}
