{"success":true,"source":"xp2csv.pl","last_updated":"2013/11/08 14:53:21 UTC"
,"icao":"CYOS","name":"Billy Bishop Rgnl","lat":44.590417,"lon":-80.837639,"rwys":1,"ils":0,"index":1630624,"path":"w090n40/w081n44"
,"runways":[
{"len_m":1159,"wid_m":22.86,"hdg":170,"surf":"Asphalt","rwy1":"18","lat1":44.59555600,"lon1":-80.83888900,"rwy2":"36","lat2":44.58527800,"lon2":-80.83638900}
]
,"radios":[
{"type":"CTAF","freq":123,"desc":"CTAF/UNICOM"}
]
,"navaids":[
{"type":"VOR","hdg_t":309,"dist_nm":14.7,"freq":117.7,"lat":44.74477778,"lon":-81.10541667,"rng_nm":130,"alt_fmsl":730,"id":"YVV","desc":"WIARTON VOR-DME"},
{"type":"NDB","hdg_t":293.9,"dist_nm":16,"freq":326,"lat":44.69805556,"lon":-81.17972222,"rng_nm":50,"alt_fmsl":0,"id":"VV","desc":"WIARTON NDB"},
{"type":"NDB","hdg_t":200.5,"dist_nm":27.4,"freq":268,"lat":44.16222222,"lon":-81.06055556,"rng_nm":50,"alt_fmsl":0,"id":"S7","desc":"HANOVER NDB"},
{"type":"VOR","hdg_t":131.8,"dist_nm":40,"freq":114.5,"lat":44.14316667,"lon":-80.14641667,"rng_nm":130,"alt_fmsl":1680,"id":"YMS","desc":"MANS VOR-DME"},
{"type":"NDB","hdg_t":235,"dist_nm":40.3,"freq":350,"lat":44.20333333,"lon":-81.60333333,"rng_nm":50,"alt_fmsl":0,"id":"D7","desc":"KINCARDINE NDB"},
{"type":"VOR","hdg_t":90.2,"dist_nm":44.7,"freq":112.8,"lat":44.58180556,"lon":-79.79322222,"rng_nm":130,"alt_fmsl":800,"id":"YEE","desc":"MIDLAND VOR-DME"},
{"type":"NDB","hdg_t":45.9,"dist_nm":58.9,"freq":353,"lat":45.26888889,"lon":-79.83666667,"rng_nm":50,"alt_fmsl":0,"id":"F7","desc":"GEORGIAN BAY NDB"},
{"type":"NDB","hdg_t":217.6,"dist_nm":63.6,"freq":261,"lat":43.74638889,"lon":-81.73083333,"rng_nm":50,"alt_fmsl":0,"id":"GD","desc":"GODERICH NDB"},
{"type":"NDB","hdg_t":159.9,"dist_nm":70,"freq":335,"lat":43.49305556,"lon":-80.28694444,"rng_nm":50,"alt_fmsl":0,"id":"ZKF","desc":"WELLINGTON NDB"},
{"type":"NDB","hdg_t":135.8,"dist_nm":70.7,"freq":403,"lat":43.73877778,"lon":-79.70341667,"rng_nm":50,"alt_fmsl":0,"id":"ZTO","desc":"WOODHILL(TORONTO/ NDB"},
{"type":"VOR","hdg_t":163.5,"dist_nm":70.7,"freq":115,"lat":43.45858333,"lon":-80.37938889,"rng_nm":130,"alt_fmsl":1047,"id":"YWT","desc":"WATERLOO VOR-DME"},
{"type":"NDB","hdg_t":67.4,"dist_nm":71.6,"freq":272,"lat":45.03802778,"lon":-79.28338889,"rng_nm":50,"alt_fmsl":0,"id":"YQA","desc":"MUSKOKA NDB"},
{"type":"VOR","hdg_t":105.8,"dist_nm":74.6,"freq":117.35,"lat":44.23861111,"lon":-79.17166667,"rng_nm":130,"alt_fmsl":922,"id":"YSO","desc":"SIMCOE VOR-DME"},
{"type":"NDB","hdg_t":132.6,"dist_nm":74.8,"freq":385,"lat":43.73791667,"lon":-79.57147222,"rng_nm":50,"alt_fmsl":0,"id":"ZDH","desc":"REXDALE(TORONTO/L NDB"},
{"type":"VOR","hdg_t":136.9,"dist_nm":74.8,"freq":116.55,"lat":43.67191667,"lon":-79.66411111,"rng_nm":130,"alt_fmsl":620,"id":"YTP","desc":"PEARSON VOR-DME"},
{"type":"NDB","hdg_t":139.9,"dist_nm":74.9,"freq":341,"lat":43.62788889,"lon":-79.73113889,"rng_nm":50,"alt_fmsl":0,"id":"ZLP","desc":"MEADOWVALE(TORONT NDB"},
{"type":"SDME","hdg_t":136.2,"dist_nm":75.8,"freq":110.95,"lat":43.67027800,"lon":-79.63444400,"rng_nm":25,"alt_fmsl":565,"id":"ITO","desc":"TORONTO DME"},
{"type":"NDB","hdg_t":120.6,"dist_nm":76,"freq":248,"lat":43.93311111,"lon":-79.32894444,"rng_nm":50,"alt_fmsl":0,"id":"KZ","desc":"BUTTONVILLE NDB"},
{"type":"VOR","hdg_t":136.5,"dist_nm":76.4,"freq":112.15,"lat":43.65822222,"lon":-79.63152778,"rng_nm":130,"alt_fmsl":620,"id":"YYZ","desc":"TORONTO VOR-DME"},
{"type":"SDME","hdg_t":136.1,"dist_nm":76.6,"freq":109.1,"lat":43.66305600,"lon":-79.61861100,"rng_nm":25,"alt_fmsl":588,"id":"IJS","desc":"TORONTO DME"},
{"type":"SDME","hdg_t":135.2,"dist_nm":76.6,"freq":109.3,"lat":43.67555600,"lon":-79.59944400,"rng_nm":25,"alt_fmsl":565,"id":"INV","desc":"TORONTO DME"},
{"type":"NDB","hdg_t":139.2,"dist_nm":76.7,"freq":236,"lat":43.61616100,"lon":-79.68840600,"rng_nm":25,"alt_fmsl":0,"id":"ZLB","desc":"BRITANNIA NDB"},
{"type":"SDME","hdg_t":124.2,"dist_nm":77.3,"freq":111.1,"lat":43.85583300,"lon":-79.36333300,"rng_nm":130,"alt_fmsl":650,"id":"IKZ","desc":"BUTTONVILLE DME"},
{"type":"NDB","hdg_t":135.8,"dist_nm":80.6,"freq":368,"lat":43.61950000,"lon":-79.54777778,"rng_nm":50,"alt_fmsl":0,"id":"ZYZ","desc":"QUEENSWAY(TORONTO NDB"},
{"type":"SDME","hdg_t":132.4,"dist_nm":84.8,"freq":110.15,"lat":43.62722200,"lon":-79.39944400,"rng_nm":25,"alt_fmsl":286,"id":"ITZ","desc":"CITY CENTRE DME"},
{"type":"NDB","hdg_t":132.5,"dist_nm":85.9,"freq":257,"lat":43.61261111,"lon":-79.38561111,"rng_nm":50,"alt_fmsl":0,"id":"TZ","desc":"GIBRALTAR POINT NDB"},
{"type":"NDB","hdg_t":330.5,"dist_nm":86.5,"freq":388,"lat":45.84147222,"lon":-81.85269444,"rng_nm":50,"alt_fmsl":0,"id":"H7","desc":"MANITOULIN EAST NDB"},
{"type":"NDB","hdg_t":156.9,"dist_nm":90.6,"freq":397,"lat":43.19727200,"lon":-80.02869700,"rng_nm":25,"alt_fmsl":0,"id":"ZHA","desc":"ANCASTER NDB"},
{"type":"NDB","hdg_t":190.5,"dist_nm":91.4,"freq":382,"lat":43.09175000,"lon":-81.21869444,"rng_nm":50,"alt_fmsl":0,"id":"XU","desc":"LONDON NDB"},
{"type":"NDB","hdg_t":115,"dist_nm":92.7,"freq":391,"lat":43.92083333,"lon":-78.89997222,"rng_nm":50,"alt_fmsl":0,"id":"OO","desc":"OSHAWA NDB"},
{"type":"NDB","hdg_t":168.4,"dist_nm":92.8,"freq":207,"lat":43.07333333,"lon":-80.41611111,"rng_nm":50,"alt_fmsl":0,"id":"FD","desc":"BRANTFORD NDB"},
{"type":"SDME","hdg_t":114.9,"dist_nm":93.3,"freq":111.35,"lat":43.91861100,"lon":-78.88583300,"rng_nm":25,"alt_fmsl":456,"id":"IOO","desc":"OSHAWA DME"},
{"type":"VOR","hdg_t":188.3,"dist_nm":94.1,"freq":117.2,"lat":43.03811111,"lon":-81.14847222,"rng_nm":130,"alt_fmsl":910,"id":"YXU","desc":"LONDON VOR-DME"},
{"type":"NDB","hdg_t":157.4,"dist_nm":95.2,"freq":221,"lat":43.12111111,"lon":-80.00666667,"rng_nm":50,"alt_fmsl":0,"id":"HM","desc":"HAMILTON NDB"},
{"type":"NDB","hdg_t":186.5,"dist_nm":97,"freq":201,"lat":42.98233333,"lon":-81.08869444,"rng_nm":50,"alt_fmsl":0,"id":"ZXU","desc":"THAMES NDB"},
{"type":"NDB","hdg_t":152,"dist_nm":97.8,"freq":266,"lat":43.14421700,"lon":-79.79396900,"rng_nm":25,"alt_fmsl":0,"id":"ZHM","desc":"BINBROOK NDB"}
]
}
