{"success":true,"source":"xp2csv.pl","last_updated":"2013/11/08 14:53:21 UTC"
,"icao":"CYPD","name":"Port Hawkesbury","lat":45.6565095,"lon":-61.368368,"rwys":1,"ils":0,"index":1941994,"path":"w070n40/w062n45"
,"runways":[
{"len_m":1524,"wid_m":45.72,"hdg":90,"surf":"Asphalt","rwy1":"11","lat1":45.65653300,"lon1":-61.37814700,"rwy2":"29","lat2":45.65648600,"lon2":-61.35858900}
]
,"radios":[
{"type":"CTAF","freq":122.8,"desc":"CTAF/UNICOM"}
]
,"navaids":[
{"type":"NDB","hdg_t":90.9,"dist_nm":4.1,"freq":229,"lat":45.65527778,"lon":-61.26944444,"rng_nm":50,"alt_fmsl":0,"id":"PD","desc":"PORT HAWKESBURY NDB"},
{"type":"NDB","hdg_t":267.5,"dist_nm":52.9,"freq":338,"lat":45.61166667,"lon":-62.62527778,"rng_nm":50,"alt_fmsl":317,"id":"5Y","desc":"TRENTON NDB"},
{"type":"NDB","hdg_t":62,"dist_nm":58.4,"freq":219,"lat":46.10645600,"lon":-60.13090000,"rng_nm":25,"alt_fmsl":0,"id":"ZQY","desc":"BRAS D OR NDB"},
{"type":"VOR","hdg_t":61,"dist_nm":62.5,"freq":114.9,"lat":46.15336111,"lon":-60.05577778,"rng_nm":130,"alt_fmsl":258,"id":"YQY","desc":"SYDNEY VOR-DME"},
{"type":"NDB","hdg_t":57.3,"dist_nm":64.5,"freq":201,"lat":46.22950800,"lon":-60.06451400,"rng_nm":25,"alt_fmsl":0,"id":"ZYD","desc":"GLACE BAY NDB"},
{"type":"NDB","hdg_t":59.7,"dist_nm":67.1,"freq":263,"lat":46.21138889,"lon":-59.97555556,"rng_nm":50,"alt_fmsl":0,"id":"QY","desc":"SYDNEY NDB"},
{"type":"NDB","hdg_t":293.9,"dist_nm":81.1,"freq":347,"lat":46.19229400,"lon":-63.14819700,"rng_nm":50,"alt_fmsl":0,"id":"YG","desc":"CHARLOTTETOWN NDB"},
{"type":"VOR","hdg_t":298.3,"dist_nm":82.7,"freq":113.8,"lat":46.29750000,"lon":-63.11972222,"rng_nm":130,"alt_fmsl":212,"id":"YYG","desc":"CHARLOTTETOWN VOR-DME"},
{"type":"NDB","hdg_t":300.3,"dist_nm":83.9,"freq":400,"lat":46.34979200,"lon":-63.11208600,"rng_nm":25,"alt_fmsl":0,"id":"ZYG","desc":"CAVENDISH NDB"},
{"type":"NDB","hdg_t":261.6,"dist_nm":89.3,"freq":239,"lat":45.42203100,"lon":-63.45958900,"rng_nm":25,"alt_fmsl":142,"id":"8F","desc":"DEBERT NDB"},
{"type":"NDB","hdg_t":245.3,"dist_nm":96.5,"freq":385,"lat":44.96666667,"lon":-63.42722222,"rng_nm":50,"alt_fmsl":0,"id":"ZNS","desc":"BLUENOSE(HALIFAX NDB"},
{"type":"VOR","hdg_t":243.6,"dist_nm":96.7,"freq":115.1,"lat":44.92313889,"lon":-63.40183333,"rng_nm":130,"alt_fmsl":604,"id":"YHZ","desc":"HALIFAX VOR-DME"}
]
}
