{"success":true,"source":"xp2csv.pl","last_updated":"2013/11/08 14:53:21 UTC"
,"icao":"CYPU","name":"Puntzi Mountain","lat":52.1128335,"lon":-124.144767,"rwys":1,"ils":0,"index":910211,"path":"w130n50/w125n52"
,"runways":[
{"len_m":1832,"wid_m":76.20,"hdg":66,"surf":"Asphalt","rwy1":"05","lat1":52.10960000,"lon1":-124.15706700,"rwy2":"23","lat2":52.11606700,"lon2":-124.13246700}
]
,"radios":[
{"type":"CTAF","freq":126.7,"desc":"WILLIAMS LAKE RDO"}
]
,"navaids":[
{"type":"NDB","hdg_t":293.2,"dist_nm":41.4,"freq":200,"lat":52.38058333,"lon":-125.18036111,"rng_nm":50,"alt_fmsl":0,"id":"UAB","desc":"ANAHIM LAKE NDB"},
{"type":"VOR","hdg_t":83.3,"dist_nm":73.3,"freq":113.6,"lat":52.23711111,"lon":-122.16886111,"rng_nm":130,"alt_fmsl":3662,"id":"YWL","desc":"WILLIAMS LAKE VOR-DME"},
{"type":"NDB","hdg_t":49.3,"dist_nm":79.2,"freq":359,"lat":52.96063889,"lon":-122.48611111,"rng_nm":50,"alt_fmsl":0,"id":"YQZ","desc":"QUESNEL NDB"},
{"type":"NDB","hdg_t":88.1,"dist_nm":80.3,"freq":385,"lat":52.13666667,"lon":-121.97333333,"rng_nm":50,"alt_fmsl":0,"id":"WL","desc":"WILLIAMS LAKE NDB"},
{"type":"SDME","hdg_t":100.9,"dist_nm":106.6,"freq":116.2,"lat":51.74222200,"lon":-121.33777800,"rng_nm":50,"alt_fmsl":3164,"id":"J7","desc":"ONE HUNDRED EIGHT MILE NDB-DME"},
{"type":"NDB","hdg_t":100.9,"dist_nm":106.6,"freq":285,"lat":51.74333300,"lon":-121.33694400,"rng_nm":50,"alt_fmsl":3164,"id":"J7","desc":"ONE HUNDRED EIGHT MILE NDB-DME"},
{"type":"NDB","hdg_t":27,"dist_nm":116.3,"freq":272,"lat":53.82825000,"lon":-122.65402778,"rng_nm":50,"alt_fmsl":0,"id":"XS","desc":"PRINCE GEORGE NDB"},
{"type":"NDB","hdg_t":24.7,"dist_nm":123.2,"freq":260,"lat":53.96750000,"lon":-122.69000000,"rng_nm":25,"alt_fmsl":0,"id":"ZXS","desc":"NORTHWOOD NDB"},
{"type":"VOR","hdg_t":29,"dist_nm":123.2,"freq":112.3,"lat":53.89430556,"lon":-122.45647222,"rng_nm":130,"alt_fmsl":4078,"id":"YXS","desc":"PRINCE GEORGE VOR-DME"},
{"type":"NDB","hdg_t":200.4,"dist_nm":134.5,"freq":203,"lat":50.00644444,"lon":-125.35750000,"rng_nm":50,"alt_fmsl":0,"id":"YBL","desc":"CAMPBELL RIVER NDB"}
]
}
