{"success":true,"source":"xp2csv.pl","last_updated":"2013/11/08 14:53:21 UTC"
,"icao":"CYVO","name":"Val D Or","lat":48.053286,"lon":-77.7826595,"rwys":1,"ils":0,"index":1680000,"path":"w080n40/w078n48"
,"runways":[
{"len_m":3048,"wid_m":45.72,"hdg":169,"surf":"Asphalt","rwy1":"18","lat1":48.06674700,"lon1":-77.78652200,"rwy2":"36","lat2":48.03982500,"lon2":-77.77879700}
]
,"radios":[
{"type":"TWR","freq":118.5,"desc":"MF"}
]
,"navaids":[
{"type":"NDB","hdg_t":295.4,"dist_nm":0.4,"freq":239,"lat":48.05669400,"lon":-77.79334200,"rng_nm":50,"alt_fmsl":1106,"id":"VO","desc":"VAL D OR NDB"},
{"type":"VOR","hdg_t":348.3,"dist_nm":7.4,"freq":113.7,"lat":48.17527778,"lon":-77.82027778,"rng_nm":130,"alt_fmsl":1112,"id":"YVO","desc":"VAL-D'OR VOR-DME"},
{"type":"NDB","hdg_t":328.8,"dist_nm":35.4,"freq":291,"lat":48.55750000,"lon":-78.24305556,"rng_nm":50,"alt_fmsl":0,"id":"9Q","desc":"AMOS NDB"},
{"type":"SDME","hdg_t":283.2,"dist_nm":42.6,"freq":109.9,"lat":48.21111100,"lon":-78.81833300,"rng_nm":25,"alt_fmsl":1004,"id":"IUY","desc":"ROUYN DME"},
{"type":"NDB","hdg_t":279.2,"dist_nm":47,"freq":218,"lat":48.17288889,"lon":-78.93858333,"rng_nm":50,"alt_fmsl":0,"id":"YUY","desc":"ROUYN NDB"},
{"type":"NDB","hdg_t":26.9,"dist_nm":66.4,"freq":261,"lat":49.03722200,"lon":-77.02083300,"rng_nm":25,"alt_fmsl":0,"id":"2H","desc":"LEBEL SUR QUEVILLON NDB"},
{"type":"NDB","hdg_t":242,"dist_nm":75.6,"freq":230,"lat":47.45194444,"lon":-79.42416667,"rng_nm":50,"alt_fmsl":0,"id":"YBM","desc":"ST BRUNO DE GUIGU NDB"},
{"type":"NDB","hdg_t":313.2,"dist_nm":75.8,"freq":405,"lat":48.91063889,"lon":-79.17897222,"rng_nm":50,"alt_fmsl":0,"id":"7L","desc":"LA SARRE NDB"},
{"type":"NDB","hdg_t":256.5,"dist_nm":83.6,"freq":257,"lat":47.71200000,"lon":-79.79116667,"rng_nm":50,"alt_fmsl":0,"id":"YXR","desc":"EARLTON NDB"},
{"type":"NDB","hdg_t":277.8,"dist_nm":84.5,"freq":201,"lat":48.22694444,"lon":-79.86972222,"rng_nm":50,"alt_fmsl":0,"id":"YKX","desc":"KIRKLAND/LAKE ON NDB"}
]
}
