{"success":true,"source":"xp2csv.pl","last_updated":"2013/11/08 14:53:21 UTC"
,"icao":"CYWO","name":"Lupin","lat":65.755501,"lon":-111.25,"rwys":1,"ils":0,"index":1124081,"path":"w120n60/w112n65"
,"runways":[
{"len_m":1957,"wid_m":45.72,"hdg":14,"surf":"Gravel","rwy1":"01","lat1":65.74698419,"lon1":-111.25517125,"rwy2":"19","lat2":65.76401781,"lon2":-111.24482875}
]
,"navaids":[
{"type":"NDB","hdg_t":107.7,"dist_nm":0.3,"freq":205,"lat":65.75388900,"lon":-111.23777800,"rng_nm":25,"alt_fmsl":1608,"id":"YWO","desc":"LUPIN NDB"},
{"type":"NDB","hdg_t":165.4,"dist_nm":65.6,"freq":350,"lat":64.69805600,"lon":-110.60916700,"rng_nm":50,"alt_fmsl":1540,"id":"4A","desc":"KOALA NDB-DME"},
{"type":"SDME","hdg_t":165.4,"dist_nm":65.6,"freq":111.8,"lat":64.69805600,"lon":-110.60916700,"rng_nm":50,"alt_fmsl":1540,"id":"4A","desc":"KOALA NDB-DME"},
{"type":"NDB","hdg_t":161.8,"dist_nm":78.6,"freq":382,"lat":64.51000000,"lon":-110.30666700,"rng_nm":25,"alt_fmsl":0,"id":"2Z","desc":"DIAVIK NDB"},
{"type":"SDME","hdg_t":161.9,"dist_nm":78.7,"freq":111.25,"lat":64.50833300,"lon":-110.30666700,"rng_nm":25,"alt_fmsl":1413,"id":"2Z","desc":"DIAVIK DME"},
{"type":"NDB","hdg_t":325.4,"dist_nm":154.3,"freq":372,"lat":67.82111111,"lon":-115.09805556,"rng_nm":50,"alt_fmsl":0,"id":"YCO","desc":"COPPERMINE NDB"},
{"type":"NDB","hdg_t":182.2,"dist_nm":190.3,"freq":264,"lat":62.59472200,"lon":-111.51888900,"rng_nm":50,"alt_fmsl":570,"id":"A1","desc":"TALTHEILEI NARROWS NDB"},
{"type":"NDB","hdg_t":289.5,"dist_nm":212.3,"freq":367,"lat":66.70888900,"lon":-119.67222200,"rng_nm":50,"alt_fmsl":562,"id":"D1","desc":"GREAT BEAR LAKE NDB"},
{"type":"VOR","hdg_t":204.3,"dist_nm":215,"freq":115.5,"lat":62.46500000,"lon":-114.43666667,"rng_nm":130,"alt_fmsl":712,"id":"YZF","desc":"YELLOWKNIFE VORTAC"},
{"type":"NDB","hdg_t":204,"dist_nm":218,"freq":356,"lat":62.41055556,"lon":-114.43444444,"rng_nm":50,"alt_fmsl":0,"id":"ZF","desc":"YELLOWKNIFE NDB"}
]
}
