{"success":true,"source":"xp2csv.pl","last_updated":"2013/11/08 14:53:21 UTC"
,"icao":"CYYH","name":"Taloyoak","lat":69.546111,"lon":-93.576113,"rwys":1,"ils":0,"index":1419232,"path":"w100n60/w094n69"
,"runways":[
{"len_m":1225,"wid_m":30.48,"hdg":151,"surf":"Gravel","rwy1":"15T","lat1":69.55095300,"lon1":-93.58352400,"rwy2":"33T","lat2":69.54126900,"lon2":-93.56870200}
]
,"radios":[
{"type":"CTAF","freq":122.1,"desc":"MANDATORY FREQ"}
]
,"navaids":[
{"type":"NDB","hdg_t":104.9,"dist_nm":1.1,"freq":290,"lat":69.54138889,"lon":-93.52555556,"rng_nm":50,"alt_fmsl":0,"id":"YYH","desc":"TALOYOAK NDB"},
{"type":"NDB","hdg_t":222.6,"dist_nm":74,"freq":236,"lat":68.62611111,"lon":-95.85833333,"rng_nm":50,"alt_fmsl":0,"id":"YHK","desc":"GJOA HAVEN NDB"},
{"type":"NDB","hdg_t":124.9,"dist_nm":101.8,"freq":263,"lat":68.53500000,"lon":-89.78777778,"rng_nm":50,"alt_fmsl":0,"id":"YBB","desc":"KUGAARUK NDB"},
{"type":"NDB","hdg_t":269.2,"dist_nm":244.4,"freq":245,"lat":69.11477778,"lon":-105.01591667,"rng_nm":50,"alt_fmsl":0,"id":"CB","desc":"CAMBRIDGE BAY NDB"},
{"type":"NDB","hdg_t":134.2,"dist_nm":245.3,"freq":335,"lat":66.52833333,"lon":-86.24222222,"rng_nm":50,"alt_fmsl":0,"id":"YUT","desc":"REPULSE BAY NDB"},
{"type":"NDB","hdg_t":269.2,"dist_nm":246.7,"freq":327,"lat":69.10194400,"lon":-105.11666700,"rng_nm":25,"alt_fmsl":90,"id":"MG","desc":"WEST ARM NDB"},
{"type":"VOR","hdg_t":269.4,"dist_nm":247.7,"freq":112.7,"lat":69.11727778,"lon":-105.17272222,"rng_nm":40,"alt_fmsl":92,"id":"YCB","desc":"CAMBRIDGE BAY VOR-DME"},
{"type":"NDB","hdg_t":86.7,"dist_nm":248.7,"freq":241,"lat":69.37940300,"lon":-81.80782800,"rng_nm":50,"alt_fmsl":174,"id":"YGT","desc":"IGLOOLIK NDB"},
{"type":"NDB","hdg_t":94.2,"dist_nm":267.9,"freq":378,"lat":68.76722222,"lon":-81.25638889,"rng_nm":50,"alt_fmsl":0,"id":"UX","desc":"HALL BEACH NDB"},
{"type":"VOR","hdg_t":94.1,"dist_nm":268,"freq":117.3,"lat":68.77833333,"lon":-81.23938889,"rng_nm":130,"alt_fmsl":23,"id":"YUX","desc":"HALL BEACH VOR-DME"}
]
}
