{"success":true,"source":"xp2csv.pl","last_updated":"2013/11/08 14:53:21 UTC"
,"icao":"CYYW","name":"Armstrong","lat":50.29339675,"lon":-88.913465,"rwys":2,"ils":0,"index":1499920,"path":"w090n50/w089n50"
,"runways":[
{"len_m":1219,"wid_m":30.48,"hdg":116,"surf":"Asphalt","rwy1":"12","lat1":50.29914200,"lon1":-88.92496900,"rwy2":"30","lat2":50.29416700,"lon2":-88.90972200},
{"len_m":896,"wid_m":30.48,"hdg":178,"surf":"Asphalt","rwy1":"18","lat1":50.29416700,"lon1":-88.90972200,"rwy2":"36","lat2":50.28611100,"lon2":-88.90944700}
]
,"radios":[
{"type":"CTAF","freq":122.8,"desc":"CTAF"}
]
,"navaids":[
{"type":"NDB","hdg_t":281.6,"dist_nm":4.2,"freq":223,"lat":50.30772222,"lon":-89.02216667,"rng_nm":50,"alt_fmsl":0,"id":"YYW","desc":"ARMSTRONG NDB"},
{"type":"VOR","hdg_t":112.1,"dist_nm":80.9,"freq":114.2,"lat":49.76972222,"lon":-86.98433333,"rng_nm":130,"alt_fmsl":1201,"id":"YGQ","desc":"GERALDTON VOR-DME"},
{"type":"NDB","hdg_t":111.8,"dist_nm":81.3,"freq":362,"lat":49.77227200,"lon":-86.97139700,"rng_nm":50,"alt_fmsl":1144,"id":"C7","desc":"GERALDTON NDB"},
{"type":"NDB","hdg_t":324.7,"dist_nm":85,"freq":382,"lat":51.44188889,"lon":-90.22222222,"rng_nm":50,"alt_fmsl":0,"id":"YPL","desc":"PICKLE LAKE NDB"},
{"type":"SDME","hdg_t":324.7,"dist_nm":85.1,"freq":113.7,"lat":51.44305600,"lon":-90.22361100,"rng_nm":25,"alt_fmsl":1261,"id":"PL","desc":"PICKLE LAKE DME"},
{"type":"NDB","hdg_t":26.1,"dist_nm":85.3,"freq":266,"lat":51.56444400,"lon":-87.91111100,"rng_nm":25,"alt_fmsl":905,"id":"YFH","desc":"FORT HOPE NDB"},
{"type":"NDB","hdg_t":93.5,"dist_nm":88.2,"freq":233,"lat":50.18000000,"lon":-86.62916667,"rng_nm":50,"alt_fmsl":0,"id":"QN","desc":"NAKINA NDB"},
{"type":"NDB","hdg_t":142,"dist_nm":113,"freq":250,"lat":48.79504200,"lon":-87.16167500,"rng_nm":25,"alt_fmsl":0,"id":"YTJ","desc":"TERRACE BAY NDB"},
{"type":"NDB","hdg_t":186.2,"dist_nm":114.6,"freq":263,"lat":48.39583333,"lon":-89.22388889,"rng_nm":50,"alt_fmsl":0,"id":"ZQT","desc":"SUPERIOR NDB"},
{"type":"NDB","hdg_t":265.9,"dist_nm":115.5,"freq":346,"lat":50.11827778,"lon":-91.89780556,"rng_nm":50,"alt_fmsl":0,"id":"YXL","desc":"SIOUX LOOKOUT NDB"}
]
}
