{"success":true,"source":"xp2csv.pl","last_updated":"2013/11/08 14:53:21 UTC"
,"icao":"CYZD","name":"Downsview","lat":43.74291675,"lon":-79.46652775,"rwys":2,"ils":0,"index":1646954,"path":"w080n40/w080n43"
,"runways":[
{"len_m":2121,"wid_m":60.96,"hdg":139,"surf":"Asphalt","rwy1":"15","lat1":43.74972200,"lon1":-79.47416700,"rwy2":"33","lat2":43.73527800,"lon2":-79.45694400},
{"len_m":957,"wid_m":45.72,"hdg":78,"surf":"Asphalt","rwy1":"09","lat1":43.74250000,"lon1":-79.47333300,"rwy2":"27","lat2":43.74416700,"lon2":-79.46166700}
]
,"radios":[
{"type":"TWR","freq":126.2,"desc":"MF/UNICOM"},
{"type":"APP","freq":133.4,"desc":"TORONTO TRML"}
]
,"navaids":[
{"type":"NDB","hdg_t":266.2,"dist_nm":4.5,"freq":385,"lat":43.73791667,"lon":-79.57147222,"rng_nm":50,"alt_fmsl":0,"id":"ZDH","desc":"REXDALE(TORONTO/L NDB"},
{"type":"SDME","hdg_t":235.1,"dist_nm":7,"freq":109.3,"lat":43.67555600,"lon":-79.59944400,"rng_nm":25,"alt_fmsl":565,"id":"INV","desc":"TORONTO DME"},
{"type":"SDME","hdg_t":157.1,"dist_nm":7.5,"freq":110.15,"lat":43.62722200,"lon":-79.39944400,"rng_nm":25,"alt_fmsl":286,"id":"ITZ","desc":"CITY CENTRE DME"},
{"type":"SDME","hdg_t":33.4,"dist_nm":8.1,"freq":111.1,"lat":43.85583300,"lon":-79.36333300,"rng_nm":130,"alt_fmsl":650,"id":"IKZ","desc":"BUTTONVILLE DME"},
{"type":"SDME","hdg_t":234.1,"dist_nm":8.1,"freq":109.1,"lat":43.66305600,"lon":-79.61861100,"rng_nm":25,"alt_fmsl":588,"id":"IJS","desc":"TORONTO DME"},
{"type":"NDB","hdg_t":205.5,"dist_nm":8.2,"freq":368,"lat":43.61950000,"lon":-79.54777778,"rng_nm":50,"alt_fmsl":0,"id":"ZYZ","desc":"QUEENSWAY(TORONTO NDB"},
{"type":"NDB","hdg_t":155.7,"dist_nm":8.5,"freq":257,"lat":43.61261111,"lon":-79.38561111,"rng_nm":50,"alt_fmsl":0,"id":"TZ","desc":"GIBRALTAR POINT NDB"},
{"type":"SDME","hdg_t":239.2,"dist_nm":8.5,"freq":110.95,"lat":43.67027800,"lon":-79.63444400,"rng_nm":25,"alt_fmsl":565,"id":"ITO","desc":"TORONTO DME"},
{"type":"VOR","hdg_t":234.7,"dist_nm":8.7,"freq":112.15,"lat":43.65822222,"lon":-79.63152778,"rng_nm":130,"alt_fmsl":620,"id":"YYZ","desc":"TORONTO VOR-DME"},
{"type":"VOR","hdg_t":243.7,"dist_nm":9.5,"freq":116.55,"lat":43.67191667,"lon":-79.66411111,"rng_nm":130,"alt_fmsl":620,"id":"YTP","desc":"PEARSON VOR-DME"},
{"type":"NDB","hdg_t":268.7,"dist_nm":10.3,"freq":403,"lat":43.73877778,"lon":-79.70341667,"rng_nm":50,"alt_fmsl":0,"id":"ZTO","desc":"WOODHILL(TORONTO/ NDB"},
{"type":"NDB","hdg_t":231.8,"dist_nm":12.2,"freq":236,"lat":43.61616100,"lon":-79.68840600,"rng_nm":25,"alt_fmsl":0,"id":"ZLB","desc":"BRITANNIA NDB"},
{"type":"NDB","hdg_t":27.5,"dist_nm":12.8,"freq":248,"lat":43.93311111,"lon":-79.32894444,"rng_nm":50,"alt_fmsl":0,"id":"KZ","desc":"BUTTONVILLE NDB"},
{"type":"NDB","hdg_t":239.1,"dist_nm":13.4,"freq":341,"lat":43.62788889,"lon":-79.73113889,"rng_nm":50,"alt_fmsl":0,"id":"ZLP","desc":"MEADOWVALE(TORONT NDB"},
{"type":"NDB","hdg_t":66.3,"dist_nm":26.8,"freq":391,"lat":43.92083333,"lon":-78.89997222,"rng_nm":50,"alt_fmsl":0,"id":"OO","desc":"OSHAWA NDB"},
{"type":"SDME","hdg_t":67.1,"dist_nm":27.3,"freq":111.35,"lat":43.91861100,"lon":-78.88583300,"rng_nm":25,"alt_fmsl":456,"id":"IOO","desc":"OSHAWA DME"},
{"type":"VOR","hdg_t":23.1,"dist_nm":32.3,"freq":117.35,"lat":44.23861111,"lon":-79.17166667,"rng_nm":130,"alt_fmsl":922,"id":"YSO","desc":"SIMCOE VOR-DME"},
{"type":"NDB","hdg_t":165.4,"dist_nm":36.9,"freq":408,"lat":43.14716667,"lon":-79.25497222,"rng_nm":50,"alt_fmsl":0,"id":"SN","desc":"ST CATHERINES NDB"},
{"type":"VOR","hdg_t":309.4,"dist_nm":38,"freq":114.5,"lat":44.14316667,"lon":-80.14641667,"rng_nm":130,"alt_fmsl":1680,"id":"YMS","desc":"MANS VOR-DME"},
{"type":"NDB","hdg_t":201.8,"dist_nm":38.6,"freq":266,"lat":43.14421700,"lon":-79.79396900,"rng_nm":25,"alt_fmsl":0,"id":"ZHM","desc":"BINBROOK NDB"},
{"type":"NDB","hdg_t":247.5,"dist_nm":38.7,"freq":335,"lat":43.49305556,"lon":-80.28694444,"rng_nm":50,"alt_fmsl":0,"id":"ZKF","desc":"WELLINGTON NDB"},
{"type":"NDB","hdg_t":217,"dist_nm":40.9,"freq":397,"lat":43.19727200,"lon":-80.02869700,"rng_nm":25,"alt_fmsl":0,"id":"ZHA","desc":"ANCASTER NDB"},
{"type":"VOR","hdg_t":247.1,"dist_nm":43.2,"freq":115,"lat":43.45858333,"lon":-80.37938889,"rng_nm":130,"alt_fmsl":1047,"id":"YWT","desc":"WATERLOO VOR-DME"},
{"type":"SDME","hdg_t":149.4,"dist_nm":43.8,"freq":111,"lat":43.11250000,"lon":-78.96027800,"rng_nm":25,"alt_fmsl":635,"id":"IAG","desc":"NIAGARA FALLS TACAN"},
{"type":"NDB","hdg_t":212.5,"dist_nm":44.1,"freq":221,"lat":43.12111111,"lon":-80.00666667,"rng_nm":50,"alt_fmsl":0,"id":"HM","desc":"HAMILTON NDB"},
{"type":"NDB","hdg_t":143.9,"dist_nm":46.9,"freq":329,"lat":43.10902778,"lon":-78.83838889,"rng_nm":50,"alt_fmsl":0,"id":"IA","desc":"KATHI NDB"},
{"type":"NDB","hdg_t":56.7,"dist_nm":51.7,"freq":379,"lat":44.21244444,"lon":-78.46313889,"rng_nm":50,"alt_fmsl":0,"id":"YPQ","desc":"PETERBOROUGH NDB"},
{"type":"VOR","hdg_t":344.4,"dist_nm":52.2,"freq":112.8,"lat":44.58180556,"lon":-79.79322222,"rng_nm":130,"alt_fmsl":800,"id":"YEE","desc":"MIDLAND VOR-DME"},
{"type":"NDB","hdg_t":141,"dist_nm":57,"freq":231,"lat":43.00027778,"lon":-78.65086111,"rng_nm":50,"alt_fmsl":0,"id":"BU","desc":"KLUMP NDB"},
{"type":"NDB","hdg_t":226.2,"dist_nm":57.7,"freq":207,"lat":43.07333333,"lon":-80.41611111,"rng_nm":50,"alt_fmsl":0,"id":"FD","desc":"BRANTFORD NDB"},
{"type":"NDB","hdg_t":151.1,"dist_nm":59.3,"freq":204,"lat":42.87388889,"lon":-78.81658333,"rng_nm":50,"alt_fmsl":0,"id":"GB","desc":"PLAZZ NDB"},
{"type":"VOR","hdg_t":143.3,"dist_nm":60.6,"freq":116.4,"lat":42.92900000,"lon":-78.64633333,"rng_nm":130,"alt_fmsl":730,"id":"BUF","desc":"BUFFALO VOR-DME"},
{"type":"NDB","hdg_t":290.5,"dist_nm":73.5,"freq":268,"lat":44.16222222,"lon":-81.06055556,"rng_nm":50,"alt_fmsl":0,"id":"S7","desc":"HANOVER NDB"},
{"type":"VOR","hdg_t":173.5,"dist_nm":75.5,"freq":116.2,"lat":42.49055556,"lon":-79.27411111,"rng_nm":130,"alt_fmsl":680,"id":"DKK","desc":"DUNKIRK VORTAC"},
{"type":"NDB","hdg_t":5.7,"dist_nm":78.1,"freq":272,"lat":45.03802778,"lon":-79.28338889,"rng_nm":50,"alt_fmsl":0,"id":"YQA","desc":"MUSKOKA NDB"},
{"type":"NDB","hdg_t":76.2,"dist_nm":81.9,"freq":317,"lat":44.05277778,"lon":-77.62666667,"rng_nm":50,"alt_fmsl":0,"id":"ZZR","desc":"SEVERN (TRENTON) NDB"},
{"type":"VOR","hdg_t":64.5,"dist_nm":84.1,"freq":113.5,"lat":44.33305556,"lon":-77.70283333,"rng_nm":40,"alt_fmsl":620,"id":"YCF","desc":"CAMPBELLFORD VOR-DME"},
{"type":"NDB","hdg_t":237.8,"dist_nm":84.3,"freq":201,"lat":42.98233333,"lon":-81.08869444,"rng_nm":50,"alt_fmsl":0,"id":"ZXU","desc":"THAMES NDB"},
{"type":"VOR","hdg_t":240.6,"dist_nm":84.8,"freq":117.2,"lat":43.03811111,"lon":-81.14847222,"rng_nm":130,"alt_fmsl":910,"id":"YXU","desc":"LONDON VOR-DME"},
{"type":"NDB","hdg_t":243.5,"dist_nm":86,"freq":382,"lat":43.09175000,"lon":-81.21869444,"rng_nm":50,"alt_fmsl":0,"id":"XU","desc":"LONDON NDB"},
{"type":"NDB","hdg_t":120,"dist_nm":86.3,"freq":344,"lat":43.00991667,"lon":-77.76927778,"rng_nm":50,"alt_fmsl":0,"id":"AVN","desc":"AVON NDB"},
{"type":"VOR","hdg_t":114.9,"dist_nm":86.9,"freq":110,"lat":43.11797222,"lon":-77.67280556,"rng_nm":40,"alt_fmsl":549,"id":"ROC","desc":"ROCHESTER VOR-DME"},
{"type":"SDME","hdg_t":74.2,"dist_nm":87,"freq":109.7,"lat":44.12116100,"lon":-77.52890600,"rng_nm":130,"alt_fmsl":285,"id":"UTR","desc":"TRENTON TACAN"},
{"type":"VOR","hdg_t":50.4,"dist_nm":87.6,"freq":115.1,"lat":44.66088889,"lon":-77.88808333,"rng_nm":40,"alt_fmsl":902,"id":"VIE","desc":"COEHILL VOR-DME"},
{"type":"VOR","hdg_t":225.5,"dist_nm":88,"freq":114.2,"lat":42.70672222,"lon":-80.88791667,"rng_nm":130,"alt_fmsl":780,"id":"YQO","desc":"AYLMER VOR-DME"},
{"type":"NDB","hdg_t":113.1,"dist_nm":91.4,"freq":400,"lat":43.12652778,"lon":-77.55394444,"rng_nm":50,"alt_fmsl":0,"id":"RO","desc":"BREIT NDB"},
{"type":"NDB","hdg_t":231.5,"dist_nm":92.5,"freq":375,"lat":42.77083333,"lon":-81.10583333,"rng_nm":50,"alt_fmsl":0,"id":"7B","desc":"ST THOMAS NDB"},
{"type":"VOR","hdg_t":310.9,"dist_nm":92.7,"freq":117.7,"lat":44.74477778,"lon":-81.10541667,"rng_nm":130,"alt_fmsl":730,"id":"YVV","desc":"WIARTON VOR-DME"},
{"type":"NDB","hdg_t":350.2,"dist_nm":92.9,"freq":353,"lat":45.26888889,"lon":-79.83666667,"rng_nm":50,"alt_fmsl":0,"id":"F7","desc":"GEORGIAN BAY NDB"},
{"type":"NDB","hdg_t":72.4,"dist_nm":93.3,"freq":215,"lat":44.19361111,"lon":-77.40333333,"rng_nm":50,"alt_fmsl":0,"id":"YTR","desc":"TRENTON NDB"},
{"type":"NDB","hdg_t":308.3,"dist_nm":93.5,"freq":326,"lat":44.69805556,"lon":-81.17972222,"rng_nm":50,"alt_fmsl":0,"id":"VV","desc":"WIARTON NDB"},
{"type":"VOR","hdg_t":125,"dist_nm":93.5,"freq":108.2,"lat":42.83438889,"lon":-77.73275000,"rng_nm":40,"alt_fmsl":990,"id":"GEE","desc":"GENESEO VOR-DME"},
{"type":"VOR","hdg_t":170.6,"dist_nm":94.4,"freq":114.7,"lat":42.18861111,"lon":-79.12130556,"rng_nm":130,"alt_fmsl":1786,"id":"JHW","desc":"JAMESTOWN VOR-DME"},
{"type":"NDB","hdg_t":287.3,"dist_nm":96.6,"freq":350,"lat":44.20333333,"lon":-81.60333333,"rng_nm":50,"alt_fmsl":0,"id":"D7","desc":"KINCARDINE NDB"},
{"type":"NDB","hdg_t":73,"dist_nm":97.3,"freq":283,"lat":44.19505000,"lon":-77.30834400,"rng_nm":25,"alt_fmsl":320,"id":"6M","desc":"BELLEVILLE NDB"},
{"type":"NDB","hdg_t":270.9,"dist_nm":98.4,"freq":261,"lat":43.74638889,"lon":-81.73083333,"rng_nm":50,"alt_fmsl":0,"id":"GD","desc":"GODERICH NDB"}
]
}
