{"success":true,"source":"xp2csv.pl","last_updated":"2013/11/08 14:53:21 UTC"
,"icao":"D91","name":"Spencerport Airpark","lat":43.16950555,"lon":-77.81834167,"rwys":1,"ils":0,"index":1679688,"path":"w080n40/w078n43"
,"runways":[
{"len_m":749,"wid_m":27.43,"hdg":79,"surf":"Turf/grass","rwy1":"09","lat1":43.16886440,"lon1":-77.82286418,"rwy2":"27","lat2":43.17014670,"lon2":-77.81381916}
]
,"navaids":[
{"type":"VOR","hdg_t":115.7,"dist_nm":7.1,"freq":110,"lat":43.11797222,"lon":-77.67280556,"rng_nm":40,"alt_fmsl":549,"id":"ROC","desc":"ROCHESTER VOR-DME"},
{"type":"NDB","hdg_t":167.2,"dist_nm":9.8,"freq":344,"lat":43.00991667,"lon":-77.76927778,"rng_nm":50,"alt_fmsl":0,"id":"AVN","desc":"AVON NDB"},
{"type":"NDB","hdg_t":102.4,"dist_nm":11.8,"freq":400,"lat":43.12652778,"lon":-77.55394444,"rng_nm":50,"alt_fmsl":0,"id":"RO","desc":"BREIT NDB"},
{"type":"VOR","hdg_t":169.3,"dist_nm":20.4,"freq":108.2,"lat":42.83438889,"lon":-77.73275000,"rng_nm":40,"alt_fmsl":990,"id":"GEE","desc":"GENESEO VOR-DME"},
{"type":"NDB","hdg_t":254.7,"dist_nm":37.9,"freq":231,"lat":43.00027778,"lon":-78.65086111,"rng_nm":50,"alt_fmsl":0,"id":"BU","desc":"KLUMP NDB"},
{"type":"VOR","hdg_t":248.6,"dist_nm":39.1,"freq":116.4,"lat":42.92900000,"lon":-78.64633333,"rng_nm":130,"alt_fmsl":730,"id":"BUF","desc":"BUFFALO VOR-DME"},
{"type":"NDB","hdg_t":265.7,"dist_nm":44.9,"freq":329,"lat":43.10902778,"lon":-78.83838889,"rng_nm":50,"alt_fmsl":0,"id":"IA","desc":"KATHI NDB"},
{"type":"NDB","hdg_t":132.9,"dist_nm":46,"freq":260,"lat":42.64397222,"lon":-77.05613889,"rng_nm":50,"alt_fmsl":0,"id":"PYA","desc":"PENN YAN NDB"},
{"type":"NDB","hdg_t":248.3,"dist_nm":47.3,"freq":204,"lat":42.87388889,"lon":-78.81658333,"rng_nm":50,"alt_fmsl":0,"id":"GB","desc":"PLAZZ NDB"},
{"type":"SDME","hdg_t":266.4,"dist_nm":50.2,"freq":111,"lat":43.11250000,"lon":-78.96027800,"rng_nm":25,"alt_fmsl":635,"id":"IAG","desc":"NIAGARA FALLS TACAN"},
{"type":"NDB","hdg_t":8.8,"dist_nm":53.6,"freq":317,"lat":44.05277778,"lon":-77.62666667,"rng_nm":50,"alt_fmsl":0,"id":"ZZR","desc":"SEVERN (TRENTON) NDB"},
{"type":"NDB","hdg_t":203.4,"dist_nm":57.8,"freq":360,"lat":42.28352778,"lon":-78.33491667,"rng_nm":50,"alt_fmsl":0,"id":"LYS","desc":"OLEAN NDB"},
{"type":"SDME","hdg_t":12.3,"dist_nm":58.4,"freq":109.7,"lat":44.12116100,"lon":-77.52890600,"rng_nm":130,"alt_fmsl":285,"id":"UTR","desc":"TRENTON TACAN"},
{"type":"NDB","hdg_t":269.2,"dist_nm":63.1,"freq":408,"lat":43.14716667,"lon":-79.25497222,"rng_nm":50,"alt_fmsl":0,"id":"SN","desc":"ST CATHERINES NDB"},
{"type":"NDB","hdg_t":16.2,"dist_nm":64,"freq":215,"lat":44.19361111,"lon":-77.40333333,"rng_nm":50,"alt_fmsl":0,"id":"YTR","desc":"TRENTON NDB"},
{"type":"SDME","hdg_t":314.3,"dist_nm":64.7,"freq":111.35,"lat":43.91861100,"lon":-78.88583300,"rng_nm":25,"alt_fmsl":456,"id":"IOO","desc":"OSHAWA DME"},
{"type":"NDB","hdg_t":314,"dist_nm":65.2,"freq":391,"lat":43.92083333,"lon":-78.89997222,"rng_nm":50,"alt_fmsl":0,"id":"OO","desc":"OSHAWA NDB"},
{"type":"VOR","hdg_t":187.1,"dist_nm":65.2,"freq":111.4,"lat":42.08963889,"lon":-77.99955556,"rng_nm":40,"alt_fmsl":2296,"id":"ELZ","desc":"WELLSVILLE VORTAC"},
{"type":"NDB","hdg_t":19.6,"dist_nm":65.4,"freq":283,"lat":44.19505000,"lon":-77.30834400,"rng_nm":25,"alt_fmsl":320,"id":"6M","desc":"BELLEVILLE NDB"},
{"type":"NDB","hdg_t":83.3,"dist_nm":66.7,"freq":220,"lat":43.28747222,"lon":-76.30469444,"rng_nm":50,"alt_fmsl":0,"id":"FZ","desc":"FALLN NDB"},
{"type":"NDB","hdg_t":336,"dist_nm":68.5,"freq":379,"lat":44.21244444,"lon":-78.46313889,"rng_nm":50,"alt_fmsl":0,"id":"YPQ","desc":"PETERBOROUGH NDB"},
{"type":"VOR","hdg_t":4,"dist_nm":69.9,"freq":113.5,"lat":44.33305556,"lon":-77.70283333,"rng_nm":40,"alt_fmsl":620,"id":"YCF","desc":"CAMPBELLFORD VOR-DME"},
{"type":"VOR","hdg_t":89.8,"dist_nm":70.8,"freq":117,"lat":43.16052778,"lon":-76.20455556,"rng_nm":130,"alt_fmsl":420,"id":"SYR","desc":"SYRACUSE VORTAC"},
{"type":"VOR","hdg_t":123.5,"dist_nm":72.3,"freq":111.8,"lat":42.49502778,"lon":-76.46000000,"rng_nm":40,"alt_fmsl":1102,"id":"ITH","desc":"ITHACA VOR-DME"},
{"type":"NDB","hdg_t":139.7,"dist_nm":72.7,"freq":245,"lat":42.23866667,"lon":-76.76394444,"rng_nm":50,"alt_fmsl":0,"id":"ALP","desc":"ALPINE NDB"},
{"type":"VOR","hdg_t":151.1,"dist_nm":73.4,"freq":109.65,"lat":42.09416667,"lon":-77.02480556,"rng_nm":40,"alt_fmsl":1632,"id":"ULW","desc":"ELMIRA VOR-DME"},
{"type":"NDB","hdg_t":291.7,"dist_nm":73.5,"freq":257,"lat":43.61261111,"lon":-79.38561111,"rng_nm":50,"alt_fmsl":0,"id":"TZ","desc":"GIBRALTAR POINT NDB"},
{"type":"SDME","hdg_t":292.1,"dist_nm":74.4,"freq":110.15,"lat":43.62722200,"lon":-79.39944400,"rng_nm":25,"alt_fmsl":286,"id":"ITZ","desc":"CITY CENTRE DME"},
{"type":"VOR","hdg_t":238.1,"dist_nm":76,"freq":116.2,"lat":42.49055556,"lon":-79.27411111,"rng_nm":130,"alt_fmsl":680,"id":"DKK","desc":"DUNKIRK VORTAC"},
{"type":"NDB","hdg_t":124.2,"dist_nm":77.9,"freq":266,"lat":42.43005556,"lon":-76.36797222,"rng_nm":50,"alt_fmsl":0,"id":"IT","desc":"VRNAH NDB"},
{"type":"SDME","hdg_t":301.9,"dist_nm":79,"freq":111.1,"lat":43.85583300,"lon":-79.36333300,"rng_nm":130,"alt_fmsl":650,"id":"IKZ","desc":"BUTTONVILLE DME"},
{"type":"NDB","hdg_t":91.8,"dist_nm":79.8,"freq":242,"lat":43.11220600,"lon":-76.00272500,"rng_nm":15,"alt_fmsl":403,"id":"SY","desc":"KIRKI NDB"},
{"type":"NDB","hdg_t":305.3,"dist_nm":80.2,"freq":248,"lat":43.93311111,"lon":-79.32894444,"rng_nm":50,"alt_fmsl":0,"id":"KZ","desc":"BUTTONVILLE NDB"},
{"type":"NDB","hdg_t":290.2,"dist_nm":80.3,"freq":368,"lat":43.61950000,"lon":-79.54777778,"rng_nm":50,"alt_fmsl":0,"id":"ZYZ","desc":"QUEENSWAY(TORONTO NDB"},
{"type":"VOR","hdg_t":224.8,"dist_nm":82.3,"freq":114.7,"lat":42.18861111,"lon":-79.12130556,"rng_nm":130,"alt_fmsl":1786,"id":"JHW","desc":"JAMESTOWN VOR-DME"},
{"type":"SDME","hdg_t":291.9,"dist_nm":83.5,"freq":109.3,"lat":43.67555600,"lon":-79.59944400,"rng_nm":25,"alt_fmsl":565,"id":"INV","desc":"TORONTO DME"},
{"type":"NDB","hdg_t":294.5,"dist_nm":83.8,"freq":385,"lat":43.73791667,"lon":-79.57147222,"rng_nm":50,"alt_fmsl":0,"id":"ZDH","desc":"REXDALE(TORONTO/L NDB"},
{"type":"SDME","hdg_t":291.2,"dist_nm":84.1,"freq":109.1,"lat":43.66305600,"lon":-79.61861100,"rng_nm":25,"alt_fmsl":588,"id":"IJS","desc":"TORONTO DME"},
{"type":"VOR","hdg_t":290.9,"dist_nm":84.5,"freq":112.15,"lat":43.65822222,"lon":-79.63152778,"rng_nm":130,"alt_fmsl":620,"id":"YYZ","desc":"TORONTO VOR-DME"},
{"type":"SDME","hdg_t":291.3,"dist_nm":84.9,"freq":110.95,"lat":43.67027800,"lon":-79.63444400,"rng_nm":25,"alt_fmsl":565,"id":"ITO","desc":"TORONTO DME"},
{"type":"NDB","hdg_t":37.5,"dist_nm":85.7,"freq":263,"lat":44.29680556,"lon":-76.60452778,"rng_nm":50,"alt_fmsl":0,"id":"YGK","desc":"KINGSTON NDB"},
{"type":"NDB","hdg_t":288.7,"dist_nm":86,"freq":236,"lat":43.61616100,"lon":-79.68840600,"rng_nm":25,"alt_fmsl":0,"id":"ZLB","desc":"BRITANNIA NDB"},
{"type":"VOR","hdg_t":291.1,"dist_nm":86.1,"freq":116.55,"lat":43.67191667,"lon":-79.66411111,"rng_nm":130,"alt_fmsl":620,"id":"YTP","desc":"PEARSON VOR-DME"},
{"type":"NDB","hdg_t":269.6,"dist_nm":86.7,"freq":266,"lat":43.14421700,"lon":-79.79396900,"rng_nm":25,"alt_fmsl":0,"id":"ZHM","desc":"BINBROOK NDB"},
{"type":"VOR","hdg_t":317.9,"dist_nm":87,"freq":117.35,"lat":44.23861111,"lon":-79.17166667,"rng_nm":130,"alt_fmsl":922,"id":"YSO","desc":"SIMCOE VOR-DME"},
{"type":"NDB","hdg_t":288.8,"dist_nm":88,"freq":341,"lat":43.62788889,"lon":-79.73113889,"rng_nm":50,"alt_fmsl":0,"id":"ZLP","desc":"MEADOWVALE(TORONT NDB"},
{"type":"NDB","hdg_t":293.1,"dist_nm":89.1,"freq":403,"lat":43.73877778,"lon":-79.70341667,"rng_nm":50,"alt_fmsl":0,"id":"ZTO","desc":"WOODHILL(TORONTO/ NDB"},
{"type":"VOR","hdg_t":358,"dist_nm":89.5,"freq":115.1,"lat":44.66088889,"lon":-77.88808333,"rng_nm":40,"alt_fmsl":902,"id":"VIE","desc":"COEHILL VOR-DME"},
{"type":"VOR","hdg_t":57.8,"dist_nm":89.7,"freq":109.8,"lat":43.95213889,"lon":-76.06461111,"rng_nm":40,"alt_fmsl":375,"id":"ART","desc":"WATERTOWN VORTAC"},
{"type":"VOR","hdg_t":168.5,"dist_nm":90.1,"freq":108.6,"lat":41.69525000,"lon":-77.41991667,"rng_nm":40,"alt_fmsl":1985,"id":"SFK","desc":"STONYFORK VOR-DME"},
{"type":"VOR","hdg_t":203.4,"dist_nm":90.2,"freq":116.6,"lat":41.78638889,"lon":-78.61936111,"rng_nm":40,"alt_fmsl":2100,"id":"BFD","desc":"BRADFORD VOR-DME"},
{"type":"VOR","hdg_t":103.9,"dist_nm":90.6,"freq":117.8,"lat":42.78894444,"lon":-75.82675000,"rng_nm":40,"alt_fmsl":2040,"id":"GGT","desc":"GEORGETOWN VORTAC"},
{"type":"VOR","hdg_t":128.6,"dist_nm":96,"freq":112.2,"lat":42.15750000,"lon":-76.13647222,"rng_nm":40,"alt_fmsl":1583,"id":"CFB","desc":"BINGHAMTON VORTAC"},
{"type":"NDB","hdg_t":269,"dist_nm":96.1,"freq":221,"lat":43.12111111,"lon":-80.00666667,"rng_nm":50,"alt_fmsl":0,"id":"HM","desc":"HAMILTON NDB"},
{"type":"NDB","hdg_t":271.7,"dist_nm":97,"freq":397,"lat":43.19727200,"lon":-80.02869700,"rng_nm":25,"alt_fmsl":0,"id":"ZHA","desc":"ANCASTER NDB"},
{"type":"VOR","hdg_t":183.9,"dist_nm":99.5,"freq":113.9,"lat":41.51275000,"lon":-77.97011111,"rng_nm":130,"alt_fmsl":2320,"id":"SLT","desc":"SLATE RUN VORTAC"}
]
}
