{"success":true,"source":"xp2csv.pl","last_updated":"2013/11/08 14:53:21 UTC"
,"icao":"DA10","name":"Illizi","lat":26.5744465,"lon":8.484752,"rwys":2,"ils":0,"index":3087649,"path":"e000n20/e008n26"
,"runways":[
{"len_m":2375,"wid_m":53.34,"hdg":95,"surf":"Dirt","rwy1":"09","lat1":26.57459200,"lon1":8.47153300,"rwy2":"27","lat2":26.57271900,"lon2":8.49528600},
{"len_m":1673,"wid_m":60.05,"hdg":53,"surf":"Dirt","rwy1":"05","lat1":26.57073100,"lon1":8.47935600,"rwy2":"23","lat2":26.57974400,"lon2":8.49283300}
]
,"navaids":[
{"type":"VOR","hdg_t":45.6,"dist_nm":12.7,"freq":115.6,"lat":26.72333300,"lon":8.65444400,"rng_nm":130,"alt_fmsl":0,"id":"ILZ","desc":"ILLIZI VOR"},
{"type":"NDB","hdg_t":34.4,"dist_nm":107.4,"freq":268,"lat":28.05055600,"lon":9.63111100,"rng_nm":135,"alt_fmsl":0,"id":"ZAR","desc":"ZARZAITINE NDB"},
{"type":"VOR","hdg_t":34.9,"dist_nm":109.4,"freq":112.9,"lat":28.07000000,"lon":9.66527800,"rng_nm":130,"alt_fmsl":1870,"id":"IMN","desc":"ZARZAITINE VOR-DME"},
{"type":"NDB","hdg_t":132.4,"dist_nm":121.9,"freq":386,"lat":25.18861100,"lon":10.13777800,"rng_nm":20,"alt_fmsl":0,"id":"GHT","desc":"GHAT NDB"},
{"type":"VOR","hdg_t":133.2,"dist_nm":123.7,"freq":114.8,"lat":25.14681400,"lon":10.13894200,"rng_nm":40,"alt_fmsl":2296,"id":"GHT","desc":"GHAT VOR-DME"},
{"type":"VOR","hdg_t":317,"dist_nm":128.1,"freq":114.3,"lat":28.13305600,"lon":6.83916700,"rng_nm":130,"alt_fmsl":1125,"id":"BOD","desc":"BORDJ OMAR DRISS VOR-DME"},
{"type":"VOR","hdg_t":158.7,"dist_nm":146.5,"freq":114.1,"lat":24.28777800,"lon":9.45333300,"rng_nm":130,"alt_fmsl":3176,"id":"DJA","desc":"DJANET VOR-DME"},
{"type":"NDB","hdg_t":158.7,"dist_nm":146.6,"freq":274,"lat":24.28666400,"lon":9.45491100,"rng_nm":160,"alt_fmsl":3176,"id":"DJA","desc":"DJANET NDB"},
{"type":"NDB","hdg_t":13.9,"dist_nm":219.4,"freq":347,"lat":30.13000000,"lon":9.50166700,"rng_nm":150,"alt_fmsl":0,"id":"GDS","desc":"GHADAMES NDB"},
{"type":"VOR","hdg_t":16.9,"dist_nm":224.9,"freq":115.8,"lat":30.16500000,"lon":9.74222200,"rng_nm":130,"alt_fmsl":992,"id":"GAD","desc":"GHADAMES VOR-DME"}
]
}
