{"success":true,"source":"xp2csv.pl","last_updated":"2013/11/08 14:53:21 UTC"
,"icao":"DAAZ","name":"Relizane","lat":35.7522375,"lon":0.6262725,"rwys":1,"ils":0,"index":2957170,"path":"e000n30/e000n35"
,"runways":[
{"len_m":1298,"wid_m":21.34,"hdg":66,"surf":"Asphalt","rwy1":"07","lat1":35.74994400,"lon1":0.61966700,"rwy2":"25","lat2":35.75453100,"lon2":0.63287800}
]
,"navaids":[
{"type":"VOR","hdg_t":290.2,"dist_nm":25.4,"freq":112.2,"lat":35.89861100,"lon":0.13638900,"rng_nm":130,"alt_fmsl":732,"id":"MOS","desc":"MOSTAGANEM VOR-DME"},
{"type":"NDB","hdg_t":291.6,"dist_nm":25.6,"freq":334,"lat":35.90916700,"lon":0.13722200,"rng_nm":100,"alt_fmsl":0,"id":"MOS","desc":"MOSTAGANEM NDB"},
{"type":"NDB","hdg_t":215.1,"dist_nm":39.7,"freq":424,"lat":35.20833300,"lon":0.16000000,"rng_nm":10,"alt_fmsl":0,"id":"GRS","desc":"GHRISS NDB"},
{"type":"VOR","hdg_t":215.8,"dist_nm":40,"freq":113.1,"lat":35.20937200,"lon":0.14891400,"rng_nm":130,"alt_fmsl":1686,"id":"GRS","desc":"GHRISS VOR"},
{"type":"NDB","hdg_t":119.3,"dist_nm":49.2,"freq":389,"lat":35.34583300,"lon":1.50055600,"rng_nm":25,"alt_fmsl":0,"id":"TRB","desc":"TIARET NDB"},
{"type":"VOR","hdg_t":118.8,"dist_nm":49.8,"freq":116.3,"lat":35.34777800,"lon":1.51500000,"rng_nm":130,"alt_fmsl":2902,"id":"TRB","desc":"TIARET VOR-DME"},
{"type":"VOR","hdg_t":262.7,"dist_nm":63.1,"freq":114,"lat":35.61264700,"lon":-0.65498900,"rng_nm":130,"alt_fmsl":284,"id":"ORA","desc":"ORAN VOR-DME"},
{"type":"NDB","hdg_t":253.8,"dist_nm":81.4,"freq":432,"lat":35.36305600,"lon":-0.96888900,"rng_nm":25,"alt_fmsl":0,"id":"HMB","desc":"HAMMAM BOU HADJAR NDB"},
{"type":"NDB","hdg_t":55.7,"dist_nm":91.5,"freq":397,"lat":36.60138900,"lon":2.19333300,"rng_nm":100,"alt_fmsl":0,"id":"CHE","desc":"CHERCHELL NDB"},
{"type":"NDB","hdg_t":247,"dist_nm":106.7,"freq":346,"lat":35.04000000,"lon":-1.36777800,"rng_nm":180,"alt_fmsl":0,"id":"TLM","desc":"TLEMCEN NDB"}
]
}
