{"success":true,"source":"xp2csv.pl","last_updated":"2013/11/08 14:53:21 UTC"
,"icao":"DAOL","name":"Tafaraoui","lat":35.542453,"lon":-0.532272,"rwys":1,"ils":0,"index":2940769,"path":"w010n30/w001n35"
,"runways":[
{"len_m":2749,"wid_m":42.67,"hdg":75,"surf":"Asphalt","rwy1":"08","lat1":35.53937800,"lon1":-0.54695800,"rwy2":"26","lat2":35.54552800,"lon2":-0.51758600}
]
,"navaids":[
{"type":"VOR","hdg_t":305,"dist_nm":7.3,"freq":114,"lat":35.61264700,"lon":-0.65498900,"rng_nm":130,"alt_fmsl":284,"id":"ORA","desc":"ORAN VOR-DME"},
{"type":"NDB","hdg_t":243.4,"dist_nm":23.9,"freq":432,"lat":35.36305600,"lon":-0.96888900,"rng_nm":25,"alt_fmsl":0,"id":"HMB","desc":"HAMMAM BOU HADJAR NDB"},
{"type":"VOR","hdg_t":120.6,"dist_nm":38.9,"freq":113.1,"lat":35.20937200,"lon":0.14891400,"rng_nm":130,"alt_fmsl":1686,"id":"GRS","desc":"GHRISS VOR"},
{"type":"VOR","hdg_t":56.6,"dist_nm":39,"freq":112.2,"lat":35.89861100,"lon":0.13638900,"rng_nm":130,"alt_fmsl":732,"id":"MOS","desc":"MOSTAGANEM VOR-DME"},
{"type":"NDB","hdg_t":120.3,"dist_nm":39.4,"freq":424,"lat":35.20833300,"lon":0.16000000,"rng_nm":10,"alt_fmsl":0,"id":"GRS","desc":"GHRISS NDB"},
{"type":"NDB","hdg_t":55.9,"dist_nm":39.4,"freq":334,"lat":35.90916700,"lon":0.13722200,"rng_nm":100,"alt_fmsl":0,"id":"MOS","desc":"MOSTAGANEM NDB"},
{"type":"NDB","hdg_t":233.9,"dist_nm":50.8,"freq":346,"lat":35.04000000,"lon":-1.36777800,"rng_nm":180,"alt_fmsl":0,"id":"TLM","desc":"TLEMCEN NDB"},
{"type":"VOR","hdg_t":234.3,"dist_nm":51.8,"freq":116.5,"lat":35.03527800,"lon":-1.38805600,"rng_nm":130,"alt_fmsl":1001,"id":"TLM","desc":"TLEMCEN VOR-DME"},
{"type":"NDB","hdg_t":236.9,"dist_nm":80.6,"freq":371,"lat":34.79972200,"lon":-1.89972200,"rng_nm":75,"alt_fmsl":0,"id":"CNU","desc":"OUJDA NDB"},
{"type":"VOR","hdg_t":236.9,"dist_nm":83.6,"freq":117.5,"lat":34.77333300,"lon":-1.95027800,"rng_nm":130,"alt_fmsl":1585,"id":"OJD","desc":"OUJDA VOR-DME"}
]
}
