{"success":true,"source":"xp2csv.pl","last_updated":"2013/11/08 14:53:21 UTC"
,"icao":"DAUT","name":"Timimoun","lat":29.236667,"lon":0.2759725,"rwys":1,"ils":0,"index":2956745,"path":"e000n20/e000n29"
,"runways":[
{"len_m":3011,"wid_m":45.11,"hdg":56,"surf":"Asphalt","rwy1":"06","lat1":29.22916700,"lon1":0.26305600,"rwy2":"24","lat2":29.24416700,"lon2":0.28888900}
]
,"radios":[
{"type":"TWR","freq":119.7,"desc":"TWR"}
]
,"navaids":[
{"type":"NDB","hdg_t":282.8,"dist_nm":0.9,"freq":383,"lat":29.24035300,"lon":0.25752800,"rng_nm":125,"alt_fmsl":0,"id":"TIO","desc":"TIMIMOUN NDB"},
{"type":"VOR","hdg_t":235.9,"dist_nm":1.1,"freq":112.8,"lat":29.22608100,"lon":0.25809400,"rng_nm":130,"alt_fmsl":1032,"id":"TIO","desc":"TIMIMOUN VOR-DME"},
{"type":"VOR","hdg_t":196.8,"dist_nm":88.6,"freq":112.6,"lat":27.81703900,"lon":-0.20586700,"rng_nm":25,"alt_fmsl":920,"id":"ADR","desc":"ADRAR VOR-DME"},
{"type":"NDB","hdg_t":197.2,"dist_nm":90.8,"freq":340,"lat":27.78527800,"lon":-0.23027800,"rng_nm":125,"alt_fmsl":0,"id":"ADR","desc":"ADRAR NDB"},
{"type":"NDB","hdg_t":289.9,"dist_nm":138.1,"freq":320,"lat":30.00000000,"lon":-2.21666700,"rng_nm":25,"alt_fmsl":0,"id":"BBS","desc":"BENI ABBES NDB"},
{"type":"VOR","hdg_t":290.1,"dist_nm":138.2,"freq":115.3,"lat":30.00833300,"lon":-2.21666700,"rng_nm":130,"alt_fmsl":1713,"id":"BBS","desc":"BENI ABBES VOR-DME"},
{"type":"NDB","hdg_t":179.8,"dist_nm":152.7,"freq":310,"lat":26.68388900,"lon":0.28250000,"rng_nm":80,"alt_fmsl":0,"id":"RGN","desc":"REGGAN NDB"},
{"type":"VOR","hdg_t":58.9,"dist_nm":156.3,"freq":112.1,"lat":30.55861100,"lon":2.86166700,"rng_nm":130,"alt_fmsl":1306,"id":"MNA","desc":"EL GOLEA VOR-DME"},
{"type":"NDB","hdg_t":59.1,"dist_nm":157.9,"freq":375,"lat":30.56361100,"lon":2.89500000,"rng_nm":100,"alt_fmsl":0,"id":"MEA","desc":"EL GOLEA NDB"},
{"type":"NDB","hdg_t":134.4,"dist_nm":167.6,"freq":373,"lat":27.25533300,"lon":2.51274700,"rng_nm":100,"alt_fmsl":0,"id":"SAH","desc":"IN SALAH NDB"}
]
}
