{"success":true,"source":"xp2csv.pl","last_updated":"2013/11/08 14:53:21 UTC"
,"icao":"DH1","name":"Huntsville Deerhurst Resort","lat":45.3541665,"lon":-79.151389,"rwys":1,"ils":0,"index":1647059,"path":"w080n40/w080n45"
,"runways":[
{"len_m":932,"wid_m":18.29,"hdg":37,"surf":"Asphalt","rwy1":"05","lat1":45.35083300,"lon1":-79.15500000,"rwy2":"23","lat2":45.35750000,"lon2":-79.14777800}
]
,"radios":[
{"type":"CTAF","freq":123.35,"desc":"CTAF/UNICOM"}
]
,"navaids":[
{"type":"NDB","hdg_t":196.4,"dist_nm":19.7,"freq":272,"lat":45.03802778,"lon":-79.28338889,"rng_nm":50,"alt_fmsl":0,"id":"YQA","desc":"MUSKOKA NDB"},
{"type":"NDB","hdg_t":260.2,"dist_nm":29.4,"freq":353,"lat":45.26888889,"lon":-79.83666667,"rng_nm":50,"alt_fmsl":0,"id":"F7","desc":"GEORGIAN BAY NDB"},
{"type":"VOR","hdg_t":210.7,"dist_nm":53.8,"freq":112.8,"lat":44.58180556,"lon":-79.79322222,"rng_nm":130,"alt_fmsl":800,"id":"YEE","desc":"MIDLAND VOR-DME"},
{"type":"NDB","hdg_t":345.1,"dist_nm":60.6,"freq":404,"lat":46.33097222,"lon":-79.52655556,"rng_nm":50,"alt_fmsl":0,"id":"ZYB","desc":"YELLEK(NORTH BAY) NDB"},
{"type":"VOR","hdg_t":348.9,"dist_nm":61.7,"freq":115.4,"lat":46.36391667,"lon":-79.43641667,"rng_nm":130,"alt_fmsl":1207,"id":"YYB","desc":"NORTH BAY VOR-DME"},
{"type":"VOR","hdg_t":180.7,"dist_nm":66.9,"freq":117.35,"lat":44.23861111,"lon":-79.17166667,"rng_nm":130,"alt_fmsl":922,"id":"YSO","desc":"SIMCOE VOR-DME"},
{"type":"VOR","hdg_t":127.2,"dist_nm":67.9,"freq":115.1,"lat":44.66088889,"lon":-77.88808333,"rng_nm":40,"alt_fmsl":902,"id":"VIE","desc":"COEHILL VOR-DME"},
{"type":"VOR","hdg_t":73.6,"dist_nm":67.9,"freq":115.6,"lat":45.66311111,"lon":-77.60277778,"rng_nm":130,"alt_fmsl":587,"id":"YXI","desc":"KILLALOE VOR-DME"},
{"type":"NDB","hdg_t":156.5,"dist_nm":74.5,"freq":379,"lat":44.21244444,"lon":-78.46313889,"rng_nm":50,"alt_fmsl":0,"id":"YPQ","desc":"PETERBOROUGH NDB"},
{"type":"VOR","hdg_t":210.7,"dist_nm":84.2,"freq":114.5,"lat":44.14316667,"lon":-80.14641667,"rng_nm":130,"alt_fmsl":1680,"id":"YMS","desc":"MANS VOR-DME"},
{"type":"NDB","hdg_t":67,"dist_nm":85.5,"freq":516,"lat":45.89472222,"lon":-77.27166667,"rng_nm":50,"alt_fmsl":0,"id":"YWA","desc":"PETAWAWA NDB"},
{"type":"NDB","hdg_t":185.1,"dist_nm":85.6,"freq":248,"lat":43.93311111,"lon":-79.32894444,"rng_nm":50,"alt_fmsl":0,"id":"KZ","desc":"BUTTONVILLE NDB"},
{"type":"NDB","hdg_t":70.9,"dist_nm":85.7,"freq":409,"lat":45.80333333,"lon":-77.22000000,"rng_nm":50,"alt_fmsl":0,"id":"YTA","desc":"PEMBROKE NDB"},
{"type":"NDB","hdg_t":172.7,"dist_nm":86.6,"freq":391,"lat":43.92083333,"lon":-78.89997222,"rng_nm":50,"alt_fmsl":0,"id":"OO","desc":"OSHAWA NDB"},
{"type":"SDME","hdg_t":172.3,"dist_nm":86.8,"freq":111.35,"lat":43.91861100,"lon":-78.88583300,"rng_nm":25,"alt_fmsl":456,"id":"IOO","desc":"OSHAWA DME"},
{"type":"VOR","hdg_t":134.2,"dist_nm":87,"freq":113.5,"lat":44.33305556,"lon":-77.70283333,"rng_nm":40,"alt_fmsl":620,"id":"YCF","desc":"CAMPBELLFORD VOR-DME"},
{"type":"SDME","hdg_t":185.8,"dist_nm":90.3,"freq":111.1,"lat":43.85583300,"lon":-79.36333300,"rng_nm":130,"alt_fmsl":650,"id":"IKZ","desc":"BUTTONVILLE DME"},
{"type":"VOR","hdg_t":246.9,"dist_nm":90.8,"freq":117.7,"lat":44.74477778,"lon":-81.10541667,"rng_nm":130,"alt_fmsl":730,"id":"YVV","desc":"WIARTON VOR-DME"},
{"type":"NDB","hdg_t":246.2,"dist_nm":94.8,"freq":326,"lat":44.69805556,"lon":-81.17972222,"rng_nm":50,"alt_fmsl":0,"id":"VV","desc":"WIARTON NDB"},
{"type":"NDB","hdg_t":190.6,"dist_nm":98.6,"freq":385,"lat":43.73791667,"lon":-79.57147222,"rng_nm":50,"alt_fmsl":0,"id":"ZDH","desc":"REXDALE(TORONTO/L NDB"},
{"type":"NDB","hdg_t":193.9,"dist_nm":99.7,"freq":403,"lat":43.73877778,"lon":-79.70341667,"rng_nm":50,"alt_fmsl":0,"id":"ZTO","desc":"WOODHILL(TORONTO/ NDB"}
]
}
