{"success":true,"source":"xp2csv.pl","last_updated":"2013/11/08 14:53:21 UTC"
,"icao":"DNJO","name":"Yakubu Gowon","lat":9.6398225,"lon":8.869083,"rwys":1,"ils":1,"index":3086574,"path":"e000n00/e008n09"
,"runways":[
{"len_m":3000,"wid_m":45.11,"hdg":95,"surf":"Asphalt","rwy1":"10","lat1":9.64105600,"lon1":8.85546900,"rwy2":"28","lat2":9.63858900,"lon2":8.88269700}
]
,"radios":[
{"type":"TWR","freq":122.7,"desc":"JOS TWR"}
]
,"ils":[
{"type":"ILS","freq":110.7,"lat":9.63834400,"lon":8.88515300,"rng_nm":18,"alt_fmsl":4232,"hdg":95.30,"id":"IJS","rwy":"10","desc":"ILS-cat-I"},
{"type":"GS","freq":110.7,"lat":9.64186100,"lon":8.85840300,"rng_nm":10,"alt_fmsl":4232,"id":"IJS","rwy":"10","desc":"GS","gs":3},
{"type":"DME","freq":110.7,"lat":9.64187200,"lon":8.85840300,"rng_nm":18,"alt_fmsl":4232,"id":"IJS","rwy":"10","desc":"DME-ILS"}
]
,"navaids":[
{"type":"NDB","hdg_t":95.1,"dist_nm":1.4,"freq":270,"lat":9.63759400,"lon":8.89384700,"rng_nm":25,"alt_fmsl":0,"id":"JB","desc":"JOS NDB"},
{"type":"VOR","hdg_t":275.2,"dist_nm":1.5,"freq":113.1,"lat":9.64219400,"lon":8.84299700,"rng_nm":130,"alt_fmsl":4260,"id":"JOS","desc":"JOS VOR-DME"},
{"type":"VOR","hdg_t":249.1,"dist_nm":100.5,"freq":116.3,"lat":9.03779700,"lon":7.28509700,"rng_nm":40,"alt_fmsl":1240,"id":"ABC","desc":"ABUJA VOR-DME"},
{"type":"NDB","hdg_t":248.9,"dist_nm":101.2,"freq":321,"lat":9.02803700,"lon":7.27704500,"rng_nm":25,"alt_fmsl":0,"id":"AG","desc":"ABUJA NDB"},
{"type":"VOR","hdg_t":304.2,"dist_nm":101.6,"freq":114.7,"lat":10.59610000,"lon":7.44750800,"rng_nm":130,"alt_fmsl":2113,"id":"KU","desc":"KADUNA VOR-DME"},
{"type":"VOR","hdg_t":303.9,"dist_nm":111.6,"freq":115.3,"lat":10.68017800,"lon":7.30143300,"rng_nm":130,"alt_fmsl":2034,"id":"KDA","desc":"KADUNA VOR"},
{"type":"NDB","hdg_t":304,"dist_nm":111.6,"freq":310,"lat":10.68182300,"lon":7.30249200,"rng_nm":25,"alt_fmsl":2060,"id":"KC","desc":"KADUNA NDB"},
{"type":"NDB","hdg_t":187.9,"dist_nm":115.9,"freq":364,"lat":7.71704900,"lon":8.59929100,"rng_nm":25,"alt_fmsl":0,"id":"MK","desc":"MAKURDI NDB"},
{"type":"VOR","hdg_t":176.8,"dist_nm":142.8,"freq":115.9,"lat":7.25070300,"lon":9.00152100,"rng_nm":40,"alt_fmsl":755,"id":"GB","desc":"GBOKO VOR-DME"},
{"type":"VOR","hdg_t":270.2,"dist_nm":143.3,"freq":115.1,"lat":9.64317200,"lon":6.44972500,"rng_nm":130,"alt_fmsl":834,"id":"MNA","desc":"MINNA VOR-DME"}
]
}
