{"success":true,"source":"xp2csv.pl","last_updated":"2013/11/08 14:53:21 UTC"
,"icao":"EBCI","name":"Brussels South - Charleroi","lat":50.45994663,"lon":4.45312459,"rwys":1,"ils":1,"index":3023641,"path":"e000n50/e004n50"
,"runways":[
{"len_m":2558,"wid_m":45.11,"hdg":65,"surf":"Asphalt","rwy1":"07","lat1":50.45519572,"lon1":4.43671866,"rwy2":"25","lat2":50.46469754,"lon2":4.46953051}
]
,"radios":[
{"type":"ATIS","freq":134.62,"desc":"ATIS"},
{"type":"GND","freq":121.8,"desc":"CHARLEROI GND"},
{"type":"TWR","freq":121.3,"desc":"CHARLEROI TWR"},
{"type":"APP","freq":133.12,"desc":"CHARLEROI APP"}
]
,"ils":[
{"type":"ILS","freq":110.9,"lat":50.45452900,"lon":4.43452000,"rng_nm":18,"alt_fmsl":614,"hdg":245.54,"id":"IGC","rwy":"25","desc":"ILS-cat-I"},
{"type":"GS","freq":110.9,"lat":50.46262900,"lon":4.46658900,"rng_nm":10,"alt_fmsl":614,"id":"IGC","rwy":"25","desc":"GS","gs":3},
{"type":"OM","freq":0,"lat":50.48944400,"lon":4.55527800,"rng_nm":0,"alt_fmsl":614,"id":"----","rwy":"25","desc":"OM"},
{"type":"MM","freq":0,"lat":50.46888900,"lon":4.48472200,"rng_nm":0,"alt_fmsl":614,"id":"----","rwy":"25","desc":"MM"}
]
,"navaids":[
{"type":"VOR","hdg_t":231,"dist_nm":0.5,"freq":115.7,"lat":50.45388900,"lon":4.44138900,"rng_nm":30,"alt_fmsl":654,"id":"GSY","desc":"GOSLY VOR-DME"},
{"type":"NDB","hdg_t":66,"dist_nm":1.3,"freq":389,"lat":50.46888900,"lon":4.48472200,"rng_nm":15,"alt_fmsl":0,"id":"CC","desc":"CHARLEROI LCTR NDB"},
{"type":"NDB","hdg_t":65.6,"dist_nm":4.2,"freq":323,"lat":50.48944400,"lon":4.55527800,"rng_nm":50,"alt_fmsl":0,"id":"ONC","desc":"CHARLEROI NDB"},
{"type":"SDME","hdg_t":149.5,"dist_nm":15.2,"freq":111.5,"lat":50.24138900,"lon":4.65305600,"rng_nm":100,"alt_fmsl":954,"id":"BFS","desc":"FLORENNES TACAN"},
{"type":"NDB","hdg_t":336.4,"dist_nm":15.3,"freq":283,"lat":50.69472100,"lon":4.29222200,"rng_nm":50,"alt_fmsl":0,"id":"BUS","desc":"BRESSY NDB"},
{"type":"VOR","hdg_t":22.4,"dist_nm":18.8,"freq":117.55,"lat":50.74944400,"lon":4.64166700,"rng_nm":40,"alt_fmsl":335,"id":"HUL","desc":"HULDENBERG VOR-DME"},
{"type":"SDME","hdg_t":33.9,"dist_nm":21.4,"freq":116,"lat":50.75638900,"lon":4.76805600,"rng_nm":100,"alt_fmsl":370,"id":"BBE","desc":"BEAUVECHAIN TACAN"},
{"type":"NDB","hdg_t":1.3,"dist_nm":22,"freq":314,"lat":50.82694400,"lon":4.46694400,"rng_nm":25,"alt_fmsl":0,"id":"OZ","desc":"BRUSSELS NDB"},
{"type":"VOR","hdg_t":286.3,"dist_nm":24.7,"freq":113.2,"lat":50.57388900,"lon":3.83277800,"rng_nm":60,"alt_fmsl":221,"id":"CIV","desc":"CHIEVRES VOR"},
{"type":"VOR","hdg_t":6.9,"dist_nm":26.7,"freq":114.6,"lat":50.90222200,"lon":4.53805600,"rng_nm":100,"alt_fmsl":187,"id":"BUB","desc":"BRUSSELS VOR-DME"},
{"type":"NDB","hdg_t":44.2,"dist_nm":27.1,"freq":212,"lat":50.78277600,"lon":4.95111100,"rng_nm":50,"alt_fmsl":0,"id":"TN","desc":"GOETSENHOVEN NDB"},
{"type":"NDB","hdg_t":12.6,"dist_nm":28.3,"freq":293,"lat":50.92027800,"lon":4.61638900,"rng_nm":25,"alt_fmsl":0,"id":"OB","desc":"BRUSSELS NDB"},
{"type":"NDB","hdg_t":10.4,"dist_nm":29.2,"freq":402,"lat":50.93861100,"lon":4.59222200,"rng_nm":25,"alt_fmsl":0,"id":"OP","desc":"Brussels NDB"},
{"type":"VOR","hdg_t":336,"dist_nm":29.4,"freq":114.9,"lat":50.90777800,"lon":4.13888900,"rng_nm":40,"alt_fmsl":284,"id":"AFI","desc":"AFFLIGEM VOR-DME"},
{"type":"NDB","hdg_t":327.4,"dist_nm":29.9,"freq":393,"lat":50.88028000,"lon":4.02888900,"rng_nm":50,"alt_fmsl":0,"id":"DEN","desc":"DENDER NDB"},
{"type":"NDB","hdg_t":55.2,"dist_nm":34,"freq":510,"lat":50.78075000,"lon":5.18706700,"rng_nm":50,"alt_fmsl":230,"id":"ST","desc":"St Truiden NDB"},
{"type":"VOR","hdg_t":54.4,"dist_nm":34.7,"freq":109.65,"lat":50.79365158,"lon":5.19530010,"rng_nm":60,"alt_fmsl":223,"id":"BVG","desc":"Bevingen VORTAC"},
{"type":"VOR","hdg_t":45.8,"dist_nm":36,"freq":112.05,"lat":50.87666700,"lon":5.13444400,"rng_nm":100,"alt_fmsl":187,"id":"FLO","desc":"FLORA VOR-DME"},
{"type":"NDB","hdg_t":175.3,"dist_nm":38.9,"freq":379,"lat":49.81305555,"lon":4.53527777,"rng_nm":25,"alt_fmsl":581,"id":"CZ","desc":"Charleville Mezieres NDB"},
{"type":"NDB","hdg_t":18.4,"dist_nm":39,"freq":341,"lat":51.07694600,"lon":4.77944400,"rng_nm":50,"alt_fmsl":0,"id":"BUN","desc":"BRUNO NDB"},
{"type":"NDB","hdg_t":73.2,"dist_nm":40.4,"freq":348,"lat":50.65009200,"lon":5.46676900,"rng_nm":25,"alt_fmsl":550,"id":"LG","desc":"LIEGE NDB"},
{"type":"VOR","hdg_t":72.9,"dist_nm":40.6,"freq":115.45,"lat":50.65388900,"lon":5.47055600,"rng_nm":25,"alt_fmsl":698,"id":"LGE","desc":"LIEGE VOR-DME"},
{"type":"VOR","hdg_t":20.3,"dist_nm":42.2,"freq":110.6,"lat":51.11861100,"lon":4.84194400,"rng_nm":25,"alt_fmsl":69,"id":"BUN","desc":"BRUNO VOR-DME"},
{"type":"NDB","hdg_t":261.6,"dist_nm":42.6,"freq":317,"lat":50.35194444,"lon":3.35388888,"rng_nm":25,"alt_fmsl":108,"id":"VS","desc":"Valencienne Denain NDB"},
{"type":"NDB","hdg_t":5.7,"dist_nm":42.7,"freq":355,"lat":51.16750000,"lon":4.56638900,"rng_nm":50,"alt_fmsl":0,"id":"ONW","desc":"ANTWERPEN NDB"},
{"type":"NDB","hdg_t":346.7,"dist_nm":43.3,"freq":336,"lat":51.16249800,"lon":4.18916700,"rng_nm":50,"alt_fmsl":0,"id":"NIK","desc":"NICKY NDB"},
{"type":"NDB","hdg_t":1.6,"dist_nm":43.5,"freq":309,"lat":51.18500000,"lon":4.48555600,"rng_nm":25,"alt_fmsl":0,"id":"WW","desc":"ANTWERP NDB"},
{"type":"VOR","hdg_t":346.5,"dist_nm":43.5,"freq":117.4,"lat":51.16500000,"lon":4.18388900,"rng_nm":50,"alt_fmsl":119,"id":"NIK","desc":"NICKY VOR-DME"},
{"type":"VOR","hdg_t":0.9,"dist_nm":43.8,"freq":113.5,"lat":51.19055600,"lon":4.47250000,"rng_nm":25,"alt_fmsl":78,"id":"ANT","desc":"ANTWERPEN VOR-DME"},
{"type":"NDB","hdg_t":70.5,"dist_nm":44.3,"freq":290,"lat":50.70111100,"lon":5.54916700,"rng_nm":25,"alt_fmsl":698,"id":"ONL","desc":"LIEGE NDB"},
{"type":"VOR","hdg_t":85.3,"dist_nm":44.9,"freq":113.1,"lat":50.51472200,"lon":5.62333300,"rng_nm":60,"alt_fmsl":966,"id":"SPI","desc":"SPRIMONT VOR-DME"},
{"type":"NDB","hdg_t":310,"dist_nm":47.4,"freq":360,"lat":50.96472200,"lon":3.49611100,"rng_nm":50,"alt_fmsl":33,"id":"MAK","desc":"MACKEL NDB"},
{"type":"NDB","hdg_t":279.2,"dist_nm":48,"freq":332,"lat":50.58166500,"lon":3.21333300,"rng_nm":25,"alt_fmsl":140,"id":"LL","desc":"Lille NDB"},
{"type":"VOR","hdg_t":80.5,"dist_nm":48.7,"freq":112.8,"lat":50.58583300,"lon":5.71027800,"rng_nm":60,"alt_fmsl":811,"id":"LNO","desc":"OLNO VOR-DME"},
{"type":"SDME","hdg_t":277.6,"dist_nm":51.6,"freq":110.75,"lat":50.56622300,"lon":3.11427700,"rng_nm":25,"alt_fmsl":130,"id":"LIL","desc":"LFQQ 26 DME"},
{"type":"NDB","hdg_t":295.4,"dist_nm":51.7,"freq":371,"lat":50.82402800,"lon":3.22483300,"rng_nm":10,"alt_fmsl":60,"id":"OKT","desc":"KORTRIJK NDB"},
{"type":"VOR","hdg_t":254.9,"dist_nm":51.9,"freq":112.6,"lat":50.22813900,"lon":3.15150000,"rng_nm":80,"alt_fmsl":299,"id":"CMB","desc":"CAMBRAI EPINOY VORTAC"},
{"type":"VOR","hdg_t":277.2,"dist_nm":52.5,"freq":109,"lat":50.56177800,"lon":3.08916700,"rng_nm":40,"alt_fmsl":175,"id":"LEQ","desc":"LILLE LESQUIN VOR-DME"},
{"type":"NDB","hdg_t":1.4,"dist_nm":54.7,"freq":365,"lat":51.37027800,"lon":4.49083300,"rng_nm":15,"alt_fmsl":0,"id":"BC","desc":"BRASSCHAAT NDB"},
{"type":"NDB","hdg_t":88.3,"dist_nm":55.9,"freq":386,"lat":50.47805600,"lon":5.91305600,"rng_nm":10,"alt_fmsl":1542,"id":"SLV","desc":"SPA NDB"},
{"type":"SDME","hdg_t":41.7,"dist_nm":57.5,"freq":109.6,"lat":51.17027800,"lon":5.46638900,"rng_nm":40,"alt_fmsl":180,"id":"BBL","desc":"KLEINE BROGEL TACAN"},
{"type":"NDB","hdg_t":68.7,"dist_nm":58.9,"freq":383,"lat":50.80732200,"lon":5.89546100,"rng_nm":25,"alt_fmsl":492,"id":"GUL","desc":"GULL NDB"},
{"type":"NDB","hdg_t":356.1,"dist_nm":59,"freq":345,"lat":51.43999900,"lon":4.34777800,"rng_nm":150,"alt_fmsl":0,"id":"WDT","desc":"WOENSDRECHT NDB"},
{"type":"VOR","hdg_t":356,"dist_nm":59.4,"freq":115,"lat":51.44750200,"lon":4.34389200,"rng_nm":18,"alt_fmsl":47,"id":"WDT","desc":"Woensdrecht VORTAC"},
{"type":"NDB","hdg_t":42.4,"dist_nm":61.7,"freq":431,"lat":51.21333300,"lon":5.55750000,"rng_nm":35,"alt_fmsl":0,"id":"ONT","desc":"KLEINE BROGEL NDB"},
{"type":"NDB","hdg_t":235.4,"dist_nm":61.9,"freq":382,"lat":49.86750000,"lon":3.13722200,"rng_nm":75,"alt_fmsl":0,"id":"PM","desc":"PERONNE ST QUENTIN NDB"},
{"type":"NDB","hdg_t":57.7,"dist_nm":63.8,"freq":373,"lat":51.01936400,"lon":5.87834400,"rng_nm":15,"alt_fmsl":150,"id":"NW","desc":"MAASTRICHT NDB"},
{"type":"VOR","hdg_t":61.2,"dist_nm":65.1,"freq":108.6,"lat":50.97194200,"lon":5.96042800,"rng_nm":40,"alt_fmsl":283,"id":"MAS","desc":"MAASTRICHT VOR-DME"},
{"type":"VOR","hdg_t":322.4,"dist_nm":67.7,"freq":110.05,"lat":51.34805600,"lon":3.35527800,"rng_nm":60,"alt_fmsl":30,"id":"COA","desc":"COSTA VOR-DME"},
{"type":"SDME","hdg_t":62.9,"dist_nm":67.8,"freq":108.1,"lat":50.96333300,"lon":6.04519700,"rng_nm":40,"alt_fmsl":327,"id":"GIX","desc":"GEILENKIRCHEN TACAN"},
{"type":"NDB","hdg_t":281.4,"dist_nm":68,"freq":404,"lat":50.67166666,"lon":2.70611111,"rng_nm":25,"alt_fmsl":59,"id":"MRV","desc":"Merville Calonne NDB"},
{"type":"VOR","hdg_t":30.1,"dist_nm":68.8,"freq":117.2,"lat":51.44805100,"lon":5.37500100,"rng_nm":18,"alt_fmsl":81,"id":"EHV","desc":"Eindhoven VORTAC"},
{"type":"VOR","hdg_t":15.1,"dist_nm":68.8,"freq":116.4,"lat":51.56611600,"lon":4.93361000,"rng_nm":18,"alt_fmsl":46,"id":"GZR","desc":"Gilze Rijen VORTAC"},
{"type":"VOR","hdg_t":157.6,"dist_nm":69.2,"freq":109.4,"lat":49.39125000,"lon":5.12441700,"rng_nm":100,"alt_fmsl":1076,"id":"MMD","desc":"MONTMEDY-Dun sur Meuse VOR"},
{"type":"NDB","hdg_t":245.9,"dist_nm":69.6,"freq":321,"lat":49.97625555,"lon":2.80941666,"rng_nm":150,"alt_fmsl":361,"id":"ABY","desc":"Albert Bray NDB"},
{"type":"NDB","hdg_t":30.1,"dist_nm":70.2,"freq":397,"lat":51.46777800,"lon":5.39500000,"rng_nm":25,"alt_fmsl":59,"id":"EHN","desc":"EINDHOVEN NDB"},
{"type":"VOR","hdg_t":193,"dist_nm":70.7,"freq":112.3,"lat":49.31163900,"lon":4.04536100,"rng_nm":60,"alt_fmsl":335,"id":"REM","desc":"REIMS CHAMPAGNE VORTAC"},
{"type":"NDB","hdg_t":309.9,"dist_nm":71.6,"freq":399,"lat":51.21750000,"lon":2.99638900,"rng_nm":50,"alt_fmsl":12,"id":"ONO","desc":"OOSTENDE NDB"},
{"type":"NDB","hdg_t":276,"dist_nm":71.7,"freq":327,"lat":50.57194444,"lon":2.58722222,"rng_nm":25,"alt_fmsl":85,"id":"MVC","desc":"Merville Calonne NDB"},
{"type":"NDB","hdg_t":118.4,"dist_nm":74,"freq":307,"lat":49.86138900,"lon":6.12972200,"rng_nm":50,"alt_fmsl":0,"id":"DIK","desc":"DIEKIRCH NDB"},
{"type":"VOR","hdg_t":118.4,"dist_nm":74,"freq":114.4,"lat":49.86138900,"lon":6.12972200,"rng_nm":70,"alt_fmsl":1109,"id":"DIK","desc":"DIEKIRCH VOR-DME"},
{"type":"NDB","hdg_t":306.2,"dist_nm":75.7,"freq":352,"lat":51.19388900,"lon":2.83500000,"rng_nm":25,"alt_fmsl":0,"id":"DD","desc":"OOSTENDE NDB"},
{"type":"NDB","hdg_t":30.6,"dist_nm":77.3,"freq":316,"lat":51.56277800,"lon":5.50555600,"rng_nm":25,"alt_fmsl":0,"id":"PH","desc":"EINDHOVEN NDB"},
{"type":"NDB","hdg_t":354.2,"dist_nm":77.3,"freq":386,"lat":51.74132500,"lon":4.24348600,"rng_nm":15,"alt_fmsl":2,"id":"STD","desc":"STAD NDB"},
{"type":"VOR","hdg_t":299.7,"dist_nm":78.4,"freq":114.5,"lat":51.09472200,"lon":2.65166700,"rng_nm":80,"alt_fmsl":30,"id":"KOK","desc":"KOKSY VORTAC"},
{"type":"VOR","hdg_t":343.7,"dist_nm":79.1,"freq":114.15,"lat":51.72272200,"lon":3.85818100,"rng_nm":80,"alt_fmsl":4,"id":"HSD","desc":"HAAMSTEDE VOR"},
{"type":"NDB","hdg_t":130.2,"dist_nm":81.9,"freq":346,"lat":49.56777800,"lon":6.05416700,"rng_nm":25,"alt_fmsl":0,"id":"WLU","desc":"LUXEMBOURG NDB"},
{"type":"NDB","hdg_t":126.6,"dist_nm":83.7,"freq":404,"lat":49.61333300,"lon":6.17500000,"rng_nm":50,"alt_fmsl":0,"id":"LW","desc":"Luxembourg NDB"},
{"type":"VOR","hdg_t":107.6,"dist_nm":84.3,"freq":115.3,"lat":50.01586100,"lon":6.53178900,"rng_nm":60,"alt_fmsl":1388,"id":"NTM","desc":"NATTENHEIM VORTAC"},
{"type":"NDB","hdg_t":244.7,"dist_nm":84.5,"freq":339,"lat":49.84222222,"lon":2.48416666,"rng_nm":25,"alt_fmsl":335,"id":"GI","desc":"Amiens-Glisy NDB"},
{"type":"NDB","hdg_t":353.8,"dist_nm":84.8,"freq":369,"lat":51.86430000,"lon":4.21048900,"rng_nm":15,"alt_fmsl":0,"id":"PS","desc":"ROTTERDAM LOCATOR NDB"},
{"type":"VOR","hdg_t":124.6,"dist_nm":85,"freq":112.25,"lat":49.63944400,"lon":6.24722200,"rng_nm":25,"alt_fmsl":1234,"id":"LUX","desc":"LUXEMBOURG VOR-DME"},
{"type":"NDB","hdg_t":124.6,"dist_nm":85.1,"freq":318,"lat":49.64110900,"lon":6.24916600,"rng_nm":150,"alt_fmsl":0,"id":"LE","desc":"LUXEMBOURG NDB"},
{"type":"SDME","hdg_t":32.9,"dist_nm":86,"freq":108.3,"lat":51.65555600,"lon":5.70694400,"rng_nm":200,"alt_fmsl":64,"id":"VKL","desc":"VOLKEL TACAN"},
{"type":"VOR","hdg_t":203.5,"dist_nm":86.3,"freq":117.6,"lat":49.13775000,"lon":3.57769400,"rng_nm":100,"alt_fmsl":673,"id":"CTL","desc":"CHATILLON SUR MARNE VOR-DME"},
{"type":"NDB","hdg_t":2.4,"dist_nm":86.4,"freq":350,"lat":51.89758600,"lon":4.55434700,"rng_nm":25,"alt_fmsl":0,"id":"ROT","desc":"ROTTERDAM NDB"},
{"type":"NDB","hdg_t":121.7,"dist_nm":87.1,"freq":368,"lat":49.67972200,"lon":6.35527800,"rng_nm":25,"alt_fmsl":0,"id":"ELU","desc":"LUXEMBOURG NDB"},
{"type":"NDB","hdg_t":146.8,"dist_nm":87.8,"freq":410,"lat":49.22833333,"lon":5.67444444,"rng_nm":25,"alt_fmsl":751,"id":"ETN","desc":"Etain Rouvres NDB"},
{"type":"VOR","hdg_t":74.1,"dist_nm":88.5,"freq":116.2,"lat":50.84066700,"lon":6.69416700,"rng_nm":60,"alt_fmsl":367,"id":"NOR","desc":"NORVENICH VORTAC"},
{"type":"NDB","hdg_t":226.6,"dist_nm":88.6,"freq":553,"lat":49.43444400,"lon":2.80611100,"rng_nm":75,"alt_fmsl":0,"id":"CO","desc":"COMPIEGNE NDB"},
{"type":"VOR","hdg_t":226.7,"dist_nm":88.9,"freq":109.65,"lat":49.43277800,"lon":2.79936100,"rng_nm":130,"alt_fmsl":288,"id":"CPE","desc":"COMPIEGNE VOR-DME"},
{"type":"NDB","hdg_t":153.4,"dist_nm":89.5,"freq":392,"lat":49.12222300,"lon":5.46888900,"rng_nm":75,"alt_fmsl":0,"id":"VUN","desc":"VERDUN NDB"},
{"type":"VOR","hdg_t":58.1,"dist_nm":90.4,"freq":109.8,"lat":51.23730000,"lon":6.49024400,"rng_nm":40,"alt_fmsl":156,"id":"MHV","desc":"MONCHENGLADBACH VOR"},
{"type":"SDME","hdg_t":58.2,"dist_nm":90.4,"freq":112.5,"lat":51.23490800,"lon":6.49196900,"rng_nm":25,"alt_fmsl":159,"id":"MHD","desc":"MONCHENGLADBACH DME"},
{"type":"NDB","hdg_t":58.6,"dist_nm":90.6,"freq":377,"lat":51.22732200,"lon":6.50541100,"rng_nm":15,"alt_fmsl":125,"id":"MGB","desc":"MONCHENGLADBACH NDB"},
{"type":"VOR","hdg_t":0.6,"dist_nm":90.9,"freq":110.4,"lat":51.97369700,"lon":4.48096900,"rng_nm":50,"alt_fmsl":34,"id":"RTM","desc":"ROTTERDAM VOR-DME"},
{"type":"SDME","hdg_t":107.6,"dist_nm":91.1,"freq":109.5,"lat":49.97899400,"lon":6.69769700,"rng_nm":60,"alt_fmsl":1161,"id":"SPA","desc":"SPANGDAHLEM TACAN"},
{"type":"NDB","hdg_t":52.6,"dist_nm":91.8,"freq":311,"lat":51.37083300,"lon":6.39500000,"rng_nm":25,"alt_fmsl":0,"id":"LMA","desc":"LIMA NDB"},
{"type":"NDB","hdg_t":7.1,"dist_nm":93.5,"freq":404,"lat":52.00437500,"lon":4.76905300,"rng_nm":15,"alt_fmsl":0,"id":"RR","desc":"ROTTERDAM LOCATOR NDB"},
{"type":"VOR","hdg_t":235.1,"dist_nm":93.5,"freq":113.65,"lat":49.55263900,"lon":2.48947200,"rng_nm":60,"alt_fmsl":0,"id":"MTD","desc":"MONTDIDIER VOR"},
{"type":"SDME","hdg_t":7.1,"dist_nm":93.5,"freq":117.15,"lat":52.00434700,"lon":4.76913100,"rng_nm":70,"alt_fmsl":0,"id":"FRT","desc":"HAASTRECHT DME"},
{"type":"VOR","hdg_t":215.9,"dist_nm":93.6,"freq":114.85,"lat":49.18830600,"lon":3.05647200,"rng_nm":60,"alt_fmsl":476,"id":"BSN","desc":"BOURSONNE VOR-DME"},
{"type":"SDME","hdg_t":42.3,"dist_nm":93.6,"freq":115.5,"lat":51.59996700,"lon":6.14148100,"rng_nm":40,"alt_fmsl":152,"id":"NID","desc":"NIEDERRHEIN DME"},
{"type":"NDB","hdg_t":60,"dist_nm":95.8,"freq":284,"lat":51.23555400,"lon":6.65500000,"rng_nm":150,"alt_fmsl":0,"id":"DY","desc":"DUSSELDORF NDB"},
{"type":"NDB","hdg_t":110.9,"dist_nm":96.8,"freq":474,"lat":49.85916500,"lon":6.78305600,"rng_nm":150,"alt_fmsl":0,"id":"TX","desc":"TRIER NDB"},
{"type":"NDB","hdg_t":290.3,"dist_nm":96.9,"freq":418,"lat":50.99611111,"lon":2.05444444,"rng_nm":25,"alt_fmsl":9,"id":"MK","desc":"Calais Dunkerque NDB"},
{"type":"VOR","hdg_t":276.7,"dist_nm":97.9,"freq":113.8,"lat":50.62477800,"lon":1.90711100,"rng_nm":70,"alt_fmsl":584,"id":"BNE","desc":"BOULOGNE SUR MER VOR"},
{"type":"NDB","hdg_t":135.5,"dist_nm":98.4,"freq":354,"lat":49.27638888,"lon":6.20861111,"rng_nm":25,"alt_fmsl":604,"id":"MTZ","desc":"Metz Nancy Lorraine NDB"},
{"type":"NDB","hdg_t":355.6,"dist_nm":98.4,"freq":364,"lat":52.09416600,"lon":4.25361100,"rng_nm":150,"alt_fmsl":0,"id":"GV","desc":"SCHEVENINGEN NDB"},
{"type":"NDB","hdg_t":58.1,"dist_nm":99.4,"freq":329,"lat":51.31305700,"lon":6.69666700,"rng_nm":150,"alt_fmsl":0,"id":"DUE","desc":"DUSSELDORF NDB"}
]
}
