{"success":true,"source":"xp2csv.pl","last_updated":"2013/11/08 14:53:21 UTC"
,"icao":"EBGB","name":"Grimbergen","lat":50.94862647,"lon":4.391853,"rwys":1,"ils":0,"index":3023673,"path":"e000n50/e004n50"
,"runways":[
{"len_m":633,"wid_m":39.01,"hdg":10,"surf":"Turf/grass","rwy1":"02","lat1":50.94582907,"lon1":4.39103085,"rwy2":"20","lat2":50.95142388,"lon2":4.39267515}
]
,"radios":[
{"type":"ATIS","freq":127.8,"desc":"Brussels Volmet"},
{"type":"CTAF","freq":119.5,"desc":"Grimbergen Radio"},
{"type":"CLD","freq":126.62,"desc":"Brussels Departure"}
]
,"navaids":[
{"type":"VOR","hdg_t":116.6,"dist_nm":6.2,"freq":114.6,"lat":50.90222200,"lon":4.53805600,"rng_nm":100,"alt_fmsl":187,"id":"BUB","desc":"BRUSSELS VOR-DME"},
{"type":"NDB","hdg_t":94.4,"dist_nm":7.6,"freq":402,"lat":50.93861100,"lon":4.59222200,"rng_nm":25,"alt_fmsl":0,"id":"OP","desc":"Brussels NDB"},
{"type":"NDB","hdg_t":158.6,"dist_nm":7.8,"freq":314,"lat":50.82694400,"lon":4.46694400,"rng_nm":25,"alt_fmsl":0,"id":"OZ","desc":"BRUSSELS NDB"},
{"type":"NDB","hdg_t":101.2,"dist_nm":8.6,"freq":293,"lat":50.92027800,"lon":4.61638900,"rng_nm":25,"alt_fmsl":0,"id":"OB","desc":"BRUSSELS NDB"},
{"type":"VOR","hdg_t":255.7,"dist_nm":9.9,"freq":114.9,"lat":50.90777800,"lon":4.13888900,"rng_nm":40,"alt_fmsl":284,"id":"AFI","desc":"AFFLIGEM VOR-DME"},
{"type":"NDB","hdg_t":253.5,"dist_nm":14.3,"freq":393,"lat":50.88028000,"lon":4.02888900,"rng_nm":50,"alt_fmsl":0,"id":"DEN","desc":"DENDER NDB"},
{"type":"NDB","hdg_t":13.9,"dist_nm":14.6,"freq":309,"lat":51.18500000,"lon":4.48555600,"rng_nm":25,"alt_fmsl":0,"id":"WW","desc":"ANTWERP NDB"},
{"type":"NDB","hdg_t":26.6,"dist_nm":14.7,"freq":355,"lat":51.16750000,"lon":4.56638900,"rng_nm":50,"alt_fmsl":0,"id":"ONW","desc":"ANTWERPEN NDB"},
{"type":"VOR","hdg_t":11.8,"dist_nm":14.8,"freq":113.5,"lat":51.19055600,"lon":4.47250000,"rng_nm":25,"alt_fmsl":78,"id":"ANT","desc":"ANTWERPEN VOR-DME"},
{"type":"NDB","hdg_t":329.2,"dist_nm":14.9,"freq":336,"lat":51.16249800,"lon":4.18916700,"rng_nm":50,"alt_fmsl":0,"id":"NIK","desc":"NICKY NDB"},
{"type":"VOR","hdg_t":328.8,"dist_nm":15.1,"freq":117.4,"lat":51.16500000,"lon":4.18388900,"rng_nm":50,"alt_fmsl":119,"id":"NIK","desc":"NICKY VOR-DME"},
{"type":"VOR","hdg_t":141.4,"dist_nm":15.2,"freq":117.55,"lat":50.74944400,"lon":4.64166700,"rng_nm":40,"alt_fmsl":335,"id":"HUL","desc":"HULDENBERG VOR-DME"},
{"type":"NDB","hdg_t":193.9,"dist_nm":15.7,"freq":283,"lat":50.69472100,"lon":4.29222200,"rng_nm":50,"alt_fmsl":0,"id":"BUS","desc":"BRESSY NDB"},
{"type":"NDB","hdg_t":62.1,"dist_nm":16.5,"freq":341,"lat":51.07694600,"lon":4.77944400,"rng_nm":50,"alt_fmsl":0,"id":"BUN","desc":"BRUNO NDB"},
{"type":"SDME","hdg_t":128.7,"dist_nm":18.3,"freq":116,"lat":50.75638900,"lon":4.76805600,"rng_nm":100,"alt_fmsl":370,"id":"BBE","desc":"BEAUVECHAIN TACAN"},
{"type":"VOR","hdg_t":58.9,"dist_nm":19.8,"freq":110.6,"lat":51.11861100,"lon":4.84194400,"rng_nm":25,"alt_fmsl":69,"id":"BUN","desc":"BRUNO VOR-DME"},
{"type":"NDB","hdg_t":114.8,"dist_nm":23.4,"freq":212,"lat":50.78277600,"lon":4.95111100,"rng_nm":50,"alt_fmsl":0,"id":"TN","desc":"GOETSENHOVEN NDB"},
{"type":"NDB","hdg_t":8.3,"dist_nm":25.6,"freq":365,"lat":51.37027800,"lon":4.49083300,"rng_nm":15,"alt_fmsl":0,"id":"BC","desc":"BRASSCHAAT NDB"},
{"type":"NDB","hdg_t":167.2,"dist_nm":28.2,"freq":323,"lat":50.48944400,"lon":4.55527800,"rng_nm":50,"alt_fmsl":0,"id":"ONC","desc":"CHARLEROI NDB"},
{"type":"VOR","hdg_t":98.4,"dist_nm":28.5,"freq":112.05,"lat":50.87666700,"lon":5.13444400,"rng_nm":100,"alt_fmsl":187,"id":"FLO","desc":"FLORA VOR-DME"},
{"type":"NDB","hdg_t":172.9,"dist_nm":29,"freq":389,"lat":50.46888900,"lon":4.48472200,"rng_nm":15,"alt_fmsl":0,"id":"CC","desc":"CHARLEROI LCTR NDB"},
{"type":"NDB","hdg_t":356.7,"dist_nm":29.5,"freq":345,"lat":51.43999900,"lon":4.34777800,"rng_nm":150,"alt_fmsl":0,"id":"WDT","desc":"WOENSDRECHT NDB"},
{"type":"VOR","hdg_t":176.3,"dist_nm":29.7,"freq":115.7,"lat":50.45388900,"lon":4.44138900,"rng_nm":30,"alt_fmsl":654,"id":"GSY","desc":"GOSLY VOR-DME"},
{"type":"VOR","hdg_t":356.5,"dist_nm":30,"freq":115,"lat":51.44750200,"lon":4.34389200,"rng_nm":18,"alt_fmsl":47,"id":"WDT","desc":"Woensdrecht VORTAC"},
{"type":"VOR","hdg_t":223.6,"dist_nm":30.9,"freq":113.2,"lat":50.57388900,"lon":3.83277800,"rng_nm":60,"alt_fmsl":221,"id":"CIV","desc":"CHIEVRES VOR"},
{"type":"NDB","hdg_t":108.1,"dist_nm":31.8,"freq":510,"lat":50.78075000,"lon":5.18706700,"rng_nm":50,"alt_fmsl":230,"id":"ST","desc":"St Truiden NDB"},
{"type":"VOR","hdg_t":106.6,"dist_nm":31.9,"freq":109.65,"lat":50.79365158,"lon":5.19530010,"rng_nm":60,"alt_fmsl":223,"id":"BVG","desc":"Bevingen VORTAC"},
{"type":"NDB","hdg_t":271.9,"dist_nm":33.9,"freq":360,"lat":50.96472200,"lon":3.49611100,"rng_nm":50,"alt_fmsl":33,"id":"MAK","desc":"MACKEL NDB"},
{"type":"VOR","hdg_t":28.6,"dist_nm":42.3,"freq":116.4,"lat":51.56611600,"lon":4.93361000,"rng_nm":18,"alt_fmsl":46,"id":"GZR","desc":"Gilze Rijen VORTAC"},
{"type":"SDME","hdg_t":71.4,"dist_nm":42.8,"freq":109.6,"lat":51.17027800,"lon":5.46638900,"rng_nm":40,"alt_fmsl":180,"id":"BBL","desc":"KLEINE BROGEL TACAN"},
{"type":"SDME","hdg_t":166.6,"dist_nm":43.6,"freq":111.5,"lat":50.24138900,"lon":4.65305600,"rng_nm":100,"alt_fmsl":954,"id":"BFS","desc":"FLORENNES TACAN"},
{"type":"NDB","hdg_t":113.2,"dist_nm":44.6,"freq":348,"lat":50.65009200,"lon":5.46676900,"rng_nm":25,"alt_fmsl":550,"id":"LG","desc":"LIEGE NDB"},
{"type":"VOR","hdg_t":112.9,"dist_nm":44.7,"freq":115.45,"lat":50.65388900,"lon":5.47055600,"rng_nm":25,"alt_fmsl":698,"id":"LGE","desc":"LIEGE VOR-DME"},
{"type":"NDB","hdg_t":260.8,"dist_nm":44.9,"freq":371,"lat":50.82402800,"lon":3.22483300,"rng_nm":10,"alt_fmsl":60,"id":"OKT","desc":"KORTRIJK NDB"},
{"type":"VOR","hdg_t":301.8,"dist_nm":45.9,"freq":110.05,"lat":51.34805600,"lon":3.35527800,"rng_nm":60,"alt_fmsl":30,"id":"COA","desc":"COSTA VOR-DME"},
{"type":"NDB","hdg_t":108.2,"dist_nm":46.4,"freq":290,"lat":50.70111100,"lon":5.54916700,"rng_nm":25,"alt_fmsl":698,"id":"ONL","desc":"LIEGE NDB"},
{"type":"NDB","hdg_t":69.7,"dist_nm":46.8,"freq":431,"lat":51.21333300,"lon":5.55750000,"rng_nm":35,"alt_fmsl":0,"id":"ONT","desc":"KLEINE BROGEL NDB"},
{"type":"VOR","hdg_t":50.6,"dist_nm":47.7,"freq":117.2,"lat":51.44805100,"lon":5.37500100,"rng_nm":18,"alt_fmsl":81,"id":"EHV","desc":"Eindhoven VORTAC"},
{"type":"NDB","hdg_t":353.3,"dist_nm":47.9,"freq":386,"lat":51.74132500,"lon":4.24348600,"rng_nm":15,"alt_fmsl":2,"id":"STD","desc":"STAD NDB"},
{"type":"NDB","hdg_t":50.1,"dist_nm":49,"freq":397,"lat":51.46777800,"lon":5.39500000,"rng_nm":25,"alt_fmsl":59,"id":"EHN","desc":"EINDHOVEN NDB"},
{"type":"NDB","hdg_t":244.3,"dist_nm":50,"freq":332,"lat":50.58166500,"lon":3.21333300,"rng_nm":25,"alt_fmsl":140,"id":"LL","desc":"Lille NDB"},
{"type":"VOR","hdg_t":336.8,"dist_nm":50.6,"freq":114.15,"lat":51.72272200,"lon":3.85818100,"rng_nm":80,"alt_fmsl":4,"id":"HSD","desc":"HAAMSTEDE VOR"},
{"type":"NDB","hdg_t":228.2,"dist_nm":53.4,"freq":317,"lat":50.35194444,"lon":3.35388888,"rng_nm":25,"alt_fmsl":108,"id":"VS","desc":"Valencienne Denain NDB"},
{"type":"VOR","hdg_t":118.5,"dist_nm":53.6,"freq":113.1,"lat":50.51472200,"lon":5.62333300,"rng_nm":60,"alt_fmsl":966,"id":"SPI","desc":"SPRIMONT VOR-DME"},
{"type":"SDME","hdg_t":245.2,"dist_nm":53.8,"freq":110.75,"lat":50.56622300,"lon":3.11427700,"rng_nm":25,"alt_fmsl":130,"id":"LIL","desc":"LFQQ 26 DME"},
{"type":"VOR","hdg_t":112.9,"dist_nm":54.7,"freq":112.8,"lat":50.58583300,"lon":5.71027800,"rng_nm":60,"alt_fmsl":811,"id":"LNO","desc":"OLNO VOR-DME"},
{"type":"VOR","hdg_t":245.4,"dist_nm":54.8,"freq":109,"lat":50.56177800,"lon":3.08916700,"rng_nm":40,"alt_fmsl":175,"id":"LEQ","desc":"LILLE LESQUIN VOR-DME"},
{"type":"NDB","hdg_t":287.5,"dist_nm":55.2,"freq":399,"lat":51.21750000,"lon":2.99638900,"rng_nm":50,"alt_fmsl":12,"id":"ONO","desc":"OOSTENDE NDB"},
{"type":"NDB","hdg_t":353,"dist_nm":55.4,"freq":369,"lat":51.86430000,"lon":4.21048900,"rng_nm":15,"alt_fmsl":0,"id":"PS","desc":"ROTTERDAM LOCATOR NDB"},
{"type":"NDB","hdg_t":48.2,"dist_nm":55.8,"freq":316,"lat":51.56277800,"lon":5.50555600,"rng_nm":25,"alt_fmsl":0,"id":"PH","desc":"EINDHOVEN NDB"},
{"type":"NDB","hdg_t":85.1,"dist_nm":56.5,"freq":373,"lat":51.01936400,"lon":5.87834400,"rng_nm":15,"alt_fmsl":150,"id":"NW","desc":"MAASTRICHT NDB"},
{"type":"NDB","hdg_t":6,"dist_nm":57.3,"freq":350,"lat":51.89758600,"lon":4.55434700,"rng_nm":25,"alt_fmsl":0,"id":"ROT","desc":"ROTTERDAM NDB"},
{"type":"NDB","hdg_t":97.8,"dist_nm":57.7,"freq":383,"lat":50.80732200,"lon":5.89546100,"rng_nm":25,"alt_fmsl":492,"id":"GUL","desc":"GULL NDB"},
{"type":"VOR","hdg_t":88,"dist_nm":59.5,"freq":108.6,"lat":50.97194200,"lon":5.96042800,"rng_nm":40,"alt_fmsl":283,"id":"MAS","desc":"MAASTRICHT VOR-DME"},
{"type":"NDB","hdg_t":284.6,"dist_nm":60.7,"freq":352,"lat":51.19388900,"lon":2.83500000,"rng_nm":25,"alt_fmsl":0,"id":"DD","desc":"OOSTENDE NDB"},
{"type":"VOR","hdg_t":3,"dist_nm":61.6,"freq":110.4,"lat":51.97369700,"lon":4.48096900,"rng_nm":50,"alt_fmsl":34,"id":"RTM","desc":"ROTTERDAM VOR-DME"},
{"type":"SDME","hdg_t":88.5,"dist_nm":62.7,"freq":108.1,"lat":50.96333300,"lon":6.04519700,"rng_nm":40,"alt_fmsl":327,"id":"GIX","desc":"GEILENKIRCHEN TACAN"},
{"type":"VOR","hdg_t":228.1,"dist_nm":64.2,"freq":112.6,"lat":50.22813900,"lon":3.15150000,"rng_nm":80,"alt_fmsl":299,"id":"CMB","desc":"CAMBRAI EPINOY VORTAC"},
{"type":"NDB","hdg_t":115.3,"dist_nm":64.5,"freq":386,"lat":50.47805600,"lon":5.91305600,"rng_nm":10,"alt_fmsl":1542,"id":"SLV","desc":"SPA NDB"},
{"type":"NDB","hdg_t":12.4,"dist_nm":64.9,"freq":404,"lat":52.00437500,"lon":4.76905300,"rng_nm":15,"alt_fmsl":0,"id":"RR","desc":"ROTTERDAM LOCATOR NDB"},
{"type":"SDME","hdg_t":12.4,"dist_nm":64.9,"freq":117.15,"lat":52.00434700,"lon":4.76913100,"rng_nm":70,"alt_fmsl":0,"id":"FRT","desc":"HAASTRECHT DME"},
{"type":"SDME","hdg_t":48.8,"dist_nm":65.2,"freq":108.3,"lat":51.65555600,"lon":5.70694400,"rng_nm":200,"alt_fmsl":64,"id":"VKL","desc":"VOLKEL TACAN"},
{"type":"NDB","hdg_t":256.1,"dist_nm":66.2,"freq":404,"lat":50.67166666,"lon":2.70611111,"rng_nm":25,"alt_fmsl":59,"id":"MRV","desc":"Merville Calonne NDB"},
{"type":"VOR","hdg_t":278.2,"dist_nm":66.5,"freq":114.5,"lat":51.09472200,"lon":2.65166700,"rng_nm":80,"alt_fmsl":30,"id":"KOK","desc":"KOKSY VORTAC"},
{"type":"NDB","hdg_t":175.3,"dist_nm":68.4,"freq":379,"lat":49.81305555,"lon":4.53527777,"rng_nm":25,"alt_fmsl":581,"id":"CZ","desc":"Charleville Mezieres NDB"},
{"type":"NDB","hdg_t":355.7,"dist_nm":69,"freq":364,"lat":52.09416600,"lon":4.25361100,"rng_nm":150,"alt_fmsl":0,"id":"GV","desc":"SCHEVENINGEN NDB"},
{"type":"NDB","hdg_t":252.4,"dist_nm":72.3,"freq":327,"lat":50.57194444,"lon":2.58722222,"rng_nm":25,"alt_fmsl":85,"id":"MVC","desc":"Merville Calonne NDB"},
{"type":"SDME","hdg_t":0.6,"dist_nm":72.8,"freq":111.2,"lat":52.16138900,"lon":4.41416700,"rng_nm":100,"alt_fmsl":1,"id":"VBG","desc":"VALKENBURG TACAN"},
{"type":"NDB","hdg_t":10.7,"dist_nm":73.5,"freq":332,"lat":52.15139444,"lon":4.76483333,"rng_nm":15,"alt_fmsl":0,"id":"NV","desc":"SCHIPHOL LOCATOR NDB"},
{"type":"NDB","hdg_t":4.5,"dist_nm":76.6,"freq":388,"lat":52.22061700,"lon":4.55760000,"rng_nm":25,"alt_fmsl":0,"id":"CH","desc":"SCHIPHOL NDB"},
{"type":"SDME","hdg_t":58.6,"dist_nm":76.6,"freq":115.5,"lat":51.59996700,"lon":6.14148100,"rng_nm":40,"alt_fmsl":152,"id":"NID","desc":"NIEDERRHEIN DME"},
{"type":"VOR","hdg_t":24.6,"dist_nm":78.2,"freq":115.8,"lat":52.12832600,"lon":5.27556200,"rng_nm":18,"alt_fmsl":49,"id":"SSB","desc":"Soesterberg VORTAC"},
{"type":"NDB","hdg_t":70.6,"dist_nm":79.8,"freq":311,"lat":51.37083300,"lon":6.39500000,"rng_nm":25,"alt_fmsl":0,"id":"LMA","desc":"LIMA NDB"},
{"type":"NDB","hdg_t":217,"dist_nm":80.8,"freq":382,"lat":49.86750000,"lon":3.13722200,"rng_nm":75,"alt_fmsl":0,"id":"PM","desc":"PERONNE ST QUENTIN NDB"},
{"type":"VOR","hdg_t":76.8,"dist_nm":81.2,"freq":109.8,"lat":51.23730000,"lon":6.49024400,"rng_nm":40,"alt_fmsl":156,"id":"MHV","desc":"MONCHENGLADBACH VOR"},
{"type":"SDME","hdg_t":76.9,"dist_nm":81.2,"freq":112.5,"lat":51.23490800,"lon":6.49196900,"rng_nm":25,"alt_fmsl":159,"id":"MHD","desc":"MONCHENGLADBACH DME"},
{"type":"NDB","hdg_t":77.3,"dist_nm":81.6,"freq":377,"lat":51.22732200,"lon":6.50541100,"rng_nm":15,"alt_fmsl":125,"id":"MGB","desc":"MONCHENGLADBACH NDB"},
{"type":"VOR","hdg_t":7.9,"dist_nm":83.9,"freq":113.95,"lat":52.33277800,"lon":4.70555600,"rng_nm":25,"alt_fmsl":-7,"id":"AMS","desc":"AMSTERDAM VOR-DME"},
{"type":"VOR","hdg_t":9,"dist_nm":84.1,"freq":108.4,"lat":52.33214400,"lon":4.74988300,"rng_nm":260,"alt_fmsl":14,"id":"SPL","desc":"SCHIPHOL VOR-DME"},
{"type":"NDB","hdg_t":226.7,"dist_nm":84.2,"freq":321,"lat":49.97625555,"lon":2.80941666,"rng_nm":150,"alt_fmsl":361,"id":"ABY","desc":"Albert Bray NDB"},
{"type":"NDB","hdg_t":15.7,"dist_nm":86,"freq":376,"lat":52.32610300,"lon":5.02472200,"rng_nm":15,"alt_fmsl":0,"id":"WP","desc":"Schiphol locator NDB"},
{"type":"VOR","hdg_t":39.2,"dist_nm":86.7,"freq":112.2,"lat":52.05723200,"lon":5.87278300,"rng_nm":18,"alt_fmsl":158,"id":"DLN","desc":"Deelen VORTAC"},
{"type":"VOR","hdg_t":17.1,"dist_nm":87.2,"freq":117.8,"lat":52.33476100,"lon":5.09216100,"rng_nm":80,"alt_fmsl":27,"id":"PAM","desc":"PAMPUS VOR-DME"},
{"type":"NDB","hdg_t":77.7,"dist_nm":87.3,"freq":284,"lat":51.23555400,"lon":6.65500000,"rng_nm":150,"alt_fmsl":0,"id":"DY","desc":"DUSSELDORF NDB"},
{"type":"VOR","hdg_t":93.3,"dist_nm":87.7,"freq":116.2,"lat":50.84066700,"lon":6.69416700,"rng_nm":60,"alt_fmsl":367,"id":"NOR","desc":"NORVENICH VORTAC"},
{"type":"NDB","hdg_t":272.7,"dist_nm":88.6,"freq":418,"lat":50.99611111,"lon":2.05444444,"rng_nm":25,"alt_fmsl":9,"id":"MK","desc":"Calais Dunkerque NDB"},
{"type":"NDB","hdg_t":74.9,"dist_nm":89.8,"freq":329,"lat":51.31305700,"lon":6.69666700,"rng_nm":150,"alt_fmsl":0,"id":"DUE","desc":"DUSSELDORF NDB"},
{"type":"VOR","hdg_t":76.3,"dist_nm":91.5,"freq":115.15,"lat":51.28318900,"lon":6.75372500,"rng_nm":130,"alt_fmsl":151,"id":"DUS","desc":"DUSSELDORF VOR-DME"},
{"type":"NDB","hdg_t":8.2,"dist_nm":92.4,"freq":395,"lat":52.47027200,"lon":4.75332600,"rng_nm":15,"alt_fmsl":0,"id":"OA","desc":"Schiphol Locator NDB"},
{"type":"NDB","hdg_t":133.7,"dist_nm":93.3,"freq":307,"lat":49.86138900,"lon":6.12972200,"rng_nm":50,"alt_fmsl":0,"id":"DIK","desc":"DIEKIRCH NDB"},
{"type":"VOR","hdg_t":133.7,"dist_nm":93.3,"freq":114.4,"lat":49.86138900,"lon":6.12972200,"rng_nm":70,"alt_fmsl":1109,"id":"DIK","desc":"DIEKIRCH VOR-DME"},
{"type":"VOR","hdg_t":259.3,"dist_nm":96.5,"freq":113.8,"lat":50.62477800,"lon":1.90711100,"rng_nm":70,"alt_fmsl":584,"id":"BNE","desc":"BOULOGNE SUR MER VOR"},
{"type":"NDB","hdg_t":9.7,"dist_nm":97.1,"freq":381,"lat":52.54166800,"lon":4.84138900,"rng_nm":150,"alt_fmsl":0,"id":"SPY","desc":"SPIJKERBOOR NDB"},
{"type":"VOR","hdg_t":10,"dist_nm":97.1,"freq":113.3,"lat":52.54028100,"lon":4.85378100,"rng_nm":100,"alt_fmsl":26,"id":"SPY","desc":"SPIJKERBOOR VOR-DME"},
{"type":"NDB","hdg_t":74.8,"dist_nm":97.4,"freq":417,"lat":51.34698900,"lon":6.89128300,"rng_nm":25,"alt_fmsl":0,"id":"LI","desc":"DUSSELDORF NDB"},
{"type":"VOR","hdg_t":162.9,"dist_nm":97.7,"freq":109.4,"lat":49.39125000,"lon":5.12441700,"rng_nm":100,"alt_fmsl":1076,"id":"MMD","desc":"MONTMEDY-Dun sur Meuse VOR"},
{"type":"NDB","hdg_t":228.5,"dist_nm":98.8,"freq":339,"lat":49.84222222,"lon":2.48416666,"rng_nm":25,"alt_fmsl":335,"id":"GI","desc":"Amiens-Glisy NDB"},
{"type":"VOR","hdg_t":187.8,"dist_nm":99.2,"freq":112.3,"lat":49.31163900,"lon":4.04536100,"rng_nm":60,"alt_fmsl":335,"id":"REM","desc":"REIMS CHAMPAGNE VORTAC"},
{"type":"VOR","hdg_t":123.5,"dist_nm":99.3,"freq":115.3,"lat":50.01586100,"lon":6.53178900,"rng_nm":60,"alt_fmsl":1388,"id":"NTM","desc":"NATTENHEIM VORTAC"},
{"type":"SDME","hdg_t":24.3,"dist_nm":99.3,"freq":111.4,"lat":52.45003600,"lon":5.50772500,"rng_nm":70,"alt_fmsl":0,"id":"FRT","desc":"LELYSTAD DME"}
]
}
