{"success":true,"source":"xp2csv.pl","last_updated":"2013/11/08 14:53:21 UTC"
,"icao":"EBGG","name":"Geraardsbergen Overboelare","lat":50.755005,"lon":3.865231,"rwys":1,"ils":0,"index":3007283,"path":"e000n50/e003n50"
,"runways":[
{"len_m":601,"wid_m":30.48,"hdg":35,"surf":"Turf/grass","rwy1":"03","lat1":50.75279403,"lon1":3.86278389,"rwy2":"21","lat2":50.75721597,"lon2":3.86767811}
]
,"navaids":[
{"type":"NDB","hdg_t":39.5,"dist_nm":9.7,"freq":393,"lat":50.88028000,"lon":4.02888900,"rng_nm":50,"alt_fmsl":0,"id":"DEN","desc":"DENDER NDB"},
{"type":"VOR","hdg_t":186.5,"dist_nm":10.9,"freq":113.2,"lat":50.57388900,"lon":3.83277800,"rng_nm":60,"alt_fmsl":221,"id":"CIV","desc":"CHIEVRES VOR"},
{"type":"VOR","hdg_t":48.4,"dist_nm":13.8,"freq":114.9,"lat":50.90777800,"lon":4.13888900,"rng_nm":40,"alt_fmsl":284,"id":"AFI","desc":"AFFLIGEM VOR-DME"},
{"type":"NDB","hdg_t":102.3,"dist_nm":16.6,"freq":283,"lat":50.69472100,"lon":4.29222200,"rng_nm":50,"alt_fmsl":0,"id":"BUS","desc":"BRESSY NDB"},
{"type":"NDB","hdg_t":312,"dist_nm":18.8,"freq":360,"lat":50.96472200,"lon":3.49611100,"rng_nm":50,"alt_fmsl":33,"id":"MAK","desc":"MACKEL NDB"},
{"type":"NDB","hdg_t":79,"dist_nm":23.3,"freq":314,"lat":50.82694400,"lon":4.46694400,"rng_nm":25,"alt_fmsl":0,"id":"OZ","desc":"BRUSSELS NDB"},
{"type":"NDB","hdg_t":279.8,"dist_nm":24.7,"freq":371,"lat":50.82402800,"lon":3.22483300,"rng_nm":10,"alt_fmsl":60,"id":"OKT","desc":"KORTRIJK NDB"},
{"type":"NDB","hdg_t":247.5,"dist_nm":26.9,"freq":332,"lat":50.58166500,"lon":3.21333300,"rng_nm":25,"alt_fmsl":140,"id":"LL","desc":"Lille NDB"},
{"type":"VOR","hdg_t":70.6,"dist_nm":27,"freq":114.6,"lat":50.90222200,"lon":4.53805600,"rng_nm":100,"alt_fmsl":187,"id":"BUB","desc":"BRUSSELS VOR-DME"},
{"type":"NDB","hdg_t":26.5,"dist_nm":27.3,"freq":336,"lat":51.16249800,"lon":4.18916700,"rng_nm":50,"alt_fmsl":0,"id":"NIK","desc":"NICKY NDB"},
{"type":"VOR","hdg_t":26,"dist_nm":27.4,"freq":117.4,"lat":51.16500000,"lon":4.18388900,"rng_nm":50,"alt_fmsl":119,"id":"NIK","desc":"NICKY VOR-DME"},
{"type":"VOR","hdg_t":129.1,"dist_nm":28.4,"freq":115.7,"lat":50.45388900,"lon":4.44138900,"rng_nm":30,"alt_fmsl":654,"id":"GSY","desc":"GOSLY VOR-DME"},
{"type":"NDB","hdg_t":125.7,"dist_nm":29.2,"freq":389,"lat":50.46888900,"lon":4.48472200,"rng_nm":15,"alt_fmsl":0,"id":"CC","desc":"CHARLEROI LCTR NDB"},
{"type":"VOR","hdg_t":90.3,"dist_nm":29.5,"freq":117.55,"lat":50.74944400,"lon":4.64166700,"rng_nm":40,"alt_fmsl":335,"id":"HUL","desc":"HULDENBERG VOR-DME"},
{"type":"NDB","hdg_t":67.9,"dist_nm":29.7,"freq":402,"lat":50.93861100,"lon":4.59222200,"rng_nm":25,"alt_fmsl":0,"id":"OP","desc":"Brussels NDB"},
{"type":"NDB","hdg_t":70.5,"dist_nm":30.2,"freq":293,"lat":50.92027800,"lon":4.61638900,"rng_nm":25,"alt_fmsl":0,"id":"OB","desc":"BRUSSELS NDB"},
{"type":"NDB","hdg_t":120.9,"dist_nm":30.8,"freq":323,"lat":50.48944400,"lon":4.55527800,"rng_nm":50,"alt_fmsl":0,"id":"ONC","desc":"CHARLEROI NDB"},
{"type":"SDME","hdg_t":248.7,"dist_nm":30.8,"freq":110.75,"lat":50.56622300,"lon":3.11427700,"rng_nm":25,"alt_fmsl":130,"id":"LIL","desc":"LFQQ 26 DME"},
{"type":"NDB","hdg_t":219.1,"dist_nm":31.1,"freq":317,"lat":50.35194444,"lon":3.35388888,"rng_nm":25,"alt_fmsl":108,"id":"VS","desc":"Valencienne Denain NDB"},
{"type":"VOR","hdg_t":248.9,"dist_nm":31.8,"freq":109,"lat":50.56177800,"lon":3.08916700,"rng_nm":40,"alt_fmsl":175,"id":"LEQ","desc":"LILLE LESQUIN VOR-DME"},
{"type":"SDME","hdg_t":89.5,"dist_nm":34.3,"freq":116,"lat":50.75638900,"lon":4.76805600,"rng_nm":100,"alt_fmsl":370,"id":"BBE","desc":"BEAUVECHAIN TACAN"},
{"type":"VOR","hdg_t":41.1,"dist_nm":34.8,"freq":113.5,"lat":51.19055600,"lon":4.47250000,"rng_nm":25,"alt_fmsl":78,"id":"ANT","desc":"ANTWERPEN VOR-DME"},
{"type":"NDB","hdg_t":42,"dist_nm":34.9,"freq":309,"lat":51.18500000,"lon":4.48555600,"rng_nm":25,"alt_fmsl":0,"id":"WW","desc":"ANTWERP NDB"},
{"type":"NDB","hdg_t":46.7,"dist_nm":36.3,"freq":355,"lat":51.16750000,"lon":4.56638900,"rng_nm":50,"alt_fmsl":0,"id":"ONW","desc":"ANTWERPEN NDB"},
{"type":"NDB","hdg_t":60.5,"dist_nm":39.7,"freq":341,"lat":51.07694600,"lon":4.77944400,"rng_nm":50,"alt_fmsl":0,"id":"BUN","desc":"BRUNO NDB"},
{"type":"VOR","hdg_t":331.7,"dist_nm":40.5,"freq":110.05,"lat":51.34805600,"lon":3.35527800,"rng_nm":60,"alt_fmsl":30,"id":"COA","desc":"COSTA VOR-DME"},
{"type":"NDB","hdg_t":87.2,"dist_nm":41.3,"freq":212,"lat":50.78277600,"lon":4.95111100,"rng_nm":50,"alt_fmsl":0,"id":"TN","desc":"GOETSENHOVEN NDB"},
{"type":"VOR","hdg_t":221.1,"dist_nm":41.8,"freq":112.6,"lat":50.22813900,"lon":3.15150000,"rng_nm":80,"alt_fmsl":299,"id":"CMB","desc":"CAMBRAI EPINOY VORTAC"},
{"type":"NDB","hdg_t":310.4,"dist_nm":43,"freq":399,"lat":51.21750000,"lon":2.99638900,"rng_nm":50,"alt_fmsl":12,"id":"ONO","desc":"OOSTENDE NDB"},
{"type":"VOR","hdg_t":59.1,"dist_nm":43,"freq":110.6,"lat":51.11861100,"lon":4.84194400,"rng_nm":25,"alt_fmsl":69,"id":"BUN","desc":"BRUNO VOR-DME"},
{"type":"SDME","hdg_t":135.3,"dist_nm":43.1,"freq":111.5,"lat":50.24138900,"lon":4.65305600,"rng_nm":100,"alt_fmsl":954,"id":"BFS","desc":"FLORENNES TACAN"},
{"type":"NDB","hdg_t":32.4,"dist_nm":43.8,"freq":365,"lat":51.37027800,"lon":4.49083300,"rng_nm":15,"alt_fmsl":0,"id":"BC","desc":"BRASSCHAAT NDB"},
{"type":"NDB","hdg_t":263.9,"dist_nm":44.4,"freq":404,"lat":50.67166666,"lon":2.70611111,"rng_nm":25,"alt_fmsl":59,"id":"MRV","desc":"Merville Calonne NDB"},
{"type":"NDB","hdg_t":23.7,"dist_nm":45,"freq":345,"lat":51.43999900,"lon":4.34777800,"rng_nm":150,"alt_fmsl":0,"id":"WDT","desc":"WOENSDRECHT NDB"},
{"type":"VOR","hdg_t":23.3,"dist_nm":45.3,"freq":115,"lat":51.44750200,"lon":4.34389200,"rng_nm":18,"alt_fmsl":47,"id":"WDT","desc":"Woensdrecht VORTAC"},
{"type":"NDB","hdg_t":304.4,"dist_nm":47.1,"freq":352,"lat":51.19388900,"lon":2.83500000,"rng_nm":25,"alt_fmsl":0,"id":"DD","desc":"OOSTENDE NDB"},
{"type":"VOR","hdg_t":80.9,"dist_nm":48.8,"freq":112.05,"lat":50.87666700,"lon":5.13444400,"rng_nm":100,"alt_fmsl":187,"id":"FLO","desc":"FLORA VOR-DME"},
{"type":"NDB","hdg_t":257.7,"dist_nm":50,"freq":327,"lat":50.57194444,"lon":2.58722222,"rng_nm":25,"alt_fmsl":85,"id":"MVC","desc":"Merville Calonne NDB"},
{"type":"NDB","hdg_t":87.7,"dist_nm":50.3,"freq":510,"lat":50.78075000,"lon":5.18706700,"rng_nm":50,"alt_fmsl":230,"id":"ST","desc":"St Truiden NDB"},
{"type":"VOR","hdg_t":294.3,"dist_nm":50.3,"freq":114.5,"lat":51.09472200,"lon":2.65166700,"rng_nm":80,"alt_fmsl":30,"id":"KOK","desc":"KOKSY VORTAC"},
{"type":"VOR","hdg_t":86.8,"dist_nm":50.7,"freq":109.65,"lat":50.79365158,"lon":5.19530010,"rng_nm":60,"alt_fmsl":223,"id":"BVG","desc":"Bevingen VORTAC"},
{"type":"VOR","hdg_t":359.7,"dist_nm":58.1,"freq":114.15,"lat":51.72272200,"lon":3.85818100,"rng_nm":80,"alt_fmsl":4,"id":"HSD","desc":"HAAMSTEDE VOR"},
{"type":"NDB","hdg_t":207.9,"dist_nm":60.2,"freq":382,"lat":49.86750000,"lon":3.13722200,"rng_nm":75,"alt_fmsl":0,"id":"PM","desc":"PERONNE ST QUENTIN NDB"},
{"type":"NDB","hdg_t":13.3,"dist_nm":60.9,"freq":386,"lat":51.74132500,"lon":4.24348600,"rng_nm":15,"alt_fmsl":2,"id":"STD","desc":"STAD NDB"},
{"type":"NDB","hdg_t":95.2,"dist_nm":61.4,"freq":348,"lat":50.65009200,"lon":5.46676900,"rng_nm":25,"alt_fmsl":550,"id":"LG","desc":"LIEGE NDB"},
{"type":"VOR","hdg_t":95,"dist_nm":61.5,"freq":115.45,"lat":50.65388900,"lon":5.47055600,"rng_nm":25,"alt_fmsl":698,"id":"LGE","desc":"LIEGE VOR-DME"},
{"type":"NDB","hdg_t":221.3,"dist_nm":61.9,"freq":321,"lat":49.97625555,"lon":2.80941666,"rng_nm":150,"alt_fmsl":361,"id":"ABY","desc":"Albert Bray NDB"},
{"type":"NDB","hdg_t":155.2,"dist_nm":62.1,"freq":379,"lat":49.81305555,"lon":4.53527777,"rng_nm":25,"alt_fmsl":581,"id":"CZ","desc":"Charleville Mezieres NDB"},
{"type":"VOR","hdg_t":39.2,"dist_nm":63.2,"freq":116.4,"lat":51.56611600,"lon":4.93361000,"rng_nm":18,"alt_fmsl":46,"id":"GZR","desc":"Gilze Rijen VORTAC"},
{"type":"NDB","hdg_t":92.2,"dist_nm":64.2,"freq":290,"lat":50.70111100,"lon":5.54916700,"rng_nm":25,"alt_fmsl":698,"id":"ONL","desc":"LIEGE NDB"},
{"type":"SDME","hdg_t":67,"dist_nm":65.6,"freq":109.6,"lat":51.17027800,"lon":5.46638900,"rng_nm":40,"alt_fmsl":180,"id":"BBL","desc":"KLEINE BROGEL TACAN"},
{"type":"NDB","hdg_t":10.9,"dist_nm":67.8,"freq":369,"lat":51.86430000,"lon":4.21048900,"rng_nm":15,"alt_fmsl":0,"id":"PS","desc":"ROTTERDAM LOCATOR NDB"},
{"type":"VOR","hdg_t":101.4,"dist_nm":68.6,"freq":113.1,"lat":50.51472200,"lon":5.62333300,"rng_nm":60,"alt_fmsl":966,"id":"SPI","desc":"SPRIMONT VOR-DME"},
{"type":"NDB","hdg_t":66.1,"dist_nm":69.8,"freq":431,"lat":51.21333300,"lon":5.55750000,"rng_nm":35,"alt_fmsl":0,"id":"ONT","desc":"KLEINE BROGEL NDB"},
{"type":"NDB","hdg_t":282.5,"dist_nm":70.3,"freq":418,"lat":50.99611111,"lon":2.05444444,"rng_nm":25,"alt_fmsl":9,"id":"MK","desc":"Calais Dunkerque NDB"},
{"type":"VOR","hdg_t":53.3,"dist_nm":70.6,"freq":117.2,"lat":51.44805100,"lon":5.37500100,"rng_nm":18,"alt_fmsl":81,"id":"EHV","desc":"Eindhoven VORTAC"},
{"type":"VOR","hdg_t":97.4,"dist_nm":71.1,"freq":112.8,"lat":50.58583300,"lon":5.71027800,"rng_nm":60,"alt_fmsl":811,"id":"LNO","desc":"OLNO VOR-DME"},
{"type":"NDB","hdg_t":52.8,"dist_nm":71.9,"freq":397,"lat":51.46777800,"lon":5.39500000,"rng_nm":25,"alt_fmsl":59,"id":"EHN","desc":"EINDHOVEN NDB"},
{"type":"NDB","hdg_t":20.4,"dist_nm":73.3,"freq":350,"lat":51.89758600,"lon":4.55434700,"rng_nm":25,"alt_fmsl":0,"id":"ROT","desc":"ROTTERDAM NDB"},
{"type":"VOR","hdg_t":264.7,"dist_nm":75.1,"freq":113.8,"lat":50.62477800,"lon":1.90711100,"rng_nm":70,"alt_fmsl":584,"id":"BNE","desc":"BOULOGNE SUR MER VOR"},
{"type":"NDB","hdg_t":224.6,"dist_nm":76.3,"freq":339,"lat":49.84222222,"lon":2.48416666,"rng_nm":25,"alt_fmsl":335,"id":"GI","desc":"Amiens-Glisy NDB"},
{"type":"VOR","hdg_t":17.3,"dist_nm":76.7,"freq":110.4,"lat":51.97369700,"lon":4.48096900,"rng_nm":50,"alt_fmsl":34,"id":"RTM","desc":"ROTTERDAM VOR-DME"},
{"type":"NDB","hdg_t":86.8,"dist_nm":77.3,"freq":383,"lat":50.80732200,"lon":5.89546100,"rng_nm":25,"alt_fmsl":492,"id":"GUL","desc":"GULL NDB"},
{"type":"NDB","hdg_t":77.4,"dist_nm":78.1,"freq":373,"lat":51.01936400,"lon":5.87834400,"rng_nm":15,"alt_fmsl":150,"id":"NW","desc":"MAASTRICHT NDB"},
{"type":"NDB","hdg_t":51.2,"dist_nm":78.6,"freq":316,"lat":51.56277800,"lon":5.50555600,"rng_nm":25,"alt_fmsl":0,"id":"PH","desc":"EINDHOVEN NDB"},
{"type":"NDB","hdg_t":101.2,"dist_nm":80,"freq":386,"lat":50.47805600,"lon":5.91305600,"rng_nm":10,"alt_fmsl":1542,"id":"SLV","desc":"SPA NDB"},
{"type":"VOR","hdg_t":79.8,"dist_nm":80.7,"freq":108.6,"lat":50.97194200,"lon":5.96042800,"rng_nm":40,"alt_fmsl":283,"id":"MAS","desc":"MAASTRICHT VOR-DME"},
{"type":"NDB","hdg_t":276.2,"dist_nm":81.1,"freq":387,"lat":50.88316700,"lon":1.74180600,"rng_nm":50,"alt_fmsl":475,"id":"ING","desc":"ST INGLEVERT NDB"},
{"type":"NDB","hdg_t":10.1,"dist_nm":81.7,"freq":364,"lat":52.09416600,"lon":4.25361100,"rng_nm":150,"alt_fmsl":0,"id":"GV","desc":"SCHEVENINGEN NDB"},
{"type":"NDB","hdg_t":24,"dist_nm":82.3,"freq":404,"lat":52.00437500,"lon":4.76905300,"rng_nm":15,"alt_fmsl":0,"id":"RR","desc":"ROTTERDAM LOCATOR NDB"},
{"type":"SDME","hdg_t":24,"dist_nm":82.3,"freq":117.15,"lat":52.00434700,"lon":4.76913100,"rng_nm":70,"alt_fmsl":0,"id":"FRT","desc":"HAASTRECHT DME"},
{"type":"SDME","hdg_t":80.5,"dist_nm":83.8,"freq":108.1,"lat":50.96333300,"lon":6.04519700,"rng_nm":40,"alt_fmsl":327,"id":"GIX","desc":"GEILENKIRCHEN TACAN"},
{"type":"VOR","hdg_t":245,"dist_nm":85.6,"freq":108.45,"lat":50.13513900,"lon":1.85469400,"rng_nm":60,"alt_fmsl":223,"id":"ABB","desc":"ABBEVILLE VOR-DME"},
{"type":"VOR","hdg_t":175.3,"dist_nm":86.9,"freq":112.3,"lat":49.31163900,"lon":4.04536100,"rng_nm":60,"alt_fmsl":335,"id":"REM","desc":"REIMS CHAMPAGNE VORTAC"},
{"type":"SDME","hdg_t":13.4,"dist_nm":86.9,"freq":111.2,"lat":52.16138900,"lon":4.41416700,"rng_nm":100,"alt_fmsl":1,"id":"VBG","desc":"VALKENBURG TACAN"},
{"type":"NDB","hdg_t":262.2,"dist_nm":87.7,"freq":358,"lat":50.53539300,"lon":1.59242200,"rng_nm":22,"alt_fmsl":35,"id":"LT","desc":"LE TOUQUET NDB"},
{"type":"SDME","hdg_t":51.3,"dist_nm":88,"freq":108.3,"lat":51.65555600,"lon":5.70694400,"rng_nm":200,"alt_fmsl":64,"id":"VKL","desc":"VOLKEL TACAN"},
{"type":"NDB","hdg_t":207.6,"dist_nm":89.2,"freq":553,"lat":49.43444400,"lon":2.80611100,"rng_nm":75,"alt_fmsl":0,"id":"CO","desc":"COMPIEGNE NDB"},
{"type":"VOR","hdg_t":207.8,"dist_nm":89.4,"freq":109.65,"lat":49.43277800,"lon":2.79936100,"rng_nm":130,"alt_fmsl":288,"id":"CPE","desc":"COMPIEGNE VOR-DME"},
{"type":"VOR","hdg_t":216.8,"dist_nm":89.6,"freq":113.65,"lat":49.55263900,"lon":2.48947200,"rng_nm":60,"alt_fmsl":0,"id":"MTD","desc":"MONTDIDIER VOR"},
{"type":"NDB","hdg_t":21.5,"dist_nm":90.4,"freq":332,"lat":52.15139444,"lon":4.76483333,"rng_nm":15,"alt_fmsl":0,"id":"NV","desc":"SCHIPHOL LOCATOR NDB"},
{"type":"NDB","hdg_t":16.1,"dist_nm":91.7,"freq":388,"lat":52.22061700,"lon":4.55760000,"rng_nm":25,"alt_fmsl":0,"id":"CH","desc":"SCHIPHOL NDB"},
{"type":"VOR","hdg_t":148.7,"dist_nm":95.2,"freq":109.4,"lat":49.39125000,"lon":5.12441700,"rng_nm":100,"alt_fmsl":1076,"id":"MMD","desc":"MONTMEDY-Dun sur Meuse VOR"},
{"type":"VOR","hdg_t":186.6,"dist_nm":97.7,"freq":117.6,"lat":49.13775000,"lon":3.57769400,"rng_nm":100,"alt_fmsl":673,"id":"CTL","desc":"CHATILLON SUR MARNE VOR-DME"},
{"type":"VOR","hdg_t":32.1,"dist_nm":98,"freq":115.8,"lat":52.12832600,"lon":5.27556200,"rng_nm":18,"alt_fmsl":49,"id":"SSB","desc":"Soesterberg VORTAC"},
{"type":"VOR","hdg_t":285.4,"dist_nm":98.1,"freq":114.95,"lat":51.16250000,"lon":1.35916700,"rng_nm":130,"alt_fmsl":315,"id":"DVR","desc":"DOVER VOR-DME"},
{"type":"NDB","hdg_t":293,"dist_nm":98.8,"freq":301,"lat":51.37444300,"lon":1.44666700,"rng_nm":50,"alt_fmsl":0,"id":"NF","desc":"NORTH FORELAND NDB"},
{"type":"VOR","hdg_t":198.7,"dist_nm":99.1,"freq":114.85,"lat":49.18830600,"lon":3.05647200,"rng_nm":60,"alt_fmsl":476,"id":"BSN","desc":"BOURSONNE VOR-DME"},
{"type":"VOR","hdg_t":18,"dist_nm":99.8,"freq":113.95,"lat":52.33277800,"lon":4.70555600,"rng_nm":25,"alt_fmsl":-7,"id":"AMS","desc":"AMSTERDAM VOR-DME"},
{"type":"SDME","hdg_t":58.5,"dist_nm":99.8,"freq":115.5,"lat":51.59996700,"lon":6.14148100,"rng_nm":40,"alt_fmsl":152,"id":"NID","desc":"NIEDERRHEIN DME"}
]
}
