{"success":true,"source":"xp2csv.pl","last_updated":"2013/11/08 14:53:21 UTC"
,"icao":"EBKH","name":"Balen Keiheuvel","lat":51.18106231,"lon":5.21983464,"rwys":1,"ils":0,"index":3040072,"path":"e000n50/e005n51"
,"runways":[
{"len_m":1000,"wid_m":35.97,"hdg":65,"surf":"Turf/grass","rwy1":"07","lat1":51.17920361,"lon1":5.21332092,"rwy2":"25","lat2":51.18292101,"lon2":5.22634836}
]
,"radios":[
{"type":"CTAF","freq":119.2,"desc":"Balen Radio"},
{"type":"CLD","freq":123.5,"desc":"Balen Radio (gliders)"},
{"type":"GND","freq":122.5,"desc":"Kleine Brogel Approach"},
{"type":"TWR","freq":122.1,"desc":"Kleine Brogel Tower"},
{"type":"TWR","freq":123.8,"desc":"Zoersel Radio"},
{"type":"APP","freq":129.32,"desc":"Brussels Radio"}
]
,"navaids":[
{"type":"SDME","hdg_t":93.8,"dist_nm":9.3,"freq":109.6,"lat":51.17027800,"lon":5.46638900,"rng_nm":40,"alt_fmsl":180,"id":"BBL","desc":"KLEINE BROGEL TACAN"},
{"type":"NDB","hdg_t":81.2,"dist_nm":12.8,"freq":431,"lat":51.21333300,"lon":5.55750000,"rng_nm":35,"alt_fmsl":0,"id":"ONT","desc":"KLEINE BROGEL NDB"},
{"type":"VOR","hdg_t":255.4,"dist_nm":14.7,"freq":110.6,"lat":51.11861100,"lon":4.84194400,"rng_nm":25,"alt_fmsl":69,"id":"BUN","desc":"BRUNO VOR-DME"},
{"type":"VOR","hdg_t":19.9,"dist_nm":17,"freq":117.2,"lat":51.44805100,"lon":5.37500100,"rng_nm":18,"alt_fmsl":81,"id":"EHV","desc":"Eindhoven VORTAC"},
{"type":"NDB","hdg_t":249.5,"dist_nm":17.7,"freq":341,"lat":51.07694600,"lon":4.77944400,"rng_nm":50,"alt_fmsl":0,"id":"BUN","desc":"BRUNO NDB"},
{"type":"NDB","hdg_t":20.8,"dist_nm":18.4,"freq":397,"lat":51.46777800,"lon":5.39500000,"rng_nm":25,"alt_fmsl":59,"id":"EHN","desc":"EINDHOVEN NDB"},
{"type":"VOR","hdg_t":190,"dist_nm":18.5,"freq":112.05,"lat":50.87666700,"lon":5.13444400,"rng_nm":100,"alt_fmsl":187,"id":"FLO","desc":"FLORA VOR-DME"},
{"type":"VOR","hdg_t":182.2,"dist_nm":23.2,"freq":109.65,"lat":50.79365158,"lon":5.19530010,"rng_nm":60,"alt_fmsl":223,"id":"BVG","desc":"Bevingen VORTAC"},
{"type":"NDB","hdg_t":182.9,"dist_nm":24,"freq":510,"lat":50.78075000,"lon":5.18706700,"rng_nm":50,"alt_fmsl":230,"id":"ST","desc":"St Truiden NDB"},
{"type":"NDB","hdg_t":268.3,"dist_nm":24.6,"freq":355,"lat":51.16750000,"lon":4.56638900,"rng_nm":50,"alt_fmsl":0,"id":"ONW","desc":"ANTWERPEN NDB"},
{"type":"NDB","hdg_t":24.9,"dist_nm":25.3,"freq":316,"lat":51.56277800,"lon":5.50555600,"rng_nm":25,"alt_fmsl":0,"id":"PH","desc":"EINDHOVEN NDB"},
{"type":"VOR","hdg_t":335.1,"dist_nm":25.5,"freq":116.4,"lat":51.56611600,"lon":4.93361000,"rng_nm":18,"alt_fmsl":46,"id":"GZR","desc":"Gilze Rijen VORTAC"},
{"type":"NDB","hdg_t":203.1,"dist_nm":26,"freq":212,"lat":50.78277600,"lon":4.95111100,"rng_nm":50,"alt_fmsl":0,"id":"TN","desc":"GOETSENHOVEN NDB"},
{"type":"NDB","hdg_t":111,"dist_nm":26.7,"freq":373,"lat":51.01936400,"lon":5.87834400,"rng_nm":15,"alt_fmsl":150,"id":"NW","desc":"MAASTRICHT NDB"},
{"type":"NDB","hdg_t":270.7,"dist_nm":27.7,"freq":309,"lat":51.18500000,"lon":4.48555600,"rng_nm":25,"alt_fmsl":0,"id":"WW","desc":"ANTWERP NDB"},
{"type":"NDB","hdg_t":235.7,"dist_nm":27.7,"freq":293,"lat":50.92027800,"lon":4.61638900,"rng_nm":25,"alt_fmsl":0,"id":"OB","desc":"BRUSSELS NDB"},
{"type":"NDB","hdg_t":238.7,"dist_nm":27.8,"freq":402,"lat":50.93861100,"lon":4.59222200,"rng_nm":25,"alt_fmsl":0,"id":"OP","desc":"Brussels NDB"},
{"type":"VOR","hdg_t":271.4,"dist_nm":28.2,"freq":113.5,"lat":51.19055600,"lon":4.47250000,"rng_nm":25,"alt_fmsl":78,"id":"ANT","desc":"ANTWERPEN VOR-DME"},
{"type":"NDB","hdg_t":292.7,"dist_nm":29.7,"freq":365,"lat":51.37027800,"lon":4.49083300,"rng_nm":15,"alt_fmsl":0,"id":"BC","desc":"BRASSCHAAT NDB"},
{"type":"VOR","hdg_t":237.2,"dist_nm":30.7,"freq":114.6,"lat":50.90222200,"lon":4.53805600,"rng_nm":100,"alt_fmsl":187,"id":"BUB","desc":"BRUSSELS VOR-DME"},
{"type":"VOR","hdg_t":113.8,"dist_nm":30.7,"freq":108.6,"lat":50.97194200,"lon":5.96042800,"rng_nm":40,"alt_fmsl":283,"id":"MAS","desc":"MAASTRICHT VOR-DME"},
{"type":"SDME","hdg_t":214,"dist_nm":30.7,"freq":116,"lat":50.75638900,"lon":4.76805600,"rng_nm":100,"alt_fmsl":370,"id":"BBE","desc":"BEAUVECHAIN TACAN"},
{"type":"NDB","hdg_t":156.4,"dist_nm":31.4,"freq":290,"lat":50.70111100,"lon":5.54916700,"rng_nm":25,"alt_fmsl":698,"id":"ONL","desc":"LIEGE NDB"},
{"type":"VOR","hdg_t":163.1,"dist_nm":33,"freq":115.45,"lat":50.65388900,"lon":5.47055600,"rng_nm":25,"alt_fmsl":698,"id":"LGE","desc":"LIEGE VOR-DME"},
{"type":"NDB","hdg_t":163.5,"dist_nm":33.2,"freq":348,"lat":50.65009200,"lon":5.46676900,"rng_nm":25,"alt_fmsl":550,"id":"LG","desc":"LIEGE NDB"},
{"type":"SDME","hdg_t":112.3,"dist_nm":33.8,"freq":108.1,"lat":50.96333300,"lon":6.04519700,"rng_nm":40,"alt_fmsl":327,"id":"GIX","desc":"GEILENKIRCHEN TACAN"},
{"type":"SDME","hdg_t":32.5,"dist_nm":33.8,"freq":108.3,"lat":51.65555600,"lon":5.70694400,"rng_nm":200,"alt_fmsl":64,"id":"VKL","desc":"VOLKEL TACAN"},
{"type":"VOR","hdg_t":220.4,"dist_nm":33.9,"freq":117.55,"lat":50.74944400,"lon":4.64166700,"rng_nm":40,"alt_fmsl":335,"id":"HUL","desc":"HULDENBERG VOR-DME"},
{"type":"NDB","hdg_t":130.9,"dist_nm":34,"freq":383,"lat":50.80732200,"lon":5.89546100,"rng_nm":25,"alt_fmsl":492,"id":"GUL","desc":"GULL NDB"},
{"type":"NDB","hdg_t":233.5,"dist_nm":35.5,"freq":314,"lat":50.82694400,"lon":4.46694400,"rng_nm":25,"alt_fmsl":0,"id":"OZ","desc":"BRUSSELS NDB"},
{"type":"NDB","hdg_t":295.6,"dist_nm":36.3,"freq":345,"lat":51.43999900,"lon":4.34777800,"rng_nm":150,"alt_fmsl":0,"id":"WDT","desc":"WOENSDRECHT NDB"},
{"type":"VOR","hdg_t":296.2,"dist_nm":36.6,"freq":115,"lat":51.44750200,"lon":4.34389200,"rng_nm":18,"alt_fmsl":47,"id":"WDT","desc":"Woensdrecht VORTAC"},
{"type":"NDB","hdg_t":268.7,"dist_nm":38.9,"freq":336,"lat":51.16249800,"lon":4.18916700,"rng_nm":50,"alt_fmsl":0,"id":"NIK","desc":"NICKY NDB"},
{"type":"VOR","hdg_t":268.9,"dist_nm":39.1,"freq":117.4,"lat":51.16500000,"lon":4.18388900,"rng_nm":50,"alt_fmsl":119,"id":"NIK","desc":"NICKY VOR-DME"},
{"type":"VOR","hdg_t":152.2,"dist_nm":40.3,"freq":112.8,"lat":50.58583300,"lon":5.71027800,"rng_nm":60,"alt_fmsl":811,"id":"LNO","desc":"OLNO VOR-DME"},
{"type":"VOR","hdg_t":158.8,"dist_nm":42.8,"freq":113.1,"lat":50.51472200,"lon":5.62333300,"rng_nm":60,"alt_fmsl":966,"id":"SPI","desc":"SPRIMONT VOR-DME"},
{"type":"SDME","hdg_t":53.6,"dist_nm":42.8,"freq":115.5,"lat":51.59996700,"lon":6.14148100,"rng_nm":40,"alt_fmsl":152,"id":"NID","desc":"NIEDERRHEIN DME"},
{"type":"VOR","hdg_t":248.5,"dist_nm":44.1,"freq":114.9,"lat":50.90777800,"lon":4.13888900,"rng_nm":40,"alt_fmsl":284,"id":"AFI","desc":"AFFLIGEM VOR-DME"},
{"type":"NDB","hdg_t":230.6,"dist_nm":45.7,"freq":283,"lat":50.69472100,"lon":4.29222200,"rng_nm":50,"alt_fmsl":0,"id":"BUS","desc":"BRESSY NDB"},
{"type":"NDB","hdg_t":75.1,"dist_nm":45.7,"freq":311,"lat":51.37083300,"lon":6.39500000,"rng_nm":25,"alt_fmsl":0,"id":"LMA","desc":"LIMA NDB"},
{"type":"VOR","hdg_t":85.4,"dist_nm":48,"freq":109.8,"lat":51.23730000,"lon":6.49024400,"rng_nm":40,"alt_fmsl":156,"id":"MHV","desc":"MONCHENGLADBACH VOR"},
{"type":"SDME","hdg_t":85.6,"dist_nm":48.1,"freq":112.5,"lat":51.23490800,"lon":6.49196900,"rng_nm":25,"alt_fmsl":159,"id":"MHD","desc":"MONCHENGLADBACH DME"},
{"type":"NDB","hdg_t":248.6,"dist_nm":48.5,"freq":393,"lat":50.88028000,"lon":4.02888900,"rng_nm":50,"alt_fmsl":0,"id":"DEN","desc":"DENDER NDB"},
{"type":"NDB","hdg_t":86.2,"dist_nm":48.5,"freq":377,"lat":51.22732200,"lon":6.50541100,"rng_nm":15,"alt_fmsl":125,"id":"MGB","desc":"MONCHENGLADBACH NDB"},
{"type":"NDB","hdg_t":211.5,"dist_nm":48.6,"freq":323,"lat":50.48944400,"lon":4.55527800,"rng_nm":50,"alt_fmsl":0,"id":"ONC","desc":"CHARLEROI NDB"},
{"type":"NDB","hdg_t":330.1,"dist_nm":49.7,"freq":350,"lat":51.89758600,"lon":4.55434700,"rng_nm":25,"alt_fmsl":0,"id":"ROT","desc":"ROTTERDAM NDB"},
{"type":"NDB","hdg_t":147.7,"dist_nm":49.7,"freq":386,"lat":50.47805600,"lon":5.91305600,"rng_nm":10,"alt_fmsl":1542,"id":"SLV","desc":"SPA NDB"},
{"type":"NDB","hdg_t":312.9,"dist_nm":49.7,"freq":386,"lat":51.74132500,"lon":4.24348600,"rng_nm":15,"alt_fmsl":2,"id":"STD","desc":"STAD NDB"},
{"type":"NDB","hdg_t":213.4,"dist_nm":51.1,"freq":389,"lat":50.46888900,"lon":4.48472200,"rng_nm":15,"alt_fmsl":0,"id":"CC","desc":"CHARLEROI LCTR NDB"},
{"type":"NDB","hdg_t":341.3,"dist_nm":52.2,"freq":404,"lat":52.00437500,"lon":4.76905300,"rng_nm":15,"alt_fmsl":0,"id":"RR","desc":"ROTTERDAM LOCATOR NDB"},
{"type":"SDME","hdg_t":341.3,"dist_nm":52.2,"freq":117.15,"lat":52.00434700,"lon":4.76913100,"rng_nm":70,"alt_fmsl":0,"id":"FRT","desc":"HAASTRECHT DME"},
{"type":"VOR","hdg_t":214.4,"dist_nm":52.7,"freq":115.7,"lat":50.45388900,"lon":4.44138900,"rng_nm":30,"alt_fmsl":654,"id":"GSY","desc":"GOSLY VOR-DME"},
{"type":"NDB","hdg_t":85.9,"dist_nm":54.2,"freq":284,"lat":51.23555400,"lon":6.65500000,"rng_nm":150,"alt_fmsl":0,"id":"DY","desc":"DUSSELDORF NDB"},
{"type":"VOR","hdg_t":330.1,"dist_nm":55,"freq":110.4,"lat":51.97369700,"lon":4.48096900,"rng_nm":50,"alt_fmsl":34,"id":"RTM","desc":"ROTTERDAM VOR-DME"},
{"type":"NDB","hdg_t":317.7,"dist_nm":55.8,"freq":369,"lat":51.86430000,"lon":4.21048900,"rng_nm":15,"alt_fmsl":0,"id":"PS","desc":"ROTTERDAM LOCATOR NDB"},
{"type":"NDB","hdg_t":81.3,"dist_nm":56.2,"freq":329,"lat":51.31305700,"lon":6.69666700,"rng_nm":150,"alt_fmsl":0,"id":"DUE","desc":"DUSSELDORF NDB"},
{"type":"VOR","hdg_t":2,"dist_nm":56.9,"freq":115.8,"lat":52.12832600,"lon":5.27556200,"rng_nm":18,"alt_fmsl":49,"id":"SSB","desc":"Soesterberg VORTAC"},
{"type":"VOR","hdg_t":24.6,"dist_nm":58,"freq":112.2,"lat":52.05723200,"lon":5.87278300,"rng_nm":18,"alt_fmsl":158,"id":"DLN","desc":"Deelen VORTAC"},
{"type":"VOR","hdg_t":83.3,"dist_nm":58.1,"freq":115.15,"lat":51.28318900,"lon":6.75372500,"rng_nm":130,"alt_fmsl":151,"id":"DUS","desc":"DUSSELDORF VOR-DME"},
{"type":"VOR","hdg_t":109.5,"dist_nm":59.4,"freq":116.2,"lat":50.84066700,"lon":6.69416700,"rng_nm":60,"alt_fmsl":367,"id":"NOR","desc":"NORVENICH VORTAC"},
{"type":"SDME","hdg_t":201.1,"dist_nm":60.4,"freq":111.5,"lat":50.24138900,"lon":4.65305600,"rng_nm":100,"alt_fmsl":954,"id":"BFS","desc":"FLORENNES TACAN"},
{"type":"VOR","hdg_t":303,"dist_nm":60.5,"freq":114.15,"lat":51.72272200,"lon":3.85818100,"rng_nm":80,"alt_fmsl":4,"id":"HSD","desc":"HAAMSTEDE VOR"},
{"type":"NDB","hdg_t":343.9,"dist_nm":60.7,"freq":332,"lat":52.15139444,"lon":4.76483333,"rng_nm":15,"alt_fmsl":0,"id":"NV","desc":"SCHIPHOL LOCATOR NDB"},
{"type":"NDB","hdg_t":80.3,"dist_nm":63.7,"freq":417,"lat":51.34698900,"lon":6.89128300,"rng_nm":25,"alt_fmsl":0,"id":"LI","desc":"DUSSELDORF NDB"},
{"type":"VOR","hdg_t":235.8,"dist_nm":64,"freq":113.2,"lat":50.57388900,"lon":3.83277800,"rng_nm":60,"alt_fmsl":221,"id":"CIV","desc":"CHIEVRES VOR"},
{"type":"NDB","hdg_t":327,"dist_nm":65.6,"freq":364,"lat":52.09416600,"lon":4.25361100,"rng_nm":150,"alt_fmsl":0,"id":"GV","desc":"SCHEVENINGEN NDB"},
{"type":"SDME","hdg_t":333.2,"dist_nm":66.1,"freq":111.2,"lat":52.16138900,"lon":4.41416700,"rng_nm":100,"alt_fmsl":1,"id":"VBG","desc":"VALKENBURG TACAN"},
{"type":"NDB","hdg_t":259.4,"dist_nm":66.5,"freq":360,"lat":50.96472200,"lon":3.49611100,"rng_nm":50,"alt_fmsl":33,"id":"MAK","desc":"MACKEL NDB"},
{"type":"NDB","hdg_t":338.6,"dist_nm":67.1,"freq":388,"lat":52.22061700,"lon":4.55760000,"rng_nm":25,"alt_fmsl":0,"id":"CH","desc":"SCHIPHOL NDB"},
{"type":"NDB","hdg_t":354,"dist_nm":69.1,"freq":376,"lat":52.32610300,"lon":5.02472200,"rng_nm":15,"alt_fmsl":0,"id":"WP","desc":"Schiphol locator NDB"},
{"type":"VOR","hdg_t":356.1,"dist_nm":69.4,"freq":117.8,"lat":52.33476100,"lon":5.09216100,"rng_nm":80,"alt_fmsl":27,"id":"PAM","desc":"PAMPUS VOR-DME"},
{"type":"VOR","hdg_t":278.8,"dist_nm":70.9,"freq":110.05,"lat":51.34805600,"lon":3.35527800,"rng_nm":60,"alt_fmsl":30,"id":"COA","desc":"COSTA VOR-DME"},
{"type":"VOR","hdg_t":345.9,"dist_nm":71.3,"freq":108.4,"lat":52.33214400,"lon":4.74988300,"rng_nm":260,"alt_fmsl":14,"id":"SPL","desc":"SCHIPHOL VOR-DME"},
{"type":"NDB","hdg_t":101.6,"dist_nm":71.4,"freq":365,"lat":50.92705600,"lon":7.06229400,"rng_nm":25,"alt_fmsl":0,"id":"LJ","desc":"KOLN/BONN NDB"},
{"type":"VOR","hdg_t":344.7,"dist_nm":71.7,"freq":113.95,"lat":52.33277800,"lon":4.70555600,"rng_nm":25,"alt_fmsl":-7,"id":"AMS","desc":"AMSTERDAM VOR-DME"},
{"type":"NDB","hdg_t":69.5,"dist_nm":72,"freq":406,"lat":51.58580300,"lon":7.02301100,"rng_nm":30,"alt_fmsl":0,"id":"BOT","desc":"BOTTROP NDB"},
{"type":"VOR","hdg_t":82.4,"dist_nm":74.2,"freq":113.6,"lat":51.32775800,"lon":7.17698300,"rng_nm":60,"alt_fmsl":879,"id":"BAM","desc":"BARMEN VORTAC"},
{"type":"VOR","hdg_t":103.9,"dist_nm":75.4,"freq":112.15,"lat":50.86167800,"lon":7.14551700,"rng_nm":25,"alt_fmsl":311,"id":"KBO","desc":"KOLN/BONN VOR-DME"},
{"type":"SDME","hdg_t":7.8,"dist_nm":76.9,"freq":111.4,"lat":52.45003600,"lon":5.50772500,"rng_nm":70,"alt_fmsl":0,"id":"FRT","desc":"LELYSTAD DME"},
{"type":"NDB","hdg_t":8.4,"dist_nm":77.8,"freq":326,"lat":52.46286400,"lon":5.53193000,"rng_nm":100,"alt_fmsl":0,"id":"LLS","desc":"Lelystad NDB"},
{"type":"VOR","hdg_t":95,"dist_nm":78.2,"freq":109.6,"lat":51.04835300,"lon":7.27999700,"rng_nm":40,"alt_fmsl":902,"id":"WYP","desc":"WIPPER VOR"},
{"type":"NDB","hdg_t":254.9,"dist_nm":78.5,"freq":371,"lat":50.82402800,"lon":3.22483300,"rng_nm":10,"alt_fmsl":60,"id":"OKT","desc":"KORTRIJK NDB"},
{"type":"NDB","hdg_t":101.6,"dist_nm":78.8,"freq":300,"lat":50.89830600,"lon":7.25285000,"rng_nm":15,"alt_fmsl":0,"id":"LW","desc":"KOLN/BONN NDB"},
{"type":"NDB","hdg_t":347.5,"dist_nm":79.3,"freq":395,"lat":52.47027200,"lon":4.75332600,"rng_nm":15,"alt_fmsl":0,"id":"OA","desc":"Schiphol Locator NDB"},
{"type":"NDB","hdg_t":105.6,"dist_nm":79.8,"freq":327,"lat":50.80421700,"lon":7.24022500,"rng_nm":15,"alt_fmsl":0,"id":"LV","desc":"KOLN/BONN NDB"},
{"type":"NDB","hdg_t":9.1,"dist_nm":81,"freq":347,"lat":52.51222200,"lon":5.56944500,"rng_nm":150,"alt_fmsl":0,"id":"LAK","desc":"LAKE NDB"},
{"type":"VOR","hdg_t":44.6,"dist_nm":81.2,"freq":116.8,"lat":52.13319700,"lon":6.76387800,"rng_nm":50,"alt_fmsl":137,"id":"RKN","desc":"REKKEN VOR-DME"},
{"type":"VOR","hdg_t":350.6,"dist_nm":82.7,"freq":113.3,"lat":52.54028100,"lon":4.85378100,"rng_nm":100,"alt_fmsl":26,"id":"SPY","desc":"SPIJKERBOOR VOR-DME"},
{"type":"NDB","hdg_t":350.3,"dist_nm":82.9,"freq":381,"lat":52.54166800,"lon":4.84138900,"rng_nm":150,"alt_fmsl":0,"id":"SPY","desc":"SPIJKERBOOR NDB"},
{"type":"NDB","hdg_t":272.3,"dist_nm":83.9,"freq":399,"lat":51.21750000,"lon":2.99638900,"rng_nm":50,"alt_fmsl":12,"id":"ONO","desc":"OOSTENDE NDB"},
{"type":"NDB","hdg_t":245.5,"dist_nm":84.3,"freq":332,"lat":50.58166500,"lon":3.21333300,"rng_nm":25,"alt_fmsl":140,"id":"LL","desc":"Lille NDB"},
{"type":"VOR","hdg_t":143.8,"dist_nm":86.1,"freq":115.3,"lat":50.01586100,"lon":6.53178900,"rng_nm":60,"alt_fmsl":1388,"id":"NTM","desc":"NATTENHEIM VORTAC"},
{"type":"NDB","hdg_t":197.9,"dist_nm":86.2,"freq":379,"lat":49.81305555,"lon":4.53527777,"rng_nm":25,"alt_fmsl":581,"id":"CZ","desc":"Charleville Mezieres NDB"},
{"type":"NDB","hdg_t":155.9,"dist_nm":86.5,"freq":307,"lat":49.86138900,"lon":6.12972200,"rng_nm":50,"alt_fmsl":0,"id":"DIK","desc":"DIEKIRCH NDB"},
{"type":"VOR","hdg_t":155.9,"dist_nm":86.5,"freq":114.4,"lat":49.86138900,"lon":6.12972200,"rng_nm":70,"alt_fmsl":1109,"id":"DIK","desc":"DIEKIRCH VOR-DME"},
{"type":"NDB","hdg_t":235.7,"dist_nm":86.7,"freq":317,"lat":50.35194444,"lon":3.35388888,"rng_nm":25,"alt_fmsl":108,"id":"VS","desc":"Valencienne Denain NDB"},
{"type":"SDME","hdg_t":246,"dist_nm":88.1,"freq":110.75,"lat":50.56622300,"lon":3.11427700,"rng_nm":25,"alt_fmsl":130,"id":"LIL","desc":"LFQQ 26 DME"},
{"type":"VOR","hdg_t":246.1,"dist_nm":89.1,"freq":109,"lat":50.56177800,"lon":3.08916700,"rng_nm":40,"alt_fmsl":175,"id":"LEQ","desc":"LILLE LESQUIN VOR-DME"},
{"type":"NDB","hdg_t":42.7,"dist_nm":89.8,"freq":335,"lat":52.26793600,"lon":6.87616400,"rng_nm":15,"alt_fmsl":98,"id":"TWN","desc":"TWENTHE NDB"},
{"type":"NDB","hdg_t":271.4,"dist_nm":90,"freq":352,"lat":51.19388900,"lon":2.83500000,"rng_nm":25,"alt_fmsl":0,"id":"DD","desc":"OOSTENDE NDB"},
{"type":"SDME","hdg_t":42.8,"dist_nm":90.5,"freq":110.7,"lat":52.27451700,"lon":6.89152800,"rng_nm":130,"alt_fmsl":114,"id":"TWN","desc":"TWENTHE TACAN"},
{"type":"SDME","hdg_t":141.3,"dist_nm":91.6,"freq":109.5,"lat":49.97899400,"lon":6.69769700,"rng_nm":60,"alt_fmsl":1161,"id":"SPA","desc":"SPANGDAHLEM TACAN"},
{"type":"SDME","hdg_t":129.7,"dist_nm":92.7,"freq":117.1,"lat":50.17866700,"lon":7.06950000,"rng_nm":50,"alt_fmsl":1618,"id":"BUE","desc":"BUCHEL TACAN"},
{"type":"VOR","hdg_t":76.2,"dist_nm":93,"freq":108.65,"lat":51.52534200,"lon":7.63105600,"rng_nm":25,"alt_fmsl":373,"id":"DOR","desc":"WICKEDE VOR-DME"},
{"type":"NDB","hdg_t":76.2,"dist_nm":93.1,"freq":357,"lat":51.52612200,"lon":7.63438600,"rng_nm":25,"alt_fmsl":400,"id":"DWI","desc":"DORTMUND NDB"},
{"type":"VOR","hdg_t":103.9,"dist_nm":93.1,"freq":108.8,"lat":50.78351900,"lon":7.59419400,"rng_nm":25,"alt_fmsl":990,"id":"COL","desc":"COLA VORTAC"},
{"type":"NDB","hdg_t":120.6,"dist_nm":93.5,"freq":331,"lat":50.36783300,"lon":7.31366700,"rng_nm":25,"alt_fmsl":671,"id":"NMN","desc":"MENDIG NDB"},
{"type":"VOR","hdg_t":267.9,"dist_nm":97.1,"freq":114.5,"lat":51.09472200,"lon":2.65166700,"rng_nm":80,"alt_fmsl":30,"id":"KOK","desc":"KOKSY VORTAC"},
{"type":"VOR","hdg_t":234.8,"dist_nm":97.4,"freq":112.6,"lat":50.22813900,"lon":3.15150000,"rng_nm":80,"alt_fmsl":299,"id":"CMB","desc":"CAMBRAI EPINOY VORTAC"},
{"type":"NDB","hdg_t":142.3,"dist_nm":99.4,"freq":474,"lat":49.85916500,"lon":6.78305600,"rng_nm":150,"alt_fmsl":0,"id":"TX","desc":"TRIER NDB"}
]
}
