{"success":true,"source":"xp2csv.pl","last_updated":"2013/11/08 14:53:21 UTC"
,"icao":"EDAE","name":"Eisenhuttenstadt","lat":52.197333,"lon":14.5856665,"rwys":1,"ils":0,"index":3187594,"path":"e010n50/e014n52"
,"runways":[
{"len_m":1170,"wid_m":22.86,"hdg":113,"surf":"Asphalt","rwy1":"11","lat1":52.19947200,"lon1":14.57785000,"rwy2":"29","lat2":52.19519400,"lon2":14.59348300}
]
,"radios":[
{"type":"TWR","freq":132.65,"desc":"BERLIN INFO"},
{"type":"TWR","freq":122,"desc":"INFO"}
]
,"navaids":[
{"type":"VOR","hdg_t":359.9,"dist_nm":10.9,"freq":116.7,"lat":52.37985600,"lon":14.58560300,"rng_nm":130,"alt_fmsl":98,"id":"SUI","desc":"SUBI VOR-DME"},
{"type":"NDB","hdg_t":182.7,"dist_nm":18,"freq":355,"lat":51.89673900,"lon":14.56251400,"rng_nm":25,"alt_fmsl":271,"id":"DRW","desc":"DREWITZ NDB"},
{"type":"SDME","hdg_t":186.1,"dist_nm":18.7,"freq":112.05,"lat":51.88697800,"lon":14.53197000,"rng_nm":25,"alt_fmsl":292,"id":"CDD","desc":"DREWITZ DME"},
{"type":"VOR","hdg_t":307.6,"dist_nm":21.1,"freq":113.3,"lat":52.41133100,"lon":14.13058900,"rng_nm":50,"alt_fmsl":238,"id":"FWE","desc":"FURSTENWALDE VOR-DME"},
{"type":"VOR","hdg_t":254.6,"dist_nm":39.2,"freq":115.15,"lat":52.01935300,"lon":13.56341400,"rng_nm":130,"alt_fmsl":233,"id":"KLF","desc":"KLASDORF VOR-DME"},
{"type":"SDME","hdg_t":285.3,"dist_nm":41.2,"freq":114.4,"lat":52.37452500,"lon":13.50367200,"rng_nm":25,"alt_fmsl":173,"id":"SDD","desc":"SCHONEFELD DME"},
{"type":"NDB","hdg_t":292.3,"dist_nm":44.3,"freq":327,"lat":52.47286100,"lon":13.46834200,"rng_nm":18,"alt_fmsl":0,"id":"DIP","desc":"PLANTER NDB"},
{"type":"NDB","hdg_t":93.8,"dist_nm":44.8,"freq":390,"lat":52.14040600,"lon":15.79617200,"rng_nm":25,"alt_fmsl":0,"id":"BBM","desc":"BABIMOST NDB"},
{"type":"NDB","hdg_t":281.8,"dist_nm":45,"freq":309,"lat":52.34500000,"lon":13.38666700,"rng_nm":50,"alt_fmsl":147,"id":"MW","desc":"SCHONEFELD NDB"},
{"type":"VOR","hdg_t":291.3,"dist_nm":46.4,"freq":114.1,"lat":52.47310000,"lon":13.40538900,"rng_nm":80,"alt_fmsl":199,"id":"TOF","desc":"TEMPELHOF VOR-DME"},
{"type":"NDB","hdg_t":298.3,"dist_nm":48.2,"freq":321,"lat":52.57230800,"lon":13.42616100,"rng_nm":25,"alt_fmsl":0,"id":"GL","desc":"TEGEL EAST NDB"},
{"type":"NDB","hdg_t":289.4,"dist_nm":50.2,"freq":347,"lat":52.46828100,"lon":13.29534700,"rng_nm":25,"alt_fmsl":0,"id":"DBR","desc":"HELMHOLTZ NDB"},
{"type":"NDB","hdg_t":299.6,"dist_nm":51.4,"freq":413,"lat":52.61390600,"lon":13.36364400,"rng_nm":50,"alt_fmsl":0,"id":"DLS","desc":"LUBARS NDB"},
{"type":"VOR","hdg_t":295.1,"dist_nm":52.5,"freq":112.3,"lat":52.56149700,"lon":13.28755800,"rng_nm":80,"alt_fmsl":118,"id":"TGL","desc":"TEGEL VOR-DME"},
{"type":"NDB","hdg_t":164.9,"dist_nm":53,"freq":432,"lat":51.34362500,"lon":14.95203300,"rng_nm":25,"alt_fmsl":0,"id":"RO","desc":"ROTHENBURG NDB"},
{"type":"NDB","hdg_t":292.1,"dist_nm":56.7,"freq":392,"lat":52.54505800,"lon":13.15103900,"rng_nm":25,"alt_fmsl":0,"id":"RW","desc":"TEGEL WEST NDB"},
{"type":"SDME","hdg_t":243.8,"dist_nm":57.5,"freq":117.25,"lat":51.76666700,"lon":13.19900000,"rng_nm":90,"alt_fmsl":261,"id":"HOZ","desc":"HOLZDORF TACAN"},
{"type":"VOR","hdg_t":50.3,"dist_nm":58.9,"freq":115.3,"lat":52.81685000,"lon":15.83249200,"rng_nm":130,"alt_fmsl":98,"id":"DRE","desc":"DREZDENKO VOR-DME"},
{"type":"NDB","hdg_t":49.6,"dist_nm":59.9,"freq":440,"lat":52.83625300,"lon":15.84139200,"rng_nm":50,"alt_fmsl":0,"id":"DRE","desc":"DREZDENKO NDB"},
{"type":"NDB","hdg_t":181.3,"dist_nm":60,"freq":359,"lat":51.19881400,"lon":14.54783100,"rng_nm":25,"alt_fmsl":0,"id":"BA","desc":"BAUTZEN NDB"},
{"type":"NDB","hdg_t":245.6,"dist_nm":60.8,"freq":406,"lat":51.76983300,"lon":13.09750000,"rng_nm":25,"alt_fmsl":316,"id":"HOZ","desc":"HOLZDORF NDB"},
{"type":"NDB","hdg_t":204.7,"dist_nm":66.2,"freq":374,"lat":51.19301111,"lon":13.85003056,"rng_nm":15,"alt_fmsl":680,"id":"FS","desc":"DRESDEN NDB"},
{"type":"VOR","hdg_t":309.4,"dist_nm":68.2,"freq":114.55,"lat":52.91031900,"lon":13.13461400,"rng_nm":80,"alt_fmsl":234,"id":"LWB","desc":"LOWENBERG VOR-DME"},
{"type":"SDME","hdg_t":206,"dist_nm":71.2,"freq":115.4,"lat":51.12950600,"lon":13.75756900,"rng_nm":25,"alt_fmsl":778,"id":"DND","desc":"DRESDEN DME"},
{"type":"NDB","hdg_t":127.1,"dist_nm":76.6,"freq":351,"lat":51.41509400,"lon":16.21109400,"rng_nm":25,"alt_fmsl":0,"id":"LUB","desc":"LUBIN NDB"},
{"type":"VOR","hdg_t":186.1,"dist_nm":76.6,"freq":115,"lat":50.92815000,"lon":14.36880000,"rng_nm":60,"alt_fmsl":1439,"id":"HDO","desc":"HERMSDORF VOR-DME"},
{"type":"NDB","hdg_t":91.8,"dist_nm":79.2,"freq":409,"lat":52.13635800,"lon":16.72882500,"rng_nm":50,"alt_fmsl":0,"id":"CZE","desc":"CZEMPIN NDB"},
{"type":"VOR","hdg_t":92,"dist_nm":79.2,"freq":114.5,"lat":52.13061400,"lon":16.72713300,"rng_nm":130,"alt_fmsl":295,"id":"CZE","desc":"CZEMPIN VOR-DME"},
{"type":"VOR","hdg_t":167.6,"dist_nm":79.5,"freq":114.85,"lat":50.90268100,"lon":15.03190000,"rng_nm":130,"alt_fmsl":1300,"id":"OKX","desc":"FRYDLANT VOR-DME"},
{"type":"VOR","hdg_t":207.8,"dist_nm":80,"freq":114.35,"lat":51.01554700,"lon":13.59888900,"rng_nm":60,"alt_fmsl":1086,"id":"DRN","desc":"DRESDEN VOR-DME"},
{"type":"NDB","hdg_t":19.2,"dist_nm":81.4,"freq":375,"lat":53.47530300,"lon":15.33303900,"rng_nm":75,"alt_fmsl":0,"id":"CHO","desc":"CHOCIWEL NDB"},
{"type":"NDB","hdg_t":9.3,"dist_nm":82.7,"freq":397,"lat":53.55502200,"lon":14.96021900,"rng_nm":25,"alt_fmsl":0,"id":"OL","desc":"SZCZECIN NDB"},
{"type":"VOR","hdg_t":79.8,"dist_nm":83.7,"freq":115.8,"lat":52.42236400,"lon":16.83016900,"rng_nm":40,"alt_fmsl":308,"id":"LAW","desc":"POZNAN VOR-DME"},
{"type":"NDB","hdg_t":80.2,"dist_nm":84.8,"freq":353,"lat":52.41423100,"lon":16.86198100,"rng_nm":75,"alt_fmsl":0,"id":"P","desc":"LAWICA NDB"},
{"type":"NDB","hdg_t":81.1,"dist_nm":87.7,"freq":429,"lat":52.39808100,"lon":16.94463600,"rng_nm":50,"alt_fmsl":0,"id":"POZ","desc":"POZNAN NDB"},
{"type":"VOR","hdg_t":240.6,"dist_nm":90.9,"freq":115.85,"lat":51.43600600,"lon":12.47320600,"rng_nm":80,"alt_fmsl":486,"id":"LEG","desc":"LEIPZIG VOR-DME"},
{"type":"NDB","hdg_t":332.2,"dist_nm":95.8,"freq":357,"lat":53.60283300,"lon":13.33833300,"rng_nm":25,"alt_fmsl":264,"id":"NRG","desc":"NEUBRANDENBURG NDB"},
{"type":"NDB","hdg_t":240.9,"dist_nm":96.4,"freq":357,"lat":51.39513600,"lon":12.34319400,"rng_nm":15,"alt_fmsl":0,"id":"MA","desc":"LEIPZIG NDB"},
{"type":"SDME","hdg_t":331.7,"dist_nm":96.4,"freq":108.05,"lat":53.60466700,"lon":13.30866700,"rng_nm":50,"alt_fmsl":270,"id":"NEG","desc":"NEUBRANDENBURG TACAN"},
{"type":"NDB","hdg_t":242.7,"dist_nm":97.3,"freq":340,"lat":51.43402200,"lon":12.28049400,"rng_nm":25,"alt_fmsl":463,"id":"ZIG","desc":"Leipzig NDB"},
{"type":"NDB","hdg_t":242.2,"dist_nm":98.1,"freq":357,"lat":51.41449400,"lon":12.27132500,"rng_nm":15,"alt_fmsl":463,"id":"SKZ","desc":"Schkeuditz NDB"},
{"type":"SDME","hdg_t":243.3,"dist_nm":99.1,"freq":113.5,"lat":51.43431400,"lon":12.22570600,"rng_nm":25,"alt_fmsl":446,"id":"LND","desc":"Schkeuditz North DME"},
{"type":"SDME","hdg_t":242.7,"dist_nm":99.8,"freq":112.15,"lat":51.41126400,"lon":12.22377500,"rng_nm":25,"alt_fmsl":502,"id":"LED","desc":"LEIPZIG SOUTH DME"},
{"type":"SDME","hdg_t":242.7,"dist_nm":99.8,"freq":112.15,"lat":51.41126400,"lon":12.22377500,"rng_nm":25,"alt_fmsl":486,"id":"LLD","desc":"Schkeuditz South DME"}
]
}
