{"success":true,"source":"xp2csv.pl","last_updated":"2013/11/08 14:53:21 UTC"
,"icao":"EDBM","name":"Magdeburg","lat":52.073657,"lon":11.6264795,"rwys":1,"ils":0,"index":3138434,"path":"e010n50/e011n52"
,"runways":[
{"len_m":998,"wid_m":29.87,"hdg":88,"surf":"Asphalt","rwy1":"09","lat1":52.07351700,"lon1":11.61920300,"rwy2":"27","lat2":52.07379700,"lon2":11.63375600}
]
,"radios":[
{"type":"TWR","freq":132.65,"desc":"BERLIN INFO"},
{"type":"TWR","freq":119.3,"desc":"INFO"},
{"type":"APP","freq":124.17,"desc":"BERLIN RADAR"}
]
,"navaids":[
{"type":"SDME","hdg_t":38,"dist_nm":0.2,"freq":115.45,"lat":52.07713100,"lon":11.63090000,"rng_nm":25,"alt_fmsl":302,"id":"MGD","desc":"MAGDEBURG DME"},
{"type":"NDB","hdg_t":88.2,"dist_nm":0.8,"freq":367,"lat":52.07407800,"lon":11.64833300,"rng_nm":35,"alt_fmsl":0,"id":"MU","desc":"MAGDEBURG NDB"},
{"type":"VOR","hdg_t":127.1,"dist_nm":7.8,"freq":110.45,"lat":51.99498900,"lon":11.79430600,"rng_nm":130,"alt_fmsl":209,"id":"MAG","desc":"MAGDEBURG VOR-DME"},
{"type":"VOR","hdg_t":299.9,"dist_nm":35.2,"freq":117.3,"lat":52.36339400,"lon":10.79521900,"rng_nm":130,"alt_fmsl":413,"id":"HLZ","desc":"HEHLINGEN VOR-DME"},
{"type":"NDB","hdg_t":292,"dist_nm":40.5,"freq":427,"lat":52.32224400,"lon":10.60615800,"rng_nm":20,"alt_fmsl":0,"id":"BRU","desc":"BRAUNSCHWEIG NDB"},
{"type":"NDB","hdg_t":154.3,"dist_nm":42.5,"freq":434,"lat":51.43476900,"lon":12.11671100,"rng_nm":15,"alt_fmsl":0,"id":"SK","desc":"LEIPZIG NDB"},
{"type":"VOR","hdg_t":181.4,"dist_nm":43.9,"freq":115.25,"lat":51.34311700,"lon":11.59752800,"rng_nm":130,"alt_fmsl":721,"id":"GOT","desc":"GOTEM VOR-DME"},
{"type":"SDME","hdg_t":149.5,"dist_nm":44.4,"freq":113.5,"lat":51.43431400,"lon":12.22570600,"rng_nm":25,"alt_fmsl":446,"id":"LND","desc":"Schkeuditz North DME"},
{"type":"NDB","hdg_t":147.3,"dist_nm":45.5,"freq":340,"lat":51.43402200,"lon":12.28049400,"rng_nm":25,"alt_fmsl":463,"id":"ZIG","desc":"Leipzig NDB"},
{"type":"SDME","hdg_t":150.5,"dist_nm":45.6,"freq":112.15,"lat":51.41126400,"lon":12.22377500,"rng_nm":25,"alt_fmsl":502,"id":"LED","desc":"LEIPZIG SOUTH DME"},
{"type":"SDME","hdg_t":150.5,"dist_nm":45.6,"freq":112.15,"lat":51.41126400,"lon":12.22377500,"rng_nm":25,"alt_fmsl":486,"id":"LLD","desc":"Schkeuditz South DME"},
{"type":"NDB","hdg_t":148.4,"dist_nm":46.3,"freq":357,"lat":51.41449400,"lon":12.27132500,"rng_nm":15,"alt_fmsl":463,"id":"SKZ","desc":"Schkeuditz NDB"},
{"type":"NDB","hdg_t":146.4,"dist_nm":48.7,"freq":357,"lat":51.39513600,"lon":12.34319400,"rng_nm":15,"alt_fmsl":0,"id":"MA","desc":"LEIPZIG NDB"},
{"type":"VOR","hdg_t":140.1,"dist_nm":49.6,"freq":115.85,"lat":51.43600600,"lon":12.47320600,"rng_nm":80,"alt_fmsl":486,"id":"LEG","desc":"LEIPZIG VOR-DME"},
{"type":"NDB","hdg_t":107.8,"dist_nm":57.6,"freq":406,"lat":51.76983300,"lon":13.09750000,"rng_nm":25,"alt_fmsl":316,"id":"HOZ","desc":"HOLZDORF NDB"},
{"type":"VOR","hdg_t":357.1,"dist_nm":57.8,"freq":117.7,"lat":53.03452500,"lon":11.54621700,"rng_nm":50,"alt_fmsl":92,"id":"BKD","desc":"BRUNKENDORF VOR-DME"},
{"type":"SDME","hdg_t":106.9,"dist_nm":61.2,"freq":117.25,"lat":51.76666700,"lon":13.19900000,"rng_nm":90,"alt_fmsl":261,"id":"HOZ","desc":"HOLZDORF TACAN"},
{"type":"NDB","hdg_t":62.6,"dist_nm":62.8,"freq":392,"lat":52.54505800,"lon":13.15103900,"rng_nm":25,"alt_fmsl":0,"id":"RW","desc":"TEGEL WEST NDB"},
{"type":"VOR","hdg_t":280,"dist_nm":65.2,"freq":115.2,"lat":52.25032200,"lon":9.88349700,"rng_nm":130,"alt_fmsl":398,"id":"DLE","desc":"LEINE VOR-DME"},
{"type":"NDB","hdg_t":68.2,"dist_nm":65.9,"freq":347,"lat":52.46828100,"lon":13.29534700,"rng_nm":25,"alt_fmsl":0,"id":"DBR","desc":"HELMHOLTZ NDB"},
{"type":"NDB","hdg_t":298.4,"dist_nm":66.4,"freq":311,"lat":52.58966700,"lon":10.02950000,"rng_nm":25,"alt_fmsl":173,"id":"CEL","desc":"CELLE NDB"},
{"type":"NDB","hdg_t":75.2,"dist_nm":66.9,"freq":309,"lat":52.34500000,"lon":13.38666700,"rng_nm":50,"alt_fmsl":147,"id":"MW","desc":"SCHONEFELD NDB"},
{"type":"VOR","hdg_t":63.7,"dist_nm":67.8,"freq":112.3,"lat":52.56149700,"lon":13.28755800,"rng_nm":80,"alt_fmsl":118,"id":"TGL","desc":"TEGEL VOR-DME"},
{"type":"VOR","hdg_t":192.3,"dist_nm":69,"freq":113.85,"lat":50.95086900,"lon":11.23668600,"rng_nm":25,"alt_fmsl":1325,"id":"ERF","desc":"ERFURT VOR-DME"},
{"type":"VOR","hdg_t":69.1,"dist_nm":69.8,"freq":114.1,"lat":52.47310000,"lon":13.40538900,"rng_nm":80,"alt_fmsl":199,"id":"TOF","desc":"TEMPELHOF VOR-DME"},
{"type":"SDME","hdg_t":201.1,"dist_nm":70.1,"freq":112.05,"lat":50.98261100,"lon":10.95771900,"rng_nm":25,"alt_fmsl":1076,"id":"EFD","desc":"ERFURT DME"},
{"type":"NDB","hdg_t":202.1,"dist_nm":70.6,"freq":425,"lat":50.98260300,"lon":10.92296700,"rng_nm":35,"alt_fmsl":1036,"id":"ERT","desc":"ERFURT NDB"},
{"type":"NDB","hdg_t":289.9,"dist_nm":71.1,"freq":320,"lat":52.46410300,"lon":9.80508300,"rng_nm":15,"alt_fmsl":0,"id":"HA","desc":"HANNOVER NDB"},
{"type":"SDME","hdg_t":74.6,"dist_nm":71.5,"freq":114.4,"lat":52.37452500,"lon":13.50367200,"rng_nm":25,"alt_fmsl":173,"id":"SDD","desc":"SCHONEFELD DME"},
{"type":"NDB","hdg_t":62.3,"dist_nm":71.6,"freq":413,"lat":52.61390600,"lon":13.36364400,"rng_nm":50,"alt_fmsl":0,"id":"DLS","desc":"LUBARS NDB"},
{"type":"VOR","hdg_t":91.8,"dist_nm":71.8,"freq":115.15,"lat":52.01935300,"lon":13.56341400,"rng_nm":130,"alt_fmsl":233,"id":"KLF","desc":"KLASDORF VOR-DME"},
{"type":"NDB","hdg_t":69.8,"dist_nm":71.9,"freq":327,"lat":52.47286100,"lon":13.46834200,"rng_nm":18,"alt_fmsl":0,"id":"DIP","desc":"PLANTER NDB"},
{"type":"NDB","hdg_t":64.9,"dist_nm":72.7,"freq":321,"lat":52.57230800,"lon":13.42616100,"rng_nm":25,"alt_fmsl":0,"id":"GL","desc":"TEGEL EAST NDB"},
{"type":"NDB","hdg_t":152.3,"dist_nm":73,"freq":330,"lat":50.99377500,"lon":12.52103900,"rng_nm":25,"alt_fmsl":581,"id":"ABU","desc":"ALTENBURG NDB"},
{"type":"NDB","hdg_t":314.3,"dist_nm":73,"freq":284,"lat":52.91577200,"lon":10.18806100,"rng_nm":50,"alt_fmsl":329,"id":"FSB","desc":"FASSBERG NDB"},
{"type":"SDME","hdg_t":152.7,"dist_nm":73.4,"freq":115.3,"lat":50.98266900,"lon":12.51226100,"rng_nm":25,"alt_fmsl":624,"id":"AGD","desc":"ALTENBURG DME"},
{"type":"VOR","hdg_t":47.1,"dist_nm":74.7,"freq":114.55,"lat":52.91031900,"lon":13.13461400,"rng_nm":80,"alt_fmsl":234,"id":"LWB","desc":"LOWENBERG VOR-DME"},
{"type":"SDME","hdg_t":289.2,"dist_nm":75,"freq":113.95,"lat":52.46876100,"lon":9.69481100,"rng_nm":25,"alt_fmsl":184,"id":"HAD","desc":"HANNOVER DME"},
{"type":"SDME","hdg_t":288.3,"dist_nm":76,"freq":116.9,"lat":52.45529400,"lon":9.65936700,"rng_nm":25,"alt_fmsl":171,"id":"HBD","desc":"HANNOVER DME"},
{"type":"NDB","hdg_t":287.7,"dist_nm":79.3,"freq":332,"lat":52.45764400,"lon":9.56731700,"rng_nm":15,"alt_fmsl":0,"id":"HAE","desc":"HANNOVER NDB"},
{"type":"NDB","hdg_t":1,"dist_nm":79.3,"freq":315,"lat":53.39422200,"lon":11.66588900,"rng_nm":25,"alt_fmsl":0,"id":"PAH","desc":"SCHWERIN-PARCHIM NDB"},
{"type":"NDB","hdg_t":288,"dist_nm":80.2,"freq":358,"lat":52.46851400,"lon":9.54644400,"rng_nm":15,"alt_fmsl":0,"id":"HW","desc":"HANNOVER NDB"},
{"type":"SDME","hdg_t":4,"dist_nm":81.4,"freq":117.5,"lat":53.42504400,"lon":11.78495800,"rng_nm":25,"alt_fmsl":179,"id":"PMD","desc":"SCHWERIN-PARCHIM DME"},
{"type":"NDB","hdg_t":286.9,"dist_nm":83.3,"freq":419,"lat":52.45926700,"lon":9.45465800,"rng_nm":25,"alt_fmsl":203,"id":"WUN","desc":"WUNSTORF NDB"},
{"type":"SDME","hdg_t":286.9,"dist_nm":83.7,"freq":114.85,"lat":52.46033300,"lon":9.44483300,"rng_nm":80,"alt_fmsl":202,"id":"WUN","desc":"WUNSTORF TACAN"},
{"type":"NDB","hdg_t":6.8,"dist_nm":84,"freq":333,"lat":53.46131700,"lon":11.90715800,"rng_nm":25,"alt_fmsl":0,"id":"PI","desc":"SCHWERIN-PARCHIM NDB"},
{"type":"VOR","hdg_t":292.6,"dist_nm":89.3,"freq":116.5,"lat":52.62589200,"lon":9.37199200,"rng_nm":40,"alt_fmsl":190,"id":"NIE","desc":"NIENBURG VOR"},
{"type":"NDB","hdg_t":278.9,"dist_nm":94.5,"freq":368,"lat":52.29116700,"lon":9.09100000,"rng_nm":25,"alt_fmsl":292,"id":"BYC","desc":"BUCKEBURG NDB"},
{"type":"VOR","hdg_t":76.6,"dist_nm":94.5,"freq":113.3,"lat":52.41133100,"lon":14.13058900,"rng_nm":50,"alt_fmsl":238,"id":"FWE","desc":"FURSTENWALDE VOR-DME"},
{"type":"VOR","hdg_t":129.9,"dist_nm":97.4,"freq":114.35,"lat":51.01554700,"lon":13.59888900,"rng_nm":60,"alt_fmsl":1086,"id":"DRN","desc":"DRESDEN VOR-DME"},
{"type":"SDME","hdg_t":124.5,"dist_nm":97.8,"freq":115.4,"lat":51.12950600,"lon":13.75756900,"rng_nm":25,"alt_fmsl":778,"id":"DND","desc":"DRESDEN DME"},
{"type":"NDB","hdg_t":121.5,"dist_nm":98.5,"freq":374,"lat":51.19301111,"lon":13.85003056,"rng_nm":15,"alt_fmsl":680,"id":"FS","desc":"DRESDEN NDB"},
{"type":"VOR","hdg_t":250.9,"dist_nm":99.7,"freq":113.7,"lat":51.50569700,"lon":9.11091400,"rng_nm":80,"alt_fmsl":843,"id":"WRB","desc":"WARBURG VOR-DME"}
]
}
