{"success":true,"source":"xp2csv.pl","last_updated":"2013/11/08 14:53:21 UTC"
,"icao":"EDCX","name":"Purkshof","lat":54.16137972,"lon":12.248978985,"rwys":2,"ils":0,"index":3154952,"path":"e010n50/e012n54"
,"runways":[
{"len_m":803,"wid_m":39.93,"hdg":83,"surf":"Turf/grass","rwy1":"09","lat1":54.16081686,"lon1":12.24335593,"rwy2":"27","lat2":54.16157364,"lon2":12.25558387},
{"len_m":1203,"wid_m":39.93,"hdg":222,"surf":"Turf/grass","rwy1":"04","lat1":54.16557266,"lon1":12.25466680,"rwy2":"22","lat2":54.15755571,"lon2":12.24230933}
]
,"navaids":[
{"type":"SDME","hdg_t":174.7,"dist_nm":14.5,"freq":108.25,"lat":53.91983300,"lon":12.28633300,"rng_nm":80,"alt_fmsl":190,"id":"LAG","desc":"LAAGE TACAN"},
{"type":"NDB","hdg_t":55.1,"dist_nm":18.7,"freq":373,"lat":54.33836900,"lon":12.68610300,"rng_nm":30,"alt_fmsl":45,"id":"BTH","desc":"BARTH NDB"},
{"type":"SDME","hdg_t":56.2,"dist_nm":19.4,"freq":115.4,"lat":54.34042200,"lon":12.70975300,"rng_nm":25,"alt_fmsl":45,"id":"BHD","desc":"BARTH DME"},
{"type":"VOR","hdg_t":58.7,"dist_nm":40.9,"freq":108.45,"lat":54.51096900,"lon":13.24932800,"rng_nm":60,"alt_fmsl":41,"id":"TRT","desc":"TRENT VOR-DME"},
{"type":"NDB","hdg_t":320.9,"dist_nm":41.5,"freq":366,"lat":54.69548300,"lon":11.49835300,"rng_nm":15,"alt_fmsl":0,"id":"MB","desc":"Maribo LOM"},
{"type":"NDB","hdg_t":196.2,"dist_nm":43.7,"freq":333,"lat":53.46131700,"lon":11.90715800,"rng_nm":25,"alt_fmsl":0,"id":"PI","desc":"SCHWERIN-PARCHIM NDB"},
{"type":"VOR","hdg_t":281.6,"dist_nm":44.6,"freq":112.2,"lat":54.30546100,"lon":11.00518600,"rng_nm":60,"alt_fmsl":119,"id":"MIC","desc":"MICHAELSDORF VOR"},
{"type":"SDME","hdg_t":200.6,"dist_nm":47.2,"freq":117.5,"lat":53.42504400,"lon":11.78495800,"rng_nm":25,"alt_fmsl":179,"id":"PMD","desc":"SCHWERIN-PARCHIM DME"},
{"type":"SDME","hdg_t":131.2,"dist_nm":50.3,"freq":108.05,"lat":53.60466700,"lon":13.30866700,"rng_nm":50,"alt_fmsl":270,"id":"NEG","desc":"NEUBRANDENBURG TACAN"},
{"type":"NDB","hdg_t":204.4,"dist_nm":50.5,"freq":315,"lat":53.39422200,"lon":11.66588900,"rng_nm":25,"alt_fmsl":0,"id":"PAH","desc":"SCHWERIN-PARCHIM NDB"},
{"type":"VOR","hdg_t":5,"dist_nm":50.7,"freq":114.9,"lat":55.00150000,"lon":12.37921100,"rng_nm":60,"alt_fmsl":90,"id":"CDA","desc":"CODAN VOR-DME"},
{"type":"NDB","hdg_t":130.5,"dist_nm":51.2,"freq":357,"lat":53.60283300,"lon":13.33833300,"rng_nm":25,"alt_fmsl":264,"id":"NRG","desc":"NEUBRANDENBURG NDB"},
{"type":"VOR","hdg_t":116.6,"dist_nm":52.3,"freq":117.15,"lat":53.76273600,"lon":13.56313600,"rng_nm":60,"alt_fmsl":43,"id":"FLD","desc":"FRIEDLAND VOR-DME"},
{"type":"VOR","hdg_t":257.3,"dist_nm":57.4,"freq":110.6,"lat":53.94074200,"lon":10.66778600,"rng_nm":65,"alt_fmsl":264,"id":"LUB","desc":"LUBECK VOR"},
{"type":"SDME","hdg_t":249.1,"dist_nm":58.2,"freq":115.65,"lat":53.80639200,"lon":10.71863100,"rng_nm":25,"alt_fmsl":70,"id":"LUD","desc":"LUBECK BLANKENSEE DME"},
{"type":"NDB","hdg_t":249.1,"dist_nm":59.1,"freq":394,"lat":53.80082500,"lon":10.69585800,"rng_nm":15,"alt_fmsl":53,"id":"LYE","desc":"LUBECK BLANKENSEE NDB"},
{"type":"SDME","hdg_t":103.3,"dist_nm":68.6,"freq":111.3,"lat":53.88225600,"lon":14.13103800,"rng_nm":18,"alt_fmsl":0,"id":"HEW","desc":"EDAH DME"},
{"type":"NDB","hdg_t":103.3,"dist_nm":70.5,"freq":330,"lat":53.87406400,"lon":14.18206100,"rng_nm":25,"alt_fmsl":93,"id":"HC","desc":"HERINGSDORF NDB"},
{"type":"VOR","hdg_t":200.6,"dist_nm":72.2,"freq":117.7,"lat":53.03452500,"lon":11.54621700,"rng_nm":50,"alt_fmsl":92,"id":"BKD","desc":"BRUNKENDORF VOR-DME"},
{"type":"SDME","hdg_t":280.8,"dist_nm":75.1,"freq":109.5,"lat":54.37879400,"lon":10.14537800,"rng_nm":25,"alt_fmsl":119,"id":"KHD","desc":"KIEL HOLTENAU DME"},
{"type":"NDB","hdg_t":280.7,"dist_nm":76,"freq":353,"lat":54.37757200,"lon":10.12002200,"rng_nm":30,"alt_fmsl":0,"id":"KIL","desc":"KIEL HOLTENAU NDB"},
{"type":"VOR","hdg_t":249.3,"dist_nm":77.9,"freq":113.1,"lat":53.68557500,"lon":10.20499700,"rng_nm":130,"alt_fmsl":187,"id":"HAM","desc":"HAMBURG VORTAC"},
{"type":"VOR","hdg_t":344.6,"dist_nm":79.7,"freq":112.8,"lat":55.43936400,"lon":11.63153100,"rng_nm":80,"alt_fmsl":136,"id":"KOR","desc":"KORSA VOR-DME"},
{"type":"VOR","hdg_t":156.7,"dist_nm":81.5,"freq":114.55,"lat":52.91031900,"lon":13.13461400,"rng_nm":80,"alt_fmsl":234,"id":"LWB","desc":"LOWENBERG VOR-DME"},
{"type":"NDB","hdg_t":250.1,"dist_nm":82.1,"freq":339,"lat":53.67697200,"lon":10.08320300,"rng_nm":30,"alt_fmsl":0,"id":"HOS","desc":"HAMBURG NDB"},
{"type":"SDME","hdg_t":249.3,"dist_nm":86,"freq":115.8,"lat":53.63530600,"lon":9.99413900,"rng_nm":25,"alt_fmsl":66,"id":"ALF","desc":"ALSTER DME"},
{"type":"NDB","hdg_t":252.8,"dist_nm":86.7,"freq":323,"lat":53.71416700,"lon":9.92430000,"rng_nm":15,"alt_fmsl":0,"id":"GT","desc":"HAMBURG NORTH NDB"},
{"type":"VOR","hdg_t":8.2,"dist_nm":86.8,"freq":112.5,"lat":55.59051900,"lon":12.61360300,"rng_nm":60,"alt_fmsl":29,"id":"KAS","desc":"KASTRUP VOR-DME"},
{"type":"VOR","hdg_t":30.6,"dist_nm":87.8,"freq":116.4,"lat":55.41130600,"lon":13.55752800,"rng_nm":60,"alt_fmsl":0,"id":"ALM","desc":"ALMA VOR"},
{"type":"NDB","hdg_t":354.4,"dist_nm":88.2,"freq":368,"lat":55.62313100,"lon":11.99716900,"rng_nm":30,"alt_fmsl":0,"id":"RK","desc":"ROSKILDE NDB"},
{"type":"VOR","hdg_t":300.4,"dist_nm":90.6,"freq":114.7,"lat":54.90541400,"lon":9.99337800,"rng_nm":60,"alt_fmsl":0,"id":"ALS","desc":"ALSIE VOR"},
{"type":"NDB","hdg_t":248.2,"dist_nm":91.3,"freq":350,"lat":53.57548300,"lon":9.87581100,"rng_nm":15,"alt_fmsl":0,"id":"FU","desc":"HAMBURG WEST NDB"},
{"type":"NDB","hdg_t":277.2,"dist_nm":91.3,"freq":344,"lat":54.32633300,"lon":9.67033300,"rng_nm":25,"alt_fmsl":105,"id":"HN","desc":"HOHN NDB"},
{"type":"VOR","hdg_t":24.9,"dist_nm":91.3,"freq":113,"lat":55.53452800,"lon":13.37950000,"rng_nm":80,"alt_fmsl":270,"id":"SUP","desc":"STURUP VOR-DME"},
{"type":"SDME","hdg_t":276.4,"dist_nm":95.8,"freq":115.3,"lat":54.31083300,"lon":9.53866700,"rng_nm":40,"alt_fmsl":78,"id":"HNT","desc":"HOHN TACAN"},
{"type":"NDB","hdg_t":299.8,"dist_nm":96.5,"freq":330,"lat":54.93783600,"lon":9.82974400,"rng_nm":15,"alt_fmsl":0,"id":"SB","desc":"Sonderborg LOM"},
{"type":"SDME","hdg_t":281.4,"dist_nm":98.1,"freq":111.8,"lat":54.45366700,"lon":9.50150000,"rng_nm":80,"alt_fmsl":105,"id":"SWG","desc":"SCHLESWIG TACAN"},
{"type":"SDME","hdg_t":356.9,"dist_nm":98.1,"freq":114,"lat":55.79123600,"lon":12.09576100,"rng_nm":200,"alt_fmsl":87,"id":"VLL","desc":"VAERLOSE TACAN"},
{"type":"VOR","hdg_t":253.1,"dist_nm":98.9,"freq":115.1,"lat":53.65420000,"lon":9.59505600,"rng_nm":130,"alt_fmsl":50,"id":"LBE","desc":"ELBE VOR-DME"}
]
}
