{"success":true,"source":"xp2csv.pl","last_updated":"2013/11/08 14:53:21 UTC"
,"icao":"EDDR","name":"Saarbrucken","lat":49.215342975,"lon":7.112610135,"rwys":2,"ils":1,"index":3072712,"path":"e000n40/e007n49"
,"runways":[
{"len_m":1971,"wid_m":45.11,"hdg":87,"surf":"Asphalt","rwy1":"09","lat1":49.21416996,"lon1":7.09642507,"rwy2":"27","lat2":49.21497395,"lon2":7.12345547},
{"len_m":545,"wid_m":49.99,"hdg":87,"surf":"Turf/grass","rwy1":"09L","lat1":49.21599035,"lon1":7.11154326,"rwy2":"27R","lat2":49.21623765,"lon2":7.11901674}
]
,"radios":[
{"type":"ATIS","freq":125.3,"desc":"ATIS"},
{"type":"TWR","freq":118.35,"desc":"TWR"}
]
,"ils":[
{"type":"ILS","freq":108.7,"lat":49.21412200,"lon":7.09494200,"rng_nm":25,"alt_fmsl":1021,"hdg":267.37,"id":"DSB","rwy":"27","desc":"ILS-cat-I"},
{"type":"GS","freq":108.7,"lat":49.21375000,"lon":7.11890000,"rng_nm":10,"alt_fmsl":1056,"id":"DSB","rwy":"27","desc":"GS","gs":3},
{"type":"OM","freq":0,"lat":49.21776900,"lon":7.21951100,"rng_nm":0,"alt_fmsl":1021,"id":"----","rwy":"27","desc":"OM"},
{"type":"MM","freq":0,"lat":49.21538900,"lon":7.13801100,"rng_nm":0,"alt_fmsl":1021,"id":"----","rwy":"27","desc":"MM"}
]
,"navaids":[
{"type":"SDME","hdg_t":141.8,"dist_nm":0.2,"freq":116.75,"lat":49.21245800,"lon":7.11606700,"rng_nm":25,"alt_fmsl":1088,"id":"SAD","desc":"SAARBRUCKEN DME"},
{"type":"NDB","hdg_t":46.9,"dist_nm":0.3,"freq":343,"lat":49.21885300,"lon":7.11834400,"rng_nm":40,"alt_fmsl":1058,"id":"SBN","desc":"SAARBRUCKEN NDB"},
{"type":"NDB","hdg_t":87.9,"dist_nm":4.2,"freq":360,"lat":49.21776900,"lon":7.21951100,"rng_nm":25,"alt_fmsl":0,"id":"SR","desc":"ENSHEIM NDB"},
{"type":"SDME","hdg_t":91.7,"dist_nm":11.1,"freq":109.1,"lat":49.20933100,"lon":7.39577800,"rng_nm":25,"alt_fmsl":1201,"id":"ZND","desc":"ZWEIBRUCKEN DME"},
{"type":"NDB","hdg_t":86.3,"dist_nm":11.9,"freq":435,"lat":49.22759200,"lon":7.41658300,"rng_nm":25,"alt_fmsl":0,"id":"ZBN","desc":"ZWEIBRUCKEN NDB"},
{"type":"VOR","hdg_t":85.9,"dist_nm":12,"freq":114.8,"lat":49.22907200,"lon":7.41789200,"rng_nm":60,"alt_fmsl":1177,"id":"ZWN","desc":"ZWEIBRUCKEN VOR-DME"},
{"type":"VOR","hdg_t":228.8,"dist_nm":20.8,"freq":111.25,"lat":48.98644400,"lon":6.71622200,"rng_nm":100,"alt_fmsl":1057,"id":"GTQ","desc":"GROSTENQUIN VOR-DME"},
{"type":"SDME","hdg_t":54.4,"dist_nm":22.7,"freq":113.4,"lat":49.43473100,"lon":7.58564700,"rng_nm":80,"alt_fmsl":762,"id":"RMS","desc":"RAMSTEIN TACAN"},
{"type":"NDB","hdg_t":172.7,"dist_nm":27.1,"freq":424,"lat":48.76722222,"lon":7.19944444,"rng_nm":25,"alt_fmsl":1000,"id":"PHG","desc":"Phalsbourg Boursheid NDB"},
{"type":"VOR","hdg_t":152.1,"dist_nm":28.4,"freq":110.45,"lat":48.79624400,"lon":7.44798100,"rng_nm":60,"alt_fmsl":1021,"id":"SAV","desc":"SAVERNE VOR-DME"},
{"type":"NDB","hdg_t":248.8,"dist_nm":35.6,"freq":388,"lat":48.99805555,"lon":6.27138888,"rng_nm":25,"alt_fmsl":876,"id":"LOU","desc":"Metz Nancy Lorrraine NDB"},
{"type":"NDB","hdg_t":276.2,"dist_nm":35.7,"freq":354,"lat":49.27638888,"lon":6.20861111,"rng_nm":25,"alt_fmsl":604,"id":"MTZ","desc":"Metz Nancy Lorraine NDB"},
{"type":"NDB","hdg_t":268,"dist_nm":37.3,"freq":333,"lat":49.19027700,"lon":6.16361100,"rng_nm":75,"alt_fmsl":0,"id":"MZ","desc":"METZ NDB"},
{"type":"VOR","hdg_t":14.6,"dist_nm":39.4,"freq":117.5,"lat":49.85023900,"lon":7.36957800,"rng_nm":40,"alt_fmsl":1453,"id":"KIR","desc":"KIRN VORTAC"},
{"type":"NDB","hdg_t":313.5,"dist_nm":40.7,"freq":368,"lat":49.67972200,"lon":6.35527800,"rng_nm":25,"alt_fmsl":0,"id":"ELU","desc":"LUXEMBOURG NDB"},
{"type":"NDB","hdg_t":341.7,"dist_nm":40.7,"freq":474,"lat":49.85916500,"lon":6.78305600,"rng_nm":150,"alt_fmsl":0,"id":"TX","desc":"TRIER NDB"},
{"type":"NDB","hdg_t":59.4,"dist_nm":42.2,"freq":428,"lat":49.56861100,"lon":8.04388900,"rng_nm":150,"alt_fmsl":0,"id":"SEX","desc":"SEMBACH NDB"},
{"type":"NDB","hdg_t":307.4,"dist_nm":42.3,"freq":318,"lat":49.64110900,"lon":6.24916600,"rng_nm":150,"alt_fmsl":0,"id":"LE","desc":"LUXEMBOURG NDB"},
{"type":"VOR","hdg_t":307.2,"dist_nm":42.3,"freq":112.25,"lat":49.63944400,"lon":6.24722200,"rng_nm":25,"alt_fmsl":1234,"id":"LUX","desc":"LUXEMBOURG VOR-DME"},
{"type":"NDB","hdg_t":26.5,"dist_nm":43,"freq":394,"lat":49.85472100,"lon":7.60805600,"rng_nm":50,"alt_fmsl":0,"id":"PFF","desc":"PFERDSFELD NDB"},
{"type":"NDB","hdg_t":303.4,"dist_nm":43.8,"freq":404,"lat":49.61333300,"lon":6.17500000,"rng_nm":50,"alt_fmsl":0,"id":"LW","desc":"Luxembourg NDB"},
{"type":"SDME","hdg_t":7.8,"dist_nm":44.2,"freq":116.95,"lat":49.94556900,"lon":7.26766900,"rng_nm":25,"alt_fmsl":1716,"id":"HND","desc":"HAHN DME"},
{"type":"NDB","hdg_t":147.4,"dist_nm":44.5,"freq":412,"lat":48.58829000,"lon":7.71472300,"rng_nm":50,"alt_fmsl":502,"id":"SE","desc":"Strasbourg NDB"},
{"type":"NDB","hdg_t":8.2,"dist_nm":45.4,"freq":376,"lat":49.96488300,"lon":7.28087500,"rng_nm":25,"alt_fmsl":1649,"id":"HAN","desc":"HAHN NDB"},
{"type":"NDB","hdg_t":124.4,"dist_nm":45.9,"freq":440,"lat":48.77833200,"lon":8.06722300,"rng_nm":150,"alt_fmsl":0,"id":"SLN","desc":"SOLLINGEN NDB"},
{"type":"NDB","hdg_t":122.4,"dist_nm":46.2,"freq":431,"lat":48.79796400,"lon":8.09755300,"rng_nm":30,"alt_fmsl":408,"id":"KBA","desc":"KARLSRUHE BADEN BADEN NDB"},
{"type":"VOR","hdg_t":156.7,"dist_nm":46.3,"freq":115.6,"lat":48.50538900,"lon":7.57197200,"rng_nm":150,"alt_fmsl":577,"id":"STR","desc":"STRASBOURG ENTZHEIM VOR-DME"},
{"type":"NDB","hdg_t":297.4,"dist_nm":46.5,"freq":346,"lat":49.56777800,"lon":6.05416700,"rng_nm":25,"alt_fmsl":0,"id":"WLU","desc":"LUXEMBOURG NDB"},
{"type":"SDME","hdg_t":123.7,"dist_nm":46.5,"freq":115.8,"lat":48.78022800,"lon":8.08848600,"rng_nm":25,"alt_fmsl":495,"id":"KBD","desc":"KARLSRUHE BADEN BADEN DME"},
{"type":"SDME","hdg_t":340.7,"dist_nm":48.6,"freq":109.5,"lat":49.97899400,"lon":6.69769700,"rng_nm":60,"alt_fmsl":1161,"id":"SPA","desc":"SPANGDAHLEM TACAN"},
{"type":"VOR","hdg_t":334.9,"dist_nm":53.1,"freq":115.3,"lat":50.01586100,"lon":6.53178900,"rng_nm":60,"alt_fmsl":1388,"id":"NTM","desc":"NATTENHEIM VORTAC"},
{"type":"NDB","hdg_t":68.5,"dist_nm":53.6,"freq":334,"lat":49.53450000,"lon":8.39050000,"rng_nm":25,"alt_fmsl":320,"id":"HDM","desc":"COLEMAN NDB"},
{"type":"NDB","hdg_t":315.6,"dist_nm":54.5,"freq":307,"lat":49.86138900,"lon":6.12972200,"rng_nm":50,"alt_fmsl":0,"id":"DIK","desc":"DIEKIRCH NDB"},
{"type":"VOR","hdg_t":315.6,"dist_nm":54.5,"freq":114.4,"lat":49.86138900,"lon":6.12972200,"rng_nm":70,"alt_fmsl":1109,"id":"DIK","desc":"DIEKIRCH VOR-DME"},
{"type":"NDB","hdg_t":225.5,"dist_nm":54.6,"freq":339,"lat":48.57416666,"lon":6.13444444,"rng_nm":25,"alt_fmsl":971,"id":"NE","desc":"Nancy Essey NDB"},
{"type":"NDB","hdg_t":271.3,"dist_nm":56.5,"freq":410,"lat":49.22833333,"lon":5.67444444,"rng_nm":25,"alt_fmsl":751,"id":"ETN","desc":"Etain Rouvres NDB"},
{"type":"VOR","hdg_t":67.8,"dist_nm":56.9,"freq":109,"lat":49.56563100,"lon":8.46380800,"rng_nm":25,"alt_fmsl":327,"id":"HDM","desc":"COLEMAN VOR"},
{"type":"SDME","hdg_t":73.9,"dist_nm":57.1,"freq":113.55,"lat":49.47063900,"lon":8.51598100,"rng_nm":25,"alt_fmsl":351,"id":"MND","desc":"MANNHEIM DME"},
{"type":"SDME","hdg_t":358.3,"dist_nm":57.8,"freq":117.1,"lat":50.17866700,"lon":7.06950000,"rng_nm":50,"alt_fmsl":1618,"id":"BUE","desc":"BUCHEL TACAN"},
{"type":"SDME","hdg_t":150.7,"dist_nm":58.4,"freq":108.05,"lat":48.36414200,"lon":7.82751700,"rng_nm":25,"alt_fmsl":556,"id":"LRD","desc":"LAHR DME"},
{"type":"NDB","hdg_t":33.1,"dist_nm":58.8,"freq":338,"lat":50.03305400,"lon":7.94500000,"rng_nm":150,"alt_fmsl":0,"id":"RUD","desc":"RUDESHEIM NDB"},
{"type":"NDB","hdg_t":151.6,"dist_nm":58.9,"freq":337,"lat":48.34873600,"lon":7.81116400,"rng_nm":25,"alt_fmsl":0,"id":"LHR","desc":"LAHR NDB"},
{"type":"NDB","hdg_t":79.4,"dist_nm":59.1,"freq":417,"lat":49.38601700,"lon":8.59676400,"rng_nm":25,"alt_fmsl":345,"id":"HDL","desc":"HEIDELBERG NDB"},
{"type":"VOR","hdg_t":102.4,"dist_nm":59.5,"freq":115.95,"lat":48.99294400,"lon":8.58423600,"rng_nm":130,"alt_fmsl":908,"id":"KRH","desc":"KARLSRUHE VOR-DME"},
{"type":"SDME","hdg_t":230.9,"dist_nm":59.5,"freq":116.8,"lat":48.58363900,"lon":5.95183300,"rng_nm":50,"alt_fmsl":1115,"id":"NAY","desc":"NANCY TACAN"},
{"type":"NDB","hdg_t":82.8,"dist_nm":64,"freq":292,"lat":49.33672800,"lon":8.73290800,"rng_nm":50,"alt_fmsl":0,"id":"NKR","desc":"NECKAR NDB"},
{"type":"NDB","hdg_t":214.8,"dist_nm":64.3,"freq":419,"lat":48.33250000,"lon":6.19361111,"rng_nm":25,"alt_fmsl":906,"id":"EMT","desc":"Epinal Mirecourt NDB"},
{"type":"NDB","hdg_t":265.6,"dist_nm":64.9,"freq":392,"lat":49.12222300,"lon":5.46888900,"rng_nm":75,"alt_fmsl":0,"id":"VUN","desc":"VERDUN NDB"},
{"type":"VOR","hdg_t":58.1,"dist_nm":65.4,"freq":112.2,"lat":49.78169200,"lon":8.54148600,"rng_nm":25,"alt_fmsl":328,"id":"RID","desc":"RIED VOR-DME"},
{"type":"NDB","hdg_t":171,"dist_nm":65.7,"freq":380,"lat":48.13375000,"lon":7.36611100,"rng_nm":50,"alt_fmsl":0,"id":"HO","desc":"Colmar NDB"},
{"type":"VOR","hdg_t":218.1,"dist_nm":68.2,"freq":113,"lat":48.31783300,"lon":6.05941700,"rng_nm":60,"alt_fmsl":1154,"id":"EPL","desc":"EPINAL MIRECOURT VOR"},
{"type":"SDME","hdg_t":42.6,"dist_nm":68.3,"freq":114.1,"lat":50.04616700,"lon":8.31083300,"rng_nm":40,"alt_fmsl":472,"id":"WIB","desc":"WIESBADEN TACAN"},
{"type":"NDB","hdg_t":42.9,"dist_nm":68.9,"freq":399,"lat":50.04900000,"lon":8.32866700,"rng_nm":25,"alt_fmsl":490,"id":"WBD","desc":"WIESBADEN NDB"},
{"type":"NDB","hdg_t":6.3,"dist_nm":69.6,"freq":331,"lat":50.36783300,"lon":7.31366700,"rng_nm":25,"alt_fmsl":671,"id":"NMN","desc":"MENDIG NDB"},
{"type":"NDB","hdg_t":46.8,"dist_nm":69.9,"freq":382,"lat":50.00495600,"lon":8.42955300,"rng_nm":15,"alt_fmsl":0,"id":"FW","desc":"FRANKFURT NDB"},
{"type":"NDB","hdg_t":169.4,"dist_nm":72.2,"freq":348,"lat":48.03222300,"lon":7.44083400,"rng_nm":150,"alt_fmsl":0,"id":"AP","desc":"COLMAR MEYENHEIM NDB"},
{"type":"VOR","hdg_t":32.9,"dist_nm":74.3,"freq":116.7,"lat":50.25046100,"lon":8.16251700,"rng_nm":40,"alt_fmsl":1343,"id":"TAU","desc":"TAUNUS VORTAC"},
{"type":"NDB","hdg_t":52.5,"dist_nm":74.6,"freq":386,"lat":49.96006400,"lon":8.64263100,"rng_nm":15,"alt_fmsl":0,"id":"EH","desc":"EGELSBACH NDB"},
{"type":"SDME","hdg_t":48.6,"dist_nm":74.9,"freq":115.9,"lat":50.03046700,"lon":8.56705300,"rng_nm":40,"alt_fmsl":441,"id":"FRD","desc":"FRANKFURT DME"},
{"type":"VOR","hdg_t":49.1,"dist_nm":77.9,"freq":114.2,"lat":50.05374200,"lon":8.63709200,"rng_nm":130,"alt_fmsl":491,"id":"FFM","desc":"FRANKFURT VORTAC"},
{"type":"SDME","hdg_t":171.4,"dist_nm":78,"freq":110,"lat":47.92933300,"lon":7.39997200,"rng_nm":50,"alt_fmsl":693,"id":"CLR","desc":"COLMAR TACAN"},
{"type":"NDB","hdg_t":49.3,"dist_nm":78.4,"freq":320,"lat":50.05638900,"lon":8.65111100,"rng_nm":50,"alt_fmsl":0,"id":"FFM","desc":"FRANKFURT NDB"},
{"type":"NDB","hdg_t":170.9,"dist_nm":78.5,"freq":322,"lat":47.92333200,"lon":7.41888900,"rng_nm":150,"alt_fmsl":0,"id":"CLR","desc":"COLMAR MEYENHEIM NDB"},
{"type":"VOR","hdg_t":278.4,"dist_nm":78.7,"freq":109.4,"lat":49.39125000,"lon":5.12441700,"rng_nm":100,"alt_fmsl":1076,"id":"MMD","desc":"MONTMEDY-Dun sur Meuse VOR"},
{"type":"VOR","hdg_t":128.8,"dist_nm":78.7,"freq":116.1,"lat":48.38158600,"lon":8.64483600,"rng_nm":60,"alt_fmsl":0,"id":"SUL","desc":"SULZ VOR"},
{"type":"NDB","hdg_t":49.5,"dist_nm":79.7,"freq":297,"lat":50.06571100,"lon":8.68348900,"rng_nm":15,"alt_fmsl":0,"id":"FR","desc":"FRANKFURT NDB"},
{"type":"NDB","hdg_t":165.1,"dist_nm":80.9,"freq":430,"lat":47.91111000,"lon":7.62777800,"rng_nm":50,"alt_fmsl":0,"id":"BGT","desc":"BREMGARTEN NDB"},
{"type":"NDB","hdg_t":66.2,"dist_nm":84,"freq":355,"lat":49.76222200,"lon":9.09166700,"rng_nm":40,"alt_fmsl":0,"id":"KNG","desc":"KONIG NDB"},
{"type":"NDB","hdg_t":111.7,"dist_nm":85.6,"freq":384,"lat":48.66924400,"lon":9.11420300,"rng_nm":25,"alt_fmsl":0,"id":"SY","desc":"STUTTGART NDB"},
{"type":"VOR","hdg_t":59.8,"dist_nm":86.3,"freq":115.5,"lat":49.92110300,"lon":9.03981100,"rng_nm":25,"alt_fmsl":532,"id":"CHA","desc":"CHARLIE VOR"},
{"type":"NDB","hdg_t":328.8,"dist_nm":88.9,"freq":386,"lat":50.47805600,"lon":5.91305600,"rng_nm":10,"alt_fmsl":1542,"id":"SLV","desc":"SPA NDB"},
{"type":"SDME","hdg_t":109.9,"dist_nm":89.3,"freq":115.45,"lat":48.68794700,"lon":9.22410600,"rng_nm":25,"alt_fmsl":1332,"id":"SGD","desc":"STUTTGART DME"},
{"type":"VOR","hdg_t":100.8,"dist_nm":89.7,"freq":109.2,"lat":48.91297500,"lon":9.34022800,"rng_nm":25,"alt_fmsl":1064,"id":"LBU","desc":"LUBURG VOR-DME"},
{"type":"NDB","hdg_t":199.3,"dist_nm":90.1,"freq":363,"lat":47.79658300,"lon":6.37519400,"rng_nm":80,"alt_fmsl":913,"id":"LXI","desc":"LUXEUIL NDB"},
{"type":"VOR","hdg_t":109.3,"dist_nm":90.3,"freq":116.85,"lat":48.69643000,"lon":9.25654700,"rng_nm":40,"alt_fmsl":1217,"id":"STG","desc":"Stuttgart VOR-DME"},
{"type":"SDME","hdg_t":199.6,"dist_nm":91.1,"freq":108.2,"lat":47.78316700,"lon":6.35711100,"rng_nm":50,"alt_fmsl":913,"id":"LXI","desc":"LUXEUIL TACAN"},
{"type":"VOR","hdg_t":112,"dist_nm":92.2,"freq":112.5,"lat":48.61840800,"lon":9.25920800,"rng_nm":60,"alt_fmsl":1213,"id":"TGO","desc":"TANGO VORTAC"},
{"type":"VOR","hdg_t":46,"dist_nm":92.8,"freq":110,"lat":50.27627500,"lon":8.84862500,"rng_nm":60,"alt_fmsl":666,"id":"MTR","desc":"METRO VOR"},
{"type":"NDB","hdg_t":46,"dist_nm":92.9,"freq":304,"lat":50.27750000,"lon":8.84972200,"rng_nm":150,"alt_fmsl":0,"id":"MTR","desc":"METRO NDB"},
{"type":"NDB","hdg_t":108.1,"dist_nm":92.9,"freq":306,"lat":48.71128900,"lon":9.33504200,"rng_nm":25,"alt_fmsl":0,"id":"SG","desc":"STUTTGART NDB"},
{"type":"NDB","hdg_t":142.7,"dist_nm":93.9,"freq":490,"lat":47.96072200,"lon":8.52270800,"rng_nm":25,"alt_fmsl":0,"id":"DVI","desc":"DONAUESCHINGEN NDB"},
{"type":"NDB","hdg_t":248.8,"dist_nm":93.9,"freq":373,"lat":48.62900000,"lon":4.91066700,"rng_nm":50,"alt_fmsl":0,"id":"SDI","desc":"ST DIZIER NDB"},
{"type":"SDME","hdg_t":142.7,"dist_nm":93.9,"freq":110.55,"lat":47.96068100,"lon":8.52255300,"rng_nm":25,"alt_fmsl":2212,"id":"DON","desc":"DONAUESCHINGEN DME"},
{"type":"NDB","hdg_t":170.9,"dist_nm":94.4,"freq":353,"lat":47.66169400,"lon":7.47908300,"rng_nm":15,"alt_fmsl":885,"id":"BN","desc":"BALE MULHOUSE NDB"},
{"type":"SDME","hdg_t":249.2,"dist_nm":94.5,"freq":114,"lat":48.63700000,"lon":4.88919400,"rng_nm":50,"alt_fmsl":492,"id":"SDI","desc":"ST DIZIER TACAN"},
{"type":"NDB","hdg_t":2.9,"dist_nm":95.5,"freq":327,"lat":50.80421700,"lon":7.24022500,"rng_nm":15,"alt_fmsl":0,"id":"LV","desc":"KOLN/BONN NDB"},
{"type":"NDB","hdg_t":65.1,"dist_nm":95.6,"freq":370,"lat":49.86224200,"lon":9.34832500,"rng_nm":40,"alt_fmsl":0,"id":"PSA","desc":"SPESSART NDB"},
{"type":"VOR","hdg_t":11,"dist_nm":96,"freq":108.8,"lat":50.78351900,"lon":7.59419400,"rng_nm":25,"alt_fmsl":990,"id":"COL","desc":"COLA VORTAC"},
{"type":"VOR","hdg_t":170.6,"dist_nm":96.2,"freq":117.45,"lat":47.63280600,"lon":7.49950000,"rng_nm":100,"alt_fmsl":886,"id":"BLM","desc":"BALE-MULHOUSE VOR-DME"},
{"type":"NDB","hdg_t":23.9,"dist_nm":96.5,"freq":489,"lat":50.68003300,"lon":8.13849700,"rng_nm":25,"alt_fmsl":0,"id":"SIL","desc":"SIEGERLAND NDB"},
{"type":"SDME","hdg_t":22.3,"dist_nm":97,"freq":108.05,"lat":50.70676900,"lon":8.07851100,"rng_nm":25,"alt_fmsl":2019,"id":"SLD","desc":"SIEGERLAND DME"},
{"type":"VOR","hdg_t":324,"dist_nm":97.1,"freq":113.1,"lat":50.51472200,"lon":5.62333300,"rng_nm":60,"alt_fmsl":966,"id":"SPI","desc":"SPRIMONT VOR-DME"},
{"type":"VOR","hdg_t":199.8,"dist_nm":97.3,"freq":117.1,"lat":47.68827800,"lon":6.29558300,"rng_nm":80,"alt_fmsl":1072,"id":"LUL","desc":"LUXEUIL VOR"},
{"type":"VOR","hdg_t":327,"dist_nm":98.6,"freq":112.8,"lat":50.58583300,"lon":5.71027800,"rng_nm":60,"alt_fmsl":811,"id":"LNO","desc":"OLNO VOR-DME"},
{"type":"VOR","hdg_t":0.7,"dist_nm":98.8,"freq":112.15,"lat":50.86167800,"lon":7.14551700,"rng_nm":25,"alt_fmsl":311,"id":"KBO","desc":"KOLN/BONN VOR-DME"},
{"type":"VOR","hdg_t":350.7,"dist_nm":98.9,"freq":116.2,"lat":50.84066700,"lon":6.69416700,"rng_nm":60,"alt_fmsl":367,"id":"NOR","desc":"NORVENICH VORTAC"},
{"type":"NDB","hdg_t":170,"dist_nm":99.6,"freq":376,"lat":47.57972200,"lon":7.53625000,"rng_nm":50,"alt_fmsl":0,"id":"BS","desc":"Bale Mulhouse NDB"}
]
}
