{"success":true,"source":"xp2csv.pl","last_updated":"2013/11/08 14:53:21 UTC"
,"icao":"EDFA","name":"Anspach - Taunus","lat":50.288472,"lon":8.5338562,"rwys":1,"ils":0,"index":3089170,"path":"e000n50/e008n50"
,"runways":[
{"len_m":802,"wid_m":29.87,"hdg":54,"surf":"Turf/grass","rwy1":"06","lat1":50.28637177,"lon1":8.52927958,"rwy2":"24","lat2":50.29057223,"lon2":8.53843282}
]
,"radios":[
{"type":"TWR","freq":121.03,"desc":"Anspach Info"}
]
,"navaids":[
{"type":"NDB","hdg_t":92.9,"dist_nm":12.1,"freq":304,"lat":50.27750000,"lon":8.84972200,"rng_nm":150,"alt_fmsl":0,"id":"MTR","desc":"METRO NDB"},
{"type":"VOR","hdg_t":93.3,"dist_nm":12.1,"freq":110,"lat":50.27627500,"lon":8.84862500,"rng_nm":60,"alt_fmsl":666,"id":"MTR","desc":"METRO VOR"},
{"type":"VOR","hdg_t":261,"dist_nm":14.4,"freq":116.7,"lat":50.25046100,"lon":8.16251700,"rng_nm":40,"alt_fmsl":1343,"id":"TAU","desc":"TAUNUS VORTAC"},
{"type":"NDB","hdg_t":156.6,"dist_nm":14.5,"freq":297,"lat":50.06571100,"lon":8.68348900,"rng_nm":15,"alt_fmsl":0,"id":"FR","desc":"FRANKFURT NDB"},
{"type":"NDB","hdg_t":161.9,"dist_nm":14.6,"freq":320,"lat":50.05638900,"lon":8.65111100,"rng_nm":50,"alt_fmsl":0,"id":"FFM","desc":"FRANKFURT NDB"},
{"type":"VOR","hdg_t":164.1,"dist_nm":14.6,"freq":114.2,"lat":50.05374200,"lon":8.63709200,"rng_nm":130,"alt_fmsl":491,"id":"FFM","desc":"FRANKFURT VORTAC"},
{"type":"SDME","hdg_t":175.2,"dist_nm":15.5,"freq":115.9,"lat":50.03046700,"lon":8.56705300,"rng_nm":40,"alt_fmsl":441,"id":"FRD","desc":"FRANKFURT DME"},
{"type":"NDB","hdg_t":208.9,"dist_nm":16.4,"freq":399,"lat":50.04900000,"lon":8.32866700,"rng_nm":25,"alt_fmsl":490,"id":"WBD","desc":"WIESBADEN NDB"},
{"type":"SDME","hdg_t":210.6,"dist_nm":16.9,"freq":114.1,"lat":50.04616700,"lon":8.31083300,"rng_nm":40,"alt_fmsl":472,"id":"WIB","desc":"WIESBADEN TACAN"},
{"type":"NDB","hdg_t":193.3,"dist_nm":17.4,"freq":382,"lat":50.00495600,"lon":8.42955300,"rng_nm":15,"alt_fmsl":0,"id":"FW","desc":"FRANKFURT NDB"},
{"type":"NDB","hdg_t":167.9,"dist_nm":20.1,"freq":386,"lat":49.96006400,"lon":8.64263100,"rng_nm":15,"alt_fmsl":0,"id":"EH","desc":"EGELSBACH NDB"},
{"type":"NDB","hdg_t":236.1,"dist_nm":27.4,"freq":338,"lat":50.03305400,"lon":7.94500000,"rng_nm":150,"alt_fmsl":0,"id":"RUD","desc":"RUDESHEIM NDB"},
{"type":"NDB","hdg_t":327.3,"dist_nm":27.9,"freq":489,"lat":50.68003300,"lon":8.13849700,"rng_nm":25,"alt_fmsl":0,"id":"SIL","desc":"SIEGERLAND NDB"},
{"type":"VOR","hdg_t":74.6,"dist_nm":28.4,"freq":110.8,"lat":50.41194700,"lon":9.24916400,"rng_nm":130,"alt_fmsl":1601,"id":"GED","desc":"GEDERN VORTAC"},
{"type":"VOR","hdg_t":138.2,"dist_nm":29.4,"freq":115.5,"lat":49.92110300,"lon":9.03981100,"rng_nm":25,"alt_fmsl":532,"id":"CHA","desc":"CHARLIE VOR"},
{"type":"VOR","hdg_t":179.4,"dist_nm":30.4,"freq":112.2,"lat":49.78169200,"lon":8.54148600,"rng_nm":25,"alt_fmsl":328,"id":"RID","desc":"RIED VOR-DME"},
{"type":"SDME","hdg_t":325.4,"dist_nm":30.5,"freq":108.05,"lat":50.70676900,"lon":8.07851100,"rng_nm":25,"alt_fmsl":2019,"id":"SLD","desc":"SIEGERLAND DME"},
{"type":"NDB","hdg_t":145.4,"dist_nm":38.2,"freq":355,"lat":49.76222200,"lon":9.09166700,"rng_nm":40,"alt_fmsl":0,"id":"KNG","desc":"KONIG NDB"},
{"type":"NDB","hdg_t":128.8,"dist_nm":40.5,"freq":370,"lat":49.86224200,"lon":9.34832500,"rng_nm":40,"alt_fmsl":0,"id":"PSA","desc":"SPESSART NDB"},
{"type":"VOR","hdg_t":183.6,"dist_nm":43.4,"freq":109,"lat":49.56563100,"lon":8.46380800,"rng_nm":25,"alt_fmsl":327,"id":"HDM","desc":"COLEMAN VOR"},
{"type":"VOR","hdg_t":64.9,"dist_nm":43.8,"freq":112.1,"lat":50.59245600,"lon":9.57216900,"rng_nm":100,"alt_fmsl":1138,"id":"FUL","desc":"FULDA VOR-DME"},
{"type":"NDB","hdg_t":234.3,"dist_nm":44.2,"freq":394,"lat":49.85472100,"lon":7.60805600,"rng_nm":50,"alt_fmsl":0,"id":"PFF","desc":"PFERDSFELD NDB"},
{"type":"NDB","hdg_t":187,"dist_nm":45.6,"freq":334,"lat":49.53450000,"lon":8.39050000,"rng_nm":25,"alt_fmsl":320,"id":"HDM","desc":"COLEMAN NDB"},
{"type":"VOR","hdg_t":309.9,"dist_nm":46.6,"freq":108.8,"lat":50.78351900,"lon":7.59419400,"rng_nm":25,"alt_fmsl":990,"id":"COL","desc":"COLA VORTAC"},
{"type":"NDB","hdg_t":276.2,"dist_nm":47.1,"freq":331,"lat":50.36783300,"lon":7.31366700,"rng_nm":25,"alt_fmsl":671,"id":"NMN","desc":"MENDIG NDB"},
{"type":"NDB","hdg_t":203.9,"dist_nm":47.2,"freq":428,"lat":49.56861100,"lon":8.04388900,"rng_nm":150,"alt_fmsl":0,"id":"SEX","desc":"SEMBACH NDB"},
{"type":"SDME","hdg_t":180.8,"dist_nm":49.1,"freq":113.55,"lat":49.47063900,"lon":8.51598100,"rng_nm":25,"alt_fmsl":351,"id":"MND","desc":"MANNHEIM DME"},
{"type":"NDB","hdg_t":248.5,"dist_nm":52.1,"freq":376,"lat":49.96488300,"lon":7.28087500,"rng_nm":25,"alt_fmsl":1649,"id":"HAN","desc":"HAHN NDB"},
{"type":"VOR","hdg_t":240.1,"dist_nm":52.1,"freq":117.5,"lat":49.85023900,"lon":7.36957800,"rng_nm":40,"alt_fmsl":1453,"id":"KIR","desc":"KIRN VORTAC"},
{"type":"SDME","hdg_t":247.6,"dist_nm":53,"freq":116.95,"lat":49.94556900,"lon":7.26766900,"rng_nm":25,"alt_fmsl":1716,"id":"HND","desc":"HAHN DME"},
{"type":"NDB","hdg_t":177.3,"dist_nm":54.2,"freq":417,"lat":49.38601700,"lon":8.59676400,"rng_nm":25,"alt_fmsl":345,"id":"HDL","desc":"HEIDELBERG NDB"},
{"type":"SDME","hdg_t":263.8,"dist_nm":56.7,"freq":117.1,"lat":50.17866700,"lon":7.06950000,"rng_nm":50,"alt_fmsl":1618,"id":"BUE","desc":"BUCHEL TACAN"},
{"type":"NDB","hdg_t":172.2,"dist_nm":57.6,"freq":292,"lat":49.33672800,"lon":8.73290800,"rng_nm":50,"alt_fmsl":0,"id":"NKR","desc":"NECKAR NDB"},
{"type":"VOR","hdg_t":335.4,"dist_nm":58.3,"freq":115.4,"lat":51.17051100,"lon":7.89203900,"rng_nm":130,"alt_fmsl":1821,"id":"GMH","desc":"GERMINGHAUSEN VOR-DME"},
{"type":"NDB","hdg_t":34.7,"dist_nm":58.4,"freq":468,"lat":51.08425800,"lon":9.41524400,"rng_nm":35,"alt_fmsl":1096,"id":"FTZ","desc":"FRITZLAR NDB"},
{"type":"NDB","hdg_t":302.5,"dist_nm":58.4,"freq":327,"lat":50.80421700,"lon":7.24022500,"rng_nm":15,"alt_fmsl":0,"id":"LV","desc":"KOLN/BONN NDB"},
{"type":"NDB","hdg_t":307.2,"dist_nm":61.1,"freq":300,"lat":50.89830600,"lon":7.25285000,"rng_nm":15,"alt_fmsl":0,"id":"LW","desc":"KOLN/BONN NDB"},
{"type":"SDME","hdg_t":216,"dist_nm":63.1,"freq":113.4,"lat":49.43473100,"lon":7.58564700,"rng_nm":80,"alt_fmsl":762,"id":"RMS","desc":"RAMSTEIN TACAN"},
{"type":"VOR","hdg_t":303.4,"dist_nm":63.2,"freq":112.15,"lat":50.86167800,"lon":7.14551700,"rng_nm":25,"alt_fmsl":311,"id":"KBO","desc":"KOLN/BONN VOR-DME"},
{"type":"VOR","hdg_t":121.5,"dist_nm":64.5,"freq":110.2,"lat":49.71753100,"lon":9.94700000,"rng_nm":60,"alt_fmsl":1052,"id":"WUR","desc":"WURZBURG VOR"},
{"type":"VOR","hdg_t":314.1,"dist_nm":66.1,"freq":109.6,"lat":51.04835300,"lon":7.27999700,"rng_nm":40,"alt_fmsl":902,"id":"WYP","desc":"WIPPER VOR"},
{"type":"NDB","hdg_t":304.8,"dist_nm":68,"freq":365,"lat":50.92705600,"lon":7.06229400,"rng_nm":25,"alt_fmsl":0,"id":"LJ","desc":"KOLN/BONN NDB"},
{"type":"NDB","hdg_t":249.8,"dist_nm":72.4,"freq":474,"lat":49.85916500,"lon":6.78305600,"rng_nm":150,"alt_fmsl":0,"id":"TX","desc":"TRIER NDB"},
{"type":"SDME","hdg_t":256,"dist_nm":73.2,"freq":109.5,"lat":49.97899400,"lon":6.69769700,"rng_nm":60,"alt_fmsl":1161,"id":"SPA","desc":"SPANGDAHLEM TACAN"},
{"type":"VOR","hdg_t":16.4,"dist_nm":76.3,"freq":113.7,"lat":51.50569700,"lon":9.11091400,"rng_nm":80,"alt_fmsl":843,"id":"WRB","desc":"WARBURG VOR-DME"},
{"type":"VOR","hdg_t":214.7,"dist_nm":77,"freq":114.8,"lat":49.22907200,"lon":7.41789200,"rng_nm":60,"alt_fmsl":1177,"id":"ZWN","desc":"ZWEIBRUCKEN VOR-DME"},
{"type":"NDB","hdg_t":214.7,"dist_nm":77.1,"freq":435,"lat":49.22759200,"lon":7.41658300,"rng_nm":25,"alt_fmsl":0,"id":"ZBN","desc":"ZWEIBRUCKEN NDB"},
{"type":"NDB","hdg_t":133.4,"dist_nm":77.2,"freq":311,"lat":49.39483300,"lon":9.96500000,"rng_nm":25,"alt_fmsl":1595,"id":"NSN","desc":"NIEDERSTETTEN NDB"},
{"type":"VOR","hdg_t":178.5,"dist_nm":77.8,"freq":115.95,"lat":48.99294400,"lon":8.58423600,"rng_nm":130,"alt_fmsl":908,"id":"KRH","desc":"KARLSRUHE VOR-DME"},
{"type":"VOR","hdg_t":295.9,"dist_nm":77.8,"freq":116.2,"lat":50.84066700,"lon":6.69416700,"rng_nm":60,"alt_fmsl":367,"id":"NOR","desc":"NORVENICH VORTAC"},
{"type":"SDME","hdg_t":214.7,"dist_nm":78.4,"freq":109.1,"lat":49.20933100,"lon":7.39577800,"rng_nm":25,"alt_fmsl":1201,"id":"ZND","desc":"ZWEIBRUCKEN DME"},
{"type":"VOR","hdg_t":258.8,"dist_nm":78.9,"freq":115.3,"lat":50.01586100,"lon":6.53178900,"rng_nm":60,"alt_fmsl":1388,"id":"NTM","desc":"NATTENHEIM VORTAC"},
{"type":"NDB","hdg_t":2.8,"dist_nm":80.3,"freq":354,"lat":51.62361100,"lon":8.63944400,"rng_nm":25,"alt_fmsl":673,"id":"PAD","desc":"PADERBORN/LIPPSTADT NDB-DME"},
{"type":"SDME","hdg_t":2.8,"dist_nm":80.3,"freq":108.5,"lat":51.62361100,"lon":8.63944400,"rng_nm":25,"alt_fmsl":673,"id":"PAD","desc":"PADERBORN/LIPPSTADT NDB-DME"},
{"type":"VOR","hdg_t":320.9,"dist_nm":81,"freq":113.6,"lat":51.32775800,"lon":7.17698300,"rng_nm":60,"alt_fmsl":879,"id":"BAM","desc":"BARMEN VORTAC"},
{"type":"NDB","hdg_t":335.6,"dist_nm":81.8,"freq":357,"lat":51.52612200,"lon":7.63438600,"rng_nm":25,"alt_fmsl":400,"id":"DWI","desc":"DORTMUND NDB"},
{"type":"VOR","hdg_t":335.5,"dist_nm":81.8,"freq":108.65,"lat":51.52534200,"lon":7.63105600,"rng_nm":25,"alt_fmsl":373,"id":"DOR","desc":"WICKEDE VOR-DME"},
{"type":"NDB","hdg_t":218.9,"dist_nm":82.1,"freq":360,"lat":49.21776900,"lon":7.21951100,"rng_nm":25,"alt_fmsl":0,"id":"SR","desc":"ENSHEIM NDB"},
{"type":"NDB","hdg_t":221.1,"dist_nm":84.6,"freq":343,"lat":49.21885300,"lon":7.11834400,"rng_nm":40,"alt_fmsl":1058,"id":"SBN","desc":"SAARBRUCKEN NDB"},
{"type":"SDME","hdg_t":221,"dist_nm":84.9,"freq":116.75,"lat":49.21245800,"lon":7.11606700,"rng_nm":25,"alt_fmsl":1088,"id":"SAD","desc":"SAARBRUCKEN DME"},
{"type":"SDME","hdg_t":144.9,"dist_nm":85.4,"freq":108.05,"lat":49.11646900,"lon":9.77815600,"rng_nm":14,"alt_fmsl":1389,"id":"SHD","desc":"SCHWABISCH DME"},
{"type":"NDB","hdg_t":123.5,"dist_nm":87,"freq":488,"lat":49.47185300,"lon":10.38791900,"rng_nm":25,"alt_fmsl":1112,"id":"ILM","desc":"ILLESHEIM NDB"},
{"type":"VOR","hdg_t":158.8,"dist_nm":88.3,"freq":109.2,"lat":48.91297500,"lon":9.34022800,"rng_nm":25,"alt_fmsl":1064,"id":"LBU","desc":"LUBURG VOR-DME"},
{"type":"NDB","hdg_t":316.1,"dist_nm":89.1,"freq":417,"lat":51.34698900,"lon":6.89128300,"rng_nm":25,"alt_fmsl":0,"id":"LI","desc":"DUSSELDORF NDB"},
{"type":"VOR","hdg_t":312,"dist_nm":90.3,"freq":115.15,"lat":51.28318900,"lon":6.75372500,"rng_nm":130,"alt_fmsl":151,"id":"DUS","desc":"DUSSELDORF VOR-DME"},
{"type":"NDB","hdg_t":190.9,"dist_nm":91.1,"freq":431,"lat":48.79796400,"lon":8.09755300,"rng_nm":30,"alt_fmsl":408,"id":"KBA","desc":"KARLSRUHE BADEN BADEN NDB"},
{"type":"NDB","hdg_t":309.2,"dist_nm":91.4,"freq":284,"lat":51.23555400,"lon":6.65500000,"rng_nm":150,"alt_fmsl":0,"id":"DY","desc":"DUSSELDORF NDB"},
{"type":"NDB","hdg_t":247.4,"dist_nm":91.9,"freq":368,"lat":49.67972200,"lon":6.35527800,"rng_nm":25,"alt_fmsl":0,"id":"ELU","desc":"LUXEMBOURG NDB"},
{"type":"SDME","hdg_t":191,"dist_nm":92.2,"freq":115.8,"lat":48.78022800,"lon":8.08848600,"rng_nm":25,"alt_fmsl":495,"id":"KBD","desc":"KARLSRUHE BADEN BADEN DME"},
{"type":"NDB","hdg_t":191.5,"dist_nm":92.5,"freq":440,"lat":48.77833200,"lon":8.06722300,"rng_nm":150,"alt_fmsl":0,"id":"SLN","desc":"SOLLINGEN NDB"},
{"type":"NDB","hdg_t":312,"dist_nm":93.1,"freq":329,"lat":51.31305700,"lon":6.69666700,"rng_nm":150,"alt_fmsl":0,"id":"DUE","desc":"DUSSELDORF NDB"},
{"type":"VOR","hdg_t":135.3,"dist_nm":95.5,"freq":117.8,"lat":49.14275300,"lon":10.23830600,"rng_nm":60,"alt_fmsl":1790,"id":"DKB","desc":"DINKELSBUHL VORTAC"},
{"type":"NDB","hdg_t":306.9,"dist_nm":95.6,"freq":377,"lat":51.22732200,"lon":6.50541100,"rng_nm":15,"alt_fmsl":125,"id":"MGB","desc":"MONCHENGLADBACH NDB"},
{"type":"NDB","hdg_t":255.4,"dist_nm":96.3,"freq":307,"lat":49.86138900,"lon":6.12972200,"rng_nm":50,"alt_fmsl":0,"id":"DIK","desc":"DIEKIRCH NDB"},
{"type":"VOR","hdg_t":255.4,"dist_nm":96.3,"freq":114.4,"lat":49.86138900,"lon":6.12972200,"rng_nm":70,"alt_fmsl":1109,"id":"DIK","desc":"DIEKIRCH VOR-DME"},
{"type":"SDME","hdg_t":306.9,"dist_nm":96.3,"freq":112.5,"lat":51.23490800,"lon":6.49196900,"rng_nm":25,"alt_fmsl":159,"id":"MHD","desc":"MONCHENGLADBACH DME"},
{"type":"VOR","hdg_t":306.9,"dist_nm":96.4,"freq":109.8,"lat":51.23730000,"lon":6.49024400,"rng_nm":40,"alt_fmsl":156,"id":"MHV","desc":"MONCHENGLADBACH VOR"},
{"type":"NDB","hdg_t":247.1,"dist_nm":96.6,"freq":318,"lat":49.64110900,"lon":6.24916600,"rng_nm":150,"alt_fmsl":0,"id":"LE","desc":"LUXEMBOURG NDB"},
{"type":"NDB","hdg_t":324.2,"dist_nm":96.7,"freq":406,"lat":51.58580300,"lon":7.02301100,"rng_nm":30,"alt_fmsl":0,"id":"BOT","desc":"BOTTROP NDB"},
{"type":"VOR","hdg_t":247.1,"dist_nm":96.7,"freq":112.25,"lat":49.63944400,"lon":6.24722200,"rng_nm":25,"alt_fmsl":1234,"id":"LUX","desc":"LUXEMBOURG VOR-DME"},
{"type":"NDB","hdg_t":355.2,"dist_nm":99.1,"freq":412,"lat":51.93249900,"lon":8.31138900,"rng_nm":150,"alt_fmsl":0,"id":"GS","desc":"GUTERSLOH NDB"},
{"type":"VOR","hdg_t":205.7,"dist_nm":99.1,"freq":110.45,"lat":48.79624400,"lon":7.44798100,"rng_nm":60,"alt_fmsl":1021,"id":"SAV","desc":"SAVERNE VOR-DME"},
{"type":"VOR","hdg_t":341.9,"dist_nm":99.2,"freq":115.65,"lat":51.85686700,"lon":7.70829400,"rng_nm":130,"alt_fmsl":237,"id":"HMM","desc":"HAMM VOR-DME"},
{"type":"VOR","hdg_t":163.2,"dist_nm":99.6,"freq":116.85,"lat":48.69643000,"lon":9.25654700,"rng_nm":40,"alt_fmsl":1217,"id":"STG","desc":"Stuttgart VOR-DME"},
{"type":"NDB","hdg_t":161.3,"dist_nm":99.7,"freq":306,"lat":48.71128900,"lon":9.33504200,"rng_nm":25,"alt_fmsl":0,"id":"SG","desc":"STUTTGART NDB"},
{"type":"NDB","hdg_t":166.6,"dist_nm":99.8,"freq":384,"lat":48.66924400,"lon":9.11420300,"rng_nm":25,"alt_fmsl":0,"id":"SY","desc":"STUTTGART NDB"},
{"type":"SDME","hdg_t":164,"dist_nm":99.8,"freq":115.45,"lat":48.68794700,"lon":9.22410600,"rng_nm":25,"alt_fmsl":1332,"id":"SGD","desc":"STUTTGART DME"},
{"type":"NDB","hdg_t":246.9,"dist_nm":99.9,"freq":404,"lat":49.61333300,"lon":6.17500000,"rng_nm":50,"alt_fmsl":0,"id":"LW","desc":"Luxembourg NDB"}
]
}
