{"success":true,"source":"xp2csv.pl","last_updated":"2013/11/08 14:53:21 UTC"
,"icao":"EDFE","name":"Frankfurt-egelsbach","lat":49.960175815,"lon":8.64440111,"rwys":2,"ils":0,"index":3089146,"path":"e000n40/e008n49"
,"runways":[
{"len_m":1495,"wid_m":24.99,"hdg":86,"surf":"Asphalt","rwy1":"09L","lat1":49.96036747,"lon1":8.63110324,"rwy2":"27R","lat2":49.96129853,"lon2":8.65189696},
{"len_m":673,"wid_m":29.87,"hdg":85,"surf":"Turf/grass","rwy1":"09R","lat1":49.95930017,"lon1":8.64262220,"rwy2":"27L","lat2":49.95973708,"lon2":8.65198204}
]
,"radios":[
{"type":"GND","freq":121.73,"desc":"APRON"},
{"type":"TWR","freq":118.78,"desc":"FRANKFURT INFO"},
{"type":"TWR","freq":119.15,"desc":"FRANKFURT INFO"},
{"type":"TWR","freq":130.9,"desc":"INFO"}
]
,"navaids":[
{"type":"NDB","hdg_t":264.4,"dist_nm":0,"freq":386,"lat":49.96006400,"lon":8.64263100,"rng_nm":15,"alt_fmsl":0,"id":"EH","desc":"EGELSBACH NDB"},
{"type":"SDME","hdg_t":324.6,"dist_nm":5.1,"freq":115.9,"lat":50.03046700,"lon":8.56705300,"rng_nm":40,"alt_fmsl":441,"id":"FRD","desc":"FRANKFURT DME"},
{"type":"VOR","hdg_t":357.1,"dist_nm":5.6,"freq":114.2,"lat":50.05374200,"lon":8.63709200,"rng_nm":130,"alt_fmsl":491,"id":"FFM","desc":"FRANKFURT VORTAC"},
{"type":"NDB","hdg_t":2.5,"dist_nm":5.7,"freq":320,"lat":50.05638900,"lon":8.65111100,"rng_nm":50,"alt_fmsl":0,"id":"FFM","desc":"FRANKFURT NDB"},
{"type":"NDB","hdg_t":13.4,"dist_nm":6.5,"freq":297,"lat":50.06571100,"lon":8.68348900,"rng_nm":15,"alt_fmsl":0,"id":"FR","desc":"FRANKFURT NDB"},
{"type":"NDB","hdg_t":287.9,"dist_nm":8.7,"freq":382,"lat":50.00495600,"lon":8.42955300,"rng_nm":15,"alt_fmsl":0,"id":"FW","desc":"FRANKFURT NDB"},
{"type":"VOR","hdg_t":200.4,"dist_nm":11.4,"freq":112.2,"lat":49.78169200,"lon":8.54148600,"rng_nm":25,"alt_fmsl":328,"id":"RID","desc":"RIED VOR-DME"},
{"type":"NDB","hdg_t":293.7,"dist_nm":13.3,"freq":399,"lat":50.04900000,"lon":8.32866700,"rng_nm":25,"alt_fmsl":490,"id":"WBD","desc":"WIESBADEN NDB"},
{"type":"SDME","hdg_t":291.9,"dist_nm":13.9,"freq":114.1,"lat":50.04616700,"lon":8.31083300,"rng_nm":40,"alt_fmsl":472,"id":"WIB","desc":"WIESBADEN TACAN"},
{"type":"VOR","hdg_t":98.5,"dist_nm":15.5,"freq":115.5,"lat":49.92110300,"lon":9.03981100,"rng_nm":25,"alt_fmsl":532,"id":"CHA","desc":"CHARLIE VOR"},
{"type":"VOR","hdg_t":22.4,"dist_nm":20.5,"freq":110,"lat":50.27627500,"lon":8.84862500,"rng_nm":60,"alt_fmsl":666,"id":"MTR","desc":"METRO VOR"},
{"type":"NDB","hdg_t":22.5,"dist_nm":20.6,"freq":304,"lat":50.27750000,"lon":8.84972200,"rng_nm":150,"alt_fmsl":0,"id":"MTR","desc":"METRO NDB"},
{"type":"NDB","hdg_t":124.2,"dist_nm":21,"freq":355,"lat":49.76222200,"lon":9.09166700,"rng_nm":40,"alt_fmsl":0,"id":"KNG","desc":"KONIG NDB"},
{"type":"VOR","hdg_t":196.5,"dist_nm":24.7,"freq":109,"lat":49.56563100,"lon":8.46380800,"rng_nm":25,"alt_fmsl":327,"id":"HDM","desc":"COLEMAN VOR"},
{"type":"VOR","hdg_t":313.3,"dist_nm":25.5,"freq":116.7,"lat":50.25046100,"lon":8.16251700,"rng_nm":40,"alt_fmsl":1343,"id":"TAU","desc":"TAUNUS VORTAC"},
{"type":"NDB","hdg_t":201.2,"dist_nm":27.4,"freq":334,"lat":49.53450000,"lon":8.39050000,"rng_nm":25,"alt_fmsl":320,"id":"HDM","desc":"COLEMAN NDB"},
{"type":"NDB","hdg_t":279.4,"dist_nm":27.4,"freq":338,"lat":50.03305400,"lon":7.94500000,"rng_nm":150,"alt_fmsl":0,"id":"RUD","desc":"RUDESHEIM NDB"},
{"type":"NDB","hdg_t":101.8,"dist_nm":27.9,"freq":370,"lat":49.86224200,"lon":9.34832500,"rng_nm":40,"alt_fmsl":0,"id":"PSA","desc":"SPESSART NDB"},
{"type":"SDME","hdg_t":189.7,"dist_nm":29.8,"freq":113.55,"lat":49.47063900,"lon":8.51598100,"rng_nm":25,"alt_fmsl":351,"id":"MND","desc":"MANNHEIM DME"},
{"type":"NDB","hdg_t":225,"dist_nm":33.1,"freq":428,"lat":49.56861100,"lon":8.04388900,"rng_nm":150,"alt_fmsl":0,"id":"SEX","desc":"SEMBACH NDB"},
{"type":"NDB","hdg_t":183.1,"dist_nm":34.5,"freq":417,"lat":49.38601700,"lon":8.59676400,"rng_nm":25,"alt_fmsl":345,"id":"HDL","desc":"HEIDELBERG NDB"},
{"type":"VOR","hdg_t":40.4,"dist_nm":35.7,"freq":110.8,"lat":50.41194700,"lon":9.24916400,"rng_nm":130,"alt_fmsl":1601,"id":"GED","desc":"GEDERN VORTAC"},
{"type":"NDB","hdg_t":174.6,"dist_nm":37.6,"freq":292,"lat":49.33672800,"lon":8.73290800,"rng_nm":50,"alt_fmsl":0,"id":"NKR","desc":"NECKAR NDB"},
{"type":"NDB","hdg_t":261.4,"dist_nm":40.6,"freq":394,"lat":49.85472100,"lon":7.60805600,"rng_nm":50,"alt_fmsl":0,"id":"PFF","desc":"PFERDSFELD NDB"},
{"type":"NDB","hdg_t":335.9,"dist_nm":47.4,"freq":489,"lat":50.68003300,"lon":8.13849700,"rng_nm":25,"alt_fmsl":0,"id":"SIL","desc":"SIEGERLAND NDB"},
{"type":"VOR","hdg_t":262.8,"dist_nm":49.8,"freq":117.5,"lat":49.85023900,"lon":7.36957800,"rng_nm":40,"alt_fmsl":1453,"id":"KIR","desc":"KIRN VORTAC"},
{"type":"SDME","hdg_t":334.3,"dist_nm":49.8,"freq":108.05,"lat":50.70676900,"lon":8.07851100,"rng_nm":25,"alt_fmsl":2019,"id":"SLD","desc":"SIEGERLAND DME"},
{"type":"SDME","hdg_t":232.9,"dist_nm":51.9,"freq":113.4,"lat":49.43473100,"lon":7.58564700,"rng_nm":80,"alt_fmsl":762,"id":"RMS","desc":"RAMSTEIN TACAN"},
{"type":"VOR","hdg_t":42.8,"dist_nm":52.1,"freq":112.1,"lat":50.59245600,"lon":9.57216900,"rng_nm":100,"alt_fmsl":1138,"id":"FUL","desc":"FULDA VOR-DME"},
{"type":"VOR","hdg_t":105.5,"dist_nm":52.6,"freq":110.2,"lat":49.71753100,"lon":9.94700000,"rng_nm":60,"alt_fmsl":1052,"id":"WUR","desc":"WURZBURG VOR"},
{"type":"NDB","hdg_t":270.8,"dist_nm":52.8,"freq":376,"lat":49.96488300,"lon":7.28087500,"rng_nm":25,"alt_fmsl":1649,"id":"HAN","desc":"HAHN NDB"},
{"type":"SDME","hdg_t":269.5,"dist_nm":53.3,"freq":116.95,"lat":49.94556900,"lon":7.26766900,"rng_nm":25,"alt_fmsl":1716,"id":"HND","desc":"HAHN DME"},
{"type":"NDB","hdg_t":296,"dist_nm":56.8,"freq":331,"lat":50.36783300,"lon":7.31366700,"rng_nm":25,"alt_fmsl":671,"id":"NMN","desc":"MENDIG NDB"},
{"type":"VOR","hdg_t":182.3,"dist_nm":58.1,"freq":115.95,"lat":48.99294400,"lon":8.58423600,"rng_nm":130,"alt_fmsl":908,"id":"KRH","desc":"KARLSRUHE VOR-DME"},
{"type":"NDB","hdg_t":122.9,"dist_nm":61.6,"freq":311,"lat":49.39483300,"lon":9.96500000,"rng_nm":25,"alt_fmsl":1595,"id":"NSN","desc":"NIEDERSTETTEN NDB"},
{"type":"SDME","hdg_t":282.7,"dist_nm":62.2,"freq":117.1,"lat":50.17866700,"lon":7.06950000,"rng_nm":50,"alt_fmsl":1618,"id":"BUE","desc":"BUCHEL TACAN"},
{"type":"VOR","hdg_t":321.1,"dist_nm":63.8,"freq":108.8,"lat":50.78351900,"lon":7.59419400,"rng_nm":25,"alt_fmsl":990,"id":"COL","desc":"COLA VORTAC"},
{"type":"VOR","hdg_t":227.9,"dist_nm":64.9,"freq":114.8,"lat":49.22907200,"lon":7.41789200,"rng_nm":60,"alt_fmsl":1177,"id":"ZWN","desc":"ZWEIBRUCKEN VOR-DME"},
{"type":"NDB","hdg_t":227.9,"dist_nm":65,"freq":435,"lat":49.22759200,"lon":7.41658300,"rng_nm":25,"alt_fmsl":0,"id":"ZBN","desc":"ZWEIBRUCKEN NDB"},
{"type":"SDME","hdg_t":227.7,"dist_nm":66.4,"freq":109.1,"lat":49.20933100,"lon":7.39577800,"rng_nm":25,"alt_fmsl":1201,"id":"ZND","desc":"ZWEIBRUCKEN DME"},
{"type":"SDME","hdg_t":138.3,"dist_nm":67.3,"freq":108.05,"lat":49.11646900,"lon":9.77815600,"rng_nm":14,"alt_fmsl":1389,"id":"SHD","desc":"SCHWABISCH DME"},
{"type":"VOR","hdg_t":156.3,"dist_nm":68.5,"freq":109.2,"lat":48.91297500,"lon":9.34022800,"rng_nm":25,"alt_fmsl":1064,"id":"LBU","desc":"LUBURG VOR-DME"},
{"type":"NDB","hdg_t":231.8,"dist_nm":71.2,"freq":360,"lat":49.21776900,"lon":7.21951100,"rng_nm":25,"alt_fmsl":0,"id":"SR","desc":"ENSHEIM NDB"},
{"type":"NDB","hdg_t":265.9,"dist_nm":72.4,"freq":474,"lat":49.85916500,"lon":6.78305600,"rng_nm":150,"alt_fmsl":0,"id":"TX","desc":"TRIER NDB"},
{"type":"NDB","hdg_t":197.2,"dist_nm":73,"freq":431,"lat":48.79796400,"lon":8.09755300,"rng_nm":30,"alt_fmsl":408,"id":"KBA","desc":"KARLSRUHE BADEN BADEN NDB"},
{"type":"NDB","hdg_t":23.3,"dist_nm":73.6,"freq":468,"lat":51.08425800,"lon":9.41524400,"rng_nm":35,"alt_fmsl":1096,"id":"FTZ","desc":"FRITZLAR NDB"},
{"type":"NDB","hdg_t":112.6,"dist_nm":73.9,"freq":488,"lat":49.47185300,"lon":10.38791900,"rng_nm":25,"alt_fmsl":1112,"id":"ILM","desc":"ILLESHEIM NDB"},
{"type":"NDB","hdg_t":313.7,"dist_nm":74,"freq":327,"lat":50.80421700,"lon":7.24022500,"rng_nm":15,"alt_fmsl":0,"id":"LV","desc":"KOLN/BONN NDB"},
{"type":"SDME","hdg_t":197.3,"dist_nm":74.1,"freq":115.8,"lat":48.78022800,"lon":8.08848600,"rng_nm":25,"alt_fmsl":495,"id":"KBD","desc":"KARLSRUHE BADEN BADEN DME"},
{"type":"NDB","hdg_t":233.8,"dist_nm":74.3,"freq":343,"lat":49.21885300,"lon":7.11834400,"rng_nm":40,"alt_fmsl":1058,"id":"SBN","desc":"SAARBRUCKEN NDB"},
{"type":"NDB","hdg_t":197.9,"dist_nm":74.4,"freq":440,"lat":48.77833200,"lon":8.06722300,"rng_nm":150,"alt_fmsl":0,"id":"SLN","desc":"SOLLINGEN NDB"},
{"type":"SDME","hdg_t":233.6,"dist_nm":74.6,"freq":116.75,"lat":49.21245800,"lon":7.11606700,"rng_nm":25,"alt_fmsl":1088,"id":"SAD","desc":"SAARBRUCKEN DME"},
{"type":"SDME","hdg_t":271.6,"dist_nm":75.4,"freq":109.5,"lat":49.97899400,"lon":6.69769700,"rng_nm":60,"alt_fmsl":1161,"id":"SPA","desc":"SPANGDAHLEM TACAN"},
{"type":"NDB","hdg_t":317,"dist_nm":77.6,"freq":300,"lat":50.89830600,"lon":7.25285000,"rng_nm":15,"alt_fmsl":0,"id":"LW","desc":"KOLN/BONN NDB"},
{"type":"VOR","hdg_t":338.6,"dist_nm":78.1,"freq":115.4,"lat":51.17051100,"lon":7.89203900,"rng_nm":130,"alt_fmsl":1821,"id":"GMH","desc":"GERMINGHAUSEN VOR-DME"},
{"type":"VOR","hdg_t":313.8,"dist_nm":79,"freq":112.15,"lat":50.86167800,"lon":7.14551700,"rng_nm":25,"alt_fmsl":311,"id":"KBO","desc":"KOLN/BONN VOR-DME"},
{"type":"VOR","hdg_t":127.6,"dist_nm":79.2,"freq":117.8,"lat":49.14275300,"lon":10.23830600,"rng_nm":60,"alt_fmsl":1790,"id":"DKB","desc":"DINKELSBUHL VORTAC"},
{"type":"NDB","hdg_t":166.4,"dist_nm":79.6,"freq":384,"lat":48.66924400,"lon":9.11420300,"rng_nm":25,"alt_fmsl":0,"id":"SY","desc":"STUTTGART NDB"},
{"type":"VOR","hdg_t":162.1,"dist_nm":79.6,"freq":116.85,"lat":48.69643000,"lon":9.25654700,"rng_nm":40,"alt_fmsl":1217,"id":"STG","desc":"Stuttgart VOR-DME"},
{"type":"NDB","hdg_t":159.8,"dist_nm":79.7,"freq":306,"lat":48.71128900,"lon":9.33504200,"rng_nm":25,"alt_fmsl":0,"id":"SG","desc":"STUTTGART NDB"},
{"type":"SDME","hdg_t":163.1,"dist_nm":79.7,"freq":115.45,"lat":48.68794700,"lon":9.22410600,"rng_nm":25,"alt_fmsl":1332,"id":"SGD","desc":"STUTTGART DME"},
{"type":"VOR","hdg_t":273.1,"dist_nm":81.8,"freq":115.3,"lat":50.01586100,"lon":6.53178900,"rng_nm":60,"alt_fmsl":1388,"id":"NTM","desc":"NATTENHEIM VORTAC"},
{"type":"VOR","hdg_t":321.8,"dist_nm":83.6,"freq":109.6,"lat":51.04835300,"lon":7.27999700,"rng_nm":40,"alt_fmsl":902,"id":"WYP","desc":"WIPPER VOR"},
{"type":"NDB","hdg_t":314.3,"dist_nm":83.9,"freq":365,"lat":50.92705600,"lon":7.06229400,"rng_nm":25,"alt_fmsl":0,"id":"LJ","desc":"KOLN/BONN NDB"},
{"type":"VOR","hdg_t":214.3,"dist_nm":84.1,"freq":110.45,"lat":48.79624400,"lon":7.44798100,"rng_nm":60,"alt_fmsl":1021,"id":"SAV","desc":"SAVERNE VOR-DME"},
{"type":"VOR","hdg_t":163,"dist_nm":84.1,"freq":112.5,"lat":48.61840800,"lon":9.25920800,"rng_nm":60,"alt_fmsl":1213,"id":"TGO","desc":"TANGO VORTAC"},
{"type":"NDB","hdg_t":115.9,"dist_nm":86.8,"freq":452,"lat":49.30966700,"lon":10.63283300,"rng_nm":25,"alt_fmsl":1526,"id":"ANS","desc":"ANSBACH NDB"},
{"type":"NDB","hdg_t":204.2,"dist_nm":90.1,"freq":412,"lat":48.58829000,"lon":7.71472300,"rng_nm":50,"alt_fmsl":502,"id":"SE","desc":"Strasbourg NDB"},
{"type":"NDB","hdg_t":260.1,"dist_nm":90.5,"freq":368,"lat":49.67972200,"lon":6.35527800,"rng_nm":25,"alt_fmsl":0,"id":"ELU","desc":"LUXEMBOURG NDB"},
{"type":"NDB","hdg_t":218.8,"dist_nm":91.3,"freq":424,"lat":48.76722222,"lon":7.19944444,"rng_nm":25,"alt_fmsl":1000,"id":"PHG","desc":"Phalsbourg Boursheid NDB"},
{"type":"VOR","hdg_t":305.9,"dist_nm":91.6,"freq":116.2,"lat":50.84066700,"lon":6.69416700,"rng_nm":60,"alt_fmsl":367,"id":"NOR","desc":"NORVENICH VORTAC"},
{"type":"VOR","hdg_t":10.6,"dist_nm":94.5,"freq":113.7,"lat":51.50569700,"lon":9.11091400,"rng_nm":80,"alt_fmsl":843,"id":"WRB","desc":"WARBURG VOR-DME"},
{"type":"VOR","hdg_t":179.9,"dist_nm":94.7,"freq":116.1,"lat":48.38158600,"lon":8.64483600,"rng_nm":60,"alt_fmsl":0,"id":"SUL","desc":"SULZ VOR"},
{"type":"NDB","hdg_t":259.2,"dist_nm":95,"freq":318,"lat":49.64110900,"lon":6.24916600,"rng_nm":150,"alt_fmsl":0,"id":"LE","desc":"LUXEMBOURG NDB"},
{"type":"VOR","hdg_t":259.2,"dist_nm":95.1,"freq":112.25,"lat":49.63944400,"lon":6.24722200,"rng_nm":25,"alt_fmsl":1234,"id":"LUX","desc":"LUXEMBOURG VOR-DME"},
{"type":"VOR","hdg_t":232.9,"dist_nm":95.4,"freq":111.25,"lat":48.98644400,"lon":6.71622200,"rng_nm":100,"alt_fmsl":1057,"id":"GTQ","desc":"GROSTENQUIN VOR-DME"},
{"type":"VOR","hdg_t":206.1,"dist_nm":97,"freq":115.6,"lat":48.50538900,"lon":7.57197200,"rng_nm":150,"alt_fmsl":577,"id":"STR","desc":"STRASBOURG ENTZHEIM VOR-DME"},
{"type":"NDB","hdg_t":133.6,"dist_nm":97.1,"freq":375,"lat":48.82936100,"lon":10.41869400,"rng_nm":50,"alt_fmsl":0,"id":"NDG","desc":"NORDLINGEN NDB"},
{"type":"NDB","hdg_t":267.4,"dist_nm":97.7,"freq":307,"lat":49.86138900,"lon":6.12972200,"rng_nm":50,"alt_fmsl":0,"id":"DIK","desc":"DIEKIRCH NDB"},
{"type":"VOR","hdg_t":267.4,"dist_nm":97.7,"freq":114.4,"lat":49.86138900,"lon":6.12972200,"rng_nm":70,"alt_fmsl":1109,"id":"DIK","desc":"DIEKIRCH VOR-DME"},
{"type":"NDB","hdg_t":258.7,"dist_nm":98.2,"freq":404,"lat":49.61333300,"lon":6.17500000,"rng_nm":50,"alt_fmsl":0,"id":"LW","desc":"Luxembourg NDB"},
{"type":"SDME","hdg_t":105.2,"dist_nm":98.7,"freq":113.1,"lat":49.50115800,"lon":11.08015000,"rng_nm":25,"alt_fmsl":1090,"id":"NGD","desc":"NURNBERG DME"},
{"type":"VOR","hdg_t":99.6,"dist_nm":99.1,"freq":114.9,"lat":49.65541400,"lon":11.15081100,"rng_nm":130,"alt_fmsl":1841,"id":"ERL","desc":"ERLANGEN VOR-DME"},
{"type":"VOR","hdg_t":326.2,"dist_nm":99.4,"freq":113.6,"lat":51.32775800,"lon":7.17698300,"rng_nm":60,"alt_fmsl":879,"id":"BAM","desc":"BARMEN VORTAC"},
{"type":"NDB","hdg_t":359.8,"dist_nm":99.9,"freq":354,"lat":51.62361100,"lon":8.63944400,"rng_nm":25,"alt_fmsl":673,"id":"PAD","desc":"PADERBORN/LIPPSTADT NDB-DME"},
{"type":"SDME","hdg_t":359.8,"dist_nm":99.9,"freq":108.5,"lat":51.62361100,"lon":8.63944400,"rng_nm":25,"alt_fmsl":673,"id":"PAD","desc":"PADERBORN/LIPPSTADT NDB-DME"}
]
}
