{"success":true,"source":"xp2csv.pl","last_updated":"2013/11/08 14:53:21 UTC"
,"icao":"EDFM","name":"Mannheim City","lat":49.473058995,"lon":8.514394275,"rwys":2,"ils":1,"index":3089114,"path":"e000n40/e008n49"
,"runways":[
{"len_m":1062,"wid_m":24.99,"hdg":93,"surf":"Asphalt","rwy1":"09","lat1":49.47298900,"lon1":8.50610100,"rwy2":"27","lat2":49.47248544,"lon2":8.52074014},
{"len_m":699,"wid_m":29.87,"hdg":92,"surf":"Turf/grass","rwy1":"09L","lat1":49.47354500,"lon1":8.51054567,"rwy2":"27R","lat2":49.47321655,"lon2":8.52019030}
]
,"radios":[
{"type":"ATIS","freq":136.55,"desc":"MANNHEIM ATIS"},
{"type":"TWR","freq":122.5,"desc":"MANNHEIM INFO"},
{"type":"TWR","freq":129.78,"desc":"MANNHEIM TWR"}
]
,"ils":[
{"type":"LOC","freq":108.55,"lat":49.47321100,"lon":8.50489400,"rng_nm":18,"alt_fmsl":309,"id":"IMAW","rwy":"27","desc":"LOC"}
]
,"navaids":[
{"type":"SDME","hdg_t":156.8,"dist_nm":0.1,"freq":113.55,"lat":49.47063900,"lon":8.51598100,"rng_nm":25,"alt_fmsl":351,"id":"MND","desc":"MANNHEIM DME"},
{"type":"VOR","hdg_t":340.4,"dist_nm":5.9,"freq":109,"lat":49.56563100,"lon":8.46380800,"rng_nm":25,"alt_fmsl":327,"id":"HDM","desc":"COLEMAN VOR"},
{"type":"NDB","hdg_t":307.3,"dist_nm":6,"freq":334,"lat":49.53450000,"lon":8.39050000,"rng_nm":25,"alt_fmsl":320,"id":"HDM","desc":"COLEMAN NDB"},
{"type":"NDB","hdg_t":148.2,"dist_nm":6.1,"freq":417,"lat":49.38601700,"lon":8.59676400,"rng_nm":25,"alt_fmsl":345,"id":"HDL","desc":"HEIDELBERG NDB"},
{"type":"NDB","hdg_t":133.6,"dist_nm":11.8,"freq":292,"lat":49.33672800,"lon":8.73290800,"rng_nm":50,"alt_fmsl":0,"id":"NKR","desc":"NECKAR NDB"},
{"type":"VOR","hdg_t":3.2,"dist_nm":18.5,"freq":112.2,"lat":49.78169200,"lon":8.54148600,"rng_nm":25,"alt_fmsl":328,"id":"RID","desc":"RIED VOR-DME"},
{"type":"NDB","hdg_t":287.5,"dist_nm":19.2,"freq":428,"lat":49.56861100,"lon":8.04388900,"rng_nm":150,"alt_fmsl":0,"id":"SEX","desc":"SEMBACH NDB"},
{"type":"NDB","hdg_t":52.1,"dist_nm":28.4,"freq":355,"lat":49.76222200,"lon":9.09166700,"rng_nm":40,"alt_fmsl":0,"id":"KNG","desc":"KONIG NDB"},
{"type":"VOR","hdg_t":174.5,"dist_nm":28.9,"freq":115.95,"lat":48.99294400,"lon":8.58423600,"rng_nm":130,"alt_fmsl":908,"id":"KRH","desc":"KARLSRUHE VOR-DME"},
{"type":"NDB","hdg_t":9.6,"dist_nm":29.6,"freq":386,"lat":49.96006400,"lon":8.64263100,"rng_nm":15,"alt_fmsl":0,"id":"EH","desc":"EGELSBACH NDB"},
{"type":"NDB","hdg_t":354.1,"dist_nm":32.1,"freq":382,"lat":50.00495600,"lon":8.42955300,"rng_nm":15,"alt_fmsl":0,"id":"FW","desc":"FRANKFURT NDB"},
{"type":"SDME","hdg_t":3.4,"dist_nm":33.5,"freq":115.9,"lat":50.03046700,"lon":8.56705300,"rng_nm":40,"alt_fmsl":441,"id":"FRD","desc":"FRANKFURT DME"},
{"type":"VOR","hdg_t":37,"dist_nm":33.8,"freq":115.5,"lat":49.92110300,"lon":9.03981100,"rng_nm":25,"alt_fmsl":532,"id":"CHA","desc":"CHARLIE VOR"},
{"type":"VOR","hdg_t":7.7,"dist_nm":35.1,"freq":114.2,"lat":50.05374200,"lon":8.63709200,"rng_nm":130,"alt_fmsl":491,"id":"FFM","desc":"FRANKFURT VORTAC"},
{"type":"NDB","hdg_t":348.2,"dist_nm":35.3,"freq":399,"lat":50.04900000,"lon":8.32866700,"rng_nm":25,"alt_fmsl":490,"id":"WBD","desc":"WIESBADEN NDB"},
{"type":"SDME","hdg_t":347.1,"dist_nm":35.3,"freq":114.1,"lat":50.04616700,"lon":8.31083300,"rng_nm":40,"alt_fmsl":472,"id":"WIB","desc":"WIESBADEN TACAN"},
{"type":"NDB","hdg_t":8.5,"dist_nm":35.4,"freq":320,"lat":50.05638900,"lon":8.65111100,"rng_nm":50,"alt_fmsl":0,"id":"FFM","desc":"FRANKFURT NDB"},
{"type":"NDB","hdg_t":10.4,"dist_nm":36.1,"freq":297,"lat":50.06571100,"lon":8.68348900,"rng_nm":15,"alt_fmsl":0,"id":"FR","desc":"FRANKFURT NDB"},
{"type":"SDME","hdg_t":266.7,"dist_nm":36.4,"freq":113.4,"lat":49.43473100,"lon":7.58564700,"rng_nm":80,"alt_fmsl":762,"id":"RMS","desc":"RAMSTEIN TACAN"},
{"type":"NDB","hdg_t":53.9,"dist_nm":40,"freq":370,"lat":49.86224200,"lon":9.34832500,"rng_nm":40,"alt_fmsl":0,"id":"PSA","desc":"SPESSART NDB"},
{"type":"NDB","hdg_t":326.8,"dist_nm":40.2,"freq":338,"lat":50.03305400,"lon":7.94500000,"rng_nm":150,"alt_fmsl":0,"id":"RUD","desc":"RUDESHEIM NDB"},
{"type":"NDB","hdg_t":303.3,"dist_nm":42.1,"freq":394,"lat":49.85472100,"lon":7.60805600,"rng_nm":50,"alt_fmsl":0,"id":"PFF","desc":"PFERDSFELD NDB"},
{"type":"NDB","hdg_t":202.2,"dist_nm":43.7,"freq":431,"lat":48.79796400,"lon":8.09755300,"rng_nm":30,"alt_fmsl":408,"id":"KBA","desc":"KARLSRUHE BADEN BADEN NDB"},
{"type":"SDME","hdg_t":202.1,"dist_nm":44.8,"freq":115.8,"lat":48.78022800,"lon":8.08848600,"rng_nm":25,"alt_fmsl":495,"id":"KBD","desc":"KARLSRUHE BADEN BADEN DME"},
{"type":"NDB","hdg_t":203,"dist_nm":45.2,"freq":440,"lat":48.77833200,"lon":8.06722300,"rng_nm":150,"alt_fmsl":0,"id":"SLN","desc":"SOLLINGEN NDB"},
{"type":"VOR","hdg_t":251.6,"dist_nm":45.4,"freq":114.8,"lat":49.22907200,"lon":7.41789200,"rng_nm":60,"alt_fmsl":1177,"id":"ZWN","desc":"ZWEIBRUCKEN VOR-DME"},
{"type":"NDB","hdg_t":251.5,"dist_nm":45.5,"freq":435,"lat":49.22759200,"lon":7.41658300,"rng_nm":25,"alt_fmsl":0,"id":"ZBN","desc":"ZWEIBRUCKEN NDB"},
{"type":"SDME","hdg_t":250.5,"dist_nm":46.6,"freq":109.1,"lat":49.20933100,"lon":7.39577800,"rng_nm":25,"alt_fmsl":1201,"id":"ZND","desc":"ZWEIBRUCKEN DME"},
{"type":"VOR","hdg_t":135.6,"dist_nm":46.7,"freq":109.2,"lat":48.91297500,"lon":9.34022800,"rng_nm":25,"alt_fmsl":1064,"id":"LBU","desc":"LUBURG VOR-DME"},
{"type":"VOR","hdg_t":343.8,"dist_nm":48.6,"freq":116.7,"lat":50.25046100,"lon":8.16251700,"rng_nm":40,"alt_fmsl":1343,"id":"TAU","desc":"TAUNUS VORTAC"},
{"type":"VOR","hdg_t":14.9,"dist_nm":49.9,"freq":110,"lat":50.27627500,"lon":8.84862500,"rng_nm":60,"alt_fmsl":666,"id":"MTR","desc":"METRO VOR"},
{"type":"NDB","hdg_t":14.9,"dist_nm":50,"freq":304,"lat":50.27750000,"lon":8.84972200,"rng_nm":150,"alt_fmsl":0,"id":"MTR","desc":"METRO NDB"},
{"type":"VOR","hdg_t":297.3,"dist_nm":50,"freq":117.5,"lat":49.85023900,"lon":7.36957800,"rng_nm":40,"alt_fmsl":1453,"id":"KIR","desc":"KIRN VORTAC"},
{"type":"NDB","hdg_t":253.7,"dist_nm":53,"freq":360,"lat":49.21776900,"lon":7.21951100,"rng_nm":25,"alt_fmsl":0,"id":"SR","desc":"ENSHEIM NDB"},
{"type":"NDB","hdg_t":153.6,"dist_nm":53.7,"freq":384,"lat":48.66924400,"lon":9.11420300,"rng_nm":25,"alt_fmsl":0,"id":"SY","desc":"STUTTGART NDB"},
{"type":"SDME","hdg_t":112.8,"dist_nm":54,"freq":108.05,"lat":49.11646900,"lon":9.77815600,"rng_nm":14,"alt_fmsl":1389,"id":"SHD","desc":"SCHWABISCH DME"},
{"type":"SDME","hdg_t":149,"dist_nm":54.8,"freq":115.45,"lat":48.68794700,"lon":9.22410600,"rng_nm":25,"alt_fmsl":1332,"id":"SGD","desc":"STUTTGART DME"},
{"type":"VOR","hdg_t":147.6,"dist_nm":55,"freq":116.85,"lat":48.69643000,"lon":9.25654700,"rng_nm":40,"alt_fmsl":1217,"id":"STG","desc":"Stuttgart VOR-DME"},
{"type":"NDB","hdg_t":144.4,"dist_nm":56,"freq":306,"lat":48.71128900,"lon":9.33504200,"rng_nm":25,"alt_fmsl":0,"id":"SG","desc":"STUTTGART NDB"},
{"type":"SDME","hdg_t":300.7,"dist_nm":56.2,"freq":116.95,"lat":49.94556900,"lon":7.26766900,"rng_nm":25,"alt_fmsl":1716,"id":"HND","desc":"HAHN DME"},
{"type":"NDB","hdg_t":302,"dist_nm":56.3,"freq":376,"lat":49.96488300,"lon":7.28087500,"rng_nm":25,"alt_fmsl":1649,"id":"HAN","desc":"HAHN NDB"},
{"type":"NDB","hdg_t":254.9,"dist_nm":56.8,"freq":343,"lat":49.21885300,"lon":7.11834400,"rng_nm":40,"alt_fmsl":1058,"id":"SBN","desc":"SAARBRUCKEN NDB"},
{"type":"NDB","hdg_t":94.1,"dist_nm":57,"freq":311,"lat":49.39483300,"lon":9.96500000,"rng_nm":25,"alt_fmsl":1595,"id":"NSN","desc":"NIEDERSTETTEN NDB"},
{"type":"SDME","hdg_t":254.6,"dist_nm":57,"freq":116.75,"lat":49.21245800,"lon":7.11606700,"rng_nm":25,"alt_fmsl":1088,"id":"SAD","desc":"SAARBRUCKEN DME"},
{"type":"VOR","hdg_t":74.7,"dist_nm":57.8,"freq":110.2,"lat":49.71753100,"lon":9.94700000,"rng_nm":60,"alt_fmsl":1052,"id":"WUR","desc":"WURZBURG VOR"},
{"type":"VOR","hdg_t":226.3,"dist_nm":58.4,"freq":110.45,"lat":48.79624400,"lon":7.44798100,"rng_nm":60,"alt_fmsl":1021,"id":"SAV","desc":"SAVERNE VOR-DME"},
{"type":"VOR","hdg_t":149.9,"dist_nm":59.1,"freq":112.5,"lat":48.61840800,"lon":9.25920800,"rng_nm":60,"alt_fmsl":1213,"id":"TGO","desc":"TANGO VORTAC"},
{"type":"NDB","hdg_t":211,"dist_nm":61.8,"freq":412,"lat":48.58829000,"lon":7.71472300,"rng_nm":50,"alt_fmsl":502,"id":"SE","desc":"Strasbourg NDB"},
{"type":"VOR","hdg_t":26.5,"dist_nm":63.1,"freq":110.8,"lat":50.41194700,"lon":9.24916400,"rng_nm":130,"alt_fmsl":1601,"id":"GED","desc":"GEDERN VORTAC"},
{"type":"VOR","hdg_t":175.4,"dist_nm":65.7,"freq":116.1,"lat":48.38158600,"lon":8.64483600,"rng_nm":60,"alt_fmsl":0,"id":"SUL","desc":"SULZ VOR"},
{"type":"NDB","hdg_t":231.2,"dist_nm":66.9,"freq":424,"lat":48.76722222,"lon":7.19944444,"rng_nm":25,"alt_fmsl":1000,"id":"PHG","desc":"Phalsbourg Boursheid NDB"},
{"type":"VOR","hdg_t":213,"dist_nm":69,"freq":115.6,"lat":48.50538900,"lon":7.57197200,"rng_nm":150,"alt_fmsl":577,"id":"STR","desc":"STRASBOURG ENTZHEIM VOR-DME"},
{"type":"SDME","hdg_t":307.5,"dist_nm":70.3,"freq":117.1,"lat":50.17866700,"lon":7.06950000,"rng_nm":50,"alt_fmsl":1618,"id":"BUE","desc":"BUCHEL TACAN"},
{"type":"VOR","hdg_t":105.6,"dist_nm":70.5,"freq":117.8,"lat":49.14275300,"lon":10.23830600,"rng_nm":60,"alt_fmsl":1790,"id":"DKB","desc":"DINKELSBUHL VORTAC"},
{"type":"NDB","hdg_t":319.5,"dist_nm":71.1,"freq":331,"lat":50.36783300,"lon":7.31366700,"rng_nm":25,"alt_fmsl":671,"id":"NMN","desc":"MENDIG NDB"},
{"type":"NDB","hdg_t":289.6,"dist_nm":71.3,"freq":474,"lat":49.85916500,"lon":6.78305600,"rng_nm":150,"alt_fmsl":0,"id":"TX","desc":"TRIER NDB"},
{"type":"SDME","hdg_t":202.4,"dist_nm":71.9,"freq":108.05,"lat":48.36414200,"lon":7.82751700,"rng_nm":25,"alt_fmsl":556,"id":"LRD","desc":"LAHR DME"},
{"type":"NDB","hdg_t":202.6,"dist_nm":73,"freq":337,"lat":48.34873600,"lon":7.81116400,"rng_nm":25,"alt_fmsl":0,"id":"LHR","desc":"LAHR NDB"},
{"type":"NDB","hdg_t":89.3,"dist_nm":73.3,"freq":488,"lat":49.47185300,"lon":10.38791900,"rng_nm":25,"alt_fmsl":1112,"id":"ILM","desc":"ILLESHEIM NDB"},
{"type":"NDB","hdg_t":348.8,"dist_nm":73.9,"freq":489,"lat":50.68003300,"lon":8.13849700,"rng_nm":25,"alt_fmsl":0,"id":"SIL","desc":"SIEGERLAND NDB"},
{"type":"SDME","hdg_t":347.3,"dist_nm":75.9,"freq":108.05,"lat":50.70676900,"lon":8.07851100,"rng_nm":25,"alt_fmsl":2019,"id":"SLD","desc":"SIEGERLAND DME"},
{"type":"VOR","hdg_t":248.2,"dist_nm":76.5,"freq":111.25,"lat":48.98644400,"lon":6.71622200,"rng_nm":100,"alt_fmsl":1057,"id":"GTQ","desc":"GROSTENQUIN VOR-DME"},
{"type":"SDME","hdg_t":293.9,"dist_nm":76.9,"freq":109.5,"lat":49.97899400,"lon":6.69769700,"rng_nm":60,"alt_fmsl":1161,"id":"SPA","desc":"SPANGDAHLEM TACAN"},
{"type":"VOR","hdg_t":30.9,"dist_nm":78.7,"freq":112.1,"lat":50.59245600,"lon":9.57216900,"rng_nm":100,"alt_fmsl":1138,"id":"FUL","desc":"FULDA VOR-DME"},
{"type":"NDB","hdg_t":95.9,"dist_nm":83.6,"freq":452,"lat":49.30966700,"lon":10.63283300,"rng_nm":25,"alt_fmsl":1526,"id":"ANS","desc":"ANSBACH NDB"},
{"type":"VOR","hdg_t":293.6,"dist_nm":83.7,"freq":115.3,"lat":50.01586100,"lon":6.53178900,"rng_nm":60,"alt_fmsl":1388,"id":"NTM","desc":"NATTENHEIM VORTAC"},
{"type":"NDB","hdg_t":116.5,"dist_nm":84.3,"freq":375,"lat":48.82936100,"lon":10.41869400,"rng_nm":50,"alt_fmsl":0,"id":"NDG","desc":"NORDLINGEN NDB"},
{"type":"NDB","hdg_t":279.1,"dist_nm":85.2,"freq":368,"lat":49.67972200,"lon":6.35527800,"rng_nm":25,"alt_fmsl":0,"id":"ELU","desc":"LUXEMBOURG NDB"},
{"type":"VOR","hdg_t":336,"dist_nm":86.3,"freq":108.8,"lat":50.78351900,"lon":7.59419400,"rng_nm":25,"alt_fmsl":990,"id":"COL","desc":"COLA VORTAC"},
{"type":"NDB","hdg_t":277.3,"dist_nm":89,"freq":318,"lat":49.64110900,"lon":6.24916600,"rng_nm":150,"alt_fmsl":0,"id":"LE","desc":"LUXEMBOURG NDB"},
{"type":"VOR","hdg_t":277.2,"dist_nm":89.1,"freq":112.25,"lat":49.63944400,"lon":6.24722200,"rng_nm":25,"alt_fmsl":1234,"id":"LUX","desc":"LUXEMBOURG VOR-DME"},
{"type":"NDB","hdg_t":179.7,"dist_nm":90.8,"freq":490,"lat":47.96072200,"lon":8.52270800,"rng_nm":25,"alt_fmsl":0,"id":"DVI","desc":"DONAUESCHINGEN NDB"},
{"type":"SDME","hdg_t":179.7,"dist_nm":90.8,"freq":110.55,"lat":47.96068100,"lon":8.52255300,"rng_nm":25,"alt_fmsl":2212,"id":"DON","desc":"DONAUESCHINGEN DME"},
{"type":"NDB","hdg_t":263.4,"dist_nm":91.1,"freq":354,"lat":49.27638888,"lon":6.20861111,"rng_nm":25,"alt_fmsl":604,"id":"MTZ","desc":"Metz Nancy Lorraine NDB"},
{"type":"NDB","hdg_t":169.8,"dist_nm":91.2,"freq":442,"lat":47.97638700,"lon":8.91250000,"rng_nm":150,"alt_fmsl":0,"id":"NUN","desc":"NEUHAUSEN NDB"},
{"type":"NDB","hdg_t":157.9,"dist_nm":91.6,"freq":401,"lat":48.05435000,"lon":9.36754700,"rng_nm":25,"alt_fmsl":0,"id":"MEG","desc":"MENGEN NDB"},
{"type":"NDB","hdg_t":276.1,"dist_nm":91.8,"freq":404,"lat":49.61333300,"lon":6.17500000,"rng_nm":50,"alt_fmsl":0,"id":"LW","desc":"Luxembourg NDB"},
{"type":"NDB","hdg_t":209.9,"dist_nm":92.4,"freq":380,"lat":48.13375000,"lon":7.36611100,"rng_nm":50,"alt_fmsl":0,"id":"HO","desc":"Colmar NDB"},
{"type":"NDB","hdg_t":252.9,"dist_nm":92.6,"freq":388,"lat":48.99805555,"lon":6.27138888,"rng_nm":25,"alt_fmsl":876,"id":"LOU","desc":"Metz Nancy Lorrraine NDB"},
{"type":"NDB","hdg_t":143.1,"dist_nm":93.4,"freq":407,"lat":48.21804200,"lon":9.91087200,"rng_nm":25,"alt_fmsl":1846,"id":"LUP","desc":"LAUPHEIM NDB"},
{"type":"NDB","hdg_t":328.8,"dist_nm":93.8,"freq":327,"lat":50.80421700,"lon":7.24022500,"rng_nm":15,"alt_fmsl":0,"id":"LV","desc":"KOLN/BONN NDB"},
{"type":"NDB","hdg_t":260.4,"dist_nm":93.8,"freq":333,"lat":49.19027700,"lon":6.16361100,"rng_nm":75,"alt_fmsl":0,"id":"MZ","desc":"METZ NDB"},
{"type":"NDB","hdg_t":284.9,"dist_nm":95.8,"freq":307,"lat":49.86138900,"lon":6.12972200,"rng_nm":50,"alt_fmsl":0,"id":"DIK","desc":"DIEKIRCH NDB"},
{"type":"VOR","hdg_t":284.9,"dist_nm":95.8,"freq":114.4,"lat":49.86138900,"lon":6.12972200,"rng_nm":70,"alt_fmsl":1109,"id":"DIK","desc":"DIEKIRCH VOR-DME"},
{"type":"NDB","hdg_t":274.3,"dist_nm":96.3,"freq":346,"lat":49.56777800,"lon":6.05416700,"rng_nm":25,"alt_fmsl":0,"id":"WLU","desc":"LUXEMBOURG NDB"},
{"type":"NDB","hdg_t":206.6,"dist_nm":96.4,"freq":348,"lat":48.03222300,"lon":7.44083400,"rng_nm":150,"alt_fmsl":0,"id":"AP","desc":"COLMAR MEYENHEIM NDB"},
{"type":"NDB","hdg_t":330.8,"dist_nm":98.4,"freq":300,"lat":50.89830600,"lon":7.25285000,"rng_nm":15,"alt_fmsl":0,"id":"LW","desc":"KOLN/BONN NDB"},
{"type":"VOR","hdg_t":328.1,"dist_nm":98.7,"freq":112.15,"lat":50.86167800,"lon":7.14551700,"rng_nm":25,"alt_fmsl":311,"id":"KBO","desc":"KOLN/BONN VOR-DME"}
]
}
