{"success":true,"source":"xp2csv.pl","last_updated":"2013/11/08 14:53:21 UTC"
,"icao":"EDGF","name":"Fulda-jossa","lat":50.4754165,"lon":9.4424165,"rwys":1,"ils":0,"index":3105561,"path":"e000n50/e009n50"
,"runways":[
{"len_m":616,"wid_m":29.87,"hdg":80,"surf":"Turf/grass","rwy1":"08","lat1":50.47496600,"lon1":9.43813300,"rwy2":"26","lat2":50.47586700,"lon2":9.44670000}
]
,"radios":[
{"type":"CTAF","freq":122.4,"desc":"CTAF/UNICOM"}
]
,"navaids":[
{"type":"VOR","hdg_t":242.8,"dist_nm":8.3,"freq":110.8,"lat":50.41194700,"lon":9.24916400,"rng_nm":130,"alt_fmsl":1601,"id":"GED","desc":"GEDERN VORTAC"},
{"type":"VOR","hdg_t":35.1,"dist_nm":8.6,"freq":112.1,"lat":50.59245600,"lon":9.57216900,"rng_nm":100,"alt_fmsl":1138,"id":"FUL","desc":"FULDA VOR-DME"},
{"type":"NDB","hdg_t":242.6,"dist_nm":25.6,"freq":304,"lat":50.27750000,"lon":8.84972200,"rng_nm":150,"alt_fmsl":0,"id":"MTR","desc":"METRO NDB"},
{"type":"VOR","hdg_t":242.5,"dist_nm":25.7,"freq":110,"lat":50.27627500,"lon":8.84862500,"rng_nm":60,"alt_fmsl":666,"id":"MTR","desc":"METRO VOR"},
{"type":"NDB","hdg_t":358.3,"dist_nm":36.5,"freq":468,"lat":51.08425800,"lon":9.41524400,"rng_nm":35,"alt_fmsl":1096,"id":"FTZ","desc":"FRITZLAR NDB"},
{"type":"VOR","hdg_t":205.1,"dist_nm":36.7,"freq":115.5,"lat":49.92110300,"lon":9.03981100,"rng_nm":25,"alt_fmsl":532,"id":"CHA","desc":"CHARLIE VOR"},
{"type":"NDB","hdg_t":185.6,"dist_nm":37,"freq":370,"lat":49.86224200,"lon":9.34832500,"rng_nm":40,"alt_fmsl":0,"id":"PSA","desc":"SPESSART NDB"},
{"type":"NDB","hdg_t":230.1,"dist_nm":38.1,"freq":297,"lat":50.06571100,"lon":8.68348900,"rng_nm":15,"alt_fmsl":0,"id":"FR","desc":"FRANKFURT NDB"},
{"type":"NDB","hdg_t":230.7,"dist_nm":39.5,"freq":320,"lat":50.05638900,"lon":8.65111100,"rng_nm":50,"alt_fmsl":0,"id":"FFM","desc":"FRANKFURT NDB"},
{"type":"VOR","hdg_t":231,"dist_nm":40,"freq":114.2,"lat":50.05374200,"lon":8.63709200,"rng_nm":130,"alt_fmsl":491,"id":"FFM","desc":"FRANKFURT VORTAC"},
{"type":"SDME","hdg_t":231.9,"dist_nm":43,"freq":115.9,"lat":50.03046700,"lon":8.56705300,"rng_nm":40,"alt_fmsl":441,"id":"FRD","desc":"FRANKFURT DME"},
{"type":"NDB","hdg_t":225.1,"dist_nm":43.6,"freq":386,"lat":49.96006400,"lon":8.64263100,"rng_nm":15,"alt_fmsl":0,"id":"EH","desc":"EGELSBACH NDB"},
{"type":"NDB","hdg_t":197.6,"dist_nm":44.9,"freq":355,"lat":49.76222200,"lon":9.09166700,"rng_nm":40,"alt_fmsl":0,"id":"KNG","desc":"KONIG NDB"},
{"type":"NDB","hdg_t":234.4,"dist_nm":48.1,"freq":382,"lat":50.00495600,"lon":8.42955300,"rng_nm":15,"alt_fmsl":0,"id":"FW","desc":"FRANKFURT NDB"},
{"type":"VOR","hdg_t":156.6,"dist_nm":49.5,"freq":110.2,"lat":49.71753100,"lon":9.94700000,"rng_nm":60,"alt_fmsl":1052,"id":"WUR","desc":"WURZBURG VOR"},
{"type":"NDB","hdg_t":239.5,"dist_nm":49.9,"freq":399,"lat":50.04900000,"lon":8.32866700,"rng_nm":25,"alt_fmsl":490,"id":"WBD","desc":"WIESBADEN NDB"},
{"type":"SDME","hdg_t":239.8,"dist_nm":50.6,"freq":114.1,"lat":50.04616700,"lon":8.31083300,"rng_nm":40,"alt_fmsl":472,"id":"WIB","desc":"WIESBADEN TACAN"},
{"type":"VOR","hdg_t":255.1,"dist_nm":50.9,"freq":116.7,"lat":50.25046100,"lon":8.16251700,"rng_nm":40,"alt_fmsl":1343,"id":"TAU","desc":"TAUNUS VORTAC"},
{"type":"NDB","hdg_t":284.3,"dist_nm":51.3,"freq":489,"lat":50.68003300,"lon":8.13849700,"rng_nm":25,"alt_fmsl":0,"id":"SIL","desc":"SIEGERLAND NDB"},
{"type":"SDME","hdg_t":285.4,"dist_nm":53.9,"freq":108.05,"lat":50.70676900,"lon":8.07851100,"rng_nm":25,"alt_fmsl":2019,"id":"SLD","desc":"SIEGERLAND DME"},
{"type":"VOR","hdg_t":220.2,"dist_nm":54.2,"freq":112.2,"lat":49.78169200,"lon":8.54148600,"rng_nm":25,"alt_fmsl":328,"id":"RID","desc":"RIED VOR-DME"},
{"type":"VOR","hdg_t":348.6,"dist_nm":63.1,"freq":113.7,"lat":51.50569700,"lon":9.11091400,"rng_nm":80,"alt_fmsl":843,"id":"WRB","desc":"WARBURG VOR-DME"},
{"type":"NDB","hdg_t":245.8,"dist_nm":63.4,"freq":338,"lat":50.03305400,"lon":7.94500000,"rng_nm":150,"alt_fmsl":0,"id":"RUD","desc":"RUDESHEIM NDB"},
{"type":"NDB","hdg_t":61,"dist_nm":64.1,"freq":425,"lat":50.98260300,"lon":10.92296700,"rng_nm":35,"alt_fmsl":1036,"id":"ERT","desc":"ERFURT NDB"},
{"type":"SDME","hdg_t":61.6,"dist_nm":65.3,"freq":112.05,"lat":50.98261100,"lon":10.95771900,"rng_nm":25,"alt_fmsl":1076,"id":"EFD","desc":"ERFURT DME"},
{"type":"VOR","hdg_t":215,"dist_nm":66.4,"freq":109,"lat":49.56563100,"lon":8.46380800,"rng_nm":25,"alt_fmsl":327,"id":"HDM","desc":"COLEMAN VOR"},
{"type":"NDB","hdg_t":162.4,"dist_nm":67.9,"freq":311,"lat":49.39483300,"lon":9.96500000,"rng_nm":25,"alt_fmsl":1595,"id":"NSN","desc":"NIEDERSTETTEN NDB"},
{"type":"NDB","hdg_t":216.1,"dist_nm":69.6,"freq":334,"lat":49.53450000,"lon":8.39050000,"rng_nm":25,"alt_fmsl":320,"id":"HDM","desc":"COLEMAN NDB"},
{"type":"SDME","hdg_t":211,"dist_nm":70.2,"freq":113.55,"lat":49.47063900,"lon":8.51598100,"rng_nm":25,"alt_fmsl":351,"id":"MND","desc":"MANNHEIM DME"},
{"type":"NDB","hdg_t":148.3,"dist_nm":70.5,"freq":488,"lat":49.47185300,"lon":10.38791900,"rng_nm":25,"alt_fmsl":1112,"id":"ILM","desc":"ILLESHEIM NDB"},
{"type":"VOR","hdg_t":305.8,"dist_nm":72.2,"freq":115.4,"lat":51.17051100,"lon":7.89203900,"rng_nm":130,"alt_fmsl":1821,"id":"GMH","desc":"GERMINGHAUSEN VOR-DME"},
{"type":"VOR","hdg_t":285.3,"dist_nm":72.9,"freq":108.8,"lat":50.78351900,"lon":7.59419400,"rng_nm":25,"alt_fmsl":990,"id":"COL","desc":"COLA VORTAC"},
{"type":"NDB","hdg_t":206.9,"dist_nm":73.1,"freq":417,"lat":49.38601700,"lon":8.59676400,"rng_nm":25,"alt_fmsl":345,"id":"HDL","desc":"HEIDELBERG NDB"},
{"type":"NDB","hdg_t":202.1,"dist_nm":73.7,"freq":292,"lat":49.33672800,"lon":8.73290800,"rng_nm":50,"alt_fmsl":0,"id":"NKR","desc":"NECKAR NDB"},
{"type":"VOR","hdg_t":66.6,"dist_nm":74.1,"freq":113.85,"lat":50.95086900,"lon":11.23668600,"rng_nm":25,"alt_fmsl":1325,"id":"ERF","desc":"ERFURT VOR-DME"},
{"type":"NDB","hdg_t":336.5,"dist_nm":75.3,"freq":354,"lat":51.62361100,"lon":8.63944400,"rng_nm":25,"alt_fmsl":673,"id":"PAD","desc":"PADERBORN/LIPPSTADT NDB-DME"},
{"type":"SDME","hdg_t":336.5,"dist_nm":75.3,"freq":108.5,"lat":51.62361100,"lon":8.63944400,"rng_nm":25,"alt_fmsl":673,"id":"PAD","desc":"PADERBORN/LIPPSTADT NDB-DME"},
{"type":"NDB","hdg_t":225.3,"dist_nm":76.7,"freq":428,"lat":49.56861100,"lon":8.04388900,"rng_nm":150,"alt_fmsl":0,"id":"SEX","desc":"SEMBACH NDB"},
{"type":"NDB","hdg_t":242.9,"dist_nm":79.9,"freq":394,"lat":49.85472100,"lon":7.60805600,"rng_nm":50,"alt_fmsl":0,"id":"PFF","desc":"PFERDSFELD NDB"},
{"type":"NDB","hdg_t":266.2,"dist_nm":81.9,"freq":331,"lat":50.36783300,"lon":7.31366700,"rng_nm":25,"alt_fmsl":671,"id":"NMN","desc":"MENDIG NDB"},
{"type":"VOR","hdg_t":126,"dist_nm":82.3,"freq":114.9,"lat":49.65541400,"lon":11.15081100,"rng_nm":130,"alt_fmsl":1841,"id":"ERL","desc":"ERLANGEN VOR-DME"},
{"type":"SDME","hdg_t":170.7,"dist_nm":82.6,"freq":108.05,"lat":49.11646900,"lon":9.77815600,"rng_nm":14,"alt_fmsl":1389,"id":"SHD","desc":"SCHWABISCH DME"},
{"type":"NDB","hdg_t":146.1,"dist_nm":83.8,"freq":452,"lat":49.30966700,"lon":10.63283300,"rng_nm":25,"alt_fmsl":1526,"id":"ANS","desc":"ANSBACH NDB"},
{"type":"VOR","hdg_t":158.5,"dist_nm":85.8,"freq":117.8,"lat":49.14275300,"lon":10.23830600,"rng_nm":60,"alt_fmsl":1790,"id":"DKB","desc":"DINKELSBUHL VORTAC"},
{"type":"SDME","hdg_t":132,"dist_nm":86.2,"freq":113.1,"lat":49.50115800,"lon":11.08015000,"rng_nm":25,"alt_fmsl":1090,"id":"NGD","desc":"NURNBERG DME"},
{"type":"NDB","hdg_t":284,"dist_nm":86.3,"freq":327,"lat":50.80421700,"lon":7.24022500,"rng_nm":15,"alt_fmsl":0,"id":"LV","desc":"KOLN/BONN NDB"},
{"type":"NDB","hdg_t":287.7,"dist_nm":87.3,"freq":300,"lat":50.89830600,"lon":7.25285000,"rng_nm":15,"alt_fmsl":0,"id":"LW","desc":"KOLN/BONN NDB"},
{"type":"NDB","hdg_t":110,"dist_nm":87.5,"freq":420,"lat":49.95688300,"lon":11.56515800,"rng_nm":25,"alt_fmsl":0,"id":"BAZ","desc":"BAYREUTH NDB"},
{"type":"VOR","hdg_t":245.6,"dist_nm":88.3,"freq":117.5,"lat":49.85023900,"lon":7.36957800,"rng_nm":40,"alt_fmsl":1453,"id":"KIR","desc":"KIRN VORTAC"},
{"type":"NDB","hdg_t":250.6,"dist_nm":88.7,"freq":376,"lat":49.96488300,"lon":7.28087500,"rng_nm":25,"alt_fmsl":1649,"id":"HAN","desc":"HAHN NDB"},
{"type":"VOR","hdg_t":293.5,"dist_nm":89.2,"freq":109.6,"lat":51.04835300,"lon":7.27999700,"rng_nm":40,"alt_fmsl":902,"id":"WYP","desc":"WIPPER VOR"},
{"type":"VOR","hdg_t":108.3,"dist_nm":89.5,"freq":110.6,"lat":49.98515300,"lon":11.63666900,"rng_nm":40,"alt_fmsl":1625,"id":"BAY","desc":"BAYREUTH VOR"},
{"type":"SDME","hdg_t":250,"dist_nm":89.6,"freq":116.95,"lat":49.94556900,"lon":7.26766900,"rng_nm":25,"alt_fmsl":1716,"id":"HND","desc":"HAHN DME"},
{"type":"NDB","hdg_t":96.4,"dist_nm":89.7,"freq":484,"lat":50.28462800,"lon":11.76139400,"rng_nm":15,"alt_fmsl":0,"id":"HOF","desc":"HOF NDB"},
{"type":"VOR","hdg_t":285.7,"dist_nm":90.6,"freq":112.15,"lat":50.86167800,"lon":7.14551700,"rng_nm":25,"alt_fmsl":311,"id":"KBO","desc":"KOLN/BONN VOR-DME"},
{"type":"NDB","hdg_t":129.6,"dist_nm":92,"freq":415,"lat":49.48268900,"lon":11.25286100,"rng_nm":50,"alt_fmsl":1096,"id":"RTB","desc":"ROTHENBACH NDB"},
{"type":"SDME","hdg_t":259.8,"dist_nm":92.9,"freq":117.1,"lat":50.17866700,"lon":7.06950000,"rng_nm":50,"alt_fmsl":1618,"id":"BUE","desc":"BUCHEL TACAN"},
{"type":"NDB","hdg_t":313.3,"dist_nm":93.1,"freq":357,"lat":51.52612200,"lon":7.63438600,"rng_nm":25,"alt_fmsl":400,"id":"DWI","desc":"DORTMUND NDB"},
{"type":"VOR","hdg_t":313.2,"dist_nm":93.2,"freq":108.65,"lat":51.52534200,"lon":7.63105600,"rng_nm":25,"alt_fmsl":373,"id":"DOR","desc":"WICKEDE VOR-DME"},
{"type":"SDME","hdg_t":95.9,"dist_nm":93.3,"freq":110.7,"lat":50.28981400,"lon":11.85523100,"rng_nm":25,"alt_fmsl":1946,"id":"HOD","desc":"HOF DME"},
{"type":"VOR","hdg_t":182.4,"dist_nm":93.9,"freq":109.2,"lat":48.91297500,"lon":9.34022800,"rng_nm":25,"alt_fmsl":1064,"id":"LBU","desc":"LUBURG VOR-DME"},
{"type":"NDB","hdg_t":287.5,"dist_nm":94.7,"freq":365,"lat":50.92705600,"lon":7.06229400,"rng_nm":25,"alt_fmsl":0,"id":"LJ","desc":"KOLN/BONN NDB"},
{"type":"VOR","hdg_t":200.8,"dist_nm":95,"freq":115.95,"lat":48.99294400,"lon":8.58423600,"rng_nm":130,"alt_fmsl":908,"id":"KRH","desc":"KARLSRUHE VOR-DME"},
{"type":"SDME","hdg_t":229.7,"dist_nm":95.2,"freq":113.4,"lat":49.43473100,"lon":7.58564700,"rng_nm":80,"alt_fmsl":762,"id":"RMS","desc":"RAMSTEIN TACAN"},
{"type":"VOR","hdg_t":56.6,"dist_nm":97,"freq":115.25,"lat":51.34311700,"lon":11.59752800,"rng_nm":130,"alt_fmsl":721,"id":"GOT","desc":"GOTEM VOR-DME"},
{"type":"NDB","hdg_t":334.4,"dist_nm":97.3,"freq":412,"lat":51.93249900,"lon":8.31138900,"rng_nm":150,"alt_fmsl":0,"id":"GS","desc":"GUTERSLOH NDB"}
]
}
