{"success":true,"source":"xp2csv.pl","last_updated":"2013/11/08 14:53:21 UTC"
,"icao":"EDGM","name":"Mosbach Lohrbach","lat":49.401489,"lon":9.121662,"rwys":1,"ils":0,"index":3105496,"path":"e000n40/e009n49"
,"runways":[
{"len_m":540,"wid_m":20.12,"hdg":148,"surf":"Asphalt","rwy1":"15","lat1":49.40357216,"lon1":9.11973856,"rwy2":"33","lat2":49.39940584,"lon2":9.12358544}
]
,"navaids":[
{"type":"NDB","hdg_t":255.8,"dist_nm":15.7,"freq":292,"lat":49.33672800,"lon":8.73290800,"rng_nm":50,"alt_fmsl":0,"id":"NKR","desc":"NECKAR NDB"},
{"type":"NDB","hdg_t":267.6,"dist_nm":20.5,"freq":417,"lat":49.38601700,"lon":8.59676400,"rng_nm":25,"alt_fmsl":345,"id":"HDL","desc":"HEIDELBERG NDB"},
{"type":"NDB","hdg_t":356.9,"dist_nm":21.6,"freq":355,"lat":49.76222200,"lon":9.09166700,"rng_nm":40,"alt_fmsl":0,"id":"KNG","desc":"KONIG NDB"},
{"type":"SDME","hdg_t":280.1,"dist_nm":24,"freq":113.55,"lat":49.47063900,"lon":8.51598100,"rng_nm":25,"alt_fmsl":351,"id":"MND","desc":"MANNHEIM DME"},
{"type":"VOR","hdg_t":291.2,"dist_nm":27.5,"freq":109,"lat":49.56563100,"lon":8.46380800,"rng_nm":25,"alt_fmsl":327,"id":"HDM","desc":"COLEMAN VOR"},
{"type":"NDB","hdg_t":17.6,"dist_nm":29,"freq":370,"lat":49.86224200,"lon":9.34832500,"rng_nm":40,"alt_fmsl":0,"id":"PSA","desc":"SPESSART NDB"},
{"type":"NDB","hdg_t":285.8,"dist_nm":29.7,"freq":334,"lat":49.53450000,"lon":8.39050000,"rng_nm":25,"alt_fmsl":320,"id":"HDM","desc":"COLEMAN NDB"},
{"type":"VOR","hdg_t":163.5,"dist_nm":30.5,"freq":109.2,"lat":48.91297500,"lon":9.34022800,"rng_nm":25,"alt_fmsl":1064,"id":"LBU","desc":"LUBURG VOR-DME"},
{"type":"SDME","hdg_t":123.3,"dist_nm":30.9,"freq":108.05,"lat":49.11646900,"lon":9.77815600,"rng_nm":14,"alt_fmsl":1389,"id":"SHD","desc":"SCHWABISCH DME"},
{"type":"VOR","hdg_t":354.1,"dist_nm":31.3,"freq":115.5,"lat":49.92110300,"lon":9.03981100,"rng_nm":25,"alt_fmsl":532,"id":"CHA","desc":"CHARLIE VOR"},
{"type":"VOR","hdg_t":315.4,"dist_nm":32.1,"freq":112.2,"lat":49.78169200,"lon":8.54148600,"rng_nm":25,"alt_fmsl":328,"id":"RID","desc":"RIED VOR-DME"},
{"type":"VOR","hdg_t":220.9,"dist_nm":32.3,"freq":115.95,"lat":48.99294400,"lon":8.58423600,"rng_nm":130,"alt_fmsl":908,"id":"KRH","desc":"KARLSRUHE VOR-DME"},
{"type":"NDB","hdg_t":90.3,"dist_nm":33,"freq":311,"lat":49.39483300,"lon":9.96500000,"rng_nm":25,"alt_fmsl":1595,"id":"NSN","desc":"NIEDERSTETTEN NDB"},
{"type":"VOR","hdg_t":59.2,"dist_nm":37.4,"freq":110.2,"lat":49.71753100,"lon":9.94700000,"rng_nm":60,"alt_fmsl":1052,"id":"WUR","desc":"WURZBURG VOR"},
{"type":"NDB","hdg_t":331,"dist_nm":38.3,"freq":386,"lat":49.96006400,"lon":8.64263100,"rng_nm":15,"alt_fmsl":0,"id":"EH","desc":"EGELSBACH NDB"},
{"type":"NDB","hdg_t":168.4,"dist_nm":42.2,"freq":306,"lat":48.71128900,"lon":9.33504200,"rng_nm":25,"alt_fmsl":0,"id":"SG","desc":"STUTTGART NDB"},
{"type":"VOR","hdg_t":172.7,"dist_nm":42.6,"freq":116.85,"lat":48.69643000,"lon":9.25654700,"rng_nm":40,"alt_fmsl":1217,"id":"STG","desc":"Stuttgart VOR-DME"},
{"type":"SDME","hdg_t":174.5,"dist_nm":43,"freq":115.45,"lat":48.68794700,"lon":9.22410600,"rng_nm":25,"alt_fmsl":1332,"id":"SGD","desc":"STUTTGART DME"},
{"type":"NDB","hdg_t":337,"dist_nm":43.3,"freq":297,"lat":50.06571100,"lon":8.68348900,"rng_nm":15,"alt_fmsl":0,"id":"FR","desc":"FRANKFURT NDB"},
{"type":"NDB","hdg_t":335.2,"dist_nm":43.3,"freq":320,"lat":50.05638900,"lon":8.65111100,"rng_nm":50,"alt_fmsl":0,"id":"FFM","desc":"FRANKFURT NDB"},
{"type":"NDB","hdg_t":283.7,"dist_nm":43.3,"freq":428,"lat":49.56861100,"lon":8.04388900,"rng_nm":150,"alt_fmsl":0,"id":"SEX","desc":"SEMBACH NDB"},
{"type":"VOR","hdg_t":334.4,"dist_nm":43.4,"freq":114.2,"lat":50.05374200,"lon":8.63709200,"rng_nm":130,"alt_fmsl":491,"id":"FFM","desc":"FRANKFURT VORTAC"},
{"type":"SDME","hdg_t":330.4,"dist_nm":43.5,"freq":115.9,"lat":50.03046700,"lon":8.56705300,"rng_nm":40,"alt_fmsl":441,"id":"FRD","desc":"FRANKFURT DME"},
{"type":"NDB","hdg_t":180.3,"dist_nm":43.9,"freq":384,"lat":48.66924400,"lon":9.11420300,"rng_nm":25,"alt_fmsl":0,"id":"SY","desc":"STUTTGART NDB"},
{"type":"NDB","hdg_t":323.6,"dist_nm":45.1,"freq":382,"lat":50.00495600,"lon":8.42955300,"rng_nm":15,"alt_fmsl":0,"id":"FW","desc":"FRANKFURT NDB"},
{"type":"VOR","hdg_t":109,"dist_nm":46.5,"freq":117.8,"lat":49.14275300,"lon":10.23830600,"rng_nm":60,"alt_fmsl":1790,"id":"DKB","desc":"DINKELSBUHL VORTAC"},
{"type":"VOR","hdg_t":173.3,"dist_nm":47.3,"freq":112.5,"lat":48.61840800,"lon":9.25920800,"rng_nm":60,"alt_fmsl":1213,"id":"TGO","desc":"TANGO VORTAC"},
{"type":"NDB","hdg_t":321.8,"dist_nm":49.6,"freq":399,"lat":50.04900000,"lon":8.32866700,"rng_nm":25,"alt_fmsl":490,"id":"WBD","desc":"WIESBADEN NDB"},
{"type":"NDB","hdg_t":84.6,"dist_nm":49.7,"freq":488,"lat":49.47185300,"lon":10.38791900,"rng_nm":25,"alt_fmsl":1112,"id":"ILM","desc":"ILLESHEIM NDB"},
{"type":"SDME","hdg_t":321.1,"dist_nm":49.9,"freq":114.1,"lat":50.04616700,"lon":8.31083300,"rng_nm":40,"alt_fmsl":472,"id":"WIB","desc":"WIESBADEN TACAN"},
{"type":"VOR","hdg_t":348.6,"dist_nm":53.5,"freq":110,"lat":50.27627500,"lon":8.84862500,"rng_nm":60,"alt_fmsl":666,"id":"MTR","desc":"METRO VOR"},
{"type":"NDB","hdg_t":348.7,"dist_nm":53.6,"freq":304,"lat":50.27750000,"lon":8.84972200,"rng_nm":150,"alt_fmsl":0,"id":"MTR","desc":"METRO NDB"},
{"type":"NDB","hdg_t":228.4,"dist_nm":54.2,"freq":431,"lat":48.79796400,"lon":8.09755300,"rng_nm":30,"alt_fmsl":408,"id":"KBA","desc":"KARLSRUHE BADEN BADEN NDB"},
{"type":"SDME","hdg_t":227.9,"dist_nm":55.2,"freq":115.8,"lat":48.78022800,"lon":8.08848600,"rng_nm":25,"alt_fmsl":495,"id":"KBD","desc":"KARLSRUHE BADEN BADEN DME"},
{"type":"NDB","hdg_t":228.4,"dist_nm":55.9,"freq":440,"lat":48.77833200,"lon":8.06722300,"rng_nm":150,"alt_fmsl":0,"id":"SLN","desc":"SOLLINGEN NDB"},
{"type":"NDB","hdg_t":310,"dist_nm":59.4,"freq":338,"lat":50.03305400,"lon":7.94500000,"rng_nm":150,"alt_fmsl":0,"id":"RUD","desc":"RUDESHEIM NDB"},
{"type":"NDB","hdg_t":94.7,"dist_nm":59.5,"freq":452,"lat":49.30966700,"lon":10.63283300,"rng_nm":25,"alt_fmsl":1526,"id":"ANS","desc":"ANSBACH NDB"},
{"type":"SDME","hdg_t":272.4,"dist_nm":60.2,"freq":113.4,"lat":49.43473100,"lon":7.58564700,"rng_nm":80,"alt_fmsl":762,"id":"RMS","desc":"RAMSTEIN TACAN"},
{"type":"VOR","hdg_t":4.6,"dist_nm":60.8,"freq":110.8,"lat":50.41194700,"lon":9.24916400,"rng_nm":130,"alt_fmsl":1601,"id":"GED","desc":"GEDERN VORTAC"},
{"type":"NDB","hdg_t":123.4,"dist_nm":61.5,"freq":375,"lat":48.82936100,"lon":10.41869400,"rng_nm":50,"alt_fmsl":0,"id":"NDG","desc":"NORDLINGEN NDB"},
{"type":"VOR","hdg_t":324.2,"dist_nm":63.1,"freq":116.7,"lat":50.25046100,"lon":8.16251700,"rng_nm":40,"alt_fmsl":1343,"id":"TAU","desc":"TAUNUS VORTAC"},
{"type":"VOR","hdg_t":197.3,"dist_nm":64,"freq":116.1,"lat":48.38158600,"lon":8.64483600,"rng_nm":60,"alt_fmsl":0,"id":"SUL","desc":"SULZ VOR"},
{"type":"NDB","hdg_t":295.3,"dist_nm":65,"freq":394,"lat":49.85472100,"lon":7.60805600,"rng_nm":50,"alt_fmsl":0,"id":"PFF","desc":"PFERDSFELD NDB"},
{"type":"VOR","hdg_t":261.8,"dist_nm":67.6,"freq":114.8,"lat":49.22907200,"lon":7.41789200,"rng_nm":60,"alt_fmsl":1177,"id":"ZWN","desc":"ZWEIBRUCKEN VOR-DME"},
{"type":"NDB","hdg_t":261.7,"dist_nm":67.7,"freq":435,"lat":49.22759200,"lon":7.41658300,"rng_nm":25,"alt_fmsl":0,"id":"ZBN","desc":"ZWEIBRUCKEN NDB"},
{"type":"SDME","hdg_t":260.9,"dist_nm":68.7,"freq":109.1,"lat":49.20933100,"lon":7.39577800,"rng_nm":25,"alt_fmsl":1201,"id":"ZND","desc":"ZWEIBRUCKEN DME"},
{"type":"VOR","hdg_t":292.1,"dist_nm":73.4,"freq":117.5,"lat":49.85023900,"lon":7.36957800,"rng_nm":40,"alt_fmsl":1453,"id":"KIR","desc":"KIRN VORTAC"},
{"type":"VOR","hdg_t":13.5,"dist_nm":73.6,"freq":112.1,"lat":50.59245600,"lon":9.57216900,"rng_nm":100,"alt_fmsl":1138,"id":"FUL","desc":"FULDA VOR-DME"},
{"type":"NDB","hdg_t":229.2,"dist_nm":73.9,"freq":412,"lat":48.58829000,"lon":7.71472300,"rng_nm":50,"alt_fmsl":502,"id":"SE","desc":"Strasbourg NDB"},
{"type":"VOR","hdg_t":241.7,"dist_nm":75.3,"freq":110.45,"lat":48.79624400,"lon":7.44798100,"rng_nm":60,"alt_fmsl":1021,"id":"SAV","desc":"SAVERNE VOR-DME"},
{"type":"NDB","hdg_t":262.3,"dist_nm":75.4,"freq":360,"lat":49.21776900,"lon":7.21951100,"rng_nm":25,"alt_fmsl":0,"id":"SR","desc":"ENSHEIM NDB"},
{"type":"SDME","hdg_t":84.7,"dist_nm":76.9,"freq":113.1,"lat":49.50115800,"lon":11.08015000,"rng_nm":25,"alt_fmsl":1090,"id":"NGD","desc":"NURNBERG DME"},
{"type":"NDB","hdg_t":155.9,"dist_nm":77.6,"freq":407,"lat":48.21804200,"lon":9.91087200,"rng_nm":25,"alt_fmsl":1846,"id":"LUP","desc":"LAUPHEIM NDB"},
{"type":"SDME","hdg_t":295,"dist_nm":79.2,"freq":116.95,"lat":49.94556900,"lon":7.26766900,"rng_nm":25,"alt_fmsl":1716,"id":"HND","desc":"HAHN DME"},
{"type":"NDB","hdg_t":295.9,"dist_nm":79.3,"freq":376,"lat":49.96488300,"lon":7.28087500,"rng_nm":25,"alt_fmsl":1649,"id":"HAN","desc":"HAHN NDB"},
{"type":"NDB","hdg_t":262.8,"dist_nm":79.4,"freq":343,"lat":49.21885300,"lon":7.11834400,"rng_nm":40,"alt_fmsl":1058,"id":"SBN","desc":"SAARBRUCKEN NDB"},
{"type":"SDME","hdg_t":262.5,"dist_nm":79.5,"freq":116.75,"lat":49.21245800,"lon":7.11606700,"rng_nm":25,"alt_fmsl":1088,"id":"SAD","desc":"SAARBRUCKEN DME"},
{"type":"SDME","hdg_t":219.9,"dist_nm":80.6,"freq":108.05,"lat":48.36414200,"lon":7.82751700,"rng_nm":25,"alt_fmsl":556,"id":"LRD","desc":"LAHR DME"},
{"type":"VOR","hdg_t":78.3,"dist_nm":80.7,"freq":114.9,"lat":49.65541400,"lon":11.15081100,"rng_nm":130,"alt_fmsl":1841,"id":"ERL","desc":"ERLANGEN VOR-DME"},
{"type":"NDB","hdg_t":173,"dist_nm":81.4,"freq":401,"lat":48.05435000,"lon":9.36754700,"rng_nm":25,"alt_fmsl":0,"id":"MEG","desc":"MENGEN NDB"},
{"type":"VOR","hdg_t":229.3,"dist_nm":81.5,"freq":115.6,"lat":48.50538900,"lon":7.57197200,"rng_nm":150,"alt_fmsl":577,"id":"STR","desc":"STRASBOURG ENTZHEIM VOR-DME"},
{"type":"NDB","hdg_t":219.8,"dist_nm":81.7,"freq":337,"lat":48.34873600,"lon":7.81116400,"rng_nm":25,"alt_fmsl":0,"id":"LHR","desc":"LAHR NDB"},
{"type":"VOR","hdg_t":96.9,"dist_nm":83.2,"freq":111.2,"lat":49.21437200,"lon":11.22143600,"rng_nm":130,"alt_fmsl":1434,"id":"ALB","desc":"ALLERSBERG VOR-DME"},
{"type":"NDB","hdg_t":85.8,"dist_nm":83.5,"freq":415,"lat":49.48268900,"lon":11.25286100,"rng_nm":50,"alt_fmsl":1096,"id":"RTB","desc":"ROTHENBACH NDB"},
{"type":"NDB","hdg_t":244,"dist_nm":84.8,"freq":424,"lat":48.76722222,"lon":7.19944444,"rng_nm":25,"alt_fmsl":1000,"id":"PHG","desc":"Phalsbourg Boursheid NDB"},
{"type":"NDB","hdg_t":334,"dist_nm":85.6,"freq":489,"lat":50.68003300,"lon":8.13849700,"rng_nm":25,"alt_fmsl":0,"id":"SIL","desc":"SIEGERLAND NDB"},
{"type":"NDB","hdg_t":185.6,"dist_nm":85.9,"freq":442,"lat":47.97638700,"lon":8.91250000,"rng_nm":150,"alt_fmsl":0,"id":"NUN","desc":"NEUHAUSEN NDB"},
{"type":"SDME","hdg_t":333.1,"dist_nm":88.1,"freq":108.05,"lat":50.70676900,"lon":8.07851100,"rng_nm":25,"alt_fmsl":2019,"id":"SLD","desc":"SIEGERLAND DME"},
{"type":"NDB","hdg_t":195.6,"dist_nm":89.7,"freq":490,"lat":47.96072200,"lon":8.52270800,"rng_nm":25,"alt_fmsl":0,"id":"DVI","desc":"DONAUESCHINGEN NDB"},
{"type":"SDME","hdg_t":195.6,"dist_nm":89.7,"freq":110.55,"lat":47.96068100,"lon":8.52255300,"rng_nm":25,"alt_fmsl":2212,"id":"DON","desc":"DONAUESCHINGEN DME"},
{"type":"NDB","hdg_t":310.2,"dist_nm":91,"freq":331,"lat":50.36783300,"lon":7.31366700,"rng_nm":25,"alt_fmsl":671,"id":"NMN","desc":"MENDIG NDB"},
{"type":"SDME","hdg_t":115.8,"dist_nm":92.2,"freq":108.9,"lat":48.71250000,"lon":11.21100000,"rng_nm":40,"alt_fmsl":1296,"id":"NEU","desc":"NEUBURG TACAN"},
{"type":"SDME","hdg_t":301.1,"dist_nm":92.4,"freq":117.1,"lat":50.17866700,"lon":7.06950000,"rng_nm":50,"alt_fmsl":1618,"id":"BUE","desc":"BUCHEL TACAN"},
{"type":"NDB","hdg_t":128.6,"dist_nm":92.6,"freq":318,"lat":48.42429700,"lon":10.93309400,"rng_nm":25,"alt_fmsl":1542,"id":"AGB","desc":"AUGSBURG NDB"},
{"type":"SDME","hdg_t":128.6,"dist_nm":92.6,"freq":115.9,"lat":48.42428300,"lon":10.93295800,"rng_nm":25,"alt_fmsl":1542,"id":"AUG","desc":"AUGSBURG DME"},
{"type":"VOR","hdg_t":121.1,"dist_nm":93.4,"freq":112.8,"lat":48.57941900,"lon":11.12938600,"rng_nm":60,"alt_fmsl":1396,"id":"WLD","desc":"WALDA VOR-DME"},
{"type":"NDB","hdg_t":287.6,"dist_nm":95.2,"freq":474,"lat":49.85916500,"lon":6.78305600,"rng_nm":150,"alt_fmsl":0,"id":"TX","desc":"TRIER NDB"},
{"type":"VOR","hdg_t":256.1,"dist_nm":97.8,"freq":111.25,"lat":48.98644400,"lon":6.71622200,"rng_nm":100,"alt_fmsl":1057,"id":"GTQ","desc":"GROSTENQUIN VOR-DME"}
]
}
