{"success":true,"source":"xp2csv.pl","last_updated":"2013/11/08 14:53:21 UTC"
,"icao":"EDOD","name":"Reinsdorf","lat":51.90169905,"lon":13.19650075,"rwys":2,"ils":0,"index":3171192,"path":"e010n50/e013n51"
,"runways":[
{"len_m":1284,"wid_m":39.93,"hdg":99,"surf":"Turf/grass","rwy1":"10L","lat1":51.90304978,"lon1":13.18741131,"rwy2":"28R","lat2":51.90105022,"lon2":13.20579049},
{"len_m":1284,"wid_m":39.93,"hdg":99,"surf":"Turf/grass","rwy1":"10R","lat1":51.90234788,"lon1":13.18721116,"rwy2":"28L","lat2":51.90034832,"lon2":13.20559004}
]
,"navaids":[
{"type":"SDME","hdg_t":179.3,"dist_nm":8.1,"freq":117.25,"lat":51.76666700,"lon":13.19900000,"rng_nm":90,"alt_fmsl":261,"id":"HOZ","desc":"HOLZDORF TACAN"},
{"type":"NDB","hdg_t":204.9,"dist_nm":8.7,"freq":406,"lat":51.76983300,"lon":13.09750000,"rng_nm":25,"alt_fmsl":316,"id":"HOZ","desc":"HOLZDORF NDB"},
{"type":"VOR","hdg_t":62.4,"dist_nm":15.3,"freq":115.15,"lat":52.01935300,"lon":13.56341400,"rng_nm":130,"alt_fmsl":233,"id":"KLF","desc":"KLASDORF VOR-DME"},
{"type":"NDB","hdg_t":14.7,"dist_nm":27.5,"freq":309,"lat":52.34500000,"lon":13.38666700,"rng_nm":50,"alt_fmsl":147,"id":"MW","desc":"SCHONEFELD NDB"},
{"type":"SDME","hdg_t":21.6,"dist_nm":30.5,"freq":114.4,"lat":52.37452500,"lon":13.50367200,"rng_nm":25,"alt_fmsl":173,"id":"SDD","desc":"SCHONEFELD DME"},
{"type":"NDB","hdg_t":6,"dist_nm":34.2,"freq":347,"lat":52.46828100,"lon":13.29534700,"rng_nm":25,"alt_fmsl":0,"id":"DBR","desc":"HELMHOLTZ NDB"},
{"type":"VOR","hdg_t":12.5,"dist_nm":35.1,"freq":114.1,"lat":52.47310000,"lon":13.40538900,"rng_nm":80,"alt_fmsl":199,"id":"TOF","desc":"TEMPELHOF VOR-DME"},
{"type":"NDB","hdg_t":16.1,"dist_nm":35.7,"freq":327,"lat":52.47286100,"lon":13.46834200,"rng_nm":18,"alt_fmsl":0,"id":"DIP","desc":"PLANTER NDB"},
{"type":"NDB","hdg_t":357.5,"dist_nm":38.6,"freq":392,"lat":52.54505800,"lon":13.15103900,"rng_nm":25,"alt_fmsl":0,"id":"RW","desc":"TEGEL WEST NDB"},
{"type":"VOR","hdg_t":224.2,"dist_nm":38.8,"freq":115.85,"lat":51.43600600,"lon":12.47320600,"rng_nm":80,"alt_fmsl":486,"id":"LEG","desc":"LEIPZIG VOR-DME"},
{"type":"VOR","hdg_t":4.8,"dist_nm":39.7,"freq":112.3,"lat":52.56149700,"lon":13.28755800,"rng_nm":80,"alt_fmsl":118,"id":"TGL","desc":"TEGEL VOR-DME"},
{"type":"NDB","hdg_t":11.7,"dist_nm":41.1,"freq":321,"lat":52.57230800,"lon":13.42616100,"rng_nm":25,"alt_fmsl":0,"id":"GL","desc":"TEGEL EAST NDB"},
{"type":"NDB","hdg_t":8.1,"dist_nm":43.2,"freq":413,"lat":52.61390600,"lon":13.36364400,"rng_nm":50,"alt_fmsl":0,"id":"DLS","desc":"LUBARS NDB"},
{"type":"NDB","hdg_t":226.6,"dist_nm":44,"freq":357,"lat":51.39513600,"lon":12.34319400,"rng_nm":15,"alt_fmsl":0,"id":"MA","desc":"LEIPZIG NDB"},
{"type":"NDB","hdg_t":230.9,"dist_nm":44.2,"freq":340,"lat":51.43402200,"lon":12.28049400,"rng_nm":25,"alt_fmsl":463,"id":"ZIG","desc":"Leipzig NDB"},
{"type":"NDB","hdg_t":230.1,"dist_nm":45.2,"freq":357,"lat":51.41449400,"lon":12.27132500,"rng_nm":15,"alt_fmsl":463,"id":"SKZ","desc":"Schkeuditz NDB"},
{"type":"SDME","hdg_t":232.6,"dist_nm":45.8,"freq":113.5,"lat":51.43431400,"lon":12.22570600,"rng_nm":25,"alt_fmsl":446,"id":"LND","desc":"Schkeuditz North DME"},
{"type":"VOR","hdg_t":48,"dist_nm":46.1,"freq":113.3,"lat":52.41133100,"lon":14.13058900,"rng_nm":50,"alt_fmsl":238,"id":"FWE","desc":"FURSTENWALDE VOR-DME"},
{"type":"SDME","hdg_t":231.3,"dist_nm":46.7,"freq":112.15,"lat":51.41126400,"lon":12.22377500,"rng_nm":25,"alt_fmsl":502,"id":"LED","desc":"LEIPZIG SOUTH DME"},
{"type":"SDME","hdg_t":231.3,"dist_nm":46.7,"freq":112.15,"lat":51.41126400,"lon":12.22377500,"rng_nm":25,"alt_fmsl":486,"id":"LLD","desc":"Schkeuditz South DME"},
{"type":"NDB","hdg_t":149.8,"dist_nm":49.1,"freq":374,"lat":51.19301111,"lon":13.85003056,"rng_nm":15,"alt_fmsl":680,"id":"FS","desc":"DRESDEN NDB"},
{"type":"NDB","hdg_t":235.6,"dist_nm":49.1,"freq":434,"lat":51.43476900,"lon":12.11671100,"rng_nm":15,"alt_fmsl":0,"id":"SK","desc":"LEIPZIG NDB"},
{"type":"SDME","hdg_t":90.4,"dist_nm":49.6,"freq":112.05,"lat":51.88697800,"lon":14.53197000,"rng_nm":25,"alt_fmsl":292,"id":"CDD","desc":"DREWITZ DME"},
{"type":"NDB","hdg_t":89.7,"dist_nm":50.7,"freq":355,"lat":51.89673900,"lon":14.56251400,"rng_nm":25,"alt_fmsl":271,"id":"DRW","desc":"DREWITZ NDB"},
{"type":"SDME","hdg_t":155.3,"dist_nm":50.9,"freq":115.4,"lat":51.12950600,"lon":13.75756900,"rng_nm":25,"alt_fmsl":778,"id":"DND","desc":"DRESDEN DME"},
{"type":"VOR","hdg_t":276.6,"dist_nm":52.3,"freq":110.45,"lat":51.99498900,"lon":11.79430600,"rng_nm":130,"alt_fmsl":209,"id":"MAG","desc":"MAGDEBURG VOR-DME"},
{"type":"VOR","hdg_t":164,"dist_nm":55.3,"freq":114.35,"lat":51.01554700,"lon":13.59888900,"rng_nm":60,"alt_fmsl":1086,"id":"DRN","desc":"DRESDEN VOR-DME"},
{"type":"NDB","hdg_t":280.8,"dist_nm":58.3,"freq":367,"lat":52.07407800,"lon":11.64833300,"rng_nm":35,"alt_fmsl":0,"id":"MU","desc":"MAGDEBURG NDB"},
{"type":"VOR","hdg_t":60.2,"dist_nm":58.8,"freq":116.7,"lat":52.37985600,"lon":14.58560300,"rng_nm":130,"alt_fmsl":98,"id":"SUI","desc":"SUBI VOR-DME"},
{"type":"SDME","hdg_t":280.9,"dist_nm":59,"freq":115.45,"lat":52.07713100,"lon":11.63090000,"rng_nm":25,"alt_fmsl":302,"id":"MGD","desc":"MAGDEBURG DME"},
{"type":"NDB","hdg_t":205.1,"dist_nm":60.1,"freq":330,"lat":50.99377500,"lon":12.52103900,"rng_nm":25,"alt_fmsl":581,"id":"ABU","desc":"ALTENBURG NDB"},
{"type":"VOR","hdg_t":357.8,"dist_nm":60.6,"freq":114.55,"lat":52.91031900,"lon":13.13461400,"rng_nm":80,"alt_fmsl":234,"id":"LWB","desc":"LOWENBERG VOR-DME"},
{"type":"SDME","hdg_t":205.2,"dist_nm":60.8,"freq":115.3,"lat":50.98266900,"lon":12.51226100,"rng_nm":25,"alt_fmsl":624,"id":"AGD","desc":"ALTENBURG DME"},
{"type":"NDB","hdg_t":129.3,"dist_nm":65.9,"freq":359,"lat":51.19881400,"lon":14.54783100,"rng_nm":25,"alt_fmsl":0,"id":"BA","desc":"BAUTZEN NDB"},
{"type":"VOR","hdg_t":241.3,"dist_nm":68.5,"freq":115.25,"lat":51.34311700,"lon":11.59752800,"rng_nm":130,"alt_fmsl":721,"id":"GOT","desc":"GOTEM VOR-DME"},
{"type":"VOR","hdg_t":142.5,"dist_nm":73.2,"freq":115,"lat":50.92815000,"lon":14.36880000,"rng_nm":60,"alt_fmsl":1439,"id":"HDO","desc":"HERMSDORF VOR-DME"},
{"type":"NDB","hdg_t":116.3,"dist_nm":73.7,"freq":432,"lat":51.34362500,"lon":14.95203300,"rng_nm":25,"alt_fmsl":0,"id":"RO","desc":"ROTHENBURG NDB"},
{"type":"VOR","hdg_t":318.9,"dist_nm":91,"freq":117.7,"lat":53.03452500,"lon":11.54621700,"rng_nm":50,"alt_fmsl":92,"id":"BKD","desc":"BRUNKENDORF VOR-DME"},
{"type":"VOR","hdg_t":130.3,"dist_nm":91.4,"freq":114.85,"lat":50.90268100,"lon":15.03190000,"rng_nm":130,"alt_fmsl":1300,"id":"OKX","desc":"FRYDLANT VOR-DME"},
{"type":"VOR","hdg_t":288.2,"dist_nm":93,"freq":117.3,"lat":52.36339400,"lon":10.79521900,"rng_nm":130,"alt_fmsl":413,"id":"HLZ","desc":"HEHLINGEN VOR-DME"},
{"type":"VOR","hdg_t":232.9,"dist_nm":93.1,"freq":113.85,"lat":50.95086900,"lon":11.23668600,"rng_nm":25,"alt_fmsl":1325,"id":"ERF","desc":"ERFURT VOR-DME"},
{"type":"NDB","hdg_t":80.5,"dist_nm":97.4,"freq":390,"lat":52.14040600,"lon":15.79617200,"rng_nm":25,"alt_fmsl":0,"id":"BBM","desc":"BABIMOST NDB"},
{"type":"NDB","hdg_t":285.7,"dist_nm":99,"freq":427,"lat":52.32224400,"lon":10.60615800,"rng_nm":20,"alt_fmsl":0,"id":"BRU","desc":"BRAUNSCHWEIG NDB"}
]
}
