{"success":true,"source":"xp2csv.pl","last_updated":"2013/11/08 14:53:21 UTC"
,"icao":"EDOM","name":"Klein Muehlingen","lat":51.9476667,"lon":11.7698332,"rwys":1,"ils":0,"index":3138427,"path":"e010n50/e011n51"
,"runways":[
{"len_m":451,"wid_m":49.99,"hdg":89,"surf":"Turf/grass","rwy1":"09","lat1":51.94766670,"lon1":11.76654816,"rwy2":"27","lat2":51.94766670,"lon2":11.77311825}
]
,"radios":[
{"type":"CTAF","freq":122,"desc":"INFO"}
]
,"navaids":[
{"type":"VOR","hdg_t":17.7,"dist_nm":2.9,"freq":110.45,"lat":51.99498900,"lon":11.79430600,"rng_nm":130,"alt_fmsl":209,"id":"MAG","desc":"MAGDEBURG VOR-DME"},
{"type":"NDB","hdg_t":329.3,"dist_nm":8.8,"freq":367,"lat":52.07407800,"lon":11.64833300,"rng_nm":35,"alt_fmsl":0,"id":"MU","desc":"MAGDEBURG NDB"},
{"type":"SDME","hdg_t":326.5,"dist_nm":9.3,"freq":115.45,"lat":52.07713100,"lon":11.63090000,"rng_nm":25,"alt_fmsl":302,"id":"MGD","desc":"MAGDEBURG DME"},
{"type":"NDB","hdg_t":157,"dist_nm":33.4,"freq":434,"lat":51.43476900,"lon":12.11671100,"rng_nm":15,"alt_fmsl":0,"id":"SK","desc":"LEIPZIG NDB"},
{"type":"SDME","hdg_t":150.9,"dist_nm":35.2,"freq":113.5,"lat":51.43431400,"lon":12.22570600,"rng_nm":25,"alt_fmsl":446,"id":"LND","desc":"Schkeuditz North DME"},
{"type":"NDB","hdg_t":148,"dist_nm":36.2,"freq":340,"lat":51.43402200,"lon":12.28049400,"rng_nm":25,"alt_fmsl":463,"id":"ZIG","desc":"Leipzig NDB"},
{"type":"SDME","hdg_t":152,"dist_nm":36.4,"freq":112.15,"lat":51.41126400,"lon":12.22377500,"rng_nm":25,"alt_fmsl":502,"id":"LED","desc":"LEIPZIG SOUTH DME"},
{"type":"SDME","hdg_t":152,"dist_nm":36.4,"freq":112.15,"lat":51.41126400,"lon":12.22377500,"rng_nm":25,"alt_fmsl":486,"id":"LLD","desc":"Schkeuditz South DME"},
{"type":"VOR","hdg_t":190.1,"dist_nm":36.8,"freq":115.25,"lat":51.34311700,"lon":11.59752800,"rng_nm":130,"alt_fmsl":721,"id":"GOT","desc":"GOTEM VOR-DME"},
{"type":"NDB","hdg_t":149.4,"dist_nm":37.1,"freq":357,"lat":51.41449400,"lon":12.27132500,"rng_nm":15,"alt_fmsl":463,"id":"SKZ","desc":"Schkeuditz NDB"},
{"type":"NDB","hdg_t":146.9,"dist_nm":39.5,"freq":357,"lat":51.39513600,"lon":12.34319400,"rng_nm":15,"alt_fmsl":0,"id":"MA","desc":"LEIPZIG NDB"},
{"type":"VOR","hdg_t":139.2,"dist_nm":40.4,"freq":115.85,"lat":51.43600600,"lon":12.47320600,"rng_nm":80,"alt_fmsl":486,"id":"LEG","desc":"LEIPZIG VOR-DME"},
{"type":"VOR","hdg_t":305.1,"dist_nm":43.8,"freq":117.3,"lat":52.36339400,"lon":10.79521900,"rng_nm":130,"alt_fmsl":413,"id":"HLZ","desc":"HEHLINGEN VOR-DME"},
{"type":"NDB","hdg_t":298,"dist_nm":48.5,"freq":427,"lat":52.32224400,"lon":10.60615800,"rng_nm":20,"alt_fmsl":0,"id":"BRU","desc":"BRAUNSCHWEIG NDB"},
{"type":"NDB","hdg_t":101.6,"dist_nm":50.5,"freq":406,"lat":51.76983300,"lon":13.09750000,"rng_nm":25,"alt_fmsl":316,"id":"HOZ","desc":"HOLZDORF NDB"},
{"type":"SDME","hdg_t":100.9,"dist_nm":54.2,"freq":117.25,"lat":51.76666700,"lon":13.19900000,"rng_nm":90,"alt_fmsl":261,"id":"HOZ","desc":"HOLZDORF TACAN"},
{"type":"NDB","hdg_t":54.2,"dist_nm":62.3,"freq":392,"lat":52.54505800,"lon":13.15103900,"rng_nm":25,"alt_fmsl":0,"id":"RW","desc":"TEGEL WEST NDB"},
{"type":"VOR","hdg_t":198.6,"dist_nm":63.1,"freq":113.85,"lat":50.95086900,"lon":11.23668600,"rng_nm":25,"alt_fmsl":1325,"id":"ERF","desc":"ERFURT VOR-DME"},
{"type":"NDB","hdg_t":153.5,"dist_nm":63.8,"freq":330,"lat":50.99377500,"lon":12.52103900,"rng_nm":25,"alt_fmsl":581,"id":"ABU","desc":"ALTENBURG NDB"},
{"type":"NDB","hdg_t":67.5,"dist_nm":64.3,"freq":309,"lat":52.34500000,"lon":13.38666700,"rng_nm":50,"alt_fmsl":147,"id":"MW","desc":"SCHONEFELD NDB"},
{"type":"SDME","hdg_t":154,"dist_nm":64.3,"freq":115.3,"lat":50.98266900,"lon":12.51226100,"rng_nm":25,"alt_fmsl":624,"id":"AGD","desc":"ALTENBURG DME"},
{"type":"NDB","hdg_t":60.3,"dist_nm":64.4,"freq":347,"lat":52.46828100,"lon":13.29534700,"rng_nm":25,"alt_fmsl":0,"id":"DBR","desc":"HELMHOLTZ NDB"},
{"type":"SDME","hdg_t":208,"dist_nm":65.4,"freq":112.05,"lat":50.98261100,"lon":10.95771900,"rng_nm":25,"alt_fmsl":1076,"id":"EFD","desc":"ERFURT DME"},
{"type":"VOR","hdg_t":352.9,"dist_nm":65.8,"freq":117.7,"lat":53.03452500,"lon":11.54621700,"rng_nm":50,"alt_fmsl":92,"id":"BKD","desc":"BRUNKENDORF VOR-DME"},
{"type":"NDB","hdg_t":209,"dist_nm":66.1,"freq":425,"lat":50.98260300,"lon":10.92296700,"rng_nm":35,"alt_fmsl":1036,"id":"ERT","desc":"ERFURT NDB"},
{"type":"VOR","hdg_t":85.5,"dist_nm":66.6,"freq":115.15,"lat":52.01935300,"lon":13.56341400,"rng_nm":130,"alt_fmsl":233,"id":"KLF","desc":"KLASDORF VOR-DME"},
{"type":"VOR","hdg_t":56,"dist_nm":67,"freq":112.3,"lat":52.56149700,"lon":13.28755800,"rng_nm":80,"alt_fmsl":118,"id":"TGL","desc":"TEGEL VOR-DME"},
{"type":"VOR","hdg_t":61.7,"dist_nm":68.1,"freq":114.1,"lat":52.47310000,"lon":13.40538900,"rng_nm":80,"alt_fmsl":199,"id":"TOF","desc":"TEMPELHOF VOR-DME"},
{"type":"SDME","hdg_t":67.4,"dist_nm":69,"freq":114.4,"lat":52.37452500,"lon":13.50367200,"rng_nm":25,"alt_fmsl":173,"id":"SDD","desc":"SCHONEFELD DME"},
{"type":"NDB","hdg_t":62.6,"dist_nm":70.1,"freq":327,"lat":52.47286100,"lon":13.46834200,"rng_nm":18,"alt_fmsl":0,"id":"DIP","desc":"PLANTER NDB"},
{"type":"NDB","hdg_t":55,"dist_nm":71,"freq":413,"lat":52.61390600,"lon":13.36364400,"rng_nm":50,"alt_fmsl":0,"id":"DLS","desc":"LUBARS NDB"},
{"type":"NDB","hdg_t":57.7,"dist_nm":71.6,"freq":321,"lat":52.57230800,"lon":13.42616100,"rng_nm":25,"alt_fmsl":0,"id":"GL","desc":"TEGEL EAST NDB"},
{"type":"VOR","hdg_t":285.3,"dist_nm":72.1,"freq":115.2,"lat":52.25032200,"lon":9.88349700,"rng_nm":130,"alt_fmsl":398,"id":"DLE","desc":"LEINE VOR-DME"},
{"type":"NDB","hdg_t":301.7,"dist_nm":74.8,"freq":311,"lat":52.58966700,"lon":10.02950000,"rng_nm":25,"alt_fmsl":173,"id":"CEL","desc":"CELLE NDB"},
{"type":"VOR","hdg_t":40.3,"dist_nm":76.5,"freq":114.55,"lat":52.91031900,"lon":13.13461400,"rng_nm":80,"alt_fmsl":234,"id":"LWB","desc":"LOWENBERG VOR-DME"},
{"type":"NDB","hdg_t":293.9,"dist_nm":78.8,"freq":320,"lat":52.46410300,"lon":9.80508300,"rng_nm":15,"alt_fmsl":0,"id":"HA","desc":"HANNOVER NDB"},
{"type":"NDB","hdg_t":315.6,"dist_nm":82.2,"freq":284,"lat":52.91577200,"lon":10.18806100,"rng_nm":50,"alt_fmsl":329,"id":"FSB","desc":"FASSBERG NDB"},
{"type":"SDME","hdg_t":293,"dist_nm":82.7,"freq":113.95,"lat":52.46876100,"lon":9.69481100,"rng_nm":25,"alt_fmsl":184,"id":"HAD","desc":"HANNOVER DME"},
{"type":"SDME","hdg_t":292.2,"dist_nm":83.6,"freq":116.9,"lat":52.45529400,"lon":9.65936700,"rng_nm":25,"alt_fmsl":171,"id":"HBD","desc":"HANNOVER DME"},
{"type":"NDB","hdg_t":291.5,"dist_nm":86.8,"freq":332,"lat":52.45764400,"lon":9.56731700,"rng_nm":15,"alt_fmsl":0,"id":"HAE","desc":"HANNOVER NDB"},
{"type":"NDB","hdg_t":357.5,"dist_nm":87,"freq":315,"lat":53.39422200,"lon":11.66588900,"rng_nm":25,"alt_fmsl":0,"id":"PAH","desc":"SCHWERIN-PARCHIM NDB"},
{"type":"NDB","hdg_t":291.7,"dist_nm":87.8,"freq":358,"lat":52.46851400,"lon":9.54644400,"rng_nm":15,"alt_fmsl":0,"id":"HW","desc":"HANNOVER NDB"},
{"type":"VOR","hdg_t":128.5,"dist_nm":88.5,"freq":114.35,"lat":51.01554700,"lon":13.59888900,"rng_nm":60,"alt_fmsl":1086,"id":"DRN","desc":"DRESDEN VOR-DME"},
{"type":"SDME","hdg_t":0.3,"dist_nm":88.7,"freq":117.5,"lat":53.42504400,"lon":11.78495800,"rng_nm":25,"alt_fmsl":179,"id":"PMD","desc":"SCHWERIN-PARCHIM DME"},
{"type":"SDME","hdg_t":122.6,"dist_nm":89.2,"freq":115.4,"lat":51.12950600,"lon":13.75756900,"rng_nm":25,"alt_fmsl":778,"id":"DND","desc":"DRESDEN DME"},
{"type":"NDB","hdg_t":119.3,"dist_nm":90.1,"freq":374,"lat":51.19301111,"lon":13.85003056,"rng_nm":15,"alt_fmsl":680,"id":"FS","desc":"DRESDEN NDB"},
{"type":"NDB","hdg_t":290.6,"dist_nm":90.8,"freq":419,"lat":52.45926700,"lon":9.45465800,"rng_nm":25,"alt_fmsl":203,"id":"WUN","desc":"WUNSTORF NDB"},
{"type":"NDB","hdg_t":3,"dist_nm":91,"freq":333,"lat":53.46131700,"lon":11.90715800,"rng_nm":25,"alt_fmsl":0,"id":"PI","desc":"SCHWERIN-PARCHIM NDB"},
{"type":"SDME","hdg_t":290.6,"dist_nm":91.1,"freq":114.85,"lat":52.46033300,"lon":9.44483300,"rng_nm":80,"alt_fmsl":202,"id":"WUN","desc":"WUNSTORF TACAN"},
{"type":"VOR","hdg_t":71.3,"dist_nm":91.5,"freq":113.3,"lat":52.41133100,"lon":14.13058900,"rng_nm":50,"alt_fmsl":238,"id":"FWE","desc":"FURSTENWALDE VOR-DME"},
{"type":"VOR","hdg_t":295.7,"dist_nm":97.2,"freq":116.5,"lat":52.62589200,"lon":9.37199200,"rng_nm":40,"alt_fmsl":190,"id":"NIE","desc":"NIENBURG VOR"},
{"type":"SDME","hdg_t":178.1,"dist_nm":99.6,"freq":110.7,"lat":50.28981400,"lon":11.85523100,"rng_nm":25,"alt_fmsl":1946,"id":"HOD","desc":"HOF DME"},
{"type":"NDB","hdg_t":180.1,"dist_nm":99.9,"freq":484,"lat":50.28462800,"lon":11.76139400,"rng_nm":15,"alt_fmsl":0,"id":"HOF","desc":"HOF NDB"}
]
}
