{"success":true,"source":"xp2csv.pl","last_updated":"2013/11/08 14:53:21 UTC"
,"icao":"EDOQ","name":"Oschatz","lat":51.296,"lon":13.07836363,"rwys":1,"ils":0,"index":3171152,"path":"e010n50/e013n51"
,"runways":[
{"len_m":757,"wid_m":49.99,"hdg":80,"surf":"Turf/grass","rwy1":"08","lat1":51.29541054,"lon1":13.07301305,"rwy2":"26","lat2":51.29658946,"lon2":13.08371420}
]
,"radios":[
{"type":"CTAF","freq":122.2,"desc":"INFO"}
]
,"navaids":[
{"type":"VOR","hdg_t":290.5,"dist_nm":24.2,"freq":115.85,"lat":51.43600600,"lon":12.47320600,"rng_nm":80,"alt_fmsl":486,"id":"LEG","desc":"LEIPZIG VOR-DME"},
{"type":"VOR","hdg_t":130.3,"dist_nm":25.8,"freq":114.35,"lat":51.01554700,"lon":13.59888900,"rng_nm":60,"alt_fmsl":1086,"id":"DRN","desc":"DRESDEN VOR-DME"},
{"type":"SDME","hdg_t":111,"dist_nm":27.5,"freq":115.4,"lat":51.12950600,"lon":13.75756900,"rng_nm":25,"alt_fmsl":778,"id":"DND","desc":"DRESDEN DME"},
{"type":"NDB","hdg_t":229.4,"dist_nm":27.8,"freq":330,"lat":50.99377500,"lon":12.52103900,"rng_nm":25,"alt_fmsl":581,"id":"ABU","desc":"ALTENBURG NDB"},
{"type":"NDB","hdg_t":282.4,"dist_nm":28.2,"freq":357,"lat":51.39513600,"lon":12.34319400,"rng_nm":15,"alt_fmsl":0,"id":"MA","desc":"LEIPZIG NDB"},
{"type":"NDB","hdg_t":1.4,"dist_nm":28.4,"freq":406,"lat":51.76983300,"lon":13.09750000,"rng_nm":25,"alt_fmsl":316,"id":"HOZ","desc":"HOLZDORF NDB"},
{"type":"SDME","hdg_t":228.8,"dist_nm":28.4,"freq":115.3,"lat":50.98266900,"lon":12.51226100,"rng_nm":25,"alt_fmsl":624,"id":"AGD","desc":"ALTENBURG DME"},
{"type":"SDME","hdg_t":9,"dist_nm":28.6,"freq":117.25,"lat":51.76666700,"lon":13.19900000,"rng_nm":90,"alt_fmsl":261,"id":"HOZ","desc":"HOLZDORF TACAN"},
{"type":"NDB","hdg_t":101.7,"dist_nm":29.7,"freq":374,"lat":51.19301111,"lon":13.85003056,"rng_nm":15,"alt_fmsl":680,"id":"FS","desc":"DRESDEN NDB"},
{"type":"NDB","hdg_t":285.7,"dist_nm":31.1,"freq":340,"lat":51.43402200,"lon":12.28049400,"rng_nm":25,"alt_fmsl":463,"id":"ZIG","desc":"Leipzig NDB"},
{"type":"NDB","hdg_t":283.5,"dist_nm":31.1,"freq":357,"lat":51.41449400,"lon":12.27132500,"rng_nm":15,"alt_fmsl":463,"id":"SKZ","desc":"Schkeuditz NDB"},
{"type":"SDME","hdg_t":282.4,"dist_nm":32.8,"freq":112.15,"lat":51.41126400,"lon":12.22377500,"rng_nm":25,"alt_fmsl":502,"id":"LED","desc":"LEIPZIG SOUTH DME"},
{"type":"SDME","hdg_t":282.4,"dist_nm":32.8,"freq":112.15,"lat":51.41126400,"lon":12.22377500,"rng_nm":25,"alt_fmsl":486,"id":"LLD","desc":"Schkeuditz South DME"},
{"type":"SDME","hdg_t":284.8,"dist_nm":33.1,"freq":113.5,"lat":51.43431400,"lon":12.22570600,"rng_nm":25,"alt_fmsl":446,"id":"LND","desc":"Schkeuditz North DME"},
{"type":"NDB","hdg_t":283.3,"dist_nm":37.1,"freq":434,"lat":51.43476900,"lon":12.11671100,"rng_nm":15,"alt_fmsl":0,"id":"SK","desc":"LEIPZIG NDB"},
{"type":"VOR","hdg_t":22.4,"dist_nm":47,"freq":115.15,"lat":52.01935300,"lon":13.56341400,"rng_nm":130,"alt_fmsl":233,"id":"KLF","desc":"KLASDORF VOR-DME"},
{"type":"VOR","hdg_t":113.8,"dist_nm":53.5,"freq":115,"lat":50.92815000,"lon":14.36880000,"rng_nm":60,"alt_fmsl":1439,"id":"HDO","desc":"HERMSDORF VOR-DME"},
{"type":"NDB","hdg_t":95.4,"dist_nm":55.7,"freq":359,"lat":51.19881400,"lon":14.54783100,"rng_nm":25,"alt_fmsl":0,"id":"BA","desc":"BAUTZEN NDB"},
{"type":"VOR","hdg_t":273.4,"dist_nm":55.8,"freq":115.25,"lat":51.34311700,"lon":11.59752800,"rng_nm":130,"alt_fmsl":721,"id":"GOT","desc":"GOTEM VOR-DME"},
{"type":"VOR","hdg_t":311.6,"dist_nm":63.7,"freq":110.45,"lat":51.99498900,"lon":11.79430600,"rng_nm":130,"alt_fmsl":209,"id":"MAG","desc":"MAGDEBURG VOR-DME"},
{"type":"NDB","hdg_t":10.2,"dist_nm":64,"freq":309,"lat":52.34500000,"lon":13.38666700,"rng_nm":50,"alt_fmsl":147,"id":"MW","desc":"SCHONEFELD NDB"},
{"type":"SDME","hdg_t":56.2,"dist_nm":64.9,"freq":112.05,"lat":51.88697800,"lon":14.53197000,"rng_nm":25,"alt_fmsl":292,"id":"CDD","desc":"DREWITZ DME"},
{"type":"NDB","hdg_t":56.3,"dist_nm":66.2,"freq":355,"lat":51.89673900,"lon":14.56251400,"rng_nm":25,"alt_fmsl":271,"id":"DRW","desc":"DREWITZ NDB"},
{"type":"NDB","hdg_t":184.5,"dist_nm":66.2,"freq":365,"lat":50.19578900,"lon":12.94168600,"rng_nm":25,"alt_fmsl":1990,"id":"L","desc":"VRATA NDB"},
{"type":"SDME","hdg_t":13.5,"dist_nm":66.7,"freq":114.4,"lat":52.37452500,"lon":13.50367200,"rng_nm":25,"alt_fmsl":173,"id":"SDD","desc":"SCHONEFELD DME"},
{"type":"NDB","hdg_t":86.9,"dist_nm":70.5,"freq":432,"lat":51.34362500,"lon":14.95203300,"rng_nm":25,"alt_fmsl":0,"id":"RO","desc":"ROTHENBURG NDB"},
{"type":"NDB","hdg_t":6.4,"dist_nm":70.8,"freq":347,"lat":52.46828100,"lon":13.29534700,"rng_nm":25,"alt_fmsl":0,"id":"DBR","desc":"HELMHOLTZ NDB"},
{"type":"NDB","hdg_t":311.7,"dist_nm":70.9,"freq":367,"lat":52.07407800,"lon":11.64833300,"rng_nm":35,"alt_fmsl":0,"id":"MU","desc":"MAGDEBURG NDB"},
{"type":"SDME","hdg_t":311.5,"dist_nm":71.5,"freq":115.45,"lat":52.07713100,"lon":11.63090000,"rng_nm":25,"alt_fmsl":302,"id":"MGD","desc":"MAGDEBURG DME"},
{"type":"VOR","hdg_t":9.6,"dist_nm":71.7,"freq":114.1,"lat":52.47310000,"lon":13.40538900,"rng_nm":80,"alt_fmsl":199,"id":"TOF","desc":"TEMPELHOF VOR-DME"},
{"type":"NDB","hdg_t":11.4,"dist_nm":72.1,"freq":327,"lat":52.47286100,"lon":13.46834200,"rng_nm":18,"alt_fmsl":0,"id":"DIP","desc":"PLANTER NDB"},
{"type":"VOR","hdg_t":254.1,"dist_nm":72.6,"freq":113.85,"lat":50.95086900,"lon":11.23668600,"rng_nm":25,"alt_fmsl":1325,"id":"ERF","desc":"ERFURT VOR-DME"},
{"type":"NDB","hdg_t":2,"dist_nm":75,"freq":392,"lat":52.54505800,"lon":13.15103900,"rng_nm":25,"alt_fmsl":0,"id":"RW","desc":"TEGEL WEST NDB"},
{"type":"NDB","hdg_t":161.7,"dist_nm":75.7,"freq":386,"lat":50.09705800,"lon":13.69071700,"rng_nm":50,"alt_fmsl":0,"id":"RAK","desc":"RAKOVNIK NDB"},
{"type":"SDME","hdg_t":218,"dist_nm":76.2,"freq":110.7,"lat":50.28981400,"lon":11.85523100,"rng_nm":25,"alt_fmsl":1946,"id":"HOD","desc":"HOF DME"},
{"type":"VOR","hdg_t":5.7,"dist_nm":76.4,"freq":112.3,"lat":52.56149700,"lon":13.28755800,"rng_nm":80,"alt_fmsl":118,"id":"TGL","desc":"TEGEL VOR-DME"},
{"type":"VOR","hdg_t":106.9,"dist_nm":77.5,"freq":114.85,"lat":50.90268100,"lon":15.03190000,"rng_nm":130,"alt_fmsl":1300,"id":"OKX","desc":"FRYDLANT VOR-DME"},
{"type":"VOR","hdg_t":29.8,"dist_nm":77.6,"freq":113.3,"lat":52.41133100,"lon":14.13058900,"rng_nm":50,"alt_fmsl":238,"id":"FWE","desc":"FURSTENWALDE VOR-DME"},
{"type":"NDB","hdg_t":9.4,"dist_nm":77.7,"freq":321,"lat":52.57230800,"lon":13.42616100,"rng_nm":25,"alt_fmsl":0,"id":"GL","desc":"TEGEL EAST NDB"},
{"type":"VOR","hdg_t":199.4,"dist_nm":78.2,"freq":115.7,"lat":50.06514700,"lon":12.40573900,"rng_nm":75,"alt_fmsl":1600,"id":"OKG","desc":"CHEB VOR-DME"},
{"type":"NDB","hdg_t":220,"dist_nm":78.7,"freq":484,"lat":50.28462800,"lon":11.76139400,"rng_nm":15,"alt_fmsl":0,"id":"HOF","desc":"HOF NDB"},
{"type":"NDB","hdg_t":7.5,"dist_nm":79.8,"freq":413,"lat":52.61390600,"lon":13.36364400,"rng_nm":50,"alt_fmsl":0,"id":"DLS","desc":"LUBARS NDB"},
{"type":"VOR","hdg_t":132.9,"dist_nm":81,"freq":108.6,"lat":50.36655800,"lon":14.62136400,"rng_nm":25,"alt_fmsl":1000,"id":"NER","desc":"NERATOVICE VOR-DME"},
{"type":"SDME","hdg_t":257.6,"dist_nm":82.3,"freq":112.05,"lat":50.98261100,"lon":10.95771900,"rng_nm":25,"alt_fmsl":1076,"id":"EFD","desc":"ERFURT DME"},
{"type":"NDB","hdg_t":141.1,"dist_nm":83,"freq":333,"lat":50.21106100,"lon":14.42842800,"rng_nm":25,"alt_fmsl":0,"id":"VO","desc":"BREZANY NDB"},
{"type":"NDB","hdg_t":257.8,"dist_nm":83.5,"freq":425,"lat":50.98260300,"lon":10.92296700,"rng_nm":35,"alt_fmsl":1036,"id":"ERT","desc":"ERFURT NDB"},
{"type":"NDB","hdg_t":146.4,"dist_nm":84.3,"freq":372,"lat":50.11992800,"lon":14.28659700,"rng_nm":25,"alt_fmsl":0,"id":"L","desc":"LIBOC NDB"},
{"type":"NDB","hdg_t":144.1,"dist_nm":84.8,"freq":356,"lat":50.14416700,"lon":14.36722200,"rng_nm":50,"alt_fmsl":0,"id":"PR","desc":"RUZYNE NORTH NDB"},
{"type":"VOR","hdg_t":147.4,"dist_nm":85,"freq":112.6,"lat":50.09647800,"lon":14.26280800,"rng_nm":100,"alt_fmsl":1200,"id":"OKL","desc":"PRAHA VOR-DME"},
{"type":"VOR","hdg_t":40.1,"dist_nm":85.9,"freq":116.7,"lat":52.37985600,"lon":14.58560300,"rng_nm":130,"alt_fmsl":98,"id":"SUI","desc":"SUBI VOR-DME"},
{"type":"NDB","hdg_t":147,"dist_nm":86.2,"freq":429,"lat":50.08527500,"lon":14.29239400,"rng_nm":25,"alt_fmsl":0,"id":"D","desc":"DEJVICE NDB"},
{"type":"NDB","hdg_t":146.1,"dist_nm":89.7,"freq":307,"lat":50.04770600,"lon":14.36926400,"rng_nm":25,"alt_fmsl":0,"id":"PG","desc":"RUZYNE MIDDLE NDB"},
{"type":"NDB","hdg_t":138.5,"dist_nm":90.8,"freq":300,"lat":50.15261100,"lon":14.63661700,"rng_nm":25,"alt_fmsl":0,"id":"KD","desc":"KBELY NDB"},
{"type":"VOR","hdg_t":215.5,"dist_nm":96,"freq":110.6,"lat":49.98515300,"lon":11.63666900,"rng_nm":40,"alt_fmsl":1625,"id":"BAY","desc":"BAYREUTH VOR"},
{"type":"VOR","hdg_t":1.2,"dist_nm":97,"freq":114.55,"lat":52.91031900,"lon":13.13461400,"rng_nm":80,"alt_fmsl":234,"id":"LWB","desc":"LOWENBERG VOR-DME"},
{"type":"NDB","hdg_t":175,"dist_nm":97.2,"freq":398,"lat":49.68312200,"lon":13.29424200,"rng_nm":50,"alt_fmsl":0,"id":"D","desc":"LINE NDB"},
{"type":"SDME","hdg_t":157.6,"dist_nm":97.8,"freq":117.6,"lat":49.78487200,"lon":14.03473900,"rng_nm":130,"alt_fmsl":2300,"id":"PSK","desc":"PISEK DME"},
{"type":"NDB","hdg_t":216.2,"dist_nm":99,"freq":420,"lat":49.95688300,"lon":11.56515800,"rng_nm":25,"alt_fmsl":0,"id":"BAZ","desc":"BAYREUTH NDB"}
]
}
