{"success":true,"source":"xp2csv.pl","last_updated":"2013/11/08 14:53:21 UTC"
,"icao":"EDOX","name":"Renneritz","lat":51.594455,"lon":12.23665523,"rwys":1,"ils":0,"index":3154784,"path":"e010n50/e012n51"
,"runways":[
{"len_m":1003,"wid_m":29.87,"hdg":70,"surf":"Turf/grass","rwy1":"07","lat1":51.59292148,"lon1":12.22984545,"rwy2":"25","lat2":51.59598852,"lon2":12.24346501}
]
,"radios":[
{"type":"CTAF","freq":123.48,"desc":"INFO"}
]
,"navaids":[
{"type":"SDME","hdg_t":182.4,"dist_nm":9.6,"freq":113.5,"lat":51.43431400,"lon":12.22570600,"rng_nm":25,"alt_fmsl":446,"id":"LND","desc":"Schkeuditz North DME"},
{"type":"NDB","hdg_t":170.3,"dist_nm":9.7,"freq":340,"lat":51.43402200,"lon":12.28049400,"rng_nm":25,"alt_fmsl":463,"id":"ZIG","desc":"Leipzig NDB"},
{"type":"NDB","hdg_t":205.1,"dist_nm":10.5,"freq":434,"lat":51.43476900,"lon":12.11671100,"rng_nm":15,"alt_fmsl":0,"id":"SK","desc":"LEIPZIG NDB"},
{"type":"NDB","hdg_t":173.1,"dist_nm":10.8,"freq":357,"lat":51.41449400,"lon":12.27132500,"rng_nm":15,"alt_fmsl":463,"id":"SKZ","desc":"Schkeuditz NDB"},
{"type":"SDME","hdg_t":182.5,"dist_nm":11,"freq":112.15,"lat":51.41126400,"lon":12.22377500,"rng_nm":25,"alt_fmsl":502,"id":"LED","desc":"LEIPZIG SOUTH DME"},
{"type":"SDME","hdg_t":182.5,"dist_nm":11,"freq":112.15,"lat":51.41126400,"lon":12.22377500,"rng_nm":25,"alt_fmsl":486,"id":"LLD","desc":"Schkeuditz South DME"},
{"type":"NDB","hdg_t":161.5,"dist_nm":12.6,"freq":357,"lat":51.39513600,"lon":12.34319400,"rng_nm":15,"alt_fmsl":0,"id":"MA","desc":"LEIPZIG NDB"},
{"type":"VOR","hdg_t":136.9,"dist_nm":13,"freq":115.85,"lat":51.43600600,"lon":12.47320600,"rng_nm":80,"alt_fmsl":486,"id":"LEG","desc":"LEIPZIG VOR-DME"},
{"type":"VOR","hdg_t":238,"dist_nm":28.3,"freq":115.25,"lat":51.34311700,"lon":11.59752800,"rng_nm":130,"alt_fmsl":721,"id":"GOT","desc":"GOTEM VOR-DME"},
{"type":"VOR","hdg_t":325.7,"dist_nm":29.1,"freq":110.45,"lat":51.99498900,"lon":11.79430600,"rng_nm":130,"alt_fmsl":209,"id":"MAG","desc":"MAGDEBURG VOR-DME"},
{"type":"NDB","hdg_t":71.5,"dist_nm":33.8,"freq":406,"lat":51.76983300,"lon":13.09750000,"rng_nm":25,"alt_fmsl":316,"id":"HOZ","desc":"HOLZDORF NDB"},
{"type":"NDB","hdg_t":322.9,"dist_nm":36.1,"freq":367,"lat":52.07407800,"lon":11.64833300,"rng_nm":35,"alt_fmsl":0,"id":"MU","desc":"MAGDEBURG NDB"},
{"type":"SDME","hdg_t":322.3,"dist_nm":36.7,"freq":115.45,"lat":52.07713100,"lon":11.63090000,"rng_nm":25,"alt_fmsl":302,"id":"MGD","desc":"MAGDEBURG DME"},
{"type":"SDME","hdg_t":73.5,"dist_nm":37.3,"freq":117.25,"lat":51.76666700,"lon":13.19900000,"rng_nm":90,"alt_fmsl":261,"id":"HOZ","desc":"HOLZDORF TACAN"},
{"type":"NDB","hdg_t":163.3,"dist_nm":37.6,"freq":330,"lat":50.99377500,"lon":12.52103900,"rng_nm":25,"alt_fmsl":581,"id":"ABU","desc":"ALTENBURG NDB"},
{"type":"SDME","hdg_t":164.1,"dist_nm":38.1,"freq":115.3,"lat":50.98266900,"lon":12.51226100,"rng_nm":25,"alt_fmsl":624,"id":"AGD","desc":"ALTENBURG DME"},
{"type":"VOR","hdg_t":224.6,"dist_nm":53.9,"freq":113.85,"lat":50.95086900,"lon":11.23668600,"rng_nm":25,"alt_fmsl":1325,"id":"ERF","desc":"ERFURT VOR-DME"},
{"type":"VOR","hdg_t":62.1,"dist_nm":55.6,"freq":115.15,"lat":52.01935300,"lon":13.56341400,"rng_nm":130,"alt_fmsl":233,"id":"KLF","desc":"KLASDORF VOR-DME"},
{"type":"SDME","hdg_t":233.1,"dist_nm":60.5,"freq":112.05,"lat":50.98261100,"lon":10.95771900,"rng_nm":25,"alt_fmsl":1076,"id":"EFD","desc":"ERFURT DME"},
{"type":"NDB","hdg_t":233.9,"dist_nm":61.6,"freq":425,"lat":50.98260300,"lon":10.92296700,"rng_nm":35,"alt_fmsl":1036,"id":"ERT","desc":"ERFURT NDB"},
{"type":"VOR","hdg_t":123.6,"dist_nm":61.9,"freq":114.35,"lat":51.01554700,"lon":13.59888900,"rng_nm":60,"alt_fmsl":1086,"id":"DRN","desc":"DRESDEN VOR-DME"},
{"type":"NDB","hdg_t":42.9,"dist_nm":62,"freq":309,"lat":52.34500000,"lon":13.38666700,"rng_nm":50,"alt_fmsl":147,"id":"MW","desc":"SCHONEFELD NDB"},
{"type":"SDME","hdg_t":115.4,"dist_nm":63.6,"freq":115.4,"lat":51.12950600,"lon":13.75756900,"rng_nm":25,"alt_fmsl":778,"id":"DND","desc":"DRESDEN DME"},
{"type":"NDB","hdg_t":111,"dist_nm":65.2,"freq":374,"lat":51.19301111,"lon":13.85003056,"rng_nm":15,"alt_fmsl":680,"id":"FS","desc":"DRESDEN NDB"},
{"type":"NDB","hdg_t":36.3,"dist_nm":65.5,"freq":347,"lat":52.46828100,"lon":13.29534700,"rng_nm":25,"alt_fmsl":0,"id":"DBR","desc":"HELMHOLTZ NDB"},
{"type":"NDB","hdg_t":30.2,"dist_nm":66.3,"freq":392,"lat":52.54505800,"lon":13.15103900,"rng_nm":25,"alt_fmsl":0,"id":"RW","desc":"TEGEL WEST NDB"},
{"type":"SDME","hdg_t":44.5,"dist_nm":66.3,"freq":114.4,"lat":52.37452500,"lon":13.50367200,"rng_nm":25,"alt_fmsl":173,"id":"SDD","desc":"SCHONEFELD DME"},
{"type":"VOR","hdg_t":38.9,"dist_nm":68.2,"freq":114.1,"lat":52.47310000,"lon":13.40538900,"rng_nm":80,"alt_fmsl":199,"id":"TOF","desc":"TEMPELHOF VOR-DME"},
{"type":"NDB","hdg_t":40.3,"dist_nm":69.7,"freq":327,"lat":52.47286100,"lon":13.46834200,"rng_nm":18,"alt_fmsl":0,"id":"DIP","desc":"PLANTER NDB"},
{"type":"VOR","hdg_t":33.3,"dist_nm":69.9,"freq":112.3,"lat":52.56149700,"lon":13.28755800,"rng_nm":80,"alt_fmsl":118,"id":"TGL","desc":"TEGEL VOR-DME"},
{"type":"VOR","hdg_t":311.3,"dist_nm":70.6,"freq":117.3,"lat":52.36339400,"lon":10.79521900,"rng_nm":130,"alt_fmsl":413,"id":"HLZ","desc":"HEHLINGEN VOR-DME"},
{"type":"NDB","hdg_t":36.3,"dist_nm":73.4,"freq":321,"lat":52.57230800,"lon":13.42616100,"rng_nm":25,"alt_fmsl":0,"id":"GL","desc":"TEGEL EAST NDB"},
{"type":"NDB","hdg_t":33.8,"dist_nm":74,"freq":413,"lat":52.61390600,"lon":13.36364400,"rng_nm":50,"alt_fmsl":0,"id":"DLS","desc":"LUBARS NDB"},
{"type":"NDB","hdg_t":306.4,"dist_nm":74.6,"freq":427,"lat":52.32224400,"lon":10.60615800,"rng_nm":20,"alt_fmsl":0,"id":"BRU","desc":"BRAUNSCHWEIG NDB"},
{"type":"SDME","hdg_t":190.6,"dist_nm":79.6,"freq":110.7,"lat":50.28981400,"lon":11.85523100,"rng_nm":25,"alt_fmsl":1946,"id":"HOD","desc":"HOF DME"},
{"type":"NDB","hdg_t":193,"dist_nm":80.7,"freq":484,"lat":50.28462800,"lon":11.76139400,"rng_nm":15,"alt_fmsl":0,"id":"HOF","desc":"HOF NDB"},
{"type":"VOR","hdg_t":54.3,"dist_nm":85.6,"freq":113.3,"lat":52.41133100,"lon":14.13058900,"rng_nm":50,"alt_fmsl":238,"id":"FWE","desc":"FURSTENWALDE VOR-DME"},
{"type":"VOR","hdg_t":22.3,"dist_nm":85.7,"freq":114.55,"lat":52.91031900,"lon":13.13461400,"rng_nm":80,"alt_fmsl":234,"id":"LWB","desc":"LOWENBERG VOR-DME"},
{"type":"SDME","hdg_t":77.4,"dist_nm":87.3,"freq":112.05,"lat":51.88697800,"lon":14.53197000,"rng_nm":25,"alt_fmsl":292,"id":"CDD","desc":"DREWITZ DME"},
{"type":"NDB","hdg_t":162,"dist_nm":88.1,"freq":365,"lat":50.19578900,"lon":12.94168600,"rng_nm":25,"alt_fmsl":1990,"id":"L","desc":"VRATA NDB"},
{"type":"NDB","hdg_t":77.2,"dist_nm":88.6,"freq":355,"lat":51.89673900,"lon":14.56251400,"rng_nm":25,"alt_fmsl":271,"id":"DRW","desc":"DREWITZ NDB"},
{"type":"VOR","hdg_t":115.6,"dist_nm":89.7,"freq":115,"lat":50.92815000,"lon":14.36880000,"rng_nm":60,"alt_fmsl":1439,"id":"HDO","desc":"HERMSDORF VOR-DME"},
{"type":"NDB","hdg_t":104.3,"dist_nm":90,"freq":359,"lat":51.19881400,"lon":14.54783100,"rng_nm":25,"alt_fmsl":0,"id":"BA","desc":"BAUTZEN NDB"},
{"type":"VOR","hdg_t":343.8,"dist_nm":90.1,"freq":117.7,"lat":53.03452500,"lon":11.54621700,"rng_nm":50,"alt_fmsl":92,"id":"BKD","desc":"BRUNKENDORF VOR-DME"},
{"type":"VOR","hdg_t":175.9,"dist_nm":92,"freq":115.7,"lat":50.06514700,"lon":12.40573900,"rng_nm":75,"alt_fmsl":1600,"id":"OKG","desc":"CHEB VOR-DME"},
{"type":"VOR","hdg_t":295.1,"dist_nm":95.8,"freq":115.2,"lat":52.25032200,"lon":9.88349700,"rng_nm":130,"alt_fmsl":398,"id":"DLE","desc":"LEINE VOR-DME"},
{"type":"VOR","hdg_t":60.6,"dist_nm":99,"freq":116.7,"lat":52.37985600,"lon":14.58560300,"rng_nm":130,"alt_fmsl":98,"id":"SUI","desc":"SUBI VOR-DME"},
{"type":"VOR","hdg_t":193.5,"dist_nm":99.3,"freq":110.6,"lat":49.98515300,"lon":11.63666900,"rng_nm":40,"alt_fmsl":1625,"id":"BAY","desc":"BAYREUTH VOR"}
]
}
