{"success":true,"source":"xp2csv.pl","last_updated":"2013/11/08 14:53:21 UTC"
,"icao":"EDWM","name":"Weser-wuemme","lat":53.05366529,"lon":9.20872596,"rwys":1,"ils":0,"index":3105728,"path":"e000n50/e009n53"
,"runways":[
{"len_m":851,"wid_m":29.87,"hdg":176,"surf":"Turf/grass","rwy1":"18","lat1":53.05748363,"lon1":9.20835939,"rwy2":"36","lat2":53.04984695,"lon2":9.20909254}
]
,"radios":[
{"type":"TWR","freq":122.6,"desc":"Weser-Wuemme Info"}
]
,"navaids":[
{"type":"NDB","hdg_t":268.7,"dist_nm":10.8,"freq":318,"lat":53.04944400,"lon":8.90888900,"rng_nm":25,"alt_fmsl":50,"id":"HIG","desc":"Bremen NDB"},
{"type":"VOR","hdg_t":268,"dist_nm":15.4,"freq":117.45,"lat":53.04405000,"lon":8.78213900,"rng_nm":60,"alt_fmsl":40,"id":"BMN","desc":"BREMEN VOR-DME"},
{"type":"NDB","hdg_t":268.5,"dist_nm":19.5,"freq":276,"lat":53.04416700,"lon":8.67000000,"rng_nm":25,"alt_fmsl":50,"id":"BW","desc":"Bremen NDB"},
{"type":"VOR","hdg_t":325.8,"dist_nm":21.3,"freq":112.9,"lat":53.34765800,"lon":8.87534200,"rng_nm":60,"alt_fmsl":0,"id":"WSR","desc":"WESER VOR"},
{"type":"VOR","hdg_t":166.9,"dist_nm":26.3,"freq":116.5,"lat":52.62589200,"lon":9.37199200,"rng_nm":40,"alt_fmsl":190,"id":"NIE","desc":"NIENBURG VOR"},
{"type":"NDB","hdg_t":102.7,"dist_nm":36.4,"freq":284,"lat":52.91577200,"lon":10.18806100,"rng_nm":50,"alt_fmsl":329,"id":"FSB","desc":"FASSBERG NDB"},
{"type":"SDME","hdg_t":166.3,"dist_nm":36.6,"freq":114.85,"lat":52.46033300,"lon":9.44483300,"rng_nm":80,"alt_fmsl":202,"id":"WUN","desc":"WUNSTORF TACAN"},
{"type":"NDB","hdg_t":165.8,"dist_nm":36.8,"freq":419,"lat":52.45926700,"lon":9.45465800,"rng_nm":25,"alt_fmsl":203,"id":"WUN","desc":"WUNSTORF NDB"},
{"type":"NDB","hdg_t":160.5,"dist_nm":37.2,"freq":358,"lat":52.46851400,"lon":9.54644400,"rng_nm":15,"alt_fmsl":0,"id":"HW","desc":"HANNOVER NDB"},
{"type":"NDB","hdg_t":159.8,"dist_nm":38.1,"freq":332,"lat":52.45764400,"lon":9.56731700,"rng_nm":15,"alt_fmsl":0,"id":"HAE","desc":"HANNOVER NDB"},
{"type":"VOR","hdg_t":20.8,"dist_nm":38.6,"freq":115.1,"lat":53.65420000,"lon":9.59505600,"rng_nm":130,"alt_fmsl":50,"id":"LBE","desc":"ELBE VOR-DME"},
{"type":"NDB","hdg_t":225,"dist_nm":39,"freq":325,"lat":52.59165800,"lon":8.45341700,"rng_nm":35,"alt_fmsl":191,"id":"DP","desc":"DIEPHOLZ NDB"},
{"type":"SDME","hdg_t":153,"dist_nm":39.3,"freq":113.95,"lat":52.46876100,"lon":9.69481100,"rng_nm":25,"alt_fmsl":184,"id":"HAD","desc":"HANNOVER DME"},
{"type":"NDB","hdg_t":37.1,"dist_nm":39.4,"freq":350,"lat":53.57548300,"lon":9.87581100,"rng_nm":15,"alt_fmsl":0,"id":"FU","desc":"HAMBURG WEST NDB"},
{"type":"SDME","hdg_t":155.2,"dist_nm":39.5,"freq":116.9,"lat":52.45529400,"lon":9.65936700,"rng_nm":25,"alt_fmsl":171,"id":"HBD","desc":"HANNOVER DME"},
{"type":"NDB","hdg_t":256.2,"dist_nm":40.6,"freq":290,"lat":52.88805400,"lon":8.12250000,"rng_nm":150,"alt_fmsl":0,"id":"AHL","desc":"AHLHORN NDB"},
{"type":"NDB","hdg_t":132.6,"dist_nm":40.8,"freq":311,"lat":52.58966700,"lon":10.02950000,"rng_nm":25,"alt_fmsl":173,"id":"CEL","desc":"CELLE NDB"},
{"type":"NDB","hdg_t":148.2,"dist_nm":41.5,"freq":320,"lat":52.46410300,"lon":9.80508300,"rng_nm":15,"alt_fmsl":0,"id":"HA","desc":"HANNOVER NDB"},
{"type":"SDME","hdg_t":38.6,"dist_nm":44.9,"freq":115.8,"lat":53.63530600,"lon":9.99413900,"rng_nm":25,"alt_fmsl":66,"id":"ALF","desc":"ALSTER DME"},
{"type":"NDB","hdg_t":185.4,"dist_nm":46,"freq":368,"lat":52.29116700,"lon":9.09100000,"rng_nm":25,"alt_fmsl":292,"id":"BYC","desc":"BUCKEBURG NDB"},
{"type":"NDB","hdg_t":341.9,"dist_nm":46.2,"freq":372,"lat":53.78516700,"lon":8.80616700,"rng_nm":30,"alt_fmsl":72,"id":"NDO","desc":"NORDHOLZ NDB"},
{"type":"NDB","hdg_t":32.6,"dist_nm":47.2,"freq":323,"lat":53.71416700,"lon":9.92430000,"rng_nm":15,"alt_fmsl":0,"id":"GT","desc":"HAMBURG NORTH NDB"},
{"type":"SDME","hdg_t":335.3,"dist_nm":47.3,"freq":117.1,"lat":53.76900000,"lon":8.65350000,"rng_nm":60,"alt_fmsl":120,"id":"NDO","desc":"NORDHOLZ TACAN"},
{"type":"NDB","hdg_t":39.6,"dist_nm":48.8,"freq":339,"lat":53.67697200,"lon":10.08320300,"rng_nm":30,"alt_fmsl":0,"id":"HOS","desc":"HAMBURG NDB"},
{"type":"NDB","hdg_t":303.5,"dist_nm":51.2,"freq":390,"lat":53.51972200,"lon":8.01527800,"rng_nm":50,"alt_fmsl":0,"id":"JEV","desc":"JEVER NDB"},
{"type":"VOR","hdg_t":42.9,"dist_nm":52.1,"freq":113.1,"lat":53.68557500,"lon":10.20499700,"rng_nm":130,"alt_fmsl":187,"id":"HAM","desc":"HAMBURG VORTAC"},
{"type":"VOR","hdg_t":152.6,"dist_nm":54.2,"freq":115.2,"lat":52.25032200,"lon":9.88349700,"rng_nm":130,"alt_fmsl":398,"id":"DLE","desc":"LEINE VOR-DME"},
{"type":"SDME","hdg_t":299.9,"dist_nm":61.2,"freq":113.5,"lat":53.55433300,"lon":7.72516700,"rng_nm":60,"alt_fmsl":61,"id":"WTM","desc":"WITTMUNDHAFEN TACAN"},
{"type":"VOR","hdg_t":213.7,"dist_nm":61.3,"freq":114.3,"lat":52.20013600,"lon":8.28551900,"rng_nm":60,"alt_fmsl":391,"id":"OSN","desc":"OSNABRUCK VOR"},
{"type":"SDME","hdg_t":213.7,"dist_nm":61.3,"freq":108.35,"lat":52.20166700,"lon":8.28550000,"rng_nm":50,"alt_fmsl":343,"id":"OSB","desc":"OSNABRUCK TACAN"},
{"type":"NDB","hdg_t":130.1,"dist_nm":67.3,"freq":427,"lat":52.32224400,"lon":10.60615800,"rng_nm":20,"alt_fmsl":0,"id":"BRU","desc":"BRAUNSCHWEIG NDB"},
{"type":"NDB","hdg_t":49.3,"dist_nm":69.7,"freq":394,"lat":53.80082500,"lon":10.69585800,"rng_nm":15,"alt_fmsl":53,"id":"LYE","desc":"LUBECK BLANKENSEE NDB"},
{"type":"SDME","hdg_t":49.5,"dist_nm":70.5,"freq":115.65,"lat":53.80639200,"lon":10.71863100,"rng_nm":25,"alt_fmsl":70,"id":"LUD","desc":"LUBECK BLANKENSEE DME"},
{"type":"VOR","hdg_t":124.9,"dist_nm":71.2,"freq":117.3,"lat":52.36339400,"lon":10.79521900,"rng_nm":130,"alt_fmsl":413,"id":"HLZ","desc":"HEHLINGEN VOR-DME"},
{"type":"NDB","hdg_t":238.2,"dist_nm":71.3,"freq":439,"lat":52.41722100,"lon":7.55611100,"rng_nm":150,"alt_fmsl":0,"id":"HOP","desc":"HOPSTEN NDB"},
{"type":"NDB","hdg_t":286.8,"dist_nm":73.8,"freq":345,"lat":53.39391400,"lon":7.24168900,"rng_nm":25,"alt_fmsl":0,"id":"EMD","desc":"EMDEN NDB"},
{"type":"SDME","hdg_t":286.5,"dist_nm":74.1,"freq":115.25,"lat":53.38913600,"lon":7.22913900,"rng_nm":25,"alt_fmsl":50,"id":"ENW","desc":"EMDEN DME"},
{"type":"NDB","hdg_t":224.3,"dist_nm":74.4,"freq":371,"lat":52.15932800,"lon":7.79999400,"rng_nm":20,"alt_fmsl":0,"id":"MYN","desc":"MUNSTER NDB"},
{"type":"VOR","hdg_t":43.8,"dist_nm":74.6,"freq":110.6,"lat":53.94074200,"lon":10.66778600,"rng_nm":65,"alt_fmsl":264,"id":"LUB","desc":"LUBECK VOR"},
{"type":"NDB","hdg_t":206.3,"dist_nm":74.9,"freq":412,"lat":51.93249900,"lon":8.31138900,"rng_nm":150,"alt_fmsl":0,"id":"GS","desc":"GUTERSLOH NDB"},
{"type":"SDME","hdg_t":8.7,"dist_nm":76.4,"freq":115.3,"lat":54.31083300,"lon":9.53866700,"rng_nm":40,"alt_fmsl":78,"id":"HNT","desc":"HOHN TACAN"},
{"type":"NDB","hdg_t":11.9,"dist_nm":78.2,"freq":344,"lat":54.32633300,"lon":9.67033300,"rng_nm":25,"alt_fmsl":105,"id":"HN","desc":"HOHN NDB"},
{"type":"SDME","hdg_t":225.9,"dist_nm":78.2,"freq":114.05,"lat":52.13796900,"lon":7.68724200,"rng_nm":25,"alt_fmsl":207,"id":"MOD","desc":"MUNSTER DME"},
{"type":"NDB","hdg_t":236,"dist_nm":80.9,"freq":401,"lat":52.28783300,"lon":7.38566700,"rng_nm":25,"alt_fmsl":219,"id":"BET","desc":"RHEINE BENTLAGE NDB"},
{"type":"VOR","hdg_t":326.2,"dist_nm":82.3,"freq":116.3,"lat":54.18568600,"lon":7.91070000,"rng_nm":200,"alt_fmsl":44,"id":"DHE","desc":"HELGOLAND VOR-DME"},
{"type":"NDB","hdg_t":227.2,"dist_nm":82.4,"freq":305,"lat":52.11014700,"lon":7.57171100,"rng_nm":20,"alt_fmsl":0,"id":"MST","desc":"GREVEN NDB"},
{"type":"VOR","hdg_t":89.8,"dist_nm":84.6,"freq":117.7,"lat":53.03452500,"lon":11.54621700,"rng_nm":50,"alt_fmsl":92,"id":"BKD","desc":"BRUNKENDORF VOR-DME"},
{"type":"SDME","hdg_t":6.9,"dist_nm":84.7,"freq":111.8,"lat":54.45366700,"lon":9.50150000,"rng_nm":80,"alt_fmsl":105,"id":"SWG","desc":"SCHLESWIG TACAN"},
{"type":"NDB","hdg_t":21.8,"dist_nm":85.9,"freq":353,"lat":54.37757200,"lon":10.12002200,"rng_nm":30,"alt_fmsl":0,"id":"KIL","desc":"KIEL HOLTENAU NDB"},
{"type":"SDME","hdg_t":22.3,"dist_nm":86.3,"freq":109.5,"lat":54.37879400,"lon":10.14537800,"rng_nm":25,"alt_fmsl":119,"id":"KHD","desc":"KIEL HOLTENAU DME"},
{"type":"NDB","hdg_t":277.2,"dist_nm":88.1,"freq":330,"lat":53.21529200,"lon":6.78516400,"rng_nm":15,"alt_fmsl":3,"id":"SO","desc":"EELDE NDB"},
{"type":"NDB","hdg_t":193.9,"dist_nm":88.4,"freq":354,"lat":51.62361100,"lon":8.63944400,"rng_nm":25,"alt_fmsl":673,"id":"PAD","desc":"PADERBORN/LIPPSTADT NDB-DME"},
{"type":"SDME","hdg_t":193.9,"dist_nm":88.4,"freq":108.5,"lat":51.62361100,"lon":8.63944400,"rng_nm":25,"alt_fmsl":673,"id":"PAD","desc":"PADERBORN/LIPPSTADT NDB-DME"},
{"type":"VOR","hdg_t":218,"dist_nm":90.5,"freq":115.65,"lat":51.85686700,"lon":7.70829400,"rng_nm":130,"alt_fmsl":237,"id":"HMM","desc":"HAMM VOR-DME"},
{"type":"NDB","hdg_t":76,"dist_nm":90.9,"freq":315,"lat":53.39422200,"lon":11.66588900,"rng_nm":25,"alt_fmsl":0,"id":"PAH","desc":"SCHWERIN-PARCHIM NDB"},
{"type":"VOR","hdg_t":275.1,"dist_nm":92.1,"freq":112.4,"lat":53.16390600,"lon":6.66667500,"rng_nm":60,"alt_fmsl":32,"id":"EEL","desc":"EELDE VOR-DME"},
{"type":"VOR","hdg_t":182.2,"dist_nm":93,"freq":113.7,"lat":51.50569700,"lon":9.11091400,"rng_nm":80,"alt_fmsl":843,"id":"WRB","desc":"WARBURG VOR-DME"},
{"type":"SDME","hdg_t":273.5,"dist_nm":94.9,"freq":109.9,"lat":53.12233000,"lon":6.58760600,"rng_nm":18,"alt_fmsl":17,"id":"GRO","desc":"EHGG 23 DME"},
{"type":"SDME","hdg_t":75.4,"dist_nm":95.5,"freq":117.5,"lat":53.42504400,"lon":11.78495800,"rng_nm":25,"alt_fmsl":179,"id":"PMD","desc":"SCHWERIN-PARCHIM DME"},
{"type":"SDME","hdg_t":241.9,"dist_nm":96.7,"freq":110.7,"lat":52.27451700,"lon":6.89152800,"rng_nm":130,"alt_fmsl":114,"id":"TWN","desc":"TWENTHE TACAN"},
{"type":"NDB","hdg_t":241.9,"dist_nm":97.4,"freq":335,"lat":52.26793600,"lon":6.87616400,"rng_nm":15,"alt_fmsl":98,"id":"TWN","desc":"TWENTHE NDB"},
{"type":"VOR","hdg_t":39.7,"dist_nm":98.8,"freq":112.2,"lat":54.30546100,"lon":11.00518600,"rng_nm":60,"alt_fmsl":119,"id":"MIC","desc":"MICHAELSDORF VOR"}
]
}
