{"success":true,"source":"xp2csv.pl","last_updated":"2013/11/08 14:53:21 UTC"
,"icao":"EFKR","name":"Karsamaki","lat":63.9889,"lon":25.7472,"rwys":1,"ils":0,"index":3368569,"path":"e020n60/e025n63"
,"runways":[
{"len_m":702,"wid_m":9.75,"hdg":89,"surf":"Gravel","rwy1":"09","lat1":63.98890000,"lon1":25.74001957,"rwy2":"27","lat2":63.98890000,"lon2":25.75438043}
]
,"navaids":[
{"type":"NDB","hdg_t":286.7,"dist_nm":30.3,"freq":332,"lat":64.12950800,"lon":24.64276700,"rng_nm":25,"alt_fmsl":0,"id":"VA","desc":"VICTOR-ALFA NDB"},
{"type":"NDB","hdg_t":69.1,"dist_nm":49.9,"freq":337,"lat":64.27306100,"lon":27.52986700,"rng_nm":30,"alt_fmsl":483,"id":"KAJ","desc":"KAJAANI NDB"},
{"type":"VOR","hdg_t":69.7,"dist_nm":53.2,"freq":114.9,"lat":64.28253600,"lon":27.65577500,"rng_nm":130,"alt_fmsl":447,"id":"KNI","desc":"KAINUU VOR-DME"},
{"type":"NDB","hdg_t":354.1,"dist_nm":54.2,"freq":290,"lat":64.88449700,"lon":25.53162800,"rng_nm":30,"alt_fmsl":0,"id":"TP","desc":"TANGO-PAPA NDB"},
{"type":"VOR","hdg_t":350.1,"dist_nm":57.6,"freq":113.3,"lat":64.93155300,"lon":25.35928300,"rng_nm":130,"alt_fmsl":66,"id":"OUK","desc":"OULU VOR-DME"},
{"type":"NDB","hdg_t":346.9,"dist_nm":60.4,"freq":350,"lat":64.96632200,"lon":25.21117200,"rng_nm":30,"alt_fmsl":0,"id":"LAA","desc":"LAANILA NDB"},
{"type":"NDB","hdg_t":261.2,"dist_nm":69.2,"freq":388,"lat":63.79180000,"lon":23.17389700,"rng_nm":30,"alt_fmsl":0,"id":"KRU","desc":"KRUUNU NDB"},
{"type":"NDB","hdg_t":254.3,"dist_nm":73.2,"freq":398,"lat":63.63684700,"lon":23.10902500,"rng_nm":30,"alt_fmsl":0,"id":"ESS","desc":"ESSE NDB"},
{"type":"VOR","hdg_t":136.5,"dist_nm":82.3,"freq":113,"lat":62.97976900,"lon":27.81384400,"rng_nm":25,"alt_fmsl":481,"id":"VEH","desc":"VEHKAA VOR-DME"},
{"type":"NDB","hdg_t":137.2,"dist_nm":86,"freq":310,"lat":62.92246700,"lon":27.87795300,"rng_nm":30,"alt_fmsl":0,"id":"KUR","desc":"KURKI NDB"},
{"type":"NDB","hdg_t":238.6,"dist_nm":86,"freq":345,"lat":63.21991900,"lon":23.04033300,"rng_nm":30,"alt_fmsl":0,"id":"SUS","desc":"SUSI NDB"},
{"type":"VOR","hdg_t":235.3,"dist_nm":89,"freq":112.4,"lat":63.12250800,"lon":23.05591900,"rng_nm":25,"alt_fmsl":159,"id":"KAU","desc":"KAUHAVA VOR-DME"},
{"type":"NDB","hdg_t":232.3,"dist_nm":92.6,"freq":361,"lat":63.02343100,"lon":23.06377200,"rng_nm":30,"alt_fmsl":0,"id":"RO","desc":"ROMEO-OSCAR NDB"},
{"type":"VOR","hdg_t":182,"dist_nm":94.4,"freq":112.3,"lat":62.42078600,"lon":25.62334200,"rng_nm":50,"alt_fmsl":696,"id":"LNE","desc":"LUONET VOR-DME"}
]
}
