{"success":true,"source":"xp2csv.pl","last_updated":"2013/11/08 14:53:21 UTC"
,"icao":"EFMP","name":"Martiniiskonpalo","lat":68.6597,"lon":25.7072,"rwys":3,"ils":0,"index":3368873,"path":"e020n60/e025n68"
,"runways":[
{"len_m":361,"wid_m":39.93,"hdg":159,"surf":"Turf/grass","rwy1":"16","lat1":68.66122076,"lon1":25.70567897,"rwy2":"34","lat2":68.65817924,"lon2":25.70872103},
{"len_m":351,"wid_m":39.93,"hdg":109,"surf":"Turf/grass","rwy1":"11","lat1":68.66023850,"lon1":25.70313434,"rwy2":"29","lat2":68.65916150,"lon2":25.71126566},
{"len_m":320,"wid_m":39.93,"hdg":40,"surf":"Turf/grass","rwy1":"04","lat1":68.65859895,"lon1":25.70466118,"rwy2":"22","lat2":68.66080105,"lon2":25.70973882}
]
,"navaids":[
{"type":"VOR","hdg_t":107,"dist_nm":40.3,"freq":115.8,"lat":68.45399700,"lon":27.45151400,"rng_nm":130,"alt_fmsl":1340,"id":"KNS","desc":"KAUNIS VOR-DME"},
{"type":"NDB","hdg_t":87.5,"dist_nm":41.8,"freq":432,"lat":68.67838900,"lon":27.61462800,"rng_nm":30,"alt_fmsl":0,"id":"AKU","desc":"AKUJARVI NDB"},
{"type":"NDB","hdg_t":254.3,"dist_nm":49.9,"freq":375,"lat":68.42232200,"lon":23.53668900,"rng_nm":30,"alt_fmsl":0,"id":"HET","desc":"HETTA NDB"},
{"type":"VOR","hdg_t":252.3,"dist_nm":52.3,"freq":117.1,"lat":68.38126700,"lon":23.46175800,"rng_nm":130,"alt_fmsl":1127,"id":"ENO","desc":"ENODAK VOR-DME"},
{"type":"SDME","hdg_t":291.5,"dist_nm":62.2,"freq":109.6,"lat":69.01885300,"lon":23.02297200,"rng_nm":130,"alt_fmsl":1262,"id":"KNO","desc":"KAUTOKEINO TACAN"},
{"type":"NDB","hdg_t":196.6,"dist_nm":65,"freq":328,"lat":67.62307200,"lon":24.89746700,"rng_nm":30,"alt_fmsl":0,"id":"KIT","desc":"KITTILA NDB"},
{"type":"NDB","hdg_t":164.4,"dist_nm":74.1,"freq":368,"lat":67.47180300,"lon":26.56687500,"rng_nm":30,"alt_fmsl":0,"id":"SK","desc":"SIERRA-KILO NDB"},
{"type":"SDME","hdg_t":349.8,"dist_nm":86.1,"freq":111,"lat":70.06544400,"lon":24.96988100,"rng_nm":130,"alt_fmsl":42,"id":"BNK","desc":"BANAK TACAN"},
{"type":"NDB","hdg_t":350,"dist_nm":86.5,"freq":345,"lat":70.07433600,"lon":24.97949200,"rng_nm":50,"alt_fmsl":42,"id":"BNR","desc":"BANAK NDB"},
{"type":"VOR","hdg_t":350.3,"dist_nm":92.7,"freq":114.4,"lat":70.17626400,"lon":24.94840300,"rng_nm":130,"alt_fmsl":103,"id":"BNA","desc":"BANAK VOR-DME"},
{"type":"VOR","hdg_t":329,"dist_nm":93.6,"freq":117.4,"lat":69.97758100,"lon":23.37181700,"rng_nm":130,"alt_fmsl":32,"id":"ATA","desc":"ALTA VOR-DME"},
{"type":"NDB","hdg_t":328.5,"dist_nm":95.2,"freq":358,"lat":69.99228900,"lon":23.29316100,"rng_nm":25,"alt_fmsl":44,"id":"ALA","desc":"ALTA NDB"}
]
}
