{"success":true,"source":"xp2csv.pl","last_updated":"2013/11/08 14:53:21 UTC"
,"icao":"EFPK","name":"Pieksamaki","lat":62.2528,"lon":27.0072,"rwys":1,"ils":0,"index":3401232,"path":"e020n60/e027n62"
,"runways":[
{"len_m":802,"wid_m":22.86,"hdg":149,"surf":"Asphalt","rwy1":"15","lat1":62.25591664,"lon1":27.00333508,"rwy2":"33","lat2":62.24968336,"lon2":27.01106492}
]
,"navaids":[
{"type":"NDB","hdg_t":94,"dist_nm":21.7,"freq":370,"lat":62.22511100,"lon":27.78045000,"rng_nm":25,"alt_fmsl":0,"id":"JR","desc":"JULIETT-ROMEO NDB"},
{"type":"VOR","hdg_t":285.2,"dist_nm":40,"freq":112.3,"lat":62.42078600,"lon":25.62334200,"rng_nm":50,"alt_fmsl":696,"id":"LNE","desc":"LUONET VOR-DME"},
{"type":"NDB","hdg_t":30.5,"dist_nm":46.9,"freq":310,"lat":62.92246700,"lon":27.87795300,"rng_nm":30,"alt_fmsl":0,"id":"KUR","desc":"KURKI NDB"},
{"type":"VOR","hdg_t":26.7,"dist_nm":49.1,"freq":113,"lat":62.97976900,"lon":27.81384400,"rng_nm":25,"alt_fmsl":481,"id":"VEH","desc":"VEHKAA VOR-DME"},
{"type":"VOR","hdg_t":107.7,"dist_nm":56.7,"freq":117.9,"lat":61.95268100,"lon":28.91406100,"rng_nm":25,"alt_fmsl":343,"id":"SVL","desc":"LINNA VOR-DME"},
{"type":"VOR","hdg_t":249.9,"dist_nm":66.7,"freq":115.2,"lat":61.85467500,"lon":24.80260600,"rng_nm":130,"alt_fmsl":484,"id":"HAL","desc":"HALLI VOR-DME"},
{"type":"NDB","hdg_t":68.1,"dist_nm":73.4,"freq":325,"lat":62.68605800,"lon":29.47208300,"rng_nm":30,"alt_fmsl":0,"id":"JOE","desc":"JOENSUU NDB"},
{"type":"VOR","hdg_t":70.1,"dist_nm":76.5,"freq":115.7,"lat":62.66049700,"lon":29.61052500,"rng_nm":50,"alt_fmsl":413,"id":"JNS","desc":"JOSIE VOR-DME"},
{"type":"NDB","hdg_t":158.3,"dist_nm":79.6,"freq":392,"lat":61.01848900,"lon":28.01573100,"rng_nm":30,"alt_fmsl":0,"id":"RAN","desc":"RANTA NDB"},
{"type":"VOR","hdg_t":155.9,"dist_nm":79.6,"freq":112.5,"lat":61.03905300,"lon":28.11804700,"rng_nm":25,"alt_fmsl":363,"id":"VIL","desc":"VILMAS VOR-DME"},
{"type":"NDB","hdg_t":71.9,"dist_nm":80,"freq":401,"lat":62.63782500,"lon":29.75746400,"rng_nm":30,"alt_fmsl":0,"id":"JP","desc":"JULIETT-PAPA NDB"},
{"type":"VOR","hdg_t":181.6,"dist_nm":81.5,"freq":114.6,"lat":60.89729400,"lon":26.92946700,"rng_nm":25,"alt_fmsl":355,"id":"UTT","desc":"UTTI VOR-DME"},
{"type":"VOR","hdg_t":203.2,"dist_nm":92.5,"freq":117.3,"lat":60.83350000,"lon":25.76209200,"rng_nm":130,"alt_fmsl":273,"id":"ORM","desc":"ORIMAA VOR-DME"},
{"type":"VOR","hdg_t":213.6,"dist_nm":99.5,"freq":113.7,"lat":60.86300800,"lon":25.12681900,"rng_nm":50,"alt_fmsl":314,"id":"ANT","desc":"ANTONI VOR-DME"}
]
}
