{"success":true,"source":"xp2csv.pl","last_updated":"2013/11/08 14:53:21 UTC"
,"icao":"EFPU","name":"Pudasjarvi","lat":65.4023945,"lon":26.9684635,"rwys":1,"ils":0,"index":3385049,"path":"e020n60/e026n65"
,"runways":[
{"len_m":2000,"wid_m":45.11,"hdg":88,"surf":"Asphalt","rwy1":"08","lat1":65.40222200,"lon1":26.94694400,"rwy2":"26","lat2":65.40256700,"lon2":26.98998300}
]
,"navaids":[
{"type":"NDB","hdg_t":230,"dist_nm":47.9,"freq":290,"lat":64.88449700,"lon":25.53162800,"rng_nm":30,"alt_fmsl":0,"id":"TP","desc":"TANGO-PAPA NDB"},
{"type":"VOR","hdg_t":235.8,"dist_nm":49.6,"freq":113.3,"lat":64.93155300,"lon":25.35928300,"rng_nm":130,"alt_fmsl":66,"id":"OUK","desc":"OULU VOR-DME"},
{"type":"NDB","hdg_t":240.2,"dist_nm":51.6,"freq":350,"lat":64.96632200,"lon":25.21117200,"rng_nm":30,"alt_fmsl":0,"id":"LAA","desc":"LAANILA NDB"},
{"type":"NDB","hdg_t":295.5,"dist_nm":64.6,"freq":373,"lat":65.84646100,"lon":24.60290800,"rng_nm":25,"alt_fmsl":0,"id":"KEM","desc":"KEMI NDB"},
{"type":"NDB","hdg_t":52.8,"dist_nm":65.2,"freq":340,"lat":66.04221900,"lon":29.09266400,"rng_nm":30,"alt_fmsl":0,"id":"KS","desc":"KILO-SIERRA NDB"},
{"type":"VOR","hdg_t":56.7,"dist_nm":66.4,"freq":114.4,"lat":65.99173100,"lon":29.23583600,"rng_nm":50,"alt_fmsl":923,"id":"KLA","desc":"KANTOLA VOR-DME"},
{"type":"NDB","hdg_t":167.7,"dist_nm":69.4,"freq":337,"lat":64.27306100,"lon":27.52986700,"rng_nm":30,"alt_fmsl":483,"id":"KAJ","desc":"KAJAANI NDB"},
{"type":"VOR","hdg_t":165,"dist_nm":69.6,"freq":114.9,"lat":64.28253600,"lon":27.65577500,"rng_nm":130,"alt_fmsl":447,"id":"KNI","desc":"KAINUU VOR-DME"},
{"type":"NDB","hdg_t":333.8,"dist_nm":71.9,"freq":377,"lat":66.46910000,"lon":25.64880000,"rng_nm":30,"alt_fmsl":0,"id":"PA","desc":"PAPA-ALFA NDB"},
{"type":"VOR","hdg_t":338.5,"dist_nm":75.3,"freq":117.7,"lat":66.56253900,"lon":25.82040800,"rng_nm":50,"alt_fmsl":661,"id":"ROI","desc":"ROVANI VOR-DME"},
{"type":"NDB","hdg_t":342.2,"dist_nm":78.3,"freq":416,"lat":66.63888300,"lon":25.97102200,"rng_nm":30,"alt_fmsl":0,"id":"TOR","desc":"TORAMO NDB"},
{"type":"NDB","hdg_t":219,"dist_nm":97.1,"freq":332,"lat":64.12950800,"lon":24.64276700,"rng_nm":25,"alt_fmsl":0,"id":"VA","desc":"VICTOR-ALFA NDB"}
]
}
