{"success":true,"source":"xp2csv.pl","last_updated":"2013/11/08 14:53:21 UTC"
,"icao":"EFRV","name":"Kiuruvesi","lat":63.7053,"lon":26.62,"rwys":1,"ils":0,"index":3384937,"path":"e020n60/e026n63"
,"runways":[
{"len_m":842,"wid_m":17.98,"hdg":149,"surf":"Asphalt","rwy1":"15","lat1":63.70857105,"lon1":26.61573681,"rwy2":"33","lat2":63.70202895,"lon2":26.62426319}
]
,"navaids":[
{"type":"NDB","hdg_t":34.7,"dist_nm":41.7,"freq":337,"lat":64.27306100,"lon":27.52986700,"rng_nm":30,"alt_fmsl":483,"id":"KAJ","desc":"KAJAANI NDB"},
{"type":"VOR","hdg_t":37.7,"dist_nm":44.2,"freq":114.9,"lat":64.28253600,"lon":27.65577500,"rng_nm":130,"alt_fmsl":447,"id":"KNI","desc":"KAINUU VOR-DME"},
{"type":"VOR","hdg_t":142.9,"dist_nm":54.3,"freq":113,"lat":62.97976900,"lon":27.81384400,"rng_nm":25,"alt_fmsl":481,"id":"VEH","desc":"VEHKAA VOR-DME"},
{"type":"NDB","hdg_t":143.5,"dist_nm":58.1,"freq":310,"lat":62.92246700,"lon":27.87795300,"rng_nm":30,"alt_fmsl":0,"id":"KUR","desc":"KURKI NDB"},
{"type":"NDB","hdg_t":296.8,"dist_nm":58.2,"freq":332,"lat":64.12950800,"lon":24.64276700,"rng_nm":25,"alt_fmsl":0,"id":"VA","desc":"VICTOR-ALFA NDB"},
{"type":"NDB","hdg_t":338.6,"dist_nm":76.4,"freq":290,"lat":64.88449700,"lon":25.53162800,"rng_nm":30,"alt_fmsl":0,"id":"TP","desc":"TANGO-PAPA NDB"},
{"type":"VOR","hdg_t":336.5,"dist_nm":80.8,"freq":113.3,"lat":64.93155300,"lon":25.35928300,"rng_nm":130,"alt_fmsl":66,"id":"OUK","desc":"OULU VOR-DME"},
{"type":"VOR","hdg_t":199.8,"dist_nm":81.9,"freq":112.3,"lat":62.42078600,"lon":25.62334200,"rng_nm":50,"alt_fmsl":696,"id":"LNE","desc":"LUONET VOR-DME"},
{"type":"NDB","hdg_t":334.7,"dist_nm":84.3,"freq":350,"lat":64.96632200,"lon":25.21117200,"rng_nm":30,"alt_fmsl":0,"id":"LAA","desc":"LAANILA NDB"},
{"type":"NDB","hdg_t":274.7,"dist_nm":92,"freq":388,"lat":63.79180000,"lon":23.17389700,"rng_nm":30,"alt_fmsl":0,"id":"KRU","desc":"KRUUNU NDB"},
{"type":"NDB","hdg_t":269,"dist_nm":93.9,"freq":398,"lat":63.63684700,"lon":23.10902500,"rng_nm":30,"alt_fmsl":0,"id":"ESS","desc":"ESSE NDB"},
{"type":"NDB","hdg_t":159.8,"dist_nm":94.5,"freq":370,"lat":62.22511100,"lon":27.78045000,"rng_nm":25,"alt_fmsl":0,"id":"JR","desc":"JULIETT-ROMEO NDB"},
{"type":"NDB","hdg_t":127,"dist_nm":98.8,"freq":325,"lat":62.68605800,"lon":29.47208300,"rng_nm":30,"alt_fmsl":0,"id":"JOE","desc":"JOENSUU NDB"}
]
}
