{"success":true,"source":"xp2csv.pl","last_updated":"2013/11/08 14:53:21 UTC"
,"icao":"EFTS","name":"Teisko","lat":61.77334,"lon":24.026993,"rwys":1,"ils":0,"index":3352048,"path":"e020n60/e024n61"
,"runways":[
{"len_m":1197,"wid_m":17.98,"hdg":52,"surf":"Asphalt","rwy1":"05","lat1":61.77006100,"lon1":24.01801100,"rwy2":"23","lat2":61.77661900,"lon2":24.03597500}
]
,"radios":[
{"type":"TWR","freq":123.15,"desc":"TWR"}
]
,"navaids":[
{"type":"VOR","hdg_t":77.1,"dist_nm":22.6,"freq":115.2,"lat":61.85467500,"lon":24.80260600,"rng_nm":130,"alt_fmsl":484,"id":"HAL","desc":"HALLI VOR-DME"},
{"type":"VOR","hdg_t":210.7,"dist_nm":25.3,"freq":116.2,"lat":61.40991100,"lon":23.57766100,"rng_nm":25,"alt_fmsl":450,"id":"PIR","desc":"PIRKKA VOR-DME"},
{"type":"NDB","hdg_t":215.2,"dist_nm":29,"freq":365,"lat":61.37700600,"lon":23.44604400,"rng_nm":30,"alt_fmsl":0,"id":"VS","desc":"VESILAHTI NDB"},
{"type":"VOR","hdg_t":48.4,"dist_nm":59.5,"freq":112.3,"lat":62.42078600,"lon":25.62334200,"rng_nm":50,"alt_fmsl":696,"id":"LNE","desc":"LUONET VOR-DME"},
{"type":"NDB","hdg_t":330,"dist_nm":60.6,"freq":352,"lat":62.64212200,"lon":22.93613600,"rng_nm":30,"alt_fmsl":0,"id":"PSJ","desc":"SEINAJOKI NDB"},
{"type":"VOR","hdg_t":149.3,"dist_nm":63.3,"freq":113.7,"lat":60.86300800,"lon":25.12681900,"rng_nm":50,"alt_fmsl":314,"id":"ANT","desc":"ANTONI VOR-DME"},
{"type":"NDB","hdg_t":251.3,"dist_nm":63.8,"freq":375,"lat":61.41851700,"lon":21.92699700,"rng_nm":30,"alt_fmsl":0,"id":"FR","desc":"FOXTROT ROMERO NDB"},
{"type":"VOR","hdg_t":254.7,"dist_nm":66.5,"freq":113.2,"lat":61.46459400,"lon":21.79585800,"rng_nm":25,"alt_fmsl":62,"id":"PRI","desc":"PREVIK VOR-DME"},
{"type":"NDB","hdg_t":257.6,"dist_nm":69.3,"freq":341,"lat":61.50658300,"lon":21.66951700,"rng_nm":30,"alt_fmsl":0,"id":"POR","desc":"PORI NDB"},
{"type":"VOR","hdg_t":137.6,"dist_nm":75.6,"freq":117.3,"lat":60.83350000,"lon":25.76209200,"rng_nm":130,"alt_fmsl":273,"id":"ORM","desc":"ORIMAA VOR-DME"},
{"type":"VOR","hdg_t":175.3,"dist_nm":79.3,"freq":117,"lat":60.45925000,"lon":24.24406900,"rng_nm":50,"alt_fmsl":203,"id":"VTI","desc":"VIHTI VOR-DME"},
{"type":"NDB","hdg_t":340.7,"dist_nm":79.8,"freq":361,"lat":63.02343100,"lon":23.06377200,"rng_nm":30,"alt_fmsl":0,"id":"RO","desc":"ROMEO-OSCAR NDB"},
{"type":"VOR","hdg_t":341.9,"dist_nm":85.5,"freq":112.4,"lat":63.12250800,"lon":23.05591900,"rng_nm":25,"alt_fmsl":159,"id":"KAU","desc":"KAUHAVA VOR-DME"},
{"type":"NDB","hdg_t":212.5,"dist_nm":88.6,"freq":361,"lat":60.52101100,"lon":22.41863900,"rng_nm":30,"alt_fmsl":0,"id":"LIE","desc":"LIETO NDB"},
{"type":"NDB","hdg_t":159.7,"dist_nm":89.6,"freq":322,"lat":60.37213300,"lon":25.06837200,"rng_nm":30,"alt_fmsl":0,"id":"KOR","desc":"KORSO NDB"},
{"type":"VOR","hdg_t":162.2,"dist_nm":90.4,"freq":114.2,"lat":60.33781700,"lon":24.95373100,"rng_nm":130,"alt_fmsl":239,"id":"HEL","desc":"HELSINKI VOR-DME"},
{"type":"NDB","hdg_t":161.5,"dist_nm":90.8,"freq":403,"lat":60.33736900,"lon":24.99250000,"rng_nm":10,"alt_fmsl":0,"id":"H","desc":"HOTEL NDB"},
{"type":"NDB","hdg_t":342.9,"dist_nm":91.2,"freq":345,"lat":63.21991900,"lon":23.04033300,"rng_nm":30,"alt_fmsl":0,"id":"SUS","desc":"SUSI NDB"},
{"type":"VOR","hdg_t":215,"dist_nm":91.5,"freq":115.5,"lat":60.51519200,"lon":22.25652800,"rng_nm":25,"alt_fmsl":187,"id":"RUS","desc":"RUSKO VOR-DME"},
{"type":"NDB","hdg_t":163.1,"dist_nm":92.1,"freq":371,"lat":60.30402500,"lon":24.92033300,"rng_nm":25,"alt_fmsl":0,"id":"U","desc":"UNIFORM NDB"},
{"type":"NDB","hdg_t":165.9,"dist_nm":94.4,"freq":381,"lat":60.24827500,"lon":24.79640800,"rng_nm":25,"alt_fmsl":0,"id":"ESP","desc":"ESPOO NDB"},
{"type":"NDB","hdg_t":161.3,"dist_nm":95.3,"freq":408,"lat":60.26733300,"lon":25.04551700,"rng_nm":10,"alt_fmsl":89,"id":"LI","desc":"FOXTROT NDB"},
{"type":"VOR","hdg_t":120.8,"dist_nm":99,"freq":114.6,"lat":60.89729400,"lon":26.92946700,"rng_nm":25,"alt_fmsl":355,"id":"UTT","desc":"UTTI VOR-DME"},
{"type":"VOR","hdg_t":321.3,"dist_nm":99,"freq":114.5,"lat":63.04137200,"lon":21.76487500,"rng_nm":25,"alt_fmsl":36,"id":"VAS","desc":"VAASA VOR-DME"},
{"type":"VOR","hdg_t":152.1,"dist_nm":99.9,"freq":112.8,"lat":60.29437800,"lon":25.58847800,"rng_nm":130,"alt_fmsl":121,"id":"PVO","desc":"PORVOO VOR-DME"}
]
}
