{"success":true,"source":"xp2csv.pl","last_updated":"2013/11/08 14:53:21 UTC"
,"icao":"EFUT","name":"Utti","lat":60.896393,"lon":26.9383545,"rwys":1,"ils":0,"index":3384763,"path":"e020n60/e026n60"
,"runways":[
{"len_m":2000,"wid_m":45.11,"hdg":78,"surf":"Asphalt","rwy1":"07","lat1":60.89453300,"lon1":26.92033100,"rwy2":"25","lat2":60.89825300,"lon2":26.95637800}
]
,"radios":[
{"type":"TWR","freq":130.8,"desc":"TWR"},
{"type":"TWR","freq":119.7,"desc":"TWR"}
]
,"navaids":[
{"type":"VOR","hdg_t":281.7,"dist_nm":0.2,"freq":114.6,"lat":60.89729400,"lon":26.92946700,"rng_nm":25,"alt_fmsl":355,"id":"UTT","desc":"UTTI VOR-DME"},
{"type":"NDB","hdg_t":76.4,"dist_nm":32.3,"freq":392,"lat":61.01848900,"lon":28.01573100,"rng_nm":30,"alt_fmsl":0,"id":"RAN","desc":"RANTA NDB"},
{"type":"VOR","hdg_t":264.2,"dist_nm":34.7,"freq":117.3,"lat":60.83350000,"lon":25.76209200,"rng_nm":130,"alt_fmsl":273,"id":"ORM","desc":"ORIMAA VOR-DME"},
{"type":"VOR","hdg_t":75.5,"dist_nm":35.5,"freq":112.5,"lat":61.03905300,"lon":28.11804700,"rng_nm":25,"alt_fmsl":363,"id":"VIL","desc":"VILMAS VOR-DME"},
{"type":"VOR","hdg_t":268.6,"dist_nm":53.1,"freq":113.7,"lat":60.86300800,"lon":25.12681900,"rng_nm":50,"alt_fmsl":314,"id":"ANT","desc":"ANTONI VOR-DME"},
{"type":"VOR","hdg_t":228.3,"dist_nm":53.9,"freq":112.8,"lat":60.29437800,"lon":25.58847800,"rng_nm":130,"alt_fmsl":121,"id":"PVO","desc":"PORVOO VOR-DME"},
{"type":"NDB","hdg_t":228.6,"dist_nm":57.6,"freq":344,"lat":60.25488900,"lon":25.49116700,"rng_nm":25,"alt_fmsl":0,"id":"HEK","desc":"HEKA NDB"},
{"type":"NDB","hdg_t":241.1,"dist_nm":63.6,"freq":322,"lat":60.37213300,"lon":25.06837200,"rng_nm":30,"alt_fmsl":0,"id":"KOR","desc":"KORSO NDB"},
{"type":"NDB","hdg_t":240.5,"dist_nm":66.6,"freq":403,"lat":60.33736900,"lon":24.99250000,"rng_nm":10,"alt_fmsl":0,"id":"H","desc":"HOTEL NDB"},
{"type":"NDB","hdg_t":236.7,"dist_nm":67.6,"freq":408,"lat":60.26733300,"lon":25.04551700,"rng_nm":10,"alt_fmsl":89,"id":"LI","desc":"FOXTROT NDB"},
{"type":"NDB","hdg_t":101.3,"dist_nm":67.6,"freq":458,"lat":60.65666700,"lon":29.18666700,"rng_nm":80,"alt_fmsl":0,"id":"WQ","desc":"VESCHEVO NDB"},
{"type":"VOR","hdg_t":241,"dist_nm":67.6,"freq":114.2,"lat":60.33781700,"lon":24.95373100,"rng_nm":130,"alt_fmsl":239,"id":"HEL","desc":"HELSINKI VOR-DME"},
{"type":"NDB","hdg_t":240,"dist_nm":69.5,"freq":371,"lat":60.30402500,"lon":24.92033300,"rng_nm":25,"alt_fmsl":0,"id":"U","desc":"UNIFORM NDB"},
{"type":"SDME","hdg_t":231.5,"dist_nm":71.1,"freq":117.5,"lat":60.14700300,"lon":25.08107200,"rng_nm":25,"alt_fmsl":138,"id":"KAD","desc":"KADIS DME"},
{"type":"NDB","hdg_t":239.3,"dist_nm":74.4,"freq":381,"lat":60.24827500,"lon":24.79640800,"rng_nm":25,"alt_fmsl":0,"id":"ESP","desc":"ESPOO NDB"},
{"type":"NDB","hdg_t":16.4,"dist_nm":83.5,"freq":370,"lat":62.22511100,"lon":27.78045000,"rng_nm":25,"alt_fmsl":0,"id":"JR","desc":"JULIETT-ROMEO NDB"},
{"type":"VOR","hdg_t":252.8,"dist_nm":83.7,"freq":117,"lat":60.45925000,"lon":24.24406900,"rng_nm":50,"alt_fmsl":203,"id":"VTI","desc":"VIHTI VOR-DME"},
{"type":"VOR","hdg_t":314,"dist_nm":84.4,"freq":115.2,"lat":61.85467500,"lon":24.80260600,"rng_nm":130,"alt_fmsl":484,"id":"HAL","desc":"HALLI VOR-DME"},
{"type":"VOR","hdg_t":40.9,"dist_nm":85.3,"freq":117.9,"lat":61.95268100,"lon":28.91406100,"rng_nm":25,"alt_fmsl":343,"id":"SVL","desc":"LINNA VOR-DME"},
{"type":"NDB","hdg_t":143.7,"dist_nm":94.6,"freq":635,"lat":59.61333300,"lon":28.77333300,"rng_nm":80,"alt_fmsl":0,"id":"KO","desc":"KOTLY NDB"},
{"type":"VOR","hdg_t":338.2,"dist_nm":99.1,"freq":112.3,"lat":62.42078600,"lon":25.62334200,"rng_nm":50,"alt_fmsl":696,"id":"LNE","desc":"LUONET VOR-DME"}
]
}
