{"success":true,"source":"xp2csv.pl","last_updated":"2013/11/08 14:53:21 UTC"
,"icao":"EFVL","name":"Vaala","lat":64.5017,"lon":26.7636,"rwys":1,"ils":0,"index":3384993,"path":"e020n60/e026n64"
,"runways":[
{"len_m":803,"wid_m":14.94,"hdg":89,"surf":"Turf/grass","rwy1":"09","lat1":64.50170000,"lon1":26.75524014,"rwy2":"27","lat2":64.50170000,"lon2":26.77195986}
]
,"navaids":[
{"type":"NDB","hdg_t":124.2,"dist_nm":24.2,"freq":337,"lat":64.27306100,"lon":27.52986700,"rng_nm":30,"alt_fmsl":483,"id":"KAJ","desc":"KAJAANI NDB"},
{"type":"VOR","hdg_t":119.1,"dist_nm":26.7,"freq":114.9,"lat":64.28253600,"lon":27.65577500,"rng_nm":130,"alt_fmsl":447,"id":"KNI","desc":"KAINUU VOR-DME"},
{"type":"NDB","hdg_t":306.5,"dist_nm":39.2,"freq":290,"lat":64.88449700,"lon":25.53162800,"rng_nm":30,"alt_fmsl":0,"id":"TP","desc":"TANGO-PAPA NDB"},
{"type":"VOR","hdg_t":306.2,"dist_nm":44.4,"freq":113.3,"lat":64.93155300,"lon":25.35928300,"rng_nm":130,"alt_fmsl":66,"id":"OUK","desc":"OULU VOR-DME"},
{"type":"NDB","hdg_t":305.7,"dist_nm":48.7,"freq":350,"lat":64.96632200,"lon":25.21117200,"rng_nm":30,"alt_fmsl":0,"id":"LAA","desc":"LAANILA NDB"},
{"type":"NDB","hdg_t":248.9,"dist_nm":59.7,"freq":332,"lat":64.12950800,"lon":24.64276700,"rng_nm":25,"alt_fmsl":0,"id":"VA","desc":"VICTOR-ALFA NDB"},
{"type":"VOR","hdg_t":162.5,"dist_nm":95.7,"freq":113,"lat":62.97976900,"lon":27.81384400,"rng_nm":25,"alt_fmsl":481,"id":"VEH","desc":"VEHKAA VOR-DME"},
{"type":"NDB","hdg_t":326.9,"dist_nm":97.6,"freq":373,"lat":65.84646100,"lon":24.60290800,"rng_nm":25,"alt_fmsl":0,"id":"KEM","desc":"KEMI NDB"},
{"type":"NDB","hdg_t":162.1,"dist_nm":99.5,"freq":310,"lat":62.92246700,"lon":27.87795300,"rng_nm":30,"alt_fmsl":0,"id":"KUR","desc":"KURKI NDB"},
{"type":"NDB","hdg_t":247.2,"dist_nm":103.5,"freq":388,"lat":63.79180000,"lon":23.17389700,"rng_nm":30,"alt_fmsl":0,"id":"KRU","desc":"KRUUNU NDB"}
]
}
