{"success":true,"source":"xp2csv.pl","last_updated":"2013/11/08 14:53:21 UTC"
,"icao":"EFVT","name":"Sulkaharju","lat":63.3961,"lon":24.0292,"rwys":1,"ils":0,"index":3352152,"path":"e020n60/e024n63"
,"runways":[
{"len_m":401,"wid_m":17.98,"hdg":70,"surf":"Gravel","rwy1":"07","lat1":63.39548457,"lon1":24.02542420,"rwy2":"25","lat2":63.39671543,"lon2":24.03297580}
]
,"navaids":[
{"type":"NDB","hdg_t":300.7,"dist_nm":28.6,"freq":398,"lat":63.63684700,"lon":23.10902500,"rng_nm":30,"alt_fmsl":0,"id":"ESS","desc":"ESSE NDB"},
{"type":"NDB","hdg_t":248.8,"dist_nm":28.7,"freq":345,"lat":63.21991900,"lon":23.04033300,"rng_nm":30,"alt_fmsl":0,"id":"SUS","desc":"SUSI NDB"},
{"type":"VOR","hdg_t":238.4,"dist_nm":31.1,"freq":112.4,"lat":63.12250800,"lon":23.05591900,"rng_nm":25,"alt_fmsl":159,"id":"KAU","desc":"KAUHAVA VOR-DME"},
{"type":"NDB","hdg_t":316.4,"dist_nm":33,"freq":388,"lat":63.79180000,"lon":23.17389700,"rng_nm":30,"alt_fmsl":0,"id":"KRU","desc":"KRUUNU NDB"},
{"type":"NDB","hdg_t":229.8,"dist_nm":34.5,"freq":361,"lat":63.02343100,"lon":23.06377200,"rng_nm":30,"alt_fmsl":0,"id":"RO","desc":"ROMEO-OSCAR NDB"},
{"type":"NDB","hdg_t":20,"dist_nm":47,"freq":332,"lat":64.12950800,"lon":24.64276700,"rng_nm":25,"alt_fmsl":0,"id":"VA","desc":"VICTOR-ALFA NDB"},
{"type":"NDB","hdg_t":213.8,"dist_nm":54.3,"freq":352,"lat":62.64212200,"lon":22.93613600,"rng_nm":30,"alt_fmsl":0,"id":"PSJ","desc":"SEINAJOKI NDB"},
{"type":"NDB","hdg_t":256.6,"dist_nm":64.9,"freq":357,"lat":63.12735000,"lon":21.71073600,"rng_nm":30,"alt_fmsl":0,"id":"SEP","desc":"SEPPI NDB"},
{"type":"VOR","hdg_t":251.8,"dist_nm":65,"freq":114.5,"lat":63.04137200,"lon":21.76487500,"rng_nm":25,"alt_fmsl":36,"id":"VAS","desc":"VAASA VOR-DME"},
{"type":"VOR","hdg_t":142.5,"dist_nm":73.2,"freq":112.3,"lat":62.42078600,"lon":25.62334200,"rng_nm":50,"alt_fmsl":696,"id":"LNE","desc":"LUONET VOR-DME"},
{"type":"VOR","hdg_t":166.6,"dist_nm":95.2,"freq":115.2,"lat":61.85467500,"lon":24.80260600,"rng_nm":130,"alt_fmsl":484,"id":"HAL","desc":"HALLI VOR-DME"},
{"type":"NDB","hdg_t":23.1,"dist_nm":97.9,"freq":290,"lat":64.88449700,"lon":25.53162800,"rng_nm":30,"alt_fmsl":0,"id":"TP","desc":"TANGO-PAPA NDB"},
{"type":"VOR","hdg_t":20.1,"dist_nm":98.8,"freq":113.3,"lat":64.93155300,"lon":25.35928300,"rng_nm":130,"alt_fmsl":66,"id":"OUK","desc":"OULU VOR-DME"},
{"type":"NDB","hdg_t":283.1,"dist_nm":98.9,"freq":329,"lat":63.72380450,"lon":20.41563990,"rng_nm":50,"alt_fmsl":0,"id":"WU","desc":"Umea NDB"},
{"type":"NDB","hdg_t":17.6,"dist_nm":99.4,"freq":350,"lat":64.96632200,"lon":25.21117200,"rng_nm":30,"alt_fmsl":0,"id":"LAA","desc":"LAANILA NDB"}
]
}
