{"success":true,"source":"xp2csv.pl","last_updated":"2013/11/08 14:53:21 UTC"
,"icao":"EG36","name":"Farway Common","lat":50.73712875,"lon":-3.180165265,"rwys":4,"ils":0,"index":2892587,"path":"w010n50/w004n50"
,"runways":[
{"len_m":525,"wid_m":13.11,"hdg":173,"surf":"Turf/grass","rwy1":"17","lat1":50.73718355,"lon1":-3.17784560,"rwy2":"35","lat2":50.73249241,"lon2":-3.17702289},
{"len_m":452,"wid_m":11.89,"hdg":40,"surf":"Turf/grass","rwy1":"3","lat1":50.73585988,"lon1":-3.18361740,"rwy2":"21","lat2":50.73895980,"lon2":-3.17946952},
{"len_m":475,"wid_m":10.97,"hdg":7,"surf":"Turf/grass","rwy1":"1","lat1":50.73674444,"lon1":-3.18048719,"rwy2":"19","lat2":50.74098512,"lon2":-3.17964975},
{"len_m":497,"wid_m":11.89,"hdg":93,"surf":"Turf/grass","rwy1":"10","lat1":50.73752536,"lon1":-3.18513067,"rwy2":"28","lat2":50.73727945,"lon2":-3.17809910}
]
,"navaids":[
{"type":"NDB","hdg_t":281.6,"dist_nm":4.4,"freq":337,"lat":50.75215300,"lon":-3.29504700,"rng_nm":15,"alt_fmsl":25,"id":"EX","desc":"Exeter LOM"},
{"type":"VOR","hdg_t":210.6,"dist_nm":23.6,"freq":112.05,"lat":50.39861100,"lon":-3.49361100,"rng_nm":85,"alt_fmsl":215,"id":"BHD","desc":"BERRY HEAD VOR-DME"},
{"type":"SDME","hdg_t":51.7,"dist_nm":26.1,"freq":111,"lat":51.00501400,"lon":-2.63875300,"rng_nm":130,"alt_fmsl":113,"id":"VLN","desc":"YEOVILTON TACAN"},
{"type":"NDB","hdg_t":351.4,"dist_nm":39.8,"freq":388,"lat":51.39337800,"lon":-3.33790300,"rng_nm":20,"alt_fmsl":0,"id":"CDF","desc":"Cardiff NDB"},
{"type":"NDB","hdg_t":242.5,"dist_nm":40.2,"freq":396,"lat":50.42436700,"lon":-4.11233300,"rng_nm":20,"alt_fmsl":0,"id":"PY","desc":"PLYMOUTH NDB"},
{"type":"NDB","hdg_t":70.1,"dist_nm":41.3,"freq":349,"lat":50.96620300,"lon":-2.15516700,"rng_nm":10,"alt_fmsl":0,"id":"COM","desc":"COMPT0N ABBAS NDB"},
{"type":"SDME","hdg_t":346.6,"dist_nm":41.3,"freq":114.8,"lat":51.40640300,"lon":-3.43497500,"rng_nm":25,"alt_fmsl":178,"id":"SAT","desc":"ST ATHAN TACAN"},
{"type":"NDB","hdg_t":24.1,"dist_nm":42.4,"freq":414,"lat":51.38144200,"lon":-2.71754400,"rng_nm":25,"alt_fmsl":0,"id":"BRI","desc":"BRISTOL NDB"},
{"type":"NDB","hdg_t":86.7,"dist_nm":51,"freq":339,"lat":50.77767222,"lon":-1.84248611,"rng_nm":20,"alt_fmsl":30,"id":"BIA","desc":"BOURNEMOUTH NDB"},
{"type":"NDB","hdg_t":25,"dist_nm":52.1,"freq":325,"lat":51.52185300,"lon":-2.59023100,"rng_nm":25,"alt_fmsl":0,"id":"OF","desc":"FILTON NDB"},
{"type":"VOR","hdg_t":357,"dist_nm":59.4,"freq":117.45,"lat":51.72555600,"lon":-3.26305600,"rng_nm":65,"alt_fmsl":1450,"id":"BCN","desc":"BRECON VOR-DME"},
{"type":"SDME","hdg_t":64.9,"dist_nm":59.5,"freq":108.2,"lat":51.14895600,"lon":-1.75264700,"rng_nm":200,"alt_fmsl":430,"id":"BDN","desc":"BOSCOMBE DOWN TACAN"},
{"type":"NDB","hdg_t":327.5,"dist_nm":61.7,"freq":320,"lat":51.60222200,"lon":-4.06583300,"rng_nm":15,"alt_fmsl":0,"id":"SWN","desc":"SWANSEA NDB"},
{"type":"NDB","hdg_t":327.5,"dist_nm":61.7,"freq":321,"lat":51.60198600,"lon":-4.06610000,"rng_nm":50,"alt_fmsl":260,"id":"SWN","desc":"Swansea NDB"},
{"type":"SDME","hdg_t":327.6,"dist_nm":61.8,"freq":109.2,"lat":51.60361100,"lon":-4.06527800,"rng_nm":40,"alt_fmsl":299,"id":"SWZ","desc":"SWANSEA DME"},
{"type":"NDB","hdg_t":43.3,"dist_nm":64.1,"freq":282,"lat":51.50834200,"lon":-2.00587200,"rng_nm":40,"alt_fmsl":513,"id":"LA","desc":"LYNEHAM NDB"},
{"type":"SDME","hdg_t":43.5,"dist_nm":64.5,"freq":109.8,"lat":51.51013600,"lon":-1.99223900,"rng_nm":25,"alt_fmsl":463,"id":"LYE","desc":"LYNEHAM TACAN"},
{"type":"NDB","hdg_t":78.6,"dist_nm":70.5,"freq":391,"lat":50.95502800,"lon":-1.35611900,"rng_nm":15,"alt_fmsl":0,"id":"EAS","desc":"SOUTHAMPTON NDB"},
{"type":"VOR","hdg_t":78.6,"dist_nm":71,"freq":113.35,"lat":50.95527800,"lon":-1.34500000,"rng_nm":100,"alt_fmsl":66,"id":"SAM","desc":"SOUTHAMPTON VOR-DME"},
{"type":"NDB","hdg_t":256.6,"dist_nm":71.5,"freq":356,"lat":50.44811900,"lon":-4.99454700,"rng_nm":25,"alt_fmsl":0,"id":"SM","desc":"ST MAWGAN NDB"},
{"type":"NDB","hdg_t":148.1,"dist_nm":72.3,"freq":383,"lat":49.70887800,"lon":-2.19970000,"rng_nm":30,"alt_fmsl":331,"id":"ALD","desc":"ALDERNEY NDB"},
{"type":"NDB","hdg_t":324.4,"dist_nm":72.5,"freq":341,"lat":51.71366800,"lon":-4.31113000,"rng_nm":20,"alt_fmsl":0,"id":"PMB","desc":"PEMBREY NDB"},
{"type":"SDME","hdg_t":256.3,"dist_nm":73,"freq":112.6,"lat":50.43446100,"lon":-5.03025300,"rng_nm":200,"alt_fmsl":323,"id":"SMG","desc":"ST MAWGAN TACAN"},
{"type":"SDME","hdg_t":42,"dist_nm":77,"freq":113.4,"lat":51.68169200,"lon":-1.79761400,"rng_nm":25,"alt_fmsl":299,"id":"FFA","desc":"FAIRFORD TACAN"},
{"type":"NDB","hdg_t":91.6,"dist_nm":79.1,"freq":426,"lat":50.68082200,"lon":-1.10603200,"rng_nm":15,"alt_fmsl":0,"id":"IW","desc":"BEMBRIDGE NDB"},
{"type":"NDB","hdg_t":28.3,"dist_nm":79.1,"freq":331,"lat":51.89195300,"lon":-2.16790300,"rng_nm":25,"alt_fmsl":111,"id":"GST","desc":"GLOUCESTERSHIRE NDB"},
{"type":"SDME","hdg_t":28.3,"dist_nm":79.1,"freq":115.55,"lat":51.89219200,"lon":-2.16792800,"rng_nm":25,"alt_fmsl":109,"id":"GOS","desc":"GLOUCESTERSHIRE DME"},
{"type":"NDB","hdg_t":164.8,"dist_nm":80.9,"freq":361,"lat":49.43450800,"lon":-2.63951400,"rng_nm":30,"alt_fmsl":0,"id":"GRB","desc":"GUERNSEY NDB"},
{"type":"NDB","hdg_t":163.8,"dist_nm":81.2,"freq":361,"lat":49.43649400,"lon":-2.60177800,"rng_nm":30,"alt_fmsl":0,"id":"GUY","desc":"GUERNSEY NDB"},
{"type":"VOR","hdg_t":163.8,"dist_nm":81.2,"freq":109.4,"lat":49.43709700,"lon":-2.60205800,"rng_nm":130,"alt_fmsl":355,"id":"GUR","desc":"GUERNSEY VOR-DME"},
{"type":"SDME","hdg_t":43.7,"dist_nm":84.9,"freq":111.9,"lat":51.74819400,"lon":-1.60352500,"rng_nm":100,"alt_fmsl":331,"id":"BZN","desc":"BRIZE NORTON TACAN"},
{"type":"NDB","hdg_t":43.7,"dist_nm":85,"freq":386,"lat":51.74923300,"lon":-1.60161700,"rng_nm":20,"alt_fmsl":288,"id":"BZ","desc":"BRIZE NORTON NDB"},
{"type":"VOR","hdg_t":57.7,"dist_nm":86.8,"freq":114.35,"lat":51.49166700,"lon":-1.21972200,"rng_nm":80,"alt_fmsl":498,"id":"CPT","desc":"COMPTON VOR-DME"},
{"type":"SDME","hdg_t":69.7,"dist_nm":89.6,"freq":109.6,"lat":51.23284700,"lon":-0.94849200,"rng_nm":40,"alt_fmsl":410,"id":"ODH","desc":"ODIHAM TACAN"},
{"type":"NDB","hdg_t":6.9,"dist_nm":91.1,"freq":426,"lat":52.24339400,"lon":-2.87983900,"rng_nm":20,"alt_fmsl":0,"id":"SH","desc":"SHOBDON NDB"},
{"type":"VOR","hdg_t":84.6,"dist_nm":92.5,"freq":114.75,"lat":50.85527800,"lon":-0.75666700,"rng_nm":130,"alt_fmsl":113,"id":"GWC","desc":"GOODWOOD VOR-DME"},
{"type":"NDB","hdg_t":315,"dist_nm":94.1,"freq":328,"lat":51.83187800,"lon":-4.96808900,"rng_nm":10,"alt_fmsl":0,"id":"HAV","desc":"HAVERFORDWEST NDB"},
{"type":"SDME","hdg_t":314.9,"dist_nm":94.1,"freq":116.75,"lat":51.83200600,"lon":-4.97011700,"rng_nm":10,"alt_fmsl":201,"id":"HDW","desc":"HAVERFORDWEST DME"},
{"type":"SDME","hdg_t":55.3,"dist_nm":94.6,"freq":110,"lat":51.61450000,"lon":-1.09944400,"rng_nm":40,"alt_fmsl":226,"id":"BSO","desc":"BENSON TACAN"},
{"type":"SDME","hdg_t":67.3,"dist_nm":95.1,"freq":116.2,"lat":51.32386500,"lon":-0.84637700,"rng_nm":50,"alt_fmsl":341,"id":"BLC","desc":"BLACKBUSHE DME"},
{"type":"NDB","hdg_t":67.3,"dist_nm":95.2,"freq":328,"lat":51.32328900,"lon":-0.84479400,"rng_nm":15,"alt_fmsl":0,"id":"BLK","desc":"BLACKBUSHE NDB"},
{"type":"NDB","hdg_t":132.7,"dist_nm":96,"freq":373,"lat":49.63777777,"lon":-1.37222222,"rng_nm":25,"alt_fmsl":377,"id":"MP","desc":"Cherbourg Maupertus NDB"},
{"type":"NDB","hdg_t":46,"dist_nm":96,"freq":367,"lat":51.83248100,"lon":-1.32323900,"rng_nm":25,"alt_fmsl":0,"id":"OX","desc":"OXFORD NDB"},
{"type":"SDME","hdg_t":46,"dist_nm":96,"freq":117.7,"lat":51.83243300,"lon":-1.32281700,"rng_nm":25,"alt_fmsl":276,"id":"OX","desc":"OXFORD DME"},
{"type":"NDB","hdg_t":62.8,"dist_nm":97,"freq":352,"lat":51.45277800,"lon":-0.87888900,"rng_nm":25,"alt_fmsl":0,"id":"WOD","desc":"WOODLEY NDB"},
{"type":"NDB","hdg_t":328.5,"dist_nm":97.7,"freq":370,"lat":52.11633300,"lon":-4.55983300,"rng_nm":20,"alt_fmsl":0,"id":"AP","desc":"ABERPORTH NDB"},
{"type":"VOR","hdg_t":77.9,"dist_nm":98.9,"freq":114,"lat":51.05388900,"lon":-0.62500000,"rng_nm":100,"alt_fmsl":200,"id":"MID","desc":"MIDHURST VOR-DME"},
{"type":"NDB","hdg_t":157.6,"dist_nm":99.1,"freq":329,"lat":49.20591400,"lon":-2.21992500,"rng_nm":25,"alt_fmsl":288,"id":"JW","desc":"Jersey NDB"}
]
}
