{"success":true,"source":"xp2csv.pl","last_updated":"2013/11/08 14:53:21 UTC"
,"icao":"EG42","name":"Foula","lat":60.12196746,"lon":-2.05344598,"rwys":1,"ils":0,"index":2909571,"path":"w010n60/w003n60"
,"runways":[
{"len_m":439,"wid_m":14.94,"hdg":170,"surf":"Asphalt","rwy1":"18","lat1":60.12391424,"lon1":-2.05409049,"rwy2":"36","lat2":60.12002067,"lon2":-2.05280147}
]
,"navaids":[
{"type":"NDB","hdg_t":80.1,"dist_nm":24.4,"freq":376,"lat":60.18873000,"lon":-1.24926700,"rng_nm":25,"alt_fmsl":0,"id":"TL","desc":"TINGWALL NDB"},
{"type":"NDB","hdg_t":121.9,"dist_nm":27,"freq":351,"lat":59.88237500,"lon":-1.29483300,"rng_nm":25,"alt_fmsl":0,"id":"SBH","desc":"SUMBURGH NDB"},
{"type":"VOR","hdg_t":122,"dist_nm":27.3,"freq":117.35,"lat":59.87888900,"lon":-1.28666700,"rng_nm":200,"alt_fmsl":19,"id":"SUM","desc":"SUMBURGH VOR-DME"},
{"type":"NDB","hdg_t":50.5,"dist_nm":32.2,"freq":315,"lat":60.46018100,"lon":-1.21534200,"rng_nm":25,"alt_fmsl":0,"id":"SS","desc":"SCATSTA NDB"},
{"type":"VOR","hdg_t":200.5,"dist_nm":74.4,"freq":108.6,"lat":58.95967200,"lon":-2.89394700,"rng_nm":25,"alt_fmsl":65,"id":"KWL","desc":"KIRKWALL VOR-DME"},
{"type":"NDB","hdg_t":200.9,"dist_nm":74.6,"freq":395,"lat":58.95962200,"lon":-2.91158100,"rng_nm":40,"alt_fmsl":0,"id":"KW","desc":"KIRKWALL NDB"},
{"type":"NDB","hdg_t":203.7,"dist_nm":84.5,"freq":357,"lat":58.82986100,"lon":-3.14505600,"rng_nm":20,"alt_fmsl":0,"id":"IOF","desc":"FLOTTA NDB"},
{"type":"VOR","hdg_t":198.3,"dist_nm":105,"freq":113.6,"lat":58.45888900,"lon":-3.10027800,"rng_nm":130,"alt_fmsl":110,"id":"WIK","desc":"WICK VOR-DME"},
{"type":"NDB","hdg_t":197.5,"dist_nm":105.4,"freq":344,"lat":58.44673100,"lon":-3.06311900,"rng_nm":40,"alt_fmsl":0,"id":"WCK","desc":"WICK NDB"},
{"type":"NDB","hdg_t":60.8,"dist_nm":143.6,"freq":333,"lat":61.21472200,"lon":2.27361100,"rng_nm":50,"alt_fmsl":312,"id":"GFC","desc":"GULLFAKS NDB-DME"}
]
}
