{"success":true,"source":"xp2csv.pl","last_updated":"2013/11/08 14:53:21 UTC"
,"icao":"EG60","name":"Kirkbride","lat":54.88207499,"lon":-3.20529168,"rwys":1,"ils":0,"index":2892859,"path":"w010n50/w004n54"
,"runways":[
{"len_m":1307,"wid_m":45.11,"hdg":88,"surf":"Asphalt","rwy1":"10","lat1":54.88191680,"lon1":-3.21547730,"rwy2":"28","lat2":54.88223319,"lon2":-3.19510607}
]
,"navaids":[
{"type":"VOR","hdg_t":206,"dist_nm":10.7,"freq":115.2,"lat":54.72194400,"lon":-3.34055600,"rng_nm":130,"alt_fmsl":700,"id":"DCS","desc":"DEAN CROSS VOR-DME"},
{"type":"VOR","hdg_t":352.2,"dist_nm":37.4,"freq":113.8,"lat":55.49916700,"lon":-3.35277800,"rng_nm":130,"alt_fmsl":2786,"id":"TLA","desc":"TALLA VOR-DME"},
{"type":"NDB","hdg_t":298.4,"dist_nm":37.7,"freq":399,"lat":55.17750000,"lon":-4.16861100,"rng_nm":35,"alt_fmsl":0,"id":"NGY","desc":"NEW GALLOWAY NDB"},
{"type":"VOR","hdg_t":79.1,"dist_nm":52.9,"freq":114.25,"lat":55.03844700,"lon":-1.69836900,"rng_nm":200,"alt_fmsl":274,"id":"NEW","desc":"NEWCASTLE VOR-DME"},
{"type":"NDB","hdg_t":78.7,"dist_nm":54.9,"freq":352,"lat":55.05038300,"lon":-1.64268300,"rng_nm":25,"alt_fmsl":0,"id":"NT","desc":"NEWCASTLE NDB"},
{"type":"NDB","hdg_t":309,"dist_nm":60.2,"freq":355,"lat":55.50608900,"lon":-4.57725300,"rng_nm":15,"alt_fmsl":0,"id":"PIK","desc":"PRESTWICK NDB"},
{"type":"VOR","hdg_t":296.1,"dist_nm":60.2,"freq":117.5,"lat":55.31333300,"lon":-4.78388900,"rng_nm":130,"alt_fmsl":600,"id":"TRN","desc":"TURNBERRY VOR-DME"},
{"type":"NDB","hdg_t":350.7,"dist_nm":62.3,"freq":368,"lat":55.90515300,"lon":-3.50251100,"rng_nm":25,"alt_fmsl":0,"id":"UW","desc":"EDINBURGH NDB"},
{"type":"NDB","hdg_t":225.8,"dist_nm":63.3,"freq":366,"lat":54.14111100,"lon":-4.49166700,"rng_nm":25,"alt_fmsl":0,"id":"CAR","desc":"CARNANE NDB"},
{"type":"NDB","hdg_t":308.7,"dist_nm":64.4,"freq":426,"lat":55.54435300,"lon":-4.68155300,"rng_nm":30,"alt_fmsl":0,"id":"PW","desc":"PRESTWICK NDB"},
{"type":"NDB","hdg_t":357.6,"dist_nm":65.9,"freq":341,"lat":55.97840000,"lon":-3.28412200,"rng_nm":35,"alt_fmsl":0,"id":"EDN","desc":"EDINBURGH NDB"},
{"type":"NDB","hdg_t":174.5,"dist_nm":66.9,"freq":318,"lat":53.77277800,"lon":-3.02777800,"rng_nm":15,"alt_fmsl":34,"id":"BPL","desc":"BLACKPOOL NDB"},
{"type":"NDB","hdg_t":105.7,"dist_nm":67.9,"freq":347,"lat":54.56033900,"lon":-1.33344400,"rng_nm":25,"alt_fmsl":0,"id":"TD","desc":"TEESSIDE NDB"},
{"type":"SDME","hdg_t":120.4,"dist_nm":68,"freq":112.6,"lat":54.29710800,"lon":-1.53687200,"rng_nm":25,"alt_fmsl":92,"id":"LEE","desc":"LEEMING TACAN"},
{"type":"NDB","hdg_t":169.5,"dist_nm":69,"freq":337,"lat":53.75170600,"lon":-2.85224200,"rng_nm":15,"alt_fmsl":0,"id":"WTN","desc":"WARTON NDB"},
{"type":"NDB","hdg_t":226.4,"dist_nm":69.1,"freq":359,"lat":54.08108300,"lon":-4.62288900,"rng_nm":20,"alt_fmsl":55,"id":"RWY","desc":"ISLE OF MAN NDB"},
{"type":"SDME","hdg_t":170.7,"dist_nm":69.4,"freq":113.2,"lat":53.74034700,"lon":-2.89283900,"rng_nm":25,"alt_fmsl":54,"id":"WTN","desc":"WARTON TACAN"},
{"type":"VOR","hdg_t":28.5,"dist_nm":70.4,"freq":112.5,"lat":55.90750000,"lon":-2.20638900,"rng_nm":50,"alt_fmsl":760,"id":"SAB","desc":"ST. ABBS VOR-DME"},
{"type":"NDB","hdg_t":338.5,"dist_nm":70.7,"freq":374,"lat":55.97555600,"lon":-3.97472200,"rng_nm":25,"alt_fmsl":370,"id":"CBN","desc":"CUMBERNAULD NDB"},
{"type":"SDME","hdg_t":338,"dist_nm":71,"freq":117.55,"lat":55.97555600,"lon":-3.99111100,"rng_nm":25,"alt_fmsl":354,"id":"CBN","desc":"CUMBERNAULD DME"},
{"type":"NDB","hdg_t":325.1,"dist_nm":72.7,"freq":331,"lat":55.86976900,"lon":-4.43363100,"rng_nm":25,"alt_fmsl":26,"id":"GLW","desc":"GLASGOW NDB"},
{"type":"VOR","hdg_t":324.9,"dist_nm":73,"freq":115.4,"lat":55.87050300,"lon":-4.44572500,"rng_nm":130,"alt_fmsl":37,"id":"GOW","desc":"GLASGOW VOR-DME"},
{"type":"VOR","hdg_t":228.7,"dist_nm":73.3,"freq":112.2,"lat":54.06686700,"lon":-4.76347500,"rng_nm":130,"alt_fmsl":573,"id":"IOM","desc":"ISLE OF MAN VOR-DME"},
{"type":"VOR","hdg_t":150,"dist_nm":78.6,"freq":112.1,"lat":53.74388900,"lon":-2.10333300,"rng_nm":150,"alt_fmsl":1400,"id":"POL","desc":"POLE HILL VOR-DME"},
{"type":"NDB","hdg_t":137.6,"dist_nm":81.8,"freq":402,"lat":53.86499200,"lon":-1.65288900,"rng_nm":25,"alt_fmsl":0,"id":"LBA","desc":"LEEDS BRADFORD NDB"},
{"type":"SDME","hdg_t":125.3,"dist_nm":84.7,"freq":109,"lat":54.05049200,"lon":-1.24904400,"rng_nm":130,"alt_fmsl":53,"id":"LOO","desc":"LINTON ON OUSE TACAN"},
{"type":"VOR","hdg_t":178.3,"dist_nm":89.5,"freq":114.1,"lat":53.39194400,"lon":-3.13444400,"rng_nm":130,"alt_fmsl":55,"id":"WAL","desc":"WALLASEY VOR-DME"},
{"type":"VOR","hdg_t":292.3,"dist_nm":90.3,"freq":116,"lat":55.43000000,"lon":-5.65027800,"rng_nm":150,"alt_fmsl":95,"id":"MAC","desc":"MACHRIHANISH VOR-DME"},
{"type":"SDME","hdg_t":7.2,"dist_nm":90.3,"freq":110.5,"lat":56.37281400,"lon":-2.86366900,"rng_nm":130,"alt_fmsl":72,"id":"LUK","desc":"LEUCHARS TACAN"},
{"type":"NDB","hdg_t":292.2,"dist_nm":91.6,"freq":380,"lat":55.43563100,"lon":-5.68807200,"rng_nm":15,"alt_fmsl":44,"id":"CBL","desc":"CAMPBELTOWN NDB"},
{"type":"VOR","hdg_t":356.6,"dist_nm":93.9,"freq":110.4,"lat":56.44250000,"lon":-3.36861100,"rng_nm":80,"alt_fmsl":0,"id":"PTH","desc":"PERTH VOR"},
{"type":"NDB","hdg_t":169.4,"dist_nm":94.2,"freq":349,"lat":53.33916700,"lon":-2.72388900,"rng_nm":50,"alt_fmsl":0,"id":"LPL","desc":"Liverpool NDB"},
{"type":"NDB","hdg_t":1.8,"dist_nm":94.6,"freq":394,"lat":56.45506700,"lon":-3.11492500,"rng_nm":25,"alt_fmsl":0,"id":"DND","desc":"DUNDEE NDB"},
{"type":"NDB","hdg_t":159.9,"dist_nm":97.5,"freq":428,"lat":53.35329700,"lon":-2.27302500,"rng_nm":75,"alt_fmsl":0,"id":"MCH","desc":"MANCHESTER NDB"},
{"type":"VOR","hdg_t":159.6,"dist_nm":97.5,"freq":113.55,"lat":53.35694400,"lon":-2.26222200,"rng_nm":130,"alt_fmsl":282,"id":"MCT","desc":"MANCHESTER VOR-DME"},
{"type":"NDB","hdg_t":157.8,"dist_nm":99.9,"freq":380,"lat":53.33765800,"lon":-2.15835800,"rng_nm":15,"alt_fmsl":0,"id":"WFD","desc":"MANCHESTER WOODFORD NDB"}
]
}
