{"success":true,"source":"xp2csv.pl","last_updated":"2013/11/08 14:53:21 UTC"
,"icao":"EGCL","name":"Fenland","lat":52.73796855,"lon":-0.030439945,"rwys":2,"ils":0,"index":2941867,"path":"w010n50/w001n52"
,"runways":[
{"len_m":643,"wid_m":29.87,"hdg":180,"surf":"Turf/grass","rwy1":"18","lat1":52.74228762,"lon1":-0.02978941,"rwy2":"36","lat2":52.73650416,"lon2":-0.02994072},
{"len_m":785,"wid_m":17.98,"hdg":79,"surf":"Turf/grass","rwy1":"08","lat1":52.73588740,"lon1":-0.03672771,"rwy2":"26","lat2":52.73719501,"lon2":-0.02530193}
]
,"navaids":[
{"type":"NDB","hdg_t":22.3,"dist_nm":0.2,"freq":401,"lat":52.74165000,"lon":-0.02794200,"rng_nm":15,"alt_fmsl":0,"id":"FNL","desc":"FENLAND NDB"},
{"type":"SDME","hdg_t":245.6,"dist_nm":18.8,"freq":117.6,"lat":52.60783300,"lon":-0.49866700,"rng_nm":25,"alt_fmsl":295,"id":"WIT","desc":"WITTERING TACAN"},
{"type":"SDME","hdg_t":346.7,"dist_nm":21.8,"freq":111.1,"lat":53.09103900,"lon":-0.16897500,"rng_nm":120,"alt_fmsl":24,"id":"CGY","desc":"CONINGSBY TACAN"},
{"type":"SDME","hdg_t":104.1,"dist_nm":21.9,"freq":108.7,"lat":52.64726100,"lon":0.55326400,"rng_nm":25,"alt_fmsl":75,"id":"MAM","desc":"MARHAM TACAN"},
{"type":"SDME","hdg_t":269.8,"dist_nm":22.6,"freq":112.3,"lat":52.73537800,"lon":-0.65076900,"rng_nm":25,"alt_fmsl":452,"id":"CTM","desc":"COTTESMORE TACAN"},
{"type":"NDB","hdg_t":316.2,"dist_nm":24,"freq":423,"lat":53.02627800,"lon":-0.48898300,"rng_nm":25,"alt_fmsl":0,"id":"CWL","desc":"CRANWELL NDB"},
{"type":"SDME","hdg_t":316.7,"dist_nm":24,"freq":117.4,"lat":53.02861700,"lon":-0.48550000,"rng_nm":65,"alt_fmsl":218,"id":"CWZ","desc":"CRANWELL TACAN"},
{"type":"SDME","hdg_t":133,"dist_nm":29,"freq":110.2,"lat":52.40641900,"lon":0.54796400,"rng_nm":25,"alt_fmsl":91,"id":"LKH","desc":"LAKENHEATH TACAN"},
{"type":"SDME","hdg_t":139.6,"dist_nm":29.4,"freq":115.9,"lat":52.36335000,"lon":0.48826900,"rng_nm":130,"alt_fmsl":63,"id":"MLD","desc":"MILDENHALL TACAN"},
{"type":"SDME","hdg_t":325.1,"dist_nm":31.3,"freq":117.1,"lat":53.16533300,"lon":-0.52683300,"rng_nm":130,"alt_fmsl":231,"id":"WAD","desc":"WADDINGTON TACAN"},
{"type":"NDB","hdg_t":180.9,"dist_nm":31.6,"freq":391,"lat":52.21113600,"lon":-0.04493600,"rng_nm":15,"alt_fmsl":0,"id":"BOU","desc":"BOURN NDB"},
{"type":"NDB","hdg_t":166,"dist_nm":32.6,"freq":332,"lat":52.21085000,"lon":0.18279200,"rng_nm":15,"alt_fmsl":0,"id":"CAM","desc":"CAMBRIDGE NDB"},
{"type":"NDB","hdg_t":12.2,"dist_nm":35.1,"freq":330,"lat":53.31000000,"lon":0.17616700,"rng_nm":25,"alt_fmsl":0,"id":"SBY","desc":"STRUBBY NDB"},
{"type":"NDB","hdg_t":100.7,"dist_nm":35.6,"freq":348,"lat":52.62305500,"lon":0.92694400,"rng_nm":150,"alt_fmsl":0,"id":"SDM","desc":"SHIPDHAM NDB"},
{"type":"NDB","hdg_t":258.2,"dist_nm":37.5,"freq":383,"lat":52.60638900,"lon":-1.03500000,"rng_nm":10,"alt_fmsl":0,"id":"LE","desc":"LEICESTER NDB"},
{"type":"NDB","hdg_t":227.1,"dist_nm":38.5,"freq":378,"lat":52.29909200,"lon":-0.79760300,"rng_nm":15,"alt_fmsl":0,"id":"NN","desc":"NORTHAMPTON NDB"},
{"type":"NDB","hdg_t":286.5,"dist_nm":39.7,"freq":430,"lat":52.92169400,"lon":-1.07933300,"rng_nm":10,"alt_fmsl":0,"id":"NOT","desc":"NOTTINGHAM NDB"},
{"type":"NDB","hdg_t":208.1,"dist_nm":41.3,"freq":850,"lat":52.13033300,"lon":-0.55700000,"rng_nm":50,"alt_fmsl":364,"id":"CIT","desc":"Cranfield NDB"},
{"type":"NDB","hdg_t":278.1,"dist_nm":42.7,"freq":353,"lat":52.83283300,"lon":-1.19450000,"rng_nm":50,"alt_fmsl":280,"id":"EME","desc":"East Midlands NDB"},
{"type":"NDB","hdg_t":94.5,"dist_nm":43.6,"freq":342,"lat":52.67416800,"lon":1.16222200,"rng_nm":150,"alt_fmsl":0,"id":"DH","desc":"NORWICH NDB"},
{"type":"VOR","hdg_t":175.6,"dist_nm":45,"freq":116.25,"lat":51.98972200,"lon":0.06194400,"rng_nm":40,"alt_fmsl":486,"id":"BKY","desc":"BARKWAY VOR-DME"},
{"type":"VOR","hdg_t":208.3,"dist_nm":45.2,"freq":116.5,"lat":52.07421700,"lon":-0.61079200,"rng_nm":50,"alt_fmsl":357,"id":"CFD","desc":"CRANFIELD VOR"},
{"type":"VOR","hdg_t":314.8,"dist_nm":46.5,"freq":112.8,"lat":53.28138900,"lon":-0.94722200,"rng_nm":130,"alt_fmsl":121,"id":"GAM","desc":"GAMSTON VOR-DME"},
{"type":"NDB","hdg_t":189.1,"dist_nm":51.3,"freq":345,"lat":51.89416800,"lon":-0.25083300,"rng_nm":50,"alt_fmsl":0,"id":"LUT","desc":"Luton NDB"},
{"type":"SDME","hdg_t":135.6,"dist_nm":51.3,"freq":109.3,"lat":52.12193300,"lon":0.94046900,"rng_nm":130,"alt_fmsl":324,"id":"WTZ","desc":"WATTISHAM TACAN"},
{"type":"NDB","hdg_t":168.5,"dist_nm":51.6,"freq":429,"lat":51.89459200,"lon":0.24503100,"rng_nm":20,"alt_fmsl":0,"id":"SSD","desc":"STANSTED NDB"},
{"type":"NDB","hdg_t":347.1,"dist_nm":51.7,"freq":365,"lat":53.57666700,"lon":-0.35166700,"rng_nm":15,"alt_fmsl":0,"id":"KIM","desc":"HUMBERSIDE NDB"},
{"type":"NDB","hdg_t":93.5,"dist_nm":51.7,"freq":371,"lat":52.67642200,"lon":1.38471100,"rng_nm":20,"alt_fmsl":0,"id":"NL","desc":"NORWICH NDB"},
{"type":"VOR","hdg_t":230.3,"dist_nm":51.9,"freq":116.4,"lat":52.18027800,"lon":-1.11388900,"rng_nm":130,"alt_fmsl":600,"id":"DTY","desc":"DAVENTRY VOR-DME"},
{"type":"NDB","hdg_t":276.5,"dist_nm":52.1,"freq":393,"lat":52.82866600,"lon":-1.45450000,"rng_nm":50,"alt_fmsl":280,"id":"EMW","desc":"East Midlands NDB"},
{"type":"NDB","hdg_t":249.2,"dist_nm":54,"freq":363,"lat":52.41100000,"lon":-1.40583300,"rng_nm":50,"alt_fmsl":360,"id":"CT","desc":"Coventry NDB"},
{"type":"NDB","hdg_t":321.9,"dist_nm":56.5,"freq":338,"lat":53.47482200,"lon":-1.00172500,"rng_nm":25,"alt_fmsl":0,"id":"FNY","desc":"DONCASTER NDB"},
{"type":"VOR","hdg_t":357.4,"dist_nm":57.7,"freq":113.9,"lat":53.69833300,"lon":-0.10361100,"rng_nm":100,"alt_fmsl":0,"id":"OTR","desc":"OTTRINGHAM VOR-DME"},
{"type":"VOR","hdg_t":182.7,"dist_nm":59.4,"freq":117.5,"lat":51.74972200,"lon":-0.10666700,"rng_nm":80,"alt_fmsl":382,"id":"BPK","desc":"BROOKMANS PARK VOR-DME"},
{"type":"NDB","hdg_t":271.1,"dist_nm":61.5,"freq":545,"lat":52.74666700,"lon":-1.71944400,"rng_nm":50,"alt_fmsl":0,"id":"LIC","desc":"LICHFIELD NDB"},
{"type":"NDB","hdg_t":132.7,"dist_nm":62.1,"freq":328,"lat":52.02888900,"lon":1.20138900,"rng_nm":150,"alt_fmsl":0,"id":"PSW","desc":"IPSWICH NDB"},
{"type":"NDB","hdg_t":341.7,"dist_nm":62.5,"freq":372,"lat":53.72538100,"lon":-0.58148300,"rng_nm":15,"alt_fmsl":12,"id":"BV","desc":"BROUGH NDB"},
{"type":"VOR","hdg_t":288.3,"dist_nm":62.5,"freq":115.7,"lat":53.05388900,"lon":-1.67000000,"rng_nm":130,"alt_fmsl":968,"id":"TNT","desc":"TRENT VOR-DME"},
{"type":"NDB","hdg_t":309.3,"dist_nm":62.8,"freq":333,"lat":53.39263900,"lon":-1.38313600,"rng_nm":15,"alt_fmsl":0,"id":"SMF","desc":"SHEFFIELD CITY NDB"},
{"type":"SDME","hdg_t":309.3,"dist_nm":62.8,"freq":111.35,"lat":53.39298100,"lon":-1.38314200,"rng_nm":25,"alt_fmsl":273,"id":"SFH","desc":"SHEFFIELD CITY DME"},
{"type":"NDB","hdg_t":213.2,"dist_nm":63.2,"freq":335,"lat":51.85305600,"lon":-0.96250000,"rng_nm":30,"alt_fmsl":0,"id":"WCO","desc":"WESTCOTT NDB"},
{"type":"NDB","hdg_t":274.8,"dist_nm":63.4,"freq":327,"lat":52.81446400,"lon":-1.76667200,"rng_nm":10,"alt_fmsl":0,"id":"TNL","desc":"TATENHILL NDB"},
{"type":"VOR","hdg_t":197.6,"dist_nm":63.7,"freq":113.75,"lat":51.72611100,"lon":-0.54972200,"rng_nm":130,"alt_fmsl":500,"id":"BNN","desc":"BOVINGDON VOR-DME"},
{"type":"VOR","hdg_t":249.6,"dist_nm":64,"freq":113.65,"lat":52.35666700,"lon":-1.66361100,"rng_nm":130,"alt_fmsl":435,"id":"HON","desc":"HONILEY VOR-DME"},
{"type":"NDB","hdg_t":94.7,"dist_nm":64.3,"freq":397,"lat":52.63694400,"lon":1.72527800,"rng_nm":150,"alt_fmsl":0,"id":"ND","desc":"GREAT YARMOUTH NDB"},
{"type":"NDB","hdg_t":205.7,"dist_nm":65.1,"freq":433,"lat":51.75972200,"lon":-0.79027800,"rng_nm":30,"alt_fmsl":0,"id":"HEN","desc":"HENTON NDB"},
{"type":"NDB","hdg_t":255.5,"dist_nm":65.2,"freq":406,"lat":52.45454700,"lon":-1.75238600,"rng_nm":20,"alt_fmsl":325,"id":"BHX","desc":"BIRMINGHAM NDB"},
{"type":"VOR","hdg_t":174,"dist_nm":65.9,"freq":115.6,"lat":51.64611100,"lon":0.15166700,"rng_nm":110,"alt_fmsl":200,"id":"LAM","desc":"LAMBOURNE VOR-DME"},
{"type":"VOR","hdg_t":140.4,"dist_nm":68.8,"freq":114.55,"lat":51.84841700,"lon":1.14761100,"rng_nm":100,"alt_fmsl":100,"id":"CLN","desc":"CLACTON VOR-DME"},
{"type":"NDB","hdg_t":140.4,"dist_nm":68.9,"freq":295,"lat":51.84805700,"lon":1.14944400,"rng_nm":150,"alt_fmsl":0,"id":"CLN","desc":"CLACTON NDB"},
{"type":"NDB","hdg_t":195.2,"dist_nm":69.3,"freq":277,"lat":51.62305600,"lon":-0.51833300,"rng_nm":25,"alt_fmsl":0,"id":"CHT","desc":"CHILTERN NDB"},
{"type":"NDB","hdg_t":221.7,"dist_nm":72.3,"freq":367,"lat":51.83248100,"lon":-1.32323900,"rng_nm":25,"alt_fmsl":0,"id":"OX","desc":"OXFORD NDB"},
{"type":"SDME","hdg_t":221.7,"dist_nm":72.3,"freq":117.7,"lat":51.83243300,"lon":-1.32281700,"rng_nm":25,"alt_fmsl":276,"id":"OX","desc":"OXFORD DME"},
{"type":"NDB","hdg_t":177.1,"dist_nm":74.2,"freq":322,"lat":51.50435000,"lon":0.06750300,"rng_nm":10,"alt_fmsl":0,"id":"LCY","desc":"CITY NDB"},
{"type":"NDB","hdg_t":158.5,"dist_nm":74.8,"freq":362,"lat":51.57632800,"lon":0.70033000,"rng_nm":50,"alt_fmsl":50,"id":"SND","desc":"Southend NDB"},
{"type":"VOR","hdg_t":192.2,"dist_nm":76.8,"freq":113.6,"lat":51.48722200,"lon":-0.46666700,"rng_nm":130,"alt_fmsl":110,"id":"LON","desc":"LONDON VOR-DME"},
{"type":"NDB","hdg_t":198.3,"dist_nm":77,"freq":421,"lat":51.51888900,"lon":-0.67722200,"rng_nm":30,"alt_fmsl":0,"id":"BUR","desc":"BURNHAM NDB"},
{"type":"SDME","hdg_t":210.7,"dist_nm":78.1,"freq":110,"lat":51.61450000,"lon":-1.09944400,"rng_nm":40,"alt_fmsl":226,"id":"BSO","desc":"BENSON TACAN"},
{"type":"NDB","hdg_t":261.5,"dist_nm":82.6,"freq":356,"lat":52.51590300,"lon":-2.26176100,"rng_nm":25,"alt_fmsl":0,"id":"WBA","desc":"WOLVERHAMPTON NDB"},
{"type":"SDME","hdg_t":261.5,"dist_nm":82.6,"freq":108.6,"lat":52.51579400,"lon":-2.26181700,"rng_nm":15,"alt_fmsl":300,"id":"WOL","desc":"WOLVERHAMPTON DME"},
{"type":"NDB","hdg_t":224.9,"dist_nm":82.9,"freq":386,"lat":51.74923300,"lon":-1.60161700,"rng_nm":20,"alt_fmsl":288,"id":"BZ","desc":"BRIZE NORTON NDB"},
{"type":"SDME","hdg_t":224.9,"dist_nm":83,"freq":111.9,"lat":51.74819400,"lon":-1.60352500,"rng_nm":100,"alt_fmsl":331,"id":"BZN","desc":"BRIZE NORTON TACAN"},
{"type":"NDB","hdg_t":202.4,"dist_nm":83.3,"freq":352,"lat":51.45277800,"lon":-0.87888900,"rng_nm":25,"alt_fmsl":0,"id":"WOD","desc":"WOODLEY NDB"},
{"type":"VOR","hdg_t":178.3,"dist_nm":84.5,"freq":115.1,"lat":51.33087500,"lon":0.03481100,"rng_nm":125,"alt_fmsl":590,"id":"BIG","desc":"BIGGIN VOR-DME"},
{"type":"NDB","hdg_t":295.9,"dist_nm":85,"freq":380,"lat":53.33765800,"lon":-2.15835800,"rng_nm":15,"alt_fmsl":0,"id":"WFD","desc":"MANCHESTER WOODFORD NDB"},
{"type":"NDB","hdg_t":166.4,"dist_nm":85.4,"freq":369,"lat":51.35383300,"lon":0.50366700,"rng_nm":25,"alt_fmsl":0,"id":"RCH","desc":"ROCHESTER NDB"},
{"type":"NDB","hdg_t":193.5,"dist_nm":85.8,"freq":348,"lat":51.34741100,"lon":-0.56542900,"rng_nm":10,"alt_fmsl":80,"id":"FOS","desc":"FAIROAKS NDB"},
{"type":"SDME","hdg_t":193.5,"dist_nm":85.8,"freq":109.85,"lat":51.34741100,"lon":-0.56542900,"rng_nm":8,"alt_fmsl":80,"id":"FRK","desc":"FAIROAKS DME"},
{"type":"NDB","hdg_t":188.5,"dist_nm":86.1,"freq":316,"lat":51.31944400,"lon":-0.37194400,"rng_nm":25,"alt_fmsl":0,"id":"EPM","desc":"EPSOM NDB"},
{"type":"VOR","hdg_t":210.9,"dist_nm":86.8,"freq":114.35,"lat":51.49166700,"lon":-1.21972200,"rng_nm":80,"alt_fmsl":498,"id":"CPT","desc":"COMPTON VOR-DME"},
{"type":"VOR","hdg_t":190.3,"dist_nm":87.4,"freq":115.3,"lat":51.30500000,"lon":-0.44722200,"rng_nm":70,"alt_fmsl":200,"id":"OCK","desc":"OCKHAM VOR-DME"},
{"type":"VOR","hdg_t":295.6,"dist_nm":88.9,"freq":113.55,"lat":53.35694400,"lon":-2.26222200,"rng_nm":130,"alt_fmsl":282,"id":"MCT","desc":"MANCHESTER VOR-DME"},
{"type":"NDB","hdg_t":295.3,"dist_nm":89.2,"freq":428,"lat":53.35329700,"lon":-2.27302500,"rng_nm":75,"alt_fmsl":0,"id":"MCH","desc":"MANCHESTER NDB"},
{"type":"VOR","hdg_t":164.6,"dist_nm":89.2,"freq":117.3,"lat":51.30388900,"lon":0.59722200,"rng_nm":130,"alt_fmsl":645,"id":"DET","desc":"DETLING VOR-DME"},
{"type":"NDB","hdg_t":319.8,"dist_nm":89.4,"freq":402,"lat":53.86499200,"lon":-1.65288900,"rng_nm":25,"alt_fmsl":0,"id":"LBA","desc":"LEEDS BRADFORD NDB"},
{"type":"NDB","hdg_t":199.8,"dist_nm":90.1,"freq":328,"lat":51.32328900,"lon":-0.84479400,"rng_nm":15,"alt_fmsl":0,"id":"BLK","desc":"BLACKBUSHE NDB"},
{"type":"SDME","hdg_t":199.9,"dist_nm":90.1,"freq":116.2,"lat":51.32386500,"lon":-0.84637700,"rng_nm":50,"alt_fmsl":341,"id":"BLC","desc":"BLACKBUSHE DME"},
{"type":"SDME","hdg_t":331.4,"dist_nm":90.2,"freq":109,"lat":54.05049200,"lon":-1.24904400,"rng_nm":130,"alt_fmsl":53,"id":"LOO","desc":"LINTON ON OUSE TACAN"},
{"type":"SDME","hdg_t":226.4,"dist_nm":90.9,"freq":113.4,"lat":51.68169200,"lon":-1.79761400,"rng_nm":25,"alt_fmsl":299,"id":"FFA","desc":"FAIRFORD TACAN"},
{"type":"NDB","hdg_t":182.5,"dist_nm":91.5,"freq":343,"lat":51.21494400,"lon":-0.13925000,"rng_nm":10,"alt_fmsl":0,"id":"RDL","desc":"REDHILL NDB"},
{"type":"NDB","hdg_t":237.9,"dist_nm":93.6,"freq":331,"lat":51.89195300,"lon":-2.16790300,"rng_nm":25,"alt_fmsl":111,"id":"GST","desc":"GLOUCESTERSHIRE NDB"},
{"type":"SDME","hdg_t":238,"dist_nm":93.6,"freq":115.55,"lat":51.89219200,"lon":-2.16792800,"rng_nm":25,"alt_fmsl":109,"id":"GOS","desc":"GLOUCESTERSHIRE DME"},
{"type":"NDB","hdg_t":180.8,"dist_nm":94.5,"freq":338,"lat":51.16443900,"lon":-0.06913300,"rng_nm":15,"alt_fmsl":0,"id":"GE","desc":"GATWICK NDB"},
{"type":"VOR","hdg_t":273.2,"dist_nm":95.9,"freq":116.8,"lat":52.79800300,"lon":-2.66254200,"rng_nm":40,"alt_fmsl":269,"id":"SWB","desc":"SHAWBURY VOR-DME"},
{"type":"VOR","hdg_t":309.7,"dist_nm":96.1,"freq":112.1,"lat":53.74388900,"lon":-2.10333300,"rng_nm":150,"alt_fmsl":1400,"id":"POL","desc":"POLE HILL VOR-DME"},
{"type":"SDME","hdg_t":200.9,"dist_nm":96.6,"freq":109.6,"lat":51.23284700,"lon":-0.94849200,"rng_nm":40,"alt_fmsl":410,"id":"ODH","desc":"ODIHAM TACAN"},
{"type":"NDB","hdg_t":186.3,"dist_nm":97.1,"freq":365,"lat":51.13065300,"lon":-0.31595600,"rng_nm":15,"alt_fmsl":0,"id":"GY","desc":"GATWICK NDB"},
{"type":"NDB","hdg_t":286.9,"dist_nm":97.8,"freq":368,"lat":53.18500000,"lon":-2.62305600,"rng_nm":25,"alt_fmsl":0,"id":"WHI","desc":"WHITEGATE NDB"},
{"type":"NDB","hdg_t":164.8,"dist_nm":98.3,"freq":340,"lat":51.15472200,"lon":0.64805600,"rng_nm":15,"alt_fmsl":72,"id":"LSH","desc":"LASHENDEN NDB-DME"},
{"type":"SDME","hdg_t":164.8,"dist_nm":98.3,"freq":115.95,"lat":51.15472200,"lon":0.64805600,"rng_nm":15,"alt_fmsl":72,"id":"LSH","desc":"LASHENDEN NDB-DME"},
{"type":"NDB","hdg_t":145.6,"dist_nm":98.5,"freq":301,"lat":51.37444300,"lon":1.44666700,"rng_nm":50,"alt_fmsl":0,"id":"NF","desc":"NORTH FORELAND NDB"}
]
}
