{"success":true,"source":"xp2csv.pl","last_updated":"2013/11/08 14:53:21 UTC"
,"icao":"EGEY","name":"Colonsay","lat":56.0575625,"lon":-6.243079,"rwys":1,"ils":0,"index":2843779,"path":"w010n50/w007n56"
,"runways":[
{"len_m":501,"wid_m":17.98,"hdg":99,"surf":"Asphalt","rwy1":"10","lat1":56.05793600,"lon1":-6.24705000,"rwy2":"28","lat2":56.05718900,"lon2":-6.23910800}
]
,"navaids":[
{"type":"NDB","hdg_t":180.5,"dist_nm":22.5,"freq":395,"lat":55.68286400,"lon":-6.24947800,"rng_nm":20,"alt_fmsl":58,"id":"LAY","desc":"ISLAY NDB"},
{"type":"SDME","hdg_t":180.5,"dist_nm":22.5,"freq":109.95,"lat":55.68296700,"lon":-6.24941400,"rng_nm":25,"alt_fmsl":70,"id":"ISY","desc":"ISLAY DME"},
{"type":"VOR","hdg_t":321.3,"dist_nm":33.6,"freq":117.7,"lat":56.49316700,"lon":-6.87555600,"rng_nm":130,"alt_fmsl":36,"id":"TIR","desc":"TIREE VOR-DME"},
{"type":"NDB","hdg_t":48.9,"dist_nm":37,"freq":404,"lat":56.45970154,"lon":-5.40251684,"rng_nm":50,"alt_fmsl":20,"id":"OBN","desc":"North Connel NDB"},
{"type":"NDB","hdg_t":153,"dist_nm":41.8,"freq":380,"lat":55.43563100,"lon":-5.68807200,"rng_nm":15,"alt_fmsl":44,"id":"CBL","desc":"CAMPBELTOWN NDB"},
{"type":"VOR","hdg_t":151.7,"dist_nm":42.7,"freq":116,"lat":55.43000000,"lon":-5.65027800,"rng_nm":150,"alt_fmsl":95,"id":"MAC","desc":"MACHRIHANISH VOR-DME"},
{"type":"NDB","hdg_t":119.6,"dist_nm":61.2,"freq":426,"lat":55.54435300,"lon":-4.68155300,"rng_nm":30,"alt_fmsl":0,"id":"PW","desc":"PRESTWICK NDB"},
{"type":"VOR","hdg_t":99.7,"dist_nm":61.6,"freq":115.4,"lat":55.87050300,"lon":-4.44572500,"rng_nm":130,"alt_fmsl":37,"id":"GOW","desc":"GLASGOW VOR-DME"},
{"type":"NDB","hdg_t":99.7,"dist_nm":62,"freq":331,"lat":55.86976900,"lon":-4.43363100,"rng_nm":25,"alt_fmsl":26,"id":"GLW","desc":"GLASGOW NDB"},
{"type":"NDB","hdg_t":119.7,"dist_nm":65.4,"freq":355,"lat":55.50608900,"lon":-4.57725300,"rng_nm":15,"alt_fmsl":0,"id":"PIK","desc":"PRESTWICK NDB"},
{"type":"SDME","hdg_t":203.9,"dist_nm":65.4,"freq":109.15,"lat":55.06083300,"lon":-7.01333300,"rng_nm":25,"alt_fmsl":18,"id":"BKL","desc":"BALLYKELLY TACAN"},
{"type":"VOR","hdg_t":131.4,"dist_nm":66.7,"freq":117.5,"lat":55.31333300,"lon":-4.78388900,"rng_nm":130,"alt_fmsl":600,"id":"TRN","desc":"TURNBERRY VOR-DME"},
{"type":"NDB","hdg_t":325.9,"dist_nm":70.6,"freq":316,"lat":57.02562800,"lon":-7.44892200,"rng_nm":15,"alt_fmsl":0,"id":"BRR","desc":"BARRA NDB"},
{"type":"NDB","hdg_t":10.5,"dist_nm":73.2,"freq":390,"lat":57.25483000,"lon":-5.83286500,"rng_nm":25,"alt_fmsl":0,"id":"BFD","desc":"BROADFORD NDB"},
{"type":"SDME","hdg_t":92.7,"dist_nm":75.9,"freq":117.55,"lat":55.97555600,"lon":-3.99111100,"rng_nm":25,"alt_fmsl":354,"id":"CBN","desc":"CUMBERNAULD DME"},
{"type":"NDB","hdg_t":92.7,"dist_nm":76.5,"freq":374,"lat":55.97555600,"lon":-3.97472200,"rng_nm":25,"alt_fmsl":370,"id":"CBN","desc":"CUMBERNAULD NDB"},
{"type":"NDB","hdg_t":176.1,"dist_nm":82.2,"freq":332,"lat":54.69264700,"lon":-6.08535800,"rng_nm":15,"alt_fmsl":0,"id":"OY","desc":"ALDERGROVE NDB"},
{"type":"VOR","hdg_t":179.6,"dist_nm":83.9,"freq":117.2,"lat":54.66111100,"lon":-6.23000000,"rng_nm":200,"alt_fmsl":194,"id":"BEL","desc":"BELFAST VOR-DME"},
{"type":"NDB","hdg_t":125.9,"dist_nm":88.1,"freq":399,"lat":55.17750000,"lon":-4.16861100,"rng_nm":35,"alt_fmsl":0,"id":"NGY","desc":"NEW GALLOWAY NDB"},
{"type":"NDB","hdg_t":94.5,"dist_nm":92.8,"freq":368,"lat":55.90515300,"lon":-3.50251100,"rng_nm":25,"alt_fmsl":0,"id":"UW","desc":"EDINBURGH NDB"},
{"type":"NDB","hdg_t":336.9,"dist_nm":93,"freq":401,"lat":57.47618100,"lon":-7.36925300,"rng_nm":40,"alt_fmsl":0,"id":"BBA","desc":"BENBECULA NDB"},
{"type":"VOR","hdg_t":337,"dist_nm":93,"freq":113.95,"lat":57.47793600,"lon":-7.36530000,"rng_nm":200,"alt_fmsl":130,"id":"BEN","desc":"BENBECULA VOR-DME"},
{"type":"SDME","hdg_t":336.8,"dist_nm":93,"freq":108.1,"lat":57.47508600,"lon":-7.37032200,"rng_nm":25,"alt_fmsl":48,"id":"BCL","desc":"BENBECULA DME"},
{"type":"NDB","hdg_t":230.4,"dist_nm":93.8,"freq":361,"lat":55.04400600,"lon":-8.33927500,"rng_nm":25,"alt_fmsl":0,"id":"CFN","desc":"DONEGAL NDB"},
{"type":"VOR","hdg_t":75.2,"dist_nm":98.9,"freq":110.4,"lat":56.44250000,"lon":-3.36861100,"rng_nm":80,"alt_fmsl":0,"id":"PTH","desc":"PERTH VOR"},
{"type":"NDB","hdg_t":91.5,"dist_nm":99.7,"freq":341,"lat":55.97840000,"lon":-3.28412200,"rng_nm":35,"alt_fmsl":0,"id":"EDN","desc":"EDINBURGH NDB"}
]
}
