{"success":true,"source":"xp2csv.pl","last_updated":"2013/11/08 14:53:21 UTC"
,"icao":"EGHI","name":"Southampton","lat":50.9502555,"lon":-1.3568055,"rwys":1,"ils":1,"index":2925370,"path":"w010n50/w002n50"
,"runways":[
{"len_m":1723,"wid_m":36.88,"hdg":19,"surf":"Asphalt","rwy1":"02","lat1":50.94295000,"lon1":-1.36087500,"rwy2":"20","lat2":50.95756100,"lon2":-1.35273600}
]
,"radios":[
{"type":"TWR","freq":118.2,"desc":"Southampton Tower"}
]
,"ils":[
{"type":"ILS","freq":110.75,"lat":50.94206900,"lon":-1.36136700,"rng_nm":18,"alt_fmsl":44,"hdg":199.34,"id":"ISN","rwy":"20","desc":"ILS-cat-I"},
{"type":"GS","freq":110.75,"lat":50.95520800,"lon":-1.35604200,"rng_nm":10,"alt_fmsl":44,"id":"ISN","rwy":"20","desc":"GS","gs":3.1},
{"type":"DME","freq":110.75,"lat":50.95517800,"lon":-1.35593900,"rng_nm":18,"alt_fmsl":54,"id":"ISN","rwy":"20","desc":"DME-ILS"}
]
,"navaids":[
{"type":"NDB","hdg_t":5.1,"dist_nm":0.2,"freq":391,"lat":50.95502800,"lon":-1.35611900,"rng_nm":15,"alt_fmsl":0,"id":"EAS","desc":"SOUTHAMPTON NDB"},
{"type":"VOR","hdg_t":56,"dist_nm":0.5,"freq":113.35,"lat":50.95527800,"lon":-1.34500000,"rng_nm":100,"alt_fmsl":66,"id":"SAM","desc":"SOUTHAMPTON VOR-DME"},
{"type":"NDB","hdg_t":149.3,"dist_nm":18.7,"freq":426,"lat":50.68082200,"lon":-1.10603200,"rng_nm":15,"alt_fmsl":0,"id":"IW","desc":"BEMBRIDGE NDB"},
{"type":"SDME","hdg_t":308.6,"dist_nm":19.1,"freq":108.2,"lat":51.14895600,"lon":-1.75264700,"rng_nm":200,"alt_fmsl":430,"id":"BDN","desc":"BOSCOMBE DOWN TACAN"},
{"type":"NDB","hdg_t":240.8,"dist_nm":21.1,"freq":339,"lat":50.77767222,"lon":-1.84248611,"rng_nm":20,"alt_fmsl":30,"id":"BIA","desc":"BOURNEMOUTH NDB"},
{"type":"SDME","hdg_t":42.1,"dist_nm":22.9,"freq":109.6,"lat":51.23284700,"lon":-0.94849200,"rng_nm":40,"alt_fmsl":410,"id":"ODH","desc":"ODIHAM TACAN"},
{"type":"VOR","hdg_t":103.8,"dist_nm":23.4,"freq":114.75,"lat":50.85527800,"lon":-0.75666700,"rng_nm":130,"alt_fmsl":113,"id":"GWC","desc":"GOODWOOD VOR-DME"},
{"type":"VOR","hdg_t":77,"dist_nm":28.4,"freq":114,"lat":51.05388900,"lon":-0.62500000,"rng_nm":100,"alt_fmsl":200,"id":"MID","desc":"MIDHURST VOR-DME"},
{"type":"SDME","hdg_t":40.4,"dist_nm":29.5,"freq":116.2,"lat":51.32386500,"lon":-0.84637700,"rng_nm":50,"alt_fmsl":341,"id":"BLC","desc":"BLACKBUSHE DME"},
{"type":"NDB","hdg_t":40.6,"dist_nm":29.6,"freq":328,"lat":51.32328900,"lon":-0.84479400,"rng_nm":15,"alt_fmsl":0,"id":"BLK","desc":"BLACKBUSHE NDB"},
{"type":"NDB","hdg_t":272.1,"dist_nm":30.3,"freq":349,"lat":50.96620300,"lon":-2.15516700,"rng_nm":10,"alt_fmsl":0,"id":"COM","desc":"COMPT0N ABBAS NDB"},
{"type":"VOR","hdg_t":8.9,"dist_nm":32.9,"freq":114.35,"lat":51.49166700,"lon":-1.21972200,"rng_nm":80,"alt_fmsl":498,"id":"CPT","desc":"COMPTON VOR-DME"},
{"type":"NDB","hdg_t":30.6,"dist_nm":35.1,"freq":352,"lat":51.45277800,"lon":-0.87888900,"rng_nm":25,"alt_fmsl":0,"id":"WOD","desc":"WOODLEY NDB"},
{"type":"NDB","hdg_t":51.1,"dist_nm":38.2,"freq":348,"lat":51.34741100,"lon":-0.56542900,"rng_nm":10,"alt_fmsl":80,"id":"FOS","desc":"FAIROAKS NDB"},
{"type":"SDME","hdg_t":51.1,"dist_nm":38.2,"freq":109.85,"lat":51.34741100,"lon":-0.56542900,"rng_nm":8,"alt_fmsl":80,"id":"FRK","desc":"FAIROAKS DME"},
{"type":"VOR","hdg_t":57.8,"dist_nm":40.4,"freq":115.3,"lat":51.30500000,"lon":-0.44722200,"rng_nm":70,"alt_fmsl":200,"id":"OCK","desc":"OCKHAM VOR-DME"},
{"type":"NDB","hdg_t":74.2,"dist_nm":40.8,"freq":365,"lat":51.13065300,"lon":-0.31595600,"rng_nm":15,"alt_fmsl":0,"id":"GY","desc":"GATWICK NDB"},
{"type":"NDB","hdg_t":99.2,"dist_nm":40.9,"freq":332,"lat":50.83550000,"lon":-0.29550000,"rng_nm":10,"alt_fmsl":0,"id":"SHM","desc":"Shoreham NDB"},
{"type":"SDME","hdg_t":13.5,"dist_nm":41,"freq":110,"lat":51.61450000,"lon":-1.09944400,"rng_nm":40,"alt_fmsl":226,"id":"BSO","desc":"BENSON TACAN"},
{"type":"SDME","hdg_t":324.7,"dist_nm":41.2,"freq":109.8,"lat":51.51013600,"lon":-1.99223900,"rng_nm":25,"alt_fmsl":463,"id":"LYE","desc":"LYNEHAM TACAN"},
{"type":"NDB","hdg_t":324.1,"dist_nm":41.5,"freq":282,"lat":51.50834200,"lon":-2.00587200,"rng_nm":40,"alt_fmsl":513,"id":"LA","desc":"LYNEHAM NDB"},
{"type":"NDB","hdg_t":36.6,"dist_nm":42.7,"freq":421,"lat":51.51888900,"lon":-0.67722200,"rng_nm":30,"alt_fmsl":0,"id":"BUR","desc":"BURNHAM NDB"},
{"type":"NDB","hdg_t":58.8,"dist_nm":43.3,"freq":316,"lat":51.31944400,"lon":-0.37194400,"rng_nm":25,"alt_fmsl":0,"id":"EPM","desc":"EPSOM NDB"},
{"type":"VOR","hdg_t":45.8,"dist_nm":46.5,"freq":113.6,"lat":51.48722200,"lon":-0.46666700,"rng_nm":130,"alt_fmsl":110,"id":"LON","desc":"LONDON VOR-DME"},
{"type":"SDME","hdg_t":339.4,"dist_nm":46.9,"freq":113.4,"lat":51.68169200,"lon":-1.79761400,"rng_nm":25,"alt_fmsl":299,"id":"FFA","desc":"FAIRFORD TACAN"},
{"type":"NDB","hdg_t":70.4,"dist_nm":48.7,"freq":343,"lat":51.21494400,"lon":-0.13925000,"rng_nm":10,"alt_fmsl":0,"id":"RDL","desc":"REDHILL NDB"},
{"type":"SDME","hdg_t":274.3,"dist_nm":48.7,"freq":111,"lat":51.00501400,"lon":-2.63875300,"rng_nm":130,"alt_fmsl":113,"id":"VLN","desc":"YEOVILTON TACAN"},
{"type":"NDB","hdg_t":349.2,"dist_nm":48.8,"freq":386,"lat":51.74923300,"lon":-1.60161700,"rng_nm":20,"alt_fmsl":288,"id":"BZ","desc":"BRIZE NORTON NDB"},
{"type":"SDME","hdg_t":349.1,"dist_nm":48.8,"freq":111.9,"lat":51.74819400,"lon":-1.60352500,"rng_nm":100,"alt_fmsl":331,"id":"BZN","desc":"BRIZE NORTON TACAN"},
{"type":"NDB","hdg_t":74.7,"dist_nm":50.4,"freq":338,"lat":51.16443900,"lon":-0.06913300,"rng_nm":15,"alt_fmsl":0,"id":"GE","desc":"GATWICK NDB"},
{"type":"NDB","hdg_t":37.6,"dist_nm":51.2,"freq":277,"lat":51.62305600,"lon":-0.51833300,"rng_nm":25,"alt_fmsl":0,"id":"CHT","desc":"CHILTERN NDB"},
{"type":"NDB","hdg_t":23.4,"dist_nm":53,"freq":433,"lat":51.75972200,"lon":-0.79027800,"rng_nm":30,"alt_fmsl":0,"id":"HEN","desc":"HENTON NDB"},
{"type":"NDB","hdg_t":1.3,"dist_nm":53,"freq":367,"lat":51.83248100,"lon":-1.32323900,"rng_nm":25,"alt_fmsl":0,"id":"OX","desc":"OXFORD NDB"},
{"type":"SDME","hdg_t":1.3,"dist_nm":53,"freq":117.7,"lat":51.83243300,"lon":-1.32281700,"rng_nm":25,"alt_fmsl":276,"id":"OX","desc":"OXFORD DME"},
{"type":"VOR","hdg_t":32.7,"dist_nm":55.6,"freq":113.75,"lat":51.72611100,"lon":-0.54972200,"rng_nm":130,"alt_fmsl":500,"id":"BNN","desc":"BOVINGDON VOR-DME"},
{"type":"VOR","hdg_t":85.3,"dist_nm":55.9,"freq":117.9,"lat":51.01722200,"lon":0.11611100,"rng_nm":130,"alt_fmsl":360,"id":"MAY","desc":"MAYFIELD VOR-DME"},
{"type":"NDB","hdg_t":15.1,"dist_nm":56.2,"freq":335,"lat":51.85305600,"lon":-0.96250000,"rng_nm":30,"alt_fmsl":0,"id":"WCO","desc":"WESTCOTT NDB"},
{"type":"VOR","hdg_t":65.9,"dist_nm":57.3,"freq":115.1,"lat":51.33087500,"lon":0.03481100,"rng_nm":125,"alt_fmsl":590,"id":"BIG","desc":"BIGGIN VOR-DME"},
{"type":"VOR","hdg_t":100.8,"dist_nm":57.3,"freq":117,"lat":50.76055600,"lon":0.12194400,"rng_nm":120,"alt_fmsl":300,"id":"SFD","desc":"SEAFORD VOR-DME"},
{"type":"NDB","hdg_t":297.2,"dist_nm":57.5,"freq":414,"lat":51.38144200,"lon":-2.71754400,"rng_nm":25,"alt_fmsl":0,"id":"BRI","desc":"BRISTOL NDB"},
{"type":"NDB","hdg_t":306.9,"dist_nm":57.8,"freq":325,"lat":51.52185300,"lon":-2.59023100,"rng_nm":25,"alt_fmsl":0,"id":"OF","desc":"FILTON NDB"},
{"type":"NDB","hdg_t":57.6,"dist_nm":63.1,"freq":322,"lat":51.50435000,"lon":0.06750300,"rng_nm":10,"alt_fmsl":0,"id":"LCY","desc":"CITY NDB"},
{"type":"NDB","hdg_t":332,"dist_nm":64.2,"freq":331,"lat":51.89195300,"lon":-2.16790300,"rng_nm":25,"alt_fmsl":111,"id":"GST","desc":"GLOUCESTERSHIRE NDB"},
{"type":"SDME","hdg_t":332,"dist_nm":64.2,"freq":115.55,"lat":51.89219200,"lon":-2.16792800,"rng_nm":25,"alt_fmsl":109,"id":"GOS","desc":"GLOUCESTERSHIRE DME"},
{"type":"VOR","hdg_t":43.9,"dist_nm":67.2,"freq":117.5,"lat":51.74972200,"lon":-0.10666700,"rng_nm":80,"alt_fmsl":382,"id":"BPK","desc":"BROOKMANS PARK VOR-DME"},
{"type":"NDB","hdg_t":35.7,"dist_nm":70.2,"freq":345,"lat":51.89416800,"lon":-0.25083300,"rng_nm":50,"alt_fmsl":0,"id":"LUT","desc":"Luton NDB"},
{"type":"VOR","hdg_t":53,"dist_nm":70.5,"freq":115.6,"lat":51.64611100,"lon":0.15166700,"rng_nm":110,"alt_fmsl":200,"id":"LAM","desc":"LAMBOURNE VOR-DME"},
{"type":"VOR","hdg_t":22.2,"dist_nm":73,"freq":116.5,"lat":52.07421700,"lon":-0.61079200,"rng_nm":50,"alt_fmsl":357,"id":"CFD","desc":"CRANFIELD VOR"},
{"type":"NDB","hdg_t":70.2,"dist_nm":74.3,"freq":369,"lat":51.35383300,"lon":0.50366700,"rng_nm":25,"alt_fmsl":0,"id":"RCH","desc":"ROCHESTER NDB"},
{"type":"VOR","hdg_t":6.9,"dist_nm":74.4,"freq":116.4,"lat":52.18027800,"lon":-1.11388900,"rng_nm":130,"alt_fmsl":600,"id":"DTY","desc":"DAVENTRY VOR-DME"},
{"type":"NDB","hdg_t":261.5,"dist_nm":74.6,"freq":337,"lat":50.75215300,"lon":-3.29504700,"rng_nm":15,"alt_fmsl":25,"id":"EX","desc":"Exeter LOM"},
{"type":"NDB","hdg_t":80,"dist_nm":76.8,"freq":340,"lat":51.15472200,"lon":0.64805600,"rng_nm":15,"alt_fmsl":72,"id":"LSH","desc":"LASHENDEN NDB-DME"},
{"type":"VOR","hdg_t":73.1,"dist_nm":76.8,"freq":117.3,"lat":51.30388900,"lon":0.59722200,"rng_nm":130,"alt_fmsl":645,"id":"DET","desc":"DETLING VOR-DME"},
{"type":"SDME","hdg_t":80,"dist_nm":76.8,"freq":115.95,"lat":51.15472200,"lon":0.64805600,"rng_nm":15,"alt_fmsl":72,"id":"LSH","desc":"LASHENDEN NDB-DME"},
{"type":"NDB","hdg_t":22.5,"dist_nm":76.9,"freq":850,"lat":52.13033300,"lon":-0.55700000,"rng_nm":50,"alt_fmsl":364,"id":"CIT","desc":"Cranfield NDB"},
{"type":"NDB","hdg_t":180.4,"dist_nm":78.8,"freq":373,"lat":49.63777777,"lon":-1.37222222,"rng_nm":25,"alt_fmsl":377,"id":"MP","desc":"Cherbourg Maupertus NDB"},
{"type":"NDB","hdg_t":290.3,"dist_nm":79.4,"freq":388,"lat":51.39337800,"lon":-3.33790300,"rng_nm":20,"alt_fmsl":0,"id":"CDF","desc":"Cardiff NDB"},
{"type":"NDB","hdg_t":203.8,"dist_nm":81.2,"freq":383,"lat":49.70887800,"lon":-2.19970000,"rng_nm":30,"alt_fmsl":331,"id":"ALD","desc":"ALDERNEY NDB"},
{"type":"VOR","hdg_t":39.8,"dist_nm":82,"freq":116.25,"lat":51.98972200,"lon":0.06194400,"rng_nm":40,"alt_fmsl":486,"id":"BKY","desc":"BARKWAY VOR-DME"},
{"type":"NDB","hdg_t":46,"dist_nm":82.6,"freq":429,"lat":51.89459200,"lon":0.24503100,"rng_nm":20,"alt_fmsl":0,"id":"SSD","desc":"STANSTED NDB"},
{"type":"SDME","hdg_t":290,"dist_nm":83.1,"freq":114.8,"lat":51.40640300,"lon":-3.43497500,"rng_nm":25,"alt_fmsl":178,"id":"SAT","desc":"ST ATHAN TACAN"},
{"type":"NDB","hdg_t":14.2,"dist_nm":83.6,"freq":378,"lat":52.29909200,"lon":-0.79760300,"rng_nm":15,"alt_fmsl":0,"id":"NN","desc":"NORTHAMPTON NDB"},
{"type":"VOR","hdg_t":87.1,"dist_nm":84.8,"freq":114.05,"lat":50.99972200,"lon":0.87861100,"rng_nm":130,"alt_fmsl":30,"id":"LYD","desc":"LYDD VOR-DME"},
{"type":"VOR","hdg_t":352.3,"dist_nm":85.2,"freq":113.65,"lat":52.35666700,"lon":-1.66361100,"rng_nm":130,"alt_fmsl":435,"id":"HON","desc":"HONILEY VOR-DME"},
{"type":"VOR","hdg_t":303.7,"dist_nm":85.5,"freq":117.45,"lat":51.72555600,"lon":-3.26305600,"rng_nm":65,"alt_fmsl":1450,"id":"BCN","desc":"BRECON VOR-DME"},
{"type":"NDB","hdg_t":63.3,"dist_nm":86.1,"freq":362,"lat":51.57632800,"lon":0.70033000,"rng_nm":50,"alt_fmsl":50,"id":"SND","desc":"Southend NDB"},
{"type":"NDB","hdg_t":358.8,"dist_nm":87.7,"freq":363,"lat":52.41100000,"lon":-1.40583300,"rng_nm":50,"alt_fmsl":360,"id":"CT","desc":"Coventry NDB"},
{"type":"NDB","hdg_t":88.2,"dist_nm":87.7,"freq":397,"lat":50.97216400,"lon":0.95528600,"rng_nm":15,"alt_fmsl":0,"id":"LYX","desc":"LYDD NDB"},
{"type":"VOR","hdg_t":248.7,"dist_nm":88,"freq":112.05,"lat":50.39861100,"lon":-3.49361100,"rng_nm":85,"alt_fmsl":215,"id":"BHD","desc":"BERRY HEAD VOR-DME"},
{"type":"NDB","hdg_t":32.4,"dist_nm":90.2,"freq":391,"lat":52.21113600,"lon":-0.04493600,"rng_nm":15,"alt_fmsl":0,"id":"BOU","desc":"BOURN NDB"},
{"type":"NDB","hdg_t":350.8,"dist_nm":91.5,"freq":406,"lat":52.45454700,"lon":-1.75238600,"rng_nm":20,"alt_fmsl":325,"id":"BHX","desc":"BIRMINGHAM NDB"},
{"type":"NDB","hdg_t":36.6,"dist_nm":95.1,"freq":332,"lat":52.21085000,"lon":0.18279200,"rng_nm":15,"alt_fmsl":0,"id":"CAM","desc":"CAMBRIDGE NDB"},
{"type":"NDB","hdg_t":324.3,"dist_nm":96.3,"freq":426,"lat":52.24339400,"lon":-2.87983900,"rng_nm":20,"alt_fmsl":0,"id":"SH","desc":"SHOBDON NDB"},
{"type":"NDB","hdg_t":340.6,"dist_nm":99.9,"freq":356,"lat":52.51590300,"lon":-2.26176100,"rng_nm":25,"alt_fmsl":0,"id":"WBA","desc":"WOLVERHAMPTON NDB"},
{"type":"SDME","hdg_t":340.6,"dist_nm":99.9,"freq":108.6,"lat":52.51579400,"lon":-2.26181700,"rng_nm":15,"alt_fmsl":300,"id":"WOL","desc":"WOLVERHAMPTON DME"}
]
}
