{"success":true,"source":"xp2csv.pl","last_updated":"2013/11/08 14:53:21 UTC"
,"icao":"EGKL","name":"Deanland","lat":50.88172398,"lon":0.15589939,"rwys":1,"ils":0,"index":2958136,"path":"e000n50/e000n50"
,"runways":[
{"len_m":446,"wid_m":24.99,"hdg":57,"surf":"Turf/grass","rwy1":"06","lat1":50.88064170,"lon1":0.15322715,"rwy2":"24","lat2":50.88280626,"lon2":0.15857163}
]
,"navaids":[
{"type":"VOR","hdg_t":190,"dist_nm":7.3,"freq":117,"lat":50.76055600,"lon":0.12194400,"rng_nm":120,"alt_fmsl":300,"id":"SFD","desc":"SEAFORD VOR-DME"},
{"type":"VOR","hdg_t":349.5,"dist_nm":8.2,"freq":117.9,"lat":51.01722200,"lon":0.11611100,"rng_nm":130,"alt_fmsl":360,"id":"MAY","desc":"MAYFIELD VOR-DME"},
{"type":"NDB","hdg_t":260.9,"dist_nm":17.3,"freq":332,"lat":50.83550000,"lon":-0.29550000,"rng_nm":10,"alt_fmsl":0,"id":"SHM","desc":"Shoreham NDB"},
{"type":"NDB","hdg_t":333.4,"dist_nm":19,"freq":338,"lat":51.16443900,"lon":-0.06913300,"rng_nm":15,"alt_fmsl":0,"id":"GE","desc":"GATWICK NDB"},
{"type":"NDB","hdg_t":330.9,"dist_nm":22.9,"freq":343,"lat":51.21494400,"lon":-0.13925000,"rng_nm":10,"alt_fmsl":0,"id":"RDL","desc":"REDHILL NDB"},
{"type":"NDB","hdg_t":310,"dist_nm":23.3,"freq":365,"lat":51.13065300,"lon":-0.31595600,"rng_nm":15,"alt_fmsl":0,"id":"GY","desc":"GATWICK NDB"},
{"type":"NDB","hdg_t":48.4,"dist_nm":24.8,"freq":340,"lat":51.15472200,"lon":0.64805600,"rng_nm":15,"alt_fmsl":72,"id":"LSH","desc":"LASHENDEN NDB-DME"},
{"type":"SDME","hdg_t":48.4,"dist_nm":24.8,"freq":115.95,"lat":51.15472200,"lon":0.64805600,"rng_nm":15,"alt_fmsl":72,"id":"LSH","desc":"LASHENDEN NDB-DME"},
{"type":"VOR","hdg_t":350.4,"dist_nm":27.3,"freq":115.1,"lat":51.33087500,"lon":0.03481100,"rng_nm":125,"alt_fmsl":590,"id":"BIG","desc":"BIGGIN VOR-DME"},
{"type":"VOR","hdg_t":75.2,"dist_nm":28.3,"freq":114.05,"lat":50.99972200,"lon":0.87861100,"rng_nm":130,"alt_fmsl":30,"id":"LYD","desc":"LYDD VOR-DME"},
{"type":"VOR","hdg_t":33.1,"dist_nm":30.3,"freq":117.3,"lat":51.30388900,"lon":0.59722200,"rng_nm":130,"alt_fmsl":645,"id":"DET","desc":"DETLING VOR-DME"},
{"type":"NDB","hdg_t":79.5,"dist_nm":30.8,"freq":397,"lat":50.97216400,"lon":0.95528600,"rng_nm":15,"alt_fmsl":0,"id":"LYX","desc":"LYDD NDB"},
{"type":"NDB","hdg_t":24.7,"dist_nm":31.2,"freq":369,"lat":51.35383300,"lon":0.50366700,"rng_nm":25,"alt_fmsl":0,"id":"RCH","desc":"ROCHESTER NDB"},
{"type":"VOR","hdg_t":289.5,"dist_nm":31.3,"freq":114,"lat":51.05388900,"lon":-0.62500000,"rng_nm":100,"alt_fmsl":200,"id":"MID","desc":"MIDHURST VOR-DME"},
{"type":"NDB","hdg_t":322.9,"dist_nm":33,"freq":316,"lat":51.31944400,"lon":-0.37194400,"rng_nm":25,"alt_fmsl":0,"id":"EPM","desc":"EPSOM NDB"},
{"type":"VOR","hdg_t":318.3,"dist_nm":34.1,"freq":115.3,"lat":51.30500000,"lon":-0.44722200,"rng_nm":70,"alt_fmsl":200,"id":"OCK","desc":"OCKHAM VOR-DME"},
{"type":"VOR","hdg_t":267.7,"dist_nm":34.7,"freq":114.75,"lat":50.85527800,"lon":-0.75666700,"rng_nm":130,"alt_fmsl":113,"id":"GWC","desc":"GOODWOOD VOR-DME"},
{"type":"NDB","hdg_t":354.9,"dist_nm":37.5,"freq":322,"lat":51.50435000,"lon":0.06750300,"rng_nm":10,"alt_fmsl":0,"id":"LCY","desc":"CITY NDB"},
{"type":"NDB","hdg_t":316,"dist_nm":39,"freq":348,"lat":51.34741100,"lon":-0.56542900,"rng_nm":10,"alt_fmsl":80,"id":"FOS","desc":"FAIROAKS NDB"},
{"type":"SDME","hdg_t":316,"dist_nm":39,"freq":109.85,"lat":51.34741100,"lon":-0.56542900,"rng_nm":8,"alt_fmsl":80,"id":"FRK","desc":"FAIROAKS DME"},
{"type":"VOR","hdg_t":327.3,"dist_nm":43.3,"freq":113.6,"lat":51.48722200,"lon":-0.46666700,"rng_nm":130,"alt_fmsl":110,"id":"LON","desc":"LONDON VOR-DME"},
{"type":"VOR","hdg_t":359.8,"dist_nm":45.9,"freq":115.6,"lat":51.64611100,"lon":0.15166700,"rng_nm":110,"alt_fmsl":200,"id":"LAM","desc":"LAMBOURNE VOR-DME"},
{"type":"NDB","hdg_t":305.4,"dist_nm":46.2,"freq":328,"lat":51.32328900,"lon":-0.84479400,"rng_nm":15,"alt_fmsl":0,"id":"BLK","desc":"BLACKBUSHE NDB"},
{"type":"SDME","hdg_t":305.4,"dist_nm":46.2,"freq":116.2,"lat":51.32386500,"lon":-0.84637700,"rng_nm":50,"alt_fmsl":341,"id":"BLC","desc":"BLACKBUSHE DME"},
{"type":"NDB","hdg_t":25.9,"dist_nm":46.5,"freq":362,"lat":51.57632800,"lon":0.70033000,"rng_nm":50,"alt_fmsl":50,"id":"SND","desc":"Southend NDB"},
{"type":"SDME","hdg_t":297.1,"dist_nm":46.8,"freq":109.6,"lat":51.23284700,"lon":-0.94849200,"rng_nm":40,"alt_fmsl":410,"id":"ODH","desc":"ODIHAM TACAN"},
{"type":"VOR","hdg_t":69.2,"dist_nm":48.6,"freq":114.95,"lat":51.16250000,"lon":1.35916700,"rng_nm":130,"alt_fmsl":315,"id":"DVR","desc":"DOVER VOR-DME"},
{"type":"NDB","hdg_t":256.3,"dist_nm":49.5,"freq":426,"lat":50.68082200,"lon":-1.10603200,"rng_nm":15,"alt_fmsl":0,"id":"IW","desc":"BEMBRIDGE NDB"},
{"type":"NDB","hdg_t":320.9,"dist_nm":49.5,"freq":421,"lat":51.51888900,"lon":-0.67722200,"rng_nm":30,"alt_fmsl":0,"id":"BUR","desc":"BURNHAM NDB"},
{"type":"NDB","hdg_t":330.5,"dist_nm":51.2,"freq":277,"lat":51.62305600,"lon":-0.51833300,"rng_nm":25,"alt_fmsl":0,"id":"CHT","desc":"CHILTERN NDB"},
{"type":"NDB","hdg_t":311.6,"dist_nm":51.9,"freq":352,"lat":51.45277800,"lon":-0.87888900,"rng_nm":25,"alt_fmsl":0,"id":"WOD","desc":"WOODLEY NDB"},
{"type":"VOR","hdg_t":349.3,"dist_nm":53,"freq":117.5,"lat":51.74972200,"lon":-0.10666700,"rng_nm":80,"alt_fmsl":382,"id":"BPK","desc":"BROOKMANS PARK VOR-DME"},
{"type":"NDB","hdg_t":58.2,"dist_nm":57,"freq":301,"lat":51.37444300,"lon":1.44666700,"rng_nm":50,"alt_fmsl":0,"id":"NF","desc":"NORTH FORELAND NDB"},
{"type":"VOR","hdg_t":275,"dist_nm":57.1,"freq":113.35,"lat":50.95527800,"lon":-1.34500000,"rng_nm":100,"alt_fmsl":66,"id":"SAM","desc":"SOUTHAMPTON VOR-DME"},
{"type":"VOR","hdg_t":332.6,"dist_nm":57.2,"freq":113.75,"lat":51.72611100,"lon":-0.54972200,"rng_nm":130,"alt_fmsl":500,"id":"BNN","desc":"BOVINGDON VOR-DME"},
{"type":"NDB","hdg_t":274.9,"dist_nm":57.5,"freq":391,"lat":50.95502800,"lon":-1.35611900,"rng_nm":15,"alt_fmsl":0,"id":"EAS","desc":"SOUTHAMPTON NDB"},
{"type":"NDB","hdg_t":110.2,"dist_nm":58.6,"freq":358,"lat":50.53539300,"lon":1.59242200,"rng_nm":22,"alt_fmsl":35,"id":"LT","desc":"LE TOUQUET NDB"},
{"type":"NDB","hdg_t":89.3,"dist_nm":60.2,"freq":387,"lat":50.88316700,"lon":1.74180600,"rng_nm":50,"alt_fmsl":475,"id":"ING","desc":"ST INGLEVERT NDB"},
{"type":"NDB","hdg_t":3.1,"dist_nm":60.9,"freq":429,"lat":51.89459200,"lon":0.24503100,"rng_nm":20,"alt_fmsl":0,"id":"SSD","desc":"STANSTED NDB"},
{"type":"NDB","hdg_t":346,"dist_nm":62.7,"freq":345,"lat":51.89416800,"lon":-0.25083300,"rng_nm":50,"alt_fmsl":0,"id":"LUT","desc":"Luton NDB"},
{"type":"VOR","hdg_t":305.7,"dist_nm":63.5,"freq":114.35,"lat":51.49166700,"lon":-1.21972200,"rng_nm":80,"alt_fmsl":498,"id":"CPT","desc":"COMPTON VOR-DME"},
{"type":"NDB","hdg_t":326.3,"dist_nm":63.6,"freq":433,"lat":51.75972200,"lon":-0.79027800,"rng_nm":30,"alt_fmsl":0,"id":"HEN","desc":"HENTON NDB"},
{"type":"SDME","hdg_t":313.4,"dist_nm":64.6,"freq":110,"lat":51.61450000,"lon":-1.09944400,"rng_nm":40,"alt_fmsl":226,"id":"BSO","desc":"BENSON TACAN"},
{"type":"VOR","hdg_t":357,"dist_nm":66.6,"freq":116.25,"lat":51.98972200,"lon":0.06194400,"rng_nm":40,"alt_fmsl":486,"id":"BKY","desc":"BARKWAY VOR-DME"},
{"type":"VOR","hdg_t":102.3,"dist_nm":68.4,"freq":113.8,"lat":50.62477800,"lon":1.90711100,"rng_nm":70,"alt_fmsl":584,"id":"BNE","desc":"BOULOGNE SUR MER VOR"},
{"type":"NDB","hdg_t":32.3,"dist_nm":69,"freq":295,"lat":51.84805700,"lon":1.14944400,"rng_nm":150,"alt_fmsl":0,"id":"CLN","desc":"CLACTON NDB"},
{"type":"VOR","hdg_t":32.3,"dist_nm":69,"freq":114.55,"lat":51.84841700,"lon":1.14761100,"rng_nm":100,"alt_fmsl":100,"id":"CLN","desc":"CLACTON VOR-DME"},
{"type":"VOR","hdg_t":145.4,"dist_nm":69.4,"freq":115.8,"lat":49.92538900,"lon":1.17063900,"rng_nm":40,"alt_fmsl":362,"id":"DPE","desc":"DIEPPE VOR"},
{"type":"NDB","hdg_t":148.9,"dist_nm":69.8,"freq":351,"lat":49.88222222,"lon":1.08361111,"rng_nm":25,"alt_fmsl":335,"id":"DSA","desc":"Dieppe Saint Aubin NDB"},
{"type":"NDB","hdg_t":324.6,"dist_nm":71.9,"freq":335,"lat":51.85305600,"lon":-0.96250000,"rng_nm":30,"alt_fmsl":0,"id":"WCO","desc":"WESTCOTT NDB"},
{"type":"NDB","hdg_t":83.8,"dist_nm":72.3,"freq":418,"lat":50.99611111,"lon":2.05444444,"rng_nm":25,"alt_fmsl":9,"id":"MK","desc":"Calais Dunkerque NDB"},
{"type":"SDME","hdg_t":283.2,"dist_nm":74,"freq":108.2,"lat":51.14895600,"lon":-1.75264700,"rng_nm":200,"alt_fmsl":430,"id":"BDN","desc":"BOSCOMBE DOWN TACAN"},
{"type":"NDB","hdg_t":266,"dist_nm":76.2,"freq":339,"lat":50.77767222,"lon":-1.84248611,"rng_nm":20,"alt_fmsl":30,"id":"BIA","desc":"BOURNEMOUTH NDB"},
{"type":"NDB","hdg_t":179.2,"dist_nm":77.1,"freq":346,"lat":49.59722222,"lon":0.18111111,"rng_nm":25,"alt_fmsl":308,"id":"LHO","desc":"Le Havre Octeville NDB"},
{"type":"VOR","hdg_t":338.4,"dist_nm":77.1,"freq":116.5,"lat":52.07421700,"lon":-0.61079200,"rng_nm":50,"alt_fmsl":357,"id":"CFD","desc":"CRANFIELD VOR"},
{"type":"VOR","hdg_t":123.9,"dist_nm":79,"freq":108.45,"lat":50.13513900,"lon":1.85469400,"rng_nm":60,"alt_fmsl":223,"id":"ABB","desc":"ABBEVILLE VOR-DME"},
{"type":"NDB","hdg_t":29.2,"dist_nm":79.3,"freq":328,"lat":52.02888900,"lon":1.20138900,"rng_nm":150,"alt_fmsl":0,"id":"PSW","desc":"IPSWICH NDB"},
{"type":"NDB","hdg_t":340.6,"dist_nm":79.6,"freq":850,"lat":52.13033300,"lon":-0.55700000,"rng_nm":50,"alt_fmsl":364,"id":"CIT","desc":"Cranfield NDB"},
{"type":"NDB","hdg_t":316.3,"dist_nm":79.7,"freq":367,"lat":51.83248100,"lon":-1.32323900,"rng_nm":25,"alt_fmsl":0,"id":"OX","desc":"OXFORD NDB"},
{"type":"SDME","hdg_t":316.3,"dist_nm":79.7,"freq":117.7,"lat":51.83243300,"lon":-1.32281700,"rng_nm":25,"alt_fmsl":276,"id":"OX","desc":"OXFORD DME"},
{"type":"NDB","hdg_t":0.7,"dist_nm":79.8,"freq":332,"lat":52.21085000,"lon":0.18279200,"rng_nm":15,"alt_fmsl":0,"id":"CAM","desc":"CAMBRIDGE NDB"},
{"type":"SDME","hdg_t":21.2,"dist_nm":80.1,"freq":109.3,"lat":52.12193300,"lon":0.94046900,"rng_nm":130,"alt_fmsl":324,"id":"WTZ","desc":"WATTISHAM TACAN"},
{"type":"NDB","hdg_t":354.6,"dist_nm":80.2,"freq":391,"lat":52.21113600,"lon":-0.04493600,"rng_nm":15,"alt_fmsl":0,"id":"BOU","desc":"BOURN NDB"},
{"type":"NDB","hdg_t":308.9,"dist_nm":84.2,"freq":386,"lat":51.74923300,"lon":-1.60161700,"rng_nm":20,"alt_fmsl":288,"id":"BZ","desc":"BRIZE NORTON NDB"},
{"type":"SDME","hdg_t":308.8,"dist_nm":84.2,"freq":111.9,"lat":51.74819400,"lon":-1.60352500,"rng_nm":100,"alt_fmsl":331,"id":"BZN","desc":"BRIZE NORTON TACAN"},
{"type":"NDB","hdg_t":274.2,"dist_nm":87.8,"freq":349,"lat":50.96620300,"lon":-2.15516700,"rng_nm":10,"alt_fmsl":0,"id":"COM","desc":"COMPT0N ABBAS NDB"},
{"type":"SDME","hdg_t":303.9,"dist_nm":87.8,"freq":113.4,"lat":51.68169200,"lon":-1.79761400,"rng_nm":25,"alt_fmsl":299,"id":"FFA","desc":"FAIRFORD TACAN"},
{"type":"SDME","hdg_t":295.8,"dist_nm":89.4,"freq":109.8,"lat":51.51013600,"lon":-1.99223900,"rng_nm":25,"alt_fmsl":463,"id":"LYE","desc":"LYNEHAM TACAN"},
{"type":"NDB","hdg_t":295.6,"dist_nm":89.8,"freq":282,"lat":51.50834200,"lon":-2.00587200,"rng_nm":40,"alt_fmsl":513,"id":"LA","desc":"LYNEHAM NDB"},
{"type":"SDME","hdg_t":7.8,"dist_nm":89.8,"freq":115.9,"lat":52.36335000,"lon":0.48826900,"rng_nm":130,"alt_fmsl":63,"id":"MLD","desc":"MILDENHALL TACAN"},
{"type":"VOR","hdg_t":329.1,"dist_nm":91.3,"freq":116.4,"lat":52.18027800,"lon":-1.11388900,"rng_nm":130,"alt_fmsl":600,"id":"DTY","desc":"DAVENTRY VOR-DME"},
{"type":"NDB","hdg_t":337.6,"dist_nm":92.3,"freq":378,"lat":52.29909200,"lon":-0.79760300,"rng_nm":15,"alt_fmsl":0,"id":"NN","desc":"NORTHAMPTON NDB"},
{"type":"SDME","hdg_t":8.9,"dist_nm":92.7,"freq":110.2,"lat":52.40641900,"lon":0.54796400,"rng_nm":25,"alt_fmsl":91,"id":"LKH","desc":"LAKENHEATH TACAN"},
{"type":"NDB","hdg_t":100.4,"dist_nm":94.5,"freq":327,"lat":50.57194444,"lon":2.58722222,"rng_nm":25,"alt_fmsl":85,"id":"MVC","desc":"Merville Calonne NDB"},
{"type":"VOR","hdg_t":176.2,"dist_nm":94.5,"freq":110.2,"lat":49.31075000,"lon":0.31272200,"rng_nm":60,"alt_fmsl":497,"id":"DVL","desc":"DEAUVILLE SAINT GATIEN VOR"},
{"type":"NDB","hdg_t":218.8,"dist_nm":95,"freq":373,"lat":49.63777777,"lon":-1.37222222,"rng_nm":25,"alt_fmsl":377,"id":"MP","desc":"Cherbourg Maupertus NDB"},
{"type":"VOR","hdg_t":81.3,"dist_nm":95.4,"freq":114.5,"lat":51.09472200,"lon":2.65166700,"rng_nm":80,"alt_fmsl":30,"id":"KOK","desc":"KOKSY VORTAC"},
{"type":"VOR","hdg_t":152.5,"dist_nm":95.4,"freq":116.8,"lat":49.46563900,"lon":1.28063900,"rng_nm":40,"alt_fmsl":560,"id":"ROU","desc":"ROUEN VALLEE DE SEINE VOR"},
{"type":"NDB","hdg_t":96.4,"dist_nm":97.9,"freq":404,"lat":50.67166666,"lon":2.70611111,"rng_nm":25,"alt_fmsl":59,"id":"MRV","desc":"Merville Calonne NDB"}
]
}
