{"success":true,"source":"xp2csv.pl","last_updated":"2013/11/08 14:53:21 UTC"
,"icao":"EGXP","name":"Raf Scampton","lat":53.3079445,"lon":-0.5508305,"rwys":1,"ils":1,"index":2941905,"path":"w010n50/w001n53"
,"runways":[
{"len_m":2739,"wid_m":60.96,"hdg":41,"surf":"Asphalt","rwy1":"04","lat1":53.29867500,"lon1":-0.56435300,"rwy2":"22","lat2":53.31721400,"lon2":-0.53730800}
]
,"ils":[
{"type":"ILS","freq":108.3,"lat":53.31824500,"lon":-0.53579700,"rng_nm":18,"alt_fmsl":202,"hdg":41.08,"id":"SC","rwy":"04","desc":"ILS-cat-I"},
{"type":"GS","freq":108.3,"lat":53.30169300,"lon":-0.56262500,"rng_nm":10,"alt_fmsl":202,"id":"SC","rwy":"04","desc":"GS","gs":3},
{"type":"OM","freq":0,"lat":53.23600300,"lon":-0.66043300,"rng_nm":0,"alt_fmsl":202,"id":"----","rwy":"04","desc":"OM"},
{"type":"MM","freq":0,"lat":53.28678300,"lon":-0.58003900,"rng_nm":0,"alt_fmsl":202,"id":"----","rwy":"04","desc":"MM"}
]
,"navaids":[
{"type":"SDME","hdg_t":174.2,"dist_nm":8.6,"freq":117.1,"lat":53.16533300,"lon":-0.52683300,"rng_nm":130,"alt_fmsl":231,"id":"WAD","desc":"WADDINGTON TACAN"},
{"type":"VOR","hdg_t":263.7,"dist_nm":14.3,"freq":112.8,"lat":53.28138900,"lon":-0.94722200,"rng_nm":130,"alt_fmsl":121,"id":"GAM","desc":"GAMSTON VOR-DME"},
{"type":"SDME","hdg_t":171.9,"dist_nm":16.9,"freq":117.4,"lat":53.02861700,"lon":-0.48550000,"rng_nm":65,"alt_fmsl":218,"id":"CWZ","desc":"CRANWELL TACAN"},
{"type":"NDB","hdg_t":172.4,"dist_nm":17,"freq":423,"lat":53.02627800,"lon":-0.48898300,"rng_nm":25,"alt_fmsl":0,"id":"CWL","desc":"CRANWELL NDB"},
{"type":"NDB","hdg_t":23.7,"dist_nm":17.6,"freq":365,"lat":53.57666700,"lon":-0.35166700,"rng_nm":15,"alt_fmsl":0,"id":"KIM","desc":"HUMBERSIDE NDB"},
{"type":"SDME","hdg_t":133.2,"dist_nm":18.9,"freq":111.1,"lat":53.09103900,"lon":-0.16897500,"rng_nm":120,"alt_fmsl":24,"id":"CGY","desc":"CONINGSBY TACAN"},
{"type":"NDB","hdg_t":301.9,"dist_nm":19,"freq":338,"lat":53.47482200,"lon":-1.00172500,"rng_nm":25,"alt_fmsl":0,"id":"FNY","desc":"DONCASTER NDB"},
{"type":"NDB","hdg_t":357.5,"dist_nm":25.1,"freq":372,"lat":53.72538100,"lon":-0.58148300,"rng_nm":15,"alt_fmsl":12,"id":"BV","desc":"BROUGH NDB"},
{"type":"NDB","hdg_t":89.4,"dist_nm":26.1,"freq":330,"lat":53.31000000,"lon":0.17616700,"rng_nm":25,"alt_fmsl":0,"id":"SBY","desc":"STRUBBY NDB"},
{"type":"VOR","hdg_t":34.1,"dist_nm":28.4,"freq":113.9,"lat":53.69833300,"lon":-0.10361100,"rng_nm":100,"alt_fmsl":0,"id":"OTR","desc":"OTTRINGHAM VOR-DME"},
{"type":"NDB","hdg_t":219.6,"dist_nm":30,"freq":430,"lat":52.92169400,"lon":-1.07933300,"rng_nm":10,"alt_fmsl":0,"id":"NOT","desc":"NOTTINGHAM NDB"},
{"type":"NDB","hdg_t":279.9,"dist_nm":30.3,"freq":333,"lat":53.39263900,"lon":-1.38313600,"rng_nm":15,"alt_fmsl":0,"id":"SMF","desc":"SHEFFIELD CITY NDB"},
{"type":"SDME","hdg_t":280,"dist_nm":30.3,"freq":111.35,"lat":53.39298100,"lon":-1.38314200,"rng_nm":25,"alt_fmsl":273,"id":"SFH","desc":"SHEFFIELD CITY DME"},
{"type":"SDME","hdg_t":186,"dist_nm":34.5,"freq":112.3,"lat":52.73537800,"lon":-0.65076900,"rng_nm":25,"alt_fmsl":452,"id":"CTM","desc":"COTTESMORE TACAN"},
{"type":"NDB","hdg_t":219.4,"dist_nm":36.8,"freq":353,"lat":52.83283300,"lon":-1.19450000,"rng_nm":50,"alt_fmsl":280,"id":"EME","desc":"East Midlands NDB"},
{"type":"NDB","hdg_t":150.6,"dist_nm":38.9,"freq":401,"lat":52.74165000,"lon":-0.02794200,"rng_nm":15,"alt_fmsl":0,"id":"FNL","desc":"FENLAND NDB"},
{"type":"SDME","hdg_t":177.4,"dist_nm":42.1,"freq":117.6,"lat":52.60783300,"lon":-0.49866700,"rng_nm":25,"alt_fmsl":295,"id":"WIT","desc":"WITTERING TACAN"},
{"type":"VOR","hdg_t":249.7,"dist_nm":43.1,"freq":115.7,"lat":53.05388900,"lon":-1.67000000,"rng_nm":130,"alt_fmsl":968,"id":"TNT","desc":"TRENT VOR-DME"},
{"type":"NDB","hdg_t":228.9,"dist_nm":43.5,"freq":393,"lat":52.82866600,"lon":-1.45450000,"rng_nm":50,"alt_fmsl":280,"id":"EMW","desc":"East Midlands NDB"},
{"type":"NDB","hdg_t":202.8,"dist_nm":45.6,"freq":383,"lat":52.60638900,"lon":-1.03500000,"rng_nm":10,"alt_fmsl":0,"id":"LE","desc":"LEICESTER NDB"},
{"type":"SDME","hdg_t":331.1,"dist_nm":51.1,"freq":109,"lat":54.05049200,"lon":-1.24904400,"rng_nm":130,"alt_fmsl":53,"id":"LOO","desc":"LINTON ON OUSE TACAN"},
{"type":"NDB","hdg_t":310.7,"dist_nm":51.7,"freq":402,"lat":53.86499200,"lon":-1.65288900,"rng_nm":25,"alt_fmsl":0,"id":"LBA","desc":"LEEDS BRADFORD NDB"},
{"type":"NDB","hdg_t":236.5,"dist_nm":53,"freq":327,"lat":52.81446400,"lon":-1.76667200,"rng_nm":10,"alt_fmsl":0,"id":"TNL","desc":"TATENHILL NDB"},
{"type":"NDB","hdg_t":231.9,"dist_nm":54.1,"freq":545,"lat":52.74666700,"lon":-1.71944400,"rng_nm":50,"alt_fmsl":0,"id":"LIC","desc":"LICHFIELD NDB"},
{"type":"SDME","hdg_t":134.3,"dist_nm":56.3,"freq":108.7,"lat":52.64726100,"lon":0.55326400,"rng_nm":25,"alt_fmsl":75,"id":"MAM","desc":"MARHAM TACAN"},
{"type":"NDB","hdg_t":272.4,"dist_nm":57.8,"freq":380,"lat":53.33765800,"lon":-2.15835800,"rng_nm":15,"alt_fmsl":0,"id":"WFD","desc":"MANCHESTER WOODFORD NDB"},
{"type":"NDB","hdg_t":188.5,"dist_nm":61.2,"freq":378,"lat":52.29909200,"lon":-0.79760300,"rng_nm":15,"alt_fmsl":0,"id":"NN","desc":"NORTHAMPTON NDB"},
{"type":"VOR","hdg_t":295.8,"dist_nm":61.4,"freq":112.1,"lat":53.74388900,"lon":-2.10333300,"rng_nm":150,"alt_fmsl":1400,"id":"POL","desc":"POLE HILL VOR-DME"},
{"type":"VOR","hdg_t":273.4,"dist_nm":61.6,"freq":113.55,"lat":53.35694400,"lon":-2.26222200,"rng_nm":130,"alt_fmsl":282,"id":"MCT","desc":"MANCHESTER VOR-DME"},
{"type":"NDB","hdg_t":273.2,"dist_nm":62,"freq":428,"lat":53.35329700,"lon":-2.27302500,"rng_nm":75,"alt_fmsl":0,"id":"MCH","desc":"MANCHESTER NDB"},
{"type":"NDB","hdg_t":210.3,"dist_nm":62.2,"freq":363,"lat":52.41100000,"lon":-1.40583300,"rng_nm":50,"alt_fmsl":360,"id":"CT","desc":"Coventry NDB"},
{"type":"NDB","hdg_t":220.9,"dist_nm":67.3,"freq":406,"lat":52.45454700,"lon":-1.75238600,"rng_nm":20,"alt_fmsl":325,"id":"BHX","desc":"BIRMINGHAM NDB"},
{"type":"SDME","hdg_t":143.1,"dist_nm":67.3,"freq":110.2,"lat":52.40641900,"lon":0.54796400,"rng_nm":25,"alt_fmsl":91,"id":"LKH","desc":"LAKENHEATH TACAN"},
{"type":"NDB","hdg_t":126.9,"dist_nm":67.5,"freq":348,"lat":52.62305500,"lon":0.92694400,"rng_nm":150,"alt_fmsl":0,"id":"SDM","desc":"SHIPDHAM NDB"},
{"type":"SDME","hdg_t":145.9,"dist_nm":68.1,"freq":115.9,"lat":52.36335000,"lon":0.48826900,"rng_nm":130,"alt_fmsl":63,"id":"MLD","desc":"MILDENHALL TACAN"},
{"type":"NDB","hdg_t":164.1,"dist_nm":68.4,"freq":391,"lat":52.21113600,"lon":-0.04493600,"rng_nm":15,"alt_fmsl":0,"id":"BOU","desc":"BOURN NDB"},
{"type":"SDME","hdg_t":329.8,"dist_nm":69,"freq":112.6,"lat":54.29710800,"lon":-1.53687200,"rng_nm":25,"alt_fmsl":92,"id":"LEE","desc":"LEEMING TACAN"},
{"type":"VOR","hdg_t":215.7,"dist_nm":70,"freq":113.65,"lat":52.35666700,"lon":-1.66361100,"rng_nm":130,"alt_fmsl":435,"id":"HON","desc":"HONILEY VOR-DME"},
{"type":"NDB","hdg_t":180.1,"dist_nm":70.7,"freq":850,"lat":52.13033300,"lon":-0.55700000,"rng_nm":50,"alt_fmsl":364,"id":"CIT","desc":"Cranfield NDB"},
{"type":"VOR","hdg_t":197,"dist_nm":70.8,"freq":116.4,"lat":52.18027800,"lon":-1.11388900,"rng_nm":130,"alt_fmsl":600,"id":"DTY","desc":"DAVENTRY VOR-DME"},
{"type":"NDB","hdg_t":157.6,"dist_nm":71.1,"freq":332,"lat":52.21085000,"lon":0.18279200,"rng_nm":15,"alt_fmsl":0,"id":"CAM","desc":"CAMBRIDGE NDB"},
{"type":"NDB","hdg_t":120.8,"dist_nm":72.8,"freq":342,"lat":52.67416800,"lon":1.16222200,"rng_nm":150,"alt_fmsl":0,"id":"DH","desc":"NORWICH NDB"},
{"type":"VOR","hdg_t":181.7,"dist_nm":74.1,"freq":116.5,"lat":52.07421700,"lon":-0.61079200,"rng_nm":50,"alt_fmsl":357,"id":"CFD","desc":"CRANFIELD VOR"},
{"type":"NDB","hdg_t":265.1,"dist_nm":75,"freq":368,"lat":53.18500000,"lon":-2.62305600,"rng_nm":25,"alt_fmsl":0,"id":"WHI","desc":"WHITEGATE NDB"},
{"type":"NDB","hdg_t":272.2,"dist_nm":78.2,"freq":349,"lat":53.33916700,"lon":-2.72388900,"rng_nm":50,"alt_fmsl":0,"id":"LPL","desc":"Liverpool NDB"},
{"type":"NDB","hdg_t":233.2,"dist_nm":78.2,"freq":356,"lat":52.51590300,"lon":-2.26176100,"rng_nm":25,"alt_fmsl":0,"id":"WBA","desc":"WOLVERHAMPTON NDB"},
{"type":"SDME","hdg_t":233.2,"dist_nm":78.2,"freq":108.6,"lat":52.51579400,"lon":-2.26181700,"rng_nm":15,"alt_fmsl":300,"id":"WOL","desc":"WOLVERHAMPTON DME"},
{"type":"NDB","hdg_t":117.6,"dist_nm":79.7,"freq":371,"lat":52.67642200,"lon":1.38471100,"rng_nm":20,"alt_fmsl":0,"id":"NL","desc":"NORWICH NDB"},
{"type":"NDB","hdg_t":340,"dist_nm":80.2,"freq":347,"lat":54.56033900,"lon":-1.33344400,"rng_nm":25,"alt_fmsl":0,"id":"TD","desc":"TEESSIDE NDB"},
{"type":"VOR","hdg_t":163.9,"dist_nm":82.3,"freq":116.25,"lat":51.98972200,"lon":0.06194400,"rng_nm":40,"alt_fmsl":486,"id":"BKY","desc":"BARKWAY VOR-DME"},
{"type":"VOR","hdg_t":249,"dist_nm":82.3,"freq":116.8,"lat":52.79800300,"lon":-2.66254200,"rng_nm":40,"alt_fmsl":269,"id":"SWB","desc":"SHAWBURY VOR-DME"},
{"type":"NDB","hdg_t":251.3,"dist_nm":85.3,"freq":382,"lat":52.83363900,"lon":-2.77361100,"rng_nm":10,"alt_fmsl":0,"id":"SLP","desc":"SLEAP NDB"},
{"type":"NDB","hdg_t":172.5,"dist_nm":85.6,"freq":345,"lat":51.89416800,"lon":-0.25083300,"rng_nm":50,"alt_fmsl":0,"id":"LUT","desc":"Luton NDB"},
{"type":"NDB","hdg_t":288.8,"dist_nm":86.6,"freq":337,"lat":53.75170600,"lon":-2.85224200,"rng_nm":15,"alt_fmsl":0,"id":"WTN","desc":"WARTON NDB"},
{"type":"SDME","hdg_t":288.1,"dist_nm":87.7,"freq":113.2,"lat":53.74034700,"lon":-2.89283900,"rng_nm":25,"alt_fmsl":54,"id":"WTN","desc":"WARTON TACAN"},
{"type":"NDB","hdg_t":265.9,"dist_nm":87.8,"freq":340,"lat":53.17909600,"lon":-2.97954900,"rng_nm":25,"alt_fmsl":32,"id":"HAW","desc":"Hawarden NDB"},
{"type":"NDB","hdg_t":189.9,"dist_nm":88.7,"freq":335,"lat":51.85305600,"lon":-0.96250000,"rng_nm":30,"alt_fmsl":0,"id":"WCO","desc":"WESTCOTT NDB"},
{"type":"SDME","hdg_t":142,"dist_nm":89.6,"freq":109.3,"lat":52.12193300,"lon":0.94046900,"rng_nm":130,"alt_fmsl":324,"id":"WTZ","desc":"WATTISHAM TACAN"},
{"type":"NDB","hdg_t":160.7,"dist_nm":89.7,"freq":429,"lat":51.89459200,"lon":0.24503100,"rng_nm":20,"alt_fmsl":0,"id":"SSD","desc":"STANSTED NDB"},
{"type":"NDB","hdg_t":115.1,"dist_nm":91.8,"freq":397,"lat":52.63694400,"lon":1.72527800,"rng_nm":150,"alt_fmsl":0,"id":"ND","desc":"GREAT YARMOUTH NDB"},
{"type":"NDB","hdg_t":288.4,"dist_nm":92.9,"freq":318,"lat":53.77277800,"lon":-3.02777800,"rng_nm":15,"alt_fmsl":34,"id":"BPL","desc":"BLACKPOOL NDB"},
{"type":"NDB","hdg_t":197.9,"dist_nm":93,"freq":367,"lat":51.83248100,"lon":-1.32323900,"rng_nm":25,"alt_fmsl":0,"id":"OX","desc":"OXFORD NDB"},
{"type":"VOR","hdg_t":274.1,"dist_nm":93,"freq":114.1,"lat":53.39194400,"lon":-3.13444400,"rng_nm":130,"alt_fmsl":55,"id":"WAL","desc":"WALLASEY VOR-DME"},
{"type":"SDME","hdg_t":197.9,"dist_nm":93,"freq":117.7,"lat":51.83243300,"lon":-1.32281700,"rng_nm":25,"alt_fmsl":276,"id":"OX","desc":"OXFORD DME"},
{"type":"NDB","hdg_t":185.4,"dist_nm":93.4,"freq":433,"lat":51.75972200,"lon":-0.79027800,"rng_nm":30,"alt_fmsl":0,"id":"HEN","desc":"HENTON NDB"},
{"type":"VOR","hdg_t":179.9,"dist_nm":95,"freq":113.75,"lat":51.72611100,"lon":-0.54972200,"rng_nm":130,"alt_fmsl":500,"id":"BNN","desc":"BOVINGDON VOR-DME"},
{"type":"VOR","hdg_t":169.9,"dist_nm":95,"freq":117.5,"lat":51.74972200,"lon":-0.10666700,"rng_nm":80,"alt_fmsl":382,"id":"BPK","desc":"BROOKMANS PARK VOR-DME"}
]
}
