{"success":true,"source":"xp2csv.pl","last_updated":"2013/11/08 14:53:21 UTC"
,"icao":"EGXU","name":"Raf Linton On Ouse","lat":54.049117,"lon":-1.252806,"rwys":2,"ils":1,"index":2925570,"path":"w010n50/w002n54"
,"runways":[
{"len_m":1831,"wid_m":46.02,"hdg":31,"surf":"Asphalt","rwy1":"03","lat1":54.04238335,"lon1":-1.26041641,"rwy2":"21","lat2":54.05641265,"lon2":-1.24579559},
{"len_m":1338,"wid_m":46.02,"hdg":96,"surf":"Asphalt","rwy1":"10","lat1":54.04947763,"lon1":-1.26266531,"rwy2":"28","lat2":54.04819437,"lon2":-1.24234669}
]
,"radios":[
{"type":"GND","freq":122.1,"desc":"Linton Ground"},
{"type":"TWR","freq":122.1,"desc":"Linton Tower"},
{"type":"APP","freq":118.55,"desc":"Linton Approach"},
{"type":"DEP","freq":118.55,"desc":"Linton Departure"}
]
,"ils":[
{"type":"ILS","freq":110.7,"lat":54.05910400,"lon":-1.24295700,"rng_nm":18,"alt_fmsl":53,"hdg":31.52,"id":"LOB","rwy":"03","desc":"ILS-cat-I"},
{"type":"ILS","freq":110.7,"lat":54.04126300,"lon":-1.26154900,"rng_nm":18,"alt_fmsl":53,"hdg":211.40,"id":"LOA","rwy":"21","desc":"ILS-cat-I"},
{"type":"GS","freq":110.7,"lat":54.04453700,"lon":-1.25567800,"rng_nm":10,"alt_fmsl":53,"id":"LOB","rwy":"03","desc":"GS","gs":3},
{"type":"GS","freq":110.7,"lat":54.05564100,"lon":-1.24903000,"rng_nm":10,"alt_fmsl":53,"id":"LOA","rwy":"21","desc":"GS","gs":3},
{"type":"OM","freq":0,"lat":54.13226400,"lon":-1.15725300,"rng_nm":0,"alt_fmsl":53,"id":"----","rwy":"21","desc":"OM"},
{"type":"MM","freq":0,"lat":54.06337200,"lon":-1.23854200,"rng_nm":0,"alt_fmsl":53,"id":"----","rwy":"21","desc":"MM"}
]
,"navaids":[
{"type":"SDME","hdg_t":58.1,"dist_nm":0.1,"freq":109,"lat":54.05049200,"lon":-1.24904400,"rng_nm":130,"alt_fmsl":53,"id":"LOO","desc":"LINTON ON OUSE TACAN"},
{"type":"NDB","hdg_t":232.1,"dist_nm":17.9,"freq":402,"lat":53.86499200,"lon":-1.65288900,"rng_nm":25,"alt_fmsl":0,"id":"LBA","desc":"LEEDS BRADFORD NDB"},
{"type":"SDME","hdg_t":326.2,"dist_nm":17.9,"freq":112.6,"lat":54.29710800,"lon":-1.53687200,"rng_nm":25,"alt_fmsl":92,"id":"LEE","desc":"LEEMING TACAN"},
{"type":"NDB","hdg_t":128.9,"dist_nm":30.7,"freq":372,"lat":53.72538100,"lon":-0.58148300,"rng_nm":15,"alt_fmsl":12,"id":"BV","desc":"BROUGH NDB"},
{"type":"NDB","hdg_t":354.7,"dist_nm":30.8,"freq":347,"lat":54.56033900,"lon":-1.33344400,"rng_nm":25,"alt_fmsl":0,"id":"TD","desc":"TEESSIDE NDB"},
{"type":"VOR","hdg_t":239,"dist_nm":35.3,"freq":112.1,"lat":53.74388900,"lon":-2.10333300,"rng_nm":150,"alt_fmsl":1400,"id":"POL","desc":"POLE HILL VOR-DME"},
{"type":"NDB","hdg_t":165.3,"dist_nm":35.6,"freq":338,"lat":53.47482200,"lon":-1.00172500,"rng_nm":25,"alt_fmsl":0,"id":"FNY","desc":"DONCASTER NDB"},
{"type":"NDB","hdg_t":186.7,"dist_nm":39.7,"freq":333,"lat":53.39263900,"lon":-1.38313600,"rng_nm":15,"alt_fmsl":0,"id":"SMF","desc":"SHEFFIELD CITY NDB"},
{"type":"SDME","hdg_t":186.7,"dist_nm":39.7,"freq":111.35,"lat":53.39298100,"lon":-1.38314200,"rng_nm":25,"alt_fmsl":273,"id":"SFH","desc":"SHEFFIELD CITY DME"},
{"type":"NDB","hdg_t":131.1,"dist_nm":42.8,"freq":365,"lat":53.57666700,"lon":-0.35166700,"rng_nm":15,"alt_fmsl":0,"id":"KIM","desc":"HUMBERSIDE NDB"},
{"type":"VOR","hdg_t":116.8,"dist_nm":45.9,"freq":113.9,"lat":53.69833300,"lon":-0.10361100,"rng_nm":100,"alt_fmsl":0,"id":"OTR","desc":"OTTRINGHAM VOR-DME"},
{"type":"VOR","hdg_t":166.5,"dist_nm":47.4,"freq":112.8,"lat":53.28138900,"lon":-0.94722200,"rng_nm":130,"alt_fmsl":121,"id":"GAM","desc":"GAMSTON VOR-DME"},
{"type":"NDB","hdg_t":217.4,"dist_nm":53.5,"freq":380,"lat":53.33765800,"lon":-2.15835800,"rng_nm":15,"alt_fmsl":0,"id":"WFD","desc":"MANCHESTER WOODFORD NDB"},
{"type":"VOR","hdg_t":221.2,"dist_nm":55,"freq":113.55,"lat":53.35694400,"lon":-2.26222200,"rng_nm":130,"alt_fmsl":282,"id":"MCT","desc":"MANCHESTER VOR-DME"},
{"type":"NDB","hdg_t":221.4,"dist_nm":55.4,"freq":428,"lat":53.35329700,"lon":-2.27302500,"rng_nm":75,"alt_fmsl":0,"id":"MCH","desc":"MANCHESTER NDB"},
{"type":"SDME","hdg_t":153.6,"dist_nm":59.1,"freq":117.1,"lat":53.16533300,"lon":-0.52683300,"rng_nm":130,"alt_fmsl":231,"id":"WAD","desc":"WADDINGTON TACAN"},
{"type":"NDB","hdg_t":253.1,"dist_nm":59.5,"freq":337,"lat":53.75170600,"lon":-2.85224200,"rng_nm":15,"alt_fmsl":0,"id":"WTN","desc":"WARTON NDB"},
{"type":"SDME","hdg_t":252.9,"dist_nm":61.1,"freq":113.2,"lat":53.74034700,"lon":-2.89283900,"rng_nm":25,"alt_fmsl":54,"id":"WTN","desc":"WARTON TACAN"},
{"type":"VOR","hdg_t":345.5,"dist_nm":61.4,"freq":114.25,"lat":55.03844700,"lon":-1.69836900,"rng_nm":200,"alt_fmsl":274,"id":"NEW","desc":"NEWCASTLE VOR-DME"},
{"type":"VOR","hdg_t":194.1,"dist_nm":61.6,"freq":115.7,"lat":53.05388900,"lon":-1.67000000,"rng_nm":130,"alt_fmsl":968,"id":"TNT","desc":"TRENT VOR-DME"},
{"type":"NDB","hdg_t":347.4,"dist_nm":61.7,"freq":352,"lat":55.05038300,"lon":-1.64268300,"rng_nm":25,"alt_fmsl":0,"id":"NT","desc":"NEWCASTLE NDB"},
{"type":"NDB","hdg_t":255.9,"dist_nm":65.1,"freq":318,"lat":53.77277800,"lon":-3.02777800,"rng_nm":15,"alt_fmsl":34,"id":"BPL","desc":"BLACKPOOL NDB"},
{"type":"SDME","hdg_t":155.5,"dist_nm":67.1,"freq":117.4,"lat":53.02861700,"lon":-0.48550000,"rng_nm":65,"alt_fmsl":218,"id":"CWZ","desc":"CRANWELL TACAN"},
{"type":"NDB","hdg_t":155.7,"dist_nm":67.2,"freq":423,"lat":53.02627800,"lon":-0.48898300,"rng_nm":25,"alt_fmsl":0,"id":"CWL","desc":"CRANWELL NDB"},
{"type":"NDB","hdg_t":231.4,"dist_nm":67.6,"freq":349,"lat":53.33916700,"lon":-2.72388900,"rng_nm":50,"alt_fmsl":0,"id":"LPL","desc":"Liverpool NDB"},
{"type":"NDB","hdg_t":130.4,"dist_nm":67.6,"freq":330,"lat":53.31000000,"lon":0.17616700,"rng_nm":25,"alt_fmsl":0,"id":"SBY","desc":"STRUBBY NDB"},
{"type":"NDB","hdg_t":174.6,"dist_nm":68,"freq":430,"lat":52.92169400,"lon":-1.07933300,"rng_nm":10,"alt_fmsl":0,"id":"NOT","desc":"NOTTINGHAM NDB"},
{"type":"SDME","hdg_t":145.6,"dist_nm":69.4,"freq":111.1,"lat":53.09103900,"lon":-0.16897500,"rng_nm":120,"alt_fmsl":24,"id":"CGY","desc":"CONINGSBY TACAN"},
{"type":"NDB","hdg_t":223.8,"dist_nm":71.3,"freq":368,"lat":53.18500000,"lon":-2.62305600,"rng_nm":25,"alt_fmsl":0,"id":"WHI","desc":"WHITEGATE NDB"},
{"type":"NDB","hdg_t":178.3,"dist_nm":73.1,"freq":353,"lat":52.83283300,"lon":-1.19450000,"rng_nm":50,"alt_fmsl":280,"id":"EME","desc":"East Midlands NDB"},
{"type":"NDB","hdg_t":185.7,"dist_nm":73.6,"freq":393,"lat":52.82866600,"lon":-1.45450000,"rng_nm":50,"alt_fmsl":280,"id":"EMW","desc":"East Midlands NDB"},
{"type":"NDB","hdg_t":194.1,"dist_nm":76.4,"freq":327,"lat":52.81446400,"lon":-1.76667200,"rng_nm":10,"alt_fmsl":0,"id":"TNL","desc":"TATENHILL NDB"},
{"type":"VOR","hdg_t":240.2,"dist_nm":77.8,"freq":114.1,"lat":53.39194400,"lon":-3.13444400,"rng_nm":130,"alt_fmsl":55,"id":"WAL","desc":"WALLASEY VOR-DME"},
{"type":"NDB","hdg_t":192.2,"dist_nm":80,"freq":545,"lat":52.74666700,"lon":-1.71944400,"rng_nm":50,"alt_fmsl":0,"id":"LIC","desc":"LICHFIELD NDB"},
{"type":"NDB","hdg_t":230.4,"dist_nm":80.8,"freq":340,"lat":53.17909600,"lon":-2.97954900,"rng_nm":25,"alt_fmsl":32,"id":"HAW","desc":"Hawarden NDB"},
{"type":"SDME","hdg_t":164.4,"dist_nm":81.8,"freq":112.3,"lat":52.73537800,"lon":-0.65076900,"rng_nm":25,"alt_fmsl":452,"id":"CTM","desc":"COTTESMORE TACAN"},
{"type":"VOR","hdg_t":299.7,"dist_nm":83.6,"freq":115.2,"lat":54.72194400,"lon":-3.34055600,"rng_nm":130,"alt_fmsl":700,"id":"DCS","desc":"DEAN CROSS VOR-DME"},
{"type":"NDB","hdg_t":174.7,"dist_nm":87,"freq":383,"lat":52.60638900,"lon":-1.03500000,"rng_nm":10,"alt_fmsl":0,"id":"LE","desc":"LEICESTER NDB"},
{"type":"NDB","hdg_t":150.2,"dist_nm":90,"freq":401,"lat":52.74165000,"lon":-0.02794200,"rng_nm":15,"alt_fmsl":0,"id":"FNL","desc":"FENLAND NDB"},
{"type":"VOR","hdg_t":214.5,"dist_nm":90.6,"freq":116.8,"lat":52.79800300,"lon":-2.66254200,"rng_nm":40,"alt_fmsl":269,"id":"SWB","desc":"SHAWBURY VOR-DME"},
{"type":"SDME","hdg_t":162.3,"dist_nm":90.7,"freq":117.6,"lat":52.60783300,"lon":-0.49866700,"rng_nm":25,"alt_fmsl":295,"id":"WIT","desc":"WITTERING TACAN"},
{"type":"NDB","hdg_t":217.3,"dist_nm":91.1,"freq":382,"lat":52.83363900,"lon":-2.77361100,"rng_nm":10,"alt_fmsl":0,"id":"SLP","desc":"SLEAP NDB"},
{"type":"NDB","hdg_t":190.8,"dist_nm":97.4,"freq":406,"lat":52.45454700,"lon":-1.75238600,"rng_nm":20,"alt_fmsl":325,"id":"BHX","desc":"BIRMINGHAM NDB"},
{"type":"NDB","hdg_t":183.2,"dist_nm":98.5,"freq":363,"lat":52.41100000,"lon":-1.40583300,"rng_nm":50,"alt_fmsl":360,"id":"CT","desc":"Coventry NDB"},
{"type":"NDB","hdg_t":201.9,"dist_nm":99,"freq":356,"lat":52.51590300,"lon":-2.26176100,"rng_nm":25,"alt_fmsl":0,"id":"WBA","desc":"WOLVERHAMPTON NDB"},
{"type":"SDME","hdg_t":201.9,"dist_nm":99,"freq":108.6,"lat":52.51579400,"lon":-2.26181700,"rng_nm":15,"alt_fmsl":300,"id":"WOL","desc":"WOLVERHAMPTON DME"}
]
}
