{"success":true,"source":"xp2csv.pl","last_updated":"2013/11/08 14:53:21 UTC"
,"icao":"EGXZ","name":"Raf Topcliffe","lat":54.20567225,"lon":-1.38140975,"rwys":2,"ils":0,"index":2925578,"path":"w010n50/w002n54"
,"runways":[
{"len_m":1857,"wid_m":46.02,"hdg":21,"surf":"Asphalt","rwy1":"03","lat1":54.19773600,"lon1":-1.38706100,"rwy2":"21","lat2":54.21323100,"lon2":-1.37647500},
{"len_m":1259,"wid_m":46.02,"hdg":125,"surf":"Asphalt","rwy1":"13","lat1":54.20916900,"lon1":-1.38887800,"rwy2":"31","lat2":54.20255300,"lon2":-1.37322500}
]
,"radios":[
{"type":"TWR","freq":122.1,"desc":"Topcliffe Tower"},
{"type":"APP","freq":125,"desc":"Topcliffe Approach"}
]
,"navaids":[
{"type":"SDME","hdg_t":315.1,"dist_nm":7.7,"freq":112.6,"lat":54.29710800,"lon":-1.53687200,"rng_nm":25,"alt_fmsl":92,"id":"LEE","desc":"LEEMING TACAN"},
{"type":"SDME","hdg_t":153.3,"dist_nm":10.4,"freq":109,"lat":54.05049200,"lon":-1.24904400,"rng_nm":130,"alt_fmsl":53,"id":"LOO","desc":"LINTON ON OUSE TACAN"},
{"type":"NDB","hdg_t":4.4,"dist_nm":21.3,"freq":347,"lat":54.56033900,"lon":-1.33344400,"rng_nm":25,"alt_fmsl":0,"id":"TD","desc":"TEESSIDE NDB"},
{"type":"NDB","hdg_t":205.2,"dist_nm":22.6,"freq":402,"lat":53.86499200,"lon":-1.65288900,"rng_nm":25,"alt_fmsl":0,"id":"LBA","desc":"LEEDS BRADFORD NDB"},
{"type":"VOR","hdg_t":222.9,"dist_nm":37.7,"freq":112.1,"lat":53.74388900,"lon":-2.10333300,"rng_nm":150,"alt_fmsl":1400,"id":"POL","desc":"POLE HILL VOR-DME"},
{"type":"NDB","hdg_t":135.1,"dist_nm":40.4,"freq":372,"lat":53.72538100,"lon":-0.58148300,"rng_nm":15,"alt_fmsl":12,"id":"BV","desc":"BROUGH NDB"},
{"type":"NDB","hdg_t":162.7,"dist_nm":45.9,"freq":338,"lat":53.47482200,"lon":-1.00172500,"rng_nm":25,"alt_fmsl":0,"id":"FNY","desc":"DONCASTER NDB"},
{"type":"NDB","hdg_t":180,"dist_nm":48.8,"freq":333,"lat":53.39263900,"lon":-1.38313600,"rng_nm":15,"alt_fmsl":0,"id":"SMF","desc":"SHEFFIELD CITY NDB"},
{"type":"SDME","hdg_t":180,"dist_nm":48.8,"freq":111.35,"lat":53.39298100,"lon":-1.38314200,"rng_nm":25,"alt_fmsl":273,"id":"SFH","desc":"SHEFFIELD CITY DME"},
{"type":"VOR","hdg_t":347.6,"dist_nm":51.2,"freq":114.25,"lat":55.03844700,"lon":-1.69836900,"rng_nm":200,"alt_fmsl":274,"id":"NEW","desc":"NEWCASTLE VOR-DME"},
{"type":"NDB","hdg_t":349.9,"dist_nm":51.5,"freq":352,"lat":55.05038300,"lon":-1.64268300,"rng_nm":25,"alt_fmsl":0,"id":"NT","desc":"NEWCASTLE NDB"},
{"type":"NDB","hdg_t":135.5,"dist_nm":52.5,"freq":365,"lat":53.57666700,"lon":-0.35166700,"rng_nm":15,"alt_fmsl":0,"id":"KIM","desc":"HUMBERSIDE NDB"},
{"type":"VOR","hdg_t":123.4,"dist_nm":54.6,"freq":113.9,"lat":53.69833300,"lon":-0.10361100,"rng_nm":100,"alt_fmsl":0,"id":"OTR","desc":"OTTRINGHAM VOR-DME"},
{"type":"VOR","hdg_t":164.2,"dist_nm":57.6,"freq":112.8,"lat":53.28138900,"lon":-0.94722200,"rng_nm":130,"alt_fmsl":121,"id":"GAM","desc":"GAMSTON VOR-DME"},
{"type":"NDB","hdg_t":242.9,"dist_nm":58.8,"freq":337,"lat":53.75170600,"lon":-2.85224200,"rng_nm":15,"alt_fmsl":0,"id":"WTN","desc":"WARTON NDB"},
{"type":"NDB","hdg_t":208.2,"dist_nm":59,"freq":380,"lat":53.33765800,"lon":-2.15835800,"rng_nm":15,"alt_fmsl":0,"id":"WFD","desc":"MANCHESTER WOODFORD NDB"},
{"type":"VOR","hdg_t":211.9,"dist_nm":59.8,"freq":113.55,"lat":53.35694400,"lon":-2.26222200,"rng_nm":130,"alt_fmsl":282,"id":"MCT","desc":"MANCHESTER VOR-DME"},
{"type":"NDB","hdg_t":212.1,"dist_nm":60.2,"freq":428,"lat":53.35329700,"lon":-2.27302500,"rng_nm":75,"alt_fmsl":0,"id":"MCH","desc":"MANCHESTER NDB"},
{"type":"SDME","hdg_t":243,"dist_nm":60.4,"freq":113.2,"lat":53.74034700,"lon":-2.89283900,"rng_nm":25,"alt_fmsl":54,"id":"WTN","desc":"WARTON TACAN"},
{"type":"NDB","hdg_t":246.6,"dist_nm":63.8,"freq":318,"lat":53.77277800,"lon":-3.02777800,"rng_nm":15,"alt_fmsl":34,"id":"BPL","desc":"BLACKPOOL NDB"},
{"type":"SDME","hdg_t":153.6,"dist_nm":69.5,"freq":117.1,"lat":53.16533300,"lon":-0.52683300,"rng_nm":130,"alt_fmsl":231,"id":"WAD","desc":"WADDINGTON TACAN"},
{"type":"VOR","hdg_t":188.5,"dist_nm":69.9,"freq":115.7,"lat":53.05388900,"lon":-1.67000000,"rng_nm":130,"alt_fmsl":968,"id":"TNT","desc":"TRENT VOR-DME"},
{"type":"NDB","hdg_t":223,"dist_nm":70.6,"freq":349,"lat":53.33916700,"lon":-2.72388900,"rng_nm":50,"alt_fmsl":0,"id":"LPL","desc":"Liverpool NDB"},
{"type":"VOR","hdg_t":295.1,"dist_nm":75.2,"freq":115.2,"lat":54.72194400,"lon":-3.34055600,"rng_nm":130,"alt_fmsl":700,"id":"DCS","desc":"DEAN CROSS VOR-DME"},
{"type":"NDB","hdg_t":216.3,"dist_nm":75.6,"freq":368,"lat":53.18500000,"lon":-2.62305600,"rng_nm":25,"alt_fmsl":0,"id":"WHI","desc":"WHITEGATE NDB"},
{"type":"NDB","hdg_t":133.5,"dist_nm":77.2,"freq":330,"lat":53.31000000,"lon":0.17616700,"rng_nm":25,"alt_fmsl":0,"id":"SBY","desc":"STRUBBY NDB"},
{"type":"SDME","hdg_t":155.2,"dist_nm":77.6,"freq":117.4,"lat":53.02861700,"lon":-0.48550000,"rng_nm":65,"alt_fmsl":218,"id":"CWZ","desc":"CRANWELL TACAN"},
{"type":"NDB","hdg_t":155.4,"dist_nm":77.7,"freq":423,"lat":53.02627800,"lon":-0.48898300,"rng_nm":25,"alt_fmsl":0,"id":"CWL","desc":"CRANWELL NDB"},
{"type":"NDB","hdg_t":171.9,"dist_nm":77.9,"freq":430,"lat":52.92169400,"lon":-1.07933300,"rng_nm":10,"alt_fmsl":0,"id":"NOT","desc":"NOTTINGHAM NDB"},
{"type":"VOR","hdg_t":232.6,"dist_nm":79.2,"freq":114.1,"lat":53.39194400,"lon":-3.13444400,"rng_nm":130,"alt_fmsl":55,"id":"WAL","desc":"WALLASEY VOR-DME"},
{"type":"SDME","hdg_t":146.6,"dist_nm":79.7,"freq":111.1,"lat":53.09103900,"lon":-0.16897500,"rng_nm":120,"alt_fmsl":24,"id":"CGY","desc":"CONINGSBY TACAN"},
{"type":"NDB","hdg_t":175.2,"dist_nm":82.7,"freq":353,"lat":52.83283300,"lon":-1.19450000,"rng_nm":50,"alt_fmsl":280,"id":"EME","desc":"East Midlands NDB"},
{"type":"NDB","hdg_t":181.8,"dist_nm":82.7,"freq":393,"lat":52.82866600,"lon":-1.45450000,"rng_nm":50,"alt_fmsl":280,"id":"EMW","desc":"East Midlands NDB"},
{"type":"NDB","hdg_t":223.3,"dist_nm":83.9,"freq":340,"lat":53.17909600,"lon":-2.97954900,"rng_nm":25,"alt_fmsl":32,"id":"HAW","desc":"Hawarden NDB"},
{"type":"NDB","hdg_t":189.5,"dist_nm":84.7,"freq":327,"lat":52.81446400,"lon":-1.76667200,"rng_nm":10,"alt_fmsl":0,"id":"TNL","desc":"TATENHILL NDB"},
{"type":"NDB","hdg_t":188,"dist_nm":88.5,"freq":545,"lat":52.74666700,"lon":-1.71944400,"rng_nm":50,"alt_fmsl":0,"id":"LIC","desc":"LICHFIELD NDB"},
{"type":"SDME","hdg_t":163.1,"dist_nm":92.1,"freq":112.3,"lat":52.73537800,"lon":-0.65076900,"rng_nm":25,"alt_fmsl":452,"id":"CTM","desc":"COTTESMORE TACAN"},
{"type":"VOR","hdg_t":209,"dist_nm":96.2,"freq":116.8,"lat":52.79800300,"lon":-2.66254200,"rng_nm":40,"alt_fmsl":269,"id":"SWB","desc":"SHAWBURY VOR-DME"},
{"type":"NDB","hdg_t":211.7,"dist_nm":96.3,"freq":382,"lat":52.83363900,"lon":-2.77361100,"rng_nm":10,"alt_fmsl":0,"id":"SLP","desc":"SLEAP NDB"},
{"type":"NDB","hdg_t":172.4,"dist_nm":96.9,"freq":383,"lat":52.60638900,"lon":-1.03500000,"rng_nm":10,"alt_fmsl":0,"id":"LE","desc":"LEICESTER NDB"}
]
}
