{"success":true,"source":"xp2csv.pl","last_updated":"2013/11/08 14:53:21 UTC"
,"icao":"EHLV","name":"Langeveld","lat":52.331356,"lon":4.5265179,"rwys":1,"ils":0,"index":3023762,"path":"e000n50/e004n52"
,"runways":[
{"len_m":810,"wid_m":45.72,"hdg":238,"surf":"Turf/grass","rwy1":"24","lat1":52.33328196,"lon1":4.53156162,"rwy2":"06","lat2":52.32943004,"lon2":4.52147418}
]
,"navaids":[
{"type":"VOR","hdg_t":89.1,"dist_nm":6.5,"freq":113.95,"lat":52.33277800,"lon":4.70555600,"rng_nm":25,"alt_fmsl":-7,"id":"AMS","desc":"AMSTERDAM VOR-DME"},
{"type":"NDB","hdg_t":170.2,"dist_nm":6.7,"freq":388,"lat":52.22061700,"lon":4.55760000,"rng_nm":25,"alt_fmsl":0,"id":"CH","desc":"SCHIPHOL NDB"},
{"type":"VOR","hdg_t":89.5,"dist_nm":8.2,"freq":108.4,"lat":52.33214400,"lon":4.74988300,"rng_nm":260,"alt_fmsl":14,"id":"SPL","desc":"SCHIPHOL VOR-DME"},
{"type":"SDME","hdg_t":202.1,"dist_nm":11,"freq":111.2,"lat":52.16138900,"lon":4.41416700,"rng_nm":100,"alt_fmsl":1,"id":"VBG","desc":"VALKENBURG TACAN"},
{"type":"NDB","hdg_t":44.8,"dist_nm":11.7,"freq":395,"lat":52.47027200,"lon":4.75332600,"rng_nm":15,"alt_fmsl":0,"id":"OA","desc":"Schiphol Locator NDB"},
{"type":"NDB","hdg_t":140.7,"dist_nm":13.9,"freq":332,"lat":52.15139444,"lon":4.76483333,"rng_nm":15,"alt_fmsl":0,"id":"NV","desc":"SCHIPHOL LOCATOR NDB"},
{"type":"NDB","hdg_t":42.3,"dist_nm":17.1,"freq":381,"lat":52.54166800,"lon":4.84138900,"rng_nm":150,"alt_fmsl":0,"id":"SPY","desc":"SPIJKERBOOR NDB"},
{"type":"VOR","hdg_t":43.6,"dist_nm":17.3,"freq":113.3,"lat":52.54028100,"lon":4.85378100,"rng_nm":100,"alt_fmsl":26,"id":"SPY","desc":"SPIJKERBOOR VOR-DME"},
{"type":"NDB","hdg_t":215.3,"dist_nm":17.4,"freq":364,"lat":52.09416600,"lon":4.25361100,"rng_nm":150,"alt_fmsl":0,"id":"GV","desc":"SCHEVENINGEN NDB"},
{"type":"NDB","hdg_t":90.7,"dist_nm":18.3,"freq":376,"lat":52.32610300,"lon":5.02472200,"rng_nm":15,"alt_fmsl":0,"id":"WP","desc":"Schiphol locator NDB"},
{"type":"VOR","hdg_t":89.2,"dist_nm":20.8,"freq":117.8,"lat":52.33476100,"lon":5.09216100,"rng_nm":80,"alt_fmsl":27,"id":"PAM","desc":"PAMPUS VOR-DME"},
{"type":"NDB","hdg_t":155.3,"dist_nm":21.5,"freq":404,"lat":52.00437500,"lon":4.76905300,"rng_nm":15,"alt_fmsl":0,"id":"RR","desc":"ROTTERDAM LOCATOR NDB"},
{"type":"VOR","hdg_t":184.4,"dist_nm":21.5,"freq":110.4,"lat":51.97369700,"lon":4.48096900,"rng_nm":50,"alt_fmsl":34,"id":"RTM","desc":"ROTTERDAM VOR-DME"},
{"type":"SDME","hdg_t":155.3,"dist_nm":21.5,"freq":117.15,"lat":52.00434700,"lon":4.76913100,"rng_nm":70,"alt_fmsl":0,"id":"FRT","desc":"HAASTRECHT DME"},
{"type":"NDB","hdg_t":177.7,"dist_nm":26,"freq":350,"lat":51.89758600,"lon":4.55434700,"rng_nm":25,"alt_fmsl":0,"id":"ROT","desc":"ROTTERDAM NDB"},
{"type":"VOR","hdg_t":113.5,"dist_nm":30.2,"freq":115.8,"lat":52.12832600,"lon":5.27556200,"rng_nm":18,"alt_fmsl":49,"id":"SSB","desc":"Soesterberg VORTAC"},
{"type":"NDB","hdg_t":202.7,"dist_nm":30.3,"freq":369,"lat":51.86430000,"lon":4.21048900,"rng_nm":15,"alt_fmsl":0,"id":"PS","desc":"ROTTERDAM LOCATOR NDB"},
{"type":"VOR","hdg_t":14.1,"dist_nm":35.6,"freq":115.55,"lat":52.90694400,"lon":4.76583300,"rng_nm":90,"alt_fmsl":29,"id":"HDR","desc":"DEN HELDER VOR-DME"},
{"type":"SDME","hdg_t":78.4,"dist_nm":36.7,"freq":111.4,"lat":52.45003600,"lon":5.50772500,"rng_nm":70,"alt_fmsl":0,"id":"FRT","desc":"LELYSTAD DME"},
{"type":"NDB","hdg_t":196.5,"dist_nm":36.9,"freq":386,"lat":51.74132500,"lon":4.24348600,"rng_nm":15,"alt_fmsl":2,"id":"STD","desc":"STAD NDB"},
{"type":"NDB","hdg_t":77.5,"dist_nm":37.7,"freq":326,"lat":52.46286400,"lon":5.53193000,"rng_nm":100,"alt_fmsl":0,"id":"LLS","desc":"Lelystad NDB"},
{"type":"NDB","hdg_t":73.7,"dist_nm":39.8,"freq":347,"lat":52.51222200,"lon":5.56944500,"rng_nm":150,"alt_fmsl":0,"id":"LAK","desc":"LAKE NDB"},
{"type":"VOR","hdg_t":214.3,"dist_nm":44.1,"freq":114.15,"lat":51.72272200,"lon":3.85818100,"rng_nm":80,"alt_fmsl":4,"id":"HSD","desc":"HAAMSTEDE VOR"},
{"type":"VOR","hdg_t":161.6,"dist_nm":48.3,"freq":116.4,"lat":51.56611600,"lon":4.93361000,"rng_nm":18,"alt_fmsl":46,"id":"GZR","desc":"Gilze Rijen VORTAC"},
{"type":"VOR","hdg_t":107.7,"dist_nm":52.3,"freq":112.2,"lat":52.05723200,"lon":5.87278300,"rng_nm":18,"alt_fmsl":158,"id":"DLN","desc":"Deelen VORTAC"},
{"type":"VOR","hdg_t":187.3,"dist_nm":53.5,"freq":115,"lat":51.44750200,"lon":4.34389200,"rng_nm":18,"alt_fmsl":47,"id":"WDT","desc":"Woensdrecht VORTAC"},
{"type":"NDB","hdg_t":187.1,"dist_nm":53.9,"freq":345,"lat":51.43999900,"lon":4.34777800,"rng_nm":150,"alt_fmsl":0,"id":"WDT","desc":"WOENSDRECHT NDB"},
{"type":"NDB","hdg_t":181.3,"dist_nm":57.7,"freq":365,"lat":51.37027800,"lon":4.49083300,"rng_nm":15,"alt_fmsl":0,"id":"BC","desc":"BRASSCHAAT NDB"},
{"type":"NDB","hdg_t":141.4,"dist_nm":58.7,"freq":316,"lat":51.56277800,"lon":5.50555600,"rng_nm":25,"alt_fmsl":0,"id":"PH","desc":"EINDHOVEN NDB"},
{"type":"SDME","hdg_t":132.3,"dist_nm":59.7,"freq":108.3,"lat":51.65555600,"lon":5.70694400,"rng_nm":200,"alt_fmsl":64,"id":"VKL","desc":"VOLKEL TACAN"},
{"type":"NDB","hdg_t":147.7,"dist_nm":61.1,"freq":397,"lat":51.46777800,"lon":5.39500000,"rng_nm":25,"alt_fmsl":59,"id":"EHN","desc":"EINDHOVEN NDB"},
{"type":"VOR","hdg_t":148.9,"dist_nm":61.7,"freq":117.2,"lat":51.44805100,"lon":5.37500100,"rng_nm":18,"alt_fmsl":81,"id":"EHV","desc":"Eindhoven VORTAC"},
{"type":"VOR","hdg_t":181.7,"dist_nm":68.5,"freq":113.5,"lat":51.19055600,"lon":4.47250000,"rng_nm":25,"alt_fmsl":78,"id":"ANT","desc":"ANTWERPEN VOR-DME"},
{"type":"NDB","hdg_t":181.2,"dist_nm":68.8,"freq":309,"lat":51.18500000,"lon":4.48555600,"rng_nm":25,"alt_fmsl":0,"id":"WW","desc":"ANTWERP NDB"},
{"type":"SDME","hdg_t":39.3,"dist_nm":69.7,"freq":114.7,"lat":53.22361100,"lon":5.75194400,"rng_nm":40,"alt_fmsl":22,"id":"LWD","desc":"LEEUWARDEN TACAN"},
{"type":"NDB","hdg_t":178.7,"dist_nm":69.9,"freq":355,"lat":51.16750000,"lon":4.56638900,"rng_nm":50,"alt_fmsl":0,"id":"ONW","desc":"ANTWERPEN NDB"},
{"type":"VOR","hdg_t":190.4,"dist_nm":71.2,"freq":117.4,"lat":51.16500000,"lon":4.18388900,"rng_nm":50,"alt_fmsl":119,"id":"NIK","desc":"NICKY VOR-DME"},
{"type":"NDB","hdg_t":190.2,"dist_nm":71.3,"freq":336,"lat":51.16249800,"lon":4.18916700,"rng_nm":50,"alt_fmsl":0,"id":"NIK","desc":"NICKY NDB"},
{"type":"VOR","hdg_t":216.8,"dist_nm":73.4,"freq":110.05,"lat":51.34805600,"lon":3.35527800,"rng_nm":60,"alt_fmsl":30,"id":"COA","desc":"COSTA VOR-DME"},
{"type":"VOR","hdg_t":170.7,"dist_nm":73.8,"freq":110.6,"lat":51.11861100,"lon":4.84194400,"rng_nm":25,"alt_fmsl":69,"id":"BUN","desc":"BRUNO VOR-DME"},
{"type":"SDME","hdg_t":125.6,"dist_nm":74.3,"freq":115.5,"lat":51.59996700,"lon":6.14148100,"rng_nm":40,"alt_fmsl":152,"id":"NID","desc":"NIEDERRHEIN DME"},
{"type":"NDB","hdg_t":172.7,"dist_nm":75.9,"freq":341,"lat":51.07694600,"lon":4.77944400,"rng_nm":50,"alt_fmsl":0,"id":"BUN","desc":"BRUNO NDB"},
{"type":"NDB","hdg_t":149.8,"dist_nm":77.3,"freq":431,"lat":51.21333300,"lon":5.55750000,"rng_nm":35,"alt_fmsl":0,"id":"ONT","desc":"KLEINE BROGEL NDB"},
{"type":"SDME","hdg_t":152.9,"dist_nm":78,"freq":109.6,"lat":51.17027800,"lon":5.46638900,"rng_nm":40,"alt_fmsl":180,"id":"BBL","desc":"KLEINE BROGEL TACAN"},
{"type":"NDB","hdg_t":57.6,"dist_nm":80.1,"freq":357,"lat":53.03153200,"lon":6.39602200,"rng_nm":15,"alt_fmsl":3,"id":"VZ","desc":"EHGG L05 NDB"},
{"type":"VOR","hdg_t":97.3,"dist_nm":83.3,"freq":116.8,"lat":52.13319700,"lon":6.76387800,"rng_nm":50,"alt_fmsl":137,"id":"RKN","desc":"REKKEN VOR-DME"},
{"type":"NDB","hdg_t":178.2,"dist_nm":83.7,"freq":402,"lat":50.93861100,"lon":4.59222200,"rng_nm":25,"alt_fmsl":0,"id":"OP","desc":"Brussels NDB"},
{"type":"NDB","hdg_t":177.6,"dist_nm":84.8,"freq":293,"lat":50.92027800,"lon":4.61638900,"rng_nm":25,"alt_fmsl":0,"id":"OB","desc":"BRUSSELS NDB"},
{"type":"VOR","hdg_t":179.7,"dist_nm":85.8,"freq":114.6,"lat":50.90222200,"lon":4.53805600,"rng_nm":100,"alt_fmsl":187,"id":"BUB","desc":"BRUSSELS VOR-DME"},
{"type":"NDB","hdg_t":91.5,"dist_nm":86.6,"freq":335,"lat":52.26793600,"lon":6.87616400,"rng_nm":15,"alt_fmsl":98,"id":"TWN","desc":"TWENTHE NDB"},
{"type":"VOR","hdg_t":189.7,"dist_nm":86.7,"freq":114.9,"lat":50.90777800,"lon":4.13888900,"rng_nm":40,"alt_fmsl":284,"id":"AFI","desc":"AFFLIGEM VOR-DME"},
{"type":"SDME","hdg_t":91.3,"dist_nm":87.1,"freq":110.7,"lat":52.27451700,"lon":6.89152800,"rng_nm":130,"alt_fmsl":114,"id":"TWN","desc":"TWENTHE TACAN"},
{"type":"NDB","hdg_t":221,"dist_nm":87.9,"freq":399,"lat":51.21750000,"lon":2.99638900,"rng_nm":50,"alt_fmsl":12,"id":"ONO","desc":"OOSTENDE NDB"},
{"type":"SDME","hdg_t":56.8,"dist_nm":88.9,"freq":109.9,"lat":53.12233000,"lon":6.58760600,"rng_nm":18,"alt_fmsl":17,"id":"GRO","desc":"EHGG 23 DME"},
{"type":"NDB","hdg_t":192.2,"dist_nm":89.1,"freq":393,"lat":50.88028000,"lon":4.02888900,"rng_nm":50,"alt_fmsl":0,"id":"DEN","desc":"DENDER NDB"},
{"type":"NDB","hdg_t":128.9,"dist_nm":90.3,"freq":311,"lat":51.37083300,"lon":6.39500000,"rng_nm":25,"alt_fmsl":0,"id":"LMA","desc":"LIMA NDB"},
{"type":"VOR","hdg_t":165.1,"dist_nm":90.3,"freq":112.05,"lat":50.87666700,"lon":5.13444400,"rng_nm":100,"alt_fmsl":187,"id":"FLO","desc":"FLORA VOR-DME"},
{"type":"NDB","hdg_t":181.4,"dist_nm":90.4,"freq":314,"lat":50.82694400,"lon":4.46694400,"rng_nm":25,"alt_fmsl":0,"id":"OZ","desc":"BRUSSELS NDB"},
{"type":"NDB","hdg_t":205.5,"dist_nm":90.6,"freq":360,"lat":50.96472200,"lon":3.49611100,"rng_nm":50,"alt_fmsl":33,"id":"MAK","desc":"MACKEL NDB"},
{"type":"VOR","hdg_t":56.4,"dist_nm":92.6,"freq":112.4,"lat":53.16390600,"lon":6.66667500,"rng_nm":60,"alt_fmsl":32,"id":"EEL","desc":"EELDE VOR-DME"},
{"type":"NDB","hdg_t":223.3,"dist_nm":92.9,"freq":352,"lat":51.19388900,"lon":2.83500000,"rng_nm":25,"alt_fmsl":0,"id":"DD","desc":"OOSTENDE NDB"},
{"type":"NDB","hdg_t":146.8,"dist_nm":93.6,"freq":373,"lat":51.01936400,"lon":5.87834400,"rng_nm":15,"alt_fmsl":150,"id":"NW","desc":"MAASTRICHT NDB"},
{"type":"NDB","hdg_t":170.1,"dist_nm":94.3,"freq":212,"lat":50.78277600,"lon":4.95111100,"rng_nm":50,"alt_fmsl":0,"id":"TN","desc":"GOETSENHOVEN NDB"},
{"type":"SDME","hdg_t":174.4,"dist_nm":95,"freq":116,"lat":50.75638900,"lon":4.76805600,"rng_nm":100,"alt_fmsl":370,"id":"BBE","desc":"BEAUVECHAIN TACAN"},
{"type":"VOR","hdg_t":177.3,"dist_nm":95.1,"freq":117.55,"lat":50.74944400,"lon":4.64166700,"rng_nm":40,"alt_fmsl":335,"id":"HUL","desc":"HULDENBERG VOR-DME"},
{"type":"VOR","hdg_t":164.5,"dist_nm":95.7,"freq":109.65,"lat":50.79365158,"lon":5.19530010,"rng_nm":60,"alt_fmsl":223,"id":"BVG","desc":"Bevingen VORTAC"},
{"type":"NDB","hdg_t":164.8,"dist_nm":96.3,"freq":510,"lat":50.78075000,"lon":5.18706700,"rng_nm":50,"alt_fmsl":230,"id":"ST","desc":"St Truiden NDB"},
{"type":"VOR","hdg_t":146.1,"dist_nm":97.6,"freq":108.6,"lat":50.97194200,"lon":5.96042800,"rng_nm":40,"alt_fmsl":283,"id":"MAS","desc":"MAASTRICHT VOR-DME"},
{"type":"NDB","hdg_t":56.2,"dist_nm":97.9,"freq":330,"lat":53.21529200,"lon":6.78516400,"rng_nm":15,"alt_fmsl":3,"id":"SO","desc":"EELDE NDB"},
{"type":"VOR","hdg_t":131.1,"dist_nm":98.3,"freq":109.8,"lat":51.23730000,"lon":6.49024400,"rng_nm":40,"alt_fmsl":156,"id":"MHV","desc":"MONCHENGLADBACH VOR"},
{"type":"SDME","hdg_t":131.1,"dist_nm":98.4,"freq":112.5,"lat":51.23490800,"lon":6.49196900,"rng_nm":25,"alt_fmsl":159,"id":"MHD","desc":"MONCHENGLADBACH DME"},
{"type":"NDB","hdg_t":185.1,"dist_nm":98.7,"freq":283,"lat":50.69472100,"lon":4.29222200,"rng_nm":50,"alt_fmsl":0,"id":"BUS","desc":"BRESSY NDB"},
{"type":"NDB","hdg_t":131.1,"dist_nm":99.1,"freq":377,"lat":51.22732200,"lon":6.50541100,"rng_nm":15,"alt_fmsl":125,"id":"MGB","desc":"MONCHENGLADBACH NDB"},
{"type":"SDME","hdg_t":144.7,"dist_nm":99.8,"freq":108.1,"lat":50.96333300,"lon":6.04519700,"rng_nm":40,"alt_fmsl":327,"id":"GIX","desc":"GEILENKIRCHEN TACAN"}
]
}
