{"success":true,"source":"xp2csv.pl","last_updated":"2013/11/08 14:53:21 UTC"
,"icao":"EJ4","name":"Claresholm Indus","lat":50.0037123333333,"lon":-113.628612166667,"rwys":3,"ils":0,"index":1090305,"path":"w120n50/w114n50"
,"runways":[
{"len_m":948,"wid_m":30.48,"hdg":47,"surf":"Asphalt","rwy1":"03","lat1":50.00286400,"lon1":-113.63658300,"rwy2":"21","lat2":50.00856900,"lon2":-113.62675600},
{"len_m":919,"wid_m":30.48,"hdg":107,"surf":"Asphalt","rwy1":"09","lat1":50.00222500,"lon1":-113.63583100,"rwy2":"27","lat2":49.99972200,"lon2":-113.62361100},
{"len_m":897,"wid_m":30.48,"hdg":164,"surf":"Asphalt","rwy1":"14","lat1":50.00833600,"lon1":-113.62611100,"rwy2":"32","lat2":50.00055800,"lon2":-113.62278100}
]
,"radios":[
{"type":"CTAF","freq":123,"desc":"CTAF/UNICOM"}
]
,"navaids":[
{"type":"NDB","hdg_t":260.1,"dist_nm":0.3,"freq":408,"lat":50.00277800,"lon":-113.63694400,"rng_nm":50,"alt_fmsl":3325,"id":"Z7","desc":"CLARESHOLM NDB"},
{"type":"NDB","hdg_t":29.2,"dist_nm":27.1,"freq":274,"lat":50.39805556,"lon":-113.28222222,"rng_nm":50,"alt_fmsl":0,"id":"Z5","desc":"VULCAN NDB"},
{"type":"NDB","hdg_t":206.6,"dist_nm":32.2,"freq":311,"lat":49.52333300,"lon":-113.99861100,"rng_nm":25,"alt_fmsl":0,"id":"9Y","desc":"PINCHER CREEK NDB"},
{"type":"NDB","hdg_t":129.6,"dist_nm":37.2,"freq":248,"lat":49.60527778,"lon":-112.89388889,"rng_nm":50,"alt_fmsl":0,"id":"QL","desc":"LETHBRIDGE NDB"},
{"type":"VOR","hdg_t":120.3,"dist_nm":43.4,"freq":115.7,"lat":49.63444444,"lon":-112.66786111,"rng_nm":130,"alt_fmsl":3109,"id":"YQL","desc":"LETHBRIDGE VOR-DME"},
{"type":"NDB","hdg_t":258.8,"dist_nm":49.7,"freq":400,"lat":49.83722200,"lon":-114.88444400,"rng_nm":50,"alt_fmsl":3800,"id":"5M","desc":"SPARWOOD NDB"},
{"type":"NDB","hdg_t":327.8,"dist_nm":53,"freq":299,"lat":50.75000000,"lon":-114.36888900,"rng_nm":25,"alt_fmsl":0,"id":"TV","desc":"TURNER VALLEY NDB"},
{"type":"NDB","hdg_t":100.1,"dist_nm":57.2,"freq":388,"lat":49.82583300,"lon":-112.17805600,"rng_nm":25,"alt_fmsl":2648,"id":"3Z","desc":"TABER NDB-DME"},
{"type":"SDME","hdg_t":100.1,"dist_nm":57.2,"freq":111,"lat":49.82583300,"lon":-112.17805600,"rng_nm":25,"alt_fmsl":2648,"id":"3Z","desc":"TABER NDB-DME"},
{"type":"NDB","hdg_t":346.4,"dist_nm":63.6,"freq":233,"lat":51.03305600,"lon":-114.02111100,"rng_nm":25,"alt_fmsl":0,"id":"ZCA","desc":"BLACKFOOT NDB"},
{"type":"NDB","hdg_t":350.6,"dist_nm":65.5,"freq":344,"lat":51.08083333,"lon":-113.90888889,"rng_nm":50,"alt_fmsl":0,"id":"YC","desc":"CALGARY NDB"},
{"type":"VOR","hdg_t":351.8,"dist_nm":67.4,"freq":116.7,"lat":51.11505556,"lon":-113.88208333,"rng_nm":130,"alt_fmsl":3566,"id":"YYC","desc":"CALGARY VOR-DME"},
{"type":"SDME","hdg_t":347.2,"dist_nm":67.5,"freq":111.5,"lat":51.09924200,"lon":-114.02309400,"rng_nm":25,"alt_fmsl":3551,"id":"IYC","desc":"CALGARY DME"},
{"type":"VOR","hdg_t":337,"dist_nm":72.1,"freq":108.6,"lat":51.10666700,"lon":-114.37305600,"rng_nm":40,"alt_fmsl":3971,"id":"YBW","desc":"CALGARY SPRINGBANK VOR-DME"},
{"type":"NDB","hdg_t":348.3,"dist_nm":73.1,"freq":254,"lat":51.19638900,"lon":-114.02138900,"rng_nm":25,"alt_fmsl":0,"id":"ZYC","desc":"SARCEE NDB"},
{"type":"NDB","hdg_t":328.8,"dist_nm":73.3,"freq":388,"lat":51.04500000,"lon":-114.63000000,"rng_nm":25,"alt_fmsl":0,"id":"JW","desc":"PIGEON NDB"},
{"type":"NDB","hdg_t":59.4,"dist_nm":75.7,"freq":227,"lat":50.63222200,"lon":-111.92166700,"rng_nm":25,"alt_fmsl":2499,"id":"9X","desc":"BROOKS NDB-DME"},
{"type":"SDME","hdg_t":59.4,"dist_nm":75.7,"freq":109.8,"lat":50.63222200,"lon":-111.92166700,"rng_nm":25,"alt_fmsl":2499,"id":"9X","desc":"BROOKS NDB-DME"},
{"type":"NDB","hdg_t":268.8,"dist_nm":83.8,"freq":368,"lat":49.95491667,"lon":-115.79233333,"rng_nm":50,"alt_fmsl":0,"id":"SX","desc":"SKOOKUM NDB"},
{"type":"NDB","hdg_t":222.9,"dist_nm":84.4,"freq":392,"lat":48.96597222,"lon":-115.08433333,"rng_nm":50,"alt_fmsl":0,"id":"EUR","desc":"EUREKA NDB"},
{"type":"NDB","hdg_t":257.8,"dist_nm":85.8,"freq":242,"lat":49.68333333,"lon":-115.78333333,"rng_nm":50,"alt_fmsl":0,"id":"XC","desc":"CRANBROOK NDB"},
{"type":"SDME","hdg_t":255.4,"dist_nm":87,"freq":110.3,"lat":49.61833300,"lon":-115.78750000,"rng_nm":25,"alt_fmsl":3050,"id":"IXC","desc":"CRANBROOK DME"},
{"type":"NDB","hdg_t":283.4,"dist_nm":88.8,"freq":261,"lat":50.32694444,"lon":-115.87666667,"rng_nm":50,"alt_fmsl":0,"id":"D6","desc":"FAIRMONT HOT SPRN NDB"},
{"type":"SDME","hdg_t":20,"dist_nm":95.9,"freq":110,"lat":51.50166700,"lon":-112.75083300,"rng_nm":50,"alt_fmsl":2625,"id":"5V","desc":"DRUMHELLER NDB-DME"},
{"type":"NDB","hdg_t":20,"dist_nm":96,"freq":395,"lat":51.50250000,"lon":-112.75083300,"rng_nm":50,"alt_fmsl":2625,"id":"5V","desc":"DRUMHELLER NDB-DME"},
{"type":"VOR","hdg_t":255.1,"dist_nm":99.3,"freq":112.1,"lat":49.55427778,"lon":-116.08830556,"rng_nm":130,"alt_fmsl":7558,"id":"YXC","desc":"CRANBROOK VOR-DME"}
]
}
