{"success":true,"source":"xp2csv.pl","last_updated":"2013/11/08 14:53:21 UTC"
,"icao":"EKHK","name":"Holbaek","lat":55.73391041,"lon":11.604921,"rwys":1,"ils":0,"index":3138666,"path":"e010n50/e011n55"
,"runways":[
{"len_m":561,"wid_m":18.90,"hdg":101,"surf":"Turf/grass","rwy1":"10","lat1":55.73442188,"lon1":11.60054722,"rwy2":"28","lat2":55.73339893,"lon2":11.60929478}
]
,"navaids":[
{"type":"VOR","hdg_t":293.3,"dist_nm":6.1,"freq":117.4,"lat":55.77409400,"lon":11.43918900,"rng_nm":60,"alt_fmsl":-12,"id":"TNO","desc":"TRANO VOR-DME"},
{"type":"NDB","hdg_t":116.3,"dist_nm":14.8,"freq":368,"lat":55.62313100,"lon":11.99716900,"rng_nm":30,"alt_fmsl":0,"id":"RK","desc":"ROSKILDE NDB"},
{"type":"SDME","hdg_t":78,"dist_nm":16.9,"freq":114,"lat":55.79123600,"lon":12.09576100,"rng_nm":200,"alt_fmsl":87,"id":"VLL","desc":"VAERLOSE TACAN"},
{"type":"VOR","hdg_t":177,"dist_nm":17.7,"freq":112.8,"lat":55.43936400,"lon":11.63153100,"rng_nm":80,"alt_fmsl":136,"id":"KOR","desc":"KORSA VOR-DME"},
{"type":"VOR","hdg_t":43.6,"dist_nm":31,"freq":112.6,"lat":56.10558600,"lon":12.24150300,"rng_nm":60,"alt_fmsl":0,"id":"NOA","desc":"NORA VOR"},
{"type":"VOR","hdg_t":254.5,"dist_nm":33.6,"freq":115.5,"lat":55.58101100,"lon":10.65298900,"rng_nm":60,"alt_fmsl":24,"id":"ODN","desc":"ODIN VOR-DME"},
{"type":"VOR","hdg_t":103.6,"dist_nm":35.3,"freq":112.5,"lat":55.59051900,"lon":12.61360300,"rng_nm":60,"alt_fmsl":29,"id":"KAS","desc":"KASTRUP VOR-DME"},
{"type":"NDB","hdg_t":252.1,"dist_nm":40.9,"freq":423,"lat":55.52012500,"lon":10.46255800,"rng_nm":20,"alt_fmsl":56,"id":"FE","desc":"Odense LOM"},
{"type":"VOR","hdg_t":50.9,"dist_nm":41.8,"freq":116.2,"lat":56.16886100,"lon":12.57377800,"rng_nm":100,"alt_fmsl":39,"id":"SVD","desc":"SVEDA VOR-DME"},
{"type":"NDB","hdg_t":320.3,"dist_nm":43.4,"freq":374,"lat":56.28795300,"lon":10.77527500,"rng_nm":20,"alt_fmsl":0,"id":"TU","desc":"AARHUS NDB"},
{"type":"VOR","hdg_t":148.6,"dist_nm":51.3,"freq":114.9,"lat":55.00150000,"lon":12.37921100,"rng_nm":60,"alt_fmsl":90,"id":"CDA","desc":"CODAN VOR-DME"},
{"type":"NDB","hdg_t":312.8,"dist_nm":52.1,"freq":324,"lat":56.31862500,"lon":10.45933100,"rng_nm":20,"alt_fmsl":0,"id":"ML","desc":"AARHUS NDB"},
{"type":"NDB","hdg_t":46.2,"dist_nm":53.7,"freq":370,"lat":56.34655560,"lon":12.76641670,"rng_nm":50,"alt_fmsl":0,"id":"LB","desc":"Angelholm NDB"},
{"type":"SDME","hdg_t":50.4,"dist_nm":53.8,"freq":111.3,"lat":56.29698181,"lon":12.84676647,"rng_nm":40,"alt_fmsl":60,"id":"DB","desc":"Angelholm DME"},
{"type":"NDB","hdg_t":53.2,"dist_nm":54.1,"freq":417,"lat":56.26611110,"lon":12.90072220,"rng_nm":50,"alt_fmsl":0,"id":"AH","desc":"Angelholm NDB"},
{"type":"VOR","hdg_t":68,"dist_nm":57.8,"freq":113.4,"lat":56.08308300,"lon":13.20111100,"rng_nm":25,"alt_fmsl":154,"id":"LJU","desc":"LJUNGBYHED VOR-DME"},
{"type":"VOR","hdg_t":64.7,"dist_nm":59.8,"freq":116.9,"lat":56.14833300,"lon":13.21644400,"rng_nm":60,"alt_fmsl":0,"id":"VEY","desc":"VEDBY VOR"},
{"type":"VOR","hdg_t":100.5,"dist_nm":61.5,"freq":113,"lat":55.53452800,"lon":13.37950000,"rng_nm":80,"alt_fmsl":270,"id":"SUP","desc":"STURUP VOR-DME"},
{"type":"NDB","hdg_t":183.4,"dist_nm":62.5,"freq":366,"lat":54.69548300,"lon":11.49835300,"rng_nm":15,"alt_fmsl":0,"id":"MB","desc":"Maribo LOM"},
{"type":"NDB","hdg_t":35.6,"dist_nm":68.3,"freq":421,"lat":56.65252780,"lon":12.80827780,"rng_nm":50,"alt_fmsl":0,"id":"MF","desc":"Halmstad NDB"},
{"type":"VOR","hdg_t":105.4,"dist_nm":69.2,"freq":116.4,"lat":55.41130600,"lon":13.55752800,"rng_nm":60,"alt_fmsl":0,"id":"ALM","desc":"ALMA VOR"},
{"type":"VOR","hdg_t":228.6,"dist_nm":74.3,"freq":114.7,"lat":54.90541400,"lon":9.99337800,"rng_nm":60,"alt_fmsl":0,"id":"ALS","desc":"ALSIE VOR"},
{"type":"NDB","hdg_t":32.4,"dist_nm":76.1,"freq":336,"lat":56.79697220,"lon":12.84222220,"rng_nm":50,"alt_fmsl":0,"id":"LT","desc":"Halmstad NDB"},
{"type":"NDB","hdg_t":232.5,"dist_nm":77.3,"freq":330,"lat":54.93783600,"lon":9.82974400,"rng_nm":15,"alt_fmsl":0,"id":"SB","desc":"Sonderborg LOM"},
{"type":"NDB","hdg_t":237.3,"dist_nm":77.8,"freq":316,"lat":55.02051700,"lon":9.70643300,"rng_nm":15,"alt_fmsl":0,"id":"IN","desc":"Sonderborg LOM"},
{"type":"NDB","hdg_t":271.4,"dist_nm":78.8,"freq":341,"lat":55.74448100,"lon":9.27966900,"rng_nm":40,"alt_fmsl":0,"id":"LO","desc":"BILLUND NDB"},
{"type":"NDB","hdg_t":258.2,"dist_nm":79.2,"freq":357,"lat":55.44329700,"lon":9.33483900,"rng_nm":15,"alt_fmsl":0,"id":"KD","desc":"Vamdrup LOM"},
{"type":"NDB","hdg_t":246.8,"dist_nm":80.2,"freq":321,"lat":55.19025600,"lon":9.45828900,"rng_nm":20,"alt_fmsl":0,"id":"SP","desc":"Skrydstrup LOM"},
{"type":"NDB","hdg_t":83.3,"dist_nm":84.1,"freq":375,"lat":55.87122220,"lon":14.07819440,"rng_nm":50,"alt_fmsl":0,"id":"KD","desc":"Kristianstad NDB"},
{"type":"NDB","hdg_t":294,"dist_nm":86.6,"freq":369,"lat":56.29845000,"lon":9.23695800,"rng_nm":20,"alt_fmsl":0,"id":"KA","desc":"KARUP NDB"},
{"type":"VOR","hdg_t":250.5,"dist_nm":87,"freq":110.4,"lat":55.22893900,"lon":9.21405800,"rng_nm":80,"alt_fmsl":138,"id":"SKR","desc":"SKRYDSTRUP VORTAC"},
{"type":"NDB","hdg_t":271.1,"dist_nm":87.7,"freq":395,"lat":55.73616900,"lon":9.01858300,"rng_nm":15,"alt_fmsl":50,"id":"GE","desc":"Billund LOM"},
{"type":"VOR","hdg_t":193.8,"dist_nm":88.3,"freq":112.2,"lat":54.30546100,"lon":11.00518600,"rng_nm":60,"alt_fmsl":119,"id":"MIC","desc":"MICHAELSDORF VOR"},
{"type":"NDB","hdg_t":155.5,"dist_nm":91.8,"freq":373,"lat":54.33836900,"lon":12.68610300,"rng_nm":30,"alt_fmsl":45,"id":"BTH","desc":"BARTH NDB"},
{"type":"SDME","hdg_t":155,"dist_nm":92,"freq":115.4,"lat":54.34042200,"lon":12.70975300,"rng_nm":25,"alt_fmsl":45,"id":"BHD","desc":"BARTH DME"},
{"type":"VOR","hdg_t":141.7,"dist_nm":92.8,"freq":108.45,"lat":54.51096900,"lon":13.24932800,"rng_nm":60,"alt_fmsl":41,"id":"TRT","desc":"TRENT VOR-DME"},
{"type":"SDME","hdg_t":292.2,"dist_nm":93.7,"freq":110,"lat":56.29667500,"lon":9.00859700,"rng_nm":130,"alt_fmsl":173,"id":"KAR","desc":"KARUP TACAN"},
{"type":"NDB","hdg_t":291.9,"dist_nm":95,"freq":351,"lat":56.29653100,"lon":8.96848100,"rng_nm":25,"alt_fmsl":36,"id":"KP","desc":"Karup LOM"},
{"type":"SDME","hdg_t":212.3,"dist_nm":95.7,"freq":109.5,"lat":54.37879400,"lon":10.14537800,"rng_nm":25,"alt_fmsl":119,"id":"KHD","desc":"KIEL HOLTENAU DME"},
{"type":"NDB","hdg_t":212.7,"dist_nm":96.2,"freq":353,"lat":54.37757200,"lon":10.12002200,"rng_nm":30,"alt_fmsl":0,"id":"KIL","desc":"KIEL HOLTENAU NDB"},
{"type":"VOR","hdg_t":327.5,"dist_nm":98.2,"freq":116.7,"lat":57.10371900,"lon":9.99557800,"rng_nm":100,"alt_fmsl":57,"id":"AAL","desc":"AALBORG VOR-DME"},
{"type":"NDB","hdg_t":264.5,"dist_nm":99.4,"freq":401,"lat":55.54125300,"lon":8.69975300,"rng_nm":20,"alt_fmsl":0,"id":"EJ","desc":"Esbjerg LOM"}
]
}
