{"success":true,"source":"xp2csv.pl","last_updated":"2013/11/08 14:53:21 UTC"
,"icao":"ESIA","name":"Karlsborg","lat":58.5138415,"lon":14.507124,"rwys":1,"ils":0,"index":3188002,"path":"e010n50/e014n58"
,"runways":[
{"len_m":2277,"wid_m":39.93,"hdg":62,"surf":"Asphalt","rwy1":"06","lat1":58.50917200,"lon1":14.48974200,"rwy2":"24","lat2":58.51851100,"lon2":14.52450600}
]
,"radios":[
{"type":"TWR","freq":130,"desc":"MIL INFO"},
{"type":"APP","freq":130,"desc":"APP"}
]
,"navaids":[
{"type":"NDB","hdg_t":245.2,"dist_nm":4.3,"freq":312,"lat":58.48327800,"lon":14.38063900,"rng_nm":50,"alt_fmsl":308,"id":"KBG","desc":"KARLSBORG NDB"},
{"type":"NDB","hdg_t":269.1,"dist_nm":15.9,"freq":384,"lat":58.50888890,"lon":13.99999950,"rng_nm":50,"alt_fmsl":0,"id":"NS","desc":"Skovde NDB"},
{"type":"NDB","hdg_t":239.6,"dist_nm":22,"freq":390,"lat":58.32666670,"lon":13.90466670,"rng_nm":50,"alt_fmsl":0,"id":"SS","desc":"Skovde NDB"},
{"type":"NDB","hdg_t":237.2,"dist_nm":32.3,"freq":397,"lat":58.21989060,"lon":13.64924620,"rng_nm":50,"alt_fmsl":0,"id":"NF","desc":"Falkoping NDB"},
{"type":"NDB","hdg_t":97.9,"dist_nm":33.2,"freq":300,"lat":58.43261110,"lon":15.55238890,"rng_nm":50,"alt_fmsl":0,"id":"SC","desc":"Linkoping NDB"},
{"type":"NDB","hdg_t":235.4,"dist_nm":34.9,"freq":380,"lat":58.18025590,"lon":13.60047050,"rng_nm":50,"alt_fmsl":0,"id":"F","desc":"Falkoping NDB"},
{"type":"NDB","hdg_t":233.8,"dist_nm":37.5,"freq":366,"lat":58.14164350,"lon":13.55410960,"rng_nm":50,"alt_fmsl":0,"id":"SF","desc":"Falkoping NDB"},
{"type":"NDB","hdg_t":99.9,"dist_nm":39.1,"freq":421,"lat":58.39580560,"lon":15.72783330,"rng_nm":50,"alt_fmsl":0,"id":"T","desc":"Linkoping NDB"},
{"type":"VOR","hdg_t":107.9,"dist_nm":40,"freq":115.25,"lat":58.30313900,"lon":15.70977800,"rng_nm":100,"alt_fmsl":423,"id":"VSN","desc":"VASSEN VOR-DME"},
{"type":"NDB","hdg_t":100.6,"dist_nm":41.6,"freq":415,"lat":58.37933330,"lon":15.80383330,"rng_nm":50,"alt_fmsl":0,"id":"OL","desc":"Linkoping NDB"},
{"type":"NDB","hdg_t":197,"dist_nm":43.1,"freq":338,"lat":57.82706450,"lon":14.11228280,"rng_nm":50,"alt_fmsl":0,"id":"OA","desc":"Jonkoping NDB"},
{"type":"NDB","hdg_t":265.6,"dist_nm":43.8,"freq":359,"lat":58.45055390,"lon":13.11946680,"rng_nm":50,"alt_fmsl":0,"id":"LK","desc":"Lidkoping NDB"},
{"type":"VOR","hdg_t":197.4,"dist_nm":47.4,"freq":115.8,"lat":57.76044400,"lon":14.06544400,"rng_nm":60,"alt_fmsl":772,"id":"JON","desc":"JONKOPING VOR-DME"},
{"type":"NDB","hdg_t":358.7,"dist_nm":48.3,"freq":407,"lat":59.31716670,"lon":14.47402780,"rng_nm":50,"alt_fmsl":0,"id":"KA","desc":"Karlskoga NDB"},
{"type":"NDB","hdg_t":197.3,"dist_nm":51.4,"freq":403,"lat":57.69638820,"lon":14.03113370,"rng_nm":50,"alt_fmsl":0,"id":"OJ","desc":"Jonkoping NDB"},
{"type":"NDB","hdg_t":84.4,"dist_nm":51.4,"freq":377,"lat":58.58650000,"lon":16.13638890,"rng_nm":50,"alt_fmsl":0,"id":"KN","desc":"Norrkoping NDB"},
{"type":"NDB","hdg_t":1.2,"dist_nm":53.6,"freq":326,"lat":59.40516670,"lon":14.54433330,"rng_nm":50,"alt_fmsl":0,"id":"KK","desc":"Karlskoga NDB"},
{"type":"NDB","hdg_t":267.1,"dist_nm":56.5,"freq":309,"lat":58.45388890,"lon":12.71530560,"rng_nm":50,"alt_fmsl":0,"id":"LG","desc":"Satenas NDB"},
{"type":"NDB","hdg_t":262.7,"dist_nm":57.3,"freq":409,"lat":58.38058330,"lon":12.70538890,"rng_nm":50,"alt_fmsl":0,"id":"SG","desc":"Satenas NDB"},
{"type":"NDB","hdg_t":85,"dist_nm":59,"freq":324,"lat":58.58447220,"lon":16.38202780,"rng_nm":50,"alt_fmsl":0,"id":"ON","desc":"Norrkoping NDB"},
{"type":"NDB","hdg_t":324,"dist_nm":64.5,"freq":330,"lat":59.37705990,"lon":13.27371880,"rng_nm":50,"alt_fmsl":0,"id":"SKS","desc":"Karlstad NDB"},
{"type":"VOR","hdg_t":327.3,"dist_nm":66.7,"freq":117.8,"lat":59.44244400,"lon":13.33155600,"rng_nm":120,"alt_fmsl":348,"id":"KSD","desc":"KARLSTAD VOR-DME"},
{"type":"NDB","hdg_t":258,"dist_nm":67.7,"freq":325,"lat":58.26321790,"lon":12.41447350,"rng_nm":50,"alt_fmsl":0,"id":"PG","desc":"Trollhattan Vanersborg NDB"},
{"type":"NDB","hdg_t":331.6,"dist_nm":69.9,"freq":341,"lat":59.53206630,"lon":13.42000200,"rng_nm":50,"alt_fmsl":0,"id":"NKS","desc":"Karlstad NDB"},
{"type":"NDB","hdg_t":263.4,"dist_nm":70.5,"freq":399,"lat":58.36086270,"lon":12.28999810,"rng_nm":50,"alt_fmsl":0,"id":"FM","desc":"Trollhattan-Vanersborg-E NDB"},
{"type":"VOR","hdg_t":235,"dist_nm":70.9,"freq":117.5,"lat":57.82500000,"lon":12.69355600,"rng_nm":60,"alt_fmsl":0,"id":"HAR","desc":"HARRY VOR"},
{"type":"NDB","hdg_t":144.5,"dist_nm":72,"freq":335,"lat":57.53186110,"lon":15.80058330,"rng_nm":50,"alt_fmsl":0,"id":"AC","desc":"Hultsfred NDB"},
{"type":"NDB","hdg_t":76.1,"dist_nm":73,"freq":364,"lat":58.78436110,"lon":16.77955560,"rng_nm":50,"alt_fmsl":0,"id":"NW","desc":"Skavsta Stockholm NDB"},
{"type":"NDB","hdg_t":142.6,"dist_nm":76.4,"freq":376,"lat":57.49513890,"lon":15.94155560,"rng_nm":50,"alt_fmsl":0,"id":"LN","desc":"Hultsfred NDB"},
{"type":"NDB","hdg_t":76.8,"dist_nm":81.3,"freq":398,"lat":58.79608330,"lon":17.04427780,"rng_nm":50,"alt_fmsl":0,"id":"PEO","desc":"Skavsta Stockholm NDB"},
{"type":"NDB","hdg_t":55.3,"dist_nm":82.5,"freq":402,"lat":59.27547070,"lon":16.71314050,"rng_nm":50,"alt_fmsl":0,"id":"LX","desc":"Eskilstuna NDB"},
{"type":"NDB","hdg_t":236.5,"dist_nm":83.3,"freq":369,"lat":57.73057560,"lon":12.34422300,"rng_nm":50,"alt_fmsl":0,"id":"NL","desc":"Landvetter Goteborg NDB"},
{"type":"NDB","hdg_t":51.3,"dist_nm":86.4,"freq":362,"lat":59.39353180,"lon":16.70550350,"rng_nm":50,"alt_fmsl":0,"id":"NN","desc":"Eskilstuna NDB"},
{"type":"VOR","hdg_t":234.8,"dist_nm":87.4,"freq":114.6,"lat":57.65611100,"lon":12.28986100,"rng_nm":100,"alt_fmsl":574,"id":"LAV","desc":"LANDVETTER VOR-DME"},
{"type":"VOR","hdg_t":60.8,"dist_nm":88.4,"freq":116.8,"lat":59.20716700,"lon":17.01208300,"rng_nm":80,"alt_fmsl":0,"id":"DKR","desc":"DUNKER VOR"},
{"type":"NDB","hdg_t":319.8,"dist_nm":88.5,"freq":390,"lat":59.62503430,"lon":12.63253120,"rng_nm":50,"alt_fmsl":0,"id":"LV","desc":"Arvika NDB"},
{"type":"NDB","hdg_t":46.2,"dist_nm":88.7,"freq":276,"lat":59.51752780,"lon":16.60452780,"rng_nm":50,"alt_fmsl":0,"id":"RD","desc":"Vasteras NDB"},
{"type":"NDB","hdg_t":320.8,"dist_nm":90.1,"freq":416,"lat":59.66308590,"lon":12.63767430,"rng_nm":50,"alt_fmsl":0,"id":"R","desc":"Arvika NDB"},
{"type":"NDB","hdg_t":342.2,"dist_nm":90.9,"freq":393,"lat":59.95041670,"lon":13.58583330,"rng_nm":50,"alt_fmsl":0,"id":"AB","desc":"Hagfors NDB"},
{"type":"NDB","hdg_t":233.8,"dist_nm":91.4,"freq":342,"lat":57.59488680,"lon":12.22032640,"rng_nm":50,"alt_fmsl":0,"id":"SL","desc":"Landvette Goteborg NDB"},
{"type":"NDB","hdg_t":191.3,"dist_nm":91.7,"freq":359,"lat":57.01583330,"lon":13.95780560,"rng_nm":50,"alt_fmsl":0,"id":"OF","desc":"Ljungby NDB"},
{"type":"NDB","hdg_t":135.1,"dist_nm":91.9,"freq":370,"lat":57.41419440,"lon":16.50838890,"rng_nm":50,"alt_fmsl":0,"id":"DC","desc":"Oskarshamn NDB"},
{"type":"VOR","hdg_t":44.9,"dist_nm":92.5,"freq":112.8,"lat":59.58619400,"lon":16.65038900,"rng_nm":80,"alt_fmsl":50,"id":"ARS","desc":"AROS VOR-DME"},
{"type":"NDB","hdg_t":244.3,"dist_nm":93.5,"freq":360,"lat":57.81168750,"lon":11.87900260,"rng_nm":50,"alt_fmsl":0,"id":"OS","desc":"Save Goteborg NDB"},
{"type":"NDB","hdg_t":191.5,"dist_nm":94.9,"freq":325,"lat":56.96461110,"lon":13.92955560,"rng_nm":50,"alt_fmsl":0,"id":"F","desc":"Ljungby NDB"},
{"type":"NDB","hdg_t":242.1,"dist_nm":96,"freq":405,"lat":57.73931120,"lon":11.86528020,"rng_nm":50,"alt_fmsl":0,"id":"AV","desc":"Save Goteborg NDB"},
{"type":"NDB","hdg_t":43.1,"dist_nm":96.1,"freq":333,"lat":59.66388900,"lon":16.66722200,"rng_nm":50,"alt_fmsl":0,"id":"LE","desc":"Vasteras NDB"},
{"type":"VOR","hdg_t":243.5,"dist_nm":96.2,"freq":113.2,"lat":57.77327800,"lon":11.82286100,"rng_nm":80,"alt_fmsl":0,"id":"NOL","desc":"NOLVIK VOR"},
{"type":"NDB","hdg_t":138,"dist_nm":96.5,"freq":325,"lat":57.30363890,"lon":16.48983330,"rng_nm":50,"alt_fmsl":0,"id":"DH","desc":"Oskarshamn NDB"},
{"type":"VOR","hdg_t":73.4,"dist_nm":97,"freq":114.3,"lat":58.93791700,"lon":17.50222200,"rng_nm":80,"alt_fmsl":213,"id":"TRS","desc":"TROSA VOR-DME"},
{"type":"NDB","hdg_t":10.6,"dist_nm":97.4,"freq":415,"lat":60.10555560,"lon":15.10555560,"rng_nm":50,"alt_fmsl":0,"id":"N","desc":"Ludvika NDB"},
{"type":"VOR","hdg_t":235.5,"dist_nm":99.1,"freq":112.7,"lat":57.55516700,"lon":11.97686100,"rng_nm":80,"alt_fmsl":301,"id":"BAK","desc":"BACKA VOR-DME"}
]
}
