{"success":true,"source":"xp2csv.pl","last_updated":"2013/11/08 14:53:21 UTC"
,"icao":"ESKN","name":"Stockholm Skavsta","lat":58.79043925,"lon":16.90732775,"rwys":2,"ils":2,"index":3220787,"path":"e010n50/e016n58"
,"runways":[
{"len_m":2877,"wid_m":45.11,"hdg":83,"surf":"Asphalt","rwy1":"08","lat1":58.78666200,"lon1":16.88036700,"rwy2":"26","lat2":58.78977200,"lon2":16.92977200},
{"len_m":2039,"wid_m":39.93,"hdg":161,"surf":"Asphalt","rwy1":"16","lat1":58.80135600,"lon1":16.90407800,"rwy2":"34","lat2":58.78396700,"lon2":16.91509400}
]
,"radios":[
{"type":"ATIS","freq":126.75,"desc":"ATIS"},
{"type":"TWR","freq":127.7,"desc":"TWR"}
]
,"ils":[
{"type":"ILS","freq":111.9,"lat":58.78647200,"lon":16.87755600,"rng_nm":18,"alt_fmsl":140,"hdg":263.02,"id":"EKN","rwy":"26","desc":"ILS-cat-I"},
{"type":"LOC","freq":111.3,"lat":58.78997200,"lon":16.93277800,"rng_nm":18,"alt_fmsl":140,"id":"WEK","rwy":"08","desc":"LOC"},
{"type":"GS","freq":111.9,"lat":58.79052800,"lon":16.92455600,"rng_nm":10,"alt_fmsl":140,"id":"EKN","rwy":"26","desc":"GS","gs":3},
{"type":"OM","freq":0,"lat":58.79608150,"lon":16.04427720,"rng_nm":0,"alt_fmsl":140,"id":"----","rwy":"26","desc":"OM"},
{"type":"MM","freq":0,"lat":58.79080600,"lon":16.94608300,"rng_nm":0,"alt_fmsl":140,"id":"----","rwy":"26","desc":"MM"}
]
,"navaids":[
{"type":"NDB","hdg_t":264.8,"dist_nm":4,"freq":364,"lat":58.78436110,"lon":16.77955560,"rng_nm":50,"alt_fmsl":0,"id":"NW","desc":"Skavsta Stockholm NDB"},
{"type":"NDB","hdg_t":85.4,"dist_nm":4.2,"freq":398,"lat":58.79608330,"lon":17.04427780,"rng_nm":50,"alt_fmsl":0,"id":"PEO","desc":"Skavsta Stockholm NDB"},
{"type":"NDB","hdg_t":233.2,"dist_nm":20.5,"freq":324,"lat":58.58447220,"lon":16.38202780,"rng_nm":50,"alt_fmsl":0,"id":"ON","desc":"Norrkoping NDB"},
{"type":"VOR","hdg_t":64.1,"dist_nm":20.5,"freq":114.3,"lat":58.93791700,"lon":17.50222200,"rng_nm":80,"alt_fmsl":213,"id":"TRS","desc":"TROSA VOR-DME"},
{"type":"VOR","hdg_t":7.3,"dist_nm":25.2,"freq":116.8,"lat":59.20716700,"lon":17.01208300,"rng_nm":80,"alt_fmsl":0,"id":"DKR","desc":"DUNKER VOR"},
{"type":"NDB","hdg_t":243.3,"dist_nm":27,"freq":377,"lat":58.58650000,"lon":16.13638890,"rng_nm":50,"alt_fmsl":0,"id":"KN","desc":"Norrkoping NDB"},
{"type":"NDB","hdg_t":348.4,"dist_nm":29.7,"freq":402,"lat":59.27547070,"lon":16.71314050,"rng_nm":50,"alt_fmsl":0,"id":"LX","desc":"Eskilstuna NDB"},
{"type":"NDB","hdg_t":32,"dist_nm":33.5,"freq":388,"lat":59.26138900,"lon":17.48408300,"rng_nm":25,"alt_fmsl":0,"id":"COR","desc":"CORNER NDB"},
{"type":"NDB","hdg_t":350.3,"dist_nm":36.8,"freq":362,"lat":59.39353180,"lon":16.70550350,"rng_nm":50,"alt_fmsl":0,"id":"NN","desc":"Eskilstuna NDB"},
{"type":"NDB","hdg_t":234.9,"dist_nm":42.5,"freq":415,"lat":58.37933330,"lon":15.80383330,"rng_nm":50,"alt_fmsl":0,"id":"OL","desc":"Linkoping NDB"},
{"type":"NDB","hdg_t":237.8,"dist_nm":43.9,"freq":421,"lat":58.39580560,"lon":15.72783330,"rng_nm":50,"alt_fmsl":0,"id":"T","desc":"Linkoping NDB"},
{"type":"NDB","hdg_t":348,"dist_nm":44.7,"freq":276,"lat":59.51752780,"lon":16.60452780,"rng_nm":50,"alt_fmsl":0,"id":"RD","desc":"Vasteras NDB"},
{"type":"NDB","hdg_t":36.9,"dist_nm":46.2,"freq":394,"lat":59.40086100,"lon":17.81388900,"rng_nm":25,"alt_fmsl":0,"id":"NB","desc":"BROMMA NDB"},
{"type":"NDB","hdg_t":16.9,"dist_nm":47.1,"freq":330,"lat":59.53897200,"lon":17.35833300,"rng_nm":25,"alt_fmsl":0,"id":"LNA","desc":"LENA NDB"},
{"type":"NDB","hdg_t":47.6,"dist_nm":47.4,"freq":322,"lat":59.31663900,"lon":18.04669400,"rng_nm":25,"alt_fmsl":0,"id":"OU","desc":"BROMMA NDB"},
{"type":"NDB","hdg_t":243.7,"dist_nm":47.6,"freq":300,"lat":58.43261110,"lon":15.55238890,"rng_nm":50,"alt_fmsl":0,"id":"SC","desc":"Linkoping NDB"},
{"type":"VOR","hdg_t":232.6,"dist_nm":47.7,"freq":115.25,"lat":58.30313900,"lon":15.70977800,"rng_nm":100,"alt_fmsl":423,"id":"VSN","desc":"VASSEN VOR-DME"},
{"type":"VOR","hdg_t":350.7,"dist_nm":48.5,"freq":112.8,"lat":59.58619400,"lon":16.65038900,"rng_nm":80,"alt_fmsl":50,"id":"ARS","desc":"AROS VOR-DME"},
{"type":"NDB","hdg_t":51.8,"dist_nm":49.7,"freq":335,"lat":59.29472200,"lon":18.17858300,"rng_nm":25,"alt_fmsl":0,"id":"NAK","desc":"NACKA NDB"},
{"type":"NDB","hdg_t":352,"dist_nm":53,"freq":333,"lat":59.66388900,"lon":16.66722200,"rng_nm":50,"alt_fmsl":0,"id":"LE","desc":"Vasteras NDB"},
{"type":"NDB","hdg_t":34.3,"dist_nm":54.8,"freq":352,"lat":59.53894400,"lon":17.92094400,"rng_nm":25,"alt_fmsl":0,"id":"CG","desc":"ARLANDA NDB"},
{"type":"SDME","hdg_t":30,"dist_nm":55.6,"freq":113.75,"lat":59.58769400,"lon":17.81969400,"rng_nm":25,"alt_fmsl":233,"id":"ASW","desc":"ARLANDA DME"},
{"type":"NDB","hdg_t":32.3,"dist_nm":56,"freq":370,"lat":59.57394400,"lon":17.89030600,"rng_nm":25,"alt_fmsl":0,"id":"OHT","desc":"ARLANDA NDB"},
{"type":"VOR","hdg_t":41.3,"dist_nm":59.9,"freq":117.1,"lat":59.53169400,"lon":18.20333300,"rng_nm":100,"alt_fmsl":197,"id":"TEB","desc":"TEBBY VOR-DME"},
{"type":"VOR","hdg_t":30.4,"dist_nm":60.4,"freq":116,"lat":59.65344400,"lon":17.91441700,"rng_nm":100,"alt_fmsl":141,"id":"ARL","desc":"ARLANDA VOR-DME"},
{"type":"NDB","hdg_t":30.4,"dist_nm":60.6,"freq":348,"lat":59.65576550,"lon":17.91542430,"rng_nm":50,"alt_fmsl":0,"id":"WA","desc":"Arlanda NDB"},
{"type":"SDME","hdg_t":27.2,"dist_nm":62.6,"freq":112.05,"lat":59.71327800,"lon":17.85255600,"rng_nm":25,"alt_fmsl":164,"id":"ANW","desc":"ARLANDA DME"},
{"type":"NDB","hdg_t":30.4,"dist_nm":64.3,"freq":360,"lat":59.70855600,"lon":17.98072200,"rng_nm":25,"alt_fmsl":0,"id":"DL","desc":"ARLANDA NDB"},
{"type":"NDB","hdg_t":34,"dist_nm":64.9,"freq":339,"lat":59.67988970,"lon":18.10341640,"rng_nm":50,"alt_fmsl":0,"id":"EA","desc":"Arlanda NDB"},
{"type":"NDB","hdg_t":29,"dist_nm":64.9,"freq":404,"lat":59.72952800,"lon":17.94672200,"rng_nm":15,"alt_fmsl":0,"id":"LA","desc":"ARLANDA NDB"},
{"type":"SDME","hdg_t":32.6,"dist_nm":64.9,"freq":113.3,"lat":59.69397200,"lon":18.05988900,"rng_nm":25,"alt_fmsl":108,"id":"ANE","desc":"ARLANDA DME"},
{"type":"NDB","hdg_t":18.4,"dist_nm":75.6,"freq":366,"lat":59.98055600,"lon":17.70000000,"rng_nm":20,"alt_fmsl":0,"id":"UP","desc":"UPPSALA NDB"},
{"type":"NDB","hdg_t":142.7,"dist_nm":79.2,"freq":351,"lat":57.73291670,"lon":18.39672220,"rng_nm":50,"alt_fmsl":0,"id":"OV","desc":"Visby NDB"},
{"type":"NDB","hdg_t":32.8,"dist_nm":79.7,"freq":383,"lat":59.89622200,"lon":18.33688900,"rng_nm":25,"alt_fmsl":0,"id":"ERK","desc":"ERKEN NDB"},
{"type":"VOR","hdg_t":43.9,"dist_nm":81.2,"freq":116.3,"lat":59.74980600,"lon":18.76683300,"rng_nm":100,"alt_fmsl":68,"id":"NTL","desc":"NORTEL VOR-DME"},
{"type":"NDB","hdg_t":257.9,"dist_nm":81.3,"freq":312,"lat":58.48327800,"lon":14.38063900,"rng_nm":50,"alt_fmsl":308,"id":"KBG","desc":"KARLSBORG NDB"},
{"type":"NDB","hdg_t":293.8,"dist_nm":81.7,"freq":407,"lat":59.31716670,"lon":14.47402780,"rng_nm":50,"alt_fmsl":0,"id":"KA","desc":"Karlskoga NDB"},
{"type":"NDB","hdg_t":297.8,"dist_nm":81.9,"freq":326,"lat":59.40516670,"lon":14.54433330,"rng_nm":50,"alt_fmsl":0,"id":"KK","desc":"Karlskoga NDB"},
{"type":"VOR","hdg_t":145.5,"dist_nm":81.9,"freq":115.1,"lat":57.65952800,"lon":18.34686100,"rng_nm":80,"alt_fmsl":154,"id":"VSB","desc":"VISBY VOR-DME"},
{"type":"NDB","hdg_t":205.3,"dist_nm":83.4,"freq":335,"lat":57.53186110,"lon":15.80058330,"rng_nm":50,"alt_fmsl":0,"id":"AC","desc":"Hultsfred NDB"},
{"type":"NDB","hdg_t":201.9,"dist_nm":83.7,"freq":376,"lat":57.49513890,"lon":15.94155560,"rng_nm":50,"alt_fmsl":0,"id":"LN","desc":"Hultsfred NDB"},
{"type":"NDB","hdg_t":188.8,"dist_nm":83.7,"freq":370,"lat":57.41419440,"lon":16.50838890,"rng_nm":50,"alt_fmsl":0,"id":"DC","desc":"Oskarshamn NDB"},
{"type":"NDB","hdg_t":188.6,"dist_nm":90.4,"freq":325,"lat":57.30363890,"lon":16.48983330,"rng_nm":50,"alt_fmsl":0,"id":"DH","desc":"Oskarshamn NDB"},
{"type":"NDB","hdg_t":260.7,"dist_nm":92.6,"freq":384,"lat":58.50888890,"lon":13.99999950,"rng_nm":50,"alt_fmsl":0,"id":"NS","desc":"Skovde NDB"},
{"type":"NDB","hdg_t":325.8,"dist_nm":96.4,"freq":415,"lat":60.10555560,"lon":15.10555560,"rng_nm":50,"alt_fmsl":0,"id":"N","desc":"Ludvika NDB"},
{"type":"NDB","hdg_t":327,"dist_nm":98.3,"freq":295,"lat":60.15138890,"lon":15.12361110,"rng_nm":50,"alt_fmsl":0,"id":"LH","desc":"Ludvika NDB"},
{"type":"NDB","hdg_t":254.8,"dist_nm":98.4,"freq":390,"lat":58.32666670,"lon":13.90466670,"rng_nm":50,"alt_fmsl":0,"id":"SS","desc":"Skovde NDB"}
]
}
