{"success":true,"source":"xp2csv.pl","last_updated":"2013/11/08 14:53:21 UTC"
,"icao":"ESMW","name":"Tingsryd","lat":56.533062,"lon":14.9636087,"rwys":1,"ils":0,"index":3187875,"path":"e010n50/e014n56"
,"runways":[
{"len_m":610,"wid_m":49.99,"hdg":13,"surf":"Turf/grass","rwy1":"01","lat1":56.53038932,"lon1":14.96248978,"rwy2":"19","lat2":56.53573468,"lon2":14.96472762}
]
,"navaids":[
{"type":"NDB","hdg_t":137.1,"dist_nm":15.8,"freq":318,"lat":56.33977800,"lon":15.28602800,"rng_nm":25,"alt_fmsl":0,"id":"LP","desc":"RONNEBY NDB"},
{"type":"SDME","hdg_t":149.6,"dist_nm":19.5,"freq":109.2,"lat":56.25256700,"lon":15.25815000,"rng_nm":130,"alt_fmsl":197,"id":"RON","desc":"Ronneby DME"},
{"type":"NDB","hdg_t":154.9,"dist_nm":22.4,"freq":380,"lat":56.19511100,"lon":15.24716700,"rng_nm":25,"alt_fmsl":0,"id":"LF","desc":"RONNEBY NDB"},
{"type":"NDB","hdg_t":307.6,"dist_nm":42.8,"freq":325,"lat":56.96461110,"lon":13.92955560,"rng_nm":50,"alt_fmsl":0,"id":"F","desc":"Ljungby NDB"},
{"type":"NDB","hdg_t":72.3,"dist_nm":43.8,"freq":366,"lat":56.74742510,"lon":16.22780610,"rng_nm":50,"alt_fmsl":0,"id":"KM","desc":"Kalmar NDB"},
{"type":"NDB","hdg_t":311.5,"dist_nm":44.1,"freq":359,"lat":57.01583330,"lon":13.95780560,"rng_nm":50,"alt_fmsl":0,"id":"OF","desc":"Ljungby NDB"},
{"type":"VOR","hdg_t":77.6,"dist_nm":44.7,"freq":111.6,"lat":56.68538900,"lon":16.28419400,"rng_nm":160,"alt_fmsl":26,"id":"KAL","desc":"KALMAR VOR-DME"},
{"type":"NDB","hdg_t":217,"dist_nm":49.6,"freq":375,"lat":55.87122220,"lon":14.07819440,"rng_nm":50,"alt_fmsl":0,"id":"KD","desc":"Kristianstad NDB"},
{"type":"VOR","hdg_t":249.1,"dist_nm":62.7,"freq":116.9,"lat":56.14833300,"lon":13.21644400,"rng_nm":60,"alt_fmsl":0,"id":"VEY","desc":"VEDBY VOR"},
{"type":"VOR","hdg_t":246,"dist_nm":64.8,"freq":113.4,"lat":56.08308300,"lon":13.20111100,"rng_nm":25,"alt_fmsl":154,"id":"LJU","desc":"LJUNGBYHED VOR-DME"},
{"type":"NDB","hdg_t":24.2,"dist_nm":66,"freq":335,"lat":57.53186110,"lon":15.80058330,"rng_nm":50,"alt_fmsl":0,"id":"AC","desc":"Hultsfred NDB"},
{"type":"NDB","hdg_t":28.5,"dist_nm":66.1,"freq":376,"lat":57.49513890,"lon":15.94155560,"rng_nm":50,"alt_fmsl":0,"id":"LN","desc":"Hultsfred NDB"},
{"type":"NDB","hdg_t":46.6,"dist_nm":68.3,"freq":325,"lat":57.30363890,"lon":16.48983330,"rng_nm":50,"alt_fmsl":0,"id":"DH","desc":"Oskarshamn NDB"},
{"type":"NDB","hdg_t":257.7,"dist_nm":70.6,"freq":417,"lat":56.26611110,"lon":12.90072220,"rng_nm":50,"alt_fmsl":0,"id":"AH","desc":"Angelholm NDB"},
{"type":"NDB","hdg_t":276.6,"dist_nm":71.8,"freq":421,"lat":56.65252780,"lon":12.80827780,"rng_nm":50,"alt_fmsl":0,"id":"MF","desc":"Halmstad NDB"},
{"type":"SDME","hdg_t":259.5,"dist_nm":71.9,"freq":111.3,"lat":56.29698181,"lon":12.84676647,"rng_nm":40,"alt_fmsl":60,"id":"DB","desc":"Angelholm DME"},
{"type":"NDB","hdg_t":283.6,"dist_nm":72,"freq":336,"lat":56.79697220,"lon":12.84222220,"rng_nm":50,"alt_fmsl":0,"id":"LT","desc":"Halmstad NDB"},
{"type":"NDB","hdg_t":43.1,"dist_nm":73.3,"freq":370,"lat":57.41419440,"lon":16.50838890,"rng_nm":50,"alt_fmsl":0,"id":"DC","desc":"Oskarshamn NDB"},
{"type":"NDB","hdg_t":262.2,"dist_nm":74,"freq":370,"lat":56.34655560,"lon":12.76641670,"rng_nm":50,"alt_fmsl":0,"id":"LB","desc":"Angelholm NDB"},
{"type":"NDB","hdg_t":336.8,"dist_nm":76.3,"freq":403,"lat":57.69638820,"lon":14.03113370,"rng_nm":50,"alt_fmsl":0,"id":"OJ","desc":"Jonkoping NDB"},
{"type":"VOR","hdg_t":338.6,"dist_nm":79.4,"freq":115.8,"lat":57.76044400,"lon":14.06544400,"rng_nm":60,"alt_fmsl":772,"id":"JON","desc":"JONKOPING VOR-DME"},
{"type":"VOR","hdg_t":222.2,"dist_nm":80.2,"freq":113,"lat":55.53452800,"lon":13.37950000,"rng_nm":80,"alt_fmsl":270,"id":"SUP","desc":"STURUP VOR-DME"},
{"type":"VOR","hdg_t":215.6,"dist_nm":82.4,"freq":116.4,"lat":55.41130600,"lon":13.55752800,"rng_nm":60,"alt_fmsl":0,"id":"ALM","desc":"ALMA VOR"},
{"type":"NDB","hdg_t":340.6,"dist_nm":82.6,"freq":338,"lat":57.82706450,"lon":14.11228280,"rng_nm":50,"alt_fmsl":0,"id":"OA","desc":"Jonkoping NDB"},
{"type":"VOR","hdg_t":255.6,"dist_nm":82.7,"freq":116.2,"lat":56.16886100,"lon":12.57377800,"rng_nm":100,"alt_fmsl":39,"id":"SVD","desc":"SVEDA VOR-DME"},
{"type":"VOR","hdg_t":184.5,"dist_nm":88.4,"freq":112,"lat":55.06557800,"lon":14.75869200,"rng_nm":80,"alt_fmsl":79,"id":"ROE","desc":"RONNE VOR-DME"},
{"type":"NDB","hdg_t":181.3,"dist_nm":90.4,"freq":334,"lat":55.02819200,"lon":14.90049700,"rng_nm":20,"alt_fmsl":55,"id":"FAU","desc":"Ronne LOM"},
{"type":"VOR","hdg_t":255.3,"dist_nm":94.5,"freq":112.6,"lat":56.10558600,"lon":12.24150300,"rng_nm":60,"alt_fmsl":0,"id":"NOA","desc":"NORA VOR"},
{"type":"VOR","hdg_t":235.3,"dist_nm":97.2,"freq":112.5,"lat":55.59051900,"lon":12.61360300,"rng_nm":60,"alt_fmsl":29,"id":"KAS","desc":"KASTRUP VOR-DME"}
]
}
