{"success":true,"source":"xp2csv.pl","last_updated":"2013/11/08 14:53:21 UTC"
,"icao":"ESNL","name":"Lycksele","lat":64.5495695,"lon":18.7140265,"rwys":1,"ils":2,"index":3253921,"path":"e010n60/e018n64"
,"runways":[
{"len_m":2000,"wid_m":29.87,"hdg":142,"surf":"Asphalt","rwy1":"14","lat1":64.55673100,"lon1":18.70146100,"rwy2":"32","lat2":64.54240800,"lon2":18.72659200}
]
,"radios":[
{"type":"TWR","freq":122.22,"desc":"AFIS"}
]
,"ils":[
{"type":"ILS","freq":108.7,"lat":64.54133300,"lon":18.72850000,"rng_nm":18,"alt_fmsl":705,"hdg":142.97,"id":"WL","rwy":"14","desc":"ILS-cat-I"},
{"type":"LOC","freq":110.5,"lat":64.55794400,"lon":18.69933300,"rng_nm":18,"alt_fmsl":705,"id":"NL","rwy":"32","desc":"LOC"},
{"type":"GS","freq":108.7,"lat":64.55416700,"lon":18.70911100,"rng_nm":10,"alt_fmsl":705,"id":"WL","rwy":"14","desc":"GS","gs":3.5},
{"type":"OM","freq":0,"lat":64.59991460,"lon":18.62558360,"rng_nm":0,"alt_fmsl":705,"id":"----","rwy":"14","desc":"OM"},
{"type":"MM","freq":0,"lat":64.56316700,"lon":18.69013900,"rng_nm":0,"alt_fmsl":705,"id":"----","rwy":"14","desc":"MM"},
{"type":"DME","freq":110.5,"lat":64.54688900,"lon":18.71613900,"rng_nm":18,"alt_fmsl":705,"id":"NL","rwy":"32","desc":"DME-ILS"}
]
,"navaids":[
{"type":"NDB","hdg_t":142.9,"dist_nm":0.9,"freq":370,"lat":64.53652780,"lon":18.73688890,"rng_nm":50,"alt_fmsl":0,"id":"L","desc":"Lycksele NDB"},
{"type":"NDB","hdg_t":322.9,"dist_nm":3.7,"freq":333,"lat":64.59991670,"lon":18.62558330,"rng_nm":50,"alt_fmsl":0,"id":"DD","desc":"Lycksele NDB"},
{"type":"NDB","hdg_t":143.3,"dist_nm":3.8,"freq":320,"lat":64.49816670,"lon":18.80272220,"rng_nm":50,"alt_fmsl":0,"id":"OL","desc":"Lycksele NDB"},
{"type":"NDB","hdg_t":311.4,"dist_nm":32,"freq":348,"lat":64.89908330,"lon":17.77461110,"rng_nm":50,"alt_fmsl":0,"id":"GUN","desc":"Storuman NDB"},
{"type":"VOR","hdg_t":313.8,"dist_nm":35.5,"freq":116.3,"lat":64.95544400,"lon":17.70825000,"rng_nm":130,"alt_fmsl":958,"id":"SUM","desc":"STORUMAN VOR-DME"},
{"type":"NDB","hdg_t":271.5,"dist_nm":43.5,"freq":406,"lat":64.56013900,"lon":17.03227800,"rng_nm":40,"alt_fmsl":0,"id":"NV","desc":"VILHELMINA NDB"},
{"type":"NDB","hdg_t":273.6,"dist_nm":51.6,"freq":328,"lat":64.59111790,"lon":16.72214130,"rng_nm":50,"alt_fmsl":0,"id":"DK","desc":"Vilhelmina NDB"},
{"type":"NDB","hdg_t":144.9,"dist_nm":52.4,"freq":364,"lat":63.83266670,"lon":19.84797220,"rng_nm":30,"alt_fmsl":0,"id":"VNA","desc":"Vanja NDB"},
{"type":"NDB","hdg_t":137.2,"dist_nm":57.2,"freq":425,"lat":63.84413910,"lon":20.17533300,"rng_nm":50,"alt_fmsl":0,"id":"OU","desc":"Umea NDB"},
{"type":"VOR","hdg_t":84.5,"dist_nm":61.3,"freq":113.4,"lat":64.62666700,"lon":21.07927800,"rng_nm":60,"alt_fmsl":174,"id":"SKA","desc":"SKELLEFTEA VOR-DME"},
{"type":"VOR","hdg_t":137.2,"dist_nm":61.6,"freq":114.1,"lat":63.78861100,"lon":20.28522200,"rng_nm":150,"alt_fmsl":33,"id":"UME","desc":"UMEA VOR-DME"},
{"type":"NDB","hdg_t":14.9,"dist_nm":63.1,"freq":358,"lat":65.56217190,"lon":19.36760710,"rng_nm":50,"alt_fmsl":0,"id":"AS","desc":"Arvidsjaur NDB"},
{"type":"NDB","hdg_t":85.9,"dist_nm":65.3,"freq":369,"lat":64.60550000,"lon":21.23816670,"rng_nm":50,"alt_fmsl":0,"id":"OS","desc":"Skelleftea NDB"},
{"type":"NDB","hdg_t":9.2,"dist_nm":66.1,"freq":381,"lat":65.63391700,"lon":19.14302800,"rng_nm":25,"alt_fmsl":0,"id":"AN","desc":"ARVIDSJAUR NDB"},
{"type":"NDB","hdg_t":137.2,"dist_nm":66.8,"freq":329,"lat":63.72380450,"lon":20.41563990,"rng_nm":50,"alt_fmsl":0,"id":"WU","desc":"Umea NDB"},
{"type":"NDB","hdg_t":176,"dist_nm":67.1,"freq":322,"lat":63.43702780,"lon":18.88711110,"rng_nm":50,"alt_fmsl":0,"id":"OD","desc":"Ornskoldsvik NDB"},
{"type":"VOR","hdg_t":173.7,"dist_nm":69.2,"freq":115,"lat":63.40605600,"lon":18.99355600,"rng_nm":60,"alt_fmsl":351,"id":"OSK","desc":"ORNSKOLDSVIK VOR-DME"},
{"type":"NDB","hdg_t":170.9,"dist_nm":71.8,"freq":369,"lat":63.37047220,"lon":19.13236110,"rng_nm":50,"alt_fmsl":0,"id":"OO","desc":"Ornskoldsvik NDB"},
{"type":"NDB","hdg_t":197.1,"dist_nm":89.6,"freq":326,"lat":63.12291670,"lon":17.74213890,"rng_nm":50,"alt_fmsl":0,"id":"KG","desc":"Kramfors NDB"},
{"type":"NDB","hdg_t":55.7,"dist_nm":92.8,"freq":421,"lat":65.38727800,"lon":21.77025000,"rng_nm":15,"alt_fmsl":0,"id":"TRU","desc":"TRUNDON NDB"}
]
}
