{"success":true,"source":"xp2csv.pl","last_updated":"2013/11/08 14:53:21 UTC"
,"icao":"ESUJ","name":"Ange Talje","lat":62.5652809,"lon":15.8347187,"rwys":1,"ils":0,"index":3204641,"path":"e010n60/e015n62"
,"runways":[
{"len_m":722,"wid_m":30.48,"hdg":321,"surf":"Turf/grass","rwy1":"32","lat1":62.56272817,"lon1":15.83904743,"rwy2":"14","lat2":62.56783363,"lon2":15.83038997}
]
,"navaids":[
{"type":"NDB","hdg_t":88.9,"dist_nm":33.6,"freq":416,"lat":62.57038900,"lon":17.04522200,"rng_nm":25,"alt_fmsl":0,"id":"BCS","desc":"BACCHUS NDB"},
{"type":"VOR","hdg_t":92.1,"dist_nm":44.8,"freq":113.1,"lat":62.52844400,"lon":17.44872200,"rng_nm":100,"alt_fmsl":55,"id":"SUN","desc":"SUNDSVALL VOR-DME"},
{"type":"NDB","hdg_t":97.1,"dist_nm":46.3,"freq":378,"lat":62.46000000,"lon":17.48538890,"rng_nm":50,"alt_fmsl":0,"id":"OS","desc":"Sundsvall-Harnosand NDB"},
{"type":"NDB","hdg_t":317.5,"dist_nm":50.4,"freq":312,"lat":63.17816670,"lon":14.58430560,"rng_nm":50,"alt_fmsl":0,"id":"DJ","desc":"Ostersund NDB"},
{"type":"NDB","hdg_t":232.8,"dist_nm":50.8,"freq":327,"lat":62.04727780,"lon":14.40150000,"rng_nm":50,"alt_fmsl":0,"id":"Y","desc":"Sveg NDB"},
{"type":"NDB","hdg_t":234.1,"dist_nm":52.5,"freq":368,"lat":62.04541700,"lon":14.32611100,"rng_nm":30,"alt_fmsl":1176,"id":"OY","desc":"SVEG NDB"},
{"type":"VOR","hdg_t":316.4,"dist_nm":53.1,"freq":114.65,"lat":63.19955600,"lon":14.48755600,"rng_nm":150,"alt_fmsl":1204,"id":"OSS","desc":"OSTERSUND VOR-DME"},
{"type":"NDB","hdg_t":316,"dist_nm":53.8,"freq":338,"lat":63.20313890,"lon":14.45841670,"rng_nm":50,"alt_fmsl":0,"id":"F","desc":"Ostersund NDB"},
{"type":"NDB","hdg_t":70.1,"dist_nm":58.1,"freq":427,"lat":62.88016670,"lon":17.82672220,"rng_nm":25,"alt_fmsl":0,"id":"LUE","desc":"Lunde NDB"},
{"type":"NDB","hdg_t":142.8,"dist_nm":60.9,"freq":351,"lat":61.75213890,"lon":17.12694440,"rng_nm":50,"alt_fmsl":0,"id":"HU","desc":"Hudiksvall NDB"},
{"type":"NDB","hdg_t":56.5,"dist_nm":62.2,"freq":326,"lat":63.12291670,"lon":17.74213890,"rng_nm":50,"alt_fmsl":0,"id":"KG","desc":"Kramfors NDB"},
{"type":"NDB","hdg_t":156.9,"dist_nm":80.6,"freq":365,"lat":61.32727780,"lon":16.92708330,"rng_nm":50,"alt_fmsl":0,"id":"WS","desc":"Soderhamn NDB"},
{"type":"NDB","hdg_t":244.5,"dist_nm":96.4,"freq":393,"lat":61.84137730,"lon":12.77050020,"rng_nm":25,"alt_fmsl":0,"id":"UE","desc":"Idre NDB"},
{"type":"NDB","hdg_t":56.5,"dist_nm":98.6,"freq":322,"lat":63.43702780,"lon":18.88711110,"rng_nm":50,"alt_fmsl":0,"id":"OD","desc":"Ornskoldsvik NDB"}
]
}
