{"success":true,"source":"xp2csv.pl","last_updated":"2013/11/08 14:53:21 UTC"
,"icao":"ETND","name":"Diepholz","lat":52.58572494,"lon":8.34103475,"rwys":1,"ils":1,"index":3089313,"path":"e000n50/e008n52"
,"runways":[
{"len_m":1294,"wid_m":45.11,"hdg":84,"surf":"Asphalt","rwy1":"08","lat1":52.58517348,"lon1":8.33152649,"rwy2":"26","lat2":52.58627639,"lon2":8.35054301}
]
,"radios":[
{"type":"TWR","freq":119.82,"desc":"BREMEN INFO"},
{"type":"TWR","freq":122.1,"desc":"TWR"},
{"type":"APP","freq":124.65,"desc":"BREMEN RADAR"}
]
,"ils":[
{"type":"ILS","freq":108.35,"lat":52.58499000,"lon":8.32835800,"rng_nm":18,"alt_fmsl":127,"hdg":264.50,"id":"IDIW","rwy":"26","desc":"ILS-cat-I"},
{"type":"GS","freq":108.35,"lat":52.58498800,"lon":8.34731300,"rng_nm":10,"alt_fmsl":127,"id":"IDIW","rwy":"26","desc":"GS","gs":3.2},
{"type":"OM","freq":0,"lat":52.59165800,"lon":8.45341700,"rng_nm":0,"alt_fmsl":127,"id":"----","rwy":"26","desc":"OM"},
{"type":"MM","freq":0,"lat":52.58718800,"lon":8.36625300,"rng_nm":0,"alt_fmsl":127,"id":"----","rwy":"26","desc":"MM"}
]
,"navaids":[
{"type":"NDB","hdg_t":85,"dist_nm":4.1,"freq":325,"lat":52.59165800,"lon":8.45341700,"rng_nm":35,"alt_fmsl":191,"id":"DP","desc":"DIEPHOLZ NDB"},
{"type":"NDB","hdg_t":336.3,"dist_nm":19.8,"freq":290,"lat":52.88805400,"lon":8.12250000,"rng_nm":150,"alt_fmsl":0,"id":"AHL","desc":"AHLHORN NDB"},
{"type":"SDME","hdg_t":185,"dist_nm":23.1,"freq":108.35,"lat":52.20166700,"lon":8.28550000,"rng_nm":50,"alt_fmsl":343,"id":"OSB","desc":"OSNABRUCK TACAN"},
{"type":"VOR","hdg_t":185,"dist_nm":23.2,"freq":114.3,"lat":52.20013600,"lon":8.28551900,"rng_nm":60,"alt_fmsl":391,"id":"OSN","desc":"OSNABRUCK VOR"},
{"type":"NDB","hdg_t":23.3,"dist_nm":30,"freq":276,"lat":53.04416700,"lon":8.67000000,"rng_nm":25,"alt_fmsl":50,"id":"BW","desc":"Bremen NDB"},
{"type":"NDB","hdg_t":250.9,"dist_nm":30.5,"freq":439,"lat":52.41722100,"lon":7.55611100,"rng_nm":150,"alt_fmsl":0,"id":"HOP","desc":"HOPSTEN NDB"},
{"type":"VOR","hdg_t":30,"dist_nm":31.8,"freq":117.45,"lat":53.04405000,"lon":8.78213900,"rng_nm":60,"alt_fmsl":40,"id":"BMN","desc":"BREMEN VOR-DME"},
{"type":"NDB","hdg_t":218,"dist_nm":32.4,"freq":371,"lat":52.15932800,"lon":7.79999400,"rng_nm":20,"alt_fmsl":0,"id":"MYN","desc":"MUNSTER NDB"},
{"type":"NDB","hdg_t":122.4,"dist_nm":32.7,"freq":368,"lat":52.29116700,"lon":9.09100000,"rng_nm":25,"alt_fmsl":292,"id":"BYC","desc":"BUCKEBURG NDB"},
{"type":"NDB","hdg_t":36.3,"dist_nm":34.6,"freq":318,"lat":53.04944400,"lon":8.90888900,"rng_nm":25,"alt_fmsl":50,"id":"HIG","desc":"Bremen NDB"},
{"type":"SDME","hdg_t":222,"dist_nm":36,"freq":114.05,"lat":52.13796900,"lon":7.68724200,"rng_nm":25,"alt_fmsl":207,"id":"MOD","desc":"MUNSTER DME"},
{"type":"VOR","hdg_t":85.9,"dist_nm":37.7,"freq":116.5,"lat":52.62589200,"lon":9.37199200,"rng_nm":40,"alt_fmsl":190,"id":"NIE","desc":"NIENBURG VOR"},
{"type":"NDB","hdg_t":181.6,"dist_nm":39.2,"freq":412,"lat":51.93249900,"lon":8.31138900,"rng_nm":150,"alt_fmsl":0,"id":"GS","desc":"GUTERSLOH NDB"},
{"type":"NDB","hdg_t":243.3,"dist_nm":39.3,"freq":401,"lat":52.28783300,"lon":7.38566700,"rng_nm":25,"alt_fmsl":219,"id":"BET","desc":"RHEINE BENTLAGE NDB"},
{"type":"NDB","hdg_t":225,"dist_nm":40.2,"freq":305,"lat":52.11014700,"lon":7.57171100,"rng_nm":20,"alt_fmsl":0,"id":"MST","desc":"GREVEN NDB"},
{"type":"SDME","hdg_t":100.1,"dist_nm":41.1,"freq":114.85,"lat":52.46033300,"lon":9.44483300,"rng_nm":80,"alt_fmsl":202,"id":"WUN","desc":"WUNSTORF TACAN"},
{"type":"NDB","hdg_t":100.1,"dist_nm":41.5,"freq":419,"lat":52.45926700,"lon":9.45465800,"rng_nm":25,"alt_fmsl":203,"id":"WUN","desc":"WUNSTORF NDB"},
{"type":"NDB","hdg_t":98.5,"dist_nm":44.7,"freq":358,"lat":52.46851400,"lon":9.54644400,"rng_nm":15,"alt_fmsl":0,"id":"HW","desc":"HANNOVER NDB"},
{"type":"NDB","hdg_t":99.2,"dist_nm":45.5,"freq":332,"lat":52.45764400,"lon":9.56731700,"rng_nm":15,"alt_fmsl":0,"id":"HAE","desc":"HANNOVER NDB"},
{"type":"SDME","hdg_t":98.6,"dist_nm":48.9,"freq":116.9,"lat":52.45529400,"lon":9.65936700,"rng_nm":25,"alt_fmsl":171,"id":"HBD","desc":"HANNOVER DME"},
{"type":"VOR","hdg_t":208.3,"dist_nm":49.6,"freq":115.65,"lat":51.85686700,"lon":7.70829400,"rng_nm":130,"alt_fmsl":237,"id":"HMM","desc":"HAMM VOR-DME"},
{"type":"VOR","hdg_t":22.7,"dist_nm":49.7,"freq":112.9,"lat":53.34765800,"lon":8.87534200,"rng_nm":60,"alt_fmsl":0,"id":"WSR","desc":"WESER VOR"},
{"type":"SDME","hdg_t":97.5,"dist_nm":50.1,"freq":113.95,"lat":52.46876100,"lon":9.69481100,"rng_nm":25,"alt_fmsl":184,"id":"HAD","desc":"HANNOVER DME"},
{"type":"NDB","hdg_t":97.1,"dist_nm":54.1,"freq":320,"lat":52.46410300,"lon":9.80508300,"rng_nm":15,"alt_fmsl":0,"id":"HA","desc":"HANNOVER NDB"},
{"type":"SDME","hdg_t":251.2,"dist_nm":56.4,"freq":110.7,"lat":52.27451700,"lon":6.89152800,"rng_nm":130,"alt_fmsl":114,"id":"TWN","desc":"TWENTHE TACAN"},
{"type":"NDB","hdg_t":251,"dist_nm":57,"freq":335,"lat":52.26793600,"lon":6.87616400,"rng_nm":15,"alt_fmsl":98,"id":"TWN","desc":"TWENTHE NDB"},
{"type":"NDB","hdg_t":348.2,"dist_nm":57.3,"freq":390,"lat":53.51972200,"lon":8.01527800,"rng_nm":50,"alt_fmsl":0,"id":"JEV","desc":"JEVER NDB"},
{"type":"NDB","hdg_t":169,"dist_nm":58.8,"freq":354,"lat":51.62361100,"lon":8.63944400,"rng_nm":25,"alt_fmsl":673,"id":"PAD","desc":"PADERBORN/LIPPSTADT NDB-DME"},
{"type":"SDME","hdg_t":169,"dist_nm":58.8,"freq":108.5,"lat":51.62361100,"lon":8.63944400,"rng_nm":25,"alt_fmsl":673,"id":"PAD","desc":"PADERBORN/LIPPSTADT NDB-DME"},
{"type":"VOR","hdg_t":108.9,"dist_nm":60.1,"freq":115.2,"lat":52.25032200,"lon":9.88349700,"rng_nm":130,"alt_fmsl":398,"id":"DLE","desc":"LEINE VOR-DME"},
{"type":"NDB","hdg_t":89.1,"dist_nm":61.7,"freq":311,"lat":52.58966700,"lon":10.02950000,"rng_nm":25,"alt_fmsl":173,"id":"CEL","desc":"CELLE NDB"},
{"type":"SDME","hdg_t":339.2,"dist_nm":62.3,"freq":113.5,"lat":53.55433300,"lon":7.72516700,"rng_nm":60,"alt_fmsl":61,"id":"WTM","desc":"WITTMUNDHAFEN TACAN"},
{"type":"NDB","hdg_t":321,"dist_nm":62.8,"freq":345,"lat":53.39391400,"lon":7.24168900,"rng_nm":25,"alt_fmsl":0,"id":"EMD","desc":"EMDEN NDB"},
{"type":"SDME","hdg_t":320.5,"dist_nm":62.8,"freq":115.25,"lat":53.38913600,"lon":7.22913900,"rng_nm":25,"alt_fmsl":50,"id":"ENW","desc":"EMDEN DME"},
{"type":"VOR","hdg_t":245.5,"dist_nm":64,"freq":116.8,"lat":52.13319700,"lon":6.76387800,"rng_nm":50,"alt_fmsl":137,"id":"RKN","desc":"REKKEN VOR-DME"},
{"type":"NDB","hdg_t":304.4,"dist_nm":68,"freq":330,"lat":53.21529200,"lon":6.78516400,"rng_nm":15,"alt_fmsl":3,"id":"SO","desc":"EELDE NDB"},
{"type":"NDB","hdg_t":202.6,"dist_nm":68.8,"freq":357,"lat":51.52612200,"lon":7.63438600,"rng_nm":25,"alt_fmsl":400,"id":"DWI","desc":"DORTMUND NDB"},
{"type":"VOR","hdg_t":202.7,"dist_nm":68.9,"freq":108.65,"lat":51.52534200,"lon":7.63105600,"rng_nm":25,"alt_fmsl":373,"id":"DOR","desc":"WICKEDE VOR-DME"},
{"type":"VOR","hdg_t":300.3,"dist_nm":70,"freq":112.4,"lat":53.16390600,"lon":6.66667500,"rng_nm":60,"alt_fmsl":32,"id":"EEL","desc":"EELDE VOR-DME"},
{"type":"NDB","hdg_t":72.8,"dist_nm":70.1,"freq":284,"lat":52.91577200,"lon":10.18806100,"rng_nm":50,"alt_fmsl":329,"id":"FSB","desc":"FASSBERG NDB"},
{"type":"VOR","hdg_t":155.9,"dist_nm":70.8,"freq":113.7,"lat":51.50569700,"lon":9.11091400,"rng_nm":80,"alt_fmsl":843,"id":"WRB","desc":"WARBURG VOR-DME"},
{"type":"SDME","hdg_t":297.5,"dist_nm":71.4,"freq":109.9,"lat":53.12233000,"lon":6.58760600,"rng_nm":18,"alt_fmsl":17,"id":"GRO","desc":"EHGG 23 DME"},
{"type":"SDME","hdg_t":8.8,"dist_nm":71.9,"freq":117.1,"lat":53.76900000,"lon":8.65350000,"rng_nm":60,"alt_fmsl":120,"id":"NDO","desc":"NORDHOLZ TACAN"},
{"type":"NDB","hdg_t":12.9,"dist_nm":74,"freq":372,"lat":53.78516700,"lon":8.80616700,"rng_nm":30,"alt_fmsl":72,"id":"NDO","desc":"NORDHOLZ NDB"},
{"type":"NDB","hdg_t":291.4,"dist_nm":75.7,"freq":357,"lat":53.03153200,"lon":6.39602200,"rng_nm":15,"alt_fmsl":3,"id":"VZ","desc":"EHGG L05 NDB"},
{"type":"NDB","hdg_t":219.5,"dist_nm":77.3,"freq":406,"lat":51.58580300,"lon":7.02301100,"rng_nm":30,"alt_fmsl":0,"id":"BOT","desc":"BOTTROP NDB"},
{"type":"VOR","hdg_t":34.7,"dist_nm":78.5,"freq":115.1,"lat":53.65420000,"lon":9.59505600,"rng_nm":130,"alt_fmsl":50,"id":"LBE","desc":"ELBE VOR-DME"},
{"type":"NDB","hdg_t":42.4,"dist_nm":81.3,"freq":350,"lat":53.57548300,"lon":9.87581100,"rng_nm":15,"alt_fmsl":0,"id":"FU","desc":"HAMBURG WEST NDB"},
{"type":"NDB","hdg_t":99.8,"dist_nm":84.6,"freq":427,"lat":52.32224400,"lon":10.60615800,"rng_nm":20,"alt_fmsl":0,"id":"BRU","desc":"BRAUNSCHWEIG NDB"},
{"type":"VOR","hdg_t":191.2,"dist_nm":86.6,"freq":115.4,"lat":51.17051100,"lon":7.89203900,"rng_nm":130,"alt_fmsl":1821,"id":"GMH","desc":"GERMINGHAUSEN VOR-DME"},
{"type":"SDME","hdg_t":42.8,"dist_nm":86.8,"freq":115.8,"lat":53.63530600,"lon":9.99413900,"rng_nm":25,"alt_fmsl":66,"id":"ALF","desc":"ALSTER DME"},
{"type":"VOR","hdg_t":210.2,"dist_nm":87,"freq":113.6,"lat":51.32775800,"lon":7.17698300,"rng_nm":60,"alt_fmsl":879,"id":"BAM","desc":"BARMEN VORTAC"},
{"type":"NDB","hdg_t":39.5,"dist_nm":88.7,"freq":323,"lat":53.71416700,"lon":9.92430000,"rng_nm":15,"alt_fmsl":0,"id":"GT","desc":"HAMBURG NORTH NDB"},
{"type":"NDB","hdg_t":43.1,"dist_nm":90.9,"freq":339,"lat":53.67697200,"lon":10.08320300,"rng_nm":30,"alt_fmsl":0,"id":"HOS","desc":"HAMBURG NDB"},
{"type":"VOR","hdg_t":97.4,"dist_nm":91,"freq":117.3,"lat":52.36339400,"lon":10.79521900,"rng_nm":130,"alt_fmsl":413,"id":"HLZ","desc":"HEHLINGEN VOR-DME"},
{"type":"NDB","hdg_t":216.4,"dist_nm":91.8,"freq":417,"lat":51.34698900,"lon":6.89128300,"rng_nm":25,"alt_fmsl":0,"id":"LI","desc":"DUSSELDORF NDB"},
{"type":"VOR","hdg_t":44.8,"dist_nm":94.3,"freq":113.1,"lat":53.68557500,"lon":10.20499700,"rng_nm":130,"alt_fmsl":187,"id":"HAM","desc":"HAMBURG VORTAC"},
{"type":"VOR","hdg_t":251.7,"dist_nm":96.2,"freq":112.2,"lat":52.05723200,"lon":5.87278300,"rng_nm":18,"alt_fmsl":158,"id":"DLN","desc":"Deelen VORTAC"},
{"type":"VOR","hdg_t":351,"dist_nm":97.3,"freq":116.3,"lat":54.18568600,"lon":7.91070000,"rng_nm":200,"alt_fmsl":44,"id":"DHE","desc":"HELGOLAND VOR-DME"},
{"type":"NDB","hdg_t":219.2,"dist_nm":97.8,"freq":329,"lat":51.31305700,"lon":6.69666700,"rng_nm":150,"alt_fmsl":0,"id":"DUE","desc":"DUSSELDORF NDB"},
{"type":"VOR","hdg_t":217.6,"dist_nm":97.9,"freq":115.15,"lat":51.28318900,"lon":6.75372500,"rng_nm":130,"alt_fmsl":151,"id":"DUS","desc":"DUSSELDORF VOR-DME"},
{"type":"NDB","hdg_t":155.6,"dist_nm":98.6,"freq":468,"lat":51.08425800,"lon":9.41524400,"rng_nm":35,"alt_fmsl":1096,"id":"FTZ","desc":"FRITZLAR NDB"}
]
}
