{"success":true,"source":"xp2csv.pl","last_updated":"2013/11/08 14:53:21 UTC"
,"icao":"F12","name":"Rusk Co","lat":32.14162275,"lon":-94.8517125,"rwys":2,"ils":0,"index":1400456,"path":"w100n30/w095n32"
,"runways":[
{"len_m":1220,"wid_m":22.86,"hdg":169,"surf":"Asphalt","rwy1":"16","lat1":32.14773300,"lon1":-94.85294400,"rwy2":"34","lat2":32.13689400,"lon2":-94.85069700},
{"len_m":914,"wid_m":22.86,"hdg":125,"surf":"Asphalt","rwy1":"12","lat1":32.14335600,"lon1":-94.85552800,"rwy2":"30","lat2":32.13850800,"lon2":-94.84768100}
]
,"radios":[
{"type":"CTAF","freq":122.8,"desc":"CTAF/UNICOM"},
{"type":"APP","freq":118.25,"desc":"LONGVIEW APP/DEP"}
]
,"navaids":[
{"type":"NDB","hdg_t":350.2,"dist_nm":2.8,"freq":371,"lat":32.18794444,"lon":-94.86105556,"rng_nm":50,"alt_fmsl":0,"id":"HNO","desc":"HENDERSON NDB"},
{"type":"VOR","hdg_t":16.8,"dist_nm":17.2,"freq":112.3,"lat":32.41775000,"lon":-94.75319444,"rng_nm":40,"alt_fmsl":320,"id":"GGG","desc":"GREGG CO VORTAC"},
{"type":"NDB","hdg_t":8.3,"dist_nm":18.9,"freq":410,"lat":32.45558333,"lon":-94.79758333,"rng_nm":50,"alt_fmsl":0,"id":"GG","desc":"VEELS NDB"},
{"type":"NDB","hdg_t":228.8,"dist_nm":24.6,"freq":263,"lat":31.87016667,"lon":-95.21550000,"rng_nm":50,"alt_fmsl":0,"id":"JSO","desc":"CHEROKEE CO NDB"},
{"type":"NDB","hdg_t":85.1,"dist_nm":28.3,"freq":332,"lat":32.18025000,"lon":-94.29641667,"rng_nm":50,"alt_fmsl":0,"id":"RPF","desc":"CARTHAGE NDB"},
{"type":"NDB","hdg_t":333.5,"dist_nm":29.7,"freq":404,"lat":32.58541667,"lon":-95.11300000,"rng_nm":50,"alt_fmsl":0,"id":"ABG","desc":"AMBASSADOR NDB"},
{"type":"NDB","hdg_t":165.7,"dist_nm":30.4,"freq":391,"lat":31.64850000,"lon":-94.70550000,"rng_nm":50,"alt_fmsl":0,"id":"GXD","desc":"NACOGDOCHES NDB"},
{"type":"VOR","hdg_t":294.7,"dist_nm":30.8,"freq":114.2,"lat":32.35586111,"lon":-95.40347222,"rng_nm":25,"alt_fmsl":540,"id":"TYR","desc":"TYLER VOR-DME"},
{"type":"VOR","hdg_t":263.5,"dist_nm":34.8,"freq":111.4,"lat":32.07461111,"lon":-95.53077778,"rng_nm":40,"alt_fmsl":305,"id":"FZT","desc":"FRANKSTON VOR-DME"},
{"type":"NDB","hdg_t":297.7,"dist_nm":35.4,"freq":320,"lat":32.41575000,"lon":-95.46961111,"rng_nm":50,"alt_fmsl":0,"id":"TY","desc":"INDOO NDB"},
{"type":"NDB","hdg_t":170.2,"dist_nm":39.8,"freq":253,"lat":31.48555556,"lon":-94.72019444,"rng_nm":50,"alt_fmsl":0,"id":"OC","desc":"NADOS NDB"},
{"type":"NDB","hdg_t":117.2,"dist_nm":40.1,"freq":341,"lat":31.83286111,"lon":-94.15375000,"rng_nm":50,"alt_fmsl":0,"id":"CZJ","desc":"AMASON NDB"},
{"type":"NDB","hdg_t":243.6,"dist_nm":48.4,"freq":375,"lat":31.78016667,"lon":-95.70105556,"rng_nm":50,"alt_fmsl":0,"id":"PSN","desc":"PALESTINE NDB"},
{"type":"NDB","hdg_t":271.4,"dist_nm":49.8,"freq":269,"lat":32.15933333,"lon":-95.83025000,"rng_nm":50,"alt_fmsl":0,"id":"AHX","desc":"ATHENS NDB"},
{"type":"VOR","hdg_t":329.5,"dist_nm":51.3,"freq":114,"lat":32.88041667,"lon":-95.36675000,"rng_nm":40,"alt_fmsl":520,"id":"UIM","desc":"QUITMAN VOR-DME"},
{"type":"NDB","hdg_t":66.1,"dist_nm":53.9,"freq":230,"lat":32.50177778,"lon":-93.87811111,"rng_nm":50,"alt_fmsl":0,"id":"SH","desc":"CRAKK NDB"},
{"type":"NDB","hdg_t":178.5,"dist_nm":55.2,"freq":350,"lat":31.21888889,"lon":-94.82508333,"rng_nm":50,"alt_fmsl":0,"id":"LF","desc":"FLUFY NDB"},
{"type":"NDB","hdg_t":94.4,"dist_nm":55.6,"freq":414,"lat":32.06430556,"lon":-93.76444444,"rng_nm":50,"alt_fmsl":0,"id":"MSD","desc":"MANSFIELD NDB"},
{"type":"NDB","hdg_t":265.5,"dist_nm":56.5,"freq":215,"lat":32.06350000,"lon":-95.95763889,"rng_nm":50,"alt_fmsl":0,"id":"CSZ","desc":"CROSSROADS NDB"},
{"type":"NDB","hdg_t":262.3,"dist_nm":56.6,"freq":335,"lat":32.01071700,"lon":-95.95274200,"rng_nm":25,"alt_fmsl":383,"id":"LIQ","desc":"LOCHRIDGE RANCH NDB"},
{"type":"VOR","hdg_t":173.2,"dist_nm":59,"freq":112.1,"lat":31.16236111,"lon":-94.71694444,"rng_nm":130,"alt_fmsl":200,"id":"LFK","desc":"LUFKIN VORTAC"},
{"type":"NDB","hdg_t":354,"dist_nm":59.4,"freq":381,"lat":33.12845300,"lon":-94.97410300,"rng_nm":25,"alt_fmsl":404,"id":"MSA","desc":"MOUNT PLEASANT NDB"},
{"type":"NDB","hdg_t":44.5,"dist_nm":60.5,"freq":284,"lat":32.85958333,"lon":-94.01019444,"rng_nm":50,"alt_fmsl":0,"id":"VIV","desc":"VIVIAN NDB"},
{"type":"VOR","hdg_t":66.8,"dist_nm":61.2,"freq":108.6,"lat":32.53986111,"lon":-93.74130556,"rng_nm":25,"alt_fmsl":0,"id":"DTN","desc":"DOWNTOWN VOR"},
{"type":"SDME","hdg_t":69.8,"dist_nm":63.9,"freq":115.8,"lat":32.50333800,"lon":-93.66776300,"rng_nm":40,"alt_fmsl":163,"id":"BAD","desc":"BARKSDALE TACAN"},
{"type":"VOR","hdg_t":54.2,"dist_nm":64.9,"freq":117.4,"lat":32.77136111,"lon":-93.80991667,"rng_nm":130,"alt_fmsl":190,"id":"EIC","desc":"BELCHER VORTAC"},
{"type":"VOR","hdg_t":76,"dist_nm":65.7,"freq":111.2,"lat":32.40016667,"lon":-93.59513889,"rng_nm":40,"alt_fmsl":160,"id":"EMG","desc":"ELM GROVE VORTAC"},
{"type":"NDB","hdg_t":30,"dist_nm":66.6,"freq":347,"lat":33.10375000,"lon":-94.19047222,"rng_nm":50,"alt_fmsl":0,"id":"ATA","desc":"ATLANTA NDB"},
{"type":"VOR","hdg_t":272.5,"dist_nm":69.6,"freq":114.8,"lat":32.18572222,"lon":-96.21811111,"rng_nm":40,"alt_fmsl":400,"id":"CQY","desc":"CEDAR CREEK VORTAC"},
{"type":"NDB","hdg_t":256.6,"dist_nm":70.6,"freq":418,"lat":31.86266667,"lon":-96.19747222,"rng_nm":50,"alt_fmsl":0,"id":"PYF","desc":"PYRAMID NDB"},
{"type":"NDB","hdg_t":327.6,"dist_nm":72.2,"freq":338,"lat":33.15844700,"lon":-95.61828900,"rng_nm":25,"alt_fmsl":483,"id":"BHG","desc":"BRASHEAR NDB"},
{"type":"VOR","hdg_t":331.2,"dist_nm":72.3,"freq":109,"lat":33.19855556,"lon":-95.54258333,"rng_nm":40,"alt_fmsl":508,"id":"SLR","desc":"SULPHUR SPRINGS VOR-DME"},
{"type":"NDB","hdg_t":116.6,"dist_nm":75.1,"freq":272,"lat":31.57127778,"lon":-93.54155556,"rng_nm":50,"alt_fmsl":0,"id":"MMY","desc":"MANY NDB"},
{"type":"NDB","hdg_t":265.4,"dist_nm":78.9,"freq":396,"lat":32.02841667,"lon":-96.39461111,"rng_nm":50,"alt_fmsl":0,"id":"CRS","desc":"CORSICANA NDB"},
{"type":"NDB","hdg_t":309.5,"dist_nm":79.5,"freq":428,"lat":32.98186111,"lon":-96.06730556,"rng_nm":50,"alt_fmsl":0,"id":"SYW","desc":"CASH NDB"},
{"type":"NDB","hdg_t":297.9,"dist_nm":80,"freq":260,"lat":32.76013889,"lon":-96.24913889,"rng_nm":50,"alt_fmsl":0,"id":"AVZ","desc":"TRAVIS NDB"},
{"type":"NDB","hdg_t":267.1,"dist_nm":80.3,"freq":344,"lat":32.06413889,"lon":-96.42630556,"rng_nm":50,"alt_fmsl":0,"id":"CGQ","desc":"POWELL NDB"},
{"type":"SDME","hdg_t":312.4,"dist_nm":82.6,"freq":109.6,"lat":33.06626900,"lon":-96.06139700,"rng_nm":25,"alt_fmsl":540,"id":"MJF","desc":"ARVILLA TACAN"},
{"type":"VOR","hdg_t":223.4,"dist_nm":83.5,"freq":110.8,"lat":31.12402778,"lon":-95.96794444,"rng_nm":40,"alt_fmsl":350,"id":"LOA","desc":"LEONA VORTAC"},
{"type":"NDB","hdg_t":315,"dist_nm":86.3,"freq":201,"lat":33.15627778,"lon":-96.06361111,"rng_nm":50,"alt_fmsl":0,"id":"GV","desc":"MAJOR NDB"},
{"type":"NDB","hdg_t":307.6,"dist_nm":88.9,"freq":316,"lat":33.04038889,"lon":-96.24858333,"rng_nm":50,"alt_fmsl":0,"id":"MII","desc":"CADDO MILLS NDB"},
{"type":"VOR","hdg_t":340.3,"dist_nm":89.1,"freq":113.6,"lat":33.54238889,"lon":-95.44827778,"rng_nm":40,"alt_fmsl":510,"id":"PRX","desc":"PARIS VOR-DME"},
{"type":"NDB","hdg_t":250.9,"dist_nm":89.9,"freq":329,"lat":31.63961111,"lon":-96.51219444,"rng_nm":50,"alt_fmsl":0,"id":"LXY","desc":"MEXIA NDB"},
{"type":"NDB","hdg_t":290.7,"dist_nm":90.9,"freq":388,"lat":32.66808333,"lon":-96.53225000,"rng_nm":50,"alt_fmsl":0,"id":"JUG","desc":"JECCA NDB"},
{"type":"VOR","hdg_t":25.3,"dist_nm":91.1,"freq":116.3,"lat":33.51388889,"lon":-94.07325000,"rng_nm":130,"alt_fmsl":270,"id":"TXK","desc":"TEXARKANA VORTAC"},
{"type":"NDB","hdg_t":204.5,"dist_nm":92,"freq":308,"lat":30.74075000,"lon":-95.59086111,"rng_nm":50,"alt_fmsl":0,"id":"UTS","desc":"HUNTSVILLE NDB"},
{"type":"VOR","hdg_t":249.3,"dist_nm":92.9,"freq":108.8,"lat":31.58147222,"lon":-96.54908333,"rng_nm":40,"alt_fmsl":512,"id":"GNL","desc":"GROESBECK VOR-DME"},
{"type":"NDB","hdg_t":295.6,"dist_nm":94,"freq":248,"lat":32.80936111,"lon":-96.52911111,"rng_nm":50,"alt_fmsl":0,"id":"PQF","desc":"MESQUITE NDB"},
{"type":"NDB","hdg_t":107.2,"dist_nm":95.1,"freq":407,"lat":31.65744444,"lon":-93.07761111,"rng_nm":50,"alt_fmsl":0,"id":"OOC","desc":"NATCHITOCHES NDB"},
{"type":"NDB","hdg_t":29.7,"dist_nm":95.5,"freq":234,"lat":33.52411111,"lon":-93.90605556,"rng_nm":50,"alt_fmsl":0,"id":"TX","desc":"TECCO NDB"},
{"type":"NDB","hdg_t":128.4,"dist_nm":99.2,"freq":247,"lat":31.10236111,"lon":-93.34194444,"rng_nm":50,"alt_fmsl":0,"id":"VED","desc":"LEESVILLE NDB"}
]
}
