{"success":true,"source":"xp2csv.pl","last_updated":"2013/11/08 14:53:21 UTC"
,"icao":"F30","name":"Sulphur Muni","lat":34.524533,"lon":-96.989739,"rwys":1,"ils":0,"index":1367840,"path":"w100n30/w097n34"
,"runways":[
{"len_m":1066,"wid_m":18.29,"hdg":174,"surf":"Asphalt","rwy1":"17","lat1":34.52932200,"lon1":-96.99025000,"rwy2":"35","lat2":34.51974400,"lon2":-96.98922800}
]
,"radios":[
{"type":"CTAF","freq":122.9,"desc":"CTAF"}
]
,"navaids":[
{"type":"NDB","hdg_t":314,"dist_nm":16.4,"freq":384,"lat":34.71541667,"lon":-97.22891667,"rng_nm":50,"alt_fmsl":0,"id":"PVJ","desc":"PAULS VALLEY NDB"},
{"type":"NDB","hdg_t":170.8,"dist_nm":17.7,"freq":400,"lat":34.23233333,"lon":-96.93311111,"rng_nm":50,"alt_fmsl":0,"id":"AI","desc":"ADDMO NDB"},
{"type":"VOR","hdg_t":205.3,"dist_nm":20.7,"freq":116.7,"lat":34.21158333,"lon":-97.16822222,"rng_nm":130,"alt_fmsl":937,"id":"ADM","desc":"ARDMORE VORTAC"},
{"type":"VOR","hdg_t":43.4,"dist_nm":22.9,"freq":117.8,"lat":34.80255556,"lon":-96.67008333,"rng_nm":25,"alt_fmsl":987,"id":"ADH","desc":"ADA VOR-DME"},
{"type":"NDB","hdg_t":338.5,"dist_nm":32.4,"freq":512,"lat":35.02897222,"lon":-97.23047222,"rng_nm":50,"alt_fmsl":0,"id":"HMY","desc":"MULDROW NDB"},
{"type":"NDB","hdg_t":40.1,"dist_nm":44,"freq":411,"lat":35.08527778,"lon":-96.41366667,"rng_nm":50,"alt_fmsl":0,"id":"HDL","desc":"HOLDENVILLE NDB"},
{"type":"NDB","hdg_t":159,"dist_nm":44.7,"freq":341,"lat":33.82650000,"lon":-96.66888889,"rng_nm":50,"alt_fmsl":0,"id":"DNI","desc":"DENISON NDB"},
{"type":"NDB","hdg_t":139.6,"dist_nm":45.6,"freq":359,"lat":33.94231900,"lon":-96.39860300,"rng_nm":25,"alt_fmsl":684,"id":"DUA","desc":"DURANT NDB"},
{"type":"VOR","hdg_t":139.2,"dist_nm":45.7,"freq":114.3,"lat":33.94419444,"lon":-96.39183333,"rng_nm":40,"alt_fmsl":681,"id":"URH","desc":"TEXOMA VOR-DME"},
{"type":"VOR","hdg_t":259.9,"dist_nm":46.7,"freq":111,"lat":34.38447222,"lon":-97.91683333,"rng_nm":40,"alt_fmsl":1087,"id":"DUC","desc":"DUNCAN VOR-DME"},
{"type":"NDB","hdg_t":19,"dist_nm":47.3,"freq":278,"lat":35.27175000,"lon":-96.67475000,"rng_nm":50,"alt_fmsl":0,"id":"SRE","desc":"SEMINOLE NDB"},
{"type":"NDB","hdg_t":192.2,"dist_nm":49.3,"freq":330,"lat":33.71866667,"lon":-97.19866667,"rng_nm":50,"alt_fmsl":0,"id":"GLE","desc":"GAINESVILLE NDB"},
{"type":"NDB","hdg_t":331.4,"dist_nm":49.4,"freq":370,"lat":35.24825000,"lon":-97.46997222,"rng_nm":50,"alt_fmsl":0,"id":"OUN","desc":"NORMAN NDB"},
{"type":"NDB","hdg_t":327.5,"dist_nm":54.8,"freq":350,"lat":35.29505556,"lon":-97.58866667,"rng_nm":50,"alt_fmsl":0,"id":"RG","desc":"GALLY NDB"},
{"type":"NDB","hdg_t":2.3,"dist_nm":55.4,"freq":264,"lat":35.44983333,"lon":-96.94300000,"rng_nm":50,"alt_fmsl":0,"id":"HN","desc":"SUYBE NDB"},
{"type":"SDME","hdg_t":340.7,"dist_nm":57.9,"freq":115.8,"lat":35.43650800,"lon":-97.37968900,"rng_nm":25,"alt_fmsl":1251,"id":"TIK","desc":"TINKER TACAN"},
{"type":"VOR","hdg_t":328.7,"dist_nm":58.5,"freq":114.1,"lat":35.35858333,"lon":-97.60922222,"rng_nm":130,"alt_fmsl":1230,"id":"IRW","desc":"WILL ROGERS VORTAC"},
{"type":"NDB","hdg_t":73.8,"dist_nm":60.1,"freq":344,"lat":34.79777778,"lon":-95.82069444,"rng_nm":50,"alt_fmsl":0,"id":"ML","desc":"WAMPA NDB"},
{"type":"NDB","hdg_t":12.5,"dist_nm":60.9,"freq":314,"lat":35.51672222,"lon":-96.71863889,"rng_nm":50,"alt_fmsl":0,"id":"GGU","desc":"PRAGUE NDB"},
{"type":"VOR","hdg_t":71.6,"dist_nm":62.8,"freq":112,"lat":34.84944444,"lon":-95.78230556,"rng_nm":40,"alt_fmsl":820,"id":"MLC","desc":"MC ALESTER VORTAC"},
{"type":"NDB","hdg_t":332,"dist_nm":64.3,"freq":406,"lat":35.47144444,"lon":-97.60544444,"rng_nm":50,"alt_fmsl":0,"id":"OK","desc":"TULOO NDB"},
{"type":"NDB","hdg_t":215.5,"dist_nm":67.4,"freq":356,"lat":33.60538889,"lon":-97.77336111,"rng_nm":50,"alt_fmsl":0,"id":"GMZ","desc":"GRINDSTONE MTN NDB"},
{"type":"VOR","hdg_t":331.9,"dist_nm":68.5,"freq":113.4,"lat":35.53294444,"lon":-97.64716667,"rng_nm":25,"alt_fmsl":1271,"id":"PWA","desc":"WILEY POST VOR-DME"},
{"type":"NDB","hdg_t":106.3,"dist_nm":69.3,"freq":391,"lat":34.19177778,"lon":-95.65191667,"rng_nm":50,"alt_fmsl":0,"id":"AEE","desc":"ANTLERS NDB"},
{"type":"VOR","hdg_t":147.2,"dist_nm":70.1,"freq":114.6,"lat":33.53750000,"lon":-96.23408333,"rng_nm":130,"alt_fmsl":700,"id":"BYP","desc":"BONHAM VORTAC"},
{"type":"NDB","hdg_t":274.5,"dist_nm":70.2,"freq":308,"lat":34.60885200,"lon":-98.40377500,"rng_nm":25,"alt_fmsl":0,"id":"PFL","desc":"POST NDB"},
{"type":"NDB","hdg_t":274.5,"dist_nm":70.2,"freq":425,"lat":34.60886111,"lon":-98.40377778,"rng_nm":50,"alt_fmsl":0,"id":"PFL","desc":"POST NDB"},
{"type":"VOR","hdg_t":269,"dist_nm":70.5,"freq":109.4,"lat":34.49616667,"lon":-98.41308333,"rng_nm":40,"alt_fmsl":1104,"id":"LAW","desc":"LAWTON VOR-DME"},
{"type":"NDB","hdg_t":42.1,"dist_nm":71.3,"freq":267,"lat":35.40455556,"lon":-96.01388889,"rng_nm":50,"alt_fmsl":0,"id":"HET","desc":"HENRYETTA NDB"},
{"type":"NDB","hdg_t":282.8,"dist_nm":71.5,"freq":388,"lat":34.78138889,"lon":-98.40230556,"rng_nm":50,"alt_fmsl":0,"id":"OFZ","desc":"TRAIL NDB"},
{"type":"NDB","hdg_t":6.6,"dist_nm":72.2,"freq":396,"lat":35.72227778,"lon":-96.81863889,"rng_nm":50,"alt_fmsl":0,"id":"CQB","desc":"TILGHMAN NDB"},
{"type":"VOR","hdg_t":215.2,"dist_nm":72.2,"freq":112.4,"lat":33.53588889,"lon":-97.82127778,"rng_nm":130,"alt_fmsl":1100,"id":"UKW","desc":"BOWIE VORTAC"},
{"type":"NDB","hdg_t":187.9,"dist_nm":75,"freq":257,"lat":33.28308333,"lon":-97.19625000,"rng_nm":50,"alt_fmsl":0,"id":"DT","desc":"PINCK NDB"},
{"type":"NDB","hdg_t":111.5,"dist_nm":77.7,"freq":323,"lat":34.03969444,"lon":-95.53938889,"rng_nm":50,"alt_fmsl":0,"id":"HHW","desc":"HUGO NDB"},
{"type":"NDB","hdg_t":165,"dist_nm":78.2,"freq":421,"lat":33.26166667,"lon":-96.58880556,"rng_nm":50,"alt_fmsl":585,"id":"EF","desc":"FLUET NDB"},
{"type":"NDB","hdg_t":20.2,"dist_nm":79.6,"freq":251,"lat":35.76980000,"lon":-96.42472800,"rng_nm":25,"alt_fmsl":929,"id":"TZO","desc":"BRISTOW NDB"},
{"type":"SDME","hdg_t":246.8,"dist_nm":81.2,"freq":110.8,"lat":33.98258300,"lon":-98.48733300,"rng_nm":40,"alt_fmsl":1020,"id":"SHP","desc":"SHEPPARD TACAN"},
{"type":"NDB","hdg_t":243.6,"dist_nm":81.6,"freq":296,"lat":33.91072222,"lon":-98.45466667,"rng_nm":50,"alt_fmsl":0,"id":"ICF","desc":"MADISON NDB"},
{"type":"NDB","hdg_t":243.6,"dist_nm":81.6,"freq":296,"lat":33.91063889,"lon":-98.45491667,"rng_nm":50,"alt_fmsl":0,"id":"SP","desc":"SHAWN NDB"},
{"type":"NDB","hdg_t":345.2,"dist_nm":81.8,"freq":326,"lat":35.84555600,"lon":-97.41580600,"rng_nm":25,"alt_fmsl":1074,"id":"LCY","desc":"LOGAN COUNTY NDB"},
{"type":"NDB","hdg_t":7.3,"dist_nm":82.4,"freq":242,"lat":35.89011111,"lon":-96.77333333,"rng_nm":50,"alt_fmsl":0,"id":"CUH","desc":"CUSHING NDB"},
{"type":"VOR","hdg_t":248.4,"dist_nm":86,"freq":112.7,"lat":33.98727778,"lon":-98.59347222,"rng_nm":130,"alt_fmsl":1133,"id":"SPS","desc":"WICHITA FALLS VORTAC"},
{"type":"NDB","hdg_t":239.6,"dist_nm":86.8,"freq":344,"lat":33.78227778,"lon":-98.48816667,"rng_nm":50,"alt_fmsl":0,"id":"SKB","desc":"SCOTLAND NDB"},
{"type":"VOR","hdg_t":37.9,"dist_nm":89.2,"freq":114.9,"lat":35.69311111,"lon":-95.86597222,"rng_nm":130,"alt_fmsl":766,"id":"OKM","desc":"OKMULGEE VOR-DME"},
{"type":"NDB","hdg_t":34.4,"dist_nm":89.7,"freq":388,"lat":35.75527778,"lon":-95.94872222,"rng_nm":50,"alt_fmsl":0,"id":"OK","desc":"PRESO NDB"},
{"type":"NDB","hdg_t":181.2,"dist_nm":91.5,"freq":219,"lat":32.99578900,"lon":-97.02959200,"rng_nm":50,"alt_fmsl":547,"id":"FL","desc":"JIFFY NDB"},
{"type":"VOR","hdg_t":327.2,"dist_nm":91.5,"freq":114.7,"lat":35.80527778,"lon":-98.00391667,"rng_nm":130,"alt_fmsl":1110,"id":"IFI","desc":"KINGFISHER VORTAC"},
{"type":"NDB","hdg_t":150.2,"dist_nm":94.1,"freq":201,"lat":33.15627778,"lon":-96.06361111,"rng_nm":50,"alt_fmsl":0,"id":"GV","desc":"MAJOR NDB"},
{"type":"NDB","hdg_t":157.1,"dist_nm":96.3,"freq":316,"lat":33.04038889,"lon":-96.24858333,"rng_nm":50,"alt_fmsl":0,"id":"MII","desc":"CADDO MILLS NDB"},
{"type":"VOR","hdg_t":126.9,"dist_nm":96.7,"freq":113.6,"lat":33.54238889,"lon":-95.44827778,"rng_nm":40,"alt_fmsl":510,"id":"PRX","desc":"PARIS VOR-DME"},
{"type":"VOR","hdg_t":30.6,"dist_nm":97.5,"freq":110.6,"lat":35.92088889,"lon":-95.96863889,"rng_nm":25,"alt_fmsl":810,"id":"GNP","desc":"GLENPOOL VOR-DME"},
{"type":"VOR","hdg_t":177.4,"dist_nm":97.9,"freq":116.2,"lat":32.89030556,"lon":-96.90397222,"rng_nm":130,"alt_fmsl":450,"id":"CVE","desc":"COWBOY VOR-DME"},
{"type":"VOR","hdg_t":185.5,"dist_nm":98.3,"freq":115.7,"lat":32.88944444,"lon":-97.17941667,"rng_nm":130,"alt_fmsl":637,"id":"FUZ","desc":"RANGER VORTAC"},
{"type":"SDME","hdg_t":151.7,"dist_nm":98.9,"freq":109.6,"lat":33.06626900,"lon":-96.06139700,"rng_nm":25,"alt_fmsl":540,"id":"MJF","desc":"ARVILLA TACAN"},
{"type":"VOR","hdg_t":181.4,"dist_nm":99.1,"freq":113.1,"lat":32.86916667,"lon":-97.04050000,"rng_nm":130,"alt_fmsl":540,"id":"TTT","desc":"MAVERICK VOR-DME"},
{"type":"NDB","hdg_t":191.2,"dist_nm":99.5,"freq":365,"lat":32.89297222,"lon":-97.37352778,"rng_nm":50,"alt_fmsl":0,"id":"FT","desc":"MUFIN NDB"},
{"type":"NDB","hdg_t":264.6,"dist_nm":99.6,"freq":222,"lat":34.35383900,"lon":-98.98647800,"rng_nm":25,"alt_fmsl":1255,"id":"FDR","desc":"FREDERICK NDB"}
]
}
