{"success":true,"source":"xp2csv.pl","last_updated":"2013/11/08 14:53:21 UTC"
,"icao":"F75","name":"Harrison Fld Of Knox City","lat":33.43815,"lon":-99.8128695,"rwys":1,"ils":0,"index":1318616,"path":"w100n30/w100n33"
,"runways":[
{"len_m":975,"wid_m":15.24,"hdg":16,"surf":"Asphalt","rwy1":"01","lat1":33.43393300,"lon1":-99.81435800,"rwy2":"19","lat2":33.44236700,"lon2":-99.81138100}
]
,"radios":[
{"type":"CTAF","freq":122.9,"desc":"CTAF"}
]
,"navaids":[
{"type":"NDB","hdg_t":162.4,"dist_nm":15.5,"freq":407,"lat":33.19105556,"lon":-99.72000000,"rng_nm":50,"alt_fmsl":0,"id":"AKL","desc":"HASKELL NDB"},
{"type":"VOR","hdg_t":307.9,"dist_nm":33.2,"freq":114.5,"lat":33.77827778,"lon":-100.33619444,"rng_nm":40,"alt_fmsl":1940,"id":"GTH","desc":"GUTHRIE VORTAC"},
{"type":"NDB","hdg_t":29.3,"dist_nm":54.2,"freq":230,"lat":34.22608333,"lon":-99.27936111,"rng_nm":50,"alt_fmsl":0,"id":"VRT","desc":"WILBARGER NDB"},
{"type":"VOR","hdg_t":182.5,"dist_nm":57.3,"freq":113.7,"lat":32.48133333,"lon":-99.86344444,"rng_nm":130,"alt_fmsl":1810,"id":"ABI","desc":"ABILENE VORTAC"},
{"type":"VOR","hdg_t":337,"dist_nm":60.6,"freq":117.6,"lat":34.36905556,"lon":-100.28902778,"rng_nm":40,"alt_fmsl":1920,"id":"CDS","desc":"CHILDRESS VORTAC"},
{"type":"NDB","hdg_t":131.4,"dist_nm":62.2,"freq":245,"lat":32.74734400,"lon":-98.89117800,"rng_nm":25,"alt_fmsl":1226,"id":"BKD","desc":"BRECKENRIDGE NDB"},
{"type":"NDB","hdg_t":209.5,"dist_nm":67.1,"freq":275,"lat":32.46163889,"lon":-100.46558333,"rng_nm":50,"alt_fmsl":0,"id":"SWW","desc":"SWEETWATER NDB"},
{"type":"NDB","hdg_t":103.4,"dist_nm":68.1,"freq":371,"lat":33.16586111,"lon":-98.49661111,"rng_nm":50,"alt_fmsl":0,"id":"GHX","desc":"GRAHAM NDB"},
{"type":"NDB","hdg_t":174,"dist_nm":68.5,"freq":353,"lat":32.29888889,"lon":-99.67419444,"rng_nm":50,"alt_fmsl":0,"id":"AB","desc":"TOMHI NDB"},
{"type":"NDB","hdg_t":36.7,"dist_nm":68.6,"freq":222,"lat":34.35383900,"lon":-98.98647800,"rng_nm":25,"alt_fmsl":1255,"id":"FDR","desc":"FREDERICK NDB"},
{"type":"VOR","hdg_t":61.3,"dist_nm":69.3,"freq":112.7,"lat":33.98727778,"lon":-98.59347222,"rng_nm":130,"alt_fmsl":1133,"id":"SPS","desc":"WICHITA FALLS VORTAC"},
{"type":"NDB","hdg_t":72.3,"dist_nm":69.5,"freq":344,"lat":33.78227778,"lon":-98.48816667,"rng_nm":50,"alt_fmsl":0,"id":"SKB","desc":"SCOTLAND NDB"},
{"type":"VOR","hdg_t":180.1,"dist_nm":72,"freq":111.6,"lat":32.23575000,"lon":-99.81677778,"rng_nm":40,"alt_fmsl":2018,"id":"TQA","desc":"TUSCOLA VOR-DME"},
{"type":"NDB","hdg_t":232.6,"dist_nm":72.1,"freq":359,"lat":32.70141667,"lon":-100.94613889,"rng_nm":50,"alt_fmsl":0,"id":"SDR","desc":"SNYDER NDB"},
{"type":"NDB","hdg_t":279.2,"dist_nm":72.3,"freq":332,"lat":33.62413889,"lon":-101.23886111,"rng_nm":50,"alt_fmsl":0,"id":"CZX","desc":"CROSBYTON NDB"},
{"type":"NDB","hdg_t":67,"dist_nm":73.6,"freq":296,"lat":33.91072222,"lon":-98.45466667,"rng_nm":50,"alt_fmsl":0,"id":"ICF","desc":"MADISON NDB"},
{"type":"NDB","hdg_t":67,"dist_nm":73.6,"freq":296,"lat":33.91063889,"lon":-98.45491667,"rng_nm":50,"alt_fmsl":0,"id":"SP","desc":"SHAWN NDB"},
{"type":"SDME","hdg_t":63.4,"dist_nm":73.9,"freq":110.8,"lat":33.98258300,"lon":-98.48733300,"rng_nm":40,"alt_fmsl":1020,"id":"SHP","desc":"SHEPPARD TACAN"},
{"type":"NDB","hdg_t":112,"dist_nm":76.2,"freq":280,"lat":32.95150000,"lon":-98.41311111,"rng_nm":50,"alt_fmsl":0,"id":"GZV","desc":"BRAZOS RIVER NDB"},
{"type":"VOR","hdg_t":20,"dist_nm":78.1,"freq":109.8,"lat":34.66275000,"lon":-99.27097222,"rng_nm":40,"alt_fmsl":1370,"id":"LTS","desc":"ALTUS VORTAC"},
{"type":"NDB","hdg_t":140.6,"dist_nm":80.2,"freq":410,"lat":32.39847222,"lon":-98.81033333,"rng_nm":50,"alt_fmsl":0,"id":"OIP","desc":"OLD RIP NDB"},
{"type":"VOR","hdg_t":23.3,"dist_nm":93.3,"freq":111.8,"lat":34.86655556,"lon":-99.06338889,"rng_nm":40,"alt_fmsl":1472,"id":"HBR","desc":"HOBART VORTAC"},
{"type":"VOR","hdg_t":47.3,"dist_nm":94.3,"freq":109.4,"lat":34.49616667,"lon":-98.41308333,"rng_nm":40,"alt_fmsl":1104,"id":"LAW","desc":"LAWTON VOR-DME"},
{"type":"NDB","hdg_t":278.5,"dist_nm":96.7,"freq":272,"lat":33.66269444,"lon":-101.72308333,"rng_nm":50,"alt_fmsl":0,"id":"LD","desc":"LUBBI NDB"},
{"type":"NDB","hdg_t":113.3,"dist_nm":96.7,"freq":266,"lat":32.78512800,"lon":-98.05726700,"rng_nm":25,"alt_fmsl":972,"id":"MWL","desc":"MINERAL WELLS NDB"},
{"type":"NDB","hdg_t":167.7,"dist_nm":97.8,"freq":385,"lat":31.84125600,"lon":-99.40617500,"rng_nm":25,"alt_fmsl":88,"id":"COM","desc":"COLEMAN NDB"},
{"type":"NDB","hdg_t":44.6,"dist_nm":99.2,"freq":308,"lat":34.60885200,"lon":-98.40377500,"rng_nm":25,"alt_fmsl":0,"id":"PFL","desc":"POST NDB"},
{"type":"NDB","hdg_t":44.6,"dist_nm":99.2,"freq":425,"lat":34.60886111,"lon":-98.40377778,"rng_nm":50,"alt_fmsl":0,"id":"PFL","desc":"POST NDB"}
]
}
