{"success":true,"source":"xp2csv.pl","last_updated":"2013/11/08 14:53:21 UTC"
,"icao":"F82","name":"Town And Country Airpark","lat":33.48506875,"lon":-101.8115265,"rwys":2,"ils":0,"index":1285848,"path":"w110n30/w102n33"
,"runways":[
{"len_m":1078,"wid_m":15.24,"hdg":180,"surf":"Asphalt","rwy1":"17","lat1":33.49055600,"lon1":-101.81277800,"rwy2":"35","lat2":33.48083300,"lon2":-101.81277800},
{"len_m":467,"wid_m":33.53,"hdg":82,"surf":"Turf/grass","rwy1":"07","lat1":33.48416400,"lon1":-101.81276900,"rwy2":"25","lat2":33.48472200,"lon2":-101.80778100}
]
,"radios":[
{"type":"CTAF","freq":122.8,"desc":"CTAF/UNICOM"}
]
,"navaids":[
{"type":"NDB","hdg_t":22.6,"dist_nm":11.5,"freq":272,"lat":33.66269444,"lon":-101.72308333,"rng_nm":50,"alt_fmsl":0,"id":"LD","desc":"LUBBI NDB"},
{"type":"VOR","hdg_t":338.7,"dist_nm":14.1,"freq":109.2,"lat":33.70494444,"lon":-101.91400000,"rng_nm":40,"alt_fmsl":3310,"id":"LBB","desc":"LUBBOCK VORTAC"},
{"type":"NDB","hdg_t":356.6,"dist_nm":15.1,"freq":219,"lat":33.73769444,"lon":-101.82927778,"rng_nm":50,"alt_fmsl":0,"id":"LB","desc":"POLLO NDB"},
{"type":"NDB","hdg_t":226.2,"dist_nm":26.4,"freq":311,"lat":33.17924400,"lon":-102.19101900,"rng_nm":25,"alt_fmsl":3263,"id":"BFE","desc":"BROWNFIELD NDB"},
{"type":"NDB","hdg_t":278.6,"dist_nm":28.5,"freq":266,"lat":33.55566667,"lon":-102.37522222,"rng_nm":50,"alt_fmsl":0,"id":"LLN","desc":"LEVELLAND NDB"},
{"type":"NDB","hdg_t":73.6,"dist_nm":29.8,"freq":332,"lat":33.62413889,"lon":-101.23886111,"rng_nm":50,"alt_fmsl":0,"id":"CZX","desc":"CROSBYTON NDB"},
{"type":"VOR","hdg_t":1.6,"dist_nm":36,"freq":112.9,"lat":34.08619444,"lon":-101.79019444,"rng_nm":40,"alt_fmsl":3400,"id":"PVW","desc":"PLAINVIEW VOR-DME"},
{"type":"NDB","hdg_t":312.2,"dist_nm":38.7,"freq":212,"lat":33.91919444,"lon":-102.38672222,"rng_nm":50,"alt_fmsl":0,"id":"LIU","desc":"LITTLEFIELD NDB"},
{"type":"NDB","hdg_t":186.9,"dist_nm":43.8,"freq":338,"lat":32.75844444,"lon":-101.91608333,"rng_nm":50,"alt_fmsl":0,"id":"LSA","desc":"LAMESA NDB"},
{"type":"NDB","hdg_t":136.8,"dist_nm":64,"freq":359,"lat":32.70141667,"lon":-100.94613889,"rng_nm":50,"alt_fmsl":0,"id":"SDR","desc":"SNYDER NDB"},
{"type":"NDB","hdg_t":221,"dist_nm":64.3,"freq":344,"lat":32.67169444,"lon":-102.64572222,"rng_nm":50,"alt_fmsl":0,"id":"GNC","desc":"GAINES CO NDB"},
{"type":"VOR","hdg_t":165.7,"dist_nm":67.8,"freq":114.3,"lat":32.38558333,"lon":-101.48369444,"rng_nm":40,"alt_fmsl":2670,"id":"BGS","desc":"BIG SPRING VORTAC"},
{"type":"VOR","hdg_t":76.2,"dist_nm":75.9,"freq":114.5,"lat":33.77827778,"lon":-100.33619444,"rng_nm":40,"alt_fmsl":1940,"id":"GTH","desc":"GUTHRIE VORTAC"},
{"type":"VOR","hdg_t":319.9,"dist_nm":79.3,"freq":112.2,"lat":34.49511111,"lon":-102.83966667,"rng_nm":130,"alt_fmsl":4060,"id":"TXO","desc":"TEXICO VORTAC"},
{"type":"NDB","hdg_t":307.6,"dist_nm":85.5,"freq":335,"lat":34.35069444,"lon":-103.17438889,"rng_nm":50,"alt_fmsl":0,"id":"CV","desc":"HISAN NDB"},
{"type":"NDB","hdg_t":342.8,"dist_nm":86,"freq":341,"lat":34.85688889,"lon":-102.32433333,"rng_nm":50,"alt_fmsl":0,"id":"HRX","desc":"HEREFORD NDB"},
{"type":"VOR","hdg_t":235.7,"dist_nm":89.3,"freq":111,"lat":32.63825000,"lon":-103.26930556,"rng_nm":40,"alt_fmsl":3664,"id":"HOB","desc":"HOBBS VORTAC"},
{"type":"VOR","hdg_t":192.3,"dist_nm":90.4,"freq":114.8,"lat":32.00933333,"lon":-102.19038889,"rng_nm":40,"alt_fmsl":2860,"id":"MAF","desc":"MIDLAND VORTAC"},
{"type":"NDB","hdg_t":131.6,"dist_nm":91.4,"freq":275,"lat":32.46163889,"lon":-100.46558333,"rng_nm":50,"alt_fmsl":0,"id":"SWW","desc":"SWEETWATER NDB"},
{"type":"SDME","hdg_t":305.8,"dist_nm":92.5,"freq":111.6,"lat":34.38058300,"lon":-103.32242800,"rng_nm":40,"alt_fmsl":4280,"id":"CVS","desc":"CANNON TACAN"},
{"type":"VOR","hdg_t":54.7,"dist_nm":92.6,"freq":117.6,"lat":34.36905556,"lon":-100.28902778,"rng_nm":40,"alt_fmsl":1920,"id":"CDS","desc":"CHILDRESS VORTAC"},
{"type":"NDB","hdg_t":196.3,"dist_nm":93.3,"freq":326,"lat":31.98800000,"lon":-102.32505556,"rng_nm":50,"alt_fmsl":0,"id":"MA","desc":"FARLY NDB"},
{"type":"NDB","hdg_t":0.1,"dist_nm":99.5,"freq":251,"lat":35.14647222,"lon":-101.80555556,"rng_nm":50,"alt_fmsl":0,"id":"AM","desc":"PANDE NDB"}
]
}
