{"success":true,"source":"xp2csv.pl","last_updated":"2013/11/08 14:53:21 UTC"
,"icao":"FALM","name":"Makhado Afb","lat":-23.15887,"lon":29.697886,"rwys":2,"ils":0,"index":3428530,"path":"e020s30/e029s24"
,"runways":[
{"len_m":4057,"wid_m":27.43,"hdg":89,"surf":"Asphalt","rwy1":"10L","lat1":-23.15753643,"lon1":29.67941454,"rwy2":"28R","lat2":-23.15748557,"lon2":29.71903946},
{"len_m":4029,"wid_m":45.72,"hdg":89,"surf":"Asphalt","rwy1":"10","lat1":-23.16025110,"lon1":29.67687235,"rwy2":"28","lat2":-23.16020690,"lon2":29.71621765}
]
,"radios":[
{"type":"GND","freq":121.75,"desc":"GND"},
{"type":"TWR","freq":119.8,"desc":"TWR"},
{"type":"APP","freq":121.2,"desc":"APP"}
]
,"navaids":[
{"type":"VOR","hdg_t":272,"dist_nm":0.6,"freq":115,"lat":-23.15848600,"lon":29.68643900,"rng_nm":100,"alt_fmsl":3046,"id":"LTV","desc":"MAKHADO VORTAC"},
{"type":"NDB","hdg_t":92.1,"dist_nm":1.5,"freq":485,"lat":-23.15980300,"lon":29.72526900,"rng_nm":50,"alt_fmsl":0,"id":"LS","desc":"MAKHADO NDB"},
{"type":"NDB","hdg_t":269,"dist_nm":5.6,"freq":472,"lat":-23.16033300,"lon":29.59576700,"rng_nm":50,"alt_fmsl":0,"id":"LU","desc":"MAKHADO NDB"},
{"type":"NDB","hdg_t":55.1,"dist_nm":11.3,"freq":457,"lat":-23.05000000,"lon":29.86666700,"rng_nm":50,"alt_fmsl":3025,"id":"LO","desc":"LOUIS TRICHARDT NDB"},
{"type":"NDB","hdg_t":81.7,"dist_nm":34.4,"freq":285,"lat":-23.07500000,"lon":30.31444400,"rng_nm":50,"alt_fmsl":0,"id":"TOY","desc":"THOHOYANDOU NDB"},
{"type":"VOR","hdg_t":197.7,"dist_nm":42.7,"freq":114.5,"lat":-23.83981900,"lon":29.46056700,"rng_nm":100,"alt_fmsl":4075,"id":"PPV","desc":"POLOKWANE VOR-DME"},
{"type":"NDB","hdg_t":197.8,"dist_nm":44.4,"freq":410,"lat":-23.86627800,"lon":29.45070300,"rng_nm":50,"alt_fmsl":4075,"id":"PB","desc":"POLOKWANE NDB"},
{"type":"NDB","hdg_t":75.3,"dist_nm":44.9,"freq":325,"lat":-22.96743700,"lon":30.48309900,"rng_nm":50,"alt_fmsl":0,"id":"THO","desc":"THOHOYANDOU NDB"},
{"type":"NDB","hdg_t":332.4,"dist_nm":47.2,"freq":417,"lat":-22.45701700,"lon":29.30434200,"rng_nm":25,"alt_fmsl":0,"id":"VM","desc":"VENETIA NDB"},
{"type":"NDB","hdg_t":195.2,"dist_nm":48,"freq":425,"lat":-23.93361100,"lon":29.46861100,"rng_nm":50,"alt_fmsl":0,"id":"PI","desc":"PIETERSBURG NDB"},
{"type":"NDB","hdg_t":136.5,"dist_nm":53,"freq":212,"lat":-23.80229000,"lon":30.36084100,"rng_nm":50,"alt_fmsl":0,"id":"TZ","desc":"TZANEEN NDB"},
{"type":"NDB","hdg_t":100.6,"dist_nm":55.2,"freq":430,"lat":-23.32611100,"lon":30.68055600,"rng_nm":50,"alt_fmsl":0,"id":"GI","desc":"GIYANI NDB"},
{"type":"VOR","hdg_t":343.6,"dist_nm":56.8,"freq":117.9,"lat":-22.24563600,"lon":29.41032200,"rng_nm":100,"alt_fmsl":0,"id":"GWV","desc":"GREEFSWALD VOR"},
{"type":"NDB","hdg_t":330.9,"dist_nm":66.6,"freq":254,"lat":-22.18416500,"lon":29.11657900,"rng_nm":50,"alt_fmsl":0,"id":"LVA","desc":"LIMPOPO VALLY NDB"},
{"type":"NDB","hdg_t":129.3,"dist_nm":70.1,"freq":402,"lat":-23.90000000,"lon":30.68333300,"rng_nm":50,"alt_fmsl":0,"id":"JP","desc":"GRAVELOTTE NDB"},
{"type":"NDB","hdg_t":60.9,"dist_nm":79.4,"freq":252,"lat":-22.50916700,"lon":30.94916700,"rng_nm":50,"alt_fmsl":0,"id":"TSH","desc":"TSHIKONDENI NDB"},
{"type":"VOR","hdg_t":119.2,"dist_nm":91.6,"freq":115.3,"lat":-23.90075800,"lon":31.15196900,"rng_nm":100,"alt_fmsl":1528,"id":"PHV","desc":"PHALABORWA VOR"},
{"type":"NDB","hdg_t":119.7,"dist_nm":92.2,"freq":272,"lat":-23.91737800,"lon":31.15394700,"rng_nm":100,"alt_fmsl":0,"id":"PW","desc":"PHALABORWA NDB"},
{"type":"VOR","hdg_t":253.4,"dist_nm":99.6,"freq":116.3,"lat":-23.62521900,"lon":27.96436100,"rng_nm":100,"alt_fmsl":3790,"id":"ERV","desc":"ELLISRAS VOR-DME"}
]
}
