{"success":true,"source":"xp2csv.pl","last_updated":"2013/11/08 14:53:21 UTC"
,"icao":"FAMI","name":"Marble Hall","lat":-24.989115,"lon":29.2831225,"rwys":1,"ils":0,"index":3428417,"path":"e020s30/e029s25"
,"runways":[
{"len_m":1020,"wid_m":10.06,"hdg":41,"surf":"Asphalt","rwy1":"06","lat1":-24.99256900,"lon1":29.27977800,"rwy2":"24","lat2":-24.98566100,"lon2":29.28646700}
]
,"navaids":[
{"type":"VOR","hdg_t":185.4,"dist_nm":50.5,"freq":113.3,"lat":-25.82955800,"lon":29.19483600,"rng_nm":100,"alt_fmsl":5078,"id":"WIV","desc":"WITBANK VOR"},
{"type":"NDB","hdg_t":289.2,"dist_nm":53.4,"freq":465,"lat":-24.69168100,"lon":28.36006100,"rng_nm":50,"alt_fmsl":3900,"id":"NY","desc":"NYLSTROOM NDB"},
{"type":"VOR","hdg_t":219.1,"dist_nm":61.9,"freq":114.3,"lat":-25.79093100,"lon":28.56133600,"rng_nm":50,"alt_fmsl":4928,"id":"MEV","desc":"BRONKHORSTSPRUIT VORTAC"},
{"type":"NDB","hdg_t":231.9,"dist_nm":63.1,"freq":357,"lat":-25.63713900,"lon":28.36689700,"rng_nm":50,"alt_fmsl":4009,"id":"MC","desc":"ROODEPLAAT NDB"},
{"type":"NDB","hdg_t":9.1,"dist_nm":63.9,"freq":425,"lat":-23.93361100,"lon":29.46861100,"rng_nm":50,"alt_fmsl":0,"id":"PI","desc":"PIETERSBURG NDB"},
{"type":"NDB","hdg_t":162.9,"dist_nm":64.4,"freq":400,"lat":-26.01833300,"lon":29.63250000,"rng_nm":50,"alt_fmsl":0,"id":"HE","desc":"HENDRINA NDB"},
{"type":"NDB","hdg_t":233,"dist_nm":66.7,"freq":257,"lat":-25.65611100,"lon":28.29916700,"rng_nm":50,"alt_fmsl":0,"id":"WB","desc":"WONDERBOOM NDB"},
{"type":"NDB","hdg_t":7.8,"dist_nm":67.7,"freq":410,"lat":-23.86627800,"lon":29.45070300,"rng_nm":50,"alt_fmsl":4075,"id":"PB","desc":"POLOKWANE NDB"},
{"type":"NDB","hdg_t":234.6,"dist_nm":69.1,"freq":230,"lat":-25.65361100,"lon":28.24250000,"rng_nm":50,"alt_fmsl":4095,"id":"WR","desc":"WONDERBOOM NDB"},
{"type":"VOR","hdg_t":8,"dist_nm":69.4,"freq":114.5,"lat":-23.83981900,"lon":29.46056700,"rng_nm":100,"alt_fmsl":4075,"id":"PPV","desc":"POLOKWANE VOR-DME"},
{"type":"VOR","hdg_t":228.5,"dist_nm":76.7,"freq":116.9,"lat":-25.83334400,"lon":28.22036400,"rng_nm":100,"alt_fmsl":4903,"id":"WKV","desc":"WATERKLOOF VORTAC"},
{"type":"NDB","hdg_t":227.8,"dist_nm":77.2,"freq":315,"lat":-25.85221100,"lon":28.22595800,"rng_nm":50,"alt_fmsl":4796,"id":"WL","desc":"WATERKLOOF NDB"},
{"type":"NDB","hdg_t":146.3,"dist_nm":79.3,"freq":275,"lat":-26.09194400,"lon":30.09638900,"rng_nm":100,"alt_fmsl":0,"id":"CL","desc":"CAROLINA NDB"},
{"type":"NDB","hdg_t":220.9,"dist_nm":83.9,"freq":202,"lat":-26.04500000,"lon":28.26502500,"rng_nm":100,"alt_fmsl":0,"id":"JB","desc":"JOHANNESBURG NDB"},
{"type":"NDB","hdg_t":225.7,"dist_nm":86.3,"freq":372,"lat":-25.99264200,"lon":28.14001100,"rng_nm":50,"alt_fmsl":5327,"id":"GC","desc":"GRAND CENTRAL NDB"},
{"type":"VOR","hdg_t":242.1,"dist_nm":88.9,"freq":112.1,"lat":-25.67574200,"lon":27.83256100,"rng_nm":100,"alt_fmsl":0,"id":"HBV","desc":"HARTEBEESPOORTDAM VOR"},
{"type":"VOR","hdg_t":219,"dist_nm":90.2,"freq":115.2,"lat":-26.15711900,"lon":28.23102800,"rng_nm":100,"alt_fmsl":5558,"id":"JSV","desc":"JOHANNESBURG VOR-DME"},
{"type":"NDB","hdg_t":73.1,"dist_nm":90.6,"freq":297,"lat":-24.54138900,"lon":30.86944400,"rng_nm":50,"alt_fmsl":6324,"id":"MP","desc":"MARIEPSKOP NDB"},
{"type":"NDB","hdg_t":182.3,"dist_nm":91.8,"freq":406,"lat":-26.52250000,"lon":29.21222200,"rng_nm":50,"alt_fmsl":0,"id":"SC","desc":"SECUNDA NDB"},
{"type":"NDB","hdg_t":184.1,"dist_nm":92,"freq":242,"lat":-26.52333300,"lon":29.15805600,"rng_nm":50,"alt_fmsl":5250,"id":"SU","desc":"SECUNDA NDB"},
{"type":"NDB","hdg_t":39.9,"dist_nm":92.3,"freq":212,"lat":-23.80229000,"lon":30.36084100,"rng_nm":50,"alt_fmsl":0,"id":"TZ","desc":"TZANEEN NDB"},
{"type":"NDB","hdg_t":217.7,"dist_nm":93.3,"freq":420,"lat":-26.21933300,"lon":28.22516700,"rng_nm":100,"alt_fmsl":0,"id":"JN","desc":"JOHANNESBURG NDB"},
{"type":"VOR","hdg_t":109.2,"dist_nm":93.8,"freq":116.2,"lat":-25.49823900,"lon":30.91567200,"rng_nm":100,"alt_fmsl":2846,"id":"NSV","desc":"NELSPRUIT VOR-DME"},
{"type":"NDB","hdg_t":108.9,"dist_nm":93.9,"freq":480,"lat":-25.49071900,"lon":30.91906900,"rng_nm":50,"alt_fmsl":2848,"id":"NS","desc":"NELSPRUIT NDB"},
{"type":"VOR","hdg_t":232,"dist_nm":93.9,"freq":117.4,"lat":-25.94892800,"lon":27.91357200,"rng_nm":100,"alt_fmsl":4570,"id":"LIV","desc":"LANSERIA VOR-DME"},
{"type":"VOR","hdg_t":218.9,"dist_nm":96.9,"freq":117.7,"lat":-26.24539400,"lon":28.15451700,"rng_nm":100,"alt_fmsl":5570,"id":"RAV","desc":"RAND VOR-DME"},
{"type":"NDB","hdg_t":218.2,"dist_nm":97.6,"freq":287,"lat":-26.26742800,"lon":28.16272500,"rng_nm":25,"alt_fmsl":5308,"id":"RDW","desc":"RAND NDB"},
{"type":"NDB","hdg_t":231.7,"dist_nm":99.3,"freq":270,"lat":-26.01033300,"lon":27.83952800,"rng_nm":50,"alt_fmsl":0,"id":"LA","desc":"LANSERIA NDB"}
]
}
