{"success":true,"source":"xp2csv.pl","last_updated":"2013/11/08 14:53:21 UTC"
,"icao":"FAMJ","name":"Majuba Power Station","lat":-27.079252,"lon":29.778526,"rwys":1,"ils":0,"index":3428283,"path":"e020s30/e029s28"
,"runways":[
{"len_m":1497,"wid_m":14.94,"hdg":122,"surf":"Asphalt","rwy1":"14","lat1":-27.07559327,"lon1":29.77217659,"rwy2":"32","lat2":-27.08291073,"lon2":29.78487541}
]
,"radios":[
{"type":"CTAF","freq":122.2,"desc":"CTAF"}
]
,"navaids":[
{"type":"NDB","hdg_t":302.1,"dist_nm":2.1,"freq":512,"lat":-27.05983900,"lon":29.74408300,"rng_nm":100,"alt_fmsl":0,"id":"MAJ","desc":"MAJUBA NDB"},
{"type":"NDB","hdg_t":313.3,"dist_nm":31,"freq":352,"lat":-26.72158600,"lon":29.35797200,"rng_nm":50,"alt_fmsl":5354,"id":"TU","desc":"TUTUKA NDB"},
{"type":"NDB","hdg_t":164.4,"dist_nm":42.9,"freq":415,"lat":-27.77027800,"lon":29.99444400,"rng_nm":50,"alt_fmsl":4105,"id":"NC","desc":"NEWCASTLE NDB"},
{"type":"NDB","hdg_t":317.4,"dist_nm":45,"freq":406,"lat":-26.52250000,"lon":29.21222200,"rng_nm":50,"alt_fmsl":0,"id":"SC","desc":"SECUNDA NDB"},
{"type":"NDB","hdg_t":314.8,"dist_nm":47,"freq":242,"lat":-26.52333300,"lon":29.15805600,"rng_nm":50,"alt_fmsl":5250,"id":"SU","desc":"SECUNDA NDB"},
{"type":"NDB","hdg_t":81.3,"dist_nm":53.7,"freq":525,"lat":-26.93988300,"lon":30.77012200,"rng_nm":50,"alt_fmsl":0,"id":"PRF","desc":"PIET RETIEF NDB"},
{"type":"VOR","hdg_t":294.8,"dist_nm":53.9,"freq":116,"lat":-26.69671900,"lon":28.86746100,"rng_nm":130,"alt_fmsl":0,"id":"STV","desc":"STANDERTON VOR"},
{"type":"NDB","hdg_t":16.2,"dist_nm":61.4,"freq":275,"lat":-26.09194400,"lon":30.09638900,"rng_nm":100,"alt_fmsl":0,"id":"CL","desc":"CAROLINA NDB"},
{"type":"NDB","hdg_t":170.8,"dist_nm":62.8,"freq":357,"lat":-28.11666700,"lon":29.96666700,"rng_nm":50,"alt_fmsl":0,"id":"DH","desc":"DURNACOL NDB"},
{"type":"NDB","hdg_t":352.9,"dist_nm":63.9,"freq":400,"lat":-26.01833300,"lon":29.63250000,"rng_nm":50,"alt_fmsl":0,"id":"HE","desc":"HENDRINA NDB"},
{"type":"NDB","hdg_t":130.5,"dist_nm":65.4,"freq":230,"lat":-27.78638900,"lon":30.71277800,"rng_nm":50,"alt_fmsl":0,"id":"VHD","desc":"VRYHEID NDB"},
{"type":"NDB","hdg_t":128.3,"dist_nm":68.4,"freq":350,"lat":-27.78611100,"lon":30.78694400,"rng_nm":50,"alt_fmsl":3800,"id":"VHL","desc":"VRYHEID NDB"},
{"type":"NDB","hdg_t":207.1,"dist_nm":78,"freq":482,"lat":-28.23722200,"lon":29.10611100,"rng_nm":50,"alt_fmsl":5585,"id":"HS","desc":"HARRISMITH NDB"},
{"type":"VOR","hdg_t":337,"dist_nm":81.1,"freq":113.3,"lat":-25.82955800,"lon":29.19483600,"rng_nm":100,"alt_fmsl":5078,"id":"WIV","desc":"WITBANK VOR"},
{"type":"VOR","hdg_t":285.5,"dist_nm":83.4,"freq":116.7,"lat":-26.69680600,"lon":28.28316400,"rng_nm":100,"alt_fmsl":5119,"id":"HGV","desc":"HEIDELBERG VOR"},
{"type":"NDB","hdg_t":180.6,"dist_nm":88.3,"freq":397,"lat":-28.55620000,"lon":29.76086100,"rng_nm":100,"alt_fmsl":3406,"id":"LY","desc":"LADYSMITH NDB"},
{"type":"VOR","hdg_t":68,"dist_nm":89.6,"freq":112.3,"lat":-26.51194400,"lon":31.32361100,"rng_nm":130,"alt_fmsl":2237,"id":"VMS","desc":"MATSAPHA VOR-DME"},
{"type":"NDB","hdg_t":68.1,"dist_nm":90.2,"freq":262,"lat":-26.51054000,"lon":31.33469700,"rng_nm":100,"alt_fmsl":0,"id":"MS","desc":"MATSAPHA NDB"},
{"type":"NDB","hdg_t":295.3,"dist_nm":90.3,"freq":337,"lat":-26.42397800,"lon":28.26385000,"rng_nm":50,"alt_fmsl":0,"id":"RA","desc":"RAND NDB"},
{"type":"VOR","hdg_t":182.7,"dist_nm":91.3,"freq":116.5,"lat":-28.60447500,"lon":29.69418100,"rng_nm":100,"alt_fmsl":3805,"id":"LYV","desc":"LADYSMITH VOR"},
{"type":"NDB","hdg_t":301.2,"dist_nm":98,"freq":420,"lat":-26.21933300,"lon":28.22516700,"rng_nm":100,"alt_fmsl":0,"id":"JN","desc":"JOHANNESBURG NDB"},
{"type":"NDB","hdg_t":288,"dist_nm":98.7,"freq":385,"lat":-26.55722200,"lon":28.03250000,"rng_nm":100,"alt_fmsl":0,"id":"NMT","desc":"MEYERTON NDB"},
{"type":"NDB","hdg_t":298.8,"dist_nm":99.5,"freq":287,"lat":-26.26742800,"lon":28.16272500,"rng_nm":25,"alt_fmsl":5308,"id":"RDW","desc":"RAND NDB"},
{"type":"VOR","hdg_t":303.1,"dist_nm":99.8,"freq":115.2,"lat":-26.15711900,"lon":28.23102800,"rng_nm":100,"alt_fmsl":5558,"id":"JSV","desc":"JOHANNESBURG VOR-DME"}
]
}
