{"success":true,"source":"xp2csv.pl","last_updated":"2013/11/08 14:53:21 UTC"
,"icao":"FASX","name":"Hendrik Swellengrebel","lat":-34.0481395,"lon":20.4727965,"rwys":2,"ils":0,"index":3280377,"path":"e020s40/e020s35"
,"runways":[
{"len_m":1004,"wid_m":11.89,"hdg":126,"surf":"Asphalt","rwy1":"15","lat1":-34.04410804,"lon1":20.46781744,"rwy2":"33","lat2":-34.04947596,"lon2":20.47657256},
{"len_m":547,"wid_m":45.72,"hdg":39,"surf":"Gravel","rwy1":"06","lat1":-34.05138930,"lon1":20.47150942,"rwy2":"24","lat2":-34.04758470,"lon2":20.47528658}
]
,"navaids":[
{"type":"VOR","hdg_t":116.4,"dist_nm":3.9,"freq":114.4,"lat":-34.07722200,"lon":20.54305600,"rng_nm":100,"alt_fmsl":0,"id":"SWV","desc":"SWELLENDAM VOR"},
{"type":"VOR","hdg_t":200.1,"dist_nm":32.4,"freq":115.4,"lat":-34.55611900,"lon":20.24713900,"rng_nm":100,"alt_fmsl":43,"id":"OBV","desc":"OVERBERG VORTAC"},
{"type":"NDB","hdg_t":195.8,"dist_nm":34,"freq":427,"lat":-34.59562200,"lon":20.28484400,"rng_nm":50,"alt_fmsl":22,"id":"OB","desc":"OVERBERG NDB"},
{"type":"NDB","hdg_t":269,"dist_nm":43.3,"freq":270,"lat":-34.05732800,"lon":19.60325000,"rng_nm":60,"alt_fmsl":0,"id":"GE","desc":"GREYTON NDB"},
{"type":"NDB","hdg_t":293.2,"dist_nm":57.5,"freq":335,"lat":-33.66333300,"lon":19.41666700,"rng_nm":50,"alt_fmsl":0,"id":"WC","desc":"WORCESTER NDB"},
{"type":"NDB","hdg_t":69,"dist_nm":71.1,"freq":392,"lat":-33.61694400,"lon":21.79944400,"rng_nm":50,"alt_fmsl":0,"id":"BH","desc":"BADSHOOGTE NDB"},
{"type":"NDB","hdg_t":300.1,"dist_nm":74.7,"freq":247,"lat":-33.41391700,"lon":19.18690300,"rng_nm":100,"alt_fmsl":0,"id":"WY","desc":"WOLSELEY NDB"},
{"type":"NDB","hdg_t":73.1,"dist_nm":89.7,"freq":367,"lat":-33.60166700,"lon":22.18583300,"rng_nm":50,"alt_fmsl":1063,"id":"OH","desc":"OUDTSHOORN NDB"},
{"type":"VOR","hdg_t":272.3,"dist_nm":93.2,"freq":115.7,"lat":-33.96953300,"lon":18.60502500,"rng_nm":100,"alt_fmsl":151,"id":"CTV","desc":"CAPE TOWN VORTAC"},
{"type":"VOR","hdg_t":89,"dist_nm":95,"freq":112.5,"lat":-34.00730600,"lon":22.37761400,"rng_nm":100,"alt_fmsl":632,"id":"GGV","desc":"GEORGE VOR-DME"},
{"type":"NDB","hdg_t":275.6,"dist_nm":95.3,"freq":462,"lat":-33.87612900,"lon":18.57329000,"rng_nm":25,"alt_fmsl":0,"id":"CB","desc":"Cape Town NDB"},
{"type":"VOR","hdg_t":4.5,"dist_nm":95.9,"freq":113.3,"lat":-32.45011100,"lon":20.62236100,"rng_nm":100,"alt_fmsl":0,"id":"SLV","desc":"SUTHERLAND VOR"}
]
}
