{"success":true,"source":"xp2csv.pl","last_updated":"2013/11/08 14:53:21 UTC"
,"icao":"FAWM","name":"Welkom","lat":-27.997999,"lon":26.669584,"rwys":1,"ils":0,"index":3379074,"path":"e020s30/e026s28"
,"runways":[
{"len_m":2007,"wid_m":17.98,"hdg":49,"surf":"Asphalt","rwy1":"07","lat1":-28.00391303,"lon1":26.66185169,"rwy2":"25","lat2":-27.99208497,"lon2":26.67731631}
]
,"navaids":[
{"type":"VOR","hdg_t":245.1,"dist_nm":0.4,"freq":116.4,"lat":-28.00146700,"lon":26.66114700,"rng_nm":100,"alt_fmsl":4399,"id":"WMV","desc":"WELKOM VOR-DME"},
{"type":"NDB","hdg_t":59.9,"dist_nm":37.9,"freq":227,"lat":-27.67888900,"lon":27.28722200,"rng_nm":50,"alt_fmsl":0,"id":"KS","desc":"KROONSTAD NDB"},
{"type":"NDB","hdg_t":203.4,"dist_nm":67.8,"freq":519,"lat":-29.03611100,"lon":26.15555600,"rng_nm":50,"alt_fmsl":0,"id":"BTF","desc":"NEW TEMPE NDB"},
{"type":"VOR","hdg_t":196.3,"dist_nm":68.7,"freq":114.1,"lat":-29.10050000,"lon":26.30065800,"rng_nm":200,"alt_fmsl":4416,"id":"BLV","desc":"BLOEMFONTEIN VORTAC"},
{"type":"NDB","hdg_t":1.8,"dist_nm":69,"freq":280,"lat":-26.84513900,"lon":26.71063900,"rng_nm":50,"alt_fmsl":0,"id":"KD","desc":"KLERKSDORP NDB"},
{"type":"NDB","hdg_t":195.4,"dist_nm":72.9,"freq":380,"lat":-29.17200800,"lon":26.29880800,"rng_nm":200,"alt_fmsl":4453,"id":"BL","desc":"BLOEMFONTEIN NDB"},
{"type":"NDB","hdg_t":127.5,"dist_nm":81.9,"freq":390,"lat":-28.82750000,"lon":27.90250000,"rng_nm":50,"alt_fmsl":5315,"id":"FB","desc":"FICKSBURG NDB"},
{"type":"VOR","hdg_t":16,"dist_nm":82.4,"freq":115.8,"lat":-26.67333300,"lon":27.09333300,"rng_nm":100,"alt_fmsl":4520,"id":"PSV","desc":"POTCHEFSTROOM VOR-DME"},
{"type":"NDB","hdg_t":100,"dist_nm":89.5,"freq":342,"lat":-28.24978100,"lon":28.33362200,"rng_nm":100,"alt_fmsl":0,"id":"BM","desc":"BETHLEHEM NDB"},
{"type":"NDB","hdg_t":150.7,"dist_nm":89.6,"freq":317,"lat":-29.30260300,"lon":27.50564400,"rng_nm":54,"alt_fmsl":0,"id":"MU","desc":"MEJAMETALANA NDB"},
{"type":"NDB","hdg_t":151.1,"dist_nm":97.3,"freq":255,"lat":-29.41989700,"lon":27.56573300,"rng_nm":54,"alt_fmsl":0,"id":"ME","desc":"BEREA NDB"}
]
}
