{"success":true,"source":"xp2csv.pl","last_updated":"2013/11/08 14:53:21 UTC"
,"icao":"FB32","name":"Khutse","lat":-23.3561,"lon":24.6037,"rwys":1,"ils":0,"index":3346602,"path":"e020s30/e024s24"
,"runways":[
{"len_m":797,"wid_m":11.89,"hdg":180,"surf":"Dirt","rwy1":"18","lat1":-23.35250000,"lon1":24.60370000,"rwy2":"36","lat2":-23.35970000,"lon2":24.60370000}
]
,"navaids":[
{"type":"NDB","hdg_t":176.5,"dist_nm":74.5,"freq":277,"lat":-24.60065900,"lon":24.68589300,"rng_nm":50,"alt_fmsl":0,"id":"JWN","desc":"JWANENG NDB"},
{"type":"VOR","hdg_t":258.5,"dist_nm":100.2,"freq":115.1,"lat":-23.67971400,"lon":22.81988600,"rng_nm":100,"alt_fmsl":3400,"id":"KGV","desc":"KANG VOR"},
{"type":"VOR","hdg_t":137.9,"dist_nm":100.3,"freq":113.7,"lat":-24.59771400,"lon":25.83245600,"rng_nm":100,"alt_fmsl":3400,"id":"GBV","desc":"GABORONE VOR-DME"},
{"type":"NDB","hdg_t":134.4,"dist_nm":101.9,"freq":323,"lat":-24.54333300,"lon":25.93472200,"rng_nm":25,"alt_fmsl":0,"id":"GBL","desc":"GABARONE NDB"},
{"type":"NDB","hdg_t":132.5,"dist_nm":103.2,"freq":311,"lat":-24.51793600,"lon":25.99397800,"rng_nm":50,"alt_fmsl":0,"id":"GBE","desc":"GABORONE NDB"},
{"type":"NDB","hdg_t":17.4,"dist_nm":130.7,"freq":295,"lat":-21.26856100,"lon":25.30130500,"rng_nm":50,"alt_fmsl":3100,"id":"OR","desc":"ORAPA NDB"},
{"type":"NDB","hdg_t":159.7,"dist_nm":152.2,"freq":305,"lat":-25.74143100,"lon":25.57499400,"rng_nm":50,"alt_fmsl":0,"id":"MH","desc":"MAFIKENG NDB"},
{"type":"VOR","hdg_t":161.1,"dist_nm":156.2,"freq":112.9,"lat":-25.82589200,"lon":25.53505300,"rng_nm":100,"alt_fmsl":4128,"id":"MMV","desc":"MAFIKENG VOR-DME"},
{"type":"NDB","hdg_t":98.6,"dist_nm":168.1,"freq":345,"lat":-23.74861100,"lon":27.62333300,"rng_nm":50,"alt_fmsl":0,"id":"ER","desc":"ELLISRAS NDB"},
{"type":"NDB","hdg_t":116.2,"dist_nm":171.5,"freq":397,"lat":-24.60065400,"lon":27.41633800,"rng_nm":50,"alt_fmsl":0,"id":"TB","desc":"THABAZIMBI NDB"}
]
}
