{"success":true,"source":"xp2csv.pl","last_updated":"2013/11/08 14:53:21 UTC"
,"icao":"FB72","name":"Shadow View","lat":-20.93335,"lon":23.81665,"rwys":1,"ils":0,"index":3330374,"path":"e020s30/e023s21"
,"runways":[
{"len_m":996,"wid_m":20.12,"hdg":60,"surf":"Turf/grass","rwy1":"06","lat1":-20.93560000,"lon1":23.81250000,"rwy2":"24","lat2":-20.93110000,"lon2":23.82080000}
]
,"navaids":[
{"type":"NDB","hdg_t":339,"dist_nm":61.1,"freq":350,"lat":-19.97826700,"lon":23.42908100,"rng_nm":250,"alt_fmsl":3346,"id":"MN","desc":"MAUN NDB"},
{"type":"VOR","hdg_t":336.7,"dist_nm":61.3,"freq":112.7,"lat":-19.99037200,"lon":23.38881100,"rng_nm":100,"alt_fmsl":3100,"id":"MNV","desc":"MAUN VOR-DME"},
{"type":"NDB","hdg_t":103.7,"dist_nm":85.6,"freq":295,"lat":-21.26856100,"lon":25.30130500,"rng_nm":50,"alt_fmsl":3100,"id":"OR","desc":"ORAPA NDB"},
{"type":"NDB","hdg_t":248.9,"dist_nm":129.4,"freq":387,"lat":-21.69916900,"lon":21.65477200,"rng_nm":50,"alt_fmsl":3729,"id":"GZ","desc":"GHANZI NDB"},
{"type":"VOR","hdg_t":198.4,"dist_nm":173.3,"freq":115.1,"lat":-23.67971400,"lon":22.81988600,"rng_nm":100,"alt_fmsl":3400,"id":"KGV","desc":"KANG VOR"},
{"type":"NDB","hdg_t":39.8,"dist_nm":187.6,"freq":260,"lat":-18.50888200,"lon":25.92399200,"rng_nm":25,"alt_fmsl":0,"id":"MT","desc":"MATETSI NDB"},
{"type":"NDB","hdg_t":6,"dist_nm":198.2,"freq":332,"lat":-17.63419200,"lon":24.18178900,"rng_nm":50,"alt_fmsl":3230,"id":"KL","desc":"KATIMA MULILO NDB"},
{"type":"VOR","hdg_t":22.7,"dist_nm":200.5,"freq":113.3,"lat":-17.83274400,"lon":25.16986400,"rng_nm":100,"alt_fmsl":3293,"id":"KSV","desc":"KASANE VOR-DME"},
{"type":"NDB","hdg_t":22.4,"dist_nm":200.8,"freq":287,"lat":-17.82301900,"lon":25.15650000,"rng_nm":50,"alt_fmsl":0,"id":"KAS","desc":"KASANE NDB"},
{"type":"NDB","hdg_t":33.1,"dist_nm":203.6,"freq":256,"lat":-18.07029200,"lon":25.76500800,"rng_nm":25,"alt_fmsl":0,"id":"FA","desc":"VICTORIA FALLS NDB"}
]
}
