{"success":true,"source":"xp2csv.pl","last_updated":"2013/11/08 14:53:21 UTC"
,"icao":"FB79","name":"Tsau","lat":-20.15835,"lon":22.4533,"rwys":1,"ils":0,"index":3314035,"path":"e020s30/e022s21"
,"runways":[
{"len_m":1103,"wid_m":24.99,"hdg":99,"surf":"Dirt","rwy1":"10","lat1":-20.15750000,"lon1":22.44810000,"rwy2":"28","lat2":-20.15920000,"lon2":22.45850000}
]
,"navaids":[
{"type":"VOR","hdg_t":79.4,"dist_nm":53.7,"freq":112.7,"lat":-19.99037200,"lon":23.38881100,"rng_nm":100,"alt_fmsl":3100,"id":"MNV","desc":"MAUN VOR-DME"},
{"type":"NDB","hdg_t":79.1,"dist_nm":56.1,"freq":350,"lat":-19.97826700,"lon":23.42908100,"rng_nm":250,"alt_fmsl":3346,"id":"MN","desc":"MAUN NDB"},
{"type":"NDB","hdg_t":205.8,"dist_nm":102.4,"freq":387,"lat":-21.69916900,"lon":21.65477200,"rng_nm":50,"alt_fmsl":3729,"id":"GZ","desc":"GHANZI NDB"},
{"type":"NDB","hdg_t":113,"dist_nm":173.3,"freq":295,"lat":-21.26856100,"lon":25.30130500,"rng_nm":50,"alt_fmsl":3100,"id":"OR","desc":"ORAPA NDB"},
{"type":"NDB","hdg_t":33.3,"dist_nm":180,"freq":332,"lat":-17.63419200,"lon":24.18178900,"rng_nm":50,"alt_fmsl":3230,"id":"KL","desc":"KATIMA MULILO NDB"},
{"type":"NDB","hdg_t":48.2,"dist_nm":207.6,"freq":287,"lat":-17.82301900,"lon":25.15650000,"rng_nm":50,"alt_fmsl":0,"id":"KAS","desc":"KASANE NDB"},
{"type":"VOR","hdg_t":48.4,"dist_nm":207.7,"freq":113.3,"lat":-17.83274400,"lon":25.16986400,"rng_nm":100,"alt_fmsl":3293,"id":"KSV","desc":"KASANE VOR-DME"},
{"type":"VOR","hdg_t":174.5,"dist_nm":211.5,"freq":115.1,"lat":-23.67971400,"lon":22.81988600,"rng_nm":100,"alt_fmsl":3400,"id":"KGV","desc":"KANG VOR"},
{"type":"NDB","hdg_t":63.9,"dist_nm":220.2,"freq":260,"lat":-18.50888200,"lon":25.92399200,"rng_nm":25,"alt_fmsl":0,"id":"MT","desc":"MATETSI NDB"},
{"type":"NDB","hdg_t":56.9,"dist_nm":225.7,"freq":256,"lat":-18.07029200,"lon":25.76500800,"rng_nm":25,"alt_fmsl":0,"id":"FA","desc":"VICTORIA FALLS NDB"}
]
}
