{"success":true,"source":"xp2csv.pl","last_updated":"2013/11/08 14:53:21 UTC"
,"icao":"FB85","name":"Tutume","lat":-20.4833,"lon":27.05,"rwys":1,"ils":0,"index":3395936,"path":"e020s30/e027s21"
,"runways":[
{"len_m":792,"wid_m":29.87,"hdg":30,"surf":"Dirt","rwy1":"03","lat1":-20.48640000,"lon1":27.04810000,"rwy2":"21","lat2":-20.48020000,"lon2":27.05190000}
]
,"navaids":[
{"type":"VOR","hdg_t":149.6,"dist_nm":47,"freq":112.4,"lat":-21.16264700,"lon":27.47388300,"rng_nm":100,"alt_fmsl":3300,"id":"FTV","desc":"FRANCISTOWN VOR-DME"},
{"type":"NDB","hdg_t":71,"dist_nm":89.8,"freq":205,"lat":-19.98830600,"lon":28.55391700,"rng_nm":25,"alt_fmsl":0,"id":"WO","desc":"J M NKOMO NDB"},
{"type":"NDB","hdg_t":72.3,"dist_nm":92,"freq":226,"lat":-20.01063900,"lon":28.60252800,"rng_nm":25,"alt_fmsl":0,"id":"IL","desc":"J M NKOMO NDB"},
{"type":"VOR","hdg_t":73.4,"dist_nm":93.9,"freq":115.7,"lat":-20.02905600,"lon":28.64386100,"rng_nm":130,"alt_fmsl":4359,"id":"VBU","desc":"J M NKOMO VOR-DME"},
{"type":"NDB","hdg_t":155.8,"dist_nm":102.9,"freq":303,"lat":-22.05300000,"lon":27.80434400,"rng_nm":50,"alt_fmsl":2925,"id":"SP","desc":"SELEBI PHIKWE NDB"},
{"type":"NDB","hdg_t":84.4,"dist_nm":107.2,"freq":242,"lat":-20.29972200,"lon":28.94333300,"rng_nm":25,"alt_fmsl":0,"id":"SZ","desc":"J M NKOMO NDB"},
{"type":"NDB","hdg_t":244.1,"dist_nm":108.8,"freq":295,"lat":-21.26856100,"lon":25.30130500,"rng_nm":50,"alt_fmsl":3100,"id":"OR","desc":"ORAPA NDB"},
{"type":"NDB","hdg_t":356.3,"dist_nm":108.8,"freq":377,"lat":-18.66508300,"lon":26.92905600,"rng_nm":50,"alt_fmsl":0,"id":"PO","desc":"HWANGE NATIONAL PARK NDB"},
{"type":"NDB","hdg_t":358.2,"dist_nm":110.1,"freq":393,"lat":-18.64127800,"lon":26.99130600,"rng_nm":25,"alt_fmsl":0,"id":"WN","desc":"HWANGE NATIONAL PARK NDB"},
{"type":"VOR","hdg_t":358.3,"dist_nm":110.2,"freq":114.5,"lat":-18.64041700,"lon":26.99350000,"rng_nm":25,"alt_fmsl":3600,"id":"VWN","desc":"HWANGE VOR-DME"}
]
}
