{"success":true,"source":"xp2csv.pl","last_updated":"2013/11/08 14:53:21 UTC"
,"icao":"FB89","name":"Whyle","lat":-21.33335,"lon":26,"rwys":1,"ils":0,"index":3379496,"path":"e020s30/e026s22"
,"runways":[
{"len_m":1494,"wid_m":10.06,"hdg":80,"surf":"Dirt","rwy1":"08","lat1":-21.33450000,"lon1":25.99290000,"rwy2":"26","lat2":-21.33220000,"lon2":26.00710000}
]
,"navaids":[
{"type":"NDB","hdg_t":275.5,"dist_nm":39.3,"freq":295,"lat":-21.26856100,"lon":25.30130500,"rng_nm":50,"alt_fmsl":3100,"id":"OR","desc":"ORAPA NDB"},
{"type":"VOR","hdg_t":83.2,"dist_nm":83.2,"freq":112.4,"lat":-21.16264700,"lon":27.47388300,"rng_nm":100,"alt_fmsl":3300,"id":"FTV","desc":"FRANCISTOWN VOR-DME"},
{"type":"NDB","hdg_t":113.4,"dist_nm":109.6,"freq":303,"lat":-22.05300000,"lon":27.80434400,"rng_nm":50,"alt_fmsl":2925,"id":"SP","desc":"SELEBI PHIKWE NDB"},
{"type":"NDB","hdg_t":61.2,"dist_nm":164.6,"freq":205,"lat":-19.98830600,"lon":28.55391700,"rng_nm":25,"alt_fmsl":0,"id":"WO","desc":"J M NKOMO NDB"},
{"type":"NDB","hdg_t":298.7,"dist_nm":165.7,"freq":350,"lat":-19.97826700,"lon":23.42908100,"rng_nm":250,"alt_fmsl":3346,"id":"MN","desc":"MAUN NDB"},
{"type":"NDB","hdg_t":62,"dist_nm":166.4,"freq":226,"lat":-20.01063900,"lon":28.60252800,"rng_nm":25,"alt_fmsl":0,"id":"IL","desc":"J M NKOMO NDB"},
{"type":"VOR","hdg_t":298.1,"dist_nm":167.4,"freq":112.7,"lat":-19.99037200,"lon":23.38881100,"rng_nm":100,"alt_fmsl":3100,"id":"MNV","desc":"MAUN VOR-DME"},
{"type":"NDB","hdg_t":18.3,"dist_nm":167.9,"freq":377,"lat":-18.66508300,"lon":26.92905600,"rng_nm":50,"alt_fmsl":0,"id":"PO","desc":"HWANGE NATIONAL PARK NDB"},
{"type":"VOR","hdg_t":62.8,"dist_nm":167.9,"freq":115.7,"lat":-20.02905600,"lon":28.64386100,"rng_nm":130,"alt_fmsl":4359,"id":"VBU","desc":"J M NKOMO VOR-DME"},
{"type":"NDB","hdg_t":358.5,"dist_nm":168.8,"freq":260,"lat":-18.50888200,"lon":25.92399200,"rng_nm":25,"alt_fmsl":0,"id":"MT","desc":"MATETSI NDB"}
]
}
