{"success":true,"source":"xp2csv.pl","last_updated":"2013/11/08 14:53:21 UTC"
,"icao":"FBKY","name":"Kanye","lat":-25.05,"lon":25.31665,"rwys":1,"ils":0,"index":3362873,"path":"e020s30/e025s26"
,"runways":[
{"len_m":1102,"wid_m":17.98,"hdg":30,"surf":"Gravel","rwy1":"03","lat1":-25.05430000,"lon1":25.31390000,"rwy2":"21","lat2":-25.04570000,"lon2":25.31940000}
]
,"navaids":[
{"type":"VOR","hdg_t":46.2,"dist_nm":39,"freq":113.7,"lat":-24.59771400,"lon":25.83245600,"rng_nm":100,"alt_fmsl":3400,"id":"GBV","desc":"GABORONE VOR-DME"},
{"type":"NDB","hdg_t":161.3,"dist_nm":43.6,"freq":305,"lat":-25.74143100,"lon":25.57499400,"rng_nm":50,"alt_fmsl":0,"id":"MH","desc":"MAFIKENG NDB"},
{"type":"NDB","hdg_t":307.8,"dist_nm":43.6,"freq":277,"lat":-24.60065900,"lon":24.68589300,"rng_nm":50,"alt_fmsl":0,"id":"JWN","desc":"JWANENG NDB"},
{"type":"NDB","hdg_t":48.2,"dist_nm":45.3,"freq":323,"lat":-24.54333300,"lon":25.93472200,"rng_nm":25,"alt_fmsl":0,"id":"GBL","desc":"GABARONE NDB"},
{"type":"VOR","hdg_t":165.7,"dist_nm":47.9,"freq":112.9,"lat":-25.82589200,"lon":25.53505300,"rng_nm":100,"alt_fmsl":4128,"id":"MMV","desc":"MAFIKENG VOR-DME"},
{"type":"NDB","hdg_t":49.4,"dist_nm":48.7,"freq":311,"lat":-24.51793600,"lon":25.99397800,"rng_nm":50,"alt_fmsl":0,"id":"GBE","desc":"GABORONE NDB"},
{"type":"NDB","hdg_t":102.2,"dist_nm":100.3,"freq":480,"lat":-25.39559400,"lon":27.12183100,"rng_nm":50,"alt_fmsl":3419,"id":"PLG","desc":"PILANESBERG NDB"},
{"type":"VOR","hdg_t":102.2,"dist_nm":100.4,"freq":112.6,"lat":-25.39584200,"lon":27.12270600,"rng_nm":200,"alt_fmsl":3417,"id":"PNV","desc":"PILANESBERG VOR-DME"},
{"type":"NDB","hdg_t":100.9,"dist_nm":104,"freq":215,"lat":-25.36781700,"lon":27.19744200,"rng_nm":50,"alt_fmsl":3400,"id":"PLB","desc":"PILANESBERG NDB"},
{"type":"NDB","hdg_t":108.9,"dist_nm":112.7,"freq":452,"lat":-25.65000000,"lon":27.28333300,"rng_nm":50,"alt_fmsl":3700,"id":"RG","desc":"RUSTENBURG NDB"}
]
}
