{"success":true,"source":"xp2csv.pl","last_updated":"2013/11/08 14:53:21 UTC"
,"icao":"FD27","name":"Cuyler Field","lat":30.36273333,"lon":-82.22622695,"rwys":1,"ils":0,"index":1596947,"path":"w090n30/w083n30"
,"runways":[
{"len_m":993,"wid_m":20.12,"hdg":87,"surf":"Turf/grass","rwy1":"09","lat1":30.36250005,"lon1":-82.23138575,"rwy2":"27","lat2":30.36296661,"lon2":-82.22106815}
]
,"navaids":[
{"type":"VOR","hdg_t":296.7,"dist_nm":18.9,"freq":112.9,"lat":30.50463889,"lon":-82.55291667,"rng_nm":130,"alt_fmsl":140,"id":"TAY","desc":"TAYLOR VORTAC"},
{"type":"VOR","hdg_t":117.1,"dist_nm":19.5,"freq":117.9,"lat":30.21300000,"lon":-81.89088889,"rng_nm":130,"alt_fmsl":0,"id":"VQQ","desc":"CECIL VOR"},
{"type":"NDB","hdg_t":239.9,"dist_nm":21.1,"freq":204,"lat":30.18533333,"lon":-82.57858333,"rng_nm":50,"alt_fmsl":0,"id":"LCQ","desc":"LAKE CITY NDB"},
{"type":"NDB","hdg_t":74.3,"dist_nm":22.8,"freq":344,"lat":30.46502778,"lon":-81.80163889,"rng_nm":50,"alt_fmsl":0,"id":"JA","desc":"DINNS (LOM/NDB) NDB"},
{"type":"SDME","hdg_t":104.8,"dist_nm":29.6,"freq":108.2,"lat":30.23486700,"lon":-81.67506700,"rng_nm":40,"alt_fmsl":20,"id":"NIP","desc":"JACKSONVILLE TACAN"},
{"type":"NDB","hdg_t":83.3,"dist_nm":32.2,"freq":357,"lat":30.42361111,"lon":-81.60938889,"rng_nm":50,"alt_fmsl":0,"id":"EYA","desc":"EASTPORT NDB"},
{"type":"VOR","hdg_t":92,"dist_nm":37.2,"freq":114.5,"lat":30.33888889,"lon":-81.50991667,"rng_nm":130,"alt_fmsl":42,"id":"CRG","desc":"CRAIG VORTAC"},
{"type":"VOR","hdg_t":183.4,"dist_nm":40.2,"freq":116.2,"lat":29.69211111,"lon":-82.27297222,"rng_nm":40,"alt_fmsl":128,"id":"GNV","desc":"GATORS VORTAC"},
{"type":"NDB","hdg_t":176,"dist_nm":41.5,"freq":269,"lat":29.67002778,"lon":-82.17213889,"rng_nm":50,"alt_fmsl":0,"id":"GN","desc":"WYNDS NDB"},
{"type":"SDME","hdg_t":87.6,"dist_nm":41.7,"freq":111.4,"lat":30.38861100,"lon":-81.42308100,"rng_nm":40,"alt_fmsl":9,"id":"NRB","desc":"MAYPORT TACAN"},
{"type":"NDB","hdg_t":152.9,"dist_nm":47.6,"freq":243,"lat":29.65350000,"lon":-81.81250000,"rng_nm":50,"alt_fmsl":0,"id":"IAK","desc":"PALATKA NDB"},
{"type":"NDB","hdg_t":325.8,"dist_nm":50.1,"freq":209,"lat":31.05550000,"lon":-82.77208333,"rng_nm":50,"alt_fmsl":0,"id":"HOE","desc":"HOMERVILLE NDB"},
{"type":"VOR","hdg_t":117.3,"dist_nm":52.5,"freq":109.4,"lat":29.95672222,"lon":-81.33022222,"rng_nm":25,"alt_fmsl":6,"id":"SGJ","desc":"ST AUGUSTINE VOR-DME"},
{"type":"VOR","hdg_t":342.6,"dist_nm":56.8,"freq":110.2,"lat":31.26941667,"lon":-82.55644444,"rng_nm":40,"alt_fmsl":155,"id":"AYS","desc":"WAYCROSS VORTAC"},
{"type":"VOR","hdg_t":44.2,"dist_nm":57.6,"freq":109.8,"lat":31.05050000,"lon":-81.44591667,"rng_nm":40,"alt_fmsl":6,"id":"SSI","desc":"BRUNSWICK VORTAC"},
{"type":"NDB","hdg_t":351.3,"dist_nm":58.2,"freq":219,"lat":31.32525000,"lon":-82.39708333,"rng_nm":50,"alt_fmsl":0,"id":"AY","desc":"WIKET NDB"},
{"type":"VOR","hdg_t":294.8,"dist_nm":60,"freq":114.8,"lat":30.78044444,"lon":-83.27972222,"rng_nm":130,"alt_fmsl":199,"id":"OTK","desc":"VALDOSTA VOR-DME"},
{"type":"VOR","hdg_t":223.3,"dist_nm":62.6,"freq":112,"lat":29.59902778,"lon":-83.04872222,"rng_nm":40,"alt_fmsl":30,"id":"CTY","desc":"CROSS CITY VORTAC"},
{"type":"NDB","hdg_t":34.1,"dist_nm":62.7,"freq":275,"lat":31.22833333,"lon":-81.54272222,"rng_nm":50,"alt_fmsl":0,"id":"BQ","desc":"JEFFI NDB"},
{"type":"VOR","hdg_t":180,"dist_nm":70.9,"freq":113.7,"lat":29.17747222,"lon":-82.22633333,"rng_nm":40,"alt_fmsl":80,"id":"OCF","desc":"OCALA REGIONAL/JI VORTAC"},
{"type":"VOR","hdg_t":348.3,"dist_nm":71.7,"freq":115.1,"lat":31.53652778,"lon":-82.50808333,"rng_nm":130,"alt_fmsl":200,"id":"AMG","desc":"ALMA VORTAC"},
{"type":"NDB","hdg_t":330.1,"dist_nm":72,"freq":390,"lat":31.40483333,"lon":-82.92375000,"rng_nm":50,"alt_fmsl":0,"id":"OWC","desc":"COFFEE CO NDB"},
{"type":"NDB","hdg_t":13.7,"dist_nm":73.3,"freq":340,"lat":31.55252778,"lon":-81.88700000,"rng_nm":50,"alt_fmsl":0,"id":"JES","desc":"SLOVER NDB"},
{"type":"NDB","hdg_t":354,"dist_nm":81.2,"freq":376,"lat":31.71202778,"lon":-82.39016667,"rng_nm":50,"alt_fmsl":0,"id":"BHC","desc":"BAXLEY NDB"},
{"type":"VOR","hdg_t":278.3,"dist_nm":81.5,"freq":109,"lat":30.55133333,"lon":-83.78313889,"rng_nm":40,"alt_fmsl":220,"id":"GEF","desc":"GREENVILLE VORTAC"},
{"type":"VOR","hdg_t":137.2,"dist_nm":86,"freq":112.6,"lat":29.30325000,"lon":-81.11269444,"rng_nm":130,"alt_fmsl":19,"id":"OMN","desc":"ORMOND BEACH VORTAC"},
{"type":"NDB","hdg_t":313.9,"dist_nm":86.8,"freq":409,"lat":31.36327778,"lon":-83.44402778,"rng_nm":50,"alt_fmsl":0,"id":"TM","desc":"TIFTO NDB"},
{"type":"NDB","hdg_t":293.6,"dist_nm":90.1,"freq":245,"lat":30.95755556,"lon":-83.82666667,"rng_nm":50,"alt_fmsl":0,"id":"GTP","desc":"PATTEN NDB"},
{"type":"VOR","hdg_t":314.7,"dist_nm":91.2,"freq":112.5,"lat":31.42866667,"lon":-83.48886111,"rng_nm":25,"alt_fmsl":0,"id":"IFM","desc":"TIFT MYERS VOR"},
{"type":"VOR","hdg_t":298.2,"dist_nm":92.2,"freq":108.8,"lat":31.08227778,"lon":-83.80422222,"rng_nm":40,"alt_fmsl":290,"id":"MGR","desc":"MOULTRIE VOR-DME"},
{"type":"NDB","hdg_t":324,"dist_nm":92.8,"freq":362,"lat":31.61297222,"lon":-83.29072222,"rng_nm":50,"alt_fmsl":0,"id":"SUR","desc":"FITZGERALD NDB"},
{"type":"NDB","hdg_t":346.6,"dist_nm":93.3,"freq":414,"lat":31.88019444,"lon":-82.64736111,"rng_nm":50,"alt_fmsl":0,"id":"AZE","desc":"HAZLEHURST NDB"},
{"type":"NDB","hdg_t":166.5,"dist_nm":95,"freq":335,"lat":28.81825000,"lon":-81.80725000,"rng_nm":50,"alt_fmsl":0,"id":"LEE","desc":"LEESBURG NDB"},
{"type":"NDB","hdg_t":22.5,"dist_nm":95.3,"freq":263,"lat":31.83116667,"lon":-81.51019444,"rng_nm":50,"alt_fmsl":0,"id":"MOQ","desc":"MC INTOSH NDB"}
]
}
