{"success":true,"source":"xp2csv.pl","last_updated":"2013/11/08 14:53:21 UTC"
,"icao":"FD86","name":"Deep Woods Ranch","lat":29.03026194,"lon":-81.44701195,"rwys":1,"ils":0,"index":1613250,"path":"w090n20/w082n29"
,"runways":[
{"len_m":853,"wid_m":30.48,"hdg":47,"surf":"Turf/grass","rwy1":"05","lat1":29.02764295,"lon1":-81.45022403,"rwy2":"23","lat2":29.03288093,"lon2":-81.44379987}
]
,"navaids":[
{"type":"NDB","hdg_t":143.8,"dist_nm":18.1,"freq":408,"lat":28.78494444,"lon":-81.24333333,"rng_nm":50,"alt_fmsl":0,"id":"SFB","desc":"SANFORD NDB"},
{"type":"NDB","hdg_t":236.3,"dist_nm":22.8,"freq":335,"lat":28.81825000,"lon":-81.80725000,"rng_nm":50,"alt_fmsl":0,"id":"LEE","desc":"LEESBURG NDB"},
{"type":"VOR","hdg_t":46.9,"dist_nm":23.9,"freq":112.6,"lat":29.30325000,"lon":-81.11269444,"rng_nm":130,"alt_fmsl":19,"id":"OMN","desc":"ORMOND BEACH VORTAC"},
{"type":"NDB","hdg_t":86.7,"dist_nm":26.6,"freq":417,"lat":29.05422222,"lon":-80.94144444,"rng_nm":50,"alt_fmsl":0,"id":"EVB","desc":"NEW SMYRNA BEACH NDB"},
{"type":"VOR","hdg_t":168.5,"dist_nm":29.7,"freq":112.2,"lat":28.54272222,"lon":-81.33502778,"rng_nm":130,"alt_fmsl":102,"id":"ORL","desc":"ORLANDO VORTAC"},
{"type":"NDB","hdg_t":178.7,"dist_nm":31.3,"freq":221,"lat":28.50683333,"lon":-81.43391667,"rng_nm":50,"alt_fmsl":0,"id":"OR","desc":"HERNY (LOM) NDB"},
{"type":"VOR","hdg_t":282.3,"dist_nm":41.8,"freq":113.7,"lat":29.17747222,"lon":-82.22633333,"rng_nm":40,"alt_fmsl":80,"id":"OCF","desc":"OCALA REGIONAL/JI VORTAC"},
{"type":"NDB","hdg_t":332.8,"dist_nm":41.9,"freq":243,"lat":29.65350000,"lon":-81.81250000,"rng_nm":50,"alt_fmsl":0,"id":"IAK","desc":"PALATKA NDB"},
{"type":"SDME","hdg_t":121.2,"dist_nm":46.3,"freq":112.25,"lat":28.62616700,"lon":-80.69583300,"rng_nm":130,"alt_fmsl":57,"id":"TTS","desc":"KENNEDY SPACE CENTER TACAN"},
{"type":"NDB","hdg_t":315.3,"dist_nm":53.9,"freq":269,"lat":29.67002778,"lon":-82.17213889,"rng_nm":50,"alt_fmsl":0,"id":"GN","desc":"WYNDS NDB"},
{"type":"VOR","hdg_t":6.2,"dist_nm":55.7,"freq":109.4,"lat":29.95672222,"lon":-81.33022222,"rng_nm":25,"alt_fmsl":6,"id":"SGJ","desc":"ST AUGUSTINE VOR-DME"},
{"type":"NDB","hdg_t":135.6,"dist_nm":57.4,"freq":247,"lat":28.34077778,"lon":-80.68844444,"rng_nm":50,"alt_fmsl":0,"id":"COI","desc":"MERRITT ISLAND NDB"},
{"type":"VOR","hdg_t":312.6,"dist_nm":58.6,"freq":116.2,"lat":29.69211111,"lon":-82.27297222,"rng_nm":40,"alt_fmsl":128,"id":"GNV","desc":"GATORS VORTAC"},
{"type":"NDB","hdg_t":218.1,"dist_nm":60.9,"freq":253,"lat":28.22708333,"lon":-82.15705556,"rng_nm":50,"alt_fmsl":0,"id":"RHZ","desc":"ZEPHYRHILLS NDB"},
{"type":"SDME","hdg_t":136.8,"dist_nm":64.7,"freq":115,"lat":28.23768300,"lon":-80.61176100,"rng_nm":25,"alt_fmsl":10,"id":"COF","desc":"PATRICK TACAN"},
{"type":"NDB","hdg_t":144.5,"dist_nm":68.2,"freq":257,"lat":28.09947222,"lon":-80.70080556,"rng_nm":50,"alt_fmsl":0,"id":"SQT","desc":"SATELLITE NDB"},
{"type":"VOR","hdg_t":205.7,"dist_nm":69.2,"freq":116,"lat":27.98619444,"lon":-82.01388889,"rng_nm":130,"alt_fmsl":135,"id":"LAL","desc":"LAKELAND VORTAC"},
{"type":"VOR","hdg_t":142,"dist_nm":70,"freq":110,"lat":28.10527778,"lon":-80.63533333,"rng_nm":40,"alt_fmsl":30,"id":"MLB","desc":"MELBOURNE VOR-DME"},
{"type":"SDME","hdg_t":350.6,"dist_nm":73,"freq":108.2,"lat":30.23486700,"lon":-81.67506700,"rng_nm":40,"alt_fmsl":20,"id":"NIP","desc":"JACKSONVILLE TACAN"},
{"type":"NDB","hdg_t":207,"dist_nm":73.4,"freq":227,"lat":27.93538889,"lon":-82.07580556,"rng_nm":50,"alt_fmsl":0,"id":"LA","desc":"WIREY NDB"},
{"type":"VOR","hdg_t":341.9,"dist_nm":74.4,"freq":117.9,"lat":30.21300000,"lon":-81.89088889,"rng_nm":130,"alt_fmsl":0,"id":"VQQ","desc":"CECIL VOR"},
{"type":"VOR","hdg_t":357.6,"dist_nm":78.3,"freq":114.5,"lat":30.33888889,"lon":-81.50991667,"rng_nm":130,"alt_fmsl":42,"id":"CRG","desc":"CRAIG VORTAC"},
{"type":"NDB","hdg_t":225.4,"dist_nm":80.2,"freq":368,"lat":28.08527778,"lon":-82.52525000,"rng_nm":50,"alt_fmsl":0,"id":"TP","desc":"COSME NDB"},
{"type":"SDME","hdg_t":0.8,"dist_nm":81.3,"freq":111.4,"lat":30.38861100,"lon":-81.42308100,"rng_nm":40,"alt_fmsl":9,"id":"NRB","desc":"MAYPORT TACAN"},
{"type":"NDB","hdg_t":354.2,"dist_nm":83.8,"freq":357,"lat":30.42361111,"lon":-81.60938889,"rng_nm":50,"alt_fmsl":0,"id":"EYA","desc":"EASTPORT NDB"},
{"type":"NDB","hdg_t":347.9,"dist_nm":87.8,"freq":344,"lat":30.46502778,"lon":-81.80163889,"rng_nm":50,"alt_fmsl":0,"id":"JA","desc":"DINNS (LOM/NDB) NDB"},
{"type":"SDME","hdg_t":219.1,"dist_nm":89.8,"freq":111,"lat":27.86115300,"lon":-82.51350300,"rng_nm":40,"alt_fmsl":14,"id":"MCF","desc":"MACDILL TACAN"},
{"type":"VOR","hdg_t":292.4,"dist_nm":90.6,"freq":112,"lat":29.59902778,"lon":-83.04872222,"rng_nm":40,"alt_fmsl":30,"id":"CTY","desc":"CROSS CITY VORTAC"},
{"type":"NDB","hdg_t":227.3,"dist_nm":90.8,"freq":360,"lat":27.99511111,"lon":-82.70386111,"rng_nm":50,"alt_fmsl":0,"id":"PI","desc":"CAPOK NDB"},
{"type":"NDB","hdg_t":219.9,"dist_nm":90.9,"freq":388,"lat":27.86119444,"lon":-82.54580556,"rng_nm":50,"alt_fmsl":0,"id":"AM","desc":"PICNY (LOM/NDB) NDB"},
{"type":"NDB","hdg_t":319.7,"dist_nm":91,"freq":204,"lat":30.18533333,"lon":-82.57858333,"rng_nm":50,"alt_fmsl":0,"id":"LCQ","desc":"LAKE CITY NDB"},
{"type":"VOR","hdg_t":224.5,"dist_nm":93.7,"freq":116.4,"lat":27.90777778,"lon":-82.68430556,"rng_nm":130,"alt_fmsl":9,"id":"PIE","desc":"ST PETERSBURG VORTAC"},
{"type":"NDB","hdg_t":194.3,"dist_nm":93.8,"freq":261,"lat":27.51000000,"lon":-81.88333300,"rng_nm":25,"alt_fmsl":104,"id":"CHN","desc":"WAUCHULA NDB"},
{"type":"VOR","hdg_t":147.7,"dist_nm":95.4,"freq":117.3,"lat":27.67841667,"lon":-80.48972222,"rng_nm":130,"alt_fmsl":11,"id":"VRB","desc":"VERO BEACH VORTAC"}
]
}
