{"success":true,"source":"xp2csv.pl","last_updated":"2013/11/08 14:53:21 UTC"
,"icao":"FD88","name":"Aero Acres","lat":27.34198694,"lon":-80.52199889,"rwys":1,"ils":0,"index":1629521,"path":"w090n20/w081n27"
,"runways":[
{"len_m":962,"wid_m":50.29,"hdg":87,"surf":"Turf/grass","rwy1":"09","lat1":27.34176084,"lon1":-80.52685577,"rwy2":"27","lat2":27.34221304,"lon2":-80.51714201}
]
,"navaids":[
{"type":"NDB","hdg_t":15.3,"dist_nm":9.6,"freq":338,"lat":27.49691667,"lon":-80.47427778,"rng_nm":50,"alt_fmsl":0,"id":"FJ","desc":"LUUCE NDB"},
{"type":"NDB","hdg_t":42.4,"dist_nm":11.7,"freq":275,"lat":27.48672222,"lon":-80.37327778,"rng_nm":50,"alt_fmsl":0,"id":"FPR","desc":"FORT PIERCE NDB"},
{"type":"VOR","hdg_t":4.8,"dist_nm":20.2,"freq":117.3,"lat":27.67841667,"lon":-80.48972222,"rng_nm":130,"alt_fmsl":11,"id":"VRB","desc":"VERO BEACH VORTAC"},
{"type":"NDB","hdg_t":158.8,"dist_nm":27.7,"freq":405,"lat":26.90897222,"lon":-80.33505556,"rng_nm":50,"alt_fmsl":0,"id":"UTX","desc":"UNITED NDB"},
{"type":"DME","hdg_t":151.7,"dist_nm":33.8,"freq":110.75,"lat":26.84356853,"lon":-80.22387209,"rng_nm":18,"alt_fmsl":22,"id":"IGHO","desc":"F45 08R DME-ILS"},
{"type":"VOR","hdg_t":195.2,"dist_nm":34.6,"freq":115.4,"lat":26.78275000,"lon":-80.69144444,"rng_nm":130,"alt_fmsl":16,"id":"PHK","desc":"PAHOKEE VORTAC"},
{"type":"VOR","hdg_t":149.3,"dist_nm":45.9,"freq":115.7,"lat":26.68005556,"lon":-80.08650000,"rng_nm":130,"alt_fmsl":16,"id":"PBI","desc":"PALM BEACH VORTAC"},
{"type":"VOR","hdg_t":352.4,"dist_nm":46,"freq":110,"lat":28.10527778,"lon":-80.63533333,"rng_nm":40,"alt_fmsl":30,"id":"MLB","desc":"MELBOURNE VOR-DME"},
{"type":"NDB","hdg_t":348.1,"dist_nm":46.3,"freq":257,"lat":28.09947222,"lon":-80.70080556,"rng_nm":50,"alt_fmsl":0,"id":"SQT","desc":"SATELLITE NDB"},
{"type":"SDME","hdg_t":354.9,"dist_nm":53.8,"freq":115,"lat":28.23768300,"lon":-80.61176100,"rng_nm":25,"alt_fmsl":10,"id":"COF","desc":"PATRICK TACAN"},
{"type":"VOR","hdg_t":236.7,"dist_nm":55.7,"freq":110.4,"lat":26.82816667,"lon":-81.39144444,"rng_nm":40,"alt_fmsl":30,"id":"LBV","desc":"LA BELLE VORTAC"},
{"type":"NDB","hdg_t":351.6,"dist_nm":60.4,"freq":247,"lat":28.34077778,"lon":-80.68844444,"rng_nm":50,"alt_fmsl":0,"id":"COI","desc":"MERRITT ISLAND NDB"},
{"type":"NDB","hdg_t":170.1,"dist_nm":70.2,"freq":221,"lat":26.18563889,"lon":-80.29850000,"rng_nm":50,"alt_fmsl":0,"id":"FX","desc":"PRAIZ NDB"},
{"type":"NDB","hdg_t":278.1,"dist_nm":73.3,"freq":261,"lat":27.51000000,"lon":-81.88333300,"rng_nm":25,"alt_fmsl":104,"id":"CHN","desc":"WAUCHULA NDB"},
{"type":"SDME","hdg_t":353.1,"dist_nm":77.3,"freq":112.25,"lat":28.62616700,"lon":-80.69583300,"rng_nm":130,"alt_fmsl":57,"id":"TTS","desc":"KENNEDY SPACE CENTER TACAN"},
{"type":"VOR","hdg_t":165.6,"dist_nm":78.2,"freq":116.5,"lat":26.07416667,"lon":-80.16297222,"rng_nm":130,"alt_fmsl":12,"id":"FLL","desc":"FORT LAUDERDALE VOR-DME"},
{"type":"VOR","hdg_t":252.4,"dist_nm":82.6,"freq":110.2,"lat":26.91677778,"lon":-81.99125000,"rng_nm":25,"alt_fmsl":0,"id":"PGD","desc":"PUNTA GORDA VOR"},
{"type":"VOR","hdg_t":234.4,"dist_nm":82.9,"freq":111.8,"lat":26.52988889,"lon":-81.77577778,"rng_nm":40,"alt_fmsl":25,"id":"RSW","desc":"LEE CO VORTAC"},
{"type":"VOR","hdg_t":329.1,"dist_nm":83.8,"freq":112.2,"lat":28.54272222,"lon":-81.33502778,"rng_nm":130,"alt_fmsl":102,"id":"ORL","desc":"ORLANDO VORTAC"},
{"type":"NDB","hdg_t":325.3,"dist_nm":84.8,"freq":221,"lat":28.50683333,"lon":-81.43391667,"rng_nm":50,"alt_fmsl":0,"id":"OR","desc":"HERNY (LOM) NDB"},
{"type":"NDB","hdg_t":234.2,"dist_nm":87.1,"freq":336,"lat":26.48433333,"lon":-81.83461111,"rng_nm":50,"alt_fmsl":0,"id":"RS","desc":"MUFFE NDB"},
{"type":"VOR","hdg_t":296.2,"dist_nm":88.3,"freq":116,"lat":27.98619444,"lon":-82.01388889,"rng_nm":130,"alt_fmsl":135,"id":"LAL","desc":"LAKELAND VORTAC"},
{"type":"NDB","hdg_t":293.5,"dist_nm":90,"freq":227,"lat":27.93538889,"lon":-82.07580556,"rng_nm":50,"alt_fmsl":0,"id":"LA","desc":"WIREY NDB"},
{"type":"NDB","hdg_t":237.4,"dist_nm":91.1,"freq":341,"lat":26.51613889,"lon":-81.95027778,"rng_nm":50,"alt_fmsl":0,"id":"FM","desc":"CALOO NDB"},
{"type":"NDB","hdg_t":196.6,"dist_nm":92.3,"freq":227,"lat":25.86183333,"lon":-81.01102778,"rng_nm":50,"alt_fmsl":0,"id":"TN","desc":"MONRY NDB"},
{"type":"VOR","hdg_t":174.2,"dist_nm":92.7,"freq":113.9,"lat":25.79997222,"lon":-80.34902778,"rng_nm":130,"alt_fmsl":7,"id":"DHP","desc":"DOLPHIN VORTAC"},
{"type":"NDB","hdg_t":169.1,"dist_nm":94.4,"freq":248,"lat":25.79069444,"lon":-80.19419444,"rng_nm":50,"alt_fmsl":0,"id":"MI","desc":"KEYES NDB"},
{"type":"NDB","hdg_t":336.2,"dist_nm":94.4,"freq":408,"lat":28.78494444,"lon":-81.24333333,"rng_nm":50,"alt_fmsl":0,"id":"SFB","desc":"SANFORD NDB"},
{"type":"VOR","hdg_t":168.1,"dist_nm":97.1,"freq":117.1,"lat":25.75188889,"lon":-80.15444444,"rng_nm":130,"alt_fmsl":12,"id":"VKZ","desc":"VIRGINIA KEY VOR-DME"},
{"type":"VOR","hdg_t":223.7,"dist_nm":98,"freq":108.6,"lat":26.15341667,"lon":-81.77811111,"rng_nm":25,"alt_fmsl":10,"id":"CYY","desc":"CYPRESS VOR-DME"}
]
}
