{"success":true,"source":"xp2csv.pl","last_updated":"2013/11/08 14:53:21 UTC"
,"icao":"FK2","name":"Bashaw","lat":52.554489,"lon":-112.958801,"rwys":1,"ils":0,"index":1106848,"path":"w120n50/w113n52"
,"runways":[
{"len_m":902,"wid_m":22.86,"hdg":119,"surf":"Turf/grass","rwy1":"10","lat1":52.55651195,"lon1":-112.96456385,"rwy2":"28","lat2":52.55246605,"lon2":-112.95303815}
]
,"navaids":[
{"type":"NDB","hdg_t":153,"dist_nm":16.5,"freq":286,"lat":52.30833300,"lon":-112.75444400,"rng_nm":25,"alt_fmsl":2700,"id":"8G","desc":"STETTLER NDB-DME"},
{"type":"SDME","hdg_t":152.8,"dist_nm":16.5,"freq":108.4,"lat":52.30861100,"lon":-112.75361100,"rng_nm":25,"alt_fmsl":2700,"id":"8G","desc":"STETTLER NDB-DME"},
{"type":"NDB","hdg_t":288.3,"dist_nm":24.9,"freq":363,"lat":52.68333300,"lon":-113.60638900,"rng_nm":25,"alt_fmsl":0,"id":"D3","desc":"PONOKA INDUS NDB"},
{"type":"NDB","hdg_t":10.4,"dist_nm":29.1,"freq":405,"lat":53.03222200,"lon":-112.81333300,"rng_nm":50,"alt_fmsl":2426,"id":"2K","desc":"CAMROSE NDB"},
{"type":"SDME","hdg_t":10.3,"dist_nm":29.2,"freq":108.2,"lat":53.03277800,"lon":-112.81444400,"rng_nm":25,"alt_fmsl":2449,"id":"2K","desc":"CAMROSE DME"},
{"type":"NDB","hdg_t":326.4,"dist_nm":29.7,"freq":334,"lat":52.96694400,"lon":-113.41194400,"rng_nm":50,"alt_fmsl":2540,"id":"P2","desc":"WETASKIWIN NDB-DME"},
{"type":"SDME","hdg_t":326.4,"dist_nm":29.7,"freq":112.7,"lat":52.96694400,"lon":-113.41194400,"rng_nm":50,"alt_fmsl":2540,"id":"P2","desc":"WETASKIWIN NDB-DME"},
{"type":"NDB","hdg_t":87.2,"dist_nm":31.9,"freq":261,"lat":52.57638900,"lon":-112.08611100,"rng_nm":25,"alt_fmsl":2352,"id":"7J","desc":"FORESTBURG NDB"},
{"type":"SDME","hdg_t":236.9,"dist_nm":40.7,"freq":111.6,"lat":52.18116700,"lon":-113.88261100,"rng_nm":25,"alt_fmsl":2985,"id":"6G","desc":"RED DEER DME"},
{"type":"NDB","hdg_t":233.8,"dist_nm":43,"freq":320,"lat":52.12833333,"lon":-113.89944444,"rng_nm":50,"alt_fmsl":0,"id":"YQF","desc":"RED DEER NDB"},
{"type":"NDB","hdg_t":335.2,"dist_nm":45.6,"freq":215,"lat":53.24305600,"lon":-113.48944400,"rng_nm":25,"alt_fmsl":0,"id":"ZAB","desc":"LEDUC NDB"},
{"type":"NDB","hdg_t":329,"dist_nm":49.2,"freq":308,"lat":53.25500000,"lon":-113.66000000,"rng_nm":25,"alt_fmsl":0,"id":"ZZD","desc":"CALMAR NDB"},
{"type":"VOR","hdg_t":319.3,"dist_nm":50.2,"freq":117.6,"lat":53.18555556,"lon":-113.86686111,"rng_nm":130,"alt_fmsl":2557,"id":"YEG","desc":"EDMONTON VOR-DME"},
{"type":"NDB","hdg_t":190.5,"dist_nm":52.3,"freq":305,"lat":51.69722200,"lon":-113.21666700,"rng_nm":25,"alt_fmsl":2975,"id":"Z1","desc":"THREE HILLS NDB"},
{"type":"NDB","hdg_t":339.1,"dist_nm":54.1,"freq":379,"lat":53.39527800,"lon":-113.49500000,"rng_nm":25,"alt_fmsl":0,"id":"ZEG","desc":"NISKU NDB"},
{"type":"NDB","hdg_t":331.9,"dist_nm":54.5,"freq":292,"lat":53.35333300,"lon":-113.67250000,"rng_nm":25,"alt_fmsl":0,"id":"ZET","desc":"DEVON NDB"},
{"type":"NDB","hdg_t":340.7,"dist_nm":60.2,"freq":201,"lat":53.49944400,"lon":-113.51277800,"rng_nm":25,"alt_fmsl":0,"id":"ZXD","desc":"BLATCHFORD NDB"},
{"type":"NDB","hdg_t":116.8,"dist_nm":62.6,"freq":328,"lat":52.07444400,"lon":-111.44833300,"rng_nm":75,"alt_fmsl":2595,"id":"5J","desc":"CORONATION NDB"},
{"type":"NDB","hdg_t":172.9,"dist_nm":63.6,"freq":395,"lat":51.50250000,"lon":-112.75083300,"rng_nm":50,"alt_fmsl":2625,"id":"5V","desc":"DRUMHELLER NDB-DME"},
{"type":"SDME","hdg_t":172.9,"dist_nm":63.7,"freq":110,"lat":51.50166700,"lon":-112.75083300,"rng_nm":50,"alt_fmsl":2625,"id":"5V","desc":"DRUMHELLER NDB-DME"},
{"type":"SDME","hdg_t":342,"dist_nm":64.1,"freq":109.5,"lat":53.56888900,"lon":-113.51111100,"rng_nm":25,"alt_fmsl":2200,"id":"IXD","desc":"EDMONTON MUNI DME"},
{"type":"NDB","hdg_t":220.4,"dist_nm":66.1,"freq":376,"lat":51.71027800,"lon":-114.10861100,"rng_nm":25,"alt_fmsl":3360,"id":"K2","desc":"OLDS-DIDSBURY NDB"},
{"type":"NDB","hdg_t":144.4,"dist_nm":68,"freq":221,"lat":51.62777800,"lon":-111.90083300,"rng_nm":25,"alt_fmsl":2738,"id":"9A","desc":"HANNA NDB"},
{"type":"NDB","hdg_t":343.1,"dist_nm":68.4,"freq":266,"lat":53.64361111,"lon":-113.51305556,"rng_nm":50,"alt_fmsl":0,"id":"XD","desc":"EDMONTON NDB"},
{"type":"NDB","hdg_t":234.5,"dist_nm":78.8,"freq":405,"lat":51.78000000,"lon":-114.68333300,"rng_nm":50,"alt_fmsl":3656,"id":"9G","desc":"SUNDRE NDB"},
{"type":"VOR","hdg_t":70.8,"dist_nm":81.5,"freq":114.5,"lat":52.98138889,"lon":-110.83333333,"rng_nm":130,"alt_fmsl":2230,"id":"YWV","desc":"WAINWRIGHT VOR-DME"},
{"type":"NDB","hdg_t":301.3,"dist_nm":84.1,"freq":385,"lat":53.26638900,"lon":-114.95500000,"rng_nm":25,"alt_fmsl":2785,"id":"3M","desc":"DRAYTON VALLEY INDUSTRIAL NDB-DME"},
{"type":"SDME","hdg_t":301.3,"dist_nm":84.3,"freq":110.6,"lat":53.26805600,"lon":-114.95722200,"rng_nm":25,"alt_fmsl":2785,"id":"3M","desc":"DRAYTON VALLEY INDUSTRIAL NDB-DME"},
{"type":"VOR","hdg_t":268.8,"dist_nm":86.7,"freq":114.3,"lat":52.50219444,"lon":-115.32355556,"rng_nm":130,"alt_fmsl":3526,"id":"YRM","desc":"ROCKY MOUNTAIN VOR-DME"},
{"type":"NDB","hdg_t":110.5,"dist_nm":87.5,"freq":276,"lat":52.02277800,"lon":-110.74555600,"rng_nm":50,"alt_fmsl":2499,"id":"3H","desc":"CONSORT NDB"},
{"type":"NDB","hdg_t":206.2,"dist_nm":90.6,"freq":254,"lat":51.19638900,"lon":-114.02138900,"rng_nm":25,"alt_fmsl":0,"id":"ZYC","desc":"SARCEE NDB"},
{"type":"NDB","hdg_t":58.1,"dist_nm":91.5,"freq":230,"lat":53.33794444,"lon":-110.79655556,"rng_nm":50,"alt_fmsl":0,"id":"VG","desc":"VERMILION NDB"},
{"type":"VOR","hdg_t":202,"dist_nm":93,"freq":116.7,"lat":51.11505556,"lon":-113.88208333,"rng_nm":130,"alt_fmsl":3566,"id":"YYC","desc":"CALGARY VOR-DME"},
{"type":"NDB","hdg_t":202.1,"dist_nm":95.3,"freq":344,"lat":51.08083333,"lon":-113.90888889,"rng_nm":50,"alt_fmsl":0,"id":"YC","desc":"CALGARY NDB"},
{"type":"SDME","hdg_t":204.7,"dist_nm":95.9,"freq":111.5,"lat":51.09924200,"lon":-114.02309400,"rng_nm":25,"alt_fmsl":3551,"id":"IYC","desc":"CALGARY DME"},
{"type":"NDB","hdg_t":96.6,"dist_nm":99.4,"freq":208,"lat":52.33277800,"lon":-110.27305600,"rng_nm":25,"alt_fmsl":2216,"id":"8J","desc":"PROVOST NDB"},
{"type":"SDME","hdg_t":96.6,"dist_nm":99.4,"freq":109,"lat":52.33361100,"lon":-110.27333300,"rng_nm":25,"alt_fmsl":2216,"id":"8J","desc":"PROVOST DME"},
{"type":"NDB","hdg_t":343.7,"dist_nm":99.5,"freq":236,"lat":54.14305600,"lon":-113.74805600,"rng_nm":25,"alt_fmsl":2230,"id":"9Z","desc":"WESTLOCK NDB-DME"},
{"type":"NDB","hdg_t":203.8,"dist_nm":99.6,"freq":233,"lat":51.03305600,"lon":-114.02111100,"rng_nm":25,"alt_fmsl":0,"id":"ZCA","desc":"BLACKFOOT NDB"},
{"type":"SDME","hdg_t":343.7,"dist_nm":99.6,"freq":108.8,"lat":54.14305600,"lon":-113.74916700,"rng_nm":25,"alt_fmsl":2230,"id":"9Z","desc":"WESTLOCK NDB-DME"}
]
}
