{"success":true,"source":"xp2csv.pl","last_updated":"2013/11/08 14:53:21 UTC"
,"icao":"FK4","name":"Calling Lake","lat":55.316689,"lon":-113.250008,"rwys":1,"ils":0,"index":1090642,"path":"w120n50/w114n55"
,"runways":[
{"len_m":902,"wid_m":23.77,"hdg":120,"surf":"Turf/grass","rwy1":"10","lat1":55.31877279,"lon1":-113.25610249,"rwy2":"28","lat2":55.31460521,"lon2":-113.24391351}
]
,"navaids":[
{"type":"NDB","hdg_t":177.1,"dist_nm":34.8,"freq":329,"lat":54.73750000,"lon":-113.20027800,"rng_nm":50,"alt_fmsl":1990,"id":"X2","desc":"ATHABASCA NDB-DME"},
{"type":"SDME","hdg_t":177.1,"dist_nm":34.8,"freq":108.6,"lat":54.73722200,"lon":-113.20000000,"rng_nm":50,"alt_fmsl":1990,"id":"X2","desc":"ATHABASCA NDB-DME"},
{"type":"SDME","hdg_t":333.6,"dist_nm":43.4,"freq":110.4,"lat":55.96333300,"lon":-113.82333300,"rng_nm":50,"alt_fmsl":1840,"id":"E3","desc":"WABASCA NDB-DME"},
{"type":"NDB","hdg_t":333.6,"dist_nm":43.5,"freq":361,"lat":55.96361100,"lon":-113.82361100,"rng_nm":50,"alt_fmsl":1840,"id":"E3","desc":"WABASCA NDB-DME"},
{"type":"NDB","hdg_t":269.4,"dist_nm":52.2,"freq":343,"lat":55.29833333,"lon":-114.77305556,"rng_nm":50,"alt_fmsl":0,"id":"YZH","desc":"SLAVE LAKE NDB"},
{"type":"SDME","hdg_t":269.1,"dist_nm":52.3,"freq":111,"lat":55.29444400,"lon":-114.77638900,"rng_nm":25,"alt_fmsl":1935,"id":"Y5","desc":"SLAVE LAKE DME"},
{"type":"NDB","hdg_t":127.5,"dist_nm":54.6,"freq":272,"lat":54.75666700,"lon":-112.00333300,"rng_nm":25,"alt_fmsl":0,"id":"YLB","desc":"LAC LA BICHE NDB"},
{"type":"NDB","hdg_t":194,"dist_nm":72.6,"freq":236,"lat":54.14305600,"lon":-113.74805600,"rng_nm":25,"alt_fmsl":2230,"id":"9Z","desc":"WESTLOCK NDB-DME"},
{"type":"SDME","hdg_t":194,"dist_nm":72.6,"freq":108.8,"lat":54.14305600,"lon":-113.74916700,"rng_nm":25,"alt_fmsl":2230,"id":"9Z","desc":"WESTLOCK NDB-DME"},
{"type":"NDB","hdg_t":243.7,"dist_nm":84.4,"freq":251,"lat":54.67500000,"lon":-115.42444400,"rng_nm":50,"alt_fmsl":3473,"id":"4O","desc":"SWAN HILLS NDB"},
{"type":"NDB","hdg_t":87.4,"dist_nm":89.8,"freq":283,"lat":55.35555600,"lon":-110.62972200,"rng_nm":50,"alt_fmsl":2245,"id":"W2","desc":"KIRBY NDB"}
]
}
