{"success":true,"source":"xp2csv.pl","last_updated":"2013/11/08 14:53:21 UTC"
,"icao":"FKKR","name":"Garoua","lat":9.33589,"lon":13.370103,"rwys":1,"ils":0,"index":3168466,"path":"e010n00/e013n09"
,"runways":[
{"len_m":3362,"wid_m":45.11,"hdg":86,"surf":"Asphalt","rwy1":"09","lat1":9.33489700,"lon1":13.35483100,"rwy2":"27","lat2":9.33688300,"lon2":13.38537500}
]
,"radios":[
{"type":"TWR","freq":118.3,"desc":"TWR"},
{"type":"TWR","freq":120,"desc":"TWR"}
]
,"navaids":[
{"type":"NDB","hdg_t":86.1,"dist_nm":1.5,"freq":302,"lat":9.33758300,"lon":13.39541700,"rng_nm":50,"alt_fmsl":0,"id":"TJR","desc":"GAROUA NDB"},
{"type":"VOR","hdg_t":266.5,"dist_nm":1.5,"freq":112.3,"lat":9.33436100,"lon":13.34455600,"rng_nm":130,"alt_fmsl":794,"id":"TJR","desc":"GAROUA VOR-DME"},
{"type":"NDB","hdg_t":266.4,"dist_nm":4.7,"freq":263,"lat":9.33094400,"lon":13.29088900,"rng_nm":25,"alt_fmsl":844,"id":"GRO","desc":"GAROUA NDB"},
{"type":"NDB","hdg_t":265.8,"dist_nm":55.7,"freq":336,"lat":9.26691400,"lon":12.43268600,"rng_nm":50,"alt_fmsl":0,"id":"YL","desc":"YOLA NDB"},
{"type":"VOR","hdg_t":267.4,"dist_nm":56.1,"freq":115.5,"lat":9.29210600,"lon":12.42471400,"rng_nm":130,"alt_fmsl":599,"id":"YOL","desc":"YOLA VOR-DME"},
{"type":"NDB","hdg_t":54.3,"dist_nm":78.1,"freq":257,"lat":10.09600600,"lon":14.44327500,"rng_nm":25,"alt_fmsl":1296,"id":"TJP","desc":"KAELE NDB"},
{"type":"NDB","hdg_t":37.4,"dist_nm":84.8,"freq":364,"lat":10.46224400,"lon":14.24406100,"rng_nm":50,"alt_fmsl":1440,"id":"TJL","desc":"MAROUA/SALAK NDB"},
{"type":"NDB","hdg_t":174.4,"dist_nm":118.7,"freq":295,"lat":7.35605000,"lon":13.56201900,"rng_nm":50,"alt_fmsl":3652,"id":"TJN","desc":"NGAOUNDERE NDB"},
{"type":"VOR","hdg_t":174.9,"dist_nm":120.2,"freq":112.7,"lat":7.33006900,"lon":13.54816400,"rng_nm":130,"alt_fmsl":3652,"id":"TJN","desc":"NGAOUNDERE VOR"},
{"type":"NDB","hdg_t":353.1,"dist_nm":150.5,"freq":332,"lat":11.83818900,"lon":13.06288900,"rng_nm":25,"alt_fmsl":1145,"id":"MA","desc":"MAIDUGURI NDB"}
]
}
