{"success":true,"source":"xp2csv.pl","last_updated":"2013/11/08 14:53:21 UTC"
,"icao":"FKYS","name":"Yaounde Nsimalen","lat":3.722554,"lon":11.5532695,"rwys":1,"ils":0,"index":3135340,"path":"e010n00/e011n03"
,"runways":[
{"len_m":3400,"wid_m":45.11,"hdg":9,"surf":"Asphalt","rwy1":"01","lat1":3.70740800,"lon1":11.55062800,"rwy2":"19","lat2":3.73770000,"lon2":11.55591100}
]
,"radios":[
{"type":"TWR","freq":119.1,"desc":"TWR"},
{"type":"APP","freq":121.3,"desc":"APP"}
]
,"navaids":[
{"type":"VOR","hdg_t":44.6,"dist_nm":0.2,"freq":115.7,"lat":3.72580600,"lon":11.55647200,"rng_nm":130,"alt_fmsl":2318,"id":"NLY","desc":"YAOUNDE NSIMALEN VOR-DME"},
{"type":"NDB","hdg_t":9.5,"dist_nm":1.4,"freq":368,"lat":3.74576100,"lon":11.55714200,"rng_nm":50,"alt_fmsl":0,"id":"YNS","desc":"YAOUNDE NSIMALEN NDB"},
{"type":"NDB","hdg_t":359.4,"dist_nm":10.6,"freq":287,"lat":3.90138900,"lon":11.55166700,"rng_nm":50,"alt_fmsl":0,"id":"YO","desc":"YAOUNDE NDB"},
{"type":"NDB","hdg_t":272.7,"dist_nm":84.9,"freq":362,"lat":3.79077800,"lon":10.13805600,"rng_nm":50,"alt_fmsl":0,"id":"DE","desc":"EDEA NDB"},
{"type":"NDB","hdg_t":182.4,"dist_nm":97.9,"freq":264,"lat":2.08351600,"lon":11.48232100,"rng_nm":50,"alt_fmsl":0,"id":"IM","desc":"BITAM NDB"},
{"type":"NDB","hdg_t":278.1,"dist_nm":107.1,"freq":398,"lat":3.97475000,"lon":9.78361100,"rng_nm":50,"alt_fmsl":126,"id":"YK","desc":"DOUALA NDB"},
{"type":"NDB","hdg_t":241.4,"dist_nm":108.1,"freq":335,"lat":2.85639200,"lon":9.96959700,"rng_nm":50,"alt_fmsl":0,"id":"KB","desc":"KRIBI NDB"},
{"type":"VOR","hdg_t":278.5,"dist_nm":109.7,"freq":112.9,"lat":3.99391700,"lon":9.74347200,"rng_nm":130,"alt_fmsl":39,"id":"DLA","desc":"DOUALA VOR-DME"},
{"type":"NDB","hdg_t":337.3,"dist_nm":124.3,"freq":330,"lat":5.64311100,"lon":10.75252800,"rng_nm":25,"alt_fmsl":0,"id":"TJM","desc":"FOUMBAN NKOUNJA NDB"},
{"type":"NDB","hdg_t":291.1,"dist_nm":127.5,"freq":284,"lat":4.49073600,"lon":9.56771400,"rng_nm":50,"alt_fmsl":0,"id":"TJJ","desc":"MBANGA NDB"}
]
}
