{"success":true,"source":"xp2csv.pl","last_updated":"2013/11/08 14:53:21 UTC"
,"icao":"FL05","name":"Hill Landing Strip","lat":30.17550972,"lon":-82.60651139,"rwys":1,"ils":0,"index":1596937,"path":"w090n30/w083n30"
,"runways":[
{"len_m":598,"wid_m":45.72,"hdg":78,"surf":"Turf/grass","rwy1":"08","lat1":30.17495140,"lon1":-82.60954983,"rwy2":"26","lat2":30.17606804,"lon2":-82.60347295}
]
,"navaids":[
{"type":"NDB","hdg_t":67.9,"dist_nm":1.5,"freq":204,"lat":30.18533333,"lon":-82.57858333,"rng_nm":50,"alt_fmsl":0,"id":"LCQ","desc":"LAKE CITY NDB"},
{"type":"VOR","hdg_t":8,"dist_nm":19.8,"freq":112.9,"lat":30.50463889,"lon":-82.55291667,"rng_nm":130,"alt_fmsl":140,"id":"TAY","desc":"TAYLOR VORTAC"},
{"type":"VOR","hdg_t":148.9,"dist_nm":33.7,"freq":116.2,"lat":29.69211111,"lon":-82.27297222,"rng_nm":40,"alt_fmsl":128,"id":"GNV","desc":"GATORS VORTAC"},
{"type":"VOR","hdg_t":86.3,"dist_nm":37.2,"freq":117.9,"lat":30.21300000,"lon":-81.89088889,"rng_nm":130,"alt_fmsl":0,"id":"VQQ","desc":"CECIL VOR"},
{"type":"NDB","hdg_t":143,"dist_nm":37.7,"freq":269,"lat":29.67002778,"lon":-82.17213889,"rng_nm":50,"alt_fmsl":0,"id":"GN","desc":"WYNDS NDB"},
{"type":"VOR","hdg_t":213.8,"dist_nm":41.5,"freq":112,"lat":29.59902778,"lon":-83.04872222,"rng_nm":40,"alt_fmsl":30,"id":"CTY","desc":"CROSS CITY VORTAC"},
{"type":"NDB","hdg_t":67.2,"dist_nm":45.2,"freq":344,"lat":30.46502778,"lon":-81.80163889,"rng_nm":50,"alt_fmsl":0,"id":"JA","desc":"DINNS (LOM/NDB) NDB"},
{"type":"SDME","hdg_t":85.5,"dist_nm":48.5,"freq":108.2,"lat":30.23486700,"lon":-81.67506700,"rng_nm":40,"alt_fmsl":20,"id":"NIP","desc":"JACKSONVILLE TACAN"},
{"type":"VOR","hdg_t":316.2,"dist_nm":50.2,"freq":114.8,"lat":30.78044444,"lon":-83.27972222,"rng_nm":130,"alt_fmsl":199,"id":"OTK","desc":"VALDOSTA VOR-DME"},
{"type":"NDB","hdg_t":126.8,"dist_nm":51.8,"freq":243,"lat":29.65350000,"lon":-81.81250000,"rng_nm":50,"alt_fmsl":0,"id":"IAK","desc":"PALATKA NDB"},
{"type":"NDB","hdg_t":350.7,"dist_nm":53.3,"freq":209,"lat":31.05550000,"lon":-82.77208333,"rng_nm":50,"alt_fmsl":0,"id":"HOE","desc":"HOMERVILLE NDB"},
{"type":"NDB","hdg_t":73.7,"dist_nm":53.8,"freq":357,"lat":30.42361111,"lon":-81.60938889,"rng_nm":50,"alt_fmsl":0,"id":"EYA","desc":"EASTPORT NDB"},
{"type":"VOR","hdg_t":79.9,"dist_nm":57.8,"freq":114.5,"lat":30.33888889,"lon":-81.50991667,"rng_nm":130,"alt_fmsl":42,"id":"CRG","desc":"CRAIG VORTAC"},
{"type":"SDME","hdg_t":77.9,"dist_nm":62.7,"freq":111.4,"lat":30.38861100,"lon":-81.42308100,"rng_nm":40,"alt_fmsl":9,"id":"NRB","desc":"MAYPORT TACAN"},
{"type":"VOR","hdg_t":161.5,"dist_nm":62.9,"freq":113.7,"lat":29.17747222,"lon":-82.22633333,"rng_nm":40,"alt_fmsl":80,"id":"OCF","desc":"OCALA REGIONAL/JI VORTAC"},
{"type":"VOR","hdg_t":290.5,"dist_nm":65,"freq":109,"lat":30.55133333,"lon":-83.78313889,"rng_nm":40,"alt_fmsl":220,"id":"GEF","desc":"GREENVILLE VORTAC"},
{"type":"VOR","hdg_t":2.2,"dist_nm":65.5,"freq":110.2,"lat":31.26941667,"lon":-82.55644444,"rng_nm":40,"alt_fmsl":155,"id":"AYS","desc":"WAYCROSS VORTAC"},
{"type":"VOR","hdg_t":100.8,"dist_nm":67.7,"freq":109.4,"lat":29.95672222,"lon":-81.33022222,"rng_nm":25,"alt_fmsl":6,"id":"SGJ","desc":"ST AUGUSTINE VOR-DME"},
{"type":"NDB","hdg_t":8.8,"dist_nm":69.6,"freq":219,"lat":31.32525000,"lon":-82.39708333,"rng_nm":50,"alt_fmsl":0,"id":"AY","desc":"WIKET NDB"},
{"type":"NDB","hdg_t":347.5,"dist_nm":75.3,"freq":390,"lat":31.40483333,"lon":-82.92375000,"rng_nm":50,"alt_fmsl":0,"id":"OWC","desc":"COFFEE CO NDB"},
{"type":"NDB","hdg_t":306.8,"dist_nm":78.6,"freq":245,"lat":30.95755556,"lon":-83.82666667,"rng_nm":50,"alt_fmsl":0,"id":"GTP","desc":"PATTEN NDB"},
{"type":"VOR","hdg_t":48.6,"dist_nm":79.7,"freq":109.8,"lat":31.05050000,"lon":-81.44591667,"rng_nm":40,"alt_fmsl":6,"id":"SSI","desc":"BRUNSWICK VORTAC"},
{"type":"VOR","hdg_t":3.5,"dist_nm":81.6,"freq":115.1,"lat":31.53652778,"lon":-82.50808333,"rng_nm":130,"alt_fmsl":200,"id":"AMG","desc":"ALMA VORTAC"},
{"type":"VOR","hdg_t":311.5,"dist_nm":82.4,"freq":108.8,"lat":31.08227778,"lon":-83.80422222,"rng_nm":40,"alt_fmsl":290,"id":"MGR","desc":"MOULTRIE VOR-DME"},
{"type":"NDB","hdg_t":328.8,"dist_nm":83.2,"freq":409,"lat":31.36327778,"lon":-83.44402778,"rng_nm":50,"alt_fmsl":0,"id":"TM","desc":"TIFTO NDB"},
{"type":"NDB","hdg_t":40.8,"dist_nm":83.6,"freq":275,"lat":31.22833333,"lon":-81.54272222,"rng_nm":50,"alt_fmsl":0,"id":"BQ","desc":"JEFFI NDB"},
{"type":"NDB","hdg_t":279,"dist_nm":85.6,"freq":332,"lat":30.39142200,"lon":-84.23568300,"rng_nm":25,"alt_fmsl":51,"id":"PL","desc":"PALEE NDB"},
{"type":"VOR","hdg_t":328.9,"dist_nm":87.7,"freq":112.5,"lat":31.42866667,"lon":-83.48886111,"rng_nm":25,"alt_fmsl":0,"id":"IFM","desc":"TIFT MYERS VOR"},
{"type":"NDB","hdg_t":24,"dist_nm":90.4,"freq":340,"lat":31.55252778,"lon":-81.88700000,"rng_nm":50,"alt_fmsl":0,"id":"JES","desc":"SLOVER NDB"},
{"type":"NDB","hdg_t":298.3,"dist_nm":91,"freq":338,"lat":30.88816667,"lon":-84.15933333,"rng_nm":50,"alt_fmsl":0,"id":"CYR","desc":"CAIDY NDB"},
{"type":"NDB","hdg_t":152.5,"dist_nm":91.3,"freq":335,"lat":28.81825000,"lon":-81.80725000,"rng_nm":50,"alt_fmsl":0,"id":"LEE","desc":"LEESBURG NDB"},
{"type":"NDB","hdg_t":276,"dist_nm":91.4,"freq":379,"lat":30.32619444,"lon":-84.35825000,"rng_nm":50,"alt_fmsl":0,"id":"TL","desc":"WAKUL NDB"},
{"type":"NDB","hdg_t":6.8,"dist_nm":92.6,"freq":376,"lat":31.71202778,"lon":-82.39016667,"rng_nm":50,"alt_fmsl":0,"id":"BHC","desc":"BAXLEY NDB"},
{"type":"NDB","hdg_t":337.8,"dist_nm":93,"freq":362,"lat":31.61297222,"lon":-83.29072222,"rng_nm":50,"alt_fmsl":0,"id":"SUR","desc":"FITZGERALD NDB"},
{"type":"VOR","hdg_t":123.4,"dist_nm":93.8,"freq":112.6,"lat":29.30325000,"lon":-81.11269444,"rng_nm":130,"alt_fmsl":19,"id":"OMN","desc":"ORMOND BEACH VORTAC"},
{"type":"VOR","hdg_t":284.3,"dist_nm":94.5,"freq":117.5,"lat":30.55622222,"lon":-84.37397222,"rng_nm":130,"alt_fmsl":180,"id":"SZW","desc":"SEMINOLE VORTAC"}
]
}
