{"success":true,"source":"xp2csv.pl","last_updated":"2013/11/08 14:53:21 UTC"
,"icao":"FMNC","name":"Avaratra","lat":-16.1639015,"lon":49.7737545,"rwys":1,"ils":0,"index":3756662,"path":"e040s20/e049s17"
,"runways":[
{"len_m":1259,"wid_m":24.99,"hdg":96,"surf":"Asphalt","rwy1":"11","lat1":-16.16325600,"lon1":49.76790300,"rwy2":"29","lat2":-16.16454700,"lon2":49.77960600}
]
,"radios":[
{"type":"TWR","freq":118.5,"desc":"A/G VOICE RDO"}
]
,"navaids":[
{"type":"NDB","hdg_t":353.1,"dist_nm":43.9,"freq":402,"lat":-15.43333300,"lon":49.68333300,"rng_nm":50,"alt_fmsl":0,"id":"VSL","desc":"MAROANTSETRA NDB"},
{"type":"NDB","hdg_t":177.4,"dist_nm":55.3,"freq":290,"lat":-17.08913900,"lon":49.81647200,"rng_nm":25,"alt_fmsl":0,"id":"SM","desc":"SAINTE MARIE NDB"},
{"type":"NDB","hdg_t":24.4,"dist_nm":76.4,"freq":321,"lat":-14.99891700,"lon":50.31791700,"rng_nm":50,"alt_fmsl":0,"id":"AH","desc":"ANTALAHA NDB"},
{"type":"NDB","hdg_t":191.2,"dist_nm":114.3,"freq":394,"lat":-18.04069400,"lon":49.38497200,"rng_nm":25,"alt_fmsl":0,"id":"TO","desc":"TOAMASINA NDB"},
{"type":"NDB","hdg_t":11.7,"dist_nm":115,"freq":376,"lat":-14.27869400,"lon":50.17719400,"rng_nm":50,"alt_fmsl":0,"id":"SA","desc":"SAMBAVA NDB"},
{"type":"NDB","hdg_t":190.7,"dist_nm":117.2,"freq":331,"lat":-18.09138900,"lon":49.39052800,"rng_nm":25,"alt_fmsl":0,"id":"MV","desc":"TOAMASINA NDB"},
{"type":"NDB","hdg_t":190.4,"dist_nm":118.7,"freq":358,"lat":-18.11802800,"lon":49.39716700,"rng_nm":50,"alt_fmsl":0,"id":"VSM","desc":"TOAMASINA NDB"},
{"type":"VOR","hdg_t":190.4,"dist_nm":119.1,"freq":113.1,"lat":-18.12425000,"lon":49.39425000,"rng_nm":130,"alt_fmsl":22,"id":"MT","desc":"TOAMASINA VOR"},
{"type":"NDB","hdg_t":305.9,"dist_nm":127.5,"freq":374,"lat":-14.90416700,"lon":47.99555600,"rng_nm":25,"alt_fmsl":0,"id":"AT","desc":"ANTSOHIHY NDB"},
{"type":"NDB","hdg_t":194.9,"dist_nm":163.5,"freq":267,"lat":-18.80589100,"lon":49.03179300,"rng_nm":50,"alt_fmsl":0,"id":"MMY","desc":"MAROMAMY NDB"}
]
}
