{"success":true,"source":"xp2csv.pl","last_updated":"2013/11/08 14:53:21 UTC"
,"icao":"FMNL","name":"Analalava","lat":-14.6296935,"lon":47.763785,"rwys":1,"ils":0,"index":3723990,"path":"e040s20/e047s15"
,"runways":[
{"len_m":1199,"wid_m":21.95,"hdg":100,"surf":"Asphalt","rwy1":"11","lat1":-14.62868100,"lon1":47.75831400,"rwy2":"29","lat2":-14.63070600,"lon2":47.76925600}
]
,"navaids":[
{"type":"NDB","hdg_t":140.6,"dist_nm":21.2,"freq":374,"lat":-14.90416700,"lon":47.99555600,"rng_nm":25,"alt_fmsl":0,"id":"AT","desc":"ANTSOHIHY NDB"},
{"type":"NDB","hdg_t":336.4,"dist_nm":70.2,"freq":335,"lat":-13.55149400,"lon":47.28374000,"rng_nm":100,"alt_fmsl":0,"id":"FXZ","desc":"GRANDE GLORIEUSE NDB"},
{"type":"NDB","hdg_t":22.2,"dist_nm":84.4,"freq":381,"lat":-13.31986100,"lon":48.31011100,"rng_nm":50,"alt_fmsl":0,"id":"VSN","desc":"FASCENE NDB"},
{"type":"VOR","hdg_t":22.4,"dist_nm":85.5,"freq":117.5,"lat":-13.30555600,"lon":48.32305600,"rng_nm":130,"alt_fmsl":36,"id":"NSB","desc":"FASCENE VOR-DME"},
{"type":"VOR","hdg_t":233.1,"dist_nm":102.9,"freq":112.1,"lat":-15.65750000,"lon":46.34066700,"rng_nm":130,"alt_fmsl":87,"id":"MG","desc":"PHILIBERT TSIRANANA VOR-DME"},
{"type":"NDB","hdg_t":232.7,"dist_nm":103.4,"freq":326,"lat":-15.67408300,"lon":46.34200000,"rng_nm":50,"alt_fmsl":0,"id":"VSJ","desc":"MAHAJANGA NDB"},
{"type":"NDB","hdg_t":113.5,"dist_nm":121.3,"freq":402,"lat":-15.43333300,"lon":49.68333300,"rng_nm":50,"alt_fmsl":0,"id":"VSL","desc":"MAROANTSETRA NDB"},
{"type":"NDB","hdg_t":81.8,"dist_nm":142,"freq":376,"lat":-14.27869400,"lon":50.17719400,"rng_nm":50,"alt_fmsl":0,"id":"SA","desc":"SAMBAVA NDB"},
{"type":"NDB","hdg_t":98.7,"dist_nm":150,"freq":321,"lat":-14.99891700,"lon":50.31791700,"rng_nm":50,"alt_fmsl":0,"id":"AH","desc":"ANTALAHA NDB"},
{"type":"NDB","hdg_t":33.3,"dist_nm":162.9,"freq":390,"lat":-12.34633300,"lon":49.28944400,"rng_nm":50,"alt_fmsl":0,"id":"DO","desc":"ARRACHART NDB"}
]
}
