{"success":true,"source":"xp2csv.pl","last_updated":"2013/11/08 14:53:21 UTC"
,"icao":"FMNZ","name":"Ampampamena","lat":-13.484815,"lon":48.6327375,"rwys":1,"ils":0,"index":3740453,"path":"e040s20/e048s14"
,"runways":[
{"len_m":1356,"wid_m":13.41,"hdg":140,"surf":"Asphalt","rwy1":"15","lat1":-13.48009700,"lon1":48.62873900,"rwy2":"33","lat2":-13.48953300,"lon2":48.63673600}
]
,"navaids":[
{"type":"VOR","hdg_t":300.5,"dist_nm":21,"freq":117.5,"lat":-13.30555600,"lon":48.32305600,"rng_nm":130,"alt_fmsl":36,"id":"NSB","desc":"FASCENE VOR-DME"},
{"type":"NDB","hdg_t":297.5,"dist_nm":21.2,"freq":381,"lat":-13.31986100,"lon":48.31011100,"rng_nm":50,"alt_fmsl":0,"id":"VSN","desc":"FASCENE NDB"},
{"type":"NDB","hdg_t":29.5,"dist_nm":78.1,"freq":390,"lat":-12.34633300,"lon":49.28944400,"rng_nm":50,"alt_fmsl":0,"id":"DO","desc":"ARRACHART NDB"},
{"type":"NDB","hdg_t":266.9,"dist_nm":78.9,"freq":335,"lat":-13.55149400,"lon":47.28374000,"rng_nm":100,"alt_fmsl":0,"id":"FXZ","desc":"GRANDE GLORIEUSE NDB"},
{"type":"NDB","hdg_t":203.5,"dist_nm":92.5,"freq":374,"lat":-14.90416700,"lon":47.99555600,"rng_nm":25,"alt_fmsl":0,"id":"AT","desc":"ANTSOHIHY NDB"},
{"type":"NDB","hdg_t":117.9,"dist_nm":101.8,"freq":376,"lat":-14.27869400,"lon":50.17719400,"rng_nm":50,"alt_fmsl":0,"id":"SA","desc":"SAMBAVA NDB"},
{"type":"NDB","hdg_t":152.4,"dist_nm":131.4,"freq":402,"lat":-15.43333300,"lon":49.68333300,"rng_nm":50,"alt_fmsl":0,"id":"VSL","desc":"MAROANTSETRA NDB"},
{"type":"NDB","hdg_t":132.8,"dist_nm":133.5,"freq":321,"lat":-14.99891700,"lon":50.31791700,"rng_nm":50,"alt_fmsl":0,"id":"AH","desc":"ANTALAHA NDB"},
{"type":"VOR","hdg_t":225.4,"dist_nm":186.1,"freq":112.1,"lat":-15.65750000,"lon":46.34066700,"rng_nm":130,"alt_fmsl":87,"id":"MG","desc":"PHILIBERT TSIRANANA VOR-DME"},
{"type":"NDB","hdg_t":225.2,"dist_nm":186.7,"freq":326,"lat":-15.67408300,"lon":46.34200000,"rng_nm":50,"alt_fmsl":0,"id":"VSJ","desc":"MAHAJANGA NDB"}
]
}
