{"success":true,"source":"xp2csv.pl","last_updated":"2013/11/08 14:53:21 UTC"
,"icao":"FVOT","name":"Kotwa","lat":-16.9848345,"lon":32.6726875,"rwys":1,"ils":0,"index":3478085,"path":"e030s20/e032s17"
,"runways":[
{"len_m":1094,"wid_m":17.07,"hdg":100,"surf":"Asphalt","rwy1":"11","lat1":-16.98395800,"lon1":32.66762800,"rwy2":"29","lat2":-16.98571100,"lon2":32.67774700}
]
,"navaids":[
{"type":"NDB","hdg_t":49.3,"dist_nm":73.5,"freq":340,"lat":-16.18069900,"lon":33.63868500,"rng_nm":200,"alt_fmsl":0,"id":"TZ","desc":"TETE CHINGODZI NDB"},
{"type":"VOR","hdg_t":47.5,"dist_nm":75.7,"freq":114.1,"lat":-16.12629500,"lon":33.64004000,"rng_nm":150,"alt_fmsl":0,"id":"VTZ","desc":"TETE CHINGODZI VOR"},
{"type":"NDB","hdg_t":3.6,"dist_nm":83.8,"freq":290,"lat":-15.58372200,"lon":32.76586100,"rng_nm":25,"alt_fmsl":0,"id":"SO","desc":"SONGO NDB"},
{"type":"NDB","hdg_t":248.1,"dist_nm":87.4,"freq":363,"lat":-17.52452800,"lon":31.25784700,"rng_nm":25,"alt_fmsl":0,"id":"KU","desc":"MAKUMBI NDB"},
{"type":"NDB","hdg_t":229.5,"dist_nm":100.1,"freq":284,"lat":-18.06731100,"lon":31.33928600,"rng_nm":25,"alt_fmsl":0,"id":"BZ","desc":"HARARE NDB"},
{"type":"VOR","hdg_t":238,"dist_nm":104.8,"freq":113.1,"lat":-17.90718300,"lon":31.11853900,"rng_nm":130,"alt_fmsl":4887,"id":"VSB","desc":"HARARE VOR-DME"},
{"type":"NDB","hdg_t":237.5,"dist_nm":108.6,"freq":330,"lat":-17.95376700,"lon":31.06989200,"rng_nm":25,"alt_fmsl":0,"id":"SI","desc":"HARARE NDB"},
{"type":"NDB","hdg_t":245.1,"dist_nm":110.1,"freq":414,"lat":-17.75138900,"lon":30.92663900,"rng_nm":25,"alt_fmsl":0,"id":"CP","desc":"CHARLES PRINCE NDB"},
{"type":"NDB","hdg_t":237.1,"dist_nm":111.9,"freq":346,"lat":-17.99427200,"lon":31.02756700,"rng_nm":25,"alt_fmsl":0,"id":"OL","desc":"HARARE NDB"},
{"type":"NDB","hdg_t":180.3,"dist_nm":116.8,"freq":405,"lat":-18.93944400,"lon":32.65944400,"rng_nm":50,"alt_fmsl":0,"id":"MU","desc":"MUTARE NDB"}
]
}
