{"success":true,"source":"xp2csv.pl","last_updated":"2013/11/08 14:53:21 UTC"
,"icao":"FVTL","name":"Gweru Thornhill","lat":-19.4368895,"lon":29.8616825,"rwys":2,"ils":0,"index":3428774,"path":"e020s20/e029s20"
,"runways":[
{"len_m":2671,"wid_m":30.48,"hdg":115,"surf":"Asphalt","rwy1":"13L","lat1":-19.43118300,"lon1":29.85043600,"rwy2":"31R","lat2":-19.44160300,"lon2":29.87338600},
{"len_m":2385,"wid_m":28.35,"hdg":115,"surf":"Asphalt","rwy1":"13R","lat1":-19.43273300,"lon1":29.85121100,"rwy2":"31L","lat2":-19.44203900,"lon2":29.87169700}
]
,"radios":[
{"type":"TWR","freq":123.5,"desc":"THORNHILL TWR"},
{"type":"APP","freq":126.5,"desc":"THORNHILL APP"}
]
,"navaids":[
{"type":"VOR","hdg_t":128.3,"dist_nm":0.2,"freq":114.3,"lat":-19.43916700,"lon":29.86472200,"rng_nm":100,"alt_fmsl":4725,"id":"VTL","desc":"GWERU THORNHILL VOR-DME"},
{"type":"NDB","hdg_t":277.5,"dist_nm":0.8,"freq":213,"lat":-19.43500000,"lon":29.84666700,"rng_nm":25,"alt_fmsl":0,"id":"TL","desc":"GWERU THORNHILL NDB"},
{"type":"NDB","hdg_t":296.4,"dist_nm":1.1,"freq":278,"lat":-19.42861100,"lon":29.84416700,"rng_nm":50,"alt_fmsl":0,"id":"TI","desc":"GWERU THORNHILL NDB"},
{"type":"NDB","hdg_t":297,"dist_nm":6.3,"freq":268,"lat":-19.38833300,"lon":29.76166700,"rng_nm":25,"alt_fmsl":0,"id":"TO","desc":"GWERU THORNHILL NDB"},
{"type":"NDB","hdg_t":353.8,"dist_nm":30.1,"freq":385,"lat":-18.93524000,"lon":29.80465600,"rng_nm":75,"alt_fmsl":0,"id":"RC","desc":"KWEKWE NDB"},
{"type":"NDB","hdg_t":255.9,"dist_nm":59.1,"freq":235,"lat":-19.67416700,"lon":28.84777800,"rng_nm":25,"alt_fmsl":0,"id":"YT","desc":"J M NKOMO NDB"},
{"type":"NDB","hdg_t":121.8,"dist_nm":65.3,"freq":317,"lat":-20.01019400,"lon":30.84386100,"rng_nm":50,"alt_fmsl":0,"id":"MS","desc":"MASVINGO NDB"},
{"type":"NDB","hdg_t":122.8,"dist_nm":66.9,"freq":353,"lat":-20.04166700,"lon":30.85666700,"rng_nm":10,"alt_fmsl":0,"id":"VI","desc":"MASVINGO NDB"},
{"type":"VOR","hdg_t":123.5,"dist_nm":67.2,"freq":115.1,"lat":-20.05677800,"lon":30.85361100,"rng_nm":130,"alt_fmsl":3600,"id":"VMV","desc":"MASVINGO VOR-DME"},
{"type":"NDB","hdg_t":225,"dist_nm":73.1,"freq":242,"lat":-20.29972200,"lon":28.94333300,"rng_nm":25,"alt_fmsl":0,"id":"SZ","desc":"J M NKOMO NDB"},
{"type":"VOR","hdg_t":242.6,"dist_nm":77.4,"freq":115.7,"lat":-20.02905600,"lon":28.64386100,"rng_nm":130,"alt_fmsl":4359,"id":"VBU","desc":"J M NKOMO VOR-DME"},
{"type":"NDB","hdg_t":244,"dist_nm":79,"freq":226,"lat":-20.01063900,"lon":28.60252800,"rng_nm":25,"alt_fmsl":0,"id":"IL","desc":"J M NKOMO NDB"},
{"type":"NDB","hdg_t":245.7,"dist_nm":81,"freq":205,"lat":-19.98830600,"lon":28.55391700,"rng_nm":25,"alt_fmsl":0,"id":"WO","desc":"J M NKOMO NDB"},
{"type":"VOR","hdg_t":324.3,"dist_nm":87.4,"freq":113.7,"lat":-18.24444400,"lon":28.96972200,"rng_nm":10,"alt_fmsl":4200,"id":"VGO","desc":"GOKWE VOR-DME"}
]
}
