{"success":true,"source":"xp2csv.pl","last_updated":"2013/11/08 14:53:21 UTC"
,"icao":"FY1P","name":"Hottentots Bay","lat":-26.1544,"lon":14.9528,"rwys":1,"ils":0,"index":3182579,"path":"e010s30/e014s27"
,"runways":[
{"len_m":1191,"wid_m":10.06,"hdg":9,"surf":"Transparent","rwy1":"01","lat1":-26.15970000,"lon1":14.95180000,"rwy2":"19","lat2":-26.14910000,"lon2":14.95380000}
]
,"navaids":[
{"type":"NDB","hdg_t":151.3,"dist_nm":168.5,"freq":317,"lat":-28.61888900,"lon":16.48000000,"rng_nm":250,"alt_fmsl":0,"id":"AB","desc":"ALEXANDER BAY NDB"},
{"type":"NDB","hdg_t":98.9,"dist_nm":171.5,"freq":395,"lat":-26.56617800,"lon":18.10309700,"rng_nm":100,"alt_fmsl":0,"id":"KT","desc":"KEETMANSHOOP NDB"},
{"type":"VOR","hdg_t":98.3,"dist_nm":171.8,"freq":112.9,"lat":-26.53741700,"lon":18.11362200,"rng_nm":100,"alt_fmsl":3507,"id":"KTV","desc":"KEETMANSHOOP VOR-DME"},
{"type":"VOR","hdg_t":354.8,"dist_nm":190.4,"freq":113.6,"lat":-22.98211100,"lon":14.64455600,"rng_nm":100,"alt_fmsl":312,"id":"WBV","desc":"WALVIS BAY VOR-DME"},
{"type":"NDB","hdg_t":354.6,"dist_nm":190.9,"freq":225,"lat":-22.97582500,"lon":14.63429700,"rng_nm":50,"alt_fmsl":0,"id":"WB","desc":"WALVIS BAY NDB"},
{"type":"NDB","hdg_t":0,"dist_nm":220.5,"freq":327,"lat":-22.46666700,"lon":14.95833300,"rng_nm":50,"alt_fmsl":0,"id":"AD","desc":"ARANDIS NDB"},
{"type":"NDB","hdg_t":151.8,"dist_nm":237.9,"freq":212,"lat":-29.64413100,"lon":17.09779700,"rng_nm":50,"alt_fmsl":0,"id":"KZ","desc":"KLEINSEE NDB"},
{"type":"NDB","hdg_t":32.6,"dist_nm":259.2,"freq":280,"lat":-22.48416700,"lon":17.47027800,"rng_nm":200,"alt_fmsl":5681,"id":"WH","desc":"WINDHOEK NDB"},
{"type":"VOR","hdg_t":32.6,"dist_nm":259.5,"freq":114.5,"lat":-22.47750000,"lon":17.47055600,"rng_nm":100,"alt_fmsl":5612,"id":"WHV","desc":"WINDHOEK VOR-DME"},
{"type":"NDB","hdg_t":153.6,"dist_nm":271.3,"freq":360,"lat":-30.20027400,"lon":17.26601500,"rng_nm":50,"alt_fmsl":0,"id":"WKP","desc":"WOLFKOP NDB"}
]
}
