{"success":true,"source":"xp2csv.pl","last_updated":"2013/11/08 14:53:21 UTC"
,"icao":"FY1W","name":"Kalkfeld","lat":-20.90085,"lon":16.20695,"rwys":1,"ils":0,"index":3215681,"path":"e010s30/e016s21"
,"runways":[
{"len_m":996,"wid_m":10.06,"hdg":119,"surf":"Gravel","rwy1":"12","lat1":-20.89860000,"lon1":16.20280000,"rwy2":"30","lat2":-20.90310000,"lon2":16.21110000}
]
,"navaids":[
{"type":"NDB","hdg_t":43.1,"dist_nm":35.7,"freq":357,"lat":-20.46361100,"lon":16.64166700,"rng_nm":100,"alt_fmsl":0,"id":"OW","desc":"OTJIWARONGO NDB"},
{"type":"NDB","hdg_t":216.4,"dist_nm":116.7,"freq":327,"lat":-22.46666700,"lon":14.95833300,"rng_nm":50,"alt_fmsl":0,"id":"AD","desc":"ARANDIS NDB"},
{"type":"VOR","hdg_t":143.3,"dist_nm":117.7,"freq":114.5,"lat":-22.47750000,"lon":17.47055600,"rng_nm":100,"alt_fmsl":5612,"id":"WHV","desc":"WINDHOEK VOR-DME"},
{"type":"NDB","hdg_t":143.5,"dist_nm":118,"freq":280,"lat":-22.48416700,"lon":17.47027800,"rng_nm":200,"alt_fmsl":5681,"id":"WH","desc":"WINDHOEK NDB"},
{"type":"NDB","hdg_t":41.3,"dist_nm":130.4,"freq":267,"lat":-19.25722200,"lon":17.72583300,"rng_nm":50,"alt_fmsl":4353,"id":"TM","desc":"TSUMEB NDB"},
{"type":"VOR","hdg_t":54.6,"dist_nm":132.9,"freq":115.7,"lat":-19.60277800,"lon":18.12138900,"rng_nm":130,"alt_fmsl":4636,"id":"GFV","desc":"GROOTFONTEIN VOR-DME"},
{"type":"NDB","hdg_t":54.6,"dist_nm":133.3,"freq":215,"lat":-19.60083300,"lon":18.12722200,"rng_nm":150,"alt_fmsl":0,"id":"GF","desc":"GROOTFONTEIN NDB"},
{"type":"VOR","hdg_t":214.7,"dist_nm":151.9,"freq":113.6,"lat":-22.98211100,"lon":14.64455600,"rng_nm":100,"alt_fmsl":312,"id":"WBV","desc":"WALVIS BAY VOR-DME"},
{"type":"NDB","hdg_t":214.9,"dist_nm":151.9,"freq":225,"lat":-22.97582500,"lon":14.63429700,"rng_nm":50,"alt_fmsl":0,"id":"WB","desc":"WALVIS BAY NDB"},
{"type":"NDB","hdg_t":355.2,"dist_nm":180.9,"freq":382,"lat":-17.88290800,"lon":15.94725800,"rng_nm":200,"alt_fmsl":3596,"id":"OA","desc":"ONDANGWA NDB"}
]
}
