{"success":true,"source":"xp2csv.pl","last_updated":"2013/11/08 14:53:21 UTC"
,"icao":"FY3R","name":"Rocky Point","lat":-19,"lon":12.5,"rwys":1,"ils":0,"index":3150276,"path":"e010s20/e012s19"
,"runways":[
{"len_m":752,"wid_m":10.06,"hdg":180,"surf":"Dirt","rwy1":"18","lat1":-18.99660000,"lon1":12.50000000,"rwy2":"36","lat2":-19.00340000,"lon2":12.50000000}
]
,"navaids":[
{"type":"NDB","hdg_t":53.6,"dist_nm":95.2,"freq":390,"lat":-18.05111100,"lon":13.84305600,"rng_nm":100,"alt_fmsl":4300,"id":"OP","desc":"OPUWA NDB"},
{"type":"NDB","hdg_t":48.8,"dist_nm":142.7,"freq":345,"lat":-17.41804800,"lon":14.37305600,"rng_nm":50,"alt_fmsl":3765,"id":"RC","desc":"RUACANA NDB"},
{"type":"NDB","hdg_t":71.7,"dist_nm":207.6,"freq":382,"lat":-17.88290800,"lon":15.94725800,"rng_nm":200,"alt_fmsl":3596,"id":"OA","desc":"ONDANGWA NDB"},
{"type":"NDB","hdg_t":58.6,"dist_nm":218.7,"freq":327,"lat":-17.06666700,"lon":15.75000000,"rng_nm":50,"alt_fmsl":0,"id":"PE","desc":"NGIVA NDB"},
{"type":"VOR","hdg_t":355,"dist_nm":223.9,"freq":114.1,"lat":-15.26666700,"lon":12.16666700,"rng_nm":100,"alt_fmsl":210,"id":"VMO","desc":"NAMIBE VOR-DME"},
{"type":"NDB","hdg_t":354.7,"dist_nm":224.3,"freq":358,"lat":-15.26106400,"lon":12.14408900,"rng_nm":75,"alt_fmsl":0,"id":"MO","desc":"NAMIBE NDB"},
{"type":"NDB","hdg_t":146.7,"dist_nm":249.1,"freq":327,"lat":-22.46666700,"lon":14.95833300,"rng_nm":50,"alt_fmsl":0,"id":"AD","desc":"ARANDIS NDB"},
{"type":"NDB","hdg_t":111.1,"dist_nm":250.1,"freq":357,"lat":-20.46361100,"lon":16.64166700,"rng_nm":100,"alt_fmsl":0,"id":"OW","desc":"OTJIWARONGO NDB"},
{"type":"NDB","hdg_t":14.6,"dist_nm":251.6,"freq":335,"lat":-14.92401900,"lon":13.59765300,"rng_nm":100,"alt_fmsl":0,"id":"UB","desc":"LUBANGO NDB"},
{"type":"VOR","hdg_t":14.6,"dist_nm":252,"freq":112.3,"lat":-14.91666700,"lon":13.60000000,"rng_nm":100,"alt_fmsl":5778,"id":"VUB","desc":"LUBANGO VOR-DME"}
]
}
