{"success":true,"source":"xp2csv.pl","last_updated":"2013/11/08 14:53:21 UTC"
,"icao":"FY3U","name":"Rotterdam","lat":-22.4292,"lon":17.08475,"rwys":1,"ils":0,"index":3231968,"path":"e010s30/e017s23"
,"runways":[
{"len_m":10,"wid_m":10.06,"hdg":90,"surf":"Turf/grass","rwy1":"09","lat1":-22.42920000,"lon1":17.08470000,"rwy2":"27","lat2":-22.42920000,"lon2":17.08480000}
]
,"navaids":[
{"type":"VOR","hdg_t":97.7,"dist_nm":21.6,"freq":114.5,"lat":-22.47750000,"lon":17.47055600,"rng_nm":100,"alt_fmsl":5612,"id":"WHV","desc":"WINDHOEK VOR-DME"},
{"type":"NDB","hdg_t":98.7,"dist_nm":21.6,"freq":280,"lat":-22.48416700,"lon":17.47027800,"rng_nm":200,"alt_fmsl":5681,"id":"WH","desc":"WINDHOEK NDB"},
{"type":"NDB","hdg_t":268.5,"dist_nm":118.2,"freq":327,"lat":-22.46666700,"lon":14.95833300,"rng_nm":50,"alt_fmsl":0,"id":"AD","desc":"ARANDIS NDB"},
{"type":"NDB","hdg_t":348,"dist_nm":120.1,"freq":357,"lat":-20.46361100,"lon":16.64166700,"rng_nm":100,"alt_fmsl":0,"id":"OW","desc":"OTJIWARONGO NDB"},
{"type":"VOR","hdg_t":255.8,"dist_nm":139.3,"freq":113.6,"lat":-22.98211100,"lon":14.64455600,"rng_nm":100,"alt_fmsl":312,"id":"WBV","desc":"WALVIS BAY VOR-DME"},
{"type":"NDB","hdg_t":256,"dist_nm":139.8,"freq":225,"lat":-22.97582500,"lon":14.63429700,"rng_nm":50,"alt_fmsl":0,"id":"WB","desc":"WALVIS BAY NDB"},
{"type":"VOR","hdg_t":19.1,"dist_nm":178.7,"freq":115.7,"lat":-19.60277800,"lon":18.12138900,"rng_nm":130,"alt_fmsl":4636,"id":"GFV","desc":"GROOTFONTEIN VOR-DME"},
{"type":"NDB","hdg_t":19.2,"dist_nm":178.9,"freq":215,"lat":-19.60083300,"lon":18.12722200,"rng_nm":150,"alt_fmsl":0,"id":"GF","desc":"GROOTFONTEIN NDB"},
{"type":"NDB","hdg_t":10.8,"dist_nm":193,"freq":267,"lat":-19.25722200,"lon":17.72583300,"rng_nm":50,"alt_fmsl":4353,"id":"TM","desc":"TSUMEB NDB"},
{"type":"VOR","hdg_t":167.3,"dist_nm":252,"freq":112.9,"lat":-26.53741700,"lon":18.11362200,"rng_nm":100,"alt_fmsl":3507,"id":"KTV","desc":"KEETMANSHOOP VOR-DME"}
]
}
