{"success":true,"source":"xp2csv.pl","last_updated":"2013/11/08 14:53:21 UTC"
,"icao":"FY48","name":"Spreeths Reserve","lat":-20.93335,"lon":17.7667,"rwys":1,"ils":0,"index":3232070,"path":"e010s30/e017s21"
,"runways":[
{"len_m":1095,"wid_m":10.06,"hdg":19,"surf":"Dirt","rwy1":"02","lat1":-20.93800000,"lon1":17.76490000,"rwy2":"20","lat2":-20.92870000,"lon2":17.76850000}
]
,"navaids":[
{"type":"NDB","hdg_t":293.7,"dist_nm":69.2,"freq":357,"lat":-20.46361100,"lon":16.64166700,"rng_nm":100,"alt_fmsl":0,"id":"OW","desc":"OTJIWARONGO NDB"},
{"type":"VOR","hdg_t":14.1,"dist_nm":82,"freq":115.7,"lat":-19.60277800,"lon":18.12138900,"rng_nm":130,"alt_fmsl":4636,"id":"GFV","desc":"GROOTFONTEIN VOR-DME"},
{"type":"NDB","hdg_t":14.3,"dist_nm":82.2,"freq":215,"lat":-19.60083300,"lon":18.12722200,"rng_nm":150,"alt_fmsl":0,"id":"GF","desc":"GROOTFONTEIN NDB"},
{"type":"VOR","hdg_t":190.1,"dist_nm":93.7,"freq":114.5,"lat":-22.47750000,"lon":17.47055600,"rng_nm":100,"alt_fmsl":5612,"id":"WHV","desc":"WINDHOEK VOR-DME"},
{"type":"NDB","hdg_t":190,"dist_nm":94.1,"freq":280,"lat":-22.48416700,"lon":17.47027800,"rng_nm":200,"alt_fmsl":5681,"id":"WH","desc":"WINDHOEK NDB"},
{"type":"NDB","hdg_t":358.6,"dist_nm":100.2,"freq":267,"lat":-19.25722200,"lon":17.72583300,"rng_nm":50,"alt_fmsl":4353,"id":"TM","desc":"TSUMEB NDB"},
{"type":"NDB","hdg_t":239.1,"dist_nm":181.7,"freq":327,"lat":-22.46666700,"lon":14.95833300,"rng_nm":50,"alt_fmsl":0,"id":"AD","desc":"ARANDIS NDB"},
{"type":"NDB","hdg_t":330.1,"dist_nm":209.4,"freq":382,"lat":-17.88290800,"lon":15.94725800,"rng_nm":200,"alt_fmsl":3596,"id":"OA","desc":"ONDANGWA NDB"},
{"type":"VOR","hdg_t":234.2,"dist_nm":212.8,"freq":113.6,"lat":-22.98211100,"lon":14.64455600,"rng_nm":100,"alt_fmsl":312,"id":"WBV","desc":"WALVIS BAY VOR-DME"},
{"type":"NDB","hdg_t":234.4,"dist_nm":213.1,"freq":225,"lat":-22.97582500,"lon":14.63429700,"rng_nm":50,"alt_fmsl":0,"id":"WB","desc":"WALVIS BAY NDB"}
]
}
