{"success":true,"source":"xp2csv.pl","last_updated":"2013/11/08 14:53:21 UTC"
,"icao":"FY4N","name":"Tiras Mountains Conservancy","lat":-25.8914,"lon":16.2747,"rwys":1,"ils":0,"index":3215361,"path":"e010s30/e016s26"
,"runways":[
{"len_m":1202,"wid_m":20.12,"hdg":90,"surf":"Dirt","rwy1":"09","lat1":-25.89140000,"lon1":16.26870000,"rwy2":"27","lat2":-25.89140000,"lon2":16.28070000}
]
,"navaids":[
{"type":"VOR","hdg_t":111.6,"dist_nm":106.4,"freq":112.9,"lat":-26.53741700,"lon":18.11362200,"rng_nm":100,"alt_fmsl":3507,"id":"KTV","desc":"KEETMANSHOOP VOR-DME"},
{"type":"NDB","hdg_t":112.6,"dist_nm":106.5,"freq":395,"lat":-26.56617800,"lon":18.10309700,"rng_nm":100,"alt_fmsl":0,"id":"KT","desc":"KEETMANSHOOP NDB"},
{"type":"NDB","hdg_t":176.1,"dist_nm":163.5,"freq":317,"lat":-28.61888900,"lon":16.48000000,"rng_nm":250,"alt_fmsl":0,"id":"AB","desc":"ALEXANDER BAY NDB"},
{"type":"VOR","hdg_t":332.5,"dist_nm":195.5,"freq":113.6,"lat":-22.98211100,"lon":14.64455600,"rng_nm":100,"alt_fmsl":312,"id":"WBV","desc":"WALVIS BAY VOR-DME"},
{"type":"NDB","hdg_t":332.4,"dist_nm":196.1,"freq":225,"lat":-22.97582500,"lon":14.63429700,"rng_nm":50,"alt_fmsl":0,"id":"WB","desc":"WALVIS BAY NDB"},
{"type":"NDB","hdg_t":18,"dist_nm":214,"freq":280,"lat":-22.48416700,"lon":17.47027800,"rng_nm":200,"alt_fmsl":5681,"id":"WH","desc":"WINDHOEK NDB"},
{"type":"VOR","hdg_t":18,"dist_nm":214.4,"freq":114.5,"lat":-22.47750000,"lon":17.47055600,"rng_nm":100,"alt_fmsl":5612,"id":"WHV","desc":"WINDHOEK VOR-DME"},
{"type":"NDB","hdg_t":340.3,"dist_nm":217.1,"freq":327,"lat":-22.46666700,"lon":14.95833300,"rng_nm":50,"alt_fmsl":0,"id":"AD","desc":"ARANDIS NDB"},
{"type":"NDB","hdg_t":169.1,"dist_nm":228.7,"freq":212,"lat":-29.64413100,"lon":17.09779700,"rng_nm":50,"alt_fmsl":0,"id":"KZ","desc":"KLEINSEE NDB"},
{"type":"VOR","hdg_t":150.9,"dist_nm":246.9,"freq":116.7,"lat":-29.48111100,"lon":18.56250000,"rng_nm":100,"alt_fmsl":3356,"id":"AGV","desc":"AGGENEYS VOR-DME"}
]
}
