{"success":true,"source":"xp2csv.pl","last_updated":"2013/11/08 14:53:21 UTC"
,"icao":"FYEA","name":"Etendeka","lat":-19.79805,"lon":13.9372,"rwys":1,"ils":0,"index":3166607,"path":"e010s20/e013s20"
,"runways":[
{"len_m":1202,"wid_m":29.87,"hdg":40,"surf":"Gravel","rwy1":"04","lat1":-19.80220000,"lon1":13.93350000,"rwy2":"22","lat2":-19.79390000,"lon2":13.94090000}
]
,"navaids":[
{"type":"NDB","hdg_t":357,"dist_nm":104.5,"freq":390,"lat":-18.05111100,"lon":13.84305600,"rng_nm":100,"alt_fmsl":4300,"id":"OP","desc":"OPUWA NDB"},
{"type":"NDB","hdg_t":9.9,"dist_nm":144.3,"freq":345,"lat":-17.41804800,"lon":14.37305600,"rng_nm":50,"alt_fmsl":3765,"id":"RC","desc":"RUACANA NDB"},
{"type":"NDB","hdg_t":105,"dist_nm":157.7,"freq":357,"lat":-20.46361100,"lon":16.64166700,"rng_nm":100,"alt_fmsl":0,"id":"OW","desc":"OTJIWARONGO NDB"},
{"type":"NDB","hdg_t":45.3,"dist_nm":161.8,"freq":382,"lat":-17.88290800,"lon":15.94725800,"rng_nm":200,"alt_fmsl":3596,"id":"OA","desc":"ONDANGWA NDB"},
{"type":"NDB","hdg_t":160.4,"dist_nm":169.5,"freq":327,"lat":-22.46666700,"lon":14.95833300,"rng_nm":50,"alt_fmsl":0,"id":"AD","desc":"ARANDIS NDB"},
{"type":"NDB","hdg_t":32.6,"dist_nm":193.2,"freq":327,"lat":-17.06666700,"lon":15.75000000,"rng_nm":50,"alt_fmsl":0,"id":"PE","desc":"NGIVA NDB"},
{"type":"NDB","hdg_t":168.5,"dist_nm":193.9,"freq":225,"lat":-22.97582500,"lon":14.63429700,"rng_nm":50,"alt_fmsl":0,"id":"WB","desc":"WALVIS BAY NDB"},
{"type":"VOR","hdg_t":168.3,"dist_nm":194.4,"freq":113.6,"lat":-22.98211100,"lon":14.64455600,"rng_nm":100,"alt_fmsl":312,"id":"WBV","desc":"WALVIS BAY VOR-DME"},
{"type":"NDB","hdg_t":82,"dist_nm":217.1,"freq":267,"lat":-19.25722200,"lon":17.72583300,"rng_nm":50,"alt_fmsl":4353,"id":"TM","desc":"TSUMEB NDB"},
{"type":"VOR","hdg_t":87.8,"dist_nm":237.1,"freq":115.7,"lat":-19.60277800,"lon":18.12138900,"rng_nm":130,"alt_fmsl":4636,"id":"GFV","desc":"GROOTFONTEIN VOR-DME"}
]
}
