{"success":true,"source":"xp2csv.pl","last_updated":"2013/11/08 14:53:21 UTC"
,"icao":"FYHS","name":"Hobas","lat":-27.6297,"lon":17.69525,"rwys":1,"ils":0,"index":3231634,"path":"e010s30/e017s28"
,"runways":[
{"len_m":1000,"wid_m":10.06,"hdg":30,"surf":"Gravel","rwy1":"03","lat1":-27.63360000,"lon1":17.69270000,"rwy2":"21","lat2":-27.62580000,"lon2":17.69780000}
]
,"navaids":[
{"type":"NDB","hdg_t":19,"dist_nm":67.2,"freq":395,"lat":-26.56617800,"lon":18.10309700,"rng_nm":100,"alt_fmsl":0,"id":"KT","desc":"KEETMANSHOOP NDB"},
{"type":"VOR","hdg_t":19,"dist_nm":69,"freq":112.9,"lat":-26.53741700,"lon":18.11362200,"rng_nm":100,"alt_fmsl":3507,"id":"KTV","desc":"KEETMANSHOOP VOR-DME"},
{"type":"NDB","hdg_t":227.1,"dist_nm":87.5,"freq":317,"lat":-28.61888900,"lon":16.48000000,"rng_nm":250,"alt_fmsl":0,"id":"AB","desc":"ALEXANDER BAY NDB"},
{"type":"VOR","hdg_t":157.7,"dist_nm":119.8,"freq":116.7,"lat":-29.48111100,"lon":18.56250000,"rng_nm":100,"alt_fmsl":3356,"id":"AGV","desc":"AGGENEYS VOR-DME"},
{"type":"NDB","hdg_t":194.5,"dist_nm":124.6,"freq":212,"lat":-29.64413100,"lon":17.09779700,"rng_nm":50,"alt_fmsl":0,"id":"KZ","desc":"KLEINSEE NDB"},
{"type":"NDB","hdg_t":188.2,"dist_nm":155.4,"freq":360,"lat":-30.20027400,"lon":17.26601500,"rng_nm":50,"alt_fmsl":0,"id":"WKP","desc":"WOLFKOP NDB"},
{"type":"VOR","hdg_t":104.5,"dist_nm":194.8,"freq":116.5,"lat":-28.40170000,"lon":21.26037200,"rng_nm":100,"alt_fmsl":2753,"id":"UPV","desc":"UPINGTON VOR-DME"},
{"type":"NDB","hdg_t":105.6,"dist_nm":198.1,"freq":334,"lat":-28.47846100,"lon":21.30303900,"rng_nm":50,"alt_fmsl":0,"id":"UN","desc":"UPINGTON NDB"},
{"type":"VOR","hdg_t":162.5,"dist_nm":235.7,"freq":116.1,"lat":-31.38000000,"lon":19.07111100,"rng_nm":100,"alt_fmsl":0,"id":"NVV","desc":"NIEUWOUDTVILLE VOR"},
{"type":"NDB","hdg_t":167.4,"dist_nm":279.5,"freq":372,"lat":-32.18305600,"lon":18.88861100,"rng_nm":100,"alt_fmsl":0,"id":"CW","desc":"CLANWILLIAM NDB"}
]
}
