{"success":true,"source":"xp2csv.pl","last_updated":"2013/11/08 14:53:21 UTC"
,"icao":"FYKX","name":"Khorixas","lat":-20.3667,"lon":15.05765,"rwys":1,"ils":0,"index":3199336,"path":"e010s30/e015s21"
,"runways":[
{"len_m":1200,"wid_m":24.99,"hdg":90,"surf":"Gravel","rwy1":"09","lat1":-20.36670000,"lon1":15.05190000,"rwy2":"27","lat2":-20.36670000,"lon2":15.06340000}
]
,"navaids":[
{"type":"NDB","hdg_t":93.9,"dist_nm":89.4,"freq":357,"lat":-20.46361100,"lon":16.64166700,"rng_nm":100,"alt_fmsl":0,"id":"OW","desc":"OTJIWARONGO NDB"},
{"type":"NDB","hdg_t":182.5,"dist_nm":125.6,"freq":327,"lat":-22.46666700,"lon":14.95833300,"rng_nm":50,"alt_fmsl":0,"id":"AD","desc":"ARANDIS NDB"},
{"type":"NDB","hdg_t":333.3,"dist_nm":154.6,"freq":390,"lat":-18.05111100,"lon":13.84305600,"rng_nm":100,"alt_fmsl":4300,"id":"OP","desc":"OPUWA NDB"},
{"type":"NDB","hdg_t":18.9,"dist_nm":156.8,"freq":382,"lat":-17.88290800,"lon":15.94725800,"rng_nm":200,"alt_fmsl":3596,"id":"OA","desc":"ONDANGWA NDB"},
{"type":"NDB","hdg_t":188.5,"dist_nm":157.7,"freq":225,"lat":-22.97582500,"lon":14.63429700,"rng_nm":50,"alt_fmsl":0,"id":"WB","desc":"WALVIS BAY NDB"},
{"type":"VOR","hdg_t":188.3,"dist_nm":158,"freq":113.6,"lat":-22.98211100,"lon":14.64455600,"rng_nm":100,"alt_fmsl":312,"id":"WBV","desc":"WALVIS BAY VOR-DME"},
{"type":"NDB","hdg_t":66.7,"dist_nm":164.8,"freq":267,"lat":-19.25722200,"lon":17.72583300,"rng_nm":50,"alt_fmsl":4353,"id":"TM","desc":"TSUMEB NDB"},
{"type":"VOR","hdg_t":75.7,"dist_nm":179,"freq":115.7,"lat":-19.60277800,"lon":18.12138900,"rng_nm":130,"alt_fmsl":4636,"id":"GFV","desc":"GROOTFONTEIN VOR-DME"},
{"type":"NDB","hdg_t":75.7,"dist_nm":179.3,"freq":215,"lat":-19.60083300,"lon":18.12722200,"rng_nm":150,"alt_fmsl":0,"id":"GF","desc":"GROOTFONTEIN NDB"},
{"type":"NDB","hdg_t":347.4,"dist_nm":180.4,"freq":345,"lat":-17.41804800,"lon":14.37305600,"rng_nm":50,"alt_fmsl":3765,"id":"RC","desc":"RUACANA NDB"}
]
}
