{"success":true,"source":"xp2csv.pl","last_updated":"2013/11/08 14:53:21 UTC"
,"icao":"FYNG","name":"Ongava Lodge","lat":-19.32875,"lon":15.9148,"rwys":1,"ils":0,"index":3199407,"path":"e010s20/e015s20"
,"runways":[
{"len_m":1701,"wid_m":28.04,"hdg":69,"surf":"Gravel","rwy1":"07","lat1":-19.33140000,"lon1":15.90720000,"rwy2":"25","lat2":-19.32610000,"lon2":15.92240000}
]
,"navaids":[
{"type":"NDB","hdg_t":148.9,"dist_nm":79.3,"freq":357,"lat":-20.46361100,"lon":16.64166700,"rng_nm":100,"alt_fmsl":0,"id":"OW","desc":"OTJIWARONGO NDB"},
{"type":"NDB","hdg_t":1.2,"dist_nm":86.4,"freq":382,"lat":-17.88290800,"lon":15.94725800,"rng_nm":200,"alt_fmsl":3596,"id":"OA","desc":"ONDANGWA NDB"},
{"type":"NDB","hdg_t":87.9,"dist_nm":102.8,"freq":267,"lat":-19.25722200,"lon":17.72583300,"rng_nm":50,"alt_fmsl":4353,"id":"TM","desc":"TSUMEB NDB"},
{"type":"VOR","hdg_t":97.8,"dist_nm":126.1,"freq":115.7,"lat":-19.60277800,"lon":18.12138900,"rng_nm":130,"alt_fmsl":4636,"id":"GFV","desc":"GROOTFONTEIN VOR-DME"},
{"type":"NDB","hdg_t":97.7,"dist_nm":126.4,"freq":215,"lat":-19.60083300,"lon":18.12722200,"rng_nm":150,"alt_fmsl":0,"id":"GF","desc":"GROOTFONTEIN NDB"},
{"type":"NDB","hdg_t":355.9,"dist_nm":135.5,"freq":327,"lat":-17.06666700,"lon":15.75000000,"rng_nm":50,"alt_fmsl":0,"id":"PE","desc":"NGIVA NDB"},
{"type":"NDB","hdg_t":302.5,"dist_nm":140.5,"freq":390,"lat":-18.05111100,"lon":13.84305600,"rng_nm":100,"alt_fmsl":4300,"id":"OP","desc":"OPUWA NDB"},
{"type":"NDB","hdg_t":322.1,"dist_nm":144.1,"freq":345,"lat":-17.41804800,"lon":14.37305600,"rng_nm":50,"alt_fmsl":3765,"id":"RC","desc":"RUACANA NDB"},
{"type":"NDB","hdg_t":195.8,"dist_nm":195.1,"freq":327,"lat":-22.46666700,"lon":14.95833300,"rng_nm":50,"alt_fmsl":0,"id":"AD","desc":"ARANDIS NDB"},
{"type":"VOR","hdg_t":155.3,"dist_nm":207.5,"freq":114.5,"lat":-22.47750000,"lon":17.47055600,"rng_nm":100,"alt_fmsl":5612,"id":"WHV","desc":"WINDHOEK VOR-DME"}
]
}
