{"success":true,"source":"xp2csv.pl","last_updated":"2013/11/08 14:53:21 UTC"
,"icao":"FZWA","name":"Mbuji Mayi","lat":-6.121236,"lon":23.569007,"rwys":1,"ils":0,"index":3331324,"path":"e020s10/e023s07"
,"runways":[
{"len_m":1990,"wid_m":44.50,"hdg":161,"surf":"Asphalt","rwy1":"17","lat1":-6.11271100,"lon1":23.56613100,"rwy2":"35","lat2":-6.12976100,"lon2":23.57188300}
]
,"radios":[
{"type":"TWR","freq":119.7,"desc":"TWR"},
{"type":"TWR","freq":118.3,"desc":"TWR"},
{"type":"APP","freq":124.1,"desc":"APP"}
]
,"navaids":[
{"type":"VOR","hdg_t":314.3,"dist_nm":0.4,"freq":112.9,"lat":-6.11547000,"lon":23.56310500,"rng_nm":130,"alt_fmsl":2221,"id":"MBY","desc":"MBUJI MAYI VOR-DME"},
{"type":"NDB","hdg_t":344.9,"dist_nm":0.9,"freq":392,"lat":-6.10547100,"lon":23.56477100,"rng_nm":50,"alt_fmsl":0,"id":"MN","desc":"MBUJI MAYI NDB"},
{"type":"NDB","hdg_t":280.9,"dist_nm":65.6,"freq":380,"lat":-5.91132100,"lon":22.49141000,"rng_nm":25,"alt_fmsl":0,"id":"KNG","desc":"KANANGA NDB"},
{"type":"VOR","hdg_t":281,"dist_nm":68.1,"freq":115.5,"lat":-5.90215500,"lon":22.44974200,"rng_nm":130,"alt_fmsl":2139,"id":"KNG","desc":"KANANGA VOR-DME"},
{"type":"VOR","hdg_t":357.4,"dist_nm":161.5,"freq":115.5,"lat":-3.41903600,"lon":23.44976900,"rng_nm":130,"alt_fmsl":0,"id":"LJA","desc":"LODJA VOR"},
{"type":"NDB","hdg_t":263.3,"dist_nm":166.5,"freq":242,"lat":-6.43544100,"lon":20.79969800,"rng_nm":50,"alt_fmsl":0,"id":"TKP","desc":"TSHIKAPA NDB"},
{"type":"NDB","hdg_t":146.9,"dist_nm":179.1,"freq":258,"lat":-8.63192100,"lon":25.21481400,"rng_nm":50,"alt_fmsl":0,"id":"BW","desc":"KAMINA BASE NDB"},
{"type":"VOR","hdg_t":146.3,"dist_nm":180,"freq":114.7,"lat":-8.62858800,"lon":25.24787000,"rng_nm":130,"alt_fmsl":3543,"id":"KMB","desc":"KAMINA BASE VOR"},
{"type":"NDB","hdg_t":244.9,"dist_nm":181.1,"freq":350,"lat":-7.40000000,"lon":20.81666700,"rng_nm":100,"alt_fmsl":2451,"id":"CH","desc":"CHITATO NDB"},
{"type":"NDB","hdg_t":146.3,"dist_nm":181.9,"freq":276,"lat":-8.65336100,"lon":25.26670600,"rng_nm":50,"alt_fmsl":0,"id":"KMB","desc":"KAMINA BASE NDB"}
]
}
