{"success":true,"source":"xp2csv.pl","last_updated":"2013/11/08 14:53:21 UTC"
,"icao":"GA61","name":"Abernathy Fld","lat":33.26900861,"lon":-84.49714806,"rwys":1,"ils":0,"index":1564370,"path":"w090n30/w085n33"
,"runways":[
{"len_m":792,"wid_m":30.48,"hdg":43,"surf":"Turf/grass","rwy1":"05","lat1":33.26640069,"lon1":-84.50005669,"rwy2":"23","lat2":33.27161653,"lon2":-84.49423943}
]
,"navaids":[
{"type":"NDB","hdg_t":15.9,"dist_nm":1.9,"freq":316,"lat":33.30063889,"lon":-84.48641667,"rng_nm":50,"alt_fmsl":0,"id":"FF","desc":"PECAT NDB"},
{"type":"NDB","hdg_t":266.2,"dist_nm":10.8,"freq":234,"lat":33.25694444,"lon":-84.71327778,"rng_nm":50,"alt_fmsl":0,"id":"EQQ","desc":"COWETA CO NDB"},
{"type":"NDB","hdg_t":110.4,"dist_nm":14.4,"freq":412,"lat":33.18430556,"lon":-84.22750000,"rng_nm":50,"alt_fmsl":0,"id":"JHH","desc":"GRIFFIN NDB"},
{"type":"VOR","hdg_t":8.2,"dist_nm":21.7,"freq":116.9,"lat":33.62908333,"lon":-84.43508333,"rng_nm":130,"alt_fmsl":1000,"id":"ATL","desc":"ATLANTA VORTAC"},
{"type":"NDB","hdg_t":22.4,"dist_nm":24.3,"freq":266,"lat":33.64538889,"lon":-84.31125000,"rng_nm":50,"alt_fmsl":0,"id":"BR","desc":"REDAN NDB"},
{"type":"NDB","hdg_t":143.2,"dist_nm":26.1,"freq":339,"lat":32.91902778,"lon":-84.18741667,"rng_nm":50,"alt_fmsl":0,"id":"OP","desc":"YATES NDB"},
{"type":"NDB","hdg_t":346.5,"dist_nm":30.3,"freq":344,"lat":33.76238889,"lon":-84.63886111,"rng_nm":50,"alt_fmsl":0,"id":"FT","desc":"FLANC NDB"},
{"type":"NDB","hdg_t":216.6,"dist_nm":31.7,"freq":272,"lat":32.84286111,"lon":-84.87266667,"rng_nm":50,"alt_fmsl":0,"id":"PIM","desc":"PINE MOUNTAIN NDB"},
{"type":"NDB","hdg_t":299.3,"dist_nm":36.4,"freq":278,"lat":33.56577778,"lon":-85.13088889,"rng_nm":50,"alt_fmsl":0,"id":"GPQ","desc":"CARROLLTON NDB"},
{"type":"VOR","hdg_t":15.2,"dist_nm":37.6,"freq":116.6,"lat":33.87563889,"lon":-84.29880556,"rng_nm":40,"alt_fmsl":970,"id":"PDK","desc":"PEACHTREE VOR-DME"},
{"type":"VOR","hdg_t":249.9,"dist_nm":38,"freq":115.6,"lat":33.04911111,"lon":-85.20622222,"rng_nm":130,"alt_fmsl":798,"id":"LGC","desc":"LAGRANGE VORTAC"},
{"type":"SDME","hdg_t":359.2,"dist_nm":38.6,"freq":113,"lat":33.91464700,"lon":-84.50730600,"rng_nm":25,"alt_fmsl":1008,"id":"DOB","desc":"DOBBINS TACAN"},
{"type":"NDB","hdg_t":58.7,"dist_nm":41.8,"freq":370,"lat":33.62983333,"lon":-83.78211111,"rng_nm":50,"alt_fmsl":0,"id":"VOF","desc":"ALCOVY NDB"},
{"type":"VOR","hdg_t":214,"dist_nm":47.1,"freq":117.1,"lat":32.61525000,"lon":-85.01763889,"rng_nm":40,"alt_fmsl":630,"id":"CSG","desc":"COLUMBUS VORTAC"},
{"type":"NDB","hdg_t":53.8,"dist_nm":47.7,"freq":392,"lat":33.73761111,"lon":-83.72683333,"rng_nm":50,"alt_fmsl":0,"id":"JNM","desc":"MONROE NDB"},
{"type":"NDB","hdg_t":133.1,"dist_nm":54.4,"freq":290,"lat":32.64533300,"lon":-83.71325000,"rng_nm":25,"alt_fmsl":0,"id":"MC","desc":"SOFKE NDB"},
{"type":"NDB","hdg_t":35,"dist_nm":55,"freq":419,"lat":34.01994444,"lon":-83.86283333,"rng_nm":50,"alt_fmsl":0,"id":"TX","desc":"GWNET NDB"},
{"type":"VOR","hdg_t":128.6,"dist_nm":55.1,"freq":114.2,"lat":32.69119444,"lon":-83.64719444,"rng_nm":130,"alt_fmsl":381,"id":"MCN","desc":"MACON VORTAC"},
{"type":"NDB","hdg_t":209.5,"dist_nm":56.1,"freq":355,"lat":32.45197222,"lon":-85.04194444,"rng_nm":50,"alt_fmsl":0,"id":"CS","desc":"FENIX NDB"},
{"type":"NDB","hdg_t":342.8,"dist_nm":58.3,"freq":308,"lat":34.19958333,"lon":-84.84311111,"rng_nm":50,"alt_fmsl":0,"id":"EVZ","desc":"CARTERSVILLE NDB"},
{"type":"NDB","hdg_t":0.4,"dist_nm":58.8,"freq":415,"lat":34.25236111,"lon":-84.48761111,"rng_nm":50,"alt_fmsl":0,"id":"DJD","desc":"CHERO NDB"},
{"type":"NDB","hdg_t":155.2,"dist_nm":59.3,"freq":426,"lat":32.36738889,"lon":-84.00741667,"rng_nm":50,"alt_fmsl":0,"id":"IZS","desc":"MONTEZUMA NDB"},
{"type":"NDB","hdg_t":48.4,"dist_nm":60.5,"freq":404,"lat":33.93536111,"lon":-83.58947222,"rng_nm":50,"alt_fmsl":0,"id":"BMW","desc":"BARROW COUNTY NDB"},
{"type":"NDB","hdg_t":142.5,"dist_nm":61,"freq":350,"lat":32.45741667,"lon":-83.76572222,"rng_nm":50,"alt_fmsl":0,"id":"BEP","desc":"BAY CREEK NDB"},
{"type":"VOR","hdg_t":204.2,"dist_nm":61.4,"freq":111.4,"lat":32.33236111,"lon":-84.99325000,"rng_nm":25,"alt_fmsl":250,"id":"LSF","desc":"LAWSON VOR-DME"},
{"type":"VOR","hdg_t":329.9,"dist_nm":61.9,"freq":115.4,"lat":34.16255556,"lon":-85.11938889,"rng_nm":130,"alt_fmsl":1149,"id":"RMG","desc":"ROME VORTAC"},
{"type":"NDB","hdg_t":27.6,"dist_nm":63.2,"freq":365,"lat":34.20338889,"lon":-83.90630556,"rng_nm":50,"alt_fmsl":0,"id":"FKV","desc":"FLOWERY BRANCH NDB"},
{"type":"NDB","hdg_t":204.6,"dist_nm":64.2,"freq":335,"lat":32.29319444,"lon":-85.02327778,"rng_nm":50,"alt_fmsl":0,"id":"AWS","desc":"LAWSON NDB"},
{"type":"NDB","hdg_t":226.4,"dist_nm":65.7,"freq":423,"lat":32.50925000,"lon":-85.43722222,"rng_nm":50,"alt_fmsl":0,"id":"AU","desc":"OPOLE NDB"},
{"type":"NDB","hdg_t":95.5,"dist_nm":67.6,"freq":380,"lat":33.15180556,"lon":-83.15958333,"rng_nm":50,"alt_fmsl":0,"id":"UMB","desc":"CULVR NDB"},
{"type":"NDB","hdg_t":45.5,"dist_nm":68.1,"freq":244,"lat":34.06222222,"lon":-83.52094444,"rng_nm":50,"alt_fmsl":0,"id":"DDA","desc":"COMMERCE NDB"},
{"type":"NDB","hdg_t":163.1,"dist_nm":68.4,"freq":242,"lat":32.17447222,"lon":-84.10816667,"rng_nm":50,"alt_fmsl":0,"id":"LKG","desc":"LINDBERGH NDB"},
{"type":"NDB","hdg_t":73.6,"dist_nm":70.8,"freq":397,"lat":33.59489400,"lon":-83.14072200,"rng_nm":25,"alt_fmsl":662,"id":"EJK","desc":"GREENSBORO NDB"},
{"type":"NDB","hdg_t":342.5,"dist_nm":71.1,"freq":323,"lat":34.40155556,"lon":-84.92652778,"rng_nm":50,"alt_fmsl":0,"id":"OUK","desc":"CALHOUN NDB"},
{"type":"VOR","hdg_t":55,"dist_nm":71.4,"freq":109.6,"lat":33.94758333,"lon":-83.32475000,"rng_nm":130,"alt_fmsl":793,"id":"AHN","desc":"ATHENS VORTAC"},
{"type":"NDB","hdg_t":282.8,"dist_nm":73.7,"freq":211,"lat":33.53436111,"lon":-85.93080556,"rng_nm":50,"alt_fmsl":0,"id":"AN","desc":"BOGGA NDB"},
{"type":"VOR","hdg_t":231.9,"dist_nm":75.5,"freq":117.3,"lat":32.48486111,"lon":-85.66930556,"rng_nm":40,"alt_fmsl":490,"id":"TGE","desc":"TUSKEGEE VOR-DME"},
{"type":"NDB","hdg_t":57,"dist_nm":75.9,"freq":221,"lat":33.95138889,"lon":-83.21958333,"rng_nm":50,"alt_fmsl":0,"id":"BJT","desc":"BULLDOG NDB"},
{"type":"NDB","hdg_t":252.8,"dist_nm":77.4,"freq":382,"lat":32.87941667,"lon":-85.96113889,"rng_nm":50,"alt_fmsl":0,"id":"DER","desc":"ALEXANDER CITY NDB"},
{"type":"NDB","hdg_t":72.6,"dist_nm":77.4,"freq":353,"lat":33.64613889,"lon":-83.02080556,"rng_nm":50,"alt_fmsl":0,"id":"VV","desc":"JUNNE NDB"},
{"type":"VOR","hdg_t":283.7,"dist_nm":79.7,"freq":108.8,"lat":33.57513889,"lon":-86.04269444,"rng_nm":40,"alt_fmsl":530,"id":"TDG","desc":"TALLADEGA VOR-DME"},
{"type":"NDB","hdg_t":100.4,"dist_nm":79.9,"freq":360,"lat":33.01694444,"lon":-82.93941667,"rng_nm":50,"alt_fmsl":0,"id":"HIT","desc":"KAOLIN NDB"},
{"type":"VOR","hdg_t":141,"dist_nm":80.9,"freq":116.5,"lat":32.21344444,"lon":-83.49725000,"rng_nm":40,"alt_fmsl":300,"id":"VNA","desc":"VIENNA VORTAC"},
{"type":"NDB","hdg_t":156.9,"dist_nm":82.6,"freq":400,"lat":31.99783333,"lon":-83.86180556,"rng_nm":50,"alt_fmsl":0,"id":"OHY","desc":"CONEY NDB"},
{"type":"VOR","hdg_t":202.2,"dist_nm":85.2,"freq":109.2,"lat":31.95025000,"lon":-85.13047222,"rng_nm":40,"alt_fmsl":280,"id":"EUF","desc":"EUFAULA VORTAC"},
{"type":"NDB","hdg_t":32.3,"dist_nm":87.6,"freq":347,"lat":34.50150000,"lon":-83.54988889,"rng_nm":50,"alt_fmsl":0,"id":"AJR","desc":"HABERSHAM NDB"},
{"type":"NDB","hdg_t":121.6,"dist_nm":88.6,"freq":251,"lat":32.48383333,"lon":-83.01094444,"rng_nm":50,"alt_fmsl":0,"id":"DB","desc":"CREKE NDB"},
{"type":"NDB","hdg_t":281.6,"dist_nm":89.7,"freq":257,"lat":33.55900000,"lon":-86.24941667,"rng_nm":50,"alt_fmsl":0,"id":"PLR","desc":"PELL CITY NDB"},
{"type":"NDB","hdg_t":69.8,"dist_nm":89.7,"freq":435,"lat":33.77486111,"lon":-82.81319444,"rng_nm":50,"alt_fmsl":0,"id":"IIY","desc":"WASHINGTON-WILKE NDB"},
{"type":"VOR","hdg_t":298.4,"dist_nm":90,"freq":112.3,"lat":33.97641667,"lon":-86.08355556,"rng_nm":40,"alt_fmsl":560,"id":"GAD","desc":"GADSDEN VOR-DME"},
{"type":"NDB","hdg_t":266.9,"dist_nm":91.8,"freq":284,"lat":33.17425000,"lon":-86.31816667,"rng_nm":50,"alt_fmsl":0,"id":"SCD","desc":"SYLACAUGA NDB"},
{"type":"NDB","hdg_t":346.4,"dist_nm":93.8,"freq":400,"lat":34.79133333,"lon":-84.94352778,"rng_nm":50,"alt_fmsl":0,"id":"UWI","desc":"WHITFIELD NDB"},
{"type":"VOR","hdg_t":116.1,"dist_nm":94.2,"freq":113.1,"lat":32.56344444,"lon":-82.83000000,"rng_nm":40,"alt_fmsl":265,"id":"DBN","desc":"DUBLIN VORTAC"},
{"type":"NDB","hdg_t":322.2,"dist_nm":95.2,"freq":426,"lat":34.52113889,"lon":-85.67333333,"rng_nm":50,"alt_fmsl":0,"id":"FTP","desc":"FORT PAYNE NDB"},
{"type":"NDB","hdg_t":79.9,"dist_nm":95.8,"freq":341,"lat":33.53327778,"lon":-82.61436111,"rng_nm":50,"alt_fmsl":0,"id":"AA","desc":"CEDAR NDB"},
{"type":"NDB","hdg_t":134.6,"dist_nm":96.1,"freq":366,"lat":32.13419444,"lon":-83.15391667,"rng_nm":50,"alt_fmsl":0,"id":"EZM","desc":"EASTMAN NDB"},
{"type":"VOR","hdg_t":173.8,"dist_nm":97.1,"freq":116.1,"lat":31.65522222,"lon":-84.29305556,"rng_nm":130,"alt_fmsl":283,"id":"PZD","desc":"PECAN VORTAC"}
]
}
