{"success":true,"source":"xp2csv.pl","last_updated":"2013/11/08 14:53:21 UTC"
,"icao":"GAP","name":"Gusap","lat":-6.05307617,"lon":145.95889083,"rwys":1,"ils":0,"index":5330175,"path":"e140s10/e145s07"
,"runways":[
{"len_m":1873,"wid_m":57.91,"hdg":129,"surf":"Turf/grass","rwy1":"14","lat1":-6.04771980,"lon1":145.95233333,"rwy2":"32","lat2":-6.05843253,"lon2":145.96544834}
]
,"radios":[
{"type":"ATIS","freq":127.7,"desc":"GAP AWOS"}
]
,"navaids":[
{"type":"NDB","hdg_t":267.4,"dist_nm":34,"freq":1725,"lat":-6.07781700,"lon":145.38970000,"rng_nm":20,"alt_fmsl":5208,"id":"GA","desc":"GOROKA NDB"},
{"type":"NDB","hdg_t":348.1,"dist_nm":51.2,"freq":362,"lat":-5.21285000,"lon":145.78363300,"rng_nm":50,"alt_fmsl":100,"id":"MD","desc":"MADANG NDB"},
{"type":"VOR","hdg_t":347.7,"dist_nm":51.4,"freq":116.3,"lat":-5.21163300,"lon":145.77678300,"rng_nm":50,"alt_fmsl":11,"id":"MD","desc":"MADANG VOR-DME"},
{"type":"VOR","hdg_t":124.5,"dist_nm":54.3,"freq":113.9,"lat":-6.56833333,"lon":146.70894444,"rng_nm":130,"alt_fmsl":267,"id":"NZ","desc":"NADZAB VOR-DME"},
{"type":"NDB","hdg_t":124.6,"dist_nm":54.3,"freq":1615,"lat":-6.57000000,"lon":146.70833300,"rng_nm":50,"alt_fmsl":0,"id":"NZ","desc":"NADZAB NDB"},
{"type":"NDB","hdg_t":123.4,"dist_nm":74.3,"freq":388,"lat":-6.73726700,"lon":146.99806700,"rng_nm":30,"alt_fmsl":0,"id":"LAE","desc":"LAE NDB"},
{"type":"NDB","hdg_t":277.3,"dist_nm":99.5,"freq":1689,"lat":-5.83786700,"lon":144.30853300,"rng_nm":40,"alt_fmsl":5425,"id":"MH","desc":"MOUNT HAGEN NDB-DME"},
{"type":"SDME","hdg_t":277.3,"dist_nm":99.5,"freq":115,"lat":-5.83786700,"lon":144.30853300,"rng_nm":40,"alt_fmsl":5425,"id":"MH","desc":"MOUNT HAGEN NDB-DME"},
{"type":"NDB","hdg_t":185.4,"dist_nm":114.5,"freq":401,"lat":-7.96261700,"lon":145.77500000,"rng_nm":55,"alt_fmsl":223,"id":"KRM","desc":"KEREMA NDB-DME"},
{"type":"SDME","hdg_t":185.4,"dist_nm":114.5,"freq":116.9,"lat":-7.96261700,"lon":145.77500000,"rng_nm":55,"alt_fmsl":223,"id":"KRM","desc":"KEREMA NDB-DME"}
]
}
