{"success":true,"source":"xp2csv.pl","last_updated":"2013/11/08 14:53:21 UTC"
,"icao":"GGOV","name":"Bissau Oswaldo Vieira Intl","lat":11.8901665,"lon":-15.64883296,"rwys":1,"ils":0,"index":2693498,"path":"w020n10/w016n11"
,"runways":[
{"len_m":3188,"wid_m":45.11,"hdg":22,"surf":"Asphalt","rwy1":"03","lat1":11.87682548,"lon1":-15.65436896,"rwy2":"21","lat2":11.90350752,"lon2":-15.64329695}
]
,"radios":[
{"type":"TWR","freq":124.3,"desc":"TWR"},
{"type":"APP","freq":123.9,"desc":"APP"},
{"type":"APP","freq":124.3,"desc":"APP"}
]
,"navaids":[
{"type":"VOR","hdg_t":10.7,"dist_nm":2.7,"freq":114.3,"lat":11.93619700,"lon":-15.63995500,"rng_nm":130,"alt_fmsl":129,"id":"BIS","desc":"BISSAU/OSWALDO VIEIRA VOR-DME"},
{"type":"NDB","hdg_t":4.5,"dist_nm":4.1,"freq":325,"lat":11.96005600,"lon":-15.64319400,"rng_nm":100,"alt_fmsl":0,"id":"BS","desc":"BISSAU/OSWALDO VIEIRA NDB"},
{"type":"NDB","hdg_t":317.6,"dist_nm":53.8,"freq":334,"lat":12.55616700,"lon":-16.26688900,"rng_nm":50,"alt_fmsl":134,"id":"SZR","desc":"ZIGUINCHOR NDB"},
{"type":"VOR","hdg_t":317.4,"dist_nm":54.1,"freq":112.5,"lat":12.55752800,"lon":-16.27258300,"rng_nm":130,"alt_fmsl":91,"id":"ZG","desc":"ZIGUINCHOR VOR"},
{"type":"NDB","hdg_t":294.8,"dist_nm":70.8,"freq":398,"lat":12.38658300,"lon":-16.74280600,"rng_nm":25,"alt_fmsl":108,"id":"SKN","desc":"CAP SKIRING NDB"},
{"type":"NDB","hdg_t":33.9,"dist_nm":71.5,"freq":344,"lat":12.88293500,"lon":-14.96652500,"rng_nm":50,"alt_fmsl":92,"id":"KD","desc":"KOLDA NDB"},
{"type":"NDB","hdg_t":139.9,"dist_nm":95.6,"freq":308,"lat":10.66251500,"lon":-14.60673700,"rng_nm":50,"alt_fmsl":0,"id":"KAM","desc":"KAMSAR NDB"},
{"type":"NDB","hdg_t":125,"dist_nm":96.7,"freq":382,"lat":10.95582500,"lon":-14.30672900,"rng_nm":50,"alt_fmsl":0,"id":"OK","desc":"BOKE NDB"},
{"type":"VOR","hdg_t":325.7,"dist_nm":104.7,"freq":112.9,"lat":13.33813300,"lon":-16.65550000,"rng_nm":130,"alt_fmsl":95,"id":"BJ","desc":"BANJUL VOR-DME"},
{"type":"NDB","hdg_t":325.8,"dist_nm":105.1,"freq":256,"lat":13.34537900,"lon":-16.65744300,"rng_nm":150,"alt_fmsl":0,"id":"ND","desc":"BANJUL NDB"}
]
}
