{"success":true,"source":"xp2csv.pl","last_updated":"2013/11/08 14:53:21 UTC"
,"icao":"GMFM","name":"Bassatine","lat":33.878848,"lon":-5.51502175,"rwys":2,"ils":0,"index":2858745,"path":"w010n30/w006n33"
,"runways":[
{"len_m":2831,"wid_m":49.99,"hdg":83,"surf":"Asphalt","rwy1":"09","lat1":33.87223900,"lon1":-5.52542800,"rwy2":"27","lat2":33.87496400,"lon2":-5.49500000},
{"len_m":1968,"wid_m":49.99,"hdg":78,"surf":"Asphalt","rwy1":"08","lat1":33.88233600,"lon1":-5.53025600,"rwy2":"26","lat2":33.88585300,"lon2":-5.50940300}
]
,"navaids":[
{"type":"VOR","hdg_t":195.1,"dist_nm":0,"freq":116.3,"lat":33.87805600,"lon":-5.51527800,"rng_nm":130,"alt_fmsl":0,"id":"MKS","desc":"MEKNES VOR"},
{"type":"VOR","hdg_t":83.2,"dist_nm":25.2,"freq":115.7,"lat":33.92750000,"lon":-5.01361100,"rng_nm":130,"alt_fmsl":1873,"id":"FES","desc":"SAISS VOR-DME"},
{"type":"NDB","hdg_t":141.8,"dist_nm":28.8,"freq":409,"lat":33.50027800,"lon":-5.16027800,"rng_nm":50,"alt_fmsl":0,"id":"IFR","desc":"IFRANE NDB"},
{"type":"VOR","hdg_t":308.5,"dist_nm":34,"freq":115.5,"lat":34.23250000,"lon":-6.05055600,"rng_nm":130,"alt_fmsl":179,"id":"SMN","desc":"SIDI SLIMANE VOR-DME"},
{"type":"NDB","hdg_t":287.5,"dist_nm":60,"freq":332,"lat":34.17640800,"lon":-6.66427800,"rng_nm":75,"alt_fmsl":0,"id":"SBI","desc":"RABAT NDB"},
{"type":"NDB","hdg_t":294.2,"dist_nm":60.2,"freq":380,"lat":34.28722200,"lon":-6.62055600,"rng_nm":75,"alt_fmsl":0,"id":"CNL","desc":"KENITRA NDB"},
{"type":"VOR","hdg_t":279.8,"dist_nm":62.2,"freq":116.5,"lat":34.05000000,"lon":-6.74638900,"rng_nm":130,"alt_fmsl":325,"id":"RBT","desc":"RABAT VOR-DME"},
{"type":"NDB","hdg_t":259.3,"dist_nm":81.5,"freq":275,"lat":33.61583900,"lon":-7.11353300,"rng_nm":100,"alt_fmsl":0,"id":"CAE","desc":"BEN SLIMANE NDB"},
{"type":"VOR","hdg_t":260.9,"dist_nm":85.8,"freq":117.45,"lat":33.64180000,"lon":-7.20799700,"rng_nm":130,"alt_fmsl":676,"id":"BNS","desc":"BEN SLIMANE VOR-DME"},
{"type":"VOR","hdg_t":5.1,"dist_nm":103.2,"freq":117.3,"lat":35.59500000,"lon":-5.32472200,"rng_nm":130,"alt_fmsl":49,"id":"TTN","desc":"TETOUAN VOR-DME"}
]
}
