{"success":true,"source":"xp2csv.pl","last_updated":"2013/11/08 14:53:21 UTC"
,"icao":"GNU","name":"Goodnews","lat":59.11727555,"lon":-161.58139667,"rwys":1,"ils":0,"index":304449,"path":"w170n50/w162n59"
,"runways":[
{"len_m":872,"wid_m":24.38,"hdg":68,"surf":"Gravel","rwy1":"05","lat1":59.11581131,"lon1":-161.58845736,"rwy2":"23","lat2":59.11873979,"lon2":-161.57433598}
]
,"navaids":[
{"type":"NDB","hdg_t":209,"dist_nm":31.6,"freq":385,"lat":58.65677778,"lon":-162.07144444,"rng_nm":50,"alt_fmsl":0,"id":"EHM","desc":"CAPE NEWENHAM NDB"},
{"type":"NDB","hdg_t":94.3,"dist_nm":37.5,"freq":393,"lat":59.06408333,"lon":-160.37408333,"rng_nm":50,"alt_fmsl":0,"id":"TOG","desc":"TOGIAK NDB"},
{"type":"VOR","hdg_t":93.2,"dist_nm":94.1,"freq":116.4,"lat":58.99422222,"lon":-158.55222222,"rng_nm":130,"alt_fmsl":81,"id":"DLG","desc":"DILLINGHAM VOR-DME"},
{"type":"NDB","hdg_t":93,"dist_nm":94.2,"freq":429,"lat":58.99961111,"lon":-158.54830556,"rng_nm":50,"alt_fmsl":0,"id":"BTS","desc":"WOOD RIVER NDB"},
{"type":"VOR","hdg_t":355.9,"dist_nm":100.5,"freq":114.1,"lat":60.78483333,"lon":-161.82433333,"rng_nm":130,"alt_fmsl":98,"id":"BET","desc":"BETHEL VORTAC"},
{"type":"NDB","hdg_t":355.1,"dist_nm":101,"freq":251,"lat":60.79130556,"lon":-161.87275000,"rng_nm":50,"alt_fmsl":0,"id":"OSE","desc":"OSCARVILLE NDB"},
{"type":"NDB","hdg_t":96.6,"dist_nm":151,"freq":355,"lat":58.73716700,"lon":-156.77830800,"rng_nm":50,"alt_fmsl":0,"id":"AK","desc":"SALDO NDB"},
{"type":"NDB","hdg_t":96.6,"dist_nm":151,"freq":355,"lat":58.73716667,"lon":-156.77830556,"rng_nm":50,"alt_fmsl":0,"id":"AUB","desc":"CHINOOK NDB"},
{"type":"VOR","hdg_t":96.8,"dist_nm":152,"freq":112.8,"lat":58.72472222,"lon":-156.75233333,"rng_nm":130,"alt_fmsl":95,"id":"AKN","desc":"KING SALMON VORTAC"},
{"type":"NDB","hdg_t":300.4,"dist_nm":159.9,"freq":323,"lat":60.38502778,"lon":-166.21477778,"rng_nm":50,"alt_fmsl":0,"id":"AIX","desc":"NANWAK NDB"}
]
}
