{"success":true,"source":"xp2csv.pl","last_updated":"2013/11/08 14:53:21 UTC"
,"icao":"GO66","name":"Dodji","lat":15.54386,"lon":-14.9583415,"rwys":1,"ils":0,"index":2710112,"path":"w020n10/w015n15"
,"runways":[
{"len_m":1595,"wid_m":43.89,"hdg":15,"surf":"Dirt","rwy1":"02","lat1":15.53690300,"lon1":-14.96028900,"rwy2":"20","lat2":15.55081700,"lon2":-14.95639400}
]
,"navaids":[
{"type":"NDB","hdg_t":359.5,"dist_nm":66,"freq":376,"lat":16.64928400,"lon":-14.96652200,"rng_nm":50,"alt_fmsl":79,"id":"SR","desc":"PODOR NDB"},
{"type":"NDB","hdg_t":66.2,"dist_nm":91.5,"freq":289,"lat":16.15662500,"lon":-13.50739400,"rng_nm":25,"alt_fmsl":0,"id":"KAE","desc":"KAEDI NDB"},
{"type":"NDB","hdg_t":289.3,"dist_nm":91.8,"freq":355,"lat":16.04908300,"lon":-16.45713900,"rng_nm":25,"alt_fmsl":68,"id":"SLO","desc":"SAINT LOUIS NDB"},
{"type":"NDB","hdg_t":88.2,"dist_nm":95.3,"freq":384,"lat":15.58670400,"lon":-13.31285800,"rng_nm":50,"alt_fmsl":144,"id":"MA","desc":"MATAM/OURO SOGUI NDB"},
{"type":"NDB","hdg_t":217.3,"dist_nm":104,"freq":350,"lat":14.15711100,"lon":-16.04188900,"rng_nm":50,"alt_fmsl":85,"id":"SKK","desc":"KAOLACK NDB"},
{"type":"NDB","hdg_t":144.9,"dist_nm":131.7,"freq":370,"lat":13.73566700,"lon":-13.66305600,"rng_nm":50,"alt_fmsl":220,"id":"STD","desc":"TAMBACOUNDA NDB"},
{"type":"VOR","hdg_t":145,"dist_nm":132,"freq":114.5,"lat":13.72769400,"lon":-13.66397200,"rng_nm":130,"alt_fmsl":177,"id":"TD","desc":"TAMBACOUNDA VOR"},
{"type":"VOR","hdg_t":252.2,"dist_nm":153.6,"freq":113.1,"lat":14.74483300,"lon":-17.47477800,"rng_nm":130,"alt_fmsl":111,"id":"YF","desc":"DAKAR VOR-DME"},
{"type":"NDB","hdg_t":251.6,"dist_nm":154.6,"freq":323,"lat":14.71666700,"lon":-17.48333300,"rng_nm":25,"alt_fmsl":144,"id":"SDS","desc":"DAKAR NDB"},
{"type":"NDB","hdg_t":180.1,"dist_nm":158.9,"freq":344,"lat":12.88293500,"lon":-14.96652500,"rng_nm":50,"alt_fmsl":92,"id":"KD","desc":"KOLDA NDB"}
]
}
