{"success":true,"source":"xp2csv.pl","last_updated":"2013/11/08 14:53:21 UTC"
,"icao":"GUFH","name":"Faranah","lat":10.035468,"lon":-10.7698265,"rwys":1,"ils":0,"index":2775297,"path":"w020n10/w011n10"
,"runways":[
{"len_m":2371,"wid_m":45.11,"hdg":82,"surf":"Asphalt","rwy1":"09","lat1":10.03415000,"lon1":-10.78056100,"rwy2":"27","lat2":10.03678600,"lon2":-10.75909200}
]
,"radios":[
{"type":"TWR","freq":118.5,"desc":"TWR"}
]
,"navaids":[
{"type":"VOR","hdg_t":32.3,"dist_nm":1,"freq":112.1,"lat":10.05089600,"lon":-10.75995600,"rng_nm":130,"alt_fmsl":0,"id":"FRH","desc":"FARANAH VOR"},
{"type":"NDB","hdg_t":31.5,"dist_nm":1,"freq":350,"lat":10.05104400,"lon":-10.76016100,"rng_nm":25,"alt_fmsl":0,"id":"FH","desc":"FARANAH NDB"},
{"type":"NDB","hdg_t":143.3,"dist_nm":64.4,"freq":387,"lat":9.16936900,"lon":-10.12181900,"rng_nm":25,"alt_fmsl":0,"id":"KU","desc":"KISSIDOUGOU NDB"},
{"type":"NDB","hdg_t":76.8,"dist_nm":90.2,"freq":276,"lat":10.37605000,"lon":-9.28347500,"rng_nm":25,"alt_fmsl":0,"id":"KN","desc":"KANKAN NDB"},
{"type":"NDB","hdg_t":118.2,"dist_nm":99.3,"freq":286,"lat":9.24596100,"lon":-9.29491500,"rng_nm":50,"alt_fmsl":0,"id":"GK","desc":"GBENKO NDB"},
{"type":"NDB","hdg_t":141.6,"dist_nm":118,"freq":395,"lat":8.48436100,"lon":-9.53681100,"rng_nm":25,"alt_fmsl":0,"id":"MA","desc":"MACENTA NDB"},
{"type":"NDB","hdg_t":310.8,"dist_nm":118.2,"freq":340,"lat":11.32605800,"lon":-12.28685000,"rng_nm":25,"alt_fmsl":0,"id":"LB","desc":"LABE NDB"},
{"type":"NDB","hdg_t":48.7,"dist_nm":124,"freq":282,"lat":11.40106100,"lon":-9.18680600,"rng_nm":50,"alt_fmsl":0,"id":"SI","desc":"SIGUIRI NDB"},
{"type":"NDB","hdg_t":240,"dist_nm":164.4,"freq":339,"lat":8.65100900,"lon":-13.16669400,"rng_nm":50,"alt_fmsl":0,"id":"LGI","desc":"FREETOWN LUNGI NDB"},
{"type":"NDB","hdg_t":239.2,"dist_nm":165.8,"freq":270,"lat":8.60658500,"lon":-13.16766600,"rng_nm":50,"alt_fmsl":0,"id":"SL","desc":"FREETOWN LUNGI NDB"}
]
}
