{"success":true,"source":"xp2csv.pl","last_updated":"2013/11/08 14:53:21 UTC"
,"icao":"H57","name":"Bismarck Memorial","lat":37.75421666,"lon":-90.61679223,"rwys":1,"ils":0,"index":1466353,"path":"w100n30/w091n37"
,"runways":[
{"len_m":624,"wid_m":14.94,"hdg":171,"surf":"Asphalt","rwy1":"17","lat1":37.75700085,"lon1":-90.61728713,"rwy2":"35","lat2":37.75143247,"lon2":-90.61629733}
]
,"navaids":[
{"type":"NDB","hdg_t":86.2,"dist_nm":8.9,"freq":367,"lat":37.76391667,"lon":-90.42866667,"rng_nm":50,"alt_fmsl":0,"id":"PRI","desc":"PERRINE NDB"},
{"type":"VOR","hdg_t":104.7,"dist_nm":18.8,"freq":115.7,"lat":37.67347222,"lon":-90.23405556,"rng_nm":130,"alt_fmsl":1222,"id":"FAM","desc":"FARMINGTON VORTAC"},
{"type":"NDB","hdg_t":22.2,"dist_nm":28.6,"freq":269,"lat":38.19588889,"lon":-90.38761111,"rng_nm":50,"alt_fmsl":0,"id":"FES","desc":"FESTUS NDB"},
{"type":"NDB","hdg_t":318.1,"dist_nm":38.8,"freq":356,"lat":38.23552778,"lon":-91.16408333,"rng_nm":50,"alt_fmsl":0,"id":"UUV","desc":"SULLIVAN NDB"},
{"type":"NDB","hdg_t":61.3,"dist_nm":49.3,"freq":239,"lat":38.14532800,"lon":-89.70232200,"rng_nm":25,"alt_fmsl":532,"id":"SAR","desc":"SPARTA NDB"},
{"type":"NDB","hdg_t":29.7,"dist_nm":52.9,"freq":350,"lat":38.51991667,"lon":-90.05902778,"rng_nm":50,"alt_fmsl":0,"id":"CP","desc":"ACORE NDB"},
{"type":"NDB","hdg_t":124.1,"dist_nm":53,"freq":248,"lat":37.25341667,"lon":-89.70061111,"rng_nm":50,"alt_fmsl":0,"id":"CG","desc":"DUTCH NDB"},
{"type":"NDB","hdg_t":352.4,"dist_nm":53.5,"freq":326,"lat":38.63908333,"lon":-90.76694444,"rng_nm":50,"alt_fmsl":0,"id":"SU","desc":"SNOOP NDB"},
{"type":"NDB","hdg_t":3.3,"dist_nm":55.4,"freq":227,"lat":38.67738889,"lon":-90.54750000,"rng_nm":50,"alt_fmsl":0,"id":"FZ","desc":"EAVES NDB"},
{"type":"VOR","hdg_t":260.4,"dist_nm":56.6,"freq":113.4,"lat":37.59077778,"lon":-91.78858333,"rng_nm":40,"alt_fmsl":1370,"id":"MAP","desc":"MAPLES VORTAC"},
{"type":"VOR","hdg_t":295.1,"dist_nm":57,"freq":117.7,"lat":38.15408333,"lon":-91.70677778,"rng_nm":40,"alt_fmsl":1105,"id":"VIH","desc":"VICHY VOR-DME"},
{"type":"VOR","hdg_t":343.5,"dist_nm":58.7,"freq":110.8,"lat":38.69433333,"lon":-90.97116667,"rng_nm":40,"alt_fmsl":818,"id":"FTZ","desc":"FORISTELL VORTAC"},
{"type":"NDB","hdg_t":43.4,"dist_nm":58.9,"freq":362,"lat":38.46475000,"lon":-89.75640300,"rng_nm":25,"alt_fmsl":419,"id":"BL","desc":"BELLEVILLE NDB"},
{"type":"VOR","hdg_t":122,"dist_nm":59,"freq":112.9,"lat":37.22752778,"lon":-89.57238889,"rng_nm":40,"alt_fmsl":340,"id":"CGI","desc":"CAPE GIRARDEAU VOR-DME"},
{"type":"SDME","hdg_t":37.1,"dist_nm":59.6,"freq":112.2,"lat":38.54536700,"lon":-89.85164700,"rng_nm":25,"alt_fmsl":482,"id":"SKE","desc":"SCOTT TACAN"},
{"type":"NDB","hdg_t":43.5,"dist_nm":60.1,"freq":385,"lat":38.47800000,"lon":-89.73786111,"rng_nm":50,"alt_fmsl":0,"id":"JD","desc":"GOOEY NDB"},
{"type":"VOR","hdg_t":11.3,"dist_nm":61,"freq":116.45,"lat":38.75275000,"lon":-90.36097222,"rng_nm":130,"alt_fmsl":530,"id":"CSX","desc":"CARDINAL VOR-DME"},
{"type":"NDB","hdg_t":6,"dist_nm":63,"freq":338,"lat":38.80033333,"lon":-90.47475000,"rng_nm":50,"alt_fmsl":0,"id":"LM","desc":"OBLIO NDB"},
{"type":"NDB","hdg_t":14.3,"dist_nm":63.9,"freq":404,"lat":38.78805556,"lon":-90.27886111,"rng_nm":50,"alt_fmsl":0,"id":"ST","desc":"ZUMAY NDB"},
{"type":"NDB","hdg_t":83.4,"dist_nm":65.5,"freq":388,"lat":37.87025000,"lon":-89.24552778,"rng_nm":50,"alt_fmsl":0,"id":"MD","desc":"CABBI NDB"},
{"type":"NDB","hdg_t":167.9,"dist_nm":66.4,"freq":278,"lat":36.66908333,"lon":-90.32838889,"rng_nm":50,"alt_fmsl":0,"id":"FD","desc":"EARLI NDB"},
{"type":"VOR","hdg_t":5.4,"dist_nm":66.6,"freq":117.4,"lat":38.86069444,"lon":-90.48236111,"rng_nm":130,"alt_fmsl":450,"id":"STL","desc":"ST LOUIS VORTAC"},
{"type":"VOR","hdg_t":28.9,"dist_nm":67.6,"freq":116,"lat":38.73916667,"lon":-89.91863889,"rng_nm":40,"alt_fmsl":570,"id":"TOY","desc":"TROY VORTAC"},
{"type":"NDB","hdg_t":229.3,"dist_nm":69.4,"freq":365,"lat":36.99394444,"lon":-91.71263889,"rng_nm":50,"alt_fmsl":0,"id":"MNF","desc":"MOUNTAIN VIEW NDB"},
{"type":"NDB","hdg_t":267.7,"dist_nm":70.8,"freq":391,"lat":37.69755556,"lon":-92.10380556,"rng_nm":50,"alt_fmsl":0,"id":"BHN","desc":"BUCKHORN NDB"},
{"type":"NDB","hdg_t":135.5,"dist_nm":72.3,"freq":272,"lat":36.88781100,"lon":-89.56478600,"rng_nm":25,"alt_fmsl":350,"id":"SIK","desc":"SIKESTON NDB"},
{"type":"VOR","hdg_t":269.9,"dist_nm":72.4,"freq":110,"lat":37.74241667,"lon":-92.13900000,"rng_nm":40,"alt_fmsl":0,"id":"TBN","desc":"FORNEY VOR"},
{"type":"NDB","hdg_t":21,"dist_nm":73.1,"freq":263,"lat":38.89230556,"lon":-90.05627778,"rng_nm":50,"alt_fmsl":0,"id":"CVM","desc":"CIVIC MEMORIAL NDB"},
{"type":"NDB","hdg_t":25.7,"dist_nm":73.3,"freq":218,"lat":38.85500000,"lon":-89.93805556,"rng_nm":50,"alt_fmsl":0,"id":"AL","desc":"ALPOS NDB"},
{"type":"VOR","hdg_t":89.5,"dist_nm":76.3,"freq":110.4,"lat":37.75425000,"lon":-89.01166667,"rng_nm":40,"alt_fmsl":468,"id":"MWA","desc":"MARION VOR-DME"},
{"type":"NDB","hdg_t":121.4,"dist_nm":78.4,"freq":397,"lat":37.06172222,"lon":-89.22341667,"rng_nm":50,"alt_fmsl":0,"id":"CIR","desc":"CAIRO NDB"},
{"type":"NDB","hdg_t":85.7,"dist_nm":78.4,"freq":382,"lat":37.83916667,"lon":-88.97077778,"rng_nm":50,"alt_fmsl":0,"id":"MW","desc":"JONNY NDB"},
{"type":"VOR","hdg_t":154.5,"dist_nm":79.4,"freq":111.2,"lat":36.55511111,"lon":-89.91141667,"rng_nm":40,"alt_fmsl":280,"id":"MAW","desc":"MALDEN VORTAC"},
{"type":"VOR","hdg_t":59.5,"dist_nm":79.7,"freq":115,"lat":38.42000000,"lon":-89.15900000,"rng_nm":130,"alt_fmsl":546,"id":"ENL","desc":"CENTRALIA VORTAC"},
{"type":"VOR","hdg_t":229.6,"dist_nm":81,"freq":111.6,"lat":36.87138889,"lon":-91.90000000,"rng_nm":40,"alt_fmsl":1220,"id":"HUW","desc":"HUTTON VOR-DME"},
{"type":"NDB","hdg_t":131.7,"dist_nm":81.2,"freq":208,"lat":36.84505556,"lon":-89.35675000,"rng_nm":50,"alt_fmsl":0,"id":"CHQ","desc":"CHARLESTON NDB"},
{"type":"NDB","hdg_t":305,"dist_nm":83.7,"freq":397,"lat":38.54800000,"lon":-92.07200000,"rng_nm":50,"alt_fmsl":0,"id":"JE","desc":"ALGOA (LOM/NDB) NDB"},
{"type":"NDB","hdg_t":41.8,"dist_nm":87.4,"freq":233,"lat":38.83421400,"lon":-89.37230000,"rng_nm":25,"alt_fmsl":539,"id":"GRE","desc":"GREENVILLE NDB"},
{"type":"VOR","hdg_t":66.4,"dist_nm":93.1,"freq":113.8,"lat":38.36194444,"lon":-88.80733333,"rng_nm":40,"alt_fmsl":558,"id":"VNN","desc":"MT VERNON VOR-DME"},
{"type":"NDB","hdg_t":304.9,"dist_nm":93.4,"freq":515,"lat":38.63713889,"lon":-92.24475000,"rng_nm":50,"alt_fmsl":0,"id":"ONH","desc":"NOAH NDB"},
{"type":"NDB","hdg_t":189.1,"dist_nm":93.8,"freq":227,"lat":36.20697222,"lon":-90.92311111,"rng_nm":50,"alt_fmsl":0,"id":"TNZ","desc":"LAWRENCE COUNTY NDB"},
{"type":"NDB","hdg_t":283.1,"dist_nm":94.1,"freq":377,"lat":38.09661111,"lon":-92.55308333,"rng_nm":50,"alt_fmsl":0,"id":"AIZ","desc":"KAISER NDB"},
{"type":"NDB","hdg_t":55.1,"dist_nm":94.4,"freq":400,"lat":38.64402778,"lon":-88.96736111,"rng_nm":50,"alt_fmsl":0,"id":"SLO","desc":"SALEM NDB"},
{"type":"VOR","hdg_t":280.9,"dist_nm":95.8,"freq":108.4,"lat":38.04061111,"lon":-92.60241667,"rng_nm":40,"alt_fmsl":910,"id":"SHY","desc":"SUNSHINE VOR-DME"},
{"type":"VOR","hdg_t":117.1,"dist_nm":96.1,"freq":113.1,"lat":37.00861111,"lon":-88.83691667,"rng_nm":40,"alt_fmsl":480,"id":"CNG","desc":"CUNNINGHAM VORTAC"},
{"type":"NDB","hdg_t":306.9,"dist_nm":97,"freq":407,"lat":38.71672222,"lon":-92.26838889,"rng_nm":50,"alt_fmsl":0,"id":"CO","desc":"ZODIA NDB"},
{"type":"NDB","hdg_t":264.1,"dist_nm":97.8,"freq":414,"lat":37.57127778,"lon":-92.65780556,"rng_nm":50,"alt_fmsl":0,"id":"IEB","desc":"LEBANON NDB"},
{"type":"NDB","hdg_t":87.3,"dist_nm":98.5,"freq":230,"lat":37.81158333,"lon":-88.54533333,"rng_nm":50,"alt_fmsl":0,"id":"HSB","desc":"HARRISBURG-RALEIG NDB"},
{"type":"VOR","hdg_t":310.4,"dist_nm":98.6,"freq":110.2,"lat":38.81083333,"lon":-92.21827778,"rng_nm":40,"alt_fmsl":883,"id":"COU","desc":"COLUMBIA VOR-DME"},
{"type":"NDB","hdg_t":110.8,"dist_nm":99.8,"freq":254,"lat":37.14550000,"lon":-88.67047222,"rng_nm":50,"alt_fmsl":0,"id":"BDD","desc":"BELLGRADE NDB"},
{"type":"VOR","hdg_t":189.4,"dist_nm":99.8,"freq":114.5,"lat":36.11002778,"lon":-90.95369444,"rng_nm":130,"alt_fmsl":302,"id":"ARG","desc":"WALNUT RIDGE VORTAC"}
]
}
