{"success":true,"source":"xp2csv.pl","last_updated":"2013/11/08 14:53:21 UTC"
,"icao":"H83","name":"Enoch","lat":39.52837055,"lon":-88.76395973,"rwys":1,"ils":0,"index":1499232,"path":"w090n30/w089n39"
,"runways":[
{"len_m":730,"wid_m":21.34,"hdg":180,"surf":"Turf/grass","rwy1":"18","lat1":39.53166213,"lon1":-88.76395973,"rwy2":"36","lat2":39.52507897,"lon2":-88.76395973}
]
,"navaids":[
{"type":"NDB","hdg_t":206.9,"dist_nm":8.1,"freq":365,"lat":39.40669444,"lon":-88.84369444,"rng_nm":50,"alt_fmsl":0,"id":"SYZ","desc":"SHELBYVILLE NDB"},
{"type":"VOR","hdg_t":341.1,"dist_nm":13.2,"freq":117.2,"lat":39.73752778,"lon":-88.85644444,"rng_nm":130,"alt_fmsl":708,"id":"AXC","desc":"ADDERS VORTAC"},
{"type":"NDB","hdg_t":330.8,"dist_nm":18,"freq":275,"lat":39.79052778,"lon":-88.95388889,"rng_nm":50,"alt_fmsl":0,"id":"DE","desc":"ELWIN NDB"},
{"type":"VOR","hdg_t":97.5,"dist_nm":22.3,"freq":109.4,"lat":39.47800000,"lon":-88.28605556,"rng_nm":40,"alt_fmsl":720,"id":"MTO","desc":"MATTOON VOR-DME"},
{"type":"NDB","hdg_t":271.2,"dist_nm":25.9,"freq":395,"lat":39.53611111,"lon":-89.32361111,"rng_nm":50,"alt_fmsl":0,"id":"TAZ","desc":"TAYLORVILLE NDB"},
{"type":"NDB","hdg_t":100.4,"dist_nm":27.9,"freq":347,"lat":39.44241667,"lon":-88.17347222,"rng_nm":50,"alt_fmsl":0,"id":"MT","desc":"ZEBRE NDB"},
{"type":"VOR","hdg_t":215.5,"dist_nm":31.9,"freq":114.3,"lat":39.09369444,"lon":-89.16247222,"rng_nm":40,"alt_fmsl":604,"id":"VLA","desc":"VANDALIA VORTAC"},
{"type":"NDB","hdg_t":45.5,"dist_nm":37.5,"freq":407,"lat":39.96622222,"lon":-88.18244444,"rng_nm":50,"alt_fmsl":0,"id":"CM","desc":"VEALS NDB"},
{"type":"NDB","hdg_t":110.4,"dist_nm":37.8,"freq":359,"lat":39.30522222,"lon":-88.00194444,"rng_nm":50,"alt_fmsl":0,"id":"CZB","desc":"CASEY NDB"},
{"type":"VOR","hdg_t":36.4,"dist_nm":37.8,"freq":110,"lat":40.03452778,"lon":-88.27605556,"rng_nm":40,"alt_fmsl":745,"id":"CMI","desc":"CHAMPAIGN VORTAC"},
{"type":"VOR","hdg_t":160,"dist_nm":38.7,"freq":109,"lat":38.92036111,"lon":-88.48180556,"rng_nm":40,"alt_fmsl":540,"id":"BIB","desc":"BIBLE GROVE VORTAC"},
{"type":"NDB","hdg_t":292.8,"dist_nm":41.5,"freq":240,"lat":39.79461111,"lon":-89.59275000,"rng_nm":50,"alt_fmsl":0,"id":"CJ","desc":"CALDE NDB"},
{"type":"NDB","hdg_t":300.8,"dist_nm":45.1,"freq":375,"lat":39.91202778,"lon":-89.60305556,"rng_nm":50,"alt_fmsl":0,"id":"LQ","desc":"LICOL NDB"},
{"type":"NDB","hdg_t":325.1,"dist_nm":46.2,"freq":329,"lat":40.16013889,"lon":-89.33775000,"rng_nm":50,"alt_fmsl":0,"id":"AAA","desc":"ABRAHAM NDB"},
{"type":"VOR","hdg_t":294,"dist_nm":46.2,"freq":112.7,"lat":39.83972222,"lon":-89.67772222,"rng_nm":130,"alt_fmsl":586,"id":"SPI","desc":"SPINNER VORTAC"},
{"type":"NDB","hdg_t":51.2,"dist_nm":47.9,"freq":281,"lat":40.02641667,"lon":-87.95308333,"rng_nm":50,"alt_fmsl":0,"id":"HMJ","desc":"HOMER NDB"},
{"type":"NDB","hdg_t":287.9,"dist_nm":48.4,"freq":382,"lat":39.77313889,"lon":-89.75988889,"rng_nm":50,"alt_fmsl":0,"id":"SP","desc":"HUSKK NDB"},
{"type":"NDB","hdg_t":214.4,"dist_nm":50.3,"freq":233,"lat":38.83421400,"lon":-89.37230000,"rng_nm":25,"alt_fmsl":539,"id":"GRE","desc":"GREENVILLE NDB"},
{"type":"NDB","hdg_t":78.2,"dist_nm":51.5,"freq":341,"lat":39.69836111,"lon":-87.67419444,"rng_nm":50,"alt_fmsl":0,"id":"PRG","desc":"PARIS NDB"},
{"type":"NDB","hdg_t":164.1,"dist_nm":53.5,"freq":353,"lat":38.66893600,"lon":-88.45310300,"rng_nm":25,"alt_fmsl":472,"id":"FOA","desc":"ELM RIVER NDB"},
{"type":"NDB","hdg_t":190.2,"dist_nm":53.8,"freq":400,"lat":38.64402778,"lon":-88.96736111,"rng_nm":50,"alt_fmsl":0,"id":"SLO","desc":"SALEM NDB"},
{"type":"NDB","hdg_t":150.2,"dist_nm":55.8,"freq":272,"lat":38.71811111,"lon":-88.17280556,"rng_nm":50,"alt_fmsl":0,"id":"OLY","desc":"OLNEY NDB"},
{"type":"VOR","hdg_t":352.3,"dist_nm":57.6,"freq":108.2,"lat":40.48080556,"lon":-88.93127778,"rng_nm":40,"alt_fmsl":882,"id":"BMI","desc":"BLOOMINGTON VOR-DME"},
{"type":"VOR","hdg_t":120.1,"dist_nm":60.3,"freq":108.4,"lat":39.01763889,"lon":-87.64883333,"rng_nm":25,"alt_fmsl":452,"id":"RSV","desc":"CRAWFORD CO VOR-DME"},
{"type":"NDB","hdg_t":120.1,"dist_nm":60.7,"freq":391,"lat":39.01408333,"lon":-87.64161111,"rng_nm":50,"alt_fmsl":0,"id":"PLX","desc":"PALESTINE NDB"},
{"type":"NDB","hdg_t":355.3,"dist_nm":62,"freq":334,"lat":40.56036111,"lon":-88.87463889,"rng_nm":50,"alt_fmsl":0,"id":"LH","desc":"EGROW NDB"},
{"type":"NDB","hdg_t":97.1,"dist_nm":64,"freq":245,"lat":39.38783333,"lon":-87.39769444,"rng_nm":50,"alt_fmsl":0,"id":"HU","desc":"YINNO NDB"},
{"type":"NDB","hdg_t":111.6,"dist_nm":66.1,"freq":326,"lat":39.11355556,"lon":-87.44680556,"rng_nm":50,"alt_fmsl":0,"id":"SIV","desc":"SULLIVAN NDB"},
{"type":"NDB","hdg_t":233.9,"dist_nm":68,"freq":218,"lat":38.85500000,"lon":-89.93805556,"rng_nm":50,"alt_fmsl":0,"id":"AL","desc":"ALPOS NDB"},
{"type":"VOR","hdg_t":195.6,"dist_nm":68.9,"freq":115,"lat":38.42000000,"lon":-89.15900000,"rng_nm":130,"alt_fmsl":546,"id":"ENL","desc":"CENTRALIA VORTAC"},
{"type":"VOR","hdg_t":23.4,"dist_nm":68.9,"freq":116.8,"lat":40.58169444,"lon":-88.16427778,"rng_nm":40,"alt_fmsl":780,"id":"RBS","desc":"ROBERTS VOR-DME"},
{"type":"VOR","hdg_t":282.7,"dist_nm":69.9,"freq":108.6,"lat":39.77644444,"lon":-90.23872222,"rng_nm":25,"alt_fmsl":615,"id":"IJX","desc":"JACKSONVILLE VOR-DME"},
{"type":"VOR","hdg_t":181.6,"dist_nm":69.9,"freq":113.8,"lat":38.36194444,"lon":-88.80733333,"rng_nm":40,"alt_fmsl":558,"id":"VNN","desc":"MT VERNON VOR-DME"},
{"type":"VOR","hdg_t":152.8,"dist_nm":70.1,"freq":116.6,"lat":38.48519444,"lon":-88.08580556,"rng_nm":40,"alt_fmsl":540,"id":"SAM","desc":"SAMSVILLE VOR-DME"},
{"type":"VOR","hdg_t":91.4,"dist_nm":70.3,"freq":115.3,"lat":39.48894444,"lon":-87.24902778,"rng_nm":130,"alt_fmsl":606,"id":"TTH","desc":"TERRE HAUTE VORTAC"},
{"type":"VOR","hdg_t":129.6,"dist_nm":70.7,"freq":108.8,"lat":38.76986111,"lon":-87.60383333,"rng_nm":25,"alt_fmsl":430,"id":"LWV","desc":"LAWRENCEVILLE VOR-DME"},
{"type":"NDB","hdg_t":166.3,"dist_nm":70.8,"freq":257,"lat":38.38005556,"lon":-88.40977778,"rng_nm":50,"alt_fmsl":0,"id":"FWC","desc":"WAYNE CO NDB"},
{"type":"NDB","hdg_t":238,"dist_nm":71.3,"freq":263,"lat":38.89230556,"lon":-90.05627778,"rng_nm":50,"alt_fmsl":0,"id":"CVM","desc":"CIVIC MEMORIAL NDB"},
{"type":"VOR","hdg_t":229,"dist_nm":71.7,"freq":116,"lat":38.73916667,"lon":-89.91863889,"rng_nm":40,"alt_fmsl":570,"id":"TOY","desc":"TROY VORTAC"},
{"type":"VOR","hdg_t":50.1,"dist_nm":72.1,"freq":111,"lat":40.29377778,"lon":-87.55719444,"rng_nm":40,"alt_fmsl":700,"id":"DNV","desc":"DANVILLE VORTAC"},
{"type":"NDB","hdg_t":50.9,"dist_nm":73,"freq":332,"lat":40.28952778,"lon":-87.52975000,"rng_nm":50,"alt_fmsl":0,"id":"DN","desc":"JULIP NDB"},
{"type":"NDB","hdg_t":138.2,"dist_nm":73.3,"freq":524,"lat":38.61175000,"lon":-87.72550000,"rng_nm":50,"alt_fmsl":0,"id":"AJG","desc":"MOUNT CARMEL NDB"},
{"type":"NDB","hdg_t":329.6,"dist_nm":75,"freq":356,"lat":40.60566667,"lon":-89.59313889,"rng_nm":50,"alt_fmsl":0,"id":"PI","desc":"TUNGG NDB"},
{"type":"NDB","hdg_t":131.2,"dist_nm":75.5,"freq":251,"lat":38.69075000,"lon":-87.55577778,"rng_nm":50,"alt_fmsl":0,"id":"OEA","desc":"VINCENNES NDB"},
{"type":"VOR","hdg_t":1,"dist_nm":77.5,"freq":109.6,"lat":40.82119444,"lon":-88.73350000,"rng_nm":40,"alt_fmsl":679,"id":"PNT","desc":"PONTIAC VOR-DME"},
{"type":"NDB","hdg_t":216.1,"dist_nm":77.7,"freq":385,"lat":38.47800000,"lon":-89.73786111,"rng_nm":50,"alt_fmsl":0,"id":"JD","desc":"GOOEY NDB"},
{"type":"SDME","hdg_t":221.1,"dist_nm":77.8,"freq":112.2,"lat":38.54536700,"lon":-89.85164700,"rng_nm":25,"alt_fmsl":482,"id":"SKE","desc":"SCOTT TACAN"},
{"type":"NDB","hdg_t":216.3,"dist_nm":78.8,"freq":362,"lat":38.46475000,"lon":-89.75640300,"rng_nm":25,"alt_fmsl":419,"id":"BL","desc":"BELLEVILLE NDB"},
{"type":"NDB","hdg_t":238.3,"dist_nm":83.4,"freq":404,"lat":38.78805556,"lon":-90.27886111,"rng_nm":50,"alt_fmsl":0,"id":"ST","desc":"ZUMAY NDB"},
{"type":"VOR","hdg_t":325.8,"dist_nm":83.7,"freq":115.2,"lat":40.68008333,"lon":-89.79302778,"rng_nm":40,"alt_fmsl":731,"id":"PIA","desc":"PEORIA VORTAC"},
{"type":"NDB","hdg_t":225.4,"dist_nm":85.5,"freq":350,"lat":38.51991667,"lon":-90.05902778,"rng_nm":50,"alt_fmsl":0,"id":"CP","desc":"ACORE NDB"},
{"type":"NDB","hdg_t":316.2,"dist_nm":86.7,"freq":236,"lat":40.56586111,"lon":-90.07705556,"rng_nm":50,"alt_fmsl":0,"id":"CTK","desc":"CANTON NDB"},
{"type":"VOR","hdg_t":238.5,"dist_nm":87.8,"freq":116.45,"lat":38.75275000,"lon":-90.36097222,"rng_nm":130,"alt_fmsl":530,"id":"CSX","desc":"CARDINAL VOR-DME"},
{"type":"VOR","hdg_t":244,"dist_nm":89.5,"freq":117.4,"lat":38.86069444,"lon":-90.48236111,"rng_nm":130,"alt_fmsl":450,"id":"STL","desc":"ST LOUIS VORTAC"},
{"type":"NDB","hdg_t":71.8,"dist_nm":89.7,"freq":388,"lat":39.98097222,"lon":-86.91572222,"rng_nm":50,"alt_fmsl":0,"id":"CFJ","desc":"CRAWFORDSVILLE NDB"},
{"type":"NDB","hdg_t":241.8,"dist_nm":90.9,"freq":338,"lat":38.80033333,"lon":-90.47475000,"rng_nm":50,"alt_fmsl":0,"id":"LM","desc":"OBLIO NDB"},
{"type":"NDB","hdg_t":122.7,"dist_nm":91,"freq":212,"lat":38.69605556,"lon":-87.13261111,"rng_nm":50,"alt_fmsl":0,"id":"DCY","desc":"WASHINGTON NDB"},
{"type":"NDB","hdg_t":160.4,"dist_nm":91.1,"freq":332,"lat":38.09350000,"lon":-88.11963889,"rng_nm":50,"alt_fmsl":0,"id":"CUL","desc":"CARMI NDB"},
{"type":"NDB","hdg_t":82.3,"dist_nm":91.4,"freq":521,"lat":39.71408333,"lon":-86.80602778,"rng_nm":50,"alt_fmsl":0,"id":"TVX","desc":"GREENCASTLE NDB"},
{"type":"NDB","hdg_t":274.7,"dist_nm":93.8,"freq":344,"lat":39.64031700,"lon":-90.78280000,"rng_nm":25,"alt_fmsl":702,"id":"PPQ","desc":"PITTSFIELD NDB"},
{"type":"NDB","hdg_t":208.2,"dist_nm":93.8,"freq":239,"lat":38.14532800,"lon":-89.70232200,"rng_nm":25,"alt_fmsl":532,"id":"SAR","desc":"SPARTA NDB"},
{"type":"NDB","hdg_t":55.1,"dist_nm":95.5,"freq":401,"lat":40.42644444,"lon":-87.05180556,"rng_nm":50,"alt_fmsl":0,"id":"LA","desc":"EARLE NDB"},
{"type":"NDB","hdg_t":239,"dist_nm":97.6,"freq":227,"lat":38.67738889,"lon":-90.54750000,"rng_nm":50,"alt_fmsl":0,"id":"FZ","desc":"EAVES NDB"},
{"type":"NDB","hdg_t":23.5,"dist_nm":97.6,"freq":272,"lat":41.01788889,"lon":-87.90372222,"rng_nm":50,"alt_fmsl":0,"id":"IK","desc":"LUKOW NDB"},
{"type":"VOR","hdg_t":51.1,"dist_nm":99.4,"freq":115.1,"lat":40.55611111,"lon":-87.06933333,"rng_nm":130,"alt_fmsl":750,"id":"BVT","desc":"BOILER VORTAC"}
]
}
