{"success":true,"source":"xp2csv.pl","last_updated":"2013/11/08 14:53:21 UTC"
,"icao":"HASO","name":"Asosa","lat":10.018549,"lon":34.586253,"rwys":1,"ils":0,"index":3512580,"path":"e030n10/e034n10"
,"runways":[
{"len_m":1947,"wid_m":46.33,"hdg":114,"surf":"Asphalt","rwy1":"11","lat1":10.02224200,"lon1":34.57818900,"rwy2":"29","lat2":10.01485600,"lon2":34.59431700}
]
,"navaids":[
{"type":"NDB","hdg_t":352.2,"dist_nm":106.8,"freq":343,"lat":11.79092800,"lon":34.34013100,"rng_nm":25,"alt_fmsl":0,"id":"DMZ","desc":"DAMAZIN NDB"},
{"type":"NDB","hdg_t":180.3,"dist_nm":112.4,"freq":300,"lat":8.13500000,"lon":34.57333300,"rng_nm":150,"alt_fmsl":1771,"id":"GM","desc":"GAMBELLA NDB"},
{"type":"NDB","hdg_t":180.6,"dist_nm":114,"freq":450,"lat":8.10817800,"lon":34.56310600,"rng_nm":50,"alt_fmsl":0,"id":"BR","desc":"GAMBELLA NDB"},
{"type":"VOR","hdg_t":261.3,"dist_nm":175.8,"freq":112.7,"lat":9.56316700,"lon":31.65316900,"rng_nm":130,"alt_fmsl":1316,"id":"MLK","desc":"MALAKAL VOR-DME"},
{"type":"NDB","hdg_t":85.3,"dist_nm":182.8,"freq":235,"lat":10.25000000,"lon":37.66666700,"rng_nm":100,"alt_fmsl":0,"id":"DM","desc":"DEBRE MARCOS NDB"},
{"type":"NDB","hdg_t":59.4,"dist_nm":185.9,"freq":420,"lat":11.59149400,"lon":37.30475600,"rng_nm":100,"alt_fmsl":0,"id":"TN","desc":"BAHIR DAR NDB"},
{"type":"NDB","hdg_t":136.4,"dist_nm":193.1,"freq":263,"lat":7.66871100,"lon":36.82157800,"rng_nm":150,"alt_fmsl":5587,"id":"JM","desc":"JIMMA NDB"},
{"type":"NDB","hdg_t":136.4,"dist_nm":194.1,"freq":252,"lat":7.65540600,"lon":36.83178100,"rng_nm":50,"alt_fmsl":0,"id":"KT","desc":"JIMMA NDB"},
{"type":"VOR","hdg_t":331.3,"dist_nm":205.1,"freq":115.4,"lat":13.02869100,"lon":32.90715700,"rng_nm":130,"alt_fmsl":1303,"id":"KNA","desc":"KENANA VOR-DME"},
{"type":"NDB","hdg_t":329.8,"dist_nm":217.9,"freq":400,"lat":13.16736900,"lon":32.71737800,"rng_nm":25,"alt_fmsl":0,"id":"KNA","desc":"KENANA NDB"}
]
}
