{"success":true,"source":"xp2csv.pl","last_updated":"2013/11/08 14:53:21 UTC"
,"icao":"HE12","name":"Inshas","lat":30.332402,"lon":31.447427,"rwys":2,"ils":0,"index":3464721,"path":"e030n30/e031n30"
,"runways":[
{"len_m":2635,"wid_m":39.93,"hdg":89,"surf":"Asphalt","rwy1":"09","lat1":30.33028600,"lon1":31.43445600,"rwy2":"27","lat2":30.33037200,"lon2":31.46185800},
{"len_m":2584,"wid_m":42.98,"hdg":46,"surf":"Asphalt","rwy1":"04","lat1":30.32652200,"lon1":31.43686900,"rwy2":"22","lat2":30.34242800,"lon2":31.45652500}
]
,"navaids":[
{"type":"NDB","hdg_t":198.1,"dist_nm":10.4,"freq":310,"lat":30.16694400,"lon":31.38500000,"rng_nm":25,"alt_fmsl":0,"id":"ALI","desc":"CAIRO NDB"},
{"type":"VOR","hdg_t":186.4,"dist_nm":10.8,"freq":112.5,"lat":30.15200000,"lon":31.42388900,"rng_nm":150,"alt_fmsl":200,"id":"CAI","desc":"CAIRO VOR-DME"},
{"type":"VOR","hdg_t":192,"dist_nm":14.6,"freq":115.2,"lat":30.09230600,"lon":31.38841700,"rng_nm":150,"alt_fmsl":460,"id":"CVO","desc":"CAIRO VOR-DME"},
{"type":"SDME","hdg_t":198,"dist_nm":15.1,"freq":116.3,"lat":30.09219200,"lon":31.35727200,"rng_nm":25,"alt_fmsl":304,"id":"MXR","desc":"ALMAZA TACAN"},
{"type":"NDB","hdg_t":196.4,"dist_nm":16.1,"freq":490,"lat":30.07401100,"lon":31.35944700,"rng_nm":50,"alt_fmsl":0,"id":"A","desc":"ALMAZA NDB"},
{"type":"NDB","hdg_t":207.2,"dist_nm":19.5,"freq":317,"lat":30.04213900,"lon":31.27544400,"rng_nm":25,"alt_fmsl":260,"id":"MKT","desc":"CAIRO NDB"},
{"type":"SDME","hdg_t":245.1,"dist_nm":30.7,"freq":116.7,"lat":30.11550000,"lon":30.91166700,"rng_nm":130,"alt_fmsl":550,"id":"BLA","desc":"CAIRO WEST TACAN"},
{"type":"NDB","hdg_t":225.9,"dist_nm":44.7,"freq":340,"lat":29.81119200,"lon":30.83033300,"rng_nm":100,"alt_fmsl":840,"id":"OCT","desc":"OCTOBER NDB"},
{"type":"VOR","hdg_t":35.5,"dist_nm":69.8,"freq":112.7,"lat":31.27880600,"lon":32.23780600,"rng_nm":200,"alt_fmsl":30,"id":"PSD","desc":"PORT SAID VOR-DME"},
{"type":"VOR","hdg_t":346.9,"dist_nm":73.5,"freq":116.9,"lat":31.52888900,"lon":31.12250000,"rng_nm":200,"alt_fmsl":10,"id":"BLT","desc":"BALTIM VOR-DME"},
{"type":"VOR","hdg_t":224.7,"dist_nm":78.4,"freq":117.3,"lat":29.39750000,"lon":30.39305600,"rng_nm":150,"alt_fmsl":50,"id":"FYM","desc":"FAYOUM VOR-DME"},
{"type":"VOR","hdg_t":303.8,"dist_nm":92.7,"freq":115.9,"lat":31.18694400,"lon":29.95036100,"rng_nm":150,"alt_fmsl":10,"id":"AXD","desc":"ALEXANDRIA VOR-DME"},
{"type":"NDB","hdg_t":304.1,"dist_nm":92.9,"freq":403,"lat":31.19491700,"lon":29.95252800,"rng_nm":100,"alt_fmsl":60,"id":"AXD","desc":"ALEXANDRIA NDB"},
{"type":"NDB","hdg_t":290.5,"dist_nm":94.6,"freq":563,"lat":30.87666700,"lon":29.73166700,"rng_nm":100,"alt_fmsl":144,"id":"DJ","desc":"BORG EL ARAB NDB"},
{"type":"NDB","hdg_t":291.1,"dist_nm":95.9,"freq":273,"lat":30.89833300,"lon":29.71250000,"rng_nm":25,"alt_fmsl":0,"id":"D","desc":"INNER BEACON NDB"}
]
}
