{"success":true,"source":"xp2csv.pl","last_updated":"2013/11/08 14:53:21 UTC"
,"icao":"HL57","name":"Al Wigh","lat":24.18067625,"lon":14.53623,"rwys":2,"ils":0,"index":3185802,"path":"e010n20/e014n24"
,"runways":[
{"len_m":3654,"wid_m":70.10,"hdg":129,"surf":"Asphalt","rwy1":"13","lat1":24.18827800,"lon1":14.53009200,"rwy2":"31","lat2":24.16706900,"lon2":14.55763900},
{"len_m":1573,"wid_m":39.93,"hdg":59,"surf":"Asphalt","rwy1":"06","lat1":24.18011100,"lon1":14.52190000,"rwy2":"24","lat2":24.18724700,"lon2":14.53528900}
]
,"navaids":[
{"type":"VOR","hdg_t":359.2,"dist_nm":166.8,"freq":114.7,"lat":26.96964200,"lon":14.49356400,"rng_nm":130,"alt_fmsl":1394,"id":"SEB","desc":"SEBHA VOR-DME"},
{"type":"NDB","hdg_t":359.3,"dist_nm":169.5,"freq":283,"lat":27.01451700,"lon":14.49880600,"rng_nm":150,"alt_fmsl":0,"id":"SEB","desc":"SEBHA NDB"},
{"type":"NDB","hdg_t":326.9,"dist_nm":173.2,"freq":291,"lat":26.59916700,"lon":12.78055600,"rng_nm":100,"alt_fmsl":0,"id":"UBR","desc":"UBARI NDB"},
{"type":"VOR","hdg_t":284.4,"dist_nm":247.1,"freq":114.8,"lat":25.14681400,"lon":10.13894200,"rng_nm":40,"alt_fmsl":2296,"id":"GHT","desc":"GHAT VOR-DME"},
{"type":"NDB","hdg_t":284.9,"dist_nm":247.7,"freq":386,"lat":25.18861100,"lon":10.13777800,"rng_nm":20,"alt_fmsl":0,"id":"GHT","desc":"GHAT NDB"},
{"type":"NDB","hdg_t":272.3,"dist_nm":278.7,"freq":274,"lat":24.28666400,"lon":9.45491100,"rng_nm":160,"alt_fmsl":3176,"id":"DJA","desc":"DJANET NDB"},
{"type":"VOR","hdg_t":272.3,"dist_nm":278.8,"freq":114.1,"lat":24.28777800,"lon":9.45333300,"rng_nm":130,"alt_fmsl":3176,"id":"DJA","desc":"DJANET VOR-DME"},
{"type":"NDB","hdg_t":29,"dist_nm":302.9,"freq":270,"lat":28.58333300,"lon":17.31666700,"rng_nm":25,"alt_fmsl":0,"id":"PRC","desc":"ZELLA 74 NDB"},
{"type":"NDB","hdg_t":14,"dist_nm":305.8,"freq":397,"lat":29.13333300,"lon":15.95000000,"rng_nm":75,"alt_fmsl":919,"id":"HON","desc":"HON NDB"},
{"type":"NDB","hdg_t":37.8,"dist_nm":309.1,"freq":245,"lat":28.21666700,"lon":18.11666700,"rng_nm":25,"alt_fmsl":0,"id":"PRB","desc":"SABAH 74 NDB"}
]
}
