{"success":true,"source":"xp2csv.pl","last_updated":"2013/11/08 14:53:21 UTC"
,"icao":"HL64","name":"Qaryat Al Karmal","lat":31.975657,"lon":20.026872,"rwys":1,"ils":0,"index":3284600,"path":"e020n30/e020n31"
,"runways":[
{"len_m":996,"wid_m":30.48,"hdg":151,"surf":"Asphalt","rwy1":"15","lat1":31.97961400,"lon1":20.02436900,"rwy2":"33","lat2":31.97170000,"lon2":20.02937500}
]
,"navaids":[
{"type":"NDB","hdg_t":60.2,"dist_nm":13.7,"freq":342,"lat":32.08944400,"lon":20.26138900,"rng_nm":150,"alt_fmsl":433,"id":"BNA","desc":"BENINA NDB"},
{"type":"VOR","hdg_t":52.1,"dist_nm":14.6,"freq":117.4,"lat":32.12500000,"lon":20.25333300,"rng_nm":130,"alt_fmsl":433,"id":"BNA","desc":"BENINA VOR-DME"},
{"type":"NDB","hdg_t":177.4,"dist_nm":66.4,"freq":369,"lat":30.86666700,"lon":20.08333300,"rng_nm":25,"alt_fmsl":0,"id":"ZUE","desc":"ZUETINA NDB"},
{"type":"NDB","hdg_t":194.1,"dist_nm":96.1,"freq":403,"lat":30.41833300,"lon":19.57250000,"rng_nm":25,"alt_fmsl":0,"id":"MB","desc":"MARSA BREGA NDB"},
{"type":"NDB","hdg_t":63.2,"dist_nm":109.8,"freq":392,"lat":32.78694400,"lon":21.96583300,"rng_nm":150,"alt_fmsl":2157,"id":"LAB","desc":"LABRAQ NDB"},
{"type":"NDB","hdg_t":221.4,"dist_nm":117,"freq":385,"lat":30.50000000,"lon":18.53333300,"rng_nm":25,"alt_fmsl":0,"id":"VR","desc":"RAS LANUF V40 NDB"},
{"type":"NDB","hdg_t":227.2,"dist_nm":118.1,"freq":300,"lat":30.62527800,"lon":18.35138900,"rng_nm":25,"alt_fmsl":0,"id":"OJ","desc":"ESSIDER NDB"},
{"type":"NDB","hdg_t":159.9,"dist_nm":158.5,"freq":310,"lat":29.48333300,"lon":21.06666700,"rng_nm":25,"alt_fmsl":0,"id":"VA","desc":"AMAL V12 NDB"},
{"type":"NDB","hdg_t":219.1,"dist_nm":171.8,"freq":317,"lat":29.73333300,"lon":17.95000000,"rng_nm":25,"alt_fmsl":0,"id":"STF","desc":"TWENTY NINE CHARLIE NDB"},
{"type":"NDB","hdg_t":167.5,"dist_nm":180.2,"freq":334,"lat":29.03333300,"lon":20.76666700,"rng_nm":25,"alt_fmsl":0,"id":"OXY","desc":"ALPHA 103 NDB"}
]
}
