{"success":true,"source":"xp2csv.pl","last_updated":"2013/11/08 14:53:21 UTC"
,"icao":"HL71","name":"Bir Umran","lat":26.3323975,"lon":13.4220835,"rwys":1,"ils":0,"index":3169553,"path":"e010n20/e013n26"
,"runways":[
{"len_m":1499,"wid_m":29.87,"hdg":127,"surf":"Concrete","rwy1":"13","lat1":26.33653100,"lon1":13.41613600,"rwy2":"31","lat2":26.32826400,"lon2":13.42803100}
]
,"navaids":[
{"type":"NDB","hdg_t":294.9,"dist_nm":38,"freq":291,"lat":26.59916700,"lon":12.78055600,"rng_nm":100,"alt_fmsl":0,"id":"UBR","desc":"UBARI NDB"},
{"type":"VOR","hdg_t":56.2,"dist_nm":69,"freq":114.7,"lat":26.96964200,"lon":14.49356400,"rng_nm":130,"alt_fmsl":1394,"id":"SEB","desc":"SEBHA VOR-DME"},
{"type":"NDB","hdg_t":54.5,"dist_nm":70.8,"freq":283,"lat":27.01451700,"lon":14.49880600,"rng_nm":150,"alt_fmsl":0,"id":"SEB","desc":"SEBHA NDB"},
{"type":"NDB","hdg_t":249.6,"dist_nm":190.5,"freq":386,"lat":25.18861100,"lon":10.13777800,"rng_nm":20,"alt_fmsl":0,"id":"GHT","desc":"GHAT NDB"},
{"type":"VOR","hdg_t":248.9,"dist_nm":191.4,"freq":114.8,"lat":25.14681400,"lon":10.13894200,"rng_nm":40,"alt_fmsl":2296,"id":"GHT","desc":"GHAT VOR-DME"},
{"type":"NDB","hdg_t":350.8,"dist_nm":194,"freq":415,"lat":29.53333300,"lon":12.83333300,"rng_nm":25,"alt_fmsl":0,"id":"GW","desc":"AL HAMADA NDB"},
{"type":"NDB","hdg_t":38.1,"dist_nm":214.9,"freq":397,"lat":29.13333300,"lon":15.95000000,"rng_nm":75,"alt_fmsl":919,"id":"HON","desc":"HON NDB"},
{"type":"VOR","hdg_t":298.2,"dist_nm":226.2,"freq":112.9,"lat":28.07000000,"lon":9.66527800,"rng_nm":130,"alt_fmsl":1870,"id":"IMN","desc":"ZARZAITINE VOR-DME"},
{"type":"NDB","hdg_t":297.7,"dist_nm":227.3,"freq":268,"lat":28.05055600,"lon":9.63111100,"rng_nm":135,"alt_fmsl":0,"id":"ZAR","desc":"ZARZAITINE NDB"},
{"type":"NDB","hdg_t":2,"dist_nm":243.2,"freq":337,"lat":30.39472200,"lon":13.58583300,"rng_nm":150,"alt_fmsl":0,"id":"GRT","desc":"GHERIAT NDB"}
]
}
