{"success":true,"source":"xp2csv.pl","last_updated":"2013/11/08 14:53:21 UTC"
,"icao":"HSDZ","name":"Damazin","lat":11.785889,"lon":34.3366555,"rwys":1,"ils":0,"index":3512690,"path":"e030n10/e034n11"
,"runways":[
{"len_m":2498,"wid_m":45.11,"hdg":170,"surf":"Asphalt","rwy1":"17","lat1":11.79702200,"lon1":34.33473600,"rwy2":"35","lat2":11.77475600,"lon2":34.33857500}
]
,"radios":[
{"type":"TWR","freq":118.4,"desc":"INFO"}
]
,"navaids":[
{"type":"NDB","hdg_t":34.1,"dist_nm":0.3,"freq":343,"lat":11.79092800,"lon":34.34013100,"rng_nm":25,"alt_fmsl":0,"id":"DMZ","desc":"DAMAZIN NDB"},
{"type":"VOR","hdg_t":311.6,"dist_nm":112,"freq":115.4,"lat":13.02869100,"lon":32.90715700,"rng_nm":130,"alt_fmsl":1303,"id":"KNA","desc":"KENANA VOR-DME"},
{"type":"NDB","hdg_t":311.1,"dist_nm":125.8,"freq":400,"lat":13.16736900,"lon":32.71737800,"rng_nm":25,"alt_fmsl":0,"id":"KNA","desc":"KENANA NDB"},
{"type":"NDB","hdg_t":93.5,"dist_nm":175.1,"freq":420,"lat":11.59149400,"lon":37.30475600,"rng_nm":100,"alt_fmsl":0,"id":"TN","desc":"BAHIR DAR NDB"},
{"type":"NDB","hdg_t":76.5,"dist_nm":187.1,"freq":349,"lat":12.49818300,"lon":37.43803900,"rng_nm":100,"alt_fmsl":6096,"id":"AZZ","desc":"GONDAR NDB"},
{"type":"VOR","hdg_t":230.3,"dist_nm":206.7,"freq":112.7,"lat":9.56316700,"lon":31.65316900,"rng_nm":130,"alt_fmsl":1316,"id":"MLK","desc":"MALAKAL VOR-DME"},
{"type":"NDB","hdg_t":114.7,"dist_nm":216.8,"freq":235,"lat":10.25000000,"lon":37.66666700,"rng_nm":100,"alt_fmsl":0,"id":"DM","desc":"DEBRE MARCOS NDB"},
{"type":"NDB","hdg_t":176.3,"dist_nm":218.4,"freq":300,"lat":8.13500000,"lon":34.57333300,"rng_nm":150,"alt_fmsl":1771,"id":"GM","desc":"GAMBELLA NDB"},
{"type":"NDB","hdg_t":176.4,"dist_nm":220,"freq":450,"lat":8.10817800,"lon":34.56310600,"rng_nm":50,"alt_fmsl":0,"id":"BR","desc":"GAMBELLA NDB"},
{"type":"VOR","hdg_t":342.3,"dist_nm":241.1,"freq":115.7,"lat":15.62832500,"lon":33.07282500,"rng_nm":130,"alt_fmsl":1465,"id":"SGD","desc":"SHEIK ELGUNIED VOR-DME"}
]
}
