{"success":true,"source":"xp2csv.pl","last_updated":"2013/11/08 14:53:21 UTC"
,"icao":"HSLI","name":"Kadugli","lat":11.1380265,"lon":29.7011205,"rwys":1,"ils":0,"index":3430733,"path":"e020n10/e029n11"
,"runways":[
{"len_m":2552,"wid_m":53.34,"hdg":62,"surf":"Asphalt","rwy1":"06","lat1":11.13272500,"lon1":29.69074400,"rwy2":"24","lat2":11.14332800,"lon2":29.71149700}
]
,"radios":[
{"type":"TWR","freq":120.7,"desc":"INFO"}
]
,"navaids":[
{"type":"VOR","hdg_t":14.5,"dist_nm":124,"freq":115.8,"lat":13.14768600,"lon":30.23343900,"rng_nm":130,"alt_fmsl":1942,"id":"OBD","desc":"EL OBEID VOR-DME"},
{"type":"NDB","hdg_t":14.6,"dist_nm":124.6,"freq":279,"lat":13.15672500,"lon":30.23880800,"rng_nm":100,"alt_fmsl":0,"id":"OBD","desc":"EL OBEID NDB"},
{"type":"VOR","hdg_t":128.9,"dist_nm":148.9,"freq":112.7,"lat":9.56316700,"lon":31.65316900,"rng_nm":130,"alt_fmsl":1316,"id":"MLK","desc":"MALAKAL VOR-DME"},
{"type":"NDB","hdg_t":55.3,"dist_nm":214.7,"freq":400,"lat":13.16736900,"lon":32.71737800,"rng_nm":25,"alt_fmsl":0,"id":"KNA","desc":"KENANA NDB"},
{"type":"VOR","hdg_t":58.7,"dist_nm":219.7,"freq":115.4,"lat":13.02869100,"lon":32.90715700,"rng_nm":130,"alt_fmsl":1303,"id":"KNA","desc":"KENANA VOR-DME"},
{"type":"NDB","hdg_t":206.7,"dist_nm":228.1,"freq":355,"lat":7.72302200,"lon":27.97654700,"rng_nm":50,"alt_fmsl":0,"id":"WUW","desc":"WAU NDB"},
{"type":"NDB","hdg_t":81.4,"dist_nm":276,"freq":343,"lat":11.79092800,"lon":34.34013100,"rng_nm":25,"alt_fmsl":0,"id":"DMZ","desc":"DAMAZIN NDB"},
{"type":"VOR","hdg_t":281.8,"dist_nm":283.9,"freq":116.3,"lat":12.07262500,"lon":24.97305200,"rng_nm":130,"alt_fmsl":2122,"id":"NYL","desc":"NYALA VOR-DME"},
{"type":"NDB","hdg_t":281.6,"dist_nm":286.1,"freq":358,"lat":12.06414500,"lon":24.93385100,"rng_nm":25,"alt_fmsl":0,"id":"NL","desc":"NYALA NDB"},
{"type":"VOR","hdg_t":300.3,"dist_nm":296.1,"freq":115,"lat":13.61047500,"lon":25.32927800,"rng_nm":130,"alt_fmsl":2412,"id":"FSR","desc":"EL FASHIR VOR-DME"}
]
}
