{"success":true,"source":"xp2csv.pl","last_updated":"2013/11/08 14:53:21 UTC"
,"icao":"I23","name":"Fayette Co","lat":39.570404,"lon":-83.4205155,"rwys":1,"ils":0,"index":1581154,"path":"w090n30/w084n39"
,"runways":[
{"len_m":1553,"wid_m":22.86,"hdg":34,"surf":"Asphalt","rwy1":"05","lat1":39.56460800,"lon1":-83.42557800,"rwy2":"23","lat2":39.57620000,"lon2":-83.41545300}
]
,"radios":[
{"type":"ATIS","freq":118.77,"desc":"AWOS 3"},
{"type":"CTAF","freq":122.8,"desc":"CTAF/UNICOM"},
{"type":"APP","freq":132.3,"desc":"COLUMBUS APP/DEP"},
{"type":"APP","freq":134.35,"desc":"COLUMBUS APP/DEP"}
]
,"navaids":[
{"type":"NDB","hdg_t":36.2,"dist_nm":2.2,"freq":414,"lat":39.60086111,"lon":-83.39161111,"rng_nm":50,"alt_fmsl":0,"id":"CSS","desc":"COURT HOUSE NDB"},
{"type":"NDB","hdg_t":252.6,"dist_nm":15.4,"freq":407,"lat":39.49311111,"lon":-83.73816667,"rng_nm":50,"alt_fmsl":0,"id":"IL","desc":"AIRBO NDB"},
{"type":"NDB","hdg_t":33.7,"dist_nm":17.9,"freq":230,"lat":39.81925000,"lon":-83.20488889,"rng_nm":50,"alt_fmsl":0,"id":"BU","desc":"BOUTN NDB"},
{"type":"VOR","hdg_t":244.6,"dist_nm":19.5,"freq":112.9,"lat":39.42969444,"lon":-83.80125000,"rng_nm":25,"alt_fmsl":1050,"id":"MXQ","desc":"MIDWEST VOR-DME"},
{"type":"NDB","hdg_t":113.4,"dist_nm":19.8,"freq":236,"lat":39.43819444,"lon":-83.02877778,"rng_nm":50,"alt_fmsl":0,"id":"RZT","desc":"ROSS CO NDB"},
{"type":"VOR","hdg_t":97,"dist_nm":20.7,"freq":112.5,"lat":39.52688889,"lon":-82.97794444,"rng_nm":25,"alt_fmsl":0,"id":"XUB","desc":"YELLOW BUD VOR"},
{"type":"NDB","hdg_t":60.7,"dist_nm":21.2,"freq":253,"lat":39.74294444,"lon":-83.02033333,"rng_nm":50,"alt_fmsl":0,"id":"DD","desc":"COBBS NDB"},
{"type":"NDB","hdg_t":354.7,"dist_nm":21.7,"freq":263,"lat":39.93150000,"lon":-83.46397222,"rng_nm":50,"alt_fmsl":0,"id":"UYF","desc":"LONDON NDB"},
{"type":"NDB","hdg_t":193.8,"dist_nm":23.8,"freq":278,"lat":39.18472222,"lon":-83.54297222,"rng_nm":50,"alt_fmsl":0,"id":"HOC","desc":"HILLSBORO NDB"},
{"type":"NDB","hdg_t":317.6,"dist_nm":24.6,"freq":341,"lat":39.87363889,"lon":-83.77958333,"rng_nm":50,"alt_fmsl":0,"id":"CCJ","desc":"CLARK CO NDB"},
{"type":"NDB","hdg_t":238.5,"dist_nm":24.8,"freq":299,"lat":39.35344444,"lon":-83.87577778,"rng_nm":50,"alt_fmsl":0,"id":"HW","desc":"CUBLA NDB"},
{"type":"NDB","hdg_t":290.3,"dist_nm":25.1,"freq":395,"lat":39.71506100,"lon":-83.92993100,"rng_nm":25,"alt_fmsl":970,"id":"XEN","desc":"XENIA NDB"},
{"type":"VOR","hdg_t":309.2,"dist_nm":25.3,"freq":113.2,"lat":39.83652778,"lon":-83.84497222,"rng_nm":25,"alt_fmsl":1047,"id":"SGH","desc":"SPRINGFIELD VOR-DME"},
{"type":"NDB","hdg_t":18.7,"dist_nm":31.8,"freq":515,"lat":40.07363889,"lon":-83.19805556,"rng_nm":50,"alt_fmsl":0,"id":"OS","desc":"FULER NDB"},
{"type":"NDB","hdg_t":34.3,"dist_nm":31.9,"freq":272,"lat":40.01013889,"lon":-83.02897222,"rng_nm":50,"alt_fmsl":0,"id":"CHC","desc":"GRENS NDB"},
{"type":"NDB","hdg_t":34.3,"dist_nm":31.9,"freq":272,"lat":40.01013889,"lon":-83.02897222,"rng_nm":50,"alt_fmsl":0,"id":"CB","desc":"GRENS NDB"},
{"type":"NDB","hdg_t":55.2,"dist_nm":32.8,"freq":376,"lat":39.88105556,"lon":-82.83608333,"rng_nm":50,"alt_fmsl":0,"id":"LC","desc":"PICKL NDB"},
{"type":"SDME","hdg_t":297,"dist_nm":32.9,"freq":115.2,"lat":39.81897800,"lon":-84.05548100,"rng_nm":25,"alt_fmsl":804,"id":"FFO","desc":"PATTERSON TACAN"},
{"type":"NDB","hdg_t":136.6,"dist_nm":33.1,"freq":385,"lat":39.16691667,"lon":-82.93219444,"rng_nm":50,"alt_fmsl":0,"id":"EOP","desc":"WAVERLY NDB"},
{"type":"NDB","hdg_t":173.5,"dist_nm":39.1,"freq":329,"lat":38.92119444,"lon":-83.32686111,"rng_nm":50,"alt_fmsl":0,"id":"PZO","desc":"PEEBLES NDB"},
{"type":"NDB","hdg_t":4.7,"dist_nm":39.4,"freq":403,"lat":40.22672800,"lon":-83.34961400,"rng_nm":25,"alt_fmsl":997,"id":"MRT","desc":"MARYSVILLE NDB"},
{"type":"NDB","hdg_t":50.8,"dist_nm":39.6,"freq":391,"lat":39.98622222,"lon":-82.75450000,"rng_nm":50,"alt_fmsl":0,"id":"CM","desc":"SUMIE NDB"},
{"type":"NDB","hdg_t":270.9,"dist_nm":41.8,"freq":223,"lat":39.57825000,"lon":-84.32347222,"rng_nm":50,"alt_fmsl":0,"id":"MW","desc":"ONIDA NDB"},
{"type":"NDB","hdg_t":75,"dist_nm":42.3,"freq":338,"lat":39.74888889,"lon":-82.53530556,"rng_nm":50,"alt_fmsl":0,"id":"LH","desc":"CASER NDB"},
{"type":"NDB","hdg_t":188.9,"dist_nm":43.3,"freq":359,"lat":38.85541667,"lon":-83.56377778,"rng_nm":50,"alt_fmsl":0,"id":"AMT","desc":"WEST UNION NDB"},
{"type":"NDB","hdg_t":18.9,"dist_nm":44.8,"freq":215,"lat":40.27688889,"lon":-83.10372222,"rng_nm":50,"alt_fmsl":0,"id":"DLZ","desc":"DELAWARE NDB"},
{"type":"NDB","hdg_t":291.6,"dist_nm":45.4,"freq":315,"lat":39.84702778,"lon":-84.33480556,"rng_nm":50,"alt_fmsl":0,"id":"AT","desc":"BRUNY NDB"},
{"type":"NDB","hdg_t":207.8,"dist_nm":46.6,"freq":219,"lat":38.88201700,"lon":-83.88518100,"rng_nm":25,"alt_fmsl":954,"id":"GEO","desc":"GEORGETOWN NDB"},
{"type":"NDB","hdg_t":231.6,"dist_nm":47.3,"freq":245,"lat":39.07669444,"lon":-84.21541667,"rng_nm":50,"alt_fmsl":0,"id":"PWF","desc":"SPORTYS NDB"},
{"type":"NDB","hdg_t":265.1,"dist_nm":47.8,"freq":239,"lat":39.49877778,"lon":-84.44752778,"rng_nm":50,"alt_fmsl":0,"id":"HKF","desc":"HOOK FLD NDB"},
{"type":"NDB","hdg_t":244.6,"dist_nm":48.2,"freq":379,"lat":39.22275000,"lon":-84.35536111,"rng_nm":50,"alt_fmsl":0,"id":"MDE","desc":"MADEIRA NDB"},
{"type":"NDB","hdg_t":247.1,"dist_nm":49,"freq":388,"lat":39.24880556,"lon":-84.38961111,"rng_nm":50,"alt_fmsl":0,"id":"ISZ","desc":"CINCINNATI-BLUE A NDB"},
{"type":"NDB","hdg_t":240.4,"dist_nm":49.4,"freq":335,"lat":39.15966667,"lon":-84.34127778,"rng_nm":50,"alt_fmsl":0,"id":"LUK","desc":"CINCINNATI NDB"},
{"type":"VOR","hdg_t":326.4,"dist_nm":51.7,"freq":117.5,"lat":40.28780556,"lon":-84.04313889,"rng_nm":130,"alt_fmsl":1083,"id":"ROD","desc":"ROSEWOOD VORTAC"},
{"type":"VOR","hdg_t":47.5,"dist_nm":51.8,"freq":116.7,"lat":40.15105556,"lon":-82.58830556,"rng_nm":130,"alt_fmsl":1350,"id":"APE","desc":"APPLETON VORTAC"},
{"type":"NDB","hdg_t":58,"dist_nm":52,"freq":524,"lat":40.02591667,"lon":-82.46352778,"rng_nm":50,"alt_fmsl":0,"id":"HEH","desc":"NEWARK NDB"},
{"type":"VOR","hdg_t":300.9,"dist_nm":52.4,"freq":114.5,"lat":40.01641667,"lon":-84.39686111,"rng_nm":40,"alt_fmsl":990,"id":"DQN","desc":"DAYTON VOR-DME"},
{"type":"NDB","hdg_t":347.9,"dist_nm":54.4,"freq":326,"lat":40.45894444,"lon":-83.66800000,"rng_nm":50,"alt_fmsl":0,"id":"RUV","desc":"RUSHSYLVANIA NDB"},
{"type":"NDB","hdg_t":257.8,"dist_nm":54.7,"freq":260,"lat":39.37288889,"lon":-84.57211111,"rng_nm":50,"alt_fmsl":0,"id":"HAO","desc":"HAMILTON NDB"},
{"type":"VOR","hdg_t":159.4,"dist_nm":59.2,"freq":112.8,"lat":38.64413889,"lon":-82.97833333,"rng_nm":40,"alt_fmsl":1040,"id":"YRK","desc":"YORK VORTAC"},
{"type":"NDB","hdg_t":190.1,"dist_nm":60.6,"freq":400,"lat":38.57358333,"lon":-83.64702778,"rng_nm":50,"alt_fmsl":0,"id":"XW","desc":"FLMNG NDB"},
{"type":"NDB","hdg_t":106.9,"dist_nm":63,"freq":250,"lat":39.25725000,"lon":-82.12597222,"rng_nm":50,"alt_fmsl":0,"id":"UGS","desc":"UNIVERSITY NDB"},
{"type":"NDB","hdg_t":267,"dist_nm":63.2,"freq":282,"lat":39.50755556,"lon":-84.78063889,"rng_nm":50,"alt_fmsl":0,"id":"OXD","desc":"OXFORD NDB"},
{"type":"NDB","hdg_t":307.1,"dist_nm":63.5,"freq":356,"lat":40.20616667,"lon":-84.52272222,"rng_nm":50,"alt_fmsl":0,"id":"VES","desc":"VERSAILLES NDB"},
{"type":"NDB","hdg_t":193.9,"dist_nm":63.7,"freq":400,"lat":38.53813200,"lon":-83.74686400,"rng_nm":25,"alt_fmsl":921,"id":"FGX","desc":"FLEMINGSBURG NDB"},
{"type":"VOR","hdg_t":14.5,"dist_nm":64.8,"freq":109.8,"lat":40.61658333,"lon":-83.06383333,"rng_nm":25,"alt_fmsl":0,"id":"BUD","desc":"BUCKEYE VOR"},
{"type":"VOR","hdg_t":280,"dist_nm":66.6,"freq":110.6,"lat":39.75502778,"lon":-84.83886111,"rng_nm":40,"alt_fmsl":1135,"id":"RID","desc":"RICHMOND VORTAC"},
{"type":"VOR","hdg_t":241.3,"dist_nm":68.3,"freq":117.3,"lat":39.01597222,"lon":-84.70333333,"rng_nm":40,"alt_fmsl":879,"id":"CVG","desc":"CINCINNATI VORTAC"},
{"type":"VOR","hdg_t":217.2,"dist_nm":69.1,"freq":117,"lat":38.64950000,"lon":-84.31063889,"rng_nm":130,"alt_fmsl":810,"id":"FLM","desc":"FALMOUTH VOR-DME"},
{"type":"NDB","hdg_t":243.8,"dist_nm":70.3,"freq":321,"lat":39.04574700,"lon":-84.77296400,"rng_nm":25,"alt_fmsl":0,"id":"UR","desc":"BURLN NDB"},
{"type":"NDB","hdg_t":73.3,"dist_nm":72.3,"freq":204,"lat":39.90630556,"lon":-81.91927778,"rng_nm":50,"alt_fmsl":0,"id":"HRA","desc":"ZANESVILLE NDB"},
{"type":"VOR","hdg_t":339.8,"dist_nm":72.6,"freq":108.4,"lat":40.70711111,"lon":-83.96816667,"rng_nm":25,"alt_fmsl":0,"id":"AOH","desc":"ALLEN CO VOR"},
{"type":"NDB","hdg_t":126.5,"dist_nm":73.4,"freq":420,"lat":38.83341667,"lon":-82.16152778,"rng_nm":50,"alt_fmsl":0,"id":"GAS","desc":"GALLIPOLIS NDB"},
{"type":"VOR","hdg_t":72,"dist_nm":74.1,"freq":111.4,"lat":39.94086111,"lon":-81.89261111,"rng_nm":40,"alt_fmsl":898,"id":"ZZV","desc":"ZANESVILLE VOR-DME"},
{"type":"NDB","hdg_t":316.3,"dist_nm":75.9,"freq":205,"lat":40.48200000,"lon":-84.56438889,"rng_nm":50,"alt_fmsl":0,"id":"CQA","desc":"LAKEFIELD NDB"},
{"type":"NDB","hdg_t":276,"dist_nm":79.8,"freq":275,"lat":39.69756100,"lon":-85.13438900,"rng_nm":25,"alt_fmsl":867,"id":"CEV","desc":"CONNERSVILLE NDB"},
{"type":"VOR","hdg_t":47.8,"dist_nm":79.9,"freq":116.5,"lat":40.45802778,"lon":-82.12683333,"rng_nm":40,"alt_fmsl":1340,"id":"TVT","desc":"TIVERTON VOR-DME"},
{"type":"NDB","hdg_t":279.4,"dist_nm":80.1,"freq":227,"lat":39.77711111,"lon":-85.12988889,"rng_nm":50,"alt_fmsl":0,"id":"SQ","desc":"PNTHR NDB"},
{"type":"VOR","hdg_t":126.5,"dist_nm":81.4,"freq":115.9,"lat":38.75411111,"lon":-82.02616667,"rng_nm":130,"alt_fmsl":880,"id":"HNN","desc":"HENDERSON VORTAC"},
{"type":"VOR","hdg_t":349.5,"dist_nm":84.4,"freq":108.2,"lat":40.95533333,"lon":-83.75602778,"rng_nm":40,"alt_fmsl":820,"id":"FBC","desc":"FLAG CITY VORTAC"},
{"type":"NDB","hdg_t":31.7,"dist_nm":84.5,"freq":372,"lat":40.76633333,"lon":-82.44513889,"rng_nm":50,"alt_fmsl":0,"id":"MF","desc":"MANNS NDB"},
{"type":"NDB","hdg_t":261.7,"dist_nm":86.3,"freq":254,"lat":39.34977778,"lon":-85.25775000,"rng_nm":50,"alt_fmsl":0,"id":"HLB","desc":"BATESVILLE NDB"},
{"type":"VOR","hdg_t":25.8,"dist_nm":86.6,"freq":108.8,"lat":40.86861111,"lon":-82.59097222,"rng_nm":40,"alt_fmsl":1210,"id":"MFD","desc":"MANSFIELD VORTAC"},
{"type":"VOR","hdg_t":352.7,"dist_nm":87.3,"freq":114.9,"lat":41.01488889,"lon":-83.66433333,"rng_nm":25,"alt_fmsl":0,"id":"MAH","desc":"MARATHON VOR"},
{"type":"NDB","hdg_t":352.6,"dist_nm":87.7,"freq":334,"lat":41.02111111,"lon":-83.66911111,"rng_nm":50,"alt_fmsl":0,"id":"BNR","desc":"BENTON RIDGE NDB"},
{"type":"VOR","hdg_t":164,"dist_nm":87.9,"freq":110.4,"lat":38.15836111,"lon":-82.91005556,"rng_nm":40,"alt_fmsl":1070,"id":"ECB","desc":"NEWCOMBE VORTAC"},
{"type":"NDB","hdg_t":306.8,"dist_nm":89.4,"freq":257,"lat":40.45366400,"lon":-84.98355000,"rng_nm":25,"alt_fmsl":959,"id":"PLD","desc":"PORTLAND NDB"},
{"type":"NDB","hdg_t":282.5,"dist_nm":89.8,"freq":385,"lat":39.87997222,"lon":-85.31886111,"rng_nm":50,"alt_fmsl":0,"id":"UWL","desc":"NEW CASTLE NDB"},
{"type":"NDB","hdg_t":343.9,"dist_nm":91.2,"freq":233,"lat":41.03116400,"lon":-83.97522200,"rng_nm":25,"alt_fmsl":760,"id":"PDR","desc":"OTTAWA NDB"},
{"type":"NDB","hdg_t":5.8,"dist_nm":91.8,"freq":269,"lat":41.09466667,"lon":-83.21497222,"rng_nm":50,"alt_fmsl":0,"id":"TII","desc":"TIFFIN NDB"},
{"type":"NDB","hdg_t":101.2,"dist_nm":91.9,"freq":388,"lat":39.25408333,"lon":-81.48494444,"rng_nm":50,"alt_fmsl":0,"id":"PK","desc":"VERSI NDB"},
{"type":"NDB","hdg_t":196.3,"dist_nm":94.2,"freq":210,"lat":38.06000000,"lon":-83.98152778,"rng_nm":50,"alt_fmsl":0,"id":"IOB","desc":"MOUNT STERLING NDB"},
{"type":"NDB","hdg_t":325,"dist_nm":94.9,"freq":411,"lat":40.86255556,"lon":-84.61383333,"rng_nm":50,"alt_fmsl":0,"id":"VFU","desc":"STANLEY NDB"},
{"type":"NDB","hdg_t":293.2,"dist_nm":95.1,"freq":365,"lat":40.18086111,"lon":-85.32091667,"rng_nm":50,"alt_fmsl":0,"id":"JN","desc":"BALLL NDB"},
{"type":"VOR","hdg_t":94,"dist_nm":95.3,"freq":108.6,"lat":39.44116667,"lon":-81.37475000,"rng_nm":40,"alt_fmsl":1030,"id":"JPU","desc":"PARKERSBURG VORTAC"},
{"type":"NDB","hdg_t":0.6,"dist_nm":97,"freq":379,"lat":41.18933333,"lon":-83.39713889,"rng_nm":50,"alt_fmsl":0,"id":"FZI","desc":"FOSTORIA NDB"},
{"type":"VOR","hdg_t":65.6,"dist_nm":98,"freq":111.8,"lat":40.22922222,"lon":-81.47647222,"rng_nm":40,"alt_fmsl":1180,"id":"CTW","desc":"NEWCOMERSTOWN VOR-DME"},
{"type":"NDB","hdg_t":32.3,"dist_nm":99.2,"freq":329,"lat":40.96333333,"lon":-82.25336111,"rng_nm":50,"alt_fmsl":0,"id":"AAU","desc":"ASHLAND NDB"},
{"type":"VOR","hdg_t":294.3,"dist_nm":99.5,"freq":114.4,"lat":40.23730556,"lon":-85.39402778,"rng_nm":40,"alt_fmsl":935,"id":"MIE","desc":"MUNCIE VOR-DME"}
]
}
