{"success":true,"source":"xp2csv.pl","last_updated":"2013/11/08 14:53:21 UTC"
,"icao":"IA24","name":"Green Castle","lat":41.755,"lon":-91.7277795,"rwys":1,"ils":0,"index":1450225,"path":"w100n40/w092n41"
,"runways":[
{"len_m":1199,"wid_m":18.29,"hdg":136,"surf":"Asphalt","rwy1":"13","lat1":41.75888900,"lon1":-91.73278100,"rwy2":"31","lat2":41.75111100,"lon2":-91.72277800}
]
,"navaids":[
{"type":"VOR","hdg_t":341.9,"dist_nm":8.3,"freq":114.1,"lat":41.88755556,"lon":-91.78575000,"rng_nm":130,"alt_fmsl":876,"id":"CID","desc":"CEDAR RAPIDS VOR-DME"},
{"type":"NDB","hdg_t":336.8,"dist_nm":8.5,"freq":326,"lat":41.88566400,"lon":-91.80240600,"rng_nm":50,"alt_fmsl":0,"id":"CI","desc":"CINDY NDB"},
{"type":"NDB","hdg_t":131.5,"dist_nm":11.1,"freq":524,"lat":41.63201700,"lon":-91.54286100,"rng_nm":25,"alt_fmsl":648,"id":"UOC","desc":"HAWKEYE NDB"},
{"type":"VOR","hdg_t":159.9,"dist_nm":15,"freq":116.2,"lat":41.51897222,"lon":-91.61325000,"rng_nm":130,"alt_fmsl":770,"id":"IOW","desc":"IOWA CITY VORTAC"},
{"type":"NDB","hdg_t":174.9,"dist_nm":28.6,"freq":219,"lat":41.27977778,"lon":-91.67258333,"rng_nm":50,"alt_fmsl":0,"id":"AWG","desc":"WASHINGTON NDB"},
{"type":"VOR","hdg_t":131.6,"dist_nm":34.9,"freq":116.5,"lat":41.36638889,"lon":-91.14905556,"rng_nm":40,"alt_fmsl":540,"id":"DDD","desc":"PORT CITY VOR-DME"},
{"type":"NDB","hdg_t":346.6,"dist_nm":42.9,"freq":206,"lat":42.45222222,"lon":-91.95100000,"rng_nm":50,"alt_fmsl":0,"id":"IIB","desc":"WAPSIE NDB"},
{"type":"NDB","hdg_t":266.8,"dist_nm":45,"freq":248,"lat":41.70927778,"lon":-92.72941667,"rng_nm":50,"alt_fmsl":0,"id":"GGI","desc":"GRINNELL NDB"},
{"type":"NDB","hdg_t":194.8,"dist_nm":46.1,"freq":332,"lat":41.01113889,"lon":-91.98850000,"rng_nm":50,"alt_fmsl":0,"id":"FFL","desc":"FAIRFIELD NDB"},
{"type":"NDB","hdg_t":227.4,"dist_nm":46.7,"freq":414,"lat":41.22550000,"lon":-92.48738889,"rng_nm":50,"alt_fmsl":0,"id":"OOA","desc":"OSKALOOSA NDB"},
{"type":"NDB","hdg_t":67.7,"dist_nm":47.6,"freq":386,"lat":42.05138600,"lon":-90.74095300,"rng_nm":25,"alt_fmsl":765,"id":"OQW","desc":"MAQUOKETA NDB"},
{"type":"NDB","hdg_t":93.9,"dist_nm":48.2,"freq":353,"lat":41.69486111,"lon":-90.65588889,"rng_nm":50,"alt_fmsl":0,"id":"DV","desc":"AUNEY NDB"},
{"type":"NDB","hdg_t":168.6,"dist_nm":49.2,"freq":212,"lat":40.94905556,"lon":-91.51516667,"rng_nm":50,"alt_fmsl":0,"id":"MPZ","desc":"MOUNT PLEASANT NDB"},
{"type":"VOR","hdg_t":212,"dist_nm":51.2,"freq":111.6,"lat":41.02913889,"lon":-92.32591667,"rng_nm":40,"alt_fmsl":820,"id":"OTM","desc":"OTTUMWA INDUSTRIA VOR-DME"},
{"type":"NDB","hdg_t":109.8,"dist_nm":53.1,"freq":215,"lat":41.44905556,"lon":-90.61847222,"rng_nm":50,"alt_fmsl":0,"id":"ML","desc":"MOLLI NDB"},
{"type":"VOR","hdg_t":117.5,"dist_nm":55.5,"freq":114.4,"lat":41.32091667,"lon":-90.63822222,"rng_nm":40,"alt_fmsl":817,"id":"MZV","desc":"MOLINE VORTAC"},
{"type":"VOR","hdg_t":92.4,"dist_nm":55.9,"freq":113.8,"lat":41.70855556,"lon":-90.48330556,"rng_nm":40,"alt_fmsl":767,"id":"CVA","desc":"DAVENPORT VORTAC"},
{"type":"VOR","hdg_t":328.2,"dist_nm":56.6,"freq":112.2,"lat":42.55647222,"lon":-92.39894444,"rng_nm":130,"alt_fmsl":865,"id":"ALO","desc":"WATERLOO VORTAC"},
{"type":"NDB","hdg_t":348.8,"dist_nm":56.8,"freq":260,"lat":42.68413889,"lon":-91.97627778,"rng_nm":50,"alt_fmsl":0,"id":"OLZ","desc":"OELWEIN NDB"},
{"type":"VOR","hdg_t":292.3,"dist_nm":57,"freq":109.4,"lat":42.11130556,"lon":-92.90875000,"rng_nm":40,"alt_fmsl":979,"id":"JWJ","desc":"ELMWOOD VOR-DME"},
{"type":"NDB","hdg_t":292.1,"dist_nm":57.3,"freq":239,"lat":42.10993100,"lon":-92.91695000,"rng_nm":25,"alt_fmsl":974,"id":"MIW","desc":"MARSHALLTOWN NDB"},
{"type":"NDB","hdg_t":249.4,"dist_nm":58.6,"freq":257,"lat":41.40452778,"lon":-92.94463889,"rng_nm":50,"alt_fmsl":0,"id":"PEA","desc":"PELLA NDB"},
{"type":"VOR","hdg_t":49.2,"dist_nm":59.7,"freq":115.8,"lat":42.40147222,"lon":-90.70908333,"rng_nm":130,"alt_fmsl":1051,"id":"DBQ","desc":"DUBUQUE VORTAC"},
{"type":"NDB","hdg_t":89.7,"dist_nm":60,"freq":517,"lat":41.75166667,"lon":-90.39050000,"rng_nm":50,"alt_fmsl":0,"id":"FN","desc":"HILLZ NDB"},
{"type":"NDB","hdg_t":55.6,"dist_nm":60.8,"freq":341,"lat":42.32300000,"lon":-90.59886111,"rng_nm":50,"alt_fmsl":0,"id":"DB","desc":"ZILOM NDB"},
{"type":"VOR","hdg_t":272,"dist_nm":62,"freq":112.5,"lat":41.78383333,"lon":-93.10897222,"rng_nm":40,"alt_fmsl":980,"id":"TNU","desc":"NEWTON VOR-DME"},
{"type":"NDB","hdg_t":326.4,"dist_nm":62.6,"freq":382,"lat":42.62216667,"lon":-92.50941667,"rng_nm":50,"alt_fmsl":0,"id":"AL","desc":"PRICE NDB"},
{"type":"NDB","hdg_t":207.9,"dist_nm":68.4,"freq":269,"lat":40.74502778,"lon":-92.43047222,"rng_nm":50,"alt_fmsl":0,"id":"BEX","desc":"BLOOMFIELD NDB"},
{"type":"NDB","hdg_t":157.2,"dist_nm":71.4,"freq":390,"lat":40.65425000,"lon":-91.12300000,"rng_nm":50,"alt_fmsl":0,"id":"BR","desc":"BURNS NDB"},
{"type":"VOR","hdg_t":149.3,"dist_nm":71.7,"freq":111.4,"lat":40.72338889,"lon":-90.92588889,"rng_nm":40,"alt_fmsl":730,"id":"BRL","desc":"BURLINGTON VORTAC"},
{"type":"VOR","hdg_t":129.5,"dist_nm":76.2,"freq":109.8,"lat":40.93733333,"lon":-90.43447222,"rng_nm":25,"alt_fmsl":760,"id":"GBG","desc":"GALESBURG VOR-DME"},
{"type":"NDB","hdg_t":170.1,"dist_nm":78.5,"freq":366,"lat":40.46469444,"lon":-91.43358333,"rng_nm":50,"alt_fmsl":0,"id":"EOK","desc":"KEOKUK NDB"},
{"type":"NDB","hdg_t":302.5,"dist_nm":80.8,"freq":368,"lat":42.47036111,"lon":-93.26250000,"rng_nm":50,"alt_fmsl":0,"id":"IFA","desc":"IOWA FALLS NDB"},
{"type":"NDB","hdg_t":259.5,"dist_nm":84.9,"freq":344,"lat":41.48213889,"lon":-93.58072222,"rng_nm":50,"alt_fmsl":0,"id":"DS","desc":"FOREM NDB"},
{"type":"NDB","hdg_t":239.5,"dist_nm":86,"freq":335,"lat":41.01675000,"lon":-93.36194444,"rng_nm":50,"alt_fmsl":0,"id":"CNC","desc":"CHARITON NDB"},
{"type":"NDB","hdg_t":276.4,"dist_nm":87,"freq":362,"lat":41.90302778,"lon":-93.65888889,"rng_nm":50,"alt_fmsl":0,"id":"EE","desc":"MERLE NDB"},
{"type":"NDB","hdg_t":91,"dist_nm":87.2,"freq":254,"lat":41.71111111,"lon":-89.78561111,"rng_nm":50,"alt_fmsl":0,"id":"BOZ","desc":"WHITESIDE NDB"},
{"type":"NDB","hdg_t":333.8,"dist_nm":87.9,"freq":375,"lat":43.06847222,"lon":-92.60822222,"rng_nm":50,"alt_fmsl":0,"id":"CCY","desc":"CHARLES CITY NDB"},
{"type":"NDB","hdg_t":311.6,"dist_nm":88.5,"freq":230,"lat":42.72622222,"lon":-93.22411111,"rng_nm":50,"alt_fmsl":0,"id":"HPT","desc":"HAMPTON NDB"},
{"type":"VOR","hdg_t":258.2,"dist_nm":88.5,"freq":117.5,"lat":41.43761111,"lon":-93.64855556,"rng_nm":130,"alt_fmsl":951,"id":"DSM","desc":"DES MOINES VORTAC"},
{"type":"NDB","hdg_t":359.5,"dist_nm":91.1,"freq":236,"lat":43.27523750,"lon":-91.74342080,"rng_nm":25,"alt_fmsl":1139,"id":"DEH","desc":"Decorah NDB"},
{"type":"NDB","hdg_t":144.1,"dist_nm":91.1,"freq":251,"lat":40.51836111,"lon":-90.56041667,"rng_nm":50,"alt_fmsl":0,"id":"JZY","desc":"MACOMB NDB"},
{"type":"VOR","hdg_t":5.2,"dist_nm":91.8,"freq":116.6,"lat":43.28008333,"lon":-91.53736111,"rng_nm":40,"alt_fmsl":1288,"id":"UKN","desc":"WAUKON VORTAC"},
{"type":"NDB","hdg_t":332,"dist_nm":93.8,"freq":417,"lat":43.13391667,"lon":-92.72819444,"rng_nm":50,"alt_fmsl":0,"id":"IY","desc":"CHUKK NDB"},
{"type":"NDB","hdg_t":44,"dist_nm":95.3,"freq":365,"lat":42.88805556,"lon":-90.22650000,"rng_nm":50,"alt_fmsl":0,"id":"MRJ","desc":"MINERAL POINT NDB"},
{"type":"NDB","hdg_t":349.6,"dist_nm":98.2,"freq":293,"lat":43.36602778,"lon":-92.13100000,"rng_nm":50,"alt_fmsl":0,"id":"CJJ","desc":"CRESCO NDB"},
{"type":"VOR","hdg_t":81.9,"dist_nm":99.5,"freq":111.2,"lat":41.96563889,"lon":-89.52422222,"rng_nm":40,"alt_fmsl":840,"id":"PLL","desc":"POLO VOR-DME"}
]
}
