{"success":true,"source":"xp2csv.pl","last_updated":"2013/11/08 14:53:21 UTC"
,"icao":"ID04","name":"J-lazy-m Ranch","lat":42.02909777,"lon":-111.42298473,"rwys":1,"ils":0,"index":1122562,"path":"w120n40/w112n42"
,"runways":[
{"len_m":703,"wid_m":9.14,"hdg":94,"surf":"Gravel","rwy1":"08","lat1":42.02937270,"lon1":-111.42721521,"rwy2":"26","lat2":42.02882284,"lon2":-111.41875425}
]
,"navaids":[
{"type":"VOR","hdg_t":241.8,"dist_nm":29.8,"freq":112.9,"lat":41.79288889,"lon":-112.00977778,"rng_nm":40,"alt_fmsl":5358,"id":"LHO","desc":"BRIGHAM CITY VOR-DME"},
{"type":"NDB","hdg_t":223.9,"dist_nm":42.5,"freq":294,"lat":41.51580556,"lon":-112.07808333,"rng_nm":50,"alt_fmsl":0,"id":"BMC","desc":"BRIGHAM CITY NDB"},
{"type":"VOR","hdg_t":282.9,"dist_nm":47,"freq":117.4,"lat":42.19988889,"lon":-112.45122222,"rng_nm":130,"alt_fmsl":7330,"id":"MLD","desc":"MALAD CITY VOR-DME"},
{"type":"VOR","hdg_t":159.4,"dist_nm":48.4,"freq":109.6,"lat":41.27250000,"lon":-111.04677778,"rng_nm":25,"alt_fmsl":7145,"id":"EVW","desc":"EVANSTON VOR-DME"},
{"type":"VOR","hdg_t":212.4,"dist_nm":57,"freq":115.7,"lat":41.22408333,"lon":-112.09825000,"rng_nm":40,"alt_fmsl":4223,"id":"OGD","desc":"OGDEN VORTAC"},
{"type":"VOR","hdg_t":130.6,"dist_nm":59.4,"freq":108.6,"lat":41.37844444,"lon":-110.42408333,"rng_nm":40,"alt_fmsl":7060,"id":"FBR","desc":"FORT BRIDGER VOR-DME"},
{"type":"SDME","hdg_t":204.2,"dist_nm":59.6,"freq":111.2,"lat":41.12050300,"lon":-111.96368100,"rng_nm":40,"alt_fmsl":4806,"id":"HIF","desc":"HILL TACAN"},
{"type":"VOR","hdg_t":60.1,"dist_nm":67.1,"freq":116.5,"lat":42.57944444,"lon":-110.10922222,"rng_nm":130,"alt_fmsl":6949,"id":"BPI","desc":"BIG PINEY VOR-DME"},
{"type":"NDB","hdg_t":319.4,"dist_nm":74.1,"freq":383,"lat":42.96375000,"lon":-112.51638889,"rng_nm":50,"alt_fmsl":0,"id":"PI","desc":"TYHEE NDB"},
{"type":"VOR","hdg_t":313.1,"dist_nm":74.3,"freq":112.6,"lat":42.87038889,"lon":-112.65222222,"rng_nm":130,"alt_fmsl":4430,"id":"PIH","desc":"POCATELLO VOR-DME"},
{"type":"VOR","hdg_t":199.8,"dist_nm":75,"freq":116.8,"lat":40.85025000,"lon":-111.98191667,"rng_nm":130,"alt_fmsl":4220,"id":"TCH","desc":"WASATCH VORTAC"},
{"type":"NDB","hdg_t":56.9,"dist_nm":85.2,"freq":392,"lat":42.79275000,"lon":-109.80602778,"rng_nm":50,"alt_fmsl":0,"id":"PNA","desc":"WENZ NDB"},
{"type":"NDB","hdg_t":339,"dist_nm":90.2,"freq":350,"lat":43.43216667,"lon":-112.16252778,"rng_nm":50,"alt_fmsl":0,"id":"SWU","desc":"SWEDEN NDB"},
{"type":"VOR","hdg_t":342.6,"dist_nm":93.7,"freq":113.85,"lat":43.51900000,"lon":-112.06391667,"rng_nm":130,"alt_fmsl":4724,"id":"IDA","desc":"IDAHO FALLS VOR-DME"},
{"type":"NDB","hdg_t":206.4,"dist_nm":94.7,"freq":371,"lat":40.61077778,"lon":-112.34769444,"rng_nm":50,"alt_fmsl":0,"id":"TVY","desc":"TOOELE NDB"},
{"type":"NDB","hdg_t":345.5,"dist_nm":97.2,"freq":324,"lat":43.59783333,"lon":-111.98066667,"rng_nm":50,"alt_fmsl":0,"id":"ID","desc":"UCONN NDB"}
]
}
