{"success":true,"source":"xp2csv.pl","last_updated":"2013/11/08 14:53:21 UTC"
,"icao":"ID62","name":"Western","lat":42.60825333,"lon":-111.72856195,"rwys":1,"ils":0,"index":1122593,"path":"w120n40/w112n42"
,"runways":[
{"len_m":1142,"wid_m":9.14,"hdg":174,"surf":"Gravel","rwy1":"16","lat1":42.61337685,"lon1":-111.72917099,"rwy2":"34","lat2":42.60312981,"lon2":-111.72795291}
]
,"navaids":[
{"type":"VOR","hdg_t":232.9,"dist_nm":40.3,"freq":117.4,"lat":42.19988889,"lon":-112.45122222,"rng_nm":130,"alt_fmsl":7330,"id":"MLD","desc":"MALAD CITY VOR-DME"},
{"type":"NDB","hdg_t":301.7,"dist_nm":40.8,"freq":383,"lat":42.96375000,"lon":-112.51638889,"rng_nm":50,"alt_fmsl":0,"id":"PI","desc":"TYHEE NDB"},
{"type":"VOR","hdg_t":291.3,"dist_nm":43.7,"freq":112.6,"lat":42.87038889,"lon":-112.65222222,"rng_nm":130,"alt_fmsl":4430,"id":"PIH","desc":"POCATELLO VOR-DME"},
{"type":"VOR","hdg_t":194.4,"dist_nm":50.4,"freq":112.9,"lat":41.79288889,"lon":-112.00977778,"rng_nm":40,"alt_fmsl":5358,"id":"LHO","desc":"BRIGHAM CITY VOR-DME"},
{"type":"NDB","hdg_t":339,"dist_nm":52.9,"freq":350,"lat":43.43216667,"lon":-112.16252778,"rng_nm":50,"alt_fmsl":0,"id":"SWU","desc":"SWEDEN NDB"},
{"type":"VOR","hdg_t":345,"dist_nm":56.5,"freq":113.85,"lat":43.51900000,"lon":-112.06391667,"rng_nm":130,"alt_fmsl":4724,"id":"IDA","desc":"IDAHO FALLS VOR-DME"},
{"type":"NDB","hdg_t":349.5,"dist_nm":60.3,"freq":324,"lat":43.59783333,"lon":-111.98066667,"rng_nm":50,"alt_fmsl":0,"id":"ID","desc":"UCONN NDB"},
{"type":"NDB","hdg_t":193.5,"dist_nm":67.3,"freq":294,"lat":41.51580556,"lon":-112.07808333,"rng_nm":50,"alt_fmsl":0,"id":"BMC","desc":"BRIGHAM CITY NDB"},
{"type":"VOR","hdg_t":90.8,"dist_nm":71.7,"freq":116.5,"lat":42.57944444,"lon":-110.10922222,"rng_nm":130,"alt_fmsl":6949,"id":"BPI","desc":"BIG PINEY VOR-DME"},
{"type":"VOR","hdg_t":35.4,"dist_nm":74.8,"freq":115.4,"lat":43.62102778,"lon":-110.73169444,"rng_nm":40,"alt_fmsl":6452,"id":"JAC","desc":"JACKSON VOR-DME"},
{"type":"VOR","hdg_t":191.4,"dist_nm":84.6,"freq":115.7,"lat":41.22408333,"lon":-112.09825000,"rng_nm":40,"alt_fmsl":4223,"id":"OGD","desc":"OGDEN VORTAC"},
{"type":"NDB","hdg_t":81.9,"dist_nm":85.7,"freq":392,"lat":42.79275000,"lon":-109.80602778,"rng_nm":50,"alt_fmsl":0,"id":"PNA","desc":"WENZ NDB"},
{"type":"VOR","hdg_t":158.9,"dist_nm":85.7,"freq":109.6,"lat":41.27250000,"lon":-111.04677778,"rng_nm":25,"alt_fmsl":7145,"id":"EVW","desc":"EVANSTON VOR-DME"},
{"type":"SDME","hdg_t":186.8,"dist_nm":89.8,"freq":111.2,"lat":41.12050300,"lon":-111.96368100,"rng_nm":40,"alt_fmsl":4806,"id":"HIF","desc":"HILL TACAN"},
{"type":"VOR","hdg_t":346.8,"dist_nm":91.2,"freq":116.9,"lat":44.08886111,"lon":-112.20933333,"rng_nm":130,"alt_fmsl":4915,"id":"DBS","desc":"DUBOIS VORTAC"},
{"type":"VOR","hdg_t":141.2,"dist_nm":94,"freq":108.6,"lat":41.37844444,"lon":-110.42408333,"rng_nm":40,"alt_fmsl":7060,"id":"FBR","desc":"FORT BRIDGER VOR-DME"},
{"type":"VOR","hdg_t":269.7,"dist_nm":94.7,"freq":114.1,"lat":42.58025000,"lon":-113.86586111,"rng_nm":40,"alt_fmsl":4226,"id":"BYI","desc":"BURLEY VOR-DME"},
{"type":"VOR","hdg_t":39.3,"dist_nm":95.3,"freq":117.2,"lat":43.82827778,"lon":-110.33547222,"rng_nm":130,"alt_fmsl":7720,"id":"DNW","desc":"DUNOIR VOR-DME"}
]
}
