{"success":true,"source":"xp2csv.pl","last_updated":"2013/11/08 14:53:21 UTC"
,"icao":"II34","name":"Booe","lat":39.27309722,"lon":-87.12223528,"rwys":1,"ils":0,"index":1515603,"path":"w090n30/w088n39"
,"runways":[
{"len_m":426,"wid_m":30.48,"hdg":178,"surf":"Turf/grass","rwy1":"18","lat1":39.27501701,"lon1":-87.12227857,"rwy2":"36","lat2":39.27117743,"lon2":-87.12219199}
]
,"navaids":[
{"type":"VOR","hdg_t":335.5,"dist_nm":14.2,"freq":115.3,"lat":39.48894444,"lon":-87.24902778,"rng_nm":130,"alt_fmsl":606,"id":"TTH","desc":"TERRE HAUTE VORTAC"},
{"type":"NDB","hdg_t":298.2,"dist_nm":14.5,"freq":245,"lat":39.38783333,"lon":-87.39769444,"rng_nm":50,"alt_fmsl":0,"id":"HU","desc":"YINNO NDB"},
{"type":"NDB","hdg_t":237.8,"dist_nm":17.9,"freq":326,"lat":39.11355556,"lon":-87.44680556,"rng_nm":50,"alt_fmsl":0,"id":"SIV","desc":"SULLIVAN NDB"},
{"type":"VOR","hdg_t":107.9,"dist_nm":24.9,"freq":110.2,"lat":39.14383333,"lon":-86.61302778,"rng_nm":40,"alt_fmsl":845,"id":"OOM","desc":"HOOSIER VORTAC"},
{"type":"NDB","hdg_t":237.5,"dist_nm":28.7,"freq":391,"lat":39.01408333,"lon":-87.64161111,"rng_nm":50,"alt_fmsl":0,"id":"PLX","desc":"PALESTINE NDB"},
{"type":"VOR","hdg_t":238.2,"dist_nm":28.9,"freq":108.4,"lat":39.01763889,"lon":-87.64883333,"rng_nm":25,"alt_fmsl":452,"id":"RSV","desc":"CRAWFORD CO VOR-DME"},
{"type":"NDB","hdg_t":28.9,"dist_nm":30.2,"freq":521,"lat":39.71408333,"lon":-86.80602778,"rng_nm":50,"alt_fmsl":0,"id":"TVX","desc":"GREENCASTLE NDB"},
{"type":"NDB","hdg_t":180.8,"dist_nm":34.5,"freq":212,"lat":38.69605556,"lon":-87.13261111,"rng_nm":50,"alt_fmsl":0,"id":"DCY","desc":"WASHINGTON NDB"},
{"type":"NDB","hdg_t":315,"dist_nm":36.1,"freq":341,"lat":39.69836111,"lon":-87.67419444,"rng_nm":50,"alt_fmsl":0,"id":"PRG","desc":"PARIS NDB"},
{"type":"VOR","hdg_t":216.8,"dist_nm":37.6,"freq":108.8,"lat":38.76986111,"lon":-87.60383333,"rng_nm":25,"alt_fmsl":430,"id":"LWV","desc":"LAWRENCEVILLE VOR-DME"},
{"type":"NDB","hdg_t":57.9,"dist_nm":39,"freq":219,"lat":39.61725000,"lon":-86.40786111,"rng_nm":50,"alt_fmsl":0,"id":"OQ","desc":"BRINN NDB"},
{"type":"NDB","hdg_t":56.6,"dist_nm":39,"freq":266,"lat":39.62900000,"lon":-86.41833333,"rng_nm":50,"alt_fmsl":0,"id":"IN","desc":"PULLY NDB"},
{"type":"NDB","hdg_t":210.2,"dist_nm":40.3,"freq":251,"lat":38.69075000,"lon":-87.55577778,"rng_nm":50,"alt_fmsl":0,"id":"OEA","desc":"VINCENNES NDB"},
{"type":"NDB","hdg_t":272.9,"dist_nm":41,"freq":359,"lat":39.30522222,"lon":-88.00194444,"rng_nm":50,"alt_fmsl":0,"id":"CZB","desc":"CASEY NDB"},
{"type":"NDB","hdg_t":128.8,"dist_nm":41.2,"freq":344,"lat":38.83963889,"lon":-86.43636111,"rng_nm":50,"alt_fmsl":0,"id":"BFR","desc":"BEDFORD NDB"},
{"type":"NDB","hdg_t":12.6,"dist_nm":43.5,"freq":388,"lat":39.98097222,"lon":-86.91572222,"rng_nm":50,"alt_fmsl":0,"id":"CFJ","desc":"CRAWFORDSVILLE NDB"},
{"type":"VOR","hdg_t":46.9,"dist_nm":47.7,"freq":116.3,"lat":39.81472222,"lon":-86.36747222,"rng_nm":130,"alt_fmsl":823,"id":"VHP","desc":"BRICKYARD VORTAC"},
{"type":"NDB","hdg_t":215.6,"dist_nm":48.6,"freq":524,"lat":38.61175000,"lon":-87.72550000,"rng_nm":50,"alt_fmsl":0,"id":"AJG","desc":"MOUNT CARMEL NDB"},
{"type":"NDB","hdg_t":61.8,"dist_nm":49.2,"freq":232,"lat":39.65686111,"lon":-86.18541667,"rng_nm":50,"alt_fmsl":0,"id":"CO","desc":"COLFA NDB"},
{"type":"NDB","hdg_t":282,"dist_nm":49.9,"freq":347,"lat":39.44241667,"lon":-88.17347222,"rng_nm":50,"alt_fmsl":0,"id":"MT","desc":"ZEBRE NDB"},
{"type":"NDB","hdg_t":65.4,"dist_nm":52.5,"freq":398,"lat":39.63266667,"lon":-86.09072222,"rng_nm":50,"alt_fmsl":0,"id":"HFY","desc":"GREENWOOD NDB"},
{"type":"NDB","hdg_t":147.8,"dist_nm":52.6,"freq":368,"lat":38.52783300,"lon":-86.52779400,"rng_nm":25,"alt_fmsl":615,"id":"RRJ","desc":"ORANJ NDB"},
{"type":"NDB","hdg_t":54.1,"dist_nm":52.8,"freq":349,"lat":39.78644444,"lon":-86.19625000,"rng_nm":50,"alt_fmsl":0,"id":"FV","desc":"LAREZ NDB"},
{"type":"VOR","hdg_t":283.1,"dist_nm":55.5,"freq":109.4,"lat":39.47800000,"lon":-88.28605556,"rng_nm":40,"alt_fmsl":720,"id":"MTO","desc":"MATTOON VOR-DME"},
{"type":"NDB","hdg_t":45.1,"dist_nm":56.9,"freq":248,"lat":39.93969444,"lon":-86.24872222,"rng_nm":50,"alt_fmsl":0,"id":"HZP","desc":"ZIONSVILLE NDB"},
{"type":"NDB","hdg_t":113.9,"dist_nm":58.9,"freq":308,"lat":38.86744444,"lon":-85.97302778,"rng_nm":50,"alt_fmsl":0,"id":"EQZ","desc":"CAPTAIN NDB"},
{"type":"NDB","hdg_t":319.8,"dist_nm":59.3,"freq":281,"lat":40.02641667,"lon":-87.95308333,"rng_nm":50,"alt_fmsl":0,"id":"HMJ","desc":"HOMER NDB"},
{"type":"NDB","hdg_t":236.2,"dist_nm":59.3,"freq":272,"lat":38.71811111,"lon":-88.17280556,"rng_nm":50,"alt_fmsl":0,"id":"OLY","desc":"OLNEY NDB"},
{"type":"NDB","hdg_t":86.8,"dist_nm":60.7,"freq":410,"lat":39.32205556,"lon":-85.81855556,"rng_nm":50,"alt_fmsl":0,"id":"BA","desc":"CLIFS NDB"},
{"type":"VOR","hdg_t":172.7,"dist_nm":61.7,"freq":109.2,"lat":38.25050000,"lon":-86.95619444,"rng_nm":25,"alt_fmsl":517,"id":"HNB","desc":"HUNTINGBURG VOR-DME"},
{"type":"NDB","hdg_t":342.9,"dist_nm":63.7,"freq":332,"lat":40.28952778,"lon":-87.52975000,"rng_nm":50,"alt_fmsl":0,"id":"DN","desc":"JULIP NDB"},
{"type":"NDB","hdg_t":50.9,"dist_nm":63.7,"freq":338,"lat":39.93769444,"lon":-86.05022222,"rng_nm":50,"alt_fmsl":0,"id":"UMP","desc":"METROPOLITAN NDB"},
{"type":"VOR","hdg_t":69.9,"dist_nm":64,"freq":112,"lat":39.63255556,"lon":-85.82430556,"rng_nm":40,"alt_fmsl":810,"id":"SHB","desc":"SHELBYVILLE VORTAC"},
{"type":"NDB","hdg_t":310.5,"dist_nm":64.3,"freq":407,"lat":39.96622222,"lon":-88.18244444,"rng_nm":50,"alt_fmsl":0,"id":"CM","desc":"VEALS NDB"},
{"type":"VOR","hdg_t":341.9,"dist_nm":64.4,"freq":111,"lat":40.29377778,"lon":-87.55719444,"rng_nm":40,"alt_fmsl":700,"id":"DNV","desc":"DANVILLE VORTAC"},
{"type":"NDB","hdg_t":23.2,"dist_nm":65.1,"freq":278,"lat":40.27050000,"lon":-86.56275000,"rng_nm":50,"alt_fmsl":0,"id":"FKR","desc":"FRANKFORT NDB"},
{"type":"VOR","hdg_t":224,"dist_nm":65.3,"freq":116.6,"lat":38.48519444,"lon":-88.08580556,"rng_nm":40,"alt_fmsl":540,"id":"SAM","desc":"SAMSVILLE VOR-DME"},
{"type":"VOR","hdg_t":252,"dist_nm":66.9,"freq":109,"lat":38.92036111,"lon":-88.48180556,"rng_nm":40,"alt_fmsl":540,"id":"BIB","desc":"BIBLE GROVE VORTAC"},
{"type":"NDB","hdg_t":2.6,"dist_nm":69.2,"freq":401,"lat":40.42644444,"lon":-87.05180556,"rng_nm":50,"alt_fmsl":0,"id":"LA","desc":"EARLE NDB"},
{"type":"NDB","hdg_t":192.3,"dist_nm":70.3,"freq":219,"lat":38.12672222,"lon":-87.44072222,"rng_nm":50,"alt_fmsl":0,"id":"EV","desc":"VICCI NDB"},
{"type":"VOR","hdg_t":310.8,"dist_nm":70.3,"freq":110,"lat":40.03452778,"lon":-88.27605556,"rng_nm":40,"alt_fmsl":745,"id":"CMI","desc":"CHAMPAIGN VORTAC"},
{"type":"NDB","hdg_t":240.2,"dist_nm":72,"freq":353,"lat":38.66893600,"lon":-88.45310300,"rng_nm":25,"alt_fmsl":472,"id":"FOA","desc":"ELM RIVER NDB"},
{"type":"NDB","hdg_t":194.6,"dist_nm":76.3,"freq":284,"lat":38.04013889,"lon":-87.53094444,"rng_nm":50,"alt_fmsl":0,"id":"PDW","desc":"EVANSVILLE NDB"},
{"type":"VOR","hdg_t":1.8,"dist_nm":76.9,"freq":115.1,"lat":40.55611111,"lon":-87.06933333,"rng_nm":130,"alt_fmsl":750,"id":"BVT","desc":"BOILER VORTAC"},
{"type":"NDB","hdg_t":164.8,"dist_nm":78.1,"freq":206,"lat":38.01416667,"lon":-86.69019444,"rng_nm":50,"alt_fmsl":0,"id":"TEL","desc":"TELL CITY NDB"},
{"type":"NDB","hdg_t":276.2,"dist_nm":80.5,"freq":365,"lat":39.40669444,"lon":-88.84369444,"rng_nm":50,"alt_fmsl":0,"id":"SYZ","desc":"SHELBYVILLE NDB"},
{"type":"NDB","hdg_t":125.9,"dist_nm":80.6,"freq":331,"lat":38.47397222,"lon":-85.73722222,"rng_nm":50,"alt_fmsl":0,"id":"JV","desc":"CATCH NDB"},
{"type":"NDB","hdg_t":228.8,"dist_nm":80.6,"freq":257,"lat":38.38005556,"lon":-88.40977778,"rng_nm":50,"alt_fmsl":0,"id":"FWC","desc":"WAYNE CO NDB"},
{"type":"VOR","hdg_t":120,"dist_nm":80.7,"freq":112.4,"lat":38.58883333,"lon":-85.63600000,"rng_nm":40,"alt_fmsl":710,"id":"ABB","desc":"NABB VORTAC"},
{"type":"NDB","hdg_t":111,"dist_nm":83.5,"freq":404,"lat":38.76090800,"lon":-85.46051100,"rng_nm":25,"alt_fmsl":874,"id":"IMS","desc":"MADISON NDB"},
{"type":"NDB","hdg_t":213.8,"dist_nm":84.8,"freq":332,"lat":38.09350000,"lon":-88.11963889,"rng_nm":50,"alt_fmsl":0,"id":"CUL","desc":"CARMI NDB"},
{"type":"VOR","hdg_t":289.6,"dist_nm":85.2,"freq":117.2,"lat":39.73752778,"lon":-88.85644444,"rng_nm":130,"alt_fmsl":708,"id":"AXC","desc":"ADDERS VORTAC"},
{"type":"VOR","hdg_t":200.6,"dist_nm":86,"freq":113.3,"lat":37.92833333,"lon":-87.76238889,"rng_nm":130,"alt_fmsl":384,"id":"PXV","desc":"POCKET CITY VORTAC"},
{"type":"NDB","hdg_t":86.3,"dist_nm":86.9,"freq":254,"lat":39.34977778,"lon":-85.25775000,"rng_nm":50,"alt_fmsl":0,"id":"HLB","desc":"BATESVILLE NDB"},
{"type":"NDB","hdg_t":10.7,"dist_nm":87.7,"freq":377,"lat":40.71031700,"lon":-86.76223300,"rng_nm":25,"alt_fmsl":676,"id":"MCX","desc":"WHITE CO NDB"},
{"type":"NDB","hdg_t":56.8,"dist_nm":88.6,"freq":394,"lat":40.06952778,"lon":-85.51069444,"rng_nm":50,"alt_fmsl":0,"id":"AI","desc":"VIDEO NDB"},
{"type":"VOR","hdg_t":32.8,"dist_nm":89.8,"freq":113.5,"lat":40.52777778,"lon":-86.05800000,"rng_nm":130,"alt_fmsl":827,"id":"OKK","desc":"KOKOMO VORTAC"},
{"type":"NDB","hdg_t":290.6,"dist_nm":90.5,"freq":275,"lat":39.79052778,"lon":-88.95388889,"rng_nm":50,"alt_fmsl":0,"id":"DE","desc":"ELWIN NDB"},
{"type":"NDB","hdg_t":65.9,"dist_nm":91.2,"freq":385,"lat":39.87997222,"lon":-85.31886111,"rng_nm":50,"alt_fmsl":0,"id":"UWL","desc":"NEW CASTLE NDB"},
{"type":"VOR","hdg_t":181.3,"dist_nm":91.7,"freq":108.6,"lat":37.74355556,"lon":-87.16597222,"rng_nm":25,"alt_fmsl":401,"id":"OWB","desc":"OWENSBORO VOR-DME"},
{"type":"VOR","hdg_t":328.8,"dist_nm":92,"freq":116.8,"lat":40.58169444,"lon":-88.16427778,"rng_nm":40,"alt_fmsl":780,"id":"RBS","desc":"ROBERTS VOR-DME"},
{"type":"VOR","hdg_t":153.1,"dist_nm":92.3,"freq":108.2,"lat":37.89405556,"lon":-86.24452778,"rng_nm":40,"alt_fmsl":0,"id":"MYS","desc":"MYSTIC VOR"},
{"type":"VOR","hdg_t":131.9,"dist_nm":92.6,"freq":112.2,"lat":38.23022222,"lon":-85.66475000,"rng_nm":25,"alt_fmsl":540,"id":"BQM","desc":"BOWMAN VOR-DME"},
{"type":"NDB","hdg_t":21.6,"dist_nm":92.7,"freq":263,"lat":40.70899200,"lon":-86.37359400,"rng_nm":25,"alt_fmsl":732,"id":"GGP","desc":"LOGANSPORT NDB"},
{"type":"VOR","hdg_t":28.2,"dist_nm":93.6,"freq":108.45,"lat":40.64491667,"lon":-86.15172222,"rng_nm":25,"alt_fmsl":808,"id":"GUS","desc":"GRISSOM VORTAC"},
{"type":"NDB","hdg_t":246.9,"dist_nm":94.2,"freq":400,"lat":38.64402778,"lon":-88.96736111,"rng_nm":50,"alt_fmsl":0,"id":"SLO","desc":"SALEM NDB"},
{"type":"NDB","hdg_t":145.2,"dist_nm":95.4,"freq":396,"lat":37.95869444,"lon":-85.97663889,"rng_nm":50,"alt_fmsl":0,"id":"GOI","desc":"GODMAN NDB"},
{"type":"NDB","hdg_t":73.9,"dist_nm":95.7,"freq":275,"lat":39.69756100,"lon":-85.13438900,"rng_nm":25,"alt_fmsl":867,"id":"CEV","desc":"CONNERSVILLE NDB"},
{"type":"VOR","hdg_t":264.1,"dist_nm":95.7,"freq":114.3,"lat":39.09369444,"lon":-89.16247222,"rng_nm":40,"alt_fmsl":604,"id":"VLA","desc":"VANDALIA VORTAC"},
{"type":"VOR","hdg_t":235.8,"dist_nm":96,"freq":113.8,"lat":38.36194444,"lon":-88.80733333,"rng_nm":40,"alt_fmsl":558,"id":"VNN","desc":"MT VERNON VOR-DME"},
{"type":"NDB","hdg_t":133.5,"dist_nm":97.2,"freq":414,"lat":38.14483333,"lon":-85.63330556,"rng_nm":50,"alt_fmsl":0,"id":"LK","desc":"LAANG NDB"},
{"type":"NDB","hdg_t":71.2,"dist_nm":97.3,"freq":227,"lat":39.77711111,"lon":-85.12988889,"rng_nm":50,"alt_fmsl":0,"id":"SQ","desc":"PNTHR NDB"},
{"type":"NDB","hdg_t":181.1,"dist_nm":98.1,"freq":341,"lat":37.63561111,"lon":-87.16222222,"rng_nm":50,"alt_fmsl":0,"id":"OW","desc":"HIGUY NDB"},
{"type":"VOR","hdg_t":146.1,"dist_nm":98.1,"freq":109.6,"lat":37.90741667,"lon":-85.97288889,"rng_nm":25,"alt_fmsl":740,"id":"FTK","desc":"FORT KNOX VOR-DME"},
{"type":"VOR","hdg_t":53.5,"dist_nm":98.6,"freq":114.4,"lat":40.23730556,"lon":-85.39402778,"rng_nm":40,"alt_fmsl":935,"id":"MIE","desc":"MUNCIE VOR-DME"},
{"type":"VOR","hdg_t":41.8,"dist_nm":98.9,"freq":108.6,"lat":40.49333333,"lon":-85.67925000,"rng_nm":40,"alt_fmsl":850,"id":"MZZ","desc":"MARION VOR-DME"},
{"type":"NDB","hdg_t":56.2,"dist_nm":99.5,"freq":365,"lat":40.18086111,"lon":-85.32091667,"rng_nm":50,"alt_fmsl":0,"id":"JN","desc":"BALLL NDB"}
]
}
