{"success":true,"source":"xp2csv.pl","last_updated":"2013/11/08 14:53:21 UTC"
,"icao":"IN42","name":"Hackbarth","lat":41.49032527,"lon":-86.19944834,"rwys":1,"ils":0,"index":1532123,"path":"w090n40/w087n41"
,"runways":[
{"len_m":578,"wid_m":30.48,"hdg":357,"surf":"Turf/grass","rwy1":"36","lat1":41.48772103,"lon1":-86.19932693,"rwy2":"18","lat2":41.49292951,"lon2":-86.19956975}
]
,"navaids":[
{"type":"VOR","hdg_t":74.8,"dist_nm":8,"freq":113.7,"lat":41.52516667,"lon":-86.02794444,"rng_nm":130,"alt_fmsl":852,"id":"GSH","desc":"GOSHEN VORTAC"},
{"type":"NDB","hdg_t":356.1,"dist_nm":12.9,"freq":341,"lat":41.70561111,"lon":-86.21902778,"rng_nm":50,"alt_fmsl":0,"id":"SB","desc":"MISHA NDB"},
{"type":"VOR","hdg_t":342.2,"dist_nm":17.5,"freq":115.4,"lat":41.76861111,"lon":-86.31847222,"rng_nm":130,"alt_fmsl":804,"id":"GIJ","desc":"GIPPER VORTAC"},
{"type":"NDB","hdg_t":207,"dist_nm":18.4,"freq":391,"lat":41.21672222,"lon":-86.38472222,"rng_nm":50,"alt_fmsl":0,"id":"CPB","desc":"CULVER NDB"},
{"type":"VOR","hdg_t":243.7,"dist_nm":22.6,"freq":115.6,"lat":41.32205556,"lon":-86.64930556,"rng_nm":130,"alt_fmsl":690,"id":"OXI","desc":"KNOX VOR-DME"},
{"type":"NDB","hdg_t":271.3,"dist_nm":25.7,"freq":356,"lat":41.49897222,"lon":-86.77119444,"rng_nm":50,"alt_fmsl":0,"id":"IUL","desc":"LA PORTE NDB"},
{"type":"NDB","hdg_t":265.8,"dist_nm":30.6,"freq":212,"lat":41.45113889,"lon":-86.87752778,"rng_nm":50,"alt_fmsl":0,"id":"VP","desc":"SEDLY NDB"},
{"type":"VOR","hdg_t":114.4,"dist_nm":34.9,"freq":110.4,"lat":41.24691667,"lon":-85.49738889,"rng_nm":40,"alt_fmsl":0,"id":"OLK","desc":"WEBSTER LAKE VOR"},
{"type":"NDB","hdg_t":352.4,"dist_nm":38.5,"freq":397,"lat":42.12680556,"lon":-86.31333333,"rng_nm":50,"alt_fmsl":0,"id":"BE","desc":"MALLY NDB"},
{"type":"NDB","hdg_t":44,"dist_nm":39.1,"freq":407,"lat":41.95838889,"lon":-85.59166667,"rng_nm":50,"alt_fmsl":0,"id":"HAI","desc":"THREE RIVERS NDB"},
{"type":"VOR","hdg_t":4.9,"dist_nm":39.3,"freq":116.6,"lat":42.14441667,"lon":-86.12269444,"rng_nm":40,"alt_fmsl":795,"id":"ELX","desc":"KEELER VOR-DME"},
{"type":"NDB","hdg_t":60.4,"dist_nm":39.5,"freq":382,"lat":41.81313889,"lon":-85.43377778,"rng_nm":50,"alt_fmsl":0,"id":"IRS","desc":"STURGIS NDB"},
{"type":"NDB","hdg_t":157.1,"dist_nm":47.2,"freq":329,"lat":40.76365600,"lon":-85.79770600,"rng_nm":25,"alt_fmsl":792,"id":"IWH","desc":"WABASH NDB"},
{"type":"NDB","hdg_t":189.6,"dist_nm":47.5,"freq":263,"lat":40.70899200,"lon":-86.37359400,"rng_nm":25,"alt_fmsl":732,"id":"GGP","desc":"LOGANSPORT NDB"},
{"type":"NDB","hdg_t":37.8,"dist_nm":48.7,"freq":371,"lat":42.13105556,"lon":-85.52975000,"rng_nm":50,"alt_fmsl":0,"id":"AZ","desc":"AUSTN NDB"},
{"type":"NDB","hdg_t":138.5,"dist_nm":50.6,"freq":417,"lat":40.85533333,"lon":-85.46355556,"rng_nm":50,"alt_fmsl":0,"id":"HHG","desc":"HUNTINGTON NDB"},
{"type":"VOR","hdg_t":177.5,"dist_nm":50.7,"freq":108.45,"lat":40.64491667,"lon":-86.15172222,"rng_nm":25,"alt_fmsl":808,"id":"GUS","desc":"GRISSOM VORTAC"},
{"type":"NDB","hdg_t":79.4,"dist_nm":50.9,"freq":347,"lat":41.63977778,"lon":-85.08691667,"rng_nm":50,"alt_fmsl":0,"id":"ANQ","desc":"ANGOLA NDB"},
{"type":"NDB","hdg_t":275.9,"dist_nm":51,"freq":236,"lat":41.57241667,"lon":-87.32702778,"rng_nm":50,"alt_fmsl":0,"id":"GY","desc":"GARIE NDB"},
{"type":"NDB","hdg_t":208.8,"dist_nm":53.2,"freq":377,"lat":40.71031700,"lon":-86.76223300,"rng_nm":25,"alt_fmsl":676,"id":"MCX","desc":"WHITE CO NDB"},
{"type":"VOR","hdg_t":32.6,"dist_nm":53.3,"freq":109,"lat":42.23700000,"lon":-85.55316667,"rng_nm":40,"alt_fmsl":870,"id":"AZO","desc":"KALAMAZOO VOR-DME"},
{"type":"VOR","hdg_t":123.4,"dist_nm":55.1,"freq":117.8,"lat":40.97905556,"lon":-85.18805556,"rng_nm":130,"alt_fmsl":793,"id":"FWA","desc":"FORT WAYNE VORTAC"},
{"type":"NDB","hdg_t":100.4,"dist_nm":57.7,"freq":227,"lat":41.30830556,"lon":-84.94419444,"rng_nm":50,"alt_fmsl":0,"id":"GW","desc":"SHENK NDB"},
{"type":"VOR","hdg_t":173.6,"dist_nm":58,"freq":113.5,"lat":40.52777778,"lon":-86.05800000,"rng_nm":130,"alt_fmsl":827,"id":"OKK","desc":"KOKOMO VORTAC"},
{"type":"VOR","hdg_t":4.1,"dist_nm":58.6,"freq":112.1,"lat":42.46602778,"lon":-86.10480556,"rng_nm":130,"alt_fmsl":640,"id":"PMM","desc":"PULLMAN VOR-DME"},
{"type":"NDB","hdg_t":124.1,"dist_nm":59.3,"freq":251,"lat":40.93050000,"lon":-85.11963889,"rng_nm":50,"alt_fmsl":0,"id":"FW","desc":"HOAGY NDB"},
{"type":"VOR","hdg_t":271.5,"dist_nm":61.8,"freq":114.2,"lat":41.51000000,"lon":-87.57155556,"rng_nm":40,"alt_fmsl":634,"id":"CGT","desc":"CHICAGO HEIGHTS VORTAC"},
{"type":"VOR","hdg_t":158.2,"dist_nm":64.2,"freq":108.6,"lat":40.49333333,"lon":-85.67925000,"rng_nm":40,"alt_fmsl":850,"id":"MZZ","desc":"MARION VOR-DME"},
{"type":"VOR","hdg_t":40.4,"dist_nm":64.9,"freq":109.4,"lat":42.30980556,"lon":-85.25233333,"rng_nm":25,"alt_fmsl":922,"id":"BTL","desc":"BATTLE CREEK VORTAC"},
{"type":"VOR","hdg_t":215.4,"dist_nm":68.5,"freq":115.1,"lat":40.55611111,"lon":-87.06933333,"rng_nm":130,"alt_fmsl":750,"id":"BVT","desc":"BOILER VORTAC"},
{"type":"NDB","hdg_t":283.1,"dist_nm":68.7,"freq":248,"lat":41.74150000,"lon":-87.68966667,"rng_nm":50,"alt_fmsl":0,"id":"MX","desc":"KEDZI NDB"},
{"type":"NDB","hdg_t":40.6,"dist_nm":69.2,"freq":272,"lat":42.36200000,"lon":-85.18450000,"rng_nm":50,"alt_fmsl":0,"id":"BT","desc":"BATOL NDB"},
{"type":"VOR","hdg_t":61.4,"dist_nm":72.9,"freq":111.2,"lat":42.06250000,"lon":-84.76513889,"rng_nm":40,"alt_fmsl":1040,"id":"LFD","desc":"LITCHFIELD VOR-DME"},
{"type":"VOR","hdg_t":260,"dist_nm":73,"freq":113.2,"lat":41.26963889,"lon":-87.79105556,"rng_nm":40,"alt_fmsl":689,"id":"EON","desc":"PEOTONE VORTAC"},
{"type":"NDB","hdg_t":211.5,"dist_nm":74.6,"freq":401,"lat":40.42644444,"lon":-87.05180556,"rng_nm":50,"alt_fmsl":0,"id":"LA","desc":"EARLE NDB"},
{"type":"NDB","hdg_t":281,"dist_nm":74.9,"freq":332,"lat":41.71897222,"lon":-87.83638889,"rng_nm":50,"alt_fmsl":0,"id":"HK","desc":"ERMIN NDB"},
{"type":"NDB","hdg_t":192.8,"dist_nm":74.9,"freq":278,"lat":40.27050000,"lon":-86.56275000,"rng_nm":50,"alt_fmsl":0,"id":"FKR","desc":"FRANKFORT NDB"},
{"type":"NDB","hdg_t":289.5,"dist_nm":76.4,"freq":385,"lat":41.90486100,"lon":-87.80691700,"rng_nm":25,"alt_fmsl":0,"id":"ID","desc":"INDDY NDB"},
{"type":"NDB","hdg_t":293,"dist_nm":77.3,"freq":414,"lat":41.98431700,"lon":-87.78902200,"rng_nm":25,"alt_fmsl":0,"id":"IA","desc":"TAFFS NDB"},
{"type":"NDB","hdg_t":89.9,"dist_nm":78.1,"freq":260,"lat":41.47886111,"lon":-84.46591667,"rng_nm":50,"alt_fmsl":0,"id":"BYN","desc":"BRYAN NDB"},
{"type":"VOR","hdg_t":252,"dist_nm":78.7,"freq":111.6,"lat":41.07441667,"lon":-87.84977778,"rng_nm":40,"alt_fmsl":625,"id":"IKK","desc":"KANKAKEE VOR-DME"},
{"type":"NDB","hdg_t":96.1,"dist_nm":80.5,"freq":246,"lat":41.33369444,"lon":-84.42800000,"rng_nm":50,"alt_fmsl":0,"id":"DFI","desc":"DEFIANCE NDB"},
{"type":"NDB","hdg_t":117.1,"dist_nm":81.1,"freq":411,"lat":40.86255556,"lon":-84.61383333,"rng_nm":50,"alt_fmsl":0,"id":"VFU","desc":"STANLEY NDB"},
{"type":"NDB","hdg_t":250.3,"dist_nm":82.1,"freq":272,"lat":41.01788889,"lon":-87.90372222,"rng_nm":50,"alt_fmsl":0,"id":"IK","desc":"LUKOW NDB"},
{"type":"VOR","hdg_t":291.8,"dist_nm":82.2,"freq":113.9,"lat":41.98766667,"lon":-87.90488889,"rng_nm":40,"alt_fmsl":650,"id":"ORD","desc":"CHICAGO O'HARE IN VOR-DME"},
{"type":"NDB","hdg_t":137.9,"dist_nm":83.1,"freq":257,"lat":40.45366400,"lon":-84.98355000,"rng_nm":25,"alt_fmsl":959,"id":"PLD","desc":"PORTLAND NDB"},
{"type":"VOR","hdg_t":153.7,"dist_nm":83.6,"freq":114.4,"lat":40.23730556,"lon":-85.39402778,"rng_nm":40,"alt_fmsl":935,"id":"MIE","desc":"MUNCIE VOR-DME"},
{"type":"DME","hdg_t":292.1,"dist_nm":83.6,"freq":111.75,"lat":42.00391666,"lon":-87.93006695,"rng_nm":18,"alt_fmsl":668,"id":"KORD","desc":"09L DME-ILS"},
{"type":"DME","hdg_t":292.1,"dist_nm":83.6,"freq":111.75,"lat":42.00391667,"lon":-87.93006690,"rng_nm":18,"alt_fmsl":668,"id":"KORD","desc":"27R DME-ILS"},
{"type":"VOR","hdg_t":21.7,"dist_nm":83.8,"freq":115.95,"lat":42.78672222,"lon":-85.49708333,"rng_nm":130,"alt_fmsl":803,"id":"GRR","desc":"GRAND RAPIDS VOR-DME"},
{"type":"NDB","hdg_t":289.8,"dist_nm":86.9,"freq":350,"lat":41.96777200,"lon":-88.02670000,"rng_nm":50,"alt_fmsl":699,"id":"ME","desc":"DEANA NDB"},
{"type":"NDB","hdg_t":293.9,"dist_nm":87.5,"freq":368,"lat":42.06918300,"lon":-87.99088300,"rng_nm":25,"alt_fmsl":0,"id":"OH","desc":"LEAMA NDB"},
{"type":"NDB","hdg_t":293.2,"dist_nm":87.9,"freq":394,"lat":42.05593600,"lon":-88.00779200,"rng_nm":25,"alt_fmsl":0,"id":"OR","desc":"CHSTR NDB"},
{"type":"NDB","hdg_t":152.7,"dist_nm":88.1,"freq":365,"lat":40.18086111,"lon":-85.32091667,"rng_nm":50,"alt_fmsl":0,"id":"JN","desc":"BALLL NDB"},
{"type":"VOR","hdg_t":299.7,"dist_nm":89.9,"freq":113,"lat":42.22147222,"lon":-87.95180556,"rng_nm":130,"alt_fmsl":758,"id":"OBK","desc":"NORTHBROOK VOR-DME"},
{"type":"VOR","hdg_t":58.8,"dist_nm":90.6,"freq":109.6,"lat":42.25925000,"lon":-84.45855556,"rng_nm":40,"alt_fmsl":995,"id":"JXN","desc":"JACKSON VOR-DME"},
{"type":"NDB","hdg_t":159.5,"dist_nm":90.7,"freq":394,"lat":40.06952778,"lon":-85.51069444,"rng_nm":50,"alt_fmsl":0,"id":"AI","desc":"VIDEO NDB"},
{"type":"NDB","hdg_t":23.2,"dist_nm":91.8,"freq":263,"lat":42.89563889,"lon":-85.37858333,"rng_nm":50,"alt_fmsl":0,"id":"GR","desc":"KNOBS NDB"},
{"type":"NDB","hdg_t":309.6,"dist_nm":92.4,"freq":379,"lat":42.46405556,"lon":-87.80141667,"rng_nm":50,"alt_fmsl":0,"id":"UG","desc":"WAUKE NDB"},
{"type":"NDB","hdg_t":181.4,"dist_nm":93,"freq":248,"lat":39.93969444,"lon":-86.24872222,"rng_nm":50,"alt_fmsl":0,"id":"HZP","desc":"ZIONSVILLE NDB"},
{"type":"NDB","hdg_t":84.9,"dist_nm":93.3,"freq":375,"lat":41.60922222,"lon":-84.13272222,"rng_nm":50,"alt_fmsl":0,"id":"USE","desc":"FULTON NDB"},
{"type":"NDB","hdg_t":175.7,"dist_nm":93.3,"freq":338,"lat":39.93769444,"lon":-86.05022222,"rng_nm":50,"alt_fmsl":0,"id":"UMP","desc":"METROPOLITAN NDB"},
{"type":"NDB","hdg_t":220.4,"dist_nm":94,"freq":332,"lat":40.28952778,"lon":-87.52975000,"rng_nm":50,"alt_fmsl":0,"id":"DN","desc":"JULIP NDB"},
{"type":"VOR","hdg_t":221.1,"dist_nm":94.6,"freq":111,"lat":40.29377778,"lon":-87.55719444,"rng_nm":40,"alt_fmsl":700,"id":"DNV","desc":"DANVILLE VORTAC"},
{"type":"VOR","hdg_t":272.7,"dist_nm":95.5,"freq":112.3,"lat":41.54641667,"lon":-88.31841667,"rng_nm":130,"alt_fmsl":592,"id":"JOT","desc":"JOLIET VORTAC"},
{"type":"NDB","hdg_t":128.6,"dist_nm":95.7,"freq":205,"lat":40.48200000,"lon":-84.56438889,"rng_nm":50,"alt_fmsl":0,"id":"CQA","desc":"LAKEFIELD NDB"},
{"type":"NDB","hdg_t":58.2,"dist_nm":95.9,"freq":212,"lat":42.31783333,"lon":-84.36555556,"rng_nm":50,"alt_fmsl":0,"id":"JX","desc":"JAKSO NDB"},
{"type":"NDB","hdg_t":200,"dist_nm":96.2,"freq":388,"lat":39.98097222,"lon":-86.91572222,"rng_nm":50,"alt_fmsl":0,"id":"CFJ","desc":"CRAWFORDSVILLE NDB"},
{"type":"NDB","hdg_t":0.7,"dist_nm":97.8,"freq":219,"lat":43.12113889,"lon":-86.16858333,"rng_nm":50,"alt_fmsl":0,"id":"MK","desc":"MUSKO NDB"},
{"type":"NDB","hdg_t":75.8,"dist_nm":98,"freq":278,"lat":41.86997222,"lon":-84.07747222,"rng_nm":50,"alt_fmsl":0,"id":"ADG","desc":"ADRIAN NDB"},
{"type":"VOR","hdg_t":41.8,"dist_nm":99.5,"freq":110.8,"lat":42.71738889,"lon":-84.69750000,"rng_nm":40,"alt_fmsl":888,"id":"LAN","desc":"LANSING VORTAC"},
{"type":"VOR","hdg_t":284.6,"dist_nm":99.6,"freq":108.4,"lat":41.89036111,"lon":-88.35016667,"rng_nm":40,"alt_fmsl":838,"id":"DPA","desc":"DUPAGE VOR-DME"}
]
}
