{"success":true,"source":"xp2csv.pl","last_updated":"2013/11/08 14:53:21 UTC"
,"icao":"IS47","name":"Willis","lat":42.03058305,"lon":-88.70175556,"rwys":1,"ils":0,"index":1499393,"path":"w090n40/w089n42"
,"runways":[
{"len_m":609,"wid_m":30.48,"hdg":180,"surf":"Turf/grass","rwy1":"18","lat1":42.03332603,"lon1":-88.70175556,"rwy2":"36","lat2":42.02784007,"lon2":-88.70175556}
]
,"navaids":[
{"type":"NDB","hdg_t":182.4,"dist_nm":5.7,"freq":209,"lat":41.93402778,"lon":-88.70733333,"rng_nm":50,"alt_fmsl":0,"id":"DKB","desc":"DEKALB NDB"},
{"type":"VOR","hdg_t":118,"dist_nm":17.8,"freq":108.4,"lat":41.89036111,"lon":-88.35016667,"rng_nm":40,"alt_fmsl":838,"id":"DPA","desc":"DUPAGE VOR-DME"},
{"type":"NDB","hdg_t":285.9,"dist_nm":18.4,"freq":275,"lat":42.11433333,"lon":-89.09872222,"rng_nm":50,"alt_fmsl":0,"id":"RF","desc":"GILMY NDB"},
{"type":"VOR","hdg_t":297.9,"dist_nm":25.1,"freq":110.8,"lat":42.22558333,"lon":-89.19927778,"rng_nm":40,"alt_fmsl":868,"id":"RFD","desc":"ROCKFORD VOR-DME"},
{"type":"NDB","hdg_t":96.8,"dist_nm":30.4,"freq":350,"lat":41.96777200,"lon":-88.02670000,"rng_nm":50,"alt_fmsl":699,"id":"ME","desc":"DEANA NDB"},
{"type":"NDB","hdg_t":86.9,"dist_nm":31,"freq":394,"lat":42.05593600,"lon":-88.00779200,"rng_nm":25,"alt_fmsl":0,"id":"OR","desc":"CHSTR NDB"},
{"type":"NDB","hdg_t":85.5,"dist_nm":31.8,"freq":368,"lat":42.06918300,"lon":-87.99088300,"rng_nm":25,"alt_fmsl":0,"id":"OH","desc":"LEAMA NDB"},
{"type":"VOR","hdg_t":149.2,"dist_nm":33.7,"freq":112.3,"lat":41.54641667,"lon":-88.31841667,"rng_nm":130,"alt_fmsl":592,"id":"JOT","desc":"JOLIET VORTAC"},
{"type":"DME","hdg_t":92.3,"dist_nm":34.5,"freq":111.75,"lat":42.00391666,"lon":-87.93006695,"rng_nm":18,"alt_fmsl":668,"id":"KORD","desc":"09L DME-ILS"},
{"type":"DME","hdg_t":92.3,"dist_nm":34.5,"freq":111.75,"lat":42.00391667,"lon":-87.93006690,"rng_nm":18,"alt_fmsl":668,"id":"KORD","desc":"27R DME-ILS"},
{"type":"VOR","hdg_t":70.8,"dist_nm":35.3,"freq":113,"lat":42.22147222,"lon":-87.95180556,"rng_nm":130,"alt_fmsl":758,"id":"OBK","desc":"NORTHBROOK VOR-DME"},
{"type":"VOR","hdg_t":93.8,"dist_nm":35.7,"freq":113.9,"lat":41.98766667,"lon":-87.90488889,"rng_nm":40,"alt_fmsl":650,"id":"ORD","desc":"CHICAGO O'HARE IN VOR-DME"},
{"type":"VOR","hdg_t":330.5,"dist_nm":36.3,"freq":114.3,"lat":42.55800000,"lon":-89.10525000,"rng_nm":40,"alt_fmsl":931,"id":"JVL","desc":"JANESVILLE VOR-DME"},
{"type":"VOR","hdg_t":264.2,"dist_nm":37,"freq":111.2,"lat":41.96563889,"lon":-89.52422222,"rng_nm":40,"alt_fmsl":840,"id":"PLL","desc":"POLO VOR-DME"},
{"type":"NDB","hdg_t":336.7,"dist_nm":38.1,"freq":375,"lat":42.61511111,"lon":-89.04127778,"rng_nm":50,"alt_fmsl":0,"id":"JVL","desc":"JANESVILLE NDB"},
{"type":"NDB","hdg_t":6.8,"dist_nm":40.3,"freq":404,"lat":42.69883333,"lon":-88.59316667,"rng_nm":50,"alt_fmsl":0,"id":"LVV","desc":"LAKE LAWN NDB"},
{"type":"NDB","hdg_t":189.7,"dist_nm":40.6,"freq":266,"lat":41.36252778,"lon":-88.85425000,"rng_nm":50,"alt_fmsl":0,"id":"OIX","desc":"OTTAWA NDB"},
{"type":"NDB","hdg_t":100.3,"dist_nm":40.7,"freq":385,"lat":41.90486100,"lon":-87.80691700,"rng_nm":25,"alt_fmsl":0,"id":"ID","desc":"INDDY NDB"},
{"type":"NDB","hdg_t":93.5,"dist_nm":40.9,"freq":414,"lat":41.98431700,"lon":-87.78902200,"rng_nm":25,"alt_fmsl":0,"id":"IA","desc":"TAFFS NDB"},
{"type":"NDB","hdg_t":115.4,"dist_nm":43,"freq":332,"lat":41.71897222,"lon":-87.83638889,"rng_nm":50,"alt_fmsl":0,"id":"HK","desc":"ERMIN NDB"},
{"type":"VOR","hdg_t":24.1,"dist_nm":43.3,"freq":114.5,"lat":42.68933333,"lon":-88.30177778,"rng_nm":25,"alt_fmsl":772,"id":"BUU","desc":"BURBUN VOR-DME"},
{"type":"NDB","hdg_t":43,"dist_nm":43.6,"freq":389,"lat":42.56044444,"lon":-88.02877778,"rng_nm":50,"alt_fmsl":0,"id":"EN","desc":"CODEE NDB"},
{"type":"NDB","hdg_t":206.4,"dist_nm":45.2,"freq":230,"lat":41.35475600,"lon":-89.14813900,"rng_nm":25,"alt_fmsl":652,"id":"VYS","desc":"VALLEY NDB"},
{"type":"NDB","hdg_t":56.7,"dist_nm":47.8,"freq":379,"lat":42.46405556,"lon":-87.80141667,"rng_nm":50,"alt_fmsl":0,"id":"UG","desc":"WAUKE NDB"},
{"type":"VOR","hdg_t":44.8,"dist_nm":48.3,"freq":109.2,"lat":42.59905556,"lon":-87.93172222,"rng_nm":25,"alt_fmsl":734,"id":"ENW","desc":"KENOSHA VOR-DME"},
{"type":"NDB","hdg_t":110.5,"dist_nm":48.5,"freq":248,"lat":41.74150000,"lon":-87.68966667,"rng_nm":50,"alt_fmsl":0,"id":"MX","desc":"KEDZI NDB"},
{"type":"NDB","hdg_t":248.8,"dist_nm":52.2,"freq":254,"lat":41.71111111,"lon":-89.78561111,"rng_nm":50,"alt_fmsl":0,"id":"BOZ","desc":"WHITESIDE NDB"},
{"type":"NDB","hdg_t":42.1,"dist_nm":52.9,"freq":206,"lat":42.68255556,"lon":-87.89947222,"rng_nm":50,"alt_fmsl":0,"id":"RA","desc":"PASER NDB"},
{"type":"VOR","hdg_t":41.6,"dist_nm":58.9,"freq":117.7,"lat":42.76216667,"lon":-87.81472222,"rng_nm":25,"alt_fmsl":669,"id":"HRK","desc":"HORLICK VOR-DME"},
{"type":"VOR","hdg_t":121.2,"dist_nm":59.5,"freq":114.2,"lat":41.51000000,"lon":-87.57155556,"rng_nm":40,"alt_fmsl":634,"id":"CGT","desc":"CHICAGO HEIGHTS VORTAC"},
{"type":"NDB","hdg_t":35.5,"dist_nm":59.8,"freq":410,"lat":42.83961111,"lon":-87.91300000,"rng_nm":50,"alt_fmsl":0,"id":"MK","desc":"CAPPY NDB"},
{"type":"NDB","hdg_t":28.8,"dist_nm":60.3,"freq":242,"lat":42.90905556,"lon":-88.04097222,"rng_nm":50,"alt_fmsl":0,"id":"GM","desc":"TEELS NDB"},
{"type":"VOR","hdg_t":137.7,"dist_nm":61.3,"freq":113.2,"lat":41.26963889,"lon":-87.79105556,"rng_nm":40,"alt_fmsl":689,"id":"EON","desc":"PEOTONE VORTAC"},
{"type":"VOR","hdg_t":217.6,"dist_nm":65.7,"freq":114.7,"lat":41.15972222,"lon":-89.58786111,"rng_nm":130,"alt_fmsl":810,"id":"BDF","desc":"BRADFORD VORTAC"},
{"type":"NDB","hdg_t":113.5,"dist_nm":67.5,"freq":236,"lat":41.57241667,"lon":-87.32702778,"rng_nm":50,"alt_fmsl":0,"id":"GY","desc":"GARIE NDB"},
{"type":"VOR","hdg_t":15.7,"dist_nm":67.7,"freq":116.4,"lat":43.11686111,"lon":-88.28433333,"rng_nm":130,"alt_fmsl":1080,"id":"BAE","desc":"BADGER VORTAC"},
{"type":"NDB","hdg_t":335.4,"dist_nm":68.1,"freq":400,"lat":43.06275000,"lon":-89.34588889,"rng_nm":50,"alt_fmsl":0,"id":"MS","desc":"MONAH NDB"},
{"type":"NDB","hdg_t":359.1,"dist_nm":68.5,"freq":371,"lat":43.17366667,"lon":-88.72527778,"rng_nm":50,"alt_fmsl":0,"id":"RYV","desc":"ROCK RIVER NDB"},
{"type":"VOR","hdg_t":145.9,"dist_nm":68.9,"freq":111.6,"lat":41.07441667,"lon":-87.84977778,"rng_nm":40,"alt_fmsl":625,"id":"IKK","desc":"KANKAKEE VOR-DME"},
{"type":"NDB","hdg_t":149.1,"dist_nm":70.5,"freq":272,"lat":41.01788889,"lon":-87.90372222,"rng_nm":50,"alt_fmsl":0,"id":"IK","desc":"LUKOW NDB"},
{"type":"VOR","hdg_t":24.2,"dist_nm":71.1,"freq":112.5,"lat":43.10977778,"lon":-88.03727778,"rng_nm":40,"alt_fmsl":737,"id":"LJT","desc":"TIMMERMAN VOR-DME"},
{"type":"NDB","hdg_t":30.3,"dist_nm":71.7,"freq":260,"lat":43.06002778,"lon":-87.87675000,"rng_nm":50,"alt_fmsl":0,"id":"BL","desc":"YANKS NDB"},
{"type":"VOR","hdg_t":337.2,"dist_nm":72.5,"freq":108.6,"lat":43.14483333,"lon":-89.33969444,"rng_nm":40,"alt_fmsl":857,"id":"MSN","desc":"MADISON VORTAC"},
{"type":"VOR","hdg_t":181.1,"dist_nm":72.5,"freq":109.6,"lat":40.82119444,"lon":-88.73350000,"rng_nm":40,"alt_fmsl":679,"id":"PNT","desc":"PONTIAC VOR-DME"},
{"type":"NDB","hdg_t":258.1,"dist_nm":77.5,"freq":517,"lat":41.75166667,"lon":-90.39050000,"rng_nm":50,"alt_fmsl":0,"id":"FN","desc":"HILLZ NDB"},
{"type":"NDB","hdg_t":9.6,"dist_nm":80.1,"freq":200,"lat":43.34763889,"lon":-88.39522222,"rng_nm":50,"alt_fmsl":0,"id":"HXF","desc":"HARTFORD NDB"},
{"type":"VOR","hdg_t":257,"dist_nm":82.1,"freq":113.8,"lat":41.70855556,"lon":-90.48330556,"rng_nm":40,"alt_fmsl":767,"id":"CVA","desc":"DAVENPORT VORTAC"},
{"type":"NDB","hdg_t":359.9,"dist_nm":83.8,"freq":344,"lat":43.42900000,"lon":-88.70216667,"rng_nm":50,"alt_fmsl":0,"id":"UNU","desc":"JUNEAU NDB"},
{"type":"NDB","hdg_t":307.7,"dist_nm":85,"freq":365,"lat":42.88805556,"lon":-90.22650000,"rng_nm":50,"alt_fmsl":0,"id":"MRJ","desc":"MINERAL POINT NDB"},
{"type":"NDB","hdg_t":282.3,"dist_nm":86.4,"freq":341,"lat":42.32300000,"lon":-90.59886111,"rng_nm":50,"alt_fmsl":0,"id":"DB","desc":"ZILOM NDB"},
{"type":"VOR","hdg_t":16.7,"dist_nm":87.2,"freq":109.8,"lat":43.42197222,"lon":-88.12519444,"rng_nm":25,"alt_fmsl":0,"id":"BJB","desc":"WEST BEND VOR"},
{"type":"NDB","hdg_t":185.1,"dist_nm":88.5,"freq":334,"lat":40.56036111,"lon":-88.87463889,"rng_nm":50,"alt_fmsl":0,"id":"LH","desc":"EGROW NDB"},
{"type":"NDB","hdg_t":112.3,"dist_nm":89,"freq":212,"lat":41.45113889,"lon":-86.87752778,"rng_nm":50,"alt_fmsl":0,"id":"VP","desc":"SEDLY NDB"},
{"type":"NDB","hdg_t":257.7,"dist_nm":89.8,"freq":353,"lat":41.69486111,"lon":-90.65588889,"rng_nm":50,"alt_fmsl":0,"id":"DV","desc":"AUNEY NDB"},
{"type":"VOR","hdg_t":164.1,"dist_nm":90.2,"freq":116.8,"lat":40.58169444,"lon":-88.16427778,"rng_nm":40,"alt_fmsl":780,"id":"RBS","desc":"ROBERTS VOR-DME"},
{"type":"NDB","hdg_t":271.4,"dist_nm":91.1,"freq":386,"lat":42.05138600,"lon":-90.74095300,"rng_nm":25,"alt_fmsl":765,"id":"OQW","desc":"MAQUOKETA NDB"},
{"type":"VOR","hdg_t":284.6,"dist_nm":92.2,"freq":115.8,"lat":42.40147222,"lon":-90.70908333,"rng_nm":130,"alt_fmsl":1051,"id":"DBQ","desc":"DUBUQUE VORTAC"},
{"type":"NDB","hdg_t":109.5,"dist_nm":92.3,"freq":356,"lat":41.49897222,"lon":-86.77119444,"rng_nm":50,"alt_fmsl":0,"id":"IUL","desc":"LA PORTE NDB"},
{"type":"NDB","hdg_t":248.5,"dist_nm":92.8,"freq":215,"lat":41.44905556,"lon":-90.61847222,"rng_nm":50,"alt_fmsl":0,"id":"ML","desc":"MOLLI NDB"},
{"type":"VOR","hdg_t":186.4,"dist_nm":93.5,"freq":108.2,"lat":40.48080556,"lon":-88.93127778,"rng_nm":40,"alt_fmsl":882,"id":"BMI","desc":"BLOOMINGTON VOR-DME"},
{"type":"NDB","hdg_t":205.5,"dist_nm":94.4,"freq":356,"lat":40.60566667,"lon":-89.59313889,"rng_nm":50,"alt_fmsl":0,"id":"PI","desc":"TUNGG NDB"},
{"type":"VOR","hdg_t":211.6,"dist_nm":94.8,"freq":115.2,"lat":40.68008333,"lon":-89.79302778,"rng_nm":40,"alt_fmsl":731,"id":"PIA","desc":"PEORIA VORTAC"},
{"type":"VOR","hdg_t":244.5,"dist_nm":96.9,"freq":114.4,"lat":41.32091667,"lon":-90.63822222,"rng_nm":40,"alt_fmsl":817,"id":"MZV","desc":"MOLINE VORTAC"},
{"type":"VOR","hdg_t":320.5,"dist_nm":98.7,"freq":112.8,"lat":43.29436111,"lon":-90.13313889,"rng_nm":40,"alt_fmsl":1184,"id":"LNR","desc":"LONE ROCK VOR-DME"}
]
}
