{"success":true,"source":"xp2csv.pl","last_updated":"2013/11/08 14:53:21 UTC"
,"icao":"K65","name":"Dighton","lat":38.48973888,"lon":-100.47958473,"rwys":3,"ils":0,"index":1302554,"path":"w110n30/w101n38"
,"runways":[
{"len_m":730,"wid_m":12.19,"hdg":178,"surf":"Asphalt","rwy1":"17","lat1":38.49302996,"lon1":-100.47965812,"rwy2":"35","lat2":38.48644780,"lon2":-100.47951134},
{"len_m":611,"wid_m":33.53,"hdg":69,"surf":"Turf/grass","rwy1":"06","lat1":38.48875588,"lon1":-100.48285639,"rwy2":"24","lat2":38.49072188,"lon2":-100.47631307},
{"len_m":610,"wid_m":33.53,"hdg":138,"surf":"Turf/grass","rwy1":"13","lat1":38.49180903,"lon1":-100.48188384,"rwy2":"31","lat2":38.48766873,"lon2":-100.47728562}
]
,"navaids":[
{"type":"NDB","hdg_t":268.4,"dist_nm":19.2,"freq":256,"lat":38.48013889,"lon":-100.88833333,"rng_nm":50,"alt_fmsl":0,"id":"TQK","desc":"SCOTT CITY NDB"},
{"type":"VOR","hdg_t":198.8,"dist_nm":36.1,"freq":113.3,"lat":37.91905556,"lon":-100.72505556,"rng_nm":130,"alt_fmsl":2877,"id":"GCK","desc":"GARDEN CITY VORTAC"},
{"type":"NDB","hdg_t":337.2,"dist_nm":40.5,"freq":380,"lat":39.11252778,"lon":-100.81530556,"rng_nm":50,"alt_fmsl":0,"id":"OEL","desc":"OAKLEY NDB"},
{"type":"NDB","hdg_t":196.3,"dist_nm":41.2,"freq":347,"lat":37.82897222,"lon":-100.72436111,"rng_nm":50,"alt_fmsl":0,"id":"GC","desc":"PIEVE NDB"},
{"type":"VOR","hdg_t":149.5,"dist_nm":44.3,"freq":108.2,"lat":37.85058333,"lon":-100.00563889,"rng_nm":40,"alt_fmsl":2565,"id":"DDC","desc":"DODGE CITY VORTAC"},
{"type":"VOR","hdg_t":14.3,"dist_nm":47.6,"freq":113.7,"lat":39.25875000,"lon":-100.22586111,"rng_nm":130,"alt_fmsl":2690,"id":"HLC","desc":"HILL CITY VORTAC"},
{"type":"NDB","hdg_t":73.4,"dist_nm":60.1,"freq":374,"lat":38.76922222,"lon":-99.25127778,"rng_nm":50,"alt_fmsl":0,"id":"HY","desc":"NETTE NDB"},
{"type":"VOR","hdg_t":68.8,"dist_nm":60.4,"freq":110.4,"lat":38.84766667,"lon":-99.27677778,"rng_nm":40,"alt_fmsl":1990,"id":"HYS","desc":"HAYS VORTAC"},
{"type":"NDB","hdg_t":336.6,"dist_nm":66.6,"freq":408,"lat":39.50986111,"lon":-101.04763889,"rng_nm":50,"alt_fmsl":0,"id":"JDM","desc":"WHEATFIELD NDB"},
{"type":"NDB","hdg_t":104.1,"dist_nm":67.8,"freq":296,"lat":38.20436111,"lon":-99.08791667,"rng_nm":50,"alt_fmsl":0,"id":"LQR","desc":"LARNED NDB"},
{"type":"NDB","hdg_t":218.4,"dist_nm":68,"freq":395,"lat":37.59711111,"lon":-101.36802778,"rng_nm":50,"alt_fmsl":0,"id":"ULS","desc":"ULYSSES NDB"},
{"type":"NDB","hdg_t":312.9,"dist_nm":71.2,"freq":414,"lat":39.29383333,"lon":-101.60030556,"rng_nm":50,"alt_fmsl":0,"id":"GL","desc":"SHUGR NDB"},
{"type":"NDB","hdg_t":95.5,"dist_nm":74.7,"freq":338,"lat":38.35908333,"lon":-98.90288889,"rng_nm":50,"alt_fmsl":0,"id":"HIL","desc":"HILYN NDB"},
{"type":"NDB","hdg_t":100,"dist_nm":77.9,"freq":419,"lat":38.25169444,"lon":-98.85580556,"rng_nm":50,"alt_fmsl":0,"id":"GB","desc":"BABSY NDB"},
{"type":"VOR","hdg_t":313.8,"dist_nm":78.2,"freq":115.1,"lat":39.38786111,"lon":-101.69230556,"rng_nm":130,"alt_fmsl":3650,"id":"GLD","desc":"GOODLAND VORTAC"},
{"type":"NDB","hdg_t":229.6,"dist_nm":78.4,"freq":341,"lat":37.63558333,"lon":-101.73461111,"rng_nm":50,"alt_fmsl":0,"id":"JHN","desc":"BEAR CREEK NDB"},
{"type":"NDB","hdg_t":358,"dist_nm":80.3,"freq":341,"lat":39.82972222,"lon":-100.53763889,"rng_nm":50,"alt_fmsl":0,"id":"OIN","desc":"OBERLIN NDB"},
{"type":"NDB","hdg_t":342.1,"dist_nm":85,"freq":365,"lat":39.83863889,"lon":-101.04505556,"rng_nm":50,"alt_fmsl":0,"id":"ADT","desc":"ATWOOD NDB"},
{"type":"NDB","hdg_t":18.3,"dist_nm":86.3,"freq":230,"lat":39.85527778,"lon":-99.89030556,"rng_nm":50,"alt_fmsl":0,"id":"NRN","desc":"NORTON NDB"},
{"type":"VOR","hdg_t":195.2,"dist_nm":89.7,"freq":112.3,"lat":37.04438889,"lon":-100.97119444,"rng_nm":130,"alt_fmsl":2891,"id":"LBL","desc":"LIBERAL VORTAC"},
{"type":"NDB","hdg_t":208.4,"dist_nm":90.1,"freq":365,"lat":37.16361111,"lon":-101.37472222,"rng_nm":50,"alt_fmsl":0,"id":"HQG","desc":"HUGOTON NDB"},
{"type":"NDB","hdg_t":36.9,"dist_nm":91.7,"freq":368,"lat":39.70613889,"lon":-99.28830556,"rng_nm":50,"alt_fmsl":0,"id":"PHG","desc":"PHILLIPSBURG NDB"},
{"type":"NDB","hdg_t":118.6,"dist_nm":93.9,"freq":356,"lat":37.72630556,"lon":-98.74708333,"rng_nm":50,"alt_fmsl":0,"id":"PTT","desc":"PRATT NDB"},
{"type":"NDB","hdg_t":194,"dist_nm":94.1,"freq":383,"lat":36.96455556,"lon":-100.95627778,"rng_nm":50,"alt_fmsl":0,"id":"LB","desc":"PANCK NDB"},
{"type":"NDB","hdg_t":321.4,"dist_nm":95.4,"freq":386,"lat":39.72694444,"lon":-101.76488889,"rng_nm":50,"alt_fmsl":0,"id":"SYF","desc":"SAINT FRANCIS NDB"},
{"type":"NDB","hdg_t":298.7,"dist_nm":95.9,"freq":209,"lat":39.24625000,"lon":-102.28383333,"rng_nm":50,"alt_fmsl":0,"id":"ITR","desc":"KIT CARSON NDB"}
]
}
