{"success":true,"source":"xp2csv.pl","last_updated":"2013/11/08 14:53:21 UTC"
,"icao":"KAGO","name":"Magnolia Muni","lat":33.228021,"lon":-93.2169695,"rwys":1,"ils":0,"index":1416907,"path":"w100n30/w094n33"
,"runways":[
{"len_m":1404,"wid_m":30.48,"hdg":181,"surf":"Asphalt","rwy1":"18","lat1":33.23435000,"lon1":-93.21673600,"rwy2":"36","lat2":33.22169200,"lon2":-93.21720300}
]
,"radios":[
{"type":"CTAF","freq":122.8,"desc":"CTAF/UNICOM"},
{"type":"APP","freq":128.2,"desc":"FORT WORTH CNTR"}
]
,"navaids":[
{"type":"VOR","hdg_t":85.8,"dist_nm":23.8,"freq":115.5,"lat":33.25616667,"lon":-92.74394444,"rng_nm":130,"alt_fmsl":230,"id":"ELD","desc":"EL DORADO VORTAC"},
{"type":"NDB","hdg_t":81.8,"dist_nm":24.8,"freq":418,"lat":33.28605556,"lon":-92.72813889,"rng_nm":50,"alt_fmsl":0,"id":"EL","desc":"LADOS NDB"},
{"type":"NDB","hdg_t":44.2,"dist_nm":32.2,"freq":335,"lat":33.61353100,"lon":-92.76752200,"rng_nm":25,"alt_fmsl":0,"id":"CDH","desc":"CAMDEN NDB"},
{"type":"NDB","hdg_t":323.5,"dist_nm":36.5,"freq":362,"lat":33.71811111,"lon":-93.65077778,"rng_nm":50,"alt_fmsl":0,"id":"HPC","desc":"HOPE NDB"},
{"type":"NDB","hdg_t":297.3,"dist_nm":38.8,"freq":234,"lat":33.52411111,"lon":-93.90605556,"rng_nm":50,"alt_fmsl":0,"id":"TX","desc":"TECCO NDB"},
{"type":"VOR","hdg_t":227.7,"dist_nm":40.5,"freq":117.4,"lat":32.77136111,"lon":-93.80991667,"rng_nm":130,"alt_fmsl":190,"id":"EIC","desc":"BELCHER VORTAC"},
{"type":"NDB","hdg_t":241.3,"dist_nm":45.6,"freq":284,"lat":32.85958333,"lon":-94.01019444,"rng_nm":50,"alt_fmsl":0,"id":"VIV","desc":"VIVIAN NDB"},
{"type":"VOR","hdg_t":291.9,"dist_nm":46.3,"freq":116.3,"lat":33.51388889,"lon":-94.07325000,"rng_nm":130,"alt_fmsl":270,"id":"TXK","desc":"TEXARKANA VORTAC"},
{"type":"NDB","hdg_t":139.2,"dist_nm":48.8,"freq":368,"lat":32.60872222,"lon":-92.58847222,"rng_nm":50,"alt_fmsl":0,"id":"ROQ","desc":"RUSTON NDB"},
{"type":"VOR","hdg_t":212.8,"dist_nm":48.9,"freq":108.6,"lat":32.53986111,"lon":-93.74130556,"rng_nm":25,"alt_fmsl":0,"id":"DTN","desc":"DOWNTOWN VOR"},
{"type":"SDME","hdg_t":207.8,"dist_nm":49,"freq":115.8,"lat":32.50333800,"lon":-93.66776300,"rng_nm":40,"alt_fmsl":163,"id":"BAD","desc":"BARKSDALE TACAN"},
{"type":"NDB","hdg_t":261.6,"dist_nm":49.5,"freq":347,"lat":33.10375000,"lon":-94.19047222,"rng_nm":50,"alt_fmsl":0,"id":"ATA","desc":"ATLANTA NDB"},
{"type":"NDB","hdg_t":6.4,"dist_nm":49.8,"freq":275,"lat":34.05561111,"lon":-93.10519444,"rng_nm":50,"alt_fmsl":0,"id":"ADF","desc":"ARKADELPHIA NDB"},
{"type":"NDB","hdg_t":144.9,"dist_nm":52,"freq":308,"lat":32.51565600,"lon":-92.62741100,"rng_nm":25,"alt_fmsl":0,"id":"LPZ","desc":"LINCOLN PARISH NDB"},
{"type":"VOR","hdg_t":201.1,"dist_nm":53.1,"freq":111.2,"lat":32.40016667,"lon":-93.59513889,"rng_nm":40,"alt_fmsl":160,"id":"EMG","desc":"ELM GROVE VORTAC"},
{"type":"NDB","hdg_t":217.7,"dist_nm":54.8,"freq":230,"lat":32.50177778,"lon":-93.87811111,"rng_nm":50,"alt_fmsl":0,"id":"SH","desc":"CRAKK NDB"},
{"type":"NDB","hdg_t":146.9,"dist_nm":58.4,"freq":350,"lat":32.40886111,"lon":-92.58944444,"rng_nm":50,"alt_fmsl":0,"id":"TUF","desc":"STUCKEY NDB"},
{"type":"NDB","hdg_t":157.8,"dist_nm":66.3,"freq":256,"lat":32.20127778,"lon":-92.72597222,"rng_nm":50,"alt_fmsl":0,"id":"JBL","desc":"HODGE NDB"},
{"type":"NDB","hdg_t":18.8,"dist_nm":69.9,"freq":215,"lat":34.33342800,"lon":-92.76238900,"rng_nm":25,"alt_fmsl":535,"id":"MVQ","desc":"MALVERN NDB"},
{"type":"NDB","hdg_t":1,"dist_nm":71.5,"freq":385,"lat":34.42261111,"lon":-93.18963889,"rng_nm":50,"alt_fmsl":0,"id":"HO","desc":"HOSSY NDB"},
{"type":"NDB","hdg_t":129.1,"dist_nm":72.8,"freq":392,"lat":32.45411111,"lon":-92.10430556,"rng_nm":50,"alt_fmsl":0,"id":"ML","desc":"SABAR NDB"},
{"type":"NDB","hdg_t":112.4,"dist_nm":73,"freq":329,"lat":32.75469444,"lon":-91.88344444,"rng_nm":50,"alt_fmsl":0,"id":"BQP","desc":"BASTROP NDB"},
{"type":"VOR","hdg_t":125.1,"dist_nm":73.3,"freq":117.2,"lat":32.51688889,"lon":-92.03600000,"rng_nm":40,"alt_fmsl":76,"id":"MLU","desc":"MONROE VORTAC"},
{"type":"NDB","hdg_t":201.8,"dist_nm":75,"freq":414,"lat":32.06430556,"lon":-93.76444444,"rng_nm":50,"alt_fmsl":0,"id":"MSD","desc":"MANSFIELD NDB"},
{"type":"VOR","hdg_t":4.7,"dist_nm":75.1,"freq":110,"lat":34.47858333,"lon":-93.09061111,"rng_nm":40,"alt_fmsl":528,"id":"HOT","desc":"HOT SPRINGS VOR-DME"},
{"type":"VOR","hdg_t":74.7,"dist_nm":78,"freq":111.6,"lat":33.56205556,"lon":-91.71569444,"rng_nm":40,"alt_fmsl":280,"id":"MON","desc":"MONTICELLO VOR-DME"},
{"type":"VOR","hdg_t":159.8,"dist_nm":79.9,"freq":113.75,"lat":31.97319444,"lon":-92.67708333,"rng_nm":130,"alt_fmsl":164,"id":"SWB","desc":"SAWMILL VOR-DME"},
{"type":"NDB","hdg_t":221.3,"dist_nm":83.2,"freq":332,"lat":32.18025000,"lon":-94.29641667,"rng_nm":50,"alt_fmsl":0,"id":"RPF","desc":"CARTHAGE NDB"},
{"type":"NDB","hdg_t":123.5,"dist_nm":87.7,"freq":338,"lat":32.40916667,"lon":-91.77794444,"rng_nm":50,"alt_fmsl":0,"id":"MRK","desc":"MOLLY RIDGE NDB"},
{"type":"NDB","hdg_t":266.6,"dist_nm":88.6,"freq":381,"lat":33.12845300,"lon":-94.97410300,"rng_nm":25,"alt_fmsl":404,"id":"MSA","desc":"MOUNT PLEASANT NDB"},
{"type":"VOR","hdg_t":46.2,"dist_nm":88.8,"freq":116,"lat":34.24675000,"lon":-91.92616667,"rng_nm":40,"alt_fmsl":210,"id":"PBF","desc":"PINE BLUFF VOR-DME"},
{"type":"NDB","hdg_t":331.6,"dist_nm":89.4,"freq":352,"lat":34.53919444,"lon":-94.07263889,"rng_nm":50,"alt_fmsl":0,"id":"VM","desc":"FENCH NDB"},
{"type":"NDB","hdg_t":331.6,"dist_nm":89.4,"freq":259,"lat":34.53910800,"lon":-94.07298100,"rng_nm":25,"alt_fmsl":0,"id":"VM","desc":"MEANA NDB"},
{"type":"NDB","hdg_t":296.9,"dist_nm":91,"freq":271,"lat":33.90602600,"lon":-94.84305100,"rng_nm":25,"alt_fmsl":1208,"id":"IBO","desc":"IDABEL NDB"},
{"type":"VOR","hdg_t":238.4,"dist_nm":91.5,"freq":112.3,"lat":32.41775000,"lon":-94.75319444,"rng_nm":40,"alt_fmsl":320,"id":"GGG","desc":"GREGG CO VORTAC"},
{"type":"NDB","hdg_t":240.3,"dist_nm":92.3,"freq":410,"lat":32.45558333,"lon":-94.79758333,"rng_nm":50,"alt_fmsl":0,"id":"GG","desc":"VEELS NDB"},
{"type":"NDB","hdg_t":64.5,"dist_nm":93.2,"freq":305,"lat":33.88440800,"lon":-91.53151400,"rng_nm":25,"alt_fmsl":163,"id":"DZM","desc":"DUMAS NDB"},
{"type":"NDB","hdg_t":175.6,"dist_nm":94.3,"freq":407,"lat":31.65744444,"lon":-93.07761111,"rng_nm":50,"alt_fmsl":0,"id":"OOC","desc":"NATCHITOCHES NDB"},
{"type":"NDB","hdg_t":209.8,"dist_nm":96.1,"freq":341,"lat":31.83286111,"lon":-94.15375000,"rng_nm":50,"alt_fmsl":0,"id":"CZJ","desc":"AMASON NDB"},
{"type":"NDB","hdg_t":27.5,"dist_nm":97.5,"freq":353,"lat":34.66900000,"lon":-92.30547222,"rng_nm":50,"alt_fmsl":0,"id":"LI","desc":"LASKY NDB"}
]
}
