{"success":true,"source":"xp2csv.pl","last_updated":"2013/11/08 14:53:21 UTC"
,"icao":"KANW","name":"Ainsworth Muni","lat":42.57857904,"lon":-99.9951694566667,"rwys":2,"ils":0,"index":1319200,"path":"w100n40/w100n42"
,"runways":[
{"len_m":1977,"wid_m":34.14,"hdg":179,"surf":"Concrete","rwy1":"17","lat1":42.58567342,"lon1":-99.99666295,"rwy2":"35","lat2":42.56787108,"lon2":-99.99636757},
{"len_m":1681,"wid_m":22.86,"hdg":134,"surf":"Asphalt","rwy1":"13","lat1":42.58755524,"lon1":-99.99592581,"rwy2":"31","lat2":42.57698490,"lon2":-99.98126605}
]
,"helipads":[
{"rwy1":"H3","len_m":6,"wid_m":6.10,"hdg":-100,"surf":"Asphalt","lat1":42.57669480,"lon1":-100.00039718}
]
,"radios":[
{"type":"ATIS","freq":118.32,"desc":"AWOS 3"},
{"type":"CTAF","freq":122.8,"desc":"CTAF/UNICOM"}
]
,"navaids":[
{"type":"VOR","hdg_t":156.7,"dist_nm":0.6,"freq":112.7,"lat":42.56911111,"lon":-99.98966667,"rng_nm":40,"alt_fmsl":2582,"id":"ANW","desc":"AINSWORTH VOR-DME"},
{"type":"NDB","hdg_t":90.7,"dist_nm":18.5,"freq":341,"lat":42.57358333,"lon":-99.57780556,"rng_nm":50,"alt_fmsl":0,"id":"RBE","desc":"ROCK CO NDB"},
{"type":"NDB","hdg_t":304.8,"dist_nm":29.8,"freq":314,"lat":42.86161111,"lon":-100.54963889,"rng_nm":50,"alt_fmsl":0,"id":"VTN","desc":"VALENTINE NDB"},
{"type":"VOR","hdg_t":222.2,"dist_nm":48.1,"freq":108.6,"lat":41.98166667,"lon":-100.71902778,"rng_nm":40,"alt_fmsl":3175,"id":"TDD","desc":"THEDFORD VOR-DME"},
{"type":"VOR","hdg_t":10.6,"dist_nm":55.5,"freq":112.8,"lat":43.48791667,"lon":-99.76138889,"rng_nm":40,"alt_fmsl":0,"id":"ISD","desc":"WINNER VOR"},
{"type":"VOR","hdg_t":95.9,"dist_nm":58.4,"freq":113.9,"lat":42.47050000,"lon":-98.68691667,"rng_nm":130,"alt_fmsl":2030,"id":"ONL","desc":"O NEILL VORTAC"},
{"type":"NDB","hdg_t":141.5,"dist_nm":61.3,"freq":377,"lat":41.77469444,"lon":-99.14552778,"rng_nm":50,"alt_fmsl":0,"id":"BUB","desc":"BURWELL NDB"},
{"type":"VOR","hdg_t":168.1,"dist_nm":67,"freq":108.2,"lat":41.48397222,"lon":-99.68905556,"rng_nm":40,"alt_fmsl":2850,"id":"CUZ","desc":"CUSTER CO VOR-DME"},
{"type":"NDB","hdg_t":166.7,"dist_nm":70.4,"freq":265,"lat":41.43408900,"lon":-99.63591900,"rng_nm":25,"alt_fmsl":2530,"id":"BBW","desc":"BROKEN BOW NDB"},
{"type":"NDB","hdg_t":140.4,"dist_nm":73.9,"freq":356,"lat":41.62375000,"lon":-98.94800000,"rng_nm":50,"alt_fmsl":0,"id":"ODX","desc":"ORD NDB"},
{"type":"NDB","hdg_t":68.2,"dist_nm":80.5,"freq":392,"lat":43.06338889,"lon":-98.29316667,"rng_nm":50,"alt_fmsl":0,"id":"AGZ","desc":"WAGNER NDB"},
{"type":"NDB","hdg_t":196.1,"dist_nm":94.2,"freq":416,"lat":41.06827778,"lon":-100.57255556,"rng_nm":50,"alt_fmsl":0,"id":"LB","desc":"PANBE NDB"},
{"type":"NDB","hdg_t":278.6,"dist_nm":97.5,"freq":414,"lat":42.80108333,"lon":-102.17938889,"rng_nm":50,"alt_fmsl":0,"id":"GRN","desc":"GORDON NDB"},
{"type":"VOR","hdg_t":200.4,"dist_nm":97.7,"freq":117.4,"lat":41.04869444,"lon":-100.74711111,"rng_nm":40,"alt_fmsl":3069,"id":"LBF","desc":"NORTH PLATTE VORTAC"}
]
}
