{"success":true,"source":"xp2csv.pl","last_updated":"2013/11/08 14:53:21 UTC"
,"icao":"KARV","name":"Lakeland Noble F Lee Mem Fld","lat":45.927337,"lon":-89.7305355,"rwys":2,"ils":1,"index":1483257,"path":"w090n40/w090n45"
,"runways":[
{"len_m":1569,"wid_m":30.48,"hdg":178,"surf":"Asphalt","rwy1":"18","lat1":45.93772500,"lon1":-89.73302500,"rwy2":"36","lat2":45.92360600,"lon2":-89.73264700},
{"len_m":1097,"wid_m":22.86,"hdg":100,"surf":"Asphalt","rwy1":"10","lat1":45.92491100,"lon1":-89.73519200,"rwy2":"28","lat2":45.92310600,"lon2":-89.72127800}
]
,"radios":[
{"type":"ATIS","freq":121.12,"desc":"AWOS 3"},
{"type":"CTAF","freq":122.7,"desc":"CTAF/UNICOM"}
]
,"ils":[
{"type":"ILS","freq":111.7,"lat":45.93910115,"lon":-89.73306188,"rng_nm":18,"alt_fmsl":1630,"hdg":358.93,"id":"IDOF","rwy":"36","desc":"ILS-cat-I"}
]
,"navaids":[
{"type":"NDB","hdg_t":144.9,"dist_nm":0,"freq":221,"lat":45.92613889,"lon":-89.72933333,"rng_nm":50,"alt_fmsl":0,"id":"ARV","desc":"ARBOR VITAE NDB"},
{"type":"NDB","hdg_t":179.9,"dist_nm":5.5,"freq":236,"lat":45.83452778,"lon":-89.73041667,"rng_nm":50,"alt_fmsl":0,"id":"DO","desc":"DOUGY NDB"},
{"type":"NDB","hdg_t":14.1,"dist_nm":12.7,"freq":206,"lat":46.13383333,"lon":-89.65569444,"rng_nm":50,"alt_fmsl":0,"id":"BDJ","desc":"BOULDER JUNCTION NDB"},
{"type":"NDB","hdg_t":165.3,"dist_nm":18.5,"freq":272,"lat":45.62811111,"lon":-89.61886111,"rng_nm":50,"alt_fmsl":0,"id":"RH","desc":"ARSHA NDB"},
{"type":"VOR","hdg_t":146.8,"dist_nm":21,"freq":109.2,"lat":45.63377778,"lon":-89.45777778,"rng_nm":40,"alt_fmsl":1599,"id":"RHI","desc":"RHINELANDER VORTAC"},
{"type":"NDB","hdg_t":58.2,"dist_nm":25.5,"freq":396,"lat":46.14975000,"lon":-89.21044444,"rng_nm":50,"alt_fmsl":0,"id":"LNL","desc":"LAND O LAKES NDB"},
{"type":"NDB","hdg_t":40.8,"dist_nm":28.7,"freq":407,"lat":46.28827778,"lon":-89.27875000,"rng_nm":50,"alt_fmsl":0,"id":"RXW","desc":"WATERSMEET NDB"},
{"type":"NDB","hdg_t":273.2,"dist_nm":29.1,"freq":371,"lat":45.95305556,"lon":-90.42611111,"rng_nm":50,"alt_fmsl":0,"id":"PKF","desc":"PARK FALLS NDB"},
{"type":"NDB","hdg_t":245,"dist_nm":31.6,"freq":263,"lat":45.70291667,"lon":-90.41238889,"rng_nm":50,"alt_fmsl":0,"id":"PBH","desc":"PHILLIPS NDB"},
{"type":"VOR","hdg_t":335.7,"dist_nm":39.8,"freq":108.8,"lat":46.53225000,"lon":-90.12583333,"rng_nm":40,"alt_fmsl":1230,"id":"IWD","desc":"IRONWOOD VORTAC"},
{"type":"NDB","hdg_t":178.5,"dist_nm":43.7,"freq":257,"lat":45.19861111,"lon":-89.70425000,"rng_nm":50,"alt_fmsl":0,"id":"RRL","desc":"MERRILL NDB"},
{"type":"NDB","hdg_t":150.3,"dist_nm":52.9,"freq":347,"lat":45.15830556,"lon":-89.11333333,"rng_nm":50,"alt_fmsl":0,"id":"AIG","desc":"ANTIGO NDB"},
{"type":"NDB","hdg_t":206.5,"dist_nm":55,"freq":335,"lat":45.10536111,"lon":-90.30869444,"rng_nm":50,"alt_fmsl":0,"id":"MDZ","desc":"MEDFORD NDB"},
{"type":"NDB","hdg_t":15.1,"dist_nm":57.4,"freq":375,"lat":46.85022222,"lon":-89.36513889,"rng_nm":50,"alt_fmsl":0,"id":"OGM","desc":"ONTONAGON NDB"},
{"type":"NDB","hdg_t":244.9,"dist_nm":59.2,"freq":356,"lat":45.50183333,"lon":-91.00113889,"rng_nm":50,"alt_fmsl":0,"id":"RCX","desc":"RUSK COUNTY NDB"},
{"type":"NDB","hdg_t":175.7,"dist_nm":60.1,"freq":243,"lat":44.92780556,"lon":-89.62511111,"rng_nm":50,"alt_fmsl":0,"id":"FZK","desc":"WAUSAU NDB"},
{"type":"VOR","hdg_t":307.4,"dist_nm":61.9,"freq":110.2,"lat":46.54941667,"lon":-90.91725000,"rng_nm":25,"alt_fmsl":820,"id":"ASX","desc":"ASHLAND VOR-DME"},
{"type":"VOR","hdg_t":174.5,"dist_nm":65.1,"freq":111.6,"lat":44.84677778,"lon":-89.58658333,"rng_nm":40,"alt_fmsl":1205,"id":"AUW","desc":"WAUSAU VORTAC"},
{"type":"NDB","hdg_t":99.5,"dist_nm":68.1,"freq":255,"lat":45.72722222,"lon":-88.13269444,"rng_nm":50,"alt_fmsl":0,"id":"IM","desc":"KORDS NDB"},
{"type":"VOR","hdg_t":95,"dist_nm":68.1,"freq":111.2,"lat":45.81605556,"lon":-88.11213889,"rng_nm":40,"alt_fmsl":1128,"id":"IMT","desc":"IRON MOUNTAIN VOR-DME"},
{"type":"NDB","hdg_t":178.1,"dist_nm":69,"freq":377,"lat":44.77688300,"lon":-89.67887200,"rng_nm":25,"alt_fmsl":1264,"id":"HWS","desc":"CENTRAL WISCONSIN NDB"},
{"type":"NDB","hdg_t":182,"dist_nm":70,"freq":275,"lat":44.76036111,"lon":-89.78919444,"rng_nm":50,"alt_fmsl":0,"id":"CW","desc":"DANCI NDB"},
{"type":"VOR","hdg_t":274.9,"dist_nm":72,"freq":113.4,"lat":46.01900000,"lon":-91.44638889,"rng_nm":40,"alt_fmsl":1208,"id":"HYR","desc":"HAYWARD VOR-DME"},
{"type":"NDB","hdg_t":177.3,"dist_nm":75.1,"freq":351,"lat":44.67652778,"lon":-89.64794444,"rng_nm":50,"alt_fmsl":0,"id":"PH","desc":"BAYYE NDB"},
{"type":"NDB","hdg_t":194.2,"dist_nm":79.5,"freq":391,"lat":44.64108333,"lon":-90.18913889,"rng_nm":50,"alt_fmsl":0,"id":"MFI","desc":"MARSHFIELD NDB"},
{"type":"NDB","hdg_t":192.4,"dist_nm":83.4,"freq":266,"lat":44.56872222,"lon":-90.15094444,"rng_nm":50,"alt_fmsl":0,"id":"DU","desc":"CALIN NDB"},
{"type":"VOR","hdg_t":174,"dist_nm":83.4,"freq":110.6,"lat":44.54325000,"lon":-89.53055556,"rng_nm":40,"alt_fmsl":1110,"id":"STE","desc":"STEVENS POINT VORTAC"},
{"type":"NDB","hdg_t":252.9,"dist_nm":87.8,"freq":407,"lat":45.47955600,"lon":-91.72072200,"rng_nm":25,"alt_fmsl":1140,"id":"RIE","desc":"RICE LAKE NDB"},
{"type":"NDB","hdg_t":202.3,"dist_nm":88.6,"freq":368,"lat":44.55711111,"lon":-90.51527778,"rng_nm":50,"alt_fmsl":0,"id":"VIQ","desc":"NEILLSVILLE NDB"},
{"type":"NDB","hdg_t":151.3,"dist_nm":89.1,"freq":209,"lat":44.61880556,"lon":-88.73319444,"rng_nm":50,"alt_fmsl":0,"id":"CLI","desc":"CLINTONVILLE NDB"},
{"type":"NDB","hdg_t":37.1,"dist_nm":90.1,"freq":275,"lat":47.11569444,"lon":-88.40116667,"rng_nm":50,"alt_fmsl":0,"id":"CM","desc":"GALEY NDB"},
{"type":"VOR","hdg_t":34.2,"dist_nm":90.6,"freq":112.8,"lat":47.17025000,"lon":-88.48538889,"rng_nm":40,"alt_fmsl":1072,"id":"CMX","desc":"HOUGHTON VOR-DME"},
{"type":"NDB","hdg_t":230.2,"dist_nm":91,"freq":239,"lat":44.94475000,"lon":-91.37366667,"rng_nm":50,"alt_fmsl":0,"id":"EA","desc":"MAGGS NDB"},
{"type":"VOR","hdg_t":251,"dist_nm":91.4,"freq":110,"lat":45.41519444,"lon":-91.77800000,"rng_nm":25,"alt_fmsl":1092,"id":"RPD","desc":"RICE LAKE VOR-DME"},
{"type":"NDB","hdg_t":182.8,"dist_nm":93.9,"freq":215,"lat":44.36394444,"lon":-89.83977778,"rng_nm":50,"alt_fmsl":0,"id":"ISW","desc":"WISCONSIN RAPIDS NDB"},
{"type":"NDB","hdg_t":247.9,"dist_nm":94.6,"freq":221,"lat":45.31747222,"lon":-91.80277778,"rng_nm":50,"alt_fmsl":0,"id":"RP","desc":"WICKR NDB"},
{"type":"VOR","hdg_t":230.7,"dist_nm":96.3,"freq":112.9,"lat":44.89766667,"lon":-91.47855556,"rng_nm":40,"alt_fmsl":804,"id":"EAU","desc":"EAU CLAIRE VORTAC"},
{"type":"VOR","hdg_t":116.2,"dist_nm":98.6,"freq":109.6,"lat":45.18016667,"lon":-87.64716667,"rng_nm":40,"alt_fmsl":650,"id":"MNM","desc":"MENOMINEE VOR-DME"},
{"type":"NDB","hdg_t":77.4,"dist_nm":98.7,"freq":410,"lat":46.26225000,"lon":-87.41613889,"rng_nm":50,"alt_fmsl":0,"id":"SO","desc":"SUOMI NDB"},
{"type":"NDB","hdg_t":128.7,"dist_nm":99.4,"freq":388,"lat":44.87586111,"lon":-87.91238889,"rng_nm":50,"alt_fmsl":0,"id":"OCQ","desc":"OCONTO NDB"}
]
}
