{"success":true,"source":"xp2csv.pl","last_updated":"2013/11/08 14:53:21 UTC"
,"icao":"KBAF","name":"Barnes Muni","lat":42.15783025,"lon":-72.715513495,"rwys":2,"ils":1,"index":1761545,"path":"w080n40/w073n42"
,"runways":[
{"len_m":2743,"wid_m":46.02,"hdg":10,"surf":"Asphalt","rwy1":"02","lat1":42.14530200,"lon1":-72.71881900,"rwy2":"20","lat2":42.16960500,"lon2":-72.71292900},
{"len_m":1525,"wid_m":31.09,"hdg":140,"surf":"Asphalt","rwy1":"15","lat1":42.16348436,"lon1":-72.72106000,"rwy2":"33","lat2":42.15292964,"lon2":-72.70924599}
]
,"radios":[
{"type":"ATIS","freq":127.1,"desc":"ATIS"},
{"type":"CTAF","freq":118.9,"desc":"CTAF"},
{"type":"CLD","freq":121.7,"desc":"BRADLEY CLNC DEL"},
{"type":"GND","freq":121.7,"desc":"GND"},
{"type":"TWR","freq":118.9,"desc":"WESTFIELD TWR"},
{"type":"APP","freq":125.35,"desc":"BRADLEY APP/DEP"}
]
,"ils":[
{"type":"ILS","freq":111.9,"lat":42.14292200,"lon":-72.71939200,"rng_nm":18,"alt_fmsl":271,"hdg":190.18,"id":"IBAF","rwy":"20","desc":"ILS-cat-I"},
{"type":"GS","freq":111.9,"lat":42.16716700,"lon":-72.71445800,"rng_nm":10,"alt_fmsl":271,"id":"IBAF","rwy":"20","desc":"GS","gs":3},
{"type":"OM","freq":0,"lat":42.24833900,"lon":-72.69630000,"rng_nm":0,"alt_fmsl":271,"id":"----","rwy":"20","desc":"OM"}
]
,"navaids":[
{"type":"VOR","hdg_t":352.9,"dist_nm":0.2,"freq":113,"lat":42.16194444,"lon":-72.71619444,"rng_nm":40,"alt_fmsl":268,"id":"BAF","desc":"BARNES VORTAC"},
{"type":"VOR","hdg_t":74.1,"dist_nm":8.7,"freq":114,"lat":42.19755556,"lon":-72.52630556,"rng_nm":40,"alt_fmsl":241,"id":"CEF","desc":"WESTOVER VORTAC"},
{"type":"VOR","hdg_t":174.7,"dist_nm":13,"freq":109,"lat":41.94100000,"lon":-72.68858333,"rng_nm":25,"alt_fmsl":160,"id":"BDL","desc":"BRADLEY VORTAC"},
{"type":"VOR","hdg_t":307.5,"dist_nm":13.1,"freq":115.1,"lat":42.29130556,"lon":-72.94938889,"rng_nm":40,"alt_fmsl":1600,"id":"CTR","desc":"CHESTER VOR-DME"},
{"type":"NDB","hdg_t":187.6,"dist_nm":16.9,"freq":388,"lat":41.87738300,"lon":-72.76620600,"rng_nm":25,"alt_fmsl":0,"id":"BD","desc":"CHUPP NDB"},
{"type":"NDB","hdg_t":273,"dist_nm":30.7,"freq":395,"lat":42.18297222,"lon":-73.40402778,"rng_nm":50,"alt_fmsl":0,"id":"GBR","desc":"GREAT BARRINGTON NDB"},
{"type":"NDB","hdg_t":37.6,"dist_nm":31.1,"freq":205,"lat":42.56861111,"lon":-72.28611111,"rng_nm":50,"alt_fmsl":0,"id":"ORE","desc":"ORANGE NDB"},
{"type":"NDB","hdg_t":77,"dist_nm":31.7,"freq":279,"lat":42.27450000,"lon":-72.01994444,"rng_nm":50,"alt_fmsl":0,"id":"RS","desc":"DUNCA NDB"},
{"type":"VOR","hdg_t":166.2,"dist_nm":31.8,"freq":114.9,"lat":41.64111111,"lon":-72.54741667,"rng_nm":40,"alt_fmsl":849,"id":"HFD","desc":"HARTFORD VOR-DME"},
{"type":"VOR","hdg_t":51.2,"dist_nm":37.3,"freq":110.6,"lat":42.54594444,"lon":-72.05819444,"rng_nm":40,"alt_fmsl":1280,"id":"GDM","desc":"GARDNER VOR-DME"},
{"type":"VOR","hdg_t":107,"dist_nm":40.7,"freq":117.4,"lat":41.95547222,"lon":-71.84408333,"rng_nm":130,"alt_fmsl":652,"id":"PUT","desc":"PUTNAM VOR-DME"},
{"type":"VOR","hdg_t":26,"dist_nm":42.5,"freq":109.4,"lat":42.79427778,"lon":-72.29177778,"rng_nm":40,"alt_fmsl":1380,"id":"EEN","desc":"KEENE VORTAC"},
{"type":"NDB","hdg_t":81.6,"dist_nm":44.1,"freq":417,"lat":42.25988889,"lon":-71.73527778,"rng_nm":50,"alt_fmsl":0,"id":"EK","desc":"GOZZR NDB"},
{"type":"NDB","hdg_t":277.5,"dist_nm":45.3,"freq":272,"lat":42.25311111,"lon":-73.72341667,"rng_nm":50,"alt_fmsl":0,"id":"PFH","desc":"PHILMONT NDB"},
{"type":"VOR","hdg_t":239.8,"dist_nm":45.9,"freq":114.3,"lat":41.76975000,"lon":-73.60055556,"rng_nm":40,"alt_fmsl":1250,"id":"PWL","desc":"PAWLING VOR-DME"},
{"type":"NDB","hdg_t":351.9,"dist_nm":46.6,"freq":224,"lat":42.92758333,"lon":-72.86400000,"rng_nm":50,"alt_fmsl":0,"id":"VWD","desc":"MOUNT SNOW NDB"},
{"type":"VOR","hdg_t":138,"dist_nm":48.2,"freq":110,"lat":41.55638889,"lon":-71.99936111,"rng_nm":40,"alt_fmsl":310,"id":"ORW","desc":"NORWICH VOR-DME"},
{"type":"NDB","hdg_t":201.9,"dist_nm":48.7,"freq":362,"lat":41.40251700,"lon":-73.11981900,"rng_nm":25,"alt_fmsl":0,"id":"OX","desc":"CLERA NDB"},
{"type":"NDB","hdg_t":60.7,"dist_nm":48.7,"freq":365,"lat":42.55091667,"lon":-71.75713889,"rng_nm":50,"alt_fmsl":0,"id":"FIT","desc":"FITCHBURG NDB"},
{"type":"NDB","hdg_t":201.1,"dist_nm":49.8,"freq":362,"lat":41.38238889,"lon":-73.11250000,"rng_nm":50,"alt_fmsl":0,"id":"JWE","desc":"CLERA NDB"},
{"type":"VOR","hdg_t":178.8,"dist_nm":50.6,"freq":110.4,"lat":41.31383333,"lon":-72.69219444,"rng_nm":40,"alt_fmsl":220,"id":"MAD","desc":"MADISON VOR-DME"},
{"type":"VOR","hdg_t":188.1,"dist_nm":54.2,"freq":109.8,"lat":41.26230556,"lon":-72.88519444,"rng_nm":25,"alt_fmsl":6,"id":"HVN","desc":"NEW HAVEN VOR-DME"},
{"type":"NDB","hdg_t":104.2,"dist_nm":56.6,"freq":241,"lat":41.91905600,"lon":-71.48858300,"rng_nm":25,"alt_fmsl":490,"id":"SFZ","desc":"CENTRAL NDB"},
{"type":"VOR","hdg_t":331.1,"dist_nm":57.3,"freq":115,"lat":42.99427778,"lon":-73.34402778,"rng_nm":40,"alt_fmsl":1490,"id":"CAM","desc":"CAMBRIDGE VOR-DME"},
{"type":"VOR","hdg_t":239.5,"dist_nm":57.7,"freq":117.6,"lat":41.66544444,"lon":-73.82222222,"rng_nm":40,"alt_fmsl":580,"id":"IGN","desc":"KINGSTON VOR-DME"},
{"type":"VOR","hdg_t":148.7,"dist_nm":57.8,"freq":110.85,"lat":41.33038889,"lon":-72.05197222,"rng_nm":25,"alt_fmsl":9,"id":"GON","desc":"GROTON VOR-DME"},
{"type":"VOR","hdg_t":306.5,"dist_nm":59.8,"freq":115.3,"lat":42.74727778,"lon":-73.80319444,"rng_nm":40,"alt_fmsl":274,"id":"ALB","desc":"ALBANY VORTAC"},
{"type":"NDB","hdg_t":71.4,"dist_nm":62.1,"freq":332,"lat":42.47986111,"lon":-71.38866667,"rng_nm":50,"alt_fmsl":0,"id":"BE","desc":"BEDDS (LOM) NDB"},
{"type":"NDB","hdg_t":309.5,"dist_nm":62.5,"freq":219,"lat":42.81730556,"lon":-73.80850000,"rng_nm":50,"alt_fmsl":0,"id":"AL","desc":"HAWKY NDB"},
{"type":"VOR","hdg_t":197.2,"dist_nm":62.5,"freq":108.8,"lat":41.16069444,"lon":-73.12450000,"rng_nm":40,"alt_fmsl":9,"id":"BDR","desc":"BRIDGEPORT VOR-DME"},
{"type":"NDB","hdg_t":119,"dist_nm":62.8,"freq":335,"lat":41.64177778,"lon":-71.49469444,"rng_nm":50,"alt_fmsl":0,"id":"PV","desc":"RENCH NDB"},
{"type":"VOR","hdg_t":113.8,"dist_nm":63.1,"freq":115.6,"lat":41.72433333,"lon":-71.42963889,"rng_nm":130,"alt_fmsl":49,"id":"PVD","desc":"PROVIDENCE VORTAC"},
{"type":"NDB","hdg_t":50.6,"dist_nm":63.5,"freq":359,"lat":42.82338889,"lon":-71.60216667,"rng_nm":50,"alt_fmsl":0,"id":"AS","desc":"CHERN NDB"},
{"type":"NDB","hdg_t":108.4,"dist_nm":64.4,"freq":356,"lat":41.81036111,"lon":-71.35322222,"rng_nm":50,"alt_fmsl":0,"id":"AR","desc":"ARMIN NDB"},
{"type":"VOR","hdg_t":216.7,"dist_nm":65.4,"freq":116.6,"lat":41.28005556,"lon":-73.58136111,"rng_nm":40,"alt_fmsl":690,"id":"CMK","desc":"CARMEL VOR-DME"},
{"type":"NDB","hdg_t":238.4,"dist_nm":66,"freq":403,"lat":41.57512800,"lon":-73.96484400,"rng_nm":25,"alt_fmsl":9,"id":"PO","desc":"MEIER NDB"},
{"type":"NDB","hdg_t":50.7,"dist_nm":67.5,"freq":209,"lat":42.86422222,"lon":-71.52880556,"rng_nm":50,"alt_fmsl":0,"id":"MJ","desc":"FITZY NDB"},
{"type":"NDB","hdg_t":308.1,"dist_nm":68.3,"freq":356,"lat":42.85419444,"lon":-73.93347222,"rng_nm":50,"alt_fmsl":0,"id":"HEU","desc":"HUNTER NDB"},
{"type":"NDB","hdg_t":97.2,"dist_nm":68.4,"freq":220,"lat":42.00277778,"lon":-71.19711111,"rng_nm":50,"alt_fmsl":0,"id":"IHM","desc":"MANSFIELD NDB"},
{"type":"NDB","hdg_t":238,"dist_nm":70.5,"freq":261,"lat":41.52800000,"lon":-74.04497222,"rng_nm":50,"alt_fmsl":0,"id":"SKU","desc":"STANWYCK NDB"},
{"type":"NDB","hdg_t":74.8,"dist_nm":70.7,"freq":251,"lat":42.45575000,"lon":-71.17852778,"rng_nm":50,"alt_fmsl":0,"id":"SKR","desc":"SHAKER HILL NDB"},
{"type":"NDB","hdg_t":91.3,"dist_nm":70.8,"freq":397,"lat":42.11975000,"lon":-71.12841667,"rng_nm":50,"alt_fmsl":0,"id":"OW","desc":"STOGE NDB"},
{"type":"VOR","hdg_t":54,"dist_nm":73.3,"freq":114.4,"lat":42.86852778,"lon":-71.36952778,"rng_nm":40,"alt_fmsl":471,"id":"MHT","desc":"MANCHESTER VOR-DME"},
{"type":"NDB","hdg_t":66.1,"dist_nm":73.5,"freq":402,"lat":42.64413889,"lon":-71.19719444,"rng_nm":50,"alt_fmsl":0,"id":"LW","desc":"HAGET NDB"},
{"type":"VOR","hdg_t":182.9,"dist_nm":73.7,"freq":117.2,"lat":40.92961111,"lon":-72.79886111,"rng_nm":40,"alt_fmsl":86,"id":"CCC","desc":"CALVERTON VOR-DME"},
{"type":"NDB","hdg_t":11.7,"dist_nm":74.2,"freq":233,"lat":43.36930556,"lon":-72.37108333,"rng_nm":50,"alt_fmsl":0,"id":"CNH","desc":"CLAREMONT NDB"},
{"type":"NDB","hdg_t":84,"dist_nm":74.6,"freq":375,"lat":42.27375000,"lon":-71.04916667,"rng_nm":50,"alt_fmsl":0,"id":"BO","desc":"MILTT NDB"},
{"type":"NDB","hdg_t":174.5,"dist_nm":75.5,"freq":400,"lat":40.90447222,"lon":-72.55647222,"rng_nm":50,"alt_fmsl":0,"id":"FO","desc":"SQUIR NDB"},
{"type":"VOR","hdg_t":166.2,"dist_nm":76.4,"freq":113.6,"lat":40.91900000,"lon":-72.31669444,"rng_nm":130,"alt_fmsl":22,"id":"HTO","desc":"HAMPTON VORTAC"},
{"type":"NDB","hdg_t":329.4,"dist_nm":76.6,"freq":209,"lat":43.25511111,"lon":-73.60577778,"rng_nm":50,"alt_fmsl":0,"id":"GF","desc":"GANSE NDB"},
{"type":"NDB","hdg_t":101.9,"dist_nm":77.8,"freq":227,"lat":41.87650000,"lon":-71.01700000,"rng_nm":50,"alt_fmsl":0,"id":"TAN","desc":"TAUNTON NDB"},
{"type":"VOR","hdg_t":80.5,"dist_nm":77.8,"freq":112.7,"lat":42.35744444,"lon":-70.98955556,"rng_nm":130,"alt_fmsl":20,"id":"BOS","desc":"BOSTON VOR-DME"},
{"type":"VOR","hdg_t":138.8,"dist_nm":78.4,"freq":117.8,"lat":41.16744444,"lon":-71.57608333,"rng_nm":40,"alt_fmsl":100,"id":"SEY","desc":"SANDY POINT VOR-DME"},
{"type":"NDB","hdg_t":239.8,"dist_nm":78.9,"freq":335,"lat":41.48608333,"lon":-74.22791667,"rng_nm":50,"alt_fmsl":0,"id":"SW","desc":"NEELY NDB"},
{"type":"SDME","hdg_t":177.2,"dist_nm":79.2,"freq":111,"lat":40.83776600,"lon":-72.63184500,"rng_nm":25,"alt_fmsl":50,"id":"FOK","desc":"SUFFOLK CO TACAN"},
{"type":"NDB","hdg_t":76.6,"dist_nm":79.9,"freq":382,"lat":42.45202778,"lon":-70.96330556,"rng_nm":50,"alt_fmsl":0,"id":"LQ","desc":"LYNDY NDB"},
{"type":"VOR","hdg_t":63.5,"dist_nm":80,"freq":112.5,"lat":42.74041667,"lon":-71.09483333,"rng_nm":40,"alt_fmsl":302,"id":"LWM","desc":"LAWRENCE VOR-DME"},
{"type":"NDB","hdg_t":43.7,"dist_nm":80.3,"freq":216,"lat":43.11883333,"lon":-71.45269444,"rng_nm":50,"alt_fmsl":0,"id":"CO","desc":"EPSOM NDB"},
{"type":"NDB","hdg_t":83.1,"dist_nm":80.4,"freq":346,"lat":42.30308333,"lon":-70.92186111,"rng_nm":50,"alt_fmsl":0,"id":"LI","desc":"HULLZ NDB"},
{"type":"VOR","hdg_t":37.9,"dist_nm":81.2,"freq":112.9,"lat":43.21977778,"lon":-71.57544444,"rng_nm":40,"alt_fmsl":715,"id":"CON","desc":"CONCORD VORTAC"},
{"type":"VOR","hdg_t":331.1,"dist_nm":81.3,"freq":110.2,"lat":43.34169444,"lon":-73.61177778,"rng_nm":40,"alt_fmsl":319,"id":"GFL","desc":"GLENS FALLS VORTAC"},
{"type":"NDB","hdg_t":112.3,"dist_nm":82.5,"freq":274,"lat":41.62163889,"lon":-71.01769444,"rng_nm":50,"alt_fmsl":0,"id":"EW","desc":"NEFOR NDB"},
{"type":"NDB","hdg_t":239.3,"dist_nm":82.6,"freq":353,"lat":41.44488889,"lon":-74.29113889,"rng_nm":50,"alt_fmsl":0,"id":"MG","desc":"OTIMS NDB"},
{"type":"VOR","hdg_t":352.8,"dist_nm":82.7,"freq":111,"lat":43.52661111,"lon":-72.95066667,"rng_nm":25,"alt_fmsl":781,"id":"RUT","desc":"RUTLAND VOR-DME"},
{"type":"NDB","hdg_t":7.3,"dist_nm":84.8,"freq":379,"lat":43.56013889,"lon":-72.46566667,"rng_nm":50,"alt_fmsl":0,"id":"IVV","desc":"WHITE RIVER NDB"},
{"type":"VOR","hdg_t":198.1,"dist_nm":86.1,"freq":117.7,"lat":40.79177778,"lon":-73.30366667,"rng_nm":40,"alt_fmsl":117,"id":"DPK","desc":"DEER PARK VOR-DME"},
{"type":"NDB","hdg_t":305.7,"dist_nm":87.6,"freq":523,"lat":42.99941667,"lon":-74.33144444,"rng_nm":50,"alt_fmsl":0,"id":"JJH","desc":"JOHNSTOWN NDB"},
{"type":"NDB","hdg_t":194.1,"dist_nm":88.3,"freq":366,"lat":40.72897222,"lon":-73.19022222,"rng_nm":50,"alt_fmsl":0,"id":"IS","desc":"LOKKS NDB"},
{"type":"NDB","hdg_t":202.9,"dist_nm":89.7,"freq":407,"lat":40.77652778,"lon":-73.48241667,"rng_nm":50,"alt_fmsl":0,"id":"FR","desc":"FRIKK NDB"},
{"type":"NDB","hdg_t":91.5,"dist_nm":91.1,"freq":368,"lat":42.09800000,"lon":-70.67577778,"rng_nm":50,"alt_fmsl":0,"id":"IMR","desc":"MARSHFIELD NDB"},
{"type":"NDB","hdg_t":212.7,"dist_nm":91.6,"freq":385,"lat":40.86638889,"lon":-73.80355556,"rng_nm":50,"alt_fmsl":0,"id":"UR","desc":"ORCHY NDB"},
{"type":"NDB","hdg_t":353.5,"dist_nm":93.4,"freq":221,"lat":43.70633333,"lon":-72.95716667,"rng_nm":50,"alt_fmsl":0,"id":"DYO","desc":"SMUTO NDB"},
{"type":"VOR","hdg_t":13.3,"dist_nm":93.8,"freq":113.7,"lat":43.67886111,"lon":-72.21608333,"rng_nm":40,"alt_fmsl":1443,"id":"LEB","desc":"LEBANON VOR-DME"},
{"type":"NDB","hdg_t":198.9,"dist_nm":94,"freq":275,"lat":40.67252778,"lon":-73.38438889,"rng_nm":50,"alt_fmsl":0,"id":"BBN","desc":"BABYLON NDB"},
{"type":"VOR","hdg_t":242.5,"dist_nm":95.4,"freq":116.1,"lat":41.40969444,"lon":-74.59158333,"rng_nm":130,"alt_fmsl":1300,"id":"HUO","desc":"HUGUENOT VOR-DME"},
{"type":"NDB","hdg_t":14.1,"dist_nm":95.6,"freq":276,"lat":43.70227778,"lon":-72.17747222,"rng_nm":50,"alt_fmsl":0,"id":"LAH","desc":"HANOVER NDB"},
{"type":"VOR","hdg_t":212.6,"dist_nm":97.4,"freq":113.1,"lat":40.78372222,"lon":-73.86861111,"rng_nm":40,"alt_fmsl":9,"id":"LGA","desc":"LA GUARDIA VOR-DME"},
{"type":"NDB","hdg_t":31.7,"dist_nm":97.7,"freq":328,"lat":43.53663889,"lon":-71.53702778,"rng_nm":50,"alt_fmsl":0,"id":"LC","desc":"BLNAP NDB"},
{"type":"NDB","hdg_t":256.9,"dist_nm":98.8,"freq":359,"lat":41.76666667,"lon":-74.86072222,"rng_nm":50,"alt_fmsl":0,"id":"MS","desc":"MONGA NDB"},
{"type":"VOR","hdg_t":218.1,"dist_nm":99.2,"freq":108.4,"lat":40.84872222,"lon":-74.06225000,"rng_nm":25,"alt_fmsl":10,"id":"TEB","desc":"TETERBORO VOR-DME"}
]
}
