{"success":true,"source":"xp2csv.pl","last_updated":"2013/11/08 14:53:21 UTC"
,"icao":"KBBB","name":"Benson Muni","lat":45.3319305,"lon":-95.650567,"rwys":1,"ils":0,"index":1384913,"path":"w100n40/w096n45"
,"runways":[
{"len_m":1219,"wid_m":22.86,"hdg":143,"surf":"Asphalt","rwy1":"14","lat1":45.33634200,"lon1":-95.65519200,"rwy2":"32","lat2":45.32751900,"lon2":-95.64594200}
]
,"radios":[
{"type":"CTAF","freq":122.8,"desc":"CTAF/UNICOM"}
]
,"navaids":[
{"type":"NDB","hdg_t":182.9,"dist_nm":0.2,"freq":239,"lat":45.32719444,"lon":-95.65091667,"rng_nm":50,"alt_fmsl":0,"id":"BBB","desc":"BENSON NDB"},
{"type":"NDB","hdg_t":247.9,"dist_nm":16.4,"freq":356,"lat":45.22847222,"lon":-96.00955556,"rng_nm":50,"alt_fmsl":0,"id":"AQP","desc":"APPLETON NDB"},
{"type":"VOR","hdg_t":316.3,"dist_nm":19.4,"freq":109.6,"lat":45.56580556,"lon":-95.96922222,"rng_nm":25,"alt_fmsl":1132,"id":"MOX","desc":"MORRIS VOR-DME"},
{"type":"VOR","hdg_t":186.9,"dist_nm":21.7,"freq":111.6,"lat":44.97266667,"lon":-95.71219444,"rng_nm":25,"alt_fmsl":1037,"id":"MVE","desc":"MONTEVIDEO VOR-DME"},
{"type":"NDB","hdg_t":36.6,"dist_nm":23.4,"freq":346,"lat":45.64430556,"lon":-95.31830556,"rng_nm":50,"alt_fmsl":0,"id":"GHW","desc":"GLENWOOD NDB"},
{"type":"VOR","hdg_t":119.8,"dist_nm":25.6,"freq":113.7,"lat":45.11766667,"lon":-95.12705556,"rng_nm":25,"alt_fmsl":1125,"id":"BDH","desc":"WILLMAR VOR-DME"},
{"type":"VOR","hdg_t":118.2,"dist_nm":27,"freq":113.7,"lat":45.11752800,"lon":-95.09061100,"rng_nm":25,"alt_fmsl":1120,"id":"ILL","desc":"WILLMAR VOR-DME"},
{"type":"NDB","hdg_t":227.2,"dist_nm":30.6,"freq":341,"lat":44.98416667,"lon":-96.17894444,"rng_nm":50,"alt_fmsl":0,"id":"DXX","desc":"DAWSON/MADISON NDB"},
{"type":"NDB","hdg_t":27.6,"dist_nm":31.1,"freq":281,"lat":45.79171200,"lon":-95.30547900,"rng_nm":25,"alt_fmsl":1404,"id":"AJW","desc":"ANDRI NDB"},
{"type":"NDB","hdg_t":27.6,"dist_nm":31.1,"freq":374,"lat":45.79172222,"lon":-95.30552778,"rng_nm":50,"alt_fmsl":0,"id":"EE","desc":"TAMIE (LOM) NDB"},
{"type":"NDB","hdg_t":267,"dist_nm":32.6,"freq":332,"lat":45.30166667,"lon":-96.42080556,"rng_nm":50,"alt_fmsl":0,"id":"VVV","desc":"ORTONVILLE NDB"},
{"type":"VOR","hdg_t":24.9,"dist_nm":41.5,"freq":112.8,"lat":45.95838889,"lon":-95.23263889,"rng_nm":40,"alt_fmsl":1367,"id":"AXN","desc":"ALEXANDRIA VOR-DME"},
{"type":"NDB","hdg_t":305.9,"dist_nm":46.4,"freq":326,"lat":45.78327778,"lon":-96.54669444,"rng_nm":50,"alt_fmsl":0,"id":"ETH","desc":"WHEATON NDB"},
{"type":"NDB","hdg_t":192.6,"dist_nm":51,"freq":253,"lat":44.50175000,"lon":-95.91097222,"rng_nm":50,"alt_fmsl":0,"id":"GB","desc":"GARNO NDB"},
{"type":"VOR","hdg_t":105.6,"dist_nm":52.8,"freq":109,"lat":45.08747222,"lon":-94.45386111,"rng_nm":40,"alt_fmsl":1130,"id":"DWN","desc":"DARWIN VORTAC"},
{"type":"VOR","hdg_t":188,"dist_nm":53.5,"freq":111,"lat":44.44841667,"lon":-95.82477778,"rng_nm":25,"alt_fmsl":1180,"id":"MML","desc":"MARSHALL VOR-DME"},
{"type":"NDB","hdg_t":342.3,"dist_nm":55.9,"freq":337,"lat":46.21980556,"lon":-96.05769444,"rng_nm":50,"alt_fmsl":0,"id":"FF","desc":"HAMRE NDB"},
{"type":"VOR","hdg_t":156.5,"dist_nm":56.4,"freq":113.3,"lat":44.46727778,"lon":-95.12822222,"rng_nm":130,"alt_fmsl":1061,"id":"RWF","desc":"REDWOOD FALLS VOR-DME"},
{"type":"VOR","hdg_t":339.8,"dist_nm":61.2,"freq":110.4,"lat":46.28936111,"lon":-96.15680556,"rng_nm":25,"alt_fmsl":1201,"id":"FFM","desc":"FERGUS FALLS VOR-DME"},
{"type":"NDB","hdg_t":56.3,"dist_nm":65.8,"freq":359,"lat":45.93341667,"lon":-94.34161111,"rng_nm":50,"alt_fmsl":0,"id":"LXL","desc":"LITTLE FALLS NDB"},
{"type":"VOR","hdg_t":252,"dist_nm":66.7,"freq":116.6,"lat":44.97963889,"lon":-97.14177778,"rng_nm":40,"alt_fmsl":1762,"id":"ATY","desc":"WATERTOWN VORTAC"},
{"type":"NDB","hdg_t":324.1,"dist_nm":67.8,"freq":233,"lat":46.24488889,"lon":-96.60361111,"rng_nm":50,"alt_fmsl":0,"id":"BWP","desc":"BRECKENRIDGE-WAHP NDB"},
{"type":"VOR","hdg_t":78.4,"dist_nm":68.5,"freq":112.1,"lat":45.54930556,"lon":-94.05861111,"rng_nm":25,"alt_fmsl":1023,"id":"STC","desc":"ST CLOUD VOR-DME"},
{"type":"NDB","hdg_t":50.3,"dist_nm":70.9,"freq":404,"lat":46.07919444,"lon":-94.34347222,"rng_nm":50,"alt_fmsl":0,"id":"XCR","desc":"RIPLEY NDB"},
{"type":"SDME","hdg_t":49.6,"dist_nm":71,"freq":111.1,"lat":46.09097500,"lon":-94.35498600,"rng_nm":130,"alt_fmsl":1149,"id":"RYM","desc":"CAMP RIPLEY TACAN"},
{"type":"NDB","hdg_t":244,"dist_nm":71.2,"freq":215,"lat":44.80327778,"lon":-97.15013889,"rng_nm":50,"alt_fmsl":0,"id":"AT","desc":"LICAN NDB"},
{"type":"NDB","hdg_t":82.3,"dist_nm":71.6,"freq":342,"lat":45.47894444,"lon":-93.96869444,"rng_nm":50,"alt_fmsl":0,"id":"ST","desc":"HUSSK NDB"},
{"type":"NDB","hdg_t":29,"dist_nm":72.3,"freq":257,"lat":46.38230556,"lon":-94.80491667,"rng_nm":50,"alt_fmsl":0,"id":"SAZ","desc":"STAPLES NDB"},
{"type":"NDB","hdg_t":116.7,"dist_nm":74.8,"freq":407,"lat":44.76063889,"lon":-94.08666667,"rng_nm":50,"alt_fmsl":0,"id":"GYL","desc":"GLENCOE NDB"},
{"type":"NDB","hdg_t":140.6,"dist_nm":78.2,"freq":272,"lat":44.31802778,"lon":-94.49802778,"rng_nm":50,"alt_fmsl":0,"id":"ULM","desc":"NEW ULM NDB"},
{"type":"VOR","hdg_t":219.2,"dist_nm":79.2,"freq":108.8,"lat":44.30325000,"lon":-96.81511111,"rng_nm":25,"alt_fmsl":1641,"id":"BKX","desc":"BROOKINGS VOR-DME"},
{"type":"NDB","hdg_t":199.1,"dist_nm":85.3,"freq":284,"lat":43.98616667,"lon":-96.29636111,"rng_nm":50,"alt_fmsl":0,"id":"PQN","desc":"PIPESTONE NDB"},
{"type":"NDB","hdg_t":80,"dist_nm":87.4,"freq":368,"lat":45.56466667,"lon":-93.60761111,"rng_nm":50,"alt_fmsl":0,"id":"PNM","desc":"PRINCETON NDB"},
{"type":"NDB","hdg_t":164.6,"dist_nm":88.4,"freq":203,"lat":43.90938889,"lon":-95.10916667,"rng_nm":50,"alt_fmsl":0,"id":"MWM","desc":"WINDOM NDB"},
{"type":"VOR","hdg_t":353.7,"dist_nm":90.1,"freq":111.2,"lat":46.82555556,"lon":-95.88733333,"rng_nm":25,"alt_fmsl":1387,"id":"DTL","desc":"DETROIT LAKES VOR-DME"},
{"type":"VOR","hdg_t":47.5,"dist_nm":91.4,"freq":116.9,"lat":46.34822222,"lon":-94.02588889,"rng_nm":130,"alt_fmsl":1260,"id":"BRD","desc":"BRAINERD VORTAC"},
{"type":"NDB","hdg_t":289,"dist_nm":93,"freq":386,"lat":45.81916700,"lon":-97.74558300,"rng_nm":25,"alt_fmsl":1312,"id":"BTN","desc":"BRITTON NDB"},
{"type":"NDB","hdg_t":149.4,"dist_nm":93.4,"freq":260,"lat":43.98550000,"lon":-94.55269444,"rng_nm":50,"alt_fmsl":0,"id":"JYG","desc":"ST JAMES NDB"},
{"type":"NDB","hdg_t":44.7,"dist_nm":95.9,"freq":251,"lat":46.45658333,"lon":-94.02250000,"rng_nm":50,"alt_fmsl":0,"id":"BR","desc":"LAREW NDB"},
{"type":"VOR","hdg_t":14.2,"dist_nm":97,"freq":110.6,"lat":46.89813889,"lon":-95.07088889,"rng_nm":40,"alt_fmsl":1441,"id":"PKD","desc":"PARK RAPIDS VOR-DME"},
{"type":"VOR","hdg_t":95.7,"dist_nm":97.1,"freq":117.3,"lat":45.14569444,"lon":-93.37319444,"rng_nm":130,"alt_fmsl":877,"id":"GEP","desc":"GOPHER VORTAC"},
{"type":"VOR","hdg_t":107.1,"dist_nm":98.6,"freq":117.7,"lat":44.82536111,"lon":-93.44269444,"rng_nm":40,"alt_fmsl":900,"id":"FCM","desc":"FLYING CLOUD VOR-DME"},
{"type":"VOR","hdg_t":329.9,"dist_nm":98.9,"freq":116.2,"lat":46.75336111,"lon":-96.85133333,"rng_nm":130,"alt_fmsl":908,"id":"FAR","desc":"FARGO VORTAC"},
{"type":"NDB","hdg_t":31.8,"dist_nm":99,"freq":330,"lat":46.72702778,"lon":-94.38500000,"rng_nm":50,"alt_fmsl":0,"id":"PWC","desc":"PINE RIVER NDB"},
{"type":"NDB","hdg_t":303.3,"dist_nm":99.3,"freq":278,"lat":46.22369444,"lon":-97.64263889,"rng_nm":50,"alt_fmsl":0,"id":"GWR","desc":"GWINNER NDB"},
{"type":"VOR","hdg_t":131.3,"dist_nm":99.8,"freq":110.8,"lat":44.21991667,"lon":-93.91236111,"rng_nm":40,"alt_fmsl":1026,"id":"MKT","desc":"MANKATO VOR-DME"}
]
}
