{"success":true,"source":"xp2csv.pl","last_updated":"2013/11/08 14:53:21 UTC"
,"icao":"KBCK","name":"Black River Falls Area","lat":44.250739,"lon":-90.855282,"rwys":1,"ils":0,"index":1466768,"path":"w100n40/w091n44"
,"runways":[
{"len_m":1402,"wid_m":22.86,"hdg":80,"surf":"Asphalt","rwy1":"08","lat1":44.24969200,"lon1":-90.86394200,"rwy2":"26","lat2":44.25178600,"lon2":-90.84662200}
]
,"radios":[
{"type":"CTAF","freq":122.9,"desc":"CTAF"}
]
,"navaids":[
{"type":"NDB","hdg_t":51.1,"dist_nm":0.3,"freq":362,"lat":44.25450000,"lon":-90.84877778,"rng_nm":50,"alt_fmsl":0,"id":"BCK","desc":"BLACK RIVER FALLS NDB"},
{"type":"NDB","hdg_t":153.7,"dist_nm":20.9,"freq":412,"lat":43.93783333,"lon":-90.64186111,"rng_nm":50,"alt_fmsl":0,"id":"CMY","desc":"MC COY NDB"},
{"type":"NDB","hdg_t":229.9,"dist_nm":22.9,"freq":272,"lat":44.00397222,"lon":-91.26066667,"rng_nm":50,"alt_fmsl":0,"id":"LS","desc":"MINDI NDB"},
{"type":"NDB","hdg_t":38.3,"dist_nm":23.4,"freq":368,"lat":44.55711111,"lon":-90.51527778,"rng_nm":50,"alt_fmsl":0,"id":"VIQ","desc":"NEILLSVILLE NDB"},
{"type":"VOR","hdg_t":217.7,"dist_nm":28.3,"freq":108.4,"lat":43.87611111,"lon":-91.25600000,"rng_nm":25,"alt_fmsl":650,"id":"LSE","desc":"LA CROSSE VOR-DME"},
{"type":"SDME","hdg_t":125.4,"dist_nm":31.7,"freq":110.4,"lat":43.94288300,"lon":-90.25901900,"rng_nm":40,"alt_fmsl":961,"id":"VOK","desc":"VOLK TACAN"},
{"type":"VOR","hdg_t":232.7,"dist_nm":33.3,"freq":117.9,"lat":43.91233333,"lon":-91.46752778,"rng_nm":130,"alt_fmsl":1282,"id":"ODI","desc":"NODINE VORTAC"},
{"type":"NDB","hdg_t":248.3,"dist_nm":34.7,"freq":264,"lat":44.03479435,"lon":-91.60121996,"rng_nm":15,"alt_fmsl":656,"id":"ON","desc":"BOLLN LOM"},
{"type":"NDB","hdg_t":57.5,"dist_nm":35.8,"freq":266,"lat":44.56872222,"lon":-90.15094444,"rng_nm":50,"alt_fmsl":0,"id":"DU","desc":"CALIN NDB"},
{"type":"NDB","hdg_t":111,"dist_nm":35.8,"freq":233,"lat":44.03405600,"lon":-90.08263900,"rng_nm":25,"alt_fmsl":914,"id":"DAF","desc":"NECEDAH NDB"},
{"type":"NDB","hdg_t":50.4,"dist_nm":36.9,"freq":391,"lat":44.64108333,"lon":-90.18913889,"rng_nm":50,"alt_fmsl":0,"id":"MFI","desc":"MARSHFIELD NDB"},
{"type":"VOR","hdg_t":254.3,"dist_nm":38.1,"freq":111.4,"lat":44.07622222,"lon":-91.70572222,"rng_nm":25,"alt_fmsl":653,"id":"ONA","desc":"WINONA VOR-DME"},
{"type":"NDB","hdg_t":88.9,"dist_nm":41.7,"freq":326,"lat":44.25983333,"lon":-89.88788889,"rng_nm":50,"alt_fmsl":0,"id":"EK","desc":"NEPCO NDB"},
{"type":"NDB","hdg_t":147.4,"dist_nm":42.2,"freq":251,"lat":43.65516667,"lon":-90.33308333,"rng_nm":50,"alt_fmsl":0,"id":"HBW","desc":"KICKAPOO NDB"},
{"type":"NDB","hdg_t":80.8,"dist_nm":44.2,"freq":215,"lat":44.36394444,"lon":-89.83977778,"rng_nm":50,"alt_fmsl":0,"id":"ISW","desc":"WISCONSIN RAPIDS NDB"},
{"type":"VOR","hdg_t":325.6,"dist_nm":47.1,"freq":112.9,"lat":44.89766667,"lon":-91.47855556,"rng_nm":40,"alt_fmsl":804,"id":"EAU","desc":"EAU CLAIRE VORTAC"},
{"type":"NDB","hdg_t":332,"dist_nm":47.2,"freq":239,"lat":44.94475000,"lon":-91.37366667,"rng_nm":50,"alt_fmsl":0,"id":"EA","desc":"MAGGS NDB"},
{"type":"NDB","hdg_t":214.8,"dist_nm":48.4,"freq":209,"lat":43.58691400,"lon":-91.49041800,"rng_nm":25,"alt_fmsl":1130,"id":"CHU","desc":"CALEDONIA NDB"},
{"type":"NDB","hdg_t":55.8,"dist_nm":55,"freq":275,"lat":44.76036111,"lon":-89.78919444,"rng_nm":50,"alt_fmsl":0,"id":"CW","desc":"DANCI NDB"},
{"type":"NDB","hdg_t":24.3,"dist_nm":56.3,"freq":335,"lat":45.10536111,"lon":-90.30869444,"rng_nm":50,"alt_fmsl":0,"id":"MDZ","desc":"MEDFORD NDB"},
{"type":"NDB","hdg_t":63.3,"dist_nm":57.8,"freq":351,"lat":44.67652778,"lon":-89.64794444,"rng_nm":50,"alt_fmsl":0,"id":"PH","desc":"BAYYE NDB"},
{"type":"NDB","hdg_t":57.5,"dist_nm":59.5,"freq":377,"lat":44.77688300,"lon":-89.67887200,"rng_nm":25,"alt_fmsl":1264,"id":"HWS","desc":"CENTRAL WISCONSIN NDB"},
{"type":"VOR","hdg_t":72.4,"dist_nm":59.6,"freq":110.6,"lat":44.54325000,"lon":-89.53055556,"rng_nm":40,"alt_fmsl":1110,"id":"STE","desc":"STEVENS POINT VORTAC"},
{"type":"VOR","hdg_t":131.1,"dist_nm":63.2,"freq":117,"lat":43.55083333,"lon":-89.76361111,"rng_nm":130,"alt_fmsl":1022,"id":"DLL","desc":"DELLS VORTAC"},
{"type":"VOR","hdg_t":56.2,"dist_nm":65.1,"freq":111.6,"lat":44.84677778,"lon":-89.58658333,"rng_nm":40,"alt_fmsl":1205,"id":"AUW","desc":"WAUSAU VORTAC"},
{"type":"VOR","hdg_t":207.2,"dist_nm":65.3,"freq":116.6,"lat":43.28008333,"lon":-91.53736111,"rng_nm":40,"alt_fmsl":1288,"id":"UKN","desc":"WAUKON VORTAC"},
{"type":"VOR","hdg_t":151,"dist_nm":65.4,"freq":112.8,"lat":43.29436111,"lon":-90.13313889,"rng_nm":40,"alt_fmsl":1184,"id":"LNR","desc":"LONE ROCK VOR-DME"},
{"type":"NDB","hdg_t":51.9,"dist_nm":66.5,"freq":243,"lat":44.92780556,"lon":-89.62511111,"rng_nm":50,"alt_fmsl":0,"id":"FZK","desc":"WAUSAU NDB"},
{"type":"NDB","hdg_t":213.7,"dist_nm":70.1,"freq":236,"lat":43.27523750,"lon":-91.74342080,"rng_nm":25,"alt_fmsl":1139,"id":"DEH","desc":"Decorah NDB"},
{"type":"NDB","hdg_t":251,"dist_nm":71.4,"freq":329,"lat":43.85436700,"lon":-92.41167500,"rng_nm":25,"alt_fmsl":1263,"id":"RS","desc":"MINGO NDB"},
{"type":"NDB","hdg_t":286.6,"dist_nm":73.2,"freq":394,"lat":44.58885600,"lon":-92.49213300,"rng_nm":25,"alt_fmsl":782,"id":"RGK","desc":"RED WING NDB"},
{"type":"NDB","hdg_t":40.4,"dist_nm":75.2,"freq":257,"lat":45.19861111,"lon":-89.70425000,"rng_nm":50,"alt_fmsl":0,"id":"RRL","desc":"MERRILL NDB"},
{"type":"NDB","hdg_t":355.3,"dist_nm":75.3,"freq":356,"lat":45.50183333,"lon":-91.00113889,"rng_nm":50,"alt_fmsl":0,"id":"RCX","desc":"RUSK COUNTY NDB"},
{"type":"NDB","hdg_t":328,"dist_nm":75.7,"freq":221,"lat":45.31747222,"lon":-91.80277778,"rng_nm":50,"alt_fmsl":0,"id":"RP","desc":"WICKR NDB"},
{"type":"NDB","hdg_t":226.6,"dist_nm":76.7,"freq":293,"lat":43.36602778,"lon":-92.13100000,"rng_nm":50,"alt_fmsl":0,"id":"CJJ","desc":"CRESCO NDB"},
{"type":"NDB","hdg_t":85.7,"dist_nm":79.2,"freq":382,"lat":44.33436111,"lon":-89.01969444,"rng_nm":50,"alt_fmsl":0,"id":"PCZ","desc":"WAUPACA NDB"},
{"type":"NDB","hdg_t":285.7,"dist_nm":79.8,"freq":274,"lat":44.59783333,"lon":-92.64747222,"rng_nm":50,"alt_fmsl":0,"id":"RG","desc":"REGUE NDB"},
{"type":"VOR","hdg_t":330.9,"dist_nm":80.2,"freq":110,"lat":45.41519444,"lon":-91.77800000,"rng_nm":25,"alt_fmsl":1092,"id":"RPD","desc":"RICE LAKE VOR-DME"},
{"type":"VOR","hdg_t":250.1,"dist_nm":80.4,"freq":112,"lat":43.78286111,"lon":-92.59691667,"rng_nm":40,"alt_fmsl":1389,"id":"RST","desc":"ROCHESTER VOR-DME"},
{"type":"NDB","hdg_t":333.6,"dist_nm":82.4,"freq":407,"lat":45.47955600,"lon":-91.72072200,"rng_nm":25,"alt_fmsl":1140,"id":"RIE","desc":"RICE LAKE NDB"},
{"type":"NDB","hdg_t":161.2,"dist_nm":86.2,"freq":365,"lat":42.88805556,"lon":-90.22650000,"rng_nm":50,"alt_fmsl":0,"id":"MRJ","desc":"MINERAL POINT NDB"},
{"type":"NDB","hdg_t":12,"dist_nm":89.1,"freq":263,"lat":45.70291667,"lon":-90.41238889,"rng_nm":50,"alt_fmsl":0,"id":"PBH","desc":"PHILLIPS NDB"},
{"type":"NDB","hdg_t":307.4,"dist_nm":89.7,"freq":257,"lat":45.14725000,"lon":-92.53344444,"rng_nm":50,"alt_fmsl":0,"id":"RNH","desc":"NEW RICHMOND NDB"},
{"type":"NDB","hdg_t":53.2,"dist_nm":92.3,"freq":347,"lat":45.15830556,"lon":-89.11333333,"rng_nm":50,"alt_fmsl":0,"id":"AIG","desc":"ANTIGO NDB"},
{"type":"VOR","hdg_t":134.6,"dist_nm":93.5,"freq":108.6,"lat":43.14483333,"lon":-89.33969444,"rng_nm":40,"alt_fmsl":857,"id":"MSN","desc":"MADISON VORTAC"},
{"type":"NDB","hdg_t":75.6,"dist_nm":93.8,"freq":209,"lat":44.61880556,"lon":-88.73319444,"rng_nm":50,"alt_fmsl":0,"id":"CLI","desc":"CLINTONVILLE NDB"},
{"type":"NDB","hdg_t":293.3,"dist_nm":96.9,"freq":400,"lat":44.87336111,"lon":-92.94200000,"rng_nm":50,"alt_fmsl":0,"id":"PPI","desc":"HOPEY NDB"},
{"type":"NDB","hdg_t":136.7,"dist_nm":96.9,"freq":400,"lat":43.06275000,"lon":-89.34588889,"rng_nm":50,"alt_fmsl":0,"id":"MS","desc":"MONAH NDB"},
{"type":"NDB","hdg_t":32,"dist_nm":98,"freq":272,"lat":45.62811111,"lon":-89.61886111,"rng_nm":50,"alt_fmsl":0,"id":"RH","desc":"ARSHA NDB"},
{"type":"NDB","hdg_t":92.3,"dist_nm":98.1,"freq":230,"lat":44.16250000,"lon":-88.58502778,"rng_nm":50,"alt_fmsl":0,"id":"AT","desc":"GAMIE NDB"},
{"type":"VOR","hdg_t":246.3,"dist_nm":98.2,"freq":108.2,"lat":43.57625000,"lon":-92.91866667,"rng_nm":25,"alt_fmsl":1233,"id":"JAY","desc":"AUSTIN VOR-DME"},
{"type":"NDB","hdg_t":292.4,"dist_nm":98.3,"freq":385,"lat":44.85675000,"lon":-92.98444444,"rng_nm":50,"alt_fmsl":0,"id":"BA","desc":"BABCO NDB"},
{"type":"NDB","hdg_t":264.7,"dist_nm":99.8,"freq":379,"lat":44.07383333,"lon":-93.15527778,"rng_nm":50,"alt_fmsl":0,"id":"OW","desc":"TONNA NDB"}
]
}
