{"success":true,"source":"xp2csv.pl","last_updated":"2013/11/08 14:53:21 UTC"
,"icao":"KBMQ","name":"Burnet Muni Kate Craddock Fld","lat":30.738928,"lon":-98.2386095,"rwys":1,"ils":0,"index":1334827,"path":"w100n30/w099n30"
,"runways":[
{"len_m":1524,"wid_m":22.86,"hdg":16,"surf":"Asphalt","rwy1":"01","lat1":30.73232500,"lon1":-98.24082200,"rwy2":"19","lat2":30.74553100,"lon2":-98.23639700}
]
,"radios":[
{"type":"ATIS","freq":119.92,"desc":"ASOS"},
{"type":"CTAF","freq":122.8,"desc":"CTAF/UNICOM"}
]
,"navaids":[
{"type":"NDB","hdg_t":56.7,"dist_nm":0.1,"freq":341,"lat":30.74027778,"lon":-98.23622222,"rng_nm":50,"alt_fmsl":0,"id":"BMQ","desc":"BURNET NDB"},
{"type":"VOR","hdg_t":10.5,"dist_nm":27.1,"freq":112.5,"lat":31.18550000,"lon":-98.14186111,"rng_nm":130,"alt_fmsl":1290,"id":"AGJ","desc":"GOOCH SPRINGS VORTAC"},
{"type":"VOR","hdg_t":51.1,"dist_nm":28.1,"freq":111.8,"lat":31.03288889,"lon":-97.81377778,"rng_nm":25,"alt_fmsl":980,"id":"GRK","desc":"GRAY VOR-DME"},
{"type":"VOR","hdg_t":277,"dist_nm":28.5,"freq":108.2,"lat":30.79633333,"lon":-98.78738889,"rng_nm":40,"alt_fmsl":1200,"id":"LLO","desc":"LLANO VORTAC"},
{"type":"NDB","hdg_t":96.3,"dist_nm":29,"freq":332,"lat":30.68438889,"lon":-97.67991667,"rng_nm":50,"alt_fmsl":0,"id":"GUO","desc":"GEORGETOWN NDB"},
{"type":"NDB","hdg_t":35.8,"dist_nm":31.7,"freq":323,"lat":31.16783333,"lon":-97.87822222,"rng_nm":50,"alt_fmsl":0,"id":"GR","desc":"STARN NDB"},
{"type":"NDB","hdg_t":57.9,"dist_nm":32.2,"freq":278,"lat":31.02411111,"lon":-97.70813889,"rng_nm":50,"alt_fmsl":0,"id":"IL","desc":"IRESH NDB"},
{"type":"NDB","hdg_t":49.2,"dist_nm":35.8,"freq":347,"lat":31.12905556,"lon":-97.71141667,"rng_nm":50,"alt_fmsl":0,"id":"HLR","desc":"HOOD NDB"},
{"type":"NDB","hdg_t":132.9,"dist_nm":39.5,"freq":232,"lat":30.28759400,"lon":-97.68183600,"rng_nm":25,"alt_fmsl":0,"id":"GF","desc":"BIRDY NDB"},
{"type":"VOR","hdg_t":217.3,"dist_nm":40,"freq":113.8,"lat":30.20675000,"lon":-98.70575000,"rng_nm":130,"alt_fmsl":1530,"id":"STV","desc":"STONEWALL VORTAC"},
{"type":"VOR","hdg_t":120.2,"dist_nm":42.5,"freq":112.8,"lat":30.37855556,"lon":-97.52986111,"rng_nm":130,"alt_fmsl":593,"id":"CWK","desc":"CENTEX VORTAC"},
{"type":"NDB","hdg_t":133.3,"dist_nm":43.7,"freq":353,"lat":30.23568300,"lon":-97.62569700,"rng_nm":25,"alt_fmsl":0,"id":"AU","desc":"AUSTI NDB"},
{"type":"NDB","hdg_t":142.9,"dist_nm":48.6,"freq":255,"lat":30.08972222,"lon":-97.67602778,"rng_nm":50,"alt_fmsl":0,"id":"BS","desc":"CREED NDB"},
{"type":"NDB","hdg_t":162,"dist_nm":49,"freq":272,"lat":29.95880556,"lon":-97.94897222,"rng_nm":50,"alt_fmsl":0,"id":"RU","desc":"GARYS NDB"},
{"type":"VOR","hdg_t":55.9,"dist_nm":50.5,"freq":110.4,"lat":31.20933333,"lon":-97.42497222,"rng_nm":40,"alt_fmsl":710,"id":"TPL","desc":"TEMPLE VOR-DME"},
{"type":"NDB","hdg_t":4.9,"dist_nm":53,"freq":251,"lat":31.62150000,"lon":-98.14891667,"rng_nm":50,"alt_fmsl":0,"id":"MNZ","desc":"HAMILTON NDB"},
{"type":"NDB","hdg_t":295.4,"dist_nm":61.7,"freq":380,"lat":31.17788889,"lon":-99.32258333,"rng_nm":50,"alt_fmsl":0,"id":"BBD","desc":"BRADY NDB"},
{"type":"NDB","hdg_t":219.2,"dist_nm":63.5,"freq":263,"lat":29.91500000,"lon":-99.00941667,"rng_nm":50,"alt_fmsl":0,"id":"ER","desc":"SHEIN NDB"},
{"type":"VOR","hdg_t":190,"dist_nm":66.5,"freq":116.8,"lat":29.64402778,"lon":-98.46130556,"rng_nm":130,"alt_fmsl":1160,"id":"SAT","desc":"SAN ANTONIO VORTAC"},
{"type":"NDB","hdg_t":194.3,"dist_nm":69.8,"freq":368,"lat":29.60758333,"lon":-98.56969444,"rng_nm":50,"alt_fmsl":0,"id":"AN","desc":"ALAMO NDB"},
{"type":"VOR","hdg_t":226.2,"dist_nm":70.4,"freq":117.5,"lat":29.92233333,"lon":-99.21450000,"rng_nm":130,"alt_fmsl":2080,"id":"CSI","desc":"CENTER POINT VORTAC"},
{"type":"SDME","hdg_t":181.2,"dist_nm":71.9,"freq":109.9,"lat":29.53694700,"lon":-98.26780300,"rng_nm":40,"alt_fmsl":773,"id":"DHK","desc":"RANDOLPH TACAN"},
{"type":"VOR","hdg_t":181.9,"dist_nm":73,"freq":112.3,"lat":29.51916667,"lon":-98.28516667,"rng_nm":25,"alt_fmsl":772,"id":"RND","desc":"RANDOLPH VORTAC"},
{"type":"NDB","hdg_t":117.2,"dist_nm":73.6,"freq":385,"lat":30.16952200,"lon":-96.97874400,"rng_nm":25,"alt_fmsl":464,"id":"GYB","desc":"LEE COUNTY NDB"},
{"type":"VOR","hdg_t":41.8,"dist_nm":74.4,"freq":115.3,"lat":31.66233333,"lon":-97.26902778,"rng_nm":130,"alt_fmsl":510,"id":"ACT","desc":"WACO VORTAC"},
{"type":"NDB","hdg_t":52.4,"dist_nm":75.6,"freq":400,"lat":31.50380556,"lon":-97.06958333,"rng_nm":50,"alt_fmsl":0,"id":"ROB","desc":"ROBINSON NDB"},
{"type":"NDB","hdg_t":190.9,"dist_nm":77,"freq":219,"lat":29.47461400,"lon":-98.51861700,"rng_nm":25,"alt_fmsl":0,"id":"SA","desc":"BLUIE NDB"},
{"type":"VOR","hdg_t":332,"dist_nm":78.3,"freq":108.6,"lat":31.89258333,"lon":-98.95747222,"rng_nm":40,"alt_fmsl":1574,"id":"BWD","desc":"BROWNWOOD VOR-DME"},
{"type":"VOR","hdg_t":264.5,"dist_nm":82.1,"freq":116,"lat":30.59802778,"lon":-99.81752778,"rng_nm":130,"alt_fmsl":2280,"id":"JCT","desc":"JUNCTION VORTAC"},
{"type":"SDME","hdg_t":192.5,"dist_nm":82.5,"freq":112,"lat":29.39158300,"lon":-98.58104700,"rng_nm":40,"alt_fmsl":687,"id":"KSY","desc":"KELLY TACAN"},
{"type":"NDB","hdg_t":44.5,"dist_nm":84.6,"freq":378,"lat":31.74091667,"lon":-97.07816667,"rng_nm":50,"alt_fmsl":0,"id":"CN","desc":"LEROI NDB"},
{"type":"VOR","hdg_t":12.1,"dist_nm":87,"freq":115,"lat":32.15958333,"lon":-97.87769444,"rng_nm":40,"alt_fmsl":1300,"id":"JEN","desc":"GLEN ROSE VORTAC"},
{"type":"NDB","hdg_t":201,"dist_nm":89.2,"freq":338,"lat":29.34606900,"lon":-98.84919400,"rng_nm":25,"alt_fmsl":762,"id":"CVB","desc":"CASTROVILLE NDB"},
{"type":"NDB","hdg_t":318,"dist_nm":89.2,"freq":385,"lat":31.84125600,"lon":-99.40617500,"rng_nm":25,"alt_fmsl":88,"id":"COM","desc":"COLEMAN NDB"},
{"type":"VOR","hdg_t":186.9,"dist_nm":89.2,"freq":108.4,"lat":29.25838889,"lon":-98.44347222,"rng_nm":40,"alt_fmsl":0,"id":"SSF","desc":"STINSON VOR"},
{"type":"VOR","hdg_t":94.4,"dist_nm":94.4,"freq":113.3,"lat":30.60500000,"lon":-96.42069444,"rng_nm":40,"alt_fmsl":275,"id":"CLL","desc":"COLLEGE STATION VORTAC"},
{"type":"NDB","hdg_t":210.9,"dist_nm":95,"freq":329,"lat":29.37341667,"lon":-99.17202778,"rng_nm":50,"alt_fmsl":0,"id":"HMA","desc":"HONDO NDB"},
{"type":"VOR","hdg_t":210.6,"dist_nm":96.5,"freq":109.4,"lat":29.34911111,"lon":-99.17788889,"rng_nm":40,"alt_fmsl":947,"id":"HDO","desc":"HONDO VOR-DME"},
{"type":"VOR","hdg_t":117.8,"dist_nm":98.8,"freq":110.2,"lat":29.95605556,"lon":-96.56219444,"rng_nm":40,"alt_fmsl":419,"id":"IDU","desc":"INDUSTRY VORTAC"},
{"type":"NDB","hdg_t":97.9,"dist_nm":99.5,"freq":260,"lat":30.49372222,"lon":-96.33769444,"rng_nm":50,"alt_fmsl":0,"id":"CL","desc":"ROWDY NDB"}
]
}
