{"success":true,"source":"xp2csv.pl","last_updated":"2013/11/08 14:53:21 UTC"
,"icao":"KBTA","name":"Blair Municipal","lat":41.41875094,"lon":-96.11173976,"rwys":1,"ils":0,"index":1368283,"path":"w100n40/w097n41"
,"runways":[
{"len_m":1281,"wid_m":29.87,"hdg":137,"surf":"Concrete","rwy1":"13","lat1":41.42298507,"lon1":-96.11695008,"rwy2":"31","lat2":41.41451680,"lon2":-96.10652943}
]
,"radios":[
{"type":"ATIS","freq":120.22,"desc":"AWOS 3"},
{"type":"CTAF","freq":122.9,"desc":"CTAF"}
]
,"navaids":[
{"type":"NDB","hdg_t":113.8,"dist_nm":7.6,"freq":320,"lat":41.36677778,"lon":-95.95630556,"rng_nm":50,"alt_fmsl":0,"id":"OM","desc":"GERFI NDB"},
{"type":"NDB","hdg_t":95.8,"dist_nm":9.8,"freq":513,"lat":41.40175000,"lon":-95.89391667,"rng_nm":50,"alt_fmsl":0,"id":"PP","desc":"FLICK NDB"},
{"type":"NDB","hdg_t":180.4,"dist_nm":13.4,"freq":371,"lat":41.19486111,"lon":-96.11405556,"rng_nm":50,"alt_fmsl":0,"id":"MLE","desc":"MILLARD NDB"},
{"type":"NDB","hdg_t":131.8,"dist_nm":17.8,"freq":426,"lat":41.21958333,"lon":-95.81791667,"rng_nm":50,"alt_fmsl":0,"id":"EN","desc":"RIKKY NDB"},
{"type":"SDME","hdg_t":152,"dist_nm":20.4,"freq":111.7,"lat":41.11722800,"lon":-95.90000300,"rng_nm":40,"alt_fmsl":1090,"id":"OFF","desc":"OFFUTT TACAN"},
{"type":"VOR","hdg_t":351.6,"dist_nm":20.6,"freq":108.4,"lat":41.75958333,"lon":-96.17855556,"rng_nm":25,"alt_fmsl":0,"id":"TQE","desc":"TEKAMAH VOR"},
{"type":"VOR","hdg_t":131.5,"dist_nm":22.6,"freq":116.3,"lat":41.16727778,"lon":-95.73672222,"rng_nm":130,"alt_fmsl":1300,"id":"OVR","desc":"OMAHA VORTAC"},
{"type":"NDB","hdg_t":244,"dist_nm":24.4,"freq":400,"lat":41.23916667,"lon":-96.59836111,"rng_nm":50,"alt_fmsl":0,"id":"AHQ","desc":"WAHOO NDB"},
{"type":"VOR","hdg_t":295.7,"dist_nm":25.8,"freq":111,"lat":41.60475000,"lon":-96.62883333,"rng_nm":25,"alt_fmsl":1318,"id":"SCB","desc":"SCRIBNER VOR-DME"},
{"type":"NDB","hdg_t":162.3,"dist_nm":29.8,"freq":329,"lat":40.94377778,"lon":-95.91247222,"rng_nm":50,"alt_fmsl":0,"id":"PMV","desc":"PLATTSMOUTH NDB"},
{"type":"NDB","hdg_t":74.2,"dist_nm":36,"freq":272,"lat":41.57897222,"lon":-95.34097222,"rng_nm":50,"alt_fmsl":0,"id":"HNR","desc":"HARLAN NDB"},
{"type":"VOR","hdg_t":224.1,"dist_nm":41.1,"freq":116.1,"lat":40.92380556,"lon":-96.74200000,"rng_nm":130,"alt_fmsl":1370,"id":"LNK","desc":"LINCOLN VORTAC"},
{"type":"NDB","hdg_t":121.6,"dist_nm":45.6,"freq":230,"lat":41.01525000,"lon":-95.25575000,"rng_nm":50,"alt_fmsl":0,"id":"RDK","desc":"RED OAK NDB"},
{"type":"NDB","hdg_t":43.9,"dist_nm":47.2,"freq":350,"lat":41.98388889,"lon":-95.37927778,"rng_nm":50,"alt_fmsl":0,"id":"DNS","desc":"DENISON NDB"},
{"type":"NDB","hdg_t":17.1,"dist_nm":47.8,"freq":335,"lat":42.18055556,"lon":-95.79472222,"rng_nm":50,"alt_fmsl":0,"id":"MEY","desc":"MAPLETON NDB"},
{"type":"NDB","hdg_t":90.7,"dist_nm":48.1,"freq":365,"lat":41.40397222,"lon":-95.04625000,"rng_nm":50,"alt_fmsl":0,"id":"AIO","desc":"ATLANTIC NDB"},
{"type":"NDB","hdg_t":216.4,"dist_nm":49.9,"freq":385,"lat":40.74719444,"lon":-96.76241667,"rng_nm":50,"alt_fmsl":0,"id":"LN","desc":"POTTS NDB"},
{"type":"NDB","hdg_t":166.7,"dist_nm":50,"freq":347,"lat":40.60555556,"lon":-95.86083333,"rng_nm":50,"alt_fmsl":0,"id":"AFK","desc":"NEBRASKA CITY NDB"},
{"type":"NDB","hdg_t":141.1,"dist_nm":51.1,"freq":411,"lat":40.75169444,"lon":-95.40750000,"rng_nm":50,"alt_fmsl":0,"id":"SDA","desc":"SHENANDOAH NDB"},
{"type":"NDB","hdg_t":351.6,"dist_nm":55,"freq":414,"lat":42.32752778,"lon":-96.29050000,"rng_nm":50,"alt_fmsl":0,"id":"SU","desc":"SALIX NDB"},
{"type":"VOR","hdg_t":272.3,"dist_nm":55.4,"freq":111.8,"lat":41.45002778,"lon":-97.34080556,"rng_nm":40,"alt_fmsl":1442,"id":"OLU","desc":"COLUMBUS VOR-DME"},
{"type":"NDB","hdg_t":233.9,"dist_nm":56.3,"freq":269,"lat":40.86127778,"lon":-97.11194444,"rng_nm":50,"alt_fmsl":0,"id":"SWT","desc":"SEWARD NDB"},
{"type":"VOR","hdg_t":350.3,"dist_nm":56.3,"freq":116.5,"lat":42.34452778,"lon":-96.32363889,"rng_nm":40,"alt_fmsl":1087,"id":"SUX","desc":"SIOUX CITY VORTAC"},
{"type":"NDB","hdg_t":72.8,"dist_nm":56.5,"freq":266,"lat":41.69027778,"lon":-94.90997222,"rng_nm":50,"alt_fmsl":0,"id":"ADU","desc":"AUDUBON NDB"},
{"type":"NDB","hdg_t":275,"dist_nm":57.4,"freq":407,"lat":41.49655556,"lon":-97.38175000,"rng_nm":50,"alt_fmsl":0,"id":"PLT","desc":"PLATTE CENTER NDB"},
{"type":"NDB","hdg_t":218.1,"dist_nm":60.3,"freq":420,"lat":40.62411400,"lon":-96.92761100,"rng_nm":25,"alt_fmsl":1479,"id":"CEK","desc":"CRETE NDB"},
{"type":"NDB","hdg_t":348.3,"dist_nm":60.5,"freq":233,"lat":42.40811111,"lon":-96.38602778,"rng_nm":50,"alt_fmsl":0,"id":"GAK","desc":"SIOUX GATEWAY NDB"},
{"type":"NDB","hdg_t":321.9,"dist_nm":63,"freq":389,"lat":42.24255556,"lon":-96.98375000,"rng_nm":50,"alt_fmsl":0,"id":"LCG","desc":"WAYNE NDB"},
{"type":"NDB","hdg_t":346,"dist_nm":64.3,"freq":305,"lat":42.46011111,"lon":-96.46222222,"rng_nm":50,"alt_fmsl":0,"id":"OI","desc":"TOMMI NDB"},
{"type":"NDB","hdg_t":129.9,"dist_nm":64.4,"freq":353,"lat":40.72366667,"lon":-95.02797222,"rng_nm":50,"alt_fmsl":0,"id":"ICL","desc":"CLARINDA NDB"},
{"type":"NDB","hdg_t":111.9,"dist_nm":66.3,"freq":278,"lat":40.99638889,"lon":-94.75691667,"rng_nm":50,"alt_fmsl":0,"id":"CRZ","desc":"CORNING NDB"},
{"type":"NDB","hdg_t":295,"dist_nm":67.6,"freq":510,"lat":41.88761111,"lon":-97.48025000,"rng_nm":50,"alt_fmsl":0,"id":"OF","desc":"CARSY NDB"},
{"type":"VOR","hdg_t":300.3,"dist_nm":68.5,"freq":109.6,"lat":41.98791667,"lon":-97.43458333,"rng_nm":40,"alt_fmsl":1540,"id":"OFK","desc":"NORFOLK VOR-DME"},
{"type":"NDB","hdg_t":206.9,"dist_nm":70.8,"freq":248,"lat":40.36361100,"lon":-96.81294200,"rng_nm":25,"alt_fmsl":1352,"id":"BJU","desc":"BIG BLUE NDB"},
{"type":"VOR","hdg_t":203.8,"dist_nm":73.1,"freq":110.6,"lat":40.30141667,"lon":-96.75463889,"rng_nm":25,"alt_fmsl":1304,"id":"BIE","desc":"BEATRICE VOR-DME"},
{"type":"VOR","hdg_t":183.4,"dist_nm":73.1,"freq":112.4,"lat":40.20036111,"lon":-96.20627778,"rng_nm":130,"alt_fmsl":1360,"id":"PWE","desc":"PAWNEE CITY VORTAC"},
{"type":"NDB","hdg_t":245.8,"dist_nm":75,"freq":257,"lat":40.89755556,"lon":-97.61700000,"rng_nm":50,"alt_fmsl":0,"id":"JYR","desc":"YORK NDB"},
{"type":"NDB","hdg_t":203.2,"dist_nm":75.1,"freq":263,"lat":40.26500000,"lon":-96.75708100,"rng_nm":25,"alt_fmsl":1250,"id":"HWB","desc":"SHAW NDB"},
{"type":"NDB","hdg_t":40.8,"dist_nm":76.7,"freq":356,"lat":42.38061111,"lon":-94.98277778,"rng_nm":50,"alt_fmsl":0,"id":"SKI","desc":"SAC CITY NDB"},
{"type":"NDB","hdg_t":28.4,"dist_nm":80.7,"freq":434,"lat":42.60044444,"lon":-95.24438889,"rng_nm":50,"alt_fmsl":0,"id":"SLB","desc":"STORM LAKE NDB"},
{"type":"NDB","hdg_t":357.4,"dist_nm":81.3,"freq":382,"lat":42.77443300,"lon":-96.19252200,"rng_nm":25,"alt_fmsl":1190,"id":"LRJ","desc":"LE MARS NDB"},
{"type":"NDB","hdg_t":233.5,"dist_nm":82.7,"freq":392,"lat":40.58994444,"lon":-97.56805556,"rng_nm":50,"alt_fmsl":0,"id":"FMZ","desc":"BEKLOF NDB"},
{"type":"NDB","hdg_t":163.2,"dist_nm":83.9,"freq":404,"lat":40.07633333,"lon":-95.58688889,"rng_nm":50,"alt_fmsl":0,"id":"FNB","desc":"BRENNER NDB"},
{"type":"NDB","hdg_t":108.5,"dist_nm":84.5,"freq":379,"lat":40.95744444,"lon":-94.34725000,"rng_nm":50,"alt_fmsl":0,"id":"UNE","desc":"UNION CO NDB"},
{"type":"NDB","hdg_t":65.2,"dist_nm":87.1,"freq":391,"lat":42.01347222,"lon":-94.34269444,"rng_nm":50,"alt_fmsl":0,"id":"EFW","desc":"JEFFERSON NDB"},
{"type":"NDB","hdg_t":213.1,"dist_nm":88.6,"freq":293,"lat":40.17666667,"lon":-97.16586111,"rng_nm":50,"alt_fmsl":0,"id":"FBY","desc":"FAIRBURY NDB"},
{"type":"NDB","hdg_t":282.6,"dist_nm":89.3,"freq":332,"lat":41.72958333,"lon":-98.05269444,"rng_nm":50,"alt_fmsl":0,"id":"BVN","desc":"ALABY NDB"},
{"type":"NDB","hdg_t":250.3,"dist_nm":91,"freq":278,"lat":40.89251400,"lon":-97.99719400,"rng_nm":25,"alt_fmsl":1799,"id":"AUH","desc":"AURORA NDB"},
{"type":"NDB","hdg_t":1.3,"dist_nm":94.3,"freq":521,"lat":42.99138889,"lon":-96.06058333,"rng_nm":50,"alt_fmsl":0,"id":"ORC","desc":"ORANGE CITY NDB"},
{"type":"VOR","hdg_t":161.2,"dist_nm":99.1,"freq":108.2,"lat":39.85083333,"lon":-95.42305556,"rng_nm":40,"alt_fmsl":1126,"id":"RBA","desc":"ROBINSON VOR-DME"}
]
}
