{"success":true,"source":"xp2csv.pl","last_updated":"2013/11/08 14:53:21 UTC"
,"icao":"KCAG","name":"Craig Moffat","lat":40.4952095,"lon":-107.521661,"rwys":1,"ils":0,"index":1187993,"path":"w110n40/w108n40"
,"runways":[
{"len_m":1708,"wid_m":30.48,"hdg":82,"surf":"Asphalt","rwy1":"07","lat1":40.49426900,"lon1":-107.53166100,"rwy2":"25","lat2":40.49615000,"lon2":-107.51166100}
]
,"radios":[
{"type":"ATIS","freq":135.42,"desc":"ASOS"},
{"type":"CTAF","freq":122.8,"desc":"CTAF/UNICOM"}
]
,"navaids":[
{"type":"VOR","hdg_t":81.3,"dist_nm":10,"freq":115.6,"lat":40.52008333,"lon":-107.30488889,"rng_nm":130,"alt_fmsl":7269,"id":"CHE","desc":"HAYDEN VOR-DME"},
{"type":"VOR","hdg_t":93.4,"dist_nm":29.7,"freq":112.2,"lat":40.46375000,"lon":-106.87230556,"rng_nm":40,"alt_fmsl":8254,"id":"BQZ","desc":"ROBERT VOR-DME"},
{"type":"NDB","hdg_t":92.4,"dist_nm":31.6,"freq":245,"lat":40.47022700,"lon":-106.83015900,"rng_nm":50,"alt_fmsl":6879,"id":"SBS","desc":"STEAMBOAT SPRINGS NDB"},
{"type":"VOR","hdg_t":215.9,"dist_nm":31.6,"freq":115.2,"lat":40.06741667,"lon":-107.92494444,"rng_nm":130,"alt_fmsl":7631,"id":"EKR","desc":"MEEKER VOR-DME"},
{"type":"VOR","hdg_t":154.6,"dist_nm":57.3,"freq":109.2,"lat":39.62947222,"lon":-106.99113889,"rng_nm":40,"alt_fmsl":8060,"id":"SXW","desc":"SNOW VOR-DME"},
{"type":"VOR","hdg_t":120.4,"dist_nm":57.7,"freq":113.8,"lat":40.00263889,"lon":-106.44247222,"rng_nm":130,"alt_fmsl":9370,"id":"RLG","desc":"KREMMLING VOR-DME"},
{"type":"NDB","hdg_t":150.9,"dist_nm":58,"freq":357,"lat":39.64655556,"lon":-106.91427778,"rng_nm":50,"alt_fmsl":0,"id":"EGE","desc":"EAGLE NDB"},
{"type":"VOR","hdg_t":189.5,"dist_nm":59,"freq":111.45,"lat":39.52455556,"lon":-107.73250000,"rng_nm":40,"alt_fmsl":5484,"id":"RGA","desc":"RIFLE VOR-DME"},
{"type":"NDB","hdg_t":28.5,"dist_nm":65,"freq":266,"lat":41.44497222,"lon":-106.83211111,"rng_nm":50,"alt_fmsl":0,"id":"SAA","desc":"SARATOGA NDB"},
{"type":"NDB","hdg_t":165.4,"dist_nm":67,"freq":344,"lat":39.41163889,"lon":-107.15950000,"rng_nm":50,"alt_fmsl":0,"id":"CQL","desc":"CARBONDALE NDB"},
{"type":"VOR","hdg_t":155.2,"dist_nm":69.5,"freq":113,"lat":39.43933333,"lon":-106.89466667,"rng_nm":130,"alt_fmsl":11800,"id":"DBL","desc":"RED TABLE VOR-DME"},
{"type":"VOR","hdg_t":357.9,"dist_nm":75.6,"freq":115,"lat":41.75572222,"lon":-107.58197222,"rng_nm":130,"alt_fmsl":7050,"id":"CKW","desc":"CHEROKEE VOR-DME"},
{"type":"VOR","hdg_t":10.2,"dist_nm":79.8,"freq":109.4,"lat":41.80480556,"lon":-107.20430556,"rng_nm":25,"alt_fmsl":6751,"id":"RWL","desc":"RAWLINS VOR-DME"},
{"type":"VOR","hdg_t":266.2,"dist_nm":90.5,"freq":108.2,"lat":40.37902778,"lon":-109.49330556,"rng_nm":40,"alt_fmsl":5344,"id":"VEL","desc":"VERNAL VOR-DME"},
{"type":"VOR","hdg_t":314.5,"dist_nm":94.3,"freq":116,"lat":41.59022222,"lon":-109.01533333,"rng_nm":130,"alt_fmsl":6785,"id":"OCS","desc":"ROCK SPRINGS VOR-DME"},
{"type":"VOR","hdg_t":57.7,"dist_nm":96.2,"freq":117.6,"lat":41.33783333,"lon":-105.72094444,"rng_nm":40,"alt_fmsl":7300,"id":"LAR","desc":"LARAMIE VOR-DME"}
]
}
