{"success":true,"source":"xp2csv.pl","last_updated":"2013/11/08 14:53:21 UTC"
,"icao":"KCBG","name":"Cambridge Muni","lat":45.5574945,"lon":-93.264185,"rwys":1,"ils":0,"index":1417698,"path":"w100n40/w094n45"
,"runways":[
{"len_m":1219,"wid_m":22.86,"hdg":162,"surf":"Asphalt","rwy1":"16","lat1":45.56272500,"lon1":-93.26653100,"rwy2":"34","lat2":45.55226400,"lon2":-93.26183900}
]
,"radios":[
{"type":"ATIS","freq":121.12,"desc":"AWOS 3"},
{"type":"CTAF","freq":122.8,"desc":"CTAF/UNICOM"}
]
,"navaids":[
{"type":"NDB","hdg_t":82.1,"dist_nm":0,"freq":350,"lat":45.55769444,"lon":-93.26211111,"rng_nm":50,"alt_fmsl":0,"id":"CBG","desc":"CAMBRIDGE NDB"},
{"type":"NDB","hdg_t":271.8,"dist_nm":14.4,"freq":368,"lat":45.56466667,"lon":-93.60761111,"rng_nm":50,"alt_fmsl":0,"id":"PNM","desc":"PRINCETON NDB"},
{"type":"NDB","hdg_t":57.1,"dist_nm":15.4,"freq":282,"lat":45.69680556,"lon":-92.95575000,"rng_nm":50,"alt_fmsl":0,"id":"ROS","desc":"RUSH CITY NDB"},
{"type":"NDB","hdg_t":359.3,"dist_nm":19.9,"freq":327,"lat":45.89027778,"lon":-93.26922222,"rng_nm":50,"alt_fmsl":0,"id":"JMR","desc":"MORA NDB"},
{"type":"VOR","hdg_t":190.6,"dist_nm":25.1,"freq":117.3,"lat":45.14569444,"lon":-93.37319444,"rng_nm":130,"alt_fmsl":877,"id":"GEP","desc":"GOPHER VORTAC"},
{"type":"NDB","hdg_t":121.1,"dist_nm":28.5,"freq":233,"lat":45.31038900,"lon":-92.68808300,"rng_nm":25,"alt_fmsl":944,"id":"OEO","desc":"OSCEOLA NDB"},
{"type":"NDB","hdg_t":261.2,"dist_nm":30,"freq":342,"lat":45.47894444,"lon":-93.96869444,"rng_nm":50,"alt_fmsl":0,"id":"ST","desc":"HUSSK NDB"},
{"type":"VOR","hdg_t":269.4,"dist_nm":33.4,"freq":112.1,"lat":45.54930556,"lon":-94.05861111,"rng_nm":25,"alt_fmsl":1023,"id":"STC","desc":"ST CLOUD VOR-DME"},
{"type":"NDB","hdg_t":128.2,"dist_nm":39.5,"freq":257,"lat":45.14725000,"lon":-92.53344444,"rng_nm":50,"alt_fmsl":0,"id":"RNH","desc":"NEW RICHMOND NDB"},
{"type":"VOR","hdg_t":178.2,"dist_nm":39.6,"freq":115.3,"lat":44.89650000,"lon":-93.23652778,"rng_nm":130,"alt_fmsl":831,"id":"MSP","desc":"MINNEAPOLIS VOR-DME"},
{"type":"VOR","hdg_t":66.8,"dist_nm":40.6,"freq":109.4,"lat":45.82044444,"lon":-92.37452778,"rng_nm":40,"alt_fmsl":987,"id":"RZN","desc":"SIREN VOR-DME"},
{"type":"NDB","hdg_t":66.9,"dist_nm":40.9,"freq":203,"lat":45.82127778,"lon":-92.36641667,"rng_nm":50,"alt_fmsl":0,"id":"BXR","desc":"BIG DOCTOR NDB"},
{"type":"NDB","hdg_t":161.4,"dist_nm":43.2,"freq":400,"lat":44.87336111,"lon":-92.94200000,"rng_nm":50,"alt_fmsl":0,"id":"PPI","desc":"HOPEY NDB"},
{"type":"NDB","hdg_t":164.1,"dist_nm":43.6,"freq":385,"lat":44.85675000,"lon":-92.98444444,"rng_nm":50,"alt_fmsl":0,"id":"BA","desc":"BABCO NDB"},
{"type":"NDB","hdg_t":182.3,"dist_nm":44,"freq":338,"lat":44.82411100,"lon":-93.30583300,"rng_nm":25,"alt_fmsl":0,"id":"AP","desc":"VAGEY NDB"},
{"type":"VOR","hdg_t":189.8,"dist_nm":44.5,"freq":117.7,"lat":44.82536111,"lon":-93.44269444,"rng_nm":40,"alt_fmsl":900,"id":"FCM","desc":"FLYING CLOUD VOR-DME"},
{"type":"NDB","hdg_t":296.8,"dist_nm":50.5,"freq":359,"lat":45.93341667,"lon":-94.34161111,"rng_nm":50,"alt_fmsl":0,"id":"LXL","desc":"LITTLE FALLS NDB"},
{"type":"NDB","hdg_t":20.2,"dist_nm":55,"freq":362,"lat":46.41650000,"lon":-92.80475000,"rng_nm":50,"alt_fmsl":0,"id":"MZH","desc":"MOOSE LAKE NDB"},
{"type":"NDB","hdg_t":305,"dist_nm":55,"freq":404,"lat":46.07919444,"lon":-94.34347222,"rng_nm":50,"alt_fmsl":0,"id":"XCR","desc":"RIPLEY NDB"},
{"type":"VOR","hdg_t":176.3,"dist_nm":55.7,"freq":115.7,"lat":44.63094444,"lon":-93.18205556,"rng_nm":130,"alt_fmsl":972,"id":"FGT","desc":"FARMINGTON VORTAC"},
{"type":"SDME","hdg_t":305.3,"dist_nm":55.8,"freq":111.1,"lat":46.09097500,"lon":-94.35498600,"rng_nm":130,"alt_fmsl":1149,"id":"RYM","desc":"CAMP RIPLEY TACAN"},
{"type":"VOR","hdg_t":326.3,"dist_nm":57.1,"freq":116.9,"lat":46.34822222,"lon":-94.02588889,"rng_nm":130,"alt_fmsl":1260,"id":"BRD","desc":"BRAINERD VORTAC"},
{"type":"VOR","hdg_t":241.1,"dist_nm":57.7,"freq":109,"lat":45.08747222,"lon":-94.45386111,"rng_nm":40,"alt_fmsl":1130,"id":"DWN","desc":"DARWIN VORTAC"},
{"type":"NDB","hdg_t":216.4,"dist_nm":59.2,"freq":407,"lat":44.76063889,"lon":-94.08666667,"rng_nm":50,"alt_fmsl":0,"id":"GYL","desc":"GLENCOE NDB"},
{"type":"NDB","hdg_t":344,"dist_nm":61.8,"freq":397,"lat":46.54830556,"lon":-93.67544444,"rng_nm":50,"alt_fmsl":0,"id":"AIT","desc":"AITKIN NDB"},
{"type":"NDB","hdg_t":329.8,"dist_nm":62.5,"freq":251,"lat":46.45658333,"lon":-94.02250000,"rng_nm":50,"alt_fmsl":0,"id":"BR","desc":"LAREW NDB"},
{"type":"NDB","hdg_t":155.3,"dist_nm":63.2,"freq":274,"lat":44.59783333,"lon":-92.64747222,"rng_nm":50,"alt_fmsl":0,"id":"RG","desc":"REGUE NDB"},
{"type":"NDB","hdg_t":102.6,"dist_nm":63.3,"freq":221,"lat":45.31747222,"lon":-91.80277778,"rng_nm":50,"alt_fmsl":0,"id":"RP","desc":"WICKR NDB"},
{"type":"VOR","hdg_t":97.2,"dist_nm":63.3,"freq":110,"lat":45.41519444,"lon":-91.77800000,"rng_nm":25,"alt_fmsl":1092,"id":"RPD","desc":"RICE LAKE VOR-DME"},
{"type":"NDB","hdg_t":93.5,"dist_nm":65.2,"freq":407,"lat":45.47955600,"lon":-91.72072200,"rng_nm":25,"alt_fmsl":1140,"id":"RIE","desc":"RICE LAKE NDB"},
{"type":"NDB","hdg_t":150.2,"dist_nm":66.7,"freq":394,"lat":44.58885600,"lon":-92.49213300,"rng_nm":25,"alt_fmsl":782,"id":"RGK","desc":"RED WING NDB"},
{"type":"NDB","hdg_t":24.6,"dist_nm":75.4,"freq":335,"lat":46.69697222,"lon":-92.50300000,"rng_nm":50,"alt_fmsl":0,"id":"COQ","desc":"CLOQUET NDB"},
{"type":"VOR","hdg_t":69.4,"dist_nm":81.1,"freq":113.4,"lat":46.01900000,"lon":-91.44638889,"rng_nm":40,"alt_fmsl":1208,"id":"HYR","desc":"HAYWARD VOR-DME"},
{"type":"NDB","hdg_t":308,"dist_nm":81.2,"freq":257,"lat":46.38230556,"lon":-94.80491667,"rng_nm":50,"alt_fmsl":0,"id":"SAZ","desc":"STAPLES NDB"},
{"type":"VOR","hdg_t":183.2,"dist_nm":81.3,"freq":111.2,"lat":44.20444444,"lon":-93.37050000,"rng_nm":25,"alt_fmsl":1100,"id":"FOW","desc":"HALFWAY VOR-DME"},
{"type":"VOR","hdg_t":251.7,"dist_nm":81.6,"freq":113.7,"lat":45.11752800,"lon":-95.09061100,"rng_nm":25,"alt_fmsl":1120,"id":"ILL","desc":"WILLMAR VOR-DME"},
{"type":"VOR","hdg_t":252.1,"dist_nm":83.1,"freq":113.7,"lat":45.11766667,"lon":-95.12705556,"rng_nm":25,"alt_fmsl":1125,"id":"BDH","desc":"WILLMAR VOR-DME"},
{"type":"NDB","hdg_t":326.7,"dist_nm":84.3,"freq":330,"lat":46.72702778,"lon":-94.38500000,"rng_nm":50,"alt_fmsl":0,"id":"PWC","desc":"PINE RIVER NDB"},
{"type":"VOR","hdg_t":199.2,"dist_nm":84.8,"freq":110.8,"lat":44.21991667,"lon":-93.91236111,"rng_nm":40,"alt_fmsl":1026,"id":"MKT","desc":"MANKATO VOR-DME"},
{"type":"VOR","hdg_t":116.9,"dist_nm":85.4,"freq":112.9,"lat":44.89766667,"lon":-91.47855556,"rng_nm":40,"alt_fmsl":804,"id":"EAU","desc":"EAU CLAIRE VORTAC"},
{"type":"NDB","hdg_t":25.7,"dist_nm":86.1,"freq":379,"lat":46.84572222,"lon":-92.35494444,"rng_nm":50,"alt_fmsl":0,"id":"DL","desc":"PYKLA NDB"},
{"type":"VOR","hdg_t":286.9,"dist_nm":86.1,"freq":112.8,"lat":45.95838889,"lon":-95.23263889,"rng_nm":40,"alt_fmsl":1367,"id":"AXN","desc":"ALEXANDRIA VOR-DME"},
{"type":"NDB","hdg_t":274.1,"dist_nm":86.6,"freq":346,"lat":45.64430556,"lon":-95.31830556,"rng_nm":50,"alt_fmsl":0,"id":"GHW","desc":"GLENWOOD NDB"},
{"type":"VOR","hdg_t":30.2,"dist_nm":86.8,"freq":112.6,"lat":46.80216667,"lon":-92.20286111,"rng_nm":130,"alt_fmsl":1428,"id":"DLH","desc":"DULUTH VORTAC"},
{"type":"NDB","hdg_t":280,"dist_nm":87,"freq":281,"lat":45.79171200,"lon":-95.30547900,"rng_nm":25,"alt_fmsl":1404,"id":"AJW","desc":"ANDRI NDB"},
{"type":"NDB","hdg_t":280,"dist_nm":87,"freq":374,"lat":45.79172222,"lon":-95.30552778,"rng_nm":50,"alt_fmsl":0,"id":"EE","desc":"TAMIE (LOM) NDB"},
{"type":"NDB","hdg_t":113.9,"dist_nm":88.1,"freq":239,"lat":44.94475000,"lon":-91.37366667,"rng_nm":50,"alt_fmsl":0,"id":"EA","desc":"MAGGS NDB"},
{"type":"NDB","hdg_t":176.9,"dist_nm":89.1,"freq":379,"lat":44.07383333,"lon":-93.15527778,"rng_nm":50,"alt_fmsl":0,"id":"OW","desc":"TONNA NDB"},
{"type":"NDB","hdg_t":215.6,"dist_nm":91,"freq":272,"lat":44.31802778,"lon":-94.49802778,"rng_nm":50,"alt_fmsl":0,"id":"ULM","desc":"NEW ULM NDB"},
{"type":"NDB","hdg_t":335.8,"dist_nm":94.7,"freq":392,"lat":46.99430556,"lon":-94.20650000,"rng_nm":50,"alt_fmsl":0,"id":"XVG","desc":"LONGVILLE NDB"},
{"type":"NDB","hdg_t":354.6,"dist_nm":94.8,"freq":272,"lat":47.13030556,"lon":-93.48133333,"rng_nm":50,"alt_fmsl":0,"id":"GP","desc":"GALEX NDB"},
{"type":"NDB","hdg_t":91.1,"dist_nm":95.5,"freq":356,"lat":45.50183333,"lon":-91.00113889,"rng_nm":50,"alt_fmsl":0,"id":"RCX","desc":"RUSK COUNTY NDB"},
{"type":"VOR","hdg_t":354.5,"dist_nm":96.8,"freq":111.4,"lat":47.16361111,"lon":-93.48855556,"rng_nm":40,"alt_fmsl":1400,"id":"GPZ","desc":"GRAND RAPIDS VOR-DME"}
]
}
