{"success":true,"source":"xp2csv.pl","last_updated":"2013/11/08 14:53:21 UTC"
,"icao":"KCEA","name":"Cessna Acft Fld","lat":37.64859,"lon":-97.2505915,"rwys":1,"ils":0,"index":1351658,"path":"w100n30/w098n37"
,"runways":[
{"len_m":1180,"wid_m":11.89,"hdg":180,"surf":"Asphalt","rwy1":"17","lat1":37.65390800,"lon1":-97.25058600,"rwy2":"35","lat2":37.64327200,"lon2":-97.25059700}
]
,"radios":[
{"type":"CTAF","freq":122.9,"desc":"CTAF"},
{"type":"CLD","freq":125,"desc":"WICHITA CLNC DEL"},
{"type":"TWR","freq":127.25,"desc":"MC CONNELL TWR"},
{"type":"APP","freq":134.8,"desc":"WICHITA APP/DEP"}
]
,"navaids":[
{"type":"SDME","hdg_t":207.6,"dist_nm":1.8,"freq":116.5,"lat":37.62185300,"lon":-97.26819200,"rng_nm":40,"alt_fmsl":1374,"id":"IAB","desc":"MC CONNELL TACAN"},
{"type":"NDB","hdg_t":246.7,"dist_nm":10.6,"freq":332,"lat":37.57819444,"lon":-97.45586111,"rng_nm":50,"alt_fmsl":0,"id":"IC","desc":"PICHE NDB"},
{"type":"VOR","hdg_t":290.1,"dist_nm":16.8,"freq":113.8,"lat":37.74525000,"lon":-97.58383333,"rng_nm":130,"alt_fmsl":1471,"id":"ICT","desc":"WICHITA VORTAC"},
{"type":"NDB","hdg_t":198.9,"dist_nm":20.5,"freq":414,"lat":37.32366667,"lon":-97.39019444,"rng_nm":50,"alt_fmsl":0,"id":"EGT","desc":"WELLINGTON NDB"},
{"type":"NDB","hdg_t":357.5,"dist_nm":24.9,"freq":281,"lat":38.06408333,"lon":-97.27344444,"rng_nm":50,"alt_fmsl":0,"id":"EWK","desc":"NEWTON NDB"},
{"type":"NDB","hdg_t":357.6,"dist_nm":29.7,"freq":395,"lat":38.14491667,"lon":-97.27613889,"rng_nm":50,"alt_fmsl":0,"id":"CA","desc":"HARVS NDB"},
{"type":"NDB","hdg_t":162.9,"dist_nm":35,"freq":353,"lat":37.08972222,"lon":-97.03625000,"rng_nm":50,"alt_fmsl":0,"id":"SO","desc":"SAWCY NDB"},
{"type":"VOR","hdg_t":302.9,"dist_nm":38.6,"freq":116.8,"lat":37.99691667,"lon":-97.93413889,"rng_nm":40,"alt_fmsl":1542,"id":"HUT","desc":"HUTCHINSON VOR-DME"},
{"type":"NDB","hdg_t":311.7,"dist_nm":42.9,"freq":404,"lat":38.12372222,"lon":-97.92702778,"rng_nm":50,"alt_fmsl":0,"id":"HU","desc":"SALTT NDB"},
{"type":"NDB","hdg_t":333.8,"dist_nm":46.7,"freq":227,"lat":38.34850000,"lon":-97.68730556,"rng_nm":50,"alt_fmsl":0,"id":"MPR","desc":"MC PHERSON NDB"},
{"type":"NDB","hdg_t":171.6,"dist_nm":49.8,"freq":515,"lat":36.82502778,"lon":-97.10052778,"rng_nm":50,"alt_fmsl":0,"id":"PN","desc":"PONCA NDB"},
{"type":"VOR","hdg_t":236.5,"dist_nm":52.8,"freq":112.9,"lat":37.15891667,"lon":-98.17072222,"rng_nm":40,"alt_fmsl":1390,"id":"ANY","desc":"ANTHONY VORTAC"},
{"type":"VOR","hdg_t":175.3,"dist_nm":54.2,"freq":113.2,"lat":36.74652778,"lon":-97.16016667,"rng_nm":130,"alt_fmsl":1054,"id":"PER","desc":"PIONEER VORTAC"},
{"type":"NDB","hdg_t":312.4,"dist_nm":62.4,"freq":386,"lat":38.34722222,"lon":-98.22700000,"rng_nm":50,"alt_fmsl":0,"id":"LYO","desc":"LYONS NDB"},
{"type":"NDB","hdg_t":343.3,"dist_nm":64.6,"freq":344,"lat":38.68152778,"lon":-97.64505556,"rng_nm":50,"alt_fmsl":0,"id":"SL","desc":"FLORY NDB"},
{"type":"VOR","hdg_t":53.5,"dist_nm":65.3,"freq":112.8,"lat":38.29113889,"lon":-96.13811111,"rng_nm":40,"alt_fmsl":1233,"id":"EMP","desc":"EMPORIA VORTAC"},
{"type":"NDB","hdg_t":18.2,"dist_nm":65.9,"freq":407,"lat":38.69277778,"lon":-96.81111111,"rng_nm":50,"alt_fmsl":0,"id":"HRU","desc":"HERINGTON NDB"},
{"type":"NDB","hdg_t":274.1,"dist_nm":71.4,"freq":356,"lat":37.72630556,"lon":-98.74708333,"rng_nm":50,"alt_fmsl":0,"id":"PTT","desc":"PRATT NDB"},
{"type":"NDB","hdg_t":128.9,"dist_nm":76.5,"freq":201,"lat":36.83950000,"lon":-96.01397222,"rng_nm":50,"alt_fmsl":0,"id":"BV","desc":"DEWIE NDB"},
{"type":"VOR","hdg_t":129.2,"dist_nm":76.5,"freq":117.9,"lat":36.83425000,"lon":-96.01830556,"rng_nm":40,"alt_fmsl":940,"id":"BVO","desc":"BARTLESVILLE VOR-DME"},
{"type":"VOR","hdg_t":347.2,"dist_nm":78.4,"freq":117.1,"lat":38.92513889,"lon":-97.62136111,"rng_nm":130,"alt_fmsl":1310,"id":"SLN","desc":"SALINA VORTAC"},
{"type":"NDB","hdg_t":115.9,"dist_nm":78.6,"freq":329,"lat":37.06583333,"lon":-95.77775000,"rng_nm":50,"alt_fmsl":0,"id":"ID","desc":"JEFFE NDB"},
{"type":"VOR","hdg_t":90.4,"dist_nm":78.9,"freq":109.2,"lat":37.62613889,"lon":-95.59344444,"rng_nm":40,"alt_fmsl":1080,"id":"CNU","desc":"CHANUTE VOR-DME"},
{"type":"VOR","hdg_t":198.8,"dist_nm":80.6,"freq":109,"lat":36.37375000,"lon":-97.78816667,"rng_nm":25,"alt_fmsl":1149,"id":"ODG","desc":"WOODRING VOR-DME"},
{"type":"VOR","hdg_t":12.9,"dist_nm":81.3,"freq":109.4,"lat":38.97016667,"lon":-96.86116667,"rng_nm":25,"alt_fmsl":0,"id":"FRI","desc":"FORT RILEY VOR"},
{"type":"NDB","hdg_t":61.2,"dist_nm":82.3,"freq":245,"lat":38.29975000,"lon":-95.72147222,"rng_nm":50,"alt_fmsl":0,"id":"UKL","desc":"BOYD NDB"},
{"type":"NDB","hdg_t":295.8,"dist_nm":84.3,"freq":419,"lat":38.25169444,"lon":-98.85580556,"rng_nm":50,"alt_fmsl":0,"id":"GB","desc":"BABSY NDB"},
{"type":"VOR","hdg_t":202.5,"dist_nm":84.4,"freq":115.4,"lat":36.34497222,"lon":-97.91836111,"rng_nm":130,"alt_fmsl":1276,"id":"END","desc":"VANCE VORTAC"},
{"type":"NDB","hdg_t":174.6,"dist_nm":84.9,"freq":255,"lat":36.23616667,"lon":-97.08730556,"rng_nm":50,"alt_fmsl":0,"id":"SW","desc":"BLAKI NDB"},
{"type":"NDB","hdg_t":102,"dist_nm":85.2,"freq":258,"lat":37.33814700,"lon":-95.50870000,"rng_nm":25,"alt_fmsl":900,"id":"PPF","desc":"PARSONS NDB"},
{"type":"NDB","hdg_t":14.4,"dist_nm":85.3,"freq":314,"lat":39.02600000,"lon":-96.79450000,"rng_nm":50,"alt_fmsl":0,"id":"CVY","desc":"CAVALRY NDB"},
{"type":"VOR","hdg_t":174.4,"dist_nm":85.7,"freq":108.4,"lat":36.22425000,"lon":-97.08125000,"rng_nm":25,"alt_fmsl":1022,"id":"SWO","desc":"STILLWATER VOR-DME"},
{"type":"NDB","hdg_t":197.6,"dist_nm":86.3,"freq":341,"lat":36.27502778,"lon":-97.79077778,"rng_nm":50,"alt_fmsl":0,"id":"EI","desc":"GARFY NDB"},
{"type":"NDB","hdg_t":111.9,"dist_nm":86.9,"freq":212,"lat":37.09327778,"lon":-95.57133333,"rng_nm":50,"alt_fmsl":0,"id":"CFV","desc":"COFFEYVILLE NDB"},
{"type":"NDB","hdg_t":83.8,"dist_nm":87.8,"freq":410,"lat":37.79152778,"lon":-95.41491667,"rng_nm":50,"alt_fmsl":0,"id":"MSB","desc":"MONARCH NDB"},
{"type":"NDB","hdg_t":299,"dist_nm":89.1,"freq":338,"lat":38.35908333,"lon":-98.90288889,"rng_nm":50,"alt_fmsl":0,"id":"HIL","desc":"HILYN NDB"},
{"type":"NDB","hdg_t":18.2,"dist_nm":92.7,"freq":391,"lat":39.11744200,"lon":-96.62933600,"rng_nm":50,"alt_fmsl":1060,"id":"MQD","desc":"MC DOWELL CREEK NDB"},
{"type":"NDB","hdg_t":291.4,"dist_nm":93.3,"freq":296,"lat":38.20436111,"lon":-99.08791667,"rng_nm":50,"alt_fmsl":0,"id":"LQR","desc":"LARNED NDB"},
{"type":"VOR","hdg_t":16.8,"dist_nm":93.8,"freq":110.2,"lat":39.14544444,"lon":-96.66872222,"rng_nm":25,"alt_fmsl":1044,"id":"MHK","desc":"MANHATTAN VOR-DME"}
]
}
