{"success":true,"source":"xp2csv.pl","last_updated":"2013/11/08 14:53:21 UTC"
,"icao":"KCMA","name":"Camarillo","lat":34.21374499,"lon":-119.09383632,"rwys":1,"ils":0,"index":990987,"path":"w120n30/w120n34"
,"runways":[
{"len_m":1837,"wid_m":46.02,"hdg":90,"surf":"Asphalt","rwy1":"08","lat1":34.21382572,"lon1":-119.10380841,"rwy2":"26","lat2":34.21366425,"lon2":-119.08386423}
]
,"radios":[
{"type":"ATIS","freq":126.02,"desc":"ATIS"},
{"type":"CTAF","freq":128.2,"desc":"CTAF"},
{"type":"CLD","freq":120.75,"desc":"CLNC DEL"},
{"type":"CLD","freq":121.8,"desc":"CLNC DEL"},
{"type":"GND","freq":121.8,"desc":"GND"},
{"type":"TWR","freq":128.2,"desc":"TWR"},
{"type":"APP","freq":124.7,"desc":"PT MUGU APP/DEP"}
]
,"navaids":[
{"type":"VOR","hdg_t":199.7,"dist_nm":0,"freq":115.8,"lat":34.21252778,"lon":-119.09436111,"rng_nm":40,"alt_fmsl":63,"id":"CMA","desc":"CAMARILLO VOR-DME"},
{"type":"SDME","hdg_t":194.5,"dist_nm":5.5,"freq":110.6,"lat":34.12329200,"lon":-119.12197800,"rng_nm":25,"alt_fmsl":6,"id":"NTD","desc":"POINT MUGU TACAN"},
{"type":"VOR","hdg_t":159.5,"dist_nm":6.3,"freq":108.2,"lat":34.11505556,"lon":-119.04950000,"rng_nm":40,"alt_fmsl":1560,"id":"VTU","desc":"VENTURA VOR-DME"},
{"type":"VOR","hdg_t":50.9,"dist_nm":13.6,"freq":112.5,"lat":34.35669444,"lon":-118.88127778,"rng_nm":40,"alt_fmsl":2200,"id":"FIM","desc":"FILLMORE VORTAC"},
{"type":"VOR","hdg_t":88.7,"dist_nm":29.9,"freq":113.1,"lat":34.22344444,"lon":-118.49166667,"rng_nm":40,"alt_fmsl":812,"id":"VNY","desc":"VAN NUYS VOR-DME"},
{"type":"NDB","hdg_t":85.1,"dist_nm":33.9,"freq":370,"lat":34.25972222,"lon":-118.41341667,"rng_nm":50,"alt_fmsl":0,"id":"PAI","desc":"PACOIMA NDB"},
{"type":"VOR","hdg_t":110.8,"dist_nm":33.9,"freq":110.8,"lat":34.01025000,"lon":-118.45672222,"rng_nm":40,"alt_fmsl":114,"id":"SMO","desc":"SANTA MONICA VOR-DME"},
{"type":"NDB","hdg_t":91.3,"dist_nm":35.6,"freq":253,"lat":34.19802778,"lon":-118.37786111,"rng_nm":50,"alt_fmsl":0,"id":"UR","desc":"VINEE NDB"},
{"type":"VOR","hdg_t":116.8,"dist_nm":37,"freq":113.6,"lat":33.93313889,"lon":-118.43200000,"rng_nm":130,"alt_fmsl":182,"id":"LAX","desc":"LOS ANGELES VORTAC"},
{"type":"VOR","hdg_t":17.9,"dist_nm":37.1,"freq":116.1,"lat":34.80402778,"lon":-118.86136111,"rng_nm":40,"alt_fmsl":4920,"id":"GMN","desc":"GORMAN VORTAC"},
{"type":"VOR","hdg_t":42.2,"dist_nm":38,"freq":108.4,"lat":34.68297222,"lon":-118.57694444,"rng_nm":40,"alt_fmsl":5790,"id":"LHS","desc":"LAKE HUGHES VORTAC"},
{"type":"VOR","hdg_t":297.9,"dist_nm":38,"freq":114.9,"lat":34.50952778,"lon":-119.77100000,"rng_nm":130,"alt_fmsl":3623,"id":"RZS","desc":"SAN MARCUS VORTAC"},
{"type":"NDB","hdg_t":109.9,"dist_nm":43.3,"freq":278,"lat":33.96434200,"lon":-118.27794400,"rng_nm":25,"alt_fmsl":136,"id":"OS","desc":"ROMEN NDB"},
{"type":"NDB","hdg_t":114.5,"dist_nm":46.4,"freq":378,"lat":33.88905556,"lon":-118.24727778,"rng_nm":50,"alt_fmsl":0,"id":"CPM","desc":"COMPTON NDB"},
{"type":"VOR","hdg_t":291.2,"dist_nm":53,"freq":113.8,"lat":34.53133333,"lon":-120.09108333,"rng_nm":40,"alt_fmsl":2616,"id":"GVO","desc":"GAVIOTA VORTAC"},
{"type":"NDB","hdg_t":97.7,"dist_nm":53.4,"freq":359,"lat":34.08830556,"lon":-118.03119444,"rng_nm":50,"alt_fmsl":0,"id":"EMT","desc":"EL MONTE NDB"},
{"type":"NDB","hdg_t":53.8,"dist_nm":53.6,"freq":282,"lat":34.73869444,"lon":-118.21677778,"rng_nm":50,"alt_fmsl":0,"id":"GWF","desc":"GEN WILLIAM J FO NDB"},
{"type":"VOR","hdg_t":63.6,"dist_nm":56.9,"freq":114.5,"lat":34.63138889,"lon":-118.06383333,"rng_nm":130,"alt_fmsl":2498,"id":"PMD","desc":"PALMDALE VORTAC"},
{"type":"NDB","hdg_t":118,"dist_nm":57.6,"freq":233,"lat":33.75666667,"lon":-118.07738889,"rng_nm":50,"alt_fmsl":0,"id":"LG","desc":"BECCA NDB"},
{"type":"VOR","hdg_t":116.1,"dist_nm":57.8,"freq":115.7,"lat":33.78330556,"lon":-118.05475000,"rng_nm":40,"alt_fmsl":23,"id":"SLI","desc":"SEAL BEACH VORTAC"},
{"type":"VOR","hdg_t":145.9,"dist_nm":60.4,"freq":111.4,"lat":33.37505556,"lon":-118.41991667,"rng_nm":40,"alt_fmsl":2090,"id":"SXC","desc":"SANTA CATALINA VORTAC"},
{"type":"SDME","hdg_t":197.3,"dist_nm":61.3,"freq":110.2,"lat":33.23505800,"lon":-119.45834200,"rng_nm":25,"alt_fmsl":521,"id":"NSI","desc":"SAN NICOLAS ISLAND TACAN"},
{"type":"VOR","hdg_t":324.2,"dist_nm":65,"freq":117.5,"lat":35.09308333,"lon":-119.86558333,"rng_nm":40,"alt_fmsl":3870,"id":"FLW","desc":"FELLOWS VORTAC"},
{"type":"VOR","hdg_t":96.7,"dist_nm":65.5,"freq":110.4,"lat":34.07838889,"lon":-117.78708333,"rng_nm":40,"alt_fmsl":1266,"id":"POM","desc":"POMONA VORTAC"},
{"type":"NDB","hdg_t":116.7,"dist_nm":69.1,"freq":337,"lat":33.68886111,"lon":-117.86050000,"rng_nm":50,"alt_fmsl":0,"id":"NA","desc":"MAAGG NDB"},
{"type":"VOR","hdg_t":114.9,"dist_nm":75.2,"freq":117.2,"lat":33.67602778,"lon":-117.73108333,"rng_nm":25,"alt_fmsl":336,"id":"ELB","desc":"EL TORO VOR-DME"},
{"type":"SDME","hdg_t":159.9,"dist_nm":75.6,"freq":117.6,"lat":33.02692800,"lon":-118.57959400,"rng_nm":25,"alt_fmsl":161,"id":"NUC","desc":"SAN CLEMENTE TACAN"},
{"type":"VOR","hdg_t":359.8,"dist_nm":76.1,"freq":115.4,"lat":35.48455556,"lon":-119.09730556,"rng_nm":130,"alt_fmsl":548,"id":"EHF","desc":"SHAFTER VORTAC"},
{"type":"VOR","hdg_t":102.3,"dist_nm":79.9,"freq":112.2,"lat":33.91833333,"lon":-117.53000000,"rng_nm":130,"alt_fmsl":1432,"id":"PDZ","desc":"PARADISE VORTAC"},
{"type":"SDME","hdg_t":293.2,"dist_nm":80.1,"freq":112.25,"lat":34.73255000,"lon":-120.58305600,"rng_nm":40,"alt_fmsl":370,"id":"VBG","desc":"VANDENBERG TACAN"},
{"type":"VOR","hdg_t":55.2,"dist_nm":81.6,"freq":116.4,"lat":34.98236111,"lon":-117.73261111,"rng_nm":40,"alt_fmsl":2354,"id":"EDW","desc":"EDWARDS VORTAC"},
{"type":"VOR","hdg_t":100.2,"dist_nm":83.3,"freq":112.4,"lat":33.95519444,"lon":-117.44983333,"rng_nm":25,"alt_fmsl":0,"id":"RAL","desc":"RIVERSIDE VOR"},
{"type":"VOR","hdg_t":302.4,"dist_nm":83.4,"freq":111,"lat":34.95236111,"lon":-120.52147222,"rng_nm":25,"alt_fmsl":0,"id":"GLJ","desc":"GUADALUPE VOR"},
{"type":"SDME","hdg_t":157.5,"dist_nm":86.3,"freq":113.9,"lat":32.88003600,"lon":-118.44088300,"rng_nm":130,"alt_fmsl":2000,"id":"NSD","desc":"BEAVER TACAN"},
{"type":"NDB","hdg_t":95.7,"dist_nm":86.5,"freq":397,"lat":34.05647222,"lon":-117.36611111,"rng_nm":50,"alt_fmsl":0,"id":"SB","desc":"PETIS (LOM/NDB) NDB"},
{"type":"VOR","hdg_t":74.4,"dist_nm":87.6,"freq":109.4,"lat":34.59416667,"lon":-117.39000000,"rng_nm":25,"alt_fmsl":2855,"id":"VCV","desc":"VICTORVILLE VOR-DME"},
{"type":"SDME","hdg_t":100.9,"dist_nm":92.5,"freq":113,"lat":33.90646400,"lon":-117.27503300,"rng_nm":25,"alt_fmsl":1540,"id":"RIV","desc":"MARCH TACAN"},
{"type":"VOR","hdg_t":333.3,"dist_nm":96.3,"freq":117.1,"lat":35.64697222,"lon":-119.97861111,"rng_nm":130,"alt_fmsl":710,"id":"AVE","desc":"AVENAL VORTAC"},
{"type":"VOR","hdg_t":104.8,"dist_nm":98.7,"freq":113.4,"lat":33.77633333,"lon":-117.18533333,"rng_nm":25,"alt_fmsl":0,"id":"HDF","desc":"HOMELAND VOR"}
]
}
