{"success":true,"source":"xp2csv.pl","last_updated":"2013/11/08 14:53:21 UTC"
,"icao":"KCMH","name":"Port Columbus Intl","lat":39.99847375,"lon":-82.89215825,"rwys":2,"ils":2,"index":1597560,"path":"w090n30/w083n39"
,"runways":[
{"len_m":3086,"wid_m":45.72,"hdg":94,"surf":"Asphalt","rwy1":"10R","lat1":39.99556900,"lon1":-82.90893900,"rwy2":"28L","lat2":39.99353100,"lon2":-82.87289700},
{"len_m":2438,"wid_m":45.72,"hdg":94,"surf":"Asphalt","rwy1":"10L","lat1":40.00320300,"lon1":-82.90763900,"rwy2":"28R","lat2":40.00159200,"lon2":-82.87915800}
]
,"radios":[
{"type":"ATIS","freq":124.6,"desc":"ATIS"},
{"type":"CTAF","freq":122.95,"desc":"UNICOM"},
{"type":"CLD","freq":126.3,"desc":"CLNC DEL"},
{"type":"GND","freq":121.9,"desc":"GND"},
{"type":"TWR","freq":132.7,"desc":"TWR"},
{"type":"APP","freq":118.2,"desc":"COLUMBUS APP/DEP"},
{"type":"APP","freq":119.15,"desc":"COLUMBUS APP/DEP"},
{"type":"APP","freq":119.65,"desc":"COLUMBUS APP/DEP"},
{"type":"APP","freq":125.95,"desc":"COLUMBUS APP/DEP"}
]
,"ils":[
{"type":"ILS","freq":109.1,"lat":40.00138900,"lon":-82.87556400,"rng_nm":18,"alt_fmsl":799,"hdg":94.23,"id":"ICBP","rwy":"10L","desc":"ILS-cat-I"},
{"type":"ILS","freq":108.7,"lat":39.99332800,"lon":-82.86931400,"rng_nm":18,"alt_fmsl":815,"hdg":94.23,"id":"IAQI","rwy":"10R","desc":"ILS-cat-I"},
{"type":"ILS","freq":108.7,"lat":39.99577200,"lon":-82.91256100,"rng_nm":18,"alt_fmsl":804,"hdg":274.20,"id":"ICMH","rwy":"28L","desc":"ILS-cat-I"},
{"type":"ILS","freq":109.1,"lat":40.00340800,"lon":-82.91126700,"rng_nm":18,"alt_fmsl":808,"hdg":274.21,"id":"IONB","rwy":"28R","desc":"ILS-cat-I"},
{"type":"GS","freq":109.1,"lat":40.00396700,"lon":-82.90413100,"rng_nm":10,"alt_fmsl":815,"id":"ICBP","rwy":"10L","desc":"GS","gs":3},
{"type":"GS","freq":108.7,"lat":39.99442500,"lon":-82.90573600,"rng_nm":10,"alt_fmsl":805,"id":"IAQI","rwy":"10R","desc":"GS","gs":3},
{"type":"GS","freq":108.7,"lat":39.99483100,"lon":-82.87644200,"rng_nm":10,"alt_fmsl":812,"id":"ICMH","rwy":"28L","desc":"GS","gs":3},
{"type":"GS","freq":109.1,"lat":40.00253900,"lon":-82.88249700,"rng_nm":10,"alt_fmsl":808,"id":"IONB","rwy":"28R","desc":"GS","gs":3},
{"type":"OM","freq":0,"lat":40.01012800,"lon":-83.02896100,"rng_nm":0,"alt_fmsl":799,"id":"----","rwy":"10L","desc":"OM"},
{"type":"OM","freq":0,"lat":40.00144200,"lon":-83.02929400,"rng_nm":0,"alt_fmsl":815,"id":"----","rwy":"10R","desc":"OM"},
{"type":"OM","freq":0,"lat":39.98623100,"lon":-82.75450600,"rng_nm":0,"alt_fmsl":804,"id":"----","rwy":"28L","desc":"OM"},
{"type":"OM","freq":0,"lat":39.99618300,"lon":-82.77192500,"rng_nm":0,"alt_fmsl":808,"id":"----","rwy":"28R","desc":"OM"},
{"type":"MM","freq":0,"lat":40.00359200,"lon":-82.91451400,"rng_nm":0,"alt_fmsl":799,"id":"----","rwy":"10L","desc":"MM"},
{"type":"MM","freq":0,"lat":39.99614400,"lon":-82.91926400,"rng_nm":0,"alt_fmsl":815,"id":"----","rwy":"10R","desc":"MM"},
{"type":"MM","freq":0,"lat":39.99301100,"lon":-82.86337800,"rng_nm":0,"alt_fmsl":804,"id":"----","rwy":"28L","desc":"MM"},
{"type":"DME","freq":109.1,"lat":40.00269200,"lon":-82.91139700,"rng_nm":18,"alt_fmsl":822,"id":"ICBP","rwy":"10L","desc":"DME-ILS"},
{"type":"DME","freq":108.7,"lat":39.99661700,"lon":-82.91294400,"rng_nm":18,"alt_fmsl":820,"id":"IAQI","rwy":"10R","desc":"DME-ILS"},
{"type":"DME","freq":108.7,"lat":39.99661700,"lon":-82.91294400,"rng_nm":18,"alt_fmsl":820,"id":"ICMH","rwy":"28L","desc":"DME-ILS"},
{"type":"DME","freq":109.1,"lat":40.00269200,"lon":-82.91139700,"rng_nm":18,"alt_fmsl":822,"id":"IONB","rwy":"28R","desc":"DME-ILS"}
]
,"navaids":[
{"type":"NDB","hdg_t":276.3,"dist_nm":6.3,"freq":272,"lat":40.01013889,"lon":-83.02897222,"rng_nm":50,"alt_fmsl":0,"id":"CHC","desc":"GRENS NDB"},
{"type":"NDB","hdg_t":276.3,"dist_nm":6.3,"freq":272,"lat":40.01013889,"lon":-83.02897222,"rng_nm":50,"alt_fmsl":0,"id":"CB","desc":"GRENS NDB"},
{"type":"NDB","hdg_t":96.5,"dist_nm":6.3,"freq":391,"lat":39.98622222,"lon":-82.75450000,"rng_nm":50,"alt_fmsl":0,"id":"CM","desc":"SUMIE NDB"},
{"type":"NDB","hdg_t":159.7,"dist_nm":7.5,"freq":376,"lat":39.88105556,"lon":-82.83608333,"rng_nm":50,"alt_fmsl":0,"id":"LC","desc":"PICKL NDB"},
{"type":"NDB","hdg_t":287.8,"dist_nm":14.7,"freq":515,"lat":40.07363889,"lon":-83.19805556,"rng_nm":50,"alt_fmsl":0,"id":"OS","desc":"FULER NDB"},
{"type":"NDB","hdg_t":201.1,"dist_nm":16.4,"freq":253,"lat":39.74294444,"lon":-83.02033333,"rng_nm":50,"alt_fmsl":0,"id":"DD","desc":"COBBS NDB"},
{"type":"VOR","hdg_t":56.7,"dist_nm":16.7,"freq":116.7,"lat":40.15105556,"lon":-82.58830556,"rng_nm":130,"alt_fmsl":1350,"id":"APE","desc":"APPLETON VORTAC"},
{"type":"NDB","hdg_t":233.4,"dist_nm":17.9,"freq":230,"lat":39.81925000,"lon":-83.20488889,"rng_nm":50,"alt_fmsl":0,"id":"BU","desc":"BOUTN NDB"},
{"type":"NDB","hdg_t":329.8,"dist_nm":19.3,"freq":215,"lat":40.27688889,"lon":-83.10372222,"rng_nm":50,"alt_fmsl":0,"id":"DLZ","desc":"DELAWARE NDB"},
{"type":"NDB","hdg_t":85.1,"dist_nm":19.8,"freq":524,"lat":40.02591667,"lon":-82.46352778,"rng_nm":50,"alt_fmsl":0,"id":"HEH","desc":"NEWARK NDB"},
{"type":"NDB","hdg_t":132.1,"dist_nm":22.2,"freq":338,"lat":39.74888889,"lon":-82.53530556,"rng_nm":50,"alt_fmsl":0,"id":"LH","desc":"CASER NDB"},
{"type":"NDB","hdg_t":303.1,"dist_nm":25.1,"freq":403,"lat":40.22672800,"lon":-83.34961400,"rng_nm":25,"alt_fmsl":997,"id":"MRT","desc":"MARYSVILLE NDB"},
{"type":"NDB","hdg_t":261.5,"dist_nm":26.6,"freq":263,"lat":39.93150000,"lon":-83.46397222,"rng_nm":50,"alt_fmsl":0,"id":"UYF","desc":"LONDON NDB"},
{"type":"VOR","hdg_t":188,"dist_nm":28.5,"freq":112.5,"lat":39.52688889,"lon":-82.97794444,"rng_nm":25,"alt_fmsl":0,"id":"XUB","desc":"YELLOW BUD VOR"},
{"type":"NDB","hdg_t":224.2,"dist_nm":33.1,"freq":414,"lat":39.60086111,"lon":-83.39161111,"rng_nm":50,"alt_fmsl":0,"id":"CSS","desc":"COURT HOUSE NDB"},
{"type":"NDB","hdg_t":190.7,"dist_nm":34.1,"freq":236,"lat":39.43819444,"lon":-83.02877778,"rng_nm":50,"alt_fmsl":0,"id":"RZT","desc":"ROSS CO NDB"},
{"type":"VOR","hdg_t":348,"dist_nm":37.8,"freq":109.8,"lat":40.61658333,"lon":-83.06383333,"rng_nm":25,"alt_fmsl":0,"id":"BUD","desc":"BUCKEYE VOR"},
{"type":"NDB","hdg_t":259.9,"dist_nm":41.6,"freq":341,"lat":39.87363889,"lon":-83.77958333,"rng_nm":50,"alt_fmsl":0,"id":"CCJ","desc":"CLARK CO NDB"},
{"type":"VOR","hdg_t":51.6,"dist_nm":44.6,"freq":116.5,"lat":40.45802778,"lon":-82.12683333,"rng_nm":40,"alt_fmsl":1340,"id":"TVT","desc":"TIVERTON VOR-DME"},
{"type":"NDB","hdg_t":308,"dist_nm":45,"freq":326,"lat":40.45894444,"lon":-83.66800000,"rng_nm":50,"alt_fmsl":0,"id":"RUV","desc":"RUSHSYLVANIA NDB"},
{"type":"VOR","hdg_t":257.8,"dist_nm":45,"freq":113.2,"lat":39.83652778,"lon":-83.84497222,"rng_nm":25,"alt_fmsl":1047,"id":"SGH","desc":"SPRINGFIELD VOR-DME"},
{"type":"NDB","hdg_t":96.7,"dist_nm":45.2,"freq":204,"lat":39.90630556,"lon":-81.91927778,"rng_nm":50,"alt_fmsl":0,"id":"HRA","desc":"ZANESVILLE NDB"},
{"type":"VOR","hdg_t":93.9,"dist_nm":46.2,"freq":111.4,"lat":39.94086111,"lon":-81.89261111,"rng_nm":40,"alt_fmsl":898,"id":"ZZV","desc":"ZANESVILLE VOR-DME"},
{"type":"NDB","hdg_t":232.5,"dist_nm":49.5,"freq":407,"lat":39.49311111,"lon":-83.73816667,"rng_nm":50,"alt_fmsl":0,"id":"IL","desc":"AIRBO NDB"},
{"type":"NDB","hdg_t":182.1,"dist_nm":49.8,"freq":385,"lat":39.16691667,"lon":-82.93219444,"rng_nm":50,"alt_fmsl":0,"id":"EOP","desc":"WAVERLY NDB"},
{"type":"NDB","hdg_t":23.8,"dist_nm":50.3,"freq":372,"lat":40.76633333,"lon":-82.44513889,"rng_nm":50,"alt_fmsl":0,"id":"MF","desc":"MANNS NDB"},
{"type":"NDB","hdg_t":250.8,"dist_nm":50.8,"freq":395,"lat":39.71506100,"lon":-83.92993100,"rng_nm":25,"alt_fmsl":970,"id":"XEN","desc":"XENIA NDB"},
{"type":"VOR","hdg_t":14.7,"dist_nm":53.9,"freq":108.8,"lat":40.86861111,"lon":-82.59097222,"rng_nm":40,"alt_fmsl":1210,"id":"MFD","desc":"MANSFIELD VORTAC"},
{"type":"VOR","hdg_t":231.2,"dist_nm":54.1,"freq":112.9,"lat":39.42969444,"lon":-83.80125000,"rng_nm":25,"alt_fmsl":1050,"id":"MXQ","desc":"MIDWEST VOR-DME"},
{"type":"SDME","hdg_t":259,"dist_nm":54.7,"freq":115.2,"lat":39.81897800,"lon":-84.05548100,"rng_nm":25,"alt_fmsl":804,"id":"FFO","desc":"PATTERSON TACAN"},
{"type":"VOR","hdg_t":288.5,"dist_nm":55.7,"freq":117.5,"lat":40.28780556,"lon":-84.04313889,"rng_nm":130,"alt_fmsl":1083,"id":"ROD","desc":"ROSEWOOD VORTAC"},
{"type":"NDB","hdg_t":141.1,"dist_nm":56.8,"freq":250,"lat":39.25725000,"lon":-82.12597222,"rng_nm":50,"alt_fmsl":0,"id":"UGS","desc":"UNIVERSITY NDB"},
{"type":"NDB","hdg_t":211.9,"dist_nm":57.3,"freq":278,"lat":39.18472222,"lon":-83.54297222,"rng_nm":50,"alt_fmsl":0,"id":"HOC","desc":"HILLSBORO NDB"},
{"type":"NDB","hdg_t":229.9,"dist_nm":59.7,"freq":299,"lat":39.35344444,"lon":-83.87577778,"rng_nm":50,"alt_fmsl":0,"id":"HW","desc":"CUBLA NDB"},
{"type":"NDB","hdg_t":26.6,"dist_nm":64.8,"freq":329,"lat":40.96333333,"lon":-82.25336111,"rng_nm":50,"alt_fmsl":0,"id":"AAU","desc":"ASHLAND NDB"},
{"type":"VOR","hdg_t":311,"dist_nm":65.1,"freq":108.4,"lat":40.70711111,"lon":-83.96816667,"rng_nm":25,"alt_fmsl":0,"id":"AOH","desc":"ALLEN CO VOR"},
{"type":"VOR","hdg_t":77.5,"dist_nm":66.6,"freq":111.8,"lat":40.22922222,"lon":-81.47647222,"rng_nm":40,"alt_fmsl":1180,"id":"CTW","desc":"NEWCOMERSTOWN VOR-DME"},
{"type":"NDB","hdg_t":262.6,"dist_nm":67.2,"freq":315,"lat":39.84702778,"lon":-84.33480556,"rng_nm":50,"alt_fmsl":0,"id":"AT","desc":"BRUNY NDB"},
{"type":"NDB","hdg_t":347.4,"dist_nm":67.3,"freq":269,"lat":41.09466667,"lon":-83.21497222,"rng_nm":50,"alt_fmsl":0,"id":"TII","desc":"TIFFIN NDB"},
{"type":"NDB","hdg_t":197.5,"dist_nm":67.6,"freq":329,"lat":38.92119444,"lon":-83.32686111,"rng_nm":50,"alt_fmsl":0,"id":"PZO","desc":"PEEBLES NDB"},
{"type":"VOR","hdg_t":271.3,"dist_nm":69.3,"freq":114.5,"lat":40.01641667,"lon":-84.39686111,"rng_nm":40,"alt_fmsl":990,"id":"DQN","desc":"DAYTON VOR-DME"},
{"type":"VOR","hdg_t":325.6,"dist_nm":69.6,"freq":108.2,"lat":40.95533333,"lon":-83.75602778,"rng_nm":40,"alt_fmsl":820,"id":"FBC","desc":"FLAG CITY VORTAC"},
{"type":"VOR","hdg_t":330.1,"dist_nm":70.4,"freq":114.9,"lat":41.01488889,"lon":-83.66433333,"rng_nm":25,"alt_fmsl":0,"id":"MAH","desc":"MARATHON VOR"},
{"type":"NDB","hdg_t":330.1,"dist_nm":70.8,"freq":334,"lat":41.02111111,"lon":-83.66911111,"rng_nm":50,"alt_fmsl":0,"id":"BNR","desc":"BENTON RIDGE NDB"},
{"type":"NDB","hdg_t":249.6,"dist_nm":70.8,"freq":223,"lat":39.57825000,"lon":-84.32347222,"rng_nm":50,"alt_fmsl":0,"id":"MW","desc":"ONIDA NDB"},
{"type":"NDB","hdg_t":42.3,"dist_nm":71.5,"freq":400,"lat":40.87505600,"lon":-81.83319200,"rng_nm":25,"alt_fmsl":1170,"id":"SLW","desc":"SMITHVILLE NDB"},
{"type":"NDB","hdg_t":342.2,"dist_nm":75,"freq":379,"lat":41.18933333,"lon":-83.39713889,"rng_nm":50,"alt_fmsl":0,"id":"FZI","desc":"FOSTORIA NDB"},
{"type":"NDB","hdg_t":204.7,"dist_nm":75.3,"freq":359,"lat":38.85541667,"lon":-83.56377778,"rng_nm":50,"alt_fmsl":0,"id":"AMT","desc":"WEST UNION NDB"},
{"type":"NDB","hdg_t":279.9,"dist_nm":76,"freq":356,"lat":40.20616667,"lon":-84.52272222,"rng_nm":50,"alt_fmsl":0,"id":"VES","desc":"VERSAILLES NDB"},
{"type":"NDB","hdg_t":153.8,"dist_nm":77.6,"freq":420,"lat":38.83341667,"lon":-82.16152778,"rng_nm":50,"alt_fmsl":0,"id":"GAS","desc":"GALLIPOLIS NDB"},
{"type":"VOR","hdg_t":114.9,"dist_nm":77.7,"freq":108.6,"lat":39.44116667,"lon":-81.37475000,"rng_nm":40,"alt_fmsl":1030,"id":"JPU","desc":"PARKERSBURG VORTAC"},
{"type":"NDB","hdg_t":247.9,"dist_nm":77.9,"freq":239,"lat":39.49877778,"lon":-84.44752778,"rng_nm":50,"alt_fmsl":0,"id":"HKF","desc":"HOOK FLD NDB"},
{"type":"NDB","hdg_t":123.9,"dist_nm":79,"freq":388,"lat":39.25408333,"lon":-81.48494444,"rng_nm":50,"alt_fmsl":0,"id":"PK","desc":"VERSI NDB"},
{"type":"NDB","hdg_t":321.6,"dist_nm":79.3,"freq":233,"lat":41.03116400,"lon":-83.97522200,"rng_nm":25,"alt_fmsl":760,"id":"PDR","desc":"OTTAWA NDB"},
{"type":"VOR","hdg_t":55.9,"dist_nm":80.3,"freq":112.4,"lat":40.74069444,"lon":-81.43211111,"rng_nm":40,"alt_fmsl":1221,"id":"BSV","desc":"BRIGGS VOR-DME"},
{"type":"VOR","hdg_t":182.8,"dist_nm":81.2,"freq":112.8,"lat":38.64413889,"lon":-82.97833333,"rng_nm":40,"alt_fmsl":1040,"id":"YRK","desc":"YORK VORTAC"},
{"type":"NDB","hdg_t":214.9,"dist_nm":81.3,"freq":219,"lat":38.88201700,"lon":-83.88518100,"rng_nm":25,"alt_fmsl":954,"id":"GEO","desc":"GEORGETOWN NDB"},
{"type":"NDB","hdg_t":291.2,"dist_nm":82.1,"freq":205,"lat":40.48200000,"lon":-84.56438889,"rng_nm":50,"alt_fmsl":0,"id":"CQA","desc":"LAKEFIELD NDB"},
{"type":"NDB","hdg_t":236,"dist_nm":82.2,"freq":379,"lat":39.22275000,"lon":-84.35536111,"rng_nm":50,"alt_fmsl":0,"id":"MDE","desc":"MADEIRA NDB"},
{"type":"NDB","hdg_t":237.5,"dist_nm":82.6,"freq":388,"lat":39.24880556,"lon":-84.38961111,"rng_nm":50,"alt_fmsl":0,"id":"ISZ","desc":"CINCINNATI-BLUE A NDB"},
{"type":"NDB","hdg_t":228.4,"dist_nm":82.6,"freq":245,"lat":39.07669444,"lon":-84.21541667,"rng_nm":50,"alt_fmsl":0,"id":"PWF","desc":"SPORTYS NDB"},
{"type":"NDB","hdg_t":233.6,"dist_nm":83.9,"freq":335,"lat":39.15966667,"lon":-84.34127778,"rng_nm":50,"alt_fmsl":0,"id":"LUK","desc":"CINCINNATI NDB"},
{"type":"VOR","hdg_t":151.3,"dist_nm":84.7,"freq":115.9,"lat":38.75411111,"lon":-82.02616667,"rng_nm":130,"alt_fmsl":880,"id":"HNN","desc":"HENDERSON VORTAC"},
{"type":"NDB","hdg_t":244.8,"dist_nm":86.3,"freq":260,"lat":39.37288889,"lon":-84.57211111,"rng_nm":50,"alt_fmsl":0,"id":"HAO","desc":"HAMILTON NDB"},
{"type":"VOR","hdg_t":7,"dist_nm":86.7,"freq":109.2,"lat":41.43447222,"lon":-82.65480556,"rng_nm":40,"alt_fmsl":580,"id":"SKY","desc":"SANDUSKY VOR-DME"},
{"type":"NDB","hdg_t":80,"dist_nm":87.6,"freq":239,"lat":40.23672222,"lon":-81.01313889,"rng_nm":50,"alt_fmsl":0,"id":"CFX","desc":"CADIZ NDB"},
{"type":"VOR","hdg_t":22,"dist_nm":88,"freq":113.6,"lat":41.35805556,"lon":-82.16197222,"rng_nm":130,"alt_fmsl":780,"id":"DJB","desc":"DRYER VOR-DME"},
{"type":"NDB","hdg_t":67.3,"dist_nm":89.9,"freq":395,"lat":40.56263300,"lon":-81.07759700,"rng_nm":25,"alt_fmsl":1184,"id":"TSO","desc":"TOLSON NDB"},
{"type":"NDB","hdg_t":27.4,"dist_nm":90.8,"freq":344,"lat":41.33862800,"lon":-81.96443300,"rng_nm":50,"alt_fmsl":800,"id":"CL","desc":"HARRI NDB"},
{"type":"VOR","hdg_t":261.4,"dist_nm":91,"freq":110.6,"lat":39.75502778,"lon":-84.83886111,"rng_nm":40,"alt_fmsl":1135,"id":"RID","desc":"RICHMOND VORTAC"},
{"type":"NDB","hdg_t":0.6,"dist_nm":91.1,"freq":423,"lat":41.51858333,"lon":-82.86872222,"rng_nm":50,"alt_fmsl":0,"id":"PCW","desc":"PORT CLINTON NDB"},
{"type":"NDB","hdg_t":251.9,"dist_nm":92.2,"freq":282,"lat":39.50755556,"lon":-84.78063889,"rng_nm":50,"alt_fmsl":0,"id":"OXD","desc":"OXFORD NDB"},
{"type":"NDB","hdg_t":202.6,"dist_nm":92.3,"freq":400,"lat":38.57358333,"lon":-83.64702778,"rng_nm":50,"alt_fmsl":0,"id":"XW","desc":"FLMNG NDB"},
{"type":"VOR","hdg_t":338.8,"dist_nm":93.5,"freq":113.1,"lat":41.45147222,"lon":-83.63869444,"rng_nm":40,"alt_fmsl":664,"id":"VWV","desc":"WATERVILLE VOR-DME"},
{"type":"NDB","hdg_t":46.4,"dist_nm":94.1,"freq":362,"lat":41.06975000,"lon":-81.38747222,"rng_nm":50,"alt_fmsl":0,"id":"AK","desc":"AKRON NDB"},
{"type":"NDB","hdg_t":303.8,"dist_nm":94.3,"freq":411,"lat":40.86255556,"lon":-84.61383333,"rng_nm":50,"alt_fmsl":0,"id":"VFU","desc":"STANLEY NDB"},
{"type":"VOR","hdg_t":88.6,"dist_nm":95.6,"freq":117.1,"lat":40.01702778,"lon":-80.81725000,"rng_nm":130,"alt_fmsl":1290,"id":"AIR","desc":"BELLAIRE VOR-DME"},
{"type":"NDB","hdg_t":204.7,"dist_nm":96.1,"freq":400,"lat":38.53813200,"lon":-83.74686400,"rng_nm":25,"alt_fmsl":921,"id":"FGX","desc":"FLEMINGSBURG NDB"},
{"type":"NDB","hdg_t":286.5,"dist_nm":99.9,"freq":257,"lat":40.45366400,"lon":-84.98355000,"rng_nm":25,"alt_fmsl":959,"id":"PLD","desc":"PORTLAND NDB"}
]
}
