{"success":true,"source":"xp2csv.pl","last_updated":"2013/11/08 14:53:21 UTC"
,"icao":"KCPU","name":"Calaveras Co Maury Rasmussen Fld","lat":38.1461165,"lon":-120.6481735,"rwys":1,"ils":0,"index":974857,"path":"w130n30/w121n38"
,"runways":[
{"len_m":1097,"wid_m":18.29,"hdg":145,"surf":"Asphalt","rwy1":"13","lat1":38.15021100,"lon1":-120.65168600,"rwy2":"31","lat2":38.14202200,"lon2":-120.64466100}
]
,"radios":[
{"type":"ATIS","freq":118.52,"desc":"AWOS 3"},
{"type":"CTAF","freq":122.8,"desc":"CTAF/UNICOM"}
]
,"navaids":[
{"type":"VOR","hdg_t":255.8,"dist_nm":17.3,"freq":114.8,"lat":38.07458333,"lon":-121.00386111,"rng_nm":130,"alt_fmsl":260,"id":"LIN","desc":"LINDEN VORTAC"},
{"type":"VOR","hdg_t":233.1,"dist_nm":31,"freq":116,"lat":37.83361111,"lon":-121.17138889,"rng_nm":130,"alt_fmsl":47,"id":"ECA","desc":"MANTECA VOR-DME"},
{"type":"VOR","hdg_t":205.4,"dist_nm":34.3,"freq":114.6,"lat":37.62736111,"lon":-120.95786111,"rng_nm":130,"alt_fmsl":93,"id":"MOD","desc":"MODESTO VOR-DME"},
{"type":"VOR","hdg_t":352.2,"dist_nm":35,"freq":115.5,"lat":38.72472222,"lon":-120.74925000,"rng_nm":40,"alt_fmsl":2583,"id":"HNW","desc":"HANGTOWN VOR-DME"},
{"type":"NDB","hdg_t":196,"dist_nm":35.7,"freq":367,"lat":37.57311111,"lon":-120.85511111,"rng_nm":50,"alt_fmsl":0,"id":"MO","desc":"WOWAR NDB"},
{"type":"VOR","hdg_t":292.9,"dist_nm":46.2,"freq":115.2,"lat":38.44366667,"lon":-121.55161111,"rng_nm":130,"alt_fmsl":10,"id":"SAC","desc":"SACRAMENTO VORTAC"},
{"type":"NDB","hdg_t":234.5,"dist_nm":46.5,"freq":203,"lat":37.69238889,"lon":-121.44463889,"rng_nm":50,"alt_fmsl":0,"id":"TCY","desc":"TRACY NDB"},
{"type":"VOR","hdg_t":311.4,"dist_nm":47.4,"freq":109.2,"lat":38.66738889,"lon":-121.40416667,"rng_nm":25,"alt_fmsl":72,"id":"MCC","desc":"MC CLELLAN VOR-DME"},
{"type":"NDB","hdg_t":302.3,"dist_nm":53.1,"freq":400,"lat":38.61701700,"lon":-121.60329700,"rng_nm":25,"alt_fmsl":15,"id":"HU","desc":"LANEE NDB"},
{"type":"NDB","hdg_t":241.3,"dist_nm":56.2,"freq":374,"lat":37.69222222,"lon":-121.68408333,"rng_nm":50,"alt_fmsl":0,"id":"LV","desc":"REIGA NDB"},
{"type":"VOR","hdg_t":282.5,"dist_nm":56.2,"freq":116.4,"lat":38.34419444,"lon":-121.81072222,"rng_nm":40,"alt_fmsl":0,"id":"TZZ","desc":"TRAVIS VOR"},
{"type":"VOR","hdg_t":167.9,"dist_nm":56.7,"freq":114.2,"lat":37.21944444,"lon":-120.40022222,"rng_nm":40,"alt_fmsl":184,"id":"HYP","desc":"EL NIDO VOR-DME"},
{"type":"NDB","hdg_t":311.2,"dist_nm":59.3,"freq":230,"lat":38.79494444,"lon":-121.59936111,"rng_nm":50,"alt_fmsl":0,"id":"SM","desc":"METRE NDB"},
{"type":"SDME","hdg_t":275.9,"dist_nm":61.6,"freq":116.6,"lat":38.24555800,"lon":-121.94507200,"rng_nm":40,"alt_fmsl":32,"id":"SUU","desc":"TRAVIS TACAN"},
{"type":"VOR","hdg_t":15.8,"dist_nm":64.4,"freq":113.2,"lat":39.18033333,"lon":-120.26961111,"rng_nm":40,"alt_fmsl":8850,"id":"SWR","desc":"SQUAW VALLEY VOR-DME"},
{"type":"NDB","hdg_t":265.2,"dist_nm":65.8,"freq":335,"lat":38.04641667,"lon":-122.03344444,"rng_nm":50,"alt_fmsl":0,"id":"CC","desc":"KANAN NDB"},
{"type":"VOR","hdg_t":265.1,"dist_nm":66.4,"freq":117,"lat":38.04491667,"lon":-122.04519444,"rng_nm":25,"alt_fmsl":5,"id":"CCR","desc":"CONCORD VOR-DME"},
{"type":"SDME","hdg_t":328,"dist_nm":69.9,"freq":108.6,"lat":39.13475400,"lon":-121.44065500,"rng_nm":25,"alt_fmsl":165,"id":"BAB","desc":"BEALE TACAN"},
{"type":"VOR","hdg_t":322.9,"dist_nm":71.7,"freq":110.8,"lat":39.09863889,"lon":-121.57305556,"rng_nm":25,"alt_fmsl":62,"id":"MYV","desc":"MARYSVILLE VOR-DME"},
{"type":"NDB","hdg_t":323.9,"dist_nm":76.1,"freq":222,"lat":39.16939100,"lon":-121.60984800,"rng_nm":25,"alt_fmsl":64,"id":"MY","desc":"HALOW NDB"},
{"type":"VOR","hdg_t":233.5,"dist_nm":77,"freq":114.1,"lat":37.37472222,"lon":-121.94466667,"rng_nm":40,"alt_fmsl":43,"id":"SJC","desc":"SAN JOSE VOR-DME"},
{"type":"VOR","hdg_t":251.8,"dist_nm":78.9,"freq":116.8,"lat":37.72591667,"lon":-122.22358333,"rng_nm":130,"alt_fmsl":10,"id":"OAK","desc":"OAKLAND VORTAC"},
{"type":"SDME","hdg_t":237.8,"dist_nm":79.5,"freq":117.6,"lat":37.43240300,"lon":-122.05753900,"rng_nm":25,"alt_fmsl":0,"id":"NUQ","desc":"MOFFETT TACAN"},
{"type":"VOR","hdg_t":140.8,"dist_nm":80,"freq":115.6,"lat":37.10441667,"lon":-119.59544444,"rng_nm":40,"alt_fmsl":2380,"id":"FRA","desc":"FRIANT VORTAC"},
{"type":"VOR","hdg_t":271.9,"dist_nm":81.6,"freq":112.1,"lat":38.17936111,"lon":-122.37313889,"rng_nm":40,"alt_fmsl":6,"id":"SGD","desc":"SCAGGS ISLAND VORTAC"},
{"type":"VOR","hdg_t":310.9,"dist_nm":85.3,"freq":114.4,"lat":39.07113889,"lon":-122.02725000,"rng_nm":40,"alt_fmsl":50,"id":"ILA","desc":"WILLIAMS VORTAC"},
{"type":"VOR","hdg_t":152,"dist_nm":85.4,"freq":112.9,"lat":36.88433333,"lon":-119.81513889,"rng_nm":130,"alt_fmsl":360,"id":"CZQ","desc":"CLOVIS VORTAC"},
{"type":"VOR","hdg_t":184.2,"dist_nm":85.9,"freq":112.6,"lat":36.71547222,"lon":-120.77869444,"rng_nm":40,"alt_fmsl":2060,"id":"PXN","desc":"PANOCHE VORTAC"},
{"type":"VOR","hdg_t":249.4,"dist_nm":87.8,"freq":115.8,"lat":37.61947222,"lon":-122.37388889,"rng_nm":40,"alt_fmsl":13,"id":"SFO","desc":"SAN FRANCISCO VOR-DME"},
{"type":"VOR","hdg_t":240.3,"dist_nm":89.8,"freq":113.9,"lat":37.39250000,"lon":-122.28130556,"rng_nm":40,"alt_fmsl":2270,"id":"OSI","desc":"WOODSIDE VORTAC"},
{"type":"VOR","hdg_t":259.4,"dist_nm":90.5,"freq":116.2,"lat":37.85533333,"lon":-122.52275000,"rng_nm":40,"alt_fmsl":1040,"id":"SAU","desc":"SAUSALITO VORTAC"},
{"type":"NDB","hdg_t":26.3,"dist_nm":92,"freq":351,"lat":39.51954200,"lon":-119.76920600,"rng_nm":15,"alt_fmsl":4400,"id":"NO","desc":"Josef NDB"},
{"type":"NDB","hdg_t":217.2,"dist_nm":92.3,"freq":327,"lat":36.91355556,"lon":-121.80797222,"rng_nm":50,"alt_fmsl":0,"id":"PDG","desc":"PAJAR NDB"},
{"type":"NDB","hdg_t":155.2,"dist_nm":93.6,"freq":344,"lat":36.72394444,"lon":-119.83369444,"rng_nm":50,"alt_fmsl":0,"id":"FCH","desc":"CHANDLER NDB"},
{"type":"VOR","hdg_t":28.9,"dist_nm":95.1,"freq":117.9,"lat":39.53127778,"lon":-119.65608333,"rng_nm":130,"alt_fmsl":5949,"id":"FMG","desc":"MUSTANG VORTAC"},
{"type":"VOR","hdg_t":207.4,"dist_nm":99.8,"freq":117.3,"lat":36.66383333,"lon":-121.60319444,"rng_nm":130,"alt_fmsl":101,"id":"SNS","desc":"SALINAS VORTAC"}
]
}
