{"success":true,"source":"xp2csv.pl","last_updated":"2013/11/08 14:53:21 UTC"
,"icao":"KCQB","name":"Chandler Rgnl","lat":35.724082,"lon":-96.820278,"rwys":1,"ils":0,"index":1367912,"path":"w100n30/w097n35"
,"runways":[
{"len_m":1218,"wid_m":18.29,"hdg":180,"surf":"Asphalt","rwy1":"17","lat1":35.72957500,"lon1":-96.82025000,"rwy2":"35","lat2":35.71858900,"lon2":-96.82030600}
]
,"radios":[
{"type":"ATIS","freq":119.27,"desc":"AWOS 3"},
{"type":"CTAF","freq":122.9,"desc":"CTAF/UNICOM"}
]
,"navaids":[
{"type":"NDB","hdg_t":143.4,"dist_nm":0.1,"freq":396,"lat":35.72227778,"lon":-96.81863889,"rng_nm":50,"alt_fmsl":0,"id":"CQB","desc":"TILGHMAN NDB"},
{"type":"NDB","hdg_t":12.9,"dist_nm":10.2,"freq":242,"lat":35.89011111,"lon":-96.77333333,"rng_nm":50,"alt_fmsl":0,"id":"CUH","desc":"CUSHING NDB"},
{"type":"NDB","hdg_t":158.1,"dist_nm":13.3,"freq":314,"lat":35.51672222,"lon":-96.71863889,"rng_nm":50,"alt_fmsl":0,"id":"GGU","desc":"PRAGUE NDB"},
{"type":"NDB","hdg_t":200.1,"dist_nm":17.4,"freq":264,"lat":35.44983333,"lon":-96.94300000,"rng_nm":50,"alt_fmsl":0,"id":"HN","desc":"SUYBE NDB"},
{"type":"NDB","hdg_t":81.8,"dist_nm":19.5,"freq":251,"lat":35.76980000,"lon":-96.42472800,"rng_nm":25,"alt_fmsl":929,"id":"TZO","desc":"BRISTOW NDB"},
{"type":"NDB","hdg_t":165.2,"dist_nm":28,"freq":278,"lat":35.27175000,"lon":-96.67475000,"rng_nm":50,"alt_fmsl":0,"id":"SRE","desc":"SEMINOLE NDB"},
{"type":"NDB","hdg_t":284.2,"dist_nm":29.9,"freq":326,"lat":35.84555600,"lon":-97.41580600,"rng_nm":25,"alt_fmsl":1074,"id":"LCY","desc":"LOGAN COUNTY NDB"},
{"type":"SDME","hdg_t":237.9,"dist_nm":32.3,"freq":115.8,"lat":35.43650800,"lon":-97.37968900,"rng_nm":25,"alt_fmsl":1251,"id":"TIK","desc":"TINKER TACAN"},
{"type":"VOR","hdg_t":337,"dist_nm":32.5,"freq":108.4,"lat":36.22425000,"lon":-97.08125000,"rng_nm":25,"alt_fmsl":1022,"id":"SWO","desc":"STILLWATER VOR-DME"},
{"type":"NDB","hdg_t":337.1,"dist_nm":33.3,"freq":255,"lat":36.23616667,"lon":-97.08730556,"rng_nm":50,"alt_fmsl":0,"id":"SW","desc":"BLAKI NDB"},
{"type":"NDB","hdg_t":248.7,"dist_nm":41.2,"freq":406,"lat":35.47144444,"lon":-97.60544444,"rng_nm":50,"alt_fmsl":0,"id":"OK","desc":"TULOO NDB"},
{"type":"VOR","hdg_t":254.4,"dist_nm":42,"freq":113.4,"lat":35.53294444,"lon":-97.64716667,"rng_nm":25,"alt_fmsl":1271,"id":"PWA","desc":"WILEY POST VOR-DME"},
{"type":"NDB","hdg_t":50.1,"dist_nm":42.1,"freq":362,"lat":36.17297222,"lon":-96.15422222,"rng_nm":50,"alt_fmsl":0,"id":"OWP","desc":"WILLIAM POGUE NDB"},
{"type":"NDB","hdg_t":87.2,"dist_nm":42.6,"freq":388,"lat":35.75527778,"lon":-95.94872222,"rng_nm":50,"alt_fmsl":0,"id":"OK","desc":"PRESO NDB"},
{"type":"NDB","hdg_t":228.3,"dist_nm":42.7,"freq":370,"lat":35.24825000,"lon":-97.46997222,"rng_nm":50,"alt_fmsl":0,"id":"OUN","desc":"NORMAN NDB"},
{"type":"NDB","hdg_t":152.3,"dist_nm":43.1,"freq":411,"lat":35.08527778,"lon":-96.41366667,"rng_nm":50,"alt_fmsl":0,"id":"HDL","desc":"HOLDENVILLE NDB"},
{"type":"VOR","hdg_t":73.9,"dist_nm":43.1,"freq":110.6,"lat":35.92088889,"lon":-95.96863889,"rng_nm":25,"alt_fmsl":810,"id":"GNP","desc":"GLENPOOL VOR-DME"},
{"type":"NDB","hdg_t":115.6,"dist_nm":43.8,"freq":267,"lat":35.40455556,"lon":-96.01388889,"rng_nm":50,"alt_fmsl":0,"id":"HET","desc":"HENRYETTA NDB"},
{"type":"VOR","hdg_t":240.6,"dist_nm":44.4,"freq":114.1,"lat":35.35858333,"lon":-97.60922222,"rng_nm":130,"alt_fmsl":1230,"id":"IRW","desc":"WILL ROGERS VORTAC"},
{"type":"NDB","hdg_t":235.8,"dist_nm":45.5,"freq":350,"lat":35.29505556,"lon":-97.58866667,"rng_nm":50,"alt_fmsl":0,"id":"RG","desc":"GALLY NDB"},
{"type":"NDB","hdg_t":205.9,"dist_nm":46.2,"freq":512,"lat":35.02897222,"lon":-97.23047222,"rng_nm":50,"alt_fmsl":0,"id":"HMY","desc":"MULDROW NDB"},
{"type":"VOR","hdg_t":92,"dist_nm":46.6,"freq":114.9,"lat":35.69311111,"lon":-95.86597222,"rng_nm":130,"alt_fmsl":766,"id":"OKM","desc":"OKMULGEE VOR-DME"},
{"type":"NDB","hdg_t":63.5,"dist_nm":50.6,"freq":338,"lat":36.09738889,"lon":-95.88877778,"rng_nm":50,"alt_fmsl":0,"id":"TU","desc":"OILLR NDB"},
{"type":"VOR","hdg_t":172.3,"dist_nm":55.6,"freq":117.8,"lat":34.80255556,"lon":-96.67008333,"rng_nm":25,"alt_fmsl":987,"id":"ADH","desc":"ADA VOR-DME"},
{"type":"NDB","hdg_t":305.2,"dist_nm":57.6,"freq":341,"lat":36.27502778,"lon":-97.79077778,"rng_nm":50,"alt_fmsl":0,"id":"EI","desc":"GARFY NDB"},
{"type":"VOR","hdg_t":60.3,"dist_nm":57.6,"freq":114.4,"lat":36.19625000,"lon":-95.78808333,"rng_nm":130,"alt_fmsl":788,"id":"TUL","desc":"TULSA VORTAC"},
{"type":"NDB","hdg_t":52.4,"dist_nm":57.7,"freq":375,"lat":36.30738889,"lon":-95.87527778,"rng_nm":50,"alt_fmsl":0,"id":"DW","desc":"OWASO NDB"},
{"type":"VOR","hdg_t":275.1,"dist_nm":57.9,"freq":114.7,"lat":35.80527778,"lon":-98.00391667,"rng_nm":130,"alt_fmsl":1110,"id":"IFI","desc":"KINGFISHER VORTAC"},
{"type":"VOR","hdg_t":309.8,"dist_nm":61,"freq":109,"lat":36.37375000,"lon":-97.78816667,"rng_nm":25,"alt_fmsl":1149,"id":"ODG","desc":"WOODRING VOR-DME"},
{"type":"VOR","hdg_t":345,"dist_nm":63.4,"freq":113.2,"lat":36.74652778,"lon":-97.16016667,"rng_nm":130,"alt_fmsl":1054,"id":"PER","desc":"PIONEER VORTAC"},
{"type":"NDB","hdg_t":198.5,"dist_nm":63.6,"freq":384,"lat":34.71541667,"lon":-97.22891667,"rng_nm":50,"alt_fmsl":0,"id":"PVJ","desc":"PAULS VALLEY NDB"},
{"type":"VOR","hdg_t":305.1,"dist_nm":65.1,"freq":115.4,"lat":36.34497222,"lon":-97.91836111,"rng_nm":130,"alt_fmsl":1276,"id":"END","desc":"VANCE VORTAC"},
{"type":"NDB","hdg_t":348.4,"dist_nm":67.3,"freq":515,"lat":36.82502778,"lon":-97.10052778,"rng_nm":50,"alt_fmsl":0,"id":"PN","desc":"PONCA NDB"},
{"type":"VOR","hdg_t":92.5,"dist_nm":71,"freq":108.6,"lat":35.66315400,"lon":-95.36774700,"rng_nm":25,"alt_fmsl":610,"id":"MEE","desc":"DAVIS VOR"},
{"type":"VOR","hdg_t":135.4,"dist_nm":73.1,"freq":112,"lat":34.84944444,"lon":-95.78230556,"rng_nm":40,"alt_fmsl":820,"id":"MLC","desc":"MC ALESTER VORTAC"},
{"type":"NDB","hdg_t":138.1,"dist_nm":74.1,"freq":344,"lat":34.79777778,"lon":-95.82069444,"rng_nm":50,"alt_fmsl":0,"id":"ML","desc":"WAMPA NDB"},
{"type":"NDB","hdg_t":95.4,"dist_nm":75.3,"freq":306,"lat":35.59482000,"lon":-95.28718800,"rng_nm":25,"alt_fmsl":528,"id":"MKO","desc":"MUSKOGEE NDB"},
{"type":"VOR","hdg_t":30,"dist_nm":77,"freq":117.9,"lat":36.83425000,"lon":-96.01830556,"rng_nm":40,"alt_fmsl":940,"id":"BVO","desc":"BARTLESVILLE VOR-DME"},
{"type":"NDB","hdg_t":30.1,"dist_nm":77.4,"freq":201,"lat":36.83950000,"lon":-96.01397222,"rng_nm":50,"alt_fmsl":0,"id":"BV","desc":"DEWIE NDB"},
{"type":"NDB","hdg_t":276.4,"dist_nm":78.7,"freq":359,"lat":35.86198600,"lon":-98.42535000,"rng_nm":25,"alt_fmsl":1530,"id":"JWG","desc":"WATONGA NDB"},
{"type":"NDB","hdg_t":352.7,"dist_nm":82.4,"freq":353,"lat":37.08972222,"lon":-97.03625000,"rng_nm":50,"alt_fmsl":0,"id":"SO","desc":"SAWCY NDB"},
{"type":"NDB","hdg_t":293.1,"dist_nm":87.4,"freq":246,"lat":36.28516700,"lon":-98.47800000,"rng_nm":25,"alt_fmsl":1273,"id":"FAU","desc":"FAIRVIEW NDB"},
{"type":"NDB","hdg_t":81.6,"dist_nm":89.3,"freq":215,"lat":35.92722222,"lon":-95.00658333,"rng_nm":50,"alt_fmsl":0,"id":"TQH","desc":"TAHLEQUAH NDB"},
{"type":"NDB","hdg_t":183.5,"dist_nm":89.5,"freq":400,"lat":34.23233333,"lon":-96.93311111,"rng_nm":50,"alt_fmsl":0,"id":"AI","desc":"ADDMO NDB"},
{"type":"NDB","hdg_t":263.2,"dist_nm":91.2,"freq":272,"lat":35.53005200,"lon":-98.67062900,"rng_nm":25,"alt_fmsl":1581,"id":"OJA","desc":"WEATHERFORD NDB"},
{"type":"VOR","hdg_t":190.8,"dist_nm":92.2,"freq":116.7,"lat":34.21158333,"lon":-97.16822222,"rng_nm":130,"alt_fmsl":937,"id":"ADM","desc":"ARDMORE VORTAC"},
{"type":"NDB","hdg_t":31.8,"dist_nm":94.9,"freq":329,"lat":37.06583333,"lon":-95.77775000,"rng_nm":50,"alt_fmsl":0,"id":"ID","desc":"JEFFE NDB"},
{"type":"NDB","hdg_t":234.4,"dist_nm":96,"freq":388,"lat":34.78138889,"lon":-98.40230556,"rng_nm":50,"alt_fmsl":0,"id":"OFZ","desc":"TRAIL NDB"},
{"type":"VOR","hdg_t":214.2,"dist_nm":96.7,"freq":111,"lat":34.38447222,"lon":-97.91683333,"rng_nm":40,"alt_fmsl":1087,"id":"DUC","desc":"DUNCAN VOR-DME"},
{"type":"NDB","hdg_t":344.1,"dist_nm":99.7,"freq":414,"lat":37.32366667,"lon":-97.39019444,"rng_nm":50,"alt_fmsl":0,"id":"EGT","desc":"WELLINGTON NDB"}
]
}
