{"success":true,"source":"xp2csv.pl","last_updated":"2013/11/08 14:53:21 UTC"
,"icao":"KCVX","name":"Charlevoix Muni","lat":45.304804,"lon":-85.27320375,"rwys":2,"ils":0,"index":1548754,"path":"w090n40/w086n45"
,"runways":[
{"len_m":1386,"wid_m":22.86,"hdg":84,"surf":"Asphalt","rwy1":"09","lat1":45.30417500,"lon1":-85.28580600,"rwy2":"27","lat2":45.30534700,"lon2":-85.26820300},
{"len_m":389,"wid_m":60.96,"hdg":45,"surf":"Turf/grass","rwy1":"04","lat1":45.30361900,"lon1":-85.27117800,"rwy2":"22","lat2":45.30607500,"lon2":-85.26762800}
]
,"radios":[
{"type":"ATIS","freq":120,"desc":"AWOS 3"},
{"type":"CTAF","freq":122.8,"desc":"CTAF/UNICOM"}
]
,"navaids":[
{"type":"NDB","hdg_t":143.2,"dist_nm":0.2,"freq":392,"lat":45.30180556,"lon":-85.27002778,"rng_nm":50,"alt_fmsl":0,"id":"CVX","desc":"CHARLEVOIX NDB"},
{"type":"NDB","hdg_t":118.9,"dist_nm":17,"freq":263,"lat":45.16670000,"lon":-84.92192200,"rng_nm":25,"alt_fmsl":707,"id":"BFA","desc":"BOYNE FALLS NDB"},
{"type":"NDB","hdg_t":176.6,"dist_nm":24.3,"freq":251,"lat":44.89938889,"lon":-85.23966667,"rng_nm":50,"alt_fmsl":0,"id":"CXK","desc":"CLAM LAKE NDB"},
{"type":"NDB","hdg_t":332.7,"dist_nm":26.2,"freq":382,"lat":45.69333333,"lon":-85.55863889,"rng_nm":50,"alt_fmsl":0,"id":"SJX","desc":"ST JAMES NDB"},
{"type":"NDB","hdg_t":131.2,"dist_nm":26.3,"freq":375,"lat":45.01455556,"lon":-84.80797222,"rng_nm":50,"alt_fmsl":0,"id":"GL","desc":"BANGU NDB"},
{"type":"VOR","hdg_t":125.7,"dist_nm":29.8,"freq":109.2,"lat":45.01250000,"lon":-84.70427778,"rng_nm":40,"alt_fmsl":1318,"id":"GLR","desc":"GAYLORD VOR-DME"},
{"type":"VOR","hdg_t":52.5,"dist_nm":32.3,"freq":111.8,"lat":45.63063889,"lon":-84.66411111,"rng_nm":40,"alt_fmsl":840,"id":"PLN","desc":"PELLSTON VORTAC"},
{"type":"NDB","hdg_t":191,"dist_nm":34.8,"freq":365,"lat":44.73450000,"lon":-85.42927778,"rng_nm":50,"alt_fmsl":0,"id":"TV","desc":"GWENN NDB"},
{"type":"NDB","hdg_t":150.2,"dist_nm":38.3,"freq":359,"lat":44.74991667,"lon":-84.82827778,"rng_nm":50,"alt_fmsl":0,"id":"GYG","desc":"GRAYLING NDB"},
{"type":"VOR","hdg_t":197.2,"dist_nm":39.9,"freq":114.6,"lat":44.66791667,"lon":-85.55002778,"rng_nm":130,"alt_fmsl":912,"id":"TVC","desc":"TRAVERSE CITY VORTAC"},
{"type":"VOR","hdg_t":148,"dist_nm":43.9,"freq":109.8,"lat":44.68163889,"lon":-84.72894444,"rng_nm":25,"alt_fmsl":0,"id":"CGG","desc":"GRAYLING VOR"},
{"type":"VOR","hdg_t":317,"dist_nm":55.3,"freq":110.4,"lat":45.97633333,"lon":-86.17344444,"rng_nm":40,"alt_fmsl":680,"id":"ISQ","desc":"SCHOOLCRAFT CO VOR-DME"},
{"type":"VOR","hdg_t":352.5,"dist_nm":60.9,"freq":108.2,"lat":46.31244444,"lon":-85.46355556,"rng_nm":25,"alt_fmsl":869,"id":"ERY","desc":"NEWBERRY VOR-DME"},
{"type":"NDB","hdg_t":83.9,"dist_nm":61.8,"freq":215,"lat":45.40425000,"lon":-83.81844444,"rng_nm":50,"alt_fmsl":0,"id":"PZQ","desc":"ROGERS CITY NDB"},
{"type":"VOR","hdg_t":155.2,"dist_nm":62.4,"freq":111.6,"lat":44.35888889,"lon":-84.66572222,"rng_nm":25,"alt_fmsl":1145,"id":"HTL","desc":"HOUGHTON LAKE VOR-DME"},
{"type":"NDB","hdg_t":190.4,"dist_nm":65.1,"freq":336,"lat":44.23708333,"lon":-85.54736111,"rng_nm":50,"alt_fmsl":0,"id":"MA","desc":"WEXOR NDB"},
{"type":"NDB","hdg_t":26.1,"dist_nm":68.8,"freq":400,"lat":46.33252778,"lon":-84.54247222,"rng_nm":50,"alt_fmsl":0,"id":"CI","desc":"KOLOE NDB"},
{"type":"NDB","hdg_t":211.2,"dist_nm":72.3,"freq":254,"lat":44.27075000,"lon":-86.14286111,"rng_nm":50,"alt_fmsl":0,"id":"MB","desc":"JEPOT NDB"},
{"type":"VOR","hdg_t":99.7,"dist_nm":74,"freq":108.8,"lat":45.08277778,"lon":-83.55700000,"rng_nm":40,"alt_fmsl":677,"id":"APN","desc":"ALPENA VORTAC"},
{"type":"VOR","hdg_t":214.3,"dist_nm":74.8,"freq":111.4,"lat":44.27063889,"lon":-86.25405556,"rng_nm":40,"alt_fmsl":620,"id":"MBL","desc":"MANISTEE VOR-DME"},
{"type":"NDB","hdg_t":105.2,"dist_nm":75.6,"freq":206,"lat":44.96077778,"lon":-83.56008333,"rng_nm":50,"alt_fmsl":0,"id":"AP","desc":"FELPS NDB"},
{"type":"NDB","hdg_t":20.5,"dist_nm":77.5,"freq":286,"lat":46.51225600,"lon":-84.61492500,"rng_nm":25,"alt_fmsl":0,"id":"ZSM","desc":"GROS CAP NDB"},
{"type":"VOR","hdg_t":30.8,"dist_nm":77.6,"freq":112.2,"lat":46.41211111,"lon":-84.31486111,"rng_nm":130,"alt_fmsl":687,"id":"SSM","desc":"SAULT STE MARIE VOR-DME"},
{"type":"VOR","hdg_t":143.4,"dist_nm":78.9,"freq":113.2,"lat":44.24291667,"lon":-84.18377778,"rng_nm":25,"alt_fmsl":884,"id":"BXZ","desc":"PEACH LAKE VOR-DME"},
{"type":"VOR","hdg_t":288.7,"dist_nm":80.6,"freq":110.8,"lat":45.72263889,"lon":-87.08961111,"rng_nm":40,"alt_fmsl":594,"id":"ESC","desc":"ESCANABA VOR-DME"},
{"type":"NDB","hdg_t":140.8,"dist_nm":81.2,"freq":236,"lat":44.24863100,"lon":-84.08388600,"rng_nm":25,"alt_fmsl":800,"id":"BHW","desc":"HARDWOOD NDB"},
{"type":"NDB","hdg_t":287.6,"dist_nm":86,"freq":344,"lat":45.72272222,"lon":-87.22483333,"rng_nm":50,"alt_fmsl":0,"id":"ES","desc":"PIKLE NDB"},
{"type":"NDB","hdg_t":156.5,"dist_nm":87,"freq":209,"lat":43.97019444,"lon":-84.47516667,"rng_nm":50,"alt_fmsl":0,"id":"GDW","desc":"WIGGINS NDB"},
{"type":"NDB","hdg_t":211.5,"dist_nm":94,"freq":341,"lat":43.96316667,"lon":-86.40950000,"rng_nm":50,"alt_fmsl":0,"id":"LDM","desc":"LUDINGTON NDB"},
{"type":"VOR","hdg_t":121.9,"dist_nm":95.1,"freq":116.1,"lat":44.44913889,"lon":-83.39427778,"rng_nm":130,"alt_fmsl":625,"id":"ASP","desc":"AU SABLE VOR-DME"},
{"type":"NDB","hdg_t":253.6,"dist_nm":95.6,"freq":414,"lat":44.83688889,"lon":-87.42247222,"rng_nm":50,"alt_fmsl":0,"id":"SUE","desc":"STURGEON BAY NDB"},
{"type":"NDB","hdg_t":251.1,"dist_nm":98.2,"freq":224,"lat":44.75594444,"lon":-87.44922222,"rng_nm":50,"alt_fmsl":0,"id":"II","desc":"FICHY NDB"}
]
}
