{"success":true,"source":"xp2csv.pl","last_updated":"2013/11/08 14:53:21 UTC"
,"icao":"KCWS","name":"Dennis F Cantrell Fld","lat":35.080566,"lon":-92.4245305,"rwys":2,"ils":0,"index":1433410,"path":"w100n30/w093n35"
,"runways":[
{"len_m":1485,"wid_m":30.48,"hdg":78,"surf":"Asphalt","rwy1":"08","lat1":35.08148600,"lon1":-92.43216400,"rwy2":"26","lat2":35.08405800,"lon2":-92.41618300},
{"len_m":999,"wid_m":18.29,"hdg":183,"surf":"Asphalt","rwy1":"18","lat1":35.08285600,"lon1":-92.42457500,"rwy2":"36","lat2":35.07386400,"lon2":-92.42520000}
]
,"radios":[
{"type":"CTAF","freq":122.8,"desc":"CTAF/UNICOM"},
{"type":"CLD","freq":121.2,"desc":"LITTLE ROCK CLNC DEL"},
{"type":"APP","freq":119.5,"desc":"LITTLE ROCK APP/DEP"}
]
,"navaids":[
{"type":"NDB","hdg_t":330.9,"dist_nm":0.2,"freq":302,"lat":35.08397222,"lon":-92.42683333,"rng_nm":50,"alt_fmsl":0,"id":"CWS","desc":"CONWAY NDB"},
{"type":"NDB","hdg_t":284,"dist_nm":14.5,"freq":208,"lat":35.13925000,"lon":-92.71238600,"rng_nm":25,"alt_fmsl":320,"id":"BDQ","desc":"BRIDGE NDB"},
{"type":"SDME","hdg_t":126.4,"dist_nm":16.3,"freq":109.2,"lat":34.91806700,"lon":-92.15766700,"rng_nm":25,"alt_fmsl":328,"id":"LRF","desc":"JACKSONVILLE TACAN"},
{"type":"NDB","hdg_t":110.9,"dist_nm":21.3,"freq":290,"lat":34.95250000,"lon":-92.01950000,"rng_nm":50,"alt_fmsl":0,"id":"TYV","desc":"TONEYVILLE NDB"},
{"type":"NDB","hdg_t":275.4,"dist_nm":24.7,"freq":410,"lat":35.11869444,"lon":-92.92516667,"rng_nm":50,"alt_fmsl":0,"id":"MPJ","desc":"MORRILTON NDB"},
{"type":"NDB","hdg_t":166.5,"dist_nm":25.3,"freq":353,"lat":34.66900000,"lon":-92.30547222,"rng_nm":50,"alt_fmsl":0,"id":"LI","desc":"LASKY NDB"},
{"type":"VOR","hdg_t":153.4,"dist_nm":26.9,"freq":113.9,"lat":34.67766667,"lon":-92.18052778,"rng_nm":130,"alt_fmsl":240,"id":"LIT","desc":"LITTLE ROCK VORTAC"},
{"type":"NDB","hdg_t":37.8,"dist_nm":32.9,"freq":256,"lat":35.51432800,"lon":-92.01106500,"rng_nm":25,"alt_fmsl":625,"id":"HBZ","desc":"HEBER SPRINGS NDB"},
{"type":"NDB","hdg_t":287.9,"dist_nm":34.6,"freq":379,"lat":35.25708333,"lon":-93.09461111,"rng_nm":50,"alt_fmsl":0,"id":"RUE","desc":"RUSSELLVILLE NDB"},
{"type":"NDB","hdg_t":76.7,"dist_nm":34.9,"freq":323,"lat":35.21203100,"lon":-91.73263600,"rng_nm":25,"alt_fmsl":260,"id":"SRC","desc":"SEARCY NDB"},
{"type":"NDB","hdg_t":200.5,"dist_nm":47.7,"freq":215,"lat":34.33342800,"lon":-92.76238900,"rng_nm":25,"alt_fmsl":535,"id":"MVQ","desc":"MALVERN NDB"},
{"type":"NDB","hdg_t":120.9,"dist_nm":48.1,"freq":269,"lat":34.66377778,"lon":-91.59044444,"rng_nm":50,"alt_fmsl":0,"id":"SGT","desc":"STUTTGART NDB"},
{"type":"NDB","hdg_t":39.3,"dist_nm":48.3,"freq":335,"lat":35.70322222,"lon":-91.79769444,"rng_nm":50,"alt_fmsl":0,"id":"BV","desc":"ALMND NDB"},
{"type":"VOR","hdg_t":222.5,"dist_nm":48.8,"freq":110,"lat":34.47858333,"lon":-93.09061111,"rng_nm":40,"alt_fmsl":528,"id":"HOT","desc":"HOT SPRINGS VOR-DME"},
{"type":"NDB","hdg_t":18.8,"dist_nm":49.8,"freq":348,"lat":35.86757500,"lon":-92.09459700,"rng_nm":25,"alt_fmsl":783,"id":"VLX","desc":"WILCOX NDB"},
{"type":"NDB","hdg_t":129.3,"dist_nm":54,"freq":338,"lat":34.50580556,"lon":-91.58177778,"rng_nm":50,"alt_fmsl":0,"id":"TT","desc":"STUTT NDB"},
{"type":"NDB","hdg_t":295.6,"dist_nm":54.3,"freq":201,"lat":35.46925000,"lon":-93.42352778,"rng_nm":50,"alt_fmsl":0,"id":"CZE","desc":"CLARKSVILLE NDB"},
{"type":"NDB","hdg_t":224,"dist_nm":54.6,"freq":385,"lat":34.42261111,"lon":-93.18963889,"rng_nm":50,"alt_fmsl":0,"id":"HO","desc":"HOSSY NDB"},
{"type":"VOR","hdg_t":153.5,"dist_nm":55.7,"freq":116,"lat":34.24675000,"lon":-91.92616667,"rng_nm":40,"alt_fmsl":210,"id":"PBF","desc":"PINE BLUFF VOR-DME"},
{"type":"NDB","hdg_t":60.7,"dist_nm":69.6,"freq":400,"lat":35.64202200,"lon":-91.18068100,"rng_nm":25,"alt_fmsl":237,"id":"EWP","desc":"NEWPORT NDB"},
{"type":"NDB","hdg_t":208.9,"dist_nm":70,"freq":275,"lat":34.05561111,"lon":-93.10519444,"rng_nm":50,"alt_fmsl":0,"id":"ADF","desc":"ARKADELPHIA NDB"},
{"type":"VOR","hdg_t":358.7,"dist_nm":73,"freq":112.8,"lat":36.29963889,"lon":-92.45838889,"rng_nm":40,"alt_fmsl":780,"id":"FLP","desc":"FLIPPIN VOR-DME"},
{"type":"NDB","hdg_t":331.8,"dist_nm":75.6,"freq":395,"lat":36.19105556,"lon":-93.16019444,"rng_nm":50,"alt_fmsl":0,"id":"HR","desc":"BAKKY NDB"},
{"type":"VOR","hdg_t":332.7,"dist_nm":83.5,"freq":112.5,"lat":36.31830556,"lon":-93.21327778,"rng_nm":40,"alt_fmsl":1400,"id":"HRO","desc":"HARRISON VOR-DME"},
{"type":"NDB","hdg_t":148,"dist_nm":84.2,"freq":305,"lat":33.88440800,"lon":-91.53151400,"rng_nm":25,"alt_fmsl":163,"id":"DZM","desc":"DUMAS NDB"},
{"type":"NDB","hdg_t":248.7,"dist_nm":87.6,"freq":352,"lat":34.53919444,"lon":-94.07263889,"rng_nm":50,"alt_fmsl":0,"id":"VM","desc":"FENCH NDB"},
{"type":"NDB","hdg_t":248.7,"dist_nm":87.6,"freq":259,"lat":34.53910800,"lon":-94.07298100,"rng_nm":25,"alt_fmsl":0,"id":"VM","desc":"MEANA NDB"},
{"type":"NDB","hdg_t":191,"dist_nm":89.5,"freq":335,"lat":33.61353100,"lon":-92.76752200,"rng_nm":25,"alt_fmsl":0,"id":"CDH","desc":"CAMDEN NDB"},
{"type":"NDB","hdg_t":281,"dist_nm":89.6,"freq":223,"lat":35.35419444,"lon":-94.21700000,"rng_nm":50,"alt_fmsl":0,"id":"FS","desc":"WIZER NDB"},
{"type":"VOR","hdg_t":108.8,"dist_nm":91.5,"freq":109.6,"lat":34.57505556,"lon":-90.67438889,"rng_nm":40,"alt_fmsl":241,"id":"UJM","desc":"MARVELL VOR-DME"},
{"type":"NDB","hdg_t":108.9,"dist_nm":91.6,"freq":251,"lat":34.57121100,"lon":-90.67594200,"rng_nm":25,"alt_fmsl":0,"id":"HEE","desc":"THOMPSON ROBBINS NDB"},
{"type":"VOR","hdg_t":282,"dist_nm":92.6,"freq":110.4,"lat":35.38841667,"lon":-94.27152778,"rng_nm":40,"alt_fmsl":430,"id":"FSM","desc":"FORT SMITH VORTAC"},
{"type":"VOR","hdg_t":48.9,"dist_nm":94.7,"freq":114.5,"lat":36.11002778,"lon":-90.95369444,"rng_nm":130,"alt_fmsl":302,"id":"ARG","desc":"WALNUT RIDGE VORTAC"},
{"type":"VOR","hdg_t":79.9,"dist_nm":97,"freq":113,"lat":35.34702778,"lon":-90.47816667,"rng_nm":40,"alt_fmsl":211,"id":"GQE","desc":"GILMORE VOR-DME"},
{"type":"VOR","hdg_t":158.6,"dist_nm":97.5,"freq":111.6,"lat":33.56205556,"lon":-91.71569444,"rng_nm":40,"alt_fmsl":280,"id":"MON","desc":"MONTICELLO VOR-DME"},
{"type":"NDB","hdg_t":46.9,"dist_nm":99.7,"freq":227,"lat":36.20697222,"lon":-90.92311111,"rng_nm":50,"alt_fmsl":0,"id":"TNZ","desc":"LAWRENCE COUNTY NDB"}
]
}
