{"success":true,"source":"xp2csv.pl","last_updated":"2013/11/08 14:53:21 UTC"
,"icao":"KCZK","name":"Cascade Locks State","lat":45.66650583,"lon":-121.88869084,"rwys":1,"ils":0,"index":958952,"path":"w130n40/w122n45"
,"runways":[
{"len_m":550,"wid_m":9.14,"hdg":79,"surf":"Asphalt","rwy1":"06","lat1":45.66603478,"lon1":-121.89215851,"rwy2":"24","lat2":45.66697688,"lon2":-121.88522317}
]
,"navaids":[
{"type":"NDB","hdg_t":252.9,"dist_nm":25.3,"freq":332,"lat":45.54105556,"lon":-122.46233333,"rng_nm":50,"alt_fmsl":0,"id":"LBH","desc":"LAKER (LOM/NDB) NDB"},
{"type":"VOR","hdg_t":279.6,"dist_nm":29.9,"freq":116.6,"lat":45.74780556,"lon":-122.59152778,"rng_nm":130,"alt_fmsl":253,"id":"BTG","desc":"BATTLEGROUND VORTAC"},
{"type":"VOR","hdg_t":262,"dist_nm":30.5,"freq":111.8,"lat":45.59369444,"lon":-122.60627778,"rng_nm":40,"alt_fmsl":23,"id":"PDX","desc":"PORTLAND VOR-DME"},
{"type":"SDME","hdg_t":261.5,"dist_nm":30.7,"freq":109.2,"lat":45.58863100,"lon":-122.61125300,"rng_nm":130,"alt_fmsl":22,"id":"CBU","desc":"COLUMBIA TACAN"},
{"type":"VOR","hdg_t":84.8,"dist_nm":33.2,"freq":112.3,"lat":45.71355556,"lon":-121.10083333,"rng_nm":130,"alt_fmsl":3220,"id":"LTJ","desc":"KLICKITAT VOR-DME"},
{"type":"NDB","hdg_t":238.6,"dist_nm":43.7,"freq":366,"lat":45.28339200,"lon":-122.77036400,"rng_nm":25,"alt_fmsl":157,"id":"PLV","desc":"PRAHL NDB"},
{"type":"NDB","hdg_t":267.8,"dist_nm":48.7,"freq":356,"lat":45.63027778,"lon":-123.04580556,"rng_nm":50,"alt_fmsl":0,"id":"PND","desc":"BANKS NDB"},
{"type":"VOR","hdg_t":248.1,"dist_nm":49.6,"freq":117.4,"lat":45.35322222,"lon":-122.97816667,"rng_nm":130,"alt_fmsl":1440,"id":"UBG","desc":"NEWBERG VOR-DME"},
{"type":"NDB","hdg_t":304.7,"dist_nm":51.9,"freq":256,"lat":46.15547222,"lon":-122.91263889,"rng_nm":50,"alt_fmsl":0,"id":"LSO","desc":"KELSO NDB"},
{"type":"NDB","hdg_t":242.7,"dist_nm":54.3,"freq":383,"lat":45.24613100,"lon":-123.02973600,"rng_nm":50,"alt_fmsl":159,"id":"MM","desc":"MINNE NDB"},
{"type":"NDB","hdg_t":222.8,"dist_nm":66.6,"freq":266,"lat":44.84744444,"lon":-122.95102778,"rng_nm":50,"alt_fmsl":0,"id":"SL","desc":"TURNO NDB"},
{"type":"NDB","hdg_t":292.3,"dist_nm":76.6,"freq":201,"lat":46.13952778,"lon":-123.58730556,"rng_nm":50,"alt_fmsl":0,"id":"PEN","desc":"KARPEN NDB"},
{"type":"VOR","hdg_t":47.4,"dist_nm":81,"freq":116,"lat":46.57025000,"lon":-120.44463889,"rng_nm":130,"alt_fmsl":984,"id":"YKM","desc":"YAKIMA VORTAC"},
{"type":"NDB","hdg_t":50.2,"dist_nm":81.6,"freq":371,"lat":46.52563889,"lon":-120.37219444,"rng_nm":50,"alt_fmsl":0,"id":"YK","desc":"DONNY NDB"},
{"type":"NDB","hdg_t":341.2,"dist_nm":85.1,"freq":328,"lat":47.00797222,"lon":-122.55641667,"rng_nm":50,"alt_fmsl":0,"id":"LAC","desc":"LACOMAS NDB"},
{"type":"NDB","hdg_t":223.3,"dist_nm":86.2,"freq":225,"lat":44.61358333,"lon":-123.27066667,"rng_nm":50,"alt_fmsl":0,"id":"LWG","desc":"LEWISBURG NDB"},
{"type":"VOR","hdg_t":163.4,"dist_nm":88.4,"freq":117.6,"lat":44.25275000,"lon":-121.30352778,"rng_nm":130,"alt_fmsl":4101,"id":"DSD","desc":"DESCHUTES VORTAC"},
{"type":"VOR","hdg_t":290.3,"dist_nm":88.5,"freq":114,"lat":46.16169444,"lon":-123.88036111,"rng_nm":40,"alt_fmsl":10,"id":"AST","desc":"ASTORIA VOR-DME"},
{"type":"VOR","hdg_t":332,"dist_nm":88.9,"freq":113.4,"lat":46.97163889,"lon":-122.90183333,"rng_nm":130,"alt_fmsl":200,"id":"OLM","desc":"OLYMPIA VORTAC"},
{"type":"NDB","hdg_t":155.2,"dist_nm":89.5,"freq":411,"lat":44.30797222,"lon":-121.01894444,"rng_nm":50,"alt_fmsl":0,"id":"RD","desc":"BODEY NDB"},
{"type":"VOR","hdg_t":220.9,"dist_nm":92,"freq":115.4,"lat":44.49958333,"lon":-123.29366667,"rng_nm":130,"alt_fmsl":241,"id":"CVO","desc":"CORVALLIS VOR-DME"},
{"type":"VOR","hdg_t":344.8,"dist_nm":92.1,"freq":109.6,"lat":47.14766667,"lon":-122.47502778,"rng_nm":25,"alt_fmsl":287,"id":"TCM","desc":"MCCHORD VORTAC"},
{"type":"NDB","hdg_t":341.8,"dist_nm":93.8,"freq":216,"lat":47.15030556,"lon":-122.60463889,"rng_nm":50,"alt_fmsl":0,"id":"GRF","desc":"GRAYE NDB"}
]
}
