{"success":true,"source":"xp2csv.pl","last_updated":"2013/11/08 14:53:21 UTC"
,"icao":"KDLN","name":"Dillon","lat":45.254607,"lon":-112.552629,"rwys":2,"ils":0,"index":1106385,"path":"w120n40/w113n45"
,"runways":[
{"len_m":1980,"wid_m":22.86,"hdg":178,"surf":"Asphalt","rwy1":"16","lat1":45.26613300,"lon1":-112.55248900,"rwy2":"34","lat2":45.24831400,"lon2":-112.55186900},
{"len_m":1096,"wid_m":18.29,"hdg":50,"surf":"Asphalt","rwy1":"03","lat1":45.24882800,"lon1":-112.55843900,"rwy2":"21","lat2":45.25515300,"lon2":-112.54771900}
]
,"radios":[
{"type":"ATIS","freq":135.22,"desc":"ASOS"},
{"type":"CTAF","freq":122.8,"desc":"CTAF/UNICOM"},
{"type":"CTAF","freq":122.8,"desc":"CTAF/UNICOM"}
]
,"navaids":[
{"type":"VOR","hdg_t":147.2,"dist_nm":0.4,"freq":113,"lat":45.24858333,"lon":-112.54713889,"rng_nm":130,"alt_fmsl":5257,"id":"DLN","desc":"DILLON VOR-DME"},
{"type":"NDB","hdg_t":88.6,"dist_nm":38.2,"freq":286,"lat":45.26583333,"lon":-111.65138889,"rng_nm":50,"alt_fmsl":0,"id":"EKS","desc":"ENNIS NDB"},
{"type":"VOR","hdg_t":23.7,"dist_nm":39.8,"freq":113.7,"lat":45.86180556,"lon":-112.16961111,"rng_nm":130,"alt_fmsl":4652,"id":"HIA","desc":"WHITEHALL VOR-DME"},
{"type":"VOR","hdg_t":350,"dist_nm":47.3,"freq":111.6,"lat":46.03200000,"lon":-112.74752778,"rng_nm":40,"alt_fmsl":5780,"id":"CPN","desc":"COPPERTOWN VOR-DME"},
{"type":"NDB","hdg_t":54.8,"dist_nm":64.9,"freq":266,"lat":45.87180556,"lon":-111.28572222,"rng_nm":50,"alt_fmsl":0,"id":"BZ","desc":"MANNI NDB"},
{"type":"VOR","hdg_t":258.3,"dist_nm":66.5,"freq":113.5,"lat":45.02130556,"lon":-114.08425000,"rng_nm":130,"alt_fmsl":9258,"id":"LKT","desc":"SALMON VOR-DME"},
{"type":"VOR","hdg_t":61.1,"dist_nm":66.9,"freq":112.4,"lat":45.78388889,"lon":-111.15544444,"rng_nm":130,"alt_fmsl":4430,"id":"BZN","desc":"BOZEMAN VOR-DME"},
{"type":"NDB","hdg_t":118.5,"dist_nm":69.7,"freq":338,"lat":44.68958333,"lon":-111.12108333,"rng_nm":50,"alt_fmsl":0,"id":"ESY","desc":"YELLOWSTONE NDB"},
{"type":"NDB","hdg_t":124.7,"dist_nm":70.7,"freq":415,"lat":44.57541667,"lon":-111.19755556,"rng_nm":50,"alt_fmsl":0,"id":"LO","desc":"TARGY NDB"},
{"type":"VOR","hdg_t":168,"dist_nm":71.4,"freq":116.9,"lat":44.08886111,"lon":-112.20933333,"rng_nm":130,"alt_fmsl":4915,"id":"DBS","desc":"DUBOIS VORTAC"},
{"type":"VOR","hdg_t":16.9,"dist_nm":84.9,"freq":117.7,"lat":46.60683333,"lon":-111.95347222,"rng_nm":130,"alt_fmsl":3823,"id":"HLN","desc":"HELENA VORTAC"},
{"type":"NDB","hdg_t":17.4,"dist_nm":85.1,"freq":335,"lat":46.60666667,"lon":-111.93716667,"rng_nm":50,"alt_fmsl":0,"id":"CVP","desc":"CAPITOL NDB"},
{"type":"NDB","hdg_t":22.5,"dist_nm":85.6,"freq":386,"lat":46.56888889,"lon":-111.75805556,"rng_nm":50,"alt_fmsl":0,"id":"HAU","desc":"HAUSER NDB"},
{"type":"VOR","hdg_t":342.4,"dist_nm":87,"freq":117.1,"lat":46.63609700,"lon":-113.18659400,"rng_nm":40,"alt_fmsl":4150,"id":"DRU","desc":"DRUMMOND VOR"},
{"type":"VOR","hdg_t":72.4,"dist_nm":93,"freq":116.1,"lat":45.70247222,"lon":-110.44244444,"rng_nm":40,"alt_fmsl":4653,"id":"LVM","desc":"LIVINGSTON VOR-DME"}
]
}
