{"success":true,"source":"xp2csv.pl","last_updated":"2013/11/08 14:53:21 UTC"
,"icao":"KDRT","name":"Del Rio Intl","lat":29.374207,"lon":-100.927157,"rwys":1,"ils":1,"index":1301968,"path":"w110n20/w101n29"
,"runways":[
{"len_m":1920,"wid_m":30.48,"hdg":140,"surf":"Asphalt","rwy1":"13","lat1":29.38086400,"lon1":-100.93348300,"rwy2":"31","lat2":29.36755000,"lon2":-100.92083100}
]
,"radios":[
{"type":"ATIS","freq":118.52,"desc":"ASOS"},
{"type":"CTAF","freq":122.8,"desc":"CTAF/UNICOM"},
{"type":"CLD","freq":120.5,"desc":"CLNC DEL"},
{"type":"APP","freq":119.6,"desc":"APP"},
{"type":"DEP","freq":119.6,"desc":"DEP"}
]
,"ils":[
{"type":"LOC","freq":111.9,"lat":29.36545300,"lon":-100.91883600,"rng_nm":18,"alt_fmsl":985,"id":"IDRT","rwy":"13","desc":"LOC"},
{"type":"OM","freq":0,"lat":29.44269400,"lon":-100.99227500,"rng_nm":0,"alt_fmsl":985,"id":"----","rwy":"13","desc":"OM"},
{"type":"DME","freq":111.9,"lat":29.36498300,"lon":-100.91947500,"rng_nm":18,"alt_fmsl":994,"id":"IDRT","rwy":"13","desc":"DME-ILS"}
]
,"navaids":[
{"type":"VOR","hdg_t":95.5,"dist_nm":8.1,"freq":114.4,"lat":29.36088889,"lon":-100.77172222,"rng_nm":130,"alt_fmsl":1071,"id":"DLF","desc":"LAUGHLIN VORTAC"},
{"type":"NDB","hdg_t":121.8,"dist_nm":18.7,"freq":269,"lat":29.20858333,"lon":-100.62397222,"rng_nm":50,"alt_fmsl":0,"id":"BRX","desc":"LA FONDA RANCH NDB"},
{"type":"NDB","hdg_t":117.4,"dist_nm":29.5,"freq":356,"lat":29.14525000,"lon":-100.42758333,"rng_nm":50,"alt_fmsl":0,"id":"PFO","desc":"SPOFFORD NDB"},
{"type":"VOR","hdg_t":155.1,"dist_nm":48.9,"freq":113.6,"lat":28.63183333,"lon":-100.53838889,"rng_nm":130,"alt_fmsl":901,"id":"PNG","desc":"PIEDRAS VOR-DME"},
{"type":"VOR","hdg_t":40.3,"dist_nm":50.4,"freq":111.2,"lat":30.01461111,"lon":-100.29983333,"rng_nm":40,"alt_fmsl":2310,"id":"RSG","desc":"ROCKSPRINGS VORTAC"},
{"type":"NDB","hdg_t":119.6,"dist_nm":55.8,"freq":385,"lat":28.90997222,"lon":-100.00561111,"rng_nm":50,"alt_fmsl":0,"id":"CPZ","desc":"CHAPARROSA RANCH NDB"},
{"type":"NDB","hdg_t":115,"dist_nm":62.2,"freq":223,"lat":28.92997222,"lon":-99.85477778,"rng_nm":50,"alt_fmsl":0,"id":"LKX","desc":"LA PRYOR NDB"},
{"type":"NDB","hdg_t":100.2,"dist_nm":64.1,"freq":281,"lat":29.17772222,"lon":-99.72569444,"rng_nm":50,"alt_fmsl":0,"id":"UVA","desc":"UVALDE NDB"},
{"type":"NDB","hdg_t":11.3,"dist_nm":73.7,"freq":371,"lat":30.58180556,"lon":-100.64694444,"rng_nm":50,"alt_fmsl":0,"id":"SOA","desc":"SONORA NDB"},
{"type":"NDB","hdg_t":131,"dist_nm":77.1,"freq":343,"lat":28.52244444,"lon":-99.82727778,"rng_nm":50,"alt_fmsl":0,"id":"DMD","desc":"DIMMIT CO NDB"},
{"type":"VOR","hdg_t":90.5,"dist_nm":91.7,"freq":109.4,"lat":29.34911111,"lon":-99.17788889,"rng_nm":40,"alt_fmsl":947,"id":"HDO","desc":"HONDO VOR-DME"},
{"type":"NDB","hdg_t":89.5,"dist_nm":92,"freq":329,"lat":29.37341667,"lon":-99.17202778,"rng_nm":50,"alt_fmsl":0,"id":"HMA","desc":"HONDO NDB"},
{"type":"VOR","hdg_t":38,"dist_nm":93.3,"freq":116,"lat":30.59802778,"lon":-99.81752778,"rng_nm":130,"alt_fmsl":2280,"id":"JCT","desc":"JUNCTION VORTAC"},
{"type":"VOR","hdg_t":69.4,"dist_nm":95.3,"freq":117.5,"lat":29.92233333,"lon":-99.21450000,"rng_nm":130,"alt_fmsl":2080,"id":"CSI","desc":"CENTER POINT VORTAC"}
]
}
