{"success":true,"source":"xp2csv.pl","last_updated":"2013/11/08 14:53:21 UTC"
,"icao":"KDYR","name":"Dyersburg Rgnl","lat":35.9983165,"lon":-89.406368,"rwys":2,"ils":0,"index":1482618,"path":"w090n30/w090n35"
,"runways":[
{"len_m":1736,"wid_m":30.48,"hdg":40,"surf":"Asphalt","rwy1":"04","lat1":35.99043900,"lon1":-89.41389400,"rwy2":"22","lat2":36.00233300,"lon2":-89.40137500},
{"len_m":1219,"wid_m":22.86,"hdg":161,"surf":"Asphalt","rwy1":"16","lat1":36.00545800,"lon1":-89.40724200,"rwy2":"34","lat2":35.99503600,"lon2":-89.40296100}
]
,"radios":[
{"type":"ATIS","freq":135.62,"desc":"AWOS 3"},
{"type":"CTAF","freq":123.05,"desc":"CTAF/UNICOM"}
]
,"navaids":[
{"type":"VOR","hdg_t":74.2,"dist_nm":4.4,"freq":116.8,"lat":36.01855556,"lon":-89.31769444,"rng_nm":40,"alt_fmsl":380,"id":"DYR","desc":"DYERSBURG VORTAC"},
{"type":"NDB","hdg_t":199.8,"dist_nm":26,"freq":326,"lat":35.58966667,"lon":-89.58733333,"rng_nm":50,"alt_fmsl":0,"id":"COO","desc":"COVINGTON NDB"},
{"type":"VOR","hdg_t":263.9,"dist_nm":26.1,"freq":111.8,"lat":35.95097222,"lon":-89.94105556,"rng_nm":40,"alt_fmsl":0,"id":"GOJ","desc":"GOSNELL VOR"},
{"type":"NDB","hdg_t":47.9,"dist_nm":26.8,"freq":212,"lat":36.29769444,"lon":-88.99486111,"rng_nm":50,"alt_fmsl":0,"id":"UC","desc":"OBION NDB"},
{"type":"VOR","hdg_t":134.1,"dist_nm":33.8,"freq":112,"lat":35.60355556,"lon":-88.91041667,"rng_nm":25,"alt_fmsl":410,"id":"MKL","desc":"MC KELLAR VOR-DME"},
{"type":"NDB","hdg_t":142.6,"dist_nm":36.2,"freq":394,"lat":35.51577778,"lon":-88.95697222,"rng_nm":50,"alt_fmsl":0,"id":"MK","desc":"MERSY NDB"},
{"type":"VOR","hdg_t":323.8,"dist_nm":41.3,"freq":111.2,"lat":36.55511111,"lon":-89.91141667,"rng_nm":40,"alt_fmsl":280,"id":"MAW","desc":"MALDEN VORTAC"},
{"type":"NDB","hdg_t":196.9,"dist_nm":44.6,"freq":265,"lat":35.28468900,"lon":-89.67139200,"rng_nm":25,"alt_fmsl":308,"id":"LHC","desc":"LOOSAHATCHIE NDB"},
{"type":"NDB","hdg_t":82.9,"dist_nm":46,"freq":217,"lat":36.08847222,"lon":-88.46686111,"rng_nm":50,"alt_fmsl":0,"id":"HZD","desc":"HUNTINGDON NDB"},
{"type":"NDB","hdg_t":179.1,"dist_nm":47.4,"freq":255,"lat":35.20558333,"lon":-89.39277778,"rng_nm":50,"alt_fmsl":0,"id":"FYE","desc":"SOMERVILLE NDB"},
{"type":"NDB","hdg_t":211,"dist_nm":50.1,"freq":232,"lat":35.28050000,"lon":-89.93294444,"rng_nm":50,"alt_fmsl":0,"id":"MIG","desc":"MILLINGTON NDB"},
{"type":"NDB","hdg_t":159.1,"dist_nm":50.2,"freq":404,"lat":35.21433333,"lon":-89.04213889,"rng_nm":50,"alt_fmsl":0,"id":"BAV","desc":"HARDEMAN NDB"},
{"type":"NDB","hdg_t":72.3,"dist_nm":50.4,"freq":410,"lat":36.24955556,"lon":-88.41536111,"rng_nm":50,"alt_fmsl":0,"id":"TIQ","desc":"TRAINER NDB"},
{"type":"NDB","hdg_t":2.6,"dist_nm":50.7,"freq":208,"lat":36.84505556,"lon":-89.35675000,"rng_nm":50,"alt_fmsl":0,"id":"CHQ","desc":"CHARLESTON NDB"},
{"type":"NDB","hdg_t":274.4,"dist_nm":53.8,"freq":383,"lat":36.06277778,"lon":-90.51102778,"rng_nm":50,"alt_fmsl":0,"id":"PGR","desc":"PARAGOULD NDB"},
{"type":"NDB","hdg_t":351.8,"dist_nm":53.8,"freq":272,"lat":36.88781100,"lon":-89.56478600,"rng_nm":25,"alt_fmsl":350,"id":"SIK","desc":"SIKESTON NDB"},
{"type":"VOR","hdg_t":114.7,"dist_nm":56.4,"freq":109.4,"lat":35.59900000,"lon":-88.35888889,"rng_nm":40,"alt_fmsl":630,"id":"JKS","desc":"JACKS CREEK VOR-DME"},
{"type":"NDB","hdg_t":213.6,"dist_nm":57.2,"freq":414,"lat":35.20119444,"lon":-90.05119444,"rng_nm":50,"alt_fmsl":0,"id":"SPQ","desc":"SPAIN NDB"},
{"type":"VOR","hdg_t":263,"dist_nm":58,"freq":108.6,"lat":35.87491667,"lon":-90.58850000,"rng_nm":25,"alt_fmsl":247,"id":"JBR","desc":"JONESBORO VOR-DME"},
{"type":"NDB","hdg_t":312.2,"dist_nm":60.1,"freq":278,"lat":36.66908333,"lon":-90.32838889,"rng_nm":50,"alt_fmsl":0,"id":"FD","desc":"EARLI NDB"},
{"type":"NDB","hdg_t":136,"dist_nm":63,"freq":386,"lat":35.23702778,"lon":-88.51600000,"rng_nm":50,"alt_fmsl":0,"id":"SZY","desc":"SIBLEY NDB"},
{"type":"NDB","hdg_t":197.1,"dist_nm":63.8,"freq":275,"lat":34.97980800,"lon":-89.78875000,"rng_nm":25,"alt_fmsl":401,"id":"OLV","desc":"OLIVE BRANCH NDB"},
{"type":"NDB","hdg_t":7.8,"dist_nm":64.3,"freq":397,"lat":37.06172222,"lon":-89.22341667,"rng_nm":50,"alt_fmsl":0,"id":"CIR","desc":"CAIRO NDB"},
{"type":"VOR","hdg_t":233.6,"dist_nm":65.3,"freq":113,"lat":35.34702778,"lon":-90.47816667,"rng_nm":40,"alt_fmsl":211,"id":"GQE","desc":"GILMORE VOR-DME"},
{"type":"VOR","hdg_t":205.7,"dist_nm":65.3,"freq":117.5,"lat":35.01511111,"lon":-89.98322222,"rng_nm":130,"alt_fmsl":360,"id":"MEM","desc":"MEMPHIS VORTAC"},
{"type":"VOR","hdg_t":24.2,"dist_nm":66.5,"freq":113.1,"lat":37.00861111,"lon":-88.83691667,"rng_nm":40,"alt_fmsl":480,"id":"CNG","desc":"CUNNINGHAM VORTAC"},
{"type":"NDB","hdg_t":51,"dist_nm":69.2,"freq":368,"lat":36.72065556,"lon":-88.28996111,"rng_nm":15,"alt_fmsl":0,"id":"EU","desc":"MUREY NDB"},
{"type":"NDB","hdg_t":146.4,"dist_nm":70.4,"freq":334,"lat":35.01552778,"lon":-88.61569444,"rng_nm":50,"alt_fmsl":0,"id":"UU","desc":"SEYER NDB"},
{"type":"VOR","hdg_t":183.4,"dist_nm":73.7,"freq":112.4,"lat":34.77025000,"lon":-89.49650000,"rng_nm":40,"alt_fmsl":630,"id":"HLI","desc":"HOLLY SPRINGS VORTAC"},
{"type":"VOR","hdg_t":353.8,"dist_nm":74,"freq":112.9,"lat":37.22752778,"lon":-89.57238889,"rng_nm":40,"alt_fmsl":340,"id":"CGI","desc":"CAPE GIRARDEAU VOR-DME"},
{"type":"NDB","hdg_t":280,"dist_nm":74.7,"freq":227,"lat":36.20697222,"lon":-90.92311111,"rng_nm":50,"alt_fmsl":0,"id":"TNZ","desc":"LAWRENCE COUNTY NDB"},
{"type":"VOR","hdg_t":275.5,"dist_nm":75.5,"freq":114.5,"lat":36.11002778,"lon":-90.95369444,"rng_nm":130,"alt_fmsl":302,"id":"ARG","desc":"WALNUT RIDGE VORTAC"},
{"type":"NDB","hdg_t":349.3,"dist_nm":76.5,"freq":248,"lat":37.25341667,"lon":-89.70061111,"rng_nm":50,"alt_fmsl":0,"id":"CG","desc":"DUTCH NDB"},
{"type":"NDB","hdg_t":27.1,"dist_nm":77.3,"freq":254,"lat":37.14550000,"lon":-88.67047222,"rng_nm":50,"alt_fmsl":0,"id":"BDD","desc":"BELLGRADE NDB"},
{"type":"NDB","hdg_t":84.5,"dist_nm":81.3,"freq":329,"lat":36.11616667,"lon":-87.74127778,"rng_nm":50,"alt_fmsl":0,"id":"AEY","desc":"WAVERLY NDB"},
{"type":"NDB","hdg_t":256.6,"dist_nm":89.1,"freq":400,"lat":35.64202200,"lon":-91.18068100,"rng_nm":25,"alt_fmsl":237,"id":"EWP","desc":"NEWPORT NDB"},
{"type":"NDB","hdg_t":109.7,"dist_nm":92.5,"freq":257,"lat":35.46250000,"lon":-87.63027778,"rng_nm":50,"alt_fmsl":0,"id":"JHG","desc":"HOHENWALD NDB"},
{"type":"VOR","hdg_t":95.3,"dist_nm":95.7,"freq":111.6,"lat":35.83391667,"lon":-87.45175000,"rng_nm":40,"alt_fmsl":775,"id":"GHM","desc":"GRAHAM VORTAC"},
{"type":"NDB","hdg_t":84.8,"dist_nm":96.3,"freq":203,"lat":36.12730556,"lon":-87.43236111,"rng_nm":50,"alt_fmsl":0,"id":"DMZ","desc":"DICKSON NDB"},
{"type":"NDB","hdg_t":186.4,"dist_nm":97.2,"freq":426,"lat":34.38508333,"lon":-89.62597222,"rng_nm":50,"alt_fmsl":0,"id":"UV","desc":"TUNNG NDB"}
]
}
