{"success":true,"source":"xp2csv.pl","last_updated":"2013/11/08 14:53:21 UTC"
,"icao":"KEED","name":"Needles","lat":34.766586,"lon":-114.623,"rwys":2,"ils":0,"index":1072945,"path":"w120n30/w115n34"
,"runways":[
{"len_m":1525,"wid_m":30.48,"hdg":119,"surf":"Asphalt","rwy1":"11","lat1":34.76705800,"lon1":-114.63364200,"rwy2":"29","lat2":34.76037200,"lon2":-114.61908600},
{"len_m":1290,"wid_m":30.48,"hdg":29,"surf":"Asphalt","rwy1":"02","lat1":34.76437500,"lon1":-114.62306900,"rwy2":"20","lat2":34.77453900,"lon2":-114.61620300}
]
,"radios":[
{"type":"ATIS","freq":128.32,"desc":"ASOS"},
{"type":"CTAF","freq":123,"desc":"CTAF/UNICOM"},
{"type":"APP","freq":134.65,"desc":"LOS ANGELES CNTR"}
]
,"navaids":[
{"type":"VOR","hdg_t":90.2,"dist_nm":7.3,"freq":115.2,"lat":34.76600000,"lon":-114.47411111,"rng_nm":130,"alt_fmsl":620,"id":"EED","desc":"NEEDLES VORTAC"},
{"type":"VOR","hdg_t":308.8,"dist_nm":34.9,"freq":114.4,"lat":35.13113889,"lon":-115.17644444,"rng_nm":40,"alt_fmsl":4000,"id":"GFS","desc":"GOFFS VORTAC"},
{"type":"VOR","hdg_t":184.2,"dist_nm":39.9,"freq":117.9,"lat":34.10200000,"lon":-114.68208333,"rng_nm":130,"alt_fmsl":1000,"id":"PKE","desc":"PARKER VORTAC"},
{"type":"VOR","hdg_t":48.7,"dist_nm":45,"freq":108.8,"lat":35.26052778,"lon":-113.93408333,"rng_nm":40,"alt_fmsl":3410,"id":"IGM","desc":"KINGMAN VOR-DME"},
{"type":"VOR","hdg_t":235.7,"dist_nm":69.1,"freq":114.2,"lat":34.11222222,"lon":-115.76991667,"rng_nm":40,"alt_fmsl":1374,"id":"TNP","desc":"TWENTYNINE PALMS VORTAC"},
{"type":"VOR","hdg_t":185.6,"dist_nm":70.4,"freq":117.4,"lat":33.59605556,"lon":-114.76127778,"rng_nm":130,"alt_fmsl":410,"id":"BLH","desc":"BLYTHE VORTAC"},
{"type":"VOR","hdg_t":45.5,"dist_nm":73.8,"freq":112,"lat":35.62472222,"lon":-113.54447222,"rng_nm":130,"alt_fmsl":4760,"id":"PGS","desc":"PEACH SPRINGS VORTAC"},
{"type":"VOR","hdg_t":350.9,"dist_nm":74.5,"freq":116.7,"lat":35.99577778,"lon":-114.86358333,"rng_nm":130,"alt_fmsl":3650,"id":"BLD","desc":"BOULDER CITY VORTAC"},
{"type":"VOR","hdg_t":341.6,"dist_nm":82.9,"freq":116.9,"lat":36.07969444,"lon":-115.15980556,"rng_nm":130,"alt_fmsl":2141,"id":"LAS","desc":"LAS VEGAS VORTAC"},
{"type":"VOR","hdg_t":271.6,"dist_nm":90.9,"freq":112.7,"lat":34.79702778,"lon":-116.46291667,"rng_nm":130,"alt_fmsl":1853,"id":"HEC","desc":"HECTOR VORTAC"},
{"type":"VOR","hdg_t":277.4,"dist_nm":97.2,"freq":113.2,"lat":34.96244444,"lon":-116.57816667,"rng_nm":40,"alt_fmsl":1760,"id":"DAG","desc":"DAGGETT VORTAC"}
]
}
