{"success":true,"source":"xp2csv.pl","last_updated":"2013/11/08 14:53:21 UTC"
,"icao":"KEMV","name":"Emporia Greensville Rgnl","lat":36.686832,"lon":-77.482943,"rwys":1,"ils":1,"index":1679274,"path":"w080n30/w078n36"
,"runways":[
{"len_m":1536,"wid_m":30.48,"hdg":146,"surf":"Asphalt","rwy1":"15","lat1":36.69260800,"lon1":-77.48767800,"rwy2":"33","lat2":36.68105600,"lon2":-77.47820800}
]
,"radios":[
{"type":"ATIS","freq":124.17,"desc":"AWOS 3"},
{"type":"CTAF","freq":123,"desc":"CTAF/UNICOM"}
]
,"ils":[
{"type":"LOC","freq":108.75,"lat":36.69322500,"lon":-77.48820600,"rng_nm":18,"alt_fmsl":135,"id":"IEMV","rwy":"33","desc":"LOC"}
]
,"navaids":[
{"type":"NDB","hdg_t":146,"dist_nm":4.9,"freq":261,"lat":36.61797222,"lon":-77.42550000,"rng_nm":50,"alt_fmsl":0,"id":"ELQ","desc":"EMPORIA NDB"},
{"type":"NDB","hdg_t":216.5,"dist_nm":18.3,"freq":407,"lat":36.44097222,"lon":-77.70830556,"rng_nm":50,"alt_fmsl":0,"id":"RZZ","desc":"RAPIDS NDB"},
{"type":"VOR","hdg_t":291.3,"dist_nm":21.7,"freq":112.9,"lat":36.81802778,"lon":-77.90297222,"rng_nm":40,"alt_fmsl":350,"id":"LVL","desc":"LAWRENCEVILLE VORTAC"},
{"type":"VOR","hdg_t":85.7,"dist_nm":22.7,"freq":110.6,"lat":36.71425000,"lon":-77.01238889,"rng_nm":40,"alt_fmsl":84,"id":"FKN","desc":"FRANKLIN VORTAC"},
{"type":"NDB","hdg_t":350.6,"dist_nm":26.9,"freq":284,"lat":37.13027778,"lon":-77.57447222,"rng_nm":50,"alt_fmsl":0,"id":"PTB","desc":"PETERSBURG NDB"},
{"type":"NDB","hdg_t":261.2,"dist_nm":27.8,"freq":373,"lat":36.61455556,"lon":-78.05316667,"rng_nm":50,"alt_fmsl":0,"id":"AEA","desc":"JONES NDB"},
{"type":"NDB","hdg_t":52.4,"dist_nm":29.2,"freq":274,"lat":36.98319444,"lon":-77.00108333,"rng_nm":50,"alt_fmsl":0,"id":"AKQ","desc":"WAKEFIELD NDB"},
{"type":"VOR","hdg_t":122.2,"dist_nm":35,"freq":114.6,"lat":36.37291667,"lon":-76.87152778,"rng_nm":40,"alt_fmsl":70,"id":"CVI","desc":"COFIELD VORTAC"},
{"type":"NDB","hdg_t":314.5,"dist_nm":37.7,"freq":326,"lat":37.12744444,"lon":-78.04452778,"rng_nm":50,"alt_fmsl":0,"id":"BKT","desc":"BLACKSTONE NDB"},
{"type":"VOR","hdg_t":24.5,"dist_nm":42.3,"freq":112,"lat":37.32886111,"lon":-77.11594444,"rng_nm":40,"alt_fmsl":70,"id":"HPW","desc":"HOPEWELL VORTAC"},
{"type":"VOR","hdg_t":194.1,"dist_nm":43.8,"freq":117.8,"lat":35.97677778,"lon":-77.70375000,"rng_nm":40,"alt_fmsl":70,"id":"TYI","desc":"TAR RIVER VORTAC"},
{"type":"NDB","hdg_t":183.9,"dist_nm":45.1,"freq":257,"lat":35.93544444,"lon":-77.54636111,"rng_nm":50,"alt_fmsl":0,"id":"ETC","desc":"TARBORO NDB"},
{"type":"VOR","hdg_t":9,"dist_nm":49.4,"freq":114.1,"lat":37.50236111,"lon":-77.32027778,"rng_nm":130,"alt_fmsl":159,"id":"RIC","desc":"RICHMOND VORTAC"},
{"type":"NDB","hdg_t":56.6,"dist_nm":49.6,"freq":226,"lat":37.13877778,"lon":-76.61855556,"rng_nm":50,"alt_fmsl":0,"id":"FAF","desc":"FELKER NDB"},
{"type":"NDB","hdg_t":163.2,"dist_nm":51.7,"freq":336,"lat":35.85905556,"lon":-77.17794444,"rng_nm":50,"alt_fmsl":0,"id":"MCZ","desc":"WILLIAMSTON NDB"},
{"type":"VOR","hdg_t":341.9,"dist_nm":53,"freq":113.3,"lat":37.52850000,"lon":-77.82822222,"rng_nm":130,"alt_fmsl":460,"id":"FAK","desc":"FLAT ROCK VORTAC"},
{"type":"NDB","hdg_t":60.4,"dist_nm":54.6,"freq":375,"lat":37.13280556,"lon":-76.49319444,"rng_nm":50,"alt_fmsl":0,"id":"PJS","desc":"HENRY NDB"},
{"type":"VOR","hdg_t":38.8,"dist_nm":58.7,"freq":108.8,"lat":37.44866667,"lon":-76.71136111,"rng_nm":40,"alt_fmsl":8,"id":"HCM","desc":"HARCUM VORTAC"},
{"type":"NDB","hdg_t":174.7,"dist_nm":58.9,"freq":230,"lat":35.70688889,"lon":-77.37188889,"rng_nm":50,"alt_fmsl":0,"id":"AQE","desc":"ALWOOD NDB"},
{"type":"SDME","hdg_t":65.8,"dist_nm":59.1,"freq":112.3,"lat":37.08556100,"lon":-76.35941100,"rng_nm":40,"alt_fmsl":11,"id":"LFI","desc":"LANGLEY TACAN"},
{"type":"NDB","hdg_t":131.4,"dist_nm":59.5,"freq":265,"lat":36.02544444,"lon":-76.56650000,"rng_nm":50,"alt_fmsl":0,"id":"EDE","desc":"EDENTON NDB"},
{"type":"NDB","hdg_t":247.5,"dist_nm":59.5,"freq":271,"lat":36.30122222,"lon":-78.61850000,"rng_nm":50,"alt_fmsl":0,"id":"HXO","desc":"HUNTSBORO NDB"},
{"type":"NDB","hdg_t":203.1,"dist_nm":59.8,"freq":235,"lat":35.76765800,"lon":-77.96459700,"rng_nm":25,"alt_fmsl":158,"id":"RW","desc":"JAMBE NDB"},
{"type":"NDB","hdg_t":80.8,"dist_nm":60,"freq":329,"lat":36.84047222,"lon":-76.25122222,"rng_nm":50,"alt_fmsl":0,"id":"OR","desc":"INGLE NDB"},
{"type":"SDME","hdg_t":75,"dist_nm":60,"freq":111.1,"lat":36.93998100,"lon":-76.27729400,"rng_nm":40,"alt_fmsl":45,"id":"NGU","desc":"CHAMBERS TACAN"},
{"type":"DME","hdg_t":2.3,"dist_nm":60.7,"freq":109.7,"lat":37.70029889,"lon":-77.43139970,"rng_nm":18,"alt_fmsl":208,"id":"KOFP","desc":"16 DME-ILS"},
{"type":"NDB","hdg_t":311.3,"dist_nm":60.8,"freq":367,"lat":37.35300000,"lon":-78.43752778,"rng_nm":50,"alt_fmsl":0,"id":"FVX","desc":"FARMVILLE NDB"},
{"type":"NDB","hdg_t":113.5,"dist_nm":62.7,"freq":254,"lat":36.26300000,"lon":-76.29802778,"rng_nm":50,"alt_fmsl":0,"id":"LLW","desc":"WOODVILLE NDB"},
{"type":"VOR","hdg_t":78.3,"dist_nm":63,"freq":116.9,"lat":36.89188889,"lon":-76.20033333,"rng_nm":130,"alt_fmsl":20,"id":"ORF","desc":"NORFOLK VORTAC"},
{"type":"NDB","hdg_t":146.1,"dist_nm":63.1,"freq":221,"lat":35.80988300,"lon":-76.76272200,"rng_nm":25,"alt_fmsl":38,"id":"PMZ","desc":"PLYMOUTH NDB"},
{"type":"VOR","hdg_t":111.7,"dist_nm":68.2,"freq":112.5,"lat":36.25758333,"lon":-76.17563889,"rng_nm":40,"alt_fmsl":10,"id":"ECG","desc":"ELIZABETH CITY VOR-DME"},
{"type":"SDME","hdg_t":82.8,"dist_nm":70.1,"freq":116.6,"lat":36.82421900,"lon":-76.03704700,"rng_nm":40,"alt_fmsl":64,"id":"NTU","desc":"OCEANA TACAN"},
{"type":"NDB","hdg_t":165.3,"dist_nm":72.8,"freq":388,"lat":35.50966667,"lon":-77.10661111,"rng_nm":50,"alt_fmsl":0,"id":"RNW","desc":"CHOCOWINITY NDB"},
{"type":"VOR","hdg_t":269.9,"dist_nm":73.9,"freq":110.4,"lat":36.67502778,"lon":-79.01450000,"rng_nm":40,"alt_fmsl":530,"id":"SBV","desc":"SOUTH BOSTON VORTAC"},
{"type":"NDB","hdg_t":233.2,"dist_nm":75.3,"freq":350,"lat":35.92722222,"lon":-78.72191667,"rng_nm":50,"alt_fmsl":0,"id":"LE","desc":"LEEVY NDB"},
{"type":"VOR","hdg_t":182.6,"dist_nm":78.9,"freq":109.6,"lat":35.37094444,"lon":-77.55833333,"rng_nm":40,"alt_fmsl":106,"id":"ISO","desc":"KINSTON VORTAC"},
{"type":"VOR","hdg_t":232.6,"dist_nm":79.7,"freq":117.2,"lat":35.87252778,"lon":-78.78333333,"rng_nm":130,"alt_fmsl":429,"id":"RDU","desc":"RALEIGH/DURHAM VORTAC"},
{"type":"NDB","hdg_t":250.9,"dist_nm":81.2,"freq":220,"lat":36.23327778,"lon":-79.06588889,"rng_nm":50,"alt_fmsl":0,"id":"HUR","desc":"PERSON(LOM/NDB) NDB"},
{"type":"VOR","hdg_t":60.5,"dist_nm":81.6,"freq":112.2,"lat":37.34752778,"lon":-75.99766667,"rng_nm":40,"alt_fmsl":10,"id":"CCV","desc":"CAPE CHARLES VORTAC"},
{"type":"NDB","hdg_t":5,"dist_nm":84.2,"freq":396,"lat":38.08777778,"lon":-77.32491667,"rng_nm":50,"alt_fmsl":0,"id":"APH","desc":"A P HILL NDB"},
{"type":"SDME","hdg_t":196.5,"dist_nm":84.4,"freq":116.5,"lat":35.33502800,"lon":-77.97160600,"rng_nm":40,"alt_fmsl":82,"id":"GSB","desc":"SEYMOUR JOHNSON TACAN"},
{"type":"VOR","hdg_t":338.2,"dist_nm":85.7,"freq":115.6,"lat":38.01361111,"lon":-78.15302778,"rng_nm":130,"alt_fmsl":382,"id":"GVE","desc":"GORDONSVILLE VORTAC"},
{"type":"NDB","hdg_t":212.5,"dist_nm":85.8,"freq":263,"lat":35.47497222,"lon":-78.42522222,"rng_nm":50,"alt_fmsl":0,"id":"JN","desc":"JURLY NDB"},
{"type":"NDB","hdg_t":12,"dist_nm":86.6,"freq":396,"lat":38.10000000,"lon":-77.10000000,"rng_nm":50,"alt_fmsl":99,"id":"ZZA","desc":"ZZZ TEST A NDB"},
{"type":"NDB","hdg_t":186.9,"dist_nm":87,"freq":276,"lat":35.24391667,"lon":-77.69825000,"rng_nm":50,"alt_fmsl":0,"id":"IS","desc":"STALS NDB"},
{"type":"VOR","hdg_t":266,"dist_nm":89.8,"freq":113.1,"lat":36.56886111,"lon":-79.33669444,"rng_nm":40,"alt_fmsl":0,"id":"DAN","desc":"DANVILLE VOR"},
{"type":"VOR","hdg_t":292.5,"dist_nm":90.9,"freq":109.2,"lat":37.25458333,"lon":-79.23638889,"rng_nm":40,"alt_fmsl":871,"id":"LYH","desc":"LYNCHBURG VORTAC"},
{"type":"NDB","hdg_t":292.7,"dist_nm":91.3,"freq":385,"lat":37.26241667,"lon":-79.24313889,"rng_nm":50,"alt_fmsl":0,"id":"LY","desc":"BOJAR NDB"},
{"type":"NDB","hdg_t":8.3,"dist_nm":91.6,"freq":397,"lat":38.20000000,"lon":-77.20000000,"rng_nm":50,"alt_fmsl":99,"id":"ZZB","desc":"ZZZ TEST B NDB"},
{"type":"NDB","hdg_t":328.3,"dist_nm":93.4,"freq":336,"lat":38.01016667,"lon":-78.51808333,"rng_nm":50,"alt_fmsl":0,"id":"AZS","desc":"AZALEA PARK NDB"},
{"type":"NDB","hdg_t":0.9,"dist_nm":94.6,"freq":237,"lat":38.26638889,"lon":-77.45080556,"rng_nm":50,"alt_fmsl":0,"id":"EZF","desc":"SHANNON NDB"},
{"type":"NDB","hdg_t":218,"dist_nm":94.8,"freq":417,"lat":35.43300000,"lon":-78.67475000,"rng_nm":50,"alt_fmsl":0,"id":"HQT","desc":"HARNETT NDB"},
{"type":"NDB","hdg_t":56.2,"dist_nm":96.6,"freq":336,"lat":37.57030556,"lon":-75.79830556,"rng_nm":50,"alt_fmsl":0,"id":"BDB","desc":"ACCOMACK NDB"},
{"type":"VOR","hdg_t":5.1,"dist_nm":97,"freq":116.7,"lat":38.30000000,"lon":-77.30000000,"rng_nm":100,"alt_fmsl":57,"id":"ZZC","desc":"ZZZ TEST C VOR-DME"},
{"type":"VOR","hdg_t":117.3,"dist_nm":98,"freq":111.6,"lat":35.92050000,"lon":-75.69694444,"rng_nm":25,"alt_fmsl":10,"id":"RBX","desc":"WRIGHT BROTHERS VOR-DME"},
{"type":"NDB","hdg_t":117.5,"dist_nm":98.2,"freq":370,"lat":35.91533333,"lon":-75.69505556,"rng_nm":50,"alt_fmsl":0,"id":"MQI","desc":"MANTEO NDB"},
{"type":"NDB","hdg_t":192.5,"dist_nm":99,"freq":332,"lat":35.07225000,"lon":-77.91886111,"rng_nm":50,"alt_fmsl":0,"id":"DKA","desc":"KENAN NDB"},
{"type":"VOR","hdg_t":3.5,"dist_nm":99,"freq":114.5,"lat":38.33627778,"lon":-77.35291667,"rng_nm":40,"alt_fmsl":145,"id":"BRV","desc":"BROOKE VORTAC"},
{"type":"VOR","hdg_t":167.4,"dist_nm":99,"freq":113.6,"lat":35.07313889,"lon":-77.04505556,"rng_nm":40,"alt_fmsl":10,"id":"EWN","desc":"NEW BERN VOR-DME"}
]
}
