{"success":true,"source":"xp2csv.pl","last_updated":"2013/11/08 14:53:21 UTC"
,"icao":"KFTK","name":"Godman Aaf","lat":37.907373875,"lon":-85.97080325,"rwys":4,"ils":0,"index":1548280,"path":"w090n30/w086n37"
,"runways":[
{"len_m":1489,"wid_m":22.86,"hdg":148,"surf":"Asphalt","rwy1":"15","lat1":37.91174700,"lon1":-85.97810800,"rwy2":"33","lat2":37.90032800,"lon2":-85.96920600},
{"len_m":1580,"wid_m":45.72,"hdg":176,"surf":"Asphalt","rwy1":"18","lat1":37.91418100,"lon1":-85.97030800,"rwy2":"36","lat2":37.89996700,"lon2":-85.96925000},
{"len_m":1523,"wid_m":45.72,"hdg":96,"surf":"Asphalt","rwy1":"09","lat1":37.90855800,"lon1":-85.97980000,"rwy2":"27","lat2":37.90697800,"lon2":-85.96258900},
{"len_m":561,"wid_m":27.43,"hdg":45,"surf":"Asphalt","rwy1":"05","lat1":37.90684300,"lon1":-85.97086100,"rwy2":"23","lat2":37.91038900,"lon2":-85.96630400}
]
,"radios":[
{"type":"CTAF","freq":126.8,"desc":"CTAF"},
{"type":"GND","freq":121.9,"desc":"GND"},
{"type":"TWR","freq":126.8,"desc":"TWR"},
{"type":"APP","freq":123.67,"desc":"LOUISVILLE APP/DEP"}
]
,"navaids":[
{"type":"VOR","hdg_t":271.4,"dist_nm":0,"freq":109.6,"lat":37.90741667,"lon":-85.97288889,"rng_nm":25,"alt_fmsl":740,"id":"FTK","desc":"FORT KNOX VOR-DME"},
{"type":"NDB","hdg_t":354.8,"dist_nm":3,"freq":396,"lat":37.95869444,"lon":-85.97663889,"rng_nm":50,"alt_fmsl":0,"id":"GOI","desc":"GODMAN NDB"},
{"type":"VOR","hdg_t":266.5,"dist_nm":13,"freq":108.2,"lat":37.89405556,"lon":-86.24452778,"rng_nm":40,"alt_fmsl":0,"id":"MYS","desc":"MYSTIC VOR"},
{"type":"NDB","hdg_t":48.2,"dist_nm":21.4,"freq":414,"lat":38.14483333,"lon":-85.63330556,"rng_nm":50,"alt_fmsl":0,"id":"LK","desc":"LAANG NDB"},
{"type":"VOR","hdg_t":139.5,"dist_nm":21.6,"freq":110.8,"lat":37.63180556,"lon":-85.67588889,"rng_nm":40,"alt_fmsl":960,"id":"EWO","desc":"NEW HOPE VOR-DME"},
{"type":"VOR","hdg_t":57.6,"dist_nm":22,"freq":114.8,"lat":38.10347222,"lon":-85.57744444,"rng_nm":130,"alt_fmsl":720,"id":"IIU","desc":"LOUISVILLE VORTAC"},
{"type":"VOR","hdg_t":36.7,"dist_nm":24.1,"freq":112.2,"lat":38.23022222,"lon":-85.66475000,"rng_nm":25,"alt_fmsl":540,"id":"BQM","desc":"BOWMAN VOR-DME"},
{"type":"NDB","hdg_t":280.8,"dist_nm":34.7,"freq":206,"lat":38.01416667,"lon":-86.69019444,"rng_nm":50,"alt_fmsl":0,"id":"TEL","desc":"TELL CITY NDB"},
{"type":"NDB","hdg_t":17.9,"dist_nm":35.7,"freq":331,"lat":38.47397222,"lon":-85.73722222,"rng_nm":50,"alt_fmsl":0,"id":"JV","desc":"CATCH NDB"},
{"type":"NDB","hdg_t":114.8,"dist_nm":38.5,"freq":429,"lat":37.63463889,"lon":-85.23655556,"rng_nm":50,"alt_fmsl":0,"id":"IKY","desc":"SPRINGFIELD NDB"},
{"type":"VOR","hdg_t":21,"dist_nm":43.8,"freq":112.4,"lat":38.58883333,"lon":-85.63600000,"rng_nm":40,"alt_fmsl":710,"id":"ABB","desc":"NABB VORTAC"},
{"type":"NDB","hdg_t":324.8,"dist_nm":45.5,"freq":368,"lat":38.52783300,"lon":-86.52779400,"rng_nm":25,"alt_fmsl":615,"id":"RRJ","desc":"ORANJ NDB"},
{"type":"NDB","hdg_t":130.9,"dist_nm":46,"freq":272,"lat":37.40188889,"lon":-85.24369444,"rng_nm":50,"alt_fmsl":0,"id":"TYC","desc":"TAYLOR CO NDB"},
{"type":"VOR","hdg_t":294,"dist_nm":51,"freq":109.2,"lat":38.25050000,"lon":-86.95619444,"rng_nm":25,"alt_fmsl":517,"id":"HNB","desc":"HUNTINGBURG VOR-DME"},
{"type":"VOR","hdg_t":71.5,"dist_nm":52.9,"freq":109.4,"lat":38.18241667,"lon":-84.90861111,"rng_nm":25,"alt_fmsl":0,"id":"FFT","desc":"FRANKFORT VOR"},
{"type":"NDB","hdg_t":181.9,"dist_nm":53.3,"freq":260,"lat":37.01752778,"lon":-86.00916667,"rng_nm":50,"alt_fmsl":0,"id":"BVQ","desc":"BEAVER CREEK NDB"},
{"type":"NDB","hdg_t":25,"dist_nm":56.5,"freq":404,"lat":38.76090800,"lon":-85.46051100,"rng_nm":25,"alt_fmsl":874,"id":"IMS","desc":"MADISON NDB"},
{"type":"NDB","hdg_t":70.9,"dist_nm":57.5,"freq":521,"lat":38.21473600,"lon":-84.81980600,"rng_nm":50,"alt_fmsl":769,"id":"FEU","desc":"ARNOLD NDB"},
{"type":"NDB","hdg_t":359.8,"dist_nm":57.5,"freq":308,"lat":38.86744444,"lon":-85.97302778,"rng_nm":50,"alt_fmsl":0,"id":"EQZ","desc":"CAPTAIN NDB"},
{"type":"VOR","hdg_t":260.5,"dist_nm":57.6,"freq":108.6,"lat":37.74355556,"lon":-87.16597222,"rng_nm":25,"alt_fmsl":401,"id":"OWB","desc":"OWENSBORO VOR-DME"},
{"type":"NDB","hdg_t":254.3,"dist_nm":58.9,"freq":341,"lat":37.63561111,"lon":-87.16222222,"rng_nm":50,"alt_fmsl":0,"id":"OW","desc":"HIGUY NDB"},
{"type":"NDB","hdg_t":338.6,"dist_nm":60,"freq":344,"lat":38.83963889,"lon":-86.43636111,"rng_nm":50,"alt_fmsl":0,"id":"BFR","desc":"BEDFORD NDB"},
{"type":"NDB","hdg_t":108.6,"dist_nm":60.7,"freq":311,"lat":37.57641667,"lon":-84.76402778,"rng_nm":50,"alt_fmsl":0,"id":"DVK","desc":"GOODALL NDB"},
{"type":"NDB","hdg_t":85.2,"dist_nm":62.3,"freq":242,"lat":37.98686111,"lon":-84.66016667,"rng_nm":50,"alt_fmsl":0,"id":"LE","desc":"BLAYD NDB"},
{"type":"VOR","hdg_t":201.2,"dist_nm":62.8,"freq":117.9,"lat":36.92875000,"lon":-86.44344444,"rng_nm":130,"alt_fmsl":565,"id":"BWG","desc":"BOWLING GREEN VORTAC"},
{"type":"NDB","hdg_t":201.7,"dist_nm":66.2,"freq":236,"lat":36.88000000,"lon":-86.48161111,"rng_nm":50,"alt_fmsl":0,"id":"BW","desc":"NOORA NDB"},
{"type":"VOR","hdg_t":243.3,"dist_nm":69.1,"freq":109.8,"lat":37.38241667,"lon":-87.26369444,"rng_nm":40,"alt_fmsl":450,"id":"CCT","desc":"CENTRAL CITY VORTAC"},
{"type":"NDB","hdg_t":234.6,"dist_nm":69.8,"freq":362,"lat":37.22700000,"lon":-87.15916667,"rng_nm":50,"alt_fmsl":0,"id":"GMH","desc":"MUHLENBERG NDB"},
{"type":"NDB","hdg_t":78.9,"dist_nm":70.6,"freq":340,"lat":38.12452778,"lon":-84.50697222,"rng_nm":50,"alt_fmsl":0,"id":"GN","desc":"BRIDL NDB"},
{"type":"NDB","hdg_t":281.1,"dist_nm":70.9,"freq":219,"lat":38.12672222,"lon":-87.44072222,"rng_nm":50,"alt_fmsl":0,"id":"EV","desc":"VICCI NDB"},
{"type":"VOR","hdg_t":86.6,"dist_nm":71.2,"freq":112.6,"lat":37.96636111,"lon":-84.47250000,"rng_nm":40,"alt_fmsl":1039,"id":"HYK","desc":"LEXINGTON VORTAC"},
{"type":"NDB","hdg_t":311.1,"dist_nm":72.4,"freq":212,"lat":38.69605556,"lon":-87.13261111,"rng_nm":50,"alt_fmsl":0,"id":"DCY","desc":"WASHINGTON NDB"},
{"type":"NDB","hdg_t":276.6,"dist_nm":74.4,"freq":284,"lat":38.04013889,"lon":-87.53094444,"rng_nm":50,"alt_fmsl":0,"id":"PDW","desc":"EVANSVILLE NDB"},
{"type":"VOR","hdg_t":338,"dist_nm":80,"freq":110.2,"lat":39.14383333,"lon":-86.61302778,"rng_nm":40,"alt_fmsl":845,"id":"OOM","desc":"HOOSIER VORTAC"},
{"type":"NDB","hdg_t":131.1,"dist_nm":82.3,"freq":388,"lat":36.99622222,"lon":-84.68130556,"rng_nm":50,"alt_fmsl":0,"id":"CDX","desc":"CUMBERLAND RIVER NDB"},
{"type":"NDB","hdg_t":139.3,"dist_nm":82.6,"freq":290,"lat":36.85621100,"lon":-84.85294700,"rng_nm":25,"alt_fmsl":950,"id":"EKQ","desc":"ELK SPRING NDB"},
{"type":"NDB","hdg_t":182.9,"dist_nm":83.5,"freq":245,"lat":36.51508333,"lon":-86.06097222,"rng_nm":50,"alt_fmsl":0,"id":"LFB","desc":"LAFAYETTE NDB"},
{"type":"NDB","hdg_t":4.7,"dist_nm":85,"freq":410,"lat":39.32205556,"lon":-85.81855556,"rng_nm":50,"alt_fmsl":0,"id":"BA","desc":"CLIFS NDB"},
{"type":"VOR","hdg_t":271.3,"dist_nm":85,"freq":113.3,"lat":37.92833333,"lon":-87.76238889,"rng_nm":130,"alt_fmsl":384,"id":"PXV","desc":"POCKET CITY VORTAC"},
{"type":"VOR","hdg_t":153.8,"dist_nm":88.1,"freq":108.4,"lat":36.58450000,"lon":-85.16661111,"rng_nm":40,"alt_fmsl":1020,"id":"LVT","desc":"LIVINGSTON VORTAC"},
{"type":"NDB","hdg_t":302.5,"dist_nm":88.3,"freq":251,"lat":38.69075000,"lon":-87.55577778,"rng_nm":50,"alt_fmsl":0,"id":"OEA","desc":"VINCENNES NDB"},
{"type":"NDB","hdg_t":39.2,"dist_nm":88.5,"freq":321,"lat":39.04574700,"lon":-84.77296400,"rng_nm":25,"alt_fmsl":0,"id":"UR","desc":"BURLN NDB"},
{"type":"VOR","hdg_t":41.5,"dist_nm":89.3,"freq":117.3,"lat":39.01597222,"lon":-84.70333333,"rng_nm":40,"alt_fmsl":879,"id":"CVG","desc":"CINCINNATI VORTAC"},
{"type":"NDB","hdg_t":227.1,"dist_nm":89.7,"freq":356,"lat":36.88063889,"lon":-87.33758333,"rng_nm":50,"alt_fmsl":0,"id":"HIX","desc":"HONEY GROVE NDB"},
{"type":"VOR","hdg_t":59.9,"dist_nm":90.1,"freq":117,"lat":38.64950000,"lon":-84.31063889,"rng_nm":130,"alt_fmsl":810,"id":"FLM","desc":"FALMOUTH VOR-DME"},
{"type":"NDB","hdg_t":94.9,"dist_nm":92.6,"freq":393,"lat":37.75800000,"lon":-84.03022222,"rng_nm":50,"alt_fmsl":0,"id":"XYC","desc":"SECO NDB"},
{"type":"NDB","hdg_t":20.9,"dist_nm":92.7,"freq":254,"lat":39.34977778,"lon":-85.25775000,"rng_nm":50,"alt_fmsl":0,"id":"HLB","desc":"BATESVILLE NDB"},
{"type":"VOR","hdg_t":304.3,"dist_nm":92.8,"freq":108.8,"lat":38.76986111,"lon":-87.60383333,"rng_nm":25,"alt_fmsl":430,"id":"LWV","desc":"LAWRENCEVILLE VOR-DME"},
{"type":"NDB","hdg_t":297.5,"dist_nm":93,"freq":524,"lat":38.61175000,"lon":-87.72550000,"rng_nm":50,"alt_fmsl":0,"id":"AJG","desc":"MOUNT CARMEL NDB"},
{"type":"NDB","hdg_t":209.1,"dist_nm":93.8,"freq":221,"lat":36.53650000,"lon":-86.91755800,"rng_nm":25,"alt_fmsl":706,"id":"PED","desc":"NEEDMORE NDB"},
{"type":"NDB","hdg_t":83.8,"dist_nm":94.8,"freq":210,"lat":38.06000000,"lon":-83.98152778,"rng_nm":50,"alt_fmsl":0,"id":"IOB","desc":"MOUNT STERLING NDB"},
{"type":"NDB","hdg_t":224.9,"dist_nm":98.4,"freq":273,"lat":36.73700000,"lon":-87.41386111,"rng_nm":50,"alt_fmsl":0,"id":"FK","desc":"AIRBE NDB"},
{"type":"NDB","hdg_t":209.5,"dist_nm":99.3,"freq":279,"lat":36.46044444,"lon":-86.98430556,"rng_nm":50,"alt_fmsl":0,"id":"ON","desc":"MUSIC NDB"}
]
}
