{"success":true,"source":"xp2csv.pl","last_updated":"2013/11/08 14:53:21 UTC"
,"icao":"KFXE","name":"Fort Lauderdale Executive","lat":26.19698125,"lon":-80.170441,"rwys":2,"ils":1,"index":1629451,"path":"w090n20/w081n26"
,"runways":[
{"len_m":1829,"wid_m":30.48,"hdg":83,"surf":"Asphalt","rwy1":"08","lat1":26.19757500,"lon1":-80.18086400,"rwy2":"26","lat2":26.19936100,"lon2":-80.16267200},
{"len_m":1219,"wid_m":30.48,"hdg":128,"surf":"Asphalt","rwy1":"13","lat1":26.19894200,"lon1":-80.17386700,"rwy2":"31","lat2":26.19204700,"lon2":-80.16436100}
]
,"radios":[
{"type":"ATIS","freq":119.85,"desc":"ATIS"},
{"type":"CTAF","freq":122.95,"desc":"UNICOM"},
{"type":"CLD","freq":127.95,"desc":"CLNC DEL"},
{"type":"GND","freq":121.75,"desc":"EXECUTIVE GND"},
{"type":"TWR","freq":120.9,"desc":"EXECUTIVE TWR"},
{"type":"APP","freq":119.7,"desc":"MIAMI APP/DEP"}
]
,"ils":[
{"type":"ILS","freq":111.1,"lat":26.19956900,"lon":-80.16055000,"rng_nm":18,"alt_fmsl":9,"hdg":83.76,"id":"IFXE","rwy":"08","desc":"ILS-cat-I"},
{"type":"GS","freq":111.1,"lat":26.19898100,"lon":-80.17781900,"rng_nm":10,"alt_fmsl":12,"id":"IFXE","rwy":"08","desc":"GS","gs":3},
{"type":"OM","freq":0,"lat":26.18564400,"lon":-80.29850000,"rng_nm":0,"alt_fmsl":9,"id":"----","rwy":"08","desc":"OM"},
{"type":"MM","freq":0,"lat":26.19677500,"lon":-80.18904700,"rng_nm":0,"alt_fmsl":9,"id":"----","rwy":"08","desc":"MM"}
]
,"navaids":[
{"type":"NDB","hdg_t":264.4,"dist_nm":6.9,"freq":221,"lat":26.18563889,"lon":-80.29850000,"rng_nm":50,"alt_fmsl":0,"id":"FX","desc":"PRAIZ NDB"},
{"type":"VOR","hdg_t":176.8,"dist_nm":7.3,"freq":116.5,"lat":26.07416667,"lon":-80.16297222,"rng_nm":130,"alt_fmsl":12,"id":"FLL","desc":"FORT LAUDERDALE VOR-DME"},
{"type":"NDB","hdg_t":183,"dist_nm":24.3,"freq":248,"lat":25.79069444,"lon":-80.19419444,"rng_nm":50,"alt_fmsl":0,"id":"MI","desc":"KEYES NDB"},
{"type":"VOR","hdg_t":202.1,"dist_nm":25.6,"freq":113.9,"lat":25.79997222,"lon":-80.34902778,"rng_nm":130,"alt_fmsl":7,"id":"DHP","desc":"DOLPHIN VORTAC"},
{"type":"VOR","hdg_t":178.1,"dist_nm":26.6,"freq":117.1,"lat":25.75188889,"lon":-80.15444444,"rng_nm":130,"alt_fmsl":12,"id":"VKZ","desc":"VIRGINIA KEY VOR-DME"},
{"type":"VOR","hdg_t":8.8,"dist_nm":29.2,"freq":115.7,"lat":26.68005556,"lon":-80.08650000,"rng_nm":130,"alt_fmsl":16,"id":"PBI","desc":"PALM BEACH VORTAC"},
{"type":"NDB","hdg_t":208.6,"dist_nm":37.8,"freq":266,"lat":25.64166667,"lon":-80.50483333,"rng_nm":50,"alt_fmsl":0,"id":"TM","desc":"QEEZY NDB"},
{"type":"DME","hdg_t":355.7,"dist_nm":38.7,"freq":110.75,"lat":26.84356853,"lon":-80.22387209,"rng_nm":18,"alt_fmsl":22,"id":"IGHO","desc":"F45 08R DME-ILS"},
{"type":"NDB","hdg_t":348.2,"dist_nm":43.5,"freq":405,"lat":26.90897222,"lon":-80.33505556,"rng_nm":50,"alt_fmsl":0,"id":"UTX","desc":"UNITED NDB"},
{"type":"SDME","hdg_t":195,"dist_nm":43.8,"freq":108.2,"lat":25.48952800,"lon":-80.37944400,"rng_nm":40,"alt_fmsl":53,"id":"HST","desc":"HOMESTEAD TACAN"},
{"type":"VOR","hdg_t":321.4,"dist_nm":44.8,"freq":115.4,"lat":26.78275000,"lon":-80.69144444,"rng_nm":130,"alt_fmsl":16,"id":"PHK","desc":"PAHOKEE VORTAC"},
{"type":"NDB","hdg_t":246.3,"dist_nm":49.6,"freq":227,"lat":25.86183333,"lon":-81.01102778,"rng_nm":50,"alt_fmsl":0,"id":"TN","desc":"MONRY NDB"},
{"type":"VOR","hdg_t":121.6,"dist_nm":55.8,"freq":116.7,"lat":25.70388889,"lon":-79.29363889,"rng_nm":130,"alt_fmsl":10,"id":"ZBV","desc":"BIMINI VORTAC"},
{"type":"VOR","hdg_t":300.1,"dist_nm":75.7,"freq":110.4,"lat":26.82816667,"lon":-81.39144444,"rng_nm":40,"alt_fmsl":30,"id":"LBV","desc":"LA BELLE VORTAC"},
{"type":"NDB","hdg_t":75.3,"dist_nm":77.6,"freq":209,"lat":26.51838889,"lon":-78.77505556,"rng_nm":50,"alt_fmsl":0,"id":"ZFP","desc":"FREEPORT NDB"},
{"type":"NDB","hdg_t":352,"dist_nm":77.9,"freq":275,"lat":27.48672222,"lon":-80.37327778,"rng_nm":50,"alt_fmsl":0,"id":"FPR","desc":"FORT PIERCE NDB"},
{"type":"NDB","hdg_t":348.2,"dist_nm":79.4,"freq":338,"lat":27.49691667,"lon":-80.47427778,"rng_nm":50,"alt_fmsl":0,"id":"FJ","desc":"LUUCE NDB"},
{"type":"VOR","hdg_t":74.5,"dist_nm":82.1,"freq":113.2,"lat":26.55536111,"lon":-78.69786111,"rng_nm":130,"alt_fmsl":7,"id":"ZFP","desc":"FREEPORT VOR-DME"},
{"type":"NDB","hdg_t":74.1,"dist_nm":84.2,"freq":326,"lat":26.57355556,"lon":-78.66352778,"rng_nm":50,"alt_fmsl":0,"id":"BHF","desc":"ISLANDS NDB"},
{"type":"VOR","hdg_t":268.6,"dist_nm":86.8,"freq":108.6,"lat":26.15341667,"lon":-81.77811111,"rng_nm":25,"alt_fmsl":10,"id":"CYY","desc":"CYPRESS VOR-DME"},
{"type":"VOR","hdg_t":283.3,"dist_nm":88.7,"freq":111.8,"lat":26.52988889,"lon":-81.77577778,"rng_nm":40,"alt_fmsl":25,"id":"RSW","desc":"LEE CO VORTAC"},
{"type":"VOR","hdg_t":349.1,"dist_nm":90.2,"freq":117.3,"lat":27.67841667,"lon":-80.48972222,"rng_nm":130,"alt_fmsl":11,"id":"VRB","desc":"VERO BEACH VORTAC"},
{"type":"NDB","hdg_t":281.2,"dist_nm":91.3,"freq":336,"lat":26.48433333,"lon":-81.83461111,"rng_nm":50,"alt_fmsl":0,"id":"RS","desc":"MUFFE NDB"},
{"type":"NDB","hdg_t":281.6,"dist_nm":97.8,"freq":341,"lat":26.51613889,"lon":-81.95027778,"rng_nm":50,"alt_fmsl":0,"id":"FM","desc":"CALOO NDB"}
]
}
