{"success":true,"source":"xp2csv.pl","last_updated":"2013/11/08 14:53:21 UTC"
,"icao":"KGCY","name":"Greeneville Greene Co Muni","lat":36.192983,"lon":-82.8150585,"rwys":1,"ils":0,"index":1597320,"path":"w090n30/w083n36"
,"runways":[
{"len_m":1920,"wid_m":30.48,"hdg":47,"surf":"Asphalt","rwy1":"05","lat1":36.18712200,"lon1":-82.82291100,"rwy2":"23","lat2":36.19884400,"lon2":-82.80720600}
]
,"radios":[
{"type":"ATIS","freq":128.42,"desc":"AWOS 3"},
{"type":"CTAF","freq":122.7,"desc":"CTAF/UNICOM"},
{"type":"APP","freq":119.25,"desc":"TRI CITY APP/DEP"}
]
,"navaids":[
{"type":"NDB","hdg_t":226.9,"dist_nm":5,"freq":263,"lat":36.13588889,"lon":-82.89036111,"rng_nm":50,"alt_fmsl":0,"id":"DYQ","desc":"DULANEY NDB"},
{"type":"NDB","hdg_t":347.9,"dist_nm":16.1,"freq":329,"lat":36.45594444,"lon":-82.88436111,"rng_nm":50,"alt_fmsl":0,"id":"RVN","desc":"ROGERSVILLE NDB"},
{"type":"NDB","hdg_t":51.3,"dist_nm":19.7,"freq":221,"lat":36.39872222,"lon":-82.49625000,"rng_nm":50,"alt_fmsl":0,"id":"BO","desc":"BOOIE NDB"},
{"type":"VOR","hdg_t":205.6,"dist_nm":26.7,"freq":108.8,"lat":35.79011111,"lon":-83.05236111,"rng_nm":40,"alt_fmsl":4239,"id":"SOT","desc":"SNOWBIRD VORTAC"},
{"type":"NDB","hdg_t":74.2,"dist_nm":27.4,"freq":275,"lat":36.31594444,"lon":-82.27041667,"rng_nm":50,"alt_fmsl":0,"id":"EZT","desc":"ELIZABETHTON NDB"},
{"type":"NDB","hdg_t":261.4,"dist_nm":32.4,"freq":346,"lat":36.11055556,"lon":-83.47563889,"rng_nm":50,"alt_fmsl":0,"id":"JXT","desc":"JEFFERSON NDB"},
{"type":"NDB","hdg_t":47.8,"dist_nm":32.4,"freq":299,"lat":36.55541667,"lon":-82.31794444,"rng_nm":50,"alt_fmsl":0,"id":"TR","desc":"MOCCA NDB"},
{"type":"NDB","hdg_t":337.9,"dist_nm":33.2,"freq":252,"lat":36.70703300,"lon":-83.07405800,"rng_nm":25,"alt_fmsl":1670,"id":"LQV","desc":"LONG HOLLOW NDB"},
{"type":"VOR","hdg_t":66,"dist_nm":36.3,"freq":114.6,"lat":36.43705556,"lon":-82.12958333,"rng_nm":40,"alt_fmsl":4321,"id":"HMV","desc":"HOLSTON MOUNTAIN VORTAC"},
{"type":"NDB","hdg_t":164.2,"dist_nm":41,"freq":357,"lat":35.53277778,"lon":-82.58744444,"rng_nm":50,"alt_fmsl":0,"id":"IM","desc":"KEANS NDB"},
{"type":"NDB","hdg_t":92.7,"dist_nm":45.4,"freq":320,"lat":36.15347222,"lon":-81.87983333,"rng_nm":50,"alt_fmsl":0,"id":"BAR","desc":"HEMLOCK NDB"},
{"type":"VOR","hdg_t":43,"dist_nm":51.9,"freq":110.2,"lat":36.82511111,"lon":-82.07897222,"rng_nm":40,"alt_fmsl":4200,"id":"GZG","desc":"GLADE SPRING VOR-DME"},
{"type":"NDB","hdg_t":52,"dist_nm":52.9,"freq":236,"lat":36.73372222,"lon":-81.94905556,"rng_nm":50,"alt_fmsl":0,"id":"VJ","desc":"WHINE NDB"},
{"type":"VOR","hdg_t":150.3,"dist_nm":54.1,"freq":112.2,"lat":35.40650000,"lon":-82.26861111,"rng_nm":40,"alt_fmsl":3970,"id":"SUG","desc":"SUGARLOAF MOUNTAI VORTAC"},
{"type":"VOR","hdg_t":252.1,"dist_nm":55.2,"freq":116.4,"lat":35.90483333,"lon":-83.89472222,"rng_nm":130,"alt_fmsl":1290,"id":"VXV","desc":"VOLUNTEER VORTAC"},
{"type":"NDB","hdg_t":162.9,"dist_nm":57.6,"freq":379,"lat":35.27275000,"lon":-82.47102778,"rng_nm":50,"alt_fmsl":0,"id":"BRA","desc":"BROAD RIVER NDB"},
{"type":"NDB","hdg_t":117,"dist_nm":62.7,"freq":391,"lat":35.71022222,"lon":-81.67136111,"rng_nm":50,"alt_fmsl":0,"id":"FIQ","desc":"FIDDLERS NDB"},
{"type":"NDB","hdg_t":277.9,"dist_nm":65.8,"freq":204,"lat":36.33783333,"lon":-84.16091667,"rng_nm":50,"alt_fmsl":0,"id":"JAU","desc":"JACKSBORO NDB"},
{"type":"NDB","hdg_t":246.7,"dist_nm":67.3,"freq":353,"lat":35.74222222,"lon":-84.08119444,"rng_nm":50,"alt_fmsl":0,"id":"TY","desc":"BENFI NDB"},
{"type":"NDB","hdg_t":78.2,"dist_nm":73.8,"freq":410,"lat":36.43402778,"lon":-81.32180556,"rng_nm":50,"alt_fmsl":0,"id":"JU","desc":"ASHEE NDB"},
{"type":"VOR","hdg_t":343.3,"dist_nm":74.9,"freq":111.2,"lat":37.39125000,"lon":-83.26300000,"rng_nm":40,"alt_fmsl":1243,"id":"AZQ","desc":"HAZARD VOR-DME"},
{"type":"NDB","hdg_t":107.8,"dist_nm":77.4,"freq":332,"lat":35.78652778,"lon":-81.30530556,"rng_nm":50,"alt_fmsl":0,"id":"HK","desc":"TAWBA NDB"},
{"type":"VOR","hdg_t":103.7,"dist_nm":79,"freq":110.8,"lat":35.86886111,"lon":-81.24052778,"rng_nm":40,"alt_fmsl":1880,"id":"BZM","desc":"BARRETTS MOUNTAIN VOR-DME"},
{"type":"VOR","hdg_t":309.2,"dist_nm":80.2,"freq":116.1,"lat":37.03313889,"lon":-84.11008333,"rng_nm":40,"alt_fmsl":1245,"id":"LOZ","desc":"LONDON VORTAC"},
{"type":"NDB","hdg_t":133.1,"dist_nm":81.8,"freq":417,"lat":35.25266667,"lon":-81.59880556,"rng_nm":50,"alt_fmsl":0,"id":"SLP","desc":"FIRST RIVER NDB"},
{"type":"VOR","hdg_t":147.7,"dist_nm":81.9,"freq":115.7,"lat":35.03363889,"lon":-81.92700000,"rng_nm":130,"alt_fmsl":935,"id":"SPA","desc":"SPARTANBURG VORTAC"},
{"type":"NDB","hdg_t":176.1,"dist_nm":82.9,"freq":408,"lat":34.81122222,"lon":-82.70352778,"rng_nm":50,"alt_fmsl":0,"id":"LQK","desc":"LAKE KEOWEE NDB"},
{"type":"NDB","hdg_t":284.9,"dist_nm":83.1,"freq":403,"lat":36.53947222,"lon":-84.47600000,"rng_nm":50,"alt_fmsl":0,"id":"BPO","desc":"PINEY GROVE NDB"},
{"type":"NDB","hdg_t":92.7,"dist_nm":83.5,"freq":209,"lat":36.11286111,"lon":-81.09808333,"rng_nm":50,"alt_fmsl":0,"id":"UKF","desc":"WILKI NDB"},
{"type":"NDB","hdg_t":243.5,"dist_nm":85.7,"freq":361,"lat":35.54502778,"lon":-84.38300000,"rng_nm":50,"alt_fmsl":0,"id":"MNV","desc":"MADISONVILLE NDB"},
{"type":"NDB","hdg_t":162.2,"dist_nm":86.5,"freq":287,"lat":34.81550000,"lon":-82.28013889,"rng_nm":50,"alt_fmsl":0,"id":"GS","desc":"GREER NDB"},
{"type":"NDB","hdg_t":152,"dist_nm":87.3,"freq":248,"lat":34.90138889,"lon":-81.98538889,"rng_nm":50,"alt_fmsl":0,"id":"FRT","desc":"FAIRMONT NDB"},
{"type":"NDB","hdg_t":59.7,"dist_nm":87.5,"freq":335,"lat":36.92016667,"lon":-81.24330556,"rng_nm":50,"alt_fmsl":0,"id":"MK","desc":"SUZZE NDB"},
{"type":"NDB","hdg_t":164.7,"dist_nm":87.6,"freq":521,"lat":34.78013889,"lon":-82.34977778,"rng_nm":50,"alt_fmsl":0,"id":"GM","desc":"JUDKY NDB"},
{"type":"NDB","hdg_t":105.8,"dist_nm":88.8,"freq":280,"lat":35.77455300,"lon":-81.06496400,"rng_nm":25,"alt_fmsl":964,"id":"VW","desc":"TEMKY NDB"},
{"type":"NDB","hdg_t":182.2,"dist_nm":91,"freq":257,"lat":34.67383333,"lon":-82.88683333,"rng_nm":50,"alt_fmsl":0,"id":"CEU","desc":"CLEMSON NDB"},
{"type":"NDB","hdg_t":168.4,"dist_nm":91.8,"freq":338,"lat":34.69102778,"lon":-82.44363889,"rng_nm":50,"alt_fmsl":0,"id":"GY","desc":"DYANA NDB"},
{"type":"VOR","hdg_t":216,"dist_nm":92.2,"freq":109.8,"lat":34.94300000,"lon":-83.91569444,"rng_nm":40,"alt_fmsl":3660,"id":"HRS","desc":"HARRIS VORTAC"},
{"type":"VOR","hdg_t":194.9,"dist_nm":92.7,"freq":113.4,"lat":34.69586111,"lon":-83.29766667,"rng_nm":130,"alt_fmsl":1700,"id":"ODF","desc":"FOOTHILLS VORTAC"},
{"type":"NDB","hdg_t":114.4,"dist_nm":92.9,"freq":432,"lat":35.53763889,"lon":-81.08647222,"rng_nm":50,"alt_fmsl":0,"id":"IZN","desc":"LINCOLNTON NDB"},
{"type":"NDB","hdg_t":241.2,"dist_nm":97.7,"freq":242,"lat":35.39458333,"lon":-84.56163889,"rng_nm":50,"alt_fmsl":0,"id":"MMI","desc":"MC MINN CO NDB"}
]
}
