{"success":true,"source":"xp2csv.pl","last_updated":"2013/11/08 14:53:21 UTC"
,"icao":"KGSP","name":"Greenville Spartanburg Intl","lat":34.895671,"lon":-82.2188585,"rwys":1,"ils":2,"index":1597243,"path":"w090n30/w083n34"
,"runways":[
{"len_m":3352,"wid_m":45.72,"hdg":32,"surf":"Asphalt","rwy1":"04","lat1":34.88288600,"lon1":-82.22863600,"rwy2":"22","lat2":34.90845600,"lon2":-82.20908100}
]
,"radios":[
{"type":"ATIS","freq":134.25,"desc":"ATIS"},
{"type":"CTAF","freq":120.1,"desc":"CTAF"},
{"type":"CTAF","freq":122.95,"desc":"UNICOM"},
{"type":"GND","freq":121.9,"desc":"GREER GND"},
{"type":"TWR","freq":120.1,"desc":"GREER TWR"},
{"type":"APP","freq":120.6,"desc":"GREER APP/DEP"},
{"type":"APP","freq":118.8,"desc":"GREER APP/DEP"},
{"type":"APP","freq":119.4,"desc":"GREER APP/DEP"}
]
,"ils":[
{"type":"ILS","freq":109.3,"lat":34.91080000,"lon":-82.20728900,"rng_nm":18,"alt_fmsl":964,"hdg":32.10,"id":"IGSP","rwy":"04","desc":"ILS-cat-I"},
{"type":"ILS","freq":110.7,"lat":34.88043900,"lon":-82.23050600,"rng_nm":18,"alt_fmsl":905,"hdg":212.09,"id":"ILMJ","rwy":"22","desc":"ILS-cat-I"},
{"type":"GS","freq":109.3,"lat":34.88581900,"lon":-82.22796900,"rng_nm":10,"alt_fmsl":905,"id":"IGSP","rwy":"04","desc":"GS","gs":3},
{"type":"GS","freq":110.7,"lat":34.90623100,"lon":-82.21236100,"rng_nm":10,"alt_fmsl":961,"id":"ILMJ","rwy":"22","desc":"GS","gs":3},
{"type":"OM","freq":0,"lat":34.81551100,"lon":-82.28012800,"rng_nm":0,"alt_fmsl":964,"id":"----","rwy":"04","desc":"OM"},
{"type":"OM","freq":0,"lat":34.97743100,"lon":-82.15622200,"rng_nm":0,"alt_fmsl":905,"id":"----","rwy":"22","desc":"OM"},
{"type":"MM","freq":0,"lat":34.87684200,"lon":-82.23325600,"rng_nm":0,"alt_fmsl":964,"id":"----","rwy":"04","desc":"MM"},
{"type":"IM","freq":0,"lat":34.88066900,"lon":-82.23032200,"rng_nm":0,"alt_fmsl":964,"id":"----","rwy":"04","desc":"IM"}
]
,"navaids":[
{"type":"NDB","hdg_t":212.2,"dist_nm":5.6,"freq":287,"lat":34.81550000,"lon":-82.28013889,"rng_nm":50,"alt_fmsl":0,"id":"GS","desc":"GREER NDB"},
{"type":"NDB","hdg_t":223,"dist_nm":9.4,"freq":521,"lat":34.78013889,"lon":-82.34977778,"rng_nm":50,"alt_fmsl":0,"id":"GM","desc":"JUDKY NDB"},
{"type":"NDB","hdg_t":88.2,"dist_nm":11.5,"freq":248,"lat":34.90138889,"lon":-81.98538889,"rng_nm":50,"alt_fmsl":0,"id":"FRT","desc":"FAIRMONT NDB"},
{"type":"NDB","hdg_t":222.2,"dist_nm":16.5,"freq":338,"lat":34.69102778,"lon":-82.44363889,"rng_nm":50,"alt_fmsl":0,"id":"GY","desc":"DYANA NDB"},
{"type":"VOR","hdg_t":60,"dist_nm":16.5,"freq":115.7,"lat":35.03363889,"lon":-81.92700000,"rng_nm":130,"alt_fmsl":935,"id":"SPA","desc":"SPARTANBURG VORTAC"},
{"type":"NDB","hdg_t":258.2,"dist_nm":24.4,"freq":408,"lat":34.81122222,"lon":-82.70352778,"rng_nm":50,"alt_fmsl":0,"id":"LQK","desc":"LAKE KEOWEE NDB"},
{"type":"NDB","hdg_t":331.2,"dist_nm":25.7,"freq":379,"lat":35.27275000,"lon":-82.47102778,"rng_nm":50,"alt_fmsl":0,"id":"BRA","desc":"BROAD RIVER NDB"},
{"type":"NDB","hdg_t":150,"dist_nm":26.7,"freq":307,"lat":34.50818100,"lon":-81.94981700,"rng_nm":25,"alt_fmsl":695,"id":"LUX","desc":"LAURENS NDB"},
{"type":"VOR","hdg_t":355.4,"dist_nm":30.6,"freq":112.2,"lat":35.40650000,"lon":-82.26861111,"rng_nm":40,"alt_fmsl":3970,"id":"SUG","desc":"SUGARLOAF MOUNTAI VORTAC"},
{"type":"NDB","hdg_t":113.8,"dist_nm":31.1,"freq":326,"lat":34.68402778,"lon":-81.64233333,"rng_nm":50,"alt_fmsl":0,"id":"UOT","desc":"UNION CO NDB"},
{"type":"NDB","hdg_t":225.6,"dist_nm":33.9,"freq":230,"lat":34.49810600,"lon":-82.70853600,"rng_nm":25,"alt_fmsl":760,"id":"AND","desc":"ANDERSON NDB"},
{"type":"NDB","hdg_t":248.2,"dist_nm":35.5,"freq":257,"lat":34.67383333,"lon":-82.88683333,"rng_nm":50,"alt_fmsl":0,"id":"CEU","desc":"CLEMSON NDB"},
{"type":"NDB","hdg_t":54.8,"dist_nm":37.2,"freq":417,"lat":35.25266667,"lon":-81.59880556,"rng_nm":50,"alt_fmsl":0,"id":"SLP","desc":"FIRST RIVER NDB"},
{"type":"VOR","hdg_t":175.2,"dist_nm":38.7,"freq":115.5,"lat":34.25155556,"lon":-82.15413889,"rng_nm":130,"alt_fmsl":630,"id":"GRD","desc":"GREENWOOD VORTAC"},
{"type":"NDB","hdg_t":170.2,"dist_nm":39,"freq":239,"lat":34.25372222,"lon":-82.08622222,"rng_nm":50,"alt_fmsl":0,"id":"GIW","desc":"CORONACA NDB"},
{"type":"VOR","hdg_t":224.6,"dist_nm":39.9,"freq":108.6,"lat":34.41919444,"lon":-82.78469444,"rng_nm":40,"alt_fmsl":736,"id":"ELW","desc":"ELECTRIC CITY VORTAC"},
{"type":"NDB","hdg_t":334.7,"dist_nm":42.2,"freq":357,"lat":35.53277778,"lon":-82.58744444,"rng_nm":50,"alt_fmsl":0,"id":"IM","desc":"KEANS NDB"},
{"type":"NDB","hdg_t":140.3,"dist_nm":45.3,"freq":278,"lat":34.31152778,"lon":-81.63594444,"rng_nm":50,"alt_fmsl":0,"id":"EOE","desc":"ENOREE NDB"},
{"type":"NDB","hdg_t":97.1,"dist_nm":50.7,"freq":220,"lat":34.78575000,"lon":-81.20083333,"rng_nm":50,"alt_fmsl":0,"id":"DCM","desc":"CHESTER NDB"},
{"type":"VOR","hdg_t":257.6,"dist_nm":54.6,"freq":113.4,"lat":34.69586111,"lon":-83.29766667,"rng_nm":130,"alt_fmsl":1700,"id":"ODF","desc":"FOOTHILLS VORTAC"},
{"type":"NDB","hdg_t":70.9,"dist_nm":55.1,"freq":260,"lat":35.19147222,"lon":-81.15786111,"rng_nm":50,"alt_fmsl":0,"id":"GHJ","desc":"STONIA NDB"},
{"type":"NDB","hdg_t":28.6,"dist_nm":55.7,"freq":391,"lat":35.71022222,"lon":-81.67136111,"rng_nm":50,"alt_fmsl":0,"id":"FIQ","desc":"FIDDLERS NDB"},
{"type":"NDB","hdg_t":90,"dist_nm":56.1,"freq":227,"lat":34.89002778,"lon":-81.08091667,"rng_nm":50,"alt_fmsl":0,"id":"UZ","desc":"RALLY NDB"},
{"type":"VOR","hdg_t":73.8,"dist_nm":64.8,"freq":115,"lat":35.19027778,"lon":-80.95175000,"rng_nm":40,"alt_fmsl":732,"id":"CLT","desc":"CHARLOTTE VOR-DME"},
{"type":"NDB","hdg_t":122.1,"dist_nm":64.9,"freq":414,"lat":34.31441667,"lon":-81.11266667,"rng_nm":50,"alt_fmsl":0,"id":"FDW","desc":"WINNSBORO NDB"},
{"type":"VOR","hdg_t":322.8,"dist_nm":67.4,"freq":108.8,"lat":35.79011111,"lon":-83.05236111,"rng_nm":40,"alt_fmsl":4239,"id":"SOT","desc":"SNOWBIRD VORTAC"},
{"type":"NDB","hdg_t":55,"dist_nm":67.6,"freq":432,"lat":35.53763889,"lon":-81.08647222,"rng_nm":50,"alt_fmsl":0,"id":"IZN","desc":"LINCOLNTON NDB"},
{"type":"NDB","hdg_t":98.3,"dist_nm":67.9,"freq":400,"lat":34.72269444,"lon":-80.85916667,"rng_nm":50,"alt_fmsl":0,"id":"LKR","desc":"LANCASTER NDB"},
{"type":"NDB","hdg_t":39.7,"dist_nm":69.7,"freq":332,"lat":35.78652778,"lon":-81.30530556,"rng_nm":50,"alt_fmsl":0,"id":"HK","desc":"TAWBA NDB"},
{"type":"NDB","hdg_t":250.6,"dist_nm":69.9,"freq":347,"lat":34.50150000,"lon":-83.54988889,"rng_nm":50,"alt_fmsl":0,"id":"AJR","desc":"HABERSHAM NDB"},
{"type":"VOR","hdg_t":177.7,"dist_nm":71.2,"freq":113.9,"lat":33.70736111,"lon":-82.16205556,"rng_nm":130,"alt_fmsl":428,"id":"IRQ","desc":"COLLIERS VORTAC"},
{"type":"NDB","hdg_t":203.9,"dist_nm":73.3,"freq":435,"lat":33.77486111,"lon":-82.81319444,"rng_nm":50,"alt_fmsl":0,"id":"IIY","desc":"WASHINGTON-WILKE NDB"},
{"type":"NDB","hdg_t":138.7,"dist_nm":73.6,"freq":362,"lat":33.96716667,"lon":-81.24469444,"rng_nm":50,"alt_fmsl":0,"id":"CA","desc":"MURRY NDB"},
{"type":"NDB","hdg_t":86.9,"dist_nm":74.7,"freq":204,"lat":34.95294444,"lon":-80.70519444,"rng_nm":50,"alt_fmsl":0,"id":"TWL","desc":"WESLEY NDB"},
{"type":"NDB","hdg_t":221.5,"dist_nm":75.2,"freq":221,"lat":33.95138889,"lon":-83.21958333,"rng_nm":50,"alt_fmsl":0,"id":"BJT","desc":"BULLDOG NDB"},
{"type":"VOR","hdg_t":39.1,"dist_nm":75.5,"freq":110.8,"lat":35.86886111,"lon":-81.24052778,"rng_nm":40,"alt_fmsl":1880,"id":"BZM","desc":"BARRETTS MOUNTAIN VOR-DME"},
{"type":"NDB","hdg_t":12.3,"dist_nm":77.1,"freq":320,"lat":36.15347222,"lon":-81.87983333,"rng_nm":50,"alt_fmsl":0,"id":"BAR","desc":"HEMLOCK NDB"},
{"type":"NDB","hdg_t":46.7,"dist_nm":77.3,"freq":280,"lat":35.77455300,"lon":-81.06496400,"rng_nm":25,"alt_fmsl":964,"id":"VW","desc":"TEMKY NDB"},
{"type":"VOR","hdg_t":224.3,"dist_nm":78.9,"freq":109.6,"lat":33.94758333,"lon":-83.32475000,"rng_nm":130,"alt_fmsl":793,"id":"AHN","desc":"ATHENS VORTAC"},
{"type":"NDB","hdg_t":159.9,"dist_nm":79.2,"freq":347,"lat":33.65180556,"lon":-81.67705556,"rng_nm":50,"alt_fmsl":0,"id":"AIK","desc":"AIKEN NDB"},
{"type":"NDB","hdg_t":336.3,"dist_nm":81.2,"freq":263,"lat":36.13588889,"lon":-82.89036111,"rng_nm":50,"alt_fmsl":0,"id":"DYQ","desc":"DULANEY NDB"},
{"type":"NDB","hdg_t":232.6,"dist_nm":81.6,"freq":244,"lat":34.06222222,"lon":-83.52094444,"rng_nm":50,"alt_fmsl":0,"id":"DDA","desc":"COMMERCE NDB"},
{"type":"NDB","hdg_t":190.2,"dist_nm":83.2,"freq":333,"lat":33.52740600,"lon":-82.51563900,"rng_nm":25,"alt_fmsl":452,"id":"HQU","desc":"THOMSON MCDUFFIE NDB"},
{"type":"VOR","hdg_t":272.4,"dist_nm":83.7,"freq":109.8,"lat":34.94300000,"lon":-83.91569444,"rng_nm":40,"alt_fmsl":3660,"id":"HRS","desc":"HARRIS VORTAC"},
{"type":"NDB","hdg_t":193.6,"dist_nm":83.9,"freq":341,"lat":33.53327778,"lon":-82.61436111,"rng_nm":50,"alt_fmsl":0,"id":"AA","desc":"CEDAR NDB"},
{"type":"NDB","hdg_t":208.2,"dist_nm":84.8,"freq":353,"lat":33.64613889,"lon":-83.02080556,"rng_nm":50,"alt_fmsl":0,"id":"VV","desc":"JUNNE NDB"},
{"type":"VOR","hdg_t":136.7,"dist_nm":84.9,"freq":114.7,"lat":33.85725000,"lon":-81.05391667,"rng_nm":130,"alt_fmsl":400,"id":"CAE","desc":"COLUMBIA VORTAC"},
{"type":"NDB","hdg_t":358.3,"dist_nm":85.1,"freq":275,"lat":36.31594444,"lon":-82.27041667,"rng_nm":50,"alt_fmsl":0,"id":"EZT","desc":"ELIZABETHTON NDB"},
{"type":"NDB","hdg_t":172.6,"dist_nm":86.5,"freq":385,"lat":33.46280556,"lon":-81.99686111,"rng_nm":50,"alt_fmsl":0,"id":"EMR","desc":"EMORY NDB"},
{"type":"NDB","hdg_t":230.1,"dist_nm":89,"freq":404,"lat":33.93536111,"lon":-83.58947222,"rng_nm":50,"alt_fmsl":0,"id":"BMW","desc":"BARROW COUNTY NDB"},
{"type":"NDB","hdg_t":113.5,"dist_nm":89.9,"freq":263,"lat":34.28355556,"lon":-80.56152778,"rng_nm":50,"alt_fmsl":0,"id":"CDN","desc":"CAMDEN NDB"},
{"type":"NDB","hdg_t":210.7,"dist_nm":90.4,"freq":397,"lat":33.59489400,"lon":-83.14072200,"rng_nm":25,"alt_fmsl":662,"id":"EJK","desc":"GREENSBORO NDB"},
{"type":"NDB","hdg_t":128.7,"dist_nm":90.9,"freq":427,"lat":33.93572222,"lon":-80.79833333,"rng_nm":50,"alt_fmsl":0,"id":"MMT","desc":"MC ENTIRE NDB"},
{"type":"NDB","hdg_t":351.5,"dist_nm":91,"freq":221,"lat":36.39872222,"lon":-82.49625000,"rng_nm":50,"alt_fmsl":0,"id":"BO","desc":"BOOIE NDB"},
{"type":"NDB","hdg_t":36.6,"dist_nm":91.2,"freq":209,"lat":36.11286111,"lon":-81.09808333,"rng_nm":50,"alt_fmsl":0,"id":"UKF","desc":"WILKI NDB"},
{"type":"VOR","hdg_t":129.2,"dist_nm":91.2,"freq":113.2,"lat":33.92408333,"lon":-80.80233333,"rng_nm":40,"alt_fmsl":248,"id":"MMT","desc":"MC ENTIRE VORTAC"},
{"type":"VOR","hdg_t":2.6,"dist_nm":92.4,"freq":114.6,"lat":36.43705556,"lon":-82.12958333,"rng_nm":40,"alt_fmsl":4321,"id":"HMV","desc":"HOLSTON MOUNTAIN VORTAC"},
{"type":"NDB","hdg_t":244.1,"dist_nm":93.3,"freq":365,"lat":34.20338889,"lon":-83.90630556,"rng_nm":50,"alt_fmsl":0,"id":"FKV","desc":"FLOWERY BRANCH NDB"},
{"type":"NDB","hdg_t":95,"dist_nm":93.3,"freq":270,"lat":34.74497222,"lon":-80.33808333,"rng_nm":50,"alt_fmsl":0,"id":"PYG","desc":"PAGELAND NDB"},
{"type":"NDB","hdg_t":320.1,"dist_nm":95.3,"freq":346,"lat":36.11055556,"lon":-83.47563889,"rng_nm":50,"alt_fmsl":0,"id":"JXT","desc":"JEFFERSON NDB"},
{"type":"NDB","hdg_t":237.7,"dist_nm":96.9,"freq":419,"lat":34.01994444,"lon":-83.86283333,"rng_nm":50,"alt_fmsl":0,"id":"TX","desc":"GWNET NDB"},
{"type":"VOR","hdg_t":98.1,"dist_nm":97.1,"freq":108.2,"lat":34.65047222,"lon":-80.27491667,"rng_nm":40,"alt_fmsl":560,"id":"CTF","desc":"CHESTERFIELD VOR-DME"},
{"type":"NDB","hdg_t":171.9,"dist_nm":97.3,"freq":233,"lat":33.28694444,"lon":-81.94688889,"rng_nm":50,"alt_fmsl":0,"id":"AG","desc":"BUSHE (LOM) NDB"},
{"type":"NDB","hdg_t":58.9,"dist_nm":98.6,"freq":275,"lat":35.73311111,"lon":-80.48955556,"rng_nm":50,"alt_fmsl":0,"id":"RU","desc":"ROVDY (LOM/NDB) NDB"},
{"type":"NDB","hdg_t":341,"dist_nm":98.9,"freq":329,"lat":36.45594444,"lon":-82.88436111,"rng_nm":50,"alt_fmsl":0,"id":"RVN","desc":"ROGERSVILLE NDB"},
{"type":"NDB","hdg_t":357.2,"dist_nm":99.5,"freq":299,"lat":36.55541667,"lon":-82.31794444,"rng_nm":50,"alt_fmsl":0,"id":"TR","desc":"MOCCA NDB"}
]
}
