{"success":true,"source":"xp2csv.pl","last_updated":"2013/11/08 14:53:21 UTC"
,"icao":"KGTF","name":"Great Falls Intl","lat":47.4827333333333,"lon":-111.371236166667,"rwys":3,"ils":1,"index":1122906,"path":"w120n40/w112n47"
,"runways":[
{"len_m":3199,"wid_m":45.72,"hdg":45,"surf":"Asphalt","rwy1":"03","lat1":47.46934200,"lon1":-111.38383300,"rwy2":"21","lat2":47.48968900,"lon2":-111.35380600},
{"len_m":1937,"wid_m":45.72,"hdg":180,"surf":"Asphalt","rwy1":"16","lat1":47.49362500,"lon1":-111.37283900,"rwy2":"34","lat2":47.47620000,"lon2":-111.37284700},
{"len_m":1308,"wid_m":22.86,"hdg":89,"surf":"Asphalt","rwy1":"07","lat1":47.48377200,"lon1":-111.38072800,"rwy2":"25","lat2":47.48377200,"lon2":-111.36336400}
]
,"radios":[
{"type":"ATIS","freq":126.6,"desc":"ATIS"},
{"type":"CTAF","freq":122.95,"desc":"UNICOM"},
{"type":"GND","freq":121.7,"desc":"GND/CLNC DEL"},
{"type":"TWR","freq":118.7,"desc":"TWR"},
{"type":"APP","freq":128.6,"desc":"APP/DEP"}
]
,"ils":[
{"type":"ILS","freq":111.3,"lat":47.49202200,"lon":-111.35036100,"rng_nm":18,"alt_fmsl":3646,"hdg":44.94,"id":"ISMR","rwy":"03","desc":"ILS-cat-I"},
{"type":"GS","freq":111.3,"lat":47.47215800,"lon":-111.38196400,"rng_nm":10,"alt_fmsl":3671,"id":"ISMR","rwy":"03","desc":"GS","gs":3},
{"type":"OM","freq":0,"lat":47.39634400,"lon":-111.49129200,"rng_nm":0,"alt_fmsl":3646,"id":"----","rwy":"03","desc":"OM"},
{"type":"MM","freq":0,"lat":47.46379400,"lon":-111.39201400,"rng_nm":0,"alt_fmsl":3646,"id":"----","rwy":"03","desc":"MM"}
]
,"navaids":[
{"type":"VOR","hdg_t":220.2,"dist_nm":2.5,"freq":115.1,"lat":47.44997222,"lon":-111.41216667,"rng_nm":130,"alt_fmsl":3672,"id":"GTF","desc":"GREAT FALLS VORTAC"},
{"type":"NDB","hdg_t":180.5,"dist_nm":7,"freq":371,"lat":47.36588889,"lon":-111.37286111,"rng_nm":50,"alt_fmsl":0,"id":"ITU","desc":"TRULY NDB"},
{"type":"SDME","hdg_t":80.4,"dist_nm":7.8,"freq":115.8,"lat":47.50406100,"lon":-111.18205600,"rng_nm":40,"alt_fmsl":3501,"id":"GFA","desc":"MALMSTROM TACAN"},
{"type":"NDB","hdg_t":302.4,"dist_nm":38.3,"freq":269,"lat":47.82247222,"lon":-112.17102778,"rng_nm":50,"alt_fmsl":0,"id":"CII","desc":"CHOTEAU NDB"},
{"type":"NDB","hdg_t":332.7,"dist_nm":47.5,"freq":293,"lat":48.18561111,"lon":-111.91413889,"rng_nm":50,"alt_fmsl":0,"id":"CRD","desc":"CONRAD NDB"},
{"type":"NDB","hdg_t":196.2,"dist_nm":57.1,"freq":386,"lat":46.56888889,"lon":-111.75805556,"rng_nm":50,"alt_fmsl":0,"id":"HAU","desc":"HAUSER NDB"},
{"type":"NDB","hdg_t":204,"dist_nm":57.4,"freq":335,"lat":46.60666667,"lon":-111.93716667,"rng_nm":50,"alt_fmsl":0,"id":"CVP","desc":"CAPITOL NDB"},
{"type":"VOR","hdg_t":204.6,"dist_nm":57.7,"freq":117.7,"lat":46.60683333,"lon":-111.95347222,"rng_nm":130,"alt_fmsl":3823,"id":"HLN","desc":"HELENA VORTAC"},
{"type":"NDB","hdg_t":14.1,"dist_nm":63.5,"freq":323,"lat":48.50805556,"lon":-110.98083333,"rng_nm":50,"alt_fmsl":0,"id":"LTY","desc":"CHESTER NDB"},
{"type":"NDB","hdg_t":342.8,"dist_nm":66.5,"freq":347,"lat":48.54097222,"lon":-111.86241667,"rng_nm":50,"alt_fmsl":0,"id":"SBX","desc":"SHELBY NDB"},
{"type":"VOR","hdg_t":329.2,"dist_nm":75.8,"freq":114.4,"lat":48.56491667,"lon":-112.34325000,"rng_nm":40,"alt_fmsl":3780,"id":"CTB","desc":"CUT BANK VORTAC"},
{"type":"VOR","hdg_t":109,"dist_nm":76.5,"freq":112,"lat":47.05297222,"lon":-109.60613889,"rng_nm":130,"alt_fmsl":4133,"id":"LWT","desc":"LEWISTOWN VOR-DME"},
{"type":"NDB","hdg_t":107.7,"dist_nm":79,"freq":353,"lat":47.06742500,"lon":-109.53534400,"rng_nm":50,"alt_fmsl":4100,"id":"LWT","desc":"LEWISTOWN NDB"},
{"type":"NDB","hdg_t":134.2,"dist_nm":89.1,"freq":242,"lat":46.43494444,"lon":-109.83241667,"rng_nm":50,"alt_fmsl":0,"id":"HWQ","desc":"HARLOWTON NDB"},
{"type":"VOR","hdg_t":236.3,"dist_nm":90.1,"freq":117.1,"lat":46.63609700,"lon":-113.18659400,"rng_nm":40,"alt_fmsl":4150,"id":"DRU","desc":"DRUMMOND VOR"},
{"type":"VOR","hdg_t":44.8,"dist_nm":90.5,"freq":111.8,"lat":48.54047222,"lon":-109.77000000,"rng_nm":40,"alt_fmsl":2583,"id":"HVR","desc":"HAVRE VOR-DME"},
{"type":"NDB","hdg_t":46,"dist_nm":93,"freq":389,"lat":48.54541400,"lon":-109.69036700,"rng_nm":25,"alt_fmsl":2547,"id":"LDS","desc":"LEEDS NDB"},
{"type":"NDB","hdg_t":177.8,"dist_nm":96.7,"freq":266,"lat":45.87180556,"lon":-111.28572222,"rng_nm":50,"alt_fmsl":0,"id":"BZ","desc":"MANNI NDB"}
]
}
