{"success":true,"source":"xp2csv.pl","last_updated":"2013/11/08 14:53:21 UTC"
,"icao":"KHAD","name":"Harford Field","lat":42.923596,"lon":-106.310077,"rwys":1,"ils":0,"index":1204538,"path":"w110n40/w107n42"
,"runways":[
{"len_m":1140,"wid_m":9.14,"hdg":84,"surf":"Dirt","rwy1":"07","lat1":42.92311300,"lon1":-106.31702900,"rwy2":"25","lat2":42.92407900,"lon2":-106.30312500}
]
,"navaids":[
{"type":"VOR","hdg_t":8.2,"dist_nm":10.1,"freq":116.2,"lat":43.09086111,"lon":-106.27702778,"rng_nm":130,"alt_fmsl":5863,"id":"DDY","desc":"MUDDY MOUNTAIN VOR-DME"},
{"type":"NDB","hdg_t":265.1,"dist_nm":11.5,"freq":375,"lat":42.90719444,"lon":-106.57005556,"rng_nm":50,"alt_fmsl":0,"id":"CP","desc":"JOHNO NDB"},
{"type":"VOR","hdg_t":106.8,"dist_nm":50.1,"freq":108.6,"lat":42.67611111,"lon":-105.22622222,"rng_nm":40,"alt_fmsl":4906,"id":"IIP","desc":"HIPSHER VOR-DME"},
{"type":"VOR","hdg_t":355.1,"dist_nm":64.7,"freq":117.3,"lat":43.99972222,"lon":-106.43572222,"rng_nm":130,"alt_fmsl":4798,"id":"CZI","desc":"CRAZY WOMAN VOR-DME"},
{"type":"VOR","hdg_t":168,"dist_nm":66,"freq":111.6,"lat":41.84552778,"lon":-106.00427778,"rng_nm":40,"alt_fmsl":7000,"id":"MBW","desc":"MEDICINE BOW VOR-DME"},
{"type":"VOR","hdg_t":210.9,"dist_nm":78,"freq":109.4,"lat":41.80480556,"lon":-107.20430556,"rng_nm":25,"alt_fmsl":6751,"id":"RWL","desc":"RAWLINS VOR-DME"},
{"type":"NDB","hdg_t":119.5,"dist_nm":81.7,"freq":280,"lat":42.23991667,"lon":-104.71427778,"rng_nm":50,"alt_fmsl":0,"id":"GYZ","desc":"CAMP GUERNSEY NDB"},
{"type":"NDB","hdg_t":22.7,"dist_nm":87.8,"freq":380,"lat":44.27088889,"lon":-105.52222222,"rng_nm":50,"alt_fmsl":0,"id":"GC","desc":"DERYK NDB"},
{"type":"NDB","hdg_t":274.2,"dist_nm":88,"freq":217,"lat":43.01413889,"lon":-108.30519444,"rng_nm":50,"alt_fmsl":0,"id":"RI","desc":"KLINT NDB"},
{"type":"VOR","hdg_t":219.3,"dist_nm":90,"freq":115,"lat":41.75572222,"lon":-107.58197222,"rng_nm":130,"alt_fmsl":7050,"id":"CKW","desc":"CHEROKEE VOR-DME"},
{"type":"NDB","hdg_t":194.8,"dist_nm":91.6,"freq":266,"lat":41.44497222,"lon":-106.83211111,"rng_nm":50,"alt_fmsl":0,"id":"SAA","desc":"SARATOGA NDB"},
{"type":"VOR","hdg_t":21,"dist_nm":91.7,"freq":114.6,"lat":44.34777778,"lon":-105.54347222,"rng_nm":130,"alt_fmsl":4334,"id":"GCC","desc":"GILLETTE VOR-DME"},
{"type":"VOR","hdg_t":291,"dist_nm":93.1,"freq":117.8,"lat":43.46313889,"lon":-108.29972222,"rng_nm":130,"alt_fmsl":7550,"id":"BOY","desc":"BOYSEN RESERVOIR VOR-DME"},
{"type":"VOR","hdg_t":275.8,"dist_nm":94.8,"freq":108.8,"lat":43.06575000,"lon":-108.45552778,"rng_nm":40,"alt_fmsl":5450,"id":"RIW","desc":"RIVERTON VOR-DME"},
{"type":"VOR","hdg_t":311.5,"dist_nm":95,"freq":114.8,"lat":43.96413889,"lon":-107.95083333,"rng_nm":40,"alt_fmsl":4190,"id":"RLY","desc":"WORLAND VOR-DME"},
{"type":"VOR","hdg_t":164.3,"dist_nm":98.6,"freq":117.6,"lat":41.33783333,"lon":-105.72094444,"rng_nm":40,"alt_fmsl":7300,"id":"LAR","desc":"LARAMIE VOR-DME"}
]
}
