{"success":true,"source":"xp2csv.pl","last_updated":"2013/11/08 14:53:21 UTC"
,"icao":"KHAX","name":"Hatbox Field","lat":35.7459325,"lon":-95.41274862,"rwys":2,"ils":0,"index":1384298,"path":"w100n30/w096n35"
,"runways":[
{"len_m":1160,"wid_m":15.24,"hdg":115,"surf":"Asphalt","rwy1":"11","lat1":35.74821714,"lon1":-95.41852009,"rwy2":"29","lat2":35.74364786,"lon2":-95.40697715},
{"len_m":852,"wid_m":15.24,"hdg":175,"surf":"Asphalt","rwy1":"17","lat1":35.74976332,"lon1":-95.41307867,"rwy2":"35","lat2":35.74210168,"lon2":-95.41241857}
]
,"navaids":[
{"type":"VOR","hdg_t":156,"dist_nm":5.4,"freq":108.6,"lat":35.66315400,"lon":-95.36774700,"rng_nm":25,"alt_fmsl":610,"id":"MEE","desc":"DAVIS VOR"},
{"type":"NDB","hdg_t":145.8,"dist_nm":10.9,"freq":306,"lat":35.59482000,"lon":-95.28718800,"rng_nm":25,"alt_fmsl":528,"id":"MKO","desc":"MUSKOGEE NDB"},
{"type":"VOR","hdg_t":261.9,"dist_nm":22.3,"freq":114.9,"lat":35.69311111,"lon":-95.86597222,"rng_nm":130,"alt_fmsl":766,"id":"OKM","desc":"OKMULGEE VOR-DME"},
{"type":"NDB","hdg_t":61.1,"dist_nm":22.5,"freq":215,"lat":35.92722222,"lon":-95.00658333,"rng_nm":50,"alt_fmsl":0,"id":"TQH","desc":"TAHLEQUAH NDB"},
{"type":"NDB","hdg_t":271.3,"dist_nm":26.1,"freq":388,"lat":35.75527778,"lon":-95.94872222,"rng_nm":50,"alt_fmsl":0,"id":"OK","desc":"PRESO NDB"},
{"type":"VOR","hdg_t":291.2,"dist_nm":29,"freq":110.6,"lat":35.92088889,"lon":-95.96863889,"rng_nm":25,"alt_fmsl":810,"id":"GNP","desc":"GLENPOOL VOR-DME"},
{"type":"NDB","hdg_t":312.3,"dist_nm":31.3,"freq":338,"lat":36.09738889,"lon":-95.88877778,"rng_nm":50,"alt_fmsl":0,"id":"TU","desc":"OILLR NDB"},
{"type":"VOR","hdg_t":325.9,"dist_nm":32.5,"freq":114.4,"lat":36.19625000,"lon":-95.78808333,"rng_nm":130,"alt_fmsl":788,"id":"TUL","desc":"TULSA VORTAC"},
{"type":"NDB","hdg_t":235.3,"dist_nm":35.8,"freq":267,"lat":35.40455556,"lon":-96.01388889,"rng_nm":50,"alt_fmsl":0,"id":"HET","desc":"HENRYETTA NDB"},
{"type":"NDB","hdg_t":124.3,"dist_nm":36.7,"freq":520,"lat":35.39858333,"lon":-94.79422222,"rng_nm":50,"alt_fmsl":0,"id":"IQS","desc":"SALLISAW NDB"},
{"type":"NDB","hdg_t":326.3,"dist_nm":40.4,"freq":375,"lat":36.30738889,"lon":-95.87527778,"rng_nm":50,"alt_fmsl":0,"id":"DW","desc":"OWASO NDB"},
{"type":"NDB","hdg_t":305.5,"dist_nm":44.2,"freq":362,"lat":36.17297222,"lon":-96.15422222,"rng_nm":50,"alt_fmsl":0,"id":"OWP","desc":"WILLIAM POGUE NDB"},
{"type":"NDB","hdg_t":271.9,"dist_nm":49.4,"freq":251,"lat":35.76980000,"lon":-96.42472800,"rng_nm":25,"alt_fmsl":929,"id":"TZO","desc":"BRISTOW NDB"},
{"type":"NDB","hdg_t":59.1,"dist_nm":52.2,"freq":284,"lat":36.18925000,"lon":-94.48855556,"rng_nm":50,"alt_fmsl":0,"id":"SLG","desc":"SILOAM SPRINGS NDB"},
{"type":"NDB","hdg_t":118.6,"dist_nm":52.4,"freq":311,"lat":35.32271111,"lon":-94.47417500,"rng_nm":50,"alt_fmsl":0,"id":"GK","desc":"JEMBO NDB"},
{"type":"VOR","hdg_t":198.7,"dist_nm":56.6,"freq":112,"lat":34.84944444,"lon":-95.78230556,"rng_nm":40,"alt_fmsl":820,"id":"MLC","desc":"MC ALESTER VORTAC"},
{"type":"VOR","hdg_t":110.6,"dist_nm":59.8,"freq":110.4,"lat":35.38841667,"lon":-94.27152778,"rng_nm":40,"alt_fmsl":430,"id":"FSM","desc":"FORT SMITH VORTAC"},
{"type":"NDB","hdg_t":199.5,"dist_nm":60.2,"freq":344,"lat":34.79777778,"lon":-95.82069444,"rng_nm":50,"alt_fmsl":0,"id":"ML","desc":"WAMPA NDB"},
{"type":"VOR","hdg_t":72.9,"dist_nm":61.8,"freq":108.8,"lat":36.04288889,"lon":-94.19755556,"rng_nm":25,"alt_fmsl":1530,"id":"DAK","desc":"DRAKE VOR-DME"},
{"type":"NDB","hdg_t":231.4,"dist_nm":63,"freq":411,"lat":35.08527778,"lon":-96.41366667,"rng_nm":50,"alt_fmsl":0,"id":"HDL","desc":"HOLDENVILLE NDB"},
{"type":"NDB","hdg_t":111.4,"dist_nm":63,"freq":223,"lat":35.35419444,"lon":-94.21700000,"rng_nm":50,"alt_fmsl":0,"id":"FS","desc":"WIZER NDB"},
{"type":"NDB","hdg_t":258.2,"dist_nm":65.3,"freq":314,"lat":35.51672222,"lon":-96.71863889,"rng_nm":50,"alt_fmsl":0,"id":"GGU","desc":"PRAGUE NDB"},
{"type":"NDB","hdg_t":277.8,"dist_nm":66.9,"freq":242,"lat":35.89011111,"lon":-96.77333333,"rng_nm":50,"alt_fmsl":0,"id":"CUH","desc":"CUSHING NDB"},
{"type":"NDB","hdg_t":245.6,"dist_nm":68,"freq":278,"lat":35.27175000,"lon":-96.67475000,"rng_nm":50,"alt_fmsl":0,"id":"SRE","desc":"SEMINOLE NDB"},
{"type":"NDB","hdg_t":269.2,"dist_nm":68.6,"freq":396,"lat":35.72227778,"lon":-96.81863889,"rng_nm":50,"alt_fmsl":0,"id":"CQB","desc":"TILGHMAN NDB"},
{"type":"VOR","hdg_t":64.1,"dist_nm":69.6,"freq":116.4,"lat":36.24641667,"lon":-94.12138889,"rng_nm":130,"alt_fmsl":1331,"id":"RZC","desc":"RAZORBACK VORTAC"},
{"type":"VOR","hdg_t":335.9,"dist_nm":71.5,"freq":117.9,"lat":36.83425000,"lon":-96.01830556,"rng_nm":40,"alt_fmsl":940,"id":"BVO","desc":"BARTLESVILLE VOR-DME"},
{"type":"NDB","hdg_t":336.1,"dist_nm":71.7,"freq":201,"lat":36.83950000,"lon":-96.01397222,"rng_nm":50,"alt_fmsl":0,"id":"BV","desc":"DEWIE NDB"},
{"type":"VOR","hdg_t":148,"dist_nm":75,"freq":113.5,"lat":34.68044444,"lon":-94.60900000,"rng_nm":40,"alt_fmsl":2700,"id":"PGO","desc":"RICH MOUNTAIN VORTAC"},
{"type":"NDB","hdg_t":257.1,"dist_nm":76.9,"freq":264,"lat":35.44983333,"lon":-96.94300000,"rng_nm":50,"alt_fmsl":0,"id":"HN","desc":"SUYBE NDB"},
{"type":"NDB","hdg_t":56.3,"dist_nm":78.1,"freq":263,"lat":36.46113889,"lon":-94.06947222,"rng_nm":50,"alt_fmsl":0,"id":"RO","desc":"ROGRS NDB"},
{"type":"NDB","hdg_t":354.6,"dist_nm":81,"freq":212,"lat":37.09327778,"lon":-95.57133333,"rng_nm":50,"alt_fmsl":0,"id":"CFV","desc":"COFFEYVILLE NDB"},
{"type":"NDB","hdg_t":347.5,"dist_nm":81,"freq":329,"lat":37.06583333,"lon":-95.77775000,"rng_nm":50,"alt_fmsl":0,"id":"ID","desc":"JEFFE NDB"},
{"type":"VOR","hdg_t":35.5,"dist_nm":81,"freq":117.3,"lat":36.84244444,"lon":-94.43569444,"rng_nm":130,"alt_fmsl":1200,"id":"EOS","desc":"NEOSHO VOR-DME"},
{"type":"VOR","hdg_t":227.9,"dist_nm":83.7,"freq":117.8,"lat":34.80255556,"lon":-96.67008333,"rng_nm":25,"alt_fmsl":987,"id":"ADH","desc":"ADA VOR-DME"},
{"type":"VOR","hdg_t":6.7,"dist_nm":85.1,"freq":117.6,"lat":37.15750000,"lon":-95.20363889,"rng_nm":40,"alt_fmsl":930,"id":"OSW","desc":"OSWEGO VORTAC"},
{"type":"VOR","hdg_t":289.9,"dist_nm":86.1,"freq":108.4,"lat":36.22425000,"lon":-97.08125000,"rng_nm":25,"alt_fmsl":1022,"id":"SWO","desc":"STILLWATER VOR-DME"},
{"type":"NDB","hdg_t":290.3,"dist_nm":86.6,"freq":255,"lat":36.23616667,"lon":-97.08730556,"rng_nm":50,"alt_fmsl":0,"id":"SW","desc":"BLAKI NDB"},
{"type":"NDB","hdg_t":187.2,"dist_nm":93.8,"freq":391,"lat":34.19177778,"lon":-95.65191667,"rng_nm":50,"alt_fmsl":0,"id":"AEE","desc":"ANTLERS NDB"},
{"type":"NDB","hdg_t":357.2,"dist_nm":95.5,"freq":258,"lat":37.33814700,"lon":-95.50870000,"rng_nm":25,"alt_fmsl":900,"id":"PPF","desc":"PARSONS NDB"},
{"type":"NDB","hdg_t":25,"dist_nm":96.5,"freq":344,"lat":37.20308333,"lon":-94.55858333,"rng_nm":50,"alt_fmsl":0,"id":"JL","desc":"LUNNS NDB"},
{"type":"NDB","hdg_t":137.2,"dist_nm":97.8,"freq":352,"lat":34.53919444,"lon":-94.07263889,"rng_nm":50,"alt_fmsl":0,"id":"VM","desc":"FENCH NDB"},
{"type":"NDB","hdg_t":137.2,"dist_nm":97.8,"freq":259,"lat":34.53910800,"lon":-94.07298100,"rng_nm":25,"alt_fmsl":0,"id":"VM","desc":"MEANA NDB"},
{"type":"NDB","hdg_t":274,"dist_nm":97.9,"freq":326,"lat":35.84555600,"lon":-97.41580600,"rng_nm":25,"alt_fmsl":1074,"id":"LCY","desc":"LOGAN COUNTY NDB"},
{"type":"SDME","hdg_t":259.6,"dist_nm":98,"freq":115.8,"lat":35.43650800,"lon":-97.37968900,"rng_nm":25,"alt_fmsl":1251,"id":"TIK","desc":"TINKER TACAN"},
{"type":"NDB","hdg_t":99,"dist_nm":98.7,"freq":201,"lat":35.46925000,"lon":-93.42352778,"rng_nm":50,"alt_fmsl":0,"id":"CZE","desc":"CLARKSVILLE NDB"},
{"type":"NDB","hdg_t":244.8,"dist_nm":98.9,"freq":512,"lat":35.02897222,"lon":-97.23047222,"rng_nm":50,"alt_fmsl":0,"id":"HMY","desc":"MULDROW NDB"}
]
}
