{"success":true,"source":"xp2csv.pl","last_updated":"2013/11/08 14:53:21 UTC"
,"icao":"KHBW","name":"Joshua Sanford Fld","lat":43.648657,"lon":-90.341758,"rwys":1,"ils":0,"index":1466730,"path":"w100n40/w091n43"
,"runways":[
{"len_m":939,"wid_m":14.63,"hdg":51,"surf":"Asphalt","rwy1":"05","lat1":43.64599700,"lon1":-90.34628300,"rwy2":"23","lat2":43.65131700,"lon2":-90.33723300}
]
,"radios":[
{"type":"CTAF","freq":122.9,"desc":"CTAF"}
]
,"navaids":[
{"type":"NDB","hdg_t":44,"dist_nm":0.5,"freq":251,"lat":43.65516667,"lon":-90.33308333,"rng_nm":50,"alt_fmsl":0,"id":"HBW","desc":"KICKAPOO NDB"},
{"type":"SDME","hdg_t":11.4,"dist_nm":18,"freq":110.4,"lat":43.94288300,"lon":-90.25901900,"rng_nm":40,"alt_fmsl":961,"id":"VOK","desc":"VOLK TACAN"},
{"type":"NDB","hdg_t":323.1,"dist_nm":21.7,"freq":412,"lat":43.93783333,"lon":-90.64186111,"rng_nm":50,"alt_fmsl":0,"id":"CMY","desc":"MC COY NDB"},
{"type":"VOR","hdg_t":156.7,"dist_nm":23.1,"freq":112.8,"lat":43.29436111,"lon":-90.13313889,"rng_nm":40,"alt_fmsl":1184,"id":"LNR","desc":"LONE ROCK VOR-DME"},
{"type":"NDB","hdg_t":25.8,"dist_nm":25.7,"freq":233,"lat":44.03405600,"lon":-90.08263900,"rng_nm":25,"alt_fmsl":914,"id":"DAF","desc":"NECEDAH NDB"},
{"type":"VOR","hdg_t":102.9,"dist_nm":25.8,"freq":117,"lat":43.55083333,"lon":-89.76361111,"rng_nm":130,"alt_fmsl":1022,"id":"DLL","desc":"DELLS VORTAC"},
{"type":"NDB","hdg_t":28,"dist_nm":41.6,"freq":326,"lat":44.25983333,"lon":-89.88788889,"rng_nm":50,"alt_fmsl":0,"id":"EK","desc":"NEPCO NDB"},
{"type":"VOR","hdg_t":289.2,"dist_nm":42,"freq":108.4,"lat":43.87611111,"lon":-91.25600000,"rng_nm":25,"alt_fmsl":650,"id":"LSE","desc":"LA CROSSE VOR-DME"},
{"type":"NDB","hdg_t":329,"dist_nm":42.4,"freq":362,"lat":44.25450000,"lon":-90.84877778,"rng_nm":50,"alt_fmsl":0,"id":"BCK","desc":"BLACK RIVER FALLS NDB"},
{"type":"NDB","hdg_t":298.4,"dist_nm":45.2,"freq":272,"lat":44.00397222,"lon":-91.26066667,"rng_nm":50,"alt_fmsl":0,"id":"LS","desc":"MINDI NDB"},
{"type":"NDB","hdg_t":173.6,"dist_nm":45.9,"freq":365,"lat":42.88805556,"lon":-90.22650000,"rng_nm":50,"alt_fmsl":0,"id":"MRJ","desc":"MINERAL POINT NDB"},
{"type":"NDB","hdg_t":26.6,"dist_nm":48.1,"freq":215,"lat":44.36394444,"lon":-89.83977778,"rng_nm":50,"alt_fmsl":0,"id":"ISW","desc":"WISCONSIN RAPIDS NDB"},
{"type":"NDB","hdg_t":266.1,"dist_nm":50.2,"freq":209,"lat":43.58691400,"lon":-91.49041800,"rng_nm":25,"alt_fmsl":1130,"id":"CHU","desc":"CALEDONIA NDB"},
{"type":"VOR","hdg_t":288.3,"dist_nm":51.4,"freq":117.9,"lat":43.91233333,"lon":-91.46752778,"rng_nm":130,"alt_fmsl":1282,"id":"ODI","desc":"NODINE VORTAC"},
{"type":"VOR","hdg_t":124.2,"dist_nm":53.2,"freq":108.6,"lat":43.14483333,"lon":-89.33969444,"rng_nm":40,"alt_fmsl":857,"id":"MSN","desc":"MADISON VORTAC"},
{"type":"NDB","hdg_t":352.2,"dist_nm":55,"freq":368,"lat":44.55711111,"lon":-90.51527778,"rng_nm":50,"alt_fmsl":0,"id":"VIQ","desc":"NEILLSVILLE NDB"},
{"type":"NDB","hdg_t":8.4,"dist_nm":55.8,"freq":266,"lat":44.56872222,"lon":-90.15094444,"rng_nm":50,"alt_fmsl":0,"id":"DU","desc":"CALIN NDB"},
{"type":"NDB","hdg_t":128.5,"dist_nm":55.9,"freq":400,"lat":43.06275000,"lon":-89.34588889,"rng_nm":50,"alt_fmsl":0,"id":"MS","desc":"MONAH NDB"},
{"type":"VOR","hdg_t":247.4,"dist_nm":56.7,"freq":116.6,"lat":43.28008333,"lon":-91.53736111,"rng_nm":40,"alt_fmsl":1288,"id":"UKN","desc":"WAUKON VORTAC"},
{"type":"NDB","hdg_t":293.3,"dist_nm":59.3,"freq":264,"lat":44.03479435,"lon":-91.60121996,"rng_nm":15,"alt_fmsl":656,"id":"ON","desc":"BOLLN LOM"},
{"type":"NDB","hdg_t":6.2,"dist_nm":59.9,"freq":391,"lat":44.64108333,"lon":-90.18913889,"rng_nm":50,"alt_fmsl":0,"id":"MFI","desc":"MARSHFIELD NDB"},
{"type":"VOR","hdg_t":32.8,"dist_nm":64.1,"freq":110.6,"lat":44.54325000,"lon":-89.53055556,"rng_nm":40,"alt_fmsl":1110,"id":"STE","desc":"STEVENS POINT VORTAC"},
{"type":"VOR","hdg_t":293.8,"dist_nm":64.5,"freq":111.4,"lat":44.07622222,"lon":-91.70572222,"rng_nm":25,"alt_fmsl":653,"id":"ONA","desc":"WINONA VOR-DME"},
{"type":"NDB","hdg_t":250.3,"dist_nm":65.2,"freq":236,"lat":43.27523750,"lon":-91.74342080,"rng_nm":25,"alt_fmsl":1139,"id":"DEH","desc":"Decorah NDB"},
{"type":"NDB","hdg_t":25.6,"dist_nm":68.5,"freq":351,"lat":44.67652778,"lon":-89.64794444,"rng_nm":50,"alt_fmsl":0,"id":"PH","desc":"BAYYE NDB"},
{"type":"NDB","hdg_t":53.8,"dist_nm":70.5,"freq":382,"lat":44.33436111,"lon":-89.01969444,"rng_nm":50,"alt_fmsl":0,"id":"PCZ","desc":"WAUPACA NDB"},
{"type":"NDB","hdg_t":19.4,"dist_nm":70.8,"freq":275,"lat":44.76036111,"lon":-89.78919444,"rng_nm":50,"alt_fmsl":0,"id":"CW","desc":"DANCI NDB"},
{"type":"NDB","hdg_t":99.8,"dist_nm":72.7,"freq":344,"lat":43.42900000,"lon":-88.70216667,"rng_nm":50,"alt_fmsl":0,"id":"UNU","desc":"JUNEAU NDB"},
{"type":"NDB","hdg_t":22.6,"dist_nm":73.4,"freq":377,"lat":44.77688300,"lon":-89.67887200,"rng_nm":25,"alt_fmsl":1264,"id":"HWS","desc":"CENTRAL WISCONSIN NDB"},
{"type":"NDB","hdg_t":111.3,"dist_nm":76.2,"freq":371,"lat":43.17366667,"lon":-88.72527778,"rng_nm":50,"alt_fmsl":0,"id":"RYV","desc":"ROCK RIVER NDB"},
{"type":"VOR","hdg_t":192.3,"dist_nm":76.5,"freq":115.8,"lat":42.40147222,"lon":-90.70908333,"rng_nm":130,"alt_fmsl":1051,"id":"DBQ","desc":"DUBUQUE VORTAC"},
{"type":"NDB","hdg_t":79.5,"dist_nm":78.7,"freq":395,"lat":43.87380556,"lon":-88.55761111,"rng_nm":50,"alt_fmsl":0,"id":"OS","desc":"POBER NDB"},
{"type":"VOR","hdg_t":24.1,"dist_nm":78.9,"freq":111.6,"lat":44.84677778,"lon":-89.58658333,"rng_nm":40,"alt_fmsl":1205,"id":"AUW","desc":"WAUSAU VORTAC"},
{"type":"NDB","hdg_t":258.3,"dist_nm":79.9,"freq":293,"lat":43.36602778,"lon":-92.13100000,"rng_nm":50,"alt_fmsl":0,"id":"CJJ","desc":"CRESCO NDB"},
{"type":"VOR","hdg_t":74.5,"dist_nm":80.2,"freq":111.8,"lat":43.99041667,"lon":-88.55594444,"rng_nm":40,"alt_fmsl":780,"id":"OSH","desc":"OSHKOSH VORTAC"},
{"type":"NDB","hdg_t":188.1,"dist_nm":80.3,"freq":341,"lat":42.32300000,"lon":-90.59886111,"rng_nm":50,"alt_fmsl":0,"id":"DB","desc":"ZILOM NDB"},
{"type":"NDB","hdg_t":84.2,"dist_nm":81.1,"freq":248,"lat":43.76954400,"lon":-88.48462800,"rng_nm":25,"alt_fmsl":0,"id":"FLD","desc":"FOND DU LAC NDB"},
{"type":"NDB","hdg_t":67.3,"dist_nm":82.1,"freq":230,"lat":44.16250000,"lon":-88.58502778,"rng_nm":50,"alt_fmsl":0,"id":"AT","desc":"GAMIE NDB"},
{"type":"NDB","hdg_t":21.6,"dist_nm":82.7,"freq":243,"lat":44.92780556,"lon":-89.62511111,"rng_nm":50,"alt_fmsl":0,"id":"FZK","desc":"WAUSAU NDB"},
{"type":"NDB","hdg_t":136.8,"dist_nm":84.3,"freq":375,"lat":42.61511111,"lon":-89.04127778,"rng_nm":50,"alt_fmsl":0,"id":"JVL","desc":"JANESVILLE NDB"},
{"type":"VOR","hdg_t":139.8,"dist_nm":85,"freq":114.3,"lat":42.55800000,"lon":-89.10525000,"rng_nm":40,"alt_fmsl":931,"id":"JVL","desc":"JANESVILLE VOR-DME"},
{"type":"NDB","hdg_t":101.3,"dist_nm":86.9,"freq":200,"lat":43.34763889,"lon":-88.39522222,"rng_nm":50,"alt_fmsl":0,"id":"HXF","desc":"HARTFORD NDB"},
{"type":"NDB","hdg_t":0.9,"dist_nm":87.4,"freq":335,"lat":45.10536111,"lon":-90.30869444,"rng_nm":50,"alt_fmsl":0,"id":"MDZ","desc":"MEDFORD NDB"},
{"type":"NDB","hdg_t":330.5,"dist_nm":89.5,"freq":239,"lat":44.94475000,"lon":-91.37366667,"rng_nm":50,"alt_fmsl":0,"id":"EA","desc":"MAGGS NDB"},
{"type":"VOR","hdg_t":327.2,"dist_nm":89.5,"freq":112.9,"lat":44.89766667,"lon":-91.47855556,"rng_nm":40,"alt_fmsl":804,"id":"EAU","desc":"EAU CLAIRE VORTAC"},
{"type":"NDB","hdg_t":49.4,"dist_nm":90.6,"freq":209,"lat":44.61880556,"lon":-88.73319444,"rng_nm":50,"alt_fmsl":0,"id":"CLI","desc":"CLINTONVILLE NDB"},
{"type":"NDB","hdg_t":67.3,"dist_nm":90.8,"freq":407,"lat":44.21588889,"lon":-88.39894444,"rng_nm":50,"alt_fmsl":0,"id":"AQ","desc":"KOOKY NDB"},
{"type":"NDB","hdg_t":278.5,"dist_nm":90.8,"freq":329,"lat":43.85436700,"lon":-92.41167500,"rng_nm":25,"alt_fmsl":1263,"id":"RS","desc":"MINGO NDB"},
{"type":"NDB","hdg_t":231.6,"dist_nm":92.1,"freq":260,"lat":42.68413889,"lon":-91.97627778,"rng_nm":50,"alt_fmsl":0,"id":"OLZ","desc":"OELWEIN NDB"},
{"type":"VOR","hdg_t":108.8,"dist_nm":95.5,"freq":116.4,"lat":43.11686111,"lon":-88.28433333,"rng_nm":130,"alt_fmsl":1080,"id":"BAE","desc":"BADGER VORTAC"},
{"type":"NDB","hdg_t":125.9,"dist_nm":95.6,"freq":404,"lat":42.69883333,"lon":-88.59316667,"rng_nm":50,"alt_fmsl":0,"id":"LVV","desc":"LAKE LAWN NDB"},
{"type":"NDB","hdg_t":16.2,"dist_nm":96.9,"freq":257,"lat":45.19861111,"lon":-89.70425000,"rng_nm":50,"alt_fmsl":0,"id":"RRL","desc":"MERRILL NDB"},
{"type":"NDB","hdg_t":190.5,"dist_nm":97.4,"freq":386,"lat":42.05138600,"lon":-90.74095300,"rng_nm":25,"alt_fmsl":765,"id":"OQW","desc":"MAQUOKETA NDB"},
{"type":"VOR","hdg_t":97.2,"dist_nm":97.6,"freq":109.8,"lat":43.42197222,"lon":-88.12519444,"rng_nm":25,"alt_fmsl":0,"id":"BJB","desc":"WEST BEND VOR"},
{"type":"VOR","hdg_t":275.4,"dist_nm":98.4,"freq":112,"lat":43.78286111,"lon":-92.59691667,"rng_nm":40,"alt_fmsl":1389,"id":"RST","desc":"ROCHESTER VOR-DME"},
{"type":"VOR","hdg_t":149,"dist_nm":99.1,"freq":110.8,"lat":42.22558333,"lon":-89.19927778,"rng_nm":40,"alt_fmsl":868,"id":"RFD","desc":"ROCKFORD VOR-DME"}
]
}
