{"success":true,"source":"xp2csv.pl","last_updated":"2013/11/08 14:53:21 UTC"
,"icao":"KHES","name":"Healdsburg Municipal","lat":38.65278,"lon":-122.898586,"rwys":1,"ils":0,"index":942120,"path":"w130n30/w123n38"
,"runways":[
{"len_m":825,"wid_m":18.29,"hdg":145,"surf":"Asphalt","rwy1":"13","lat1":38.65585677,"lon1":-122.90124343,"rwy2":"31","lat2":38.64970323,"lon2":-122.89592857}
]
,"navaids":[
{"type":"VOR","hdg_t":154.4,"dist_nm":9.6,"freq":113,"lat":38.50816667,"lon":-122.81047222,"rng_nm":40,"alt_fmsl":117,"id":"STS","desc":"SANTA ROSA VOR-DME"},
{"type":"VOR","hdg_t":323.8,"dist_nm":29.7,"freq":112.3,"lat":39.05322222,"lon":-123.27419444,"rng_nm":130,"alt_fmsl":2980,"id":"ENI","desc":"MENDOCINO VORTAC"},
{"type":"VOR","hdg_t":177.5,"dist_nm":34.3,"freq":113.7,"lat":38.07975000,"lon":-122.86783333,"rng_nm":130,"alt_fmsl":1340,"id":"PYE","desc":"POINT REYES VORTAC"},
{"type":"VOR","hdg_t":138.7,"dist_nm":37.6,"freq":112.1,"lat":38.17936111,"lon":-122.37313889,"rng_nm":40,"alt_fmsl":6,"id":"SGD","desc":"SCAGGS ISLAND VORTAC"},
{"type":"NDB","hdg_t":336.9,"dist_nm":40.6,"freq":371,"lat":39.27586111,"lon":-123.24041667,"rng_nm":50,"alt_fmsl":0,"id":"UK","desc":"KEARN NDB"},
{"type":"VOR","hdg_t":58.1,"dist_nm":47.9,"freq":114.4,"lat":39.07113889,"lon":-122.02725000,"rng_nm":40,"alt_fmsl":50,"id":"ILA","desc":"WILLIAMS VORTAC"},
{"type":"VOR","hdg_t":38.2,"dist_nm":50.9,"freq":110,"lat":39.31758333,"lon":-122.22152778,"rng_nm":40,"alt_fmsl":110,"id":"MXW","desc":"MAXWELL VORTAC"},
{"type":"VOR","hdg_t":159.4,"dist_nm":50.9,"freq":116.2,"lat":37.85533333,"lon":-122.52275000,"rng_nm":40,"alt_fmsl":1040,"id":"SAU","desc":"SAUSALITO VORTAC"},
{"type":"SDME","hdg_t":118.2,"dist_nm":51.1,"freq":116.6,"lat":38.24555800,"lon":-121.94507200,"rng_nm":40,"alt_fmsl":32,"id":"SUU","desc":"TRAVIS TACAN"},
{"type":"VOR","hdg_t":131.8,"dist_nm":54.3,"freq":117,"lat":38.04491667,"lon":-122.04519444,"rng_nm":25,"alt_fmsl":5,"id":"CCR","desc":"CONCORD VOR-DME"},
{"type":"VOR","hdg_t":109.5,"dist_nm":54.4,"freq":116.4,"lat":38.34419444,"lon":-121.81072222,"rng_nm":40,"alt_fmsl":0,"id":"TZZ","desc":"TRAVIS VOR"},
{"type":"NDB","hdg_t":131.4,"dist_nm":54.6,"freq":335,"lat":38.04641667,"lon":-122.03344444,"rng_nm":50,"alt_fmsl":0,"id":"CC","desc":"KANAN NDB"},
{"type":"NDB","hdg_t":91.6,"dist_nm":60.9,"freq":400,"lat":38.61701700,"lon":-121.60329700,"rng_nm":25,"alt_fmsl":15,"id":"HU","desc":"LANEE NDB"},
{"type":"NDB","hdg_t":81.6,"dist_nm":61.5,"freq":230,"lat":38.79494444,"lon":-121.59936111,"rng_nm":50,"alt_fmsl":0,"id":"SM","desc":"METRE NDB"},
{"type":"VOR","hdg_t":149.9,"dist_nm":64,"freq":116.8,"lat":37.72591667,"lon":-122.22358333,"rng_nm":130,"alt_fmsl":10,"id":"OAK","desc":"OAKLAND VORTAC"},
{"type":"VOR","hdg_t":100.7,"dist_nm":64.6,"freq":115.2,"lat":38.44366667,"lon":-121.55161111,"rng_nm":130,"alt_fmsl":10,"id":"SAC","desc":"SACRAMENTO VORTAC"},
{"type":"VOR","hdg_t":157.9,"dist_nm":66.7,"freq":115.8,"lat":37.61947222,"lon":-122.37388889,"rng_nm":40,"alt_fmsl":13,"id":"SFO","desc":"SAN FRANCISCO VOR-DME"},
{"type":"VOR","hdg_t":66.3,"dist_nm":67.6,"freq":110.8,"lat":39.09863889,"lon":-121.57305556,"rng_nm":25,"alt_fmsl":62,"id":"MYV","desc":"MARYSVILLE VOR-DME"},
{"type":"NDB","hdg_t":62.4,"dist_nm":67.8,"freq":222,"lat":39.16939100,"lon":-121.60984800,"rng_nm":25,"alt_fmsl":64,"id":"MY","desc":"HALOW NDB"},
{"type":"VOR","hdg_t":88.8,"dist_nm":70.2,"freq":109.2,"lat":38.66738889,"lon":-121.40416667,"rng_nm":25,"alt_fmsl":72,"id":"MCC","desc":"MC CLELLAN VOR-DME"},
{"type":"SDME","hdg_t":66.6,"dist_nm":74.1,"freq":108.6,"lat":39.13475400,"lon":-121.44065500,"rng_nm":25,"alt_fmsl":165,"id":"BAB","desc":"BEALE TACAN"},
{"type":"VOR","hdg_t":158.6,"dist_nm":81,"freq":113.9,"lat":37.39250000,"lon":-122.28130556,"rng_nm":40,"alt_fmsl":2270,"id":"OSI","desc":"WOODSIDE VORTAC"},
{"type":"NDB","hdg_t":134.6,"dist_nm":81.3,"freq":374,"lat":37.69222222,"lon":-121.68408333,"rng_nm":50,"alt_fmsl":0,"id":"LV","desc":"REIGA NDB"},
{"type":"SDME","hdg_t":151.1,"dist_nm":83.2,"freq":117.6,"lat":37.43240300,"lon":-122.05753900,"rng_nm":25,"alt_fmsl":0,"id":"NUQ","desc":"MOFFETT TACAN"},
{"type":"VOR","hdg_t":35.3,"dist_nm":83.9,"freq":109.8,"lat":39.78983333,"lon":-121.84719444,"rng_nm":25,"alt_fmsl":215,"id":"CIC","desc":"CHICO VOR-DME"},
{"type":"VOR","hdg_t":149.1,"dist_nm":88.9,"freq":114.1,"lat":37.37472222,"lon":-121.94466667,"rng_nm":40,"alt_fmsl":43,"id":"SJC","desc":"SAN JOSE VOR-DME"},
{"type":"NDB","hdg_t":129.4,"dist_nm":89.6,"freq":203,"lat":37.69238889,"lon":-121.44463889,"rng_nm":50,"alt_fmsl":0,"id":"TCY","desc":"TRACY NDB"},
{"type":"VOR","hdg_t":19.3,"dist_nm":92,"freq":115.7,"lat":40.09891667,"lon":-122.23636111,"rng_nm":130,"alt_fmsl":322,"id":"RBL","desc":"RED BLUFF VORTAC"},
{"type":"NDB","hdg_t":19.1,"dist_nm":92.8,"freq":338,"lat":40.11388889,"lon":-122.23744444,"rng_nm":50,"alt_fmsl":0,"id":"PBT","desc":"PROBERTA NDB"},
{"type":"VOR","hdg_t":120.4,"dist_nm":95.2,"freq":116,"lat":37.83361111,"lon":-121.17138889,"rng_nm":130,"alt_fmsl":47,"id":"ECA","desc":"MANTECA VOR-DME"},
{"type":"VOR","hdg_t":110.5,"dist_nm":95.8,"freq":114.8,"lat":38.07458333,"lon":-121.00386111,"rng_nm":130,"alt_fmsl":260,"id":"LIN","desc":"LINDEN VORTAC"}
]
}
