{"success":true,"source":"xp2csv.pl","last_updated":"2013/11/08 14:53:21 UTC"
,"icao":"KHGR","name":"Hagerstown Rgnl Richard A Henson Fld","lat":39.7081048,"lon":-77.7273002533333,"rwys":2,"ils":1,"index":1679465,"path":"w080n30/w078n39"
,"runways":[
{"len_m":2140,"wid_m":46.02,"hdg":80,"surf":"Asphalt","rwy1":"09","lat1":39.70671590,"lon1":-77.74038299,"rwy2":"27","lat2":39.70989827,"lon2":-77.71576966},
{"len_m":962,"wid_m":29.87,"hdg":14,"surf":"Asphalt","rwy1":"02","lat1":39.70420748,"lon1":-77.72877149,"rwy2":"20","lat2":39.71258752,"lon2":-77.72589233}
]
,"helipads":[
{"rwy1":"H1","len_m":25,"wid_m":27.13,"hdg":-77,"surf":"Concrete","lat1":39.70760981,"lon1":-77.72649252}
]
,"radios":[
{"type":"ATIS","freq":126.37,"desc":"ASOS"},
{"type":"CTAF","freq":120.3,"desc":"CTAF"},
{"type":"CTAF","freq":122.95,"desc":"UNICOM"},
{"type":"GND","freq":120.8,"desc":"GND"},
{"type":"TWR","freq":120.3,"desc":"TWR"}
]
,"ils":[
{"type":"ILS","freq":111.9,"lat":39.70614200,"lon":-77.74471700,"rng_nm":18,"alt_fmsl":648,"hdg":260.42,"id":"IHGR","rwy":"27","desc":"ILS-cat-I"},
{"type":"GS","freq":111.9,"lat":39.70925000,"lon":-77.72604400,"rng_nm":10,"alt_fmsl":695,"id":"IHGR","rwy":"27","desc":"GS","gs":3},
{"type":"MM","freq":0,"lat":39.71012200,"lon":-77.71385000,"rng_nm":0,"alt_fmsl":648,"id":"----","rwy":"27","desc":"MM"},
{"type":"DME","freq":111.9,"lat":39.70557500,"lon":-77.74458600,"rng_nm":18,"alt_fmsl":660,"id":"IHGR","rwy":"27","desc":"DME-ILS"}
]
,"navaids":[
{"type":"VOR","hdg_t":264,"dist_nm":5.9,"freq":109.8,"lat":39.69772222,"lon":-77.85572222,"rng_nm":40,"alt_fmsl":0,"id":"HGR","desc":"HAGERSTOWN VOR"},
{"type":"VOR","hdg_t":322.6,"dist_nm":17,"freq":115,"lat":39.93322222,"lon":-77.95094444,"rng_nm":40,"alt_fmsl":2340,"id":"THS","desc":"ST THOMAS VORTAC"},
{"type":"VOR","hdg_t":196.2,"dist_nm":20.1,"freq":112.1,"lat":39.38558333,"lon":-77.84836111,"rng_nm":40,"alt_fmsl":600,"id":"MRB","desc":"MARTINSBURG VORTAC"},
{"type":"VOR","hdg_t":137.2,"dist_nm":24.1,"freq":109,"lat":39.41222222,"lon":-77.37513889,"rng_nm":25,"alt_fmsl":0,"id":"FDK","desc":"FREDERICK VOR"},
{"type":"VOR","hdg_t":109.9,"dist_nm":36.9,"freq":117.9,"lat":39.49500000,"lon":-76.97858333,"rng_nm":130,"alt_fmsl":820,"id":"EMI","desc":"WESTMINSTER VORTAC"},
{"type":"NDB","hdg_t":203.1,"dist_nm":40.5,"freq":364,"lat":39.08650000,"lon":-78.06861111,"rng_nm":50,"alt_fmsl":0,"id":"TZ","desc":"COGAN NDB"},
{"type":"NDB","hdg_t":71.8,"dist_nm":41.2,"freq":254,"lat":39.92002778,"lon":-76.87755556,"rng_nm":50,"alt_fmsl":0,"id":"EUD","desc":"YORK NDB"},
{"type":"NDB","hdg_t":140.8,"dist_nm":41.5,"freq":385,"lat":39.16972222,"lon":-77.16591667,"rng_nm":50,"alt_fmsl":0,"id":"GAI","desc":"GAITHERSBURG NDB"},
{"type":"NDB","hdg_t":186.1,"dist_nm":45.4,"freq":227,"lat":38.95400000,"lon":-77.83111111,"rng_nm":50,"alt_fmsl":0,"id":"GDX","desc":"GOODWIN LAKE NDB"},
{"type":"VOR","hdg_t":324.5,"dist_nm":45.5,"freq":108.8,"lat":40.32544444,"lon":-78.30369444,"rng_nm":25,"alt_fmsl":0,"id":"AOO","desc":"ALTOONA VOR"},
{"type":"VOR","hdg_t":40.1,"dist_nm":46.7,"freq":112.5,"lat":40.30225000,"lon":-77.06955556,"rng_nm":40,"alt_fmsl":1301,"id":"HAR","desc":"HARRISBURG VORTAC"},
{"type":"NDB","hdg_t":265.9,"dist_nm":47.3,"freq":317,"lat":39.64825000,"lon":-78.74719444,"rng_nm":50,"alt_fmsl":0,"id":"CBE","desc":"CUMBERLAND NDB"},
{"type":"VOR","hdg_t":165.2,"dist_nm":47.9,"freq":113.5,"lat":38.93458333,"lon":-77.46669444,"rng_nm":40,"alt_fmsl":297,"id":"AML","desc":"ARMEL VORTAC"},
{"type":"NDB","hdg_t":49.4,"dist_nm":49.9,"freq":204,"lat":40.24638889,"lon":-76.90063889,"rng_nm":50,"alt_fmsl":0,"id":"MD","desc":"ENOLA NDB"},
{"type":"NDB","hdg_t":119.4,"dist_nm":50.8,"freq":371,"lat":39.28736111,"lon":-76.77702778,"rng_nm":50,"alt_fmsl":0,"id":"FND","desc":"ELLICOTT NDB"},
{"type":"NDB","hdg_t":165.2,"dist_nm":53.3,"freq":346,"lat":38.84727778,"lon":-77.43788889,"rng_nm":50,"alt_fmsl":0,"id":"IA","desc":"TILLE NDB"},
{"type":"NDB","hdg_t":148.7,"dist_nm":54.4,"freq":323,"lat":38.92988889,"lon":-77.12422222,"rng_nm":50,"alt_fmsl":0,"id":"GTN","desc":"GEORGETOWN NDB"},
{"type":"VOR","hdg_t":203.6,"dist_nm":55.8,"freq":114.3,"lat":38.85438889,"lon":-78.20555556,"rng_nm":40,"alt_fmsl":2440,"id":"LDN","desc":"LINDEN VORTAC"},
{"type":"NDB","hdg_t":115.8,"dist_nm":57,"freq":404,"lat":39.28705556,"lon":-76.62525000,"rng_nm":50,"alt_fmsl":0,"id":"IUB","desc":"INSTITUTE NDB"},
{"type":"NDB","hdg_t":129.4,"dist_nm":58.5,"freq":260,"lat":39.08405556,"lon":-76.76000000,"rng_nm":50,"alt_fmsl":0,"id":"BUH","desc":"ANNE ARUNDEL NDB"},
{"type":"VOR","hdg_t":122.6,"dist_nm":59,"freq":115.1,"lat":39.17105556,"lon":-76.66125000,"rng_nm":40,"alt_fmsl":140,"id":"BAL","desc":"BALTIMORE VORTAC"},
{"type":"NDB","hdg_t":292.7,"dist_nm":59.3,"freq":209,"lat":40.08569444,"lon":-78.91655556,"rng_nm":50,"alt_fmsl":0,"id":"SYS","desc":"STOYSTOWN NDB"},
{"type":"VOR","hdg_t":147.4,"dist_nm":60.1,"freq":111,"lat":38.85944444,"lon":-77.03644444,"rng_nm":40,"alt_fmsl":10,"id":"DCA","desc":"WASHINGTON VOR-DME"},
{"type":"VOR","hdg_t":266.3,"dist_nm":61.4,"freq":112.3,"lat":39.63502778,"lon":-79.05052778,"rng_nm":40,"alt_fmsl":2640,"id":"GRV","desc":"GRANTSVILLE VOR-DME"},
{"type":"NDB","hdg_t":139.5,"dist_nm":61.8,"freq":232,"lat":38.92000000,"lon":-76.87166700,"rng_nm":25,"alt_fmsl":74,"id":"MX","desc":"ZOOTE NDB"},
{"type":"VOR","hdg_t":305.9,"dist_nm":62.7,"freq":113,"lat":40.31672222,"lon":-78.83416667,"rng_nm":40,"alt_fmsl":2280,"id":"JST","desc":"JOHNSTOWN VORTAC"},
{"type":"VOR","hdg_t":185.8,"dist_nm":64.2,"freq":116.3,"lat":38.64119444,"lon":-77.86550000,"rng_nm":130,"alt_fmsl":439,"id":"CSN","desc":"CASANOVA VORTAC"},
{"type":"NDB","hdg_t":149.7,"dist_nm":65.2,"freq":332,"lat":38.76594444,"lon":-77.02738889,"rng_nm":50,"alt_fmsl":0,"id":"DC","desc":"OXONN NDB"},
{"type":"VOR","hdg_t":244.1,"dist_nm":65.3,"freq":110.8,"lat":39.22550000,"lon":-78.98950000,"rng_nm":40,"alt_fmsl":2590,"id":"ESL","desc":"KESSEL VOR-DME"},
{"type":"VOR","hdg_t":143.1,"dist_nm":67.2,"freq":113.1,"lat":38.80722222,"lon":-76.86625000,"rng_nm":40,"alt_fmsl":260,"id":"ADW","desc":"ANDREWS VORTAC"},
{"type":"VOR","hdg_t":335.9,"dist_nm":67.5,"freq":114.9,"lat":40.73511111,"lon":-78.33130556,"rng_nm":40,"alt_fmsl":2630,"id":"TON","desc":"TYRONE VORTAC"},
{"type":"NDB","hdg_t":147.7,"dist_nm":67.8,"freq":241,"lat":38.74888900,"lon":-76.95611100,"rng_nm":25,"alt_fmsl":115,"id":"VKX","desc":"POTOMAC NDB"},
{"type":"VOR","hdg_t":317.2,"dist_nm":68.7,"freq":110.6,"lat":40.54647222,"lon":-78.74702778,"rng_nm":40,"alt_fmsl":2340,"id":"REC","desc":"REVLOC VOR-DME"},
{"type":"NDB","hdg_t":155.1,"dist_nm":69,"freq":223,"lat":38.66163889,"lon":-77.11016667,"rng_nm":50,"alt_fmsl":0,"id":"DAA","desc":"DAVEE NDB"},
{"type":"NDB","hdg_t":50.7,"dist_nm":69.4,"freq":328,"lat":40.43591667,"lon":-76.55302778,"rng_nm":50,"alt_fmsl":0,"id":"BZJ","desc":"BELLGROVE NDB"},
{"type":"NDB","hdg_t":210.1,"dist_nm":69.7,"freq":245,"lat":38.69955556,"lon":-78.47166667,"rng_nm":50,"alt_fmsl":0,"id":"LUA","desc":"CAVERNS NDB"},
{"type":"VOR","hdg_t":69.1,"dist_nm":70.7,"freq":117.3,"lat":40.11997222,"lon":-76.29130556,"rng_nm":40,"alt_fmsl":399,"id":"LRP","desc":"LANCASTER VORTAC"},
{"type":"NDB","hdg_t":359.4,"dist_nm":72,"freq":388,"lat":40.91030556,"lon":-77.74175000,"rng_nm":50,"alt_fmsl":0,"id":"UN","desc":"PENUE NDB"},
{"type":"NDB","hdg_t":146.2,"dist_nm":72.4,"freq":360,"lat":38.70077778,"lon":-76.87022222,"rng_nm":50,"alt_fmsl":0,"id":"RW","desc":"KIRBE NDB"},
{"type":"VOR","hdg_t":45.3,"dist_nm":72.5,"freq":114.6,"lat":40.55338889,"lon":-76.59938889,"rng_nm":40,"alt_fmsl":1750,"id":"RAV","desc":"RAVINE VORTAC"},
{"type":"VOR","hdg_t":350.5,"dist_nm":73.4,"freq":115.5,"lat":40.91625000,"lon":-77.99272222,"rng_nm":130,"alt_fmsl":2440,"id":"PSB","desc":"PHILIPSBURG VORTAC"},
{"type":"VOR","hdg_t":100.8,"dist_nm":73.6,"freq":108.4,"lat":39.46666667,"lon":-76.17094444,"rng_nm":25,"alt_fmsl":47,"id":"PPM","desc":"PHILLIPS VOR-DME"},
{"type":"VOR","hdg_t":142.3,"dist_nm":75.5,"freq":113.7,"lat":38.70586111,"lon":-76.74475000,"rng_nm":40,"alt_fmsl":210,"id":"OTT","desc":"NOTTINGHAM VORTAC"},
{"type":"VOR","hdg_t":30.5,"dist_nm":75.5,"freq":110.4,"lat":40.79083333,"lon":-76.88402778,"rng_nm":40,"alt_fmsl":620,"id":"SEG","desc":"SELINSGROVE VORTAC"},
{"type":"NDB","hdg_t":186.3,"dist_nm":75.6,"freq":351,"lat":38.45433333,"lon":-77.90527778,"rng_nm":50,"alt_fmsl":0,"id":"MSQ","desc":"NAILR NDB"},
{"type":"NDB","hdg_t":97.3,"dist_nm":75.8,"freq":349,"lat":39.53586111,"lon":-76.10638889,"rng_nm":50,"alt_fmsl":0,"id":"APG","desc":"ABERDEEN NDB"},
{"type":"VOR","hdg_t":282.4,"dist_nm":77,"freq":108.2,"lat":39.97425000,"lon":-79.35836111,"rng_nm":40,"alt_fmsl":2820,"id":"IHD","desc":"INDIAN HEAD VORTAC"},
{"type":"NDB","hdg_t":346.1,"dist_nm":78.9,"freq":275,"lat":40.98613889,"lon":-78.14252778,"rng_nm":50,"alt_fmsl":0,"id":"PS","desc":"PORTS NDB"},
{"type":"SDME","hdg_t":168.8,"dist_nm":79.8,"freq":108.75,"lat":38.40000000,"lon":-77.40000000,"rng_nm":25,"alt_fmsl":172,"id":"ZZ","desc":"ZZZ TEST D DME"},
{"type":"NDB","hdg_t":299.8,"dist_nm":81.6,"freq":382,"lat":40.37544444,"lon":-79.27172222,"rng_nm":50,"alt_fmsl":0,"id":"BHU","desc":"BENJE NDB"},
{"type":"NDB","hdg_t":312.4,"dist_nm":82.8,"freq":242,"lat":40.63191667,"lon":-79.06591667,"rng_nm":50,"alt_fmsl":0,"id":"INP","desc":"INDIANA NDB"},
{"type":"VOR","hdg_t":167.8,"dist_nm":84,"freq":114.5,"lat":38.33627778,"lon":-77.35291667,"rng_nm":40,"alt_fmsl":145,"id":"BRV","desc":"BROOKE VORTAC"},
{"type":"VOR","hdg_t":166.5,"dist_nm":86.7,"freq":116.7,"lat":38.30000000,"lon":-77.30000000,"rng_nm":100,"alt_fmsl":57,"id":"ZZC","desc":"ZZZ TEST C VOR-DME"},
{"type":"NDB","hdg_t":171.4,"dist_nm":87.3,"freq":237,"lat":38.26638889,"lon":-77.45080556,"rng_nm":50,"alt_fmsl":0,"id":"EZF","desc":"SHANNON NDB"},
{"type":"VOR","hdg_t":348.2,"dist_nm":92.3,"freq":116,"lat":41.21494444,"lon":-78.14275000,"rng_nm":130,"alt_fmsl":2250,"id":"ETG","desc":"KEATING VORTAC"},
{"type":"VOR","hdg_t":31.3,"dist_nm":92.6,"freq":109.2,"lat":41.02338889,"lon":-76.66530556,"rng_nm":40,"alt_fmsl":1000,"id":"MIP","desc":"MILTON VORTAC"},
{"type":"NDB","hdg_t":164.5,"dist_nm":93.7,"freq":397,"lat":38.20000000,"lon":-77.20000000,"rng_nm":50,"alt_fmsl":99,"id":"ZZB","desc":"ZZZ TEST B NDB"},
{"type":"NDB","hdg_t":277,"dist_nm":93.8,"freq":299,"lat":39.88277778,"lon":-79.74472222,"rng_nm":50,"alt_fmsl":0,"id":"VV","desc":"CAMOR NDB"},
{"type":"VOR","hdg_t":81.8,"dist_nm":95.9,"freq":113.2,"lat":39.91805556,"lon":-75.67080556,"rng_nm":40,"alt_fmsl":473,"id":"MXE","desc":"MODENA VORTAC"},
{"type":"NDB","hdg_t":93.7,"dist_nm":98.2,"freq":248,"lat":39.58122222,"lon":-75.61388889,"rng_nm":50,"alt_fmsl":0,"id":"IL","desc":"HADIN (LOM) NDB"},
{"type":"VOR","hdg_t":90.3,"dist_nm":98.2,"freq":114,"lat":39.67813889,"lon":-75.60708333,"rng_nm":40,"alt_fmsl":70,"id":"DQO","desc":"DUPONT VORTAC"},
{"type":"NDB","hdg_t":168.8,"dist_nm":98.9,"freq":396,"lat":38.08777778,"lon":-77.32491667,"rng_nm":50,"alt_fmsl":0,"id":"APH","desc":"A P HILL NDB"},
{"type":"VOR","hdg_t":265.4,"dist_nm":99.2,"freq":111.6,"lat":39.55669444,"lon":-79.86038889,"rng_nm":40,"alt_fmsl":2339,"id":"MGW","desc":"MORGANTOWN VORTAC"}
]
}
