{"success":true,"source":"xp2csv.pl","last_updated":"2013/11/08 14:53:21 UTC"
,"icao":"KHND","name":"Henderson Executive","lat":35.9729885,"lon":-115.13422825,"rwys":2,"ils":0,"index":1056635,"path":"w120n30/w116n35"
,"runways":[
{"len_m":1981,"wid_m":29.87,"hdg":180,"surf":"Asphalt","rwy1":"17R","lat1":35.98089500,"lon1":-115.13531400,"rwy2":"35L","lat2":35.96304200,"lon2":-115.13553300},
{"len_m":1523,"wid_m":22.86,"hdg":180,"surf":"Asphalt","rwy1":"17L","lat1":35.98087500,"lon1":-115.13294700,"rwy2":"35R","lat2":35.96714200,"lon2":-115.13311900}
]
,"radios":[
{"type":"ATIS","freq":120.77,"desc":"ATIS"},
{"type":"CTAF","freq":125.1,"desc":"CTAF"},
{"type":"CTAF","freq":122.95,"desc":"UNICOM"},
{"type":"GND","freq":127.8,"desc":"GND"},
{"type":"TWR","freq":125.1,"desc":"TWR"},
{"type":"APP","freq":118.4,"desc":"Las Vegas APP/DEP"}
]
,"navaids":[
{"type":"VOR","hdg_t":348.9,"dist_nm":6.5,"freq":116.9,"lat":36.07969444,"lon":-115.15980556,"rng_nm":130,"alt_fmsl":2141,"id":"LAS","desc":"LAS VEGAS VORTAC"},
{"type":"VOR","hdg_t":84,"dist_nm":13.2,"freq":116.7,"lat":35.99577778,"lon":-114.86358333,"rng_nm":130,"alt_fmsl":3650,"id":"BLD","desc":"BOULDER CITY VORTAC"},
{"type":"VOR","hdg_t":182.3,"dist_nm":50.4,"freq":114.4,"lat":35.13113889,"lon":-115.17644444,"rng_nm":40,"alt_fmsl":4000,"id":"GFS","desc":"GOFFS VORTAC"},
{"type":"VOR","hdg_t":40.7,"dist_nm":63.2,"freq":114.3,"lat":36.76927778,"lon":-114.27747222,"rng_nm":40,"alt_fmsl":2120,"id":"MMM","desc":"MORMON MESA VORTAC"},
{"type":"VOR","hdg_t":125.6,"dist_nm":72.5,"freq":108.8,"lat":35.26052778,"lon":-113.93408333,"rng_nm":40,"alt_fmsl":3410,"id":"IGM","desc":"KINGMAN VOR-DME"},
{"type":"VOR","hdg_t":155.6,"dist_nm":79.2,"freq":115.2,"lat":34.76600000,"lon":-114.47411111,"rng_nm":130,"alt_fmsl":620,"id":"EED","desc":"NEEDLES VORTAC"},
{"type":"VOR","hdg_t":104.5,"dist_nm":80.3,"freq":112,"lat":35.62472222,"lon":-113.54447222,"rng_nm":130,"alt_fmsl":4760,"id":"PGS","desc":"PEACH SPRINGS VORTAC"},
{"type":"VOR","hdg_t":302.8,"dist_nm":92.5,"freq":114.7,"lat":36.80058333,"lon":-116.74763889,"rng_nm":130,"alt_fmsl":2928,"id":"BTY","desc":"BEATTY VORTAC"},
{"type":"VOR","hdg_t":229.8,"dist_nm":93.1,"freq":113.2,"lat":34.96244444,"lon":-116.57816667,"rng_nm":40,"alt_fmsl":1760,"id":"DAG","desc":"DAGGETT VORTAC"},
{"type":"VOR","hdg_t":223.1,"dist_nm":95.9,"freq":112.7,"lat":34.79702778,"lon":-116.46291667,"rng_nm":130,"alt_fmsl":1853,"id":"HEC","desc":"HECTOR VORTAC"}
]
}
