{"success":true,"source":"xp2csv.pl","last_updated":"2013/11/08 14:53:21 UTC"
,"icao":"KHYR","name":"Sawyer Co","lat":46.02482775,"lon":-91.44432075,"rwys":2,"ils":1,"index":1450498,"path":"w100n40/w092n46"
,"runways":[
{"len_m":1524,"wid_m":30.48,"hdg":24,"surf":"Asphalt","rwy1":"02","lat1":46.01962800,"lon1":-91.44836900,"rwy2":"20","lat2":46.03208300,"lon2":-91.44011700},
{"len_m":377,"wid_m":36.58,"hdg":159,"surf":"Turf/grass","rwy1":"16","lat1":46.02539400,"lon1":-91.44524700,"rwy2":"34","lat2":46.02220600,"lon2":-91.44355000}
]
,"radios":[
{"type":"CTAF","freq":122.8,"desc":"CTAF/UNICOM"},
{"type":"APP","freq":126.45,"desc":"MINNEAPOLIS CNTR"}
]
,"ils":[
{"type":"LOC","freq":108.5,"lat":46.01828600,"lon":-91.44925800,"rng_nm":18,"alt_fmsl":1207,"id":"IHTY","rwy":"20","desc":"LOC"},
{"type":"DME","freq":108.5,"lat":46.01881700,"lon":-91.45011100,"rng_nm":18,"alt_fmsl":1220,"id":"IHTY","rwy":"20","desc":"DME-ILS"}
]
,"navaids":[
{"type":"VOR","hdg_t":193.8,"dist_nm":0.3,"freq":113.4,"lat":46.01900000,"lon":-91.44638889,"rng_nm":40,"alt_fmsl":1208,"id":"HYR","desc":"HAYWARD VOR-DME"},
{"type":"NDB","hdg_t":199.6,"dist_nm":34.7,"freq":407,"lat":45.47955600,"lon":-91.72072200,"rng_nm":25,"alt_fmsl":1140,"id":"RIE","desc":"RICE LAKE NDB"},
{"type":"NDB","hdg_t":149.1,"dist_nm":36.4,"freq":356,"lat":45.50183333,"lon":-91.00113889,"rng_nm":50,"alt_fmsl":0,"id":"RCX","desc":"RUSK COUNTY NDB"},
{"type":"VOR","hdg_t":34.6,"dist_nm":38.3,"freq":110.2,"lat":46.54941667,"lon":-90.91725000,"rng_nm":25,"alt_fmsl":820,"id":"ASX","desc":"ASHLAND VOR-DME"},
{"type":"VOR","hdg_t":201,"dist_nm":39.1,"freq":110,"lat":45.41519444,"lon":-91.77800000,"rng_nm":25,"alt_fmsl":1092,"id":"RPD","desc":"RICE LAKE VOR-DME"},
{"type":"NDB","hdg_t":252.7,"dist_nm":40.5,"freq":203,"lat":45.82127778,"lon":-92.36641667,"rng_nm":50,"alt_fmsl":0,"id":"BXR","desc":"BIG DOCTOR NDB"},
{"type":"VOR","hdg_t":252.8,"dist_nm":40.8,"freq":109.4,"lat":45.82044444,"lon":-92.37452778,"rng_nm":40,"alt_fmsl":987,"id":"RZN","desc":"SIREN VOR-DME"},
{"type":"NDB","hdg_t":95.4,"dist_nm":42.8,"freq":371,"lat":45.95305556,"lon":-90.42611111,"rng_nm":50,"alt_fmsl":0,"id":"PKF","desc":"PARK FALLS NDB"},
{"type":"NDB","hdg_t":199.6,"dist_nm":45,"freq":221,"lat":45.31747222,"lon":-91.80277778,"rng_nm":50,"alt_fmsl":0,"id":"RP","desc":"WICKR NDB"},
{"type":"NDB","hdg_t":113.6,"dist_nm":47.3,"freq":263,"lat":45.70291667,"lon":-90.41238889,"rng_nm":50,"alt_fmsl":0,"id":"PBH","desc":"PHILLIPS NDB"},
{"type":"VOR","hdg_t":326.2,"dist_nm":56.2,"freq":112.6,"lat":46.80216667,"lon":-92.20286111,"rng_nm":130,"alt_fmsl":1428,"id":"DLH","desc":"DULUTH VORTAC"},
{"type":"NDB","hdg_t":312.9,"dist_nm":59.6,"freq":335,"lat":46.69697222,"lon":-92.50300000,"rng_nm":50,"alt_fmsl":0,"id":"COQ","desc":"CLOQUET NDB"},
{"type":"NDB","hdg_t":293,"dist_nm":61.3,"freq":362,"lat":46.41650000,"lon":-92.80475000,"rng_nm":50,"alt_fmsl":0,"id":"MZH","desc":"MOOSE LAKE NDB"},
{"type":"NDB","hdg_t":322.8,"dist_nm":62,"freq":379,"lat":46.84572222,"lon":-92.35494444,"rng_nm":50,"alt_fmsl":0,"id":"DL","desc":"PYKLA NDB"},
{"type":"VOR","hdg_t":60.4,"dist_nm":62.7,"freq":108.8,"lat":46.53225000,"lon":-90.12583333,"rng_nm":40,"alt_fmsl":1230,"id":"IWD","desc":"IRONWOOD VORTAC"},
{"type":"NDB","hdg_t":177.3,"dist_nm":64.8,"freq":239,"lat":44.94475000,"lon":-91.37366667,"rng_nm":50,"alt_fmsl":0,"id":"EA","desc":"MAGGS NDB"},
{"type":"NDB","hdg_t":253.2,"dist_nm":66.3,"freq":282,"lat":45.69680556,"lon":-92.95575000,"rng_nm":50,"alt_fmsl":0,"id":"ROS","desc":"RUSH CITY NDB"},
{"type":"NDB","hdg_t":231.1,"dist_nm":67.6,"freq":233,"lat":45.31038900,"lon":-92.68808300,"rng_nm":25,"alt_fmsl":944,"id":"OEO","desc":"OSCEOLA NDB"},
{"type":"VOR","hdg_t":181.2,"dist_nm":67.6,"freq":112.9,"lat":44.89766667,"lon":-91.47855556,"rng_nm":40,"alt_fmsl":804,"id":"EAU","desc":"EAU CLAIRE VORTAC"},
{"type":"NDB","hdg_t":221.4,"dist_nm":69.8,"freq":257,"lat":45.14725000,"lon":-92.53344444,"rng_nm":50,"alt_fmsl":0,"id":"RNH","desc":"NEW RICHMOND NDB"},
{"type":"NDB","hdg_t":94.1,"dist_nm":72,"freq":221,"lat":45.92613889,"lon":-89.72933333,"rng_nm":50,"alt_fmsl":0,"id":"ARV","desc":"ARBOR VITAE NDB"},
{"type":"NDB","hdg_t":98.4,"dist_nm":72.6,"freq":236,"lat":45.83452778,"lon":-89.73041667,"rng_nm":50,"alt_fmsl":0,"id":"DO","desc":"DOUGY NDB"},
{"type":"NDB","hdg_t":138.6,"dist_nm":73,"freq":335,"lat":45.10536111,"lon":-90.30869444,"rng_nm":50,"alt_fmsl":0,"id":"MDZ","desc":"MEDFORD NDB"},
{"type":"NDB","hdg_t":0.9,"dist_nm":73.5,"freq":350,"lat":47.25058333,"lon":-91.41405556,"rng_nm":50,"alt_fmsl":0,"id":"BFW","desc":"SILVER BAY NDB"},
{"type":"NDB","hdg_t":84.3,"dist_nm":74.9,"freq":206,"lat":46.13383333,"lon":-89.65569444,"rng_nm":50,"alt_fmsl":0,"id":"BDJ","desc":"BOULDER JUNCTION NDB"},
{"type":"NDB","hdg_t":264.6,"dist_nm":76.8,"freq":327,"lat":45.89027778,"lon":-93.26922222,"rng_nm":50,"alt_fmsl":0,"id":"JMR","desc":"MORA NDB"},
{"type":"NDB","hdg_t":106.6,"dist_nm":80.2,"freq":272,"lat":45.62811111,"lon":-89.61886111,"rng_nm":50,"alt_fmsl":0,"id":"RH","desc":"ARSHA NDB"},
{"type":"NDB","hdg_t":250.4,"dist_nm":81.3,"freq":350,"lat":45.55769444,"lon":-93.26211111,"rng_nm":50,"alt_fmsl":0,"id":"CBG","desc":"CAMBRIDGE NDB"},
{"type":"VOR","hdg_t":105,"dist_nm":86.5,"freq":109.2,"lat":45.63377778,"lon":-89.45777778,"rng_nm":40,"alt_fmsl":1599,"id":"RHI","desc":"RHINELANDER VORTAC"},
{"type":"NDB","hdg_t":123.4,"dist_nm":88.4,"freq":257,"lat":45.19861111,"lon":-89.70425000,"rng_nm":50,"alt_fmsl":0,"id":"RRL","desc":"MERRILL NDB"},
{"type":"NDB","hdg_t":79.2,"dist_nm":91.6,"freq":407,"lat":46.28827778,"lon":-89.27875000,"rng_nm":50,"alt_fmsl":0,"id":"RXW","desc":"WATERSMEET NDB"},
{"type":"VOR","hdg_t":326.2,"dist_nm":92.6,"freq":110.8,"lat":47.30152778,"lon":-92.70405556,"rng_nm":40,"alt_fmsl":1312,"id":"HIB","desc":"HIBBING VOR-DME"},
{"type":"NDB","hdg_t":84.6,"dist_nm":93.5,"freq":396,"lat":46.14975000,"lon":-89.21044444,"rng_nm":50,"alt_fmsl":0,"id":"LNL","desc":"LAND O LAKES NDB"},
{"type":"NDB","hdg_t":223,"dist_nm":93.6,"freq":400,"lat":44.87336111,"lon":-92.94200000,"rng_nm":50,"alt_fmsl":0,"id":"PPI","desc":"HOPEY NDB"},
{"type":"VOR","hdg_t":332.9,"dist_nm":94.4,"freq":108.2,"lat":47.42222222,"lon":-92.49869444,"rng_nm":25,"alt_fmsl":1371,"id":"EVM","desc":"EVELETH VOR-DME"},
{"type":"NDB","hdg_t":253.8,"dist_nm":94.9,"freq":368,"lat":45.56466667,"lon":-93.60761111,"rng_nm":50,"alt_fmsl":0,"id":"PNM","desc":"PRINCETON NDB"},
{"type":"NDB","hdg_t":223.4,"dist_nm":95.6,"freq":385,"lat":44.85675000,"lon":-92.98444444,"rng_nm":50,"alt_fmsl":0,"id":"BA","desc":"BABCO NDB"},
{"type":"NDB","hdg_t":155.5,"dist_nm":96.4,"freq":368,"lat":44.55711111,"lon":-90.51527778,"rng_nm":50,"alt_fmsl":0,"id":"VIQ","desc":"NEILLSVILLE NDB"},
{"type":"VOR","hdg_t":237.7,"dist_nm":96.8,"freq":117.3,"lat":45.14569444,"lon":-93.37319444,"rng_nm":130,"alt_fmsl":877,"id":"GEP","desc":"GOPHER VORTAC"},
{"type":"NDB","hdg_t":207.6,"dist_nm":96.9,"freq":394,"lat":44.58885600,"lon":-92.49213300,"rng_nm":25,"alt_fmsl":782,"id":"RGK","desc":"RED WING NDB"},
{"type":"NDB","hdg_t":289.5,"dist_nm":98,"freq":397,"lat":46.54830556,"lon":-93.67544444,"rng_nm":50,"alt_fmsl":0,"id":"AIT","desc":"AITKIN NDB"},
{"type":"NDB","hdg_t":146.9,"dist_nm":98.5,"freq":391,"lat":44.64108333,"lon":-90.18913889,"rng_nm":50,"alt_fmsl":0,"id":"MFI","desc":"MARSHFIELD NDB"},
{"type":"NDB","hdg_t":59.3,"dist_nm":99.4,"freq":375,"lat":46.85022222,"lon":-89.36513889,"rng_nm":50,"alt_fmsl":0,"id":"OGM","desc":"ONTONAGON NDB"},
{"type":"NDB","hdg_t":211.1,"dist_nm":99.6,"freq":274,"lat":44.59783333,"lon":-92.64747222,"rng_nm":50,"alt_fmsl":0,"id":"RG","desc":"REGUE NDB"}
]
}
