{"success":true,"source":"xp2csv.pl","last_updated":"2013/11/08 14:53:21 UTC"
,"icao":"KIMM","name":"Immokalee","lat":26.4331698333333,"lon":-81.4010265,"rwys":3,"ils":0,"index":1613082,"path":"w090n20/w082n26"
,"runways":[
{"len_m":1524,"wid_m":45.72,"hdg":36,"surf":"Asphalt","rwy1":"04","lat1":26.42632500,"lon1":-81.40485300,"rwy2":"22","lat2":26.43740600,"lon2":-81.39579700},
{"len_m":1523,"wid_m":45.72,"hdg":88,"surf":"Asphalt","rwy1":"09","lat1":26.43703300,"lon1":-81.40543600,"rwy2":"27","lat2":26.43750800,"lon2":-81.39016700},
{"len_m":1524,"wid_m":45.72,"hdg":178,"surf":"Asphalt","rwy1":"18","lat1":26.43724700,"lon1":-81.40521700,"rwy2":"36","lat2":26.42350000,"lon2":-81.40468900}
]
,"radios":[
{"type":"CTAF","freq":122.9,"desc":"CTAF"},
{"type":"APP","freq":119.75,"desc":"FORT MYERS APP/DEP"}
]
,"navaids":[
{"type":"VOR","hdg_t":286,"dist_nm":20.9,"freq":111.8,"lat":26.52988889,"lon":-81.77577778,"rng_nm":40,"alt_fmsl":25,"id":"RSW","desc":"LEE CO VORTAC"},
{"type":"NDB","hdg_t":277.5,"dist_nm":23.5,"freq":336,"lat":26.48433333,"lon":-81.83461111,"rng_nm":50,"alt_fmsl":0,"id":"RS","desc":"MUFFE NDB"},
{"type":"VOR","hdg_t":1.2,"dist_nm":23.6,"freq":110.4,"lat":26.82816667,"lon":-81.39144444,"rng_nm":40,"alt_fmsl":30,"id":"LBV","desc":"LA BELLE VORTAC"},
{"type":"VOR","hdg_t":230.6,"dist_nm":26.3,"freq":108.6,"lat":26.15341667,"lon":-81.77811111,"rng_nm":25,"alt_fmsl":10,"id":"CYY","desc":"CYPRESS VOR-DME"},
{"type":"NDB","hdg_t":279.6,"dist_nm":29.9,"freq":341,"lat":26.51613889,"lon":-81.95027778,"rng_nm":50,"alt_fmsl":0,"id":"FM","desc":"CALOO NDB"},
{"type":"NDB","hdg_t":148.2,"dist_nm":40.1,"freq":227,"lat":25.86183333,"lon":-81.01102778,"rng_nm":50,"alt_fmsl":0,"id":"TN","desc":"MONRY NDB"},
{"type":"VOR","hdg_t":312.4,"dist_nm":42.9,"freq":110.2,"lat":26.91677778,"lon":-81.99125000,"rng_nm":25,"alt_fmsl":0,"id":"PGD","desc":"PUNTA GORDA VOR"},
{"type":"VOR","hdg_t":61.1,"dist_nm":43.5,"freq":115.4,"lat":26.78275000,"lon":-80.69144444,"rng_nm":130,"alt_fmsl":16,"id":"PHK","desc":"PAHOKEE VORTAC"},
{"type":"NDB","hdg_t":103.7,"dist_nm":61.2,"freq":221,"lat":26.18563889,"lon":-80.29850000,"rng_nm":50,"alt_fmsl":0,"id":"FX","desc":"PRAIZ NDB"},
{"type":"NDB","hdg_t":63.3,"dist_nm":63.9,"freq":405,"lat":26.90897222,"lon":-80.33505556,"rng_nm":50,"alt_fmsl":0,"id":"UTX","desc":"UNITED NDB"},
{"type":"NDB","hdg_t":304.4,"dist_nm":66.8,"freq":206,"lat":27.06144444,"lon":-82.43058333,"rng_nm":50,"alt_fmsl":0,"id":"VNC","desc":"VENICE NDB"},
{"type":"NDB","hdg_t":134.1,"dist_nm":67.7,"freq":266,"lat":25.64166667,"lon":-80.50483333,"rng_nm":50,"alt_fmsl":0,"id":"TM","desc":"QEEZY NDB"},
{"type":"DME","hdg_t":68.5,"dist_nm":67.8,"freq":110.75,"lat":26.84356853,"lon":-80.22387209,"rng_nm":18,"alt_fmsl":22,"id":"IGHO","desc":"F45 08R DME-ILS"},
{"type":"VOR","hdg_t":123.4,"dist_nm":68.2,"freq":113.9,"lat":25.79997222,"lon":-80.34902778,"rng_nm":130,"alt_fmsl":7,"id":"DHP","desc":"DOLPHIN VORTAC"},
{"type":"NDB","hdg_t":338.2,"dist_nm":69.4,"freq":261,"lat":27.51000000,"lon":-81.88333300,"rng_nm":25,"alt_fmsl":104,"id":"CHN","desc":"WAUCHULA NDB"},
{"type":"VOR","hdg_t":107.5,"dist_nm":70.1,"freq":116.5,"lat":26.07416667,"lon":-80.16297222,"rng_nm":130,"alt_fmsl":12,"id":"FLL","desc":"FORT LAUDERDALE VOR-DME"},
{"type":"VOR","hdg_t":77.9,"dist_nm":72.2,"freq":115.7,"lat":26.68005556,"lon":-80.08650000,"rng_nm":130,"alt_fmsl":16,"id":"PBI","desc":"PALM BEACH VORTAC"},
{"type":"NDB","hdg_t":120.2,"dist_nm":75.6,"freq":248,"lat":25.79069444,"lon":-80.19419444,"rng_nm":50,"alt_fmsl":0,"id":"MI","desc":"KEYES NDB"},
{"type":"NDB","hdg_t":313,"dist_nm":78.7,"freq":245,"lat":27.32822222,"lon":-82.47844444,"rng_nm":50,"alt_fmsl":0,"id":"SR","desc":"RINGY NDB"},
{"type":"VOR","hdg_t":120.9,"dist_nm":78.7,"freq":117.1,"lat":25.75188889,"lon":-80.15444444,"rng_nm":130,"alt_fmsl":12,"id":"VKZ","desc":"VIRGINIA KEY VOR-DME"},
{"type":"SDME","hdg_t":135.3,"dist_nm":78.9,"freq":108.2,"lat":25.48952800,"lon":-80.37944400,"rng_nm":40,"alt_fmsl":53,"id":"HST","desc":"HOMESTEAD TACAN"},
{"type":"NDB","hdg_t":37.7,"dist_nm":80.7,"freq":338,"lat":27.49691667,"lon":-80.47427778,"rng_nm":50,"alt_fmsl":0,"id":"FJ","desc":"LUUCE NDB"},
{"type":"NDB","hdg_t":40.9,"dist_nm":83.7,"freq":275,"lat":27.48672222,"lon":-80.37327778,"rng_nm":50,"alt_fmsl":0,"id":"FPR","desc":"FORT PIERCE NDB"},
{"type":"VOR","hdg_t":313.2,"dist_nm":84.5,"freq":115.2,"lat":27.39776100,"lon":-82.55426900,"rng_nm":130,"alt_fmsl":20,"id":"SRQ","desc":"SARASOTA VORTAC"},
{"type":"VOR","hdg_t":313.3,"dist_nm":85.3,"freq":117,"lat":27.40702778,"lon":-82.56363889,"rng_nm":130,"alt_fmsl":20,"id":"SRQ","desc":"SARASOTA VORTAC"},
{"type":"VOR","hdg_t":33,"dist_nm":89,"freq":117.3,"lat":27.67841667,"lon":-80.48972222,"rng_nm":130,"alt_fmsl":11,"id":"VRB","desc":"VERO BEACH VORTAC"},
{"type":"NDB","hdg_t":338.2,"dist_nm":96.8,"freq":227,"lat":27.93538889,"lon":-82.07580556,"rng_nm":50,"alt_fmsl":0,"id":"LA","desc":"WIREY NDB"},
{"type":"VOR","hdg_t":340.7,"dist_nm":98.5,"freq":116,"lat":27.98619444,"lon":-82.01388889,"rng_nm":130,"alt_fmsl":135,"id":"LAL","desc":"LAKELAND VORTAC"}
]
}
