{"success":true,"source":"xp2csv.pl","last_updated":"2013/11/08 14:53:21 UTC"
,"icao":"KLRJ","name":"Le Mars Muni","lat":42.778026,"lon":-96.193676,"rwys":1,"ils":0,"index":1368371,"path":"w100n40/w097n42"
,"runways":[
{"len_m":1204,"wid_m":22.86,"hdg":187,"surf":"Concrete","rwy1":"18","lat1":42.78339400,"lon1":-96.19265800,"rwy2":"36","lat2":42.77265800,"lon2":-96.19469400}
]
,"radios":[
{"type":"ATIS","freq":125.52,"desc":"AWOS 3"},
{"type":"CTAF","freq":122.8,"desc":"CTAF/UNICOM"},
{"type":"APP","freq":124.6,"desc":"SIOUX CITY APP/DEP"}
]
,"navaids":[
{"type":"NDB","hdg_t":166.6,"dist_nm":0.2,"freq":382,"lat":42.77443300,"lon":-96.19252200,"rng_nm":25,"alt_fmsl":1190,"id":"LRJ","desc":"LE MARS NDB"},
{"type":"NDB","hdg_t":24.5,"dist_nm":14,"freq":521,"lat":42.99138889,"lon":-96.06058333,"rng_nm":50,"alt_fmsl":0,"id":"ORC","desc":"ORANGE CITY NDB"},
{"type":"NDB","hdg_t":0.4,"dist_nm":21.2,"freq":368,"lat":43.13302778,"lon":-96.18975000,"rng_nm":50,"alt_fmsl":0,"id":"SOY","desc":"SIOUX CENTER NDB"},
{"type":"NDB","hdg_t":212,"dist_nm":22.4,"freq":305,"lat":42.46011111,"lon":-96.46222222,"rng_nm":50,"alt_fmsl":0,"id":"OI","desc":"TOMMI NDB"},
{"type":"NDB","hdg_t":201,"dist_nm":23.7,"freq":233,"lat":42.40811111,"lon":-96.38602778,"rng_nm":50,"alt_fmsl":0,"id":"GAK","desc":"SIOUX GATEWAY NDB"},
{"type":"VOR","hdg_t":192.5,"dist_nm":26.6,"freq":116.5,"lat":42.34452778,"lon":-96.32363889,"rng_nm":40,"alt_fmsl":1087,"id":"SUX","desc":"SIOUX CITY VORTAC"},
{"type":"NDB","hdg_t":189,"dist_nm":27.3,"freq":414,"lat":42.32752778,"lon":-96.29050000,"rng_nm":50,"alt_fmsl":0,"id":"SU","desc":"SALIX NDB"},
{"type":"VOR","hdg_t":31.1,"dist_nm":30.4,"freq":108.6,"lat":43.21213889,"lon":-95.83391667,"rng_nm":25,"alt_fmsl":1417,"id":"DDL","desc":"SHELDON VOR-DME"},
{"type":"NDB","hdg_t":31,"dist_nm":30.5,"freq":338,"lat":43.21416667,"lon":-95.83386111,"rng_nm":50,"alt_fmsl":0,"id":"SHL","desc":"SHELDON NDB"},
{"type":"NDB","hdg_t":153.5,"dist_nm":39.9,"freq":335,"lat":42.18055556,"lon":-95.79472222,"rng_nm":50,"alt_fmsl":0,"id":"MEY","desc":"MAPLETON NDB"},
{"type":"NDB","hdg_t":28.5,"dist_nm":40.3,"freq":269,"lat":43.36802778,"lon":-95.75252778,"rng_nm":50,"alt_fmsl":0,"id":"ISB","desc":"SIBLEY NDB"},
{"type":"NDB","hdg_t":103.9,"dist_nm":43.3,"freq":434,"lat":42.60044444,"lon":-95.24438889,"rng_nm":50,"alt_fmsl":0,"id":"SLB","desc":"STORM LAKE NDB"},
{"type":"NDB","hdg_t":54.1,"dist_nm":46.8,"freq":394,"lat":43.23258333,"lon":-95.32761111,"rng_nm":50,"alt_fmsl":0,"id":"SP","desc":"SNORE NDB"},
{"type":"NDB","hdg_t":227.7,"dist_nm":47.5,"freq":389,"lat":42.24255556,"lon":-96.98375000,"rng_nm":50,"alt_fmsl":0,"id":"LCG","desc":"WAYNE NDB"},
{"type":"NDB","hdg_t":274.9,"dist_nm":49.1,"freq":347,"lat":42.84372222,"lon":-97.30211111,"rng_nm":50,"alt_fmsl":0,"id":"YK","desc":"CAGUR NDB"},
{"type":"VOR","hdg_t":61.8,"dist_nm":49.4,"freq":110,"lat":43.16216667,"lon":-95.20100000,"rng_nm":40,"alt_fmsl":1330,"id":"SPW","desc":"SPENCER VOR-DME"},
{"type":"NDB","hdg_t":65.5,"dist_nm":51.2,"freq":326,"lat":43.12705556,"lon":-95.13272222,"rng_nm":50,"alt_fmsl":0,"id":"LTU","desc":"LITTLE SIOUX NDB"},
{"type":"NDB","hdg_t":327.2,"dist_nm":51.2,"freq":245,"lat":43.49416667,"lon":-96.82877778,"rng_nm":50,"alt_fmsl":0,"id":"FS","desc":"ROKKY NDB"},
{"type":"VOR","hdg_t":279.5,"dist_nm":53.2,"freq":111.4,"lat":42.91836111,"lon":-97.38497222,"rng_nm":40,"alt_fmsl":1301,"id":"YKN","desc":"YANKTON VOR-DME"},
{"type":"VOR","hdg_t":333.9,"dist_nm":58.2,"freq":115,"lat":43.64950000,"lon":-96.78113889,"rng_nm":130,"alt_fmsl":1571,"id":"FSD","desc":"SIOUX FALLS VORTAC"},
{"type":"VOR","hdg_t":27,"dist_nm":58.6,"freq":110.6,"lat":43.64691667,"lon":-95.58197222,"rng_nm":40,"alt_fmsl":1571,"id":"OTG","desc":"WORTHINGTON VOR-DME"},
{"type":"NDB","hdg_t":113.5,"dist_nm":58.7,"freq":356,"lat":42.38061111,"lon":-94.98277778,"rng_nm":50,"alt_fmsl":0,"id":"SKI","desc":"SAC CITY NDB"},
{"type":"NDB","hdg_t":32.2,"dist_nm":59.6,"freq":277,"lat":43.61738889,"lon":-95.46408333,"rng_nm":50,"alt_fmsl":0,"id":"OT","desc":"WONDD NDB"},
{"type":"NDB","hdg_t":142.4,"dist_nm":59.8,"freq":350,"lat":41.98388889,"lon":-95.37927778,"rng_nm":50,"alt_fmsl":0,"id":"DNS","desc":"DENISON NDB"},
{"type":"VOR","hdg_t":179.3,"dist_nm":61,"freq":108.4,"lat":41.75958333,"lon":-96.17855556,"rng_nm":25,"alt_fmsl":0,"id":"TQE","desc":"TEKAMAH VOR"},
{"type":"NDB","hdg_t":73,"dist_nm":68.2,"freq":410,"lat":43.10069444,"lon":-94.70825000,"rng_nm":50,"alt_fmsl":0,"id":"EGQ","desc":"EMMETSBURG NDB"},
{"type":"NDB","hdg_t":91,"dist_nm":68.2,"freq":428,"lat":42.74638889,"lon":-94.64922222,"rng_nm":50,"alt_fmsl":0,"id":"POH","desc":"POCAHONTAS NDB"},
{"type":"NDB","hdg_t":356.4,"dist_nm":72.6,"freq":284,"lat":43.98616667,"lon":-96.29636111,"rng_nm":50,"alt_fmsl":0,"id":"PQN","desc":"PIPESTONE NDB"},
{"type":"NDB","hdg_t":61.2,"dist_nm":72.6,"freq":345,"lat":43.35152778,"lon":-94.73777778,"rng_nm":50,"alt_fmsl":0,"id":"PUF","desc":"PUFF NDB"},
{"type":"VOR","hdg_t":229.7,"dist_nm":72.7,"freq":109.6,"lat":41.98791667,"lon":-97.43458333,"rng_nm":40,"alt_fmsl":1540,"id":"OFK","desc":"NORFOLK VOR-DME"},
{"type":"VOR","hdg_t":195.5,"dist_nm":72.9,"freq":111,"lat":41.60475000,"lon":-96.62883333,"rng_nm":25,"alt_fmsl":1318,"id":"SCB","desc":"SCRIBNER VOR-DME"},
{"type":"VOR","hdg_t":58.7,"dist_nm":74.1,"freq":110.4,"lat":43.40930556,"lon":-94.74444444,"rng_nm":25,"alt_fmsl":0,"id":"EST","desc":"ESTHERVILLE VOR"},
{"type":"NDB","hdg_t":45,"dist_nm":74.3,"freq":353,"lat":43.64688889,"lon":-94.98597222,"rng_nm":50,"alt_fmsl":0,"id":"MJQ","desc":"JACKSON NDB"},
{"type":"NDB","hdg_t":227.4,"dist_nm":78.2,"freq":510,"lat":41.88761111,"lon":-97.48025000,"rng_nm":50,"alt_fmsl":0,"id":"OF","desc":"CARSY NDB"},
{"type":"NDB","hdg_t":151.8,"dist_nm":81.3,"freq":272,"lat":41.57897222,"lon":-95.34097222,"rng_nm":50,"alt_fmsl":0,"id":"HNR","desc":"HARLAN NDB"},
{"type":"NDB","hdg_t":34.6,"dist_nm":82.8,"freq":203,"lat":43.90938889,"lon":-95.10916667,"rng_nm":50,"alt_fmsl":0,"id":"MWM","desc":"WINDOM NDB"},
{"type":"NDB","hdg_t":170.6,"dist_nm":83.6,"freq":513,"lat":41.40175000,"lon":-95.89391667,"rng_nm":50,"alt_fmsl":0,"id":"PP","desc":"FLICK NDB"},
{"type":"NDB","hdg_t":332.4,"dist_nm":83.8,"freq":400,"lat":44.01327778,"lon":-97.08841667,"rng_nm":50,"alt_fmsl":0,"id":"MDS","desc":"WENTWORTH NDB"},
{"type":"VOR","hdg_t":96.1,"dist_nm":84.6,"freq":113.5,"lat":42.61111111,"lon":-94.29480556,"rng_nm":130,"alt_fmsl":1164,"id":"FOD","desc":"FORT DODGE VORTAC"},
{"type":"NDB","hdg_t":100,"dist_nm":85,"freq":341,"lat":42.51450000,"lon":-94.30558333,"rng_nm":50,"alt_fmsl":0,"id":"FO","desc":"BARRO NDB"},
{"type":"NDB","hdg_t":172.7,"dist_nm":85.3,"freq":320,"lat":41.36677778,"lon":-95.95630556,"rng_nm":50,"alt_fmsl":0,"id":"OM","desc":"GERFI NDB"},
{"type":"NDB","hdg_t":77.2,"dist_nm":86.6,"freq":403,"lat":43.08136111,"lon":-94.27247222,"rng_nm":50,"alt_fmsl":0,"id":"AXA","desc":"ALGONA NDB"},
{"type":"NDB","hdg_t":138.3,"dist_nm":86.7,"freq":266,"lat":41.69027778,"lon":-94.90997222,"rng_nm":50,"alt_fmsl":0,"id":"ADU","desc":"AUDUBON NDB"},
{"type":"NDB","hdg_t":215,"dist_nm":93.3,"freq":407,"lat":41.49655556,"lon":-97.38175000,"rng_nm":50,"alt_fmsl":0,"id":"PLT","desc":"PLATTE CENTER NDB"},
{"type":"VOR","hdg_t":55.5,"dist_nm":93.5,"freq":110.2,"lat":43.64597222,"lon":-94.42255556,"rng_nm":40,"alt_fmsl":1164,"id":"FRM","desc":"FAIRMONT VOR-DME"},
{"type":"NDB","hdg_t":191.2,"dist_nm":94,"freq":400,"lat":41.23916667,"lon":-96.59836111,"rng_nm":50,"alt_fmsl":0,"id":"AHQ","desc":"WAHOO NDB"},
{"type":"NDB","hdg_t":281.1,"dist_nm":94.1,"freq":392,"lat":43.06338889,"lon":-98.29316667,"rng_nm":50,"alt_fmsl":0,"id":"AGZ","desc":"WAGNER NDB"},
{"type":"NDB","hdg_t":118.5,"dist_nm":94.2,"freq":391,"lat":42.01347222,"lon":-94.34269444,"rng_nm":50,"alt_fmsl":0,"id":"EFW","desc":"JEFFERSON NDB"},
{"type":"VOR","hdg_t":213.1,"dist_nm":94.6,"freq":111.8,"lat":41.45002778,"lon":-97.34080556,"rng_nm":40,"alt_fmsl":1442,"id":"OLU","desc":"COLUMBUS VOR-DME"},
{"type":"NDB","hdg_t":169.6,"dist_nm":94.9,"freq":426,"lat":41.21958333,"lon":-95.81791667,"rng_nm":50,"alt_fmsl":0,"id":"EN","desc":"RIKKY NDB"},
{"type":"NDB","hdg_t":177.8,"dist_nm":95,"freq":371,"lat":41.19486111,"lon":-96.11405556,"rng_nm":50,"alt_fmsl":0,"id":"MLE","desc":"MILLARD NDB"},
{"type":"NDB","hdg_t":59.2,"dist_nm":95.1,"freq":420,"lat":43.57363889,"lon":-94.31797222,"rng_nm":50,"alt_fmsl":0,"id":"FQ","desc":"MONTZ NDB"},
{"type":"VOR","hdg_t":343.7,"dist_nm":95.4,"freq":108.8,"lat":44.30325000,"lon":-96.81511111,"rng_nm":25,"alt_fmsl":1641,"id":"BKX","desc":"BROOKINGS VOR-DME"},
{"type":"NDB","hdg_t":147.7,"dist_nm":97,"freq":365,"lat":41.40397222,"lon":-95.04625000,"rng_nm":50,"alt_fmsl":0,"id":"AIO","desc":"ATLANTIC NDB"},
{"type":"VOR","hdg_t":167.8,"dist_nm":98.7,"freq":116.3,"lat":41.16727778,"lon":-95.73672222,"rng_nm":130,"alt_fmsl":1300,"id":"OVR","desc":"OMAHA VORTAC"}
]
}
