{"success":true,"source":"xp2csv.pl","last_updated":"2013/11/08 14:53:21 UTC"
,"icao":"KLVL","name":"Lawrenceville Brunswick Muni","lat":36.77242325,"lon":-77.79445625,"rwys":2,"ils":0,"index":1679280,"path":"w080n30/w078n36"
,"runways":[
{"len_m":920,"wid_m":15.24,"hdg":172,"surf":"Asphalt","rwy1":"18","lat1":36.77874200,"lon1":-77.79445600,"rwy2":"36","lat2":36.77051800,"lon2":-77.79310800},
{"len_m":576,"wid_m":21.34,"hdg":56,"surf":"Dirt","rwy1":"06","lat1":36.76879700,"lon1":-77.79783300,"rwy2":"24","lat2":36.77163600,"lon2":-77.79242800}
]
,"radios":[
{"type":"CTAF","freq":122.8,"desc":"CTAF/UNICOM"}
]
,"navaids":[
{"type":"VOR","hdg_t":297.6,"dist_nm":5.9,"freq":112.9,"lat":36.81802778,"lon":-77.90297222,"rng_nm":40,"alt_fmsl":350,"id":"LVL","desc":"LAWRENCEVILLE VORTAC"},
{"type":"NDB","hdg_t":232.9,"dist_nm":15.6,"freq":373,"lat":36.61455556,"lon":-78.05316667,"rng_nm":50,"alt_fmsl":0,"id":"AEA","desc":"JONES NDB"},
{"type":"NDB","hdg_t":117.3,"dist_nm":20,"freq":261,"lat":36.61797222,"lon":-77.42550000,"rng_nm":50,"alt_fmsl":0,"id":"ELQ","desc":"EMPORIA NDB"},
{"type":"NDB","hdg_t":168.1,"dist_nm":20.2,"freq":407,"lat":36.44097222,"lon":-77.70830556,"rng_nm":50,"alt_fmsl":0,"id":"RZZ","desc":"RAPIDS NDB"},
{"type":"NDB","hdg_t":26.1,"dist_nm":23.9,"freq":284,"lat":37.13027778,"lon":-77.57447222,"rng_nm":50,"alt_fmsl":0,"id":"PTB","desc":"PETERSBURG NDB"},
{"type":"NDB","hdg_t":330.5,"dist_nm":24.4,"freq":326,"lat":37.12744444,"lon":-78.04452778,"rng_nm":50,"alt_fmsl":0,"id":"BKT","desc":"BLACKSTONE NDB"},
{"type":"VOR","hdg_t":95,"dist_nm":37.8,"freq":110.6,"lat":36.71425000,"lon":-77.01238889,"rng_nm":40,"alt_fmsl":84,"id":"FKN","desc":"FRANKLIN VORTAC"},
{"type":"NDB","hdg_t":71.4,"dist_nm":40.2,"freq":274,"lat":36.98319444,"lon":-77.00108333,"rng_nm":50,"alt_fmsl":0,"id":"AKQ","desc":"WAKEFIELD NDB"},
{"type":"VOR","hdg_t":357.9,"dist_nm":45.3,"freq":113.3,"lat":37.52850000,"lon":-77.82822222,"rng_nm":130,"alt_fmsl":460,"id":"FAK","desc":"FLAT ROCK VORTAC"},
{"type":"NDB","hdg_t":318.5,"dist_nm":46.5,"freq":367,"lat":37.35300000,"lon":-78.43752778,"rng_nm":50,"alt_fmsl":0,"id":"FVX","desc":"FARMVILLE NDB"},
{"type":"VOR","hdg_t":44.1,"dist_nm":46.6,"freq":112,"lat":37.32886111,"lon":-77.11594444,"rng_nm":40,"alt_fmsl":70,"id":"HPW","desc":"HOPEWELL VORTAC"},
{"type":"VOR","hdg_t":174.7,"dist_nm":47.8,"freq":117.8,"lat":35.97677778,"lon":-77.70375000,"rng_nm":40,"alt_fmsl":70,"id":"TYI","desc":"TAR RIVER VORTAC"},
{"type":"NDB","hdg_t":234.9,"dist_nm":48.8,"freq":271,"lat":36.30122222,"lon":-78.61850000,"rng_nm":50,"alt_fmsl":0,"id":"HXO","desc":"HUNTSBORO NDB"},
{"type":"VOR","hdg_t":27.3,"dist_nm":49.3,"freq":114.1,"lat":37.50236111,"lon":-77.32027778,"rng_nm":130,"alt_fmsl":159,"id":"RIC","desc":"RICHMOND VORTAC"},
{"type":"VOR","hdg_t":117.9,"dist_nm":50.6,"freq":114.6,"lat":36.37291667,"lon":-76.87152778,"rng_nm":40,"alt_fmsl":70,"id":"CVI","desc":"COFIELD VORTAC"},
{"type":"NDB","hdg_t":166.4,"dist_nm":51.5,"freq":257,"lat":35.93544444,"lon":-77.54636111,"rng_nm":50,"alt_fmsl":0,"id":"ETC","desc":"TARBORO NDB"},
{"type":"DME","hdg_t":17.2,"dist_nm":58.2,"freq":109.7,"lat":37.70029889,"lon":-77.43139970,"rng_nm":18,"alt_fmsl":208,"id":"KOFP","desc":"16 DME-ILS"},
{"type":"VOR","hdg_t":264.7,"dist_nm":59.1,"freq":110.4,"lat":36.67502778,"lon":-79.01450000,"rng_nm":40,"alt_fmsl":530,"id":"SBV","desc":"SOUTH BOSTON VORTAC"},
{"type":"NDB","hdg_t":68.4,"dist_nm":60.6,"freq":226,"lat":37.13877778,"lon":-76.61855556,"rng_nm":50,"alt_fmsl":0,"id":"FAF","desc":"FELKER NDB"},
{"type":"NDB","hdg_t":187.8,"dist_nm":60.7,"freq":235,"lat":35.76765800,"lon":-77.96459700,"rng_nm":25,"alt_fmsl":158,"id":"RW","desc":"JAMBE NDB"},
{"type":"NDB","hdg_t":151.1,"dist_nm":62.3,"freq":336,"lat":35.85905556,"lon":-77.17794444,"rng_nm":50,"alt_fmsl":0,"id":"MCZ","desc":"WILLIAMSTON NDB"},
{"type":"VOR","hdg_t":51.7,"dist_nm":65.9,"freq":108.8,"lat":37.44866667,"lon":-76.71136111,"rng_nm":40,"alt_fmsl":8,"id":"HCM","desc":"HARCUM VORTAC"},
{"type":"NDB","hdg_t":70.5,"dist_nm":66.2,"freq":375,"lat":37.13280556,"lon":-76.49319444,"rng_nm":50,"alt_fmsl":0,"id":"PJS","desc":"HENRY NDB"},
{"type":"NDB","hdg_t":162,"dist_nm":67,"freq":230,"lat":35.70688889,"lon":-77.37188889,"rng_nm":50,"alt_fmsl":0,"id":"AQE","desc":"ALWOOD NDB"},
{"type":"NDB","hdg_t":221.8,"dist_nm":67.7,"freq":350,"lat":35.92722222,"lon":-78.72191667,"rng_nm":50,"alt_fmsl":0,"id":"LE","desc":"LEEVY NDB"},
{"type":"NDB","hdg_t":242.6,"dist_nm":69.4,"freq":220,"lat":36.23327778,"lon":-79.06588889,"rng_nm":50,"alt_fmsl":0,"id":"HUR","desc":"PERSON(LOM/NDB) NDB"},
{"type":"SDME","hdg_t":74.3,"dist_nm":71.5,"freq":112.3,"lat":37.08556100,"lon":-76.35941100,"rng_nm":40,"alt_fmsl":11,"id":"LFI","desc":"LANGLEY TACAN"},
{"type":"VOR","hdg_t":221.9,"dist_nm":72.1,"freq":117.2,"lat":35.87252778,"lon":-78.78333333,"rng_nm":130,"alt_fmsl":429,"id":"RDU","desc":"RALEIGH/DURHAM VORTAC"},
{"type":"SDME","hdg_t":81.7,"dist_nm":73.7,"freq":111.1,"lat":36.93998100,"lon":-76.27729400,"rng_nm":40,"alt_fmsl":45,"id":"NGU","desc":"CHAMBERS TACAN"},
{"type":"NDB","hdg_t":126.5,"dist_nm":74.4,"freq":265,"lat":36.02544444,"lon":-76.56650000,"rng_nm":50,"alt_fmsl":0,"id":"EDE","desc":"EDENTON NDB"},
{"type":"NDB","hdg_t":86.3,"dist_nm":74.4,"freq":329,"lat":36.84047222,"lon":-76.25122222,"rng_nm":50,"alt_fmsl":0,"id":"OR","desc":"INGLE NDB"},
{"type":"VOR","hdg_t":293,"dist_nm":75,"freq":109.2,"lat":37.25458333,"lon":-79.23638889,"rng_nm":40,"alt_fmsl":871,"id":"LYH","desc":"LYNCHBURG VORTAC"},
{"type":"VOR","hdg_t":261.1,"dist_nm":75.4,"freq":113.1,"lat":36.56886111,"lon":-79.33669444,"rng_nm":40,"alt_fmsl":0,"id":"DAN","desc":"DANVILLE VOR"},
{"type":"NDB","hdg_t":293.3,"dist_nm":75.5,"freq":385,"lat":37.26241667,"lon":-79.24313889,"rng_nm":50,"alt_fmsl":0,"id":"LY","desc":"BOJAR NDB"},
{"type":"NDB","hdg_t":138.7,"dist_nm":76.3,"freq":221,"lat":35.80988300,"lon":-76.76272200,"rng_nm":25,"alt_fmsl":38,"id":"PMZ","desc":"PLYMOUTH NDB"},
{"type":"VOR","hdg_t":347.1,"dist_nm":76.3,"freq":115.6,"lat":38.01361111,"lon":-78.15302778,"rng_nm":130,"alt_fmsl":382,"id":"GVE","desc":"GORDONSVILLE VORTAC"},
{"type":"VOR","hdg_t":84.1,"dist_nm":77.1,"freq":116.9,"lat":36.89188889,"lon":-76.20033333,"rng_nm":130,"alt_fmsl":20,"id":"ORF","desc":"NORFOLK VORTAC"},
{"type":"NDB","hdg_t":112.4,"dist_nm":78.5,"freq":254,"lat":36.26300000,"lon":-76.29802778,"rng_nm":50,"alt_fmsl":0,"id":"LLW","desc":"WOODVILLE NDB"},
{"type":"NDB","hdg_t":335.2,"dist_nm":81.8,"freq":336,"lat":38.01016667,"lon":-78.51808333,"rng_nm":50,"alt_fmsl":0,"id":"AZS","desc":"AZALEA PARK NDB"},
{"type":"NDB","hdg_t":15.7,"dist_nm":81.9,"freq":396,"lat":38.08777778,"lon":-77.32491667,"rng_nm":50,"alt_fmsl":0,"id":"APH","desc":"A P HILL NDB"},
{"type":"NDB","hdg_t":155.9,"dist_nm":82.7,"freq":388,"lat":35.50966667,"lon":-77.10661111,"rng_nm":50,"alt_fmsl":0,"id":"RNW","desc":"CHOCOWINITY NDB"},
{"type":"NDB","hdg_t":201.7,"dist_nm":83.5,"freq":263,"lat":35.47497222,"lon":-78.42522222,"rng_nm":50,"alt_fmsl":0,"id":"JN","desc":"JURLY NDB"},
{"type":"VOR","hdg_t":111,"dist_nm":84.1,"freq":112.5,"lat":36.25758333,"lon":-76.17563889,"rng_nm":40,"alt_fmsl":10,"id":"ECG","desc":"ELIZABETH CITY VOR-DME"},
{"type":"VOR","hdg_t":172.1,"dist_nm":84.7,"freq":109.6,"lat":35.37094444,"lon":-77.55833333,"rng_nm":40,"alt_fmsl":106,"id":"ISO","desc":"KINSTON VORTAC"},
{"type":"SDME","hdg_t":87.3,"dist_nm":84.7,"freq":116.6,"lat":36.82421900,"lon":-76.03704700,"rng_nm":40,"alt_fmsl":64,"id":"NTU","desc":"OCEANA TACAN"},
{"type":"NDB","hdg_t":22.4,"dist_nm":86.2,"freq":396,"lat":38.10000000,"lon":-77.10000000,"rng_nm":50,"alt_fmsl":99,"id":"ZZA","desc":"ZZZ TEST A NDB"},
{"type":"SDME","hdg_t":185.7,"dist_nm":86.5,"freq":116.5,"lat":35.33502800,"lon":-77.97160600,"rng_nm":40,"alt_fmsl":82,"id":"GSB","desc":"SEYMOUR JOHNSON TACAN"},
{"type":"NDB","hdg_t":18.1,"dist_nm":90.1,"freq":397,"lat":38.20000000,"lon":-77.20000000,"rng_nm":50,"alt_fmsl":99,"id":"ZZB","desc":"ZZZ TEST B NDB"},
{"type":"NDB","hdg_t":208.3,"dist_nm":90.9,"freq":417,"lat":35.43300000,"lon":-78.67475000,"rng_nm":50,"alt_fmsl":0,"id":"HQT","desc":"HARNETT NDB"},
{"type":"NDB","hdg_t":10.2,"dist_nm":91,"freq":237,"lat":38.26638889,"lon":-77.45080556,"rng_nm":50,"alt_fmsl":0,"id":"EZF","desc":"SHANNON NDB"},
{"type":"NDB","hdg_t":177,"dist_nm":91.6,"freq":276,"lat":35.24391667,"lon":-77.69825000,"rng_nm":50,"alt_fmsl":0,"id":"IS","desc":"STALS NDB"},
{"type":"VOR","hdg_t":317.5,"dist_nm":92.2,"freq":115.3,"lat":37.90052778,"lon":-79.10688889,"rng_nm":40,"alt_fmsl":3460,"id":"MOL","desc":"MONTEBELLO VOR-DME"},
{"type":"VOR","hdg_t":67.6,"dist_nm":92.9,"freq":112.2,"lat":37.34752778,"lon":-75.99766667,"rng_nm":40,"alt_fmsl":10,"id":"CCV","desc":"CAPE CHARLES VORTAC"},
{"type":"VOR","hdg_t":14.3,"dist_nm":94.5,"freq":116.7,"lat":38.30000000,"lon":-77.30000000,"rng_nm":100,"alt_fmsl":57,"id":"ZZC","desc":"ZZZ TEST C VOR-DME"},
{"type":"VOR","hdg_t":12.5,"dist_nm":96,"freq":114.5,"lat":38.33627778,"lon":-77.35291667,"rng_nm":40,"alt_fmsl":145,"id":"BRV","desc":"BROOKE VORTAC"},
{"type":"NDB","hdg_t":256.7,"dist_nm":97.9,"freq":423,"lat":36.38169444,"lon":-79.76277778,"rng_nm":50,"alt_fmsl":0,"id":"SIF","desc":"SLAMMER NDB"},
{"type":"NDB","hdg_t":241.7,"dist_nm":98.9,"freq":361,"lat":35.97811111,"lon":-79.58483333,"rng_nm":50,"alt_fmsl":0,"id":"HB","desc":"ALAMM NDB"},
{"type":"SDME","hdg_t":10.7,"dist_nm":99.3,"freq":108.75,"lat":38.40000000,"lon":-77.40000000,"rng_nm":25,"alt_fmsl":172,"id":"ZZ","desc":"ZZZ TEST D DME"}
]
}
