{"success":true,"source":"xp2csv.pl","last_updated":"2013/11/08 14:53:21 UTC"
,"icao":"KMDF","name":"Mooreland Muni","lat":36.484764,"lon":-99.194168,"rwys":1,"ils":0,"index":1318811,"path":"w100n30/w100n36"
,"runways":[
{"len_m":1065,"wid_m":15.24,"hdg":180,"surf":"Asphalt","rwy1":"17","lat1":36.48956400,"lon1":-99.19416100,"rwy2":"35","lat2":36.47996400,"lon2":-99.19417500}
]
,"radios":[
{"type":"CTAF","freq":122.8,"desc":"CTAF/UNICOM"}
]
,"navaids":[
{"type":"NDB","hdg_t":259.3,"dist_nm":16.2,"freq":329,"lat":36.43431500,"lon":-99.52416800,"rng_nm":25,"alt_fmsl":2167,"id":"OWU","desc":"WEST WOODWARD NDB"},
{"type":"NDB","hdg_t":318,"dist_nm":30.6,"freq":215,"lat":36.86419444,"lon":-99.62011111,"rng_nm":50,"alt_fmsl":0,"id":"BFK","desc":"BUFFALO NDB"},
{"type":"VOR","hdg_t":255.9,"dist_nm":34.2,"freq":115.6,"lat":36.34372222,"lon":-99.88011111,"rng_nm":130,"alt_fmsl":2430,"id":"MMB","desc":"MITBEE VORTAC"},
{"type":"NDB","hdg_t":108.8,"dist_nm":36.6,"freq":246,"lat":36.28516700,"lon":-98.47800000,"rng_nm":25,"alt_fmsl":1273,"id":"FAU","desc":"FAIRVIEW NDB"},
{"type":"NDB","hdg_t":134.7,"dist_nm":52.7,"freq":359,"lat":35.86198600,"lon":-98.42535000,"rng_nm":25,"alt_fmsl":1530,"id":"JWG","desc":"WATONGA NDB"},
{"type":"NDB","hdg_t":167.3,"dist_nm":58,"freq":320,"lat":35.53921700,"lon":-98.93508300,"rng_nm":25,"alt_fmsl":1605,"id":"CLK","desc":"CLINTON NDB"},
{"type":"NDB","hdg_t":180.3,"dist_nm":61.9,"freq":393,"lat":35.45066667,"lon":-99.20147222,"rng_nm":50,"alt_fmsl":0,"id":"BZ","desc":"FOSSI NDB"},
{"type":"VOR","hdg_t":97.3,"dist_nm":62.3,"freq":115.4,"lat":36.34497222,"lon":-97.91836111,"rng_nm":130,"alt_fmsl":1276,"id":"END","desc":"VANCE VORTAC"},
{"type":"NDB","hdg_t":155.8,"dist_nm":62.6,"freq":272,"lat":35.53005200,"lon":-98.67062900,"rng_nm":25,"alt_fmsl":1581,"id":"OJA","desc":"WEATHERFORD NDB"},
{"type":"VOR","hdg_t":50.3,"dist_nm":63.7,"freq":112.9,"lat":37.15891667,"lon":-98.17072222,"rng_nm":40,"alt_fmsl":1390,"id":"ANY","desc":"ANTHONY VORTAC"},
{"type":"VOR","hdg_t":95.1,"dist_nm":68.4,"freq":109,"lat":36.37375000,"lon":-97.78816667,"rng_nm":25,"alt_fmsl":1149,"id":"ODG","desc":"WOODRING VOR-DME"},
{"type":"NDB","hdg_t":100,"dist_nm":69.1,"freq":341,"lat":36.27502778,"lon":-97.79077778,"rng_nm":50,"alt_fmsl":0,"id":"EI","desc":"GARFY NDB"},
{"type":"VOR","hdg_t":124.7,"dist_nm":70.7,"freq":114.7,"lat":35.80527778,"lon":-98.00391667,"rng_nm":130,"alt_fmsl":1110,"id":"IFI","desc":"KINGFISHER VORTAC"},
{"type":"VOR","hdg_t":197.6,"dist_nm":71.5,"freq":115.2,"lat":35.34516667,"lon":-99.63536111,"rng_nm":40,"alt_fmsl":1990,"id":"SYO","desc":"SAYRE VORTAC"},
{"type":"VOR","hdg_t":180.4,"dist_nm":74.7,"freq":110,"lat":35.23694444,"lon":-99.20616667,"rng_nm":25,"alt_fmsl":1780,"id":"BFV","desc":"BURNS FLAT VORTAC"},
{"type":"NDB","hdg_t":267.1,"dist_nm":75.3,"freq":266,"lat":36.41233333,"lon":-100.74775000,"rng_nm":50,"alt_fmsl":0,"id":"PYX","desc":"PERRYTON NDB"},
{"type":"NDB","hdg_t":15.9,"dist_nm":77.4,"freq":356,"lat":37.72630556,"lon":-98.74708333,"rng_nm":50,"alt_fmsl":0,"id":"PTT","desc":"PRATT NDB"},
{"type":"NDB","hdg_t":289.2,"dist_nm":89.7,"freq":383,"lat":36.96455556,"lon":-100.95627778,"rng_nm":50,"alt_fmsl":0,"id":"LB","desc":"PANCK NDB"},
{"type":"VOR","hdg_t":334.8,"dist_nm":90.6,"freq":108.2,"lat":37.85058333,"lon":-100.00563889,"rng_nm":40,"alt_fmsl":2565,"id":"DDC","desc":"DODGE CITY VORTAC"},
{"type":"VOR","hdg_t":291.9,"dist_nm":91.9,"freq":112.3,"lat":37.04438889,"lon":-100.97119444,"rng_nm":130,"alt_fmsl":2891,"id":"LBL","desc":"LIBERAL VORTAC"},
{"type":"VOR","hdg_t":126.6,"dist_nm":94.4,"freq":113.4,"lat":35.53294444,"lon":-97.64716667,"rng_nm":25,"alt_fmsl":1271,"id":"PWA","desc":"WILEY POST VOR-DME"},
{"type":"NDB","hdg_t":113.3,"dist_nm":94.5,"freq":326,"lat":35.84555600,"lon":-97.41580600,"rng_nm":25,"alt_fmsl":1074,"id":"LCY","desc":"LOGAN COUNTY NDB"},
{"type":"VOR","hdg_t":176.1,"dist_nm":97.1,"freq":111.8,"lat":34.86655556,"lon":-99.06338889,"rng_nm":40,"alt_fmsl":1472,"id":"HBR","desc":"HOBART VORTAC"},
{"type":"NDB","hdg_t":127.6,"dist_nm":98.3,"freq":406,"lat":35.47144444,"lon":-97.60544444,"rng_nm":50,"alt_fmsl":0,"id":"OK","desc":"TULOO NDB"},
{"type":"VOR","hdg_t":80.3,"dist_nm":99.4,"freq":113.2,"lat":36.74652778,"lon":-97.16016667,"rng_nm":130,"alt_fmsl":1054,"id":"PER","desc":"PIONEER VORTAC"}
]
}
