{"success":true,"source":"xp2csv.pl","last_updated":"2013/11/08 14:53:21 UTC"
,"icao":"KMDH","name":"Southern Illinois","lat":37.7782835,"lon":-89.253087,"rwys":3,"ils":1,"index":1482738,"path":"w090n30/w090n37"
,"runways":[
{"len_m":1982,"wid_m":30.48,"hdg":181,"surf":"Asphalt","rwy1":"18L","lat1":37.79051400,"lon1":-89.24788600,"rwy2":"36R","lat2":37.77265300,"lon2":-89.24836700},
{"len_m":1268,"wid_m":30.48,"hdg":60,"surf":"Asphalt","rwy1":"06","lat1":37.77552800,"lon1":-89.25880300,"rwy2":"24","lat2":37.78112800,"lon2":-89.24624700},
{"len_m":1065,"wid_m":18.29,"hdg":181,"surf":"Asphalt","rwy1":"18R","lat1":37.77973900,"lon1":-89.25848300,"rwy2":"36L","lat2":37.77013900,"lon2":-89.25873600}
]
,"radios":[
{"type":"ATIS","freq":119.85,"desc":"ATIS"},
{"type":"CTAF","freq":125.35,"desc":"CTAF"},
{"type":"CTAF","freq":122.95,"desc":"UNICOM"},
{"type":"GND","freq":121.8,"desc":"GND"},
{"type":"TWR","freq":125.35,"desc":"CARBONDALE TWR"},
{"type":"TWR","freq":126.25,"desc":"CARBONDALE TWR"}
]
,"ils":[
{"type":"ILS","freq":110.9,"lat":37.76908600,"lon":-89.24846100,"rng_nm":18,"alt_fmsl":407,"hdg":181.22,"id":"IMDH","rwy":"18L","desc":"ILS-cat-I"},
{"type":"GS","freq":110.9,"lat":37.78579400,"lon":-89.24671700,"rng_nm":10,"alt_fmsl":406,"id":"IMDH","rwy":"18L","desc":"GS","gs":3},
{"type":"OM","freq":0,"lat":37.87005600,"lon":-89.24552800,"rng_nm":0,"alt_fmsl":407,"id":"----","rwy":"18L","desc":"OM"},
{"type":"MM","freq":0,"lat":37.79641700,"lon":-89.24772200,"rng_nm":0,"alt_fmsl":407,"id":"----","rwy":"18L","desc":"MM"}
]
,"navaids":[
{"type":"NDB","hdg_t":3.7,"dist_nm":5.5,"freq":388,"lat":37.87025000,"lon":-89.24552778,"rng_nm":50,"alt_fmsl":0,"id":"MD","desc":"CABBI NDB"},
{"type":"VOR","hdg_t":97,"dist_nm":11.5,"freq":110.4,"lat":37.75425000,"lon":-89.01166667,"rng_nm":40,"alt_fmsl":468,"id":"MWA","desc":"MARION VOR-DME"},
{"type":"NDB","hdg_t":74.7,"dist_nm":13.9,"freq":382,"lat":37.83916667,"lon":-88.97077778,"rng_nm":50,"alt_fmsl":0,"id":"MW","desc":"JONNY NDB"},
{"type":"NDB","hdg_t":316,"dist_nm":30.6,"freq":239,"lat":38.14532800,"lon":-89.70232200,"rng_nm":25,"alt_fmsl":532,"id":"SAR","desc":"SPARTA NDB"},
{"type":"NDB","hdg_t":86.3,"dist_nm":33.7,"freq":230,"lat":37.81158333,"lon":-88.54533333,"rng_nm":50,"alt_fmsl":0,"id":"HSB","desc":"HARRISBURG-RALEIG NDB"},
{"type":"VOR","hdg_t":204.8,"dist_nm":36.3,"freq":112.9,"lat":37.22752778,"lon":-89.57238889,"rng_nm":40,"alt_fmsl":340,"id":"CGI","desc":"CAPE GIRARDEAU VOR-DME"},
{"type":"NDB","hdg_t":214.3,"dist_nm":38,"freq":248,"lat":37.25341667,"lon":-89.70061111,"rng_nm":50,"alt_fmsl":0,"id":"CG","desc":"DUTCH NDB"},
{"type":"VOR","hdg_t":6.5,"dist_nm":38.7,"freq":115,"lat":38.42000000,"lon":-89.15900000,"rng_nm":130,"alt_fmsl":546,"id":"ENL","desc":"CENTRALIA VORTAC"},
{"type":"VOR","hdg_t":30.9,"dist_nm":40.8,"freq":113.8,"lat":38.36194444,"lon":-88.80733333,"rng_nm":40,"alt_fmsl":558,"id":"VNN","desc":"MT VERNON VOR-DME"},
{"type":"NDB","hdg_t":178,"dist_nm":42.9,"freq":397,"lat":37.06172222,"lon":-89.22341667,"rng_nm":50,"alt_fmsl":0,"id":"CIR","desc":"CAIRO NDB"},
{"type":"NDB","hdg_t":143.5,"dist_nm":47,"freq":254,"lat":37.14550000,"lon":-88.67047222,"rng_nm":50,"alt_fmsl":0,"id":"BDD","desc":"BELLGRADE NDB"},
{"type":"VOR","hdg_t":262.6,"dist_nm":47.1,"freq":115.7,"lat":37.67347222,"lon":-90.23405556,"rng_nm":130,"alt_fmsl":1222,"id":"FAM","desc":"FARMINGTON VORTAC"},
{"type":"NDB","hdg_t":330,"dist_nm":47.5,"freq":362,"lat":38.46475000,"lon":-89.75640300,"rng_nm":25,"alt_fmsl":419,"id":"BL","desc":"BELLEVILLE NDB"},
{"type":"NDB","hdg_t":331.4,"dist_nm":47.8,"freq":385,"lat":38.47800000,"lon":-89.73786111,"rng_nm":50,"alt_fmsl":0,"id":"JD","desc":"GOOEY NDB"},
{"type":"VOR","hdg_t":156.5,"dist_nm":50.2,"freq":113.1,"lat":37.00861111,"lon":-88.83691667,"rng_nm":40,"alt_fmsl":480,"id":"CNG","desc":"CUNNINGHAM VORTAC"},
{"type":"NDB","hdg_t":14.5,"dist_nm":53.6,"freq":400,"lat":38.64402778,"lon":-88.96736111,"rng_nm":50,"alt_fmsl":0,"id":"SLO","desc":"SALEM NDB"},
{"type":"NDB","hdg_t":47.6,"dist_nm":53.8,"freq":257,"lat":38.38005556,"lon":-88.40977778,"rng_nm":50,"alt_fmsl":0,"id":"FWC","desc":"WAYNE CO NDB"},
{"type":"SDME","hdg_t":328.5,"dist_nm":53.9,"freq":112.2,"lat":38.54536700,"lon":-89.85164700,"rng_nm":25,"alt_fmsl":482,"id":"SKE","desc":"SCOTT TACAN"},
{"type":"NDB","hdg_t":195.7,"dist_nm":55.4,"freq":272,"lat":36.88781100,"lon":-89.56478600,"rng_nm":25,"alt_fmsl":350,"id":"SIK","desc":"SIKESTON NDB"},
{"type":"NDB","hdg_t":269.4,"dist_nm":55.9,"freq":367,"lat":37.76391667,"lon":-90.42866667,"rng_nm":50,"alt_fmsl":0,"id":"PRI","desc":"PERRINE NDB"},
{"type":"NDB","hdg_t":185.1,"dist_nm":56.1,"freq":208,"lat":36.84505556,"lon":-89.35675000,"rng_nm":50,"alt_fmsl":0,"id":"CHQ","desc":"CHARLESTON NDB"},
{"type":"NDB","hdg_t":70.3,"dist_nm":57,"freq":332,"lat":38.09350000,"lon":-88.11963889,"rng_nm":50,"alt_fmsl":0,"id":"CUL","desc":"CARMI NDB"},
{"type":"NDB","hdg_t":319.6,"dist_nm":58.5,"freq":350,"lat":38.51991667,"lon":-90.05902778,"rng_nm":50,"alt_fmsl":0,"id":"CP","desc":"ACORE NDB"},
{"type":"NDB","hdg_t":295.2,"dist_nm":59.3,"freq":269,"lat":38.19588889,"lon":-90.38761111,"rng_nm":50,"alt_fmsl":0,"id":"FES","desc":"FESTUS NDB"},
{"type":"NDB","hdg_t":354.9,"dist_nm":63.5,"freq":233,"lat":38.83421400,"lon":-89.37230000,"rng_nm":25,"alt_fmsl":539,"id":"GRE","desc":"GREENVILLE NDB"},
{"type":"NDB","hdg_t":35,"dist_nm":65.4,"freq":353,"lat":38.66893600,"lon":-88.45310300,"rng_nm":25,"alt_fmsl":472,"id":"FOA","desc":"ELM RIVER NDB"},
{"type":"VOR","hdg_t":331.5,"dist_nm":65.6,"freq":116,"lat":38.73916667,"lon":-89.91863889,"rng_nm":40,"alt_fmsl":570,"id":"TOY","desc":"TROY VORTAC"},
{"type":"VOR","hdg_t":52.1,"dist_nm":69.6,"freq":116.6,"lat":38.48519444,"lon":-88.08580556,"rng_nm":40,"alt_fmsl":540,"id":"SAM","desc":"SAMSVILLE VOR-DME"},
{"type":"VOR","hdg_t":82.3,"dist_nm":71.4,"freq":113.3,"lat":37.92833333,"lon":-87.76238889,"rng_nm":130,"alt_fmsl":384,"id":"PXV","desc":"POCKET CITY VORTAC"},
{"type":"NDB","hdg_t":333.5,"dist_nm":72.1,"freq":218,"lat":38.85500000,"lon":-89.93805556,"rng_nm":50,"alt_fmsl":0,"id":"AL","desc":"ALPOS NDB"},
{"type":"NDB","hdg_t":41.8,"dist_nm":76,"freq":272,"lat":38.71811111,"lon":-88.17280556,"rng_nm":50,"alt_fmsl":0,"id":"OLY","desc":"OLNEY NDB"},
{"type":"NDB","hdg_t":330.6,"dist_nm":76.7,"freq":263,"lat":38.89230556,"lon":-90.05627778,"rng_nm":50,"alt_fmsl":0,"id":"CVM","desc":"CIVIC MEMORIAL NDB"},
{"type":"NDB","hdg_t":321.6,"dist_nm":77.5,"freq":404,"lat":38.78805556,"lon":-90.27886111,"rng_nm":50,"alt_fmsl":0,"id":"ST","desc":"ZUMAY NDB"},
{"type":"VOR","hdg_t":27.7,"dist_nm":77.5,"freq":109,"lat":38.92036111,"lon":-88.48180556,"rng_nm":40,"alt_fmsl":540,"id":"BIB","desc":"BIBLE GROVE VORTAC"},
{"type":"NDB","hdg_t":143.6,"dist_nm":78.3,"freq":368,"lat":36.72065556,"lon":-88.28996111,"rng_nm":15,"alt_fmsl":0,"id":"EU","desc":"MUREY NDB"},
{"type":"VOR","hdg_t":318.4,"dist_nm":78.4,"freq":116.45,"lat":38.75275000,"lon":-90.36097222,"rng_nm":130,"alt_fmsl":530,"id":"CSX","desc":"CARDINAL VOR-DME"},
{"type":"VOR","hdg_t":3,"dist_nm":78.9,"freq":114.3,"lat":39.09369444,"lon":-89.16247222,"rng_nm":40,"alt_fmsl":604,"id":"VLA","desc":"VANDALIA VORTAC"},
{"type":"VOR","hdg_t":203.5,"dist_nm":79.8,"freq":111.2,"lat":36.55511111,"lon":-89.91141667,"rng_nm":40,"alt_fmsl":280,"id":"MAW","desc":"MALDEN VORTAC"},
{"type":"NDB","hdg_t":311.7,"dist_nm":81.5,"freq":227,"lat":38.67738889,"lon":-90.54750000,"rng_nm":50,"alt_fmsl":0,"id":"FZ","desc":"EAVES NDB"},
{"type":"NDB","hdg_t":78.6,"dist_nm":83.2,"freq":284,"lat":38.04013889,"lon":-87.53094444,"rng_nm":50,"alt_fmsl":0,"id":"PDW","desc":"EVANSVILLE NDB"},
{"type":"NDB","hdg_t":218.1,"dist_nm":84.1,"freq":278,"lat":36.66908333,"lon":-90.32838889,"rng_nm":50,"alt_fmsl":0,"id":"FD","desc":"EARLI NDB"},
{"type":"NDB","hdg_t":317,"dist_nm":84.1,"freq":338,"lat":38.80033333,"lon":-90.47475000,"rng_nm":50,"alt_fmsl":0,"id":"LM","desc":"OBLIO NDB"},
{"type":"VOR","hdg_t":318.5,"dist_nm":87,"freq":117.4,"lat":38.86069444,"lon":-90.48236111,"rng_nm":130,"alt_fmsl":450,"id":"STL","desc":"ST LOUIS VORTAC"},
{"type":"NDB","hdg_t":54.8,"dist_nm":87.8,"freq":524,"lat":38.61175000,"lon":-87.72550000,"rng_nm":50,"alt_fmsl":0,"id":"AJG","desc":"MOUNT CARMEL NDB"},
{"type":"NDB","hdg_t":306.2,"dist_nm":88.2,"freq":326,"lat":38.63908333,"lon":-90.76694444,"rng_nm":50,"alt_fmsl":0,"id":"SU","desc":"SNOOP NDB"},
{"type":"NDB","hdg_t":75.7,"dist_nm":88.5,"freq":219,"lat":38.12672222,"lon":-87.44072222,"rng_nm":50,"alt_fmsl":0,"id":"EV","desc":"VICCI NDB"},
{"type":"NDB","hdg_t":171.9,"dist_nm":89.5,"freq":212,"lat":36.29769444,"lon":-88.99486111,"rng_nm":50,"alt_fmsl":0,"id":"UC","desc":"OBION NDB"},
{"type":"NDB","hdg_t":287.4,"dist_nm":94.6,"freq":356,"lat":38.23552778,"lon":-91.16408333,"rng_nm":50,"alt_fmsl":0,"id":"UUV","desc":"SULLIVAN NDB"},
{"type":"NDB","hdg_t":55.1,"dist_nm":97.1,"freq":251,"lat":38.69075000,"lon":-87.55577778,"rng_nm":50,"alt_fmsl":0,"id":"OEA","desc":"VINCENNES NDB"},
{"type":"VOR","hdg_t":103.4,"dist_nm":97.8,"freq":109.8,"lat":37.38241667,"lon":-87.26369444,"rng_nm":40,"alt_fmsl":450,"id":"CCT","desc":"CENTRAL CITY VORTAC"},
{"type":"VOR","hdg_t":52.1,"dist_nm":97.9,"freq":108.8,"lat":38.76986111,"lon":-87.60383333,"rng_nm":25,"alt_fmsl":430,"id":"LWV","desc":"LAWRENCEVILLE VOR-DME"},
{"type":"VOR","hdg_t":304.5,"dist_nm":98,"freq":110.8,"lat":38.69433333,"lon":-90.97116667,"rng_nm":40,"alt_fmsl":818,"id":"FTZ","desc":"FORISTELL VORTAC"},
{"type":"VOR","hdg_t":90.5,"dist_nm":99.3,"freq":108.6,"lat":37.74355556,"lon":-87.16597222,"rng_nm":25,"alt_fmsl":401,"id":"OWB","desc":"OWENSBORO VOR-DME"},
{"type":"NDB","hdg_t":11,"dist_nm":99.4,"freq":365,"lat":39.40669444,"lon":-88.84369444,"rng_nm":50,"alt_fmsl":0,"id":"SYZ","desc":"SHELBYVILLE NDB"},
{"type":"NDB","hdg_t":94.2,"dist_nm":99.9,"freq":341,"lat":37.63561111,"lon":-87.16222222,"rng_nm":50,"alt_fmsl":0,"id":"OW","desc":"HIGUY NDB"}
]
}
