{"success":true,"source":"xp2csv.pl","last_updated":"2013/11/08 14:53:21 UTC"
,"icao":"KMGW","name":"Morgantown Muni Walter L Bill Hart Fld","lat":39.642606,"lon":-79.9157735,"rwys":2,"ils":1,"index":1646696,"path":"w080n30/w080n39"
,"runways":[
{"len_m":1584,"wid_m":45.72,"hdg":172,"surf":"Asphalt","rwy1":"18","lat1":39.65066900,"lon1":-79.91876900,"rwy2":"36","lat2":39.63652500,"lon2":-79.91632500},
{"len_m":843,"wid_m":22.86,"hdg":44,"surf":"Asphalt","rwy1":"05","lat1":39.63892200,"lon1":-79.91746700,"rwy2":"23","lat2":39.64430800,"lon2":-79.91053300}
]
,"radios":[
{"type":"ATIS","freq":120.67,"desc":"ASOS"},
{"type":"CTAF","freq":125.1,"desc":"CTAF"},
{"type":"CTAF","freq":122.95,"desc":"UNICOM"},
{"type":"GND","freq":121.7,"desc":"GND"},
{"type":"TWR","freq":125.1,"desc":"TWR"},
{"type":"APP","freq":121.15,"desc":"CLARKSBURG APP/DEP"}
]
,"ils":[
{"type":"ILS","freq":108.5,"lat":39.63563900,"lon":-79.91617200,"rng_nm":18,"alt_fmsl":1238,"hdg":172.42,"id":"IMGW","rwy":"18","desc":"ILS-cat-I"},
{"type":"GS","freq":108.5,"lat":39.64776900,"lon":-79.91737500,"rng_nm":10,"alt_fmsl":1234,"id":"IMGW","rwy":"18","desc":"GS","gs":3},
{"type":"OM","freq":0,"lat":39.72728300,"lon":-79.93213300,"rng_nm":0,"alt_fmsl":1238,"id":"----","rwy":"18","desc":"OM"},
{"type":"MM","freq":0,"lat":39.65927500,"lon":-79.92097800,"rng_nm":0,"alt_fmsl":1238,"id":"----","rwy":"18","desc":"MM"}
]
,"navaids":[
{"type":"VOR","hdg_t":153.4,"dist_nm":5.7,"freq":111.6,"lat":39.55669444,"lon":-79.86038889,"rng_nm":40,"alt_fmsl":2339,"id":"MGW","desc":"MORGANTOWN VORTAC"},
{"type":"NDB","hdg_t":28.7,"dist_nm":16.4,"freq":299,"lat":39.88277778,"lon":-79.74472222,"rng_nm":50,"alt_fmsl":0,"id":"VV","desc":"CAMOR NDB"},
{"type":"VOR","hdg_t":215.1,"dist_nm":28.5,"freq":112.6,"lat":39.25322222,"lon":-80.26786111,"rng_nm":40,"alt_fmsl":1430,"id":"CKB","desc":"CLARKSBURG VOR-DME"},
{"type":"VOR","hdg_t":52.1,"dist_nm":32.5,"freq":108.2,"lat":39.97425000,"lon":-79.35836111,"rng_nm":40,"alt_fmsl":2820,"id":"IHD","desc":"INDIAN HEAD VORTAC"},
{"type":"VOR","hdg_t":351.4,"dist_nm":38.5,"freq":110,"lat":40.27866667,"lon":-80.04086111,"rng_nm":40,"alt_fmsl":1289,"id":"AGC","desc":"ALLEGHENY VOR-DME"},
{"type":"VOR","hdg_t":90.3,"dist_nm":40.1,"freq":112.3,"lat":39.63502778,"lon":-79.05052778,"rng_nm":40,"alt_fmsl":2640,"id":"GRV","desc":"GRANTSVILLE VOR-DME"},
{"type":"NDB","hdg_t":8.2,"dist_nm":43.1,"freq":287,"lat":40.35530556,"lon":-79.78100000,"rng_nm":50,"alt_fmsl":0,"id":"MKP","desc":"MC KEESPORT NDB"},
{"type":"VOR","hdg_t":191.1,"dist_nm":44.4,"freq":114.2,"lat":38.91444444,"lon":-80.09927778,"rng_nm":40,"alt_fmsl":2160,"id":"EKN","desc":"ELKINS VORTAC"},
{"type":"NDB","hdg_t":176.6,"dist_nm":44.9,"freq":284,"lat":38.89394444,"lon":-79.85941667,"rng_nm":50,"alt_fmsl":0,"id":"RQY","desc":"RANDOLPH CO NDB"},
{"type":"NDB","hdg_t":308.3,"dist_nm":45.3,"freq":212,"lat":40.10963889,"lon":-80.68869444,"rng_nm":50,"alt_fmsl":0,"id":"HL","desc":"DORCH (OM) NDB"},
{"type":"VOR","hdg_t":298.5,"dist_nm":47.3,"freq":117.1,"lat":40.01702778,"lon":-80.81725000,"rng_nm":130,"alt_fmsl":1290,"id":"AIR","desc":"BELLAIRE VOR-DME"},
{"type":"VOR","hdg_t":321,"dist_nm":47.7,"freq":112.2,"lat":40.25988889,"lon":-80.56861111,"rng_nm":40,"alt_fmsl":1269,"id":"HLG","desc":"WHEELING VOR-DME"},
{"type":"VOR","hdg_t":119.8,"dist_nm":49.7,"freq":110.8,"lat":39.22550000,"lon":-78.98950000,"rng_nm":40,"alt_fmsl":2590,"id":"ESL","desc":"KESSEL VOR-DME"},
{"type":"VOR","hdg_t":345.9,"dist_nm":52.2,"freq":112,"lat":40.48813889,"lon":-80.19386111,"rng_nm":40,"alt_fmsl":1200,"id":"MMJ","desc":"MONTOUR VORTAC"},
{"type":"NDB","hdg_t":33.8,"dist_nm":53,"freq":382,"lat":40.37544444,"lon":-79.27172222,"rng_nm":50,"alt_fmsl":0,"id":"BHU","desc":"BENJE NDB"},
{"type":"NDB","hdg_t":59.7,"dist_nm":53.2,"freq":209,"lat":40.08569444,"lon":-78.91655556,"rng_nm":50,"alt_fmsl":0,"id":"SYS","desc":"STOYSTOWN NDB"},
{"type":"NDB","hdg_t":89.2,"dist_nm":54.1,"freq":317,"lat":39.64825000,"lon":-78.74719444,"rng_nm":50,"alt_fmsl":0,"id":"CBE","desc":"CUMBERLAND NDB"},
{"type":"NDB","hdg_t":305.4,"dist_nm":61.9,"freq":239,"lat":40.23672222,"lon":-81.01313889,"rng_nm":50,"alt_fmsl":0,"id":"CFX","desc":"CADIZ NDB"},
{"type":"VOR","hdg_t":50.6,"dist_nm":64.2,"freq":113,"lat":40.31672222,"lon":-78.83416667,"rng_nm":40,"alt_fmsl":2280,"id":"JST","desc":"JOHNSTOWN VORTAC"},
{"type":"VOR","hdg_t":260.3,"dist_nm":68.7,"freq":108.6,"lat":39.44116667,"lon":-81.37475000,"rng_nm":40,"alt_fmsl":1030,"id":"JPU","desc":"PARKERSBURG VORTAC"},
{"type":"NDB","hdg_t":33.1,"dist_nm":71,"freq":242,"lat":40.63191667,"lon":-79.06591667,"rng_nm":50,"alt_fmsl":0,"id":"INP","desc":"INDIANA NDB"},
{"type":"VOR","hdg_t":349.2,"dist_nm":72.1,"freq":115.8,"lat":40.82494444,"lon":-80.21155556,"rng_nm":130,"alt_fmsl":1227,"id":"EWC","desc":"ELLWOOD CITY VORTAC"},
{"type":"VOR","hdg_t":44.4,"dist_nm":76.3,"freq":110.6,"lat":40.54647222,"lon":-78.74702778,"rng_nm":40,"alt_fmsl":2340,"id":"REC","desc":"REVLOC VOR-DME"},
{"type":"NDB","hdg_t":252.7,"dist_nm":76.5,"freq":388,"lat":39.25408333,"lon":-81.48494444,"rng_nm":50,"alt_fmsl":0,"id":"PK","desc":"VERSI NDB"},
{"type":"NDB","hdg_t":316.2,"dist_nm":76.8,"freq":395,"lat":40.56263300,"lon":-81.07759700,"rng_nm":25,"alt_fmsl":1184,"id":"TSO","desc":"TOLSON NDB"},
{"type":"VOR","hdg_t":296.5,"dist_nm":80.1,"freq":111.8,"lat":40.22922222,"lon":-81.47647222,"rng_nm":40,"alt_fmsl":1180,"id":"CTW","desc":"NEWCOMERSTOWN VOR-DME"},
{"type":"VOR","hdg_t":60.6,"dist_nm":84.8,"freq":108.8,"lat":40.32544444,"lon":-78.30369444,"rng_nm":25,"alt_fmsl":0,"id":"AOO","desc":"ALTOONA VOR"},
{"type":"NDB","hdg_t":344.6,"dist_nm":85.8,"freq":272,"lat":41.02300000,"lon":-80.41583333,"rng_nm":50,"alt_fmsl":0,"id":"UCP","desc":"CASTLE NDB"},
{"type":"NDB","hdg_t":129.5,"dist_nm":87.9,"freq":245,"lat":38.69955556,"lon":-78.47166667,"rng_nm":50,"alt_fmsl":0,"id":"LUA","desc":"CAVERNS NDB"},
{"type":"NDB","hdg_t":110.6,"dist_nm":92.1,"freq":364,"lat":39.08650000,"lon":-78.06861111,"rng_nm":50,"alt_fmsl":0,"id":"TZ","desc":"COGAN NDB"},
{"type":"VOR","hdg_t":12.9,"dist_nm":92.5,"freq":112.9,"lat":41.14630556,"lon":-79.45797222,"rng_nm":40,"alt_fmsl":1520,"id":"CIP","desc":"CLARION VOR-DME"},
{"type":"VOR","hdg_t":78.5,"dist_nm":92.5,"freq":115,"lat":39.93322222,"lon":-77.95094444,"rng_nm":40,"alt_fmsl":2340,"id":"THS","desc":"ST THOMAS VORTAC"},
{"type":"VOR","hdg_t":120.1,"dist_nm":92.6,"freq":114.3,"lat":38.85438889,"lon":-78.20555556,"rng_nm":40,"alt_fmsl":2440,"id":"LDN","desc":"LINDEN VORTAC"},
{"type":"VOR","hdg_t":281.6,"dist_nm":93.1,"freq":111.4,"lat":39.94086111,"lon":-81.89261111,"rng_nm":40,"alt_fmsl":898,"id":"ZZV","desc":"ZANESVILLE VOR-DME"},
{"type":"NDB","hdg_t":280.3,"dist_nm":94,"freq":204,"lat":39.90630556,"lon":-81.91927778,"rng_nm":50,"alt_fmsl":0,"id":"HRA","desc":"ZANESVILLE NDB"},
{"type":"NDB","hdg_t":342.8,"dist_nm":94.8,"freq":408,"lat":41.15288889,"lon":-80.53144444,"rng_nm":50,"alt_fmsl":0,"id":"HBD","desc":"HUBBARD NDB"},
{"type":"VOR","hdg_t":87.3,"dist_nm":95.4,"freq":109.8,"lat":39.69772222,"lon":-77.85572222,"rng_nm":40,"alt_fmsl":0,"id":"HGR","desc":"HAGERSTOWN VOR"},
{"type":"VOR","hdg_t":313.8,"dist_nm":95.8,"freq":112.4,"lat":40.74069444,"lon":-81.43211111,"rng_nm":40,"alt_fmsl":1221,"id":"BSV","desc":"BRIGGS VOR-DME"},
{"type":"VOR","hdg_t":98.4,"dist_nm":97.2,"freq":112.1,"lat":39.38558333,"lon":-77.84836111,"rng_nm":40,"alt_fmsl":600,"id":"MRB","desc":"MARTINSBURG VORTAC"},
{"type":"NDB","hdg_t":152.2,"dist_nm":97.3,"freq":375,"lat":38.20175000,"lon":-78.95736111,"rng_nm":50,"alt_fmsl":0,"id":"SH","desc":"STAUT NDB"},
{"type":"VOR","hdg_t":47.5,"dist_nm":97.9,"freq":114.9,"lat":40.73511111,"lon":-78.33130556,"rng_nm":40,"alt_fmsl":2630,"id":"TON","desc":"TYRONE VORTAC"},
{"type":"NDB","hdg_t":341.7,"dist_nm":98.4,"freq":338,"lat":41.20052778,"lon":-80.59613889,"rng_nm":50,"alt_fmsl":0,"id":"YN","desc":"FETCH NDB"},
{"type":"NDB","hdg_t":175.7,"dist_nm":99.5,"freq":400,"lat":37.98646900,"lon":-79.75946900,"rng_nm":25,"alt_fmsl":2080,"id":"HS","desc":"DURAN NDB"},
{"type":"NDB","hdg_t":208.4,"dist_nm":99.7,"freq":272,"lat":38.17505600,"lon":-80.91998600,"rng_nm":25,"alt_fmsl":1880,"id":"IJZ","desc":"NICHOLAS NDB"}
]
}
