{"success":true,"source":"xp2csv.pl","last_updated":"2013/11/08 14:53:21 UTC"
,"icao":"KMJQ","name":"Jackson Muni","lat":43.64990225,"lon":-94.98639025,"rwys":2,"ils":0,"index":1401192,"path":"w100n40/w095n43"
,"runways":[
{"len_m":1094,"wid_m":22.86,"hdg":138,"surf":"Asphalt","rwy1":"13","lat1":43.65422500,"lon1":-94.99159700,"rwy2":"31","lat2":43.64685600,"lon2":-94.98259200},
{"len_m":685,"wid_m":91.44,"hdg":48,"surf":"Turf/grass","rwy1":"04","lat1":43.64720300,"lon1":-94.98884700,"rwy2":"22","lat2":43.65132500,"lon2":-94.98252500}
]
,"radios":[
{"type":"CTAF","freq":122.8,"desc":"CTAF/UNICOM"}
]
,"navaids":[
{"type":"NDB","hdg_t":174.2,"dist_nm":0.1,"freq":353,"lat":43.64688889,"lon":-94.98597222,"rng_nm":50,"alt_fmsl":0,"id":"MJQ","desc":"JACKSON NDB"},
{"type":"NDB","hdg_t":341.1,"dist_nm":16.4,"freq":203,"lat":43.90938889,"lon":-95.10916667,"rng_nm":50,"alt_fmsl":0,"id":"MWM","desc":"WINDOM NDB"},
{"type":"VOR","hdg_t":143.7,"dist_nm":17.8,"freq":110.4,"lat":43.40930556,"lon":-94.74444444,"rng_nm":25,"alt_fmsl":0,"id":"EST","desc":"ESTHERVILLE VOR"},
{"type":"NDB","hdg_t":148.6,"dist_nm":20.9,"freq":345,"lat":43.35152778,"lon":-94.73777778,"rng_nm":50,"alt_fmsl":0,"id":"PUF","desc":"PUFF NDB"},
{"type":"NDB","hdg_t":264.8,"dist_nm":20.9,"freq":277,"lat":43.61738889,"lon":-95.46408333,"rng_nm":50,"alt_fmsl":0,"id":"OT","desc":"WONDD NDB"},
{"type":"VOR","hdg_t":90.3,"dist_nm":24.5,"freq":110.2,"lat":43.64597222,"lon":-94.42255556,"rng_nm":40,"alt_fmsl":1164,"id":"FRM","desc":"FAIRMONT VOR-DME"},
{"type":"VOR","hdg_t":269.8,"dist_nm":25.9,"freq":110.6,"lat":43.64691667,"lon":-95.58197222,"rng_nm":40,"alt_fmsl":1571,"id":"OTG","desc":"WORTHINGTON VOR-DME"},
{"type":"NDB","hdg_t":42.9,"dist_nm":27.5,"freq":260,"lat":43.98550000,"lon":-94.55269444,"rng_nm":50,"alt_fmsl":0,"id":"JYG","desc":"ST JAMES NDB"},
{"type":"NDB","hdg_t":210.9,"dist_nm":29.1,"freq":394,"lat":43.23258333,"lon":-95.32761111,"rng_nm":50,"alt_fmsl":0,"id":"SP","desc":"SNORE NDB"},
{"type":"NDB","hdg_t":98.6,"dist_nm":29.4,"freq":420,"lat":43.57363889,"lon":-94.31797222,"rng_nm":50,"alt_fmsl":0,"id":"FQ","desc":"MONTZ NDB"},
{"type":"VOR","hdg_t":197.8,"dist_nm":30.7,"freq":110,"lat":43.16216667,"lon":-95.20100000,"rng_nm":40,"alt_fmsl":1330,"id":"SPW","desc":"SPENCER VOR-DME"},
{"type":"NDB","hdg_t":191.5,"dist_nm":32,"freq":326,"lat":43.12705556,"lon":-95.13272222,"rng_nm":50,"alt_fmsl":0,"id":"LTU","desc":"LITTLE SIOUX NDB"},
{"type":"NDB","hdg_t":159.6,"dist_nm":35.1,"freq":410,"lat":43.10069444,"lon":-94.70825000,"rng_nm":50,"alt_fmsl":0,"id":"EGQ","desc":"EMMETSBURG NDB"},
{"type":"NDB","hdg_t":243.4,"dist_nm":37.4,"freq":269,"lat":43.36802778,"lon":-95.75252778,"rng_nm":50,"alt_fmsl":0,"id":"ISB","desc":"SIBLEY NDB"},
{"type":"NDB","hdg_t":94.3,"dist_nm":38.8,"freq":332,"lat":43.59702778,"lon":-94.09686111,"rng_nm":50,"alt_fmsl":0,"id":"SBU","desc":"BLUE EARTH NDB"},
{"type":"NDB","hdg_t":27.6,"dist_nm":45.3,"freq":272,"lat":44.31802778,"lon":-94.49802778,"rng_nm":50,"alt_fmsl":0,"id":"ULM","desc":"NEW ULM NDB"},
{"type":"NDB","hdg_t":235,"dist_nm":45.3,"freq":338,"lat":43.21416667,"lon":-95.83386111,"rng_nm":50,"alt_fmsl":0,"id":"SHL","desc":"SHELDON NDB"},
{"type":"VOR","hdg_t":234.9,"dist_nm":45.4,"freq":108.6,"lat":43.21213889,"lon":-95.83391667,"rng_nm":25,"alt_fmsl":1417,"id":"DDL","desc":"SHELDON VOR-DME"},
{"type":"NDB","hdg_t":137.2,"dist_nm":46.2,"freq":403,"lat":43.08136111,"lon":-94.27247222,"rng_nm":50,"alt_fmsl":0,"id":"AXA","desc":"ALGONA NDB"},
{"type":"VOR","hdg_t":352.9,"dist_nm":49.4,"freq":113.3,"lat":44.46727778,"lon":-95.12822222,"rng_nm":130,"alt_fmsl":1061,"id":"RWF","desc":"REDWOOD FALLS VOR-DME"},
{"type":"NDB","hdg_t":164.6,"dist_nm":56.1,"freq":428,"lat":42.74638889,"lon":-94.64922222,"rng_nm":50,"alt_fmsl":0,"id":"POH","desc":"POCAHONTAS NDB"},
{"type":"VOR","hdg_t":53.3,"dist_nm":57.7,"freq":110.8,"lat":44.21991667,"lon":-93.91236111,"rng_nm":40,"alt_fmsl":1026,"id":"MKT","desc":"MANKATO VOR-DME"},
{"type":"VOR","hdg_t":323.1,"dist_nm":60,"freq":111,"lat":44.44841667,"lon":-95.82477778,"rng_nm":25,"alt_fmsl":1180,"id":"MML","desc":"MARSHALL VOR-DME"},
{"type":"NDB","hdg_t":289.9,"dist_nm":60.3,"freq":284,"lat":43.98616667,"lon":-96.29636111,"rng_nm":50,"alt_fmsl":0,"id":"PQN","desc":"PIPESTONE NDB"},
{"type":"NDB","hdg_t":239.9,"dist_nm":61,"freq":368,"lat":43.13302778,"lon":-96.18975000,"rng_nm":50,"alt_fmsl":0,"id":"SOY","desc":"SIOUX CENTER NDB"},
{"type":"NDB","hdg_t":230.3,"dist_nm":61.4,"freq":521,"lat":42.99138889,"lon":-96.06058333,"rng_nm":50,"alt_fmsl":0,"id":"ORC","desc":"ORANGE CITY NDB"},
{"type":"NDB","hdg_t":190.2,"dist_nm":63.9,"freq":434,"lat":42.60044444,"lon":-95.24438889,"rng_nm":50,"alt_fmsl":0,"id":"SLB","desc":"STORM LAKE NDB"},
{"type":"NDB","hdg_t":112.1,"dist_nm":64.6,"freq":359,"lat":43.23580556,"lon":-93.62083333,"rng_nm":50,"alt_fmsl":0,"id":"FXY","desc":"FOREST CITY NDB"},
{"type":"NDB","hdg_t":322.2,"dist_nm":64.8,"freq":253,"lat":44.50175000,"lon":-95.91097222,"rng_nm":50,"alt_fmsl":0,"id":"GB","desc":"GARNO NDB"},
{"type":"VOR","hdg_t":153.7,"dist_nm":69.3,"freq":113.5,"lat":42.61111111,"lon":-94.29480556,"rng_nm":130,"alt_fmsl":1164,"id":"FOD","desc":"FORT DODGE VORTAC"},
{"type":"VOR","hdg_t":87.8,"dist_nm":70.3,"freq":109.8,"lat":43.68172222,"lon":-93.37075000,"rng_nm":25,"alt_fmsl":1265,"id":"AEL","desc":"ALBERT LEA VOR-DME"},
{"type":"NDB","hdg_t":139.7,"dist_nm":73.6,"freq":302,"lat":42.70858333,"lon":-93.91058333,"rng_nm":50,"alt_fmsl":0,"id":"EAG","desc":"EAGLE GROVE NDB"},
{"type":"NDB","hdg_t":156,"dist_nm":74.3,"freq":341,"lat":42.51450000,"lon":-94.30558333,"rng_nm":50,"alt_fmsl":0,"id":"FO","desc":"BARRO NDB"},
{"type":"NDB","hdg_t":225.6,"dist_nm":74.5,"freq":382,"lat":42.77443300,"lon":-96.19252200,"rng_nm":25,"alt_fmsl":1190,"id":"LRJ","desc":"LE MARS NDB"},
{"type":"NDB","hdg_t":179.8,"dist_nm":76.1,"freq":356,"lat":42.38061111,"lon":-94.98277778,"rng_nm":50,"alt_fmsl":0,"id":"SKI","desc":"SAC CITY NDB"},
{"type":"NDB","hdg_t":134.7,"dist_nm":76.4,"freq":387,"lat":42.74580556,"lon":-93.75883333,"rng_nm":50,"alt_fmsl":0,"id":"CAV","desc":"CLARION NDB"},
{"type":"NDB","hdg_t":29.9,"dist_nm":77.1,"freq":407,"lat":44.76063889,"lon":-94.08666667,"rng_nm":50,"alt_fmsl":0,"id":"GYL","desc":"GLENCOE NDB"},
{"type":"VOR","hdg_t":64,"dist_nm":77.5,"freq":111.2,"lat":44.20444444,"lon":-93.37050000,"rng_nm":25,"alt_fmsl":1100,"id":"FOW","desc":"HALFWAY VOR-DME"},
{"type":"VOR","hdg_t":270.6,"dist_nm":78.1,"freq":115,"lat":43.64950000,"lon":-96.78113889,"rng_nm":130,"alt_fmsl":1571,"id":"FSD","desc":"SIOUX FALLS VORTAC"},
{"type":"VOR","hdg_t":114.1,"dist_nm":79.7,"freq":114.9,"lat":43.09475000,"lon":-93.32986111,"rng_nm":130,"alt_fmsl":1209,"id":"MCW","desc":"MASON CITY VORTAC"},
{"type":"NDB","hdg_t":264,"dist_nm":80.9,"freq":245,"lat":43.49416667,"lon":-96.82877778,"rng_nm":50,"alt_fmsl":0,"id":"FS","desc":"ROKKY NDB"},
{"type":"NDB","hdg_t":115.6,"dist_nm":80.9,"freq":348,"lat":43.05261111,"lon":-93.32775000,"rng_nm":50,"alt_fmsl":0,"id":"MC","desc":"SURFF NDB"},
{"type":"NDB","hdg_t":71.6,"dist_nm":83.4,"freq":379,"lat":44.07383333,"lon":-93.15527778,"rng_nm":50,"alt_fmsl":0,"id":"OW","desc":"TONNA NDB"},
{"type":"VOR","hdg_t":338.7,"dist_nm":85.3,"freq":111.6,"lat":44.97266667,"lon":-95.71219444,"rng_nm":25,"alt_fmsl":1037,"id":"MVE","desc":"MONTEVIDEO VOR-DME"},
{"type":"NDB","hdg_t":145.4,"dist_nm":87.5,"freq":323,"lat":42.44127778,"lon":-93.86950000,"rng_nm":50,"alt_fmsl":0,"id":"EBS","desc":"WEBSTER CITY NDB"},
{"type":"VOR","hdg_t":357.1,"dist_nm":88.1,"freq":113.7,"lat":45.11752800,"lon":-95.09061100,"rng_nm":25,"alt_fmsl":1120,"id":"ILL","desc":"WILLMAR VOR-DME"},
{"type":"VOR","hdg_t":356.1,"dist_nm":88.2,"freq":113.7,"lat":45.11766667,"lon":-95.12705556,"rng_nm":25,"alt_fmsl":1125,"id":"BDH","desc":"WILLMAR VOR-DME"},
{"type":"VOR","hdg_t":296.9,"dist_nm":88.3,"freq":108.8,"lat":44.30325000,"lon":-96.81511111,"rng_nm":25,"alt_fmsl":1641,"id":"BKX","desc":"BROOKINGS VOR-DME"},
{"type":"VOR","hdg_t":14.6,"dist_nm":89.2,"freq":109,"lat":45.08747222,"lon":-94.45386111,"rng_nm":40,"alt_fmsl":1130,"id":"DWN","desc":"DARWIN VORTAC"},
{"type":"VOR","hdg_t":92,"dist_nm":90.2,"freq":108.2,"lat":43.57625000,"lon":-92.91866667,"rng_nm":25,"alt_fmsl":1233,"id":"JAY","desc":"AUSTIN VOR-DME"},
{"type":"NDB","hdg_t":284.1,"dist_nm":93.8,"freq":400,"lat":44.01327778,"lon":-97.08841667,"rng_nm":50,"alt_fmsl":0,"id":"MDS","desc":"WENTWORTH NDB"},
{"type":"NDB","hdg_t":202.2,"dist_nm":95,"freq":335,"lat":42.18055556,"lon":-95.79472222,"rng_nm":50,"alt_fmsl":0,"id":"MEY","desc":"MAPLETON NDB"},
{"type":"NDB","hdg_t":327.7,"dist_nm":95.1,"freq":341,"lat":44.98416667,"lon":-96.17894444,"rng_nm":50,"alt_fmsl":0,"id":"DXX","desc":"DAWSON/MADISON NDB"},
{"type":"NDB","hdg_t":125,"dist_nm":95.1,"freq":230,"lat":42.72622222,"lon":-93.22411111,"rng_nm":50,"alt_fmsl":0,"id":"HPT","desc":"HAMPTON NDB"},
{"type":"NDB","hdg_t":222.7,"dist_nm":96.4,"freq":305,"lat":42.46011111,"lon":-96.46222222,"rng_nm":50,"alt_fmsl":0,"id":"OI","desc":"TOMMI NDB"},
{"type":"NDB","hdg_t":220,"dist_nm":96.6,"freq":233,"lat":42.40811111,"lon":-96.38602778,"rng_nm":50,"alt_fmsl":0,"id":"GAK","desc":"SIOUX GATEWAY NDB"},
{"type":"VOR","hdg_t":42.8,"dist_nm":96.9,"freq":117.7,"lat":44.82536111,"lon":-93.44269444,"rng_nm":40,"alt_fmsl":900,"id":"FCM","desc":"FLYING CLOUD VOR-DME"},
{"type":"VOR","hdg_t":52.3,"dist_nm":97.6,"freq":115.7,"lat":44.63094444,"lon":-93.18205556,"rng_nm":130,"alt_fmsl":972,"id":"FGT","desc":"FARMINGTON VORTAC"},
{"type":"NDB","hdg_t":216.3,"dist_nm":97.9,"freq":414,"lat":42.32752778,"lon":-96.29050000,"rng_nm":50,"alt_fmsl":0,"id":"SU","desc":"SALIX NDB"},
{"type":"VOR","hdg_t":217.3,"dist_nm":97.9,"freq":116.5,"lat":42.34452778,"lon":-96.32363889,"rng_nm":40,"alt_fmsl":1087,"id":"SUX","desc":"SIOUX CITY VORTAC"}
]
}
