{"success":true,"source":"xp2csv.pl","last_updated":"2013/11/08 14:53:21 UTC"
,"icao":"KMNZ","name":"Hamilton Muni","lat":31.6659265,"lon":-98.1486375,"rwys":1,"ils":0,"index":1334891,"path":"w100n30/w099n31"
,"runways":[
{"len_m":1523,"wid_m":22.86,"hdg":188,"surf":"Asphalt","rwy1":"18","lat1":31.67271400,"lon1":-98.14738100,"rwy2":"36","lat2":31.65913900,"lon2":-98.14989400}
]
,"radios":[
{"type":"CTAF","freq":122.7,"desc":"CTAF/UNICOM"},
{"type":"APP","freq":120.07,"desc":"GRAY APP/DEP"}
]
,"navaids":[
{"type":"NDB","hdg_t":180.3,"dist_nm":2.6,"freq":251,"lat":31.62150000,"lon":-98.14891667,"rng_nm":50,"alt_fmsl":0,"id":"MNZ","desc":"HAMILTON NDB"},
{"type":"VOR","hdg_t":179.3,"dist_nm":28.7,"freq":112.5,"lat":31.18550000,"lon":-98.14186111,"rng_nm":130,"alt_fmsl":1290,"id":"AGJ","desc":"GOOCH SPRINGS VORTAC"},
{"type":"VOR","hdg_t":25,"dist_nm":32.6,"freq":115,"lat":32.15958333,"lon":-97.87769444,"rng_nm":40,"alt_fmsl":1300,"id":"JEN","desc":"GLEN ROSE VORTAC"},
{"type":"NDB","hdg_t":154.9,"dist_nm":32.8,"freq":323,"lat":31.16783333,"lon":-97.87822222,"rng_nm":50,"alt_fmsl":0,"id":"GR","desc":"STARN NDB"},
{"type":"NDB","hdg_t":144.9,"dist_nm":39.2,"freq":347,"lat":31.12905556,"lon":-97.71141667,"rng_nm":50,"alt_fmsl":0,"id":"HLR","desc":"HOOD NDB"},
{"type":"VOR","hdg_t":155.4,"dist_nm":41.6,"freq":111.8,"lat":31.03288889,"lon":-97.81377778,"rng_nm":25,"alt_fmsl":980,"id":"GRK","desc":"GRAY VOR-DME"},
{"type":"VOR","hdg_t":288.3,"dist_nm":43.5,"freq":108.6,"lat":31.89258333,"lon":-98.95747222,"rng_nm":40,"alt_fmsl":1574,"id":"BWD","desc":"BROWNWOOD VOR-DME"},
{"type":"NDB","hdg_t":149.3,"dist_nm":44.5,"freq":278,"lat":31.02411111,"lon":-97.70813889,"rng_nm":50,"alt_fmsl":0,"id":"IL","desc":"IRESH NDB"},
{"type":"VOR","hdg_t":90,"dist_nm":45,"freq":115.3,"lat":31.66233333,"lon":-97.26902778,"rng_nm":130,"alt_fmsl":510,"id":"ACT","desc":"WACO VORTAC"},
{"type":"VOR","hdg_t":126.1,"dist_nm":46.1,"freq":110.4,"lat":31.20933333,"lon":-97.42497222,"rng_nm":40,"alt_fmsl":710,"id":"TPL","desc":"TEMPLE VOR-DME"},
{"type":"NDB","hdg_t":85,"dist_nm":54.9,"freq":378,"lat":31.74091667,"lon":-97.07816667,"rng_nm":50,"alt_fmsl":0,"id":"CN","desc":"LEROI NDB"},
{"type":"NDB","hdg_t":322.5,"dist_nm":55.3,"freq":410,"lat":32.39847222,"lon":-98.81033333,"rng_nm":50,"alt_fmsl":0,"id":"OIP","desc":"OLD RIP NDB"},
{"type":"NDB","hdg_t":184.6,"dist_nm":55.5,"freq":341,"lat":30.74027778,"lon":-98.23622222,"rng_nm":50,"alt_fmsl":0,"id":"BMQ","desc":"BURNET NDB"},
{"type":"NDB","hdg_t":99.6,"dist_nm":56.1,"freq":400,"lat":31.50380556,"lon":-97.06958333,"rng_nm":50,"alt_fmsl":0,"id":"ROB","desc":"ROBINSON NDB"},
{"type":"VOR","hdg_t":212.4,"dist_nm":61.5,"freq":108.2,"lat":30.79633333,"lon":-98.78738889,"rng_nm":40,"alt_fmsl":1200,"id":"LLO","desc":"LLANO VORTAC"},
{"type":"NDB","hdg_t":157.5,"dist_nm":63.5,"freq":332,"lat":30.68438889,"lon":-97.67991667,"rng_nm":50,"alt_fmsl":0,"id":"GUO","desc":"GEORGETOWN NDB"},
{"type":"VOR","hdg_t":6.8,"dist_nm":63.9,"freq":117.7,"lat":32.72619444,"lon":-97.99744444,"rng_nm":130,"alt_fmsl":900,"id":"MQP","desc":"MILLSAP VORTAC"},
{"type":"NDB","hdg_t":279.5,"dist_nm":65.1,"freq":385,"lat":31.84125600,"lon":-99.40617500,"rng_nm":25,"alt_fmsl":88,"id":"COM","desc":"COLEMAN NDB"},
{"type":"NDB","hdg_t":244.4,"dist_nm":66.9,"freq":380,"lat":31.17788889,"lon":-99.32258333,"rng_nm":50,"alt_fmsl":0,"id":"BBD","desc":"BRADY NDB"},
{"type":"NDB","hdg_t":3.9,"dist_nm":67.1,"freq":266,"lat":32.78512800,"lon":-98.05726700,"rng_nm":25,"alt_fmsl":972,"id":"MWL","desc":"MINERAL WELLS NDB"},
{"type":"NDB","hdg_t":329.9,"dist_nm":74.9,"freq":245,"lat":32.74734400,"lon":-98.89117800,"rng_nm":25,"alt_fmsl":1226,"id":"BKD","desc":"BRECKENRIDGE NDB"},
{"type":"SDME","hdg_t":28.4,"dist_nm":75.4,"freq":108.7,"lat":32.77151700,"lon":-97.43946400,"rng_nm":40,"alt_fmsl":663,"id":"NFW","desc":"FORT WORTH NAS JRB TACAN"},
{"type":"NDB","hdg_t":350.1,"dist_nm":78.1,"freq":280,"lat":32.95150000,"lon":-98.41311111,"rng_nm":50,"alt_fmsl":0,"id":"GZV","desc":"BRAZOS RIVER NDB"},
{"type":"VOR","hdg_t":93.1,"dist_nm":82,"freq":108.8,"lat":31.58147222,"lon":-96.54908333,"rng_nm":40,"alt_fmsl":512,"id":"GNL","desc":"GROESBECK VOR-DME"},
{"type":"NDB","hdg_t":28,"dist_nm":83.3,"freq":365,"lat":32.89297222,"lon":-97.37352778,"rng_nm":50,"alt_fmsl":0,"id":"FT","desc":"MUFIN NDB"},
{"type":"VOR","hdg_t":157.3,"dist_nm":83.4,"freq":112.8,"lat":30.37855556,"lon":-97.52986111,"rng_nm":130,"alt_fmsl":593,"id":"CWK","desc":"CENTEX VORTAC"},
{"type":"NDB","hdg_t":90.6,"dist_nm":83.8,"freq":329,"lat":31.63961111,"lon":-96.51219444,"rng_nm":50,"alt_fmsl":0,"id":"LXY","desc":"MEXIA NDB"},
{"type":"NDB","hdg_t":163.6,"dist_nm":85.9,"freq":232,"lat":30.28759400,"lon":-97.68183600,"rng_nm":25,"alt_fmsl":0,"id":"GF","desc":"BIRDY NDB"},
{"type":"NDB","hdg_t":296.3,"dist_nm":86.5,"freq":353,"lat":32.29888889,"lon":-99.67419444,"rng_nm":50,"alt_fmsl":0,"id":"AB","desc":"TOMHI NDB"},
{"type":"VOR","hdg_t":33.6,"dist_nm":88.3,"freq":115.7,"lat":32.88944444,"lon":-97.17941667,"rng_nm":130,"alt_fmsl":637,"id":"FUZ","desc":"RANGER VORTAC"},
{"type":"NDB","hdg_t":39.6,"dist_nm":88.7,"freq":233,"lat":32.80215100,"lon":-97.02746200,"rng_nm":50,"alt_fmsl":500,"id":"PK","desc":"ISSUE NDB"},
{"type":"NDB","hdg_t":46.7,"dist_nm":88.8,"freq":287,"lat":32.67693600,"lon":-96.87106700,"rng_nm":50,"alt_fmsl":670,"id":"RBD","desc":"REDBIRD NDB"},
{"type":"NDB","hdg_t":162.3,"dist_nm":89.7,"freq":353,"lat":30.23568300,"lon":-97.62569700,"rng_nm":25,"alt_fmsl":0,"id":"AU","desc":"AUSTI NDB"},
{"type":"NDB","hdg_t":74.3,"dist_nm":91.1,"freq":344,"lat":32.06413889,"lon":-96.42630556,"rng_nm":50,"alt_fmsl":0,"id":"CGQ","desc":"POWELL NDB"},
{"type":"VOR","hdg_t":37.7,"dist_nm":91.4,"freq":113.1,"lat":32.86916667,"lon":-97.04050000,"rng_nm":130,"alt_fmsl":540,"id":"TTT","desc":"MAVERICK VOR-DME"},
{"type":"NDB","hdg_t":348.9,"dist_nm":91.5,"freq":371,"lat":33.16586111,"lon":-98.49661111,"rng_nm":50,"alt_fmsl":0,"id":"GHX","desc":"GRAHAM NDB"},
{"type":"VOR","hdg_t":292.2,"dist_nm":91.7,"freq":111.6,"lat":32.23575000,"lon":-99.81677778,"rng_nm":40,"alt_fmsl":2018,"id":"TQA","desc":"TUSCOLA VOR-DME"},
{"type":"VOR","hdg_t":198.3,"dist_nm":91.9,"freq":113.8,"lat":30.20675000,"lon":-98.70575000,"rng_nm":130,"alt_fmsl":1530,"id":"STV","desc":"STONEWALL VORTAC"},
{"type":"NDB","hdg_t":75.9,"dist_nm":92.2,"freq":396,"lat":32.02841667,"lon":-96.39461111,"rng_nm":50,"alt_fmsl":0,"id":"CRS","desc":"CORSICANA NDB"},
{"type":"NDB","hdg_t":271,"dist_nm":93.5,"freq":239,"lat":31.68047222,"lon":-99.97491667,"rng_nm":50,"alt_fmsl":0,"id":"UBC","desc":"BALLINGER NDB"},
{"type":"NDB","hdg_t":46.1,"dist_nm":96.4,"freq":275,"lat":32.77477200,"lon":-96.77527500,"rng_nm":25,"alt_fmsl":0,"id":"LV","desc":"CONIS NDB"},
{"type":"VOR","hdg_t":40.4,"dist_nm":96.8,"freq":116.2,"lat":32.89030556,"lon":-96.90397222,"rng_nm":130,"alt_fmsl":450,"id":"CVE","desc":"COWBOY VOR-DME"},
{"type":"NDB","hdg_t":165.3,"dist_nm":97.4,"freq":255,"lat":30.08972222,"lon":-97.67602778,"rng_nm":50,"alt_fmsl":0,"id":"BS","desc":"CREED NDB"},
{"type":"NDB","hdg_t":35.2,"dist_nm":97.8,"freq":219,"lat":32.99578900,"lon":-97.02959200,"rng_nm":50,"alt_fmsl":547,"id":"FL","desc":"JIFFY NDB"}
]
}
