{"success":true,"source":"xp2csv.pl","last_updated":"2013/11/08 14:53:21 UTC"
,"icao":"KMVM","name":"Machias Valley","lat":44.7031085,"lon":-67.4785985,"rwys":1,"ils":0,"index":1843626,"path":"w070n40/w068n44"
,"runways":[
{"len_m":886,"wid_m":18.29,"hdg":156,"surf":"Asphalt","rwy1":"18","lat1":44.70678100,"lon1":-67.48078600,"rwy2":"36","lat2":44.69943600,"lon2":-67.47641100}
]
,"radios":[
{"type":"CTAF","freq":122.8,"desc":"CTAF/UNICOM"}
]
,"navaids":[
{"type":"NDB","hdg_t":57.5,"dist_nm":23.5,"freq":260,"lat":44.91252778,"lon":-67.01222222,"rng_nm":50,"alt_fmsl":0,"id":"EPM","desc":"EASTPORT NDB"},
{"type":"NDB","hdg_t":88.2,"dist_nm":28.9,"freq":387,"lat":44.71555556,"lon":-66.80222222,"rng_nm":50,"alt_fmsl":0,"id":"6E","desc":"GRAND MANAN NDB"},
{"type":"NDB","hdg_t":254.7,"dist_nm":36.8,"freq":330,"lat":44.53872222,"lon":-68.30661111,"rng_nm":50,"alt_fmsl":0,"id":"BH","desc":"SURRY NDB"},
{"type":"VOR","hdg_t":345.7,"dist_nm":38.7,"freq":114.3,"lat":45.32919444,"lon":-67.70419444,"rng_nm":40,"alt_fmsl":398,"id":"PNN","desc":"PRINCETON VOR-DME"},
{"type":"NDB","hdg_t":290.6,"dist_nm":52.5,"freq":272,"lat":45.00572222,"lon":-68.63427778,"rng_nm":50,"alt_fmsl":0,"id":"OLD","desc":"OLD TOWN NDB"},
{"type":"NDB","hdg_t":311.4,"dist_nm":59.7,"freq":216,"lat":45.35644444,"lon":-68.53697222,"rng_nm":50,"alt_fmsl":0,"id":"LRG","desc":"LINCOLN NDB"},
{"type":"VOR","hdg_t":278.4,"dist_nm":60.2,"freq":114.8,"lat":44.84180556,"lon":-68.87397222,"rng_nm":130,"alt_fmsl":360,"id":"BGR","desc":"BANGOR VORTAC"},
{"type":"NDB","hdg_t":255.6,"dist_nm":68,"freq":278,"lat":44.41122222,"lon":-69.01094444,"rng_nm":50,"alt_fmsl":0,"id":"BST","desc":"BELFAST NDB"},
{"type":"VOR","hdg_t":320.6,"dist_nm":68.9,"freq":117.9,"lat":45.58672222,"lon":-68.51547222,"rng_nm":130,"alt_fmsl":550,"id":"MLT","desc":"MILLINOCKET VOR-DME"},
{"type":"NDB","hdg_t":63.5,"dist_nm":71.9,"freq":397,"lat":45.22777778,"lon":-65.95861111,"rng_nm":50,"alt_fmsl":0,"id":"ZST","desc":"ALPINE(SAINT JOHN NDB"},
{"type":"NDB","hdg_t":321.6,"dist_nm":72.7,"freq":344,"lat":45.64861111,"lon":-68.55030556,"rng_nm":50,"alt_fmsl":0,"id":"LNT","desc":"MILNOT NDB"},
{"type":"NDB","hdg_t":96.7,"dist_nm":72.9,"freq":220,"lat":44.54750000,"lon":-65.78916667,"rng_nm":50,"alt_fmsl":0,"id":"Y9","desc":"DIGBY NDB"},
{"type":"NDB","hdg_t":128.7,"dist_nm":79.8,"freq":230,"lat":43.86086111,"lon":-66.04361111,"rng_nm":50,"alt_fmsl":0,"id":"AC","desc":"PLEASANT LAKE NDB"},
{"type":"NDB","hdg_t":132.6,"dist_nm":79.8,"freq":206,"lat":43.79333333,"lon":-66.12611111,"rng_nm":50,"alt_fmsl":0,"id":"QI","desc":"YARMOUTH NDB"},
{"type":"VOR","hdg_t":130.7,"dist_nm":79.9,"freq":113.3,"lat":43.82508333,"lon":-66.08250000,"rng_nm":130,"alt_fmsl":164,"id":"YQI","desc":"YARMOUTH VOR-DME"},
{"type":"SDME","hdg_t":29.2,"dist_nm":79.9,"freq":111.3,"lat":45.86305600,"lon":-66.54777800,"rng_nm":25,"alt_fmsl":79,"id":"IDC","desc":"FREDERICTON DME"},
{"type":"NDB","hdg_t":241.3,"dist_nm":80.2,"freq":356,"lat":44.05013889,"lon":-69.10502778,"rng_nm":50,"alt_fmsl":0,"id":"SUH","desc":"SPRUCEHEAD NDB"},
{"type":"NDB","hdg_t":270.4,"dist_nm":80.4,"freq":348,"lat":44.69772222,"lon":-69.35858333,"rng_nm":50,"alt_fmsl":0,"id":"BUP","desc":"BURNHAM NDB"},
{"type":"VOR","hdg_t":57.7,"dist_nm":80.4,"freq":113.5,"lat":45.40730556,"lon":-65.87025000,"rng_nm":130,"alt_fmsl":494,"id":"YSJ","desc":"SAINT JOHN VOR-DME"},
{"type":"VOR","hdg_t":349.5,"dist_nm":81.5,"freq":116.1,"lat":46.03950000,"lon":-67.83416667,"rng_nm":130,"alt_fmsl":860,"id":"HUL","desc":"HOULTON VOR-DME"},
{"type":"NDB","hdg_t":26.7,"dist_nm":81.8,"freq":326,"lat":45.91722222,"lon":-66.60000000,"rng_nm":50,"alt_fmsl":0,"id":"FC","desc":"FREDERICTON NDB"},
{"type":"NDB","hdg_t":59,"dist_nm":81.8,"freq":212,"lat":45.39166667,"lon":-65.81888889,"rng_nm":50,"alt_fmsl":0,"id":"SJ","desc":"SAINT JOHN NDB"},
{"type":"NDB","hdg_t":244.5,"dist_nm":83.3,"freq":334,"lat":44.09347222,"lon":-69.21900000,"rng_nm":50,"alt_fmsl":0,"id":"RM","desc":"NOXKS NDB"},
{"type":"VOR","hdg_t":31.7,"dist_nm":84.4,"freq":113,"lat":45.89477778,"lon":-66.41888889,"rng_nm":130,"alt_fmsl":52,"id":"YFC","desc":"FREDERICTON VOR-DME"}
]
}
