{"success":true,"source":"xp2csv.pl","last_updated":"2013/11/08 14:53:21 UTC"
,"icao":"KODO","name":"Odessa Schlemeyer Fld","lat":31.9203763333333,"lon":-102.386597666667,"rwys":3,"ils":0,"index":1269370,"path":"w110n30/w103n31"
,"runways":[
{"len_m":1737,"wid_m":22.86,"hdg":29,"surf":"Asphalt","rwy1":"02","lat1":31.91406700,"lon1":-102.39267500,"rwy2":"20","lat2":31.92768600,"lon2":-102.38358100},
{"len_m":1524,"wid_m":22.86,"hdg":164,"surf":"Asphalt","rwy1":"16","lat1":31.92799400,"lon1":-102.39081900,"rwy2":"34","lat2":31.91473300,"lon2":-102.38655800},
{"len_m":1042,"wid_m":18.29,"hdg":119,"surf":"Asphalt","rwy1":"11","lat1":31.92121400,"lon1":-102.38776400,"rwy2":"29","lat2":31.91656400,"lon2":-102.37818900}
]
,"radios":[
{"type":"ATIS","freq":119.27,"desc":"ASOS"},
{"type":"CTAF","freq":123,"desc":"CTAF/UNICOM"},
{"type":"CLD","freq":121.7,"desc":"CLNC DEL"},
{"type":"APP","freq":124.6,"desc":"MIDLAND APP/DEP"}
]
,"navaids":[
{"type":"NDB","hdg_t":37.7,"dist_nm":5.1,"freq":326,"lat":31.98800000,"lon":-102.32505556,"rng_nm":50,"alt_fmsl":0,"id":"MA","desc":"FARLY NDB"},
{"type":"VOR","hdg_t":61.9,"dist_nm":11.3,"freq":114.8,"lat":32.00933333,"lon":-102.19038889,"rng_nm":40,"alt_fmsl":2860,"id":"MAF","desc":"MIDLAND VORTAC"},
{"type":"VOR","hdg_t":266.6,"dist_nm":43.8,"freq":112.1,"lat":31.87475000,"lon":-103.24377778,"rng_nm":130,"alt_fmsl":2860,"id":"INK","desc":"WINK VORTAC"},
{"type":"NDB","hdg_t":343.7,"dist_nm":46.8,"freq":344,"lat":32.67169444,"lon":-102.64572222,"rng_nm":50,"alt_fmsl":0,"id":"GNC","desc":"GAINES CO NDB"},
{"type":"VOR","hdg_t":58.5,"dist_nm":53.7,"freq":114.3,"lat":32.38558333,"lon":-101.48369444,"rng_nm":40,"alt_fmsl":2670,"id":"BGS","desc":"BIG SPRING VORTAC"},
{"type":"NDB","hdg_t":25.3,"dist_nm":55.5,"freq":338,"lat":32.75844444,"lon":-101.91608333,"rng_nm":50,"alt_fmsl":0,"id":"LSA","desc":"LAMESA NDB"},
{"type":"VOR","hdg_t":313.9,"dist_nm":62.1,"freq":111,"lat":32.63825000,"lon":-103.26930556,"rng_nm":40,"alt_fmsl":3664,"id":"HOB","desc":"HOBBS VORTAC"},
{"type":"VOR","hdg_t":207.7,"dist_nm":65.3,"freq":116.9,"lat":30.95211111,"lon":-102.97572222,"rng_nm":130,"alt_fmsl":2893,"id":"FST","desc":"FORT STOCKTON VORTAC"},
{"type":"VOR","hdg_t":246.3,"dist_nm":66.5,"freq":111.8,"lat":31.46930556,"lon":-103.57475000,"rng_nm":40,"alt_fmsl":2650,"id":"PEQ","desc":"PECOS VOR-DME"},
{"type":"NDB","hdg_t":7.4,"dist_nm":76,"freq":311,"lat":33.17924400,"lon":-102.19101900,"rng_nm":25,"alt_fmsl":3263,"id":"BFE","desc":"BROWNFIELD NDB"},
{"type":"NDB","hdg_t":57,"dist_nm":86.9,"freq":359,"lat":32.70141667,"lon":-100.94613889,"rng_nm":50,"alt_fmsl":0,"id":"SDR","desc":"SNYDER NDB"},
{"type":"VOR","hdg_t":282.6,"dist_nm":95.8,"freq":116.3,"lat":32.25661111,"lon":-104.22605556,"rng_nm":40,"alt_fmsl":3250,"id":"CNM","desc":"CARLSBAD VORTAC"},
{"type":"NDB","hdg_t":0.3,"dist_nm":97.9,"freq":266,"lat":33.55566667,"lon":-102.37522222,"rng_nm":50,"alt_fmsl":0,"id":"LLN","desc":"LEVELLAND NDB"}
]
}
