{"success":true,"source":"xp2csv.pl","last_updated":"2013/11/08 14:53:21 UTC"
,"icao":"KOLU","name":"Columbus Muni","lat":41.448592375,"lon":-97.340039635,"rwys":2,"ils":1,"index":1351898,"path":"w100n40/w098n41"
,"runways":[
{"len_m":2074,"wid_m":29.87,"hdg":149,"surf":"Concrete","rwy1":"14","lat1":41.45740776,"lon1":-97.34990418,"rwy2":"32","lat2":41.44126624,"lon2":-97.33742065},
{"len_m":1230,"wid_m":46.02,"hdg":29,"surf":"Turf/grass","rwy1":"02","lat1":41.44303945,"lon1":-97.34007582,"rwy2":"20","lat2":41.45265605,"lon2":-97.33275791}
]
,"radios":[
{"type":"ATIS","freq":125.52,"desc":"AWOS 3"},
{"type":"CTAF","freq":123.05,"desc":"CTAF/UNICOM"}
]
,"ils":[
{"type":"LOC","freq":109.1,"lat":41.44018100,"lon":-97.33658900,"rng_nm":18,"alt_fmsl":1439,"id":"IOLU","rwy":"14","desc":"LOC"}
]
,"navaids":[
{"type":"VOR","hdg_t":338.1,"dist_nm":0,"freq":111.8,"lat":41.45002778,"lon":-97.34080556,"rng_nm":40,"alt_fmsl":1442,"id":"OLU","desc":"COLUMBUS VOR-DME"},
{"type":"NDB","hdg_t":326.8,"dist_nm":3.4,"freq":407,"lat":41.49655556,"lon":-97.38175000,"rng_nm":50,"alt_fmsl":0,"id":"PLT","desc":"PLATTE CENTER NDB"},
{"type":"NDB","hdg_t":346.5,"dist_nm":27,"freq":510,"lat":41.88761111,"lon":-97.48025000,"rng_nm":50,"alt_fmsl":0,"id":"OF","desc":"CARSY NDB"},
{"type":"VOR","hdg_t":352.5,"dist_nm":32.6,"freq":109.6,"lat":41.98791667,"lon":-97.43458333,"rng_nm":40,"alt_fmsl":1540,"id":"OFK","desc":"NORFOLK VOR-DME"},
{"type":"VOR","hdg_t":73.4,"dist_nm":33.3,"freq":111,"lat":41.60475000,"lon":-96.62883333,"rng_nm":25,"alt_fmsl":1318,"id":"SCB","desc":"SCRIBNER VOR-DME"},
{"type":"NDB","hdg_t":200.8,"dist_nm":35.3,"freq":257,"lat":40.89755556,"lon":-97.61700000,"rng_nm":50,"alt_fmsl":0,"id":"JYR","desc":"YORK NDB"},
{"type":"NDB","hdg_t":110.2,"dist_nm":35.7,"freq":400,"lat":41.23916667,"lon":-96.59836111,"rng_nm":50,"alt_fmsl":0,"id":"AHQ","desc":"WAHOO NDB"},
{"type":"NDB","hdg_t":297.9,"dist_nm":36.2,"freq":332,"lat":41.72958333,"lon":-98.05269444,"rng_nm":50,"alt_fmsl":0,"id":"BVN","desc":"ALABY NDB"},
{"type":"NDB","hdg_t":163.5,"dist_nm":36.7,"freq":269,"lat":40.86127778,"lon":-97.11194444,"rng_nm":50,"alt_fmsl":0,"id":"SWT","desc":"SEWARD NDB"},
{"type":"VOR","hdg_t":139,"dist_nm":41.5,"freq":116.1,"lat":40.92380556,"lon":-96.74200000,"rng_nm":130,"alt_fmsl":1370,"id":"LNK","desc":"LINCOLN VORTAC"},
{"type":"NDB","hdg_t":221.9,"dist_nm":44.7,"freq":278,"lat":40.89251400,"lon":-97.99719400,"rng_nm":25,"alt_fmsl":1799,"id":"AUH","desc":"AURORA NDB"},
{"type":"VOR","hdg_t":264.8,"dist_nm":45.9,"freq":114.8,"lat":41.37572222,"lon":-98.35358333,"rng_nm":130,"alt_fmsl":2010,"id":"OBH","desc":"WOLBACH VORTAC"},
{"type":"NDB","hdg_t":147.8,"dist_nm":49.5,"freq":385,"lat":40.74719444,"lon":-96.76241667,"rng_nm":50,"alt_fmsl":0,"id":"LN","desc":"POTTS NDB"},
{"type":"NDB","hdg_t":18.4,"dist_nm":50.2,"freq":389,"lat":42.24255556,"lon":-96.98375000,"rng_nm":50,"alt_fmsl":0,"id":"LCG","desc":"WAYNE NDB"},
{"type":"VOR","hdg_t":238,"dist_nm":52.1,"freq":112,"lat":40.98402778,"lon":-98.31477778,"rng_nm":40,"alt_fmsl":1840,"id":"GRI","desc":"GRAND ISLAND VORTAC"},
{"type":"NDB","hdg_t":191.4,"dist_nm":52.5,"freq":392,"lat":40.58994444,"lon":-97.56805556,"rng_nm":50,"alt_fmsl":0,"id":"FMZ","desc":"BEKLOF NDB"},
{"type":"NDB","hdg_t":159.1,"dist_nm":52.8,"freq":420,"lat":40.62411400,"lon":-96.92761100,"rng_nm":25,"alt_fmsl":1479,"id":"CEK","desc":"CRETE NDB"},
{"type":"VOR","hdg_t":69.9,"dist_nm":55.5,"freq":108.4,"lat":41.75958333,"lon":-96.17855556,"rng_nm":25,"alt_fmsl":0,"id":"TQE","desc":"TEKAMAH VOR"},
{"type":"NDB","hdg_t":232.3,"dist_nm":56,"freq":380,"lat":40.87288889,"lon":-98.31472222,"rng_nm":50,"alt_fmsl":0,"id":"GR","desc":"SANCY NDB"},
{"type":"NDB","hdg_t":104.9,"dist_nm":57.4,"freq":371,"lat":41.19486111,"lon":-96.11405556,"rng_nm":50,"alt_fmsl":0,"id":"MLE","desc":"MILLARD NDB"},
{"type":"NDB","hdg_t":94,"dist_nm":62.6,"freq":320,"lat":41.36677778,"lon":-95.95630556,"rng_nm":50,"alt_fmsl":0,"id":"OM","desc":"GERFI NDB"},
{"type":"NDB","hdg_t":91.9,"dist_nm":65.3,"freq":513,"lat":41.40175000,"lon":-95.89391667,"rng_nm":50,"alt_fmsl":0,"id":"PP","desc":"FLICK NDB"},
{"type":"SDME","hdg_t":106.4,"dist_nm":68.1,"freq":111.7,"lat":41.11722800,"lon":-95.90000300,"rng_nm":40,"alt_fmsl":1090,"id":"OFF","desc":"OFFUTT TACAN"},
{"type":"NDB","hdg_t":228.8,"dist_nm":68.9,"freq":338,"lat":40.68625000,"lon":-98.47752778,"rng_nm":50,"alt_fmsl":0,"id":"PSS","desc":"PROSSER NDB"},
{"type":"NDB","hdg_t":159.5,"dist_nm":69.3,"freq":248,"lat":40.36361100,"lon":-96.81294200,"rng_nm":25,"alt_fmsl":1352,"id":"BJU","desc":"BIG BLUE NDB"},
{"type":"NDB","hdg_t":100.7,"dist_nm":70.1,"freq":426,"lat":41.21958333,"lon":-95.81791667,"rng_nm":50,"alt_fmsl":0,"id":"EN","desc":"RIKKY NDB"},
{"type":"VOR","hdg_t":39.9,"dist_nm":70.4,"freq":116.5,"lat":42.34452778,"lon":-96.32363889,"rng_nm":40,"alt_fmsl":1087,"id":"SUX","desc":"SIOUX CITY VORTAC"},
{"type":"NDB","hdg_t":41.3,"dist_nm":70.6,"freq":414,"lat":42.32752778,"lon":-96.29050000,"rng_nm":50,"alt_fmsl":0,"id":"SU","desc":"SALIX NDB"},
{"type":"VOR","hdg_t":224.7,"dist_nm":70.7,"freq":108.8,"lat":40.60452778,"lon":-98.42961111,"rng_nm":40,"alt_fmsl":1967,"id":"HSI","desc":"HASTINGS VOR-DME"},
{"type":"NDB","hdg_t":114.6,"dist_nm":71.3,"freq":329,"lat":40.94377778,"lon":-95.91247222,"rng_nm":50,"alt_fmsl":0,"id":"PMV","desc":"PLATTSMOUTH NDB"},
{"type":"NDB","hdg_t":36.2,"dist_nm":71.6,"freq":233,"lat":42.40811111,"lon":-96.38602778,"rng_nm":50,"alt_fmsl":0,"id":"GAK","desc":"SIOUX GATEWAY NDB"},
{"type":"NDB","hdg_t":32.6,"dist_nm":72.2,"freq":305,"lat":42.46011111,"lon":-96.46222222,"rng_nm":50,"alt_fmsl":0,"id":"OI","desc":"TOMMI NDB"},
{"type":"NDB","hdg_t":278.7,"dist_nm":73.2,"freq":356,"lat":41.62375000,"lon":-98.94800000,"rng_nm":50,"alt_fmsl":0,"id":"ODX","desc":"ORD NDB"},
{"type":"VOR","hdg_t":158.6,"dist_nm":73.7,"freq":110.6,"lat":40.30141667,"lon":-96.75463889,"rng_nm":25,"alt_fmsl":1304,"id":"BIE","desc":"BEATRICE VOR-DME"},
{"type":"VOR","hdg_t":102.5,"dist_nm":74.4,"freq":116.3,"lat":41.16727778,"lon":-95.73672222,"rng_nm":130,"alt_fmsl":1300,"id":"OVR","desc":"OMAHA VORTAC"},
{"type":"NDB","hdg_t":159.3,"dist_nm":75.7,"freq":263,"lat":40.26500000,"lon":-96.75708100,"rng_nm":25,"alt_fmsl":1250,"id":"HWB","desc":"SHAW NDB"},
{"type":"NDB","hdg_t":174,"dist_nm":76.6,"freq":293,"lat":40.17666667,"lon":-97.16586111,"rng_nm":50,"alt_fmsl":0,"id":"FBY","desc":"FAIRBURY NDB"},
{"type":"NDB","hdg_t":188.3,"dist_nm":78.6,"freq":323,"lat":40.15036111,"lon":-97.58777778,"rng_nm":50,"alt_fmsl":0,"id":"HJH","desc":"HEBRON NDB"},
{"type":"NDB","hdg_t":57.1,"dist_nm":82,"freq":335,"lat":42.18055556,"lon":-95.79472222,"rng_nm":50,"alt_fmsl":0,"id":"MEY","desc":"MAPLETON NDB"},
{"type":"NDB","hdg_t":284.1,"dist_nm":83.5,"freq":377,"lat":41.77469444,"lon":-99.14552778,"rng_nm":50,"alt_fmsl":0,"id":"BUB","desc":"BURWELL NDB"},
{"type":"NDB","hdg_t":1.1,"dist_nm":83.6,"freq":347,"lat":42.84372222,"lon":-97.30211111,"rng_nm":50,"alt_fmsl":0,"id":"YK","desc":"CAGUR NDB"},
{"type":"NDB","hdg_t":126.4,"dist_nm":84,"freq":347,"lat":40.60555556,"lon":-95.86083333,"rng_nm":50,"alt_fmsl":0,"id":"AFK","desc":"NEBRASKA CITY NDB"},
{"type":"VOR","hdg_t":315.9,"dist_nm":85.9,"freq":113.9,"lat":42.47050000,"lon":-98.68691667,"rng_nm":130,"alt_fmsl":2030,"id":"ONL","desc":"O NEILL VORTAC"},
{"type":"VOR","hdg_t":240.6,"dist_nm":87,"freq":111.2,"lat":40.72558333,"lon":-99.00511111,"rng_nm":40,"alt_fmsl":0,"id":"EAR","desc":"KEARNEY VOR"},
{"type":"VOR","hdg_t":358.7,"dist_nm":88.1,"freq":111.4,"lat":42.91836111,"lon":-97.38497222,"rng_nm":40,"alt_fmsl":1301,"id":"YKN","desc":"YANKTON VOR-DME"},
{"type":"NDB","hdg_t":84.3,"dist_nm":90.4,"freq":272,"lat":41.57897222,"lon":-95.34097222,"rng_nm":50,"alt_fmsl":0,"id":"HNR","desc":"HARLAN NDB"},
{"type":"VOR","hdg_t":145,"dist_nm":90.9,"freq":112.4,"lat":40.20036111,"lon":-96.20627778,"rng_nm":130,"alt_fmsl":1360,"id":"PWE","desc":"PAWNEE CITY VORTAC"},
{"type":"NDB","hdg_t":237.7,"dist_nm":91,"freq":422,"lat":40.62613889,"lon":-99.02563889,"rng_nm":50,"alt_fmsl":0,"id":"EA","desc":"ANOKE NDB"},
{"type":"NDB","hdg_t":69.3,"dist_nm":93.7,"freq":350,"lat":41.98388889,"lon":-95.37927778,"rng_nm":50,"alt_fmsl":0,"id":"DNS","desc":"DENISON NDB"},
{"type":"NDB","hdg_t":32.4,"dist_nm":94.5,"freq":382,"lat":42.77443300,"lon":-96.19252200,"rng_nm":25,"alt_fmsl":1190,"id":"LRJ","desc":"LE MARS NDB"},
{"type":"NDB","hdg_t":114.8,"dist_nm":97.1,"freq":411,"lat":40.75169444,"lon":-95.40750000,"rng_nm":50,"alt_fmsl":0,"id":"SDA","desc":"SHENANDOAH NDB"},
{"type":"NDB","hdg_t":104.7,"dist_nm":97.8,"freq":230,"lat":41.01525000,"lon":-95.25575000,"rng_nm":50,"alt_fmsl":0,"id":"RDK","desc":"RED OAK NDB"},
{"type":"NDB","hdg_t":188.5,"dist_nm":99.1,"freq":414,"lat":39.81327778,"lon":-97.65786111,"rng_nm":50,"alt_fmsl":0,"id":"RPB","desc":"REPUBLICAN NDB"}
]
}
