{"success":true,"source":"xp2csv.pl","last_updated":"2013/11/08 14:53:21 UTC"
,"icao":"KOMK","name":"Omak","lat":48.464411,"lon":-119.5180545,"rwys":1,"ils":0,"index":991897,"path":"w120n40/w120n48"
,"runways":[
{"len_m":1422,"wid_m":45.72,"hdg":189,"surf":"Asphalt","rwy1":"17","lat1":48.47072500,"lon1":-119.51653100,"rwy2":"35","lat2":48.45809700,"lon2":-119.51957800}
]
,"radios":[
{"type":"ATIS","freq":118.32,"desc":"ASOS"},
{"type":"CTAF","freq":122.8,"desc":"CTAF/UNICOM"}
]
,"navaids":[
{"type":"NDB","hdg_t":176.3,"dist_nm":0.6,"freq":219,"lat":48.45338889,"lon":-119.51700000,"rng_nm":50,"alt_fmsl":0,"id":"OMK","desc":"OMAK NDB"},
{"type":"NDB","hdg_t":357.8,"dist_nm":52.7,"freq":356,"lat":49.34250000,"lon":-119.56888889,"rng_nm":50,"alt_fmsl":0,"id":"ON","desc":"OKANAGAN NDB"},
{"type":"NDB","hdg_t":52.2,"dist_nm":54.6,"freq":250,"lat":49.01750000,"lon":-118.42361111,"rng_nm":50,"alt_fmsl":0,"id":"2J","desc":"GRAND FORKS NDB"},
{"type":"SDME","hdg_t":356.7,"dist_nm":59.4,"freq":110.3,"lat":49.45250000,"lon":-119.60361100,"rng_nm":25,"alt_fmsl":1114,"id":"XYF","desc":"PENTICTON DME"},
{"type":"NDB","hdg_t":356.9,"dist_nm":61.5,"freq":290,"lat":49.48772222,"lon":-119.60152778,"rng_nm":50,"alt_fmsl":0,"id":"YYF","desc":"PENTICTON NDB"},
{"type":"VOR","hdg_t":328.7,"dist_nm":64.6,"freq":113.9,"lat":49.38155556,"lon":-120.37377778,"rng_nm":130,"alt_fmsl":5329,"id":"YDC","desc":"PRINCETON VOR-DME"},
{"type":"VOR","hdg_t":176.6,"dist_nm":65.3,"freq":112.6,"lat":47.37791667,"lon":-119.42400000,"rng_nm":130,"alt_fmsl":1250,"id":"EPH","desc":"EPHRATA VORTAC"},
{"type":"NDB","hdg_t":357.2,"dist_nm":68.1,"freq":312,"lat":49.59716667,"lon":-119.60263889,"rng_nm":50,"alt_fmsl":0,"id":"UNT","desc":"NARAMATA (PENTICT NDB"},
{"type":"VOR","hdg_t":203.8,"dist_nm":69.7,"freq":111,"lat":47.39969444,"lon":-120.21086111,"rng_nm":40,"alt_fmsl":1224,"id":"EAT","desc":"WENATCHEE VOR-DME"},
{"type":"NDB","hdg_t":327.1,"dist_nm":72.1,"freq":326,"lat":49.46944444,"lon":-120.51675000,"rng_nm":50,"alt_fmsl":0,"id":"DC","desc":"PRINCETON NDB"},
{"type":"VOR","hdg_t":173.7,"dist_nm":75.6,"freq":115,"lat":47.21086111,"lon":-119.31680556,"rng_nm":130,"alt_fmsl":1194,"id":"MWH","desc":"MOSES LAKE VOR-DME"},
{"type":"NDB","hdg_t":356.9,"dist_nm":80.9,"freq":389,"lat":49.81055069,"lon":-119.63054657,"rng_nm":25,"alt_fmsl":1129,"id":"YWB","desc":"WESTBANK NDB"},
{"type":"NDB","hdg_t":172.9,"dist_nm":81.5,"freq":408,"lat":47.11572222,"lon":-119.27450000,"rng_nm":50,"alt_fmsl":0,"id":"MW","desc":"PELLY NDB"},
{"type":"NDB","hdg_t":79.2,"dist_nm":85.1,"freq":379,"lat":48.71019444,"lon":-117.41358333,"rng_nm":50,"alt_fmsl":0,"id":"ION","desc":"IONE NDB"},
{"type":"SDME","hdg_t":56.5,"dist_nm":87.4,"freq":110.1,"lat":49.25222200,"lon":-117.66277800,"rng_nm":25,"alt_fmsl":1695,"id":"XCG","desc":"CASTLEGAR DME"},
{"type":"NDB","hdg_t":56.7,"dist_nm":88.4,"freq":206,"lat":49.25625000,"lon":-117.63486111,"rng_nm":50,"alt_fmsl":0,"id":"EF","desc":"CHAMPION NDB"},
{"type":"NDB","hdg_t":3.5,"dist_nm":88.7,"freq":374,"lat":49.93972200,"lon":-119.37555600,"rng_nm":25,"alt_fmsl":1409,"id":"EX","desc":"RUTLAND NDB"},
{"type":"NDB","hdg_t":108.7,"dist_nm":89,"freq":365,"lat":47.96775000,"lon":-117.42633333,"rng_nm":50,"alt_fmsl":0,"id":"DPY","desc":"DEER PARK NDB"},
{"type":"SDME","hdg_t":123.7,"dist_nm":90.6,"freq":111.4,"lat":47.61069400,"lon":-117.66230300,"rng_nm":40,"alt_fmsl":2460,"id":"SKA","desc":"FAIRCHILD TACAN"},
{"type":"NDB","hdg_t":54.5,"dist_nm":90.7,"freq":269,"lat":49.32527800,"lon":-117.63500000,"rng_nm":25,"alt_fmsl":0,"id":"YK","desc":"BRILLIANT NDB"},
{"type":"VOR","hdg_t":124.6,"dist_nm":93.3,"freq":115.5,"lat":47.56494444,"lon":-117.62688889,"rng_nm":130,"alt_fmsl":2756,"id":"GEG","desc":"SPOKANE VORTAC"},
{"type":"NDB","hdg_t":306.9,"dist_nm":93.5,"freq":245,"lat":49.38652778,"lon":-121.42416667,"rng_nm":50,"alt_fmsl":0,"id":"HE","desc":"HOPE NDB"},
{"type":"VOR","hdg_t":204.1,"dist_nm":94.4,"freq":117.9,"lat":47.02436111,"lon":-120.45841667,"rng_nm":130,"alt_fmsl":1770,"id":"ELN","desc":"ELLENSBURG VORTAC"},
{"type":"NDB","hdg_t":118.8,"dist_nm":95.6,"freq":388,"lat":47.67700000,"lon":-117.45019444,"rng_nm":50,"alt_fmsl":0,"id":"CRK","desc":"CANYON NDB"},
{"type":"NDB","hdg_t":2.3,"dist_nm":95.9,"freq":257,"lat":50.06086111,"lon":-119.41638889,"rng_nm":50,"alt_fmsl":0,"id":"LW","desc":"KELOWNA NDB"},
{"type":"NDB","hdg_t":51.7,"dist_nm":96.8,"freq":227,"lat":49.44722222,"lon":-117.57500000,"rng_nm":50,"alt_fmsl":0,"id":"CG","desc":"CASTLEGAR NDB"}
]
}
