{"success":true,"source":"xp2csv.pl","last_updated":"2013/11/08 14:53:21 UTC"
,"icao":"KPHH","name":"Robert F Swinnie","lat":33.4517,"lon":-79.5261775,"rwys":1,"ils":0,"index":1646297,"path":"w080n30/w080n33"
,"runways":[
{"len_m":914,"wid_m":18.29,"hdg":172,"surf":"Asphalt","rwy1":"18","lat1":33.45578600,"lon1":-79.52683300,"rwy2":"36","lat2":33.44761400,"lon2":-79.52552200}
]
,"radios":[
{"type":"CTAF","freq":122.9,"desc":"CTAF"},
{"type":"APP","freq":127.4,"desc":"MYRTLE BEACH APP/DEP"}
]
,"navaids":[
{"type":"NDB","hdg_t":255.7,"dist_nm":0,"freq":255,"lat":33.45147222,"lon":-79.52725000,"rng_nm":50,"alt_fmsl":0,"id":"PHH","desc":"ANDREWS NDB"},
{"type":"NDB","hdg_t":128.7,"dist_nm":13,"freq":242,"lat":33.31547222,"lon":-79.32452778,"rng_nm":50,"alt_fmsl":0,"id":"GGE","desc":"GEORGETOWN NDB"},
{"type":"NDB","hdg_t":0.1,"dist_nm":16.5,"freq":236,"lat":33.72850000,"lon":-79.52505556,"rng_nm":50,"alt_fmsl":0,"id":"HEK","desc":"STUCKEY NDB"},
{"type":"NDB","hdg_t":314.1,"dist_nm":22.9,"freq":404,"lat":33.71777778,"lon":-79.85500000,"rng_nm":50,"alt_fmsl":0,"id":"CKI","desc":"KINGSTREE NDB"},
{"type":"NDB","hdg_t":333.6,"dist_nm":27,"freq":420,"lat":33.85600000,"lon":-79.76588889,"rng_nm":50,"alt_fmsl":0,"id":"CFY","desc":"EVANS NDB"},
{"type":"NDB","hdg_t":41.7,"dist_nm":29.8,"freq":370,"lat":33.82330556,"lon":-79.12822222,"rng_nm":50,"alt_fmsl":0,"id":"HYW","desc":"HORRY NDB"},
{"type":"NDB","hdg_t":238.6,"dist_nm":29.9,"freq":354,"lat":33.19100000,"lon":-80.03341667,"rng_nm":50,"alt_fmsl":0,"id":"MKS","desc":"MONCKS CORNER NDB"},
{"type":"NDB","hdg_t":283.6,"dist_nm":35,"freq":381,"lat":33.58788889,"lon":-80.20613889,"rng_nm":50,"alt_fmsl":0,"id":"MNI","desc":"MANNING NDB"},
{"type":"NDB","hdg_t":225.4,"dist_nm":40.4,"freq":329,"lat":32.97633333,"lon":-80.09744444,"rng_nm":50,"alt_fmsl":0,"id":"CH","desc":"ASHLY (LOM/NDB) NDB"},
{"type":"VOR","hdg_t":217.8,"dist_nm":42.1,"freq":113.5,"lat":32.89430556,"lon":-80.03780556,"rng_nm":130,"alt_fmsl":39,"id":"CHS","desc":"CHARLESTON VORTAC"},
{"type":"NDB","hdg_t":238.4,"dist_nm":44.4,"freq":365,"lat":33.06127778,"lon":-80.27730556,"rng_nm":50,"alt_fmsl":0,"id":"DYB","desc":"DORCHESTER CO NDB"},
{"type":"NDB","hdg_t":12.3,"dist_nm":44.9,"freq":388,"lat":34.18516667,"lon":-79.33311111,"rng_nm":50,"alt_fmsl":0,"id":"MAO","desc":"MARION NDB"},
{"type":"VOR","hdg_t":61.4,"dist_nm":45.6,"freq":117.6,"lat":33.81386111,"lon":-78.72452778,"rng_nm":40,"alt_fmsl":20,"id":"CRE","desc":"GRAND STRAND VORTAC"},
{"type":"NDB","hdg_t":339.4,"dist_nm":46.2,"freq":335,"lat":34.17397222,"lon":-79.85250000,"rng_nm":50,"alt_fmsl":0,"id":"FL","desc":"ALCOT NDB"},
{"type":"VOR","hdg_t":271.9,"dist_nm":46.3,"freq":110.4,"lat":33.47483333,"lon":-80.44863889,"rng_nm":40,"alt_fmsl":140,"id":"VAN","desc":"VANCE VORTAC"},
{"type":"VOR","hdg_t":352,"dist_nm":47.2,"freq":115.2,"lat":34.23294444,"lon":-79.65711111,"rng_nm":130,"alt_fmsl":110,"id":"FLO","desc":"FLORENCE VORTAC"},
{"type":"NDB","hdg_t":59.7,"dist_nm":51.8,"freq":267,"lat":33.88525000,"lon":-78.62991667,"rng_nm":50,"alt_fmsl":0,"id":"CR","desc":"CALAB NDB"},
{"type":"NDB","hdg_t":307.9,"dist_nm":52.7,"freq":252,"lat":33.99080556,"lon":-80.36002778,"rng_nm":50,"alt_fmsl":0,"id":"SMS","desc":"SUMTER NDB"},
{"type":"SDME","hdg_t":304,"dist_nm":56.6,"freq":110.1,"lat":33.97782500,"lon":-80.46622200,"rng_nm":40,"alt_fmsl":241,"id":"SSC","desc":"SHAW TACAN"},
{"type":"NDB","hdg_t":7.4,"dist_nm":60.3,"freq":274,"lat":34.45013889,"lon":-79.36883333,"rng_nm":50,"alt_fmsl":0,"id":"DLC","desc":"DILLON NDB"},
{"type":"NDB","hdg_t":343.2,"dist_nm":62,"freq":245,"lat":34.44325000,"lon":-79.88733333,"rng_nm":50,"alt_fmsl":0,"id":"UDG","desc":"DARLINGTON NDB"},
{"type":"NDB","hdg_t":39.3,"dist_nm":63.8,"freq":227,"lat":34.27319444,"lon":-78.71197222,"rng_nm":50,"alt_fmsl":0,"id":"CPC","desc":"CAMP NDB"},
{"type":"NDB","hdg_t":240.9,"dist_nm":64.3,"freq":221,"lat":32.92580556,"lon":-80.64019444,"rng_nm":50,"alt_fmsl":0,"id":"RBW","desc":"WALTERBORO NDB"},
{"type":"NDB","hdg_t":332.7,"dist_nm":64.4,"freq":341,"lat":34.40658333,"lon":-80.11994444,"rng_nm":50,"alt_fmsl":0,"id":"HVS","desc":"HARTSVILLE NDB"},
{"type":"VOR","hdg_t":270.5,"dist_nm":66.8,"freq":111.4,"lat":33.45572222,"lon":-80.85841667,"rng_nm":25,"alt_fmsl":188,"id":"EDS","desc":"EDISTO VOR-DME"},
{"type":"NDB","hdg_t":16.3,"dist_nm":68.3,"freq":384,"lat":34.54580556,"lon":-79.13850000,"rng_nm":50,"alt_fmsl":0,"id":"JB","desc":"JIGEL NDB"},
{"type":"VOR","hdg_t":294.2,"dist_nm":69.8,"freq":113.2,"lat":33.92408333,"lon":-80.80233333,"rng_nm":40,"alt_fmsl":248,"id":"MMT","desc":"MC ENTIRE VORTAC"},
{"type":"NDB","hdg_t":294.8,"dist_nm":69.9,"freq":427,"lat":33.93572222,"lon":-80.79833333,"rng_nm":50,"alt_fmsl":0,"id":"MMT","desc":"MC ENTIRE NDB"},
{"type":"NDB","hdg_t":351.6,"dist_nm":70.7,"freq":230,"lat":34.62022222,"lon":-79.73319444,"rng_nm":50,"alt_fmsl":0,"id":"BES","desc":"BENNETTSVILLE NDB"},
{"type":"NDB","hdg_t":314.2,"dist_nm":71.8,"freq":263,"lat":34.28355556,"lon":-80.56152778,"rng_nm":50,"alt_fmsl":0,"id":"CDN","desc":"CAMDEN NDB"},
{"type":"VOR","hdg_t":18.5,"dist_nm":73.2,"freq":110,"lat":34.61069444,"lon":-79.05594444,"rng_nm":25,"alt_fmsl":0,"id":"LBT","desc":"LUMBERTON VOR"},
{"type":"NDB","hdg_t":18.2,"dist_nm":73.4,"freq":359,"lat":34.61447222,"lon":-79.06091667,"rng_nm":50,"alt_fmsl":0,"id":"RSY","desc":"ROBESON NDB"},
{"type":"NDB","hdg_t":3,"dist_nm":76.8,"freq":257,"lat":34.73316667,"lon":-79.44369444,"rng_nm":50,"alt_fmsl":0,"id":"ME","desc":"MAXTN NDB"},
{"type":"NDB","hdg_t":68.1,"dist_nm":78,"freq":233,"lat":33.92791700,"lon":-78.07417800,"rng_nm":25,"alt_fmsl":23,"id":"SUT","desc":"YAUPON NDB"},
{"type":"NDB","hdg_t":347.7,"dist_nm":79.1,"freq":409,"lat":34.74183333,"lon":-79.86561111,"rng_nm":50,"alt_fmsl":0,"id":"CQW","desc":"CHERAW NDB"},
{"type":"VOR","hdg_t":288,"dist_nm":80.2,"freq":114.7,"lat":33.85725000,"lon":-81.05391667,"rng_nm":130,"alt_fmsl":400,"id":"CAE","desc":"COLUMBIA VORTAC"},
{"type":"VOR","hdg_t":332.7,"dist_nm":80.9,"freq":108.2,"lat":34.65047222,"lon":-80.27491667,"rng_nm":40,"alt_fmsl":560,"id":"CTF","desc":"CHESTERFIELD VOR-DME"},
{"type":"NDB","hdg_t":37.7,"dist_nm":81.8,"freq":398,"lat":34.52886111,"lon":-78.51597222,"rng_nm":50,"alt_fmsl":0,"id":"TGQ","desc":"ELIZABETHTOWN NDB"},
{"type":"SDME","hdg_t":226.2,"dist_nm":83.7,"freq":110.5,"lat":32.47903600,"lon":-80.71733300,"rng_nm":40,"alt_fmsl":49,"id":"NBC","desc":"BEAUFORT TACAN"},
{"type":"NDB","hdg_t":354.3,"dist_nm":84.3,"freq":375,"lat":34.85266667,"lon":-79.69366667,"rng_nm":50,"alt_fmsl":0,"id":"RCZ","desc":"ROSCOE NDB"},
{"type":"NDB","hdg_t":332.6,"dist_nm":87.3,"freq":270,"lat":34.74497222,"lon":-80.33808333,"rng_nm":50,"alt_fmsl":0,"id":"PYG","desc":"PAGELAND NDB"},
{"type":"NDB","hdg_t":62.9,"dist_nm":87.5,"freq":216,"lat":34.10627778,"lon":-77.96138889,"rng_nm":50,"alt_fmsl":0,"id":"CLB","desc":"CAROLINA BEACH NDB"},
{"type":"NDB","hdg_t":290.2,"dist_nm":91.3,"freq":362,"lat":33.96716667,"lon":-81.24469444,"rng_nm":50,"alt_fmsl":0,"id":"CA","desc":"MURRY NDB"},
{"type":"NDB","hdg_t":18.2,"dist_nm":92.2,"freq":367,"lat":34.91244444,"lon":-78.93963889,"rng_nm":50,"alt_fmsl":0,"id":"GR","desc":"DOONE NDB"},
{"type":"VOR","hdg_t":254,"dist_nm":92.6,"freq":116.7,"lat":33.01250000,"lon":-81.29222222,"rng_nm":40,"alt_fmsl":0,"id":"ALD","desc":"ALLENDALE VOR"},
{"type":"NDB","hdg_t":61.4,"dist_nm":94,"freq":281,"lat":34.19133333,"lon":-77.86630556,"rng_nm":50,"alt_fmsl":0,"id":"IL","desc":"AIRLI NDB"},
{"type":"NDB","hdg_t":1.2,"dist_nm":94.4,"freq":278,"lat":35.02794444,"lon":-79.48558333,"rng_nm":50,"alt_fmsl":0,"id":"HFF","desc":"MACKALL NDB"},
{"type":"NDB","hdg_t":303.5,"dist_nm":94.6,"freq":414,"lat":34.31441667,"lon":-81.11266667,"rng_nm":50,"alt_fmsl":0,"id":"FDW","desc":"WINNSBORO NDB"},
{"type":"NDB","hdg_t":266.7,"dist_nm":95.5,"freq":392,"lat":33.34680300,"lon":-81.42405800,"rng_nm":25,"alt_fmsl":380,"id":"BKO","desc":"BARNWELL NDB"},
{"type":"SDME","hdg_t":58.4,"dist_nm":95.7,"freq":109.95,"lat":34.27885500,"lon":-77.88530000,"rng_nm":18,"alt_fmsl":1624,"id":"IGNM","desc":"KILM 06 DME"},
{"type":"VOR","hdg_t":19.2,"dist_nm":97.4,"freq":108.8,"lat":34.98555556,"lon":-78.87505556,"rng_nm":40,"alt_fmsl":179,"id":"FAY","desc":"FAYETTEVILLE VOR-DME"},
{"type":"NDB","hdg_t":343.7,"dist_nm":98.1,"freq":283,"lat":35.02398100,"lon":-80.08299700,"rng_nm":25,"alt_fmsl":302,"id":"AFP","desc":"ANSON CO NDB"},
{"type":"VOR","hdg_t":56.3,"dist_nm":98.5,"freq":117,"lat":34.35166667,"lon":-77.87438889,"rng_nm":130,"alt_fmsl":20,"id":"ILM","desc":"WILMINGTON VORTAC"}
]
}
