{"success":true,"source":"xp2csv.pl","last_updated":"2013/11/08 14:53:21 UTC"
,"icao":"KPMX","name":"Metropolitan","lat":42.22334277,"lon":-72.31138694,"rwys":1,"ils":0,"index":1761546,"path":"w080n40/w073n42"
,"runways":[
{"len_m":754,"wid_m":16.76,"hdg":27,"surf":"Asphalt","rwy1":"04","lat1":42.22034277,"lon1":-72.31352583,"rwy2":"22","lat2":42.22634277,"lon2":-72.30924805}
]
,"navaids":[
{"type":"VOR","hdg_t":260.9,"dist_nm":9.7,"freq":114,"lat":42.19755556,"lon":-72.52630556,"rng_nm":40,"alt_fmsl":241,"id":"CEF","desc":"WESTOVER VORTAC"},
{"type":"NDB","hdg_t":76.6,"dist_nm":13.3,"freq":279,"lat":42.27450000,"lon":-72.01994444,"rng_nm":50,"alt_fmsl":0,"id":"RS","desc":"DUNCA NDB"},
{"type":"VOR","hdg_t":258.6,"dist_nm":18.4,"freq":113,"lat":42.16194444,"lon":-72.71619444,"rng_nm":40,"alt_fmsl":268,"id":"BAF","desc":"BARNES VORTAC"},
{"type":"NDB","hdg_t":3,"dist_nm":20.7,"freq":205,"lat":42.56861111,"lon":-72.28611111,"rng_nm":50,"alt_fmsl":0,"id":"ORE","desc":"ORANGE NDB"},
{"type":"VOR","hdg_t":30.1,"dist_nm":22.3,"freq":110.6,"lat":42.54594444,"lon":-72.05819444,"rng_nm":40,"alt_fmsl":1280,"id":"GDM","desc":"GARDNER VOR-DME"},
{"type":"VOR","hdg_t":224.9,"dist_nm":23.8,"freq":109,"lat":41.94100000,"lon":-72.68858333,"rng_nm":25,"alt_fmsl":160,"id":"BDL","desc":"BRADLEY VORTAC"},
{"type":"NDB","hdg_t":84.9,"dist_nm":25.7,"freq":417,"lat":42.25988889,"lon":-71.73527778,"rng_nm":50,"alt_fmsl":0,"id":"EK","desc":"GOZZR NDB"},
{"type":"VOR","hdg_t":127.4,"dist_nm":26.3,"freq":117.4,"lat":41.95547222,"lon":-71.84408333,"rng_nm":130,"alt_fmsl":652,"id":"PUT","desc":"PUTNAM VOR-DME"},
{"type":"VOR","hdg_t":278.3,"dist_nm":28.7,"freq":115.1,"lat":42.29130556,"lon":-72.94938889,"rng_nm":40,"alt_fmsl":1600,"id":"CTR","desc":"CHESTER VOR-DME"},
{"type":"NDB","hdg_t":224.5,"dist_nm":29,"freq":388,"lat":41.87738300,"lon":-72.76620600,"rng_nm":25,"alt_fmsl":0,"id":"BD","desc":"CHUPP NDB"},
{"type":"NDB","hdg_t":51.2,"dist_nm":31.5,"freq":365,"lat":42.55091667,"lon":-71.75713889,"rng_nm":50,"alt_fmsl":0,"id":"FIT","desc":"FITCHBURG NDB"},
{"type":"VOR","hdg_t":1.4,"dist_nm":34.2,"freq":109.4,"lat":42.79427778,"lon":-72.29177778,"rng_nm":40,"alt_fmsl":1380,"id":"EEN","desc":"KEENE VORTAC"},
{"type":"VOR","hdg_t":196.9,"dist_nm":36.4,"freq":114.9,"lat":41.64111111,"lon":-72.54741667,"rng_nm":40,"alt_fmsl":849,"id":"HFD","desc":"HARTFORD VOR-DME"},
{"type":"NDB","hdg_t":116.1,"dist_nm":41,"freq":241,"lat":41.91905600,"lon":-71.48858300,"rng_nm":25,"alt_fmsl":490,"id":"SFZ","desc":"CENTRAL NDB"},
{"type":"VOR","hdg_t":160.6,"dist_nm":42.3,"freq":110,"lat":41.55638889,"lon":-71.99936111,"rng_nm":40,"alt_fmsl":310,"id":"ORW","desc":"NORWICH VOR-DME"},
{"type":"NDB","hdg_t":69.1,"dist_nm":43.8,"freq":332,"lat":42.47986111,"lon":-71.38866667,"rng_nm":50,"alt_fmsl":0,"id":"BE","desc":"BEDDS (LOM) NDB"},
{"type":"NDB","hdg_t":40.9,"dist_nm":47.8,"freq":359,"lat":42.82338889,"lon":-71.60216667,"rng_nm":50,"alt_fmsl":0,"id":"AS","desc":"CHERN NDB"},
{"type":"NDB","hdg_t":267.5,"dist_nm":48.7,"freq":395,"lat":42.18297222,"lon":-73.40402778,"rng_nm":50,"alt_fmsl":0,"id":"GBR","desc":"GREAT BARRINGTON NDB"},
{"type":"NDB","hdg_t":330,"dist_nm":48.8,"freq":224,"lat":42.92758333,"lon":-72.86400000,"rng_nm":50,"alt_fmsl":0,"id":"VWD","desc":"MOUNT SNOW NDB"},
{"type":"NDB","hdg_t":119.7,"dist_nm":49.4,"freq":356,"lat":41.81036111,"lon":-71.35322222,"rng_nm":50,"alt_fmsl":0,"id":"AR","desc":"ARMIN NDB"},
{"type":"VOR","hdg_t":126.8,"dist_nm":49.5,"freq":115.6,"lat":41.72433333,"lon":-71.42963889,"rng_nm":130,"alt_fmsl":49,"id":"PVD","desc":"PROVIDENCE VORTAC"},
{"type":"NDB","hdg_t":133.3,"dist_nm":50.5,"freq":335,"lat":41.64177778,"lon":-71.49469444,"rng_nm":50,"alt_fmsl":0,"id":"PV","desc":"RENCH NDB"},
{"type":"NDB","hdg_t":104.5,"dist_nm":51.4,"freq":220,"lat":42.00277778,"lon":-71.19711111,"rng_nm":50,"alt_fmsl":0,"id":"IHM","desc":"MANSFIELD NDB"},
{"type":"NDB","hdg_t":41.8,"dist_nm":51.7,"freq":209,"lat":42.86422222,"lon":-71.52880556,"rng_nm":50,"alt_fmsl":0,"id":"MJ","desc":"FITZY NDB"},
{"type":"NDB","hdg_t":74.1,"dist_nm":52.3,"freq":251,"lat":42.45575000,"lon":-71.17852778,"rng_nm":50,"alt_fmsl":0,"id":"SKR","desc":"SHAKER HILL NDB"},
{"type":"NDB","hdg_t":96.3,"dist_nm":53.1,"freq":397,"lat":42.11975000,"lon":-71.12841667,"rng_nm":50,"alt_fmsl":0,"id":"OW","desc":"STOGE NDB"},
{"type":"VOR","hdg_t":167.6,"dist_nm":54.8,"freq":110.85,"lat":41.33038889,"lon":-72.05197222,"rng_nm":25,"alt_fmsl":9,"id":"GON","desc":"GROTON VOR-DME"},
{"type":"NDB","hdg_t":62.6,"dist_nm":55.5,"freq":402,"lat":42.64413889,"lon":-71.19719444,"rng_nm":50,"alt_fmsl":0,"id":"LW","desc":"HAGET NDB"},
{"type":"NDB","hdg_t":86.4,"dist_nm":56.3,"freq":375,"lat":42.27375000,"lon":-71.04916667,"rng_nm":50,"alt_fmsl":0,"id":"BO","desc":"MILTT NDB"},
{"type":"VOR","hdg_t":46.8,"dist_nm":56.9,"freq":114.4,"lat":42.86852778,"lon":-71.36952778,"rng_nm":40,"alt_fmsl":471,"id":"MHT","desc":"MANCHESTER VOR-DME"},
{"type":"VOR","hdg_t":197.5,"dist_nm":57.1,"freq":110.4,"lat":41.31383333,"lon":-72.69219444,"rng_nm":40,"alt_fmsl":220,"id":"MAD","desc":"MADISON VOR-DME"},
{"type":"VOR","hdg_t":81.7,"dist_nm":59.4,"freq":112.7,"lat":42.35744444,"lon":-70.98955556,"rng_nm":130,"alt_fmsl":20,"id":"BOS","desc":"BOSTON VOR-DME"},
{"type":"NDB","hdg_t":216.6,"dist_nm":61.1,"freq":362,"lat":41.40251700,"lon":-73.11981900,"rng_nm":25,"alt_fmsl":0,"id":"OX","desc":"CLERA NDB"},
{"type":"NDB","hdg_t":109.3,"dist_nm":61.4,"freq":227,"lat":41.87650000,"lon":-71.01700000,"rng_nm":50,"alt_fmsl":0,"id":"TAN","desc":"TAUNTON NDB"},
{"type":"NDB","hdg_t":76.6,"dist_nm":61.5,"freq":382,"lat":42.45202778,"lon":-70.96330556,"rng_nm":50,"alt_fmsl":0,"id":"LQ","desc":"LYNDY NDB"},
{"type":"NDB","hdg_t":215.7,"dist_nm":61.9,"freq":362,"lat":41.38238889,"lon":-73.11250000,"rng_nm":50,"alt_fmsl":0,"id":"JWE","desc":"CLERA NDB"},
{"type":"NDB","hdg_t":85.1,"dist_nm":62,"freq":346,"lat":42.30308333,"lon":-70.92186111,"rng_nm":50,"alt_fmsl":0,"id":"LI","desc":"HULLZ NDB"},
{"type":"VOR","hdg_t":59.7,"dist_nm":62.2,"freq":112.5,"lat":42.74041667,"lon":-71.09483333,"rng_nm":40,"alt_fmsl":302,"id":"LWM","desc":"LAWRENCE VOR-DME"},
{"type":"NDB","hdg_t":272,"dist_nm":62.9,"freq":272,"lat":42.25311111,"lon":-73.72341667,"rng_nm":50,"alt_fmsl":0,"id":"PFH","desc":"PHILMONT NDB"},
{"type":"VOR","hdg_t":204.2,"dist_nm":63.1,"freq":109.8,"lat":41.26230556,"lon":-72.88519444,"rng_nm":25,"alt_fmsl":6,"id":"HVN","desc":"NEW HAVEN VOR-DME"},
{"type":"VOR","hdg_t":245.1,"dist_nm":63.7,"freq":114.3,"lat":41.76975000,"lon":-73.60055556,"rng_nm":40,"alt_fmsl":1250,"id":"PWL","desc":"PAWLING VOR-DME"},
{"type":"VOR","hdg_t":315.6,"dist_nm":65,"freq":115,"lat":42.99427778,"lon":-73.34402778,"rng_nm":40,"alt_fmsl":1490,"id":"CAM","desc":"CAMBRIDGE VOR-DME"},
{"type":"NDB","hdg_t":34.9,"dist_nm":65.7,"freq":216,"lat":43.11883333,"lon":-71.45269444,"rng_nm":50,"alt_fmsl":0,"id":"CO","desc":"EPSOM NDB"},
{"type":"VOR","hdg_t":28.3,"dist_nm":68,"freq":112.9,"lat":43.21977778,"lon":-71.57544444,"rng_nm":40,"alt_fmsl":715,"id":"CON","desc":"CONCORD VORTAC"},
{"type":"NDB","hdg_t":121.4,"dist_nm":68.2,"freq":274,"lat":41.62163889,"lon":-71.01769444,"rng_nm":50,"alt_fmsl":0,"id":"EW","desc":"NEFOR NDB"},
{"type":"NDB","hdg_t":357.8,"dist_nm":68.7,"freq":233,"lat":43.36930556,"lon":-72.37108333,"rng_nm":50,"alt_fmsl":0,"id":"CNH","desc":"CLAREMONT NDB"},
{"type":"VOR","hdg_t":152.1,"dist_nm":71.4,"freq":117.8,"lat":41.16744444,"lon":-71.57608333,"rng_nm":40,"alt_fmsl":100,"id":"SEY","desc":"SANDY POINT VOR-DME"},
{"type":"NDB","hdg_t":95.3,"dist_nm":73.3,"freq":368,"lat":42.09800000,"lon":-70.67577778,"rng_nm":50,"alt_fmsl":0,"id":"IMR","desc":"MARSHFIELD NDB"},
{"type":"VOR","hdg_t":295.8,"dist_nm":73.3,"freq":115.3,"lat":42.74727778,"lon":-73.80319444,"rng_nm":40,"alt_fmsl":274,"id":"ALB","desc":"ALBANY VORTAC"},
{"type":"VOR","hdg_t":210.1,"dist_nm":73.4,"freq":108.8,"lat":41.16069444,"lon":-73.12450000,"rng_nm":40,"alt_fmsl":9,"id":"BDR","desc":"BRIDGEPORT VOR-DME"},
{"type":"NDB","hdg_t":298.7,"dist_nm":75.3,"freq":219,"lat":42.81730556,"lon":-73.80850000,"rng_nm":50,"alt_fmsl":0,"id":"AL","desc":"HAWKY NDB"},
{"type":"VOR","hdg_t":244.1,"dist_nm":75.4,"freq":117.6,"lat":41.66544444,"lon":-73.82222222,"rng_nm":40,"alt_fmsl":580,"id":"IGN","desc":"KINGSTON VOR-DME"},
{"type":"VOR","hdg_t":180.1,"dist_nm":78.2,"freq":113.6,"lat":40.91900000,"lon":-72.31669444,"rng_nm":130,"alt_fmsl":22,"id":"HTO","desc":"HAMPTON VORTAC"},
{"type":"NDB","hdg_t":188,"dist_nm":79.8,"freq":400,"lat":40.90447222,"lon":-72.55647222,"rng_nm":50,"alt_fmsl":0,"id":"FO","desc":"SQUIR NDB"},
{"type":"VOR","hdg_t":225.6,"dist_nm":80.3,"freq":116.6,"lat":41.28005556,"lon":-73.58136111,"rng_nm":40,"alt_fmsl":690,"id":"CMK","desc":"CARMEL VOR-DME"},
{"type":"NDB","hdg_t":355.2,"dist_nm":80.4,"freq":379,"lat":43.56013889,"lon":-72.46566667,"rng_nm":50,"alt_fmsl":0,"id":"IVV","desc":"WHITE RIVER NDB"},
{"type":"VOR","hdg_t":195.9,"dist_nm":80.6,"freq":117.2,"lat":40.92961111,"lon":-72.79886111,"rng_nm":40,"alt_fmsl":86,"id":"CCC","desc":"CALVERTON VOR-DME"},
{"type":"NDB","hdg_t":298.2,"dist_nm":81.2,"freq":356,"lat":42.85419444,"lon":-73.93347222,"rng_nm":50,"alt_fmsl":0,"id":"HEU","desc":"HUNTER NDB"},
{"type":"VOR","hdg_t":340.3,"dist_nm":83.1,"freq":111,"lat":43.52661111,"lon":-72.95066667,"rng_nm":25,"alt_fmsl":781,"id":"RUT","desc":"RUTLAND VOR-DME"},
{"type":"VOR","hdg_t":51.2,"dist_nm":83.4,"freq":116.5,"lat":43.08447222,"lon":-70.83200000,"rng_nm":40,"alt_fmsl":99,"id":"PSM","desc":"PEASE VOR-DME"},
{"type":"NDB","hdg_t":242.8,"dist_nm":83.6,"freq":403,"lat":41.57512800,"lon":-73.96484400,"rng_nm":25,"alt_fmsl":9,"id":"PO","desc":"MEIER NDB"},
{"type":"NDB","hdg_t":317.6,"dist_nm":84.2,"freq":209,"lat":43.25511111,"lon":-73.60577778,"rng_nm":50,"alt_fmsl":0,"id":"GF","desc":"GANSE NDB"},
{"type":"SDME","hdg_t":189.9,"dist_nm":84.3,"freq":111,"lat":40.83776600,"lon":-72.63184500,"rng_nm":25,"alt_fmsl":50,"id":"FOK","desc":"SUFFOLK CO TACAN"},
{"type":"NDB","hdg_t":23.1,"dist_nm":85.8,"freq":328,"lat":43.53663889,"lon":-71.53702778,"rng_nm":50,"alt_fmsl":0,"id":"LC","desc":"BLNAP NDB"},
{"type":"SDME","hdg_t":112.1,"dist_nm":87.2,"freq":115.8,"lat":41.65960600,"lon":-70.51394400,"rng_nm":40,"alt_fmsl":120,"id":"FMH","desc":"OTIS TACAN"},
{"type":"VOR","hdg_t":2.7,"dist_nm":87.4,"freq":113.7,"lat":43.67886111,"lon":-72.21608333,"rng_nm":40,"alt_fmsl":1443,"id":"LEB","desc":"LEBANON VOR-DME"},
{"type":"NDB","hdg_t":242.3,"dist_nm":88.1,"freq":261,"lat":41.52800000,"lon":-74.04497222,"rng_nm":50,"alt_fmsl":0,"id":"SKU","desc":"STANWYCK NDB"},
{"type":"VOR","hdg_t":319.8,"dist_nm":88.3,"freq":110.2,"lat":43.34169444,"lon":-73.61177778,"rng_nm":40,"alt_fmsl":319,"id":"GFL","desc":"GLENS FALLS VORTAC"},
{"type":"NDB","hdg_t":108.7,"dist_nm":88.7,"freq":362,"lat":41.73225000,"lon":-70.44138889,"rng_nm":50,"alt_fmsl":0,"id":"FM","desc":"BOMDE NDB"},
{"type":"NDB","hdg_t":108.7,"dist_nm":88.7,"freq":362,"lat":41.73257200,"lon":-70.44086400,"rng_nm":25,"alt_fmsl":80,"id":"FMH","desc":"OTIS NDB"},
{"type":"NDB","hdg_t":47.1,"dist_nm":88.7,"freq":260,"lat":43.22027778,"lon":-70.82830556,"rng_nm":50,"alt_fmsl":0,"id":"ESG","desc":"ROLLINS NDB"},
{"type":"NDB","hdg_t":3.7,"dist_nm":88.9,"freq":276,"lat":43.70227778,"lon":-72.17747222,"rng_nm":50,"alt_fmsl":0,"id":"LAH","desc":"HANOVER NDB"},
{"type":"VOR","hdg_t":122.4,"dist_nm":90.9,"freq":114.5,"lat":41.39622222,"lon":-70.61272222,"rng_nm":40,"alt_fmsl":59,"id":"MVY","desc":"MARTHAS VINEYARD VOR-DME"},
{"type":"NDB","hdg_t":43.9,"dist_nm":93.2,"freq":349,"lat":43.33419444,"lon":-70.83452778,"rng_nm":50,"alt_fmsl":0,"id":"SF","desc":"SANFD NDB"},
{"type":"NDB","hdg_t":342.4,"dist_nm":93.3,"freq":221,"lat":43.70633333,"lon":-72.95716667,"rng_nm":50,"alt_fmsl":0,"id":"DYO","desc":"SMUTO NDB"},
{"type":"NDB","hdg_t":94.9,"dist_nm":93.6,"freq":389,"lat":42.06880556,"lon":-70.22344444,"rng_nm":50,"alt_fmsl":0,"id":"PVC","desc":"PROVINCETOWN NDB"},
{"type":"NDB","hdg_t":243.4,"dist_nm":96.6,"freq":335,"lat":41.48608333,"lon":-74.22791667,"rng_nm":50,"alt_fmsl":0,"id":"SW","desc":"NEELY NDB"},
{"type":"VOR","hdg_t":207.8,"dist_nm":96.8,"freq":117.7,"lat":40.79177778,"lon":-73.30366667,"rng_nm":40,"alt_fmsl":117,"id":"DPK","desc":"DEER PARK VOR-DME"},
{"type":"NDB","hdg_t":204.1,"dist_nm":97.9,"freq":366,"lat":40.72897222,"lon":-73.19022222,"rng_nm":50,"alt_fmsl":0,"id":"IS","desc":"LOKKS NDB"},
{"type":"NDB","hdg_t":107.1,"dist_nm":99.1,"freq":342,"lat":41.71613889,"lon":-70.20294444,"rng_nm":50,"alt_fmsl":0,"id":"HY","desc":"BOGEY NDB"}
]
}
