{"success":true,"source":"xp2csv.pl","last_updated":"2013/11/08 14:53:21 UTC"
,"icao":"KPNN","name":"Princeton Muni","lat":45.2006605,"lon":-67.564395,"rwys":2,"ils":0,"index":1843657,"path":"w070n40/w068n45"
,"runways":[
{"len_m":1220,"wid_m":30.48,"hdg":132,"surf":"Asphalt","rwy1":"15","lat1":45.20409400,"lon1":-67.57340800,"rwy2":"33","lat2":45.19666700,"lon2":-67.56196400},
{"len_m":1219,"wid_m":45.72,"hdg":38,"surf":"Asphalt","rwy1":"06","lat1":45.19665000,"lon1":-67.56593600,"rwy2":"24","lat2":45.20523100,"lon2":-67.55627200}
]
,"radios":[
{"type":"CTAF","freq":122.8,"desc":"CTAF/UNICOM"}
]
,"navaids":[
{"type":"VOR","hdg_t":322.5,"dist_nm":9.7,"freq":114.3,"lat":45.32919444,"lon":-67.70419444,"rng_nm":40,"alt_fmsl":398,"id":"PNN","desc":"PRINCETON VOR-DME"},
{"type":"NDB","hdg_t":126.1,"dist_nm":29.1,"freq":260,"lat":44.91252778,"lon":-67.01222222,"rng_nm":50,"alt_fmsl":0,"id":"EPM","desc":"EASTPORT NDB"},
{"type":"NDB","hdg_t":283.1,"dist_nm":42.2,"freq":216,"lat":45.35644444,"lon":-68.53697222,"rng_nm":50,"alt_fmsl":0,"id":"LRG","desc":"LINCOLN NDB"},
{"type":"NDB","hdg_t":131.6,"dist_nm":43.6,"freq":387,"lat":44.71555556,"lon":-66.80222222,"rng_nm":50,"alt_fmsl":0,"id":"6E","desc":"GRAND MANAN NDB"},
{"type":"VOR","hdg_t":300.2,"dist_nm":46.4,"freq":117.9,"lat":45.58672222,"lon":-68.51547222,"rng_nm":130,"alt_fmsl":550,"id":"MLT","desc":"MILLINOCKET VOR-DME"},
{"type":"NDB","hdg_t":255.9,"dist_nm":46.9,"freq":272,"lat":45.00572222,"lon":-68.63427778,"rng_nm":50,"alt_fmsl":0,"id":"OLD","desc":"OLD TOWN NDB"},
{"type":"NDB","hdg_t":303.1,"dist_nm":49.5,"freq":344,"lat":45.64861111,"lon":-68.55030556,"rng_nm":50,"alt_fmsl":0,"id":"LNT","desc":"MILNOT NDB"},
{"type":"NDB","hdg_t":218.8,"dist_nm":50.7,"freq":330,"lat":44.53872222,"lon":-68.30661111,"rng_nm":50,"alt_fmsl":0,"id":"BH","desc":"SURRY NDB"},
{"type":"VOR","hdg_t":347.3,"dist_nm":51.6,"freq":116.1,"lat":46.03950000,"lon":-67.83416667,"rng_nm":130,"alt_fmsl":860,"id":"HUL","desc":"HOULTON VOR-DME"},
{"type":"SDME","hdg_t":46.8,"dist_nm":58.4,"freq":111.3,"lat":45.86305600,"lon":-66.54777800,"rng_nm":25,"alt_fmsl":79,"id":"IDC","desc":"FREDERICTON DME"},
{"type":"NDB","hdg_t":43,"dist_nm":59.1,"freq":326,"lat":45.91722222,"lon":-66.60000000,"rng_nm":50,"alt_fmsl":0,"id":"FC","desc":"FREDERICTON NDB"},
{"type":"VOR","hdg_t":249.3,"dist_nm":59.7,"freq":114.8,"lat":44.84180556,"lon":-68.87397222,"rng_nm":130,"alt_fmsl":360,"id":"BGR","desc":"BANGOR VORTAC"},
{"type":"VOR","hdg_t":48.8,"dist_nm":63.7,"freq":113,"lat":45.89477778,"lon":-66.41888889,"rng_nm":130,"alt_fmsl":52,"id":"YFC","desc":"FREDERICTON VOR-DME"},
{"type":"NDB","hdg_t":88,"dist_nm":68.1,"freq":397,"lat":45.22777778,"lon":-65.95861111,"rng_nm":50,"alt_fmsl":0,"id":"ZST","desc":"ALPINE(SAINT JOHN NDB"},
{"type":"VOR","hdg_t":79.5,"dist_nm":72.8,"freq":113.5,"lat":45.40730556,"lon":-65.87025000,"rng_nm":130,"alt_fmsl":494,"id":"YSJ","desc":"SAINT JOHN VOR-DME"},
{"type":"NDB","hdg_t":80.5,"dist_nm":74.8,"freq":212,"lat":45.39166667,"lon":-65.81888889,"rng_nm":50,"alt_fmsl":0,"id":"SJ","desc":"SAINT JOHN NDB"},
{"type":"NDB","hdg_t":233,"dist_nm":77.8,"freq":278,"lat":44.41122222,"lon":-69.01094444,"rng_nm":50,"alt_fmsl":0,"id":"BST","desc":"BELFAST NDB"},
{"type":"NDB","hdg_t":249,"dist_nm":82.1,"freq":348,"lat":44.69772222,"lon":-69.35858333,"rng_nm":50,"alt_fmsl":0,"id":"BUP","desc":"BURNHAM NDB"},
{"type":"NDB","hdg_t":116.7,"dist_nm":85.2,"freq":220,"lat":44.54750000,"lon":-65.78916667,"rng_nm":50,"alt_fmsl":0,"id":"Y9","desc":"DIGBY NDB"},
{"type":"NDB","hdg_t":347.4,"dist_nm":86.7,"freq":278,"lat":46.61044444,"lon":-68.01888889,"rng_nm":50,"alt_fmsl":0,"id":"PQ","desc":"EXCAL NDB"},
{"type":"NDB","hdg_t":282.9,"dist_nm":91.3,"freq":236,"lat":45.52172222,"lon":-69.67450000,"rng_nm":50,"alt_fmsl":0,"id":"XQA","desc":"SQUAW NDB"},
{"type":"NDB","hdg_t":224.2,"dist_nm":95.5,"freq":356,"lat":44.05013889,"lon":-69.10502778,"rng_nm":50,"alt_fmsl":0,"id":"SUH","desc":"SPRUCEHEAD NDB"},
{"type":"VOR","hdg_t":346.9,"dist_nm":97,"freq":116.4,"lat":46.77419444,"lon":-68.09452778,"rng_nm":130,"alt_fmsl":590,"id":"PQI","desc":"PRESQUE ISLE VOR-DME"},
{"type":"NDB","hdg_t":227.4,"dist_nm":97.1,"freq":334,"lat":44.09347222,"lon":-69.21900000,"rng_nm":50,"alt_fmsl":0,"id":"RM","desc":"NOXKS NDB"},
{"type":"NDB","hdg_t":353.2,"dist_nm":99.1,"freq":220,"lat":46.84058333,"lon":-67.84838889,"rng_nm":50,"alt_fmsl":0,"id":"LIF","desc":"LIMESTONE NDB"}
]
}
