{"success":true,"source":"xp2csv.pl","last_updated":"2013/11/08 14:53:21 UTC"
,"icao":"KPWK","name":"Chicago Executive","lat":42.114076,"lon":-87.9013535,"rwys":3,"ils":1,"index":1515776,"path":"w090n40/w088n42"
,"runways":[
{"len_m":1524,"wid_m":45.72,"hdg":158,"surf":"Asphalt","rwy1":"16","lat1":42.12332800,"lon1":-87.90713100,"rwy2":"34","lat2":42.11055300,"lon2":-87.90040600},
{"len_m":1336,"wid_m":22.86,"hdg":117,"surf":"Asphalt","rwy1":"12","lat1":42.11536100,"lon1":-87.90707800,"rwy2":"30","lat2":42.10971400,"lon2":-87.89280300},
{"len_m":1115,"wid_m":15.24,"hdg":63,"surf":"Asphalt","rwy1":"06","lat1":42.11050000,"lon1":-87.90638100,"rwy2":"24","lat2":42.11500000,"lon2":-87.89432200}
]
,"radios":[
{"type":"ATIS","freq":124.2,"desc":"ATIS"},
{"type":"CTAF","freq":119.9,"desc":"CTAF"},
{"type":"CTAF","freq":122.95,"desc":"UNICOM"},
{"type":"CLD","freq":124.7,"desc":"CLNC DEL"},
{"type":"GND","freq":121.7,"desc":"GND"},
{"type":"TWR","freq":119.9,"desc":"TWR"},
{"type":"APP","freq":120.55,"desc":"CHICAGO APP/DEP"},
{"type":"APP","freq":125,"desc":"CHICAGO APP/DEP"}
]
,"ils":[
{"type":"ILS","freq":111.9,"lat":42.10927200,"lon":-87.89973300,"rng_nm":18,"alt_fmsl":642,"hdg":158.68,"id":"IPWK","rwy":"16","desc":"ILS-cat-I"},
{"type":"GS","freq":111.9,"lat":42.12086100,"lon":-87.90484700,"rng_nm":10,"alt_fmsl":639,"id":"IPWK","rwy":"16","desc":"GS","gs":3},
{"type":"OM","freq":0,"lat":42.19931400,"lon":-87.94760300,"rng_nm":0,"alt_fmsl":642,"id":"----","rwy":"16","desc":"OM"},
{"type":"MM","freq":0,"lat":42.14008100,"lon":-87.91504200,"rng_nm":0,"alt_fmsl":642,"id":"----","rwy":"16","desc":"MM"}
]
,"navaids":[
{"type":"NDB","hdg_t":236,"dist_nm":4.8,"freq":368,"lat":42.06918300,"lon":-87.99088300,"rng_nm":25,"alt_fmsl":0,"id":"OH","desc":"LEAMA NDB"},
{"type":"NDB","hdg_t":233.7,"dist_nm":5.8,"freq":394,"lat":42.05593600,"lon":-88.00779200,"rng_nm":25,"alt_fmsl":0,"id":"OR","desc":"CHSTR NDB"},
{"type":"DME","hdg_t":191,"dist_nm":6.7,"freq":111.75,"lat":42.00391666,"lon":-87.93006695,"rng_nm":18,"alt_fmsl":668,"id":"KORD","desc":"09L DME-ILS"},
{"type":"DME","hdg_t":191,"dist_nm":6.7,"freq":111.75,"lat":42.00391667,"lon":-87.93006690,"rng_nm":18,"alt_fmsl":668,"id":"KORD","desc":"27R DME-ILS"},
{"type":"VOR","hdg_t":340.7,"dist_nm":6.8,"freq":113,"lat":42.22147222,"lon":-87.95180556,"rng_nm":130,"alt_fmsl":758,"id":"OBK","desc":"NORTHBROOK VOR-DME"},
{"type":"VOR","hdg_t":181.1,"dist_nm":7.5,"freq":113.9,"lat":41.98766667,"lon":-87.90488889,"rng_nm":40,"alt_fmsl":650,"id":"ORD","desc":"CHICAGO O'HARE IN VOR-DME"},
{"type":"NDB","hdg_t":147.1,"dist_nm":9.2,"freq":414,"lat":41.98431700,"lon":-87.78902200,"rng_nm":25,"alt_fmsl":0,"id":"IA","desc":"TAFFS NDB"},
{"type":"NDB","hdg_t":212.6,"dist_nm":10.4,"freq":350,"lat":41.96777200,"lon":-88.02670000,"rng_nm":50,"alt_fmsl":699,"id":"ME","desc":"DEANA NDB"},
{"type":"NDB","hdg_t":161.3,"dist_nm":13.2,"freq":385,"lat":41.90486100,"lon":-87.80691700,"rng_nm":25,"alt_fmsl":0,"id":"ID","desc":"INDDY NDB"},
{"type":"NDB","hdg_t":11.9,"dist_nm":21.4,"freq":379,"lat":42.46405556,"lon":-87.80141667,"rng_nm":50,"alt_fmsl":0,"id":"UG","desc":"WAUKE NDB"},
{"type":"NDB","hdg_t":172.9,"dist_nm":23.8,"freq":332,"lat":41.71897222,"lon":-87.83638889,"rng_nm":50,"alt_fmsl":0,"id":"HK","desc":"ERMIN NDB"},
{"type":"VOR","hdg_t":236.3,"dist_nm":24.1,"freq":108.4,"lat":41.89036111,"lon":-88.35016667,"rng_nm":40,"alt_fmsl":838,"id":"DPA","desc":"DUPAGE VOR-DME"},
{"type":"NDB","hdg_t":156.9,"dist_nm":24.2,"freq":248,"lat":41.74150000,"lon":-87.68966667,"rng_nm":50,"alt_fmsl":0,"id":"MX","desc":"KEDZI NDB"},
{"type":"NDB","hdg_t":348,"dist_nm":27.3,"freq":389,"lat":42.56044444,"lon":-88.02877778,"rng_nm":50,"alt_fmsl":0,"id":"EN","desc":"CODEE NDB"},
{"type":"VOR","hdg_t":357.3,"dist_nm":29.1,"freq":109.2,"lat":42.59905556,"lon":-87.93172222,"rng_nm":25,"alt_fmsl":734,"id":"ENW","desc":"KENOSHA VOR-DME"},
{"type":"NDB","hdg_t":0.1,"dist_nm":34,"freq":206,"lat":42.68255556,"lon":-87.89947222,"rng_nm":50,"alt_fmsl":0,"id":"RA","desc":"PASER NDB"},
{"type":"NDB","hdg_t":253.5,"dist_nm":37.6,"freq":209,"lat":41.93402778,"lon":-88.70733333,"rng_nm":50,"alt_fmsl":0,"id":"DKB","desc":"DEKALB NDB"},
{"type":"VOR","hdg_t":332.8,"dist_nm":38.8,"freq":114.5,"lat":42.68933333,"lon":-88.30177778,"rng_nm":25,"alt_fmsl":772,"id":"BUU","desc":"BURBUN VOR-DME"},
{"type":"VOR","hdg_t":208.9,"dist_nm":38.8,"freq":112.3,"lat":41.54641667,"lon":-88.31841667,"rng_nm":130,"alt_fmsl":592,"id":"JOT","desc":"JOLIET VORTAC"},
{"type":"VOR","hdg_t":5.6,"dist_nm":39,"freq":117.7,"lat":42.76216667,"lon":-87.81472222,"rng_nm":25,"alt_fmsl":669,"id":"HRK","desc":"HORLICK VOR-DME"},
{"type":"VOR","hdg_t":157.6,"dist_nm":39.1,"freq":114.2,"lat":41.51000000,"lon":-87.57155556,"rng_nm":40,"alt_fmsl":634,"id":"CGT","desc":"CHICAGO HEIGHTS VORTAC"},
{"type":"NDB","hdg_t":141.3,"dist_nm":41.4,"freq":236,"lat":41.57241667,"lon":-87.32702778,"rng_nm":50,"alt_fmsl":0,"id":"GY","desc":"GARIE NDB"},
{"type":"NDB","hdg_t":359.3,"dist_nm":43.5,"freq":410,"lat":42.83961111,"lon":-87.91300000,"rng_nm":50,"alt_fmsl":0,"id":"MK","desc":"CAPPY NDB"},
{"type":"NDB","hdg_t":318.9,"dist_nm":46.6,"freq":404,"lat":42.69883333,"lon":-88.59316667,"rng_nm":50,"alt_fmsl":0,"id":"LVV","desc":"LAKE LAWN NDB"},
{"type":"NDB","hdg_t":352.6,"dist_nm":48,"freq":242,"lat":42.90905556,"lon":-88.04097222,"rng_nm":50,"alt_fmsl":0,"id":"GM","desc":"TEELS NDB"},
{"type":"VOR","hdg_t":174.3,"dist_nm":50.8,"freq":113.2,"lat":41.26963889,"lon":-87.79105556,"rng_nm":40,"alt_fmsl":689,"id":"EON","desc":"PEOTONE VORTAC"},
{"type":"NDB","hdg_t":270.4,"dist_nm":53.4,"freq":275,"lat":42.11433333,"lon":-89.09872222,"rng_nm":50,"alt_fmsl":0,"id":"RF","desc":"GILMY NDB"},
{"type":"NDB","hdg_t":1,"dist_nm":56.7,"freq":260,"lat":43.06002778,"lon":-87.87675000,"rng_nm":50,"alt_fmsl":0,"id":"BL","desc":"YANKS NDB"},
{"type":"VOR","hdg_t":277,"dist_nm":58.2,"freq":110.8,"lat":42.22558333,"lon":-89.19927778,"rng_nm":40,"alt_fmsl":868,"id":"RFD","desc":"ROCKFORD VOR-DME"},
{"type":"NDB","hdg_t":301,"dist_nm":58.9,"freq":375,"lat":42.61511111,"lon":-89.04127778,"rng_nm":50,"alt_fmsl":0,"id":"JVL","desc":"JANESVILLE NDB"},
{"type":"VOR","hdg_t":296.8,"dist_nm":59.8,"freq":114.3,"lat":42.55800000,"lon":-89.10525000,"rng_nm":40,"alt_fmsl":931,"id":"JVL","desc":"JANESVILLE VOR-DME"},
{"type":"VOR","hdg_t":354.2,"dist_nm":60,"freq":112.5,"lat":43.10977778,"lon":-88.03727778,"rng_nm":40,"alt_fmsl":737,"id":"LJT","desc":"TIMMERMAN VOR-DME"},
{"type":"NDB","hdg_t":130.5,"dist_nm":60.7,"freq":212,"lat":41.45113889,"lon":-86.87752778,"rng_nm":50,"alt_fmsl":0,"id":"VP","desc":"SEDLY NDB"},
{"type":"NDB","hdg_t":223.8,"dist_nm":62.1,"freq":266,"lat":41.36252778,"lon":-88.85425000,"rng_nm":50,"alt_fmsl":0,"id":"OIX","desc":"OTTAWA NDB"},
{"type":"VOR","hdg_t":177.8,"dist_nm":62.3,"freq":111.6,"lat":41.07441667,"lon":-87.84977778,"rng_nm":40,"alt_fmsl":625,"id":"IKK","desc":"KANKAKEE VOR-DME"},
{"type":"VOR","hdg_t":344.3,"dist_nm":62.4,"freq":116.4,"lat":43.11686111,"lon":-88.28433333,"rng_nm":130,"alt_fmsl":1080,"id":"BAE","desc":"BADGER VORTAC"},
{"type":"NDB","hdg_t":125.6,"dist_nm":62.7,"freq":356,"lat":41.49897222,"lon":-86.77119444,"rng_nm":50,"alt_fmsl":0,"id":"IUL","desc":"LA PORTE NDB"},
{"type":"NDB","hdg_t":180,"dist_nm":65.7,"freq":272,"lat":41.01788889,"lon":-87.90372222,"rng_nm":50,"alt_fmsl":0,"id":"IK","desc":"LUKOW NDB"},
{"type":"NDB","hdg_t":88.8,"dist_nm":70.9,"freq":397,"lat":42.12680556,"lon":-86.31333333,"rng_nm":50,"alt_fmsl":0,"id":"BE","desc":"MALLY NDB"},
{"type":"NDB","hdg_t":231.3,"dist_nm":72.1,"freq":230,"lat":41.35475600,"lon":-89.14813900,"rng_nm":25,"alt_fmsl":652,"id":"VYS","desc":"VALLEY NDB"},
{"type":"VOR","hdg_t":263.5,"dist_nm":73,"freq":111.2,"lat":41.96563889,"lon":-89.52422222,"rng_nm":40,"alt_fmsl":840,"id":"PLL","desc":"POLO VOR-DME"},
{"type":"NDB","hdg_t":330.4,"dist_nm":73.2,"freq":371,"lat":43.17366667,"lon":-88.72527778,"rng_nm":50,"alt_fmsl":0,"id":"RYV","desc":"ROCK RIVER NDB"},
{"type":"VOR","hdg_t":129.7,"dist_nm":73.6,"freq":115.6,"lat":41.32205556,"lon":-86.64930556,"rng_nm":130,"alt_fmsl":690,"id":"OXI","desc":"KNOX VOR-DME"},
{"type":"VOR","hdg_t":105.7,"dist_nm":73.8,"freq":115.4,"lat":41.76861111,"lon":-86.31847222,"rng_nm":130,"alt_fmsl":804,"id":"GIJ","desc":"GIPPER VORTAC"},
{"type":"NDB","hdg_t":343.7,"dist_nm":77.1,"freq":200,"lat":43.34763889,"lon":-88.39522222,"rng_nm":50,"alt_fmsl":0,"id":"HXF","desc":"HARTFORD NDB"},
{"type":"VOR","hdg_t":352.8,"dist_nm":79,"freq":109.8,"lat":43.42197222,"lon":-88.12519444,"rng_nm":25,"alt_fmsl":0,"id":"BJB","desc":"WEST BEND VOR"},
{"type":"NDB","hdg_t":107.4,"dist_nm":79.2,"freq":341,"lat":41.70561111,"lon":-86.21902778,"rng_nm":50,"alt_fmsl":0,"id":"SB","desc":"MISHA NDB"},
{"type":"VOR","hdg_t":88,"dist_nm":79.4,"freq":116.6,"lat":42.14441667,"lon":-86.12269444,"rng_nm":40,"alt_fmsl":795,"id":"ELX","desc":"KEELER VOR-DME"},
{"type":"VOR","hdg_t":74.6,"dist_nm":82.7,"freq":112.1,"lat":42.46602778,"lon":-86.10480556,"rng_nm":130,"alt_fmsl":640,"id":"PMM","desc":"PULLMAN VOR-DME"},
{"type":"NDB","hdg_t":312.1,"dist_nm":85.6,"freq":400,"lat":43.06275000,"lon":-89.34588889,"rng_nm":50,"alt_fmsl":0,"id":"MS","desc":"MONAH NDB"},
{"type":"VOR","hdg_t":206.1,"dist_nm":86.1,"freq":109.6,"lat":40.82119444,"lon":-88.73350000,"rng_nm":40,"alt_fmsl":679,"id":"PNT","desc":"PONTIAC VOR-DME"},
{"type":"NDB","hdg_t":336.1,"dist_nm":86.4,"freq":344,"lat":43.42900000,"lon":-88.70216667,"rng_nm":50,"alt_fmsl":0,"id":"UNU","desc":"JUNEAU NDB"},
{"type":"NDB","hdg_t":127.7,"dist_nm":86.8,"freq":391,"lat":41.21672222,"lon":-86.38472222,"rng_nm":50,"alt_fmsl":0,"id":"CPB","desc":"CULVER NDB"},
{"type":"NDB","hdg_t":254.6,"dist_nm":87.7,"freq":254,"lat":41.71111111,"lon":-89.78561111,"rng_nm":50,"alt_fmsl":0,"id":"BOZ","desc":"WHITESIDE NDB"},
{"type":"VOR","hdg_t":314.6,"dist_nm":88.7,"freq":108.6,"lat":43.14483333,"lon":-89.33969444,"rng_nm":40,"alt_fmsl":857,"id":"MSN","desc":"MADISON VORTAC"},
{"type":"VOR","hdg_t":112.1,"dist_nm":91.1,"freq":113.7,"lat":41.52516667,"lon":-86.02794444,"rng_nm":130,"alt_fmsl":852,"id":"GSH","desc":"GOSHEN VORTAC"},
{"type":"VOR","hdg_t":187.4,"dist_nm":92.6,"freq":116.8,"lat":40.58169444,"lon":-88.16427778,"rng_nm":40,"alt_fmsl":780,"id":"RBS","desc":"ROBERTS VOR-DME"},
{"type":"VOR","hdg_t":233.5,"dist_nm":95,"freq":114.7,"lat":41.15972222,"lon":-89.58786111,"rng_nm":130,"alt_fmsl":810,"id":"BDF","desc":"BRADFORD VORTAC"},
{"type":"NDB","hdg_t":51.2,"dist_nm":97.6,"freq":219,"lat":43.12113889,"lon":-86.16858333,"rng_nm":50,"alt_fmsl":0,"id":"MK","desc":"MUSKO NDB"},
{"type":"NDB","hdg_t":148.2,"dist_nm":98.6,"freq":377,"lat":40.71031700,"lon":-86.76223300,"rng_nm":25,"alt_fmsl":676,"id":"MCX","desc":"WHITE CO NDB"},
{"type":"VOR","hdg_t":1.3,"dist_nm":99.2,"freq":110,"lat":43.76877778,"lon":-87.84875000,"rng_nm":40,"alt_fmsl":744,"id":"FAH","desc":"FALLS VOR-DME"}
]
}
