{"success":true,"source":"xp2csv.pl","last_updated":"2013/11/08 14:53:21 UTC"
,"icao":"KPWM","name":"Portland Intl Jetport","lat":43.64642625,"lon":-70.30856325,"rwys":2,"ils":1,"index":1794410,"path":"w080n40/w071n43"
,"runways":[
{"len_m":2194,"wid_m":46.02,"hdg":95,"surf":"Asphalt","rwy1":"11","lat1":43.64586100,"lon1":-70.32607800,"rwy2":"29","lat2":43.64403300,"lon2":-70.29899400},
{"len_m":1524,"wid_m":46.02,"hdg":163,"surf":"Asphalt","rwy1":"18","lat1":43.65447200,"lon1":-70.30731700,"rwy2":"36","lat2":43.64133900,"lon2":-70.30186400}
]
,"radios":[
{"type":"ATIS","freq":119.05,"desc":"ATIS"},
{"type":"CTAF","freq":120.9,"desc":"CTAF"},
{"type":"CTAF","freq":122.95,"desc":"UNICOM"},
{"type":"CTAF","freq":123.5,"desc":"UNICOM"},
{"type":"CLD","freq":121.9,"desc":"CLNC DEL"},
{"type":"GND","freq":121.9,"desc":"GND"},
{"type":"TWR","freq":120.9,"desc":"TWR"},
{"type":"APP","freq":119.75,"desc":"APP/DEP"},
{"type":"APP","freq":125.5,"desc":"APP/DEP"},
{"type":"APP","freq":132.4,"desc":"APP/DEP"}
]
,"ils":[
{"type":"ILS","freq":109.9,"lat":43.64387800,"lon":-70.29670000,"rng_nm":18,"alt_fmsl":37,"hdg":95.34,"id":"IPWM","rwy":"11","desc":"ILS-cat-I"},
{"type":"ILS","freq":109.9,"lat":43.64611700,"lon":-70.32987500,"rng_nm":18,"alt_fmsl":65,"hdg":275.32,"id":"IGCS","rwy":"29","desc":"ILS-cat-I"},
{"type":"GS","freq":109.9,"lat":43.64446700,"lon":-70.32218100,"rng_nm":10,"alt_fmsl":68,"id":"IPWM","rwy":"11","desc":"GS","gs":3},
{"type":"GS","freq":109.9,"lat":43.64504700,"lon":-70.30218100,"rng_nm":10,"alt_fmsl":42,"id":"IGCS","rwy":"29","desc":"GS","gs":3},
{"type":"OM","freq":0,"lat":43.65237500,"lon":-70.44096400,"rng_nm":0,"alt_fmsl":37,"id":"----","rwy":"11","desc":"OM"},
{"type":"MM","freq":0,"lat":43.64658600,"lon":-70.33684400,"rng_nm":0,"alt_fmsl":37,"id":"----","rwy":"11","desc":"MM"},
{"type":"IM","freq":0,"lat":43.64610300,"lon":-70.32966700,"rng_nm":0,"alt_fmsl":37,"id":"----","rwy":"11","desc":"IM"},
{"type":"DME","freq":109.9,"lat":43.64660600,"lon":-70.32641700,"rng_nm":18,"alt_fmsl":78,"id":"IPWM","rwy":"11","desc":"DME-ILS"},
{"type":"DME","freq":109.9,"lat":43.64316100,"lon":-70.29747500,"rng_nm":18,"alt_fmsl":36,"id":"IGCS","rwy":"29","desc":"DME-ILS"}
]
,"navaids":[
{"type":"VOR","hdg_t":225.2,"dist_nm":18.7,"freq":117.1,"lat":43.42566667,"lon":-70.61352778,"rng_nm":130,"alt_fmsl":192,"id":"ENE","desc":"KENNEBUNK VORTAC"},
{"type":"NDB","hdg_t":356.1,"dist_nm":18.9,"freq":240,"lat":43.96225000,"lon":-70.33794444,"rng_nm":50,"alt_fmsl":0,"id":"LE","desc":"LEWIE NDB"},
{"type":"SDME","hdg_t":50.8,"dist_nm":21.6,"freq":115.2,"lat":43.87351400,"lon":-69.92191100,"rng_nm":25,"alt_fmsl":181,"id":"NHZ","desc":"BRUNSWICK TACAN"},
{"type":"NDB","hdg_t":307,"dist_nm":25.7,"freq":227,"lat":43.90405556,"lon":-70.78233333,"rng_nm":50,"alt_fmsl":0,"id":"SZO","desc":"SEBAGO NDB"},
{"type":"NDB","hdg_t":230.9,"dist_nm":29.6,"freq":349,"lat":43.33419444,"lon":-70.83452778,"rng_nm":50,"alt_fmsl":0,"id":"SF","desc":"SANFD NDB"},
{"type":"NDB","hdg_t":221.8,"dist_nm":34.2,"freq":260,"lat":43.22027778,"lon":-70.82830556,"rng_nm":50,"alt_fmsl":0,"id":"ESG","desc":"ROLLINS NDB"},
{"type":"VOR","hdg_t":214.3,"dist_nm":40.7,"freq":116.5,"lat":43.08447222,"lon":-70.83200000,"rng_nm":40,"alt_fmsl":99,"id":"PSM","desc":"PEASE VOR-DME"},
{"type":"VOR","hdg_t":28.5,"dist_nm":46,"freq":111.4,"lat":44.32002778,"lon":-69.79655556,"rng_nm":40,"alt_fmsl":349,"id":"AUG","desc":"AUGUSTA VOR-DME"},
{"type":"NDB","hdg_t":22.7,"dist_nm":49.7,"freq":366,"lat":44.41091667,"lon":-69.86066667,"rng_nm":50,"alt_fmsl":0,"id":"AU","desc":"DUNNS NDB"},
{"type":"NDB","hdg_t":263.4,"dist_nm":53.9,"freq":328,"lat":43.53663889,"lon":-71.53702778,"rng_nm":50,"alt_fmsl":0,"id":"LC","desc":"BLNAP NDB"},
{"type":"NDB","hdg_t":60,"dist_nm":54.3,"freq":334,"lat":44.09347222,"lon":-69.21900000,"rng_nm":50,"alt_fmsl":0,"id":"RM","desc":"NOXKS NDB"},
{"type":"NDB","hdg_t":64.7,"dist_nm":57.5,"freq":356,"lat":44.05013889,"lon":-69.10502778,"rng_nm":50,"alt_fmsl":0,"id":"SUH","desc":"SPRUCEHEAD NDB"},
{"type":"NDB","hdg_t":238,"dist_nm":59.2,"freq":216,"lat":43.11883333,"lon":-71.45269444,"rng_nm":50,"alt_fmsl":0,"id":"CO","desc":"EPSOM NDB"},
{"type":"VOR","hdg_t":245.6,"dist_nm":61,"freq":112.9,"lat":43.21977778,"lon":-71.57544444,"rng_nm":40,"alt_fmsl":715,"id":"CON","desc":"CONCORD VORTAC"},
{"type":"VOR","hdg_t":212.6,"dist_nm":64.3,"freq":112.5,"lat":42.74041667,"lon":-71.09483333,"rng_nm":40,"alt_fmsl":302,"id":"LWM","desc":"LAWRENCE VOR-DME"},
{"type":"VOR","hdg_t":225.2,"dist_nm":65.8,"freq":114.4,"lat":42.86852778,"lon":-71.36952778,"rng_nm":40,"alt_fmsl":471,"id":"MHT","desc":"MANCHESTER VOR-DME"},
{"type":"NDB","hdg_t":326.3,"dist_nm":67.3,"freq":281,"lat":44.57690300,"lon":-71.17909200,"rng_nm":25,"alt_fmsl":1158,"id":"HXK","desc":"HORNEBROOK NDB"},
{"type":"VOR","hdg_t":327.6,"dist_nm":70.3,"freq":110.4,"lat":44.63341667,"lon":-71.18611111,"rng_nm":25,"alt_fmsl":1731,"id":"BML","desc":"BERLIN VOR-DME"},
{"type":"NDB","hdg_t":229.1,"dist_nm":71.1,"freq":209,"lat":42.86422222,"lon":-71.52880556,"rng_nm":50,"alt_fmsl":0,"id":"MJ","desc":"FITZY NDB"},
{"type":"NDB","hdg_t":213.2,"dist_nm":71.6,"freq":402,"lat":42.64413889,"lon":-71.19719444,"rng_nm":50,"alt_fmsl":0,"id":"LW","desc":"HAGET NDB"},
{"type":"NDB","hdg_t":50.3,"dist_nm":72.5,"freq":278,"lat":44.41122222,"lon":-69.01094444,"rng_nm":50,"alt_fmsl":0,"id":"BST","desc":"BELFAST NDB"},
{"type":"NDB","hdg_t":306.2,"dist_nm":73.4,"freq":386,"lat":44.36233333,"lon":-71.68591667,"rng_nm":50,"alt_fmsl":0,"id":"GMA","desc":"MAHN NDB"},
{"type":"NDB","hdg_t":32.7,"dist_nm":75.2,"freq":348,"lat":44.69772222,"lon":-69.35858333,"rng_nm":50,"alt_fmsl":0,"id":"BUP","desc":"BURNHAM NDB"},
{"type":"NDB","hdg_t":229.4,"dist_nm":75.2,"freq":359,"lat":42.82338889,"lon":-71.60216667,"rng_nm":50,"alt_fmsl":0,"id":"AS","desc":"CHERN NDB"},
{"type":"NDB","hdg_t":202.1,"dist_nm":77.2,"freq":382,"lat":42.45202778,"lon":-70.96330556,"rng_nm":50,"alt_fmsl":0,"id":"LQ","desc":"LYNDY NDB"},
{"type":"NDB","hdg_t":346.2,"dist_nm":79.6,"freq":221,"lat":44.93458333,"lon":-70.75119444,"rng_nm":50,"alt_fmsl":0,"id":"RQM","desc":"RANGELEY NDB"},
{"type":"NDB","hdg_t":208.4,"dist_nm":81,"freq":251,"lat":42.45575000,"lon":-71.17852778,"rng_nm":50,"alt_fmsl":0,"id":"SKR","desc":"SHAKER HILL NDB"},
{"type":"NDB","hdg_t":273,"dist_nm":81.4,"freq":276,"lat":43.70227778,"lon":-72.17747222,"rng_nm":50,"alt_fmsl":0,"id":"LAH","desc":"HANOVER NDB"},
{"type":"VOR","hdg_t":201.4,"dist_nm":82.9,"freq":112.7,"lat":42.35744444,"lon":-70.98955556,"rng_nm":130,"alt_fmsl":20,"id":"BOS","desc":"BOSTON VOR-DME"},
{"type":"VOR","hdg_t":272,"dist_nm":83,"freq":113.7,"lat":43.67886111,"lon":-72.21608333,"rng_nm":40,"alt_fmsl":1443,"id":"LEB","desc":"LEBANON VOR-DME"},
{"type":"NDB","hdg_t":214.5,"dist_nm":84.5,"freq":332,"lat":42.47986111,"lon":-71.38866667,"rng_nm":50,"alt_fmsl":0,"id":"BE","desc":"BEDDS (LOM) NDB"},
{"type":"NDB","hdg_t":198.7,"dist_nm":84.9,"freq":346,"lat":42.30308333,"lon":-70.92186111,"rng_nm":50,"alt_fmsl":0,"id":"LI","desc":"HULLZ NDB"},
{"type":"NDB","hdg_t":201.8,"dist_nm":88.5,"freq":375,"lat":42.27375000,"lon":-71.04916667,"rng_nm":50,"alt_fmsl":0,"id":"BO","desc":"MILTT NDB"},
{"type":"NDB","hdg_t":305.2,"dist_nm":90.4,"freq":353,"lat":44.50422222,"lon":-72.02925000,"rng_nm":50,"alt_fmsl":0,"id":"LLX","desc":"LYNDONVILLE NDB"},
{"type":"NDB","hdg_t":260.2,"dist_nm":91.5,"freq":233,"lat":43.36930556,"lon":-72.37108333,"rng_nm":50,"alt_fmsl":0,"id":"CNH","desc":"CLAREMONT NDB"},
{"type":"NDB","hdg_t":224.5,"dist_nm":91.5,"freq":365,"lat":42.55091667,"lon":-71.75713889,"rng_nm":50,"alt_fmsl":0,"id":"FIT","desc":"FITCHBURG NDB"},
{"type":"NDB","hdg_t":267.5,"dist_nm":94.1,"freq":379,"lat":43.56013889,"lon":-72.46566667,"rng_nm":50,"alt_fmsl":0,"id":"IVV","desc":"WHITE RIVER NDB"},
{"type":"NDB","hdg_t":190,"dist_nm":94.2,"freq":368,"lat":42.09800000,"lon":-70.67577778,"rng_nm":50,"alt_fmsl":0,"id":"IMR","desc":"MARSHFIELD NDB"},
{"type":"NDB","hdg_t":177.6,"dist_nm":94.7,"freq":389,"lat":42.06880556,"lon":-70.22344444,"rng_nm":50,"alt_fmsl":0,"id":"PVC","desc":"PROVINCETOWN NDB"},
{"type":"VOR","hdg_t":40.2,"dist_nm":94.7,"freq":114.8,"lat":44.84180556,"lon":-68.87397222,"rng_nm":130,"alt_fmsl":360,"id":"BGR","desc":"BANGOR VORTAC"},
{"type":"VOR","hdg_t":286.5,"dist_nm":96.5,"freq":110.8,"lat":44.08547222,"lon":-72.44938889,"rng_nm":40,"alt_fmsl":2080,"id":"MPV","desc":"MONTPELIER VOR-DME"},
{"type":"NDB","hdg_t":201.8,"dist_nm":98.4,"freq":397,"lat":42.11975000,"lon":-71.12841667,"rng_nm":50,"alt_fmsl":0,"id":"OW","desc":"STOGE NDB"},
{"type":"VOR","hdg_t":172.9,"dist_nm":98.4,"freq":114.7,"lat":42.01719444,"lon":-70.03722222,"rng_nm":130,"alt_fmsl":151,"id":"LFV","desc":"MARCONI VOR-DME"}
]
}
