{"success":true,"source":"xp2csv.pl","last_updated":"2013/11/08 14:53:21 UTC"
,"icao":"KRRL","name":"Merrill Muni","lat":45.19913325,"lon":-89.71176175,"rwys":2,"ils":0,"index":1483209,"path":"w090n40/w090n45"
,"runways":[
{"len_m":1554,"wid_m":22.86,"hdg":68,"surf":"Asphalt","rwy1":"07","lat1":45.19574400,"lon1":-89.72516900,"rwy2":"25","lat2":45.20085300,"lon2":-89.70675300},
{"len_m":913,"wid_m":22.86,"hdg":156,"surf":"Asphalt","rwy1":"16","lat1":45.20373900,"lon1":-89.70987500,"rwy2":"34","lat2":45.19619700,"lon2":-89.70525000}
]
,"radios":[
{"type":"ATIS","freq":119.92,"desc":"AWOS 3"},
{"type":"CTAF","freq":122.8,"desc":"CTAF/UNICOM"}
]
,"navaids":[
{"type":"NDB","hdg_t":95.6,"dist_nm":0.3,"freq":257,"lat":45.19861111,"lon":-89.70425000,"rng_nm":50,"alt_fmsl":0,"id":"RRL","desc":"MERRILL NDB"},
{"type":"NDB","hdg_t":167.2,"dist_nm":16.6,"freq":243,"lat":44.92780556,"lon":-89.62511111,"rng_nm":50,"alt_fmsl":0,"id":"FZK","desc":"WAUSAU NDB"},
{"type":"VOR","hdg_t":165.8,"dist_nm":21.8,"freq":111.6,"lat":44.84677778,"lon":-89.58658333,"rng_nm":40,"alt_fmsl":1205,"id":"AUW","desc":"WAUSAU VORTAC"},
{"type":"NDB","hdg_t":176.8,"dist_nm":25.3,"freq":377,"lat":44.77688300,"lon":-89.67887200,"rng_nm":25,"alt_fmsl":1264,"id":"HWS","desc":"CENTRAL WISCONSIN NDB"},
{"type":"NDB","hdg_t":95.2,"dist_nm":25.5,"freq":347,"lat":45.15830556,"lon":-89.11333333,"rng_nm":50,"alt_fmsl":0,"id":"AIG","desc":"ANTIGO NDB"},
{"type":"NDB","hdg_t":257.6,"dist_nm":25.9,"freq":335,"lat":45.10536111,"lon":-90.30869444,"rng_nm":50,"alt_fmsl":0,"id":"MDZ","desc":"MEDFORD NDB"},
{"type":"NDB","hdg_t":8.6,"dist_nm":26,"freq":272,"lat":45.62811111,"lon":-89.61886111,"rng_nm":50,"alt_fmsl":0,"id":"RH","desc":"ARSHA NDB"},
{"type":"NDB","hdg_t":187.1,"dist_nm":26.5,"freq":275,"lat":44.76036111,"lon":-89.78919444,"rng_nm":50,"alt_fmsl":0,"id":"CW","desc":"DANCI NDB"},
{"type":"VOR","hdg_t":22.2,"dist_nm":28.2,"freq":109.2,"lat":45.63377778,"lon":-89.45777778,"rng_nm":40,"alt_fmsl":1599,"id":"RHI","desc":"RHINELANDER VORTAC"},
{"type":"NDB","hdg_t":175,"dist_nm":31.4,"freq":351,"lat":44.67652778,"lon":-89.64794444,"rng_nm":50,"alt_fmsl":0,"id":"PH","desc":"BAYYE NDB"},
{"type":"NDB","hdg_t":358.8,"dist_nm":38.1,"freq":236,"lat":45.83452778,"lon":-89.73041667,"rng_nm":50,"alt_fmsl":0,"id":"DO","desc":"DOUGY NDB"},
{"type":"NDB","hdg_t":211.4,"dist_nm":39.1,"freq":391,"lat":44.64108333,"lon":-90.18913889,"rng_nm":50,"alt_fmsl":0,"id":"MFI","desc":"MARSHFIELD NDB"},
{"type":"VOR","hdg_t":168.8,"dist_nm":40.1,"freq":110.6,"lat":44.54325000,"lon":-89.53055556,"rng_nm":40,"alt_fmsl":1110,"id":"STE","desc":"STEVENS POINT VORTAC"},
{"type":"NDB","hdg_t":206.5,"dist_nm":42.2,"freq":266,"lat":44.56872222,"lon":-90.15094444,"rng_nm":50,"alt_fmsl":0,"id":"DU","desc":"CALIN NDB"},
{"type":"NDB","hdg_t":315.8,"dist_nm":42.3,"freq":263,"lat":45.70291667,"lon":-90.41238889,"rng_nm":50,"alt_fmsl":0,"id":"PBH","desc":"PHILLIPS NDB"},
{"type":"NDB","hdg_t":359,"dist_nm":43.6,"freq":221,"lat":45.92613889,"lon":-89.72933333,"rng_nm":50,"alt_fmsl":0,"id":"ARV","desc":"ARBOR VITAE NDB"},
{"type":"NDB","hdg_t":186.2,"dist_nm":50.4,"freq":215,"lat":44.36394444,"lon":-89.83977778,"rng_nm":50,"alt_fmsl":0,"id":"ISW","desc":"WISCONSIN RAPIDS NDB"},
{"type":"NDB","hdg_t":221.9,"dist_nm":51.5,"freq":368,"lat":44.55711111,"lon":-90.51527778,"rng_nm":50,"alt_fmsl":0,"id":"VIQ","desc":"NEILLSVILLE NDB"},
{"type":"NDB","hdg_t":129.4,"dist_nm":54.3,"freq":209,"lat":44.61880556,"lon":-88.73319444,"rng_nm":50,"alt_fmsl":0,"id":"CLI","desc":"CLINTONVILLE NDB"},
{"type":"NDB","hdg_t":326.6,"dist_nm":54.3,"freq":371,"lat":45.95305556,"lon":-90.42611111,"rng_nm":50,"alt_fmsl":0,"id":"PKF","desc":"PARK FALLS NDB"},
{"type":"NDB","hdg_t":2.3,"dist_nm":56.1,"freq":206,"lat":46.13383333,"lon":-89.65569444,"rng_nm":50,"alt_fmsl":0,"id":"BDJ","desc":"BOULDER JUNCTION NDB"},
{"type":"NDB","hdg_t":187.6,"dist_nm":56.8,"freq":326,"lat":44.25983333,"lon":-89.88788889,"rng_nm":50,"alt_fmsl":0,"id":"EK","desc":"NEPCO NDB"},
{"type":"NDB","hdg_t":288.8,"dist_nm":57.5,"freq":356,"lat":45.50183333,"lon":-91.00113889,"rng_nm":50,"alt_fmsl":0,"id":"RCX","desc":"RUSK COUNTY NDB"},
{"type":"NDB","hdg_t":150,"dist_nm":59.7,"freq":382,"lat":44.33436111,"lon":-89.01969444,"rng_nm":50,"alt_fmsl":0,"id":"PCZ","desc":"WAUPACA NDB"},
{"type":"NDB","hdg_t":20.1,"dist_nm":60.8,"freq":396,"lat":46.14975000,"lon":-89.21044444,"rng_nm":50,"alt_fmsl":0,"id":"LNL","desc":"LAND O LAKES NDB"},
{"type":"NDB","hdg_t":15.4,"dist_nm":67.8,"freq":407,"lat":46.28827778,"lon":-89.27875000,"rng_nm":50,"alt_fmsl":0,"id":"RXW","desc":"WATERSMEET NDB"},
{"type":"NDB","hdg_t":192.9,"dist_nm":71.6,"freq":233,"lat":44.03405600,"lon":-90.08263900,"rng_nm":25,"alt_fmsl":914,"id":"DAF","desc":"NECEDAH NDB"},
{"type":"NDB","hdg_t":258.3,"dist_nm":72.2,"freq":239,"lat":44.94475000,"lon":-91.37366667,"rng_nm":50,"alt_fmsl":0,"id":"EA","desc":"MAGGS NDB"},
{"type":"NDB","hdg_t":64,"dist_nm":73.8,"freq":255,"lat":45.72722222,"lon":-88.13269444,"rng_nm":50,"alt_fmsl":0,"id":"IM","desc":"KORDS NDB"},
{"type":"NDB","hdg_t":221,"dist_nm":74.6,"freq":362,"lat":44.25450000,"lon":-90.84877778,"rng_nm":50,"alt_fmsl":0,"id":"BCK","desc":"BLACK RIVER FALLS NDB"},
{"type":"VOR","hdg_t":120.3,"dist_nm":75.3,"freq":115.5,"lat":44.55516667,"lon":-88.19486111,"rng_nm":130,"alt_fmsl":767,"id":"GRB","desc":"GREEN BAY VORTAC"},
{"type":"VOR","hdg_t":60.6,"dist_nm":76.9,"freq":111.2,"lat":45.81605556,"lon":-88.11213889,"rng_nm":40,"alt_fmsl":1128,"id":"IMT","desc":"IRON MOUNTAIN VOR-DME"},
{"type":"VOR","hdg_t":257,"dist_nm":77.3,"freq":112.9,"lat":44.89766667,"lon":-91.47855556,"rng_nm":40,"alt_fmsl":804,"id":"EAU","desc":"EAU CLAIRE VORTAC"},
{"type":"NDB","hdg_t":125.3,"dist_nm":77.6,"freq":356,"lat":44.44047222,"lon":-88.23963889,"rng_nm":50,"alt_fmsl":0,"id":"GR","desc":"FAMIS NDB"},
{"type":"NDB","hdg_t":141.8,"dist_nm":78.7,"freq":230,"lat":44.16250000,"lon":-88.58502778,"rng_nm":50,"alt_fmsl":0,"id":"AT","desc":"GAMIE NDB"},
{"type":"NDB","hdg_t":103.5,"dist_nm":78.9,"freq":388,"lat":44.87586111,"lon":-87.91238889,"rng_nm":50,"alt_fmsl":0,"id":"OCQ","desc":"OCONTO NDB"},
{"type":"SDME","hdg_t":197.4,"dist_nm":78.9,"freq":110.4,"lat":43.94288300,"lon":-90.25901900,"rng_nm":40,"alt_fmsl":961,"id":"VOK","desc":"VOLK TACAN"},
{"type":"NDB","hdg_t":135.9,"dist_nm":81.4,"freq":407,"lat":44.21588889,"lon":-88.39894444,"rng_nm":50,"alt_fmsl":0,"id":"AQ","desc":"KOOKY NDB"},
{"type":"VOR","hdg_t":347.9,"dist_nm":81.8,"freq":108.8,"lat":46.53225000,"lon":-90.12583333,"rng_nm":40,"alt_fmsl":1230,"id":"IWD","desc":"IRONWOOD VORTAC"},
{"type":"NDB","hdg_t":124.8,"dist_nm":82.8,"freq":332,"lat":44.39852778,"lon":-88.13286111,"rng_nm":50,"alt_fmsl":0,"id":"SG","desc":"DEPRE NDB"},
{"type":"NDB","hdg_t":208.1,"dist_nm":85.5,"freq":412,"lat":43.93783333,"lon":-90.64186111,"rng_nm":50,"alt_fmsl":0,"id":"CMY","desc":"MC COY NDB"},
{"type":"NDB","hdg_t":94.7,"dist_nm":86,"freq":239,"lat":45.06158333,"lon":-87.69602778,"rng_nm":50,"alt_fmsl":0,"id":"TN","desc":"TRIBE NDB"},
{"type":"NDB","hdg_t":281.9,"dist_nm":86.6,"freq":407,"lat":45.47955600,"lon":-91.72072200,"rng_nm":25,"alt_fmsl":1140,"id":"RIE","desc":"RICE LAKE NDB"},
{"type":"VOR","hdg_t":90,"dist_nm":87.6,"freq":109.6,"lat":45.18016667,"lon":-87.64716667,"rng_nm":40,"alt_fmsl":650,"id":"MNM","desc":"MENOMINEE VOR-DME"},
{"type":"VOR","hdg_t":145.2,"dist_nm":87.8,"freq":111.8,"lat":43.99041667,"lon":-88.55594444,"rng_nm":40,"alt_fmsl":780,"id":"OSH","desc":"OSHKOSH VORTAC"},
{"type":"VOR","hdg_t":304.5,"dist_nm":88,"freq":113.4,"lat":46.01900000,"lon":-91.44638889,"rng_nm":40,"alt_fmsl":1208,"id":"HYR","desc":"HAYWARD VOR-DME"},
{"type":"VOR","hdg_t":279.1,"dist_nm":88.4,"freq":110,"lat":45.41519444,"lon":-91.77800000,"rng_nm":25,"alt_fmsl":1092,"id":"RPD","desc":"RICE LAKE VOR-DME"},
{"type":"NDB","hdg_t":275.3,"dist_nm":88.9,"freq":221,"lat":45.31747222,"lon":-91.80277778,"rng_nm":50,"alt_fmsl":0,"id":"RP","desc":"WICKR NDB"},
{"type":"NDB","hdg_t":147.6,"dist_nm":93.6,"freq":395,"lat":43.87380556,"lon":-88.55761111,"rng_nm":50,"alt_fmsl":0,"id":"OS","desc":"POBER NDB"},
{"type":"VOR","hdg_t":328.4,"dist_nm":95.5,"freq":110.2,"lat":46.54941667,"lon":-90.91725000,"rng_nm":25,"alt_fmsl":820,"id":"ASX","desc":"ASHLAND VOR-DME"},
{"type":"NDB","hdg_t":196.3,"dist_nm":96.4,"freq":251,"lat":43.65516667,"lon":-90.33308333,"rng_nm":50,"alt_fmsl":0,"id":"HBW","desc":"KICKAPOO NDB"},
{"type":"NDB","hdg_t":223.3,"dist_nm":97.7,"freq":272,"lat":44.00397222,"lon":-91.26066667,"rng_nm":50,"alt_fmsl":0,"id":"LS","desc":"MINDI NDB"},
{"type":"VOR","hdg_t":181.3,"dist_nm":98.9,"freq":117,"lat":43.55083333,"lon":-89.76361111,"rng_nm":130,"alt_fmsl":1022,"id":"DLL","desc":"DELLS VORTAC"},
{"type":"NDB","hdg_t":101.7,"dist_nm":99.8,"freq":414,"lat":44.83688889,"lon":-87.42247222,"rng_nm":50,"alt_fmsl":0,"id":"SUE","desc":"STURGEON BAY NDB"},
{"type":"NDB","hdg_t":104.6,"dist_nm":99.9,"freq":224,"lat":44.75594444,"lon":-87.44922222,"rng_nm":50,"alt_fmsl":0,"id":"II","desc":"FICHY NDB"}
]
}
