{"success":true,"source":"xp2csv.pl","last_updated":"2013/11/08 14:53:21 UTC"
,"icao":"KS10","name":"Flying R.n.","lat":37.86001194,"lon":-97.24587306,"rwys":1,"ils":0,"index":1351667,"path":"w100n30/w098n37"
,"runways":[
{"len_m":456,"wid_m":18.29,"hdg":176,"surf":"Turf/grass","rwy1":"17","lat1":37.86206636,"lon1":-97.24600943,"rwy2":"35","lat2":37.85795752,"lon2":-97.24573669}
]
,"navaids":[
{"type":"NDB","hdg_t":353.9,"dist_nm":12.3,"freq":281,"lat":38.06408333,"lon":-97.27344444,"rng_nm":50,"alt_fmsl":0,"id":"EWK","desc":"NEWTON NDB"},
{"type":"SDME","hdg_t":184.2,"dist_nm":14.3,"freq":116.5,"lat":37.62185300,"lon":-97.26819200,"rng_nm":40,"alt_fmsl":1374,"id":"IAB","desc":"MC CONNELL TACAN"},
{"type":"NDB","hdg_t":355.2,"dist_nm":17.1,"freq":395,"lat":38.14491667,"lon":-97.27613889,"rng_nm":50,"alt_fmsl":0,"id":"CA","desc":"HARVS NDB"},
{"type":"VOR","hdg_t":246.9,"dist_nm":17.4,"freq":113.8,"lat":37.74525000,"lon":-97.58383333,"rng_nm":130,"alt_fmsl":1471,"id":"ICT","desc":"WICHITA VORTAC"},
{"type":"NDB","hdg_t":210.6,"dist_nm":19.6,"freq":332,"lat":37.57819444,"lon":-97.45586111,"rng_nm":50,"alt_fmsl":0,"id":"IC","desc":"PICHE NDB"},
{"type":"NDB","hdg_t":192.1,"dist_nm":32.8,"freq":414,"lat":37.32366667,"lon":-97.39019444,"rng_nm":50,"alt_fmsl":0,"id":"EGT","desc":"WELLINGTON NDB"},
{"type":"VOR","hdg_t":284.3,"dist_nm":33.6,"freq":116.8,"lat":37.99691667,"lon":-97.93413889,"rng_nm":40,"alt_fmsl":1542,"id":"HUT","desc":"HUTCHINSON VOR-DME"},
{"type":"NDB","hdg_t":324.6,"dist_nm":35.9,"freq":227,"lat":38.34850000,"lon":-97.68730556,"rng_nm":50,"alt_fmsl":0,"id":"MPR","desc":"MC PHERSON NDB"},
{"type":"NDB","hdg_t":296.2,"dist_nm":35.9,"freq":404,"lat":38.12372222,"lon":-97.92702778,"rng_nm":50,"alt_fmsl":0,"id":"HU","desc":"SALTT NDB"},
{"type":"NDB","hdg_t":167.6,"dist_nm":47.2,"freq":353,"lat":37.08972222,"lon":-97.03625000,"rng_nm":50,"alt_fmsl":0,"id":"SO","desc":"SAWCY NDB"},
{"type":"NDB","hdg_t":339.1,"dist_nm":52.7,"freq":344,"lat":38.68152778,"lon":-97.64505556,"rng_nm":50,"alt_fmsl":0,"id":"SL","desc":"FLORY NDB"},
{"type":"NDB","hdg_t":22.2,"dist_nm":53.9,"freq":407,"lat":38.69277778,"lon":-96.81111111,"rng_nm":50,"alt_fmsl":0,"id":"HRU","desc":"HERINGTON NDB"},
{"type":"NDB","hdg_t":302.4,"dist_nm":54.8,"freq":386,"lat":38.34722222,"lon":-98.22700000,"rng_nm":50,"alt_fmsl":0,"id":"LYO","desc":"LYONS NDB"},
{"type":"VOR","hdg_t":63.4,"dist_nm":58.4,"freq":112.8,"lat":38.29113889,"lon":-96.13811111,"rng_nm":40,"alt_fmsl":1233,"id":"EMP","desc":"EMPORIA VORTAC"},
{"type":"VOR","hdg_t":226.7,"dist_nm":60.9,"freq":112.9,"lat":37.15891667,"lon":-98.17072222,"rng_nm":40,"alt_fmsl":1390,"id":"ANY","desc":"ANTHONY VORTAC"},
{"type":"NDB","hdg_t":173.5,"dist_nm":62.4,"freq":515,"lat":36.82502778,"lon":-97.10052778,"rng_nm":50,"alt_fmsl":0,"id":"PN","desc":"PONCA NDB"},
{"type":"VOR","hdg_t":344.6,"dist_nm":66.2,"freq":117.1,"lat":38.92513889,"lon":-97.62136111,"rng_nm":130,"alt_fmsl":1310,"id":"SLN","desc":"SALINA VORTAC"},
{"type":"VOR","hdg_t":176.4,"dist_nm":66.8,"freq":113.2,"lat":36.74652778,"lon":-97.16016667,"rng_nm":130,"alt_fmsl":1054,"id":"PER","desc":"PIONEER VORTAC"},
{"type":"VOR","hdg_t":15.1,"dist_nm":68.9,"freq":109.4,"lat":38.97016667,"lon":-96.86116667,"rng_nm":25,"alt_fmsl":0,"id":"FRI","desc":"FORT RILEY VOR"},
{"type":"NDB","hdg_t":264,"dist_nm":71.8,"freq":356,"lat":37.72630556,"lon":-98.74708333,"rng_nm":50,"alt_fmsl":0,"id":"PTT","desc":"PRATT NDB"},
{"type":"NDB","hdg_t":16.7,"dist_nm":73,"freq":314,"lat":39.02600000,"lon":-96.79450000,"rng_nm":50,"alt_fmsl":0,"id":"CVY","desc":"CAVALRY NDB"},
{"type":"NDB","hdg_t":69.4,"dist_nm":76.8,"freq":245,"lat":38.29975000,"lon":-95.72147222,"rng_nm":50,"alt_fmsl":0,"id":"UKL","desc":"BOYD NDB"},
{"type":"NDB","hdg_t":287.5,"dist_nm":79.8,"freq":419,"lat":38.25169444,"lon":-98.85580556,"rng_nm":50,"alt_fmsl":0,"id":"GB","desc":"BABSY NDB"},
{"type":"VOR","hdg_t":99.5,"dist_nm":79.8,"freq":109.2,"lat":37.62613889,"lon":-95.59344444,"rng_nm":40,"alt_fmsl":1080,"id":"CNU","desc":"CHANUTE VOR-DME"},
{"type":"NDB","hdg_t":20.8,"dist_nm":80.7,"freq":391,"lat":39.11744200,"lon":-96.62933600,"rng_nm":50,"alt_fmsl":1060,"id":"MQD","desc":"MC DOWELL CREEK NDB"},
{"type":"VOR","hdg_t":19.2,"dist_nm":81.7,"freq":110.2,"lat":39.14544444,"lon":-96.66872222,"rng_nm":25,"alt_fmsl":1044,"id":"MHK","desc":"MANHATTAN VOR-DME"},
{"type":"NDB","hdg_t":291.3,"dist_nm":83.9,"freq":338,"lat":38.35908333,"lon":-98.90288889,"rng_nm":50,"alt_fmsl":0,"id":"HIL","desc":"HILYN NDB"},
{"type":"NDB","hdg_t":123.7,"dist_nm":84.7,"freq":329,"lat":37.06583333,"lon":-95.77775000,"rng_nm":50,"alt_fmsl":0,"id":"ID","desc":"JEFFE NDB"},
{"type":"NDB","hdg_t":135.6,"dist_nm":84.9,"freq":201,"lat":36.83950000,"lon":-96.01397222,"rng_nm":50,"alt_fmsl":0,"id":"BV","desc":"DEWIE NDB"},
{"type":"VOR","hdg_t":135.9,"dist_nm":85,"freq":117.9,"lat":36.83425000,"lon":-96.01830556,"rng_nm":40,"alt_fmsl":940,"id":"BVO","desc":"BARTLESVILLE VOR-DME"},
{"type":"NDB","hdg_t":92.1,"dist_nm":87.1,"freq":410,"lat":37.79152778,"lon":-95.41491667,"rng_nm":50,"alt_fmsl":0,"id":"MSB","desc":"MONARCH NDB"},
{"type":"NDB","hdg_t":110.1,"dist_nm":88.5,"freq":258,"lat":37.33814700,"lon":-95.50870000,"rng_nm":25,"alt_fmsl":900,"id":"PPF","desc":"PARSONS NDB"},
{"type":"NDB","hdg_t":283.8,"dist_nm":89.7,"freq":296,"lat":38.20436111,"lon":-99.08791667,"rng_nm":50,"alt_fmsl":0,"id":"LQR","desc":"LARNED NDB"},
{"type":"NDB","hdg_t":2.4,"dist_nm":91.2,"freq":362,"lat":39.38075000,"lon":-97.16125000,"rng_nm":50,"alt_fmsl":0,"id":"CYW","desc":"CLAY CENTER NDB"},
{"type":"NDB","hdg_t":119.3,"dist_nm":92.2,"freq":212,"lat":37.09327778,"lon":-95.57133333,"rng_nm":50,"alt_fmsl":0,"id":"CFV","desc":"COFFEYVILLE NDB"},
{"type":"VOR","hdg_t":196.4,"dist_nm":92.7,"freq":109,"lat":36.37375000,"lon":-97.78816667,"rng_nm":25,"alt_fmsl":1149,"id":"ODG","desc":"WOODRING VOR-DME"},
{"type":"VOR","hdg_t":199.7,"dist_nm":96.3,"freq":115.4,"lat":36.34497222,"lon":-97.91836111,"rng_nm":130,"alt_fmsl":1276,"id":"END","desc":"VANCE VORTAC"},
{"type":"NDB","hdg_t":175.4,"dist_nm":97.6,"freq":255,"lat":36.23616667,"lon":-97.08730556,"rng_nm":50,"alt_fmsl":0,"id":"SW","desc":"BLAKI NDB"},
{"type":"VOR","hdg_t":175.3,"dist_nm":98.3,"freq":108.4,"lat":36.22425000,"lon":-97.08125000,"rng_nm":25,"alt_fmsl":1022,"id":"SWO","desc":"STILLWATER VOR-DME"},
{"type":"NDB","hdg_t":195.5,"dist_nm":98.5,"freq":341,"lat":36.27502778,"lon":-97.79077778,"rng_nm":50,"alt_fmsl":0,"id":"EI","desc":"GARFY NDB"},
{"type":"SDME","hdg_t":48.4,"dist_nm":99.1,"freq":111.6,"lat":38.94736700,"lon":-95.66117500,"rng_nm":25,"alt_fmsl":1043,"id":"FOE","desc":"FORBES TACAN"},
{"type":"NDB","hdg_t":51.4,"dist_nm":99.6,"freq":326,"lat":38.88486111,"lon":-95.58152778,"rng_nm":50,"alt_fmsl":0,"id":"FO","desc":"RIPLY NDB"}
]
}
