{"success":true,"source":"xp2csv.pl","last_updated":"2013/11/08 14:53:21 UTC"
,"icao":"KSBU","name":"Blue Earth Muni","lat":43.59462925,"lon":-94.09267925,"rwys":2,"ils":0,"index":1401187,"path":"w100n40/w095n43"
,"runways":[
{"len_m":1036,"wid_m":22.86,"hdg":161,"surf":"Asphalt","rwy1":"16","lat1":43.59832500,"lon1":-94.09458900,"rwy2":"34","lat2":43.58950300,"lon2":-94.09043300},
{"len_m":697,"wid_m":60.96,"hdg":34,"surf":"Turf/grass","rwy1":"03","lat1":43.59275300,"lon1":-94.09528900,"rwy2":"21","lat2":43.59793600,"lon2":-94.09040600}
]
,"radios":[
{"type":"CTAF","freq":122.8,"desc":"CTAF/UNICOM"}
]
,"navaids":[
{"type":"NDB","hdg_t":308.2,"dist_nm":0.2,"freq":332,"lat":43.59702778,"lon":-94.09686111,"rng_nm":50,"alt_fmsl":0,"id":"SBU","desc":"BLUE EARTH NDB"},
{"type":"NDB","hdg_t":262.7,"dist_nm":9.9,"freq":420,"lat":43.57363889,"lon":-94.31797222,"rng_nm":50,"alt_fmsl":0,"id":"FQ","desc":"MONTZ NDB"},
{"type":"VOR","hdg_t":282.2,"dist_nm":14.7,"freq":110.2,"lat":43.64597222,"lon":-94.42255556,"rng_nm":40,"alt_fmsl":1164,"id":"FRM","desc":"FAIRMONT VOR-DME"},
{"type":"NDB","hdg_t":136,"dist_nm":29.8,"freq":359,"lat":43.23580556,"lon":-93.62083333,"rng_nm":50,"alt_fmsl":0,"id":"FXY","desc":"FOREST CITY NDB"},
{"type":"VOR","hdg_t":248.8,"dist_nm":30.5,"freq":110.4,"lat":43.40930556,"lon":-94.74444444,"rng_nm":25,"alt_fmsl":0,"id":"EST","desc":"ESTHERVILLE VOR"},
{"type":"NDB","hdg_t":319.7,"dist_nm":30.8,"freq":260,"lat":43.98550000,"lon":-94.55269444,"rng_nm":50,"alt_fmsl":0,"id":"JYG","desc":"ST JAMES NDB"},
{"type":"NDB","hdg_t":194.4,"dist_nm":31.7,"freq":403,"lat":43.08136111,"lon":-94.27247222,"rng_nm":50,"alt_fmsl":0,"id":"AXA","desc":"ALGONA NDB"},
{"type":"NDB","hdg_t":242.8,"dist_nm":31.7,"freq":345,"lat":43.35152778,"lon":-94.73777778,"rng_nm":50,"alt_fmsl":0,"id":"PUF","desc":"PUFF NDB"},
{"type":"VOR","hdg_t":80.3,"dist_nm":31.8,"freq":109.8,"lat":43.68172222,"lon":-93.37075000,"rng_nm":25,"alt_fmsl":1265,"id":"AEL","desc":"ALBERT LEA VOR-DME"},
{"type":"VOR","hdg_t":11.7,"dist_nm":38.3,"freq":110.8,"lat":44.21991667,"lon":-93.91236111,"rng_nm":40,"alt_fmsl":1026,"id":"MKT","desc":"MANKATO VOR-DME"},
{"type":"NDB","hdg_t":274.9,"dist_nm":39,"freq":353,"lat":43.64688889,"lon":-94.98597222,"rng_nm":50,"alt_fmsl":0,"id":"MJQ","desc":"JACKSON NDB"},
{"type":"NDB","hdg_t":222.4,"dist_nm":40,"freq":410,"lat":43.10069444,"lon":-94.70825000,"rng_nm":50,"alt_fmsl":0,"id":"EGQ","desc":"EMMETSBURG NDB"},
{"type":"VOR","hdg_t":131.6,"dist_nm":44.8,"freq":114.9,"lat":43.09475000,"lon":-93.32986111,"rng_nm":130,"alt_fmsl":1209,"id":"MCW","desc":"MASON CITY VORTAC"},
{"type":"NDB","hdg_t":133.8,"dist_nm":46.6,"freq":348,"lat":43.05261111,"lon":-93.32775000,"rng_nm":50,"alt_fmsl":0,"id":"MC","desc":"SURFF NDB"},
{"type":"NDB","hdg_t":338.1,"dist_nm":46.8,"freq":272,"lat":44.31802778,"lon":-94.49802778,"rng_nm":50,"alt_fmsl":0,"id":"ULM","desc":"NEW ULM NDB"},
{"type":"NDB","hdg_t":293.4,"dist_nm":48,"freq":203,"lat":43.90938889,"lon":-95.10916667,"rng_nm":50,"alt_fmsl":0,"id":"MWM","desc":"WINDOM NDB"},
{"type":"VOR","hdg_t":40.3,"dist_nm":48.1,"freq":111.2,"lat":44.20444444,"lon":-93.37050000,"rng_nm":25,"alt_fmsl":1100,"id":"FOW","desc":"HALFWAY VOR-DME"},
{"type":"NDB","hdg_t":54.4,"dist_nm":49.8,"freq":379,"lat":44.07383333,"lon":-93.15527778,"rng_nm":50,"alt_fmsl":0,"id":"OW","desc":"TONNA NDB"},
{"type":"VOR","hdg_t":90.8,"dist_nm":51.2,"freq":108.2,"lat":43.57625000,"lon":-92.91866667,"rng_nm":25,"alt_fmsl":1233,"id":"JAY","desc":"AUSTIN VOR-DME"},
{"type":"NDB","hdg_t":163.8,"dist_nm":52.9,"freq":387,"lat":42.74580556,"lon":-93.75883333,"rng_nm":50,"alt_fmsl":0,"id":"CAV","desc":"CLARION NDB"},
{"type":"NDB","hdg_t":238.7,"dist_nm":53.4,"freq":326,"lat":43.12705556,"lon":-95.13272222,"rng_nm":50,"alt_fmsl":0,"id":"LTU","desc":"LITTLE SIOUX NDB"},
{"type":"NDB","hdg_t":171.3,"dist_nm":53.7,"freq":302,"lat":42.70858333,"lon":-93.91058333,"rng_nm":50,"alt_fmsl":0,"id":"EAG","desc":"EAGLE GROVE NDB"},
{"type":"VOR","hdg_t":242.2,"dist_nm":54.9,"freq":110,"lat":43.16216667,"lon":-95.20100000,"rng_nm":40,"alt_fmsl":1330,"id":"SPW","desc":"SPENCER VOR-DME"},
{"type":"NDB","hdg_t":205.8,"dist_nm":56.4,"freq":428,"lat":42.74638889,"lon":-94.64922222,"rng_nm":50,"alt_fmsl":0,"id":"POH","desc":"POCAHONTAS NDB"},
{"type":"NDB","hdg_t":248.5,"dist_nm":58.2,"freq":394,"lat":43.23258333,"lon":-95.32761111,"rng_nm":50,"alt_fmsl":0,"id":"SP","desc":"SNORE NDB"},
{"type":"VOR","hdg_t":188.6,"dist_nm":59.6,"freq":113.5,"lat":42.61111111,"lon":-94.29480556,"rng_nm":130,"alt_fmsl":1164,"id":"FOD","desc":"FORT DODGE VORTAC"},
{"type":"NDB","hdg_t":271.7,"dist_nm":59.7,"freq":277,"lat":43.61738889,"lon":-95.46408333,"rng_nm":50,"alt_fmsl":0,"id":"OT","desc":"WONDD NDB"},
{"type":"NDB","hdg_t":143.4,"dist_nm":64.5,"freq":230,"lat":42.72622222,"lon":-93.22411111,"rng_nm":50,"alt_fmsl":0,"id":"HPT","desc":"HAMPTON NDB"},
{"type":"VOR","hdg_t":273.2,"dist_nm":64.9,"freq":110.6,"lat":43.64691667,"lon":-95.58197222,"rng_nm":40,"alt_fmsl":1571,"id":"OTG","desc":"WORTHINGTON VOR-DME"},
{"type":"NDB","hdg_t":188.2,"dist_nm":65.4,"freq":341,"lat":42.51450000,"lon":-94.30558333,"rng_nm":50,"alt_fmsl":0,"id":"FO","desc":"BARRO NDB"},
{"type":"NDB","hdg_t":114.3,"dist_nm":65.8,"freq":417,"lat":43.13391667,"lon":-92.72819444,"rng_nm":50,"alt_fmsl":0,"id":"IY","desc":"CHUKK NDB"},
{"type":"VOR","hdg_t":79.6,"dist_nm":66,"freq":112,"lat":43.78286111,"lon":-92.59691667,"rng_nm":40,"alt_fmsl":1389,"id":"RST","desc":"ROCHESTER VOR-DME"},
{"type":"VOR","hdg_t":319.7,"dist_nm":68.9,"freq":113.3,"lat":44.46727778,"lon":-95.12822222,"rng_nm":130,"alt_fmsl":1061,"id":"RWF","desc":"REDWOOD FALLS VOR-DME"},
{"type":"NDB","hdg_t":171.8,"dist_nm":69.8,"freq":323,"lat":42.44127778,"lon":-93.86950000,"rng_nm":50,"alt_fmsl":0,"id":"EBS","desc":"WEBSTER CITY NDB"},
{"type":"NDB","hdg_t":0.2,"dist_nm":69.9,"freq":407,"lat":44.76063889,"lon":-94.08666667,"rng_nm":50,"alt_fmsl":0,"id":"GYL","desc":"GLENCOE NDB"},
{"type":"NDB","hdg_t":115.3,"dist_nm":72.2,"freq":375,"lat":43.06847222,"lon":-92.60822222,"rng_nm":50,"alt_fmsl":0,"id":"CCY","desc":"CHARLES CITY NDB"},
{"type":"VOR","hdg_t":32,"dist_nm":73.5,"freq":115.7,"lat":44.63094444,"lon":-93.18205556,"rng_nm":130,"alt_fmsl":972,"id":"FGT","desc":"FARMINGTON VORTAC"},
{"type":"NDB","hdg_t":259.9,"dist_nm":73.7,"freq":269,"lat":43.36802778,"lon":-95.75252778,"rng_nm":50,"alt_fmsl":0,"id":"ISB","desc":"SIBLEY NDB"},
{"type":"NDB","hdg_t":77.3,"dist_nm":74.7,"freq":329,"lat":43.85436700,"lon":-92.41167500,"rng_nm":25,"alt_fmsl":1263,"id":"RS","desc":"MINGO NDB"},
{"type":"NDB","hdg_t":151.2,"dist_nm":76.6,"freq":368,"lat":42.47036111,"lon":-93.26250000,"rng_nm":50,"alt_fmsl":0,"id":"IFA","desc":"IOWA FALLS NDB"},
{"type":"NDB","hdg_t":220.7,"dist_nm":78.2,"freq":434,"lat":42.60044444,"lon":-95.24438889,"rng_nm":50,"alt_fmsl":0,"id":"SLB","desc":"STORM LAKE NDB"},
{"type":"VOR","hdg_t":20.5,"dist_nm":78.9,"freq":117.7,"lat":44.82536111,"lon":-93.44269444,"rng_nm":40,"alt_fmsl":900,"id":"FCM","desc":"FLYING CLOUD VOR-DME"},
{"type":"NDB","hdg_t":253.9,"dist_nm":79.5,"freq":338,"lat":43.21416667,"lon":-95.83386111,"rng_nm":50,"alt_fmsl":0,"id":"SHL","desc":"SHELDON NDB"},
{"type":"VOR","hdg_t":253.8,"dist_nm":79.5,"freq":108.6,"lat":43.21213889,"lon":-95.83391667,"rng_nm":25,"alt_fmsl":1417,"id":"DDL","desc":"SHELDON VOR-DME"},
{"type":"NDB","hdg_t":24.4,"dist_nm":81.2,"freq":338,"lat":44.82411100,"lon":-93.30583300,"rng_nm":25,"alt_fmsl":0,"id":"AP","desc":"VAGEY NDB"},
{"type":"NDB","hdg_t":208.5,"dist_nm":82.7,"freq":356,"lat":42.38061111,"lon":-94.98277778,"rng_nm":50,"alt_fmsl":0,"id":"SKI","desc":"SAC CITY NDB"},
{"type":"VOR","hdg_t":25,"dist_nm":86.3,"freq":115.3,"lat":44.89650000,"lon":-93.23652778,"rng_nm":130,"alt_fmsl":831,"id":"MSP","desc":"MINNEAPOLIS VOR-DME"},
{"type":"NDB","hdg_t":98.4,"dist_nm":86.7,"freq":293,"lat":43.36602778,"lon":-92.13100000,"rng_nm":50,"alt_fmsl":0,"id":"CJJ","desc":"CRESCO NDB"},
{"type":"NDB","hdg_t":45.5,"dist_nm":86.7,"freq":274,"lat":44.59783333,"lon":-92.64747222,"rng_nm":50,"alt_fmsl":0,"id":"RG","desc":"REGUE NDB"},
{"type":"NDB","hdg_t":31.8,"dist_nm":89.5,"freq":385,"lat":44.85675000,"lon":-92.98444444,"rng_nm":50,"alt_fmsl":0,"id":"BA","desc":"BABCO NDB"},
{"type":"NDB","hdg_t":129.4,"dist_nm":90.7,"freq":382,"lat":42.62216667,"lon":-92.50941667,"rng_nm":50,"alt_fmsl":0,"id":"AL","desc":"PRICE NDB"},
{"type":"VOR","hdg_t":304.9,"dist_nm":90.8,"freq":111,"lat":44.44841667,"lon":-95.82477778,"rng_nm":25,"alt_fmsl":1180,"id":"MML","desc":"MARSHALL VOR-DME"},
{"type":"VOR","hdg_t":350.2,"dist_nm":90.9,"freq":109,"lat":45.08747222,"lon":-94.45386111,"rng_nm":40,"alt_fmsl":1130,"id":"DWN","desc":"DARWIN VORTAC"},
{"type":"NDB","hdg_t":32.5,"dist_nm":91.3,"freq":400,"lat":44.87336111,"lon":-92.94200000,"rng_nm":50,"alt_fmsl":0,"id":"PPI","desc":"HOPEY NDB"},
{"type":"NDB","hdg_t":48.6,"dist_nm":91.3,"freq":394,"lat":44.58885600,"lon":-92.49213300,"rng_nm":25,"alt_fmsl":782,"id":"RGK","desc":"RED WING NDB"},
{"type":"NDB","hdg_t":247.9,"dist_nm":93.5,"freq":521,"lat":42.99138889,"lon":-96.06058333,"rng_nm":50,"alt_fmsl":0,"id":"ORC","desc":"ORANGE CITY NDB"},
{"type":"NDB","hdg_t":186.7,"dist_nm":95.4,"freq":391,"lat":42.01347222,"lon":-94.34269444,"rng_nm":50,"alt_fmsl":0,"id":"EFW","desc":"JEFFERSON NDB"},
{"type":"NDB","hdg_t":305.3,"dist_nm":95.6,"freq":253,"lat":44.50175000,"lon":-95.91097222,"rng_nm":50,"alt_fmsl":0,"id":"GB","desc":"GARNO NDB"},
{"type":"NDB","hdg_t":253.9,"dist_nm":95.8,"freq":368,"lat":43.13302778,"lon":-96.18975000,"rng_nm":50,"alt_fmsl":0,"id":"SOY","desc":"SIOUX CENTER NDB"},
{"type":"VOR","hdg_t":129.3,"dist_nm":97,"freq":112.2,"lat":42.55647222,"lon":-92.39894444,"rng_nm":130,"alt_fmsl":865,"id":"ALO","desc":"WATERLOO VORTAC"},
{"type":"VOR","hdg_t":18.1,"dist_nm":98,"freq":117.3,"lat":45.14569444,"lon":-93.37319444,"rng_nm":130,"alt_fmsl":877,"id":"GEP","desc":"GOPHER VORTAC"},
{"type":"NDB","hdg_t":284.5,"dist_nm":98.6,"freq":284,"lat":43.98616667,"lon":-96.29636111,"rng_nm":50,"alt_fmsl":0,"id":"PQN","desc":"PIPESTONE NDB"}
]
}
