{"success":true,"source":"xp2csv.pl","last_updated":"2013/11/08 14:53:21 UTC"
,"icao":"KSIV","name":"Sullivan Co","lat":39.1147125,"lon":-87.448329,"rwys":1,"ils":0,"index":1515586,"path":"w090n30/w088n39"
,"runways":[
{"len_m":1328,"wid_m":22.86,"hdg":180,"surf":"Asphalt","rwy1":"18","lat1":39.12069700,"lon1":-87.44823900,"rwy2":"36","lat2":39.10872800,"lon2":-87.44841900}
]
,"radios":[
{"type":"CTAF","freq":122.8,"desc":"CTAF/UNICOM"},
{"type":"APP","freq":119.25,"desc":"HULLMAN APP/DEP"}
]
,"navaids":[
{"type":"NDB","hdg_t":134.2,"dist_nm":0,"freq":326,"lat":39.11355556,"lon":-87.44680556,"rng_nm":50,"alt_fmsl":0,"id":"SIV","desc":"SULLIVAN NDB"},
{"type":"NDB","hdg_t":236.3,"dist_nm":10.8,"freq":391,"lat":39.01408333,"lon":-87.64161111,"rng_nm":50,"alt_fmsl":0,"id":"PLX","desc":"PALESTINE NDB"},
{"type":"VOR","hdg_t":238.2,"dist_nm":11,"freq":108.4,"lat":39.01763889,"lon":-87.64883333,"rng_nm":25,"alt_fmsl":452,"id":"RSV","desc":"CRAWFORD CO VOR-DME"},
{"type":"NDB","hdg_t":8.1,"dist_nm":16.5,"freq":245,"lat":39.38783333,"lon":-87.39769444,"rng_nm":50,"alt_fmsl":0,"id":"HU","desc":"YINNO NDB"},
{"type":"VOR","hdg_t":199.4,"dist_nm":21.9,"freq":108.8,"lat":38.76986111,"lon":-87.60383333,"rng_nm":25,"alt_fmsl":430,"id":"LWV","desc":"LAWRENCEVILLE VOR-DME"},
{"type":"VOR","hdg_t":22.4,"dist_nm":24.2,"freq":115.3,"lat":39.48894444,"lon":-87.24902778,"rng_nm":130,"alt_fmsl":606,"id":"TTH","desc":"TERRE HAUTE VORTAC"},
{"type":"NDB","hdg_t":191.2,"dist_nm":25.9,"freq":251,"lat":38.69075000,"lon":-87.55577778,"rng_nm":50,"alt_fmsl":0,"id":"OEA","desc":"VINCENNES NDB"},
{"type":"NDB","hdg_t":294,"dist_nm":28.2,"freq":359,"lat":39.30522222,"lon":-88.00194444,"rng_nm":50,"alt_fmsl":0,"id":"CZB","desc":"CASEY NDB"},
{"type":"NDB","hdg_t":149.3,"dist_nm":29.1,"freq":212,"lat":38.69605556,"lon":-87.13261111,"rng_nm":50,"alt_fmsl":0,"id":"DCY","desc":"WASHINGTON NDB"},
{"type":"NDB","hdg_t":203.3,"dist_nm":32.8,"freq":524,"lat":38.61175000,"lon":-87.72550000,"rng_nm":50,"alt_fmsl":0,"id":"AJG","desc":"MOUNT CARMEL NDB"},
{"type":"NDB","hdg_t":343.3,"dist_nm":36.5,"freq":341,"lat":39.69836111,"lon":-87.67419444,"rng_nm":50,"alt_fmsl":0,"id":"PRG","desc":"PARIS NDB"},
{"type":"NDB","hdg_t":300.4,"dist_nm":39,"freq":347,"lat":39.44241667,"lon":-88.17347222,"rng_nm":50,"alt_fmsl":0,"id":"MT","desc":"ZEBRE NDB"},
{"type":"VOR","hdg_t":87.1,"dist_nm":39,"freq":110.2,"lat":39.14383333,"lon":-86.61302778,"rng_nm":40,"alt_fmsl":845,"id":"OOM","desc":"HOOSIER VORTAC"},
{"type":"NDB","hdg_t":235.2,"dist_nm":41.4,"freq":272,"lat":38.71811111,"lon":-88.17280556,"rng_nm":50,"alt_fmsl":0,"id":"OLY","desc":"OLNEY NDB"},
{"type":"VOR","hdg_t":299.4,"dist_nm":44.6,"freq":109.4,"lat":39.47800000,"lon":-88.28605556,"rng_nm":40,"alt_fmsl":720,"id":"MTO","desc":"MATTOON VOR-DME"},
{"type":"NDB","hdg_t":39.5,"dist_nm":46.7,"freq":521,"lat":39.71408333,"lon":-86.80602778,"rng_nm":50,"alt_fmsl":0,"id":"TVX","desc":"GREENCASTLE NDB"},
{"type":"VOR","hdg_t":218.5,"dist_nm":48.1,"freq":116.6,"lat":38.48519444,"lon":-88.08580556,"rng_nm":40,"alt_fmsl":540,"id":"SAM","desc":"SAMSVILLE VOR-DME"},
{"type":"VOR","hdg_t":256.7,"dist_nm":49.7,"freq":109,"lat":38.92036111,"lon":-88.48180556,"rng_nm":40,"alt_fmsl":540,"id":"BIB","desc":"BIBLE GROVE VORTAC"},
{"type":"NDB","hdg_t":108.8,"dist_nm":50.1,"freq":344,"lat":38.83963889,"lon":-86.43636111,"rng_nm":50,"alt_fmsl":0,"id":"BFR","desc":"BEDFORD NDB"},
{"type":"NDB","hdg_t":240.7,"dist_nm":54.1,"freq":353,"lat":38.66893600,"lon":-88.45310300,"rng_nm":25,"alt_fmsl":472,"id":"FOA","desc":"ELM RIVER NDB"},
{"type":"NDB","hdg_t":128.8,"dist_nm":55.6,"freq":368,"lat":38.52783300,"lon":-86.52779400,"rng_nm":25,"alt_fmsl":615,"id":"RRJ","desc":"ORANJ NDB"},
{"type":"VOR","hdg_t":155.7,"dist_nm":56.7,"freq":109.2,"lat":38.25050000,"lon":-86.95619444,"rng_nm":25,"alt_fmsl":517,"id":"HNB","desc":"HUNTINGBURG VOR-DME"},
{"type":"NDB","hdg_t":56.9,"dist_nm":56.9,"freq":266,"lat":39.62900000,"lon":-86.41833333,"rng_nm":50,"alt_fmsl":0,"id":"IN","desc":"PULLY NDB"},
{"type":"NDB","hdg_t":57.7,"dist_nm":57,"freq":219,"lat":39.61725000,"lon":-86.40786111,"rng_nm":50,"alt_fmsl":0,"id":"OQ","desc":"BRINN NDB"},
{"type":"NDB","hdg_t":25.2,"dist_nm":57.5,"freq":388,"lat":39.98097222,"lon":-86.91572222,"rng_nm":50,"alt_fmsl":0,"id":"CFJ","desc":"CRAWFORDSVILLE NDB"},
{"type":"NDB","hdg_t":179.6,"dist_nm":59.2,"freq":219,"lat":38.12672222,"lon":-87.44072222,"rng_nm":50,"alt_fmsl":0,"id":"EV","desc":"VICCI NDB"},
{"type":"NDB","hdg_t":336.9,"dist_nm":59.4,"freq":281,"lat":40.02641667,"lon":-87.95308333,"rng_nm":50,"alt_fmsl":0,"id":"HMJ","desc":"HOMER NDB"},
{"type":"NDB","hdg_t":326.5,"dist_nm":61.3,"freq":407,"lat":39.96622222,"lon":-88.18244444,"rng_nm":50,"alt_fmsl":0,"id":"CM","desc":"VEALS NDB"},
{"type":"NDB","hdg_t":226,"dist_nm":63,"freq":257,"lat":38.38005556,"lon":-88.40977778,"rng_nm":50,"alt_fmsl":0,"id":"FWC","desc":"WAYNE CO NDB"},
{"type":"NDB","hdg_t":183.4,"dist_nm":64.5,"freq":284,"lat":38.04013889,"lon":-87.53094444,"rng_nm":50,"alt_fmsl":0,"id":"PDW","desc":"EVANSVILLE NDB"},
{"type":"VOR","hdg_t":49.7,"dist_nm":65.4,"freq":116.3,"lat":39.81472222,"lon":-86.36747222,"rng_nm":130,"alt_fmsl":823,"id":"VHP","desc":"BRICKYARD VORTAC"},
{"type":"NDB","hdg_t":60.6,"dist_nm":67.1,"freq":232,"lat":39.65686111,"lon":-86.18541667,"rng_nm":50,"alt_fmsl":0,"id":"CO","desc":"COLFA NDB"},
{"type":"VOR","hdg_t":325.4,"dist_nm":67.1,"freq":110,"lat":40.03452778,"lon":-88.27605556,"rng_nm":40,"alt_fmsl":745,"id":"CMI","desc":"CHAMPAIGN VORTAC"},
{"type":"NDB","hdg_t":285.5,"dist_nm":67.3,"freq":365,"lat":39.40669444,"lon":-88.84369444,"rng_nm":50,"alt_fmsl":0,"id":"SYZ","desc":"SHELBYVILLE NDB"},
{"type":"NDB","hdg_t":207.4,"dist_nm":68.8,"freq":332,"lat":38.09350000,"lon":-88.11963889,"rng_nm":50,"alt_fmsl":0,"id":"CUL","desc":"CARMI NDB"},
{"type":"NDB","hdg_t":63.3,"dist_nm":70.3,"freq":398,"lat":39.63266667,"lon":-86.09072222,"rng_nm":50,"alt_fmsl":0,"id":"HFY","desc":"GREENWOOD NDB"},
{"type":"NDB","hdg_t":101.6,"dist_nm":70.5,"freq":308,"lat":38.86744444,"lon":-85.97302778,"rng_nm":50,"alt_fmsl":0,"id":"EQZ","desc":"CAPTAIN NDB"},
{"type":"NDB","hdg_t":356.9,"dist_nm":70.5,"freq":332,"lat":40.28952778,"lon":-87.52975000,"rng_nm":50,"alt_fmsl":0,"id":"DN","desc":"JULIP NDB"},
{"type":"NDB","hdg_t":54.9,"dist_nm":70.7,"freq":349,"lat":39.78644444,"lon":-86.19625000,"rng_nm":50,"alt_fmsl":0,"id":"FV","desc":"LAREZ NDB"},
{"type":"VOR","hdg_t":355.9,"dist_nm":70.8,"freq":111,"lat":40.29377778,"lon":-87.55719444,"rng_nm":40,"alt_fmsl":700,"id":"DNV","desc":"DANVILLE VORTAC"},
{"type":"VOR","hdg_t":191.8,"dist_nm":72.6,"freq":113.3,"lat":37.92833333,"lon":-87.76238889,"rng_nm":130,"alt_fmsl":384,"id":"PXV","desc":"POCKET CITY VORTAC"},
{"type":"NDB","hdg_t":48,"dist_nm":74.4,"freq":248,"lat":39.93969444,"lon":-86.24872222,"rng_nm":50,"alt_fmsl":0,"id":"HZP","desc":"ZIONSVILLE NDB"},
{"type":"NDB","hdg_t":151.3,"dist_nm":74.9,"freq":206,"lat":38.01416667,"lon":-86.69019444,"rng_nm":50,"alt_fmsl":0,"id":"TEL","desc":"TELL CITY NDB"},
{"type":"VOR","hdg_t":300.1,"dist_nm":75.3,"freq":117.2,"lat":39.73752778,"lon":-88.85644444,"rng_nm":130,"alt_fmsl":708,"id":"AXC","desc":"ADDERS VORTAC"},
{"type":"NDB","hdg_t":248.8,"dist_nm":76.5,"freq":400,"lat":38.64402778,"lon":-88.96736111,"rng_nm":50,"alt_fmsl":0,"id":"SLO","desc":"SALEM NDB"},
{"type":"NDB","hdg_t":80.1,"dist_nm":77,"freq":410,"lat":39.32205556,"lon":-85.81855556,"rng_nm":50,"alt_fmsl":0,"id":"BA","desc":"CLIFS NDB"},
{"type":"VOR","hdg_t":235.1,"dist_nm":78.1,"freq":113.8,"lat":38.36194444,"lon":-88.80733333,"rng_nm":40,"alt_fmsl":558,"id":"VNN","desc":"MT VERNON VOR-DME"},
{"type":"VOR","hdg_t":269.6,"dist_nm":80,"freq":114.3,"lat":39.09369444,"lon":-89.16247222,"rng_nm":40,"alt_fmsl":604,"id":"VLA","desc":"VANDALIA VORTAC"},
{"type":"NDB","hdg_t":30.3,"dist_nm":80.5,"freq":278,"lat":40.27050000,"lon":-86.56275000,"rng_nm":50,"alt_fmsl":0,"id":"FKR","desc":"FRANKFORT NDB"},
{"type":"NDB","hdg_t":13,"dist_nm":80.7,"freq":401,"lat":40.42644444,"lon":-87.05180556,"rng_nm":50,"alt_fmsl":0,"id":"LA","desc":"EARLE NDB"},
{"type":"NDB","hdg_t":300.5,"dist_nm":80.8,"freq":275,"lat":39.79052778,"lon":-88.95388889,"rng_nm":50,"alt_fmsl":0,"id":"DE","desc":"ELWIN NDB"},
{"type":"NDB","hdg_t":52.3,"dist_nm":81.5,"freq":338,"lat":39.93769444,"lon":-86.05022222,"rng_nm":50,"alt_fmsl":0,"id":"UMP","desc":"METROPOLITAN NDB"},
{"type":"VOR","hdg_t":67.1,"dist_nm":81.6,"freq":112,"lat":39.63255556,"lon":-85.82430556,"rng_nm":40,"alt_fmsl":810,"id":"SHB","desc":"SHELBYVILLE VORTAC"},
{"type":"VOR","hdg_t":170.7,"dist_nm":83.2,"freq":108.6,"lat":37.74355556,"lon":-87.16597222,"rng_nm":25,"alt_fmsl":401,"id":"OWB","desc":"OWENSBORO VOR-DME"},
{"type":"VOR","hdg_t":11.3,"dist_nm":88.1,"freq":115.1,"lat":40.55611111,"lon":-87.06933333,"rng_nm":130,"alt_fmsl":750,"id":"BVT","desc":"BOILER VORTAC"},
{"type":"NDB","hdg_t":115,"dist_nm":88.9,"freq":331,"lat":38.47397222,"lon":-85.73722222,"rng_nm":50,"alt_fmsl":0,"id":"JV","desc":"CATCH NDB"},
{"type":"NDB","hdg_t":171.2,"dist_nm":89.6,"freq":341,"lat":37.63561111,"lon":-87.16222222,"rng_nm":50,"alt_fmsl":0,"id":"OW","desc":"HIGUY NDB"},
{"type":"VOR","hdg_t":243.1,"dist_nm":90.4,"freq":115,"lat":38.42000000,"lon":-89.15900000,"rng_nm":130,"alt_fmsl":546,"id":"ENL","desc":"CENTRALIA VORTAC"},
{"type":"VOR","hdg_t":109.7,"dist_nm":90.6,"freq":112.4,"lat":38.58883333,"lon":-85.63600000,"rng_nm":40,"alt_fmsl":710,"id":"ABB","desc":"NABB VORTAC"},
{"type":"NDB","hdg_t":286.7,"dist_nm":90.8,"freq":395,"lat":39.53611111,"lon":-89.32361111,"rng_nm":50,"alt_fmsl":0,"id":"TAZ","desc":"TAYLORVILLE NDB"},
{"type":"NDB","hdg_t":260,"dist_nm":91.5,"freq":233,"lat":38.83421400,"lon":-89.37230000,"rng_nm":25,"alt_fmsl":539,"id":"GRE","desc":"GREENVILLE NDB"},
{"type":"VOR","hdg_t":141.8,"dist_nm":92.5,"freq":108.2,"lat":37.89405556,"lon":-86.24452778,"rng_nm":40,"alt_fmsl":0,"id":"MYS","desc":"MYSTIC VOR"},
{"type":"NDB","hdg_t":213.8,"dist_nm":93.6,"freq":230,"lat":37.81158333,"lon":-88.54533333,"rng_nm":50,"alt_fmsl":0,"id":"HSB","desc":"HARRISBURG-RALEIG NDB"},
{"type":"VOR","hdg_t":339.6,"dist_nm":93.9,"freq":116.8,"lat":40.58169444,"lon":-88.16427778,"rng_nm":40,"alt_fmsl":780,"id":"RBS","desc":"ROBERTS VOR-DME"},
{"type":"NDB","hdg_t":102.2,"dist_nm":95.4,"freq":404,"lat":38.76090800,"lon":-85.46051100,"rng_nm":25,"alt_fmsl":874,"id":"IMS","desc":"MADISON NDB"},
{"type":"NDB","hdg_t":134.5,"dist_nm":97.9,"freq":396,"lat":37.95869444,"lon":-85.97663889,"rng_nm":50,"alt_fmsl":0,"id":"GOI","desc":"GODMAN NDB"},
{"type":"VOR","hdg_t":121.7,"dist_nm":99.1,"freq":112.2,"lat":38.23022222,"lon":-85.66475000,"rng_nm":25,"alt_fmsl":540,"id":"BQM","desc":"BOWMAN VOR-DME"}
]
}
