{"success":true,"source":"xp2csv.pl","last_updated":"2013/11/08 14:53:21 UTC"
,"icao":"KSKA","name":"Fairchild Afb","lat":47.615057,"lon":-117.6557735,"rwys":1,"ils":1,"index":1024609,"path":"w120n40/w118n47"
,"runways":[
{"len_m":4237,"wid_m":60.96,"hdg":66,"surf":"Concrete","rwy1":"05","lat1":47.60752800,"lon1":-117.68166100,"rwy2":"23","lat2":47.62258600,"lon2":-117.62988600}
]
,"radios":[
{"type":"GND","freq":121.85,"desc":"GND"},
{"type":"TWR","freq":126.2,"desc":"TWR"},
{"type":"APP","freq":123.75,"desc":"SPOKANE APP/DEP"},
{"type":"APP","freq":133.35,"desc":"SPOKANE APP/DEP"}
]
,"ils":[
{"type":"ILS","freq":110.3,"lat":47.62369700,"lon":-117.62608600,"rng_nm":18,"alt_fmsl":2461,"hdg":66.68,"id":"IFRC","rwy":"05","desc":"ILS-cat-I"},
{"type":"ILS","freq":110.3,"lat":47.60541700,"lon":-117.68893600,"rng_nm":18,"alt_fmsl":2461,"hdg":246.65,"id":"ISKA","rwy":"23","desc":"ILS-cat-I"},
{"type":"GS","freq":110.3,"lat":47.60738100,"lon":-117.67695600,"rng_nm":10,"alt_fmsl":2447,"id":"IFRC","rwy":"05","desc":"GS","gs":3},
{"type":"GS","freq":110.3,"lat":47.61998600,"lon":-117.63361700,"rng_nm":10,"alt_fmsl":2461,"id":"ISKA","rwy":"23","desc":"GS","gs":2.5}
]
,"navaids":[
{"type":"SDME","hdg_t":225.3,"dist_nm":0.3,"freq":111.4,"lat":47.61069400,"lon":-117.66230300,"rng_nm":40,"alt_fmsl":2460,"id":"SKA","desc":"FAIRCHILD TACAN"},
{"type":"VOR","hdg_t":158.6,"dist_nm":3.2,"freq":115.5,"lat":47.56494444,"lon":-117.62688889,"rng_nm":130,"alt_fmsl":2756,"id":"GEG","desc":"SPOKANE VORTAC"},
{"type":"NDB","hdg_t":65.8,"dist_nm":9.1,"freq":388,"lat":47.67700000,"lon":-117.45019444,"rng_nm":50,"alt_fmsl":0,"id":"CRK","desc":"CANYON NDB"},
{"type":"NDB","hdg_t":23.5,"dist_nm":23.1,"freq":365,"lat":47.96775000,"lon":-117.42633333,"rng_nm":50,"alt_fmsl":0,"id":"DPY","desc":"DEER PARK NDB"},
{"type":"NDB","hdg_t":74.5,"dist_nm":29.1,"freq":347,"lat":47.74286111,"lon":-116.96100000,"rng_nm":50,"alt_fmsl":0,"id":"LEN","desc":"POST FALLS NDB"},
{"type":"VOR","hdg_t":73.9,"dist_nm":35.1,"freq":108.8,"lat":47.77369444,"lon":-116.82058333,"rng_nm":25,"alt_fmsl":2320,"id":"COE","desc":"COEUR D'ALENE VOR-DME"},
{"type":"VOR","hdg_t":162.4,"dist_nm":59.1,"freq":109,"lat":46.67430556,"lon":-117.22350000,"rng_nm":40,"alt_fmsl":2720,"id":"PUW","desc":"PULLMAN VOR-DME"},
{"type":"NDB","hdg_t":46.9,"dist_nm":59.8,"freq":264,"lat":48.29063889,"lon":-116.56322222,"rng_nm":50,"alt_fmsl":0,"id":"SZT","desc":"SANDPOE NDB"},
{"type":"NDB","hdg_t":8.3,"dist_nm":66.4,"freq":379,"lat":48.71019444,"lon":-117.41358333,"rng_nm":50,"alt_fmsl":0,"id":"ION","desc":"IONE NDB"},
{"type":"VOR","hdg_t":250.8,"dist_nm":71.9,"freq":115,"lat":47.21086111,"lon":-119.31680556,"rng_nm":130,"alt_fmsl":1194,"id":"MWH","desc":"MOSES LAKE VOR-DME"},
{"type":"NDB","hdg_t":246.1,"dist_nm":72.5,"freq":408,"lat":47.11572222,"lon":-119.27450000,"rng_nm":50,"alt_fmsl":0,"id":"MW","desc":"PELLY NDB"},
{"type":"VOR","hdg_t":259.4,"dist_nm":73.3,"freq":112.6,"lat":47.37791667,"lon":-119.42400000,"rng_nm":130,"alt_fmsl":1250,"id":"EPH","desc":"EPHRATA VORTAC"},
{"type":"VOR","hdg_t":156.1,"dist_nm":80.7,"freq":108.2,"lat":46.38155556,"lon":-116.86950000,"rng_nm":40,"alt_fmsl":1723,"id":"MQG","desc":"NEZ PERCE VOR-DME"},
{"type":"VOR","hdg_t":95.8,"dist_nm":82.2,"freq":117.8,"lat":47.45691667,"lon":-115.64605556,"rng_nm":130,"alt_fmsl":6100,"id":"MLP","desc":"MULLAN PASS VOR-DME"},
{"type":"NDB","hdg_t":194.6,"dist_nm":89.2,"freq":353,"lat":46.17555556,"lon":-118.19636111,"rng_nm":50,"alt_fmsl":0,"id":"AL","desc":"TRINA NDB"},
{"type":"NDB","hdg_t":340.2,"dist_nm":89.6,"freq":250,"lat":49.01750000,"lon":-118.42361111,"rng_nm":50,"alt_fmsl":0,"id":"2J","desc":"GRAND FORKS NDB"},
{"type":"NDB","hdg_t":304.5,"dist_nm":90.2,"freq":219,"lat":48.45338889,"lon":-119.51700000,"rng_nm":50,"alt_fmsl":0,"id":"OMK","desc":"OMAK NDB"},
{"type":"NDB","hdg_t":216.5,"dist_nm":94.7,"freq":331,"lat":46.33813889,"lon":-119.01252778,"rng_nm":50,"alt_fmsl":0,"id":"PS","desc":"DUNEZ NDB"},
{"type":"VOR","hdg_t":196.1,"dist_nm":95.3,"freq":116.4,"lat":46.08697222,"lon":-118.29252778,"rng_nm":40,"alt_fmsl":1179,"id":"ALW","desc":"WALLA WALLA VOR-DME"},
{"type":"NDB","hdg_t":63.7,"dist_nm":96.4,"freq":414,"lat":48.30444444,"lon":-115.49527778,"rng_nm":50,"alt_fmsl":0,"id":"LYI","desc":"LIBBY NDB"},
{"type":"SDME","hdg_t":359.8,"dist_nm":98.2,"freq":110.1,"lat":49.25222200,"lon":-117.66277800,"rng_nm":25,"alt_fmsl":1695,"id":"XCG","desc":"CASTLEGAR DME"},
{"type":"NDB","hdg_t":0.4,"dist_nm":98.5,"freq":206,"lat":49.25625000,"lon":-117.63486111,"rng_nm":50,"alt_fmsl":0,"id":"EF","desc":"CHAMPION NDB"},
{"type":"NDB","hdg_t":221.9,"dist_nm":99.5,"freq":260,"lat":46.37047222,"lon":-119.25911111,"rng_nm":50,"alt_fmsl":0,"id":"RL","desc":"RIBOO NDB"}
]
}
