{"success":true,"source":"xp2csv.pl","last_updated":"2013/11/08 14:53:21 UTC"
,"icao":"KSQL","name":"San Carlos","lat":37.51173486,"lon":-122.24938573,"rwys":1,"ils":0,"index":942051,"path":"w130n30/w123n37"
,"runways":[
{"len_m":797,"wid_m":22.86,"hdg":138,"surf":"Asphalt","rwy1":"12","lat1":37.51441788,"lon1":-122.25238931,"rwy2":"30","lat2":37.50905184,"lon2":-122.24638214}
]
,"radios":[
{"type":"CTAF","freq":119,"desc":"San Carlos CTAF"},
{"type":"GND","freq":121.6,"desc":"San Carlos Ground"},
{"type":"TWR","freq":119,"desc":"San Carlos Tower"},
{"type":"APP","freq":133.95,"desc":"Norcal Approach"},
{"type":"DEP","freq":135.65,"desc":"Norcal Departure"}
]
,"navaids":[
{"type":"VOR","hdg_t":192,"dist_nm":7.3,"freq":113.9,"lat":37.39250000,"lon":-122.28130556,"rng_nm":40,"alt_fmsl":2270,"id":"OSI","desc":"WOODSIDE VORTAC"},
{"type":"VOR","hdg_t":317.4,"dist_nm":8.7,"freq":115.8,"lat":37.61947222,"lon":-122.37388889,"rng_nm":40,"alt_fmsl":13,"id":"SFO","desc":"SAN FRANCISCO VOR-DME"},
{"type":"SDME","hdg_t":117.3,"dist_nm":10.3,"freq":117.6,"lat":37.43240300,"lon":-122.05753900,"rng_nm":25,"alt_fmsl":0,"id":"NUQ","desc":"MOFFETT TACAN"},
{"type":"VOR","hdg_t":5.4,"dist_nm":12.8,"freq":116.8,"lat":37.72591667,"lon":-122.22358333,"rng_nm":130,"alt_fmsl":10,"id":"OAK","desc":"OAKLAND VORTAC"},
{"type":"VOR","hdg_t":119.3,"dist_nm":16.7,"freq":114.1,"lat":37.37472222,"lon":-121.94466667,"rng_nm":40,"alt_fmsl":43,"id":"SJC","desc":"SAN JOSE VOR-DME"},
{"type":"VOR","hdg_t":327.7,"dist_nm":24.3,"freq":116.2,"lat":37.85533333,"lon":-122.52275000,"rng_nm":40,"alt_fmsl":1040,"id":"SAU","desc":"SAUSALITO VORTAC"},
{"type":"NDB","hdg_t":67.9,"dist_nm":29,"freq":374,"lat":37.69222222,"lon":-121.68408333,"rng_nm":50,"alt_fmsl":0,"id":"LV","desc":"REIGA NDB"},
{"type":"VOR","hdg_t":16.8,"dist_nm":33.3,"freq":117,"lat":38.04491667,"lon":-122.04519444,"rng_nm":25,"alt_fmsl":5,"id":"CCR","desc":"CONCORD VOR-DME"},
{"type":"NDB","hdg_t":17.7,"dist_nm":33.6,"freq":335,"lat":38.04641667,"lon":-122.03344444,"rng_nm":50,"alt_fmsl":0,"id":"CC","desc":"KANAN NDB"},
{"type":"NDB","hdg_t":73.9,"dist_nm":39.8,"freq":203,"lat":37.69238889,"lon":-121.44463889,"rng_nm":50,"alt_fmsl":0,"id":"TCY","desc":"TRACY NDB"},
{"type":"VOR","hdg_t":351.6,"dist_nm":40.4,"freq":112.1,"lat":38.17936111,"lon":-122.37313889,"rng_nm":40,"alt_fmsl":6,"id":"SGD","desc":"SCAGGS ISLAND VORTAC"},
{"type":"NDB","hdg_t":149.3,"dist_nm":41.6,"freq":327,"lat":36.91355556,"lon":-121.80797222,"rng_nm":50,"alt_fmsl":0,"id":"PDG","desc":"PAJAR NDB"},
{"type":"VOR","hdg_t":319.3,"dist_nm":44.9,"freq":113.7,"lat":38.07975000,"lon":-122.86783333,"rng_nm":130,"alt_fmsl":1340,"id":"PYE","desc":"POINT REYES VORTAC"},
{"type":"SDME","hdg_t":18.1,"dist_nm":46.2,"freq":116.6,"lat":38.24555800,"lon":-121.94507200,"rng_nm":40,"alt_fmsl":32,"id":"SUU","desc":"TRAVIS TACAN"},
{"type":"VOR","hdg_t":22.5,"dist_nm":54,"freq":116.4,"lat":38.34419444,"lon":-121.81072222,"rng_nm":40,"alt_fmsl":0,"id":"TZZ","desc":"TRAVIS VOR"},
{"type":"VOR","hdg_t":69,"dist_nm":54.8,"freq":116,"lat":37.83361111,"lon":-121.17138889,"rng_nm":130,"alt_fmsl":47,"id":"ECA","desc":"MANTECA VOR-DME"},
{"type":"NDB","hdg_t":164.2,"dist_nm":55.4,"freq":385,"lat":36.62075000,"lon":-121.93863889,"rng_nm":50,"alt_fmsl":0,"id":"MR","desc":"MUNSO NDB"},
{"type":"VOR","hdg_t":148.3,"dist_nm":59.5,"freq":117.3,"lat":36.66383333,"lon":-121.60319444,"rng_nm":130,"alt_fmsl":101,"id":"SNS","desc":"SALINAS VORTAC"},
{"type":"VOR","hdg_t":83.1,"dist_nm":61.9,"freq":114.6,"lat":37.62736111,"lon":-120.95786111,"rng_nm":130,"alt_fmsl":93,"id":"MOD","desc":"MODESTO VOR-DME"},
{"type":"VOR","hdg_t":30.4,"dist_nm":64.9,"freq":115.2,"lat":38.44366667,"lon":-121.55161111,"rng_nm":130,"alt_fmsl":10,"id":"SAC","desc":"SACRAMENTO VORTAC"},
{"type":"VOR","hdg_t":336.1,"dist_nm":65.3,"freq":113,"lat":38.50816667,"lon":-122.81047222,"rng_nm":40,"alt_fmsl":117,"id":"STS","desc":"SANTA ROSA VOR-DME"},
{"type":"NDB","hdg_t":86.4,"dist_nm":66.6,"freq":367,"lat":37.57311111,"lon":-120.85511111,"rng_nm":50,"alt_fmsl":0,"id":"MO","desc":"WOWAR NDB"},
{"type":"VOR","hdg_t":59.9,"dist_nm":68.1,"freq":114.8,"lat":38.07458333,"lon":-121.00386111,"rng_nm":130,"alt_fmsl":260,"id":"LIN","desc":"LINDEN VORTAC"},
{"type":"NDB","hdg_t":148.4,"dist_nm":71.6,"freq":263,"lat":36.49091667,"lon":-121.47491667,"rng_nm":50,"alt_fmsl":0,"id":"UAD","desc":"CHUALAR NDB"},
{"type":"NDB","hdg_t":24.6,"dist_nm":72.9,"freq":400,"lat":38.61701700,"lon":-121.60329700,"rng_nm":25,"alt_fmsl":15,"id":"HU","desc":"LANEE NDB"},
{"type":"VOR","hdg_t":29.7,"dist_nm":80,"freq":109.2,"lat":38.66738889,"lon":-121.40416667,"rng_nm":25,"alt_fmsl":72,"id":"MCC","desc":"MC CLELLAN VOR-DME"},
{"type":"NDB","hdg_t":21.6,"dist_nm":82.8,"freq":230,"lat":38.79494444,"lon":-121.59936111,"rng_nm":50,"alt_fmsl":0,"id":"SM","desc":"METRE NDB"},
{"type":"VOR","hdg_t":159.6,"dist_nm":84.9,"freq":114,"lat":36.18130556,"lon":-121.64211111,"rng_nm":40,"alt_fmsl":4080,"id":"BSR","desc":"BIG SUR VORTAC"},
{"type":"VOR","hdg_t":123.6,"dist_nm":85.1,"freq":112.6,"lat":36.71547222,"lon":-120.77869444,"rng_nm":40,"alt_fmsl":2060,"id":"PXN","desc":"PANOCHE VORTAC"},
{"type":"VOR","hdg_t":100.6,"dist_nm":90.1,"freq":114.2,"lat":37.21944444,"lon":-120.40022222,"rng_nm":40,"alt_fmsl":184,"id":"HYP","desc":"EL NIDO VOR-DME"},
{"type":"VOR","hdg_t":6.3,"dist_nm":94,"freq":114.4,"lat":39.07113889,"lon":-122.02725000,"rng_nm":40,"alt_fmsl":50,"id":"ILA","desc":"WILLIAMS VORTAC"}
]
}
