{"success":true,"source":"xp2csv.pl","last_updated":"2013/11/08 14:53:21 UTC"
,"icao":"KSUT","name":"Brunswick Co","lat":33.929261,"lon":-78.074993,"rwys":1,"ils":0,"index":1662715,"path":"w080n30/w079n33"
,"runways":[
{"len_m":1219,"wid_m":30.48,"hdg":41,"surf":"Asphalt","rwy1":"05","lat1":33.92511400,"lon1":-78.07932200,"rwy2":"23","lat2":33.93340800,"lon2":-78.07066400}
]
,"radios":[
{"type":"ATIS","freq":124.17,"desc":"AWOS 3"},
{"type":"CTAF","freq":123,"desc":"CTAF/UNICOM"},
{"type":"APP","freq":118.25,"desc":"WILMINGTON APP/DEP"}
]
,"navaids":[
{"type":"NDB","hdg_t":153.1,"dist_nm":0,"freq":233,"lat":33.92791700,"lon":-78.07417800,"rng_nm":25,"alt_fmsl":23,"id":"SUT","desc":"YAUPON NDB"},
{"type":"NDB","hdg_t":28,"dist_nm":12,"freq":216,"lat":34.10627778,"lon":-77.96138889,"rng_nm":50,"alt_fmsl":0,"id":"CLB","desc":"CAROLINA BEACH NDB"},
{"type":"NDB","hdg_t":33.4,"dist_nm":18.8,"freq":281,"lat":34.19133333,"lon":-77.86630556,"rng_nm":50,"alt_fmsl":0,"id":"IL","desc":"AIRLI NDB"},
{"type":"SDME","hdg_t":24.2,"dist_nm":22.9,"freq":109.95,"lat":34.27885500,"lon":-77.88530000,"rng_nm":18,"alt_fmsl":1624,"id":"IGNM","desc":"KILM 06 DME"},
{"type":"VOR","hdg_t":21.4,"dist_nm":27.2,"freq":117,"lat":34.35166667,"lon":-77.87438889,"rng_nm":130,"alt_fmsl":20,"id":"ILM","desc":"WILMINGTON VORTAC"},
{"type":"NDB","hdg_t":28.1,"dist_nm":27.7,"freq":205,"lat":34.33725000,"lon":-77.81183333,"rng_nm":50,"alt_fmsl":0,"id":"GM","desc":"WILZE NDB"},
{"type":"NDB","hdg_t":264.7,"dist_nm":27.8,"freq":267,"lat":33.88525000,"lon":-78.62991667,"rng_nm":50,"alt_fmsl":0,"id":"CR","desc":"CALAB NDB"},
{"type":"VOR","hdg_t":258.1,"dist_nm":33.1,"freq":117.6,"lat":33.81386111,"lon":-78.72452778,"rng_nm":40,"alt_fmsl":20,"id":"CRE","desc":"GRAND STRAND VORTAC"},
{"type":"NDB","hdg_t":303.1,"dist_nm":37.8,"freq":227,"lat":34.27319444,"lon":-78.71197222,"rng_nm":50,"alt_fmsl":0,"id":"CPC","desc":"CAMP NDB"},
{"type":"NDB","hdg_t":328.7,"dist_nm":42,"freq":398,"lat":34.52886111,"lon":-78.51597222,"rng_nm":50,"alt_fmsl":0,"id":"TGQ","desc":"ELIZABETHTOWN NDB"},
{"type":"NDB","hdg_t":4.2,"dist_nm":47.2,"freq":379,"lat":34.71627778,"lon":-78.00358333,"rng_nm":50,"alt_fmsl":0,"id":"ACZ","desc":"PENDY NDB"},
{"type":"NDB","hdg_t":38.7,"dist_nm":49.2,"freq":198,"lat":34.56852778,"lon":-77.45294444,"rng_nm":75,"alt_fmsl":0,"id":"DIW","desc":"DIXON NDB"},
{"type":"NDB","hdg_t":20.4,"dist_nm":52.5,"freq":261,"lat":34.75050000,"lon":-77.70444444,"rng_nm":50,"alt_fmsl":0,"id":"OA","desc":"ELLAS NDB"},
{"type":"NDB","hdg_t":263.4,"dist_nm":52.9,"freq":370,"lat":33.82330556,"lon":-79.12822222,"rng_nm":50,"alt_fmsl":0,"id":"HYW","desc":"HORRY NDB"},
{"type":"SDME","hdg_t":33.9,"dist_nm":56.2,"freq":115.4,"lat":34.70713600,"lon":-77.44029700,"rng_nm":40,"alt_fmsl":74,"id":"NCA","desc":"NEW RIVER TACAN"},
{"type":"VOR","hdg_t":310.1,"dist_nm":63.6,"freq":110,"lat":34.61069444,"lon":-79.05594444,"rng_nm":25,"alt_fmsl":0,"id":"LBT","desc":"LUMBERTON VOR"},
{"type":"NDB","hdg_t":310.2,"dist_nm":63.9,"freq":359,"lat":34.61447222,"lon":-79.06091667,"rng_nm":50,"alt_fmsl":0,"id":"RSY","desc":"ROBESON NDB"},
{"type":"NDB","hdg_t":347.2,"dist_nm":64.2,"freq":412,"lat":34.97544444,"lon":-78.36305556,"rng_nm":50,"alt_fmsl":0,"id":"CTZ","desc":"CLINTON NDB"},
{"type":"NDB","hdg_t":305.2,"dist_nm":64.5,"freq":384,"lat":34.54580556,"lon":-79.13850000,"rng_nm":50,"alt_fmsl":0,"id":"JB","desc":"JIGEL NDB"},
{"type":"NDB","hdg_t":284,"dist_nm":64.5,"freq":388,"lat":34.18516667,"lon":-79.33311111,"rng_nm":50,"alt_fmsl":0,"id":"MAO","desc":"MARION NDB"},
{"type":"NDB","hdg_t":6.4,"dist_nm":68.8,"freq":332,"lat":35.07225000,"lon":-77.91886111,"rng_nm":50,"alt_fmsl":0,"id":"DKA","desc":"KENAN NDB"},
{"type":"NDB","hdg_t":296.2,"dist_nm":71.5,"freq":274,"lat":34.45013889,"lon":-79.36883333,"rng_nm":50,"alt_fmsl":0,"id":"DLC","desc":"DILLON NDB"},
{"type":"NDB","hdg_t":239.9,"dist_nm":72.5,"freq":242,"lat":33.31547222,"lon":-79.32452778,"rng_nm":50,"alt_fmsl":0,"id":"GGE","desc":"GEORGETOWN NDB"},
{"type":"NDB","hdg_t":324.1,"dist_nm":72.8,"freq":367,"lat":34.91244444,"lon":-78.93963889,"rng_nm":50,"alt_fmsl":0,"id":"GR","desc":"DOONE NDB"},
{"type":"NDB","hdg_t":260.9,"dist_nm":73.4,"freq":236,"lat":33.72850000,"lon":-79.52505556,"rng_nm":50,"alt_fmsl":0,"id":"HEK","desc":"STUCKEY NDB"},
{"type":"VOR","hdg_t":328.1,"dist_nm":74.6,"freq":108.8,"lat":34.98555556,"lon":-78.87505556,"rng_nm":40,"alt_fmsl":179,"id":"FAY","desc":"FAYETTEVILLE VOR-DME"},
{"type":"NDB","hdg_t":248.9,"dist_nm":78.1,"freq":255,"lat":33.45147222,"lon":-79.52725000,"rng_nm":50,"alt_fmsl":0,"id":"PHH","desc":"ANDREWS NDB"},
{"type":"NDB","hdg_t":13.2,"dist_nm":80.9,"freq":276,"lat":35.24391667,"lon":-77.69825000,"rng_nm":50,"alt_fmsl":0,"id":"IS","desc":"STALS NDB"},
{"type":"VOR","hdg_t":283.4,"dist_nm":80.9,"freq":115.2,"lat":34.23294444,"lon":-79.65711111,"rng_nm":130,"alt_fmsl":110,"id":"FLO","desc":"FLORENCE VORTAC"},
{"type":"NDB","hdg_t":333.4,"dist_nm":81.1,"freq":393,"lat":35.13905556,"lon":-78.81280556,"rng_nm":50,"alt_fmsl":0,"id":"FGP","desc":"FORT BRAGG NDB"},
{"type":"NDB","hdg_t":36.7,"dist_nm":81.9,"freq":362,"lat":35.02155556,"lon":-77.07950000,"rng_nm":50,"alt_fmsl":0,"id":"EW","desc":"KATFI NDB"},
{"type":"NDB","hdg_t":305.6,"dist_nm":83.3,"freq":257,"lat":34.73316667,"lon":-79.44369444,"rng_nm":50,"alt_fmsl":0,"id":"ME","desc":"MAXTN NDB"},
{"type":"SDME","hdg_t":45.2,"dist_nm":83.3,"freq":112.8,"lat":34.90222800,"lon":-76.87482200,"rng_nm":40,"alt_fmsl":30,"id":"NKT","desc":"CHERRY POINT TACAN"},
{"type":"SDME","hdg_t":3.4,"dist_nm":84.3,"freq":116.5,"lat":35.33502800,"lon":-77.97160600,"rng_nm":40,"alt_fmsl":82,"id":"GSB","desc":"SEYMOUR JOHNSON TACAN"},
{"type":"NDB","hdg_t":267.4,"dist_nm":84.5,"freq":420,"lat":33.85600000,"lon":-79.76588889,"rng_nm":50,"alt_fmsl":0,"id":"CFY","desc":"EVANS NDB"},
{"type":"NDB","hdg_t":55.2,"dist_nm":85,"freq":269,"lat":34.73122222,"lon":-76.66211111,"rng_nm":50,"alt_fmsl":0,"id":"MRH","desc":"MOREHEAD NDB"},
{"type":"VOR","hdg_t":36.4,"dist_nm":85.4,"freq":113.6,"lat":35.07313889,"lon":-77.04505556,"rng_nm":40,"alt_fmsl":10,"id":"EWN","desc":"NEW BERN VOR-DME"},
{"type":"SDME","hdg_t":328,"dist_nm":87.7,"freq":113.8,"lat":35.16848600,"lon":-79.01966900,"rng_nm":40,"alt_fmsl":240,"id":"POB","desc":"POPE TACAN"},
{"type":"NDB","hdg_t":330.9,"dist_nm":89,"freq":338,"lat":35.22683333,"lon":-78.95436111,"rng_nm":50,"alt_fmsl":0,"id":"POB","desc":"POPE NDB"},
{"type":"NDB","hdg_t":279.8,"dist_nm":89.8,"freq":335,"lat":34.17397222,"lon":-79.85250000,"rng_nm":50,"alt_fmsl":0,"id":"FL","desc":"ALCOT NDB"},
{"type":"NDB","hdg_t":262.3,"dist_nm":89.8,"freq":404,"lat":33.71777778,"lon":-79.85500000,"rng_nm":50,"alt_fmsl":0,"id":"CKI","desc":"KINGSTREE NDB"},
{"type":"VOR","hdg_t":16.3,"dist_nm":90,"freq":109.6,"lat":35.37094444,"lon":-77.55833333,"rng_nm":40,"alt_fmsl":106,"id":"ISO","desc":"KINSTON VORTAC"},
{"type":"NDB","hdg_t":297.1,"dist_nm":92.2,"freq":230,"lat":34.62022222,"lon":-79.73319444,"rng_nm":50,"alt_fmsl":0,"id":"BES","desc":"BENNETTSVILLE NDB"},
{"type":"NDB","hdg_t":349.5,"dist_nm":94.1,"freq":263,"lat":35.47497222,"lon":-78.42522222,"rng_nm":50,"alt_fmsl":0,"id":"JN","desc":"JURLY NDB"},
{"type":"NDB","hdg_t":341.9,"dist_nm":94.8,"freq":417,"lat":35.43300000,"lon":-78.67475000,"rng_nm":50,"alt_fmsl":0,"id":"HQT","desc":"HARNETT NDB"},
{"type":"NDB","hdg_t":289.3,"dist_nm":95.3,"freq":245,"lat":34.44325000,"lon":-79.88733333,"rng_nm":50,"alt_fmsl":0,"id":"UDG","desc":"DARLINGTON NDB"},
{"type":"NDB","hdg_t":313.6,"dist_nm":96,"freq":278,"lat":35.02794444,"lon":-79.48558333,"rng_nm":50,"alt_fmsl":0,"id":"HFF","desc":"MACKALL NDB"},
{"type":"NDB","hdg_t":304.9,"dist_nm":97.5,"freq":375,"lat":34.85266667,"lon":-79.69366667,"rng_nm":50,"alt_fmsl":0,"id":"RCZ","desc":"ROSCOE NDB"}
]
}
