{"success":true,"source":"xp2csv.pl","last_updated":"2013/11/08 14:53:21 UTC"
,"icao":"KSZP","name":"Santa Paula","lat":34.34722166,"lon":-119.06121501,"rwys":1,"ils":0,"index":990995,"path":"w120n30/w120n34"
,"runways":[
{"len_m":808,"wid_m":12.19,"hdg":54,"surf":"Asphalt","rwy1":"04","lat1":34.34508538,"lon1":-119.06477631,"rwy2":"22","lat2":34.34935794,"lon2":-119.05765371}
]
,"helipads":[
{"rwy1":"H1","len_m":18,"wid_m":18.29,"hdg":-119,"surf":"Asphalt","lat1":34.34722166,"lon1":-119.06121501}
]
,"navaids":[
{"type":"VOR","hdg_t":191.5,"dist_nm":8.2,"freq":115.8,"lat":34.21252778,"lon":-119.09436111,"rng_nm":40,"alt_fmsl":63,"id":"CMA","desc":"CAMARILLO VOR-DME"},
{"type":"VOR","hdg_t":86.3,"dist_nm":8.9,"freq":112.5,"lat":34.35669444,"lon":-118.88127778,"rng_nm":40,"alt_fmsl":2200,"id":"FIM","desc":"FILLMORE VORTAC"},
{"type":"SDME","hdg_t":192.7,"dist_nm":13.7,"freq":110.6,"lat":34.12329200,"lon":-119.12197800,"rng_nm":25,"alt_fmsl":6,"id":"NTD","desc":"POINT MUGU TACAN"},
{"type":"VOR","hdg_t":177.5,"dist_nm":13.9,"freq":108.2,"lat":34.11505556,"lon":-119.04950000,"rng_nm":40,"alt_fmsl":1560,"id":"VTU","desc":"VENTURA VOR-DME"},
{"type":"VOR","hdg_t":19.8,"dist_nm":29,"freq":116.1,"lat":34.80402778,"lon":-118.86136111,"rng_nm":40,"alt_fmsl":4920,"id":"GMN","desc":"GORMAN VORTAC"},
{"type":"VOR","hdg_t":104.5,"dist_nm":29.2,"freq":113.1,"lat":34.22344444,"lon":-118.49166667,"rng_nm":40,"alt_fmsl":812,"id":"VNY","desc":"VAN NUYS VOR-DME"},
{"type":"VOR","hdg_t":49.9,"dist_nm":31.3,"freq":108.4,"lat":34.68297222,"lon":-118.57694444,"rng_nm":40,"alt_fmsl":5790,"id":"LHS","desc":"LAKE HUGHES VORTAC"},
{"type":"NDB","hdg_t":99,"dist_nm":32.6,"freq":370,"lat":34.25972222,"lon":-118.41341667,"rng_nm":50,"alt_fmsl":0,"id":"PAI","desc":"PACOIMA NDB"},
{"type":"NDB","hdg_t":104.5,"dist_nm":35.1,"freq":253,"lat":34.19802778,"lon":-118.37786111,"rng_nm":50,"alt_fmsl":0,"id":"UR","desc":"VINEE NDB"},
{"type":"VOR","hdg_t":123.6,"dist_nm":36.2,"freq":110.8,"lat":34.01025000,"lon":-118.45672222,"rng_nm":40,"alt_fmsl":114,"id":"SMO","desc":"SANTA MONICA VOR-DME"},
{"type":"VOR","hdg_t":285.6,"dist_nm":36.5,"freq":114.9,"lat":34.50952778,"lon":-119.77100000,"rng_nm":130,"alt_fmsl":3623,"id":"RZS","desc":"SAN MARCUS VORTAC"},
{"type":"VOR","hdg_t":128.1,"dist_nm":39.9,"freq":113.6,"lat":33.93313889,"lon":-118.43200000,"rng_nm":130,"alt_fmsl":182,"id":"LAX","desc":"LOS ANGELES VORTAC"},
{"type":"NDB","hdg_t":120.2,"dist_nm":45.2,"freq":278,"lat":33.96434200,"lon":-118.27794400,"rng_nm":25,"alt_fmsl":136,"id":"OS","desc":"ROMEN NDB"},
{"type":"NDB","hdg_t":60.5,"dist_nm":47.9,"freq":282,"lat":34.73869444,"lon":-118.21677778,"rng_nm":50,"alt_fmsl":0,"id":"GWF","desc":"GEN WILLIAM J FO NDB"},
{"type":"NDB","hdg_t":123.8,"dist_nm":48.9,"freq":378,"lat":33.88905556,"lon":-118.24727778,"rng_nm":50,"alt_fmsl":0,"id":"CPM","desc":"COMPTON NDB"},
{"type":"VOR","hdg_t":282.4,"dist_nm":52.2,"freq":113.8,"lat":34.53133333,"lon":-120.09108333,"rng_nm":40,"alt_fmsl":2616,"id":"GVO","desc":"GAVIOTA VORTAC"},
{"type":"VOR","hdg_t":70.7,"dist_nm":52.3,"freq":114.5,"lat":34.63138889,"lon":-118.06383333,"rng_nm":130,"alt_fmsl":2498,"id":"PMD","desc":"PALMDALE VORTAC"},
{"type":"NDB","hdg_t":106.5,"dist_nm":53.5,"freq":359,"lat":34.08830556,"lon":-118.03119444,"rng_nm":50,"alt_fmsl":0,"id":"EMT","desc":"EL MONTE NDB"},
{"type":"VOR","hdg_t":318.5,"dist_nm":59.8,"freq":117.5,"lat":35.09308333,"lon":-119.86558333,"rng_nm":40,"alt_fmsl":3870,"id":"FLW","desc":"FELLOWS VORTAC"},
{"type":"NDB","hdg_t":125.5,"dist_nm":60.4,"freq":233,"lat":33.75666667,"lon":-118.07738889,"rng_nm":50,"alt_fmsl":0,"id":"LG","desc":"BECCA NDB"},
{"type":"VOR","hdg_t":123.6,"dist_nm":60.4,"freq":115.7,"lat":33.78330556,"lon":-118.05475000,"rng_nm":40,"alt_fmsl":23,"id":"SLI","desc":"SEAL BEACH VORTAC"},
{"type":"VOR","hdg_t":103.8,"dist_nm":65.4,"freq":110.4,"lat":34.07838889,"lon":-117.78708333,"rng_nm":40,"alt_fmsl":1266,"id":"POM","desc":"POMONA VORTAC"},
{"type":"VOR","hdg_t":150.9,"dist_nm":66.4,"freq":111.4,"lat":33.37505556,"lon":-118.41991667,"rng_nm":40,"alt_fmsl":2090,"id":"SXC","desc":"SANTA CATALINA VORTAC"},
{"type":"VOR","hdg_t":358.5,"dist_nm":68.1,"freq":115.4,"lat":35.48455556,"lon":-119.09730556,"rng_nm":130,"alt_fmsl":548,"id":"EHF","desc":"SHAFTER VORTAC"},
{"type":"SDME","hdg_t":196.7,"dist_nm":69.5,"freq":110.2,"lat":33.23505800,"lon":-119.45834200,"rng_nm":25,"alt_fmsl":521,"id":"NSI","desc":"SAN NICOLAS ISLAND TACAN"},
{"type":"NDB","hdg_t":123,"dist_nm":71.6,"freq":337,"lat":33.68886111,"lon":-117.86050000,"rng_nm":50,"alt_fmsl":0,"id":"NA","desc":"MAAGG NDB"},
{"type":"VOR","hdg_t":59.5,"dist_nm":75.9,"freq":116.4,"lat":34.98236111,"lon":-117.73261111,"rng_nm":40,"alt_fmsl":2354,"id":"EDW","desc":"EDWARDS VORTAC"},
{"type":"VOR","hdg_t":120.8,"dist_nm":77.5,"freq":117.2,"lat":33.67602778,"lon":-117.73108333,"rng_nm":25,"alt_fmsl":336,"id":"ELB","desc":"EL TORO VOR-DME"},
{"type":"SDME","hdg_t":287.4,"dist_nm":78.8,"freq":112.25,"lat":34.73255000,"lon":-120.58305600,"rng_nm":40,"alt_fmsl":370,"id":"VBG","desc":"VANDENBERG TACAN"},
{"type":"VOR","hdg_t":108.1,"dist_nm":80.4,"freq":112.2,"lat":33.91833333,"lon":-117.53000000,"rng_nm":130,"alt_fmsl":1432,"id":"PDZ","desc":"PARADISE VORTAC"},
{"type":"VOR","hdg_t":297,"dist_nm":80.8,"freq":111,"lat":34.95236111,"lon":-120.52147222,"rng_nm":25,"alt_fmsl":0,"id":"GLJ","desc":"GUADALUPE VOR"},
{"type":"SDME","hdg_t":162.9,"dist_nm":82.6,"freq":117.6,"lat":33.02692800,"lon":-118.57959400,"rng_nm":25,"alt_fmsl":161,"id":"NUC","desc":"SAN CLEMENTE TACAN"},
{"type":"VOR","hdg_t":105.8,"dist_nm":83.6,"freq":112.4,"lat":33.95519444,"lon":-117.44983333,"rng_nm":25,"alt_fmsl":0,"id":"RAL","desc":"RIVERSIDE VOR"},
{"type":"VOR","hdg_t":79.4,"dist_nm":84.2,"freq":109.4,"lat":34.59416667,"lon":-117.39000000,"rng_nm":25,"alt_fmsl":2855,"id":"VCV","desc":"VICTORVILLE VOR-DME"},
{"type":"NDB","hdg_t":101.1,"dist_nm":86.1,"freq":397,"lat":34.05647222,"lon":-117.36611111,"rng_nm":50,"alt_fmsl":0,"id":"SB","desc":"PETIS (LOM/NDB) NDB"},
{"type":"VOR","hdg_t":330.1,"dist_nm":90,"freq":117.1,"lat":35.64697222,"lon":-119.97861111,"rng_nm":130,"alt_fmsl":710,"id":"AVE","desc":"AVENAL VORTAC"},
{"type":"SDME","hdg_t":106,"dist_nm":92.8,"freq":113,"lat":33.90646400,"lon":-117.27503300,"rng_nm":25,"alt_fmsl":1540,"id":"RIV","desc":"MARCH TACAN"},
{"type":"SDME","hdg_t":160.3,"dist_nm":93.2,"freq":113.9,"lat":32.88003600,"lon":-118.44088300,"rng_nm":130,"alt_fmsl":2000,"id":"NSD","desc":"BEAVER TACAN"},
{"type":"VOR","hdg_t":1.2,"dist_nm":93.8,"freq":109.2,"lat":35.91305556,"lon":-119.02080556,"rng_nm":40,"alt_fmsl":580,"id":"TTE","desc":"TULE VOR-DME"},
{"type":"VOR","hdg_t":109.5,"dist_nm":99.5,"freq":113.4,"lat":33.77633333,"lon":-117.18533333,"rng_nm":25,"alt_fmsl":0,"id":"HDF","desc":"HOMELAND VOR"},
{"type":"VOR","hdg_t":303.3,"dist_nm":99.9,"freq":112.4,"lat":35.25225000,"lon":-120.75955556,"rng_nm":40,"alt_fmsl":1463,"id":"MQO","desc":"MORRO BAY VORTAC"}
]
}
