{"success":true,"source":"xp2csv.pl","last_updated":"2013/11/08 14:53:21 UTC"
,"icao":"KTLR","name":"Mefford Fld","lat":36.1560625,"lon":-119.3265045,"rwys":1,"ils":0,"index":991114,"path":"w120n30/w120n36"
,"runways":[
{"len_m":1192,"wid_m":22.86,"hdg":146,"surf":"Asphalt","rwy1":"13","lat1":36.16056900,"lon1":-119.33011700,"rwy2":"31","lat2":36.15155600,"lon2":-119.32289200}
]
,"radios":[
{"type":"CTAF","freq":122.7,"desc":"CTAF/UNICOM"},
{"type":"APP","freq":118.5,"desc":"FRESNO APP/DEP"}
]
,"navaids":[
{"type":"NDB","hdg_t":241.5,"dist_nm":11.3,"freq":205,"lat":36.06605556,"lon":-119.53094444,"rng_nm":50,"alt_fmsl":0,"id":"COR","desc":"SALYER FARMS NDB"},
{"type":"VOR","hdg_t":329.2,"dist_nm":14.7,"freq":109.4,"lat":36.36730556,"lon":-119.48216667,"rng_nm":25,"alt_fmsl":260,"id":"VIS","desc":"VISALIA VOR-DME"},
{"type":"VOR","hdg_t":134.2,"dist_nm":20.8,"freq":109.2,"lat":35.91305556,"lon":-119.02080556,"rng_nm":40,"alt_fmsl":580,"id":"TTE","desc":"TULE VOR-DME"},
{"type":"SDME","hdg_t":290.1,"dist_nm":33,"freq":113.3,"lat":36.34409700,"lon":-119.96631700,"rng_nm":25,"alt_fmsl":231,"id":"NLC","desc":"LEMOORE TACAN"},
{"type":"VOR","hdg_t":164.3,"dist_nm":41.7,"freq":115.4,"lat":35.48455556,"lon":-119.09730556,"rng_nm":130,"alt_fmsl":548,"id":"EHF","desc":"SHAFTER VORTAC"},
{"type":"NDB","hdg_t":324.3,"dist_nm":41.9,"freq":344,"lat":36.72394444,"lon":-119.83369444,"rng_nm":50,"alt_fmsl":0,"id":"FCH","desc":"CHANDLER NDB"},
{"type":"VOR","hdg_t":226.3,"dist_nm":44,"freq":117.1,"lat":35.64697222,"lon":-119.97861111,"rng_nm":130,"alt_fmsl":710,"id":"AVE","desc":"AVENAL VORTAC"},
{"type":"VOR","hdg_t":331.7,"dist_nm":49.6,"freq":112.9,"lat":36.88433333,"lon":-119.81513889,"rng_nm":130,"alt_fmsl":360,"id":"CZQ","desc":"CLOVIS VORTAC"},
{"type":"VOR","hdg_t":347.2,"dist_nm":58.2,"freq":115.6,"lat":37.10441667,"lon":-119.59544444,"rng_nm":40,"alt_fmsl":2380,"id":"FRA","desc":"FRIANT VORTAC"},
{"type":"VOR","hdg_t":269.5,"dist_nm":65,"freq":110,"lat":36.14038889,"lon":-120.66491667,"rng_nm":40,"alt_fmsl":0,"id":"ROM","desc":"PRIEST VOR"},
{"type":"VOR","hdg_t":202.6,"dist_nm":68.9,"freq":117.5,"lat":35.09308333,"lon":-119.86558333,"rng_nm":40,"alt_fmsl":3870,"id":"FLW","desc":"FELLOWS VORTAC"},
{"type":"VOR","hdg_t":245.8,"dist_nm":69.6,"freq":114.3,"lat":35.67247222,"lon":-120.62711111,"rng_nm":40,"alt_fmsl":817,"id":"PRB","desc":"PASO ROBLES VORTAC"},
{"type":"VOR","hdg_t":295.9,"dist_nm":77.8,"freq":112.6,"lat":36.71547222,"lon":-120.77869444,"rng_nm":40,"alt_fmsl":2060,"id":"PXN","desc":"PANOCHE VORTAC"},
{"type":"VOR","hdg_t":321.2,"dist_nm":82.1,"freq":114.2,"lat":37.21944444,"lon":-120.40022222,"rng_nm":40,"alt_fmsl":184,"id":"HYP","desc":"EL NIDO VOR-DME"},
{"type":"VOR","hdg_t":164.1,"dist_nm":84.1,"freq":116.1,"lat":34.80402778,"lon":-118.86136111,"rng_nm":40,"alt_fmsl":4920,"id":"GMN","desc":"GORMAN VORTAC"},
{"type":"SDME","hdg_t":108.8,"dist_nm":84.5,"freq":111.6,"lat":35.68792800,"lon":-117.69047200,"rng_nm":25,"alt_fmsl":2272,"id":"NID","desc":"CHINA LAKE TACAN"},
{"type":"VOR","hdg_t":32,"dist_nm":86.5,"freq":109.6,"lat":37.37694444,"lon":-118.36652778,"rng_nm":25,"alt_fmsl":4117,"id":"BIH","desc":"BISHOP VOR-DME"},
{"type":"VOR","hdg_t":232.7,"dist_nm":88.5,"freq":112.4,"lat":35.25225000,"lon":-120.75955556,"rng_nm":40,"alt_fmsl":1463,"id":"MQO","desc":"MORRO BAY VORTAC"},
{"type":"NDB","hdg_t":263.2,"dist_nm":91.3,"freq":209,"lat":35.96116667,"lon":-121.18916667,"rng_nm":50,"alt_fmsl":0,"id":"HGT","desc":"HUNTER LIGGETT NDB"},
{"type":"VOR","hdg_t":219.4,"dist_nm":92.8,"freq":111,"lat":34.95236111,"lon":-120.52147222,"rng_nm":25,"alt_fmsl":0,"id":"GLJ","desc":"GUADALUPE VOR"},
{"type":"VOR","hdg_t":157.1,"dist_nm":95.5,"freq":108.4,"lat":34.68297222,"lon":-118.57694444,"rng_nm":40,"alt_fmsl":5790,"id":"LHS","desc":"LAKE HUGHES VORTAC"}
]
}
