{"success":true,"source":"xp2csv.pl","last_updated":"2013/11/08 14:53:21 UTC"
,"icao":"KTQK","name":"Scott City Muni","lat":38.47547575,"lon":-100.885036,"rwys":2,"ils":0,"index":1302552,"path":"w110n30/w101n38"
,"runways":[
{"len_m":1523,"wid_m":21.34,"hdg":179,"surf":"Asphalt","rwy1":"17","lat1":38.48115000,"lon1":-100.88503300,"rwy2":"35","lat2":38.46742500,"lon2":-100.88483100},
{"len_m":605,"wid_m":18.29,"hdg":89,"surf":"Turf/grass","rwy1":"08","lat1":38.47666400,"lon1":-100.88861100,"rwy2":"26","lat2":38.47666400,"lon2":-100.88166900}
]
,"radios":[
{"type":"ATIS","freq":120,"desc":"AWOS 3"},
{"type":"CTAF","freq":122.8,"desc":"CTAF/UNICOM"}
]
,"navaids":[
{"type":"NDB","hdg_t":330.9,"dist_nm":0.3,"freq":256,"lat":38.48013889,"lon":-100.88833333,"rng_nm":50,"alt_fmsl":0,"id":"TQK","desc":"SCOTT CITY NDB"},
{"type":"VOR","hdg_t":167.1,"dist_nm":34.1,"freq":113.3,"lat":37.91905556,"lon":-100.72505556,"rng_nm":130,"alt_fmsl":2877,"id":"GCK","desc":"GARDEN CITY VORTAC"},
{"type":"NDB","hdg_t":4.8,"dist_nm":38.3,"freq":380,"lat":39.11252778,"lon":-100.81530556,"rng_nm":50,"alt_fmsl":0,"id":"OEL","desc":"OAKLEY NDB"},
{"type":"NDB","hdg_t":168.8,"dist_nm":39.4,"freq":347,"lat":37.82897222,"lon":-100.72436111,"rng_nm":50,"alt_fmsl":0,"id":"GC","desc":"PIEVE NDB"},
{"type":"VOR","hdg_t":131.7,"dist_nm":55.9,"freq":108.2,"lat":37.85058333,"lon":-100.00563889,"rng_nm":40,"alt_fmsl":2565,"id":"DDC","desc":"DODGE CITY VORTAC"},
{"type":"VOR","hdg_t":33.1,"dist_nm":56.2,"freq":113.7,"lat":39.25875000,"lon":-100.22586111,"rng_nm":130,"alt_fmsl":2690,"id":"HLC","desc":"HILL CITY VORTAC"},
{"type":"NDB","hdg_t":203.6,"dist_nm":57.4,"freq":395,"lat":37.59711111,"lon":-101.36802778,"rng_nm":50,"alt_fmsl":0,"id":"ULS","desc":"ULYSSES NDB"},
{"type":"NDB","hdg_t":325.8,"dist_nm":59.4,"freq":414,"lat":39.29383333,"lon":-101.60030556,"rng_nm":50,"alt_fmsl":0,"id":"GL","desc":"SHUGR NDB"},
{"type":"NDB","hdg_t":353,"dist_nm":62.4,"freq":408,"lat":39.50986111,"lon":-101.04763889,"rng_nm":50,"alt_fmsl":0,"id":"JDM","desc":"WHEATFIELD NDB"},
{"type":"NDB","hdg_t":218.9,"dist_nm":64.4,"freq":341,"lat":37.63558333,"lon":-101.73461111,"rng_nm":50,"alt_fmsl":0,"id":"JHN","desc":"BEAR CREEK NDB"},
{"type":"VOR","hdg_t":325.6,"dist_nm":66.4,"freq":115.1,"lat":39.38786111,"lon":-101.69230556,"rng_nm":130,"alt_fmsl":3650,"id":"GLD","desc":"GOODLAND VORTAC"},
{"type":"NDB","hdg_t":76.5,"dist_nm":78.8,"freq":374,"lat":38.76922222,"lon":-99.25127778,"rng_nm":50,"alt_fmsl":0,"id":"HY","desc":"NETTE NDB"},
{"type":"VOR","hdg_t":73,"dist_nm":78.8,"freq":110.4,"lat":38.84766667,"lon":-99.27677778,"rng_nm":40,"alt_fmsl":1990,"id":"HYS","desc":"HAYS VORTAC"},
{"type":"NDB","hdg_t":305.6,"dist_nm":80.1,"freq":209,"lat":39.24625000,"lon":-102.28383333,"rng_nm":50,"alt_fmsl":0,"id":"ITR","desc":"KIT CARSON NDB"},
{"type":"NDB","hdg_t":196.6,"dist_nm":81.9,"freq":365,"lat":37.16361111,"lon":-101.37472222,"rng_nm":50,"alt_fmsl":0,"id":"HQG","desc":"HUGOTON NDB"},
{"type":"NDB","hdg_t":354.8,"dist_nm":82,"freq":365,"lat":39.83863889,"lon":-101.04505556,"rng_nm":50,"alt_fmsl":0,"id":"ADT","desc":"ATWOOD NDB"},
{"type":"NDB","hdg_t":11.1,"dist_nm":82.7,"freq":341,"lat":39.82972222,"lon":-100.53763889,"rng_nm":50,"alt_fmsl":0,"id":"OIN","desc":"OBERLIN NDB"},
{"type":"NDB","hdg_t":331.5,"dist_nm":85.5,"freq":386,"lat":39.72694444,"lon":-101.76488889,"rng_nm":50,"alt_fmsl":0,"id":"SYF","desc":"SAINT FRANCIS NDB"},
{"type":"VOR","hdg_t":182.7,"dist_nm":85.8,"freq":112.3,"lat":37.04438889,"lon":-100.97119444,"rng_nm":130,"alt_fmsl":2891,"id":"LBL","desc":"LIBERAL VORTAC"},
{"type":"NDB","hdg_t":100.2,"dist_nm":86.3,"freq":296,"lat":38.20436111,"lon":-99.08791667,"rng_nm":50,"alt_fmsl":0,"id":"LQR","desc":"LARNED NDB"},
{"type":"VOR","hdg_t":259.4,"dist_nm":86.7,"freq":116.9,"lat":38.19708333,"lon":-102.68752778,"rng_nm":130,"alt_fmsl":3944,"id":"LAA","desc":"LAMAR VORTAC"},
{"type":"NDB","hdg_t":182.1,"dist_nm":90.6,"freq":383,"lat":36.96455556,"lon":-100.95627778,"rng_nm":50,"alt_fmsl":0,"id":"LB","desc":"PANCK NDB"},
{"type":"NDB","hdg_t":93.6,"dist_nm":93.7,"freq":338,"lat":38.35908333,"lon":-98.90288889,"rng_nm":50,"alt_fmsl":0,"id":"HIL","desc":"HILYN NDB"},
{"type":"NDB","hdg_t":28.9,"dist_nm":94.8,"freq":230,"lat":39.85527778,"lon":-99.89030556,"rng_nm":50,"alt_fmsl":0,"id":"NRN","desc":"NORTON NDB"},
{"type":"NDB","hdg_t":97.3,"dist_nm":96.6,"freq":419,"lat":38.25169444,"lon":-98.85580556,"rng_nm":50,"alt_fmsl":0,"id":"GB","desc":"BABSY NDB"}
]
}
