{"success":true,"source":"xp2csv.pl","last_updated":"2013/11/08 14:53:21 UTC"
,"icao":"KTTA","name":"Sanford Lee Co Rgnl","lat":35.5823585,"lon":-79.101361,"rwys":1,"ils":1,"index":1646435,"path":"w080n30/w080n35"
,"runways":[
{"len_m":2002,"wid_m":30.48,"hdg":20,"surf":"Asphalt","rwy1":"03","lat1":35.57391100,"lon1":-79.10525000,"rwy2":"21","lat2":35.59080600,"lon2":-79.09747200}
]
,"radios":[
{"type":"ATIS","freq":120.62,"desc":"AWOS 3"},
{"type":"CTAF","freq":123.07,"desc":"CTAF/UNICOM"},
{"type":"CLD","freq":135.07,"desc":"RALEIGH CLNC DEL"},
{"type":"APP","freq":125.3,"desc":"RALEIGH APP DEP"}
]
,"ils":[
{"type":"ILS","freq":110.75,"lat":35.59207256,"lon":-79.09688957,"rng_nm":18,"alt_fmsl":247,"hdg":20.53,"id":"ITTA","rwy":"03","desc":"ILS-cat-I"},
{"type":"GS","freq":110.75,"lat":35.57619127,"lon":-79.10311997,"rng_nm":10,"alt_fmsl":247,"id":"ITTA","rwy":"03","desc":"GS","gs":3},
{"type":"DME","freq":110.75,"lat":35.59207256,"lon":-79.09688957,"rng_nm":18,"alt_fmsl":247,"id":"ITTA","rwy":"03","desc":"DME-ILS"}
]
,"navaids":[
{"type":"NDB","hdg_t":200.3,"dist_nm":5.4,"freq":406,"lat":35.49730556,"lon":-79.13991667,"rng_nm":50,"alt_fmsl":0,"id":"TT","desc":"LEECO NDB"},
{"type":"NDB","hdg_t":301.4,"dist_nm":20.6,"freq":371,"lat":35.76152778,"lon":-79.46225000,"rng_nm":50,"alt_fmsl":0,"id":"TOX","desc":"SILER CITY NDB"},
{"type":"NDB","hdg_t":161.2,"dist_nm":22.4,"freq":338,"lat":35.22683333,"lon":-78.95436111,"rng_nm":50,"alt_fmsl":0,"id":"POB","desc":"POPE NDB"},
{"type":"NDB","hdg_t":113,"dist_nm":22.7,"freq":417,"lat":35.43300000,"lon":-78.67475000,"rng_nm":50,"alt_fmsl":0,"id":"HQT","desc":"HARNETT NDB"},
{"type":"VOR","hdg_t":41.6,"dist_nm":23.3,"freq":117.2,"lat":35.87252778,"lon":-78.78333333,"rng_nm":130,"alt_fmsl":429,"id":"RDU","desc":"RALEIGH/DURHAM VORTAC"},
{"type":"SDME","hdg_t":170.7,"dist_nm":25.1,"freq":113.8,"lat":35.16848600,"lon":-79.01966900,"rng_nm":40,"alt_fmsl":240,"id":"POB","desc":"POPE TACAN"},
{"type":"NDB","hdg_t":41.7,"dist_nm":27.7,"freq":350,"lat":35.92722222,"lon":-78.72191667,"rng_nm":50,"alt_fmsl":0,"id":"LE","desc":"LEEVY NDB"},
{"type":"VOR","hdg_t":298.9,"dist_nm":28.5,"freq":113,"lat":35.81163889,"lon":-79.61261111,"rng_nm":40,"alt_fmsl":830,"id":"LIB","desc":"LIBERTY VORTAC"},
{"type":"NDB","hdg_t":151.8,"dist_nm":30,"freq":393,"lat":35.13905556,"lon":-78.81280556,"rng_nm":50,"alt_fmsl":0,"id":"FGP","desc":"FORT BRAGG NDB"},
{"type":"VOR","hdg_t":227.4,"dist_nm":32.4,"freq":111.8,"lat":35.21547222,"lon":-79.58794444,"rng_nm":40,"alt_fmsl":590,"id":"SDZ","desc":"SANDHILLS VORTAC"},
{"type":"NDB","hdg_t":315.2,"dist_nm":33.4,"freq":361,"lat":35.97811111,"lon":-79.58483333,"rng_nm":50,"alt_fmsl":0,"id":"HB","desc":"ALAMM NDB"},
{"type":"NDB","hdg_t":100.7,"dist_nm":33.7,"freq":263,"lat":35.47497222,"lon":-78.42522222,"rng_nm":50,"alt_fmsl":0,"id":"JN","desc":"JURLY NDB"},
{"type":"VOR","hdg_t":162.6,"dist_nm":37.4,"freq":108.8,"lat":34.98555556,"lon":-78.87505556,"rng_nm":40,"alt_fmsl":179,"id":"FAY","desc":"FAYETTEVILLE VOR-DME"},
{"type":"NDB","hdg_t":209.7,"dist_nm":38.1,"freq":278,"lat":35.02794444,"lon":-79.48558333,"rng_nm":50,"alt_fmsl":0,"id":"HFF","desc":"MACKALL NDB"},
{"type":"NDB","hdg_t":282.3,"dist_nm":38.2,"freq":266,"lat":35.71625000,"lon":-79.86530556,"rng_nm":50,"alt_fmsl":0,"id":"CQJ","desc":"CITY LAKE NDB"},
{"type":"NDB","hdg_t":2.5,"dist_nm":39,"freq":220,"lat":36.23327778,"lon":-79.06588889,"rng_nm":50,"alt_fmsl":0,"id":"HUR","desc":"PERSON(LOM/NDB) NDB"},
{"type":"NDB","hdg_t":168.7,"dist_nm":40.9,"freq":367,"lat":34.91244444,"lon":-78.93963889,"rng_nm":50,"alt_fmsl":0,"id":"GR","desc":"DOONE NDB"},
{"type":"NDB","hdg_t":263.6,"dist_nm":48.4,"freq":346,"lat":35.48916667,"lon":-80.08341667,"rng_nm":50,"alt_fmsl":0,"id":"VU","desc":"ALLER NDB"},
{"type":"NDB","hdg_t":28.5,"dist_nm":49,"freq":271,"lat":36.30122222,"lon":-78.61850000,"rng_nm":50,"alt_fmsl":0,"id":"HXO","desc":"HUNTSBORO NDB"},
{"type":"SDME","hdg_t":308.7,"dist_nm":50.8,"freq":111.9,"lat":36.11145556,"lon":-79.91745278,"rng_nm":18,"alt_fmsl":882,"id":"ILZY","desc":"KGSO 05R DME-ILS DME"},
{"type":"VOR","hdg_t":303.2,"dist_nm":50.9,"freq":116.2,"lat":36.04569444,"lon":-79.97638889,"rng_nm":130,"alt_fmsl":879,"id":"GSO","desc":"GREENSBORO VORTAC"},
{"type":"NDB","hdg_t":134.8,"dist_nm":51.3,"freq":412,"lat":34.97544444,"lon":-78.36305556,"rng_nm":50,"alt_fmsl":0,"id":"CTZ","desc":"CLINTON NDB"},
{"type":"SDME","hdg_t":308.5,"dist_nm":51.8,"freq":109.55,"lat":36.11876111,"lon":-79.93550833,"rng_nm":18,"alt_fmsl":882,"id":"ILLG","desc":"KGSO 05L DME-ILS DME"},
{"type":"SDME","hdg_t":306.5,"dist_nm":52.1,"freq":109.7,"lat":36.09776389,"lon":-79.96214444,"rng_nm":18,"alt_fmsl":925,"id":"IIDB","desc":"KGSO 23R DME-ILS DME"},
{"type":"NDB","hdg_t":213.8,"dist_nm":52.5,"freq":375,"lat":34.85266667,"lon":-79.69366667,"rng_nm":50,"alt_fmsl":0,"id":"RCZ","desc":"ROSCOE NDB"},
{"type":"NDB","hdg_t":198.4,"dist_nm":53.5,"freq":257,"lat":34.73316667,"lon":-79.44369444,"rng_nm":50,"alt_fmsl":0,"id":"ME","desc":"MAXTN NDB"},
{"type":"NDB","hdg_t":78.3,"dist_nm":56.6,"freq":235,"lat":35.76765800,"lon":-77.96459700,"rng_nm":25,"alt_fmsl":158,"id":"RW","desc":"JAMBE NDB"},
{"type":"SDME","hdg_t":104.6,"dist_nm":57.3,"freq":116.5,"lat":35.33502800,"lon":-77.97160600,"rng_nm":40,"alt_fmsl":82,"id":"GSB","desc":"SEYMOUR JOHNSON TACAN"},
{"type":"NDB","hdg_t":307.8,"dist_nm":57.4,"freq":254,"lat":36.16697222,"lon":-80.03563889,"rng_nm":50,"alt_fmsl":0,"id":"GS","desc":"MARKY NDB"},
{"type":"NDB","hdg_t":326.2,"dist_nm":57.7,"freq":423,"lat":36.38169444,"lon":-79.76277778,"rng_nm":50,"alt_fmsl":0,"id":"SIF","desc":"SLAMMER NDB"},
{"type":"NDB","hdg_t":178,"dist_nm":58,"freq":359,"lat":34.61447222,"lon":-79.06091667,"rng_nm":50,"alt_fmsl":0,"id":"RSY","desc":"ROBESON NDB"},
{"type":"VOR","hdg_t":177.7,"dist_nm":58.2,"freq":110,"lat":34.61069444,"lon":-79.05594444,"rng_nm":25,"alt_fmsl":0,"id":"LBT","desc":"LUMBERTON VOR"},
{"type":"NDB","hdg_t":235.5,"dist_nm":58.6,"freq":283,"lat":35.02398100,"lon":-80.08299700,"rng_nm":25,"alt_fmsl":302,"id":"AFP","desc":"ANSON CO NDB"},
{"type":"NDB","hdg_t":299.6,"dist_nm":59.6,"freq":317,"lat":36.07091667,"lon":-80.16683333,"rng_nm":50,"alt_fmsl":0,"id":"IN","desc":"REENO NDB"},
{"type":"VOR","hdg_t":349.1,"dist_nm":60.2,"freq":113.1,"lat":36.56886111,"lon":-79.33669444,"rng_nm":40,"alt_fmsl":0,"id":"DAN","desc":"DANVILLE VOR"},
{"type":"NDB","hdg_t":181.6,"dist_nm":62.1,"freq":384,"lat":34.54580556,"lon":-79.13850000,"rng_nm":50,"alt_fmsl":0,"id":"JB","desc":"JIGEL NDB"},
{"type":"NDB","hdg_t":216.9,"dist_nm":62.8,"freq":409,"lat":34.74183333,"lon":-79.86561111,"rng_nm":50,"alt_fmsl":0,"id":"CQW","desc":"CHERAW NDB"},
{"type":"NDB","hdg_t":208.5,"dist_nm":65.4,"freq":230,"lat":34.62022222,"lon":-79.73319444,"rng_nm":50,"alt_fmsl":0,"id":"BES","desc":"BENNETTSVILLE NDB"},
{"type":"NDB","hdg_t":117.4,"dist_nm":65.6,"freq":332,"lat":35.07225000,"lon":-77.91886111,"rng_nm":50,"alt_fmsl":0,"id":"DKA","desc":"KENAN NDB"},
{"type":"VOR","hdg_t":3.6,"dist_nm":65.6,"freq":110.4,"lat":36.67502778,"lon":-79.01450000,"rng_nm":40,"alt_fmsl":530,"id":"SBV","desc":"SOUTH BOSTON VORTAC"},
{"type":"NDB","hdg_t":277.9,"dist_nm":68.4,"freq":275,"lat":35.73311111,"lon":-80.48955556,"rng_nm":50,"alt_fmsl":0,"id":"RU","desc":"ROVDY (LOM/NDB) NDB"},
{"type":"NDB","hdg_t":287,"dist_nm":69,"freq":354,"lat":35.91346900,"lon":-80.45616700,"rng_nm":25,"alt_fmsl":810,"id":"DVZ","desc":"DAVIE NDB"},
{"type":"NDB","hdg_t":191,"dist_nm":69,"freq":274,"lat":34.45013889,"lon":-79.36883333,"rng_nm":50,"alt_fmsl":0,"id":"DLC","desc":"DILLON NDB"},
{"type":"NDB","hdg_t":155.2,"dist_nm":69.3,"freq":398,"lat":34.52886111,"lon":-78.51597222,"rng_nm":50,"alt_fmsl":0,"id":"TGQ","desc":"ELIZABETHTOWN NDB"},
{"type":"NDB","hdg_t":106,"dist_nm":71.7,"freq":276,"lat":35.24391667,"lon":-77.69825000,"rng_nm":50,"alt_fmsl":0,"id":"IS","desc":"STALS NDB"},
{"type":"NDB","hdg_t":326.9,"dist_nm":72.2,"freq":396,"lat":36.59008333,"lon":-79.91744444,"rng_nm":50,"alt_fmsl":0,"id":"UV","desc":"BALES NDB"},
{"type":"VOR","hdg_t":70.4,"dist_nm":72.2,"freq":117.8,"lat":35.97677778,"lon":-77.70375000,"rng_nm":40,"alt_fmsl":70,"id":"TYI","desc":"TAR RIVER VORTAC"},
{"type":"NDB","hdg_t":133.5,"dist_nm":74.8,"freq":379,"lat":34.71627778,"lon":-78.00358333,"rng_nm":50,"alt_fmsl":0,"id":"ACZ","desc":"PENDY NDB"},
{"type":"VOR","hdg_t":99,"dist_nm":76.6,"freq":109.6,"lat":35.37094444,"lon":-77.55833333,"rng_nm":40,"alt_fmsl":106,"id":"ISO","desc":"KINSTON VORTAC"},
{"type":"NDB","hdg_t":209.8,"dist_nm":78.4,"freq":245,"lat":34.44325000,"lon":-79.88733333,"rng_nm":50,"alt_fmsl":0,"id":"UDG","desc":"DARLINGTON NDB"},
{"type":"NDB","hdg_t":230.8,"dist_nm":78.8,"freq":270,"lat":34.74497222,"lon":-80.33808333,"rng_nm":50,"alt_fmsl":0,"id":"PYG","desc":"PAGELAND NDB"},
{"type":"NDB","hdg_t":73.9,"dist_nm":78.8,"freq":257,"lat":35.93544444,"lon":-77.54636111,"rng_nm":50,"alt_fmsl":0,"id":"ETC","desc":"TARBORO NDB"},
{"type":"NDB","hdg_t":39.1,"dist_nm":80.1,"freq":373,"lat":36.61455556,"lon":-78.05316667,"rng_nm":50,"alt_fmsl":0,"id":"AEA","desc":"JONES NDB"},
{"type":"VOR","hdg_t":226.3,"dist_nm":80.3,"freq":108.2,"lat":34.65047222,"lon":-80.27491667,"rng_nm":40,"alt_fmsl":560,"id":"CTF","desc":"CHESTERFIELD VOR-DME"},
{"type":"NDB","hdg_t":166.1,"dist_nm":80.7,"freq":227,"lat":34.27319444,"lon":-78.71197222,"rng_nm":50,"alt_fmsl":0,"id":"CPC","desc":"CAMP NDB"},
{"type":"NDB","hdg_t":187.8,"dist_nm":84.4,"freq":388,"lat":34.18516667,"lon":-79.33311111,"rng_nm":50,"alt_fmsl":0,"id":"MAO","desc":"MARION NDB"},
{"type":"NDB","hdg_t":125.5,"dist_nm":84.8,"freq":261,"lat":34.75050000,"lon":-77.70444444,"rng_nm":50,"alt_fmsl":0,"id":"OA","desc":"ELLAS NDB"},
{"type":"NDB","hdg_t":304.7,"dist_nm":84.8,"freq":223,"lat":36.38097222,"lon":-80.54019444,"rng_nm":50,"alt_fmsl":0,"id":"AZW","desc":"MT AIRY NDB"},
{"type":"NDB","hdg_t":84.4,"dist_nm":84.9,"freq":230,"lat":35.70688889,"lon":-77.37188889,"rng_nm":50,"alt_fmsl":0,"id":"AQE","desc":"ALWOOD NDB"},
{"type":"NDB","hdg_t":52.4,"dist_nm":85.1,"freq":407,"lat":36.44097222,"lon":-77.70830556,"rng_nm":50,"alt_fmsl":0,"id":"RZZ","desc":"RAPIDS NDB"},
{"type":"VOR","hdg_t":198.9,"dist_nm":85.3,"freq":115.2,"lat":34.23294444,"lon":-79.65711111,"rng_nm":130,"alt_fmsl":110,"id":"FLO","desc":"FLORENCE VORTAC"},
{"type":"NDB","hdg_t":215.7,"dist_nm":86.4,"freq":341,"lat":34.40658333,"lon":-80.11994444,"rng_nm":50,"alt_fmsl":0,"id":"HVS","desc":"HARTSVILLE NDB"},
{"type":"NDB","hdg_t":244.8,"dist_nm":87.3,"freq":204,"lat":34.95294444,"lon":-80.70519444,"rng_nm":50,"alt_fmsl":0,"id":"TWL","desc":"WESLEY NDB"},
{"type":"NDB","hdg_t":299.3,"dist_nm":90.3,"freq":326,"lat":36.31005556,"lon":-80.72636111,"rng_nm":50,"alt_fmsl":0,"id":"ZEF","desc":"ZEPHYR NDB"},
{"type":"NDB","hdg_t":203.9,"dist_nm":92.1,"freq":335,"lat":34.17397222,"lon":-79.85250000,"rng_nm":50,"alt_fmsl":0,"id":"FL","desc":"ALCOT NDB"},
{"type":"VOR","hdg_t":256,"dist_nm":93.7,"freq":115,"lat":35.19027778,"lon":-80.95175000,"rng_nm":40,"alt_fmsl":732,"id":"CLT","desc":"CHARLOTTE VOR-DME"},
{"type":"VOR","hdg_t":37.8,"dist_nm":94.1,"freq":112.9,"lat":36.81802778,"lon":-77.90297222,"rng_nm":40,"alt_fmsl":350,"id":"LVL","desc":"LAWRENCEVILLE VORTAC"},
{"type":"VOR","hdg_t":140.2,"dist_nm":95.3,"freq":117,"lat":34.35166667,"lon":-77.87438889,"rng_nm":130,"alt_fmsl":20,"id":"ILM","desc":"WILMINGTON VORTAC"},
{"type":"NDB","hdg_t":79.4,"dist_nm":95.4,"freq":336,"lat":35.85905556,"lon":-77.17794444,"rng_nm":50,"alt_fmsl":0,"id":"MCZ","desc":"WILLIAMSTON NDB"},
{"type":"NDB","hdg_t":277.4,"dist_nm":96.6,"freq":280,"lat":35.77455300,"lon":-81.06496400,"rng_nm":25,"alt_fmsl":964,"id":"VW","desc":"TEMKY NDB"},
{"type":"SDME","hdg_t":122.1,"dist_nm":97.1,"freq":115.4,"lat":34.70713600,"lon":-77.44029700,"rng_nm":40,"alt_fmsl":74,"id":"NCA","desc":"NEW RIVER TACAN"},
{"type":"NDB","hdg_t":268.9,"dist_nm":97.2,"freq":432,"lat":35.53763889,"lon":-81.08647222,"rng_nm":50,"alt_fmsl":0,"id":"IZN","desc":"LINCOLNTON NDB"},
{"type":"NDB","hdg_t":91.9,"dist_nm":97.7,"freq":388,"lat":35.50966667,"lon":-77.10661111,"rng_nm":50,"alt_fmsl":0,"id":"RNW","desc":"CHOCOWINITY NDB"},
{"type":"NDB","hdg_t":139.1,"dist_nm":98,"freq":205,"lat":34.33725000,"lon":-77.81183333,"rng_nm":50,"alt_fmsl":0,"id":"GM","desc":"WILZE NDB"},
{"type":"SDME","hdg_t":142.1,"dist_nm":98.4,"freq":109.95,"lat":34.27885500,"lon":-77.88530000,"rng_nm":18,"alt_fmsl":1624,"id":"IGNM","desc":"KILM 06 DME"}
]
}
