{"success":true,"source":"xp2csv.pl","last_updated":"2013/11/08 14:53:21 UTC"
,"icao":"KTYR","name":"Tyler Pounds Rgnl","lat":32.3542711666667,"lon":-95.4024526666667,"rwys":3,"ils":1,"index":1384082,"path":"w100n30/w096n32"
,"runways":[
{"len_m":2194,"wid_m":46.02,"hdg":45,"surf":"Asphalt","rwy1":"04","lat1":32.34594400,"lon1":-95.41068900,"rwy2":"22","lat2":32.35990800,"lon2":-95.39416900},
{"len_m":1585,"wid_m":46.02,"hdg":135,"surf":"Asphalt","rwy1":"13","lat1":32.36121700,"lon1":-95.40541400,"rwy2":"31","lat2":32.35108300,"lon2":-95.39353600},
{"len_m":1478,"wid_m":46.02,"hdg":180,"surf":"Asphalt","rwy1":"17","lat1":32.36040300,"lon1":-95.40543300,"rwy2":"35","lat2":32.34707200,"lon2":-95.40547500}
]
,"radios":[
{"type":"ATIS","freq":126.25,"desc":"ATIS"},
{"type":"CTAF","freq":120.1,"desc":"CTAF"},
{"type":"CTAF","freq":122.95,"desc":"UNICOM"},
{"type":"GND","freq":121.9,"desc":"GND"},
{"type":"TWR","freq":120.1,"desc":"TWR"},
{"type":"APP","freq":128.75,"desc":"LONGVIEW APP/DEP"}
]
,"ils":[
{"type":"ILS","freq":109.9,"lat":32.34962200,"lon":-95.39182200,"rng_nm":18,"alt_fmsl":533,"hdg":135.29,"id":"ITYR","rwy":"13","desc":"ILS-cat-I"},
{"type":"GS","freq":109.9,"lat":32.35883300,"lon":-95.40410000,"rng_nm":10,"alt_fmsl":526,"id":"ITYR","rwy":"13","desc":"GS","gs":2.5},
{"type":"OM","freq":0,"lat":32.41575600,"lon":-95.46962500,"rng_nm":0,"alt_fmsl":533,"id":"----","rwy":"13","desc":"OM"}
]
,"navaids":[
{"type":"VOR","hdg_t":331.4,"dist_nm":0.1,"freq":114.2,"lat":32.35586111,"lon":-95.40347222,"rng_nm":25,"alt_fmsl":540,"id":"TYR","desc":"TYLER VOR-DME"},
{"type":"NDB","hdg_t":317.1,"dist_nm":5,"freq":320,"lat":32.41575000,"lon":-95.46961111,"rng_nm":50,"alt_fmsl":0,"id":"TY","desc":"INDOO NDB"},
{"type":"VOR","hdg_t":201.3,"dist_nm":17.9,"freq":111.4,"lat":32.07461111,"lon":-95.53077778,"rng_nm":40,"alt_fmsl":305,"id":"FZT","desc":"FRANKSTON VOR-DME"},
{"type":"NDB","hdg_t":46.6,"dist_nm":20.1,"freq":404,"lat":32.58541667,"lon":-95.11300000,"rng_nm":50,"alt_fmsl":0,"id":"ABG","desc":"AMBASSADOR NDB"},
{"type":"NDB","hdg_t":241.9,"dist_nm":24.6,"freq":269,"lat":32.15933333,"lon":-95.83025000,"rng_nm":50,"alt_fmsl":0,"id":"AHX","desc":"ATHENS NDB"},
{"type":"NDB","hdg_t":109.7,"dist_nm":29.2,"freq":371,"lat":32.18794444,"lon":-94.86105556,"rng_nm":50,"alt_fmsl":0,"id":"HNO","desc":"HENDERSON NDB"},
{"type":"NDB","hdg_t":161.7,"dist_nm":30.5,"freq":263,"lat":31.87016667,"lon":-95.21550000,"rng_nm":50,"alt_fmsl":0,"id":"JSO","desc":"CHEROKEE CO NDB"},
{"type":"NDB","hdg_t":78.6,"dist_nm":31.3,"freq":410,"lat":32.45558333,"lon":-94.79758333,"rng_nm":50,"alt_fmsl":0,"id":"GG","desc":"VEELS NDB"},
{"type":"VOR","hdg_t":3.2,"dist_nm":31.5,"freq":114,"lat":32.88041667,"lon":-95.36675000,"rng_nm":40,"alt_fmsl":520,"id":"UIM","desc":"QUITMAN VOR-DME"},
{"type":"NDB","hdg_t":238.5,"dist_nm":33.1,"freq":215,"lat":32.06350000,"lon":-95.95763889,"rng_nm":50,"alt_fmsl":0,"id":"CSZ","desc":"CROSSROADS NDB"},
{"type":"VOR","hdg_t":83.2,"dist_nm":33.2,"freq":112.3,"lat":32.41775000,"lon":-94.75319444,"rng_nm":40,"alt_fmsl":320,"id":"GGG","desc":"GREGG CO VORTAC"},
{"type":"NDB","hdg_t":233.8,"dist_nm":34.7,"freq":335,"lat":32.01071700,"lon":-95.95274200,"rng_nm":25,"alt_fmsl":383,"id":"LIQ","desc":"LOCHRIDGE RANCH NDB"},
{"type":"NDB","hdg_t":203.9,"dist_nm":37.5,"freq":375,"lat":31.78016667,"lon":-95.70105556,"rng_nm":50,"alt_fmsl":0,"id":"PSN","desc":"PALESTINE NDB"},
{"type":"VOR","hdg_t":256.5,"dist_nm":42.7,"freq":114.8,"lat":32.18572222,"lon":-96.21811111,"rng_nm":40,"alt_fmsl":400,"id":"CQY","desc":"CEDAR CREEK VORTAC"},
{"type":"NDB","hdg_t":347.2,"dist_nm":49.3,"freq":338,"lat":33.15844700,"lon":-95.61828900,"rng_nm":25,"alt_fmsl":483,"id":"BHG","desc":"BRASHEAR NDB"},
{"type":"NDB","hdg_t":299.7,"dist_nm":49.3,"freq":260,"lat":32.76013889,"lon":-96.24913889,"rng_nm":50,"alt_fmsl":0,"id":"AVZ","desc":"TRAVIS NDB"},
{"type":"NDB","hdg_t":234.2,"dist_nm":50,"freq":418,"lat":31.86266667,"lon":-96.19747222,"rng_nm":50,"alt_fmsl":0,"id":"PYF","desc":"PYRAMID NDB"},
{"type":"NDB","hdg_t":318.3,"dist_nm":50.4,"freq":428,"lat":32.98186111,"lon":-96.06730556,"rng_nm":50,"alt_fmsl":0,"id":"SYW","desc":"CASH NDB"},
{"type":"VOR","hdg_t":352,"dist_nm":51,"freq":109,"lat":33.19855556,"lon":-95.54258333,"rng_nm":40,"alt_fmsl":508,"id":"SLR","desc":"SULPHUR SPRINGS VOR-DME"},
{"type":"NDB","hdg_t":24.9,"dist_nm":51.1,"freq":381,"lat":33.12845300,"lon":-94.97410300,"rng_nm":25,"alt_fmsl":404,"id":"MSA","desc":"MOUNT PLEASANT NDB"},
{"type":"NDB","hdg_t":249.1,"dist_nm":54.1,"freq":396,"lat":32.02841667,"lon":-96.39461111,"rng_nm":50,"alt_fmsl":0,"id":"CRS","desc":"CORSICANA NDB"},
{"type":"SDME","hdg_t":322.1,"dist_nm":54.1,"freq":109.6,"lat":33.06626900,"lon":-96.06139700,"rng_nm":25,"alt_fmsl":540,"id":"MJF","desc":"ARVILLA TACAN"},
{"type":"NDB","hdg_t":251.8,"dist_nm":54.9,"freq":344,"lat":32.06413889,"lon":-96.42630556,"rng_nm":50,"alt_fmsl":0,"id":"CGQ","desc":"POWELL NDB"},
{"type":"NDB","hdg_t":139.7,"dist_nm":55.2,"freq":391,"lat":31.64850000,"lon":-94.70550000,"rng_nm":50,"alt_fmsl":0,"id":"GXD","desc":"NACOGDOCHES NDB"},
{"type":"NDB","hdg_t":100.1,"dist_nm":57.2,"freq":332,"lat":32.18025000,"lon":-94.29641667,"rng_nm":50,"alt_fmsl":0,"id":"RPF","desc":"CARTHAGE NDB"},
{"type":"NDB","hdg_t":325.3,"dist_nm":58.5,"freq":201,"lat":33.15627778,"lon":-96.06361111,"rng_nm":50,"alt_fmsl":0,"id":"GV","desc":"MAJOR NDB"},
{"type":"NDB","hdg_t":314,"dist_nm":59.3,"freq":316,"lat":33.04038889,"lon":-96.24858333,"rng_nm":50,"alt_fmsl":0,"id":"MII","desc":"CADDO MILLS NDB"},
{"type":"NDB","hdg_t":288.4,"dist_nm":60.3,"freq":388,"lat":32.66808333,"lon":-96.53225000,"rng_nm":50,"alt_fmsl":0,"id":"JUG","desc":"JECCA NDB"},
{"type":"NDB","hdg_t":146,"dist_nm":62.6,"freq":253,"lat":31.48555556,"lon":-94.72019444,"rng_nm":50,"alt_fmsl":0,"id":"OC","desc":"NADOS NDB"},
{"type":"NDB","hdg_t":295.8,"dist_nm":63.2,"freq":248,"lat":32.80936111,"lon":-96.52911111,"rng_nm":50,"alt_fmsl":0,"id":"PQF","desc":"MESQUITE NDB"},
{"type":"NDB","hdg_t":115.7,"dist_nm":70.8,"freq":341,"lat":31.83286111,"lon":-94.15375000,"rng_nm":50,"alt_fmsl":0,"id":"CZJ","desc":"AMASON NDB"},
{"type":"NDB","hdg_t":233.2,"dist_nm":70.9,"freq":329,"lat":31.63961111,"lon":-96.51219444,"rng_nm":50,"alt_fmsl":0,"id":"LXY","desc":"MEXIA NDB"},
{"type":"VOR","hdg_t":358.1,"dist_nm":71.1,"freq":113.6,"lat":33.54238889,"lon":-95.44827778,"rng_nm":40,"alt_fmsl":510,"id":"PRX","desc":"PARIS VOR-DME"},
{"type":"NDB","hdg_t":290.2,"dist_nm":74,"freq":275,"lat":32.77477200,"lon":-96.77527500,"rng_nm":25,"alt_fmsl":0,"id":"LV","desc":"CONIS NDB"},
{"type":"NDB","hdg_t":156.3,"dist_nm":74.1,"freq":350,"lat":31.21888889,"lon":-94.82508333,"rng_nm":50,"alt_fmsl":0,"id":"LF","desc":"FLUFY NDB"},
{"type":"VOR","hdg_t":231.9,"dist_nm":74.6,"freq":108.8,"lat":31.58147222,"lon":-96.54908333,"rng_nm":40,"alt_fmsl":512,"id":"GNL","desc":"GROESBECK VOR-DME"},
{"type":"NDB","hdg_t":53.4,"dist_nm":76,"freq":347,"lat":33.10375000,"lon":-94.19047222,"rng_nm":50,"alt_fmsl":0,"id":"ATA","desc":"ATLANTA NDB"},
{"type":"NDB","hdg_t":66.4,"dist_nm":76.7,"freq":284,"lat":32.85958333,"lon":-94.01019444,"rng_nm":50,"alt_fmsl":0,"id":"VIV","desc":"VIVIAN NDB"},
{"type":"NDB","hdg_t":284.9,"dist_nm":76.9,"freq":287,"lat":32.67693600,"lon":-96.87106700,"rng_nm":50,"alt_fmsl":670,"id":"RBD","desc":"REDBIRD NDB"},
{"type":"NDB","hdg_t":83,"dist_nm":77.9,"freq":230,"lat":32.50177778,"lon":-93.87811111,"rng_nm":50,"alt_fmsl":0,"id":"SH","desc":"CRAKK NDB"},
{"type":"VOR","hdg_t":201.5,"dist_nm":79.1,"freq":110.8,"lat":31.12402778,"lon":-95.96794444,"rng_nm":40,"alt_fmsl":350,"id":"LOA","desc":"LEONA VORTAC"},
{"type":"VOR","hdg_t":153.6,"dist_nm":79.5,"freq":112.1,"lat":31.16236111,"lon":-94.71694444,"rng_nm":130,"alt_fmsl":200,"id":"LFK","desc":"LUFKIN VORTAC"},
{"type":"NDB","hdg_t":312.4,"dist_nm":80.9,"freq":421,"lat":33.26166667,"lon":-96.58880556,"rng_nm":50,"alt_fmsl":585,"id":"EF","desc":"FLUET NDB"},
{"type":"VOR","hdg_t":329.5,"dist_nm":82.3,"freq":114.6,"lat":33.53750000,"lon":-96.23408333,"rng_nm":130,"alt_fmsl":700,"id":"BYP","desc":"BONHAM VORTAC"},
{"type":"VOR","hdg_t":293.2,"dist_nm":82.5,"freq":116.2,"lat":32.89030556,"lon":-96.90397222,"rng_nm":130,"alt_fmsl":450,"id":"CVE","desc":"COWBOY VOR-DME"},
{"type":"VOR","hdg_t":72.3,"dist_nm":84.5,"freq":117.4,"lat":32.77136111,"lon":-93.80991667,"rng_nm":130,"alt_fmsl":190,"id":"EIC","desc":"BELCHER VORTAC"},
{"type":"VOR","hdg_t":82,"dist_nm":85,"freq":108.6,"lat":32.53986111,"lon":-93.74130556,"rng_nm":25,"alt_fmsl":0,"id":"DTN","desc":"DOWNTOWN VOR"},
{"type":"NDB","hdg_t":101.3,"dist_nm":85.1,"freq":414,"lat":32.06430556,"lon":-93.76444444,"rng_nm":50,"alt_fmsl":0,"id":"MSD","desc":"MANSFIELD NDB"},
{"type":"NDB","hdg_t":288.4,"dist_nm":86.6,"freq":233,"lat":32.80215100,"lon":-97.02746200,"rng_nm":50,"alt_fmsl":500,"id":"PK","desc":"ISSUE NDB"},
{"type":"VOR","hdg_t":290.8,"dist_nm":88.5,"freq":113.1,"lat":32.86916667,"lon":-97.04050000,"rng_nm":130,"alt_fmsl":540,"id":"TTT","desc":"MAVERICK VOR-DME"},
{"type":"SDME","hdg_t":83.7,"dist_nm":88.5,"freq":115.8,"lat":32.50333800,"lon":-93.66776300,"rng_nm":40,"alt_fmsl":163,"id":"BAD","desc":"BARKSDALE TACAN"},
{"type":"NDB","hdg_t":295.4,"dist_nm":90.9,"freq":219,"lat":32.99578900,"lon":-97.02959200,"rng_nm":50,"alt_fmsl":547,"id":"FL","desc":"JIFFY NDB"},
{"type":"VOR","hdg_t":87.8,"dist_nm":91.8,"freq":111.2,"lat":32.40016667,"lon":-93.59513889,"rng_nm":40,"alt_fmsl":160,"id":"EMG","desc":"ELM GROVE VORTAC"},
{"type":"NDB","hdg_t":247.1,"dist_nm":93,"freq":378,"lat":31.74091667,"lon":-97.07816667,"rng_nm":50,"alt_fmsl":0,"id":"CN","desc":"LEROI NDB"},
{"type":"VOR","hdg_t":290,"dist_nm":95.5,"freq":115.7,"lat":32.88944444,"lon":-97.17941667,"rng_nm":130,"alt_fmsl":637,"id":"FUZ","desc":"RANGER VORTAC"},
{"type":"VOR","hdg_t":43.6,"dist_nm":96.5,"freq":116.3,"lat":33.51388889,"lon":-94.07325000,"rng_nm":130,"alt_fmsl":270,"id":"TXK","desc":"TEXARKANA VORTAC"},
{"type":"NDB","hdg_t":185.7,"dist_nm":97,"freq":308,"lat":30.74075000,"lon":-95.59086111,"rng_nm":50,"alt_fmsl":0,"id":"UTS","desc":"HUNTSVILLE NDB"},
{"type":"NDB","hdg_t":16.7,"dist_nm":97.1,"freq":271,"lat":33.90602600,"lon":-94.84305100,"rng_nm":25,"alt_fmsl":1208,"id":"IBO","desc":"IDABEL NDB"},
{"type":"NDB","hdg_t":239.5,"dist_nm":99.1,"freq":400,"lat":31.50380556,"lon":-97.06958333,"rng_nm":50,"alt_fmsl":0,"id":"ROB","desc":"ROBINSON NDB"}
]
}
