{"success":true,"source":"xp2csv.pl","last_updated":"2013/11/08 14:53:21 UTC"
,"icao":"KUGN","name":"Waukegan Rgnl","lat":42.42240075,"lon":-87.8681075,"rwys":2,"ils":1,"index":1515800,"path":"w090n40/w088n42"
,"runways":[
{"len_m":1828,"wid_m":45.72,"hdg":48,"surf":"Asphalt","rwy1":"05","lat1":42.41585300,"lon1":-87.87560800,"rwy2":"23","lat2":42.42676900,"lon2":-87.85898100},
{"len_m":1143,"wid_m":22.86,"hdg":144,"surf":"Asphalt","rwy1":"14","lat1":42.42766400,"lon1":-87.87298300,"rwy2":"32","lat2":42.41931700,"lon2":-87.86485800}
]
,"radios":[
{"type":"ATIS","freq":132.4,"desc":"ATIS"},
{"type":"CTAF","freq":120.05,"desc":"CTAF"},
{"type":"CTAF","freq":122.95,"desc":"UNICOM"},
{"type":"GND","freq":121.65,"desc":"GND"},
{"type":"TWR","freq":120.05,"desc":"TWR"},
{"type":"APP","freq":120.55,"desc":"CHICAGO APP/DEP"}
]
,"ils":[
{"type":"ILS","freq":110.7,"lat":42.41476100,"lon":-87.87727200,"rng_nm":18,"alt_fmsl":727,"hdg":228.35,"id":"IUGN","rwy":"23","desc":"ILS-cat-I"},
{"type":"GS","freq":110.7,"lat":42.42550000,"lon":-87.86314700,"rng_nm":10,"alt_fmsl":716,"id":"IUGN","rwy":"23","desc":"GS","gs":3},
{"type":"OM","freq":0,"lat":42.46405000,"lon":-87.80140600,"rng_nm":0,"alt_fmsl":727,"id":"----","rwy":"23","desc":"OM"},
{"type":"MM","freq":0,"lat":42.43177200,"lon":-87.85135000,"rng_nm":0,"alt_fmsl":727,"id":"----","rwy":"23","desc":"MM"}
]
,"navaids":[
{"type":"NDB","hdg_t":49.8,"dist_nm":3.8,"freq":379,"lat":42.46405556,"lon":-87.80141667,"rng_nm":50,"alt_fmsl":0,"id":"UG","desc":"WAUKE NDB"},
{"type":"NDB","hdg_t":319.3,"dist_nm":10.9,"freq":389,"lat":42.56044444,"lon":-88.02877778,"rng_nm":50,"alt_fmsl":0,"id":"EN","desc":"CODEE NDB"},
{"type":"VOR","hdg_t":345.1,"dist_nm":10.9,"freq":109.2,"lat":42.59905556,"lon":-87.93172222,"rng_nm":25,"alt_fmsl":734,"id":"ENW","desc":"KENOSHA VOR-DME"},
{"type":"VOR","hdg_t":197.2,"dist_nm":12.6,"freq":113,"lat":42.22147222,"lon":-87.95180556,"rng_nm":130,"alt_fmsl":758,"id":"OBK","desc":"NORTHBROOK VOR-DME"},
{"type":"NDB","hdg_t":354.9,"dist_nm":15.6,"freq":206,"lat":42.68255556,"lon":-87.89947222,"rng_nm":50,"alt_fmsl":0,"id":"RA","desc":"PASER NDB"},
{"type":"VOR","hdg_t":6.6,"dist_nm":20.5,"freq":117.7,"lat":42.76216667,"lon":-87.81472222,"rng_nm":25,"alt_fmsl":669,"id":"HRK","desc":"HORLICK VOR-DME"},
{"type":"NDB","hdg_t":194.5,"dist_nm":21.8,"freq":368,"lat":42.06918300,"lon":-87.99088300,"rng_nm":25,"alt_fmsl":0,"id":"OH","desc":"LEAMA NDB"},
{"type":"NDB","hdg_t":195.8,"dist_nm":22.8,"freq":394,"lat":42.05593600,"lon":-88.00779200,"rng_nm":25,"alt_fmsl":0,"id":"OR","desc":"CHSTR NDB"},
{"type":"VOR","hdg_t":309.9,"dist_nm":25,"freq":114.5,"lat":42.68933333,"lon":-88.30177778,"rng_nm":25,"alt_fmsl":772,"id":"BUU","desc":"BURBUN VOR-DME"},
{"type":"NDB","hdg_t":355.4,"dist_nm":25.1,"freq":410,"lat":42.83961111,"lon":-87.91300000,"rng_nm":50,"alt_fmsl":0,"id":"MK","desc":"CAPPY NDB"},
{"type":"DME","hdg_t":186.3,"dist_nm":25.2,"freq":111.75,"lat":42.00391666,"lon":-87.93006695,"rng_nm":18,"alt_fmsl":668,"id":"KORD","desc":"09L DME-ILS"},
{"type":"DME","hdg_t":186.3,"dist_nm":25.2,"freq":111.75,"lat":42.00391667,"lon":-87.93006690,"rng_nm":18,"alt_fmsl":668,"id":"KORD","desc":"27R DME-ILS"},
{"type":"VOR","hdg_t":183.6,"dist_nm":26.1,"freq":113.9,"lat":41.98766667,"lon":-87.90488889,"rng_nm":40,"alt_fmsl":650,"id":"ORD","desc":"CHICAGO O'HARE IN VOR-DME"},
{"type":"NDB","hdg_t":172.3,"dist_nm":26.5,"freq":414,"lat":41.98431700,"lon":-87.78902200,"rng_nm":25,"alt_fmsl":0,"id":"IA","desc":"TAFFS NDB"},
{"type":"NDB","hdg_t":194.5,"dist_nm":28.1,"freq":350,"lat":41.96777200,"lon":-88.02670000,"rng_nm":50,"alt_fmsl":699,"id":"ME","desc":"DEANA NDB"},
{"type":"NDB","hdg_t":345.3,"dist_nm":30.1,"freq":242,"lat":42.90905556,"lon":-88.04097222,"rng_nm":50,"alt_fmsl":0,"id":"GM","desc":"TEELS NDB"},
{"type":"NDB","hdg_t":174.9,"dist_nm":31.1,"freq":385,"lat":41.90486100,"lon":-87.80691700,"rng_nm":25,"alt_fmsl":0,"id":"ID","desc":"INDDY NDB"},
{"type":"NDB","hdg_t":297.5,"dist_nm":36.1,"freq":404,"lat":42.69883333,"lon":-88.59316667,"rng_nm":50,"alt_fmsl":0,"id":"LVV","desc":"LAKE LAWN NDB"},
{"type":"NDB","hdg_t":359.4,"dist_nm":38.2,"freq":260,"lat":43.06002778,"lon":-87.87675000,"rng_nm":50,"alt_fmsl":0,"id":"BL","desc":"YANKS NDB"},
{"type":"VOR","hdg_t":214.1,"dist_nm":38.4,"freq":108.4,"lat":41.89036111,"lon":-88.35016667,"rng_nm":40,"alt_fmsl":838,"id":"DPA","desc":"DUPAGE VOR-DME"},
{"type":"NDB","hdg_t":168.8,"dist_nm":41.6,"freq":248,"lat":41.74150000,"lon":-87.68966667,"rng_nm":50,"alt_fmsl":0,"id":"MX","desc":"KEDZI NDB"},
{"type":"VOR","hdg_t":349.7,"dist_nm":41.9,"freq":112.5,"lat":43.10977778,"lon":-88.03727778,"rng_nm":40,"alt_fmsl":737,"id":"LJT","desc":"TIMMERMAN VOR-DME"},
{"type":"NDB","hdg_t":178,"dist_nm":42.2,"freq":332,"lat":41.71897222,"lon":-87.83638889,"rng_nm":50,"alt_fmsl":0,"id":"HK","desc":"ERMIN NDB"},
{"type":"VOR","hdg_t":336.3,"dist_nm":45.5,"freq":116.4,"lat":43.11686111,"lon":-88.28433333,"rng_nm":130,"alt_fmsl":1080,"id":"BAE","desc":"BADGER VORTAC"},
{"type":"NDB","hdg_t":232.2,"dist_nm":47.5,"freq":209,"lat":41.93402778,"lon":-88.70733333,"rng_nm":50,"alt_fmsl":0,"id":"DKB","desc":"DEKALB NDB"},
{"type":"NDB","hdg_t":282.9,"dist_nm":53.3,"freq":375,"lat":42.61511111,"lon":-89.04127778,"rng_nm":50,"alt_fmsl":0,"id":"JVL","desc":"JANESVILLE NDB"},
{"type":"VOR","hdg_t":278.8,"dist_nm":55.5,"freq":114.3,"lat":42.55800000,"lon":-89.10525000,"rng_nm":40,"alt_fmsl":931,"id":"JVL","desc":"JANESVILLE VOR-DME"},
{"type":"VOR","hdg_t":201.1,"dist_nm":56.2,"freq":112.3,"lat":41.54641667,"lon":-88.31841667,"rng_nm":130,"alt_fmsl":592,"id":"JOT","desc":"JOLIET VORTAC"},
{"type":"VOR","hdg_t":166.2,"dist_nm":56.3,"freq":114.2,"lat":41.51000000,"lon":-87.57155556,"rng_nm":40,"alt_fmsl":634,"id":"CGT","desc":"CHICAGO HEIGHTS VORTAC"},
{"type":"NDB","hdg_t":154.4,"dist_nm":56.4,"freq":236,"lat":41.57241667,"lon":-87.32702778,"rng_nm":50,"alt_fmsl":0,"id":"GY","desc":"GARIE NDB"},
{"type":"NDB","hdg_t":251.7,"dist_nm":57.8,"freq":275,"lat":42.11433333,"lon":-89.09872222,"rng_nm":50,"alt_fmsl":0,"id":"RF","desc":"GILMY NDB"},
{"type":"NDB","hdg_t":320.2,"dist_nm":58.8,"freq":371,"lat":43.17366667,"lon":-88.72527778,"rng_nm":50,"alt_fmsl":0,"id":"RYV","desc":"ROCK RIVER NDB"},
{"type":"NDB","hdg_t":337.4,"dist_nm":60.1,"freq":200,"lat":43.34763889,"lon":-88.39522222,"rng_nm":50,"alt_fmsl":0,"id":"HXF","desc":"HARTFORD NDB"},
{"type":"VOR","hdg_t":259.1,"dist_nm":60.4,"freq":110.8,"lat":42.22558333,"lon":-89.19927778,"rng_nm":40,"alt_fmsl":868,"id":"RFD","desc":"ROCKFORD VOR-DME"},
{"type":"VOR","hdg_t":349.3,"dist_nm":61,"freq":109.8,"lat":43.42197222,"lon":-88.12519444,"rng_nm":25,"alt_fmsl":0,"id":"BJB","desc":"WEST BEND VOR"},
{"type":"VOR","hdg_t":177.1,"dist_nm":69.2,"freq":113.2,"lat":41.26963889,"lon":-87.79105556,"rng_nm":40,"alt_fmsl":689,"id":"EON","desc":"PEOTONE VORTAC"},
{"type":"NDB","hdg_t":328.9,"dist_nm":70.6,"freq":344,"lat":43.42900000,"lon":-88.70216667,"rng_nm":50,"alt_fmsl":0,"id":"UNU","desc":"JUNEAU NDB"},
{"type":"NDB","hdg_t":103.8,"dist_nm":71.4,"freq":397,"lat":42.12680556,"lon":-86.31333333,"rng_nm":50,"alt_fmsl":0,"id":"BE","desc":"MALLY NDB"},
{"type":"NDB","hdg_t":142.3,"dist_nm":73.2,"freq":212,"lat":41.45113889,"lon":-86.87752778,"rng_nm":50,"alt_fmsl":0,"id":"VP","desc":"SEDLY NDB"},
{"type":"NDB","hdg_t":138,"dist_nm":74,"freq":356,"lat":41.49897222,"lon":-86.77119444,"rng_nm":50,"alt_fmsl":0,"id":"IUL","desc":"LA PORTE NDB"},
{"type":"NDB","hdg_t":300.9,"dist_nm":75.7,"freq":400,"lat":43.06275000,"lon":-89.34588889,"rng_nm":50,"alt_fmsl":0,"id":"MS","desc":"MONAH NDB"},
{"type":"NDB","hdg_t":215.1,"dist_nm":77.4,"freq":266,"lat":41.36252778,"lon":-88.85425000,"rng_nm":50,"alt_fmsl":0,"id":"OIX","desc":"OTTAWA NDB"},
{"type":"VOR","hdg_t":304.1,"dist_nm":78.1,"freq":108.6,"lat":43.14483333,"lon":-89.33969444,"rng_nm":40,"alt_fmsl":857,"id":"MSN","desc":"MADISON VORTAC"},
{"type":"VOR","hdg_t":87.4,"dist_nm":78.3,"freq":112.1,"lat":42.46602778,"lon":-86.10480556,"rng_nm":130,"alt_fmsl":640,"id":"PMM","desc":"PULLMAN VOR-DME"},
{"type":"VOR","hdg_t":250.2,"dist_nm":78.7,"freq":111.2,"lat":41.96563889,"lon":-89.52422222,"rng_nm":40,"alt_fmsl":840,"id":"PLL","desc":"POLO VOR-DME"},
{"type":"VOR","hdg_t":119,"dist_nm":79.5,"freq":115.4,"lat":41.76861111,"lon":-86.31847222,"rng_nm":130,"alt_fmsl":804,"id":"GIJ","desc":"GIPPER VORTAC"},
{"type":"VOR","hdg_t":101.5,"dist_nm":79.5,"freq":116.6,"lat":42.14441667,"lon":-86.12269444,"rng_nm":40,"alt_fmsl":795,"id":"ELX","desc":"KEELER VOR-DME"},
{"type":"VOR","hdg_t":0.5,"dist_nm":80.7,"freq":110,"lat":43.76877778,"lon":-87.84875000,"rng_nm":40,"alt_fmsl":744,"id":"FAH","desc":"FALLS VOR-DME"},
{"type":"VOR","hdg_t":179.4,"dist_nm":80.8,"freq":111.6,"lat":41.07441667,"lon":-87.84977778,"rng_nm":40,"alt_fmsl":625,"id":"IKK","desc":"KANKAKEE VOR-DME"},
{"type":"NDB","hdg_t":181.1,"dist_nm":84.2,"freq":272,"lat":41.01788889,"lon":-87.90372222,"rng_nm":50,"alt_fmsl":0,"id":"IK","desc":"LUKOW NDB"},
{"type":"NDB","hdg_t":341.6,"dist_nm":85.2,"freq":248,"lat":43.76954400,"lon":-88.48462800,"rng_nm":25,"alt_fmsl":0,"id":"FLD","desc":"FOND DU LAC NDB"},
{"type":"NDB","hdg_t":119.7,"dist_nm":85.3,"freq":341,"lat":41.70561111,"lon":-86.21902778,"rng_nm":50,"alt_fmsl":0,"id":"SB","desc":"MISHA NDB"},
{"type":"NDB","hdg_t":2.7,"dist_nm":85.6,"freq":338,"lat":43.84850000,"lon":-87.77447800,"rng_nm":25,"alt_fmsl":693,"id":"HE","desc":"SHEBB NDB"},
{"type":"VOR","hdg_t":139.9,"dist_nm":85.6,"freq":115.6,"lat":41.32205556,"lon":-86.64930556,"rng_nm":130,"alt_fmsl":690,"id":"OXI","desc":"KNOX VOR-DME"},
{"type":"NDB","hdg_t":222.2,"dist_nm":85.9,"freq":230,"lat":41.35475600,"lon":-89.14813900,"rng_nm":25,"alt_fmsl":652,"id":"VYS","desc":"VALLEY NDB"},
{"type":"NDB","hdg_t":60.2,"dist_nm":86,"freq":219,"lat":43.12113889,"lon":-86.16858333,"rng_nm":50,"alt_fmsl":0,"id":"MK","desc":"MUSKO NDB"},
{"type":"NDB","hdg_t":341,"dist_nm":92.1,"freq":395,"lat":43.87380556,"lon":-88.55761111,"rng_nm":50,"alt_fmsl":0,"id":"OS","desc":"POBER NDB"},
{"type":"VOR","hdg_t":60.3,"dist_nm":92.3,"freq":115.2,"lat":43.16925000,"lon":-86.03938889,"rng_nm":40,"alt_fmsl":659,"id":"MKG","desc":"MUSKEGON VORTAC"},
{"type":"NDB","hdg_t":244.1,"dist_nm":95.7,"freq":254,"lat":41.71111111,"lon":-89.78561111,"rng_nm":50,"alt_fmsl":0,"id":"BOZ","desc":"WHITESIDE NDB"},
{"type":"NDB","hdg_t":136.8,"dist_nm":98.2,"freq":391,"lat":41.21672222,"lon":-86.38472222,"rng_nm":50,"alt_fmsl":0,"id":"CPB","desc":"CULVER NDB"},
{"type":"VOR","hdg_t":122.5,"dist_nm":98.3,"freq":113.7,"lat":41.52516667,"lon":-86.02794444,"rng_nm":130,"alt_fmsl":852,"id":"GSH","desc":"GOSHEN VORTAC"},
{"type":"VOR","hdg_t":342.4,"dist_nm":98.7,"freq":111.8,"lat":43.99041667,"lon":-88.55594444,"rng_nm":40,"alt_fmsl":780,"id":"OSH","desc":"OSHKOSH VORTAC"}
]
}
