{"success":true,"source":"xp2csv.pl","last_updated":"2013/11/08 14:53:21 UTC"
,"icao":"KUYF","name":"Madison Co","lat":39.9327125,"lon":-83.461993,"rwys":1,"ils":0,"index":1581178,"path":"w090n30/w084n39"
,"runways":[
{"len_m":1219,"wid_m":22.86,"hdg":86,"surf":"Asphalt","rwy1":"09","lat1":39.93238900,"lon1":-83.46911400,"rwy2":"27","lat2":39.93303600,"lon2":-83.45487200}
]
,"radios":[
{"type":"CTAF","freq":123,"desc":"CTAF/UNICOM"},
{"type":"APP","freq":118.85,"desc":"DAYTON APP"},
{"type":"DEP","freq":126.5,"desc":"DAYTON DEP"}
]
,"navaids":[
{"type":"NDB","hdg_t":231.4,"dist_nm":0.1,"freq":263,"lat":39.93150000,"lon":-83.46397222,"rng_nm":50,"alt_fmsl":0,"id":"UYF","desc":"LONDON NDB"},
{"type":"NDB","hdg_t":119.7,"dist_nm":13.6,"freq":230,"lat":39.81925000,"lon":-83.20488889,"rng_nm":50,"alt_fmsl":0,"id":"BU","desc":"BOUTN NDB"},
{"type":"NDB","hdg_t":55.1,"dist_nm":14.8,"freq":515,"lat":40.07363889,"lon":-83.19805556,"rng_nm":50,"alt_fmsl":0,"id":"OS","desc":"FULER NDB"},
{"type":"NDB","hdg_t":256.5,"dist_nm":15,"freq":341,"lat":39.87363889,"lon":-83.77958333,"rng_nm":50,"alt_fmsl":0,"id":"CCJ","desc":"CLARK CO NDB"},
{"type":"NDB","hdg_t":16.3,"dist_nm":18.3,"freq":403,"lat":40.22672800,"lon":-83.34961400,"rng_nm":25,"alt_fmsl":997,"id":"MRT","desc":"MARYSVILLE NDB"},
{"type":"VOR","hdg_t":252,"dist_nm":18.6,"freq":113.2,"lat":39.83652778,"lon":-83.84497222,"rng_nm":25,"alt_fmsl":1047,"id":"SGH","desc":"SPRINGFIELD VOR-DME"},
{"type":"NDB","hdg_t":170.6,"dist_nm":20.1,"freq":414,"lat":39.60086111,"lon":-83.39161111,"rng_nm":50,"alt_fmsl":0,"id":"CSS","desc":"COURT HOUSE NDB"},
{"type":"NDB","hdg_t":76.7,"dist_nm":20.5,"freq":272,"lat":40.01013889,"lon":-83.02897222,"rng_nm":50,"alt_fmsl":0,"id":"CHC","desc":"GRENS NDB"},
{"type":"NDB","hdg_t":76.7,"dist_nm":20.5,"freq":272,"lat":40.01013889,"lon":-83.02897222,"rng_nm":50,"alt_fmsl":0,"id":"CB","desc":"GRENS NDB"},
{"type":"NDB","hdg_t":118.9,"dist_nm":23.3,"freq":253,"lat":39.74294444,"lon":-83.02033333,"rng_nm":50,"alt_fmsl":0,"id":"DD","desc":"COBBS NDB"},
{"type":"NDB","hdg_t":239,"dist_nm":25.2,"freq":395,"lat":39.71506100,"lon":-83.92993100,"rng_nm":25,"alt_fmsl":970,"id":"XEN","desc":"XENIA NDB"},
{"type":"NDB","hdg_t":38.5,"dist_nm":26.4,"freq":215,"lat":40.27688889,"lon":-83.10372222,"rng_nm":50,"alt_fmsl":0,"id":"DLZ","desc":"DELAWARE NDB"},
{"type":"SDME","hdg_t":256.2,"dist_nm":28.2,"freq":115.2,"lat":39.81897800,"lon":-84.05548100,"rng_nm":25,"alt_fmsl":804,"id":"FFO","desc":"PATTERSON TACAN"},
{"type":"NDB","hdg_t":95.9,"dist_nm":29,"freq":376,"lat":39.88105556,"lon":-82.83608333,"rng_nm":50,"alt_fmsl":0,"id":"LC","desc":"PICKL NDB"},
{"type":"NDB","hdg_t":205.9,"dist_nm":29.2,"freq":407,"lat":39.49311111,"lon":-83.73816667,"rng_nm":50,"alt_fmsl":0,"id":"IL","desc":"AIRBO NDB"},
{"type":"NDB","hdg_t":84.1,"dist_nm":32.7,"freq":391,"lat":39.98622222,"lon":-82.75450000,"rng_nm":50,"alt_fmsl":0,"id":"CM","desc":"SUMIE NDB"},
{"type":"NDB","hdg_t":343.3,"dist_nm":32.9,"freq":326,"lat":40.45894444,"lon":-83.66800000,"rng_nm":50,"alt_fmsl":0,"id":"RUV","desc":"RUSHSYLVANIA NDB"},
{"type":"VOR","hdg_t":137.2,"dist_nm":33,"freq":112.5,"lat":39.52688889,"lon":-82.97794444,"rng_nm":25,"alt_fmsl":0,"id":"XUB","desc":"YELLOW BUD VOR"},
{"type":"VOR","hdg_t":207.6,"dist_nm":34,"freq":112.9,"lat":39.42969444,"lon":-83.80125000,"rng_nm":25,"alt_fmsl":1050,"id":"MXQ","desc":"MIDWEST VOR-DME"},
{"type":"VOR","hdg_t":308.6,"dist_nm":34.1,"freq":117.5,"lat":40.28780556,"lon":-84.04313889,"rng_nm":130,"alt_fmsl":1083,"id":"ROD","desc":"ROSEWOOD VORTAC"},
{"type":"NDB","hdg_t":145.7,"dist_nm":35.7,"freq":236,"lat":39.43819444,"lon":-83.02877778,"rng_nm":50,"alt_fmsl":0,"id":"RZT","desc":"ROSS CO NDB"},
{"type":"NDB","hdg_t":209,"dist_nm":39.6,"freq":299,"lat":39.35344444,"lon":-83.87577778,"rng_nm":50,"alt_fmsl":0,"id":"HW","desc":"CUBLA NDB"},
{"type":"NDB","hdg_t":263,"dist_nm":40.6,"freq":315,"lat":39.84702778,"lon":-84.33480556,"rng_nm":50,"alt_fmsl":0,"id":"AT","desc":"BRUNY NDB"},
{"type":"VOR","hdg_t":71.7,"dist_nm":42.3,"freq":116.7,"lat":40.15105556,"lon":-82.58830556,"rng_nm":130,"alt_fmsl":1350,"id":"APE","desc":"APPLETON VORTAC"},
{"type":"VOR","hdg_t":276.9,"dist_nm":43.4,"freq":114.5,"lat":40.01641667,"lon":-84.39686111,"rng_nm":40,"alt_fmsl":990,"id":"DQN","desc":"DAYTON VOR-DME"},
{"type":"NDB","hdg_t":104.1,"dist_nm":44.2,"freq":338,"lat":39.74888889,"lon":-82.53530556,"rng_nm":50,"alt_fmsl":0,"id":"LH","desc":"CASER NDB"},
{"type":"VOR","hdg_t":23.9,"dist_nm":44.8,"freq":109.8,"lat":40.61658333,"lon":-83.06383333,"rng_nm":25,"alt_fmsl":0,"id":"BUD","desc":"BUCKEYE VOR"},
{"type":"NDB","hdg_t":184.8,"dist_nm":44.9,"freq":278,"lat":39.18472222,"lon":-83.54297222,"rng_nm":50,"alt_fmsl":0,"id":"HOC","desc":"HILLSBORO NDB"},
{"type":"NDB","hdg_t":242.2,"dist_nm":45.1,"freq":223,"lat":39.57825000,"lon":-84.32347222,"rng_nm":50,"alt_fmsl":0,"id":"MW","desc":"ONIDA NDB"},
{"type":"NDB","hdg_t":82.7,"dist_nm":46.3,"freq":524,"lat":40.02591667,"lon":-82.46352778,"rng_nm":50,"alt_fmsl":0,"id":"HEH","desc":"NEWARK NDB"},
{"type":"NDB","hdg_t":288.8,"dist_nm":51.5,"freq":356,"lat":40.20616667,"lon":-84.52272222,"rng_nm":50,"alt_fmsl":0,"id":"VES","desc":"VERSAILLES NDB"},
{"type":"VOR","hdg_t":333.5,"dist_nm":51.9,"freq":108.4,"lat":40.70711111,"lon":-83.96816667,"rng_nm":25,"alt_fmsl":0,"id":"AOH","desc":"ALLEN CO VOR"},
{"type":"NDB","hdg_t":151.6,"dist_nm":52,"freq":385,"lat":39.16691667,"lon":-82.93219444,"rng_nm":50,"alt_fmsl":0,"id":"EOP","desc":"WAVERLY NDB"},
{"type":"NDB","hdg_t":240.6,"dist_nm":52.5,"freq":239,"lat":39.49877778,"lon":-84.44752778,"rng_nm":50,"alt_fmsl":0,"id":"HKF","desc":"HOOK FLD NDB"},
{"type":"NDB","hdg_t":226.6,"dist_nm":59.4,"freq":388,"lat":39.24880556,"lon":-84.38961111,"rng_nm":50,"alt_fmsl":0,"id":"ISZ","desc":"CINCINNATI-BLUE A NDB"},
{"type":"NDB","hdg_t":224.5,"dist_nm":59.4,"freq":379,"lat":39.22275000,"lon":-84.35536111,"rng_nm":50,"alt_fmsl":0,"id":"MDE","desc":"MADEIRA NDB"},
{"type":"NDB","hdg_t":303.3,"dist_nm":60.4,"freq":205,"lat":40.48200000,"lon":-84.56438889,"rng_nm":50,"alt_fmsl":0,"id":"CQA","desc":"LAKEFIELD NDB"},
{"type":"NDB","hdg_t":174,"dist_nm":60.9,"freq":329,"lat":38.92119444,"lon":-83.32686111,"rng_nm":50,"alt_fmsl":0,"id":"PZO","desc":"PEEBLES NDB"},
{"type":"NDB","hdg_t":237.2,"dist_nm":61.4,"freq":260,"lat":39.37288889,"lon":-84.57211111,"rng_nm":50,"alt_fmsl":0,"id":"HAO","desc":"HAMILTON NDB"},
{"type":"NDB","hdg_t":221.6,"dist_nm":61.7,"freq":335,"lat":39.15966667,"lon":-84.34127778,"rng_nm":50,"alt_fmsl":0,"id":"LUK","desc":"CINCINNATI NDB"},
{"type":"NDB","hdg_t":214.5,"dist_nm":62.1,"freq":245,"lat":39.07669444,"lon":-84.21541667,"rng_nm":50,"alt_fmsl":0,"id":"PWF","desc":"SPORTYS NDB"},
{"type":"VOR","hdg_t":347.7,"dist_nm":62.7,"freq":108.2,"lat":40.95533333,"lon":-83.75602778,"rng_nm":40,"alt_fmsl":820,"id":"FBC","desc":"FLAG CITY VORTAC"},
{"type":"VOR","hdg_t":260.9,"dist_nm":64.5,"freq":110.6,"lat":39.75502778,"lon":-84.83886111,"rng_nm":40,"alt_fmsl":1135,"id":"RID","desc":"RICHMOND VORTAC"},
{"type":"NDB","hdg_t":184.2,"dist_nm":64.7,"freq":359,"lat":38.85541667,"lon":-83.56377778,"rng_nm":50,"alt_fmsl":0,"id":"AMT","desc":"WEST UNION NDB"},
{"type":"VOR","hdg_t":351.9,"dist_nm":65.5,"freq":114.9,"lat":41.01488889,"lon":-83.66433333,"rng_nm":25,"alt_fmsl":0,"id":"MAH","desc":"MARATHON VOR"},
{"type":"NDB","hdg_t":351.7,"dist_nm":65.9,"freq":334,"lat":41.02111111,"lon":-83.66911111,"rng_nm":50,"alt_fmsl":0,"id":"BNR","desc":"BENTON RIDGE NDB"},
{"type":"NDB","hdg_t":197.4,"dist_nm":65.9,"freq":219,"lat":38.88201700,"lon":-83.88518100,"rng_nm":25,"alt_fmsl":954,"id":"GEO","desc":"GEORGETOWN NDB"},
{"type":"NDB","hdg_t":247.7,"dist_nm":66.1,"freq":282,"lat":39.50755556,"lon":-84.78063889,"rng_nm":50,"alt_fmsl":0,"id":"OXD","desc":"OXFORD NDB"},
{"type":"NDB","hdg_t":42.6,"dist_nm":68.3,"freq":372,"lat":40.76633333,"lon":-82.44513889,"rng_nm":50,"alt_fmsl":0,"id":"MF","desc":"MANNS NDB"},
{"type":"VOR","hdg_t":35.1,"dist_nm":68.8,"freq":108.8,"lat":40.86861111,"lon":-82.59097222,"rng_nm":40,"alt_fmsl":1210,"id":"MFD","desc":"MANSFIELD VORTAC"},
{"type":"VOR","hdg_t":62.4,"dist_nm":68.9,"freq":116.5,"lat":40.45802778,"lon":-82.12683333,"rng_nm":40,"alt_fmsl":1340,"id":"TVT","desc":"TIVERTON VOR-DME"},
{"type":"NDB","hdg_t":340.5,"dist_nm":69.9,"freq":233,"lat":41.03116400,"lon":-83.97522200,"rng_nm":25,"alt_fmsl":760,"id":"PDR","desc":"OTTAWA NDB"},
{"type":"NDB","hdg_t":9.1,"dist_nm":70.5,"freq":269,"lat":41.09466667,"lon":-83.21497222,"rng_nm":50,"alt_fmsl":0,"id":"TII","desc":"TIFFIN NDB"},
{"type":"NDB","hdg_t":90.7,"dist_nm":71.2,"freq":204,"lat":39.90630556,"lon":-81.91927778,"rng_nm":50,"alt_fmsl":0,"id":"HRA","desc":"ZANESVILLE NDB"},
{"type":"VOR","hdg_t":89.1,"dist_nm":72.4,"freq":111.4,"lat":39.94086111,"lon":-81.89261111,"rng_nm":40,"alt_fmsl":898,"id":"ZZV","desc":"ZANESVILLE VOR-DME"},
{"type":"NDB","hdg_t":122.7,"dist_nm":74,"freq":250,"lat":39.25725000,"lon":-82.12597222,"rng_nm":50,"alt_fmsl":0,"id":"UGS","desc":"UNIVERSITY NDB"},
{"type":"NDB","hdg_t":2.2,"dist_nm":75.4,"freq":379,"lat":41.18933333,"lon":-83.39713889,"rng_nm":50,"alt_fmsl":0,"id":"FZI","desc":"FOSTORIA NDB"},
{"type":"NDB","hdg_t":294.5,"dist_nm":76.6,"freq":257,"lat":40.45366400,"lon":-84.98355000,"rng_nm":25,"alt_fmsl":959,"id":"PLD","desc":"PORTLAND NDB"},
{"type":"NDB","hdg_t":316.9,"dist_nm":76.7,"freq":411,"lat":40.86255556,"lon":-84.61383333,"rng_nm":50,"alt_fmsl":0,"id":"VFU","desc":"STANLEY NDB"},
{"type":"NDB","hdg_t":263.6,"dist_nm":77.6,"freq":227,"lat":39.77711111,"lon":-85.12988889,"rng_nm":50,"alt_fmsl":0,"id":"SQ","desc":"PNTHR NDB"},
{"type":"NDB","hdg_t":260.2,"dist_nm":78.5,"freq":275,"lat":39.69756100,"lon":-85.13438900,"rng_nm":25,"alt_fmsl":867,"id":"CEV","desc":"CONNERSVILLE NDB"},
{"type":"VOR","hdg_t":226.7,"dist_nm":79.6,"freq":117.3,"lat":39.01597222,"lon":-84.70333333,"rng_nm":40,"alt_fmsl":879,"id":"CVG","desc":"CINCINNATI VORTAC"},
{"type":"VOR","hdg_t":163.5,"dist_nm":80.4,"freq":112.8,"lat":38.64413889,"lon":-82.97833333,"rng_nm":40,"alt_fmsl":1040,"id":"YRK","desc":"YORK VORTAC"},
{"type":"NDB","hdg_t":229.2,"dist_nm":80.8,"freq":321,"lat":39.04574700,"lon":-84.77296400,"rng_nm":25,"alt_fmsl":0,"id":"UR","desc":"BURLN NDB"},
{"type":"NDB","hdg_t":186.1,"dist_nm":81.9,"freq":400,"lat":38.57358333,"lon":-83.64702778,"rng_nm":50,"alt_fmsl":0,"id":"XW","desc":"FLMNG NDB"},
{"type":"NDB","hdg_t":41.4,"dist_nm":82.9,"freq":329,"lat":40.96333333,"lon":-82.25336111,"rng_nm":50,"alt_fmsl":0,"id":"AAU","desc":"ASHLAND NDB"},
{"type":"NDB","hdg_t":189.1,"dist_nm":84.6,"freq":400,"lat":38.53813200,"lon":-83.74686400,"rng_nm":25,"alt_fmsl":921,"id":"FGX","desc":"FLEMINGSBURG NDB"},
{"type":"NDB","hdg_t":268.4,"dist_nm":85.7,"freq":385,"lat":39.87997222,"lon":-85.31886111,"rng_nm":50,"alt_fmsl":0,"id":"UWL","desc":"NEW CASTLE NDB"},
{"type":"VOR","hdg_t":207.4,"dist_nm":86.4,"freq":117,"lat":38.64950000,"lon":-84.31063889,"rng_nm":130,"alt_fmsl":810,"id":"FLM","desc":"FALMOUTH VOR-DME"},
{"type":"NDB","hdg_t":280.4,"dist_nm":86.9,"freq":365,"lat":40.18086111,"lon":-85.32091667,"rng_nm":50,"alt_fmsl":0,"id":"JN","desc":"BALLL NDB"},
{"type":"NDB","hdg_t":137,"dist_nm":89.4,"freq":420,"lat":38.83341667,"lon":-82.16152778,"rng_nm":50,"alt_fmsl":0,"id":"GAS","desc":"GALLIPOLIS NDB"},
{"type":"NDB","hdg_t":247.7,"dist_nm":90.2,"freq":254,"lat":39.34977778,"lon":-85.25775000,"rng_nm":50,"alt_fmsl":0,"id":"HLB","desc":"BATESVILLE NDB"},
{"type":"VOR","hdg_t":282.2,"dist_nm":90.8,"freq":114.4,"lat":40.23730556,"lon":-85.39402778,"rng_nm":40,"alt_fmsl":935,"id":"MIE","desc":"MUNCIE VOR-DME"},
{"type":"VOR","hdg_t":354.9,"dist_nm":91.4,"freq":113.1,"lat":41.45147222,"lon":-83.63869444,"rng_nm":40,"alt_fmsl":664,"id":"VWV","desc":"WATERVILLE VOR-DME"},
{"type":"VOR","hdg_t":78.3,"dist_nm":93.1,"freq":111.8,"lat":40.22922222,"lon":-81.47647222,"rng_nm":40,"alt_fmsl":1180,"id":"CTW","desc":"NEWCOMERSTOWN VOR-DME"},
{"type":"NDB","hdg_t":52.3,"dist_nm":93.6,"freq":400,"lat":40.87505600,"lon":-81.83319200,"rng_nm":25,"alt_fmsl":1170,"id":"SLW","desc":"SMITHVILLE NDB"},
{"type":"NDB","hdg_t":332.6,"dist_nm":94.8,"freq":246,"lat":41.33369444,"lon":-84.42800000,"rng_nm":50,"alt_fmsl":0,"id":"DFI","desc":"DEFIANCE NDB"},
{"type":"NDB","hdg_t":275.6,"dist_nm":94.8,"freq":394,"lat":40.06952778,"lon":-85.51069444,"rng_nm":50,"alt_fmsl":0,"id":"AI","desc":"VIDEO NDB"},
{"type":"NDB","hdg_t":308.7,"dist_nm":96.6,"freq":251,"lat":40.93050000,"lon":-85.11963889,"rng_nm":50,"alt_fmsl":0,"id":"FW","desc":"HOAGY NDB"},
{"type":"VOR","hdg_t":136.1,"dist_nm":97.2,"freq":115.9,"lat":38.75411111,"lon":-82.02616667,"rng_nm":130,"alt_fmsl":880,"id":"HNN","desc":"HENDERSON VORTAC"},
{"type":"VOR","hdg_t":21.9,"dist_nm":97.2,"freq":109.2,"lat":41.43447222,"lon":-82.65480556,"rng_nm":40,"alt_fmsl":580,"id":"SKY","desc":"SANDUSKY VOR-DME"},
{"type":"NDB","hdg_t":15.6,"dist_nm":98.8,"freq":423,"lat":41.51858333,"lon":-82.86872222,"rng_nm":50,"alt_fmsl":0,"id":"PCW","desc":"PORT CLINTON NDB"},
{"type":"NDB","hdg_t":347.9,"dist_nm":99.4,"freq":219,"lat":41.55347222,"lon":-83.92108333,"rng_nm":50,"alt_fmsl":0,"id":"TO","desc":"TOPHR NDB"}
]
}
