{"success":true,"source":"xp2csv.pl","last_updated":"2013/11/08 14:53:21 UTC"
,"icao":"KWYS","name":"Yellowstone","lat":44.6883985,"lon":-111.1176375,"rwys":1,"ils":1,"index":1122731,"path":"w120n40/w112n44"
,"runways":[
{"len_m":2559,"wid_m":45.72,"hdg":26,"surf":"Asphalt","rwy1":"01","lat1":44.67807200,"lon1":-111.12478300,"rwy2":"19","lat2":44.69872500,"lon2":-111.11049200}
]
,"radios":[
{"type":"CTAF","freq":123,"desc":"CTAF/UNICOM"}
]
,"ils":[
{"type":"ILS","freq":110.7,"lat":44.70204400,"lon":-111.10819200,"rng_nm":18,"alt_fmsl":6642,"hdg":26.20,"id":"ILOW","rwy":"01","desc":"ILS-cat-I"},
{"type":"GS","freq":110.7,"lat":44.68095600,"lon":-111.12450000,"rng_nm":10,"alt_fmsl":6642,"id":"ILOW","rwy":"01","desc":"GS","gs":3},
{"type":"OM","freq":0,"lat":44.57542500,"lon":-111.19755800,"rng_nm":0,"alt_fmsl":6642,"id":"----","rwy":"01","desc":"OM"},
{"type":"MM","freq":0,"lat":44.66911900,"lon":-111.13096900,"rng_nm":0,"alt_fmsl":6642,"id":"----","rwy":"01","desc":"MM"}
]
,"navaids":[
{"type":"NDB","hdg_t":295.7,"dist_nm":0.1,"freq":338,"lat":44.68958333,"lon":-111.12108333,"rng_nm":50,"alt_fmsl":0,"id":"ESY","desc":"YELLOWSTONE NDB"},
{"type":"NDB","hdg_t":206.8,"dist_nm":7.5,"freq":415,"lat":44.57541667,"lon":-111.19755556,"rng_nm":50,"alt_fmsl":0,"id":"LO","desc":"TARGY NDB"},
{"type":"NDB","hdg_t":326.9,"dist_nm":41.4,"freq":286,"lat":45.26583333,"lon":-111.65138889,"rng_nm":50,"alt_fmsl":0,"id":"EKS","desc":"ENNIS NDB"},
{"type":"VOR","hdg_t":232.9,"dist_nm":59.1,"freq":116.9,"lat":44.08886111,"lon":-112.20933333,"rng_nm":130,"alt_fmsl":4915,"id":"DBS","desc":"DUBOIS VORTAC"},
{"type":"VOR","hdg_t":146.5,"dist_nm":61.6,"freq":117.2,"lat":43.82827778,"lon":-110.33547222,"rng_nm":130,"alt_fmsl":7720,"id":"DNW","desc":"DUNOIR VOR-DME"},
{"type":"VOR","hdg_t":358.6,"dist_nm":65.7,"freq":112.4,"lat":45.78388889,"lon":-111.15544444,"rng_nm":130,"alt_fmsl":4430,"id":"BZN","desc":"BOZEMAN VOR-DME"},
{"type":"VOR","hdg_t":165.2,"dist_nm":66.1,"freq":115.4,"lat":43.62102778,"lon":-110.73169444,"rng_nm":40,"alt_fmsl":6452,"id":"JAC","desc":"JACKSON VOR-DME"},
{"type":"VOR","hdg_t":24.9,"dist_nm":67.2,"freq":116.1,"lat":45.70247222,"lon":-110.44244444,"rng_nm":40,"alt_fmsl":4653,"id":"LVM","desc":"LIVINGSTON VOR-DME"},
{"type":"VOR","hdg_t":299.4,"dist_nm":69.5,"freq":113,"lat":45.24858333,"lon":-112.54713889,"rng_nm":130,"alt_fmsl":5257,"id":"DLN","desc":"DILLON VOR-DME"},
{"type":"NDB","hdg_t":354.3,"dist_nm":71.3,"freq":266,"lat":45.87180556,"lon":-111.28572222,"rng_nm":50,"alt_fmsl":0,"id":"BZ","desc":"MANNI NDB"},
{"type":"NDB","hdg_t":209.9,"dist_nm":75.3,"freq":324,"lat":43.59783333,"lon":-111.98066667,"rng_nm":50,"alt_fmsl":0,"id":"ID","desc":"UCONN NDB"},
{"type":"VOR","hdg_t":210.5,"dist_nm":81.2,"freq":113.85,"lat":43.51900000,"lon":-112.06391667,"rng_nm":130,"alt_fmsl":4724,"id":"IDA","desc":"IDAHO FALLS VOR-DME"},
{"type":"VOR","hdg_t":328,"dist_nm":83.3,"freq":113.7,"lat":45.86180556,"lon":-112.16961111,"rng_nm":130,"alt_fmsl":4652,"id":"HIA","desc":"WHITEHALL VOR-DME"},
{"type":"NDB","hdg_t":211.3,"dist_nm":87.8,"freq":350,"lat":43.43216667,"lon":-112.16252778,"rng_nm":50,"alt_fmsl":0,"id":"SWU","desc":"SWEDEN NDB"},
{"type":"VOR","hdg_t":91.7,"dist_nm":92.2,"freq":111.8,"lat":44.62044444,"lon":-108.96491667,"rng_nm":40,"alt_fmsl":4800,"id":"COD","desc":"CODY VOR-DME"}
]
}
