{"success":true,"source":"xp2csv.pl","last_updated":"2013/11/08 14:53:21 UTC"
,"icao":"KYIP","name":"Willow Run","lat":42.237659076,"lon":-83.530272636,"rwys":5,"ils":1,"index":1581321,"path":"w090n40/w084n42"
,"runways":[
{"len_m":2293,"wid_m":46.02,"hdg":46,"surf":"Asphalt","rwy1":"05R","lat1":42.23062500,"lon1":-83.53985300,"rwy2":"23L","lat2":42.24478300,"lon2":-83.51962500},
{"len_m":2222,"wid_m":49.07,"hdg":88,"surf":"Asphalt","rwy1":"09L","lat1":42.24395600,"lon1":-83.54332200,"rwy2":"27R","lat2":42.24445800,"lon2":-83.51639700},
{"len_m":1926,"wid_m":49.07,"hdg":136,"surf":"Asphalt","rwy1":"14","lat1":42.24318945,"lon1":-83.53932544,"rwy2":"32","lat2":42.23070430,"lon2":-83.52311992},
{"len_m":2028,"wid_m":49.07,"hdg":46,"surf":"Asphalt","rwy1":"05L","lat1":42.23218300,"lon1":-83.54168100,"rwy2":"23R","lat2":42.24470300,"lon2":-83.52378900},
{"len_m":1984,"wid_m":49.07,"hdg":88,"surf":"Asphalt","rwy1":"09R","lat1":42.23077200,"lon1":-83.53982200,"rwy2":"27L","lat2":42.23121700,"lon2":-83.51579200}
]
,"radios":[
{"type":"ATIS","freq":127.45,"desc":"ATIS"},
{"type":"CTAF","freq":122.95,"desc":"UNICOM"},
{"type":"GND","freq":121.75,"desc":"GND"},
{"type":"TWR","freq":125.27,"desc":"TWR"},
{"type":"APP","freq":118.95,"desc":"DETROIT APP/DEP"}
]
,"ils":[
{"type":"ILS","freq":109.5,"lat":42.24627200,"lon":-83.51749700,"rng_nm":18,"alt_fmsl":716,"hdg":46.62,"id":"IYIP","rwy":"05R","desc":"ILS-cat-I"},
{"type":"ILS","freq":109.5,"lat":42.22920600,"lon":-83.54187500,"rng_nm":18,"alt_fmsl":716,"hdg":226.59,"id":"ILSW","rwy":"23L","desc":"ILS-cat-I"},
{"type":"GS","freq":109.5,"lat":42.23188600,"lon":-83.53581100,"rng_nm":10,"alt_fmsl":714,"id":"IYIP","rwy":"05R","desc":"GS","gs":3},
{"type":"GS","freq":109.5,"lat":42.24204700,"lon":-83.52135300,"rng_nm":10,"alt_fmsl":705,"id":"ILSW","rwy":"23L","desc":"GS","gs":3},
{"type":"OM","freq":0,"lat":42.17423100,"lon":-83.62150300,"rng_nm":0,"alt_fmsl":716,"id":"----","rwy":"05R","desc":"OM"},
{"type":"OM","freq":0,"lat":42.29898300,"lon":-83.44162800,"rng_nm":0,"alt_fmsl":716,"id":"----","rwy":"23L","desc":"OM"},
{"type":"MM","freq":0,"lat":42.22533300,"lon":-83.54741700,"rng_nm":0,"alt_fmsl":716,"id":"----","rwy":"05R","desc":"MM"},
{"type":"MM","freq":0,"lat":42.25017800,"lon":-83.51193600,"rng_nm":0,"alt_fmsl":716,"id":"----","rwy":"23L","desc":"MM"},
{"type":"DME","freq":109.5,"lat":42.24615000,"lon":-83.51743600,"rng_nm":18,"alt_fmsl":716,"id":"IYIP","rwy":"05R","desc":"DME-ILS"},
{"type":"DME","freq":109.5,"lat":42.24615000,"lon":-83.51743600,"rng_nm":18,"alt_fmsl":716,"id":"ILSW","rwy":"23L","desc":"DME-ILS"}
]
,"navaids":[
{"type":"NDB","hdg_t":226.9,"dist_nm":5.5,"freq":359,"lat":42.17422222,"lon":-83.62155556,"rng_nm":50,"alt_fmsl":0,"id":"YI","desc":"YIPPS NDB"},
{"type":"VOR","hdg_t":101.3,"dist_nm":7.4,"freq":113.4,"lat":42.21313889,"lon":-83.36666667,"rng_nm":130,"alt_fmsl":638,"id":"DXO","desc":"DETROIT VOR-DME"},
{"type":"NDB","hdg_t":148,"dist_nm":8.3,"freq":388,"lat":42.12011111,"lon":-83.43172222,"rng_nm":50,"alt_fmsl":0,"id":"DT","desc":"REVUP NDB"},
{"type":"VOR","hdg_t":344.5,"dist_nm":10.6,"freq":114.3,"lat":42.40886111,"lon":-83.59419444,"rng_nm":40,"alt_fmsl":950,"id":"SVM","desc":"SALEM VORTAC"},
{"type":"VOR","hdg_t":164,"dist_nm":11.8,"freq":115.7,"lat":42.04802778,"lon":-83.45758333,"rng_nm":130,"alt_fmsl":629,"id":"CRL","desc":"CARLETON VORTAC"},
{"type":"NDB","hdg_t":94,"dist_nm":14.6,"freq":223,"lat":42.22000000,"lon":-83.20330556,"rng_nm":50,"alt_fmsl":0,"id":"DM","desc":"SPENC NDB"},
{"type":"NDB","hdg_t":115.8,"dist_nm":18.7,"freq":419,"lat":42.10111111,"lon":-83.15297222,"rng_nm":50,"alt_fmsl":0,"id":"RYS","desc":"GROSSE ILE NDB"},
{"type":"NDB","hdg_t":232.5,"dist_nm":20,"freq":239,"lat":42.03394444,"lon":-83.88633333,"rng_nm":50,"alt_fmsl":0,"id":"TCU","desc":"TECUMSEH NDB"},
{"type":"NDB","hdg_t":88.8,"dist_nm":21.5,"freq":398,"lat":42.24388900,"lon":-83.04750000,"rng_nm":25,"alt_fmsl":0,"id":"ZQG","desc":"LAUREL NDB"},
{"type":"NDB","hdg_t":51.4,"dist_nm":24.8,"freq":338,"lat":42.49477778,"lon":-83.09330556,"rng_nm":50,"alt_fmsl":0,"id":"DE","desc":"MADDS (LOM) NDB"},
{"type":"NDB","hdg_t":74.3,"dist_nm":26.6,"freq":230,"lat":42.35625000,"lon":-82.95427778,"rng_nm":50,"alt_fmsl":0,"id":"VQ","desc":"CARGL NDB"},
{"type":"VOR","hdg_t":359.7,"dist_nm":27.7,"freq":111,"lat":42.70086111,"lon":-83.53275000,"rng_nm":40,"alt_fmsl":1148,"id":"PSI","desc":"PONTIAC VORTAC"},
{"type":"NDB","hdg_t":81,"dist_nm":29.8,"freq":353,"lat":42.31269444,"lon":-82.86852778,"rng_nm":50,"alt_fmsl":0,"id":"QG","desc":"WINDSOR NDB"},
{"type":"NDB","hdg_t":319.9,"dist_nm":31,"freq":243,"lat":42.63341667,"lon":-83.98252778,"rng_nm":50,"alt_fmsl":0,"id":"OZW","desc":"HOWELL NDB"},
{"type":"VOR","hdg_t":88.4,"dist_nm":31.2,"freq":113.8,"lat":42.24972222,"lon":-82.82894444,"rng_nm":40,"alt_fmsl":625,"id":"YQG","desc":"WINDSOR VOR-DME"},
{"type":"NDB","hdg_t":228.1,"dist_nm":32.9,"freq":278,"lat":41.86997222,"lon":-84.07747222,"rng_nm":50,"alt_fmsl":0,"id":"ADG","desc":"ADRIAN NDB"},
{"type":"NDB","hdg_t":44.4,"dist_nm":35.7,"freq":215,"lat":42.66142200,"lon":-82.96548100,"rng_nm":25,"alt_fmsl":607,"id":"UIZ","desc":"BERZ NDB"},
{"type":"NDB","hdg_t":277.6,"dist_nm":37.5,"freq":212,"lat":42.31783333,"lon":-84.36555556,"rng_nm":50,"alt_fmsl":0,"id":"JX","desc":"JAKSO NDB"},
{"type":"SDME","hdg_t":197.4,"dist_nm":40.4,"freq":112.5,"lat":41.59370300,"lon":-83.79936400,"rng_nm":25,"alt_fmsl":671,"id":"TOL","desc":"TOLEDO TACAN"},
{"type":"VOR","hdg_t":272.1,"dist_nm":41.3,"freq":109.6,"lat":42.25925000,"lon":-84.45855556,"rng_nm":40,"alt_fmsl":995,"id":"JXN","desc":"JACKSON VOR-DME"},
{"type":"NDB","hdg_t":203.2,"dist_nm":44.6,"freq":219,"lat":41.55347222,"lon":-83.92108333,"rng_nm":50,"alt_fmsl":0,"id":"TO","desc":"TOPHR NDB"},
{"type":"VOR","hdg_t":347.6,"dist_nm":44.7,"freq":116.9,"lat":42.96677778,"lon":-83.74697222,"rng_nm":130,"alt_fmsl":772,"id":"FNT","desc":"FLINT VORTAC"},
{"type":"NDB","hdg_t":215.8,"dist_nm":46.3,"freq":375,"lat":41.60922222,"lon":-84.13272222,"rng_nm":50,"alt_fmsl":0,"id":"USE","desc":"FULTON NDB"},
{"type":"NDB","hdg_t":340.1,"dist_nm":46.6,"freq":269,"lat":42.96811111,"lon":-83.89008333,"rng_nm":50,"alt_fmsl":0,"id":"FN","desc":"PETLI NDB"},
{"type":"NDB","hdg_t":125.2,"dist_nm":47.2,"freq":283,"lat":41.77944444,"lon":-82.67000000,"rng_nm":50,"alt_fmsl":0,"id":"PT","desc":"PELEE ISLAND NDB"},
{"type":"VOR","hdg_t":185.9,"dist_nm":47.4,"freq":113.1,"lat":41.45147222,"lon":-83.63869444,"rng_nm":40,"alt_fmsl":664,"id":"VWV","desc":"WATERVILLE VOR-DME"},
{"type":"NDB","hdg_t":145.2,"dist_nm":52.3,"freq":423,"lat":41.51858333,"lon":-82.86872222,"rng_nm":50,"alt_fmsl":0,"id":"PCW","desc":"PORT CLINTON NDB"},
{"type":"NDB","hdg_t":307.3,"dist_nm":53.7,"freq":206,"lat":42.77755800,"lon":-84.49758600,"rng_nm":25,"alt_fmsl":841,"id":"LA","desc":"ARTDA NDB"},
{"type":"NDB","hdg_t":48.4,"dist_nm":55,"freq":332,"lat":42.84291667,"lon":-82.59669444,"rng_nm":50,"alt_fmsl":0,"id":"PH","desc":"PHURN NDB"},
{"type":"VOR","hdg_t":259.6,"dist_nm":56.1,"freq":111.2,"lat":42.06250000,"lon":-84.76513889,"rng_nm":40,"alt_fmsl":1040,"id":"LFD","desc":"LITCHFIELD VOR-DME"},
{"type":"VOR","hdg_t":299.4,"dist_nm":59.2,"freq":110.8,"lat":42.71738889,"lon":-84.69750000,"rng_nm":40,"alt_fmsl":888,"id":"LAN","desc":"LANSING VORTAC"},
{"type":"NDB","hdg_t":222.9,"dist_nm":61.8,"freq":260,"lat":41.47886111,"lon":-84.46591667,"rng_nm":50,"alt_fmsl":0,"id":"BYN","desc":"BRYAN NDB"},
{"type":"VOR","hdg_t":140.5,"dist_nm":62.1,"freq":109.2,"lat":41.43447222,"lon":-82.65480556,"rng_nm":40,"alt_fmsl":580,"id":"SKY","desc":"SANDUSKY VOR-DME"},
{"type":"NDB","hdg_t":174.5,"dist_nm":63.1,"freq":379,"lat":41.18933333,"lon":-83.39713889,"rng_nm":50,"alt_fmsl":0,"id":"FZI","desc":"FOSTORIA NDB"},
{"type":"NDB","hdg_t":85.5,"dist_nm":64.8,"freq":236,"lat":42.31222222,"lon":-82.07777778,"rng_nm":50,"alt_fmsl":0,"id":"4L","desc":"CHATHAM-KENT NDB"},
{"type":"NDB","hdg_t":216.9,"dist_nm":67.5,"freq":246,"lat":41.33369444,"lon":-84.42800000,"rng_nm":50,"alt_fmsl":0,"id":"DFI","desc":"DEFIANCE NDB"},
{"type":"NDB","hdg_t":168.2,"dist_nm":69.9,"freq":269,"lat":41.09466667,"lon":-83.21497222,"rng_nm":50,"alt_fmsl":0,"id":"TII","desc":"TIFFIN NDB"},
{"type":"VOR","hdg_t":30.1,"dist_nm":70.8,"freq":114,"lat":43.25588889,"lon":-82.71791667,"rng_nm":130,"alt_fmsl":810,"id":"ECK","desc":"PECK VORTAC"},
{"type":"NDB","hdg_t":53.2,"dist_nm":71.2,"freq":404,"lat":42.94047222,"lon":-82.23383333,"rng_nm":50,"alt_fmsl":0,"id":"ZR","desc":"SARNIA NDB"},
{"type":"NDB","hdg_t":184.9,"dist_nm":73.2,"freq":334,"lat":41.02111111,"lon":-83.66911111,"rng_nm":50,"alt_fmsl":0,"id":"BNR","desc":"BENTON RIDGE NDB"},
{"type":"VOR","hdg_t":184.7,"dist_nm":73.5,"freq":114.9,"lat":41.01488889,"lon":-83.66433333,"rng_nm":25,"alt_fmsl":0,"id":"MAH","desc":"MARATHON VOR"},
{"type":"NDB","hdg_t":276.3,"dist_nm":74,"freq":272,"lat":42.36200000,"lon":-85.18450000,"rng_nm":50,"alt_fmsl":0,"id":"BT","desc":"BATOL NDB"},
{"type":"NDB","hdg_t":195.6,"dist_nm":75,"freq":233,"lat":41.03116400,"lon":-83.97522200,"rng_nm":25,"alt_fmsl":760,"id":"PDR","desc":"OTTAWA NDB"},
{"type":"VOR","hdg_t":273.8,"dist_nm":76.8,"freq":109.4,"lat":42.30980556,"lon":-85.25233333,"rng_nm":25,"alt_fmsl":922,"id":"BTL","desc":"BATTLE CREEK VORTAC"},
{"type":"VOR","hdg_t":187.6,"dist_nm":77.5,"freq":108.2,"lat":40.95533333,"lon":-83.75602778,"rng_nm":40,"alt_fmsl":820,"id":"FBC","desc":"FLAG CITY VORTAC"},
{"type":"NDB","hdg_t":243.2,"dist_nm":78.3,"freq":347,"lat":41.63977778,"lon":-85.08691667,"rng_nm":50,"alt_fmsl":0,"id":"ANQ","desc":"ANGOLA NDB"},
{"type":"NDB","hdg_t":338.8,"dist_nm":78.8,"freq":257,"lat":43.46150000,"lon":-84.17983333,"rng_nm":50,"alt_fmsl":0,"id":"MB","desc":"OLSTE NDB"},
{"type":"VOR","hdg_t":130.2,"dist_nm":80.9,"freq":113.6,"lat":41.35805556,"lon":-82.16197222,"rng_nm":130,"alt_fmsl":780,"id":"DJB","desc":"DRYER VOR-DME"},
{"type":"VOR","hdg_t":342.9,"dist_nm":81.2,"freq":112.9,"lat":43.53166667,"lon":-84.07730556,"rng_nm":40,"alt_fmsl":663,"id":"MBS","desc":"SAGINAW VOR-DME"},
{"type":"NDB","hdg_t":229.1,"dist_nm":84.4,"freq":227,"lat":41.30830556,"lon":-84.94419444,"rng_nm":50,"alt_fmsl":0,"id":"GW","desc":"SHENK NDB"},
{"type":"NDB","hdg_t":126.9,"dist_nm":88.5,"freq":344,"lat":41.33862800,"lon":-81.96443300,"rng_nm":50,"alt_fmsl":800,"id":"CL","desc":"HARRI NDB"},
{"type":"NDB","hdg_t":253.9,"dist_nm":88.8,"freq":382,"lat":41.81313889,"lon":-85.43377778,"rng_nm":50,"alt_fmsl":0,"id":"IRS","desc":"STURGIS NDB"},
{"type":"NDB","hdg_t":266.5,"dist_nm":89.4,"freq":371,"lat":42.13105556,"lon":-85.52975000,"rng_nm":50,"alt_fmsl":0,"id":"AZ","desc":"AUSTN NDB"},
{"type":"VOR","hdg_t":270.6,"dist_nm":90.1,"freq":109,"lat":42.23700000,"lon":-85.55316667,"rng_nm":40,"alt_fmsl":870,"id":"AZO","desc":"KALAMAZOO VOR-DME"},
{"type":"NDB","hdg_t":296.3,"dist_nm":90.9,"freq":263,"lat":42.89563889,"lon":-85.37858333,"rng_nm":50,"alt_fmsl":0,"id":"GR","desc":"KNOBS NDB"},
{"type":"VOR","hdg_t":152.4,"dist_nm":92.3,"freq":108.8,"lat":40.86861111,"lon":-82.59097222,"rng_nm":40,"alt_fmsl":1210,"id":"MFD","desc":"MANSFIELD VORTAC"},
{"type":"NDB","hdg_t":118.3,"dist_nm":92.6,"freq":226,"lat":41.48891900,"lon":-81.72283100,"rng_nm":25,"alt_fmsl":617,"id":"EZE","desc":"ENGEL NDB"},
{"type":"VOR","hdg_t":291.3,"dist_nm":93.2,"freq":115.95,"lat":42.78672222,"lon":-85.49708333,"rng_nm":130,"alt_fmsl":803,"id":"GRR","desc":"GRAND RAPIDS VOR-DME"},
{"type":"NDB","hdg_t":260.3,"dist_nm":93.5,"freq":407,"lat":41.95838889,"lon":-85.59166667,"rng_nm":50,"alt_fmsl":0,"id":"HAI","desc":"THREE RIVERS NDB"},
{"type":"NDB","hdg_t":116.3,"dist_nm":93.8,"freq":416,"lat":41.52874700,"lon":-81.66336700,"rng_nm":25,"alt_fmsl":581,"id":"BKL","desc":"BURKE LAKEFRONT NDB"},
{"type":"VOR","hdg_t":192.2,"dist_nm":93.8,"freq":108.4,"lat":40.70711111,"lon":-83.96816667,"rng_nm":25,"alt_fmsl":0,"id":"AOH","desc":"ALLEN CO VOR"},
{"type":"NDB","hdg_t":142.6,"dist_nm":95.6,"freq":329,"lat":40.96333333,"lon":-82.25336111,"rng_nm":50,"alt_fmsl":0,"id":"AAU","desc":"ASHLAND NDB"},
{"type":"NDB","hdg_t":210.9,"dist_nm":95.8,"freq":411,"lat":40.86255556,"lon":-84.61383333,"rng_nm":50,"alt_fmsl":0,"id":"VFU","desc":"STANLEY NDB"},
{"type":"VOR","hdg_t":14.3,"dist_nm":95.8,"freq":108.2,"lat":43.78366667,"lon":-82.98319444,"rng_nm":25,"alt_fmsl":766,"id":"BAX","desc":"BAD AXE VOR-DME"},
{"type":"NDB","hdg_t":113.9,"dist_nm":96.3,"freq":248,"lat":41.56913889,"lon":-81.57375000,"rng_nm":50,"alt_fmsl":0,"id":"BF","desc":"TABEY NDB"},
{"type":"VOR","hdg_t":327.7,"dist_nm":98.6,"freq":110.6,"lat":43.62283333,"lon":-84.73727778,"rng_nm":40,"alt_fmsl":752,"id":"MOP","desc":"MOUNT PLEASANT VOR-DME"},
{"type":"VOR","hdg_t":167.6,"dist_nm":99.4,"freq":109.8,"lat":40.61658333,"lon":-83.06383333,"rng_nm":25,"alt_fmsl":0,"id":"BUD","desc":"BUCKEYE VOR"}
]
}
