{"success":true,"source":"xp2csv.pl","last_updated":"2013/11/08 14:53:21 UTC"
,"icao":"L75","name":"Southland Fld","lat":30.131433,"lon":-93.376172,"rwys":1,"ils":0,"index":1416714,"path":"w100n30/w094n30"
,"runways":[
{"len_m":1524,"wid_m":22.86,"hdg":150,"surf":"Asphalt","rwy1":"15","lat1":30.13740800,"lon1":-93.38008300,"rwy2":"33","lat2":30.12545800,"lon2":-93.37226100}
]
,"radios":[
{"type":"CTAF","freq":122.8,"desc":"CTAF/UNICOM"},
{"type":"APP","freq":119.35,"desc":"LAKE CHARLES APP/DEP"}
]
,"navaids":[
{"type":"NDB","hdg_t":330,"dist_nm":4.6,"freq":278,"lat":30.19852778,"lon":-93.42063889,"rng_nm":50,"alt_fmsl":0,"id":"AUR","desc":"SULPHUR NDB"},
{"type":"NDB","hdg_t":57.8,"dist_nm":6.9,"freq":353,"lat":30.19305556,"lon":-93.26313889,"rng_nm":50,"alt_fmsl":0,"id":"LC","desc":"KEYLI NDB"},
{"type":"NDB","hdg_t":41.6,"dist_nm":14,"freq":418,"lat":30.30663889,"lon":-93.19619444,"rng_nm":50,"alt_fmsl":0,"id":"CW","desc":"MOSSY NDB"},
{"type":"VOR","hdg_t":87.4,"dist_nm":14,"freq":113.4,"lat":30.14150000,"lon":-93.10555556,"rng_nm":130,"alt_fmsl":20,"id":"LCH","desc":"LAKE CHARLES VORTAC"},
{"type":"NDB","hdg_t":345.4,"dist_nm":18.7,"freq":410,"lat":30.43533333,"lon":-93.46708333,"rng_nm":50,"alt_fmsl":0,"id":"DQU","desc":"DE QUINCY NDB"},
{"type":"NDB","hdg_t":260.5,"dist_nm":22.1,"freq":211,"lat":30.07027778,"lon":-93.79494444,"rng_nm":50,"alt_fmsl":0,"id":"ORG","desc":"ORANGE NDB"},
{"type":"VOR","hdg_t":251.7,"dist_nm":35.1,"freq":114.5,"lat":29.94605556,"lon":-94.01622222,"rng_nm":40,"alt_fmsl":10,"id":"BPT","desc":"BEAUMONT VOR-DME"},
{"type":"NDB","hdg_t":3.3,"dist_nm":37.2,"freq":385,"lat":30.75213889,"lon":-93.33472222,"rng_nm":50,"alt_fmsl":0,"id":"DXB","desc":"DE RIDDER NDB"},
{"type":"VOR","hdg_t":232.5,"dist_nm":43.5,"freq":115.4,"lat":29.68672222,"lon":-94.03797222,"rng_nm":40,"alt_fmsl":10,"id":"SBI","desc":"SABINE PASS VOR-DME"},
{"type":"NDB","hdg_t":265.4,"dist_nm":43.6,"freq":368,"lat":30.07047222,"lon":-94.21102778,"rng_nm":50,"alt_fmsl":0,"id":"GDE","desc":"GOODHUE NDB"},
{"type":"NDB","hdg_t":49.2,"dist_nm":46.9,"freq":379,"lat":30.64122222,"lon":-92.68916667,"rng_nm":50,"alt_fmsl":0,"id":"LRR","desc":"OAKDALE NDB"},
{"type":"NDB","hdg_t":285.1,"dist_nm":47.5,"freq":524,"lat":30.33633333,"lon":-94.26036111,"rng_nm":50,"alt_fmsl":0,"id":"HRD","desc":"HARDIN CO NDB"},
{"type":"NDB","hdg_t":61.7,"dist_nm":54.5,"freq":263,"lat":30.55983333,"lon":-92.44808333,"rng_nm":50,"alt_fmsl":0,"id":"ECY","desc":"DURALDE NDB"},
{"type":"NDB","hdg_t":10.4,"dist_nm":54.5,"freq":359,"lat":31.02825000,"lon":-93.18483333,"rng_nm":50,"alt_fmsl":0,"id":"GUV","desc":"GATOR NDB"},
{"type":"NDB","hdg_t":1.7,"dist_nm":58.1,"freq":247,"lat":31.10236111,"lon":-93.34194444,"rng_nm":50,"alt_fmsl":0,"id":"VED","desc":"LEESVILLE NDB"},
{"type":"VOR","hdg_t":7.9,"dist_nm":59.2,"freq":108.4,"lat":31.11163889,"lon":-93.21791667,"rng_nm":25,"alt_fmsl":312,"id":"FXU","desc":"POLK VORTAC"},
{"type":"VOR","hdg_t":117.9,"dist_nm":59.3,"freq":110.4,"lat":29.66322222,"lon":-92.37363889,"rng_nm":40,"alt_fmsl":40,"id":"LLA","desc":"WHITE LAKE VOR-DME"},
{"type":"NDB","hdg_t":93.3,"dist_nm":65.3,"freq":230,"lat":30.06113889,"lon":-92.12327778,"rng_nm":50,"alt_fmsl":0,"id":"BNZ","desc":"ABBEVILLE NDB"},
{"type":"VOR","hdg_t":273.3,"dist_nm":66,"freq":116.9,"lat":30.18972222,"lon":-94.64497222,"rng_nm":130,"alt_fmsl":76,"id":"DAS","desc":"DAISETTA VORTAC"},
{"type":"VOR","hdg_t":86.6,"dist_nm":72,"freq":109.8,"lat":30.19380556,"lon":-91.99258333,"rng_nm":40,"alt_fmsl":36,"id":"LFT","desc":"LAFAYETTE VORTAC"},
{"type":"NDB","hdg_t":64.3,"dist_nm":73.3,"freq":335,"lat":30.65525000,"lon":-92.09869444,"rng_nm":50,"alt_fmsl":0,"id":"OPL","desc":"SAINT LANDRY NDB"},
{"type":"NDB","hdg_t":53.1,"dist_nm":73.7,"freq":397,"lat":30.86541667,"lon":-92.23408333,"rng_nm":50,"alt_fmsl":0,"id":"BWK","desc":"BUNKIE NDB"},
{"type":"NDB","hdg_t":82.5,"dist_nm":76.9,"freq":375,"lat":30.28930556,"lon":-91.90794444,"rng_nm":50,"alt_fmsl":0,"id":"LF","desc":"LAFFS NDB"},
{"type":"NDB","hdg_t":97.2,"dist_nm":79.4,"freq":269,"lat":29.95627778,"lon":-91.86333333,"rng_nm":50,"alt_fmsl":0,"id":"AR","desc":"ACADI NDB"},
{"type":"VOR","hdg_t":244.2,"dist_nm":79.6,"freq":113.6,"lat":29.54633333,"lon":-94.74750000,"rng_nm":40,"alt_fmsl":38,"id":"MHF","desc":"TRINITY VOR-DME"},
{"type":"VOR","hdg_t":33.6,"dist_nm":81.1,"freq":116.1,"lat":31.25672222,"lon":-92.50097222,"rng_nm":130,"alt_fmsl":80,"id":"AEX","desc":"ALEXANDRIA VORTAC"},
{"type":"NDB","hdg_t":236.8,"dist_nm":86.4,"freq":206,"lat":29.33397222,"lon":-94.75622222,"rng_nm":75,"alt_fmsl":0,"id":"GLS","desc":"GALVESTON NDB"},
{"type":"NDB","hdg_t":354.3,"dist_nm":86.6,"freq":272,"lat":31.57127778,"lon":-93.54155556,"rng_nm":50,"alt_fmsl":0,"id":"MMY","desc":"MANY NDB"},
{"type":"NDB","hdg_t":49.1,"dist_nm":88.7,"freq":347,"lat":31.09461111,"lon":-92.07266667,"rng_nm":50,"alt_fmsl":0,"id":"MKV","desc":"MARKSVILLE NDB"},
{"type":"NDB","hdg_t":253,"dist_nm":92.5,"freq":347,"lat":29.66841667,"lon":-95.06983333,"rng_nm":50,"alt_fmsl":0,"id":"JPA","desc":"SANJAC NDB"},
{"type":"NDB","hdg_t":9.5,"dist_nm":92.6,"freq":407,"lat":31.65744444,"lon":-93.07761111,"rng_nm":50,"alt_fmsl":0,"id":"OOC","desc":"NATCHITOCHES NDB"},
{"type":"VOR","hdg_t":311.9,"dist_nm":92.8,"freq":112.1,"lat":31.16236111,"lon":-94.71694444,"rng_nm":130,"alt_fmsl":200,"id":"LFK","desc":"LUFKIN VORTAC"},
{"type":"VOR","hdg_t":236.8,"dist_nm":93.4,"freq":113,"lat":29.26933333,"lon":-94.86772222,"rng_nm":40,"alt_fmsl":4,"id":"VUH","desc":"SCHOLES VORTAC"},
{"type":"VOR","hdg_t":34.3,"dist_nm":95.7,"freq":117.9,"lat":31.44751100,"lon":-92.32193900,"rng_nm":130,"alt_fmsl":195,"id":"ESF","desc":"ESLER VORTAC"},
{"type":"NDB","hdg_t":265.5,"dist_nm":96,"freq":326,"lat":29.99333333,"lon":-95.21502778,"rng_nm":50,"alt_fmsl":0,"id":"BVP","desc":"NIXIN NDB"},
{"type":"NDB","hdg_t":38.9,"dist_nm":97.4,"freq":223,"lat":31.39205556,"lon":-92.18200000,"rng_nm":50,"alt_fmsl":0,"id":"ES","desc":"ANDRA NDB"},
{"type":"SDME","hdg_t":251.7,"dist_nm":98.2,"freq":109.4,"lat":29.60595800,"lon":-95.15965300,"rng_nm":40,"alt_fmsl":30,"id":"EFD","desc":"ELLINGTON TACAN"},
{"type":"NDB","hdg_t":311.3,"dist_nm":99.2,"freq":350,"lat":31.21888889,"lon":-94.82508333,"rng_nm":50,"alt_fmsl":0,"id":"LF","desc":"FLUFY NDB"}
]
}
