{"success":true,"source":"xp2csv.pl","last_updated":"2013/11/08 14:53:21 UTC"
,"icao":"LA10","name":"Gjirokaster","lat":40.0873195,"lon":20.1530665,"rwys":1,"ils":0,"index":3285120,"path":"e020n40/e020n40"
,"runways":[
{"len_m":1174,"wid_m":69.49,"hdg":142,"surf":"Turf/grass","rwy1":"14","lat1":40.09151100,"lon1":20.14886400,"rwy2":"32","lat2":40.08312800,"lon2":20.15726900}
]
,"navaids":[
{"type":"VOR","hdg_t":201.4,"dist_nm":30.9,"freq":108.8,"lat":39.60638900,"lon":19.90944400,"rng_nm":25,"alt_fmsl":29,"id":"GAR","desc":"GARITSA VOR-DME"},
{"type":"NDB","hdg_t":200.5,"dist_nm":31.9,"freq":403,"lat":39.58777800,"lon":19.91166700,"rng_nm":25,"alt_fmsl":0,"id":"KEK","desc":"KERKIRA NDB"},
{"type":"NDB","hdg_t":127,"dist_nm":38.4,"freq":340,"lat":39.69888900,"lon":20.81611100,"rng_nm":50,"alt_fmsl":0,"id":"IOA","desc":"IOANNINA NDB"},
{"type":"VOR","hdg_t":126.7,"dist_nm":38.5,"freq":108.6,"lat":39.70138900,"lon":20.82000000,"rng_nm":130,"alt_fmsl":1568,"id":"YNN","desc":"IOANNINA VOR-DME"},
{"type":"VOR","hdg_t":185.5,"dist_nm":38.7,"freq":114.7,"lat":39.44388900,"lon":20.07277800,"rng_nm":130,"alt_fmsl":78,"id":"KRK","desc":"KERKIRA VOR-DME"},
{"type":"NDB","hdg_t":67.1,"dist_nm":55.9,"freq":372,"lat":40.44472200,"lon":21.27944400,"rng_nm":25,"alt_fmsl":0,"id":"KSO","desc":"KASTORIA NDB"},
{"type":"VOR","hdg_t":66.7,"dist_nm":55.9,"freq":114.5,"lat":40.45098500,"lon":21.27540700,"rng_nm":25,"alt_fmsl":2148,"id":"KAS","desc":"KASTORIA VOR-DME"},
{"type":"VOR","hdg_t":22,"dist_nm":70.3,"freq":112.5,"lat":41.17239400,"lon":20.73639400,"rng_nm":25,"alt_fmsl":2313,"id":"OHR","desc":"OHRID VOR-DME"},
{"type":"VOR","hdg_t":157.7,"dist_nm":75.1,"freq":110,"lat":38.92491900,"lon":20.76147700,"rng_nm":40,"alt_fmsl":-10,"id":"AKT","desc":"PREVEZA/AKTION VOR-DME"},
{"type":"NDB","hdg_t":158,"dist_nm":75.5,"freq":353,"lat":38.91658300,"lon":20.75727800,"rng_nm":50,"alt_fmsl":0,"id":"PAK","desc":"PREVEZA NDB"},
{"type":"VOR","hdg_t":80.7,"dist_nm":78.4,"freq":109.6,"lat":40.28513300,"lon":21.84044400,"rng_nm":25,"alt_fmsl":2055,"id":"KOZ","desc":"KOZANI VOR-DME"},
{"type":"NDB","hdg_t":80.6,"dist_nm":78.5,"freq":291,"lat":40.28903100,"lon":21.84200800,"rng_nm":50,"alt_fmsl":0,"id":"KZN","desc":"KOZANI NDB"},
{"type":"NDB","hdg_t":345.9,"dist_nm":79.1,"freq":380,"lat":41.36750000,"lon":19.72777800,"rng_nm":75,"alt_fmsl":0,"id":"KA","desc":"KA NDB"},
{"type":"NDB","hdg_t":21.8,"dist_nm":81.2,"freq":432,"lat":41.34277800,"lon":20.82055600,"rng_nm":50,"alt_fmsl":2306,"id":"IZD","desc":"OHRID NDB"},
{"type":"VOR","hdg_t":346.1,"dist_nm":82.1,"freq":117.7,"lat":41.41612500,"lon":19.71819200,"rng_nm":110,"alt_fmsl":125,"id":"TRN","desc":"TIRANA VOR-DME"},
{"type":"SDME","hdg_t":345.9,"dist_nm":82.3,"freq":117.7,"lat":41.41833300,"lon":19.71166700,"rng_nm":25,"alt_fmsl":0,"id":"TR","desc":"TR DME"},
{"type":"NDB","hdg_t":346.4,"dist_nm":83.3,"freq":598,"lat":41.43750000,"lon":19.72083300,"rng_nm":75,"alt_fmsl":0,"id":"A","desc":"RINAS NDB"},
{"type":"NDB","hdg_t":346.5,"dist_nm":84.8,"freq":290,"lat":41.46323100,"lon":19.71414400,"rng_nm":75,"alt_fmsl":89,"id":"TR","desc":"TIRANA NDB"},
{"type":"VOR","hdg_t":276.5,"dist_nm":93.5,"freq":112.8,"lat":40.24721000,"lon":18.13082600,"rng_nm":40,"alt_fmsl":217,"id":"LCC","desc":"LECCE VORTAC"},
{"type":"NDB","hdg_t":37.8,"dist_nm":95.4,"freq":297,"lat":41.33777800,"lon":21.44861100,"rng_nm":80,"alt_fmsl":2034,"id":"PEP","desc":"PRILEP NDB-DME"},
{"type":"SDME","hdg_t":37.8,"dist_nm":95.4,"freq":113.75,"lat":41.33777800,"lon":21.44861100,"rng_nm":80,"alt_fmsl":2034,"id":"PEP","desc":"PRILEP NDB-DME"}
]
}
