{"success":true,"source":"xp2csv.pl","last_updated":"2013/11/08 14:53:21 UTC"
,"icao":"LB13","name":"Radomir Dolni Rakovets Afld","lat":42.4442485,"lon":22.9834985,"rwys":1,"ils":0,"index":3318043,"path":"e020n40/e022n42"
,"runways":[
{"len_m":2495,"wid_m":48.77,"hdg":113,"surf":"Asphalt","rwy1":"11","lat1":42.44866900,"lon1":22.96955800,"rwy2":"29","lat2":42.43982800,"lon2":22.99743900}
]
,"navaids":[
{"type":"NDB","hdg_t":42.3,"dist_nm":21,"freq":529,"lat":42.70304871,"lon":23.30438423,"rng_nm":25,"alt_fmsl":1800,"id":"SF","desc":"SOFIA NDB"},
{"type":"NDB","hdg_t":25.1,"dist_nm":21.5,"freq":312,"lat":42.77000000,"lon":23.19111100,"rng_nm":75,"alt_fmsl":0,"id":"BOZ","desc":"BOZHOURISHTE NDB"},
{"type":"NDB","hdg_t":48.7,"dist_nm":23.2,"freq":375,"lat":42.69921494,"lon":23.37911606,"rng_nm":25,"alt_fmsl":1738,"id":"F","desc":"SOFIA NDB"},
{"type":"VOR","hdg_t":49.5,"dist_nm":23.5,"freq":112.6,"lat":42.69855118,"lon":23.38945007,"rng_nm":130,"alt_fmsl":1741,"id":"SOF","desc":"SOFIA VOR-DME"},
{"type":"NDB","hdg_t":53,"dist_nm":25,"freq":335,"lat":42.69444400,"lon":23.43555600,"rng_nm":25,"alt_fmsl":0,"id":"S","desc":"SOFIA NDB"},
{"type":"NDB","hdg_t":55,"dist_nm":26,"freq":350,"lat":42.69222200,"lon":23.46666700,"rng_nm":25,"alt_fmsl":1732,"id":"SOF","desc":"SOFIA NDB"},
{"type":"VOR","hdg_t":351,"dist_nm":30.6,"freq":114.5,"lat":42.94916700,"lon":22.87500000,"rng_nm":130,"alt_fmsl":3150,"id":"KAL","desc":"KALOTINA VOR-DME"},
{"type":"NDB","hdg_t":74.3,"dist_nm":33.1,"freq":490,"lat":42.59166700,"lon":23.70444400,"rng_nm":15,"alt_fmsl":0,"id":"WAK","desc":"VAKAREL NDB"},
{"type":"VOR","hdg_t":69.7,"dist_nm":39.1,"freq":117.5,"lat":42.66722200,"lon":23.81388900,"rng_nm":130,"alt_fmsl":3051,"id":"BLO","desc":"BAILOVO VOR-DME"},
{"type":"VOR","hdg_t":224.9,"dist_nm":39.1,"freq":111.45,"lat":41.98083300,"lon":22.36555600,"rng_nm":50,"alt_fmsl":3891,"id":"SIN","desc":"SINKO VOR-DME"},
{"type":"NDB","hdg_t":278.3,"dist_nm":48,"freq":337,"lat":42.55536100,"lon":21.91144400,"rng_nm":60,"alt_fmsl":0,"id":"VRN","desc":"VRANJE NDB"},
{"type":"VOR","hdg_t":54,"dist_nm":67.1,"freq":114.1,"lat":43.09500000,"lon":24.22055600,"rng_nm":130,"alt_fmsl":1378,"id":"GOL","desc":"GOLYAMA VOR-DME"},
{"type":"VOR","hdg_t":243.6,"dist_nm":67.6,"freq":112.8,"lat":41.93500000,"lon":21.63055600,"rng_nm":50,"alt_fmsl":872,"id":"SKJ","desc":"SKOPJE VOR-DME"},
{"type":"NDB","hdg_t":242.5,"dist_nm":67.9,"freq":295,"lat":41.91416700,"lon":21.63805600,"rng_nm":50,"alt_fmsl":860,"id":"PT","desc":"SKOPJE NDB"},
{"type":"NDB","hdg_t":309,"dist_nm":71.1,"freq":423,"lat":43.18363900,"lon":21.72463900,"rng_nm":50,"alt_fmsl":0,"id":"ZO","desc":"NIS NDB"},
{"type":"NDB","hdg_t":233.8,"dist_nm":71.6,"freq":442,"lat":41.73166700,"lon":21.69500000,"rng_nm":50,"alt_fmsl":0,"id":"BU","desc":"SKOPJE NDB"},
{"type":"VOR","hdg_t":317,"dist_nm":74.3,"freq":113.9,"lat":43.34647200,"lon":21.82705600,"rng_nm":25,"alt_fmsl":623,"id":"NIS","desc":"NIS VOR-DME"},
{"type":"NDB","hdg_t":266.6,"dist_nm":77.2,"freq":428,"lat":42.35675600,"lon":21.24956400,"rng_nm":50,"alt_fmsl":0,"id":"BS","desc":"BONDSTEEL NDB"},
{"type":"VOR","hdg_t":179.7,"dist_nm":80.6,"freq":116.4,"lat":41.09972200,"lon":22.99222200,"rng_nm":40,"alt_fmsl":1312,"id":"FSK","desc":"FISKA VOR-DME"},
{"type":"NDB","hdg_t":179.7,"dist_nm":80.7,"freq":314,"lat":41.09861100,"lon":22.99166700,"rng_nm":40,"alt_fmsl":0,"id":"FIS","desc":"FISKA NDB"},
{"type":"NDB","hdg_t":315,"dist_nm":83.7,"freq":405,"lat":43.42461100,"lon":21.63130600,"rng_nm":40,"alt_fmsl":0,"id":"JST","desc":"JUSTIC NDB"},
{"type":"NDB","hdg_t":304.4,"dist_nm":86.2,"freq":377,"lat":43.24672200,"lon":21.36216700,"rng_nm":50,"alt_fmsl":0,"id":"BLC","desc":"BLACE NDB"},
{"type":"VOR","hdg_t":304.5,"dist_nm":86.3,"freq":116.1,"lat":43.24869400,"lon":21.36163900,"rng_nm":40,"alt_fmsl":1161,"id":"BLC","desc":"BLACE VOR-DME"},
{"type":"VOR","hdg_t":275.7,"dist_nm":86.9,"freq":113.3,"lat":42.57250000,"lon":21.03138900,"rng_nm":100,"alt_fmsl":1820,"id":"PRT","desc":"PRISTINA VOR-DME"},
{"type":"NDB","hdg_t":104.8,"dist_nm":87.4,"freq":537,"lat":42.05465300,"lon":24.87381200,"rng_nm":25,"alt_fmsl":0,"id":"P","desc":"PLOVDIV NDB"},
{"type":"VOR","hdg_t":104.8,"dist_nm":87.5,"freq":114.9,"lat":42.05333300,"lon":24.87611100,"rng_nm":130,"alt_fmsl":590,"id":"PDV","desc":"PLOVDIV VOR-DME"},
{"type":"NDB","hdg_t":281.7,"dist_nm":88.7,"freq":364,"lat":42.72861100,"lon":21.01825000,"rng_nm":100,"alt_fmsl":551,"id":"PRI","desc":"PRISTINA NDB"},
{"type":"NDB","hdg_t":226.5,"dist_nm":95.5,"freq":297,"lat":41.33777800,"lon":21.44861100,"rng_nm":80,"alt_fmsl":2034,"id":"PEP","desc":"PRILEP NDB-DME"},
{"type":"SDME","hdg_t":226.5,"dist_nm":95.5,"freq":113.75,"lat":41.33777800,"lon":21.44861100,"rng_nm":80,"alt_fmsl":2034,"id":"PEP","desc":"PRILEP NDB-DME"}
]
}
