{"success":true,"source":"xp2csv.pl","last_updated":"2013/11/08 14:53:21 UTC"
,"icao":"LE01","name":"Avinyonet","lat":41.367436395,"lon":1.76736096,"rwys":2,"ils":0,"index":2973907,"path":"e000n40/e001n41"
,"runways":[
{"len_m":349,"wid_m":10.06,"hdg":109,"surf":"Asphalt","rwy1":"10","lat1":41.36797600,"lon1":1.76588000,"rwy2":"28","lat2":41.36690400,"lon2":1.76980400},
{"len_m":443,"wid_m":17.98,"hdg":113,"surf":"Dirt","rwy1":"11","lat1":41.36824164,"lon1":1.76445922,"rwy2":"29","lat2":41.36662395,"lon2":1.76930061}
]
,"radios":[
{"type":"TWR","freq":123.5,"desc":"TWR"}
]
,"navaids":[
{"type":"NDB","hdg_t":196.5,"dist_nm":9.8,"freq":380,"lat":41.21063600,"lon":1.70584200,"rng_nm":75,"alt_fmsl":0,"id":"VNV","desc":"VILLANUEVA NDB"},
{"type":"SDME","hdg_t":261.5,"dist_nm":10,"freq":113.15,"lat":41.34261100,"lon":1.54788900,"rng_nm":130,"alt_fmsl":2165,"id":"VLA","desc":"VILLAFRANCA DME"},
{"type":"NDB","hdg_t":121.5,"dist_nm":11.5,"freq":338,"lat":41.26610900,"lon":1.98583300,"rng_nm":150,"alt_fmsl":0,"id":"QA","desc":"BARCELONA NDB"},
{"type":"VOR","hdg_t":109.4,"dist_nm":15,"freq":114.3,"lat":41.28310300,"lon":2.08185800,"rng_nm":130,"alt_fmsl":43,"id":"PRA","desc":"EL PRAT VOR-DME"},
{"type":"VOR","hdg_t":103.1,"dist_nm":15.8,"freq":116.7,"lat":41.30712200,"lon":2.10780800,"rng_nm":130,"alt_fmsl":23,"id":"BCN","desc":"BARCELONA VOR-DME"},
{"type":"NDB","hdg_t":58.8,"dist_nm":17.6,"freq":367,"lat":41.51937800,"lon":2.10305000,"rng_nm":40,"alt_fmsl":0,"id":"SBD","desc":"SABADELL NDB"},
{"type":"VOR","hdg_t":59.2,"dist_nm":17.9,"freq":112,"lat":41.51985300,"lon":2.10975000,"rng_nm":130,"alt_fmsl":499,"id":"SLL","desc":"SABADELL VOR-DME"},
{"type":"VOR","hdg_t":244.3,"dist_nm":29.9,"freq":114.2,"lat":41.14969400,"lon":1.17112200,"rng_nm":40,"alt_fmsl":272,"id":"RES","desc":"REUS VOR-DME"},
{"type":"NDB","hdg_t":245.1,"dist_nm":31,"freq":424,"lat":41.14783100,"lon":1.14613900,"rng_nm":30,"alt_fmsl":0,"id":"RUS","desc":"REUS NDB"},
{"type":"VOR","hdg_t":67,"dist_nm":42.3,"freq":115.35,"lat":41.64003100,"lon":2.63467200,"rng_nm":25,"alt_fmsl":1351,"id":"CLE","desc":"CALELLA VOR-DME"},
{"type":"NDB","hdg_t":282.7,"dist_nm":51.7,"freq":404,"lat":41.55292500,"lon":0.64802200,"rng_nm":50,"alt_fmsl":0,"id":"LRD","desc":"LERIDA NDB"},
{"type":"NDB","hdg_t":342.6,"dist_nm":54.3,"freq":340,"lat":42.23223600,"lon":1.40351900,"rng_nm":25,"alt_fmsl":0,"id":"SEO","desc":"SEO DE URGEL NDB"},
{"type":"NDB","hdg_t":53,"dist_nm":56.2,"freq":330,"lat":41.92750200,"lon":2.77111100,"rng_nm":15,"alt_fmsl":0,"id":"G","desc":"GERONA NDB"},
{"type":"VOR","hdg_t":52.8,"dist_nm":56.4,"freq":114.1,"lat":41.93117800,"lon":2.77196700,"rng_nm":130,"alt_fmsl":535,"id":"GIR","desc":"GERONA VOR-DME"},
{"type":"VOR","hdg_t":291.6,"dist_nm":59.9,"freq":113.6,"lat":41.72977800,"lon":0.52738900,"rng_nm":40,"alt_fmsl":1181,"id":"LLE","desc":"ILERDA VOR-DME"},
{"type":"NDB","hdg_t":49.5,"dist_nm":61.1,"freq":412,"lat":42.02497800,"lon":2.80721100,"rng_nm":50,"alt_fmsl":0,"id":"GRN","desc":"GERONA NDB"},
{"type":"NDB","hdg_t":9.6,"dist_nm":65.6,"freq":418,"lat":42.44583333,"lon":2.01500000,"rng_nm":25,"alt_fmsl":4383,"id":"SAL","desc":"Sainte Leocadie NDB"},
{"type":"NDB","hdg_t":61,"dist_nm":73.4,"freq":319,"lat":41.95151400,"lon":3.20307500,"rng_nm":50,"alt_fmsl":0,"id":"BAG","desc":"BAGUR NDB"},
{"type":"VOR","hdg_t":61.2,"dist_nm":73.5,"freq":112.2,"lat":41.94768600,"lon":3.20885800,"rng_nm":130,"alt_fmsl":1082,"id":"BGR","desc":"BAGUR VOR-DME"},
{"type":"VOR","hdg_t":259.4,"dist_nm":73.8,"freq":112.1,"lat":41.12959400,"lon":0.16524400,"rng_nm":35,"alt_fmsl":1184,"id":"MLA","desc":"MAELLA VOR-DME"},
{"type":"NDB","hdg_t":32.9,"dist_nm":94.1,"freq":351,"lat":42.67916666,"lon":2.92444444,"rng_nm":25,"alt_fmsl":164,"id":"PL","desc":"Perpignan Rivesaltes NDB"},
{"type":"VOR","hdg_t":30.2,"dist_nm":96.4,"freq":116.25,"lat":42.75047200,"lon":2.86713900,"rng_nm":100,"alt_fmsl":151,"id":"PPG","desc":"PERPIGNAN RIVESALTES VOR-DME"}
]
}
