{"success":true,"source":"xp2csv.pl","last_updated":"2013/11/08 14:53:21 UTC"
,"icao":"LFDQ","name":"Castelnau Magnoac","lat":43.279668,"lon":0.521974,"rwys":1,"ils":0,"index":2957650,"path":"e000n40/e000n43"
,"runways":[
{"len_m":560,"wid_m":39.93,"hdg":217,"surf":"Turf/grass","rwy1":"22","lat1":43.28167901,"lon1":0.52405555,"rwy2":"04","lat2":43.27765699,"lon2":0.51989245}
]
,"navaids":[
{"type":"VOR","hdg_t":280.9,"dist_nm":16.7,"freq":113.9,"lat":43.33222200,"lon":0.14575000,"rng_nm":80,"alt_fmsl":1039,"id":"TBO","desc":"TARBES VOR"},
{"type":"NDB","hdg_t":271.6,"dist_nm":20.7,"freq":321,"lat":43.28838900,"lon":0.04963900,"rng_nm":50,"alt_fmsl":928,"id":"TL","desc":"TARBES NDB"},
{"type":"VOR","hdg_t":295.5,"dist_nm":26.1,"freq":111.8,"lat":43.46666700,"lon":-0.01841700,"rng_nm":50,"alt_fmsl":964,"id":"TAN","desc":"LAHITTE VOR"},
{"type":"VOR","hdg_t":295.5,"dist_nm":26.1,"freq":111.8,"lat":43.46666700,"lon":-0.01766700,"rng_nm":60,"alt_fmsl":980,"id":"LMB","desc":"LEMBEYE VOR"},
{"type":"NDB","hdg_t":7.6,"dist_nm":26.5,"freq":420,"lat":43.71777777,"lon":0.60305555,"rng_nm":25,"alt_fmsl":509,"id":"LMT","desc":"Auch Lamothe NDB"},
{"type":"NDB","hdg_t":55.4,"dist_nm":26.6,"freq":406,"lat":43.53061100,"lon":1.02527800,"rng_nm":30,"alt_fmsl":813,"id":"TW","desc":"TOULOUSE NDB"},
{"type":"NDB","hdg_t":274.1,"dist_nm":30.2,"freq":397,"lat":43.31388888,"lon":-0.16611111,"rng_nm":25,"alt_fmsl":1132,"id":"PO","desc":"Pau Pyrenees NDB"},
{"type":"NDB","hdg_t":67.2,"dist_nm":31.2,"freq":350,"lat":43.47944444,"lon":1.18166666,"rng_nm":25,"alt_fmsl":722,"id":"MUT","desc":"Muret Lherm NDB"},
{"type":"NDB","hdg_t":57.4,"dist_nm":35.6,"freq":331,"lat":43.59722222,"lon":1.21138888,"rng_nm":25,"alt_fmsl":646,"id":"TLF","desc":"Toulouse Francazal NDB"},
{"type":"NDB","hdg_t":274.1,"dist_nm":36.3,"freq":364,"lat":43.32027777,"lon":-0.30500000,"rng_nm":25,"alt_fmsl":781,"id":"PU","desc":"Pau Pyrenees NDB"},
{"type":"VOR","hdg_t":22.6,"dist_nm":39.5,"freq":114.8,"lat":43.88802800,"lon":0.87286100,"rng_nm":120,"alt_fmsl":896,"id":"AGN","desc":"AGEN-Gaudonville VOR-DME"},
{"type":"SDME","hdg_t":66.1,"dist_nm":40.3,"freq":116,"lat":43.54847200,"lon":1.36822200,"rng_nm":50,"alt_fmsl":597,"id":"TLU","desc":"TOULOUSE/FRANCAZAL TACAN"},
{"type":"VOR","hdg_t":54.7,"dist_nm":41.9,"freq":117.7,"lat":43.68083300,"lon":1.30980600,"rng_nm":120,"alt_fmsl":574,"id":"TOU","desc":"TOULOUSE BLAGNAC VOR-DME"},
{"type":"NDB","hdg_t":71.7,"dist_nm":44.3,"freq":423,"lat":43.50727800,"lon":1.48677800,"rng_nm":30,"alt_fmsl":844,"id":"TS","desc":"TOULOUSE NDB"},
{"type":"NDB","hdg_t":39.8,"dist_nm":47.8,"freq":378,"lat":43.88972100,"lon":1.22750000,"rng_nm":75,"alt_fmsl":0,"id":"TN","desc":"TOULOUSE NDB"},
{"type":"NDB","hdg_t":103,"dist_nm":48.4,"freq":384,"lat":43.09277777,"lon":1.59611111,"rng_nm":25,"alt_fmsl":1421,"id":"PMR","desc":"Pamiers les Pujols NDB"},
{"type":"NDB","hdg_t":76.1,"dist_nm":52,"freq":415,"lat":43.48111100,"lon":1.67988900,"rng_nm":30,"alt_fmsl":898,"id":"TOE","desc":"TOULOUSE NDB"},
{"type":"NDB","hdg_t":7.1,"dist_nm":52.6,"freq":400,"lat":44.15055555,"lon":0.67388888,"rng_nm":25,"alt_fmsl":156,"id":"AG","desc":"Agen la Garenne NDB"},
{"type":"NDB","hdg_t":28.4,"dist_nm":55.2,"freq":327,"lat":44.08713900,"lon":1.13077800,"rng_nm":25,"alt_fmsl":0,"id":"CSM","desc":"CASTELSARRASIN MOISSAC NDB"},
{"type":"NDB","hdg_t":44.5,"dist_nm":56.6,"freq":368,"lat":43.95000000,"lon":1.43885500,"rng_nm":50,"alt_fmsl":0,"id":"TLB","desc":"Toulouse NDB"},
{"type":"SDME","hdg_t":310.5,"dist_nm":58.5,"freq":108.7,"lat":43.90994400,"lon":-0.50438900,"rng_nm":50,"alt_fmsl":256,"id":"MDM","desc":"MONT DE MARSAN TACAN"},
{"type":"VOR","hdg_t":54,"dist_nm":69.6,"freq":115.8,"lat":43.95405600,"lon":1.82416700,"rng_nm":100,"alt_fmsl":979,"id":"GAI","desc":"GAILLAC-Castelneau de Montmirail VOR"},
{"type":"NDB","hdg_t":290.7,"dist_nm":72.3,"freq":334,"lat":43.69555555,"lon":-1.03222222,"rng_nm":25,"alt_fmsl":82,"id":"DX","desc":"Dax Seyresse NDB"},
{"type":"NDB","hdg_t":92,"dist_nm":73.9,"freq":345,"lat":43.22250000,"lon":2.20777777,"rng_nm":25,"alt_fmsl":489,"id":"CS","desc":"Carcassonne Salvaza NDB"},
{"type":"NDB","hdg_t":147.8,"dist_nm":73.9,"freq":340,"lat":42.23223600,"lon":1.40351900,"rng_nm":25,"alt_fmsl":0,"id":"SEO","desc":"SEO DE URGEL NDB"},
{"type":"NDB","hdg_t":73.4,"dist_nm":76.7,"freq":356,"lat":43.63250000,"lon":2.20916666,"rng_nm":25,"alt_fmsl":853,"id":"CVU","desc":"Castres Mazamet NDB"},
{"type":"NDB","hdg_t":30,"dist_nm":76.8,"freq":348,"lat":44.38527778,"lon":1.41555555,"rng_nm":25,"alt_fmsl":951,"id":"CL","desc":"Cahors Lalbenque NDB"},
{"type":"NDB","hdg_t":60,"dist_nm":77.2,"freq":323,"lat":43.91266632,"lon":2.06438327,"rng_nm":25,"alt_fmsl":542,"id":"AB","desc":"Albi le Sequestre NDB"},
{"type":"VOR","hdg_t":207.5,"dist_nm":81.3,"freq":114.55,"lat":42.07336111,"lon":-0.31880556,"rng_nm":75,"alt_fmsl":1772,"id":"HUE","desc":"HUESCA VOR-DME"},
{"type":"NDB","hdg_t":126.6,"dist_nm":82.7,"freq":418,"lat":42.44583333,"lon":2.01500000,"rng_nm":25,"alt_fmsl":4383,"id":"SAL","desc":"Sainte Leocadie NDB"},
{"type":"NDB","hdg_t":278.3,"dist_nm":85,"freq":341,"lat":43.47052800,"lon":-1.40369400,"rng_nm":50,"alt_fmsl":295,"id":"BZ","desc":"BIARRITZ NDB"},
{"type":"VOR","hdg_t":341,"dist_nm":88.7,"freq":116.8,"lat":44.67680600,"lon":-0.15291700,"rng_nm":100,"alt_fmsl":405,"id":"SAU","desc":"SAUVETERRE DE GUYENNE VOR"},
{"type":"VOR","hdg_t":277.8,"dist_nm":89.6,"freq":114.15,"lat":43.46663900,"lon":-1.51027800,"rng_nm":100,"alt_fmsl":276,"id":"BTZ","desc":"BIARRITZ BAYONNE ANGLET VOR-DME"},
{"type":"NDB","hdg_t":2.5,"dist_nm":92.4,"freq":374,"lat":44.81947200,"lon":0.61927800,"rng_nm":10,"alt_fmsl":0,"id":"BGC","desc":"BERGERAC NDB"},
{"type":"VOR","hdg_t":179.8,"dist_nm":92.9,"freq":113.6,"lat":41.72977800,"lon":0.52738900,"rng_nm":40,"alt_fmsl":1181,"id":"LLE","desc":"ILERDA VOR-DME"},
{"type":"NDB","hdg_t":209.8,"dist_nm":93.1,"freq":335,"lat":41.92788100,"lon":-0.51383600,"rng_nm":50,"alt_fmsl":0,"id":"TON","desc":"TORRALBA DE ARAGON NDB"},
{"type":"NDB","hdg_t":312.8,"dist_nm":96.8,"freq":358,"lat":44.36527777,"lon":-1.12888888,"rng_nm":25,"alt_fmsl":92,"id":"BRS","desc":"Biscarrosse Parentis NDB"},
{"type":"NDB","hdg_t":32.8,"dist_nm":99.8,"freq":395,"lat":44.67083333,"lon":1.78694444,"rng_nm":25,"alt_fmsl":1053,"id":"FC","desc":"Figeac Livernon NDB"},
{"type":"NDB","hdg_t":252.2,"dist_nm":99.9,"freq":386,"lat":42.74999200,"lon":-1.63166700,"rng_nm":15,"alt_fmsl":0,"id":"NO","desc":"PAMPLONA NDB"}
]
}
