{"success":true,"source":"xp2csv.pl","last_updated":"2013/11/08 14:53:21 UTC"
,"icao":"LFEM","name":"Montargis Vimory","lat":47.964964,"lon":2.683529,"rwys":1,"ils":0,"index":2990714,"path":"e000n40/e002n47"
,"runways":[
{"len_m":400,"wid_m":39.93,"hdg":45,"surf":"Turf/grass","rwy1":"05","lat1":47.96369164,"lon1":2.68162877,"rwy2":"23","lat2":47.96623636,"lon2":2.68542923}
]
,"navaids":[
{"type":"NDB","hdg_t":264.8,"dist_nm":17.8,"freq":322,"lat":47.93738900,"lon":2.24263900,"rng_nm":25,"alt_fmsl":396,"id":"ORS","desc":"Orleans - Saint Denis de l hotel NDB"},
{"type":"VOR","hdg_t":304.3,"dist_nm":20.3,"freq":116.5,"lat":48.15555600,"lon":2.26477800,"rng_nm":100,"alt_fmsl":424,"id":"PTV","desc":"PITHIVIERS VOR"},
{"type":"NDB","hdg_t":169.2,"dist_nm":21.6,"freq":405,"lat":47.61083333,"lon":2.78277777,"rng_nm":25,"alt_fmsl":528,"id":"BIC","desc":"Briare Chatillon NDB"},
{"type":"VOR","hdg_t":9.9,"dist_nm":29.9,"freq":113.6,"lat":48.45577800,"lon":2.81327800,"rng_nm":40,"alt_fmsl":349,"id":"MLN","desc":"MELUN VILLAROCHE VOR-DME"},
{"type":"NDB","hdg_t":94.3,"dist_nm":33.1,"freq":417,"lat":47.92027777,"lon":3.50222222,"rng_nm":25,"alt_fmsl":505,"id":"AX","desc":"Auxerre Branches NDB"},
{"type":"NDB","hdg_t":42.6,"dist_nm":36.1,"freq":277,"lat":48.40611300,"lon":3.29527800,"rng_nm":50,"alt_fmsl":0,"id":"BRY","desc":"BRAY NDB"},
{"type":"VOR","hdg_t":42.5,"dist_nm":36.1,"freq":114.1,"lat":48.40700000,"lon":3.29477800,"rng_nm":100,"alt_fmsl":289,"id":"BRY","desc":"BRAY SUR SEINE VOR-DME"},
{"type":"NDB","hdg_t":273.7,"dist_nm":36.9,"freq":385,"lat":48.00125000,"lon":1.76872200,"rng_nm":100,"alt_fmsl":0,"id":"OAN","desc":"ORLEANS NDB"},
{"type":"NDB","hdg_t":18.3,"dist_nm":37.2,"freq":308,"lat":48.55389000,"lon":2.97861100,"rng_nm":75,"alt_fmsl":0,"id":"MV","desc":"MELUN NDB"},
{"type":"NDB","hdg_t":18.3,"dist_nm":37.2,"freq":434,"lat":48.55392100,"lon":2.97800000,"rng_nm":50,"alt_fmsl":385,"id":"VM","desc":"Melun Villaroche NDB"},
{"type":"SDME","hdg_t":272.6,"dist_nm":37.2,"freq":116.4,"lat":47.98944400,"lon":1.75958300,"rng_nm":50,"alt_fmsl":402,"id":"OAN","desc":"ORLEANS TACAN"},
{"type":"SDME","hdg_t":339,"dist_nm":40.5,"freq":110.4,"lat":48.59463900,"lon":2.31980500,"rng_nm":37,"alt_fmsl":268,"id":"BTY","desc":"BRETIGNY DME"},
{"type":"NDB","hdg_t":86,"dist_nm":40.8,"freq":353,"lat":48.00777777,"lon":3.69611111,"rng_nm":25,"alt_fmsl":545,"id":"CHY","desc":"Chailley NDB"},
{"type":"NDB","hdg_t":334.8,"dist_nm":46.9,"freq":402,"lat":48.67244400,"lon":2.18183300,"rng_nm":112,"alt_fmsl":291,"id":"ORW","desc":"ORLY (PARIS) NDB"},
{"type":"VOR","hdg_t":345.5,"dist_nm":47.4,"freq":111.2,"lat":48.72986100,"lon":2.38641700,"rng_nm":60,"alt_fmsl":307,"id":"OL","desc":"PARIS ORLY VOR-DME"},
{"type":"NDB","hdg_t":353,"dist_nm":47.6,"freq":349,"lat":48.75308300,"lon":2.53911100,"rng_nm":112,"alt_fmsl":291,"id":"OYE","desc":"ORLY (PARIS) NDB"},
{"type":"VOR","hdg_t":168.3,"dist_nm":49.7,"freq":113.4,"lat":47.15300000,"lon":2.92936100,"rng_nm":80,"alt_fmsl":631,"id":"NEV","desc":"NEVERS VOR"},
{"type":"VOR","hdg_t":326.5,"dist_nm":49.7,"freq":114.7,"lat":48.65394500,"lon":1.99422200,"rng_nm":110,"alt_fmsl":604,"id":"RBT","desc":"RAMBOUILLET-Les Bordes VOR-DME"},
{"type":"NDB","hdg_t":346,"dist_nm":50.3,"freq":302,"lat":48.77797200,"lon":2.37872200,"rng_nm":22,"alt_fmsl":583,"id":"TH","desc":"VILLACOUBLAY NDB"},
{"type":"NDB","hdg_t":174.6,"dist_nm":50.9,"freq":288,"lat":47.12066700,"lon":2.79961100,"rng_nm":50,"alt_fmsl":679,"id":"AVD","desc":"AVORD NDB"},
{"type":"VOR","hdg_t":276.6,"dist_nm":52.5,"freq":115.95,"lat":48.05916667,"lon":1.38708333,"rng_nm":40,"alt_fmsl":450,"id":"CAD","desc":"CHATEAUDUN VOR-DME"},
{"type":"VOR","hdg_t":334,"dist_nm":52.7,"freq":108.25,"lat":48.75372200,"lon":2.10236100,"rng_nm":100,"alt_fmsl":547,"id":"TSU","desc":"TOUSSUS LE NOBLE VOR"},
{"type":"SDME","hdg_t":333.6,"dist_nm":52.7,"freq":110.15,"lat":48.75039100,"lon":2.09515800,"rng_nm":27,"alt_fmsl":537,"id":"TNO","desc":"LFPN 25R DME"},
{"type":"NDB","hdg_t":276.7,"dist_nm":53.4,"freq":359,"lat":48.06241700,"lon":1.36363900,"rng_nm":50,"alt_fmsl":433,"id":"CDN","desc":"CHATEAUDUN NDB"},
{"type":"NDB","hdg_t":334.3,"dist_nm":53.8,"freq":286,"lat":48.77158400,"lon":2.09744500,"rng_nm":22,"alt_fmsl":583,"id":"TA","desc":"VILLACOUBLAY NDB"},
{"type":"VOR","hdg_t":71,"dist_nm":54.2,"freq":116,"lat":48.25122200,"lon":3.96313900,"rng_nm":60,"alt_fmsl":861,"id":"TRO","desc":"TROYES BARBEREY VOR"},
{"type":"VOR","hdg_t":13.9,"dist_nm":54.4,"freq":112.9,"lat":48.84463900,"lon":3.01386100,"rng_nm":60,"alt_fmsl":486,"id":"CLM","desc":"COULOMMIERS Voisins VOR-DME"},
{"type":"SDME","hdg_t":182.3,"dist_nm":54.4,"freq":110.6,"lat":47.05808300,"lon":2.62986100,"rng_nm":150,"alt_fmsl":554,"id":"AVD","desc":"AVORD TACAN"},
{"type":"NDB","hdg_t":226.5,"dist_nm":55.9,"freq":301,"lat":47.31983300,"lon":1.68802800,"rng_nm":15,"alt_fmsl":0,"id":"RTN","desc":"ROMORANTIN NDB"},
{"type":"VOR","hdg_t":314.3,"dist_nm":57.1,"freq":115.65,"lat":48.62569400,"lon":1.65655600,"rng_nm":60,"alt_fmsl":604,"id":"EPR","desc":"EPERNON VOR-DME"},
{"type":"NDB","hdg_t":323.4,"dist_nm":57.4,"freq":315,"lat":48.73058300,"lon":1.82050000,"rng_nm":75,"alt_fmsl":583,"id":"HOL","desc":"VILLACOUBLAY NDB"},
{"type":"NDB","hdg_t":196.1,"dist_nm":59.1,"freq":375,"lat":47.01750000,"lon":2.28166666,"rng_nm":25,"alt_fmsl":509,"id":"BRG","desc":"Bourges NDB"},
{"type":"NDB","hdg_t":63.2,"dist_nm":59.1,"freq":320,"lat":48.40027777,"lon":4.00388888,"rng_nm":25,"alt_fmsl":611,"id":"TY","desc":"Troyes Barberey NDB"},
{"type":"NDB","hdg_t":344.7,"dist_nm":60.6,"freq":334,"lat":48.93905600,"lon":2.28088900,"rng_nm":22,"alt_fmsl":216,"id":"BGW","desc":"LE BOURGET (PARIS) NDB"},
{"type":"VOR","hdg_t":351.5,"dist_nm":61.3,"freq":116.1,"lat":48.97466700,"lon":2.45516700,"rng_nm":100,"alt_fmsl":200,"id":"BT","desc":"PARIS LE BOURGET VOR-DME"},
{"type":"DME","hdg_t":351.5,"dist_nm":61.3,"freq":108.8,"lat":48.97536100,"lon":2.45586600,"rng_nm":100,"alt_fmsl":200,"id":"BT","desc":"PARIS LE BOURGET VOR-DME"},
{"type":"VOR","hdg_t":357.8,"dist_nm":62.1,"freq":117.05,"lat":48.99947200,"lon":2.62380600,"rng_nm":100,"alt_fmsl":348,"id":"PGS","desc":"PARIS CHARLES DE GAULLE VOR-DME"},
{"type":"NDB","hdg_t":254.2,"dist_nm":62.3,"freq":397,"lat":47.67394400,"lon":1.20247200,"rng_nm":25,"alt_fmsl":398,"id":"BLB","desc":"Blois - Le Breuil NDB"},
{"type":"NDB","hdg_t":349.6,"dist_nm":62.4,"freq":343,"lat":48.98741700,"lon":2.40061100,"rng_nm":22,"alt_fmsl":389,"id":"CGO","desc":"CHARLES-DE-GAULLE (PARIS) NDB"},
{"type":"NDB","hdg_t":2,"dist_nm":62.5,"freq":370,"lat":49.00541700,"lon":2.74019400,"rng_nm":22,"alt_fmsl":389,"id":"CGZ","desc":"CHARLES-DE-GAULLE (PARIS) NDB"},
{"type":"VOR","hdg_t":353.4,"dist_nm":63.7,"freq":115.35,"lat":49.01991700,"lon":2.50011100,"rng_nm":100,"alt_fmsl":385,"id":"CGN","desc":"PARIS CHARLES DE GAULLE VOR-DME"},
{"type":"NDB","hdg_t":161,"dist_nm":63.9,"freq":394,"lat":46.95583333,"lon":3.19000000,"rng_nm":25,"alt_fmsl":633,"id":"NV","desc":"Nevers Fourchambault NDB"},
{"type":"NDB","hdg_t":0.8,"dist_nm":64,"freq":356,"lat":49.03102800,"lon":2.70641700,"rng_nm":22,"alt_fmsl":389,"id":"RSY","desc":"CHARLES-DE-GAULLE (PARIS) NDB"},
{"type":"NDB","hdg_t":348.5,"dist_nm":64.1,"freq":364,"lat":49.01127800,"lon":2.36144500,"rng_nm":22,"alt_fmsl":389,"id":"RSO","desc":"CHARLES-DE-GAULLE (PARIS) NDB"},
{"type":"NDB","hdg_t":171.1,"dist_nm":65.7,"freq":306,"lat":46.88167000,"lon":2.92888955,"rng_nm":25,"alt_fmsl":679,"id":"AV","desc":"Avord NDB"},
{"type":"NDB","hdg_t":297.7,"dist_nm":67.6,"freq":361,"lat":48.47944300,"lon":1.18250000,"rng_nm":75,"alt_fmsl":0,"id":"MUT","desc":"MURET NDB"},
{"type":"NDB","hdg_t":335.1,"dist_nm":68.6,"freq":406,"lat":49.00000000,"lon":1.95416700,"rng_nm":75,"alt_fmsl":0,"id":"LMX","desc":"LES MUREAUX NDB"},
{"type":"NDB","hdg_t":210.5,"dist_nm":71.4,"freq":428,"lat":46.93661100,"lon":1.80113900,"rng_nm":50,"alt_fmsl":539,"id":"CTX","desc":"CHATEAUROUX NDB"},
{"type":"VOR","hdg_t":339.4,"dist_nm":72.6,"freq":111.6,"lat":49.09608400,"lon":2.03588900,"rng_nm":60,"alt_fmsl":318,"id":"PON","desc":"PONTOISE CORMEILLES EN VEXIN VOR"},
{"type":"NDB","hdg_t":46.3,"dist_nm":73,"freq":367,"lat":48.79777777,"lon":4.01611111,"rng_nm":25,"alt_fmsl":482,"id":"VAT","desc":"Chalons Vatry NDB"},
{"type":"VOR","hdg_t":244.4,"dist_nm":73,"freq":113.7,"lat":47.42891700,"lon":1.06444400,"rng_nm":120,"alt_fmsl":387,"id":"AMB","desc":"AMBOISE VOR-DME"},
{"type":"NDB","hdg_t":244.3,"dist_nm":74.2,"freq":341,"lat":47.41816700,"lon":1.04100000,"rng_nm":50,"alt_fmsl":354,"id":"AMB","desc":"AMBOISE NDB"},
{"type":"VOR","hdg_t":295,"dist_nm":74.7,"freq":115.2,"lat":48.48000000,"lon":0.98705600,"rng_nm":180,"alt_fmsl":732,"id":"CHW","desc":"CHARTRES La Loupe VOR-DME"},
{"type":"VOR","hdg_t":11.2,"dist_nm":74.9,"freq":114.85,"lat":49.18830600,"lon":3.05647200,"rng_nm":60,"alt_fmsl":476,"id":"BSN","desc":"BOURSONNE VOR-DME"},
{"type":"VOR","hdg_t":49.5,"dist_nm":76.3,"freq":111.65,"lat":48.78108300,"lon":4.14694400,"rng_nm":40,"alt_fmsl":538,"id":"CAV","desc":"VATRY VOR-DME"},
{"type":"VOR","hdg_t":355.1,"dist_nm":77.7,"freq":109.2,"lat":49.25527800,"lon":2.51477800,"rng_nm":130,"alt_fmsl":325,"id":"CRL","desc":"CREIL VORTAC"},
{"type":"VOR","hdg_t":26.5,"dist_nm":78.9,"freq":117.6,"lat":49.13775000,"lon":3.57769400,"rng_nm":100,"alt_fmsl":673,"id":"CTL","desc":"CHATILLON SUR MARNE VOR-DME"},
{"type":"VOR","hdg_t":196.1,"dist_nm":79.4,"freq":112.1,"lat":46.69141700,"lon":2.14958300,"rng_nm":100,"alt_fmsl":901,"id":"LCA","desc":"LA CHATRE VOR"},
{"type":"NDB","hdg_t":253.4,"dist_nm":80.5,"freq":331,"lat":47.56588900,"lon":0.78261100,"rng_nm":50,"alt_fmsl":551,"id":"TUR","desc":"TOURS NDB"},
{"type":"NDB","hdg_t":53.3,"dist_nm":80.9,"freq":347,"lat":48.75916666,"lon":4.31888888,"rng_nm":25,"alt_fmsl":604,"id":"CVT","desc":"Chalons Vatry NDB"},
{"type":"NDB","hdg_t":152.5,"dist_nm":84.8,"freq":324,"lat":46.70588900,"lon":3.63086100,"rng_nm":50,"alt_fmsl":0,"id":"MOU","desc":"MOULINS NDB"},
{"type":"VOR","hdg_t":152.5,"dist_nm":84.8,"freq":116.7,"lat":46.70677800,"lon":3.63166700,"rng_nm":80,"alt_fmsl":699,"id":"MOU","desc":"MOULINS VOR-DME"},
{"type":"SDME","hdg_t":248.3,"dist_nm":85.5,"freq":113.8,"lat":47.42218300,"lon":0.73089200,"rng_nm":150,"alt_fmsl":329,"id":"TUR","desc":"TOURS TACAN"},
{"type":"VOR","hdg_t":318.2,"dist_nm":86.6,"freq":112.4,"lat":49.03169400,"lon":1.22086100,"rng_nm":100,"alt_fmsl":499,"id":"EVX","desc":"EVREUX FAUVILLE VORTAC"},
{"type":"VOR","hdg_t":2.9,"dist_nm":88.2,"freq":109.65,"lat":49.43277800,"lon":2.79936100,"rng_nm":130,"alt_fmsl":288,"id":"CPE","desc":"COMPIEGNE VOR-DME"},
{"type":"NDB","hdg_t":3.1,"dist_nm":88.3,"freq":553,"lat":49.43444400,"lon":2.80611100,"rng_nm":75,"alt_fmsl":0,"id":"CO","desc":"COMPIEGNE NDB"},
{"type":"VOR","hdg_t":346.7,"dist_nm":90.8,"freq":115.9,"lat":49.43636100,"lon":2.15319400,"rng_nm":50,"alt_fmsl":0,"id":"BVS","desc":"BEAUVAIS VOR"},
{"type":"VOR","hdg_t":158.3,"dist_nm":91.7,"freq":109.6,"lat":46.54133300,"lon":3.49955600,"rng_nm":40,"alt_fmsl":0,"id":"MBY","desc":"MOULINS MONTBEUGNY VOR"},
{"type":"NDB","hdg_t":344.4,"dist_nm":95.2,"freq":391,"lat":49.49166666,"lon":2.02944444,"rng_nm":25,"alt_fmsl":377,"id":"BV","desc":"Beauvais Tille NDB"},
{"type":"VOR","hdg_t":355.4,"dist_nm":95.6,"freq":113.65,"lat":49.55263900,"lon":2.48947200,"rng_nm":60,"alt_fmsl":0,"id":"MTD","desc":"MONTDIDIER VOR"},
{"type":"NDB","hdg_t":184.7,"dist_nm":95.9,"freq":335,"lat":46.37261100,"lon":2.49266700,"rng_nm":50,"alt_fmsl":1049,"id":"MC","desc":"MONTLUCON NDB"},
{"type":"SDME","hdg_t":64.6,"dist_nm":97.1,"freq":114,"lat":48.63700000,"lon":4.88919400,"rng_nm":50,"alt_fmsl":492,"id":"SDI","desc":"ST DIZIER TACAN"},
{"type":"VOR","hdg_t":33.3,"dist_nm":97.3,"freq":112.3,"lat":49.31163900,"lon":4.04536100,"rng_nm":60,"alt_fmsl":335,"id":"REM","desc":"REIMS CHAMPAGNE VORTAC"},
{"type":"NDB","hdg_t":65,"dist_nm":97.7,"freq":373,"lat":48.62900000,"lon":4.91066700,"rng_nm":50,"alt_fmsl":0,"id":"SDI","desc":"ST DIZIER NDB"},
{"type":"VOR","hdg_t":300.7,"dist_nm":99.3,"freq":115,"lat":48.79061100,"lon":0.53027800,"rng_nm":60,"alt_fmsl":971,"id":"LGL","desc":"L AIGLE VOR"}
]
}
