{"success":true,"source":"xp2csv.pl","last_updated":"2013/11/08 14:53:21 UTC"
,"icao":"LFGZ","name":"Nuits_st_georges","lat":47.14212716,"lon":4.9683976,"rwys":1,"ils":0,"index":3023435,"path":"e000n40/e004n47"
,"runways":[
{"len_m":960,"wid_m":60.05,"hdg":114,"surf":"Turf/grass","rwy1":"11","lat1":47.14388945,"lon1":4.96261659,"rwy2":"29","lat2":47.14036487,"lon2":4.97417861}
]
,"navaids":[
{"type":"SDME","hdg_t":32.8,"dist_nm":9.2,"freq":113.5,"lat":47.27194400,"lon":5.09152800,"rng_nm":50,"alt_fmsl":726,"id":"DIJ","desc":"DIJON TACAN"},
{"type":"VOR","hdg_t":34.2,"dist_nm":9.3,"freq":111.45,"lat":47.27077800,"lon":5.09733300,"rng_nm":100,"alt_fmsl":726,"id":"DJL","desc":"DIJON-LONGVIC VOR-DME"},
{"type":"NDB","hdg_t":125,"dist_nm":16.9,"freq":309,"lat":46.97972222,"lon":5.30527777,"rng_nm":25,"alt_fmsl":604,"id":"DO","desc":"Dole Tavaux NDB"},
{"type":"NDB","hdg_t":62.5,"dist_nm":25.5,"freq":427,"lat":47.33722300,"lon":5.52444500,"rng_nm":50,"alt_fmsl":0,"id":"BRP","desc":"BROYE LES PESMES NDB"},
{"type":"NDB","hdg_t":191.5,"dist_nm":25.7,"freq":391,"lat":46.72167777,"lon":4.84305555,"rng_nm":25,"alt_fmsl":656,"id":"CC","desc":"Chalon Champforgeuil NDB"},
{"type":"NDB","hdg_t":219.1,"dist_nm":41.7,"freq":317,"lat":46.60141700,"lon":4.33138900,"rng_nm":50,"alt_fmsl":0,"id":"MM","desc":"MONTCEAU-LES-MINES NDB"},
{"type":"VOR","hdg_t":13.8,"dist_nm":47.2,"freq":117.3,"lat":47.90630600,"lon":5.24916700,"rng_nm":120,"alt_fmsl":1490,"id":"RLP","desc":"ROLAMPONT VOR-DME"},
{"type":"NDB","hdg_t":81.1,"dist_nm":51,"freq":370,"lat":47.26694444,"lon":6.20250000,"rng_nm":25,"alt_fmsl":1348,"id":"BSV","desc":"Besancon la Veze NDB"},
{"type":"NDB","hdg_t":188.1,"dist_nm":51.5,"freq":400,"lat":46.29250000,"lon":4.79361111,"rng_nm":25,"alt_fmsl":705,"id":"MO","desc":"Macon Charnay NDB"},
{"type":"NDB","hdg_t":166.6,"dist_nm":57.8,"freq":423,"lat":46.20388888,"lon":5.28888888,"rng_nm":25,"alt_fmsl":869,"id":"BOR","desc":"Bourg Ceyzeriat NDB"},
{"type":"VOR","hdg_t":245,"dist_nm":60.8,"freq":116.7,"lat":46.70677800,"lon":3.63166700,"rng_nm":80,"alt_fmsl":699,"id":"MOU","desc":"MOULINS VOR-DME"},
{"type":"NDB","hdg_t":245,"dist_nm":60.9,"freq":324,"lat":46.70588900,"lon":3.63086100,"rng_nm":50,"alt_fmsl":0,"id":"MOU","desc":"MOULINS NDB"},
{"type":"NDB","hdg_t":214.8,"dist_nm":61.7,"freq":430,"lat":46.29444444,"lon":4.12139222,"rng_nm":25,"alt_fmsl":1378,"id":"SN","desc":"Saint Yan NDB"},
{"type":"VOR","hdg_t":58.2,"dist_nm":63.2,"freq":117.1,"lat":47.68827800,"lon":6.29558300,"rng_nm":80,"alt_fmsl":1072,"id":"LUL","desc":"LUXEUIL VOR"},
{"type":"SDME","hdg_t":114.6,"dist_nm":65.6,"freq":110.65,"lat":46.67611100,"lon":6.41333300,"rng_nm":80,"alt_fmsl":4244,"id":"LAP","desc":"LA PRAZ DME"},
{"type":"SDME","hdg_t":55.2,"dist_nm":68.3,"freq":108.2,"lat":47.78316700,"lon":6.35711100,"rng_nm":50,"alt_fmsl":913,"id":"LXI","desc":"LUXEUIL TACAN"},
{"type":"NDB","hdg_t":183.5,"dist_nm":68.4,"freq":337,"lat":46.00388700,"lon":4.86805500,"rng_nm":50,"alt_fmsl":0,"id":"AD","desc":"AMBERIEUX NDB"},
{"type":"NDB","hdg_t":129.4,"dist_nm":68.6,"freq":375,"lat":46.40869400,"lon":6.24425000,"rng_nm":25,"alt_fmsl":1350,"id":"GLA","desc":"GLAND NDB"},
{"type":"NDB","hdg_t":55,"dist_nm":69.4,"freq":363,"lat":47.79658300,"lon":6.37519400,"rng_nm":80,"alt_fmsl":913,"id":"LXI","desc":"LUXEUIL NDB"},
{"type":"VOR","hdg_t":239.7,"dist_nm":70.4,"freq":109.6,"lat":46.54133300,"lon":3.49955600,"rng_nm":40,"alt_fmsl":0,"id":"MBY","desc":"MOULINS MONTBEUGNY VOR"},
{"type":"SDME","hdg_t":167.6,"dist_nm":70.8,"freq":116.3,"lat":45.98861100,"lon":5.33125000,"rng_nm":50,"alt_fmsl":801,"id":"AMU","desc":"AMBERIEU TACAN"},
{"type":"VOR","hdg_t":137.5,"dist_nm":71.7,"freq":115.75,"lat":46.25391700,"lon":6.13222200,"rng_nm":50,"alt_fmsl":1377,"id":"GVA","desc":"GENEVA COINTRIN VOR-DME"},
{"type":"VOR","hdg_t":143.6,"dist_nm":72.5,"freq":116.6,"lat":46.16369400,"lon":5.99991700,"rng_nm":80,"alt_fmsl":1415,"id":"PAS","desc":"PASSEIRY VOR-DME"},
{"type":"NDB","hdg_t":212.2,"dist_nm":72.8,"freq":358,"lat":46.11222222,"lon":4.03694477,"rng_nm":25,"alt_fmsl":1122,"id":"RNN","desc":"Roanne Renaison NDB"},
{"type":"VOR","hdg_t":122.9,"dist_nm":73.1,"freq":113.9,"lat":46.46869400,"lon":6.44805600,"rng_nm":100,"alt_fmsl":1252,"id":"SPR","desc":"ST. PREX VOR-DME"},
{"type":"NDB","hdg_t":315.6,"dist_nm":73.2,"freq":353,"lat":48.00777777,"lon":3.69611111,"rng_nm":25,"alt_fmsl":545,"id":"CHY","desc":"Chailley NDB"},
{"type":"NDB","hdg_t":261.9,"dist_nm":73.8,"freq":394,"lat":46.95583333,"lon":3.19000000,"rng_nm":25,"alt_fmsl":633,"id":"NV","desc":"Nevers Fourchambault NDB"},
{"type":"NDB","hdg_t":190.8,"dist_nm":74.4,"freq":344,"lat":45.92361100,"lon":4.63361111,"rng_nm":25,"alt_fmsl":1089,"id":"TR","desc":"Villefranche Tarare NDB"},
{"type":"NDB","hdg_t":92,"dist_nm":74.8,"freq":403,"lat":47.08366700,"lon":6.79388900,"rng_nm":25,"alt_fmsl":0,"id":"LPS","desc":"LES EPLATURES NDB"},
{"type":"NDB","hdg_t":308.6,"dist_nm":75.7,"freq":417,"lat":47.92027777,"lon":3.50222222,"rng_nm":25,"alt_fmsl":505,"id":"AX","desc":"Auxerre Branches NDB"},
{"type":"NDB","hdg_t":70,"dist_nm":76.2,"freq":289,"lat":47.56166700,"lon":6.73225000,"rng_nm":50,"alt_fmsl":0,"id":"HR","desc":"HERICOURT NDB"},
{"type":"VOR","hdg_t":212,"dist_nm":76.3,"freq":110.25,"lat":46.05916700,"lon":3.99927800,"rng_nm":60,"alt_fmsl":1095,"id":"ROA","desc":"ROANNE RENAISON VOR"},
{"type":"VOR","hdg_t":328.9,"dist_nm":78,"freq":116,"lat":48.25122200,"lon":3.96313900,"rng_nm":60,"alt_fmsl":861,"id":"TRO","desc":"TROYES BARBEREY VOR"},
{"type":"VOR","hdg_t":156.3,"dist_nm":82.4,"freq":115.4,"lat":45.88188900,"lon":5.75730600,"rng_nm":40,"alt_fmsl":4783,"id":"CBY","desc":"CHAMBERY VOR-DME"},
{"type":"NDB","hdg_t":74,"dist_nm":82.7,"freq":330,"lat":47.50444444,"lon":6.92388888,"rng_nm":25,"alt_fmsl":1283,"id":"MB","desc":"Montbeliard Courcelles NDB"},
{"type":"VOR","hdg_t":31.6,"dist_nm":83.2,"freq":113,"lat":48.31783300,"lon":6.05941700,"rng_nm":60,"alt_fmsl":1154,"id":"EPL","desc":"EPINAL MIRECOURT VOR"},
{"type":"VOR","hdg_t":271.1,"dist_nm":83.5,"freq":113.4,"lat":47.15300000,"lon":2.92936100,"rng_nm":80,"alt_fmsl":631,"id":"NEV","desc":"NEVERS VOR"},
{"type":"VOR","hdg_t":176.4,"dist_nm":83.9,"freq":114.75,"lat":45.74552800,"lon":5.09058300,"rng_nm":140,"alt_fmsl":820,"id":"LSE","desc":"LYON SAINT EXUPERY VOR-DME"},
{"type":"NDB","hdg_t":333,"dist_nm":85,"freq":320,"lat":48.40027777,"lon":4.00388888,"rng_nm":25,"alt_fmsl":611,"id":"TY","desc":"Troyes Barberey NDB"},
{"type":"NDB","hdg_t":260.1,"dist_nm":85.1,"freq":306,"lat":46.88167000,"lon":2.92888955,"rng_nm":25,"alt_fmsl":679,"id":"AV","desc":"Avord NDB"},
{"type":"NDB","hdg_t":34.3,"dist_nm":86.9,"freq":419,"lat":48.33250000,"lon":6.19361111,"rng_nm":25,"alt_fmsl":906,"id":"EMT","desc":"Epinal Mirecourt NDB"},
{"type":"NDB","hdg_t":150,"dist_nm":88.3,"freq":384,"lat":45.86166666,"lon":6.02055555,"rng_nm":25,"alt_fmsl":2205,"id":"AT","desc":"Annecy Meythet NDB"},
{"type":"NDB","hdg_t":269.9,"dist_nm":88.8,"freq":288,"lat":47.12066700,"lon":2.79961100,"rng_nm":50,"alt_fmsl":679,"id":"AVD","desc":"AVORD NDB"},
{"type":"NDB","hdg_t":227.4,"dist_nm":89.1,"freq":403,"lat":46.12750000,"lon":3.39500000,"rng_nm":22,"alt_fmsl":816,"id":"VZ","desc":"VICHY NDB"},
{"type":"NDB","hdg_t":358.5,"dist_nm":89.2,"freq":373,"lat":48.62900000,"lon":4.91066700,"rng_nm":50,"alt_fmsl":0,"id":"SDI","desc":"ST DIZIER NDB"},
{"type":"SDME","hdg_t":357.9,"dist_nm":89.8,"freq":114,"lat":48.63700000,"lon":4.88919400,"rng_nm":50,"alt_fmsl":492,"id":"SDI","desc":"ST DIZIER TACAN"},
{"type":"NDB","hdg_t":179.3,"dist_nm":91.6,"freq":388,"lat":45.61583328,"lon":4.99278355,"rng_nm":25,"alt_fmsl":1044,"id":"BR","desc":"Lyon Bron NDB"},
{"type":"NDB","hdg_t":288.3,"dist_nm":93.4,"freq":405,"lat":47.61083333,"lon":2.78277777,"rng_nm":25,"alt_fmsl":528,"id":"BIC","desc":"Briare Chatillon NDB"},
{"type":"NDB","hdg_t":197.7,"dist_nm":94.6,"freq":379,"lat":45.63777777,"lon":4.28388888,"rng_nm":25,"alt_fmsl":1230,"id":"EB","desc":"Saint Etienne Boutheon NDB"},
{"type":"VOR","hdg_t":102.4,"dist_nm":95.2,"freq":110.85,"lat":46.77758300,"lon":7.22350000,"rng_nm":130,"alt_fmsl":2659,"id":"FRI","desc":"FRIBOURG VOR-DME"},
{"type":"VOR","hdg_t":182.1,"dist_nm":95.2,"freq":108.2,"lat":45.55644400,"lon":4.88341700,"rng_nm":30,"alt_fmsl":0,"id":"VNE","desc":"VIENNE VOR"},
{"type":"SDME","hdg_t":24.2,"dist_nm":95.2,"freq":116.8,"lat":48.58363900,"lon":5.95183300,"rng_nm":50,"alt_fmsl":1115,"id":"NAY","desc":"NANCY TACAN"},
{"type":"VOR","hdg_t":218.2,"dist_nm":95.7,"freq":117.5,"lat":45.88183400,"lon":3.55358300,"rng_nm":60,"alt_fmsl":2258,"id":"TIS","desc":"THIERS VOR-DME"},
{"type":"SDME","hdg_t":218.2,"dist_nm":95.7,"freq":109,"lat":45.88183400,"lon":3.55358300,"rng_nm":195,"alt_fmsl":2000,"id":"TIS","desc":"THIERS DME"},
{"type":"SDME","hdg_t":267.8,"dist_nm":95.9,"freq":110.6,"lat":47.05808300,"lon":2.62986100,"rng_nm":150,"alt_fmsl":554,"id":"AVD","desc":"AVORD TACAN"},
{"type":"NDB","hdg_t":28.2,"dist_nm":98,"freq":339,"lat":48.57416666,"lon":6.13444444,"rng_nm":25,"alt_fmsl":971,"id":"NE","desc":"Nancy Essey NDB"}
]
}
