{"success":true,"source":"xp2csv.pl","last_updated":"2013/11/08 14:53:21 UTC"
,"icao":"LFHS","name":"Bourg Ceyzeriat","lat":46.200897,"lon":5.292035,"rwys":1,"ils":0,"index":3039753,"path":"e000n40/e005n46"
,"runways":[
{"len_m":1138,"wid_m":29.87,"hdg":179,"surf":"Asphalt","rwy1":"18","lat1":46.20601900,"lon1":5.29201400,"rwy2":"36","lat2":46.19577500,"lon2":5.29205600}
]
,"radios":[
{"type":"TWR","freq":118.45,"desc":"BOURG INFO"}
]
,"navaids":[
{"type":"NDB","hdg_t":323.8,"dist_nm":0.2,"freq":423,"lat":46.20388888,"lon":5.28888888,"rng_nm":25,"alt_fmsl":869,"id":"BOR","desc":"Bourg Ceyzeriat NDB"},
{"type":"SDME","hdg_t":172.6,"dist_nm":12.8,"freq":116.3,"lat":45.98861100,"lon":5.33125000,"rng_nm":50,"alt_fmsl":801,"id":"AMU","desc":"AMBERIEU TACAN"},
{"type":"NDB","hdg_t":236.4,"dist_nm":21.2,"freq":337,"lat":46.00388700,"lon":4.86805500,"rng_nm":50,"alt_fmsl":0,"id":"AD","desc":"AMBERIEUX NDB"},
{"type":"NDB","hdg_t":285,"dist_nm":21.4,"freq":400,"lat":46.29250000,"lon":4.79361111,"rng_nm":25,"alt_fmsl":705,"id":"MO","desc":"Macon Charnay NDB"},
{"type":"VOR","hdg_t":134.3,"dist_nm":27.2,"freq":115.4,"lat":45.88188900,"lon":5.75730600,"rng_nm":40,"alt_fmsl":4783,"id":"CBY","desc":"CHAMBERY VOR-DME"},
{"type":"VOR","hdg_t":197.2,"dist_nm":28.6,"freq":114.75,"lat":45.74552800,"lon":5.09058300,"rng_nm":140,"alt_fmsl":820,"id":"LSE","desc":"LYON SAINT EXUPERY VOR-DME"},
{"type":"VOR","hdg_t":94,"dist_nm":29.5,"freq":116.6,"lat":46.16369400,"lon":5.99991700,"rng_nm":80,"alt_fmsl":1415,"id":"PAS","desc":"PASSEIRY VOR-DME"},
{"type":"NDB","hdg_t":239,"dist_nm":32.1,"freq":344,"lat":45.92361100,"lon":4.63361111,"rng_nm":25,"alt_fmsl":1089,"id":"TR","desc":"Villefranche Tarare NDB"},
{"type":"VOR","hdg_t":84.5,"dist_nm":35.1,"freq":115.75,"lat":46.25391700,"lon":6.13222200,"rng_nm":50,"alt_fmsl":1377,"id":"GVA","desc":"GENEVA COINTRIN VOR-DME"},
{"type":"NDB","hdg_t":329.3,"dist_nm":36.3,"freq":391,"lat":46.72167777,"lon":4.84305555,"rng_nm":25,"alt_fmsl":656,"id":"CC","desc":"Chalon Champforgeuil NDB"},
{"type":"NDB","hdg_t":123.5,"dist_nm":36.6,"freq":384,"lat":45.86166666,"lon":6.02055555,"rng_nm":25,"alt_fmsl":2205,"id":"AT","desc":"Annecy Meythet NDB"},
{"type":"NDB","hdg_t":199.7,"dist_nm":37.2,"freq":388,"lat":45.61583328,"lon":4.99278355,"rng_nm":25,"alt_fmsl":1044,"id":"BR","desc":"Lyon Bron NDB"},
{"type":"NDB","hdg_t":72.1,"dist_nm":41.5,"freq":375,"lat":46.40869400,"lon":6.24425000,"rng_nm":25,"alt_fmsl":1350,"id":"GLA","desc":"GLAND NDB"},
{"type":"VOR","hdg_t":204,"dist_nm":42.3,"freq":108.2,"lat":45.55644400,"lon":4.88341700,"rng_nm":30,"alt_fmsl":0,"id":"VNE","desc":"VIENNE VOR"},
{"type":"VOR","hdg_t":171.7,"dist_nm":43.1,"freq":115.55,"lat":45.48897200,"lon":5.43905600,"rng_nm":80,"alt_fmsl":2165,"id":"LTP","desc":"LA TOUR DU PIN-Lyon Est VOR-DME"},
{"type":"NDB","hdg_t":145.6,"dist_nm":44.1,"freq":346,"lat":45.59250000,"lon":5.88361100,"rng_nm":25,"alt_fmsl":840,"id":"CH","desc":"Chambery Aix les Bains NDB"},
{"type":"NDB","hdg_t":301.4,"dist_nm":46.5,"freq":317,"lat":46.60141700,"lon":4.33138900,"rng_nm":50,"alt_fmsl":0,"id":"MM","desc":"MONTCEAU-LES-MINES NDB"},
{"type":"NDB","hdg_t":0.6,"dist_nm":46.7,"freq":309,"lat":46.97972222,"lon":5.30527777,"rng_nm":25,"alt_fmsl":604,"id":"DO","desc":"Dole Tavaux NDB"},
{"type":"NDB","hdg_t":276.9,"dist_nm":49,"freq":430,"lat":46.29444444,"lon":4.12139222,"rng_nm":25,"alt_fmsl":1378,"id":"SN","desc":"Saint Yan NDB"},
{"type":"NDB","hdg_t":174.9,"dist_nm":50.4,"freq":397,"lat":45.36389000,"lon":5.39750000,"rng_nm":25,"alt_fmsl":1384,"id":"EG","desc":"Grenoble Saint Geoirs NDB"},
{"type":"NDB","hdg_t":186.6,"dist_nm":50.6,"freq":291,"lat":45.36230000,"lon":5.15297200,"rng_nm":25,"alt_fmsl":1129,"id":"WS","desc":"Grenoble saint Geoirs NDB"},
{"type":"VOR","hdg_t":71,"dist_nm":50.6,"freq":113.9,"lat":46.46869400,"lon":6.44805600,"rng_nm":100,"alt_fmsl":1252,"id":"SPR","desc":"ST. PREX VOR-DME"},
{"type":"NDB","hdg_t":264.6,"dist_nm":52.6,"freq":358,"lat":46.11222222,"lon":4.03694477,"rng_nm":25,"alt_fmsl":1122,"id":"RNN","desc":"Roanne Renaison NDB"},
{"type":"NDB","hdg_t":231.6,"dist_nm":54,"freq":379,"lat":45.63777777,"lon":4.28388888,"rng_nm":25,"alt_fmsl":1230,"id":"EB","desc":"Saint Etienne Boutheon NDB"},
{"type":"SDME","hdg_t":58,"dist_nm":54.5,"freq":110.65,"lat":46.67611100,"lon":6.41333300,"rng_nm":80,"alt_fmsl":4244,"id":"LAP","desc":"LA PRAZ DME"},
{"type":"VOR","hdg_t":261.5,"dist_nm":54.6,"freq":110.25,"lat":46.05916700,"lon":3.99927800,"rng_nm":60,"alt_fmsl":1095,"id":"ROA","desc":"ROANNE RENAISON VOR"},
{"type":"NDB","hdg_t":225.9,"dist_nm":58.3,"freq":299,"lat":45.52027800,"lon":4.29889000,"rng_nm":25,"alt_fmsl":1371,"id":"BO","desc":"Saint Etienne Boutheon NDB"},
{"type":"VOR","hdg_t":352.9,"dist_nm":64.7,"freq":111.45,"lat":47.27077800,"lon":5.09733300,"rng_nm":100,"alt_fmsl":726,"id":"DJL","desc":"DIJON-LONGVIC VOR-DME"},
{"type":"SDME","hdg_t":352.7,"dist_nm":64.8,"freq":113.5,"lat":47.27194400,"lon":5.09152800,"rng_nm":50,"alt_fmsl":726,"id":"DIJ","desc":"DIJON TACAN"},
{"type":"NDB","hdg_t":7.9,"dist_nm":68.8,"freq":427,"lat":47.33722300,"lon":5.52444500,"rng_nm":50,"alt_fmsl":0,"id":"BRP","desc":"BROYE LES PESMES NDB"},
{"type":"NDB","hdg_t":30,"dist_nm":74.2,"freq":370,"lat":47.26694444,"lon":6.20250000,"rng_nm":25,"alt_fmsl":1348,"id":"BSV","desc":"Besancon la Veze NDB"},
{"type":"VOR","hdg_t":255.8,"dist_nm":75.1,"freq":117.5,"lat":45.88183400,"lon":3.55358300,"rng_nm":60,"alt_fmsl":2258,"id":"TIS","desc":"THIERS VOR-DME"},
{"type":"SDME","hdg_t":255.8,"dist_nm":75.1,"freq":109,"lat":45.88183400,"lon":3.55358300,"rng_nm":195,"alt_fmsl":2000,"id":"TIS","desc":"THIERS DME"},
{"type":"NDB","hdg_t":294.3,"dist_nm":75.2,"freq":324,"lat":46.70588900,"lon":3.63086100,"rng_nm":50,"alt_fmsl":0,"id":"MOU","desc":"MOULINS NDB"},
{"type":"VOR","hdg_t":294.3,"dist_nm":75.2,"freq":116.7,"lat":46.70677800,"lon":3.63166700,"rng_nm":80,"alt_fmsl":699,"id":"MOU","desc":"MOULINS VOR-DME"},
{"type":"VOR","hdg_t":285.9,"dist_nm":77.2,"freq":109.6,"lat":46.54133300,"lon":3.49955600,"rng_nm":40,"alt_fmsl":0,"id":"MBY","desc":"MOULINS MONTBEUGNY VOR"},
{"type":"NDB","hdg_t":267.4,"dist_nm":79.2,"freq":403,"lat":46.12750000,"lon":3.39500000,"rng_nm":22,"alt_fmsl":816,"id":"VZ","desc":"VICHY NDB"},
{"type":"NDB","hdg_t":48.9,"dist_nm":81.6,"freq":403,"lat":47.08366700,"lon":6.79388900,"rng_nm":25,"alt_fmsl":0,"id":"LPS","desc":"LES EPLATURES NDB"},
{"type":"NDB","hdg_t":190,"dist_nm":82.3,"freq":320,"lat":44.84900000,"lon":4.95550000,"rng_nm":30,"alt_fmsl":0,"id":"VE","desc":"CHABEUIL NDB"},
{"type":"VOR","hdg_t":88.6,"dist_nm":83.2,"freq":112.15,"lat":46.21550000,"lon":7.28877800,"rng_nm":40,"alt_fmsl":1594,"id":"SIO","desc":"SION VOR-DME"},
{"type":"NDB","hdg_t":254.2,"dist_nm":84.1,"freq":367,"lat":45.80472200,"lon":3.36161100,"rng_nm":22,"alt_fmsl":1089,"id":"CF","desc":"CLERMONT-FERRAND NDB"},
{"type":"VOR","hdg_t":65.9,"dist_nm":87.2,"freq":110.85,"lat":46.77758300,"lon":7.22350000,"rng_nm":130,"alt_fmsl":2659,"id":"FRI","desc":"FRIBOURG VOR-DME"},
{"type":"VOR","hdg_t":106.9,"dist_nm":89.8,"freq":109.25,"lat":45.74572200,"lon":7.33858300,"rng_nm":40,"alt_fmsl":774,"id":"SCS","desc":"AOSTA VOR-DME"},
{"type":"VOR","hdg_t":254.9,"dist_nm":91.2,"freq":114.35,"lat":45.78747200,"lon":3.19219400,"rng_nm":100,"alt_fmsl":1093,"id":"CFA","desc":"CLERMONT FERRAND AUVERGNE VOR-DME"},
{"type":"VOR","hdg_t":85,"dist_nm":92.3,"freq":115.85,"lat":46.31336100,"lon":7.50333300,"rng_nm":40,"alt_fmsl":4456,"id":"MOT","desc":"MONTANA VOR-DME"},
{"type":"NDB","hdg_t":221.7,"dist_nm":94.3,"freq":372,"lat":45.01777777,"lon":3.81500000,"rng_nm":25,"alt_fmsl":2884,"id":"PY","desc":"Le Puy Loudes NDB"},
{"type":"NDB","hdg_t":298.2,"dist_nm":98,"freq":394,"lat":46.95583333,"lon":3.19000000,"rng_nm":25,"alt_fmsl":633,"id":"NV","desc":"Nevers Fourchambault NDB"},
{"type":"VOR","hdg_t":24.4,"dist_nm":98.3,"freq":117.1,"lat":47.68827800,"lon":6.29558300,"rng_nm":80,"alt_fmsl":1072,"id":"LUL","desc":"LUXEUIL VOR"}
]
}
