{"success":true,"source":"xp2csv.pl","last_updated":"2013/11/08 14:53:21 UTC"
,"icao":"LFKD","name":"Sollieres Sardieres","lat":45.25411532,"lon":6.80118187,"rwys":1,"ils":0,"index":3056083,"path":"e000n40/e006n45"
,"runways":[
{"len_m":705,"wid_m":60.05,"hdg":195,"surf":"Turf/grass","rwy1":"20","lat1":45.25717948,"lon1":6.80234822,"rwy2":"02","lat2":45.25105115,"lon2":6.80001551}
]
,"navaids":[
{"type":"VOR","hdg_t":92.9,"dist_nm":36,"freq":116.75,"lat":45.21969500,"lon":7.64957300,"rng_nm":45,"alt_fmsl":1007,"id":"CSL","desc":"CASELLE VOR-DME"},
{"type":"NDB","hdg_t":102,"dist_nm":36.6,"freq":357,"lat":45.12352800,"lon":7.64533300,"rng_nm":25,"alt_fmsl":836,"id":"CAS","desc":"CASELLE NDB"},
{"type":"VOR","hdg_t":37.3,"dist_nm":37.2,"freq":109.25,"lat":45.74572200,"lon":7.33858300,"rng_nm":40,"alt_fmsl":774,"id":"SCS","desc":"AOSTA VOR-DME"},
{"type":"NDB","hdg_t":297.9,"dist_nm":43.7,"freq":346,"lat":45.59250000,"lon":5.88361100,"rng_nm":25,"alt_fmsl":840,"id":"CH","desc":"Chambery Aix les Bains NDB"},
{"type":"NDB","hdg_t":318.2,"dist_nm":49.1,"freq":384,"lat":45.86166666,"lon":6.02055555,"rng_nm":25,"alt_fmsl":2205,"id":"AT","desc":"Annecy Meythet NDB"},
{"type":"NDB","hdg_t":113.3,"dist_nm":49.1,"freq":392,"lat":44.92472200,"lon":7.86055600,"rng_nm":50,"alt_fmsl":817,"id":"TOP","desc":"TORINO NDB"},
{"type":"VOR","hdg_t":113.2,"dist_nm":49.2,"freq":114.5,"lat":44.92525400,"lon":7.86165600,"rng_nm":100,"alt_fmsl":853,"id":"TOP","desc":"TORINO VOR-DME"},
{"type":"NDB","hdg_t":140.5,"dist_nm":54.9,"freq":371,"lat":44.54421400,"lon":7.61540300,"rng_nm":25,"alt_fmsl":1252,"id":"LEV","desc":"LEVALDIGI NDB"},
{"type":"VOR","hdg_t":74.8,"dist_nm":56.8,"freq":116.1,"lat":45.49420500,"lon":8.10057500,"rng_nm":30,"alt_fmsl":921,"id":"BLA","desc":"BIELLA VOR-DME"},
{"type":"NDB","hdg_t":76.9,"dist_nm":57.3,"freq":350,"lat":45.46219400,"lon":8.12336100,"rng_nm":25,"alt_fmsl":773,"id":"BLA","desc":"BIELLA CERRIONE NDB"},
{"type":"VOR","hdg_t":310.9,"dist_nm":57.9,"freq":115.4,"lat":45.88188900,"lon":5.75730600,"rng_nm":40,"alt_fmsl":4783,"id":"CBY","desc":"CHAMBERY VOR-DME"},
{"type":"VOR","hdg_t":284.2,"dist_nm":59.3,"freq":115.55,"lat":45.48897200,"lon":5.43905600,"rng_nm":80,"alt_fmsl":2165,"id":"LTP","desc":"LA TOUR DU PIN-Lyon Est VOR-DME"},
{"type":"NDB","hdg_t":276.8,"dist_nm":59.8,"freq":397,"lat":45.36389000,"lon":5.39750000,"rng_nm":25,"alt_fmsl":1384,"id":"EG","desc":"Grenoble Saint Geoirs NDB"},
{"type":"VOR","hdg_t":19.3,"dist_nm":61.2,"freq":112.15,"lat":46.21550000,"lon":7.28877800,"rng_nm":40,"alt_fmsl":1594,"id":"SIO","desc":"SION VOR-DME"},
{"type":"NDB","hdg_t":215,"dist_nm":63.7,"freq":297,"lat":44.38138888,"lon":5.95027777,"rng_nm":25,"alt_fmsl":1870,"id":"GA","desc":"Gap Tallard NDB"},
{"type":"VOR","hdg_t":328.6,"dist_nm":64.1,"freq":116.6,"lat":46.16369400,"lon":5.99991700,"rng_nm":80,"alt_fmsl":1415,"id":"PAS","desc":"PASSEIRY VOR-DME"},
{"type":"VOR","hdg_t":335.1,"dist_nm":66.2,"freq":115.75,"lat":46.25391700,"lon":6.13222200,"rng_nm":50,"alt_fmsl":1377,"id":"GVA","desc":"GENEVA COINTRIN VOR-DME"},
{"type":"NDB","hdg_t":275.8,"dist_nm":70,"freq":291,"lat":45.36230000,"lon":5.15297200,"rng_nm":25,"alt_fmsl":1129,"id":"WS","desc":"Grenoble saint Geoirs NDB"},
{"type":"VOR","hdg_t":24.6,"dist_nm":70,"freq":115.85,"lat":46.31336100,"lon":7.50333300,"rng_nm":40,"alt_fmsl":4456,"id":"MOT","desc":"MONTANA VOR-DME"},
{"type":"NDB","hdg_t":341.5,"dist_nm":73.1,"freq":375,"lat":46.40869400,"lon":6.24425000,"rng_nm":25,"alt_fmsl":1350,"id":"GLA","desc":"GLAND NDB"},
{"type":"VOR","hdg_t":348.6,"dist_nm":74.3,"freq":113.9,"lat":46.46869400,"lon":6.44805600,"rng_nm":100,"alt_fmsl":1252,"id":"SPR","desc":"ST. PREX VOR-DME"},
{"type":"SDME","hdg_t":305.9,"dist_nm":75.9,"freq":116.3,"lat":45.98861100,"lon":5.33125000,"rng_nm":50,"alt_fmsl":801,"id":"AMU","desc":"AMBERIEU TACAN"},
{"type":"VOR","hdg_t":292.8,"dist_nm":77.9,"freq":114.75,"lat":45.74552800,"lon":5.09058300,"rng_nm":140,"alt_fmsl":820,"id":"LSE","desc":"LYON SAINT EXUPERY VOR-DME"},
{"type":"NDB","hdg_t":286.5,"dist_nm":79.4,"freq":388,"lat":45.61583328,"lon":4.99278355,"rng_nm":25,"alt_fmsl":1044,"id":"BR","desc":"Lyon Bron NDB"},
{"type":"SDME","hdg_t":75.7,"dist_nm":80.7,"freq":115,"lat":45.57022200,"lon":8.65752500,"rng_nm":50,"alt_fmsl":692,"id":"CAM","desc":"CAMERI TACAN"},
{"type":"NDB","hdg_t":81.9,"dist_nm":81,"freq":323,"lat":45.42861100,"lon":8.70083300,"rng_nm":25,"alt_fmsl":436,"id":"CAM","desc":"CAMERI NDB"},
{"type":"VOR","hdg_t":201.8,"dist_nm":81.4,"freq":113.85,"lat":43.99138900,"lon":6.10083300,"rng_nm":150,"alt_fmsl":3027,"id":"DGN","desc":"DIGNE VOR"},
{"type":"NDB","hdg_t":253.4,"dist_nm":82.1,"freq":320,"lat":44.84900000,"lon":4.95550000,"rng_nm":30,"alt_fmsl":0,"id":"VE","desc":"CHABEUIL NDB"},
{"type":"VOR","hdg_t":283.2,"dist_nm":83,"freq":108.2,"lat":45.55644400,"lon":4.88341700,"rng_nm":30,"alt_fmsl":0,"id":"VNE","desc":"VIENNE VOR"},
{"type":"NDB","hdg_t":77.3,"dist_nm":84.4,"freq":364,"lat":45.54583200,"lon":8.75627800,"rng_nm":25,"alt_fmsl":583,"id":"MAL","desc":"MALPENSA NDB"},
{"type":"NDB","hdg_t":82.3,"dist_nm":84.9,"freq":292,"lat":45.42413900,"lon":8.79386100,"rng_nm":25,"alt_fmsl":0,"id":"NOV","desc":"NOVARA NDB"},
{"type":"VOR","hdg_t":73.4,"dist_nm":84.9,"freq":113.35,"lat":45.64076600,"lon":8.73482700,"rng_nm":80,"alt_fmsl":764,"id":"MMP","desc":"MALPENSA VOR-DME"},
{"type":"NDB","hdg_t":312.4,"dist_nm":85.3,"freq":423,"lat":46.20388888,"lon":5.28888888,"rng_nm":25,"alt_fmsl":869,"id":"BOR","desc":"Bourg Ceyzeriat NDB"},
{"type":"SDME","hdg_t":349.3,"dist_nm":86.8,"freq":110.65,"lat":46.67611100,"lon":6.41333300,"rng_nm":80,"alt_fmsl":4244,"id":"LAP","desc":"LA PRAZ DME"},
{"type":"NDB","hdg_t":218,"dist_nm":91.1,"freq":348,"lat":44.05069400,"lon":5.50347200,"rng_nm":15,"alt_fmsl":0,"id":"SCL","desc":"SAINT CHRISTOL NDB"},
{"type":"VOR","hdg_t":167.5,"dist_nm":91.1,"freq":112.4,"lat":43.77063900,"lon":7.25438900,"rng_nm":200,"alt_fmsl":2822,"id":"NIZ","desc":"NICE COTE D AZUR VOR-DME"},
{"type":"VOR","hdg_t":141.3,"dist_nm":91.9,"freq":116.95,"lat":44.04816900,"lon":8.12761700,"rng_nm":40,"alt_fmsl":136,"id":"ALB","desc":"ALBENGA VOR-DME"},
{"type":"NDB","hdg_t":299.6,"dist_nm":93,"freq":337,"lat":46.00388700,"lon":4.86805500,"rng_nm":50,"alt_fmsl":0,"id":"AD","desc":"AMBERIEUX NDB"},
{"type":"VOR","hdg_t":10.7,"dist_nm":93.1,"freq":110.85,"lat":46.77758300,"lon":7.22350000,"rng_nm":130,"alt_fmsl":2659,"id":"FRI","desc":"FRIBOURG VOR-DME"},
{"type":"VOR","hdg_t":99.9,"dist_nm":93.7,"freq":115.5,"lat":44.96442300,"lon":8.97027000,"rng_nm":40,"alt_fmsl":384,"id":"VOG","desc":"VOGHERA VOR-DME"},
{"type":"NDB","hdg_t":99.9,"dist_nm":93.8,"freq":333,"lat":44.96388900,"lon":8.97222200,"rng_nm":50,"alt_fmsl":341,"id":"VOG","desc":"VOGHERA NDB"},
{"type":"NDB","hdg_t":139.2,"dist_nm":94.1,"freq":420,"lat":44.05583300,"lon":8.22111100,"rng_nm":50,"alt_fmsl":3,"id":"ABN","desc":"ALBENGA NDB"},
{"type":"NDB","hdg_t":165.9,"dist_nm":94.4,"freq":399,"lat":43.72538900,"lon":7.32663900,"rng_nm":50,"alt_fmsl":0,"id":"LEZ","desc":"NICE NDB"},
{"type":"VOR","hdg_t":244.7,"dist_nm":95.8,"freq":113.65,"lat":44.55494400,"lon":4.77986100,"rng_nm":100,"alt_fmsl":656,"id":"MTL","desc":"MONTELIMAR ANCONE VOR-DME"},
{"type":"VOR","hdg_t":75.1,"dist_nm":96.6,"freq":113.7,"lat":45.64596000,"lon":9.02161000,"rng_nm":100,"alt_fmsl":800,"id":"SRN","desc":"SARONNO VOR-DME"},
{"type":"NDB","hdg_t":75.1,"dist_nm":96.7,"freq":330,"lat":45.64666700,"lon":9.02277800,"rng_nm":25,"alt_fmsl":758,"id":"SRN","desc":"SARONNO NDB"},
{"type":"NDB","hdg_t":245.9,"dist_nm":97,"freq":362,"lat":44.57749900,"lon":4.73416700,"rng_nm":50,"alt_fmsl":0,"id":"MTL","desc":"MONTELIMAR NDB"},
{"type":"VOR","hdg_t":169,"dist_nm":97.3,"freq":109.65,"lat":43.65957100,"lon":7.22445000,"rng_nm":200,"alt_fmsl":12,"id":"AZR","desc":"NICE COTE D AZUR VOR-DME"},
{"type":"VOR","hdg_t":171.1,"dist_nm":97.6,"freq":109.2,"lat":43.64525000,"lon":7.14591700,"rng_nm":40,"alt_fmsl":13,"id":"CGS","desc":"CAGNES SUR MER VOR-DME"},
{"type":"NDB","hdg_t":294.5,"dist_nm":99.7,"freq":344,"lat":45.92361100,"lon":4.63361111,"rng_nm":25,"alt_fmsl":1089,"id":"TR","desc":"Villefranche Tarare NDB"},
{"type":"VOR","hdg_t":119.4,"dist_nm":99.8,"freq":108.6,"lat":44.41733300,"lon":8.82363900,"rng_nm":40,"alt_fmsl":33,"id":"SES","desc":"SESTRI VOR-DME"}
]
}
