{"success":true,"source":"xp2csv.pl","last_updated":"2013/11/08 14:53:21 UTC"
,"icao":"LFLI","name":"Annemasse","lat":46.191768,"lon":6.268477,"rwys":1,"ils":0,"index":3056137,"path":"e000n40/e006n46"
,"runways":[
{"len_m":1300,"wid_m":36.88,"hdg":117,"surf":"Asphalt","rwy1":"12","lat1":46.19446100,"lon1":6.26100100,"rwy2":"30","lat2":46.18907500,"lon2":6.27595300}
]
,"radios":[
{"type":"CTAF","freq":125.87,"desc":"ANNEMASSE MULT"},
{"type":"APP","freq":136.25,"desc":"GENEVA APP"},
{"type":"DEP","freq":119.52,"desc":"GENEVA DEP"}
]
,"navaids":[
{"type":"VOR","hdg_t":303.3,"dist_nm":6.7,"freq":115.75,"lat":46.25391700,"lon":6.13222200,"rng_nm":50,"alt_fmsl":1377,"id":"GVA","desc":"GENEVA COINTRIN VOR-DME"},
{"type":"VOR","hdg_t":261.5,"dist_nm":11.3,"freq":116.6,"lat":46.16369400,"lon":5.99991700,"rng_nm":80,"alt_fmsl":1415,"id":"PAS","desc":"PASSEIRY VOR-DME"},
{"type":"NDB","hdg_t":355.5,"dist_nm":13,"freq":375,"lat":46.40869400,"lon":6.24425000,"rng_nm":25,"alt_fmsl":1350,"id":"GLA","desc":"GLAND NDB"},
{"type":"VOR","hdg_t":24.1,"dist_nm":18.2,"freq":113.9,"lat":46.46869400,"lon":6.44805600,"rng_nm":100,"alt_fmsl":1252,"id":"SPR","desc":"ST. PREX VOR-DME"},
{"type":"NDB","hdg_t":207.7,"dist_nm":22.3,"freq":384,"lat":45.86166666,"lon":6.02055555,"rng_nm":25,"alt_fmsl":2205,"id":"AT","desc":"Annecy Meythet NDB"},
{"type":"VOR","hdg_t":229.1,"dist_nm":28.3,"freq":115.4,"lat":45.88188900,"lon":5.75730600,"rng_nm":40,"alt_fmsl":4783,"id":"CBY","desc":"CHAMBERY VOR-DME"},
{"type":"SDME","hdg_t":11.6,"dist_nm":29.6,"freq":110.65,"lat":46.67611100,"lon":6.41333300,"rng_nm":80,"alt_fmsl":4244,"id":"LAP","desc":"LA PRAZ DME"},
{"type":"NDB","hdg_t":204.2,"dist_nm":39.4,"freq":346,"lat":45.59250000,"lon":5.88361100,"rng_nm":25,"alt_fmsl":840,"id":"CH","desc":"Chambery Aix les Bains NDB"},
{"type":"NDB","hdg_t":271.3,"dist_nm":40.8,"freq":423,"lat":46.20388888,"lon":5.28888888,"rng_nm":25,"alt_fmsl":869,"id":"BOR","desc":"Bourg Ceyzeriat NDB"},
{"type":"SDME","hdg_t":253,"dist_nm":40.9,"freq":116.3,"lat":45.98861100,"lon":5.33125000,"rng_nm":50,"alt_fmsl":801,"id":"AMU","desc":"AMBERIEU TACAN"},
{"type":"VOR","hdg_t":87.7,"dist_nm":42.5,"freq":112.15,"lat":46.21550000,"lon":7.28877800,"rng_nm":40,"alt_fmsl":1594,"id":"SIO","desc":"SION VOR-DME"},
{"type":"VOR","hdg_t":81.4,"dist_nm":51.9,"freq":115.85,"lat":46.31336100,"lon":7.50333300,"rng_nm":40,"alt_fmsl":4456,"id":"MOT","desc":"MONTANA VOR-DME"},
{"type":"VOR","hdg_t":120.4,"dist_nm":52.1,"freq":109.25,"lat":45.74572200,"lon":7.33858300,"rng_nm":40,"alt_fmsl":774,"id":"SCS","desc":"AOSTA VOR-DME"},
{"type":"VOR","hdg_t":48,"dist_nm":52.9,"freq":110.85,"lat":46.77758300,"lon":7.22350000,"rng_nm":130,"alt_fmsl":2659,"id":"FRI","desc":"FRIBOURG VOR-DME"},
{"type":"VOR","hdg_t":219.8,"dist_nm":54.6,"freq":115.55,"lat":45.48897200,"lon":5.43905600,"rng_nm":80,"alt_fmsl":2165,"id":"LTP","desc":"LA TOUR DU PIN-Lyon Est VOR-DME"},
{"type":"VOR","hdg_t":241.9,"dist_nm":56,"freq":114.75,"lat":45.74552800,"lon":5.09058300,"rng_nm":140,"alt_fmsl":820,"id":"LSE","desc":"LYON SAINT EXUPERY VOR-DME"},
{"type":"NDB","hdg_t":21.8,"dist_nm":57.7,"freq":403,"lat":47.08366700,"lon":6.79388900,"rng_nm":25,"alt_fmsl":0,"id":"LPS","desc":"LES EPLATURES NDB"},
{"type":"NDB","hdg_t":259.5,"dist_nm":59.5,"freq":337,"lat":46.00388700,"lon":4.86805500,"rng_nm":50,"alt_fmsl":0,"id":"AD","desc":"AMBERIEUX NDB"},
{"type":"NDB","hdg_t":216.6,"dist_nm":61.6,"freq":397,"lat":45.36389000,"lon":5.39750000,"rng_nm":25,"alt_fmsl":1384,"id":"EG","desc":"Grenoble Saint Geoirs NDB"},
{"type":"NDB","hdg_t":276.1,"dist_nm":61.7,"freq":400,"lat":46.29250000,"lon":4.79361111,"rng_nm":25,"alt_fmsl":705,"id":"MO","desc":"Macon Charnay NDB"},
{"type":"NDB","hdg_t":320.2,"dist_nm":61.8,"freq":309,"lat":46.97972222,"lon":5.30527777,"rng_nm":25,"alt_fmsl":604,"id":"DO","desc":"Dole Tavaux NDB"},
{"type":"NDB","hdg_t":237.5,"dist_nm":63.6,"freq":388,"lat":45.61583328,"lon":4.99278355,"rng_nm":25,"alt_fmsl":1044,"id":"BR","desc":"Lyon Bron NDB"},
{"type":"NDB","hdg_t":357.6,"dist_nm":64.5,"freq":370,"lat":47.26694444,"lon":6.20250000,"rng_nm":25,"alt_fmsl":1348,"id":"BSV","desc":"Besancon la Veze NDB"},
{"type":"NDB","hdg_t":50,"dist_nm":66.6,"freq":335,"lat":46.89911700,"lon":7.51048300,"rng_nm":25,"alt_fmsl":1690,"id":"BER","desc":"BERN NDB"},
{"type":"NDB","hdg_t":298.7,"dist_nm":67.1,"freq":391,"lat":46.72167777,"lon":4.84305555,"rng_nm":25,"alt_fmsl":656,"id":"CC","desc":"Chalon Champforgeuil NDB"},
{"type":"NDB","hdg_t":223.6,"dist_nm":68.3,"freq":291,"lat":45.36230000,"lon":5.15297200,"rng_nm":25,"alt_fmsl":1129,"id":"WS","desc":"Grenoble saint Geoirs NDB"},
{"type":"VOR","hdg_t":237.2,"dist_nm":69.4,"freq":108.2,"lat":45.55644400,"lon":4.88341700,"rng_nm":30,"alt_fmsl":0,"id":"VNE","desc":"VIENNE VOR"},
{"type":"NDB","hdg_t":257.3,"dist_nm":70.1,"freq":344,"lat":45.92361100,"lon":4.63361111,"rng_nm":25,"alt_fmsl":1089,"id":"TR","desc":"Villefranche Tarare NDB"},
{"type":"NDB","hdg_t":336.2,"dist_nm":75.2,"freq":427,"lat":47.33722300,"lon":5.52444500,"rng_nm":50,"alt_fmsl":0,"id":"BRP","desc":"BROYE LES PESMES NDB"},
{"type":"VOR","hdg_t":38.1,"dist_nm":76.1,"freq":115.45,"lat":47.18315300,"lon":7.41818100,"rng_nm":25,"alt_fmsl":1435,"id":"GRE","desc":"GRENCHEN VOR-DME"},
{"type":"VOR","hdg_t":323.6,"dist_nm":80.8,"freq":111.45,"lat":47.27077800,"lon":5.09733300,"rng_nm":100,"alt_fmsl":726,"id":"DJL","desc":"DIJON-LONGVIC VOR-DME"},
{"type":"SDME","hdg_t":323.5,"dist_nm":81,"freq":113.5,"lat":47.27194400,"lon":5.09152800,"rng_nm":50,"alt_fmsl":726,"id":"DIJ","desc":"DIJON TACAN"},
{"type":"VOR","hdg_t":134.6,"dist_nm":82.3,"freq":116.75,"lat":45.21969500,"lon":7.64957300,"rng_nm":45,"alt_fmsl":1007,"id":"CSL","desc":"CASELLE VOR-DME"},
{"type":"NDB","hdg_t":18.6,"dist_nm":83.2,"freq":330,"lat":47.50444444,"lon":6.92388888,"rng_nm":25,"alt_fmsl":1283,"id":"MB","desc":"Montbeliard Courcelles NDB"},
{"type":"NDB","hdg_t":287.6,"dist_nm":84.1,"freq":317,"lat":46.60141700,"lon":4.33138900,"rng_nm":50,"alt_fmsl":0,"id":"MM","desc":"MONTCEAU-LES-MINES NDB"},
{"type":"NDB","hdg_t":12.9,"dist_nm":84.4,"freq":289,"lat":47.56166700,"lon":6.73225000,"rng_nm":50,"alt_fmsl":0,"id":"HR","desc":"HERICOURT NDB"},
{"type":"NDB","hdg_t":137.3,"dist_nm":86.4,"freq":357,"lat":45.12352800,"lon":7.64533300,"rng_nm":25,"alt_fmsl":836,"id":"CAS","desc":"CASELLE NDB"},
{"type":"VOR","hdg_t":117.9,"dist_nm":87.5,"freq":116.1,"lat":45.49420500,"lon":8.10057500,"rng_nm":30,"alt_fmsl":921,"id":"BLA","desc":"BIELLA VOR-DME"},
{"type":"NDB","hdg_t":118.6,"dist_nm":89.2,"freq":350,"lat":45.46219400,"lon":8.12336100,"rng_nm":25,"alt_fmsl":773,"id":"BLA","desc":"BIELLA CERRIONE NDB"},
{"type":"NDB","hdg_t":248.9,"dist_nm":89.5,"freq":379,"lat":45.63777777,"lon":4.28388888,"rng_nm":25,"alt_fmsl":1230,"id":"EB","desc":"Saint Etienne Boutheon NDB"},
{"type":"NDB","hdg_t":274.7,"dist_nm":89.6,"freq":430,"lat":46.29444444,"lon":4.12139222,"rng_nm":25,"alt_fmsl":1378,"id":"SN","desc":"Saint Yan NDB"},
{"type":"VOR","hdg_t":0.7,"dist_nm":89.8,"freq":117.1,"lat":47.68827800,"lon":6.29558300,"rng_nm":80,"alt_fmsl":1072,"id":"LUL","desc":"LUXEUIL VOR"},
{"type":"VOR","hdg_t":48.2,"dist_nm":89.8,"freq":116.9,"lat":47.17830600,"lon":7.90591700,"rng_nm":60,"alt_fmsl":2417,"id":"WIL","desc":"WILLISAU VOR-DME"},
{"type":"NDB","hdg_t":244.7,"dist_nm":91.8,"freq":299,"lat":45.52027800,"lon":4.29889000,"rng_nm":25,"alt_fmsl":1371,"id":"BO","desc":"Saint Etienne Boutheon NDB"},
{"type":"NDB","hdg_t":267.8,"dist_nm":93.2,"freq":358,"lat":46.11222222,"lon":4.03694477,"rng_nm":25,"alt_fmsl":1122,"id":"RNN","desc":"Roanne Renaison NDB"},
{"type":"VOR","hdg_t":266,"dist_nm":95,"freq":110.25,"lat":46.05916700,"lon":3.99927800,"rng_nm":60,"alt_fmsl":1095,"id":"ROA","desc":"ROANNE RENAISON VOR"},
{"type":"SDME","hdg_t":2.1,"dist_nm":95.5,"freq":108.2,"lat":47.78316700,"lon":6.35711100,"rng_nm":50,"alt_fmsl":913,"id":"LXI","desc":"LUXEUIL TACAN"},
{"type":"VOR","hdg_t":36.4,"dist_nm":95.7,"freq":113.2,"lat":47.46655600,"lon":7.66544400,"rng_nm":100,"alt_fmsl":2425,"id":"HOC","desc":"HOCHWALD VOR-DME"},
{"type":"NDB","hdg_t":2.5,"dist_nm":96.4,"freq":363,"lat":47.79658300,"lon":6.37519400,"rng_nm":80,"alt_fmsl":913,"id":"LXI","desc":"LUXEUIL NDB"},
{"type":"NDB","hdg_t":214.9,"dist_nm":97.7,"freq":320,"lat":44.84900000,"lon":4.95550000,"rng_nm":30,"alt_fmsl":0,"id":"VE","desc":"CHABEUIL NDB"},
{"type":"NDB","hdg_t":31.5,"dist_nm":98.2,"freq":376,"lat":47.57972200,"lon":7.53625000,"rng_nm":50,"alt_fmsl":0,"id":"BS","desc":"Bale Mulhouse NDB"}
]
}
