{"success":true,"source":"xp2csv.pl","last_updated":"2013/11/08 14:53:21 UTC"
,"icao":"LFMW","name":"Castelnaudary Villeneuve","lat":43.311322,"lon":1.924203,"rwys":1,"ils":0,"index":2974035,"path":"e000n40/e001n43"
,"runways":[
{"len_m":1637,"wid_m":29.87,"hdg":109,"surf":"Dirt","rwy1":"11","lat1":43.31383532,"lon1":1.91471300,"rwy2":"29","lat2":43.30880868,"lon2":1.93369300}
]
,"navaids":[
{"type":"NDB","hdg_t":113.1,"dist_nm":13.5,"freq":345,"lat":43.22250000,"lon":2.20777777,"rng_nm":25,"alt_fmsl":489,"id":"CS","desc":"Carcassonne Salvaza NDB"},
{"type":"NDB","hdg_t":313.7,"dist_nm":14.7,"freq":415,"lat":43.48111100,"lon":1.67988900,"rng_nm":30,"alt_fmsl":898,"id":"TOE","desc":"TOULOUSE NDB"},
{"type":"NDB","hdg_t":227.7,"dist_nm":19.4,"freq":384,"lat":43.09277777,"lon":1.59611111,"rng_nm":25,"alt_fmsl":1421,"id":"PMR","desc":"Pamiers les Pujols NDB"},
{"type":"NDB","hdg_t":301.7,"dist_nm":22.4,"freq":423,"lat":43.50727800,"lon":1.48677800,"rng_nm":30,"alt_fmsl":844,"id":"TS","desc":"TOULOUSE NDB"},
{"type":"NDB","hdg_t":32.7,"dist_nm":22.9,"freq":356,"lat":43.63250000,"lon":2.20916666,"rng_nm":25,"alt_fmsl":853,"id":"CVU","desc":"Castres Mazamet NDB"},
{"type":"SDME","hdg_t":300.5,"dist_nm":28.1,"freq":116,"lat":43.54847200,"lon":1.36822200,"rng_nm":50,"alt_fmsl":597,"id":"TLU","desc":"TOULOUSE/FRANCAZAL TACAN"},
{"type":"NDB","hdg_t":287.5,"dist_nm":34,"freq":350,"lat":43.47944444,"lon":1.18166666,"rng_nm":25,"alt_fmsl":722,"id":"MUT","desc":"Muret Lherm NDB"},
{"type":"VOR","hdg_t":309.7,"dist_nm":34.8,"freq":117.7,"lat":43.68083300,"lon":1.30980600,"rng_nm":120,"alt_fmsl":574,"id":"TOU","desc":"TOULOUSE BLAGNAC VOR-DME"},
{"type":"NDB","hdg_t":299,"dist_nm":35.5,"freq":331,"lat":43.59722222,"lon":1.21138888,"rng_nm":25,"alt_fmsl":646,"id":"TLF","desc":"Toulouse Francazal NDB"},
{"type":"NDB","hdg_t":9.5,"dist_nm":36.5,"freq":323,"lat":43.91266632,"lon":2.06438327,"rng_nm":25,"alt_fmsl":542,"id":"AB","desc":"Albi le Sequestre NDB"},
{"type":"VOR","hdg_t":353.5,"dist_nm":38.8,"freq":115.8,"lat":43.95405600,"lon":1.82416700,"rng_nm":100,"alt_fmsl":979,"id":"GAI","desc":"GAILLAC-Castelneau de Montmirail VOR"},
{"type":"NDB","hdg_t":288.8,"dist_nm":41.4,"freq":406,"lat":43.53061100,"lon":1.02527800,"rng_nm":30,"alt_fmsl":813,"id":"TW","desc":"TOULOUSE NDB"},
{"type":"NDB","hdg_t":331.2,"dist_nm":43.7,"freq":368,"lat":43.95000000,"lon":1.43885500,"rng_nm":50,"alt_fmsl":0,"id":"TLB","desc":"Toulouse NDB"},
{"type":"NDB","hdg_t":319,"dist_nm":46.1,"freq":378,"lat":43.88972100,"lon":1.22750000,"rng_nm":75,"alt_fmsl":0,"id":"TN","desc":"TOULOUSE NDB"},
{"type":"NDB","hdg_t":175.5,"dist_nm":52,"freq":418,"lat":42.44583333,"lon":2.01500000,"rng_nm":25,"alt_fmsl":4383,"id":"SAL","desc":"Sainte Leocadie NDB"},
{"type":"VOR","hdg_t":128.7,"dist_nm":53.4,"freq":116.25,"lat":42.75047200,"lon":2.86713900,"rng_nm":100,"alt_fmsl":151,"id":"PPG","desc":"PERPIGNAN RIVESALTES VOR-DME"},
{"type":"VOR","hdg_t":307.4,"dist_nm":57.4,"freq":114.8,"lat":43.88802800,"lon":0.87286100,"rng_nm":120,"alt_fmsl":896,"id":"AGN","desc":"AGEN-Gaudonville VOR-DME"},
{"type":"NDB","hdg_t":323.6,"dist_nm":57.9,"freq":327,"lat":44.08713900,"lon":1.13077800,"rng_nm":25,"alt_fmsl":0,"id":"CSM","desc":"CASTELSARRASIN MOISSAC NDB"},
{"type":"NDB","hdg_t":130.3,"dist_nm":58.1,"freq":351,"lat":42.67916666,"lon":2.92444444,"rng_nm":25,"alt_fmsl":164,"id":"PL","desc":"Perpignan Rivesaltes NDB"},
{"type":"NDB","hdg_t":88.6,"dist_nm":59.5,"freq":397,"lat":43.32722222,"lon":3.28305555,"rng_nm":25,"alt_fmsl":46,"id":"ZR","desc":"Beziers Vias NDB"},
{"type":"NDB","hdg_t":293.3,"dist_nm":62.6,"freq":420,"lat":43.71777777,"lon":0.60305555,"rng_nm":25,"alt_fmsl":509,"id":"LMT","desc":"Auch Lamothe NDB"},
{"type":"NDB","hdg_t":25.6,"dist_nm":68,"freq":302,"lat":44.33194444,"lon":2.60722222,"rng_nm":25,"alt_fmsl":2066,"id":"ROM","desc":"Rodez Marcillac NDB"},
{"type":"NDB","hdg_t":341.2,"dist_nm":68.1,"freq":348,"lat":44.38527778,"lon":1.41555555,"rng_nm":25,"alt_fmsl":951,"id":"CL","desc":"Cahors Lalbenque NDB"},
{"type":"NDB","hdg_t":56.5,"dist_nm":68.5,"freq":315,"lat":43.93305555,"lon":3.24361111,"rng_nm":25,"alt_fmsl":2460,"id":"MIL","desc":"Millau Larzac NDB"},
{"type":"NDB","hdg_t":199.7,"dist_nm":68.6,"freq":340,"lat":42.23223600,"lon":1.40351900,"rng_nm":25,"alt_fmsl":0,"id":"SEO","desc":"SEO DE URGEL NDB"},
{"type":"NDB","hdg_t":18.1,"dist_nm":70.8,"freq":387,"lat":44.43194444,"lon":2.43722222,"rng_nm":25,"alt_fmsl":2044,"id":"RZ","desc":"Rodez Marcillac NDB"},
{"type":"NDB","hdg_t":313.2,"dist_nm":74.1,"freq":400,"lat":44.15055555,"lon":0.67388888,"rng_nm":25,"alt_fmsl":156,"id":"AG","desc":"Agen la Garenne NDB"},
{"type":"VOR","hdg_t":271.5,"dist_nm":77.9,"freq":113.9,"lat":43.33222200,"lon":0.14575000,"rng_nm":80,"alt_fmsl":1039,"id":"TBO","desc":"TARBES VOR"},
{"type":"NDB","hdg_t":355.8,"dist_nm":81.7,"freq":395,"lat":44.67083333,"lon":1.78694444,"rng_nm":25,"alt_fmsl":1053,"id":"FC","desc":"Figeac Livernon NDB"},
{"type":"NDB","hdg_t":269.6,"dist_nm":82.1,"freq":321,"lat":43.28838900,"lon":0.04963900,"rng_nm":50,"alt_fmsl":928,"id":"TL","desc":"TARBES NDB"},
{"type":"VOR","hdg_t":276.9,"dist_nm":85.4,"freq":111.8,"lat":43.46666700,"lon":-0.01841700,"rng_nm":50,"alt_fmsl":964,"id":"TAN","desc":"LAHITTE VOR"},
{"type":"VOR","hdg_t":276.9,"dist_nm":85.4,"freq":111.8,"lat":43.46666700,"lon":-0.01766700,"rng_nm":60,"alt_fmsl":980,"id":"LMB","desc":"LEMBEYE VOR"},
{"type":"NDB","hdg_t":152.8,"dist_nm":86.4,"freq":412,"lat":42.02497800,"lon":2.80721100,"rng_nm":50,"alt_fmsl":0,"id":"GRN","desc":"GERONA NDB"},
{"type":"VOR","hdg_t":155.3,"dist_nm":90.9,"freq":114.1,"lat":41.93117800,"lon":2.77196700,"rng_nm":130,"alt_fmsl":535,"id":"GIR","desc":"GERONA VOR-DME"},
{"type":"NDB","hdg_t":155.3,"dist_nm":91,"freq":330,"lat":41.92750200,"lon":2.77111100,"rng_nm":15,"alt_fmsl":0,"id":"G","desc":"GERONA NDB"},
{"type":"VOR","hdg_t":79.1,"dist_nm":91,"freq":114.45,"lat":43.57836100,"lon":3.97472200,"rng_nm":80,"alt_fmsl":7,"id":"FJR","desc":"MONPELLIER MEDITERRANEE VOR-DME"},
{"type":"NDB","hdg_t":270.8,"dist_nm":91.5,"freq":397,"lat":43.31388888,"lon":-0.16611111,"rng_nm":25,"alt_fmsl":1132,"id":"PO","desc":"Pau Pyrenees NDB"},
{"type":"NDB","hdg_t":80.1,"dist_nm":92.5,"freq":339,"lat":43.55677800,"lon":4.01405600,"rng_nm":100,"alt_fmsl":16,"id":"FG","desc":"Mediterranee NDB"},
{"type":"NDB","hdg_t":34.1,"dist_nm":94.3,"freq":376,"lat":44.60611000,"lon":3.16111100,"rng_nm":50,"alt_fmsl":0,"id":"MEN","desc":"MENDE NASBINALS NDB"},
{"type":"VOR","hdg_t":34.1,"dist_nm":94.5,"freq":115.3,"lat":44.60833300,"lon":3.16241700,"rng_nm":100,"alt_fmsl":4514,"id":"MEN","desc":"MENDE-Nasbinals VOR-DME"},
{"type":"NDB","hdg_t":271,"dist_nm":97.6,"freq":364,"lat":43.32027777,"lon":-0.30500000,"rng_nm":25,"alt_fmsl":781,"id":"PU","desc":"Pau Pyrenees NDB"},
{"type":"NDB","hdg_t":144.7,"dist_nm":99.2,"freq":319,"lat":41.95151400,"lon":3.20307500,"rng_nm":50,"alt_fmsl":0,"id":"BAG","desc":"BAGUR NDB"},
{"type":"VOR","hdg_t":144.7,"dist_nm":99.6,"freq":112.2,"lat":41.94768600,"lon":3.20885800,"rng_nm":130,"alt_fmsl":1082,"id":"BGR","desc":"BAGUR VOR-DME"}
]
}
