{"success":true,"source":"xp2csv.pl","last_updated":"2013/11/08 14:53:21 UTC"
,"icao":"LFNJ","name":"Aspres Sur Buech","lat":44.5173126666667,"lon":5.737688,"rwys":3,"ils":0,"index":3039650,"path":"e000n40/e005n44"
,"runways":[
{"len_m":651,"wid_m":99.97,"hdg":282,"surf":"Turf/grass","rwy1":"28","lat1":44.51797824,"lon1":5.74327077,"rwy2":"10","lat2":44.51929376,"lon2":5.73527923},
{"len_m":580,"wid_m":79.86,"hdg":284,"surf":"Turf/grass","rwy1":"10L","lat1":44.51676600,"lon1":5.74136400,"rwy2":"28R","lat2":44.51803800,"lon2":5.73428800},
{"len_m":883,"wid_m":79.86,"hdg":3,"surf":"Turf/grass","rwy1":"36","lat1":44.51193100,"lon1":5.73560400,"rwy2":"18","lat2":44.51986900,"lon2":5.73632200}
]
,"navaids":[
{"type":"NDB","hdg_t":131.6,"dist_nm":12.2,"freq":297,"lat":44.38138888,"lon":5.95027777,"rng_nm":25,"alt_fmsl":1870,"id":"GA","desc":"Gap Tallard NDB"},
{"type":"NDB","hdg_t":199.9,"dist_nm":29.7,"freq":348,"lat":44.05069400,"lon":5.50347200,"rng_nm":15,"alt_fmsl":0,"id":"SCL","desc":"SAINT CHRISTOL NDB"},
{"type":"VOR","hdg_t":153.4,"dist_nm":35.2,"freq":113.85,"lat":43.99138900,"lon":6.10083300,"rng_nm":150,"alt_fmsl":3027,"id":"DGN","desc":"DIGNE VOR"},
{"type":"NDB","hdg_t":301,"dist_nm":38.9,"freq":320,"lat":44.84900000,"lon":4.95550000,"rng_nm":30,"alt_fmsl":0,"id":"VE","desc":"CHABEUIL NDB"},
{"type":"VOR","hdg_t":273.4,"dist_nm":41.1,"freq":113.65,"lat":44.55494400,"lon":4.77986100,"rng_nm":100,"alt_fmsl":656,"id":"MTL","desc":"MONTELIMAR ANCONE VOR-DME"},
{"type":"NDB","hdg_t":275.1,"dist_nm":43.2,"freq":362,"lat":44.57749900,"lon":4.73416700,"rng_nm":50,"alt_fmsl":0,"id":"MTL","desc":"MONTELIMAR NDB"},
{"type":"SDME","hdg_t":239.1,"dist_nm":43.8,"freq":109.4,"lat":44.13930600,"lon":4.86605600,"rng_nm":50,"alt_fmsl":197,"id":"ORG","desc":"ORANGE TACAN"},
{"type":"NDB","hdg_t":240,"dist_nm":43.9,"freq":328,"lat":44.14836100,"lon":4.85719400,"rng_nm":80,"alt_fmsl":197,"id":"ORG","desc":"ORANGE NDB"},
{"type":"NDB","hdg_t":224.7,"dist_nm":51.2,"freq":369,"lat":43.90827800,"lon":4.90538900,"rng_nm":20,"alt_fmsl":160,"id":"CM","desc":"AVIGNON NDB"},
{"type":"NDB","hdg_t":344.1,"dist_nm":52.8,"freq":397,"lat":45.36389000,"lon":5.39750000,"rng_nm":25,"alt_fmsl":1384,"id":"EG","desc":"Grenoble Saint Geoirs NDB"},
{"type":"VOR","hdg_t":234.1,"dist_nm":52.9,"freq":112.3,"lat":43.99536100,"lon":4.74638900,"rng_nm":60,"alt_fmsl":159,"id":"AVN","desc":"AVIGNON Pujaut VOR"},
{"type":"NDB","hdg_t":334,"dist_nm":56.4,"freq":291,"lat":45.36230000,"lon":5.15297200,"rng_nm":25,"alt_fmsl":1129,"id":"WS","desc":"Grenoble saint Geoirs NDB"},
{"type":"NDB","hdg_t":266.1,"dist_nm":59.2,"freq":427,"lat":44.44222222,"lon":4.36194444,"rng_nm":25,"alt_fmsl":676,"id":"AUB","desc":"Aubenas Ardeche Meridionale NDB"},
{"type":"VOR","hdg_t":347.8,"dist_nm":59.6,"freq":115.55,"lat":45.48897200,"lon":5.43905600,"rng_nm":80,"alt_fmsl":2165,"id":"LTP","desc":"LA TOUR DU PIN-Lyon Est VOR-DME"},
{"type":"SDME","hdg_t":207,"dist_nm":60.8,"freq":115.15,"lat":43.61183300,"lon":5.10280600,"rng_nm":50,"alt_fmsl":195,"id":"SAL","desc":"SALON TACAN"},
{"type":"NDB","hdg_t":207,"dist_nm":60.9,"freq":334,"lat":43.61080600,"lon":5.10070400,"rng_nm":75,"alt_fmsl":197,"id":"SAL","desc":"SALON NDB"},
{"type":"NDB","hdg_t":195.2,"dist_nm":62.7,"freq":413,"lat":43.50777800,"lon":5.36047200,"rng_nm":25,"alt_fmsl":367,"id":"ALM","desc":"AIX LES MILLES NDB"},
{"type":"NDB","hdg_t":5.4,"dist_nm":64.8,"freq":346,"lat":45.59250000,"lon":5.88361100,"rng_nm":25,"alt_fmsl":840,"id":"CH","desc":"Chambery Aix les Bains NDB"},
{"type":"NDB","hdg_t":203,"dist_nm":66.9,"freq":383,"lat":43.48980600,"lon":5.13725000,"rng_nm":25,"alt_fmsl":0,"id":"MAR","desc":"MARSEILLE/PROVENCE NDB"},
{"type":"NDB","hdg_t":199.3,"dist_nm":68.5,"freq":406,"lat":43.43831800,"lon":5.21747700,"rng_nm":50,"alt_fmsl":54,"id":"MJ","desc":"MARSEILLE NDB"},
{"type":"NDB","hdg_t":210.7,"dist_nm":68.9,"freq":390,"lat":43.52625000,"lon":4.92994400,"rng_nm":60,"alt_fmsl":82,"id":"ITR","desc":"ISTRES NDB"},
{"type":"SDME","hdg_t":210.8,"dist_nm":69,"freq":115.7,"lat":43.52608300,"lon":4.92691700,"rng_nm":50,"alt_fmsl":82,"id":"ITR","desc":"ISTRES TACAN"},
{"type":"NDB","hdg_t":235.8,"dist_nm":69.8,"freq":354,"lat":43.85719400,"lon":4.40627800,"rng_nm":40,"alt_fmsl":0,"id":"NG","desc":"NIMES/GARONS NDB"},
{"type":"VOR","hdg_t":209.7,"dist_nm":70.1,"freq":112.7,"lat":43.50019400,"lon":4.94000000,"rng_nm":100,"alt_fmsl":85,"id":"ITS","desc":"ISTRES LE TUBE VOR-DME"},
{"type":"NDB","hdg_t":196.3,"dist_nm":70.5,"freq":343,"lat":43.38861100,"lon":5.28347200,"rng_nm":25,"alt_fmsl":0,"id":"MS","desc":"MARSEILLE/PROVENCE NDB"},
{"type":"VOR","hdg_t":194.7,"dist_nm":70.6,"freq":108.8,"lat":43.37733300,"lon":5.32644400,"rng_nm":100,"alt_fmsl":771,"id":"MRM","desc":"MARSEILLE PROVENCE VOR-DME"},
{"type":"VOR","hdg_t":161.5,"dist_nm":71.6,"freq":113,"lat":43.38277800,"lon":6.25591700,"rng_nm":100,"alt_fmsl":266,"id":"LUC","desc":"LE LUC LE CANNET VOR-DME"},
{"type":"VOR","hdg_t":330,"dist_nm":72.1,"freq":108.2,"lat":45.55644400,"lon":4.88341700,"rng_nm":30,"alt_fmsl":0,"id":"VNE","desc":"VIENNE VOR"},
{"type":"NDB","hdg_t":334.5,"dist_nm":73.1,"freq":388,"lat":45.61583328,"lon":4.99278355,"rng_nm":25,"alt_fmsl":1044,"id":"BR","desc":"Lyon Bron NDB"},
{"type":"SDME","hdg_t":231.3,"dist_nm":73.3,"freq":111.6,"lat":43.74583300,"lon":4.41955600,"rng_nm":50,"alt_fmsl":309,"id":"NIM","desc":"NIMES TACAN"},
{"type":"VOR","hdg_t":202.8,"dist_nm":73.4,"freq":117.3,"lat":43.38630600,"lon":5.08683300,"rng_nm":200,"alt_fmsl":650,"id":"MTG","desc":"MARTIGUES VOR-DME"},
{"type":"NDB","hdg_t":249,"dist_nm":73.8,"freq":402,"lat":44.06643900,"lon":4.14238300,"rng_nm":22,"alt_fmsl":712,"id":"DA","desc":"ALES NDB"},
{"type":"NDB","hdg_t":185,"dist_nm":75.4,"freq":366,"lat":43.26527778,"lon":5.58638000,"rng_nm":25,"alt_fmsl":590,"id":"ADC","desc":"Le Castellet NDB"},
{"type":"VOR","hdg_t":139,"dist_nm":75.5,"freq":111.4,"lat":43.56036100,"lon":6.87094400,"rng_nm":60,"alt_fmsl":0,"id":"CNM","desc":"CANNES-Tanneron VOR"},
{"type":"NDB","hdg_t":153,"dist_nm":75.9,"freq":378,"lat":43.38686100,"lon":6.52516700,"rng_nm":50,"alt_fmsl":0,"id":"LU","desc":"LE LUC NDB"},
{"type":"NDB","hdg_t":182.3,"dist_nm":77.3,"freq":395,"lat":43.22983300,"lon":5.66541700,"rng_nm":50,"alt_fmsl":0,"id":"OB","desc":"MARSEILLE/PROVENCE NDB"},
{"type":"NDB","hdg_t":150.7,"dist_nm":77.6,"freq":428,"lat":43.38459400,"lon":6.60635600,"rng_nm":40,"alt_fmsl":1500,"id":"MUS","desc":"NICE COTE D AZUR NDB"},
{"type":"VOR","hdg_t":339.7,"dist_nm":78.6,"freq":114.75,"lat":45.74552800,"lon":5.09058300,"rng_nm":140,"alt_fmsl":820,"id":"LSE","desc":"LYON SAINT EXUPERY VOR-DME"},
{"type":"VOR","hdg_t":123.8,"dist_nm":79.3,"freq":112.4,"lat":43.77063900,"lon":7.25438900,"rng_nm":200,"alt_fmsl":2822,"id":"NIZ","desc":"NICE COTE D AZUR VOR-DME"},
{"type":"VOR","hdg_t":130.1,"dist_nm":80.2,"freq":109.2,"lat":43.64525000,"lon":7.14591700,"rng_nm":40,"alt_fmsl":13,"id":"CGS","desc":"CAGNES SUR MER VOR-DME"},
{"type":"NDB","hdg_t":88.1,"dist_nm":80.6,"freq":371,"lat":44.54421400,"lon":7.61540300,"rng_nm":25,"alt_fmsl":1252,"id":"LEV","desc":"LEVALDIGI NDB"},
{"type":"NDB","hdg_t":8.3,"dist_nm":81.5,"freq":384,"lat":45.86166666,"lon":6.02055555,"rng_nm":25,"alt_fmsl":2205,"id":"AT","desc":"Annecy Meythet NDB"},
{"type":"VOR","hdg_t":0.5,"dist_nm":81.8,"freq":115.4,"lat":45.88188900,"lon":5.75730600,"rng_nm":40,"alt_fmsl":4783,"id":"CBY","desc":"CHAMBERY VOR-DME"},
{"type":"NDB","hdg_t":132.2,"dist_nm":81.9,"freq":338,"lat":43.59022200,"lon":7.12908300,"rng_nm":40,"alt_fmsl":0,"id":"NC","desc":"NICE/COTE D'AZUR NDB"},
{"type":"NDB","hdg_t":136,"dist_nm":82.2,"freq":385,"lat":43.52277778,"lon":7.04527778,"rng_nm":25,"alt_fmsl":98,"id":"CSC","desc":"Cannes Mandelieu NDB"},
{"type":"VOR","hdg_t":128.1,"dist_nm":82.3,"freq":109.65,"lat":43.65957100,"lon":7.22445000,"rng_nm":200,"alt_fmsl":12,"id":"AZR","desc":"NICE COTE D AZUR VOR-DME"},
{"type":"NDB","hdg_t":124.1,"dist_nm":83.5,"freq":399,"lat":43.72538900,"lon":7.32663900,"rng_nm":50,"alt_fmsl":0,"id":"LEZ","desc":"NICE NDB"},
{"type":"NDB","hdg_t":315,"dist_nm":85.8,"freq":299,"lat":45.52027800,"lon":4.29889000,"rng_nm":25,"alt_fmsl":1371,"id":"BO","desc":"Saint Etienne Boutheon NDB"},
{"type":"VOR","hdg_t":153.9,"dist_nm":86.4,"freq":116.5,"lat":43.21947200,"lon":6.60180600,"rng_nm":200,"alt_fmsl":1089,"id":"STP","desc":"SAINT TROPEZ VOR-DME"},
{"type":"SDME","hdg_t":168,"dist_nm":86.8,"freq":109,"lat":43.10030600,"lon":6.14763900,"rng_nm":100,"alt_fmsl":7,"id":"HYE","desc":"HYERES TACAN"},
{"type":"NDB","hdg_t":290.7,"dist_nm":87.4,"freq":372,"lat":45.01777777,"lon":3.81500000,"rng_nm":25,"alt_fmsl":2884,"id":"PY","desc":"Le Puy Loudes NDB"},
{"type":"NDB","hdg_t":65.2,"dist_nm":89.2,"freq":357,"lat":45.12352800,"lon":7.64533300,"rng_nm":25,"alt_fmsl":836,"id":"CAS","desc":"CASELLE NDB"},
{"type":"SDME","hdg_t":349.1,"dist_nm":89.9,"freq":116.3,"lat":45.98861100,"lon":5.33125000,"rng_nm":50,"alt_fmsl":801,"id":"AMU","desc":"AMBERIEU TACAN"},
{"type":"NDB","hdg_t":168.4,"dist_nm":90.8,"freq":322,"lat":43.03269400,"lon":6.15280600,"rng_nm":70,"alt_fmsl":0,"id":"TLN","desc":"HYERES NDB"},
{"type":"NDB","hdg_t":317.9,"dist_nm":91.3,"freq":379,"lat":45.63777777,"lon":4.28388888,"rng_nm":25,"alt_fmsl":1230,"id":"EB","desc":"Saint Etienne Boutheon NDB"},
{"type":"VOR","hdg_t":62,"dist_nm":91.8,"freq":116.75,"lat":45.21969500,"lon":7.64957300,"rng_nm":45,"alt_fmsl":1007,"id":"CSL","desc":"CASELLE VOR-DME"},
{"type":"NDB","hdg_t":74.1,"dist_nm":94,"freq":392,"lat":44.92472200,"lon":7.86055600,"rng_nm":50,"alt_fmsl":817,"id":"TOP","desc":"TORINO NDB"},
{"type":"VOR","hdg_t":74.1,"dist_nm":94,"freq":114.5,"lat":44.92525400,"lon":7.86165600,"rng_nm":100,"alt_fmsl":853,"id":"TOP","desc":"TORINO VOR-DME"},
{"type":"NDB","hdg_t":232.9,"dist_nm":94.2,"freq":339,"lat":43.55677800,"lon":4.01405600,"rng_nm":100,"alt_fmsl":16,"id":"FG","desc":"Mediterranee NDB"},
{"type":"VOR","hdg_t":234.1,"dist_nm":94.8,"freq":114.45,"lat":43.57836100,"lon":3.97472200,"rng_nm":80,"alt_fmsl":7,"id":"FJR","desc":"MONPELLIER MEDITERRANEE VOR-DME"},
{"type":"NDB","hdg_t":337.8,"dist_nm":96.5,"freq":337,"lat":46.00388700,"lon":4.86805500,"rng_nm":50,"alt_fmsl":0,"id":"AD","desc":"AMBERIEUX NDB"},
{"type":"NDB","hdg_t":331.3,"dist_nm":96.5,"freq":344,"lat":45.92361100,"lon":4.63361111,"rng_nm":25,"alt_fmsl":1089,"id":"TR","desc":"Villefranche Tarare NDB"},
{"type":"NDB","hdg_t":272.5,"dist_nm":97.3,"freq":393,"lat":44.56694444,"lon":3.46916666,"rng_nm":25,"alt_fmsl":4062,"id":"BX","desc":"Mende Brenoux NDB"},
{"type":"VOR","hdg_t":6.3,"dist_nm":99.4,"freq":116.6,"lat":46.16369400,"lon":5.99991700,"rng_nm":80,"alt_fmsl":1415,"id":"PAS","desc":"PASSEIRY VOR-DME"}
]
}
