{"success":true,"source":"xp2csv.pl","last_updated":"2013/11/08 14:53:21 UTC"
,"icao":"LFOG","name":"Flers Saint Paul","lat":48.750881,"lon":-0.592658,"rwys":1,"ils":0,"index":2941617,"path":"w010n40/w001n48"
,"runways":[
{"len_m":721,"wid_m":24.99,"hdg":54,"surf":"Asphalt","rwy1":"06","lat1":48.74899064,"lon1":-0.59664795,"rwy2":"24","lat2":48.75277136,"lon2":-0.58866805}
]
,"navaids":[
{"type":"NDB","hdg_t":26,"dist_nm":24.3,"freq":404,"lat":49.11566700,"lon":-0.32125000,"rng_nm":25,"alt_fmsl":0,"id":"CNE","desc":"CAEN NDB"},
{"type":"VOR","hdg_t":12,"dist_nm":25.9,"freq":114.45,"lat":49.17319444,"lon":-0.45527778,"rng_nm":80,"alt_fmsl":275,"id":"CEN","desc":"CAEN CARPIQUET VOR"},
{"type":"NDB","hdg_t":122.4,"dist_nm":33.4,"freq":380,"lat":48.44972200,"lon":0.11305600,"rng_nm":75,"alt_fmsl":0,"id":"AL","desc":"ALENCON NDB"},
{"type":"VOR","hdg_t":86.5,"dist_nm":44.6,"freq":115,"lat":48.79061100,"lon":0.53027800,"rng_nm":60,"alt_fmsl":971,"id":"LGL","desc":"L AIGLE VOR"},
{"type":"NDB","hdg_t":184.2,"dist_nm":46.6,"freq":401,"lat":47.97611111,"lon":-0.67916666,"rng_nm":25,"alt_fmsl":223,"id":"LA","desc":"Laval Entrammes NDB"},
{"type":"VOR","hdg_t":46.4,"dist_nm":49,"freq":110.2,"lat":49.31075000,"lon":0.31272200,"rng_nm":60,"alt_fmsl":497,"id":"DVL","desc":"DEAUVILLE SAINT GATIEN VOR"},
{"type":"NDB","hdg_t":223.7,"dist_nm":57.6,"freq":349,"lat":48.05277777,"lon":-1.58444444,"rng_nm":25,"alt_fmsl":167,"id":"RS","desc":"Rennes Saint Jacques NDB"},
{"type":"NDB","hdg_t":30.6,"dist_nm":59.2,"freq":346,"lat":49.59722222,"lon":0.18111111,"rng_nm":25,"alt_fmsl":308,"id":"LHO","desc":"Le Havre Octeville NDB"},
{"type":"NDB","hdg_t":148.9,"dist_nm":59.8,"freq":326,"lat":47.89358300,"lon":0.17138900,"rng_nm":50,"alt_fmsl":0,"id":"LM","desc":"LE MANS NDB"},
{"type":"VOR","hdg_t":261,"dist_nm":60,"freq":114.3,"lat":48.58605700,"lon":-2.08232900,"rng_nm":80,"alt_fmsl":213,"id":"DIN","desc":"DINARD PLEURTUIT SAINT MALO VOR-DME"},
{"type":"NDB","hdg_t":255.1,"dist_nm":60.2,"freq":390,"lat":48.48402000,"lon":-2.05049000,"rng_nm":50,"alt_fmsl":217,"id":"DR","desc":"Dinard NDB"},
{"type":"NDB","hdg_t":330.3,"dist_nm":61.4,"freq":373,"lat":49.63777777,"lon":-1.37222222,"rng_nm":25,"alt_fmsl":377,"id":"MP","desc":"Cherbourg Maupertus NDB"},
{"type":"VOR","hdg_t":228.7,"dist_nm":61.5,"freq":109.25,"lat":48.06925000,"lon":-1.74166700,"rng_nm":150,"alt_fmsl":126,"id":"REN","desc":"RENNES SAINT JACQUES VOR-DME"},
{"type":"VOR","hdg_t":296.7,"dist_nm":64,"freq":112.2,"lat":49.22111100,"lon":-2.04611100,"rng_nm":130,"alt_fmsl":276,"id":"JSY","desc":"JERSEY VOR-DME"},
{"type":"VOR","hdg_t":103.9,"dist_nm":64.9,"freq":115.2,"lat":48.48000000,"lon":0.98705600,"rng_nm":180,"alt_fmsl":732,"id":"CHW","desc":"CHARTRES La Loupe VOR-DME"},
{"type":"NDB","hdg_t":293.6,"dist_nm":69.8,"freq":329,"lat":49.20591400,"lon":-2.21992500,"rng_nm":25,"alt_fmsl":288,"id":"JW","desc":"Jersey NDB"},
{"type":"NDB","hdg_t":102.3,"dist_nm":72.5,"freq":361,"lat":48.47944300,"lon":1.18250000,"rng_nm":75,"alt_fmsl":0,"id":"MUT","desc":"MURET NDB"},
{"type":"NDB","hdg_t":165.7,"dist_nm":72.6,"freq":292,"lat":47.57722222,"lon":-0.15138888,"rng_nm":25,"alt_fmsl":305,"id":"AS","desc":"Angers Marce NDB"},
{"type":"NDB","hdg_t":182,"dist_nm":72.9,"freq":392,"lat":47.53667000,"lon":-0.65806000,"rng_nm":50,"alt_fmsl":187,"id":"AS","desc":"Angers NDB"},
{"type":"VOR","hdg_t":188.2,"dist_nm":73.6,"freq":113,"lat":47.53686100,"lon":-0.85183300,"rng_nm":120,"alt_fmsl":304,"id":"ANG","desc":"ANGERS VOR"},
{"type":"VOR","hdg_t":76.1,"dist_nm":73.7,"freq":112.4,"lat":49.03169400,"lon":1.22086100,"rng_nm":100,"alt_fmsl":499,"id":"EVX","desc":"EVREUX FAUVILLE VORTAC"},
{"type":"NDB","hdg_t":312.9,"dist_nm":85.4,"freq":383,"lat":49.70887800,"lon":-2.19970000,"rng_nm":30,"alt_fmsl":331,"id":"ALD","desc":"ALDERNEY NDB"},
{"type":"VOR","hdg_t":59.1,"dist_nm":85.4,"freq":116.8,"lat":49.46563900,"lon":1.28063900,"rng_nm":40,"alt_fmsl":560,"id":"ROU","desc":"ROUEN VALLEE DE SEINE VOR"},
{"type":"NDB","hdg_t":263.6,"dist_nm":87.6,"freq":353,"lat":48.56955000,"lon":-2.78033000,"rng_nm":50,"alt_fmsl":453,"id":"SB","desc":"Saint Brieuc NDB"},
{"type":"NDB","hdg_t":117.1,"dist_nm":88.4,"freq":359,"lat":48.06241700,"lon":1.36363900,"rng_nm":50,"alt_fmsl":433,"id":"CDN","desc":"CHATEAUDUN NDB"},
{"type":"NDB","hdg_t":298.2,"dist_nm":89.2,"freq":361,"lat":49.43649400,"lon":-2.60177800,"rng_nm":30,"alt_fmsl":0,"id":"GUY","desc":"GUERNSEY NDB"},
{"type":"VOR","hdg_t":116.9,"dist_nm":89.3,"freq":115.95,"lat":48.05916667,"lon":1.38708333,"rng_nm":40,"alt_fmsl":450,"id":"CAD","desc":"CHATEAUDUN VOR-DME"},
{"type":"VOR","hdg_t":298.2,"dist_nm":89.3,"freq":109.4,"lat":49.43709700,"lon":-2.60205800,"rng_nm":130,"alt_fmsl":355,"id":"GUR","desc":"GUERNSEY VOR-DME"},
{"type":"VOR","hdg_t":93.9,"dist_nm":89.7,"freq":115.65,"lat":48.62569400,"lon":1.65655600,"rng_nm":60,"alt_fmsl":604,"id":"EPR","desc":"EPERNON VOR-DME"},
{"type":"NDB","hdg_t":141.6,"dist_nm":90,"freq":331,"lat":47.56588900,"lon":0.78261100,"rng_nm":50,"alt_fmsl":551,"id":"TUR","desc":"TOURS NDB"},
{"type":"NDB","hdg_t":297.7,"dist_nm":90.5,"freq":361,"lat":49.43450800,"lon":-2.63951400,"rng_nm":30,"alt_fmsl":0,"id":"GRB","desc":"GUERNSEY NDB"},
{"type":"NDB","hdg_t":167.6,"dist_nm":91.5,"freq":372,"lat":47.25950000,"lon":-0.11436100,"rng_nm":50,"alt_fmsl":0,"id":"SR","desc":"SAUMUR NDB"},
{"type":"NDB","hdg_t":43.4,"dist_nm":94.5,"freq":351,"lat":49.88222222,"lon":1.08361111,"rng_nm":25,"alt_fmsl":335,"id":"DSA","desc":"Dieppe Saint Aubin NDB"},
{"type":"NDB","hdg_t":89.8,"dist_nm":95.8,"freq":315,"lat":48.73058300,"lon":1.82050000,"rng_nm":75,"alt_fmsl":583,"id":"HOL","desc":"VILLACOUBLAY NDB"},
{"type":"SDME","hdg_t":145.7,"dist_nm":95.9,"freq":113.8,"lat":47.42218300,"lon":0.73089200,"rng_nm":150,"alt_fmsl":329,"id":"TUR","desc":"TOURS TACAN"},
{"type":"NDB","hdg_t":131.2,"dist_nm":96.7,"freq":397,"lat":47.67394400,"lon":1.20247200,"rng_nm":25,"alt_fmsl":398,"id":"BLB","desc":"Blois - Le Breuil NDB"},
{"type":"NDB","hdg_t":185.9,"dist_nm":97.5,"freq":357,"lat":47.13527777,"lon":-0.83916666,"rng_nm":25,"alt_fmsl":404,"id":"LP","desc":"Cholet le Pontreau NDB"},
{"type":"NDB","hdg_t":245.3,"dist_nm":97.5,"freq":377,"lat":48.05111111,"lon":-2.79444444,"rng_nm":25,"alt_fmsl":394,"id":"PNT","desc":"Pontivy NDB"},
{"type":"VOR","hdg_t":43.7,"dist_nm":98.8,"freq":115.8,"lat":49.92538900,"lon":1.17063900,"rng_nm":40,"alt_fmsl":362,"id":"DPE","desc":"DIEPPE VOR"}
]
}
