{"success":true,"source":"xp2csv.pl","last_updated":"2013/11/08 14:53:21 UTC"
,"icao":"LFOT","name":"Tours Val De Loire Ab","lat":47.43297375,"lon":0.728402,"rwys":2,"ils":1,"index":2957914,"path":"e000n40/e000n47"
,"runways":[
{"len_m":2404,"wid_m":45.11,"hdg":15,"surf":"Concrete","rwy1":"02","lat1":47.42178600,"lon1":0.72340800,"rwy2":"20","lat2":47.44265300,"lon2":0.73180000},
{"len_m":1500,"wid_m":60.05,"hdg":15,"surf":"Turf/grass","rwy1":"02R","lat1":47.42721756,"lon1":0.72657786,"rwy2":"20L","lat2":47.44023844,"lon2":0.73182214}
]
,"radios":[
{"type":"ATIS","freq":118.3,"desc":"TOURS FSS"},
{"type":"GND","freq":122.1,"desc":"TOURS GND"},
{"type":"TWR","freq":118.3,"desc":"TOURS INFO"},
{"type":"TWR","freq":118.3,"desc":"TOURS TWR"},
{"type":"TWR","freq":122.1,"desc":"TOURS TWR"},
{"type":"APP","freq":119.95,"desc":"TOURS GCA APP"},
{"type":"APP","freq":123.3,"desc":"TOURS GCA APP"},
{"type":"APP","freq":121,"desc":"TOURS APP"}
]
,"ils":[
{"type":"ILS","freq":110.55,"lat":47.41798300,"lon":0.72188100,"rng_nm":18,"alt_fmsl":341,"hdg":195.21,"id":"TS","rwy":"20","desc":"ILS-cat-II"},
{"type":"GS","freq":110.55,"lat":47.44037800,"lon":0.72923600,"rng_nm":10,"alt_fmsl":341,"id":"TS","rwy":"20","desc":"GS","gs":3},
{"type":"DME","freq":110.55,"lat":47.44037800,"lon":0.72923600,"rng_nm":18,"alt_fmsl":408,"id":"TS","rwy":"20","desc":"DME-ILS"}
]
,"navaids":[
{"type":"SDME","hdg_t":171,"dist_nm":0.6,"freq":113.8,"lat":47.42218300,"lon":0.73089200,"rng_nm":150,"alt_fmsl":329,"id":"TUR","desc":"TOURS TACAN"},
{"type":"NDB","hdg_t":15.4,"dist_nm":8.2,"freq":331,"lat":47.56588900,"lon":0.78261100,"rng_nm":50,"alt_fmsl":551,"id":"TUR","desc":"TOURS NDB"},
{"type":"NDB","hdg_t":93.8,"dist_nm":12.7,"freq":341,"lat":47.41816700,"lon":1.04100000,"rng_nm":50,"alt_fmsl":354,"id":"AMB","desc":"AMBOISE NDB"},
{"type":"VOR","hdg_t":90.8,"dist_nm":13.6,"freq":113.7,"lat":47.42891700,"lon":1.06444400,"rng_nm":120,"alt_fmsl":387,"id":"AMB","desc":"AMBOISE VOR-DME"},
{"type":"NDB","hdg_t":52.9,"dist_nm":24,"freq":397,"lat":47.67394400,"lon":1.20247200,"rng_nm":25,"alt_fmsl":398,"id":"BLB","desc":"Blois - Le Breuil NDB"},
{"type":"NDB","hdg_t":320.9,"dist_nm":35.7,"freq":326,"lat":47.89358300,"lon":0.17138900,"rng_nm":50,"alt_fmsl":0,"id":"LM","desc":"LE MANS NDB"},
{"type":"NDB","hdg_t":253.4,"dist_nm":35.9,"freq":372,"lat":47.25950000,"lon":-0.11436100,"rng_nm":50,"alt_fmsl":0,"id":"SR","desc":"SAUMUR NDB"},
{"type":"NDB","hdg_t":283.9,"dist_nm":36.8,"freq":292,"lat":47.57722222,"lon":-0.15138888,"rng_nm":25,"alt_fmsl":305,"id":"AS","desc":"Angers Marce NDB"},
{"type":"NDB","hdg_t":99.4,"dist_nm":39.7,"freq":301,"lat":47.31983300,"lon":1.68802800,"rng_nm":15,"alt_fmsl":0,"id":"RTN","desc":"ROMORANTIN NDB"},
{"type":"NDB","hdg_t":34,"dist_nm":45.7,"freq":359,"lat":48.06241700,"lon":1.36363900,"rng_nm":50,"alt_fmsl":433,"id":"CDN","desc":"CHATEAUDUN NDB"},
{"type":"NDB","hdg_t":196.8,"dist_nm":45.7,"freq":363,"lat":46.70394400,"lon":0.40697200,"rng_nm":35,"alt_fmsl":316,"id":"PI","desc":"POITIERS NDB"},
{"type":"VOR","hdg_t":35.1,"dist_nm":46,"freq":115.95,"lat":48.05916667,"lon":1.38708333,"rng_nm":40,"alt_fmsl":450,"id":"CAD","desc":"CHATEAUDUN VOR-DME"},
{"type":"NDB","hdg_t":123.7,"dist_nm":53,"freq":428,"lat":46.93661100,"lon":1.80113900,"rng_nm":50,"alt_fmsl":539,"id":"CTX","desc":"CHATEAUROUX NDB"},
{"type":"SDME","hdg_t":50.9,"dist_nm":53.4,"freq":116.4,"lat":47.98944400,"lon":1.75958300,"rng_nm":50,"alt_fmsl":402,"id":"OAN","desc":"ORLEANS TACAN"},
{"type":"VOR","hdg_t":199.2,"dist_nm":54.1,"freq":113.3,"lat":46.58100000,"lon":0.29819400,"rng_nm":60,"alt_fmsl":441,"id":"POI","desc":"POITIERS BIARD VOR"},
{"type":"NDB","hdg_t":50.6,"dist_nm":54.2,"freq":385,"lat":48.00125000,"lon":1.76872200,"rng_nm":100,"alt_fmsl":0,"id":"OAN","desc":"ORLEANS NDB"},
{"type":"NDB","hdg_t":276.8,"dist_nm":56.7,"freq":392,"lat":47.53667000,"lon":-0.65806000,"rng_nm":50,"alt_fmsl":187,"id":"AS","desc":"Angers NDB"},
{"type":"VOR","hdg_t":9.3,"dist_nm":63.7,"freq":115.2,"lat":48.48000000,"lon":0.98705600,"rng_nm":180,"alt_fmsl":732,"id":"CHW","desc":"CHARTRES La Loupe VOR-DME"},
{"type":"VOR","hdg_t":276.1,"dist_nm":64.6,"freq":113,"lat":47.53686100,"lon":-0.85183300,"rng_nm":120,"alt_fmsl":304,"id":"ANG","desc":"ANGERS VOR"},
{"type":"NDB","hdg_t":16,"dist_nm":65.4,"freq":361,"lat":48.47944300,"lon":1.18250000,"rng_nm":75,"alt_fmsl":0,"id":"MUT","desc":"MURET NDB"},
{"type":"NDB","hdg_t":300.2,"dist_nm":65.7,"freq":401,"lat":47.97611111,"lon":-0.67916666,"rng_nm":25,"alt_fmsl":223,"id":"LA","desc":"Laval Entrammes NDB"},
{"type":"NDB","hdg_t":338,"dist_nm":65.8,"freq":380,"lat":48.44972200,"lon":0.11305600,"rng_nm":75,"alt_fmsl":0,"id":"AL","desc":"ALENCON NDB"},
{"type":"NDB","hdg_t":254.9,"dist_nm":66.4,"freq":357,"lat":47.13527777,"lon":-0.83916666,"rng_nm":25,"alt_fmsl":404,"id":"LP","desc":"Cholet le Pontreau NDB"},
{"type":"NDB","hdg_t":110.8,"dist_nm":68.2,"freq":375,"lat":47.01750000,"lon":2.28166666,"rng_nm":25,"alt_fmsl":509,"id":"BRG","desc":"Bourges NDB"},
{"type":"NDB","hdg_t":63.1,"dist_nm":68.4,"freq":322,"lat":47.93738900,"lon":2.24263900,"rng_nm":25,"alt_fmsl":396,"id":"ORS","desc":"Orleans - Saint Denis de l hotel NDB"},
{"type":"VOR","hdg_t":126.8,"dist_nm":73.3,"freq":112.1,"lat":46.69141700,"lon":2.14958300,"rng_nm":100,"alt_fmsl":901,"id":"LCA","desc":"LA CHATRE VOR"},
{"type":"VOR","hdg_t":54.5,"dist_nm":75.7,"freq":116.5,"lat":48.15555600,"lon":2.26477800,"rng_nm":100,"alt_fmsl":424,"id":"PTV","desc":"PITHIVIERS VOR"},
{"type":"NDB","hdg_t":213.2,"dist_nm":78,"freq":329,"lat":46.34027000,"lon":-0.30027777,"rng_nm":25,"alt_fmsl":344,"id":"NS","desc":"Niort Souche NDB"},
{"type":"VOR","hdg_t":27.2,"dist_nm":80.7,"freq":115.65,"lat":48.62569400,"lon":1.65655600,"rng_nm":60,"alt_fmsl":604,"id":"EPR","desc":"EPERNON VOR-DME"},
{"type":"SDME","hdg_t":105.4,"dist_nm":80.9,"freq":110.6,"lat":47.05808300,"lon":2.62986100,"rng_nm":150,"alt_fmsl":554,"id":"AVD","desc":"AVORD TACAN"},
{"type":"VOR","hdg_t":354.4,"dist_nm":81.8,"freq":115,"lat":48.79061100,"lon":0.53027800,"rng_nm":60,"alt_fmsl":971,"id":"LGL","desc":"L AIGLE VOR"},
{"type":"NDB","hdg_t":81.9,"dist_nm":84.2,"freq":405,"lat":47.61083333,"lon":2.78277777,"rng_nm":25,"alt_fmsl":528,"id":"BIC","desc":"Briare Chatillon NDB"},
{"type":"NDB","hdg_t":101.7,"dist_nm":86.6,"freq":288,"lat":47.12066700,"lon":2.79961100,"rng_nm":50,"alt_fmsl":679,"id":"AVD","desc":"AVORD NDB"},
{"type":"NDB","hdg_t":163,"dist_nm":87.9,"freq":424,"lat":46.03000000,"lon":1.34000000,"rng_nm":25,"alt_fmsl":1575,"id":"LOE","desc":"Limoges Bellegarde NDB"},
{"type":"NDB","hdg_t":163.2,"dist_nm":88.3,"freq":339,"lat":46.02222100,"lon":1.33694400,"rng_nm":75,"alt_fmsl":0,"id":"NOL","desc":"LIMOGES NDB"},
{"type":"VOR","hdg_t":34.3,"dist_nm":89.2,"freq":114.7,"lat":48.65394500,"lon":1.99422200,"rng_nm":110,"alt_fmsl":604,"id":"RBT","desc":"RAMBOUILLET-Les Bordes VOR-DME"},
{"type":"NDB","hdg_t":29,"dist_nm":89.4,"freq":315,"lat":48.73058300,"lon":1.82050000,"rng_nm":75,"alt_fmsl":583,"id":"HOL","desc":"VILLACOUBLAY NDB"},
{"type":"VOR","hdg_t":99.7,"dist_nm":91.4,"freq":113.4,"lat":47.15300000,"lon":2.92936100,"rng_nm":80,"alt_fmsl":631,"id":"NEV","desc":"NEVERS VOR"},
{"type":"NDB","hdg_t":242.3,"dist_nm":93.9,"freq":334,"lat":46.68911100,"lon":-1.28630600,"rng_nm":25,"alt_fmsl":302,"id":"YN","desc":"LA ROCHE SUR YON NDB"},
{"type":"NDB","hdg_t":37.6,"dist_nm":94.6,"freq":402,"lat":48.67244400,"lon":2.18183300,"rng_nm":112,"alt_fmsl":291,"id":"ORW","desc":"ORLY (PARIS) NDB"},
{"type":"SDME","hdg_t":41.9,"dist_nm":94.7,"freq":110.4,"lat":48.59463900,"lon":2.31980500,"rng_nm":37,"alt_fmsl":268,"id":"BTY","desc":"BRETIGNY DME"},
{"type":"NDB","hdg_t":135,"dist_nm":94.8,"freq":398,"lat":46.30277777,"lon":2.33722222,"rng_nm":25,"alt_fmsl":1450,"id":"LPD","desc":"Montlucon Gueret NDB"},
{"type":"NDB","hdg_t":109.3,"dist_nm":95.9,"freq":306,"lat":46.88167000,"lon":2.92888955,"rng_nm":25,"alt_fmsl":679,"id":"AV","desc":"Avord NDB"},
{"type":"SDME","hdg_t":34.2,"dist_nm":96.3,"freq":110.15,"lat":48.75039100,"lon":2.09515800,"rng_nm":27,"alt_fmsl":537,"id":"TNO","desc":"LFPN 25R DME"},
{"type":"NDB","hdg_t":130.6,"dist_nm":96.5,"freq":335,"lat":46.37261100,"lon":2.49266700,"rng_nm":50,"alt_fmsl":1049,"id":"MC","desc":"MONTLUCON NDB"},
{"type":"VOR","hdg_t":34.3,"dist_nm":96.6,"freq":108.25,"lat":48.75372200,"lon":2.10236100,"rng_nm":100,"alt_fmsl":547,"id":"TSU","desc":"TOUSSUS LE NOBLE VOR"},
{"type":"VOR","hdg_t":261.1,"dist_nm":96.9,"freq":115.5,"lat":47.16085600,"lon":-1.61295600,"rng_nm":150,"alt_fmsl":92,"id":"NTS","desc":"NANTES ATLANTIQUE VOR-DME"},
{"type":"NDB","hdg_t":33.9,"dist_nm":97.4,"freq":286,"lat":48.77158400,"lon":2.09744500,"rng_nm":22,"alt_fmsl":583,"id":"TA","desc":"VILLACOUBLAY NDB"},
{"type":"VOR","hdg_t":172.6,"dist_nm":97.8,"freq":114.5,"lat":45.81591700,"lon":1.02558300,"rng_nm":100,"alt_fmsl":1375,"id":"LMG","desc":"LIMOGES VOR-DME"},
{"type":"VOR","hdg_t":11.4,"dist_nm":97.9,"freq":112.4,"lat":49.03169400,"lon":1.22086100,"rng_nm":100,"alt_fmsl":499,"id":"EVX","desc":"EVREUX FAUVILLE VORTAC"}
]
}
