{"success":true,"source":"xp2csv.pl","last_updated":"2013/11/08 14:53:21 UTC"
,"icao":"LFOX","name":"Etampes Montdesir","lat":48.3817815,"lon":2.07675,"rwys":2,"ils":0,"index":2990744,"path":"e000n40/e002n48"
,"runways":[
{"len_m":1232,"wid_m":49.99,"hdg":56,"surf":"Turf/grass","rwy1":"06L","lat1":48.37885021,"lon1":2.06837196,"rwy2":"24R","lat2":48.38503779,"lon2":2.08218404},
{"len_m":701,"wid_m":22.56,"hdg":56,"surf":"Asphalt","rwy1":"06R","lat1":48.37985813,"lon1":2.07429137,"rwy2":"24L","lat2":48.38337987,"lon2":2.08215263}
]
,"navaids":[
{"type":"VOR","hdg_t":150.9,"dist_nm":15.5,"freq":116.5,"lat":48.15555600,"lon":2.26477800,"rng_nm":100,"alt_fmsl":424,"id":"PTV","desc":"PITHIVIERS VOR"},
{"type":"SDME","hdg_t":37.1,"dist_nm":16,"freq":110.4,"lat":48.59463900,"lon":2.31980500,"rng_nm":37,"alt_fmsl":268,"id":"BTY","desc":"BRETIGNY DME"},
{"type":"VOR","hdg_t":348.6,"dist_nm":16.6,"freq":114.7,"lat":48.65394500,"lon":1.99422200,"rng_nm":110,"alt_fmsl":604,"id":"RBT","desc":"RAMBOUILLET-Les Bordes VOR-DME"},
{"type":"NDB","hdg_t":13.4,"dist_nm":17.9,"freq":402,"lat":48.67244400,"lon":2.18183300,"rng_nm":112,"alt_fmsl":291,"id":"ORW","desc":"ORLY (PARIS) NDB"},
{"type":"SDME","hdg_t":1.8,"dist_nm":22.1,"freq":110.15,"lat":48.75039100,"lon":2.09515800,"rng_nm":27,"alt_fmsl":537,"id":"TNO","desc":"LFPN 25R DME"},
{"type":"VOR","hdg_t":311.2,"dist_nm":22.2,"freq":115.65,"lat":48.62569400,"lon":1.65655600,"rng_nm":60,"alt_fmsl":604,"id":"EPR","desc":"EPERNON VOR-DME"},
{"type":"VOR","hdg_t":2.6,"dist_nm":22.3,"freq":108.25,"lat":48.75372200,"lon":2.10236100,"rng_nm":100,"alt_fmsl":547,"id":"TSU","desc":"TOUSSUS LE NOBLE VOR"},
{"type":"NDB","hdg_t":334,"dist_nm":23.3,"freq":315,"lat":48.73058300,"lon":1.82050000,"rng_nm":75,"alt_fmsl":583,"id":"HOL","desc":"VILLACOUBLAY NDB"},
{"type":"NDB","hdg_t":2,"dist_nm":23.4,"freq":286,"lat":48.77158400,"lon":2.09744500,"rng_nm":22,"alt_fmsl":583,"id":"TA","desc":"VILLACOUBLAY NDB"},
{"type":"VOR","hdg_t":30.4,"dist_nm":24.2,"freq":111.2,"lat":48.72986100,"lon":2.38641700,"rng_nm":60,"alt_fmsl":307,"id":"OL","desc":"PARIS ORLY VOR-DME"},
{"type":"NDB","hdg_t":208.5,"dist_nm":25.9,"freq":385,"lat":48.00125000,"lon":1.76872200,"rng_nm":100,"alt_fmsl":0,"id":"OAN","desc":"ORLEANS NDB"},
{"type":"NDB","hdg_t":26.7,"dist_nm":26.6,"freq":302,"lat":48.77797200,"lon":2.37872200,"rng_nm":22,"alt_fmsl":583,"id":"TH","desc":"VILLACOUBLAY NDB"},
{"type":"SDME","hdg_t":208.5,"dist_nm":26.7,"freq":116.4,"lat":47.98944400,"lon":1.75958300,"rng_nm":50,"alt_fmsl":402,"id":"OAN","desc":"ORLEANS TACAN"},
{"type":"NDB","hdg_t":165.9,"dist_nm":27.5,"freq":322,"lat":47.93738900,"lon":2.24263900,"rng_nm":25,"alt_fmsl":396,"id":"ORS","desc":"Orleans - Saint Denis de l hotel NDB"},
{"type":"NDB","hdg_t":39.3,"dist_nm":28.9,"freq":349,"lat":48.75308300,"lon":2.53911100,"rng_nm":112,"alt_fmsl":291,"id":"OYE","desc":"ORLY (PARIS) NDB"},
{"type":"VOR","hdg_t":81.1,"dist_nm":29.7,"freq":113.6,"lat":48.45577800,"lon":2.81327800,"rng_nm":40,"alt_fmsl":349,"id":"MLN","desc":"MELUN VILLAROCHE VOR-DME"},
{"type":"VOR","hdg_t":235.2,"dist_nm":33.7,"freq":115.95,"lat":48.05916667,"lon":1.38708333,"rng_nm":40,"alt_fmsl":450,"id":"CAD","desc":"CHATEAUDUN VOR-DME"},
{"type":"NDB","hdg_t":236.4,"dist_nm":34.4,"freq":359,"lat":48.06241700,"lon":1.36363900,"rng_nm":50,"alt_fmsl":433,"id":"CDN","desc":"CHATEAUDUN NDB"},
{"type":"NDB","hdg_t":13.5,"dist_nm":34.4,"freq":334,"lat":48.93905600,"lon":2.28088900,"rng_nm":22,"alt_fmsl":216,"id":"BGW","desc":"LE BOURGET (PARIS) NDB"},
{"type":"NDB","hdg_t":279.6,"dist_nm":36.2,"freq":361,"lat":48.47944300,"lon":1.18250000,"rng_nm":75,"alt_fmsl":0,"id":"MUT","desc":"MURET NDB"},
{"type":"NDB","hdg_t":352.5,"dist_nm":37.4,"freq":406,"lat":49.00000000,"lon":1.95416700,"rng_nm":75,"alt_fmsl":0,"id":"LMX","desc":"LES MUREAUX NDB"},
{"type":"NDB","hdg_t":73.6,"dist_nm":37.4,"freq":308,"lat":48.55389000,"lon":2.97861100,"rng_nm":75,"alt_fmsl":0,"id":"MV","desc":"MELUN NDB"},
{"type":"NDB","hdg_t":73.6,"dist_nm":37.4,"freq":434,"lat":48.55392100,"lon":2.97800000,"rng_nm":50,"alt_fmsl":385,"id":"VM","desc":"Melun Villaroche NDB"},
{"type":"NDB","hdg_t":19.3,"dist_nm":38.5,"freq":343,"lat":48.98741700,"lon":2.40061100,"rng_nm":22,"alt_fmsl":389,"id":"CGO","desc":"CHARLES-DE-GAULLE (PARIS) NDB"},
{"type":"VOR","hdg_t":22.7,"dist_nm":38.6,"freq":116.1,"lat":48.97466700,"lon":2.45516700,"rng_nm":100,"alt_fmsl":200,"id":"BT","desc":"PARIS LE BOURGET VOR-DME"},
{"type":"DME","hdg_t":22.7,"dist_nm":38.6,"freq":108.8,"lat":48.97536100,"lon":2.45586600,"rng_nm":100,"alt_fmsl":200,"id":"BT","desc":"PARIS LE BOURGET VOR-DME"},
{"type":"NDB","hdg_t":16.5,"dist_nm":39.4,"freq":364,"lat":49.01127800,"lon":2.36144500,"rng_nm":22,"alt_fmsl":389,"id":"RSO","desc":"CHARLES-DE-GAULLE (PARIS) NDB"},
{"type":"VOR","hdg_t":23.5,"dist_nm":41.8,"freq":115.35,"lat":49.01991700,"lon":2.50011100,"rng_nm":100,"alt_fmsl":385,"id":"CGN","desc":"PARIS CHARLES DE GAULLE VOR-DME"},
{"type":"VOR","hdg_t":30.1,"dist_nm":42.9,"freq":117.05,"lat":48.99947200,"lon":2.62380600,"rng_nm":100,"alt_fmsl":348,"id":"PGS","desc":"PARIS CHARLES DE GAULLE VOR-DME"},
{"type":"VOR","hdg_t":357.8,"dist_nm":42.9,"freq":111.6,"lat":49.09608400,"lon":2.03588900,"rng_nm":60,"alt_fmsl":318,"id":"PON","desc":"PONTOISE CORMEILLES EN VEXIN VOR"},
{"type":"VOR","hdg_t":278.1,"dist_nm":43.9,"freq":115.2,"lat":48.48000000,"lon":0.98705600,"rng_nm":180,"alt_fmsl":732,"id":"CHW","desc":"CHARTRES La Loupe VOR-DME"},
{"type":"NDB","hdg_t":34.9,"dist_nm":45.8,"freq":370,"lat":49.00541700,"lon":2.74019400,"rng_nm":22,"alt_fmsl":389,"id":"CGZ","desc":"CHARLES-DE-GAULLE (PARIS) NDB"},
{"type":"NDB","hdg_t":32.4,"dist_nm":46.3,"freq":356,"lat":49.03102800,"lon":2.70641700,"rng_nm":22,"alt_fmsl":389,"id":"RSY","desc":"CHARLES-DE-GAULLE (PARIS) NDB"},
{"type":"VOR","hdg_t":52.9,"dist_nm":46.5,"freq":112.9,"lat":48.84463900,"lon":3.01386100,"rng_nm":60,"alt_fmsl":486,"id":"CLM","desc":"COULOMMIERS Voisins VOR-DME"},
{"type":"NDB","hdg_t":87.8,"dist_nm":48.7,"freq":277,"lat":48.40611300,"lon":3.29527800,"rng_nm":50,"alt_fmsl":0,"id":"BRY","desc":"BRAY NDB"},
{"type":"VOR","hdg_t":87.7,"dist_nm":48.7,"freq":114.1,"lat":48.40700000,"lon":3.29477800,"rng_nm":100,"alt_fmsl":289,"id":"BRY","desc":"BRAY SUR SEINE VOR-DME"},
{"type":"VOR","hdg_t":319.2,"dist_nm":51.7,"freq":112.4,"lat":49.03169400,"lon":1.22086100,"rng_nm":100,"alt_fmsl":499,"id":"EVX","desc":"EVREUX FAUVILLE VORTAC"},
{"type":"NDB","hdg_t":148.1,"dist_nm":54.3,"freq":405,"lat":47.61083333,"lon":2.78277777,"rng_nm":25,"alt_fmsl":528,"id":"BIC","desc":"Briare Chatillon NDB"},
{"type":"NDB","hdg_t":219.9,"dist_nm":55.1,"freq":397,"lat":47.67394400,"lon":1.20247200,"rng_nm":25,"alt_fmsl":398,"id":"BLB","desc":"Blois - Le Breuil NDB"},
{"type":"VOR","hdg_t":18.1,"dist_nm":55.2,"freq":109.2,"lat":49.25527800,"lon":2.51477800,"rng_nm":130,"alt_fmsl":325,"id":"CRL","desc":"CREIL VORTAC"},
{"type":"VOR","hdg_t":38.3,"dist_nm":62.1,"freq":114.85,"lat":49.18830600,"lon":3.05647200,"rng_nm":60,"alt_fmsl":476,"id":"BSN","desc":"BOURSONNE VOR-DME"},
{"type":"VOR","hdg_t":2.7,"dist_nm":63.3,"freq":115.9,"lat":49.43636100,"lon":2.15319400,"rng_nm":50,"alt_fmsl":0,"id":"BVS","desc":"BEAUVAIS VOR"},
{"type":"NDB","hdg_t":115.2,"dist_nm":63.6,"freq":417,"lat":47.92027777,"lon":3.50222222,"rng_nm":25,"alt_fmsl":505,"id":"AX","desc":"Auxerre Branches NDB"},
{"type":"NDB","hdg_t":193.9,"dist_nm":65.6,"freq":301,"lat":47.31983300,"lon":1.68802800,"rng_nm":15,"alt_fmsl":0,"id":"RTN","desc":"ROMORANTIN NDB"},
{"type":"VOR","hdg_t":292.3,"dist_nm":66.3,"freq":115,"lat":48.79061100,"lon":0.53027800,"rng_nm":60,"alt_fmsl":971,"id":"LGL","desc":"L AIGLE VOR"},
{"type":"NDB","hdg_t":358.4,"dist_nm":66.6,"freq":391,"lat":49.49166666,"lon":2.02944444,"rng_nm":25,"alt_fmsl":377,"id":"BV","desc":"Beauvais Tille NDB"},
{"type":"NDB","hdg_t":108.4,"dist_nm":68.7,"freq":353,"lat":48.00777777,"lon":3.69611111,"rng_nm":25,"alt_fmsl":545,"id":"CHY","desc":"Chailley NDB"},
{"type":"VOR","hdg_t":24.1,"dist_nm":69.2,"freq":109.65,"lat":49.43277800,"lon":2.79936100,"rng_nm":130,"alt_fmsl":288,"id":"CPE","desc":"COMPIEGNE VOR-DME"},
{"type":"NDB","hdg_t":24.2,"dist_nm":69.4,"freq":553,"lat":49.43444400,"lon":2.80611100,"rng_nm":75,"alt_fmsl":0,"id":"CO","desc":"COMPIEGNE NDB"},
{"type":"VOR","hdg_t":215.9,"dist_nm":70.3,"freq":113.7,"lat":47.42891700,"lon":1.06444400,"rng_nm":120,"alt_fmsl":387,"id":"AMB","desc":"AMBOISE VOR-DME"},
{"type":"NDB","hdg_t":216.2,"dist_nm":71.3,"freq":341,"lat":47.41816700,"lon":1.04100000,"rng_nm":50,"alt_fmsl":354,"id":"AMB","desc":"AMBOISE NDB"},
{"type":"NDB","hdg_t":227.2,"dist_nm":71.5,"freq":331,"lat":47.56588900,"lon":0.78261100,"rng_nm":50,"alt_fmsl":551,"id":"TUR","desc":"TOURS NDB"},
{"type":"VOR","hdg_t":12.9,"dist_nm":72.1,"freq":113.65,"lat":49.55263900,"lon":2.48947200,"rng_nm":60,"alt_fmsl":0,"id":"MTD","desc":"MONTDIDIER VOR"},
{"type":"VOR","hdg_t":334.4,"dist_nm":72.3,"freq":116.8,"lat":49.46563900,"lon":1.28063900,"rng_nm":40,"alt_fmsl":560,"id":"ROU","desc":"ROUEN VALLEE DE SEINE VOR"},
{"type":"VOR","hdg_t":52.1,"dist_nm":74.9,"freq":117.6,"lat":49.13775000,"lon":3.57769400,"rng_nm":100,"alt_fmsl":673,"id":"CTL","desc":"CHATILLON SUR MARNE VOR-DME"},
{"type":"VOR","hdg_t":95.2,"dist_nm":75.9,"freq":116,"lat":48.25122200,"lon":3.96313900,"rng_nm":60,"alt_fmsl":861,"id":"TRO","desc":"TROYES BARBEREY VOR"},
{"type":"NDB","hdg_t":88.4,"dist_nm":77,"freq":320,"lat":48.40027777,"lon":4.00388888,"rng_nm":25,"alt_fmsl":611,"id":"TY","desc":"Troyes Barberey NDB"},
{"type":"NDB","hdg_t":273.7,"dist_nm":78.5,"freq":380,"lat":48.44972200,"lon":0.11305600,"rng_nm":75,"alt_fmsl":0,"id":"AL","desc":"ALENCON NDB"},
{"type":"SDME","hdg_t":223.8,"dist_nm":79.1,"freq":113.8,"lat":47.42218300,"lon":0.73089200,"rng_nm":150,"alt_fmsl":329,"id":"TUR","desc":"TOURS TACAN"},
{"type":"NDB","hdg_t":158.5,"dist_nm":81.1,"freq":288,"lat":47.12066700,"lon":2.79961100,"rng_nm":50,"alt_fmsl":679,"id":"AVD","desc":"AVORD NDB"},
{"type":"NDB","hdg_t":71.3,"dist_nm":81.1,"freq":367,"lat":48.79777777,"lon":4.01611111,"rng_nm":25,"alt_fmsl":482,"id":"VAT","desc":"Chalons Vatry NDB"},
{"type":"VOR","hdg_t":154.6,"dist_nm":81.4,"freq":113.4,"lat":47.15300000,"lon":2.92936100,"rng_nm":80,"alt_fmsl":631,"id":"NEV","desc":"NEVERS VOR"},
{"type":"NDB","hdg_t":249.7,"dist_nm":81.9,"freq":326,"lat":47.89358300,"lon":0.17138900,"rng_nm":50,"alt_fmsl":0,"id":"LM","desc":"LE MANS NDB"},
{"type":"NDB","hdg_t":174.1,"dist_nm":82.3,"freq":375,"lat":47.01750000,"lon":2.28166666,"rng_nm":25,"alt_fmsl":509,"id":"BRG","desc":"Bourges NDB"},
{"type":"SDME","hdg_t":164,"dist_nm":82.5,"freq":110.6,"lat":47.05808300,"lon":2.62986100,"rng_nm":150,"alt_fmsl":554,"id":"AVD","desc":"AVORD TACAN"},
{"type":"VOR","hdg_t":73,"dist_nm":85.8,"freq":111.65,"lat":48.78108300,"lon":4.14694400,"rng_nm":40,"alt_fmsl":538,"id":"CAV","desc":"VATRY VOR-DME"},
{"type":"NDB","hdg_t":187.4,"dist_nm":87.4,"freq":428,"lat":46.93661100,"lon":1.80113900,"rng_nm":50,"alt_fmsl":539,"id":"CTX","desc":"CHATEAUROUX NDB"},
{"type":"NDB","hdg_t":10.2,"dist_nm":89.1,"freq":339,"lat":49.84222222,"lon":2.48416666,"rng_nm":25,"alt_fmsl":335,"id":"GI","desc":"Amiens-Glisy NDB"},
{"type":"VOR","hdg_t":309.2,"dist_nm":89.4,"freq":110.2,"lat":49.31075000,"lon":0.31272200,"rng_nm":60,"alt_fmsl":497,"id":"DVL","desc":"DEAUVILLE SAINT GATIEN VOR"},
{"type":"NDB","hdg_t":74.9,"dist_nm":92.1,"freq":347,"lat":48.75916666,"lon":4.31888888,"rng_nm":25,"alt_fmsl":604,"id":"CVT","desc":"Chalons Vatry NDB"},
{"type":"VOR","hdg_t":53.6,"dist_nm":95.9,"freq":112.3,"lat":49.31163900,"lon":4.04536100,"rng_nm":60,"alt_fmsl":335,"id":"REM","desc":"REIMS CHAMPAGNE VORTAC"},
{"type":"NDB","hdg_t":158.6,"dist_nm":96.4,"freq":306,"lat":46.88167000,"lon":2.92888955,"rng_nm":25,"alt_fmsl":679,"id":"AV","desc":"Avord NDB"},
{"type":"NDB","hdg_t":151.7,"dist_nm":96.7,"freq":394,"lat":46.95583333,"lon":3.19000000,"rng_nm":25,"alt_fmsl":633,"id":"NV","desc":"Nevers Fourchambault NDB"},
{"type":"NDB","hdg_t":336.8,"dist_nm":98.2,"freq":351,"lat":49.88222222,"lon":1.08361111,"rng_nm":25,"alt_fmsl":335,"id":"DSA","desc":"Dieppe Saint Aubin NDB"},
{"type":"NDB","hdg_t":24.7,"dist_nm":98.5,"freq":382,"lat":49.86750000,"lon":3.13722200,"rng_nm":75,"alt_fmsl":0,"id":"PM","desc":"PERONNE ST QUENTIN NDB"},
{"type":"VOR","hdg_t":339.2,"dist_nm":99.3,"freq":115.8,"lat":49.92538900,"lon":1.17063900,"rng_nm":40,"alt_fmsl":362,"id":"DPE","desc":"DIEPPE VOR"},
{"type":"NDB","hdg_t":16.4,"dist_nm":99.9,"freq":321,"lat":49.97625555,"lon":2.80941666,"rng_nm":150,"alt_fmsl":361,"id":"ABY","desc":"Albert Bray NDB"}
]
}
