{"success":true,"source":"xp2csv.pl","last_updated":"2013/11/08 14:53:21 UTC"
,"icao":"LFOY","name":"Le Havre Saint Romain","lat":49.545099,"lon":0.3610455,"rwys":2,"ils":0,"index":2958049,"path":"e000n40/e000n49"
,"runways":[
{"len_m":842,"wid_m":99.97,"hdg":233,"surf":"Turf/grass","rwy1":"24","lat1":49.54699476,"lon1":0.36576336,"rwy2":"06","lat2":49.54244524,"lon2":0.35645864},
{"len_m":890,"wid_m":99.97,"hdg":191,"surf":"Turf/grass","rwy1":"19","lat1":49.54940917,"lon1":0.36215770,"rwy2":"01","lat2":49.54154683,"lon2":0.35980230}
]
,"navaids":[
{"type":"NDB","hdg_t":294,"dist_nm":7.6,"freq":346,"lat":49.59722222,"lon":0.18111111,"rng_nm":25,"alt_fmsl":308,"id":"LHO","desc":"Le Havre Octeville NDB"},
{"type":"VOR","hdg_t":187.6,"dist_nm":14.2,"freq":110.2,"lat":49.31075000,"lon":0.31272200,"rng_nm":60,"alt_fmsl":497,"id":"DVL","desc":"DEAUVILLE SAINT GATIEN VOR"},
{"type":"NDB","hdg_t":53.9,"dist_nm":34.6,"freq":351,"lat":49.88222222,"lon":1.08361111,"rng_nm":25,"alt_fmsl":335,"id":"DSA","desc":"Dieppe Saint Aubin NDB"},
{"type":"VOR","hdg_t":97.2,"dist_nm":36.2,"freq":116.8,"lat":49.46563900,"lon":1.28063900,"rng_nm":40,"alt_fmsl":560,"id":"ROU","desc":"ROUEN VALLEE DE SEINE VOR"},
{"type":"NDB","hdg_t":226.3,"dist_nm":37.1,"freq":404,"lat":49.11566700,"lon":-0.32125000,"rng_nm":25,"alt_fmsl":0,"id":"CNE","desc":"CAEN NDB"},
{"type":"VOR","hdg_t":53.7,"dist_nm":38.9,"freq":115.8,"lat":49.92538900,"lon":1.17063900,"rng_nm":40,"alt_fmsl":362,"id":"DPE","desc":"DIEPPE VOR"},
{"type":"VOR","hdg_t":235.4,"dist_nm":39,"freq":114.45,"lat":49.17319444,"lon":-0.45527778,"rng_nm":80,"alt_fmsl":275,"id":"CEN","desc":"CAEN CARPIQUET VOR"},
{"type":"VOR","hdg_t":132,"dist_nm":45.7,"freq":112.4,"lat":49.03169400,"lon":1.22086100,"rng_nm":100,"alt_fmsl":499,"id":"EVX","desc":"EVREUX FAUVILLE VORTAC"},
{"type":"VOR","hdg_t":171.5,"dist_nm":45.7,"freq":115,"lat":48.79061100,"lon":0.53027800,"rng_nm":60,"alt_fmsl":971,"id":"LGL","desc":"L AIGLE VOR"},
{"type":"NDB","hdg_t":92.1,"dist_nm":65.3,"freq":391,"lat":49.49166666,"lon":2.02944444,"rng_nm":25,"alt_fmsl":377,"id":"BV","desc":"Beauvais Tille NDB"},
{"type":"NDB","hdg_t":188.5,"dist_nm":66.5,"freq":380,"lat":48.44972200,"lon":0.11305600,"rng_nm":75,"alt_fmsl":0,"id":"AL","desc":"ALENCON NDB"},
{"type":"NDB","hdg_t":275.3,"dist_nm":67.8,"freq":373,"lat":49.63777777,"lon":-1.37222222,"rng_nm":25,"alt_fmsl":377,"id":"MP","desc":"Cherbourg Maupertus NDB"},
{"type":"VOR","hdg_t":58,"dist_nm":67.9,"freq":108.45,"lat":50.13513900,"lon":1.85469400,"rng_nm":60,"alt_fmsl":223,"id":"ABB","desc":"ABBEVILLE VOR-DME"},
{"type":"VOR","hdg_t":158.6,"dist_nm":68.5,"freq":115.2,"lat":48.48000000,"lon":0.98705600,"rng_nm":180,"alt_fmsl":732,"id":"CHW","desc":"CHARTRES La Loupe VOR-DME"},
{"type":"VOR","hdg_t":94.6,"dist_nm":70.4,"freq":115.9,"lat":49.43636100,"lon":2.15319400,"rng_nm":50,"alt_fmsl":0,"id":"BVS","desc":"BEAUVAIS VOR"},
{"type":"NDB","hdg_t":117,"dist_nm":70.6,"freq":406,"lat":49.00000000,"lon":1.95416700,"rng_nm":75,"alt_fmsl":0,"id":"LMX","desc":"LES MUREAUX NDB"},
{"type":"VOR","hdg_t":111.6,"dist_nm":71,"freq":111.6,"lat":49.09608400,"lon":2.03588900,"rng_nm":60,"alt_fmsl":318,"id":"PON","desc":"PONTOISE CORMEILLES EN VEXIN VOR"},
{"type":"NDB","hdg_t":152.8,"dist_nm":71.7,"freq":361,"lat":48.47944300,"lon":1.18250000,"rng_nm":75,"alt_fmsl":0,"id":"MUT","desc":"MURET NDB"},
{"type":"VOR","hdg_t":352.8,"dist_nm":73.5,"freq":117,"lat":50.76055600,"lon":0.12194400,"rng_nm":120,"alt_fmsl":300,"id":"SFD","desc":"SEAFORD VOR-DME"},
{"type":"VOR","hdg_t":136.7,"dist_nm":75.2,"freq":115.65,"lat":48.62569400,"lon":1.65655600,"rng_nm":60,"alt_fmsl":604,"id":"EPR","desc":"EPERNON VOR-DME"},
{"type":"NDB","hdg_t":129.8,"dist_nm":75.4,"freq":315,"lat":48.73058300,"lon":1.82050000,"rng_nm":75,"alt_fmsl":583,"id":"HOL","desc":"VILLACOUBLAY NDB"},
{"type":"NDB","hdg_t":38.2,"dist_nm":76.1,"freq":358,"lat":50.53539300,"lon":1.59242200,"rng_nm":22,"alt_fmsl":35,"id":"LT","desc":"LE TOUQUET NDB"},
{"type":"NDB","hdg_t":342.1,"dist_nm":81.5,"freq":332,"lat":50.83550000,"lon":-0.29550000,"rng_nm":10,"alt_fmsl":0,"id":"SHM","desc":"Shoreham NDB"},
{"type":"NDB","hdg_t":123.5,"dist_nm":82.6,"freq":286,"lat":48.77158400,"lon":2.09744500,"rng_nm":22,"alt_fmsl":583,"id":"TA","desc":"VILLACOUBLAY NDB"},
{"type":"VOR","hdg_t":88.8,"dist_nm":83.1,"freq":113.65,"lat":49.55263900,"lon":2.48947200,"rng_nm":60,"alt_fmsl":0,"id":"MTD","desc":"MONTDIDIER VOR"},
{"type":"SDME","hdg_t":124.2,"dist_nm":83.3,"freq":110.15,"lat":48.75039100,"lon":2.09515800,"rng_nm":27,"alt_fmsl":537,"id":"TNO","desc":"LFPN 25R DME"},
{"type":"VOR","hdg_t":124,"dist_nm":83.4,"freq":108.25,"lat":48.75372200,"lon":2.10236100,"rng_nm":100,"alt_fmsl":547,"id":"TSU","desc":"TOUSSUS LE NOBLE VOR"},
{"type":"NDB","hdg_t":115,"dist_nm":83.7,"freq":334,"lat":48.93905600,"lon":2.28088900,"rng_nm":22,"alt_fmsl":216,"id":"BGW","desc":"LE BOURGET (PARIS) NDB"},
{"type":"VOR","hdg_t":129.1,"dist_nm":83.7,"freq":114.7,"lat":48.65394500,"lon":1.99422200,"rng_nm":110,"alt_fmsl":604,"id":"RBT","desc":"RAMBOUILLET-Les Bordes VOR-DME"},
{"type":"NDB","hdg_t":77,"dist_nm":84.6,"freq":339,"lat":49.84222222,"lon":2.48416666,"rng_nm":25,"alt_fmsl":335,"id":"GI","desc":"Amiens-Glisy NDB"},
{"type":"NDB","hdg_t":111.4,"dist_nm":84.8,"freq":364,"lat":49.01127800,"lon":2.36144500,"rng_nm":22,"alt_fmsl":389,"id":"RSO","desc":"CHARLES-DE-GAULLE (PARIS) NDB"},
{"type":"VOR","hdg_t":100.8,"dist_nm":86.1,"freq":109.2,"lat":49.25527800,"lon":2.51477800,"rng_nm":130,"alt_fmsl":325,"id":"CRL","desc":"CREIL VORTAC"},
{"type":"NDB","hdg_t":111.9,"dist_nm":86.8,"freq":343,"lat":48.98741700,"lon":2.40061100,"rng_nm":22,"alt_fmsl":389,"id":"CGO","desc":"CHARLES-DE-GAULLE (PARIS) NDB"},
{"type":"VOR","hdg_t":42,"dist_nm":88.1,"freq":113.8,"lat":50.62477800,"lon":1.90711100,"rng_nm":70,"alt_fmsl":584,"id":"BNE","desc":"BOULOGNE SUR MER VOR"},
{"type":"NDB","hdg_t":320.8,"dist_nm":88.6,"freq":426,"lat":50.68082200,"lon":-1.10603200,"rng_nm":15,"alt_fmsl":0,"id":"IW","desc":"BEMBRIDGE NDB"},
{"type":"NDB","hdg_t":14.7,"dist_nm":88.7,"freq":397,"lat":50.97216400,"lon":0.95528600,"rng_nm":15,"alt_fmsl":0,"id":"LYX","desc":"LYDD NDB"},
{"type":"NDB","hdg_t":125.4,"dist_nm":88.8,"freq":402,"lat":48.67244400,"lon":2.18183300,"rng_nm":112,"alt_fmsl":291,"id":"ORW","desc":"ORLY (PARIS) NDB"},
{"type":"VOR","hdg_t":354,"dist_nm":88.9,"freq":117.9,"lat":51.01722200,"lon":0.11611100,"rng_nm":130,"alt_fmsl":360,"id":"MAY","desc":"MAYFIELD VOR-DME"},
{"type":"VOR","hdg_t":111.8,"dist_nm":89.1,"freq":116.1,"lat":48.97466700,"lon":2.45516700,"rng_nm":100,"alt_fmsl":200,"id":"BT","desc":"PARIS LE BOURGET VOR-DME"},
{"type":"DME","hdg_t":111.7,"dist_nm":89.1,"freq":108.8,"lat":48.97536100,"lon":2.45586600,"rng_nm":100,"alt_fmsl":200,"id":"BT","desc":"PARIS LE BOURGET VOR-DME"},
{"type":"VOR","hdg_t":12.6,"dist_nm":89.6,"freq":114.05,"lat":50.99972200,"lon":0.87861100,"rng_nm":130,"alt_fmsl":30,"id":"LYD","desc":"LYDD VOR-DME"},
{"type":"VOR","hdg_t":331.7,"dist_nm":89.7,"freq":114.75,"lat":50.85527800,"lon":-0.75666700,"rng_nm":130,"alt_fmsl":113,"id":"GWC","desc":"GOODWOOD VOR-DME"},
{"type":"VOR","hdg_t":109.7,"dist_nm":89.7,"freq":115.35,"lat":49.01991700,"lon":2.50011100,"rng_nm":100,"alt_fmsl":385,"id":"CGN","desc":"PARIS CHARLES DE GAULLE VOR-DME"},
{"type":"NDB","hdg_t":119.3,"dist_nm":91.8,"freq":302,"lat":48.77797200,"lon":2.37872200,"rng_nm":22,"alt_fmsl":583,"id":"TH","desc":"VILLACOUBLAY NDB"},
{"type":"VOR","hdg_t":120.7,"dist_nm":93.6,"freq":111.2,"lat":48.72986100,"lon":2.38641700,"rng_nm":60,"alt_fmsl":307,"id":"OL","desc":"PARIS ORLY VOR-DME"},
{"type":"VOR","hdg_t":109.3,"dist_nm":94.7,"freq":117.05,"lat":48.99947200,"lon":2.62380600,"rng_nm":100,"alt_fmsl":348,"id":"PGS","desc":"PARIS CHARLES DE GAULLE VOR-DME"},
{"type":"VOR","hdg_t":93.1,"dist_nm":95.6,"freq":109.65,"lat":49.43277800,"lon":2.79936100,"rng_nm":130,"alt_fmsl":288,"id":"CPE","desc":"COMPIEGNE VOR-DME"},
{"type":"NDB","hdg_t":93,"dist_nm":95.8,"freq":553,"lat":49.43444400,"lon":2.80611100,"rng_nm":75,"alt_fmsl":0,"id":"CO","desc":"COMPIEGNE NDB"},
{"type":"SDME","hdg_t":125.7,"dist_nm":96,"freq":110.4,"lat":48.59463900,"lon":2.31980500,"rng_nm":37,"alt_fmsl":268,"id":"BTY","desc":"BRETIGNY DME"},
{"type":"NDB","hdg_t":32.9,"dist_nm":96.3,"freq":387,"lat":50.88316700,"lon":1.74180600,"rng_nm":50,"alt_fmsl":475,"id":"ING","desc":"ST INGLEVERT NDB"},
{"type":"VOR","hdg_t":259.2,"dist_nm":96.3,"freq":112.2,"lat":49.22111100,"lon":-2.04611100,"rng_nm":130,"alt_fmsl":276,"id":"JSY","desc":"JERSEY VOR-DME"},
{"type":"NDB","hdg_t":107.6,"dist_nm":97.1,"freq":356,"lat":49.03102800,"lon":2.70641700,"rng_nm":22,"alt_fmsl":389,"id":"RSY","desc":"CHARLES-DE-GAULLE (PARIS) NDB"},
{"type":"NDB","hdg_t":6.3,"dist_nm":97.3,"freq":340,"lat":51.15472200,"lon":0.64805600,"rng_nm":15,"alt_fmsl":72,"id":"LSH","desc":"LASHENDEN NDB-DME"},
{"type":"SDME","hdg_t":6.3,"dist_nm":97.3,"freq":115.95,"lat":51.15472200,"lon":0.64805600,"rng_nm":15,"alt_fmsl":72,"id":"LSH","desc":"LASHENDEN NDB-DME"},
{"type":"NDB","hdg_t":155.5,"dist_nm":97.5,"freq":359,"lat":48.06241700,"lon":1.36363900,"rng_nm":50,"alt_fmsl":433,"id":"CDN","desc":"CHATEAUDUN NDB"},
{"type":"NDB","hdg_t":118.1,"dist_nm":98,"freq":349,"lat":48.75308300,"lon":2.53911100,"rng_nm":112,"alt_fmsl":291,"id":"OYE","desc":"ORLY (PARIS) NDB"},
{"type":"VOR","hdg_t":155,"dist_nm":98,"freq":115.95,"lat":48.05916667,"lon":1.38708333,"rng_nm":40,"alt_fmsl":450,"id":"CAD","desc":"CHATEAUDUN VOR-DME"},
{"type":"VOR","hdg_t":337.6,"dist_nm":98.2,"freq":114,"lat":51.05388900,"lon":-0.62500000,"rng_nm":100,"alt_fmsl":200,"id":"MID","desc":"MIDHURST VOR-DME"},
{"type":"NDB","hdg_t":350.5,"dist_nm":98.6,"freq":338,"lat":51.16443900,"lon":-0.06913300,"rng_nm":15,"alt_fmsl":0,"id":"GE","desc":"GATWICK NDB"},
{"type":"NDB","hdg_t":73.8,"dist_nm":98.7,"freq":321,"lat":49.97625555,"lon":2.80941666,"rng_nm":150,"alt_fmsl":361,"id":"ABY","desc":"Albert Bray NDB"},
{"type":"NDB","hdg_t":344.9,"dist_nm":98.7,"freq":365,"lat":51.13065300,"lon":-0.31595600,"rng_nm":15,"alt_fmsl":0,"id":"GY","desc":"GATWICK NDB"},
{"type":"NDB","hdg_t":108.2,"dist_nm":98.9,"freq":370,"lat":49.00541700,"lon":2.74019400,"rng_nm":22,"alt_fmsl":389,"id":"CGZ","desc":"CHARLES-DE-GAULLE (PARIS) NDB"},
{"type":"NDB","hdg_t":184.4,"dist_nm":99.4,"freq":326,"lat":47.89358300,"lon":0.17138900,"rng_nm":50,"alt_fmsl":0,"id":"LM","desc":"LE MANS NDB"}
]
}
