{"success":true,"source":"xp2csv.pl","last_updated":"2013/11/08 14:53:21 UTC"
,"icao":"LFOZ","name":"Orleans Saint Denis","lat":47.8976928333333,"lon":2.1649,"rwys":3,"ils":0,"index":2990712,"path":"e000n40/e002n47"
,"runways":[
{"len_m":1390,"wid_m":29.87,"hdg":53,"surf":"Asphalt","rwy1":"05","lat1":47.89415000,"lon1":2.15733600,"rwy2":"23","lat2":47.90165300,"lon2":2.17221400},
{"len_m":1390,"wid_m":29.87,"hdg":53,"surf":"Asphalt","rwy1":"05L","lat1":47.89415186,"lon1":2.15733678,"rwy2":"23R","lat2":47.90165414,"lon2":2.17221322},
{"len_m":1062,"wid_m":79.86,"hdg":53,"surf":"Turf/grass","rwy1":"05R","lat1":47.89440664,"lon1":2.15946432,"rwy2":"23L","lat2":47.90014136,"lon2":2.17083568}
]
,"radios":[
{"type":"TWR","freq":122.4,"desc":"INFO"}
]
,"navaids":[
{"type":"NDB","hdg_t":52.7,"dist_nm":3.9,"freq":322,"lat":47.93738900,"lon":2.24263900,"rng_nm":25,"alt_fmsl":396,"id":"ORS","desc":"Orleans - Saint Denis de l hotel NDB"},
{"type":"VOR","hdg_t":14.5,"dist_nm":15.9,"freq":116.5,"lat":48.15555600,"lon":2.26477800,"rng_nm":100,"alt_fmsl":424,"id":"PTV","desc":"PITHIVIERS VOR"},
{"type":"NDB","hdg_t":291.4,"dist_nm":17.1,"freq":385,"lat":48.00125000,"lon":1.76872200,"rng_nm":100,"alt_fmsl":0,"id":"OAN","desc":"ORLEANS NDB"},
{"type":"SDME","hdg_t":288.7,"dist_nm":17.2,"freq":116.4,"lat":47.98944400,"lon":1.75958300,"rng_nm":50,"alt_fmsl":402,"id":"OAN","desc":"ORLEANS TACAN"},
{"type":"NDB","hdg_t":124.3,"dist_nm":30.3,"freq":405,"lat":47.61083333,"lon":2.78277777,"rng_nm":25,"alt_fmsl":528,"id":"BIC","desc":"Briare Chatillon NDB"},
{"type":"VOR","hdg_t":287.4,"dist_nm":32.8,"freq":115.95,"lat":48.05916667,"lon":1.38708333,"rng_nm":40,"alt_fmsl":450,"id":"CAD","desc":"CHATEAUDUN VOR-DME"},
{"type":"NDB","hdg_t":287.3,"dist_nm":33.7,"freq":359,"lat":48.06241700,"lon":1.36363900,"rng_nm":50,"alt_fmsl":433,"id":"CDN","desc":"CHATEAUDUN NDB"},
{"type":"NDB","hdg_t":209.3,"dist_nm":39.7,"freq":301,"lat":47.31983300,"lon":1.68802800,"rng_nm":15,"alt_fmsl":0,"id":"RTN","desc":"ROMORANTIN NDB"},
{"type":"NDB","hdg_t":251.3,"dist_nm":41.1,"freq":397,"lat":47.67394400,"lon":1.20247200,"rng_nm":25,"alt_fmsl":398,"id":"BLB","desc":"Blois - Le Breuil NDB"},
{"type":"SDME","hdg_t":8.3,"dist_nm":42.3,"freq":110.4,"lat":48.59463900,"lon":2.31980500,"rng_nm":37,"alt_fmsl":268,"id":"BTY","desc":"BRETIGNY DME"},
{"type":"VOR","hdg_t":37.6,"dist_nm":42.4,"freq":113.6,"lat":48.45577800,"lon":2.81327800,"rng_nm":40,"alt_fmsl":349,"id":"MLN","desc":"MELUN VILLAROCHE VOR-DME"},
{"type":"VOR","hdg_t":351.4,"dist_nm":45.9,"freq":114.7,"lat":48.65394500,"lon":1.99422200,"rng_nm":110,"alt_fmsl":604,"id":"RBT","desc":"RAMBOUILLET-Les Bordes VOR-DME"},
{"type":"NDB","hdg_t":0.8,"dist_nm":46.5,"freq":402,"lat":48.67244400,"lon":2.18183300,"rng_nm":112,"alt_fmsl":291,"id":"ORW","desc":"ORLY (PARIS) NDB"},
{"type":"VOR","hdg_t":335.1,"dist_nm":48.2,"freq":115.65,"lat":48.62569400,"lon":1.65655600,"rng_nm":60,"alt_fmsl":604,"id":"EPR","desc":"EPERNON VOR-DME"},
{"type":"VOR","hdg_t":9.9,"dist_nm":50.7,"freq":111.2,"lat":48.72986100,"lon":2.38641700,"rng_nm":60,"alt_fmsl":307,"id":"OL","desc":"PARIS ORLY VOR-DME"},
{"type":"NDB","hdg_t":39.3,"dist_nm":51.1,"freq":308,"lat":48.55389000,"lon":2.97861100,"rng_nm":75,"alt_fmsl":0,"id":"MV","desc":"MELUN NDB"},
{"type":"NDB","hdg_t":39.3,"dist_nm":51.1,"freq":434,"lat":48.55392100,"lon":2.97800000,"rng_nm":50,"alt_fmsl":385,"id":"VM","desc":"Melun Villaroche NDB"},
{"type":"SDME","hdg_t":356.9,"dist_nm":51.2,"freq":110.15,"lat":48.75039100,"lon":2.09515800,"rng_nm":27,"alt_fmsl":537,"id":"TNO","desc":"LFPN 25R DME"},
{"type":"VOR","hdg_t":357.2,"dist_nm":51.4,"freq":108.25,"lat":48.75372200,"lon":2.10236100,"rng_nm":100,"alt_fmsl":547,"id":"TSU","desc":"TOUSSUS LE NOBLE VOR"},
{"type":"NDB","hdg_t":344.7,"dist_nm":51.8,"freq":315,"lat":48.73058300,"lon":1.82050000,"rng_nm":75,"alt_fmsl":583,"id":"HOL","desc":"VILLACOUBLAY NDB"},
{"type":"NDB","hdg_t":357,"dist_nm":52.5,"freq":286,"lat":48.77158400,"lon":2.09744500,"rng_nm":22,"alt_fmsl":583,"id":"TA","desc":"VILLACOUBLAY NDB"},
{"type":"NDB","hdg_t":311.8,"dist_nm":52.6,"freq":361,"lat":48.47944300,"lon":1.18250000,"rng_nm":75,"alt_fmsl":0,"id":"MUT","desc":"MURET NDB"},
{"type":"VOR","hdg_t":238.1,"dist_nm":52.7,"freq":113.7,"lat":47.42891700,"lon":1.06444400,"rng_nm":120,"alt_fmsl":387,"id":"AMB","desc":"AMBOISE VOR-DME"},
{"type":"NDB","hdg_t":174.8,"dist_nm":53,"freq":375,"lat":47.01750000,"lon":2.28166666,"rng_nm":25,"alt_fmsl":509,"id":"BRG","desc":"Bourges NDB"},
{"type":"NDB","hdg_t":150.8,"dist_nm":53.3,"freq":288,"lat":47.12066700,"lon":2.79961100,"rng_nm":50,"alt_fmsl":679,"id":"AVD","desc":"AVORD NDB"},
{"type":"NDB","hdg_t":16.1,"dist_nm":53.4,"freq":349,"lat":48.75308300,"lon":2.53911100,"rng_nm":112,"alt_fmsl":291,"id":"OYE","desc":"ORLY (PARIS) NDB"},
{"type":"NDB","hdg_t":9.1,"dist_nm":53.5,"freq":302,"lat":48.77797200,"lon":2.37872200,"rng_nm":22,"alt_fmsl":583,"id":"TH","desc":"VILLACOUBLAY NDB"},
{"type":"SDME","hdg_t":159.2,"dist_nm":53.8,"freq":110.6,"lat":47.05808300,"lon":2.62986100,"rng_nm":150,"alt_fmsl":554,"id":"AVD","desc":"AVORD TACAN"},
{"type":"NDB","hdg_t":238.1,"dist_nm":53.9,"freq":341,"lat":47.41816700,"lon":1.04100000,"rng_nm":50,"alt_fmsl":354,"id":"AMB","desc":"AMBOISE NDB"},
{"type":"NDB","hdg_t":88,"dist_nm":53.9,"freq":417,"lat":47.92027777,"lon":3.50222222,"rng_nm":25,"alt_fmsl":505,"id":"AX","desc":"Auxerre Branches NDB"},
{"type":"VOR","hdg_t":144.9,"dist_nm":54.4,"freq":113.4,"lat":47.15300000,"lon":2.92936100,"rng_nm":80,"alt_fmsl":631,"id":"NEV","desc":"NEVERS VOR"},
{"type":"NDB","hdg_t":55.6,"dist_nm":54.7,"freq":277,"lat":48.40611300,"lon":3.29527800,"rng_nm":50,"alt_fmsl":0,"id":"BRY","desc":"BRAY NDB"},
{"type":"VOR","hdg_t":55.6,"dist_nm":54.7,"freq":114.1,"lat":48.40700000,"lon":3.29477800,"rng_nm":100,"alt_fmsl":289,"id":"BRY","desc":"BRAY SUR SEINE VOR-DME"},
{"type":"VOR","hdg_t":306.9,"dist_nm":58.8,"freq":115.2,"lat":48.48000000,"lon":0.98705600,"rng_nm":180,"alt_fmsl":732,"id":"CHW","desc":"CHARTRES La Loupe VOR-DME"},
{"type":"NDB","hdg_t":250.9,"dist_nm":59.4,"freq":331,"lat":47.56588900,"lon":0.78261100,"rng_nm":50,"alt_fmsl":551,"id":"TUR","desc":"TOURS NDB"},
{"type":"NDB","hdg_t":194.5,"dist_nm":59.5,"freq":428,"lat":46.93661100,"lon":1.80113900,"rng_nm":50,"alt_fmsl":539,"id":"CTX","desc":"CHATEAUROUX NDB"},
{"type":"NDB","hdg_t":83.3,"dist_nm":62.1,"freq":353,"lat":48.00777777,"lon":3.69611111,"rng_nm":25,"alt_fmsl":545,"id":"CHY","desc":"Chailley NDB"},
{"type":"NDB","hdg_t":4.1,"dist_nm":62.6,"freq":334,"lat":48.93905600,"lon":2.28088900,"rng_nm":22,"alt_fmsl":216,"id":"BGW","desc":"LE BOURGET (PARIS) NDB"},
{"type":"SDME","hdg_t":244.3,"dist_nm":64.7,"freq":113.8,"lat":47.42218300,"lon":0.73089200,"rng_nm":150,"alt_fmsl":329,"id":"TUR","desc":"TOURS TACAN"},
{"type":"VOR","hdg_t":10,"dist_nm":65.6,"freq":116.1,"lat":48.97466700,"lon":2.45516700,"rng_nm":100,"alt_fmsl":200,"id":"BT","desc":"PARIS LE BOURGET VOR-DME"},
{"type":"DME","hdg_t":10,"dist_nm":65.7,"freq":108.8,"lat":48.97536100,"lon":2.45586600,"rng_nm":100,"alt_fmsl":200,"id":"BT","desc":"PARIS LE BOURGET VOR-DME"},
{"type":"NDB","hdg_t":8.1,"dist_nm":66.1,"freq":343,"lat":48.98741700,"lon":2.40061100,"rng_nm":22,"alt_fmsl":389,"id":"CGO","desc":"CHARLES-DE-GAULLE (PARIS) NDB"},
{"type":"VOR","hdg_t":30.5,"dist_nm":66.2,"freq":112.9,"lat":48.84463900,"lon":3.01386100,"rng_nm":60,"alt_fmsl":486,"id":"CLM","desc":"COULOMMIERS Voisins VOR-DME"},
{"type":"NDB","hdg_t":352.8,"dist_nm":66.7,"freq":406,"lat":49.00000000,"lon":1.95416700,"rng_nm":75,"alt_fmsl":0,"id":"LMX","desc":"LES MUREAUX NDB"},
{"type":"NDB","hdg_t":6.6,"dist_nm":67.3,"freq":364,"lat":49.01127800,"lon":2.36144500,"rng_nm":22,"alt_fmsl":389,"id":"RSO","desc":"CHARLES-DE-GAULLE (PARIS) NDB"},
{"type":"NDB","hdg_t":152.6,"dist_nm":68.4,"freq":306,"lat":46.88167000,"lon":2.92888955,"rng_nm":25,"alt_fmsl":679,"id":"AV","desc":"Avord NDB"},
{"type":"VOR","hdg_t":15.3,"dist_nm":68.6,"freq":117.05,"lat":48.99947200,"lon":2.62380600,"rng_nm":100,"alt_fmsl":348,"id":"PGS","desc":"PARIS CHARLES DE GAULLE VOR-DME"},
{"type":"VOR","hdg_t":11.1,"dist_nm":68.6,"freq":115.35,"lat":49.01991700,"lon":2.50011100,"rng_nm":100,"alt_fmsl":385,"id":"CGN","desc":"PARIS CHARLES DE GAULLE VOR-DME"},
{"type":"NDB","hdg_t":143.1,"dist_nm":70.2,"freq":394,"lat":46.95583333,"lon":3.19000000,"rng_nm":25,"alt_fmsl":633,"id":"NV","desc":"Nevers Fourchambault NDB"},
{"type":"NDB","hdg_t":18.8,"dist_nm":70.3,"freq":370,"lat":49.00541700,"lon":2.74019400,"rng_nm":22,"alt_fmsl":389,"id":"CGZ","desc":"CHARLES-DE-GAULLE (PARIS) NDB"},
{"type":"NDB","hdg_t":17.4,"dist_nm":71.4,"freq":356,"lat":49.03102800,"lon":2.70641700,"rng_nm":22,"alt_fmsl":389,"id":"RSY","desc":"CHARLES-DE-GAULLE (PARIS) NDB"},
{"type":"VOR","hdg_t":355.9,"dist_nm":72.1,"freq":111.6,"lat":49.09608400,"lon":2.03588900,"rng_nm":60,"alt_fmsl":318,"id":"PON","desc":"PONTOISE CORMEILLES EN VEXIN VOR"},
{"type":"VOR","hdg_t":180.5,"dist_nm":72.4,"freq":112.1,"lat":46.69141700,"lon":2.14958300,"rng_nm":100,"alt_fmsl":901,"id":"LCA","desc":"LA CHATRE VOR"},
{"type":"VOR","hdg_t":72.9,"dist_nm":75.4,"freq":116,"lat":48.25122200,"lon":3.96313900,"rng_nm":60,"alt_fmsl":861,"id":"TRO","desc":"TROYES BARBEREY VOR"},
{"type":"VOR","hdg_t":331.3,"dist_nm":77.8,"freq":112.4,"lat":49.03169400,"lon":1.22086100,"rng_nm":100,"alt_fmsl":499,"id":"EVX","desc":"EVREUX FAUVILLE VORTAC"},
{"type":"NDB","hdg_t":67.1,"dist_nm":79.8,"freq":320,"lat":48.40027777,"lon":4.00388888,"rng_nm":25,"alt_fmsl":611,"id":"TY","desc":"Troyes Barberey NDB"},
{"type":"NDB","hdg_t":270.5,"dist_nm":80.4,"freq":326,"lat":47.89358300,"lon":0.17138900,"rng_nm":50,"alt_fmsl":0,"id":"LM","desc":"LE MANS NDB"},
{"type":"VOR","hdg_t":9.5,"dist_nm":82.6,"freq":109.2,"lat":49.25527800,"lon":2.51477800,"rng_nm":130,"alt_fmsl":325,"id":"CRL","desc":"CREIL VORTAC"},
{"type":"VOR","hdg_t":309.9,"dist_nm":84.5,"freq":115,"lat":48.79061100,"lon":0.53027800,"rng_nm":60,"alt_fmsl":971,"id":"LGL","desc":"L AIGLE VOR"},
{"type":"VOR","hdg_t":24.3,"dist_nm":85.2,"freq":114.85,"lat":49.18830600,"lon":3.05647200,"rng_nm":60,"alt_fmsl":476,"id":"BSN","desc":"BOURSONNE VOR-DME"},
{"type":"NDB","hdg_t":292.6,"dist_nm":88.8,"freq":380,"lat":48.44972200,"lon":0.11305600,"rng_nm":75,"alt_fmsl":0,"id":"AL","desc":"ALENCON NDB"},
{"type":"NDB","hdg_t":53.2,"dist_nm":91.7,"freq":367,"lat":48.79777777,"lon":4.01611111,"rng_nm":25,"alt_fmsl":482,"id":"VAT","desc":"Chalons Vatry NDB"},
{"type":"VOR","hdg_t":359.7,"dist_nm":92.3,"freq":115.9,"lat":49.43636100,"lon":2.15319400,"rng_nm":50,"alt_fmsl":0,"id":"BVS","desc":"BEAUVAIS VOR"},
{"type":"NDB","hdg_t":171.5,"dist_nm":92.5,"freq":335,"lat":46.37261100,"lon":2.49266700,"rng_nm":50,"alt_fmsl":1049,"id":"MC","desc":"MONTLUCON NDB"},
{"type":"NDB","hdg_t":139.5,"dist_nm":93.2,"freq":324,"lat":46.70588900,"lon":3.63086100,"rng_nm":50,"alt_fmsl":0,"id":"MOU","desc":"MOULINS NDB"},
{"type":"VOR","hdg_t":139.5,"dist_nm":93.2,"freq":116.7,"lat":46.70677800,"lon":3.63166700,"rng_nm":80,"alt_fmsl":699,"id":"MOU","desc":"MOULINS VOR-DME"},
{"type":"VOR","hdg_t":36.5,"dist_nm":93.3,"freq":117.6,"lat":49.13775000,"lon":3.57769400,"rng_nm":100,"alt_fmsl":673,"id":"CTL","desc":"CHATILLON SUR MARNE VOR-DME"},
{"type":"VOR","hdg_t":55.4,"dist_nm":95.4,"freq":111.65,"lat":48.78108300,"lon":4.14694400,"rng_nm":40,"alt_fmsl":538,"id":"CAV","desc":"VATRY VOR-DME"},
{"type":"VOR","hdg_t":15,"dist_nm":95.5,"freq":109.65,"lat":49.43277800,"lon":2.79936100,"rng_nm":130,"alt_fmsl":288,"id":"CPE","desc":"COMPIEGNE VOR-DME"},
{"type":"NDB","hdg_t":259.2,"dist_nm":95.7,"freq":292,"lat":47.57722222,"lon":-0.15138888,"rng_nm":25,"alt_fmsl":305,"id":"AS","desc":"Angers Marce NDB"},
{"type":"NDB","hdg_t":15.2,"dist_nm":95.7,"freq":553,"lat":49.43444400,"lon":2.80611100,"rng_nm":75,"alt_fmsl":0,"id":"CO","desc":"COMPIEGNE NDB"},
{"type":"NDB","hdg_t":356.8,"dist_nm":95.8,"freq":391,"lat":49.49166666,"lon":2.02944444,"rng_nm":25,"alt_fmsl":377,"id":"BV","desc":"Beauvais Tille NDB"},
{"type":"NDB","hdg_t":175.7,"dist_nm":96,"freq":398,"lat":46.30277777,"lon":2.33722222,"rng_nm":25,"alt_fmsl":1450,"id":"LPD","desc":"Montlucon Gueret NDB"},
{"type":"VOR","hdg_t":145.6,"dist_nm":98,"freq":109.6,"lat":46.54133300,"lon":3.49955600,"rng_nm":40,"alt_fmsl":0,"id":"MBY","desc":"MOULINS MONTBEUGNY VOR"}
]
}
