{"success":true,"source":"xp2csv.pl","last_updated":"2013/11/08 14:53:21 UTC"
,"icao":"LFQX","name":"Juvancourt","lat":48.115253,"lon":4.821402,"rwys":1,"ils":0,"index":3023491,"path":"e000n40/e004n48"
,"runways":[
{"len_m":902,"wid_m":49.99,"hdg":70,"surf":"Turf/grass","rwy1":"07","lat1":48.11386828,"lon1":4.81570356,"rwy2":"25","lat2":48.11663772,"lon2":4.82710044}
]
,"navaids":[
{"type":"VOR","hdg_t":125.8,"dist_nm":21.3,"freq":117.3,"lat":47.90630600,"lon":5.24916700,"rng_nm":120,"alt_fmsl":1490,"id":"RLP","desc":"ROLAMPONT VOR-DME"},
{"type":"NDB","hdg_t":6.5,"dist_nm":31,"freq":373,"lat":48.62900000,"lon":4.91066700,"rng_nm":50,"alt_fmsl":0,"id":"SDI","desc":"ST DIZIER NDB"},
{"type":"SDME","hdg_t":4.9,"dist_nm":31.4,"freq":114,"lat":48.63700000,"lon":4.88919400,"rng_nm":50,"alt_fmsl":492,"id":"SDI","desc":"ST DIZIER TACAN"},
{"type":"VOR","hdg_t":283.6,"dist_nm":35.4,"freq":116,"lat":48.25122200,"lon":3.96313900,"rng_nm":60,"alt_fmsl":861,"id":"TRO","desc":"TROYES BARBEREY VOR"},
{"type":"NDB","hdg_t":297.8,"dist_nm":36.9,"freq":320,"lat":48.40027777,"lon":4.00388888,"rng_nm":25,"alt_fmsl":611,"id":"TY","desc":"Troyes Barberey NDB"},
{"type":"NDB","hdg_t":332.7,"dist_nm":43.5,"freq":347,"lat":48.75916666,"lon":4.31888888,"rng_nm":25,"alt_fmsl":604,"id":"CVT","desc":"Chalons Vatry NDB"},
{"type":"NDB","hdg_t":262.3,"dist_nm":45.7,"freq":353,"lat":48.00777777,"lon":3.69611111,"rng_nm":25,"alt_fmsl":545,"id":"CHY","desc":"Chailley NDB"},
{"type":"VOR","hdg_t":326.2,"dist_nm":48.2,"freq":111.65,"lat":48.78108300,"lon":4.14694400,"rng_nm":40,"alt_fmsl":538,"id":"CAV","desc":"VATRY VOR-DME"},
{"type":"VOR","hdg_t":75.7,"dist_nm":51.1,"freq":113,"lat":48.31783300,"lon":6.05941700,"rng_nm":60,"alt_fmsl":1154,"id":"EPL","desc":"EPINAL MIRECOURT VOR"},
{"type":"SDME","hdg_t":167.6,"dist_nm":51.7,"freq":113.5,"lat":47.27194400,"lon":5.09152800,"rng_nm":50,"alt_fmsl":726,"id":"DIJ","desc":"DIJON TACAN"},
{"type":"VOR","hdg_t":167.4,"dist_nm":51.9,"freq":111.45,"lat":47.27077800,"lon":5.09733300,"rng_nm":100,"alt_fmsl":726,"id":"DJL","desc":"DIJON-LONGVIC VOR-DME"},
{"type":"NDB","hdg_t":322.1,"dist_nm":52,"freq":367,"lat":48.79777777,"lon":4.01611111,"rng_nm":25,"alt_fmsl":482,"id":"VAT","desc":"Chalons Vatry NDB"},
{"type":"SDME","hdg_t":57.7,"dist_nm":53.2,"freq":116.8,"lat":48.58363900,"lon":5.95183300,"rng_nm":50,"alt_fmsl":1115,"id":"NAY","desc":"NANCY TACAN"},
{"type":"NDB","hdg_t":258,"dist_nm":54.4,"freq":417,"lat":47.92027777,"lon":3.50222222,"rng_nm":25,"alt_fmsl":505,"id":"AX","desc":"Auxerre Branches NDB"},
{"type":"NDB","hdg_t":148.3,"dist_nm":54.7,"freq":427,"lat":47.33722300,"lon":5.52444500,"rng_nm":50,"alt_fmsl":0,"id":"BRP","desc":"BROYE LES PESMES NDB"},
{"type":"NDB","hdg_t":76.1,"dist_nm":56.5,"freq":419,"lat":48.33250000,"lon":6.19361111,"rng_nm":25,"alt_fmsl":906,"id":"EMT","desc":"Epinal Mirecourt NDB"},
{"type":"NDB","hdg_t":61.8,"dist_nm":59.3,"freq":339,"lat":48.57416666,"lon":6.13444444,"rng_nm":25,"alt_fmsl":971,"id":"NE","desc":"Nancy Essey NDB"},
{"type":"NDB","hdg_t":286.4,"dist_nm":63.6,"freq":277,"lat":48.40611300,"lon":3.29527800,"rng_nm":50,"alt_fmsl":0,"id":"BRY","desc":"BRAY NDB"},
{"type":"VOR","hdg_t":286.5,"dist_nm":63.6,"freq":114.1,"lat":48.40700000,"lon":3.29477800,"rng_nm":100,"alt_fmsl":289,"id":"BRY","desc":"BRAY SUR SEINE VOR-DME"},
{"type":"VOR","hdg_t":112.7,"dist_nm":64.7,"freq":117.1,"lat":47.68827800,"lon":6.29558300,"rng_nm":80,"alt_fmsl":1072,"id":"LUL","desc":"LUXEUIL VOR"},
{"type":"SDME","hdg_t":107.2,"dist_nm":65,"freq":108.2,"lat":47.78316700,"lon":6.35711100,"rng_nm":50,"alt_fmsl":913,"id":"LXI","desc":"LUXEUIL TACAN"},
{"type":"NDB","hdg_t":106.4,"dist_nm":65.5,"freq":363,"lat":47.79658300,"lon":6.37519400,"rng_nm":80,"alt_fmsl":913,"id":"LXI","desc":"LUXEUIL NDB"},
{"type":"NDB","hdg_t":22.8,"dist_nm":65.7,"freq":392,"lat":49.12222300,"lon":5.46888900,"rng_nm":75,"alt_fmsl":0,"id":"VUN","desc":"VERDUN NDB"},
{"type":"NDB","hdg_t":163.7,"dist_nm":70.9,"freq":309,"lat":46.97972222,"lon":5.30527777,"rng_nm":25,"alt_fmsl":604,"id":"DO","desc":"Dole Tavaux NDB"},
{"type":"NDB","hdg_t":26.5,"dist_nm":74.9,"freq":410,"lat":49.22833333,"lon":5.67444444,"rng_nm":25,"alt_fmsl":751,"id":"ETN","desc":"Etain Rouvres NDB"},
{"type":"NDB","hdg_t":131.7,"dist_nm":75.6,"freq":370,"lat":47.26694444,"lon":6.20250000,"rng_nm":25,"alt_fmsl":1348,"id":"BSV","desc":"Besancon la Veze NDB"},
{"type":"VOR","hdg_t":8.8,"dist_nm":77.5,"freq":109.4,"lat":49.39125000,"lon":5.12441700,"rng_nm":100,"alt_fmsl":1076,"id":"MMD","desc":"MONTMEDY-Dun sur Meuse VOR"},
{"type":"VOR","hdg_t":337,"dist_nm":78.1,"freq":112.3,"lat":49.31163900,"lon":4.04536100,"rng_nm":60,"alt_fmsl":335,"id":"REM","desc":"REIMS CHAMPAGNE VORTAC"},
{"type":"NDB","hdg_t":290.3,"dist_nm":78.3,"freq":308,"lat":48.55389000,"lon":2.97861100,"rng_nm":75,"alt_fmsl":0,"id":"MV","desc":"MELUN NDB"},
{"type":"NDB","hdg_t":290.3,"dist_nm":78.3,"freq":434,"lat":48.55392100,"lon":2.97800000,"rng_nm":50,"alt_fmsl":385,"id":"VM","desc":"Melun Villaroche NDB"},
{"type":"NDB","hdg_t":46.9,"dist_nm":78.4,"freq":388,"lat":48.99805555,"lon":6.27138888,"rng_nm":25,"alt_fmsl":876,"id":"LOU","desc":"Metz Nancy Lorrraine NDB"},
{"type":"VOR","hdg_t":321.5,"dist_nm":78.8,"freq":117.6,"lat":49.13775000,"lon":3.57769400,"rng_nm":100,"alt_fmsl":673,"id":"CTL","desc":"CHATILLON SUR MARNE VOR-DME"},
{"type":"VOR","hdg_t":285,"dist_nm":83,"freq":113.6,"lat":48.45577800,"lon":2.81327800,"rng_nm":40,"alt_fmsl":349,"id":"MLN","desc":"MELUN VILLAROCHE VOR-DME"},
{"type":"NDB","hdg_t":179.3,"dist_nm":83.6,"freq":391,"lat":46.72167777,"lon":4.84305555,"rng_nm":25,"alt_fmsl":656,"id":"CC","desc":"Chalon Champforgeuil NDB"},
{"type":"NDB","hdg_t":39,"dist_nm":83.7,"freq":333,"lat":49.19027700,"lon":6.16361100,"rng_nm":75,"alt_fmsl":0,"id":"MZ","desc":"METZ NDB"},
{"type":"NDB","hdg_t":112.5,"dist_nm":84,"freq":289,"lat":47.56166700,"lon":6.73225000,"rng_nm":50,"alt_fmsl":0,"id":"HR","desc":"HERICOURT NDB"},
{"type":"VOR","hdg_t":301.9,"dist_nm":84.4,"freq":112.9,"lat":48.84463900,"lon":3.01386100,"rng_nm":60,"alt_fmsl":486,"id":"CLM","desc":"COULOMMIERS Voisins VOR-DME"},
{"type":"NDB","hdg_t":250.5,"dist_nm":87.7,"freq":405,"lat":47.61083333,"lon":2.78277777,"rng_nm":25,"alt_fmsl":528,"id":"BIC","desc":"Briare Chatillon NDB"},
{"type":"NDB","hdg_t":37.8,"dist_nm":88.8,"freq":354,"lat":49.27638888,"lon":6.20861111,"rng_nm":25,"alt_fmsl":604,"id":"MTZ","desc":"Metz Nancy Lorraine NDB"},
{"type":"VOR","hdg_t":54.5,"dist_nm":91.8,"freq":111.25,"lat":48.98644400,"lon":6.71622200,"rng_nm":100,"alt_fmsl":1057,"id":"GTQ","desc":"GROSTENQUIN VOR-DME"},
{"type":"NDB","hdg_t":112.5,"dist_nm":92.5,"freq":330,"lat":47.50444444,"lon":6.92388888,"rng_nm":25,"alt_fmsl":1283,"id":"MB","desc":"Montbeliard Courcelles NDB"},
{"type":"NDB","hdg_t":192.5,"dist_nm":93,"freq":317,"lat":46.60141700,"lon":4.33138900,"rng_nm":50,"alt_fmsl":0,"id":"MM","desc":"MONTCEAU-LES-MINES NDB"},
{"type":"VOR","hdg_t":313.1,"dist_nm":95.2,"freq":114.85,"lat":49.18830600,"lon":3.05647200,"rng_nm":60,"alt_fmsl":476,"id":"BSN","desc":"BOURSONNE VOR-DME"},
{"type":"VOR","hdg_t":233.7,"dist_nm":96,"freq":113.4,"lat":47.15300000,"lon":2.92936100,"rng_nm":80,"alt_fmsl":631,"id":"NEV","desc":"NEVERS VOR"},
{"type":"NDB","hdg_t":224.2,"dist_nm":96.1,"freq":394,"lat":46.95583333,"lon":3.19000000,"rng_nm":25,"alt_fmsl":633,"id":"NV","desc":"Nevers Fourchambault NDB"},
{"type":"VOR","hdg_t":210.2,"dist_nm":97.4,"freq":116.7,"lat":46.70677800,"lon":3.63166700,"rng_nm":80,"alt_fmsl":699,"id":"MOU","desc":"MOULINS VOR-DME"},
{"type":"NDB","hdg_t":210.2,"dist_nm":97.5,"freq":324,"lat":46.70588900,"lon":3.63086100,"rng_nm":50,"alt_fmsl":0,"id":"MOU","desc":"MOULINS NDB"},
{"type":"NDB","hdg_t":303.5,"dist_nm":98.6,"freq":370,"lat":49.00541700,"lon":2.74019400,"rng_nm":22,"alt_fmsl":389,"id":"CGZ","desc":"CHARLES-DE-GAULLE (PARIS) NDB"},
{"type":"NDB","hdg_t":293.6,"dist_nm":98.8,"freq":349,"lat":48.75308300,"lon":2.53911100,"rng_nm":112,"alt_fmsl":291,"id":"OYE","desc":"ORLY (PARIS) NDB"},
{"type":"NDB","hdg_t":28.7,"dist_nm":99.9,"freq":346,"lat":49.56777800,"lon":6.05416700,"rng_nm":25,"alt_fmsl":0,"id":"WLU","desc":"LUXEMBOURG NDB"}
]
}
