{"success":true,"source":"xp2csv.pl","last_updated":"2013/11/08 14:53:21 UTC"
,"icao":"LFRF","name":"Granville","lat":48.8803815,"lon":-1.563361,"rwys":2,"ils":0,"index":2925241,"path":"w010n40/w002n48"
,"runways":[
{"len_m":964,"wid_m":28.96,"hdg":64,"surf":"Asphalt","rwy1":"07","lat1":48.88027000,"lon1":-1.57146500,"rwy2":"25","lat2":48.88399400,"lon2":-1.55958900},
{"len_m":304,"wid_m":46.02,"hdg":164,"surf":"Turf/grass","rwy1":"17","lat1":48.87995200,"lon1":-1.56175100,"rwy2":"35","lat2":48.87731000,"lon2":-1.56063900}
]
,"radios":[
{"type":"CTAF","freq":118.1,"desc":"GRANVILLE MULT"}
]
,"navaids":[
{"type":"VOR","hdg_t":229.5,"dist_nm":27.1,"freq":114.3,"lat":48.58605700,"lon":-2.08232900,"rng_nm":80,"alt_fmsl":213,"id":"DIN","desc":"DINARD PLEURTUIT SAINT MALO VOR-DME"},
{"type":"VOR","hdg_t":317.2,"dist_nm":27.9,"freq":112.2,"lat":49.22111100,"lon":-2.04611100,"rng_nm":130,"alt_fmsl":276,"id":"JSY","desc":"JERSEY VOR-DME"},
{"type":"NDB","hdg_t":219.3,"dist_nm":30.6,"freq":390,"lat":48.48402000,"lon":-2.05049000,"rng_nm":50,"alt_fmsl":217,"id":"DR","desc":"Dinard NDB"},
{"type":"NDB","hdg_t":307.2,"dist_nm":32.4,"freq":329,"lat":49.20591400,"lon":-2.21992500,"rng_nm":25,"alt_fmsl":288,"id":"JW","desc":"Jersey NDB"},
{"type":"NDB","hdg_t":9.3,"dist_nm":46,"freq":373,"lat":49.63777777,"lon":-1.37222222,"rng_nm":25,"alt_fmsl":377,"id":"MP","desc":"Cherbourg Maupertus NDB"},
{"type":"VOR","hdg_t":67.6,"dist_nm":47.1,"freq":114.45,"lat":49.17319444,"lon":-0.45527778,"rng_nm":80,"alt_fmsl":275,"id":"CEN","desc":"CAEN CARPIQUET VOR"},
{"type":"VOR","hdg_t":188.3,"dist_nm":49.2,"freq":109.25,"lat":48.06925000,"lon":-1.74166700,"rng_nm":150,"alt_fmsl":126,"id":"REN","desc":"RENNES SAINT JACQUES VOR-DME"},
{"type":"NDB","hdg_t":180.9,"dist_nm":49.6,"freq":349,"lat":48.05277777,"lon":-1.58444444,"rng_nm":25,"alt_fmsl":167,"id":"RS","desc":"Rennes Saint Jacques NDB"},
{"type":"NDB","hdg_t":73.4,"dist_nm":51,"freq":404,"lat":49.11566700,"lon":-0.32125000,"rng_nm":25,"alt_fmsl":0,"id":"CNE","desc":"CAEN NDB"},
{"type":"NDB","hdg_t":249.3,"dist_nm":51.8,"freq":353,"lat":48.56955000,"lon":-2.78033000,"rng_nm":50,"alt_fmsl":453,"id":"SB","desc":"Saint Brieuc NDB"},
{"type":"NDB","hdg_t":309.6,"dist_nm":52.7,"freq":361,"lat":49.43649400,"lon":-2.60177800,"rng_nm":30,"alt_fmsl":0,"id":"GUY","desc":"GUERNSEY NDB"},
{"type":"VOR","hdg_t":309.6,"dist_nm":52.8,"freq":109.4,"lat":49.43709700,"lon":-2.60205800,"rng_nm":130,"alt_fmsl":355,"id":"GUR","desc":"GUERNSEY VOR-DME"},
{"type":"NDB","hdg_t":308.5,"dist_nm":53.8,"freq":361,"lat":49.43450800,"lon":-2.63951400,"rng_nm":30,"alt_fmsl":0,"id":"GRB","desc":"GUERNSEY NDB"},
{"type":"NDB","hdg_t":333.5,"dist_nm":55.6,"freq":383,"lat":49.70887800,"lon":-2.19970000,"rng_nm":30,"alt_fmsl":331,"id":"ALD","desc":"ALDERNEY NDB"},
{"type":"NDB","hdg_t":146.6,"dist_nm":64.7,"freq":401,"lat":47.97611111,"lon":-0.67916666,"rng_nm":25,"alt_fmsl":223,"id":"LA","desc":"Laval Entrammes NDB"},
{"type":"NDB","hdg_t":262.6,"dist_nm":69.8,"freq":345,"lat":48.71927800,"lon":-3.30777800,"rng_nm":50,"alt_fmsl":297,"id":"LN","desc":"LANNION NDB"},
{"type":"NDB","hdg_t":225,"dist_nm":69.9,"freq":377,"lat":48.05111111,"lon":-2.79444444,"rng_nm":25,"alt_fmsl":394,"id":"PNT","desc":"Pontivy NDB"},
{"type":"NDB","hdg_t":110.5,"dist_nm":71.5,"freq":380,"lat":48.44972200,"lon":0.11305600,"rng_nm":75,"alt_fmsl":0,"id":"AL","desc":"ALENCON NDB"},
{"type":"VOR","hdg_t":70,"dist_nm":78.3,"freq":110.2,"lat":49.31075000,"lon":0.31272200,"rng_nm":60,"alt_fmsl":497,"id":"DVL","desc":"DEAUVILLE SAINT GATIEN VOR"},
{"type":"NDB","hdg_t":213.8,"dist_nm":79.8,"freq":342,"lat":47.76944444,"lon":-2.66166667,"rng_nm":25,"alt_fmsl":0,"id":"VA","desc":"Meucon NDB"},
{"type":"NDB","hdg_t":57.2,"dist_nm":80.9,"freq":346,"lat":49.59722222,"lon":0.18111111,"rng_nm":25,"alt_fmsl":308,"id":"LHO","desc":"Le Havre Octeville NDB"},
{"type":"VOR","hdg_t":92.9,"dist_nm":83.1,"freq":115,"lat":48.79061100,"lon":0.53027800,"rng_nm":60,"alt_fmsl":971,"id":"LGL","desc":"L AIGLE VOR"},
{"type":"VOR","hdg_t":160.2,"dist_nm":85.5,"freq":113,"lat":47.53686100,"lon":-0.85183300,"rng_nm":120,"alt_fmsl":304,"id":"ANG","desc":"ANGERS VOR"},
{"type":"VOR","hdg_t":248.7,"dist_nm":87.6,"freq":112.5,"lat":48.33263900,"lon":-3.60247200,"rng_nm":60,"alt_fmsl":588,"id":"ARE","desc":"MONTS D ARREE VOR"},
{"type":"NDB","hdg_t":155.4,"dist_nm":88.4,"freq":392,"lat":47.53667000,"lon":-0.65806000,"rng_nm":50,"alt_fmsl":187,"id":"AS","desc":"Angers NDB"},
{"type":"NDB","hdg_t":261.6,"dist_nm":88.4,"freq":371,"lat":48.64669400,"lon":-3.76269400,"rng_nm":22,"alt_fmsl":277,"id":"MLX","desc":"MORLAIX NDB"},
{"type":"NDB","hdg_t":129.8,"dist_nm":91.2,"freq":326,"lat":47.89358300,"lon":0.17138900,"rng_nm":50,"alt_fmsl":0,"id":"LM","desc":"LE MANS NDB"},
{"type":"NDB","hdg_t":242.7,"dist_nm":92.1,"freq":395,"lat":48.16000000,"lon":-3.60250000,"rng_nm":25,"alt_fmsl":722,"id":"GSG","desc":"Guiscriff Scaer NDB"},
{"type":"NDB","hdg_t":191.9,"dist_nm":94.8,"freq":398,"lat":47.33375000,"lon":-2.04450000,"rng_nm":22,"alt_fmsl":12,"id":"MT","desc":"SAINT NAZAIRE NDB"},
{"type":"NDB","hdg_t":143.5,"dist_nm":96.5,"freq":292,"lat":47.57722222,"lon":-0.15138888,"rng_nm":25,"alt_fmsl":305,"id":"AS","desc":"Angers Marce NDB"}
]
}
