{"success":true,"source":"xp2csv.pl","last_updated":"2013/11/08 14:53:21 UTC"
,"icao":"LFRI","name":"La Roche Sur Yon Les Ajoncs","lat":46.701944,"lon":-1.378625,"rwys":1,"ils":1,"index":2925098,"path":"w010n40/w002n46"
,"runways":[
{"len_m":1550,"wid_m":29.87,"hdg":101,"surf":"Asphalt","rwy1":"10","lat1":46.70331900,"lon1":-1.38856100,"rwy2":"28","lat2":46.70056900,"lon2":-1.36868900}
]
,"radios":[
{"type":"TWR","freq":119.9,"desc":"LA ROCHE INFO"},
{"type":"APP","freq":130.27,"desc":"NANTES APP"}
]
,"ils":[
{"type":"ILS","freq":111.9,"lat":46.70358100,"lon":-1.39044200,"rng_nm":18,"alt_fmsl":281,"hdg":281.41,"id":"LRY","rwy":"28","desc":"ILS-cat-I"},
{"type":"GS","freq":111.9,"lat":46.70066700,"lon":-1.37606700,"rng_nm":10,"alt_fmsl":335,"id":"LRY","rwy":"28","desc":"GS","gs":3},
{"type":"DME","freq":111.9,"lat":46.70067500,"lon":-1.37606700,"rng_nm":18,"alt_fmsl":335,"id":"LRY","rwy":"28","desc":"DME-ILS"}
]
,"navaids":[
{"type":"NDB","hdg_t":101.3,"dist_nm":3.8,"freq":334,"lat":46.68911100,"lon":-1.28630600,"rng_nm":25,"alt_fmsl":302,"id":"YN","desc":"LA ROCHE SUR YON NDB"},
{"type":"NDB","hdg_t":328.9,"dist_nm":24.6,"freq":369,"lat":47.05280600,"lon":-1.68783300,"rng_nm":75,"alt_fmsl":89,"id":"GL","desc":"NANTES NDB"},
{"type":"VOR","hdg_t":340.8,"dist_nm":29.1,"freq":115.5,"lat":47.16085600,"lon":-1.61295600,"rng_nm":150,"alt_fmsl":92,"id":"NTS","desc":"NANTES ATLANTIQUE VOR-DME"},
{"type":"NDB","hdg_t":158.9,"dist_nm":33.7,"freq":322,"lat":46.17609000,"lon":-1.08719000,"rng_nm":50,"alt_fmsl":72,"id":"RL","desc":"La Rochelle NDB"},
{"type":"NDB","hdg_t":40.2,"dist_nm":34.1,"freq":357,"lat":47.13527777,"lon":-0.83916666,"rng_nm":25,"alt_fmsl":404,"id":"LP","desc":"Cholet le Pontreau NDB"},
{"type":"NDB","hdg_t":324.4,"dist_nm":46.7,"freq":398,"lat":47.33375000,"lon":-2.04450000,"rng_nm":22,"alt_fmsl":12,"id":"MT","desc":"SAINT NAZAIRE NDB"},
{"type":"NDB","hdg_t":115.5,"dist_nm":49.6,"freq":329,"lat":46.34027000,"lon":-0.30027777,"rng_nm":25,"alt_fmsl":344,"id":"NS","desc":"Niort Souche NDB"},
{"type":"NDB","hdg_t":161.3,"dist_nm":51.5,"freq":396,"lat":45.88805555,"lon":-0.98611111,"rng_nm":25,"alt_fmsl":49,"id":"ROC","desc":"Rochefort Saint Agnan NDB"},
{"type":"VOR","hdg_t":23.1,"dist_nm":54.5,"freq":113,"lat":47.53686100,"lon":-0.85183300,"rng_nm":120,"alt_fmsl":304,"id":"ANG","desc":"ANGERS VOR"},
{"type":"NDB","hdg_t":30.2,"dist_nm":58.1,"freq":392,"lat":47.53667000,"lon":-0.65806000,"rng_nm":50,"alt_fmsl":187,"id":"AS","desc":"Angers NDB"},
{"type":"NDB","hdg_t":56.7,"dist_nm":61.7,"freq":372,"lat":47.25950000,"lon":-0.11436100,"rng_nm":50,"alt_fmsl":0,"id":"SR","desc":"SAUMUR NDB"},
{"type":"NDB","hdg_t":161.6,"dist_nm":68.5,"freq":427,"lat":45.61583333,"lon":-0.86666666,"rng_nm":25,"alt_fmsl":92,"id":"RY","desc":"Royan Medis NDB"},
{"type":"VOR","hdg_t":95.3,"dist_nm":69.6,"freq":113.3,"lat":46.58100000,"lon":0.29819400,"rng_nm":60,"alt_fmsl":441,"id":"POI","desc":"POITIERS BIARD VOR"},
{"type":"NDB","hdg_t":43.2,"dist_nm":72.7,"freq":292,"lat":47.57722222,"lon":-0.15138888,"rng_nm":25,"alt_fmsl":305,"id":"AS","desc":"Angers Marce NDB"},
{"type":"NDB","hdg_t":89.2,"dist_nm":73.7,"freq":363,"lat":46.70394400,"lon":0.40697200,"rng_nm":35,"alt_fmsl":316,"id":"PI","desc":"POITIERS NDB"},
{"type":"NDB","hdg_t":143.8,"dist_nm":76.4,"freq":354,"lat":45.66930600,"lon":-0.30619400,"rng_nm":75,"alt_fmsl":113,"id":"CGC","desc":"COGNAC NDB"},
{"type":"VOR","hdg_t":144.2,"dist_nm":76.7,"freq":114.65,"lat":45.65955600,"lon":-0.31163900,"rng_nm":100,"alt_fmsl":106,"id":"CNA","desc":"COGNAC CHATEAUBERNARD VOR-DME"},
{"type":"SDME","hdg_t":144,"dist_nm":76.7,"freq":116.2,"lat":45.66147200,"lon":-0.30786100,"rng_nm":160,"alt_fmsl":93,"id":"CGC","desc":"COGNAC TACAN"},
{"type":"NDB","hdg_t":138.2,"dist_nm":76.8,"freq":346,"lat":45.74027777,"lon":-0.16111111,"rng_nm":25,"alt_fmsl":180,"id":"OC","desc":"Cognac Chateaubernard NDB"},
{"type":"NDB","hdg_t":354.1,"dist_nm":81.5,"freq":349,"lat":48.05277777,"lon":-1.58444444,"rng_nm":25,"alt_fmsl":167,"id":"RS","desc":"Rennes Saint Jacques NDB"},
{"type":"NDB","hdg_t":20.2,"dist_nm":81.6,"freq":401,"lat":47.97611111,"lon":-0.67916666,"rng_nm":25,"alt_fmsl":223,"id":"LA","desc":"Laval Entrammes NDB"},
{"type":"NDB","hdg_t":321.1,"dist_nm":82.8,"freq":342,"lat":47.76944444,"lon":-2.66166667,"rng_nm":25,"alt_fmsl":0,"id":"VA","desc":"Meucon NDB"},
{"type":"VOR","hdg_t":349.9,"dist_nm":83.4,"freq":109.25,"lat":48.06925000,"lon":-1.74166700,"rng_nm":150,"alt_fmsl":126,"id":"REN","desc":"RENNES SAINT JACQUES VOR-DME"},
{"type":"NDB","hdg_t":40.9,"dist_nm":95.5,"freq":326,"lat":47.89358300,"lon":0.17138900,"rng_nm":50,"alt_fmsl":0,"id":"LM","desc":"LE MANS NDB"},
{"type":"NDB","hdg_t":127.6,"dist_nm":95.9,"freq":404,"lat":45.71055555,"lon":0.42694444,"rng_nm":25,"alt_fmsl":397,"id":"AGO","desc":"Angouleme Brie Champniers NDB"},
{"type":"SDME","hdg_t":62.6,"dist_nm":96.7,"freq":113.8,"lat":47.42218300,"lon":0.73089200,"rng_nm":150,"alt_fmsl":329,"id":"TUR","desc":"TOURS TACAN"},
{"type":"NDB","hdg_t":325,"dist_nm":99.4,"freq":377,"lat":48.05111111,"lon":-2.79444444,"rng_nm":25,"alt_fmsl":394,"id":"PNT","desc":"Pontivy NDB"},
{"type":"NDB","hdg_t":159.2,"dist_nm":99.5,"freq":361,"lat":45.14750000,"lon":-0.54991700,"rng_nm":25,"alt_fmsl":155,"id":"NB","desc":"BORDEAUX NDB"}
]
}
