{"success":true,"source":"xp2csv.pl","last_updated":"2013/11/08 14:53:21 UTC"
,"icao":"LFSJ","name":"Sedan Douzy","lat":49.6591973333333,"lon":5.03882033333333,"rwys":3,"ils":0,"index":3039976,"path":"e000n40/e005n49"
,"runways":[
{"len_m":1103,"wid_m":60.05,"hdg":255,"surf":"Turf/grass","rwy1":"26R","lat1":49.66212772,"lon1":5.04637797,"rwy2":"08L","lat2":49.65956628,"lon2":5.03161003},
{"len_m":802,"wid_m":29.87,"hdg":255,"surf":"Asphalt","rwy1":"26L","lat1":49.66099144,"lon1":5.04575408,"rwy2":"08R","lat2":49.65912856,"lon2":5.03501392},
{"len_m":675,"wid_m":99.97,"hdg":8,"surf":"Turf/grass","rwy1":"01","lat1":49.65367807,"lon1":5.03643021,"rwy2":"19","lat2":49.65969193,"lon2":5.03773579}
]
,"navaids":[
{"type":"VOR","hdg_t":168.2,"dist_nm":16.4,"freq":109.4,"lat":49.39125000,"lon":5.12441700,"rng_nm":100,"alt_fmsl":1076,"id":"MMD","desc":"MONTMEDY-Dun sur Meuse VOR"},
{"type":"NDB","hdg_t":295.4,"dist_nm":21.6,"freq":379,"lat":49.81305555,"lon":4.53527777,"rng_nm":25,"alt_fmsl":581,"id":"CZ","desc":"Charleville Mezieres NDB"},
{"type":"NDB","hdg_t":135.8,"dist_nm":35.9,"freq":410,"lat":49.22833333,"lon":5.67444444,"rng_nm":25,"alt_fmsl":751,"id":"ETN","desc":"Etain Rouvres NDB"},
{"type":"NDB","hdg_t":152.2,"dist_nm":36.3,"freq":392,"lat":49.12222300,"lon":5.46888900,"rng_nm":75,"alt_fmsl":0,"id":"VUN","desc":"VERDUN NDB"},
{"type":"SDME","hdg_t":336.9,"dist_nm":38,"freq":111.5,"lat":50.24138900,"lon":4.65305600,"rng_nm":100,"alt_fmsl":954,"id":"BFS","desc":"FLORENNES TACAN"},
{"type":"NDB","hdg_t":97.5,"dist_nm":39.9,"freq":346,"lat":49.56777800,"lon":6.05416700,"rng_nm":25,"alt_fmsl":0,"id":"WLU","desc":"LUXEMBOURG NDB"},
{"type":"NDB","hdg_t":73.6,"dist_nm":44.1,"freq":307,"lat":49.86138900,"lon":6.12972200,"rng_nm":50,"alt_fmsl":0,"id":"DIK","desc":"DIEKIRCH NDB"},
{"type":"VOR","hdg_t":73.6,"dist_nm":44.1,"freq":114.4,"lat":49.86138900,"lon":6.12972200,"rng_nm":70,"alt_fmsl":1109,"id":"DIK","desc":"DIEKIRCH VOR-DME"},
{"type":"VOR","hdg_t":242.1,"dist_nm":44.1,"freq":112.3,"lat":49.31163900,"lon":4.04536100,"rng_nm":60,"alt_fmsl":335,"id":"REM","desc":"REIMS CHAMPAGNE VORTAC"},
{"type":"NDB","hdg_t":93.1,"dist_nm":44.4,"freq":404,"lat":49.61333300,"lon":6.17500000,"rng_nm":50,"alt_fmsl":0,"id":"LW","desc":"Luxembourg NDB"},
{"type":"VOR","hdg_t":90.9,"dist_nm":47.1,"freq":112.25,"lat":49.63944400,"lon":6.24722200,"rng_nm":25,"alt_fmsl":1234,"id":"LUX","desc":"LUXEMBOURG VOR-DME"},
{"type":"NDB","hdg_t":90.8,"dist_nm":47.2,"freq":318,"lat":49.64110900,"lon":6.24916600,"rng_nm":150,"alt_fmsl":0,"id":"LE","desc":"LUXEMBOURG NDB"},
{"type":"NDB","hdg_t":116.2,"dist_nm":51.2,"freq":354,"lat":49.27638888,"lon":6.20861111,"rng_nm":25,"alt_fmsl":604,"id":"MTZ","desc":"Metz Nancy Lorraine NDB"},
{"type":"NDB","hdg_t":88.1,"dist_nm":51.3,"freq":368,"lat":49.67972200,"lon":6.35527800,"rng_nm":25,"alt_fmsl":0,"id":"ELU","desc":"LUXEMBOURG NDB"},
{"type":"NDB","hdg_t":122.1,"dist_nm":52.2,"freq":333,"lat":49.19027700,"lon":6.16361100,"rng_nm":75,"alt_fmsl":0,"id":"MZ","desc":"METZ NDB"},
{"type":"VOR","hdg_t":334.4,"dist_nm":53,"freq":115.7,"lat":50.45388900,"lon":4.44138900,"rng_nm":30,"alt_fmsl":654,"id":"GSY","desc":"GOSLY VOR-DME"},
{"type":"NDB","hdg_t":336.4,"dist_nm":53.1,"freq":389,"lat":50.46888900,"lon":4.48472200,"rng_nm":15,"alt_fmsl":0,"id":"CC","desc":"CHARLEROI LCTR NDB"},
{"type":"NDB","hdg_t":339.6,"dist_nm":53.2,"freq":323,"lat":50.48944400,"lon":4.55527800,"rng_nm":50,"alt_fmsl":0,"id":"ONC","desc":"CHARLEROI NDB"},
{"type":"VOR","hdg_t":23.5,"dist_nm":56.1,"freq":113.1,"lat":50.51472200,"lon":5.62333300,"rng_nm":60,"alt_fmsl":966,"id":"SPI","desc":"SPRIMONT VOR-DME"},
{"type":"NDB","hdg_t":34.1,"dist_nm":59.6,"freq":386,"lat":50.47805600,"lon":5.91305600,"rng_nm":10,"alt_fmsl":1542,"id":"SLV","desc":"SPA NDB"},
{"type":"NDB","hdg_t":207.9,"dist_nm":61,"freq":347,"lat":48.75916666,"lon":4.31888888,"rng_nm":25,"alt_fmsl":604,"id":"CVT","desc":"Chalons Vatry NDB"},
{"type":"VOR","hdg_t":24.7,"dist_nm":61.3,"freq":112.8,"lat":50.58583300,"lon":5.71027800,"rng_nm":60,"alt_fmsl":811,"id":"LNO","desc":"OLNO VOR-DME"},
{"type":"SDME","hdg_t":185.5,"dist_nm":61.6,"freq":114,"lat":48.63700000,"lon":4.88919400,"rng_nm":50,"alt_fmsl":492,"id":"SDI","desc":"ST DIZIER TACAN"},
{"type":"NDB","hdg_t":15.3,"dist_nm":61.7,"freq":348,"lat":50.65009200,"lon":5.46676900,"rng_nm":25,"alt_fmsl":550,"id":"LG","desc":"LIEGE NDB"},
{"type":"VOR","hdg_t":69.1,"dist_nm":61.8,"freq":115.3,"lat":50.01586100,"lon":6.53178900,"rng_nm":60,"alt_fmsl":1388,"id":"NTM","desc":"NATTENHEIM VORTAC"},
{"type":"NDB","hdg_t":184.7,"dist_nm":62,"freq":373,"lat":48.62900000,"lon":4.91066700,"rng_nm":50,"alt_fmsl":0,"id":"SDI","desc":"ST DIZIER NDB"},
{"type":"VOR","hdg_t":15.4,"dist_nm":62,"freq":115.45,"lat":50.65388900,"lon":5.47055600,"rng_nm":25,"alt_fmsl":698,"id":"LGE","desc":"LIEGE VOR-DME"},
{"type":"NDB","hdg_t":128.9,"dist_nm":62.5,"freq":388,"lat":48.99805555,"lon":6.27138888,"rng_nm":25,"alt_fmsl":876,"id":"LOU","desc":"Metz Nancy Lorrraine NDB"},
{"type":"VOR","hdg_t":213.9,"dist_nm":63.3,"freq":111.65,"lat":48.78108300,"lon":4.14694400,"rng_nm":40,"alt_fmsl":538,"id":"CAV","desc":"VATRY VOR-DME"},
{"type":"VOR","hdg_t":241.8,"dist_nm":65.2,"freq":117.6,"lat":49.13775000,"lon":3.57769400,"rng_nm":100,"alt_fmsl":673,"id":"CTL","desc":"CHATILLON SUR MARNE VOR-DME"},
{"type":"NDB","hdg_t":218.2,"dist_nm":65.5,"freq":367,"lat":48.79777777,"lon":4.01611111,"rng_nm":25,"alt_fmsl":482,"id":"VAT","desc":"Chalons Vatry NDB"},
{"type":"NDB","hdg_t":17.2,"dist_nm":65.6,"freq":290,"lat":50.70111100,"lon":5.54916700,"rng_nm":25,"alt_fmsl":698,"id":"ONL","desc":"LIEGE NDB"},
{"type":"SDME","hdg_t":351.1,"dist_nm":66.7,"freq":116,"lat":50.75638900,"lon":4.76805600,"rng_nm":100,"alt_fmsl":370,"id":"BBE","desc":"BEAUVECHAIN TACAN"},
{"type":"VOR","hdg_t":346.9,"dist_nm":67.2,"freq":117.55,"lat":50.74944400,"lon":4.64166700,"rng_nm":40,"alt_fmsl":335,"id":"HUL","desc":"HULDENBERG VOR-DME"},
{"type":"SDME","hdg_t":72.7,"dist_nm":67.2,"freq":109.5,"lat":49.97899400,"lon":6.69769700,"rng_nm":60,"alt_fmsl":1161,"id":"SPA","desc":"SPANGDAHLEM TACAN"},
{"type":"NDB","hdg_t":357.1,"dist_nm":67.5,"freq":212,"lat":50.78277600,"lon":4.95111100,"rng_nm":50,"alt_fmsl":0,"id":"TN","desc":"GOETSENHOVEN NDB"},
{"type":"NDB","hdg_t":4.7,"dist_nm":67.6,"freq":510,"lat":50.78075000,"lon":5.18706700,"rng_nm":50,"alt_fmsl":230,"id":"ST","desc":"St Truiden NDB"},
{"type":"VOR","hdg_t":4.9,"dist_nm":68.4,"freq":109.65,"lat":50.79365158,"lon":5.19530010,"rng_nm":60,"alt_fmsl":223,"id":"BVG","desc":"Bevingen VORTAC"},
{"type":"NDB","hdg_t":335.4,"dist_nm":68.5,"freq":283,"lat":50.69472100,"lon":4.29222200,"rng_nm":50,"alt_fmsl":0,"id":"BUS","desc":"BRESSY NDB"},
{"type":"NDB","hdg_t":79.2,"dist_nm":68.9,"freq":474,"lat":49.85916500,"lon":6.78305600,"rng_nm":150,"alt_fmsl":0,"id":"TX","desc":"TRIER NDB"},
{"type":"VOR","hdg_t":320.1,"dist_nm":72,"freq":113.2,"lat":50.57388900,"lon":3.83277800,"rng_nm":60,"alt_fmsl":221,"id":"CIV","desc":"CHIEVRES VOR"},
{"type":"VOR","hdg_t":2.8,"dist_nm":73.2,"freq":112.05,"lat":50.87666700,"lon":5.13444400,"rng_nm":100,"alt_fmsl":187,"id":"FLO","desc":"FLORA VOR-DME"},
{"type":"NDB","hdg_t":342.7,"dist_nm":73.5,"freq":314,"lat":50.82694400,"lon":4.46694400,"rng_nm":25,"alt_fmsl":0,"id":"OZ","desc":"BRUSSELS NDB"},
{"type":"SDME","hdg_t":150.5,"dist_nm":73.9,"freq":116.8,"lat":48.58363900,"lon":5.95183300,"rng_nm":50,"alt_fmsl":1115,"id":"NAY","desc":"NANCY TACAN"},
{"type":"NDB","hdg_t":280.3,"dist_nm":75,"freq":382,"lat":49.86750000,"lon":3.13722200,"rng_nm":75,"alt_fmsl":0,"id":"PM","desc":"PERONNE ST QUENTIN NDB"},
{"type":"NDB","hdg_t":25.2,"dist_nm":76.4,"freq":383,"lat":50.80732200,"lon":5.89546100,"rng_nm":25,"alt_fmsl":492,"id":"GUL","desc":"GULL NDB"},
{"type":"VOR","hdg_t":345.7,"dist_nm":77.1,"freq":114.6,"lat":50.90222200,"lon":4.53805600,"rng_nm":100,"alt_fmsl":187,"id":"BUB","desc":"BRUSSELS VOR-DME"},
{"type":"VOR","hdg_t":120.8,"dist_nm":77.2,"freq":111.25,"lat":48.98644400,"lon":6.71622200,"rng_nm":100,"alt_fmsl":1057,"id":"GTQ","desc":"GROSTENQUIN VOR-DME"},
{"type":"NDB","hdg_t":303.1,"dist_nm":77.3,"freq":317,"lat":50.35194444,"lon":3.35388888,"rng_nm":25,"alt_fmsl":108,"id":"VS","desc":"Valencienne Denain NDB"},
{"type":"NDB","hdg_t":348,"dist_nm":77.4,"freq":293,"lat":50.92027800,"lon":4.61638900,"rng_nm":25,"alt_fmsl":0,"id":"OB","desc":"BRUSSELS NDB"},
{"type":"NDB","hdg_t":146,"dist_nm":78.1,"freq":339,"lat":48.57416666,"lon":6.13444444,"rng_nm":25,"alt_fmsl":971,"id":"NE","desc":"Nancy Essey NDB"},
{"type":"NDB","hdg_t":347.5,"dist_nm":78.7,"freq":402,"lat":50.93861100,"lon":4.59222200,"rng_nm":25,"alt_fmsl":0,"id":"OP","desc":"Brussels NDB"},
{"type":"VOR","hdg_t":295.7,"dist_nm":80.7,"freq":112.6,"lat":50.22813900,"lon":3.15150000,"rng_nm":80,"alt_fmsl":299,"id":"CMB","desc":"CAMBRAI EPINOY VORTAC"},
{"type":"VOR","hdg_t":335.5,"dist_nm":82.6,"freq":114.9,"lat":50.90777800,"lon":4.13888900,"rng_nm":40,"alt_fmsl":284,"id":"AFI","desc":"AFFLIGEM VOR-DME"},
{"type":"VOR","hdg_t":250.7,"dist_nm":82.6,"freq":114.85,"lat":49.18830600,"lon":3.05647200,"rng_nm":60,"alt_fmsl":476,"id":"BSN","desc":"BOURSONNE VOR-DME"},
{"type":"NDB","hdg_t":332.4,"dist_nm":83,"freq":393,"lat":50.88028000,"lon":4.02888900,"rng_nm":50,"alt_fmsl":0,"id":"DEN","desc":"DENDER NDB"},
{"type":"SDME","hdg_t":67.6,"dist_nm":84.6,"freq":117.1,"lat":50.17866700,"lon":7.06950000,"rng_nm":50,"alt_fmsl":1618,"id":"BUE","desc":"BUCHEL TACAN"},
{"type":"NDB","hdg_t":107.1,"dist_nm":85.6,"freq":343,"lat":49.21885300,"lon":7.11834400,"rng_nm":40,"alt_fmsl":1058,"id":"SBN","desc":"SAARBRUCKEN NDB"},
{"type":"SDME","hdg_t":107.4,"dist_nm":85.6,"freq":116.75,"lat":49.21245800,"lon":7.11606700,"rng_nm":25,"alt_fmsl":1088,"id":"SAD","desc":"SAARBRUCKEN DME"},
{"type":"NDB","hdg_t":353.4,"dist_nm":85.7,"freq":341,"lat":51.07694600,"lon":4.77944400,"rng_nm":50,"alt_fmsl":0,"id":"BUN","desc":"BRUNO NDB"},
{"type":"NDB","hdg_t":208.7,"dist_nm":85.9,"freq":320,"lat":48.40027777,"lon":4.00388888,"rng_nm":25,"alt_fmsl":611,"id":"TY","desc":"Troyes Barberey NDB"},
{"type":"VOR","hdg_t":23.8,"dist_nm":86.4,"freq":108.6,"lat":50.97194200,"lon":5.96042800,"rng_nm":40,"alt_fmsl":283,"id":"MAS","desc":"MAASTRICHT VOR-DME"},
{"type":"SDME","hdg_t":25.9,"dist_nm":87.3,"freq":108.1,"lat":50.96333300,"lon":6.04519700,"rng_nm":40,"alt_fmsl":327,"id":"GIX","desc":"GEILENKIRCHEN TACAN"},
{"type":"NDB","hdg_t":21.2,"dist_nm":87.8,"freq":373,"lat":51.01936400,"lon":5.87834400,"rng_nm":15,"alt_fmsl":150,"id":"NW","desc":"MAASTRICHT NDB"},
{"type":"VOR","hdg_t":355.1,"dist_nm":87.9,"freq":110.6,"lat":51.11861100,"lon":4.84194400,"rng_nm":25,"alt_fmsl":69,"id":"BUN","desc":"BRUNO VOR-DME"},
{"type":"NDB","hdg_t":262,"dist_nm":88.2,"freq":553,"lat":49.43444400,"lon":2.80611100,"rng_nm":75,"alt_fmsl":0,"id":"CO","desc":"COMPIEGNE NDB"},
{"type":"SDME","hdg_t":77.9,"dist_nm":88.3,"freq":116.95,"lat":49.94556900,"lon":7.26766900,"rng_nm":25,"alt_fmsl":1716,"id":"HND","desc":"HAHN DME"},
{"type":"VOR","hdg_t":262,"dist_nm":88.5,"freq":109.65,"lat":49.43277800,"lon":2.79936100,"rng_nm":130,"alt_fmsl":288,"id":"CPE","desc":"COMPIEGNE VOR-DME"},
{"type":"NDB","hdg_t":283.2,"dist_nm":88.6,"freq":321,"lat":49.97625555,"lon":2.80941666,"rng_nm":150,"alt_fmsl":361,"id":"ABY","desc":"Albert Bray NDB"},
{"type":"NDB","hdg_t":77.2,"dist_nm":89,"freq":376,"lat":49.96488300,"lon":7.28087500,"rng_nm":25,"alt_fmsl":1649,"id":"HAN","desc":"HAHN NDB"},
{"type":"NDB","hdg_t":106.4,"dist_nm":89.4,"freq":360,"lat":49.21776900,"lon":7.21951100,"rng_nm":25,"alt_fmsl":0,"id":"SR","desc":"ENSHEIM NDB"},
{"type":"NDB","hdg_t":308.8,"dist_nm":89.6,"freq":332,"lat":50.58166500,"lon":3.21333300,"rng_nm":25,"alt_fmsl":140,"id":"LL","desc":"Lille NDB"},
{"type":"VOR","hdg_t":153,"dist_nm":90,"freq":113,"lat":48.31783300,"lon":6.05941700,"rng_nm":60,"alt_fmsl":1154,"id":"EPL","desc":"EPINAL MIRECOURT VOR"},
{"type":"VOR","hdg_t":81.9,"dist_nm":91.4,"freq":117.5,"lat":49.85023900,"lon":7.36957800,"rng_nm":40,"alt_fmsl":1453,"id":"KIR","desc":"KIRN VORTAC"},
{"type":"NDB","hdg_t":149.7,"dist_nm":91.8,"freq":419,"lat":48.33250000,"lon":6.19361111,"rng_nm":25,"alt_fmsl":906,"id":"EMT","desc":"Epinal Mirecourt NDB"},
{"type":"SDME","hdg_t":306.9,"dist_nm":92.1,"freq":110.75,"lat":50.56622300,"lon":3.11427700,"rng_nm":25,"alt_fmsl":130,"id":"LIL","desc":"LFQQ 26 DME"},
{"type":"SDME","hdg_t":10,"dist_nm":92.2,"freq":109.6,"lat":51.17027800,"lon":5.46638900,"rng_nm":40,"alt_fmsl":180,"id":"BBL","desc":"KLEINE BROGEL TACAN"},
{"type":"NDB","hdg_t":348.8,"dist_nm":92.3,"freq":355,"lat":51.16750000,"lon":4.56638900,"rng_nm":50,"alt_fmsl":0,"id":"ONW","desc":"ANTWERPEN NDB"},
{"type":"VOR","hdg_t":306.4,"dist_nm":92.7,"freq":109,"lat":50.56177800,"lon":3.08916700,"rng_nm":40,"alt_fmsl":175,"id":"LEQ","desc":"LILLE LESQUIN VOR-DME"},
{"type":"VOR","hdg_t":239.1,"dist_nm":93.4,"freq":112.9,"lat":48.84463900,"lon":3.01386100,"rng_nm":60,"alt_fmsl":486,"id":"CLM","desc":"COULOMMIERS Voisins VOR-DME"},
{"type":"NDB","hdg_t":347.1,"dist_nm":94,"freq":309,"lat":51.18500000,"lon":4.48555600,"rng_nm":25,"alt_fmsl":0,"id":"WW","desc":"ANTWERP NDB"},
{"type":"VOR","hdg_t":346.9,"dist_nm":94.5,"freq":113.5,"lat":51.19055600,"lon":4.47250000,"rng_nm":25,"alt_fmsl":78,"id":"ANT","desc":"ANTWERPEN VOR-DME"},
{"type":"VOR","hdg_t":207.1,"dist_nm":94.6,"freq":116,"lat":48.25122200,"lon":3.96313900,"rng_nm":60,"alt_fmsl":861,"id":"TRO","desc":"TROYES BARBEREY VOR"},
{"type":"VOR","hdg_t":41.3,"dist_nm":95.3,"freq":116.2,"lat":50.84066700,"lon":6.69416700,"rng_nm":60,"alt_fmsl":367,"id":"NOR","desc":"NORVENICH VORTAC"},
{"type":"NDB","hdg_t":11.8,"dist_nm":95.4,"freq":431,"lat":51.21333300,"lon":5.55750000,"rng_nm":35,"alt_fmsl":0,"id":"ONT","desc":"KLEINE BROGEL NDB"},
{"type":"NDB","hdg_t":340.4,"dist_nm":95.9,"freq":336,"lat":51.16249800,"lon":4.18916700,"rng_nm":50,"alt_fmsl":0,"id":"NIK","desc":"NICKY NDB"},
{"type":"SDME","hdg_t":105.4,"dist_nm":96.1,"freq":109.1,"lat":49.20933100,"lon":7.39577800,"rng_nm":25,"alt_fmsl":1201,"id":"ZND","desc":"ZWEIBRUCKEN DME"},
{"type":"VOR","hdg_t":340.3,"dist_nm":96.2,"freq":117.4,"lat":51.16500000,"lon":4.18388900,"rng_nm":50,"alt_fmsl":119,"id":"NIK","desc":"NICKY VOR-DME"},
{"type":"NDB","hdg_t":104.6,"dist_nm":96.6,"freq":435,"lat":49.22759200,"lon":7.41658300,"rng_nm":25,"alt_fmsl":0,"id":"ZBN","desc":"ZWEIBRUCKEN NDB"},
{"type":"VOR","hdg_t":104.5,"dist_nm":96.6,"freq":114.8,"lat":49.22907200,"lon":7.41789200,"rng_nm":60,"alt_fmsl":1177,"id":"ZWN","desc":"ZWEIBRUCKEN VOR-DME"},
{"type":"NDB","hdg_t":63.3,"dist_nm":97.7,"freq":331,"lat":50.36783300,"lon":7.31366700,"rng_nm":25,"alt_fmsl":671,"id":"NMN","desc":"MENDIG NDB"},
{"type":"NDB","hdg_t":247.3,"dist_nm":98.3,"freq":370,"lat":49.00541700,"lon":2.74019400,"rng_nm":22,"alt_fmsl":389,"id":"CGZ","desc":"CHARLES-DE-GAULLE (PARIS) NDB"},
{"type":"NDB","hdg_t":323.4,"dist_nm":98.3,"freq":360,"lat":50.96472200,"lon":3.49611100,"rng_nm":50,"alt_fmsl":33,"id":"MAK","desc":"MACKEL NDB"},
{"type":"NDB","hdg_t":315.7,"dist_nm":98.8,"freq":371,"lat":50.82402800,"lon":3.22483300,"rng_nm":10,"alt_fmsl":60,"id":"OKT","desc":"KORTRIJK NDB"},
{"type":"NDB","hdg_t":248.4,"dist_nm":98.9,"freq":356,"lat":49.03102800,"lon":2.70641700,"rng_nm":22,"alt_fmsl":389,"id":"RSY","desc":"CHARLES-DE-GAULLE (PARIS) NDB"},
{"type":"VOR","hdg_t":267.2,"dist_nm":99.6,"freq":113.65,"lat":49.55263900,"lon":2.48947200,"rng_nm":60,"alt_fmsl":0,"id":"MTD","desc":"MONTDIDIER VOR"}
]
}
