{"success":true,"source":"xp2csv.pl","last_updated":"2013/11/08 14:53:21 UTC"
,"icao":"LFTN","name":"La Grand Combe","lat":44.243154,"lon":4.011268,"rwys":1,"ils":0,"index":3023240,"path":"e000n40/e004n44"
,"runways":[
{"len_m":650,"wid_m":10.06,"hdg":349,"surf":"Turf/grass","rwy1":"17","lat1":44.24027800,"lon1":4.01201100,"rwy2":"35","lat2":44.24603000,"lon2":4.01052500}
]
,"navaids":[
{"type":"NDB","hdg_t":151.8,"dist_nm":12,"freq":402,"lat":44.06643900,"lon":4.14238300,"rng_nm":22,"alt_fmsl":712,"id":"DA","desc":"ALES NDB"},
{"type":"NDB","hdg_t":51.5,"dist_nm":19.2,"freq":427,"lat":44.44222222,"lon":4.36194444,"rng_nm":25,"alt_fmsl":676,"id":"AUB","desc":"Aubenas Ardeche Meridionale NDB"},
{"type":"NDB","hdg_t":143.4,"dist_nm":28.7,"freq":354,"lat":43.85719400,"lon":4.40627800,"rng_nm":40,"alt_fmsl":0,"id":"NG","desc":"NIMES/GARONS NDB"},
{"type":"NDB","hdg_t":309.9,"dist_nm":30.3,"freq":393,"lat":44.56694444,"lon":3.46916666,"rng_nm":25,"alt_fmsl":4062,"id":"BX","desc":"Mende Brenoux NDB"},
{"type":"SDME","hdg_t":149.2,"dist_nm":34.6,"freq":111.6,"lat":43.74583300,"lon":4.41955600,"rng_nm":50,"alt_fmsl":309,"id":"NIM","desc":"NIMES TACAN"},
{"type":"VOR","hdg_t":114.8,"dist_nm":35,"freq":112.3,"lat":43.99536100,"lon":4.74638900,"rng_nm":60,"alt_fmsl":159,"id":"AVN","desc":"AVIGNON Pujaut VOR"},
{"type":"NDB","hdg_t":98.5,"dist_nm":36.9,"freq":328,"lat":44.14836100,"lon":4.85719400,"rng_nm":80,"alt_fmsl":197,"id":"ORG","desc":"ORANGE NDB"},
{"type":"NDB","hdg_t":56.9,"dist_nm":37,"freq":362,"lat":44.57749900,"lon":4.73416700,"rng_nm":50,"alt_fmsl":0,"id":"MTL","desc":"MONTELIMAR NDB"},
{"type":"SDME","hdg_t":99.2,"dist_nm":37.4,"freq":109.4,"lat":44.13930600,"lon":4.86605600,"rng_nm":50,"alt_fmsl":197,"id":"ORG","desc":"ORANGE TACAN"},
{"type":"VOR","hdg_t":60.2,"dist_nm":37.9,"freq":113.65,"lat":44.55494400,"lon":4.77986100,"rng_nm":100,"alt_fmsl":656,"id":"MTL","desc":"MONTELIMAR ANCONE VOR-DME"},
{"type":"NDB","hdg_t":240.9,"dist_nm":38,"freq":315,"lat":43.93305555,"lon":3.24361111,"rng_nm":25,"alt_fmsl":2460,"id":"MIL","desc":"Millau Larzac NDB"},
{"type":"VOR","hdg_t":182.2,"dist_nm":39.9,"freq":114.45,"lat":43.57836100,"lon":3.97472200,"rng_nm":80,"alt_fmsl":7,"id":"FJR","desc":"MONPELLIER MEDITERRANEE VOR-DME"},
{"type":"NDB","hdg_t":179.8,"dist_nm":41.1,"freq":339,"lat":43.55677800,"lon":4.01405600,"rng_nm":100,"alt_fmsl":16,"id":"FG","desc":"Mediterranee NDB"},
{"type":"NDB","hdg_t":301,"dist_nm":42.5,"freq":376,"lat":44.60611000,"lon":3.16111100,"rng_nm":50,"alt_fmsl":0,"id":"MEN","desc":"MENDE NASBINALS NDB"},
{"type":"VOR","hdg_t":301.2,"dist_nm":42.5,"freq":115.3,"lat":44.60833300,"lon":3.16241700,"rng_nm":100,"alt_fmsl":4514,"id":"MEN","desc":"MENDE-Nasbinals VOR-DME"},
{"type":"NDB","hdg_t":117.1,"dist_nm":43.5,"freq":369,"lat":43.90827800,"lon":4.90538900,"rng_nm":20,"alt_fmsl":160,"id":"CM","desc":"AVIGNON NDB"},
{"type":"NDB","hdg_t":349.8,"dist_nm":47.2,"freq":372,"lat":45.01777777,"lon":3.81500000,"rng_nm":25,"alt_fmsl":2884,"id":"PY","desc":"Le Puy Loudes NDB"},
{"type":"NDB","hdg_t":47.7,"dist_nm":54.4,"freq":320,"lat":44.84900000,"lon":4.95550000,"rng_nm":30,"alt_fmsl":0,"id":"VE","desc":"CHABEUIL NDB"},
{"type":"SDME","hdg_t":136.9,"dist_nm":58.5,"freq":115.7,"lat":43.52608300,"lon":4.92691700,"rng_nm":50,"alt_fmsl":82,"id":"ITR","desc":"ISTRES TACAN"},
{"type":"NDB","hdg_t":136.8,"dist_nm":58.6,"freq":390,"lat":43.52625000,"lon":4.92994400,"rng_nm":60,"alt_fmsl":82,"id":"ITR","desc":"ISTRES NDB"},
{"type":"VOR","hdg_t":137.5,"dist_nm":60,"freq":112.7,"lat":43.50019400,"lon":4.94000000,"rng_nm":100,"alt_fmsl":85,"id":"ITS","desc":"ISTRES LE TUBE VOR-DME"},
{"type":"NDB","hdg_t":128.3,"dist_nm":60.5,"freq":334,"lat":43.61080600,"lon":5.10070400,"rng_nm":75,"alt_fmsl":197,"id":"SAL","desc":"SALON NDB"},
{"type":"SDME","hdg_t":128.2,"dist_nm":60.6,"freq":115.15,"lat":43.61183300,"lon":5.10280600,"rng_nm":50,"alt_fmsl":195,"id":"SAL","desc":"SALON TACAN"},
{"type":"NDB","hdg_t":275.5,"dist_nm":60.7,"freq":302,"lat":44.33194444,"lon":2.60722222,"rng_nm":25,"alt_fmsl":2066,"id":"ROM","desc":"Rodez Marcillac NDB"},
{"type":"NDB","hdg_t":210.1,"dist_nm":63.4,"freq":397,"lat":43.32722222,"lon":3.28305555,"rng_nm":25,"alt_fmsl":46,"id":"ZR","desc":"Beziers Vias NDB"},
{"type":"NDB","hdg_t":99.6,"dist_nm":65.4,"freq":348,"lat":44.05069400,"lon":5.50347200,"rng_nm":15,"alt_fmsl":0,"id":"SCL","desc":"SAINT CHRISTOL NDB"},
{"type":"VOR","hdg_t":318.8,"dist_nm":65.9,"freq":109.8,"lat":45.06647200,"lon":2.99075000,"rng_nm":25,"alt_fmsl":3222,"id":"SFC","desc":"SAINT FLOUR/COLTINES VOR"},
{"type":"NDB","hdg_t":132.3,"dist_nm":66.5,"freq":383,"lat":43.48980600,"lon":5.13725000,"rng_nm":25,"alt_fmsl":0,"id":"MAR","desc":"MARSEILLE/PROVENCE NDB"},
{"type":"NDB","hdg_t":280,"dist_nm":68.7,"freq":387,"lat":44.43194444,"lon":2.43722222,"rng_nm":25,"alt_fmsl":2044,"id":"RZ","desc":"Rodez Marcillac NDB"},
{"type":"VOR","hdg_t":137.3,"dist_nm":69.4,"freq":117.3,"lat":43.38630600,"lon":5.08683300,"rng_nm":200,"alt_fmsl":650,"id":"MTG","desc":"MARTIGUES VOR-DME"},
{"type":"NDB","hdg_t":132.2,"dist_nm":71.2,"freq":406,"lat":43.43831800,"lon":5.21747700,"rng_nm":50,"alt_fmsl":54,"id":"MJ","desc":"MARSEILLE NDB"},
{"type":"NDB","hdg_t":126.5,"dist_nm":73.3,"freq":413,"lat":43.50777800,"lon":5.36047200,"rng_nm":25,"alt_fmsl":367,"id":"ALM","desc":"AIX LES MILLES NDB"},
{"type":"NDB","hdg_t":132.4,"dist_nm":75.3,"freq":343,"lat":43.38861100,"lon":5.28347200,"rng_nm":25,"alt_fmsl":0,"id":"MS","desc":"MARSEILLE/PROVENCE NDB"},
{"type":"VOR","hdg_t":131.8,"dist_nm":77.2,"freq":108.8,"lat":43.37733300,"lon":5.32644400,"rng_nm":100,"alt_fmsl":771,"id":"MRM","desc":"MARSEILLE PROVENCE VOR-DME"},
{"type":"NDB","hdg_t":8.9,"dist_nm":77.6,"freq":299,"lat":45.52027800,"lon":4.29889000,"rng_nm":25,"alt_fmsl":1371,"id":"BO","desc":"Saint Etienne Boutheon NDB"},
{"type":"NDB","hdg_t":301.8,"dist_nm":82.4,"freq":343,"lat":44.95583333,"lon":2.36805555,"rng_nm":25,"alt_fmsl":2310,"id":"AR","desc":"Aurillac NDB"},
{"type":"NDB","hdg_t":35.5,"dist_nm":82.9,"freq":291,"lat":45.36230000,"lon":5.15297200,"rng_nm":25,"alt_fmsl":1129,"id":"WS","desc":"Grenoble saint Geoirs NDB"},
{"type":"NDB","hdg_t":83.6,"dist_nm":83.9,"freq":297,"lat":44.38138888,"lon":5.95027777,"rng_nm":25,"alt_fmsl":1870,"id":"GA","desc":"Gap Tallard NDB"},
{"type":"NDB","hdg_t":7.8,"dist_nm":84.4,"freq":379,"lat":45.63777777,"lon":4.28388888,"rng_nm":25,"alt_fmsl":1230,"id":"EB","desc":"Saint Etienne Boutheon NDB"},
{"type":"NDB","hdg_t":245.5,"dist_nm":86.2,"freq":356,"lat":43.63250000,"lon":2.20916666,"rng_nm":25,"alt_fmsl":853,"id":"CVU","desc":"Castres Mazamet NDB"},
{"type":"NDB","hdg_t":257.4,"dist_nm":86.5,"freq":323,"lat":43.91266632,"lon":2.06438327,"rng_nm":25,"alt_fmsl":542,"id":"AB","desc":"Albi le Sequestre NDB"},
{"type":"VOR","hdg_t":24.9,"dist_nm":87.1,"freq":108.2,"lat":45.55644400,"lon":4.88341700,"rng_nm":30,"alt_fmsl":0,"id":"VNE","desc":"VIENNE VOR"},
{"type":"NDB","hdg_t":40.8,"dist_nm":89.6,"freq":397,"lat":45.36389000,"lon":5.39750000,"rng_nm":25,"alt_fmsl":1384,"id":"EG","desc":"Grenoble Saint Geoirs NDB"},
{"type":"NDB","hdg_t":130,"dist_nm":90.1,"freq":366,"lat":43.26527778,"lon":5.58638000,"rng_nm":25,"alt_fmsl":590,"id":"ADC","desc":"Le Castellet NDB"},
{"type":"VOR","hdg_t":98.7,"dist_nm":91.5,"freq":113.85,"lat":43.99138900,"lon":6.10083300,"rng_nm":150,"alt_fmsl":3027,"id":"DGN","desc":"DIGNE VOR"},
{"type":"NDB","hdg_t":26.5,"dist_nm":92.3,"freq":388,"lat":45.61583328,"lon":4.99278355,"rng_nm":25,"alt_fmsl":1044,"id":"BR","desc":"Lyon Bron NDB"},
{"type":"NDB","hdg_t":129.6,"dist_nm":94.1,"freq":395,"lat":43.22983300,"lon":5.66541700,"rng_nm":50,"alt_fmsl":0,"id":"OB","desc":"MARSEILLE/PROVENCE NDB"},
{"type":"VOR","hdg_t":260.3,"dist_nm":96.1,"freq":115.8,"lat":43.95405600,"lon":1.82416700,"rng_nm":100,"alt_fmsl":979,"id":"GAI","desc":"GAILLAC-Castelneau de Montmirail VOR"},
{"type":"VOR","hdg_t":38.6,"dist_nm":96.4,"freq":115.55,"lat":45.48897200,"lon":5.43905600,"rng_nm":80,"alt_fmsl":2165,"id":"LTP","desc":"LA TOUR DU PIN-Lyon Est VOR-DME"},
{"type":"NDB","hdg_t":343.7,"dist_nm":97.6,"freq":367,"lat":45.80472200,"lon":3.36161100,"rng_nm":22,"alt_fmsl":1089,"id":"CF","desc":"CLERMONT-FERRAND NDB"},
{"type":"NDB","hdg_t":285.8,"dist_nm":98.9,"freq":395,"lat":44.67083333,"lon":1.78694444,"rng_nm":25,"alt_fmsl":1053,"id":"FC","desc":"Figeac Livernon NDB"},
{"type":"VOR","hdg_t":339.6,"dist_nm":99,"freq":114.35,"lat":45.78747200,"lon":3.19219400,"rng_nm":100,"alt_fmsl":1093,"id":"CFA","desc":"CLERMONT FERRAND AUVERGNE VOR-DME"},
{"type":"NDB","hdg_t":232.6,"dist_nm":99.5,"freq":345,"lat":43.22250000,"lon":2.20777777,"rng_nm":25,"alt_fmsl":489,"id":"CS","desc":"Carcassonne Salvaza NDB"}
]
}
