{"success":true,"source":"xp2csv.pl","last_updated":"2013/11/08 14:53:21 UTC"
,"icao":"LFYT","name":"Saint Simon Clastres","lat":49.75,"lon":3.216667,"rwys":1,"ils":0,"index":3007216,"path":"e000n40/e003n49"
,"runways":[
{"len_m":2406,"wid_m":45.11,"hdg":50,"surf":"Asphalt","rwy1":"05","lat1":49.74305846,"lon1":3.20386357,"rwy2":"23","lat2":49.75694154,"lon2":3.22947043}
]
,"navaids":[
{"type":"NDB","hdg_t":336.3,"dist_nm":7.7,"freq":382,"lat":49.86750000,"lon":3.13722200,"rng_nm":75,"alt_fmsl":0,"id":"PM","desc":"PERONNE ST QUENTIN NDB"},
{"type":"NDB","hdg_t":310.8,"dist_nm":20.8,"freq":321,"lat":49.97625555,"lon":2.80941666,"rng_nm":150,"alt_fmsl":361,"id":"ABY","desc":"Albert Bray NDB"},
{"type":"NDB","hdg_t":220.3,"dist_nm":24.8,"freq":553,"lat":49.43444400,"lon":2.80611100,"rng_nm":75,"alt_fmsl":0,"id":"CO","desc":"COMPIEGNE NDB"},
{"type":"VOR","hdg_t":220.6,"dist_nm":25,"freq":109.65,"lat":49.43277800,"lon":2.79936100,"rng_nm":130,"alt_fmsl":288,"id":"CPE","desc":"COMPIEGNE VOR-DME"},
{"type":"VOR","hdg_t":355,"dist_nm":28.8,"freq":112.6,"lat":50.22813900,"lon":3.15150000,"rng_nm":80,"alt_fmsl":299,"id":"CMB","desc":"CAMBRAI EPINOY VORTAC"},
{"type":"NDB","hdg_t":281.2,"dist_nm":29,"freq":339,"lat":49.84222222,"lon":2.48416666,"rng_nm":25,"alt_fmsl":335,"id":"GI","desc":"Amiens-Glisy NDB"},
{"type":"VOR","hdg_t":247.5,"dist_nm":30.7,"freq":113.65,"lat":49.55263900,"lon":2.48947200,"rng_nm":60,"alt_fmsl":0,"id":"MTD","desc":"MONTDIDIER VOR"},
{"type":"VOR","hdg_t":190.5,"dist_nm":34.3,"freq":114.85,"lat":49.18830600,"lon":3.05647200,"rng_nm":60,"alt_fmsl":476,"id":"BSN","desc":"BOURSONNE VOR-DME"},
{"type":"NDB","hdg_t":8.2,"dist_nm":36.5,"freq":317,"lat":50.35194444,"lon":3.35388888,"rng_nm":25,"alt_fmsl":108,"id":"VS","desc":"Valencienne Denain NDB"},
{"type":"VOR","hdg_t":158.8,"dist_nm":39.3,"freq":117.6,"lat":49.13775000,"lon":3.57769400,"rng_nm":100,"alt_fmsl":673,"id":"CTL","desc":"CHATILLON SUR MARNE VOR-DME"},
{"type":"VOR","hdg_t":223,"dist_nm":40.4,"freq":109.2,"lat":49.25527800,"lon":2.51477800,"rng_nm":130,"alt_fmsl":325,"id":"CRL","desc":"CREIL VORTAC"},
{"type":"VOR","hdg_t":128.7,"dist_nm":41.7,"freq":112.3,"lat":49.31163900,"lon":4.04536100,"rng_nm":60,"alt_fmsl":335,"id":"REM","desc":"REIMS CHAMPAGNE VORTAC"},
{"type":"VOR","hdg_t":246,"dist_nm":45.5,"freq":115.9,"lat":49.43636100,"lon":2.15319400,"rng_nm":50,"alt_fmsl":0,"id":"BVS","desc":"BEAUVAIS VOR"},
{"type":"NDB","hdg_t":205,"dist_nm":47.5,"freq":356,"lat":49.03102800,"lon":2.70641700,"rng_nm":22,"alt_fmsl":389,"id":"RSY","desc":"CHARLES-DE-GAULLE (PARIS) NDB"},
{"type":"NDB","hdg_t":202.8,"dist_nm":48.4,"freq":370,"lat":49.00541700,"lon":2.74019400,"rng_nm":22,"alt_fmsl":389,"id":"CGZ","desc":"CHARLES-DE-GAULLE (PARIS) NDB"},
{"type":"NDB","hdg_t":251.9,"dist_nm":48.8,"freq":391,"lat":49.49166666,"lon":2.02944444,"rng_nm":25,"alt_fmsl":377,"id":"BV","desc":"Beauvais Tille NDB"},
{"type":"VOR","hdg_t":354.2,"dist_nm":49,"freq":109,"lat":50.56177800,"lon":3.08916700,"rng_nm":40,"alt_fmsl":175,"id":"LEQ","desc":"LILLE LESQUIN VOR-DME"},
{"type":"SDME","hdg_t":355.4,"dist_nm":49.1,"freq":110.75,"lat":50.56622300,"lon":3.11427700,"rng_nm":25,"alt_fmsl":130,"id":"LIL","desc":"LFQQ 26 DME"},
{"type":"NDB","hdg_t":359.8,"dist_nm":49.9,"freq":332,"lat":50.58166500,"lon":3.21333300,"rng_nm":25,"alt_fmsl":140,"id":"LL","desc":"Lille NDB"},
{"type":"VOR","hdg_t":207.5,"dist_nm":50.7,"freq":117.05,"lat":48.99947200,"lon":2.62380600,"rng_nm":100,"alt_fmsl":348,"id":"PGS","desc":"PARIS CHARLES DE GAULLE VOR-DME"},
{"type":"NDB","hdg_t":85.2,"dist_nm":51.4,"freq":379,"lat":49.81305555,"lon":4.53527777,"rng_nm":25,"alt_fmsl":581,"id":"CZ","desc":"Charleville Mezieres NDB"},
{"type":"VOR","hdg_t":212.9,"dist_nm":52,"freq":115.35,"lat":49.01991700,"lon":2.50011100,"rng_nm":100,"alt_fmsl":385,"id":"CGN","desc":"PARIS CHARLES DE GAULLE VOR-DME"},
{"type":"VOR","hdg_t":25.4,"dist_nm":54.8,"freq":113.2,"lat":50.57388900,"lon":3.83277800,"rng_nm":60,"alt_fmsl":221,"id":"CIV","desc":"CHIEVRES VOR"},
{"type":"VOR","hdg_t":188.4,"dist_nm":54.9,"freq":112.9,"lat":48.84463900,"lon":3.01386100,"rng_nm":60,"alt_fmsl":486,"id":"CLM","desc":"COULOMMIERS Voisins VOR-DME"},
{"type":"NDB","hdg_t":334,"dist_nm":55,"freq":327,"lat":50.57194444,"lon":2.58722222,"rng_nm":25,"alt_fmsl":85,"id":"MVC","desc":"Merville Calonne NDB"},
{"type":"DME","hdg_t":212.9,"dist_nm":55.2,"freq":108.8,"lat":48.97536100,"lon":2.45586600,"rng_nm":100,"alt_fmsl":200,"id":"BT","desc":"PARIS LE BOURGET VOR-DME"},
{"type":"VOR","hdg_t":212.9,"dist_nm":55.3,"freq":116.1,"lat":48.97466700,"lon":2.45516700,"rng_nm":100,"alt_fmsl":200,"id":"BT","desc":"PARIS LE BOURGET VOR-DME"},
{"type":"NDB","hdg_t":217.4,"dist_nm":55.6,"freq":364,"lat":49.01127800,"lon":2.36144500,"rng_nm":22,"alt_fmsl":389,"id":"RSO","desc":"CHARLES-DE-GAULLE (PARIS) NDB"},
{"type":"NDB","hdg_t":215.2,"dist_nm":55.8,"freq":343,"lat":48.98741700,"lon":2.40061100,"rng_nm":22,"alt_fmsl":389,"id":"CGO","desc":"CHARLES-DE-GAULLE (PARIS) NDB"},
{"type":"VOR","hdg_t":294.1,"dist_nm":57.6,"freq":108.45,"lat":50.13513900,"lon":1.85469400,"rng_nm":60,"alt_fmsl":223,"id":"ABB","desc":"ABBEVILLE VOR-DME"},
{"type":"NDB","hdg_t":340.6,"dist_nm":58.7,"freq":404,"lat":50.67166666,"lon":2.70611111,"rng_nm":25,"alt_fmsl":59,"id":"MRV","desc":"Merville Calonne NDB"},
{"type":"VOR","hdg_t":230.1,"dist_nm":60.6,"freq":111.6,"lat":49.09608400,"lon":2.03588900,"rng_nm":60,"alt_fmsl":318,"id":"PON","desc":"PONTOISE CORMEILLES EN VEXIN VOR"},
{"type":"NDB","hdg_t":217.3,"dist_nm":60.9,"freq":334,"lat":48.93905600,"lon":2.28088900,"rng_nm":22,"alt_fmsl":216,"id":"BGW","desc":"LE BOURGET (PARIS) NDB"},
{"type":"SDME","hdg_t":61.4,"dist_nm":62.9,"freq":111.5,"lat":50.24138900,"lon":4.65305600,"rng_nm":100,"alt_fmsl":954,"id":"BFS","desc":"FLORENNES TACAN"},
{"type":"VOR","hdg_t":47.7,"dist_nm":63.4,"freq":115.7,"lat":50.45388900,"lon":4.44138900,"rng_nm":30,"alt_fmsl":654,"id":"GSY","desc":"GOSLY VOR-DME"},
{"type":"NDB","hdg_t":0.2,"dist_nm":64.5,"freq":371,"lat":50.82402800,"lon":3.22483300,"rng_nm":10,"alt_fmsl":60,"id":"OKT","desc":"KORTRIJK NDB"},
{"type":"NDB","hdg_t":150.9,"dist_nm":65.2,"freq":367,"lat":48.79777777,"lon":4.01611111,"rng_nm":25,"alt_fmsl":482,"id":"VAT","desc":"Chalons Vatry NDB"},
{"type":"NDB","hdg_t":48.1,"dist_nm":65.2,"freq":389,"lat":50.46888900,"lon":4.48472200,"rng_nm":15,"alt_fmsl":0,"id":"CC","desc":"CHARLEROI LCTR NDB"},
{"type":"NDB","hdg_t":204.2,"dist_nm":65.5,"freq":349,"lat":48.75308300,"lon":2.53911100,"rng_nm":112,"alt_fmsl":291,"id":"OYE","desc":"ORLY (PARIS) NDB"},
{"type":"NDB","hdg_t":228.1,"dist_nm":66.9,"freq":406,"lat":49.00000000,"lon":1.95416700,"rng_nm":75,"alt_fmsl":0,"id":"LMX","desc":"LES MUREAUX NDB"},
{"type":"NDB","hdg_t":209.7,"dist_nm":67,"freq":302,"lat":48.77797200,"lon":2.37872200,"rng_nm":22,"alt_fmsl":583,"id":"TH","desc":"VILLACOUBLAY NDB"},
{"type":"NDB","hdg_t":48.8,"dist_nm":68.1,"freq":323,"lat":50.48944400,"lon":4.55527800,"rng_nm":50,"alt_fmsl":0,"id":"ONC","desc":"CHARLEROI NDB"},
{"type":"VOR","hdg_t":147.5,"dist_nm":68.7,"freq":111.65,"lat":48.78108300,"lon":4.14694400,"rng_nm":40,"alt_fmsl":538,"id":"CAV","desc":"VATRY VOR-DME"},
{"type":"VOR","hdg_t":208.3,"dist_nm":69.4,"freq":111.2,"lat":48.72986100,"lon":2.38641700,"rng_nm":60,"alt_fmsl":307,"id":"OL","desc":"PARIS ORLY VOR-DME"},
{"type":"NDB","hdg_t":35.7,"dist_nm":70.2,"freq":283,"lat":50.69472100,"lon":4.29222200,"rng_nm":50,"alt_fmsl":0,"id":"BUS","desc":"BRESSY NDB"},
{"type":"NDB","hdg_t":187.5,"dist_nm":72.4,"freq":308,"lat":48.55389000,"lon":2.97861100,"rng_nm":75,"alt_fmsl":0,"id":"MV","desc":"MELUN NDB"},
{"type":"NDB","hdg_t":187.5,"dist_nm":72.4,"freq":434,"lat":48.55392100,"lon":2.97800000,"rng_nm":50,"alt_fmsl":385,"id":"VM","desc":"Melun Villaroche NDB"},
{"type":"VOR","hdg_t":316.6,"dist_nm":72.8,"freq":113.8,"lat":50.62477800,"lon":1.90711100,"rng_nm":70,"alt_fmsl":584,"id":"BNE","desc":"BOULOGNE SUR MER VOR"},
{"type":"NDB","hdg_t":217.2,"dist_nm":73.3,"freq":286,"lat":48.77158400,"lon":2.09744500,"rng_nm":22,"alt_fmsl":583,"id":"TA","desc":"VILLACOUBLAY NDB"},
{"type":"NDB","hdg_t":143.5,"dist_nm":73.6,"freq":347,"lat":48.75916666,"lon":4.31888888,"rng_nm":25,"alt_fmsl":604,"id":"CVT","desc":"Chalons Vatry NDB"},
{"type":"NDB","hdg_t":8.2,"dist_nm":73.7,"freq":360,"lat":50.96472200,"lon":3.49611100,"rng_nm":50,"alt_fmsl":33,"id":"MAK","desc":"MACKEL NDB"},
{"type":"VOR","hdg_t":216.6,"dist_nm":74.1,"freq":108.25,"lat":48.75372200,"lon":2.10236100,"rng_nm":100,"alt_fmsl":547,"id":"TSU","desc":"TOUSSUS LE NOBLE VOR"},
{"type":"SDME","hdg_t":216.7,"dist_nm":74.4,"freq":110.15,"lat":48.75039100,"lon":2.09515800,"rng_nm":27,"alt_fmsl":537,"id":"TNO","desc":"LFPN 25R DME"},
{"type":"NDB","hdg_t":24.3,"dist_nm":74.7,"freq":393,"lat":50.88028000,"lon":4.02888900,"rng_nm":50,"alt_fmsl":0,"id":"DEN","desc":"DENDER NDB"},
{"type":"NDB","hdg_t":212.5,"dist_nm":76.4,"freq":402,"lat":48.67244400,"lon":2.18183300,"rng_nm":112,"alt_fmsl":291,"id":"ORW","desc":"ORLY (PARIS) NDB"},
{"type":"VOR","hdg_t":258,"dist_nm":77.4,"freq":116.8,"lat":49.46563900,"lon":1.28063900,"rng_nm":40,"alt_fmsl":560,"id":"ROU","desc":"ROUEN VALLEE DE SEINE VOR"},
{"type":"VOR","hdg_t":105.3,"dist_nm":77.5,"freq":109.4,"lat":49.39125000,"lon":5.12441700,"rng_nm":100,"alt_fmsl":1076,"id":"MMD","desc":"MONTMEDY-Dun sur Meuse VOR"},
{"type":"SDME","hdg_t":207.3,"dist_nm":77.8,"freq":110.4,"lat":48.59463900,"lon":2.31980500,"rng_nm":37,"alt_fmsl":268,"id":"BTY","desc":"BRETIGNY DME"},
{"type":"VOR","hdg_t":26.6,"dist_nm":78,"freq":114.9,"lat":50.90777800,"lon":4.13888900,"rng_nm":40,"alt_fmsl":284,"id":"AFI","desc":"AFFLIGEM VOR-DME"},
{"type":"NDB","hdg_t":307.5,"dist_nm":78.4,"freq":358,"lat":50.53539300,"lon":1.59242200,"rng_nm":22,"alt_fmsl":35,"id":"LT","desc":"LE TOUQUET NDB"},
{"type":"VOR","hdg_t":191.7,"dist_nm":79.3,"freq":113.6,"lat":48.45577800,"lon":2.81327800,"rng_nm":40,"alt_fmsl":349,"id":"MLN","desc":"MELUN VILLAROCHE VOR-DME"},
{"type":"VOR","hdg_t":278.3,"dist_nm":80.1,"freq":115.8,"lat":49.92538900,"lon":1.17063900,"rng_nm":40,"alt_fmsl":362,"id":"DPE","desc":"DIEPPE VOR"},
{"type":"NDB","hdg_t":36.1,"dist_nm":80.6,"freq":314,"lat":50.82694400,"lon":4.46694400,"rng_nm":25,"alt_fmsl":0,"id":"OZ","desc":"BRUSSELS NDB"},
{"type":"NDB","hdg_t":177.7,"dist_nm":80.7,"freq":277,"lat":48.40611300,"lon":3.29527800,"rng_nm":50,"alt_fmsl":0,"id":"BRY","desc":"BRAY NDB"},
{"type":"VOR","hdg_t":177.7,"dist_nm":80.7,"freq":114.1,"lat":48.40700000,"lon":3.29477800,"rng_nm":100,"alt_fmsl":289,"id":"BRY","desc":"BRAY SUR SEINE VOR-DME"},
{"type":"VOR","hdg_t":41.8,"dist_nm":81.3,"freq":117.55,"lat":50.74944400,"lon":4.64166700,"rng_nm":40,"alt_fmsl":335,"id":"HUL","desc":"HULDENBERG VOR-DME"},
{"type":"VOR","hdg_t":216.6,"dist_nm":81.5,"freq":114.7,"lat":48.65394500,"lon":1.99422200,"rng_nm":110,"alt_fmsl":604,"id":"RBT","desc":"RAMBOUILLET-Les Bordes VOR-DME"},
{"type":"NDB","hdg_t":222.4,"dist_nm":82.2,"freq":315,"lat":48.73058300,"lon":1.82050000,"rng_nm":75,"alt_fmsl":583,"id":"HOL","desc":"VILLACOUBLAY NDB"},
{"type":"NDB","hdg_t":276.2,"dist_nm":83.2,"freq":351,"lat":49.88222222,"lon":1.08361111,"rng_nm":25,"alt_fmsl":335,"id":"DSA","desc":"Dieppe Saint Aubin NDB"},
{"type":"VOR","hdg_t":345.1,"dist_nm":83.6,"freq":114.5,"lat":51.09472200,"lon":2.65166700,"rng_nm":80,"alt_fmsl":30,"id":"KOK","desc":"KOKSY VORTAC"},
{"type":"SDME","hdg_t":44,"dist_nm":84.9,"freq":116,"lat":50.75638900,"lon":4.76805600,"rng_nm":100,"alt_fmsl":370,"id":"BBE","desc":"BEAUVECHAIN TACAN"},
{"type":"VOR","hdg_t":35.7,"dist_nm":85.8,"freq":114.6,"lat":50.90222200,"lon":4.53805600,"rng_nm":100,"alt_fmsl":187,"id":"BUB","desc":"BRUSSELS VOR-DME"},
{"type":"NDB","hdg_t":158.7,"dist_nm":86.7,"freq":320,"lat":48.40027777,"lon":4.00388888,"rng_nm":25,"alt_fmsl":611,"id":"TY","desc":"Troyes Barberey NDB"},
{"type":"NDB","hdg_t":329.6,"dist_nm":87.1,"freq":418,"lat":50.99611111,"lon":2.05444444,"rng_nm":25,"alt_fmsl":9,"id":"MK","desc":"Calais Dunkerque NDB"},
{"type":"NDB","hdg_t":350.5,"dist_nm":87.9,"freq":352,"lat":51.19388900,"lon":2.83500000,"rng_nm":25,"alt_fmsl":0,"id":"DD","desc":"OOSTENDE NDB"},
{"type":"NDB","hdg_t":36.8,"dist_nm":88.5,"freq":293,"lat":50.92027800,"lon":4.61638900,"rng_nm":25,"alt_fmsl":0,"id":"OB","desc":"BRUSSELS NDB"},
{"type":"NDB","hdg_t":354.6,"dist_nm":88.5,"freq":399,"lat":51.21750000,"lon":2.99638900,"rng_nm":50,"alt_fmsl":12,"id":"ONO","desc":"OOSTENDE NDB"},
{"type":"NDB","hdg_t":320.7,"dist_nm":88.5,"freq":387,"lat":50.88316700,"lon":1.74180600,"rng_nm":50,"alt_fmsl":475,"id":"ING","desc":"ST INGLEVERT NDB"},
{"type":"NDB","hdg_t":35.9,"dist_nm":88.8,"freq":402,"lat":50.93861100,"lon":4.59222200,"rng_nm":25,"alt_fmsl":0,"id":"OP","desc":"Brussels NDB"},
{"type":"VOR","hdg_t":241.8,"dist_nm":89.3,"freq":112.4,"lat":49.03169400,"lon":1.22086100,"rng_nm":100,"alt_fmsl":499,"id":"EVX","desc":"EVREUX FAUVILLE VORTAC"},
{"type":"NDB","hdg_t":46.4,"dist_nm":91.1,"freq":212,"lat":50.78277600,"lon":4.95111100,"rng_nm":50,"alt_fmsl":0,"id":"TN","desc":"GOETSENHOVEN NDB"},
{"type":"VOR","hdg_t":222.8,"dist_nm":91.2,"freq":115.65,"lat":48.62569400,"lon":1.65655600,"rng_nm":60,"alt_fmsl":604,"id":"EPR","desc":"EPERNON VOR-DME"},
{"type":"NDB","hdg_t":23.3,"dist_nm":92.6,"freq":336,"lat":51.16249800,"lon":4.18916700,"rng_nm":50,"alt_fmsl":0,"id":"NIK","desc":"NICKY NDB"},
{"type":"VOR","hdg_t":23.2,"dist_nm":92.7,"freq":117.4,"lat":51.16500000,"lon":4.18388900,"rng_nm":50,"alt_fmsl":119,"id":"NIK","desc":"NICKY VOR-DME"},
{"type":"SDME","hdg_t":134.8,"dist_nm":93.8,"freq":114,"lat":48.63700000,"lon":4.88919400,"rng_nm":50,"alt_fmsl":492,"id":"SDI","desc":"ST DIZIER TACAN"},
{"type":"NDB","hdg_t":134.6,"dist_nm":94.7,"freq":373,"lat":48.62900000,"lon":4.91066700,"rng_nm":50,"alt_fmsl":0,"id":"SDI","desc":"ST DIZIER NDB"},
{"type":"VOR","hdg_t":161.5,"dist_nm":94.7,"freq":116,"lat":48.25122200,"lon":3.96313900,"rng_nm":60,"alt_fmsl":861,"id":"TRO","desc":"TROYES BARBEREY VOR"},
{"type":"NDB","hdg_t":112.2,"dist_nm":95.9,"freq":392,"lat":49.12222300,"lon":5.46888900,"rng_nm":75,"alt_fmsl":0,"id":"VUN","desc":"VERDUN NDB"},
{"type":"VOR","hdg_t":3.1,"dist_nm":96.1,"freq":110.05,"lat":51.34805600,"lon":3.35527800,"rng_nm":60,"alt_fmsl":30,"id":"COA","desc":"COSTA VOR-DME"},
{"type":"NDB","hdg_t":50,"dist_nm":97.9,"freq":510,"lat":50.78075000,"lon":5.18706700,"rng_nm":50,"alt_fmsl":230,"id":"ST","desc":"St Truiden NDB"},
{"type":"VOR","hdg_t":49.7,"dist_nm":98.6,"freq":109.65,"lat":50.79365158,"lon":5.19530010,"rng_nm":60,"alt_fmsl":223,"id":"BVG","desc":"Bevingen VORTAC"},
{"type":"NDB","hdg_t":28.9,"dist_nm":98.9,"freq":309,"lat":51.18500000,"lon":4.48555600,"rng_nm":25,"alt_fmsl":0,"id":"WW","desc":"ANTWERP NDB"},
{"type":"VOR","hdg_t":28.6,"dist_nm":99,"freq":113.5,"lat":51.19055600,"lon":4.47250000,"rng_nm":25,"alt_fmsl":78,"id":"ANT","desc":"ANTWERPEN VOR-DME"},
{"type":"NDB","hdg_t":30.7,"dist_nm":99.6,"freq":355,"lat":51.16750000,"lon":4.56638900,"rng_nm":50,"alt_fmsl":0,"id":"ONW","desc":"ANTWERPEN NDB"},
{"type":"NDB","hdg_t":36.3,"dist_nm":99.7,"freq":341,"lat":51.07694600,"lon":4.77944400,"rng_nm":50,"alt_fmsl":0,"id":"BUN","desc":"BRUNO NDB"}
]
}
