{"success":true,"source":"xp2csv.pl","last_updated":"2013/11/08 14:53:21 UTC"
,"icao":"LGAX","name":"Alexandria","lat":40.651075,"lon":22.488815,"rwys":1,"ils":0,"index":3317929,"path":"e020n40/e022n40"
,"runways":[
{"len_m":1815,"wid_m":29.87,"hdg":127,"surf":"Asphalt","rwy1":"13","lat1":40.65606900,"lon1":22.48031900,"rwy2":"31","lat2":40.64608100,"lon2":22.49731100}
]
,"radios":[
{"type":"TWR","freq":123.5,"desc":"TWR"}
]
,"navaids":[
{"type":"NDB","hdg_t":177.5,"dist_nm":0.3,"freq":394,"lat":40.64472200,"lon":22.48916700,"rng_nm":50,"alt_fmsl":0,"id":"GDA","desc":"ALEXANDRIA NDB"},
{"type":"NDB","hdg_t":99.1,"dist_nm":21.2,"freq":345,"lat":40.59360000,"lon":22.94808600,"rng_nm":80,"alt_fmsl":0,"id":"THS","desc":"THESSALONIKI NDB"},
{"type":"VOR","hdg_t":109.6,"dist_nm":23.3,"freq":110.8,"lat":40.51872500,"lon":22.96980000,"rng_nm":40,"alt_fmsl":22,"id":"MKR","desc":"MIKRA VOR-DME"},
{"type":"SDME","hdg_t":109.5,"dist_nm":23.6,"freq":115.3,"lat":40.51750000,"lon":22.97666700,"rng_nm":25,"alt_fmsl":22,"id":"MKA","desc":"MIKRA TACAN"},
{"type":"VOR","hdg_t":116.7,"dist_nm":25.7,"freq":112.1,"lat":40.45694400,"lon":22.99111100,"rng_nm":130,"alt_fmsl":665,"id":"TSL","desc":"THESSALONIKI VOR-DME"},
{"type":"SDME","hdg_t":116.5,"dist_nm":25.7,"freq":117.4,"lat":40.45805600,"lon":22.99166700,"rng_nm":25,"alt_fmsl":22,"id":"MIK","desc":"MIKRA TACAN"},
{"type":"NDB","hdg_t":40.2,"dist_nm":35.2,"freq":314,"lat":41.09861100,"lon":22.99166700,"rng_nm":40,"alt_fmsl":0,"id":"FIS","desc":"FISKA NDB"},
{"type":"VOR","hdg_t":40.2,"dist_nm":35.3,"freq":116.4,"lat":41.09972200,"lon":22.99222200,"rng_nm":40,"alt_fmsl":1312,"id":"FSK","desc":"FISKA VOR-DME"},
{"type":"NDB","hdg_t":233.9,"dist_nm":36.7,"freq":291,"lat":40.28903100,"lon":21.84200800,"rng_nm":50,"alt_fmsl":0,"id":"KZN","desc":"KOZANI NDB"},
{"type":"VOR","hdg_t":233.7,"dist_nm":36.9,"freq":109.6,"lat":40.28513300,"lon":21.84044400,"rng_nm":25,"alt_fmsl":2055,"id":"KOZ","desc":"KOZANI VOR-DME"},
{"type":"NDB","hdg_t":257.7,"dist_nm":56.6,"freq":372,"lat":40.44472200,"lon":21.27944400,"rng_nm":25,"alt_fmsl":0,"id":"KSO","desc":"KASTORIA NDB"},
{"type":"VOR","hdg_t":258.1,"dist_nm":56.7,"freq":114.5,"lat":40.45098500,"lon":21.27540700,"rng_nm":25,"alt_fmsl":2148,"id":"KAS","desc":"KASTORIA VOR-DME"},
{"type":"SDME","hdg_t":179.2,"dist_nm":59.7,"freq":109,"lat":39.65458900,"lon":22.50655500,"rng_nm":130,"alt_fmsl":241,"id":"LAR","desc":"LARISA TACAN"},
{"type":"NDB","hdg_t":181.2,"dist_nm":60.3,"freq":362,"lat":39.64541900,"lon":22.46155400,"rng_nm":100,"alt_fmsl":0,"id":"LSA","desc":"LARISA NDB"},
{"type":"NDB","hdg_t":311.4,"dist_nm":62.6,"freq":297,"lat":41.33777800,"lon":21.44861100,"rng_nm":80,"alt_fmsl":2034,"id":"PEP","desc":"PRILEP NDB-DME"},
{"type":"SDME","hdg_t":311.4,"dist_nm":62.6,"freq":113.75,"lat":41.33777800,"lon":21.44861100,"rng_nm":80,"alt_fmsl":2034,"id":"PEP","desc":"PRILEP NDB-DME"},
{"type":"VOR","hdg_t":169.3,"dist_nm":71.4,"freq":112.9,"lat":39.48013900,"lon":22.77156300,"rng_nm":25,"alt_fmsl":146,"id":"STV","desc":"STEFANOVIKION VOR"},
{"type":"NDB","hdg_t":170.3,"dist_nm":72,"freq":522,"lat":39.46569500,"lon":22.74934100,"rng_nm":25,"alt_fmsl":0,"id":"STF","desc":"STEFANOVIKION NDB"},
{"type":"NDB","hdg_t":331.2,"dist_nm":74.1,"freq":442,"lat":41.73166700,"lon":21.69500000,"rng_nm":50,"alt_fmsl":0,"id":"BU","desc":"SKOPJE NDB"},
{"type":"VOR","hdg_t":356,"dist_nm":79.9,"freq":111.45,"lat":41.98083300,"lon":22.36555600,"rng_nm":50,"alt_fmsl":3891,"id":"SIN","desc":"SINKO VOR-DME"},
{"type":"NDB","hdg_t":333.3,"dist_nm":84.9,"freq":295,"lat":41.91416700,"lon":21.63805600,"rng_nm":50,"alt_fmsl":860,"id":"PT","desc":"SKOPJE NDB"},
{"type":"VOR","hdg_t":291.9,"dist_nm":85.6,"freq":112.5,"lat":41.17239400,"lon":20.73639400,"rng_nm":25,"alt_fmsl":2313,"id":"OHR","desc":"OHRID VOR-DME"},
{"type":"VOR","hdg_t":333.5,"dist_nm":86.2,"freq":112.8,"lat":41.93500000,"lon":21.63055600,"rng_nm":50,"alt_fmsl":872,"id":"SKJ","desc":"SKOPJE VOR-DME"},
{"type":"NDB","hdg_t":299.2,"dist_nm":86.3,"freq":432,"lat":41.34277800,"lon":20.82055600,"rng_nm":50,"alt_fmsl":2306,"id":"IZD","desc":"OHRID NDB"},
{"type":"SDME","hdg_t":172.1,"dist_nm":86.9,"freq":115.6,"lat":39.21388900,"lon":22.74416700,"rng_nm":25,"alt_fmsl":313,"id":"ANL","desc":"NEA ANCHIALOS TACAN"},
{"type":"NDB","hdg_t":170.4,"dist_nm":87,"freq":335,"lat":39.21833300,"lon":22.79944400,"rng_nm":100,"alt_fmsl":0,"id":"NAN","desc":"NEA ANCHIALOS NDB"},
{"type":"VOR","hdg_t":170.6,"dist_nm":87.1,"freq":110.4,"lat":39.21622200,"lon":22.79192500,"rng_nm":40,"alt_fmsl":65,"id":"AGH","desc":"ANCHIALOS VOR-DME"},
{"type":"VOR","hdg_t":233.9,"dist_nm":95.5,"freq":108.6,"lat":39.70138900,"lon":20.82000000,"rng_nm":130,"alt_fmsl":1568,"id":"YNN","desc":"IOANNINA VOR-DME"},
{"type":"NDB","hdg_t":233.9,"dist_nm":95.7,"freq":340,"lat":39.69888900,"lon":20.81611100,"rng_nm":50,"alt_fmsl":0,"id":"IOA","desc":"IOANNINA NDB"},
{"type":"VOR","hdg_t":80.1,"dist_nm":98.1,"freq":108.8,"lat":40.91184800,"lon":24.61409500,"rng_nm":130,"alt_fmsl":23,"id":"KPL","desc":"KAVALA VOR-DME"},
{"type":"SDME","hdg_t":80,"dist_nm":98.2,"freq":114.3,"lat":40.91573700,"lon":24.61603900,"rng_nm":25,"alt_fmsl":18,"id":"KRP","desc":"KAVALA TACAN"},
{"type":"NDB","hdg_t":79.6,"dist_nm":99,"freq":327,"lat":40.92684800,"lon":24.63270600,"rng_nm":25,"alt_fmsl":18,"id":"KHR","desc":"CHRISOUPOLIS NDB"}
]
}
