{"success":true,"source":"xp2csv.pl","last_updated":"2013/11/08 14:53:21 UTC"
,"icao":"LHFM","name":"Fertoszentmiklos","lat":47.5828305,"lon":16.8454165,"rwys":1,"ils":0,"index":3220067,"path":"e010n40/e016n47"
,"runways":[
{"len_m":985,"wid_m":22.86,"hdg":158,"surf":"Asphalt","rwy1":"16","lat1":47.58695300,"lon1":16.84301900,"rwy2":"34","lat2":47.57870800,"lon2":16.84781400}
]
,"radios":[
{"type":"TWR","freq":124.45,"desc":"INFO"}
]
,"navaids":[
{"type":"NDB","hdg_t":304.3,"dist_nm":27.6,"freq":315,"lat":47.84099700,"lon":16.28173100,"rng_nm":20,"alt_fmsl":0,"id":"TF","desc":"WIERNER NEUSTADT EAST NDB"},
{"type":"NDB","hdg_t":112,"dist_nm":27.8,"freq":481,"lat":47.40726900,"lon":17.47863300,"rng_nm":50,"alt_fmsl":0,"id":"PC","desc":"PARDUC NDB"},
{"type":"VOR","hdg_t":308,"dist_nm":28.5,"freq":115.5,"lat":47.87487500,"lon":16.28843600,"rng_nm":60,"alt_fmsl":891,"id":"SNU","desc":"SOLLENAU VOR-DME"},
{"type":"NDB","hdg_t":349.8,"dist_nm":29.2,"freq":408,"lat":48.06292200,"lon":16.71674700,"rng_nm":25,"alt_fmsl":558,"id":"BRK","desc":"BRUCK NDB"},
{"type":"NDB","hdg_t":117.4,"dist_nm":30.6,"freq":352,"lat":47.34552800,"lon":17.51171700,"rng_nm":25,"alt_fmsl":0,"id":"C","desc":"PARDUC NDB"},
{"type":"NDB","hdg_t":119.4,"dist_nm":31.8,"freq":481,"lat":47.32021100,"lon":17.52529700,"rng_nm":50,"alt_fmsl":0,"id":"CP","desc":"PARDUC NDB"},
{"type":"VOR","hdg_t":344.5,"dist_nm":32.5,"freq":110.4,"lat":48.10511400,"lon":16.62926400,"rng_nm":60,"alt_fmsl":639,"id":"FMD","desc":"FISCHAMEND VOR-DME"},
{"type":"NDB","hdg_t":82.2,"dist_nm":35.7,"freq":354,"lat":47.66004700,"lon":17.71791900,"rng_nm":60,"alt_fmsl":0,"id":"GYR","desc":"GYOR NDB"},
{"type":"VOR","hdg_t":82.3,"dist_nm":35.9,"freq":115.1,"lat":47.65910600,"lon":17.72435300,"rng_nm":100,"alt_fmsl":515,"id":"GYR","desc":"GYOR VOR-DME"},
{"type":"NDB","hdg_t":29.6,"dist_nm":36.8,"freq":330,"lat":48.11482800,"lon":17.29836700,"rng_nm":25,"alt_fmsl":0,"id":"OB","desc":"STEFANIK SOUTH NDB"},
{"type":"NDB","hdg_t":335.3,"dist_nm":37.3,"freq":303,"lat":48.14742500,"lon":16.45759200,"rng_nm":25,"alt_fmsl":0,"id":"WO","desc":"SCHWECHAT NDB"},
{"type":"NDB","hdg_t":25,"dist_nm":37.6,"freq":438,"lat":48.15074400,"lon":17.24269700,"rng_nm":25,"alt_fmsl":0,"id":"B","desc":"BARKA NDB"},
{"type":"SDME","hdg_t":23.1,"dist_nm":38.8,"freq":108.3,"lat":48.17664700,"lon":17.22476400,"rng_nm":25,"alt_fmsl":449,"id":"OKR","desc":"STEFANIK DME"},
{"type":"NDB","hdg_t":23.3,"dist_nm":39.5,"freq":429,"lat":48.18635000,"lon":17.23618900,"rng_nm":25,"alt_fmsl":0,"id":"D","desc":"DAVID NDB"},
{"type":"NDB","hdg_t":128.5,"dist_nm":39.7,"freq":465,"lat":47.16797800,"lon":17.60443900,"rng_nm":25,"alt_fmsl":0,"id":"VR","desc":"PARDUC NDB"},
{"type":"NDB","hdg_t":24.8,"dist_nm":42.4,"freq":391,"lat":48.22386700,"lon":17.29031900,"rng_nm":75,"alt_fmsl":0,"id":"OKR","desc":"STEFANIK NORTH NDB"},
{"type":"NDB","hdg_t":327.5,"dist_nm":44.7,"freq":293,"lat":48.21061700,"lon":16.24713600,"rng_nm":25,"alt_fmsl":1056,"id":"STE","desc":"STEINHOF NDB"},
{"type":"VOR","hdg_t":38,"dist_nm":45.5,"freq":110.8,"lat":48.17861100,"lon":17.54472200,"rng_nm":60,"alt_fmsl":423,"id":"JAN","desc":"JANOVCE VOR-DME"},
{"type":"VOR","hdg_t":342.3,"dist_nm":46.7,"freq":112.2,"lat":48.32385600,"lon":16.49095300,"rng_nm":60,"alt_fmsl":574,"id":"WGM","desc":"WAGRAM VOR-DME"},
{"type":"NDB","hdg_t":12.8,"dist_nm":54.9,"freq":477,"lat":48.47444400,"lon":17.15250000,"rng_nm":50,"alt_fmsl":0,"id":"RP","desc":"MALACKY NDB"},
{"type":"NDB","hdg_t":321.6,"dist_nm":55.8,"freq":358,"lat":48.30944400,"lon":15.98111100,"rng_nm":40,"alt_fmsl":594,"id":"TUN","desc":"TULLN NDB"},
{"type":"VOR","hdg_t":321.6,"dist_nm":55.8,"freq":111.4,"lat":48.30972200,"lon":15.98083300,"rng_nm":25,"alt_fmsl":640,"id":"TUN","desc":"TULLN VOR-DME"},
{"type":"NDB","hdg_t":123.6,"dist_nm":55.9,"freq":451,"lat":47.06102800,"lon":17.98035800,"rng_nm":25,"alt_fmsl":919,"id":"V","desc":"SZENTKIRALYSZABADJA NDB"},
{"type":"NDB","hdg_t":166.4,"dist_nm":56.6,"freq":428,"lat":46.66580600,"lon":17.16687200,"rng_nm":50,"alt_fmsl":0,"id":"SME","desc":"SARMELLEK NDB"},
{"type":"NDB","hdg_t":124.7,"dist_nm":57.5,"freq":362,"lat":47.03012500,"lon":17.99659200,"rng_nm":25,"alt_fmsl":0,"id":"VS","desc":"SZENTKIRALYSZABADJA NDB"},
{"type":"NDB","hdg_t":226,"dist_nm":59.7,"freq":426,"lat":46.88698900,"lon":15.80031900,"rng_nm":40,"alt_fmsl":984,"id":"GBG","desc":"GLEICHENBERG NDB"},
{"type":"VOR","hdg_t":326.6,"dist_nm":60.1,"freq":113,"lat":48.41713600,"lon":16.01859400,"rng_nm":60,"alt_fmsl":750,"id":"STO","desc":"STOCKERAU VOR-DME"},
{"type":"VOR","hdg_t":48.4,"dist_nm":64.5,"freq":116.5,"lat":48.29043600,"lon":18.05063900,"rng_nm":80,"alt_fmsl":810,"id":"NIT","desc":"NITRA VOR-DME"},
{"type":"NDB","hdg_t":48.1,"dist_nm":64.9,"freq":398,"lat":48.29835600,"lon":18.05244200,"rng_nm":50,"alt_fmsl":0,"id":"NIT","desc":"NITRA NDB"},
{"type":"VOR","hdg_t":237,"dist_nm":68.3,"freq":116.2,"lat":46.95536700,"lon":15.44943100,"rng_nm":60,"alt_fmsl":1097,"id":"GRZ","desc":"GRAZ VOR-DME"},
{"type":"NDB","hdg_t":130.5,"dist_nm":68.9,"freq":348,"lat":46.82983600,"lon":18.11719700,"rng_nm":60,"alt_fmsl":0,"id":"SVR","desc":"SAGVAR NDB"},
{"type":"VOR","hdg_t":130.5,"dist_nm":69,"freq":117.7,"lat":46.82811700,"lon":18.11779200,"rng_nm":100,"alt_fmsl":418,"id":"SVR","desc":"SAGVAR VOR-DME"},
{"type":"NDB","hdg_t":235.4,"dist_nm":69.2,"freq":290,"lat":46.92065600,"lon":15.45895300,"rng_nm":40,"alt_fmsl":1043,"id":"GRZ","desc":"GRAZ NDB"},
{"type":"NDB","hdg_t":32.7,"dist_nm":70.8,"freq":453,"lat":48.57076400,"lon":17.80837200,"rng_nm":50,"alt_fmsl":0,"id":"CN","desc":"PIESTANY NDB"},
{"type":"NDB","hdg_t":32.1,"dist_nm":73,"freq":297,"lat":48.60814200,"lon":17.82226400,"rng_nm":50,"alt_fmsl":0,"id":"C","desc":"CENTR NDB"},
{"type":"NDB","hdg_t":194.2,"dist_nm":78.6,"freq":344,"lat":46.31166700,"lon":16.38083300,"rng_nm":25,"alt_fmsl":0,"id":"VAR","desc":"VARAZDIN NDB"},
{"type":"NDB","hdg_t":152.6,"dist_nm":80.5,"freq":235,"lat":46.38766700,"lon":17.73513900,"rng_nm":25,"alt_fmsl":512,"id":"XNB","desc":"KAPOSVAR NDB"},
{"type":"NDB","hdg_t":107.7,"dist_nm":81.5,"freq":386,"lat":47.15246900,"lon":18.74281400,"rng_nm":60,"alt_fmsl":0,"id":"PTB","desc":"PUSZTASZABOLCS NDB"},
{"type":"VOR","hdg_t":107.7,"dist_nm":81.5,"freq":117.1,"lat":47.15221700,"lon":18.74231400,"rng_nm":100,"alt_fmsl":453,"id":"PTB","desc":"PUSZTASZABOLCS VOR-DME"},
{"type":"NDB","hdg_t":215.3,"dist_nm":81.9,"freq":355,"lat":46.46275300,"lon":15.70306100,"rng_nm":50,"alt_fmsl":847,"id":"MI","desc":"MARIBOR NDB"},
{"type":"NDB","hdg_t":147.6,"dist_nm":82.7,"freq":459,"lat":46.41300300,"lon":17.91141100,"rng_nm":50,"alt_fmsl":0,"id":"K","desc":"TAZAR NDB"},
{"type":"SDME","hdg_t":147.8,"dist_nm":83.7,"freq":114.2,"lat":46.39698300,"lon":17.91948300,"rng_nm":25,"alt_fmsl":526,"id":"MOB","desc":"TASZAR TACAN"},
{"type":"NDB","hdg_t":211.1,"dist_nm":84.5,"freq":334,"lat":46.37153100,"lon":15.79324400,"rng_nm":25,"alt_fmsl":768,"id":"MR","desc":"MARIBOR NDB"},
{"type":"NDB","hdg_t":255.5,"dist_nm":88.2,"freq":418,"lat":47.19805600,"lon":14.75666700,"rng_nm":40,"alt_fmsl":0,"id":"ZW","desc":"ZELTWEG NDB"},
{"type":"NDB","hdg_t":29.4,"dist_nm":88.4,"freq":338,"lat":48.86111100,"lon":17.94166700,"rng_nm":25,"alt_fmsl":0,"id":"TR","desc":"TRENCIN NDB"},
{"type":"NDB","hdg_t":99,"dist_nm":89,"freq":300,"lat":47.32946900,"lon":19.00112200,"rng_nm":25,"alt_fmsl":333,"id":"D","desc":"TOKOL NDB"},
{"type":"NDB","hdg_t":99.6,"dist_nm":90.2,"freq":510,"lat":47.30905000,"lon":19.02434400,"rng_nm":25,"alt_fmsl":333,"id":"DU","desc":"TOKOL NDB"},
{"type":"NDB","hdg_t":15.2,"dist_nm":91.1,"freq":434,"lat":49.04648600,"lon":17.45215300,"rng_nm":25,"alt_fmsl":0,"id":"KNE","desc":"KUNOVICE NDB"},
{"type":"NDB","hdg_t":358.1,"dist_nm":93.8,"freq":368,"lat":49.14482500,"lon":16.76855000,"rng_nm":50,"alt_fmsl":0,"id":"BNO","desc":"BRNO NDB"},
{"type":"NDB","hdg_t":92.5,"dist_nm":93.8,"freq":329,"lat":47.49085000,"lon":19.14944400,"rng_nm":25,"alt_fmsl":0,"id":"HA","desc":"BUDAPEST NDB"},
{"type":"VOR","hdg_t":356.3,"dist_nm":94.2,"freq":113.9,"lat":49.15006400,"lon":16.69258100,"rng_nm":130,"alt_fmsl":800,"id":"BNO","desc":"BRNO VOR-DME"},
{"type":"NDB","hdg_t":92.5,"dist_nm":95.3,"freq":335,"lat":47.48898600,"lon":19.18620000,"rng_nm":75,"alt_fmsl":495,"id":"BL","desc":"FERIHEGY (BUDAPEST) NDB"},
{"type":"NDB","hdg_t":15.6,"dist_nm":95.6,"freq":416,"lat":49.11392200,"lon":17.50139700,"rng_nm":25,"alt_fmsl":0,"id":"KUN","desc":"KUNOVICE NDB"},
{"type":"NDB","hdg_t":93.6,"dist_nm":96.4,"freq":343,"lat":47.45504700,"lon":19.21050000,"rng_nm":37,"alt_fmsl":495,"id":"A","desc":"FERIHEGY (BUDAPEST) NDB"},
{"type":"NDB","hdg_t":344.3,"dist_nm":97,"freq":563,"lat":49.13650300,"lon":16.17961100,"rng_nm":75,"alt_fmsl":0,"id":"LA","desc":"NAMEST NDB"},
{"type":"NDB","hdg_t":93.7,"dist_nm":98,"freq":357,"lat":47.45201700,"lon":19.24765500,"rng_nm":75,"alt_fmsl":495,"id":"L","desc":"FERIHEGY (BUDAPEST) NDB"},
{"type":"VOR","hdg_t":93.7,"dist_nm":98,"freq":117.3,"lat":47.45127700,"lon":19.24925700,"rng_nm":37,"alt_fmsl":541,"id":"BUD","desc":"BUDAPEST VOR-DME"},
{"type":"VOR","hdg_t":328.4,"dist_nm":98.1,"freq":113.15,"lat":48.96917500,"lon":15.54557800,"rng_nm":130,"alt_fmsl":1600,"id":"OKF","desc":"DESNA VOR-DME"},
{"type":"NDB","hdg_t":94.6,"dist_nm":98.7,"freq":403,"lat":47.42395600,"lon":19.26075000,"rng_nm":37,"alt_fmsl":495,"id":"M","desc":"FERIHEGY (BUDAPEST) NDB"}
]
}
