{"success":true,"source":"xp2csv.pl","last_updated":"2013/11/08 14:53:21 UTC"
,"icao":"LIME","name":"Bergamo Orio Al Serio","lat":45.67397568,"lon":9.70273917,"rwys":2,"ils":1,"index":3105258,"path":"e000n40/e009n45"
,"runways":[
{"len_m":813,"wid_m":17.98,"hdg":121,"surf":"Asphalt","rwy1":"12","lat1":45.67822607,"lon1":9.70153005,"rwy2":"30","lat2":45.67441307,"lon2":9.71044405},
{"len_m":3023,"wid_m":45.11,"hdg":104,"surf":"Asphalt","rwy1":"10","lat1":45.67117515,"lon1":9.68904423,"rwy2":"28","lat2":45.66420099,"lon2":9.72655155}
]
,"helipads":[
{"rwy1":"H1","len_m":15,"wid_m":15.85,"hdg":9,"surf":"Concrete","lat1":45.67571825,"lon1":9.70070502},
{"rwy1":"H2","len_m":15,"wid_m":15.85,"hdg":9,"surf":"Concrete","lat1":45.67528744,"lon1":9.69996488},
{"rwy1":"H3","len_m":15,"wid_m":15.85,"hdg":9,"surf":"Concrete","lat1":45.67486507,"lon1":9.69924101}
]
,"radios":[
{"type":"GND","freq":120.5,"desc":"ORIO GND"},
{"type":"TWR","freq":126.5,"desc":"ORIO TWR"},
{"type":"TWR","freq":120.5,"desc":"ORIO TWR"},
{"type":"APP","freq":126.75,"desc":"MILANO APP"},
{"type":"APP","freq":132.7,"desc":"MILANO APP"}
]
,"ils":[
{"type":"ILS","freq":108.7,"lat":45.67166700,"lon":9.68694400,"rng_nm":18,"alt_fmsl":779,"hdg":285.08,"id":"BRM","rwy":"28","desc":"ILS-cat-III"},
{"type":"GS","freq":108.7,"lat":45.66638900,"lon":9.72055600,"rng_nm":10,"alt_fmsl":779,"id":"BRM","rwy":"28","desc":"GS","gs":3},
{"type":"MM","freq":0,"lat":45.66146900,"lon":9.73802500,"rng_nm":0,"alt_fmsl":779,"id":"----","rwy":"28","desc":"MM"},
{"type":"DME","freq":108.7,"lat":45.66666700,"lon":9.72055600,"rng_nm":18,"alt_fmsl":779,"id":"BRM","rwy":"28","desc":"DME-ILS"}
]
,"navaids":[
{"type":"VOR","hdg_t":135.1,"dist_nm":0.3,"freq":114.95,"lat":45.66943900,"lon":9.70918500,"rng_nm":40,"alt_fmsl":810,"id":"BEG","desc":"BERGAMO VOR-DME"},
{"type":"DME","hdg_t":135.1,"dist_nm":0.3,"freq":112.6,"lat":45.66943900,"lon":9.70918500,"rng_nm":40,"alt_fmsl":810,"id":"BEG","desc":"BERGAMO VOR-DME"},
{"type":"NDB","hdg_t":107.1,"dist_nm":6.1,"freq":376,"lat":45.64388900,"lon":9.84166700,"rng_nm":25,"alt_fmsl":675,"id":"ORI","desc":"ORIO NDB"},
{"type":"NDB","hdg_t":229.6,"dist_nm":10.6,"freq":345,"lat":45.55833300,"lon":9.50944400,"rng_nm":50,"alt_fmsl":495,"id":"TZO","desc":"TREZZO NDB"},
{"type":"VOR","hdg_t":230.1,"dist_nm":10.7,"freq":111.8,"lat":45.55916000,"lon":9.50721900,"rng_nm":60,"alt_fmsl":538,"id":"TZO","desc":"TREZZO VOR-DME"},
{"type":"VOR","hdg_t":234.8,"dist_nm":22,"freq":112.25,"lat":45.46124100,"lon":9.27532900,"rng_nm":25,"alt_fmsl":387,"id":"LIN","desc":"LINATE VOR-DME"},
{"type":"NDB","hdg_t":221.6,"dist_nm":26.3,"freq":386,"lat":45.34436100,"lon":9.28858300,"rng_nm":25,"alt_fmsl":292,"id":"LIN","desc":"LINATE NDB"},
{"type":"NDB","hdg_t":194.3,"dist_nm":27.7,"freq":400,"lat":45.22627800,"lon":9.54119400,"rng_nm":25,"alt_fmsl":217,"id":"COD","desc":"CODOGNO NDB"},
{"type":"SDME","hdg_t":119.8,"dist_nm":27.9,"freq":110.9,"lat":45.44027800,"lon":10.27666700,"rng_nm":130,"alt_fmsl":332,"id":"GHE","desc":"GHEDI TACAN"},
{"type":"NDB","hdg_t":266.9,"dist_nm":28.6,"freq":330,"lat":45.64666700,"lon":9.02277800,"rng_nm":25,"alt_fmsl":758,"id":"SRN","desc":"SARONNO NDB"},
{"type":"VOR","hdg_t":266.8,"dist_nm":28.7,"freq":113.7,"lat":45.64596000,"lon":9.02161000,"rng_nm":100,"alt_fmsl":800,"id":"SRN","desc":"SARONNO VOR-DME"},
{"type":"VOR","hdg_t":118.4,"dist_nm":29.4,"freq":117.7,"lat":45.43802100,"lon":10.31599700,"rng_nm":25,"alt_fmsl":354,"id":"BSA","desc":"MONTICHIARI VOR-DME"},
{"type":"NDB","hdg_t":259.4,"dist_nm":40.5,"freq":364,"lat":45.54583200,"lon":8.75627800,"rng_nm":25,"alt_fmsl":583,"id":"MAL","desc":"MALPENSA NDB"},
{"type":"VOR","hdg_t":267.5,"dist_nm":40.7,"freq":113.35,"lat":45.64076600,"lon":8.73482700,"rng_nm":80,"alt_fmsl":764,"id":"MMP","desc":"MALPENSA VOR-DME"},
{"type":"NDB","hdg_t":248.9,"dist_nm":41.1,"freq":292,"lat":45.42413900,"lon":8.79386100,"rng_nm":25,"alt_fmsl":0,"id":"NOV","desc":"NOVARA NDB"},
{"type":"SDME","hdg_t":262.3,"dist_nm":44.4,"freq":115,"lat":45.57022200,"lon":8.65752500,"rng_nm":50,"alt_fmsl":692,"id":"CAM","desc":"CAMERI TACAN"},
{"type":"NDB","hdg_t":251.1,"dist_nm":44.7,"freq":323,"lat":45.42861100,"lon":8.70083300,"rng_nm":25,"alt_fmsl":436,"id":"CAM","desc":"CAMERI NDB"},
{"type":"SDME","hdg_t":6.3,"dist_nm":44.9,"freq":112.05,"lat":46.41805600,"lon":9.82166700,"rng_nm":80,"alt_fmsl":10987,"id":"CVA","desc":"CORVATSCH DME"},
{"type":"SDME","hdg_t":179,"dist_nm":45.4,"freq":117.4,"lat":44.91722200,"lon":9.72055600,"rng_nm":130,"alt_fmsl":484,"id":"PIA","desc":"PIACENZA TACAN"},
{"type":"NDB","hdg_t":126.3,"dist_nm":47.4,"freq":382,"lat":45.20169400,"lon":10.60413900,"rng_nm":25,"alt_fmsl":109,"id":"GAZ","desc":"GAZOLDO NDB"},
{"type":"NDB","hdg_t":173.7,"dist_nm":48.4,"freq":440,"lat":44.87166600,"lon":9.82666700,"rng_nm":40,"alt_fmsl":647,"id":"PIA","desc":"PIACENZA NDB"},
{"type":"NDB","hdg_t":216.2,"dist_nm":52.6,"freq":333,"lat":44.96388900,"lon":8.97222200,"rng_nm":50,"alt_fmsl":341,"id":"VOG","desc":"VOGHERA NDB"},
{"type":"VOR","hdg_t":216.3,"dist_nm":52.6,"freq":115.5,"lat":44.96442300,"lon":8.97027000,"rng_nm":40,"alt_fmsl":384,"id":"VOG","desc":"VOGHERA VOR-DME"},
{"type":"VOR","hdg_t":107,"dist_nm":53.2,"freq":115.8,"lat":45.40791700,"lon":10.90622200,"rng_nm":60,"alt_fmsl":239,"id":"VIL","desc":"VILLAFRANCA VORTAC"},
{"type":"NDB","hdg_t":153.6,"dist_nm":56.9,"freq":306,"lat":44.82228851,"lon":10.29326916,"rng_nm":50,"alt_fmsl":163,"id":"PAR","desc":"PARMA NDB"},
{"type":"NDB","hdg_t":259.7,"dist_nm":67.7,"freq":350,"lat":45.46219400,"lon":8.12336100,"rng_nm":25,"alt_fmsl":773,"id":"BLA","desc":"BIELLA CERRIONE NDB"},
{"type":"VOR","hdg_t":261.4,"dist_nm":68.3,"freq":116.1,"lat":45.49420500,"lon":8.10057500,"rng_nm":30,"alt_fmsl":921,"id":"BLA","desc":"BIELLA VOR-DME"},
{"type":"VOR","hdg_t":199.6,"dist_nm":79.4,"freq":112.8,"lat":44.42444400,"lon":9.08233300,"rng_nm":60,"alt_fmsl":2515,"id":"GEN","desc":"GENOVA VOR-DME"},
{"type":"NDB","hdg_t":199.5,"dist_nm":79.5,"freq":318,"lat":44.42388900,"lon":9.08333300,"rng_nm":100,"alt_fmsl":2854,"id":"GEN","desc":"GENOVA NDB"},
{"type":"VOR","hdg_t":55.9,"dist_nm":79.6,"freq":117.05,"lat":46.40516000,"lon":11.29228800,"rng_nm":40,"alt_fmsl":2135,"id":"OZE","desc":"BOLZANO VOR-DME"},
{"type":"NDB","hdg_t":54.3,"dist_nm":82.6,"freq":362,"lat":46.46388900,"lon":11.32222200,"rng_nm":60,"alt_fmsl":797,"id":"BZO","desc":"BOLZANO NDB"},
{"type":"NDB","hdg_t":90.8,"dist_nm":83,"freq":417,"lat":45.63694400,"lon":11.67472200,"rng_nm":50,"alt_fmsl":150,"id":"VIC","desc":"VICENZA NDB"},
{"type":"VOR","hdg_t":90.8,"dist_nm":83,"freq":113.4,"lat":45.63719900,"lon":11.67637600,"rng_nm":80,"alt_fmsl":213,"id":"VIC","desc":"VICENZA VOR-DME"},
{"type":"VOR","hdg_t":206.6,"dist_nm":84.1,"freq":108.6,"lat":44.41733300,"lon":8.82363900,"rng_nm":40,"alt_fmsl":33,"id":"SES","desc":"SESTRI VOR-DME"},
{"type":"VOR","hdg_t":240.7,"dist_nm":89.9,"freq":114.5,"lat":44.92525400,"lon":7.86165600,"rng_nm":100,"alt_fmsl":853,"id":"TOP","desc":"TORINO VOR-DME"},
{"type":"NDB","hdg_t":240.7,"dist_nm":90,"freq":392,"lat":44.92472200,"lon":7.86055600,"rng_nm":50,"alt_fmsl":817,"id":"TOP","desc":"TORINO NDB"},
{"type":"VOR","hdg_t":253.2,"dist_nm":90.9,"freq":116.75,"lat":45.21969500,"lon":7.64957300,"rng_nm":45,"alt_fmsl":1007,"id":"CSL","desc":"CASELLE VOR-DME"},
{"type":"NDB","hdg_t":99.6,"dist_nm":91.8,"freq":332,"lat":45.39669400,"lon":11.84472200,"rng_nm":25,"alt_fmsl":0,"id":"PDA","desc":"PADOVA NDB"},
{"type":"NDB","hdg_t":135.6,"dist_nm":91.9,"freq":413,"lat":44.56722200,"lon":11.20027600,"rng_nm":60,"alt_fmsl":95,"id":"BOA","desc":"BOLOGNA NDB"},
{"type":"NDB","hdg_t":249.9,"dist_nm":93,"freq":357,"lat":45.12352800,"lon":7.64533300,"rng_nm":25,"alt_fmsl":836,"id":"CAS","desc":"CASELLE NDB"},
{"type":"VOR","hdg_t":134.7,"dist_nm":95.9,"freq":117.1,"lat":44.53693700,"lon":11.29055300,"rng_nm":40,"alt_fmsl":154,"id":"BOA","desc":"BOLOGNA VOR-DME"},
{"type":"NDB","hdg_t":121.7,"dist_nm":96.1,"freq":427,"lat":44.81444400,"lon":11.61638900,"rng_nm":50,"alt_fmsl":20,"id":"FER","desc":"FERRARA NDB"},
{"type":"VOR","hdg_t":273.3,"dist_nm":99.4,"freq":109.25,"lat":45.74572200,"lon":7.33858300,"rng_nm":40,"alt_fmsl":774,"id":"SCS","desc":"AOSTA VOR-DME"},
{"type":"VOR","hdg_t":293.4,"dist_nm":99.6,"freq":115.85,"lat":46.31336100,"lon":7.50333300,"rng_nm":40,"alt_fmsl":4456,"id":"MOT","desc":"MONTANA VOR-DME"}
]
}
