{"success":true,"source":"xp2csv.pl","last_updated":"2013/11/08 14:53:21 UTC"
,"icao":"LINL","name":"Lecce Lepore","lat":40.3566666,"lon":18.2933331,"rwys":1,"ils":0,"index":3252369,"path":"e010n40/e018n40"
,"runways":[
{"len_m":699,"wid_m":29.87,"hdg":177,"surf":"Turf/grass","rwy1":"18","lat1":40.35981362,"lon1":18.29318888,"rwy2":"36","lat2":40.35351958,"lon2":18.29347732}
]
,"navaids":[
{"type":"VOR","hdg_t":228.7,"dist_nm":9.9,"freq":112.8,"lat":40.24721000,"lon":18.13082600,"rng_nm":40,"alt_fmsl":217,"id":"LCC","desc":"LECCE VORTAC"},
{"type":"NDB","hdg_t":318.9,"dist_nm":19.8,"freq":363,"lat":40.60555600,"lon":18.00888900,"rng_nm":78,"alt_fmsl":16,"id":"BRD","desc":"BRINDISI NDB"},
{"type":"VOR","hdg_t":318.9,"dist_nm":20.2,"freq":113.2,"lat":40.61083000,"lon":18.00277800,"rng_nm":200,"alt_fmsl":85,"id":"BRD","desc":"BRINDISI VORTAC"},
{"type":"NDB","hdg_t":277.9,"dist_nm":40.2,"freq":331,"lat":40.44583300,"lon":17.42222200,"rng_nm":25,"alt_fmsl":367,"id":"GRT","desc":"GROTTAGLIE NDB"},
{"type":"VOR","hdg_t":283,"dist_nm":41.5,"freq":110.2,"lat":40.50964700,"lon":17.40799000,"rng_nm":25,"alt_fmsl":230,"id":"TAG","desc":"GROTTAGLIE VOR-DME"},
{"type":"SDME","hdg_t":293.1,"dist_nm":68.9,"freq":117.8,"lat":40.80125600,"lon":16.90125600,"rng_nm":130,"alt_fmsl":1183,"id":"GIO","desc":"GIOIA DEL COLLE TACAN"},
{"type":"VOR","hdg_t":304.8,"dist_nm":83.7,"freq":116.4,"lat":41.14417100,"lon":16.77638300,"rng_nm":80,"alt_fmsl":121,"id":"BAR","desc":"BARI VOR-DME"},
{"type":"VOR","hdg_t":120.5,"dist_nm":87,"freq":108.8,"lat":39.60638900,"lon":19.90944400,"rng_nm":25,"alt_fmsl":29,"id":"GAR","desc":"GARITSA VOR-DME"},
{"type":"NDB","hdg_t":301.7,"dist_nm":87.1,"freq":401,"lat":41.11030600,"lon":16.66044400,"rng_nm":25,"alt_fmsl":418,"id":"BPL","desc":"BARI PALESE NDB"},
{"type":"NDB","hdg_t":121.1,"dist_nm":87.7,"freq":403,"lat":39.58777800,"lon":19.91166700,"rng_nm":25,"alt_fmsl":0,"id":"KEK","desc":"KERKIRA NDB"},
{"type":"NDB","hdg_t":46.6,"dist_nm":89,"freq":380,"lat":41.36750000,"lon":19.72777800,"rng_nm":75,"alt_fmsl":0,"id":"KA","desc":"KA NDB"},
{"type":"SDME","hdg_t":44.9,"dist_nm":90.6,"freq":117.7,"lat":41.41833300,"lon":19.71166700,"rng_nm":25,"alt_fmsl":0,"id":"TR","desc":"TR DME"},
{"type":"VOR","hdg_t":45.1,"dist_nm":90.7,"freq":117.7,"lat":41.41612500,"lon":19.71819200,"rng_nm":110,"alt_fmsl":125,"id":"TRN","desc":"TIRANA VOR-DME"},
{"type":"NDB","hdg_t":44.5,"dist_nm":91.7,"freq":598,"lat":41.43750000,"lon":19.72083300,"rng_nm":75,"alt_fmsl":0,"id":"A","desc":"RINAS NDB"},
{"type":"NDB","hdg_t":43.7,"dist_nm":92.6,"freq":290,"lat":41.46323100,"lon":19.71414400,"rng_nm":75,"alt_fmsl":89,"id":"TR","desc":"TIRANA NDB"},
{"type":"VOR","hdg_t":123,"dist_nm":98.7,"freq":114.7,"lat":39.44388900,"lon":20.07277800,"rng_nm":130,"alt_fmsl":78,"id":"KRK","desc":"KERKIRA VOR-DME"},
{"type":"VOR","hdg_t":214.8,"dist_nm":98.9,"freq":117.1,"lat":38.99611300,"lon":17.08305400,"rng_nm":150,"alt_fmsl":548,"id":"CRN","desc":"CROTONE VOR-DME"}
]
}
