{"success":true,"source":"xp2csv.pl","last_updated":"2013/11/08 14:53:21 UTC"
,"icao":"LIPD","name":"Udine Campoformido","lat":46.031399,"lon":13.186903,"rwys":1,"ils":0,"index":3170816,"path":"e010n40/e013n46"
,"runways":[
{"len_m":730,"wid_m":39.93,"hdg":40,"surf":"Dirt","rwy1":"04","lat1":46.02888381,"lon1":13.18386310,"rwy2":"22","lat2":46.03391419,"lon2":13.18994290}
]
,"navaids":[
{"type":"SDME","hdg_t":242.5,"dist_nm":4.6,"freq":110,"lat":45.99572800,"lon":13.08838900,"rng_nm":130,"alt_fmsl":267,"id":"RIV","desc":"RIVOLTO TACAN"},
{"type":"NDB","hdg_t":240.7,"dist_nm":11.7,"freq":371,"lat":45.93527800,"lon":12.94194400,"rng_nm":50,"alt_fmsl":105,"id":"RIV","desc":"RIVOLTO NDB"},
{"type":"NDB","hdg_t":149,"dist_nm":14.1,"freq":396,"lat":45.82888900,"lon":13.36027800,"rng_nm":25,"alt_fmsl":10,"id":"RON","desc":"RONCHI DEI LEGIONARI NDB"},
{"type":"VOR","hdg_t":134.4,"dist_nm":17.2,"freq":114.2,"lat":45.82970900,"lon":13.48027200,"rng_nm":40,"alt_fmsl":69,"id":"RCH","desc":"RONCHI DEI LEGIONARI VOR-DME"},
{"type":"SDME","hdg_t":269.7,"dist_nm":25,"freq":116.4,"lat":46.02786700,"lon":12.58688100,"rng_nm":25,"alt_fmsl":413,"id":"AVI","desc":"AVIANO TACAN"},
{"type":"NDB","hdg_t":258.8,"dist_nm":32.3,"freq":390,"lat":45.92444400,"lon":12.42861100,"rng_nm":50,"alt_fmsl":118,"id":"AVI","desc":"AVIANO NDB"},
{"type":"NDB","hdg_t":151.4,"dist_nm":37.7,"freq":388,"lat":45.47746400,"lon":13.61492200,"rng_nm":25,"alt_fmsl":10,"id":"PZ","desc":"PORTOROZ NDB"},
{"type":"NDB","hdg_t":243.9,"dist_nm":44.8,"freq":340,"lat":45.69858300,"lon":12.22836100,"rng_nm":50,"alt_fmsl":75,"id":"ISA","desc":"ISTRANA NDB"},
{"type":"VOR","hdg_t":228.4,"dist_nm":46.1,"freq":115.3,"lat":45.51897900,"lon":12.36814600,"rng_nm":40,"alt_fmsl":29,"id":"TES","desc":"TESSERA VOR-DME"},
{"type":"SDME","hdg_t":245.6,"dist_nm":49.3,"freq":111.7,"lat":45.68750000,"lon":12.11694400,"rng_nm":25,"alt_fmsl":189,"id":"ISA","desc":"ISTRANA TACAN"},
{"type":"VOR","hdg_t":123.7,"dist_nm":49.8,"freq":114.8,"lat":45.56558600,"lon":14.17086400,"rng_nm":100,"alt_fmsl":1962,"id":"ILB","desc":"BISTRICA VOR-DME"},
{"type":"NDB","hdg_t":123.7,"dist_nm":49.9,"freq":414,"lat":45.56446700,"lon":14.17196700,"rng_nm":50,"alt_fmsl":1880,"id":"ILB","desc":"BISTRICA NDB"},
{"type":"VOR","hdg_t":36.8,"dist_nm":50,"freq":112.9,"lat":46.69639200,"lon":13.91464400,"rng_nm":60,"alt_fmsl":6285,"id":"VIW","desc":"VILLACH VOR-DME"},
{"type":"NDB","hdg_t":227.9,"dist_nm":51.8,"freq":379,"lat":45.44910800,"lon":12.27691700,"rng_nm":25,"alt_fmsl":0,"id":"VEN","desc":"VENEZIA NDB"},
{"type":"NDB","hdg_t":242.2,"dist_nm":51.9,"freq":301,"lat":45.62247000,"lon":12.09563800,"rng_nm":25,"alt_fmsl":61,"id":"TRE","desc":"TREVISO NDB"},
{"type":"NDB","hdg_t":158.2,"dist_nm":52.9,"freq":369,"lat":45.21018300,"lon":13.64897500,"rng_nm":25,"alt_fmsl":236,"id":"VRS","desc":"VRSAR NDB"},
{"type":"NDB","hdg_t":47.9,"dist_nm":57.4,"freq":405,"lat":46.66747500,"lon":14.21825300,"rng_nm":25,"alt_fmsl":0,"id":"KW","desc":"KLAGENFURT NDB"},
{"type":"NDB","hdg_t":81,"dist_nm":57.7,"freq":296,"lat":46.17323100,"lon":14.55594400,"rng_nm":25,"alt_fmsl":1063,"id":"MG","desc":"LJUBLJANA NDB"},
{"type":"NDB","hdg_t":126.4,"dist_nm":60.8,"freq":400,"lat":45.42365000,"lon":14.34540000,"rng_nm":50,"alt_fmsl":0,"id":"BRZ","desc":"BREZA NDB"},
{"type":"NDB","hdg_t":85.4,"dist_nm":62.3,"freq":328,"lat":46.10500000,"lon":14.67546400,"rng_nm":100,"alt_fmsl":1004,"id":"KAM","desc":"DOLSKO NDB"},
{"type":"NDB","hdg_t":57,"dist_nm":66.3,"freq":374,"lat":46.62515000,"lon":14.53416400,"rng_nm":40,"alt_fmsl":1509,"id":"KFT","desc":"KLAGENFURT NDB"},
{"type":"VOR","hdg_t":86.7,"dist_nm":66.5,"freq":112.7,"lat":46.08413900,"lon":14.77857500,"rng_nm":100,"alt_fmsl":2047,"id":"DOL","desc":"DOLSKO VOR-DME"},
{"type":"VOR","hdg_t":58.7,"dist_nm":66.5,"freq":113.1,"lat":46.59758300,"lon":14.56231900,"rng_nm":60,"alt_fmsl":2279,"id":"KFT","desc":"KLAGENFURT VOR-DME"},
{"type":"NDB","hdg_t":127.8,"dist_nm":67.5,"freq":438,"lat":45.33463600,"lon":14.44676400,"rng_nm":50,"alt_fmsl":0,"id":"KO","desc":"KOZALA NDB"},
{"type":"VOR","hdg_t":250,"dist_nm":67.6,"freq":113.4,"lat":45.63719900,"lon":11.67637600,"rng_nm":80,"alt_fmsl":213,"id":"VIC","desc":"VICENZA VOR-DME"},
{"type":"NDB","hdg_t":250,"dist_nm":67.7,"freq":417,"lat":45.63694400,"lon":11.67472200,"rng_nm":50,"alt_fmsl":150,"id":"VIC","desc":"VICENZA NDB"},
{"type":"NDB","hdg_t":236.4,"dist_nm":68,"freq":332,"lat":45.39669400,"lon":11.84472200,"rng_nm":25,"alt_fmsl":0,"id":"PDA","desc":"PADOVA NDB"},
{"type":"NDB","hdg_t":213.8,"dist_nm":69,"freq":408,"lat":45.07166700,"lon":12.28138900,"rng_nm":50,"alt_fmsl":0,"id":"CHI","desc":"CHIOGGIA NDB"},
{"type":"VOR","hdg_t":213.8,"dist_nm":69.1,"freq":114.1,"lat":45.07109200,"lon":12.28139600,"rng_nm":80,"alt_fmsl":33,"id":"CHI","desc":"CHIOGGIA VOR-DME"},
{"type":"NDB","hdg_t":160.5,"dist_nm":72.6,"freq":351,"lat":44.88920800,"lon":13.75351700,"rng_nm":50,"alt_fmsl":27,"id":"PLA","desc":"PULA NDB"},
{"type":"VOR","hdg_t":155.4,"dist_nm":75,"freq":111.25,"lat":44.89236700,"lon":13.91812800,"rng_nm":100,"alt_fmsl":189,"id":"PUL","desc":"PULA VOR-DME"},
{"type":"VOR","hdg_t":129.3,"dist_nm":75.6,"freq":117.8,"lat":45.22412200,"lon":14.56696100,"rng_nm":60,"alt_fmsl":360,"id":"RJK","desc":"RIJEKA VOR-DME"},
{"type":"NDB","hdg_t":152.7,"dist_nm":76.4,"freq":265,"lat":44.89535300,"lon":14.00823900,"rng_nm":50,"alt_fmsl":56,"id":"KAV","desc":"KAVRAN NDB"},
{"type":"NDB","hdg_t":289.1,"dist_nm":81.8,"freq":362,"lat":46.46388900,"lon":11.32222200,"rng_nm":60,"alt_fmsl":797,"id":"BZO","desc":"BOLZANO NDB"},
{"type":"NDB","hdg_t":130.4,"dist_nm":81.8,"freq":289,"lat":45.13751100,"lon":14.65293300,"rng_nm":50,"alt_fmsl":0,"id":"RI","desc":"RIJEKA NDB"},
{"type":"VOR","hdg_t":286.5,"dist_nm":82,"freq":117.05,"lat":46.40516000,"lon":11.29228800,"rng_nm":40,"alt_fmsl":2135,"id":"OZE","desc":"BOLZANO VOR-DME"},
{"type":"NDB","hdg_t":142,"dist_nm":85.3,"freq":433,"lat":44.90288100,"lon":14.41654700,"rng_nm":50,"alt_fmsl":0,"id":"CRE","desc":"CRES NDB"},
{"type":"NDB","hdg_t":103.4,"dist_nm":92.2,"freq":394,"lat":45.65458900,"lon":15.31823600,"rng_nm":100,"alt_fmsl":731,"id":"MEL","desc":"METLIKA NDB"},
{"type":"NDB","hdg_t":42.2,"dist_nm":95.4,"freq":418,"lat":47.19805600,"lon":14.75666700,"rng_nm":40,"alt_fmsl":0,"id":"ZW","desc":"ZELTWEG NDB"},
{"type":"NDB","hdg_t":328.9,"dist_nm":98.5,"freq":303,"lat":47.43092200,"lon":11.94005300,"rng_nm":25,"alt_fmsl":3707,"id":"RTT","desc":"RATTENBERG NDB"},
{"type":"NDB","hdg_t":222.8,"dist_nm":98.6,"freq":427,"lat":44.81444400,"lon":11.61638900,"rng_nm":50,"alt_fmsl":20,"id":"FER","desc":"FERRARA NDB"}
]
}
