{"success":true,"source":"xp2csv.pl","last_updated":"2013/11/08 14:53:21 UTC"
,"icao":"LIRN","name":"Naples Capodichino","lat":40.886032,"lon":14.2907835,"rwys":1,"ils":2,"index":3186873,"path":"e010n40/e014n40"
,"runways":[
{"len_m":2627,"wid_m":45.11,"hdg":58,"surf":"Asphalt","rwy1":"06","lat1":40.87978600,"lon1":14.27754200,"rwy2":"24","lat2":40.89227800,"lon2":14.30402500}
]
,"radios":[
{"type":"ATIS","freq":135.97,"desc":"ATIS"},
{"type":"GND","freq":121.9,"desc":"NAPOLI GND CLNC DEL"},
{"type":"TWR","freq":118.5,"desc":"NAPOLI TWR"},
{"type":"APP","freq":124.35,"desc":"NAPOLI RADAR"}
]
,"ils":[
{"type":"ILS","freq":110.15,"lat":40.88688900,"lon":14.28988900,"rng_nm":18,"alt_fmsl":294,"hdg":52.74,"id":"NPC","rwy":"06","desc":"ILS-cat-I"},
{"type":"ILS","freq":109.5,"lat":40.87905600,"lon":14.27600000,"rng_nm":18,"alt_fmsl":288,"hdg":238.03,"id":"INPL","rwy":"24","desc":"ILS-cat-I"},
{"type":"GS","freq":110.15,"lat":40.88427800,"lon":14.28358300,"rng_nm":10,"alt_fmsl":294,"id":"NPC","rwy":"06","desc":"GS","gs":3.5},
{"type":"GS","freq":109.5,"lat":40.89116700,"lon":14.29894400,"rng_nm":10,"alt_fmsl":250,"id":"INPL","rwy":"24","desc":"GS","gs":3.33},
{"type":"OM","freq":0,"lat":40.92861100,"lon":14.38305600,"rng_nm":0,"alt_fmsl":288,"id":"----","rwy":"24","desc":"OM"},
{"type":"MM","freq":0,"lat":40.89711100,"lon":14.31427800,"rng_nm":0,"alt_fmsl":288,"id":"----","rwy":"24","desc":"MM"},
{"type":"DME","freq":110.15,"lat":40.88427800,"lon":14.28358300,"rng_nm":25,"alt_fmsl":294,"id":"NPC","rwy":"06","desc":"DME-ILS"},
{"type":"DME","freq":109.5,"lat":40.89116700,"lon":14.29894400,"rng_nm":25,"alt_fmsl":250,"id":"INPL","rwy":"24","desc":"DME-ILS"}
]
,"navaids":[
{"type":"NDB","hdg_t":58.6,"dist_nm":4.9,"freq":351,"lat":40.92860800,"lon":14.38305400,"rng_nm":25,"alt_fmsl":81,"id":"POM","desc":"POMIGLIANO NDB"},
{"type":"VOR","hdg_t":59,"dist_nm":4.9,"freq":117.85,"lat":40.92818200,"lon":14.38354900,"rng_nm":25,"alt_fmsl":108,"id":"POM","desc":"POMIGLIANO VOR-DME"},
{"type":"SDME","hdg_t":318.7,"dist_nm":13.8,"freq":117.5,"lat":41.06001700,"lon":14.08871700,"rng_nm":25,"alt_fmsl":29,"id":"GRA","desc":"GRAZZANISE TACAN"},
{"type":"NDB","hdg_t":317.9,"dist_nm":13.9,"freq":343,"lat":41.05833300,"lon":14.08500000,"rng_nm":25,"alt_fmsl":20,"id":"GRA","desc":"GRAZZANISE NDB"},
{"type":"NDB","hdg_t":173.5,"dist_nm":18.3,"freq":426,"lat":40.58250000,"lon":14.33555600,"rng_nm":100,"alt_fmsl":1535,"id":"SOR","desc":"SORRENTO NDB"},
{"type":"VOR","hdg_t":173.6,"dist_nm":18.3,"freq":112.2,"lat":40.58248800,"lon":14.33527200,"rng_nm":120,"alt_fmsl":1653,"id":"SOR","desc":"SORRENTO VOR-DME"},
{"type":"NDB","hdg_t":329.6,"dist_nm":28.5,"freq":316,"lat":41.29583300,"lon":13.97166700,"rng_nm":50,"alt_fmsl":3195,"id":"TEA","desc":"TEANO NDB"},
{"type":"VOR","hdg_t":329.5,"dist_nm":28.5,"freq":112.9,"lat":41.29665200,"lon":13.97054900,"rng_nm":100,"alt_fmsl":3300,"id":"TEA","desc":"TEANO VOR-DME"},
{"type":"VOR","hdg_t":119.3,"dist_nm":32.3,"freq":110.45,"lat":40.61999300,"lon":14.90835900,"rng_nm":40,"alt_fmsl":134,"id":"PTC","desc":"PONTECAGNANO VOR-DME"},
{"type":"VOR","hdg_t":271.9,"dist_nm":60.6,"freq":114.6,"lat":40.91193600,"lon":12.95749600,"rng_nm":200,"alt_fmsl":682,"id":"PNZ","desc":"PONZA VORTAC"},
{"type":"NDB","hdg_t":271.8,"dist_nm":60.7,"freq":367,"lat":40.91111200,"lon":12.95611000,"rng_nm":50,"alt_fmsl":528,"id":"PNZ","desc":"PONZA NDB"},
{"type":"VOR","hdg_t":315.5,"dist_nm":63.9,"freq":115.6,"lat":41.64214100,"lon":13.29493500,"rng_nm":50,"alt_fmsl":633,"id":"FRS","desc":"FROSINONE VOR-DME"},
{"type":"NDB","hdg_t":315.4,"dist_nm":64.1,"freq":371,"lat":41.64383300,"lon":13.28966700,"rng_nm":25,"alt_fmsl":595,"id":"FRS","desc":"FROSINONE NDB"},
{"type":"VOR","hdg_t":59.4,"dist_nm":64.9,"freq":115.8,"lat":41.42945300,"lon":15.53134000,"rng_nm":40,"alt_fmsl":305,"id":"FGG","desc":"FOGGIA VOR-DME"},
{"type":"NDB","hdg_t":59.4,"dist_nm":65,"freq":340,"lat":41.43097200,"lon":15.53141500,"rng_nm":25,"alt_fmsl":271,"id":"FOG","desc":"FOGGIA NDB"},
{"type":"NDB","hdg_t":302.5,"dist_nm":72,"freq":379,"lat":41.52444500,"lon":12.94361100,"rng_nm":25,"alt_fmsl":46,"id":"LAT","desc":"LATINA NDB"},
{"type":"NDB","hdg_t":302.7,"dist_nm":73.4,"freq":393,"lat":41.54116700,"lon":12.91955600,"rng_nm":50,"alt_fmsl":61,"id":"ITA","desc":"LATINA NDB"},
{"type":"VOR","hdg_t":302.7,"dist_nm":73.5,"freq":111.2,"lat":41.54109800,"lon":12.91805500,"rng_nm":60,"alt_fmsl":85,"id":"LAT","desc":"LATINA VOR-DME"},
{"type":"SDME","hdg_t":65,"dist_nm":74.3,"freq":114.3,"lat":41.39972200,"lon":15.78416700,"rng_nm":130,"alt_fmsl":86,"id":"ORT","desc":"ORTANOVA TACAN"},
{"type":"SDME","hdg_t":58.2,"dist_nm":75.2,"freq":115.25,"lat":41.53789700,"lon":15.70998100,"rng_nm":40,"alt_fmsl":185,"id":"MNL","desc":"AMENDOLA TACAN"},
{"type":"NDB","hdg_t":61.7,"dist_nm":79.1,"freq":334,"lat":41.50000000,"lon":15.83777800,"rng_nm":25,"alt_fmsl":16,"id":"AME","desc":"AMENDOLA NDB"},
{"type":"SDME","hdg_t":299,"dist_nm":92.5,"freq":108.7,"lat":41.62156700,"lon":12.49377200,"rng_nm":40,"alt_fmsl":135,"id":"TPR","desc":"PRATICA DI MARE TACAN"},
{"type":"NDB","hdg_t":357,"dist_nm":93,"freq":342,"lat":42.43630600,"lon":14.18347200,"rng_nm":25,"alt_fmsl":29,"id":"PES","desc":"PESCARA NDB"},
{"type":"VOR","hdg_t":357,"dist_nm":93,"freq":115.9,"lat":42.43610900,"lon":14.18444300,"rng_nm":80,"alt_fmsl":59,"id":"PES","desc":"PESCARA VOR-DME"},
{"type":"VOR","hdg_t":306.1,"dist_nm":94.6,"freq":110.8,"lat":41.80472200,"lon":12.58805600,"rng_nm":40,"alt_fmsl":374,"id":"ROM","desc":"ROMA VOR-DME"},
{"type":"NDB","hdg_t":300.3,"dist_nm":95.7,"freq":339,"lat":41.67972200,"lon":12.45283300,"rng_nm":25,"alt_fmsl":175,"id":"PRA","desc":"PRATICA DI MARE NDB"},
{"type":"NDB","hdg_t":314.1,"dist_nm":96.7,"freq":388,"lat":41.99969400,"lon":12.73891700,"rng_nm":25,"alt_fmsl":330,"id":"GUI","desc":"GUIDONIA NDB"},
{"type":"NDB","hdg_t":307.4,"dist_nm":97.7,"freq":412,"lat":41.86494500,"lon":12.56080500,"rng_nm":40,"alt_fmsl":203,"id":"CIA","desc":"CIAMPINO NDB"}
]
}
