{"success":true,"source":"xp2csv.pl","last_updated":"2013/11/08 14:53:21 UTC"
,"icao":"LKPL","name":"Letkov","lat":49.72299546,"lon":13.45262392,"rwys":1,"ils":0,"index":3171049,"path":"e010n40/e013n49"
,"runways":[
{"len_m":644,"wid_m":70.10,"hdg":84,"surf":"Turf/grass","rwy1":"08","lat1":49.72272709,"lon1":13.44817219,"rwy2":"26","lat2":49.72326382,"lon2":13.45707566}
]
,"radios":[
{"type":"TWR","freq":130.6,"desc":"INFO"}
]
,"navaids":[
{"type":"NDB","hdg_t":248.8,"dist_nm":6.6,"freq":398,"lat":49.68312200,"lon":13.29424200,"rng_nm":50,"alt_fmsl":0,"id":"D","desc":"LINE NDB"},
{"type":"SDME","hdg_t":80.4,"dist_nm":22.9,"freq":117.6,"lat":49.78487200,"lon":14.03473900,"rng_nm":130,"alt_fmsl":2300,"id":"PSK","desc":"PISEK DME"},
{"type":"NDB","hdg_t":22.2,"dist_nm":24.2,"freq":386,"lat":50.09705800,"lon":13.69071700,"rng_nm":50,"alt_fmsl":0,"id":"RAK","desc":"RAKOVNIK NDB"},
{"type":"NDB","hdg_t":325.3,"dist_nm":34.6,"freq":365,"lat":50.19578900,"lon":12.94168600,"rng_nm":25,"alt_fmsl":1990,"id":"L","desc":"VRATA NDB"},
{"type":"VOR","hdg_t":54.1,"dist_nm":38.6,"freq":112.6,"lat":50.09647800,"lon":14.26280800,"rng_nm":100,"alt_fmsl":1200,"id":"OKL","desc":"PRAHA VOR-DME"},
{"type":"NDB","hdg_t":55.9,"dist_nm":39.1,"freq":429,"lat":50.08527500,"lon":14.29239400,"rng_nm":25,"alt_fmsl":0,"id":"D","desc":"DEJVICE NDB"},
{"type":"NDB","hdg_t":53.2,"dist_nm":40.1,"freq":372,"lat":50.11992800,"lon":14.28659700,"rng_nm":25,"alt_fmsl":0,"id":"L","desc":"LIBOC NDB"},
{"type":"NDB","hdg_t":60.9,"dist_nm":40.5,"freq":307,"lat":50.04770600,"lon":14.36926400,"rng_nm":25,"alt_fmsl":0,"id":"PG","desc":"RUZYNE MIDDLE NDB"},
{"type":"NDB","hdg_t":54.1,"dist_nm":43.5,"freq":356,"lat":50.14416700,"lon":14.36722200,"rng_nm":50,"alt_fmsl":0,"id":"PR","desc":"RUZYNE NORTH NDB"},
{"type":"VOR","hdg_t":297.2,"dist_nm":45.5,"freq":115.7,"lat":50.06514700,"lon":12.40573900,"rng_nm":75,"alt_fmsl":1600,"id":"OKG","desc":"CHEB VOR-DME"},
{"type":"NDB","hdg_t":51.8,"dist_nm":47.8,"freq":333,"lat":50.21106100,"lon":14.42842800,"rng_nm":25,"alt_fmsl":0,"id":"VO","desc":"BREZANY NDB"},
{"type":"NDB","hdg_t":60.2,"dist_nm":52.6,"freq":300,"lat":50.15261100,"lon":14.63661700,"rng_nm":25,"alt_fmsl":0,"id":"KD","desc":"KBELY NDB"},
{"type":"VOR","hdg_t":221.8,"dist_nm":54.7,"freq":114.7,"lat":49.04026900,"lon":12.52654700,"rng_nm":60,"alt_fmsl":2172,"id":"RDG","desc":"RODING VORTAC"},
{"type":"VOR","hdg_t":101.1,"dist_nm":56.6,"freq":116.3,"lat":49.53232800,"lon":14.87466400,"rng_nm":130,"alt_fmsl":2200,"id":"VOZ","desc":"VOZICE VOR-DME"},
{"type":"NDB","hdg_t":268.9,"dist_nm":58.8,"freq":405,"lat":49.69457500,"lon":11.94170800,"rng_nm":15,"alt_fmsl":1542,"id":"GRW","desc":"GRAFENWOHR NDB"},
{"type":"SDME","hdg_t":268.7,"dist_nm":59,"freq":111.8,"lat":49.69127800,"lon":11.93830000,"rng_nm":130,"alt_fmsl":1385,"id":"GRF","desc":"GRAFENWOHR TACAN"},
{"type":"VOR","hdg_t":49,"dist_nm":59.4,"freq":108.6,"lat":50.36655800,"lon":14.62136400,"rng_nm":25,"alt_fmsl":1000,"id":"NER","desc":"NERATOVICE VOR-DME"},
{"type":"NDB","hdg_t":139.3,"dist_nm":61,"freq":830,"lat":48.94630600,"lon":14.45822200,"rng_nm":50,"alt_fmsl":0,"id":"R","desc":"CESKE BUDEJOVICE NDB"},
{"type":"NDB","hdg_t":137.7,"dist_nm":62.5,"freq":402,"lat":48.94627800,"lon":14.51531900,"rng_nm":50,"alt_fmsl":0,"id":"RA","desc":"CESKE BUDEJOVICE NDB"},
{"type":"VOR","hdg_t":90.4,"dist_nm":62.8,"freq":114.3,"lat":49.70427200,"lon":15.06674200,"rng_nm":130,"alt_fmsl":1500,"id":"VLM","desc":"VLASIM VOR-DME"},
{"type":"NDB","hdg_t":244.6,"dist_nm":69.3,"freq":286,"lat":49.21833300,"lon":11.85944400,"rng_nm":10,"alt_fmsl":1579,"id":"HFX","desc":"HOHENFELS NDB"},
{"type":"SDME","hdg_t":299.4,"dist_nm":70.5,"freq":110.7,"lat":50.28981400,"lon":11.85523100,"rng_nm":25,"alt_fmsl":1946,"id":"HOD","desc":"HOF DME"},
{"type":"VOR","hdg_t":283.2,"dist_nm":72.2,"freq":110.6,"lat":49.98515300,"lon":11.63666900,"rng_nm":40,"alt_fmsl":1625,"id":"BAY","desc":"BAYREUTH VOR"},
{"type":"NDB","hdg_t":297.9,"dist_nm":73.6,"freq":484,"lat":50.28462800,"lon":11.76139400,"rng_nm":15,"alt_fmsl":0,"id":"HOF","desc":"HOF NDB"},
{"type":"NDB","hdg_t":281.5,"dist_nm":74.6,"freq":420,"lat":49.95688300,"lon":11.56515800,"rng_nm":25,"alt_fmsl":0,"id":"BAZ","desc":"BAYREUTH NDB"},
{"type":"NDB","hdg_t":81.2,"dist_nm":77.7,"freq":345,"lat":49.90401900,"lon":15.43285300,"rng_nm":50,"alt_fmsl":0,"id":"CF","desc":"CASLAV NDB"},
{"type":"VOR","hdg_t":4,"dist_nm":77.8,"freq":114.35,"lat":51.01554700,"lon":13.59888900,"rng_nm":60,"alt_fmsl":1086,"id":"DRN","desc":"DRESDEN VOR-DME"},
{"type":"VOR","hdg_t":25.5,"dist_nm":80.4,"freq":115,"lat":50.92815000,"lon":14.36880000,"rng_nm":60,"alt_fmsl":1439,"id":"HDO","desc":"HERMSDORF VOR-DME"},
{"type":"VOR","hdg_t":160.7,"dist_nm":82,"freq":113.5,"lat":48.43178100,"lon":14.12983100,"rng_nm":60,"alt_fmsl":2014,"id":"FRE","desc":"FREISTADT VOR-DME"},
{"type":"VOR","hdg_t":214.6,"dist_nm":83.4,"freq":117.15,"lat":48.57340800,"lon":12.26100000,"rng_nm":60,"alt_fmsl":1658,"id":"MBG","desc":"MOOSBURG VOR-DME"},
{"type":"SDME","hdg_t":334.8,"dist_nm":83.8,"freq":115.3,"lat":50.98266900,"lon":12.51226100,"rng_nm":25,"alt_fmsl":624,"id":"AGD","desc":"ALTENBURG DME"},
{"type":"NDB","hdg_t":335.2,"dist_nm":84.3,"freq":330,"lat":50.99377500,"lon":12.52103900,"rng_nm":25,"alt_fmsl":581,"id":"ABU","desc":"ALTENBURG NDB"},
{"type":"NDB","hdg_t":199.4,"dist_nm":84.3,"freq":393,"lat":48.39705000,"lon":12.74978100,"rng_nm":25,"alt_fmsl":1329,"id":"EGG","desc":"EGGENFELDEN NDB"},
{"type":"SDME","hdg_t":200,"dist_nm":84.7,"freq":115.4,"lat":48.39435800,"lon":12.72538100,"rng_nm":25,"alt_fmsl":1381,"id":"END","desc":"EGGENFELDEN DME"},
{"type":"SDME","hdg_t":7.7,"dist_nm":85.2,"freq":115.4,"lat":51.12950600,"lon":13.75756900,"rng_nm":25,"alt_fmsl":778,"id":"DND","desc":"DRESDEN DME"},
{"type":"NDB","hdg_t":261.2,"dist_nm":87,"freq":415,"lat":49.48268900,"lon":11.25286100,"rng_nm":50,"alt_fmsl":1096,"id":"RTB","desc":"ROTHENBACH NDB"},
{"type":"NDB","hdg_t":9.6,"dist_nm":89.5,"freq":374,"lat":51.19301111,"lon":13.85003056,"rng_nm":15,"alt_fmsl":680,"id":"FS","desc":"DRESDEN NDB"},
{"type":"VOR","hdg_t":268.2,"dist_nm":89.7,"freq":114.9,"lat":49.65541400,"lon":11.15081100,"rng_nm":130,"alt_fmsl":1841,"id":"ERL","desc":"ERLANGEN VOR-DME"},
{"type":"NDB","hdg_t":230.9,"dist_nm":92.4,"freq":345,"lat":48.73783300,"lon":11.64466700,"rng_nm":25,"alt_fmsl":0,"id":"IGL","desc":"INGOLSTADT NDB"},
{"type":"VOR","hdg_t":251.5,"dist_nm":92.5,"freq":111.2,"lat":49.21437200,"lon":11.22143600,"rng_nm":130,"alt_fmsl":1434,"id":"ALB","desc":"ALLERSBERG VOR-DME"},
{"type":"NDB","hdg_t":78.4,"dist_nm":93.2,"freq":432,"lat":50.01109200,"lon":15.81301900,"rng_nm":75,"alt_fmsl":0,"id":"PK","desc":"PARDUBICE NDB"},
{"type":"VOR","hdg_t":163.7,"dist_nm":93.2,"freq":116.6,"lat":48.22971100,"lon":14.10315600,"rng_nm":60,"alt_fmsl":1145,"id":"LNZ","desc":"LINZ VOR-DME"},
{"type":"VOR","hdg_t":39.9,"dist_nm":93.3,"freq":114.85,"lat":50.90268100,"lon":15.03190000,"rng_nm":130,"alt_fmsl":1300,"id":"OKX","desc":"FRYDLANT VOR-DME"},
{"type":"SDME","hdg_t":262.7,"dist_nm":93.5,"freq":113.1,"lat":49.50115800,"lon":11.08015000,"rng_nm":25,"alt_fmsl":1090,"id":"NGD","desc":"NURNBERG DME"},
{"type":"VOR","hdg_t":118,"dist_nm":93.7,"freq":113.15,"lat":48.96917500,"lon":15.54557800,"rng_nm":130,"alt_fmsl":1600,"id":"OKF","desc":"DESNA VOR-DME"},
{"type":"SDME","hdg_t":231.5,"dist_nm":95.5,"freq":111.4,"lat":48.71783300,"lon":11.56983300,"rng_nm":130,"alt_fmsl":1233,"id":"IGL","desc":"INGOLSTADT TACAN"},
{"type":"NDB","hdg_t":158.6,"dist_nm":95.6,"freq":327,"lat":48.23710000,"lon":14.32178300,"rng_nm":40,"alt_fmsl":0,"id":"LNZ","desc":"LINZ NDB"},
{"type":"NDB","hdg_t":24.9,"dist_nm":98,"freq":359,"lat":51.19881400,"lon":14.54783100,"rng_nm":25,"alt_fmsl":0,"id":"BA","desc":"BAUTZEN NDB"},
{"type":"VOR","hdg_t":206.6,"dist_nm":99.6,"freq":117,"lat":48.23469400,"lon":12.33741900,"rng_nm":60,"alt_fmsl":1526,"id":"MDF","desc":"MILLDORF VOR-DME"}
]
}
