{"success":true,"source":"xp2csv.pl","last_updated":"2013/11/08 14:53:21 UTC"
,"icao":"LKPV","name":"Pacov","lat":49.4178861,"lon":14.9979513,"rwys":1,"ils":0,"index":3187419,"path":"e010n40/e014n49"
,"runways":[
{"len_m":2003,"wid_m":32.92,"hdg":89,"surf":"Concrete","rwy1":"9","lat1":49.41787169,"lon1":14.98414809,"rwy2":"27","lat2":49.41790051,"lon2":15.01175450}
]
,"navaids":[
{"type":"VOR","hdg_t":324.9,"dist_nm":8.3,"freq":116.3,"lat":49.53232800,"lon":14.87466400,"rng_nm":130,"alt_fmsl":2200,"id":"VOZ","desc":"VOZICE VOR-DME"},
{"type":"VOR","hdg_t":8.8,"dist_nm":17.4,"freq":114.3,"lat":49.70427200,"lon":15.06674200,"rng_nm":130,"alt_fmsl":1500,"id":"VLM","desc":"VLASIM VOR-DME"},
{"type":"NDB","hdg_t":29.9,"dist_nm":33.7,"freq":345,"lat":49.90401900,"lon":15.43285300,"rng_nm":50,"alt_fmsl":0,"id":"CF","desc":"CASLAV NDB"},
{"type":"NDB","hdg_t":214,"dist_nm":34.1,"freq":402,"lat":48.94627800,"lon":14.51531900,"rng_nm":50,"alt_fmsl":0,"id":"RA","desc":"CESKE BUDEJOVICE NDB"},
{"type":"VOR","hdg_t":141.1,"dist_nm":34.5,"freq":113.15,"lat":48.96917500,"lon":15.54557800,"rng_nm":130,"alt_fmsl":1600,"id":"OKF","desc":"DESNA VOR-DME"},
{"type":"NDB","hdg_t":217,"dist_nm":35.4,"freq":830,"lat":48.94630600,"lon":14.45822200,"rng_nm":50,"alt_fmsl":0,"id":"R","desc":"CESKE BUDEJOVICE NDB"},
{"type":"SDME","hdg_t":300.7,"dist_nm":43.5,"freq":117.6,"lat":49.78487200,"lon":14.03473900,"rng_nm":130,"alt_fmsl":2300,"id":"PSK","desc":"PISEK DME"},
{"type":"NDB","hdg_t":107.1,"dist_nm":44,"freq":514,"lat":49.19725300,"lon":16.06679700,"rng_nm":75,"alt_fmsl":0,"id":"XU","desc":"NAMEST NDB"},
{"type":"NDB","hdg_t":327.3,"dist_nm":45,"freq":307,"lat":50.04770600,"lon":14.36926400,"rng_nm":25,"alt_fmsl":0,"id":"PG","desc":"RUZYNE MIDDLE NDB"},
{"type":"NDB","hdg_t":342.4,"dist_nm":46.3,"freq":300,"lat":50.15261100,"lon":14.63661700,"rng_nm":25,"alt_fmsl":0,"id":"KD","desc":"KBELY NDB"},
{"type":"NDB","hdg_t":41.3,"dist_nm":47.7,"freq":432,"lat":50.01109200,"lon":15.81301900,"rng_nm":75,"alt_fmsl":0,"id":"PK","desc":"PARDUBICE NDB"},
{"type":"NDB","hdg_t":325.8,"dist_nm":48.5,"freq":429,"lat":50.08527500,"lon":14.29239400,"rng_nm":25,"alt_fmsl":0,"id":"D","desc":"DEJVICE NDB"},
{"type":"NDB","hdg_t":109.5,"dist_nm":49.4,"freq":563,"lat":49.13650300,"lon":16.17961100,"rng_nm":75,"alt_fmsl":0,"id":"LA","desc":"NAMEST NDB"},
{"type":"VOR","hdg_t":325.2,"dist_nm":49.7,"freq":112.6,"lat":50.09647800,"lon":14.26280800,"rng_nm":100,"alt_fmsl":1200,"id":"OKL","desc":"PRAHA VOR-DME"},
{"type":"NDB","hdg_t":330.8,"dist_nm":50,"freq":356,"lat":50.14416700,"lon":14.36722200,"rng_nm":50,"alt_fmsl":0,"id":"PR","desc":"RUZYNE NORTH NDB"},
{"type":"NDB","hdg_t":326.9,"dist_nm":50.4,"freq":372,"lat":50.11992800,"lon":14.28659700,"rng_nm":25,"alt_fmsl":0,"id":"L","desc":"LIBOC NDB"},
{"type":"NDB","hdg_t":335.2,"dist_nm":52.5,"freq":333,"lat":50.21106100,"lon":14.42842800,"rng_nm":25,"alt_fmsl":0,"id":"VO","desc":"BREZANY NDB"},
{"type":"VOR","hdg_t":345.7,"dist_nm":58.8,"freq":108.6,"lat":50.36655800,"lon":14.62136400,"rng_nm":25,"alt_fmsl":1000,"id":"NER","desc":"NERATOVICE VOR-DME"},
{"type":"NDB","hdg_t":309.2,"dist_nm":65.1,"freq":386,"lat":50.09705800,"lon":13.69071700,"rng_nm":50,"alt_fmsl":0,"id":"RAK","desc":"RAKOVNIK NDB"},
{"type":"NDB","hdg_t":284.1,"dist_nm":68.4,"freq":398,"lat":49.68312200,"lon":13.29424200,"rng_nm":50,"alt_fmsl":0,"id":"D","desc":"LINE NDB"},
{"type":"VOR","hdg_t":102.9,"dist_nm":68.4,"freq":113.9,"lat":49.15006400,"lon":16.69258100,"rng_nm":130,"alt_fmsl":800,"id":"BNO","desc":"BRNO VOR-DME"},
{"type":"VOR","hdg_t":210.4,"dist_nm":68.4,"freq":113.5,"lat":48.43178100,"lon":14.12983100,"rng_nm":60,"alt_fmsl":2014,"id":"FRE","desc":"FREISTADT VOR-DME"},
{"type":"NDB","hdg_t":70.2,"dist_nm":69.4,"freq":492,"lat":49.79584400,"lon":16.67885800,"rng_nm":75,"alt_fmsl":0,"id":"TBV","desc":"TREBOVA NDB"},
{"type":"NDB","hdg_t":102.5,"dist_nm":71.4,"freq":368,"lat":49.14482500,"lon":16.76855000,"rng_nm":50,"alt_fmsl":0,"id":"BNO","desc":"BRNO NDB"},
{"type":"VOR","hdg_t":145.7,"dist_nm":72.4,"freq":113,"lat":48.41713600,"lon":16.01859400,"rng_nm":60,"alt_fmsl":750,"id":"STO","desc":"STOCKERAU VOR-DME"},
{"type":"NDB","hdg_t":200.9,"dist_nm":75.7,"freq":327,"lat":48.23710000,"lon":14.32178300,"rng_nm":40,"alt_fmsl":0,"id":"LNZ","desc":"LINZ NDB"},
{"type":"VOR","hdg_t":149.2,"dist_nm":77,"freq":111.4,"lat":48.30972200,"lon":15.98083300,"rng_nm":25,"alt_fmsl":640,"id":"TUN","desc":"TULLN VOR-DME"},
{"type":"NDB","hdg_t":149.2,"dist_nm":77.1,"freq":358,"lat":48.30944400,"lon":15.98111100,"rng_nm":40,"alt_fmsl":594,"id":"TUN","desc":"TULLN NDB"},
{"type":"VOR","hdg_t":206.7,"dist_nm":79.6,"freq":116.6,"lat":48.22971100,"lon":14.10315600,"rng_nm":60,"alt_fmsl":1145,"id":"LNZ","desc":"LINZ VOR-DME"},
{"type":"NDB","hdg_t":145.1,"dist_nm":87.7,"freq":293,"lat":48.21061700,"lon":16.24713600,"rng_nm":25,"alt_fmsl":1056,"id":"STE","desc":"STEINHOF NDB"},
{"type":"VOR","hdg_t":137.4,"dist_nm":88.3,"freq":112.2,"lat":48.32385600,"lon":16.49095300,"rng_nm":60,"alt_fmsl":574,"id":"WGM","desc":"WAGRAM VOR-DME"},
{"type":"VOR","hdg_t":0.8,"dist_nm":89.1,"freq":114.85,"lat":50.90268100,"lon":15.03190000,"rng_nm":130,"alt_fmsl":1300,"id":"OKX","desc":"FRYDLANT VOR-DME"},
{"type":"NDB","hdg_t":89.5,"dist_nm":91.7,"freq":441,"lat":49.40708100,"lon":17.33920800,"rng_nm":50,"alt_fmsl":0,"id":"CK","desc":"PREROV NDB"},
{"type":"NDB","hdg_t":301,"dist_nm":92.5,"freq":365,"lat":50.19578900,"lon":12.94168600,"rng_nm":25,"alt_fmsl":1990,"id":"L","desc":"VRATA NDB"},
{"type":"VOR","hdg_t":345.2,"dist_nm":93.8,"freq":115,"lat":50.92815000,"lon":14.36880000,"rng_nm":60,"alt_fmsl":1439,"id":"HDO","desc":"HERMSDORF VOR-DME"},
{"type":"NDB","hdg_t":142.2,"dist_nm":95.7,"freq":303,"lat":48.14742500,"lon":16.45759200,"rng_nm":25,"alt_fmsl":0,"id":"WO","desc":"SCHWECHAT NDB"},
{"type":"NDB","hdg_t":102,"dist_nm":99,"freq":434,"lat":49.04648600,"lon":17.45215300,"rng_nm":25,"alt_fmsl":0,"id":"KNE","desc":"KUNOVICE NDB"},
{"type":"NDB","hdg_t":92.3,"dist_nm":99.3,"freq":448,"lat":49.32285300,"lon":17.52839700,"rng_nm":25,"alt_fmsl":0,"id":"HLV","desc":"HOLESOV NDB"},
{"type":"NDB","hdg_t":96.8,"dist_nm":99.8,"freq":574,"lat":49.19305600,"lon":17.51777800,"rng_nm":25,"alt_fmsl":0,"id":"GT","desc":"OTROKOVICE NDB"},
{"type":"VOR","hdg_t":257.8,"dist_nm":99.8,"freq":114.7,"lat":49.04026900,"lon":12.52654700,"rng_nm":60,"alt_fmsl":2172,"id":"RDG","desc":"RODING VORTAC"}
]
}
