{"success":true,"source":"xp2csv.pl","last_updated":"2013/11/08 14:53:21 UTC"
,"icao":"LKUO","name":"Usti Nad Orlici","lat":49.97856466,"lon":16.4263414,"rwys":1,"ils":0,"index":3220217,"path":"e010n40/e016n49"
,"runways":[
{"len_m":886,"wid_m":99.97,"hdg":144,"surf":"Turf/grass","rwy1":"14","lat1":49.98182853,"lon1":16.42279072,"rwy2":"32","lat2":49.97530078,"lon2":16.42989208}
]
,"radios":[
{"type":"TWR","freq":122.2,"desc":"INFO"}
]
,"navaids":[
{"type":"NDB","hdg_t":138.1,"dist_nm":14.7,"freq":492,"lat":49.79584400,"lon":16.67885800,"rng_nm":75,"alt_fmsl":0,"id":"TBV","desc":"TREBOVA NDB"},
{"type":"NDB","hdg_t":274.9,"dist_nm":23.8,"freq":432,"lat":50.01109200,"lon":15.81301900,"rng_nm":75,"alt_fmsl":0,"id":"PK","desc":"PARDUBICE NDB"},
{"type":"NDB","hdg_t":263.7,"dist_nm":38.7,"freq":345,"lat":49.90401900,"lon":15.43285300,"rng_nm":50,"alt_fmsl":0,"id":"CF","desc":"CASLAV NDB"},
{"type":"NDB","hdg_t":196.7,"dist_nm":48.9,"freq":514,"lat":49.19725300,"lon":16.06679700,"rng_nm":75,"alt_fmsl":0,"id":"XU","desc":"NAMEST NDB"},
{"type":"NDB","hdg_t":133.6,"dist_nm":49.4,"freq":441,"lat":49.40708100,"lon":17.33920800,"rng_nm":50,"alt_fmsl":0,"id":"CK","desc":"PREROV NDB"},
{"type":"VOR","hdg_t":168,"dist_nm":50.8,"freq":113.9,"lat":49.15006400,"lon":16.69258100,"rng_nm":130,"alt_fmsl":800,"id":"BNO","desc":"BRNO VOR-DME"},
{"type":"NDB","hdg_t":190.8,"dist_nm":51.4,"freq":563,"lat":49.13650300,"lon":16.17961100,"rng_nm":75,"alt_fmsl":0,"id":"LA","desc":"NAMEST NDB"},
{"type":"NDB","hdg_t":164.9,"dist_nm":51.8,"freq":368,"lat":49.14482500,"lon":16.76855000,"rng_nm":50,"alt_fmsl":0,"id":"BNO","desc":"BRNO NDB"},
{"type":"VOR","hdg_t":253.1,"dist_nm":55.3,"freq":114.3,"lat":49.70427200,"lon":15.06674200,"rng_nm":130,"alt_fmsl":1500,"id":"VLM","desc":"VLASIM VOR-DME"},
{"type":"NDB","hdg_t":132,"dist_nm":58.2,"freq":448,"lat":49.32285300,"lon":17.52839700,"rng_nm":25,"alt_fmsl":0,"id":"HLV","desc":"HOLESOV NDB"},
{"type":"NDB","hdg_t":137.4,"dist_nm":63.5,"freq":574,"lat":49.19305600,"lon":17.51777800,"rng_nm":25,"alt_fmsl":0,"id":"GT","desc":"OTROKOVICE NDB"},
{"type":"VOR","hdg_t":246.6,"dist_nm":66,"freq":116.3,"lat":49.53232800,"lon":14.87466400,"rng_nm":130,"alt_fmsl":2200,"id":"VOZ","desc":"VOZICE VOR-DME"},
{"type":"NDB","hdg_t":140.6,"dist_nm":66.7,"freq":416,"lat":49.11392200,"lon":17.50139700,"rng_nm":25,"alt_fmsl":0,"id":"KUN","desc":"KUNOVICE NDB"},
{"type":"VOR","hdg_t":103.8,"dist_nm":67.5,"freq":117.45,"lat":49.69749200,"lon":18.10907500,"rng_nm":130,"alt_fmsl":850,"id":"OTA","desc":"OSTRAVA VOR-DME"},
{"type":"NDB","hdg_t":143.9,"dist_nm":68.8,"freq":434,"lat":49.04648600,"lon":17.45215300,"rng_nm":25,"alt_fmsl":0,"id":"KNE","desc":"KUNOVICE NDB"},
{"type":"NDB","hdg_t":16.6,"dist_nm":69.2,"freq":525,"lat":51.08247800,"lon":16.95158300,"rng_nm":25,"alt_fmsl":0,"id":"WRW","desc":"WROCLAW NDB"},
{"type":"NDB","hdg_t":15.2,"dist_nm":69.5,"freq":255,"lat":51.09517500,"lon":16.91027800,"rng_nm":25,"alt_fmsl":0,"id":"WRC","desc":"WROCLAW NDB"},
{"type":"VOR","hdg_t":209.9,"dist_nm":69.7,"freq":113.15,"lat":48.96917500,"lon":15.54557800,"rng_nm":130,"alt_fmsl":1600,"id":"OKF","desc":"DESNA VOR-DME"},
{"type":"NDB","hdg_t":279.2,"dist_nm":69.9,"freq":300,"lat":50.15261100,"lon":14.63661700,"rng_nm":25,"alt_fmsl":0,"id":"KD","desc":"KBELY NDB"},
{"type":"VOR","hdg_t":289.1,"dist_nm":73.4,"freq":108.6,"lat":50.36655800,"lon":14.62136400,"rng_nm":25,"alt_fmsl":1000,"id":"NER","desc":"NERATOVICE VOR-DME"},
{"type":"VOR","hdg_t":316.5,"dist_nm":77,"freq":114.85,"lat":50.90268100,"lon":15.03190000,"rng_nm":130,"alt_fmsl":1300,"id":"OKX","desc":"FRYDLANT VOR-DME"},
{"type":"NDB","hdg_t":281,"dist_nm":78.4,"freq":333,"lat":50.21106100,"lon":14.42842800,"rng_nm":25,"alt_fmsl":0,"id":"VO","desc":"BREZANY NDB"},
{"type":"NDB","hdg_t":273.7,"dist_nm":79.7,"freq":307,"lat":50.04770600,"lon":14.36926400,"rng_nm":25,"alt_fmsl":0,"id":"PG","desc":"RUZYNE MIDDLE NDB"},
{"type":"NDB","hdg_t":277.9,"dist_nm":80.2,"freq":356,"lat":50.14416700,"lon":14.36722200,"rng_nm":50,"alt_fmsl":0,"id":"PR","desc":"RUZYNE NORTH NDB"},
{"type":"NDB","hdg_t":275.2,"dist_nm":82.8,"freq":429,"lat":50.08527500,"lon":14.29239400,"rng_nm":25,"alt_fmsl":0,"id":"D","desc":"DEJVICE NDB"},
{"type":"NDB","hdg_t":276.6,"dist_nm":83.1,"freq":372,"lat":50.11992800,"lon":14.28659700,"rng_nm":25,"alt_fmsl":0,"id":"L","desc":"LIBOC NDB"},
{"type":"VOR","hdg_t":275.6,"dist_nm":83.9,"freq":112.6,"lat":50.09647800,"lon":14.26280800,"rng_nm":100,"alt_fmsl":1200,"id":"OKL","desc":"PRAHA VOR-DME"},
{"type":"VOR","hdg_t":17.9,"dist_nm":84,"freq":113.6,"lat":51.30816100,"lon":17.11430800,"rng_nm":130,"alt_fmsl":787,"id":"TRZ","desc":"TRZEBNICA VOR-DME"},
{"type":"NDB","hdg_t":354.6,"dist_nm":86.6,"freq":351,"lat":51.41509400,"lon":16.21109400,"rng_nm":25,"alt_fmsl":0,"id":"LUB","desc":"LUBIN NDB"},
{"type":"NDB","hdg_t":137.9,"dist_nm":89.5,"freq":338,"lat":48.86111100,"lon":17.94166700,"rng_nm":25,"alt_fmsl":0,"id":"TR","desc":"TRENCIN NDB"},
{"type":"SDME","hdg_t":263.7,"dist_nm":93.5,"freq":117.6,"lat":49.78487200,"lon":14.03473900,"rng_nm":130,"alt_fmsl":2300,"id":"PSK","desc":"PISEK DME"},
{"type":"NDB","hdg_t":118.9,"dist_nm":93.7,"freq":404,"lat":49.20288900,"lon":18.51045000,"rng_nm":15,"alt_fmsl":0,"id":"ZLA","desc":"ZILINA NDB"},
{"type":"NDB","hdg_t":162.1,"dist_nm":94.7,"freq":477,"lat":48.47444400,"lon":17.15250000,"rng_nm":50,"alt_fmsl":0,"id":"RP","desc":"MALACKY NDB"},
{"type":"VOR","hdg_t":189.8,"dist_nm":95.1,"freq":113,"lat":48.41713600,"lon":16.01859400,"rng_nm":60,"alt_fmsl":750,"id":"STO","desc":"STOCKERAU VOR-DME"},
{"type":"NDB","hdg_t":231,"dist_nm":97.1,"freq":402,"lat":48.94627800,"lon":14.51531900,"rng_nm":50,"alt_fmsl":0,"id":"RA","desc":"CESKE BUDEJOVICE NDB"},
{"type":"VOR","hdg_t":306.6,"dist_nm":97.3,"freq":115,"lat":50.92815000,"lon":14.36880000,"rng_nm":60,"alt_fmsl":1439,"id":"HDO","desc":"HERMSDORF VOR-DME"},
{"type":"NDB","hdg_t":145.7,"dist_nm":98.8,"freq":297,"lat":48.60814200,"lon":17.82226400,"rng_nm":50,"alt_fmsl":0,"id":"C","desc":"CENTR NDB"},
{"type":"NDB","hdg_t":231.9,"dist_nm":98.8,"freq":830,"lat":48.94630600,"lon":14.45822200,"rng_nm":50,"alt_fmsl":0,"id":"R","desc":"CESKE BUDEJOVICE NDB"},
{"type":"VOR","hdg_t":178.5,"dist_nm":99.3,"freq":112.2,"lat":48.32385600,"lon":16.49095300,"rng_nm":60,"alt_fmsl":574,"id":"WGM","desc":"WAGRAM VOR-DME"},
{"type":"NDB","hdg_t":326,"dist_nm":99.4,"freq":432,"lat":51.34362500,"lon":14.95203300,"rng_nm":25,"alt_fmsl":0,"id":"RO","desc":"ROTHENBURG NDB"}
]
}
