{"success":true,"source":"xp2csv.pl","last_updated":"2013/11/08 14:53:21 UTC"
,"icao":"LKZM","name":"Zamberk","lat":50.08385416,"lon":16.44382084,"rwys":1,"ils":0,"index":3220225,"path":"e010n50/e016n50"
,"runways":[
{"len_m":739,"wid_m":99.97,"hdg":124,"surf":"Turf/grass","rwy1":"13","lat1":50.08575756,"lon1":16.43958882,"rwy2":"31","lat2":50.08195076,"lon2":16.44805286}
]
,"radios":[
{"type":"TWR","freq":122.6,"desc":"INFO"}
]
,"navaids":[
{"type":"NDB","hdg_t":152.1,"dist_nm":19.5,"freq":492,"lat":49.79584400,"lon":16.67885800,"rng_nm":75,"alt_fmsl":0,"id":"TBV","desc":"TREBOVA NDB"},
{"type":"NDB","hdg_t":260,"dist_nm":24.7,"freq":432,"lat":50.01109200,"lon":15.81301900,"rng_nm":75,"alt_fmsl":0,"id":"PK","desc":"PARDUBICE NDB"},
{"type":"NDB","hdg_t":254.9,"dist_nm":40.6,"freq":345,"lat":49.90401900,"lon":15.43285300,"rng_nm":50,"alt_fmsl":0,"id":"CF","desc":"CASLAV NDB"},
{"type":"NDB","hdg_t":139,"dist_nm":53.5,"freq":441,"lat":49.40708100,"lon":17.33920800,"rng_nm":50,"alt_fmsl":0,"id":"CK","desc":"PREROV NDB"},
{"type":"NDB","hdg_t":195.5,"dist_nm":55.2,"freq":514,"lat":49.19725300,"lon":16.06679700,"rng_nm":75,"alt_fmsl":0,"id":"XU","desc":"NAMEST NDB"},
{"type":"VOR","hdg_t":170,"dist_nm":56.9,"freq":113.9,"lat":49.15006400,"lon":16.69258100,"rng_nm":130,"alt_fmsl":800,"id":"BNO","desc":"BRNO VOR-DME"},
{"type":"NDB","hdg_t":167.2,"dist_nm":57.7,"freq":368,"lat":49.14482500,"lon":16.76855000,"rng_nm":50,"alt_fmsl":0,"id":"BNO","desc":"BRNO NDB"},
{"type":"NDB","hdg_t":190.3,"dist_nm":57.8,"freq":563,"lat":49.13650300,"lon":16.17961100,"rng_nm":75,"alt_fmsl":0,"id":"LA","desc":"NAMEST NDB"},
{"type":"VOR","hdg_t":247.4,"dist_nm":58,"freq":114.3,"lat":49.70427200,"lon":15.06674200,"rng_nm":130,"alt_fmsl":1500,"id":"VLM","desc":"VLASIM VOR-DME"},
{"type":"NDB","hdg_t":136.8,"dist_nm":62.2,"freq":448,"lat":49.32285300,"lon":17.52839700,"rng_nm":25,"alt_fmsl":0,"id":"HLV","desc":"HOLESOV NDB"},
{"type":"NDB","hdg_t":17.7,"dist_nm":63,"freq":525,"lat":51.08247800,"lon":16.95158300,"rng_nm":25,"alt_fmsl":0,"id":"WRW","desc":"WROCLAW NDB"},
{"type":"NDB","hdg_t":16.1,"dist_nm":63.3,"freq":255,"lat":51.09517500,"lon":16.91027800,"rng_nm":25,"alt_fmsl":0,"id":"WRC","desc":"WROCLAW NDB"},
{"type":"NDB","hdg_t":141.5,"dist_nm":67.9,"freq":574,"lat":49.19305600,"lon":17.51777800,"rng_nm":25,"alt_fmsl":0,"id":"GT","desc":"OTROKOVICE NDB"},
{"type":"VOR","hdg_t":109.1,"dist_nm":68.6,"freq":117.45,"lat":49.69749200,"lon":18.10907500,"rng_nm":130,"alt_fmsl":850,"id":"OTA","desc":"OSTRAVA VOR-DME"},
{"type":"VOR","hdg_t":242,"dist_nm":69.3,"freq":116.3,"lat":49.53232800,"lon":14.87466400,"rng_nm":130,"alt_fmsl":2200,"id":"VOZ","desc":"VOZICE VOR-DME"},
{"type":"NDB","hdg_t":274,"dist_nm":69.9,"freq":300,"lat":50.15261100,"lon":14.63661700,"rng_nm":25,"alt_fmsl":0,"id":"KD","desc":"KBELY NDB"},
{"type":"NDB","hdg_t":144.2,"dist_nm":71.3,"freq":416,"lat":49.11392200,"lon":17.50139700,"rng_nm":25,"alt_fmsl":0,"id":"KUN","desc":"KUNOVICE NDB"},
{"type":"VOR","hdg_t":284.2,"dist_nm":72.2,"freq":108.6,"lat":50.36655800,"lon":14.62136400,"rng_nm":25,"alt_fmsl":1000,"id":"NER","desc":"NERATOVICE VOR-DME"},
{"type":"VOR","hdg_t":312.8,"dist_nm":73.1,"freq":114.85,"lat":50.90268100,"lon":15.03190000,"rng_nm":130,"alt_fmsl":1300,"id":"OKX","desc":"FRYDLANT VOR-DME"},
{"type":"NDB","hdg_t":147.3,"dist_nm":73.7,"freq":434,"lat":49.04648600,"lon":17.45215300,"rng_nm":25,"alt_fmsl":0,"id":"KNE","desc":"KUNOVICE NDB"},
{"type":"VOR","hdg_t":208,"dist_nm":75.5,"freq":113.15,"lat":48.96917500,"lon":15.54557800,"rng_nm":130,"alt_fmsl":1600,"id":"OKF","desc":"DESNA VOR-DME"},
{"type":"VOR","hdg_t":18.9,"dist_nm":77.8,"freq":113.6,"lat":51.30816100,"lon":17.11430800,"rng_nm":130,"alt_fmsl":787,"id":"TRZ","desc":"TRZEBNICA VOR-DME"},
{"type":"NDB","hdg_t":276.3,"dist_nm":78.1,"freq":333,"lat":50.21106100,"lon":14.42842800,"rng_nm":25,"alt_fmsl":0,"id":"VO","desc":"BREZANY NDB"},
{"type":"NDB","hdg_t":269.2,"dist_nm":80.2,"freq":307,"lat":50.04770600,"lon":14.36926400,"rng_nm":25,"alt_fmsl":0,"id":"PG","desc":"RUZYNE MIDDLE NDB"},
{"type":"NDB","hdg_t":273.3,"dist_nm":80.2,"freq":356,"lat":50.14416700,"lon":14.36722200,"rng_nm":50,"alt_fmsl":0,"id":"PR","desc":"RUZYNE NORTH NDB"},
{"type":"NDB","hdg_t":353.7,"dist_nm":80.4,"freq":351,"lat":51.41509400,"lon":16.21109400,"rng_nm":25,"alt_fmsl":0,"id":"LUB","desc":"LUBIN NDB"},
{"type":"NDB","hdg_t":270.8,"dist_nm":83.1,"freq":429,"lat":50.08527500,"lon":14.29239400,"rng_nm":25,"alt_fmsl":0,"id":"D","desc":"DEJVICE NDB"},
{"type":"NDB","hdg_t":272.3,"dist_nm":83.3,"freq":372,"lat":50.11992800,"lon":14.28659700,"rng_nm":25,"alt_fmsl":0,"id":"L","desc":"LIBOC NDB"},
{"type":"VOR","hdg_t":271.3,"dist_nm":84.2,"freq":112.6,"lat":50.09647800,"lon":14.26280800,"rng_nm":100,"alt_fmsl":1200,"id":"OKL","desc":"PRAHA VOR-DME"},
{"type":"NDB","hdg_t":140.8,"dist_nm":93.9,"freq":338,"lat":48.86111100,"lon":17.94166700,"rng_nm":25,"alt_fmsl":0,"id":"TR","desc":"TRENCIN NDB"},
{"type":"VOR","hdg_t":303.3,"dist_nm":94.2,"freq":115,"lat":50.92815000,"lon":14.36880000,"rng_nm":60,"alt_fmsl":1439,"id":"HDO","desc":"HERMSDORF VOR-DME"},
{"type":"NDB","hdg_t":323.6,"dist_nm":94.6,"freq":432,"lat":51.34362500,"lon":14.95203300,"rng_nm":25,"alt_fmsl":0,"id":"RO","desc":"ROTHENBURG NDB"},
{"type":"SDME","hdg_t":260,"dist_nm":95,"freq":117.6,"lat":49.78487200,"lon":14.03473900,"rng_nm":130,"alt_fmsl":2300,"id":"PSK","desc":"PISEK DME"},
{"type":"NDB","hdg_t":122.4,"dist_nm":96.4,"freq":404,"lat":49.20288900,"lon":18.51045000,"rng_nm":15,"alt_fmsl":0,"id":"ZLA","desc":"ZILINA NDB"},
{"type":"NDB","hdg_t":313.4,"dist_nm":98.6,"freq":359,"lat":51.19881400,"lon":14.54783100,"rng_nm":25,"alt_fmsl":0,"id":"BA","desc":"BAUTZEN NDB"}
]
}
