{"success":true,"source":"xp2csv.pl","last_updated":"2013/11/08 14:53:21 UTC"
,"icao":"LL18","name":"Ernest E Orwig","lat":41.09725888,"lon":-90.45290862,"rwys":1,"ils":0,"index":1466562,"path":"w100n40/w091n41"
,"runways":[
{"len_m":672,"wid_m":20.12,"hdg":91,"surf":"Turf/grass","rwy1":"09","lat1":41.09736418,"lon1":-90.45691003,"rwy2":"27","lat2":41.09715358,"lon2":-90.44890721}
]
,"navaids":[
{"type":"VOR","hdg_t":175,"dist_nm":9.6,"freq":109.8,"lat":40.93733333,"lon":-90.43447222,"rng_nm":25,"alt_fmsl":760,"id":"GBG","desc":"GALESBURG VOR-DME"},
{"type":"VOR","hdg_t":328,"dist_nm":15.8,"freq":114.4,"lat":41.32091667,"lon":-90.63822222,"rng_nm":40,"alt_fmsl":817,"id":"MZV","desc":"MOLINE VORTAC"},
{"type":"NDB","hdg_t":340.5,"dist_nm":22.3,"freq":215,"lat":41.44905556,"lon":-90.61847222,"rng_nm":50,"alt_fmsl":0,"id":"ML","desc":"MOLLI NDB"},
{"type":"VOR","hdg_t":223.9,"dist_nm":31,"freq":111.4,"lat":40.72338889,"lon":-90.92588889,"rng_nm":40,"alt_fmsl":730,"id":"BRL","desc":"BURLINGTON VORTAC"},
{"type":"NDB","hdg_t":188,"dist_nm":35,"freq":251,"lat":40.51836111,"lon":-90.56041667,"rng_nm":50,"alt_fmsl":0,"id":"JZY","desc":"MACOMB NDB"},
{"type":"VOR","hdg_t":297.3,"dist_nm":35.4,"freq":116.5,"lat":41.36638889,"lon":-91.14905556,"rng_nm":40,"alt_fmsl":540,"id":"DDD","desc":"PORT CITY VOR-DME"},
{"type":"NDB","hdg_t":151.6,"dist_nm":36.1,"freq":236,"lat":40.56586111,"lon":-90.07705556,"rng_nm":50,"alt_fmsl":0,"id":"CTK","desc":"CANTON NDB"},
{"type":"VOR","hdg_t":357.8,"dist_nm":36.6,"freq":113.8,"lat":41.70855556,"lon":-90.48330556,"rng_nm":40,"alt_fmsl":767,"id":"CVA","desc":"DAVENPORT VORTAC"},
{"type":"NDB","hdg_t":345.7,"dist_nm":36.9,"freq":353,"lat":41.69486111,"lon":-90.65588889,"rng_nm":50,"alt_fmsl":0,"id":"DV","desc":"AUNEY NDB"},
{"type":"VOR","hdg_t":129.5,"dist_nm":39,"freq":115.2,"lat":40.68008333,"lon":-89.79302778,"rng_nm":40,"alt_fmsl":731,"id":"PIA","desc":"PEORIA VORTAC"},
{"type":"NDB","hdg_t":4,"dist_nm":39.3,"freq":517,"lat":41.75166667,"lon":-90.39050000,"rng_nm":50,"alt_fmsl":0,"id":"FN","desc":"HILLZ NDB"},
{"type":"VOR","hdg_t":84.2,"dist_nm":39.4,"freq":114.7,"lat":41.15972222,"lon":-89.58786111,"rng_nm":130,"alt_fmsl":810,"id":"BDF","desc":"BRADFORD VORTAC"},
{"type":"NDB","hdg_t":229.1,"dist_nm":40.4,"freq":390,"lat":40.65425000,"lon":-91.12300000,"rng_nm":50,"alt_fmsl":0,"id":"BR","desc":"BURNS NDB"},
{"type":"NDB","hdg_t":39,"dist_nm":47.5,"freq":254,"lat":41.71111111,"lon":-89.78561111,"rng_nm":50,"alt_fmsl":0,"id":"BOZ","desc":"WHITESIDE NDB"},
{"type":"NDB","hdg_t":259.9,"dist_nm":49,"freq":212,"lat":40.94905556,"lon":-91.51516667,"rng_nm":50,"alt_fmsl":0,"id":"MPZ","desc":"MOUNT PLEASANT NDB"},
{"type":"NDB","hdg_t":126.6,"dist_nm":49,"freq":356,"lat":40.60566667,"lon":-89.59313889,"rng_nm":50,"alt_fmsl":0,"id":"PI","desc":"TUNGG NDB"},
{"type":"NDB","hdg_t":281.6,"dist_nm":56.3,"freq":219,"lat":41.27977778,"lon":-91.67258333,"rng_nm":50,"alt_fmsl":0,"id":"AWG","desc":"WASHINGTON NDB"},
{"type":"VOR","hdg_t":296.1,"dist_nm":58.2,"freq":116.2,"lat":41.51897222,"lon":-91.61325000,"rng_nm":130,"alt_fmsl":770,"id":"IOW","desc":"IOWA CITY VORTAC"},
{"type":"NDB","hdg_t":230,"dist_nm":58.6,"freq":366,"lat":40.46469444,"lon":-91.43358333,"rng_nm":50,"alt_fmsl":0,"id":"EOK","desc":"KEOKUK NDB"},
{"type":"NDB","hdg_t":347.3,"dist_nm":58.6,"freq":386,"lat":42.05138600,"lon":-90.74095300,"rng_nm":25,"alt_fmsl":765,"id":"OQW","desc":"MAQUOKETA NDB"},
{"type":"NDB","hdg_t":303.4,"dist_nm":58.7,"freq":524,"lat":41.63201700,"lon":-91.54286100,"rng_nm":25,"alt_fmsl":648,"id":"UOC","desc":"HAWKEYE NDB"},
{"type":"NDB","hdg_t":74.9,"dist_nm":61,"freq":230,"lat":41.35475600,"lon":-89.14813900,"rng_nm":25,"alt_fmsl":652,"id":"VYS","desc":"VALLEY NDB"},
{"type":"VOR","hdg_t":38.4,"dist_nm":66.8,"freq":111.2,"lat":41.96563889,"lon":-89.52422222,"rng_nm":40,"alt_fmsl":840,"id":"PLL","desc":"POLO VOR-DME"},
{"type":"NDB","hdg_t":266.2,"dist_nm":69.8,"freq":332,"lat":41.01113889,"lon":-91.98850000,"rng_nm":50,"alt_fmsl":0,"id":"FFL","desc":"FAIRFIELD NDB"},
{"type":"NDB","hdg_t":354.9,"dist_nm":73.8,"freq":341,"lat":42.32300000,"lon":-90.59886111,"rng_nm":50,"alt_fmsl":0,"id":"DB","desc":"ZILOM NDB"},
{"type":"NDB","hdg_t":77,"dist_nm":74,"freq":266,"lat":41.36252778,"lon":-88.85425000,"rng_nm":50,"alt_fmsl":0,"id":"OIX","desc":"OTTAWA NDB"},
{"type":"NDB","hdg_t":137.4,"dist_nm":75.8,"freq":329,"lat":40.16013889,"lon":-89.33775000,"rng_nm":50,"alt_fmsl":0,"id":"AAA","desc":"ABRAHAM NDB"},
{"type":"VOR","hdg_t":308.6,"dist_nm":76.5,"freq":114.1,"lat":41.88755556,"lon":-91.78575000,"rng_nm":130,"alt_fmsl":876,"id":"CID","desc":"CEDAR RAPIDS VOR-DME"},
{"type":"NDB","hdg_t":308.2,"dist_nm":77,"freq":326,"lat":41.88566400,"lon":-91.80240600,"rng_nm":50,"alt_fmsl":0,"id":"CI","desc":"CINDY NDB"},
{"type":"VOR","hdg_t":117.5,"dist_nm":78.5,"freq":108.2,"lat":40.48080556,"lon":-88.93127778,"rng_nm":40,"alt_fmsl":882,"id":"BMI","desc":"BLOOMINGTON VOR-DME"},
{"type":"NDB","hdg_t":113.6,"dist_nm":78.7,"freq":334,"lat":40.56036111,"lon":-88.87463889,"rng_nm":50,"alt_fmsl":0,"id":"LH","desc":"EGROW NDB"},
{"type":"VOR","hdg_t":351.7,"dist_nm":79,"freq":115.8,"lat":42.40147222,"lon":-90.70908333,"rng_nm":130,"alt_fmsl":1051,"id":"DBQ","desc":"DUBUQUE VORTAC"},
{"type":"VOR","hdg_t":172.8,"dist_nm":79.7,"freq":108.6,"lat":39.77644444,"lon":-90.23872222,"rng_nm":25,"alt_fmsl":615,"id":"IJX","desc":"JACKSONVILLE VOR-DME"},
{"type":"VOR","hdg_t":101.3,"dist_nm":79.8,"freq":109.6,"lat":40.82119444,"lon":-88.73350000,"rng_nm":40,"alt_fmsl":679,"id":"PNT","desc":"PONTIAC VOR-DME"},
{"type":"NDB","hdg_t":151,"dist_nm":81,"freq":375,"lat":39.91202778,"lon":-89.60305556,"rng_nm":50,"alt_fmsl":0,"id":"LQ","desc":"LICOL NDB"},
{"type":"NDB","hdg_t":207,"dist_nm":81.3,"freq":293,"lat":39.88686111,"lon":-91.25369444,"rng_nm":50,"alt_fmsl":0,"id":"UI","desc":"QUINCY NDB"},
{"type":"VOR","hdg_t":154.5,"dist_nm":83.3,"freq":112.7,"lat":39.83972222,"lon":-89.67772222,"rng_nm":130,"alt_fmsl":586,"id":"SPI","desc":"SPINNER VORTAC"},
{"type":"VOR","hdg_t":207,"dist_nm":83.9,"freq":113.6,"lat":39.84786111,"lon":-91.27891667,"rng_nm":130,"alt_fmsl":715,"id":"UIN","desc":"QUINCY VORTAC"},
{"type":"VOR","hdg_t":267.8,"dist_nm":85.1,"freq":111.6,"lat":41.02913889,"lon":-92.32591667,"rng_nm":40,"alt_fmsl":820,"id":"OTM","desc":"OTTUMWA INDUSTRIA VOR-DME"},
{"type":"NDB","hdg_t":157.9,"dist_nm":85.5,"freq":382,"lat":39.77313889,"lon":-89.75988889,"rng_nm":50,"alt_fmsl":0,"id":"SP","desc":"HUSKK NDB"},
{"type":"NDB","hdg_t":44.5,"dist_nm":86.2,"freq":275,"lat":42.11433333,"lon":-89.09872222,"rng_nm":50,"alt_fmsl":0,"id":"RF","desc":"GILMY NDB"},
{"type":"NDB","hdg_t":152.9,"dist_nm":87.4,"freq":240,"lat":39.79461111,"lon":-89.59275000,"rng_nm":50,"alt_fmsl":0,"id":"CJ","desc":"CALDE NDB"},
{"type":"VOR","hdg_t":39.3,"dist_nm":88,"freq":110.8,"lat":42.22558333,"lon":-89.19927778,"rng_nm":40,"alt_fmsl":868,"id":"RFD","desc":"ROCKFORD VOR-DME"},
{"type":"NDB","hdg_t":189.9,"dist_nm":88.6,"freq":344,"lat":39.64031700,"lon":-90.78280000,"rng_nm":25,"alt_fmsl":702,"id":"PPQ","desc":"PITTSFIELD NDB"},
{"type":"NDB","hdg_t":257.4,"dist_nm":92.3,"freq":269,"lat":40.74502778,"lon":-92.43047222,"rng_nm":50,"alt_fmsl":0,"id":"BEX","desc":"BLOOMFIELD NDB"},
{"type":"NDB","hdg_t":275.4,"dist_nm":92.5,"freq":414,"lat":41.22550000,"lon":-92.48738889,"rng_nm":50,"alt_fmsl":0,"id":"OOA","desc":"OSKALOOSA NDB"},
{"type":"NDB","hdg_t":56.8,"dist_nm":93.3,"freq":209,"lat":41.93402778,"lon":-88.70733333,"rng_nm":50,"alt_fmsl":0,"id":"DKB","desc":"DEKALB NDB"}
]
}
