{"success":true,"source":"xp2csv.pl","last_updated":"2013/11/08 14:53:21 UTC"
,"icao":"LL32","name":"C D Maulding","lat":40.45003472,"lon":-88.07504112,"rwys":1,"ils":0,"index":1499291,"path":"w090n40/w089n40"
,"runways":[
{"len_m":801,"wid_m":19.81,"hdg":0,"surf":"Turf/grass","rwy1":"36","lat1":40.44642770,"lon1":-88.07504112,"rwy2":"18","lat2":40.45364174,"lon2":-88.07504112}
]
,"navaids":[
{"type":"VOR","hdg_t":332.6,"dist_nm":8.8,"freq":116.8,"lat":40.58169444,"lon":-88.16427778,"rng_nm":40,"alt_fmsl":780,"id":"RBS","desc":"ROBERTS VOR-DME"},
{"type":"VOR","hdg_t":111.3,"dist_nm":25.5,"freq":111,"lat":40.29377778,"lon":-87.55719444,"rng_nm":40,"alt_fmsl":700,"id":"DNV","desc":"DANVILLE VORTAC"},
{"type":"NDB","hdg_t":167.5,"dist_nm":26,"freq":281,"lat":40.02641667,"lon":-87.95308333,"rng_nm":50,"alt_fmsl":0,"id":"HMJ","desc":"HOMER NDB"},
{"type":"VOR","hdg_t":200.4,"dist_nm":26.5,"freq":110,"lat":40.03452778,"lon":-88.27605556,"rng_nm":40,"alt_fmsl":745,"id":"CMI","desc":"CHAMPAIGN VORTAC"},
{"type":"NDB","hdg_t":110.8,"dist_nm":26.7,"freq":332,"lat":40.28952778,"lon":-87.52975000,"rng_nm":50,"alt_fmsl":0,"id":"DN","desc":"JULIP NDB"},
{"type":"NDB","hdg_t":189.6,"dist_nm":29.4,"freq":407,"lat":39.96622222,"lon":-88.18244444,"rng_nm":50,"alt_fmsl":0,"id":"CM","desc":"VEALS NDB"},
{"type":"NDB","hdg_t":12.8,"dist_nm":34.9,"freq":272,"lat":41.01788889,"lon":-87.90372222,"rng_nm":50,"alt_fmsl":0,"id":"IK","desc":"LUKOW NDB"},
{"type":"NDB","hdg_t":280.5,"dist_nm":37.1,"freq":334,"lat":40.56036111,"lon":-88.87463889,"rng_nm":50,"alt_fmsl":0,"id":"LH","desc":"EGROW NDB"},
{"type":"VOR","hdg_t":306.7,"dist_nm":37.4,"freq":109.6,"lat":40.82119444,"lon":-88.73350000,"rng_nm":40,"alt_fmsl":679,"id":"PNT","desc":"PONTIAC VOR-DME"},
{"type":"VOR","hdg_t":15.2,"dist_nm":38.8,"freq":111.6,"lat":41.07441667,"lon":-87.84977778,"rng_nm":40,"alt_fmsl":625,"id":"IKK","desc":"KANKAKEE VOR-DME"},
{"type":"VOR","hdg_t":272.9,"dist_nm":39.2,"freq":108.2,"lat":40.48080556,"lon":-88.93127778,"rng_nm":40,"alt_fmsl":882,"id":"BMI","desc":"BLOOMINGTON VOR-DME"},
{"type":"VOR","hdg_t":81.8,"dist_nm":46.4,"freq":115.1,"lat":40.55611111,"lon":-87.06933333,"rng_nm":130,"alt_fmsl":750,"id":"BVT","desc":"BOILER VORTAC"},
{"type":"NDB","hdg_t":91.3,"dist_nm":46.8,"freq":401,"lat":40.42644444,"lon":-87.05180556,"rng_nm":50,"alt_fmsl":0,"id":"LA","desc":"EARLE NDB"},
{"type":"NDB","hdg_t":157.5,"dist_nm":48.7,"freq":341,"lat":39.69836111,"lon":-87.67419444,"rng_nm":50,"alt_fmsl":0,"id":"PRG","desc":"PARIS NDB"},
{"type":"VOR","hdg_t":14.6,"dist_nm":50.8,"freq":113.2,"lat":41.26963889,"lon":-87.79105556,"rng_nm":40,"alt_fmsl":689,"id":"EON","desc":"PEOTONE VORTAC"},
{"type":"VOR","hdg_t":220.3,"dist_nm":55.8,"freq":117.2,"lat":39.73752778,"lon":-88.85644444,"rng_nm":130,"alt_fmsl":708,"id":"AXC","desc":"ADDERS VORTAC"},
{"type":"NDB","hdg_t":225.9,"dist_nm":56.5,"freq":275,"lat":39.79052778,"lon":-88.95388889,"rng_nm":50,"alt_fmsl":0,"id":"DE","desc":"ELWIN NDB"},
{"type":"VOR","hdg_t":189.5,"dist_nm":59,"freq":109.4,"lat":39.47800000,"lon":-88.28605556,"rng_nm":40,"alt_fmsl":720,"id":"MTO","desc":"MATTOON VOR-DME"},
{"type":"NDB","hdg_t":117.4,"dist_nm":60.2,"freq":388,"lat":39.98097222,"lon":-86.91572222,"rng_nm":50,"alt_fmsl":0,"id":"CFJ","desc":"CRAWFORDSVILLE NDB"},
{"type":"NDB","hdg_t":253.7,"dist_nm":60.5,"freq":329,"lat":40.16013889,"lon":-89.33775000,"rng_nm":50,"alt_fmsl":0,"id":"AAA","desc":"ABRAHAM NDB"},
{"type":"NDB","hdg_t":184.3,"dist_nm":60.5,"freq":347,"lat":39.44241667,"lon":-88.17347222,"rng_nm":50,"alt_fmsl":0,"id":"MT","desc":"ZEBRE NDB"},
{"type":"NDB","hdg_t":74.9,"dist_nm":62,"freq":377,"lat":40.71031700,"lon":-86.76223300,"rng_nm":25,"alt_fmsl":676,"id":"MCX","desc":"WHITE CO NDB"},
{"type":"NDB","hdg_t":327.3,"dist_nm":65.1,"freq":266,"lat":41.36252778,"lon":-88.85425000,"rng_nm":50,"alt_fmsl":0,"id":"OIX","desc":"OTTAWA NDB"},
{"type":"VOR","hdg_t":350.5,"dist_nm":66.6,"freq":112.3,"lat":41.54641667,"lon":-88.31841667,"rng_nm":130,"alt_fmsl":592,"id":"JOT","desc":"JOLIET VORTAC"},
{"type":"VOR","hdg_t":19.6,"dist_nm":67.5,"freq":114.2,"lat":41.51000000,"lon":-87.57155556,"rng_nm":40,"alt_fmsl":634,"id":"CGT","desc":"CHICAGO HEIGHTS VORTAC"},
{"type":"NDB","hdg_t":177.1,"dist_nm":68.7,"freq":359,"lat":39.30522222,"lon":-88.00194444,"rng_nm":50,"alt_fmsl":0,"id":"CZB","desc":"CASEY NDB"},
{"type":"VOR","hdg_t":146.2,"dist_nm":69,"freq":115.3,"lat":39.48894444,"lon":-87.24902778,"rng_nm":130,"alt_fmsl":606,"id":"TTH","desc":"TERRE HAUTE VORTAC"},
{"type":"NDB","hdg_t":278.1,"dist_nm":70,"freq":356,"lat":40.60566667,"lon":-89.59313889,"rng_nm":50,"alt_fmsl":0,"id":"PI","desc":"TUNGG NDB"},
{"type":"NDB","hdg_t":98.3,"dist_nm":70.1,"freq":278,"lat":40.27050000,"lon":-86.56275000,"rng_nm":50,"alt_fmsl":0,"id":"FKR","desc":"FRANKFORT NDB"},
{"type":"NDB","hdg_t":153.6,"dist_nm":70.9,"freq":245,"lat":39.38783333,"lon":-87.39769444,"rng_nm":50,"alt_fmsl":0,"id":"HU","desc":"YINNO NDB"},
{"type":"NDB","hdg_t":209.8,"dist_nm":71.9,"freq":365,"lat":39.40669444,"lon":-88.84369444,"rng_nm":50,"alt_fmsl":0,"id":"SYZ","desc":"SHELBYVILLE NDB"},
{"type":"NDB","hdg_t":318.3,"dist_nm":72.9,"freq":230,"lat":41.35475600,"lon":-89.14813900,"rng_nm":25,"alt_fmsl":652,"id":"VYS","desc":"VALLEY NDB"},
{"type":"NDB","hdg_t":126.6,"dist_nm":73.2,"freq":521,"lat":39.71408333,"lon":-86.80602778,"rng_nm":50,"alt_fmsl":0,"id":"TVX","desc":"GREENCASTLE NDB"},
{"type":"NDB","hdg_t":26.5,"dist_nm":75.3,"freq":236,"lat":41.57241667,"lon":-87.32702778,"rng_nm":50,"alt_fmsl":0,"id":"GY","desc":"GARIE NDB"},
{"type":"NDB","hdg_t":8,"dist_nm":76.8,"freq":332,"lat":41.71897222,"lon":-87.83638889,"rng_nm":50,"alt_fmsl":0,"id":"HK","desc":"ERMIN NDB"},
{"type":"NDB","hdg_t":245.8,"dist_nm":77.3,"freq":375,"lat":39.91202778,"lon":-89.60305556,"rng_nm":50,"alt_fmsl":0,"id":"LQ","desc":"LICOL NDB"},
{"type":"NDB","hdg_t":12.5,"dist_nm":79.3,"freq":248,"lat":41.74150000,"lon":-87.68966667,"rng_nm":50,"alt_fmsl":0,"id":"MX","desc":"KEDZI NDB"},
{"type":"NDB","hdg_t":78.1,"dist_nm":79.3,"freq":263,"lat":40.70899200,"lon":-86.37359400,"rng_nm":25,"alt_fmsl":732,"id":"GGP","desc":"LOGANSPORT NDB"},
{"type":"NDB","hdg_t":226.8,"dist_nm":79.4,"freq":395,"lat":39.53611111,"lon":-89.32361111,"rng_nm":50,"alt_fmsl":0,"id":"TAZ","desc":"TAYLORVILLE NDB"},
{"type":"VOR","hdg_t":280.5,"dist_nm":79.7,"freq":115.2,"lat":40.68008333,"lon":-89.79302778,"rng_nm":40,"alt_fmsl":731,"id":"PIA","desc":"PEORIA VORTAC"},
{"type":"NDB","hdg_t":241.1,"dist_nm":80.1,"freq":240,"lat":39.79461111,"lon":-89.59275000,"rng_nm":50,"alt_fmsl":0,"id":"CJ","desc":"CALDE NDB"},
{"type":"NDB","hdg_t":41.8,"dist_nm":81,"freq":212,"lat":41.45113889,"lon":-86.87752778,"rng_nm":50,"alt_fmsl":0,"id":"VP","desc":"SEDLY NDB"},
{"type":"VOR","hdg_t":302.1,"dist_nm":81,"freq":114.7,"lat":41.15972222,"lon":-89.58786111,"rng_nm":130,"alt_fmsl":810,"id":"BDF","desc":"BRADFORD VORTAC"},
{"type":"VOR","hdg_t":244.1,"dist_nm":82.3,"freq":112.7,"lat":39.83972222,"lon":-89.67772222,"rng_nm":130,"alt_fmsl":586,"id":"SPI","desc":"SPINNER VORTAC"},
{"type":"VOR","hdg_t":50.6,"dist_nm":83.3,"freq":115.6,"lat":41.32205556,"lon":-86.64930556,"rng_nm":130,"alt_fmsl":690,"id":"OXI","desc":"KNOX VOR-DME"},
{"type":"NDB","hdg_t":159.8,"dist_nm":85.2,"freq":326,"lat":39.11355556,"lon":-87.44680556,"rng_nm":50,"alt_fmsl":0,"id":"SIV","desc":"SULLIVAN NDB"},
{"type":"NDB","hdg_t":42.8,"dist_nm":86.4,"freq":356,"lat":41.49897222,"lon":-86.77119444,"rng_nm":50,"alt_fmsl":0,"id":"IUL","desc":"LA PORTE NDB"},
{"type":"VOR","hdg_t":351.8,"dist_nm":87.2,"freq":108.4,"lat":41.89036111,"lon":-88.35016667,"rng_nm":40,"alt_fmsl":838,"id":"DPA","desc":"DUPAGE VOR-DME"},
{"type":"VOR","hdg_t":115.3,"dist_nm":87.3,"freq":116.3,"lat":39.81472222,"lon":-86.36747222,"rng_nm":130,"alt_fmsl":823,"id":"VHP","desc":"BRICKYARD VORTAC"},
{"type":"NDB","hdg_t":242.9,"dist_nm":87.5,"freq":382,"lat":39.77313889,"lon":-89.75988889,"rng_nm":50,"alt_fmsl":0,"id":"SP","desc":"HUSKK NDB"},
{"type":"NDB","hdg_t":7.8,"dist_nm":88,"freq":385,"lat":41.90486100,"lon":-87.80691700,"rng_nm":25,"alt_fmsl":0,"id":"ID","desc":"INDDY NDB"},
{"type":"VOR","hdg_t":166.9,"dist_nm":88.1,"freq":108.4,"lat":39.01763889,"lon":-87.64883333,"rng_nm":25,"alt_fmsl":452,"id":"RSV","desc":"CRAWFORD CO VOR-DME"},
{"type":"NDB","hdg_t":166.7,"dist_nm":88.3,"freq":391,"lat":39.01408333,"lon":-87.64161111,"rng_nm":50,"alt_fmsl":0,"id":"PLX","desc":"PALESTINE NDB"},
{"type":"VOR","hdg_t":81.8,"dist_nm":88.7,"freq":108.45,"lat":40.64491667,"lon":-86.15172222,"rng_nm":25,"alt_fmsl":808,"id":"GUS","desc":"GRISSOM VORTAC"},
{"type":"NDB","hdg_t":109.4,"dist_nm":89.3,"freq":248,"lat":39.93969444,"lon":-86.24872222,"rng_nm":50,"alt_fmsl":0,"id":"HZP","desc":"ZIONSVILLE NDB"},
{"type":"NDB","hdg_t":58.6,"dist_nm":89.6,"freq":391,"lat":41.21672222,"lon":-86.38472222,"rng_nm":50,"alt_fmsl":0,"id":"CPB","desc":"CULVER NDB"},
{"type":"NDB","hdg_t":122.2,"dist_nm":90.8,"freq":266,"lat":39.62900000,"lon":-86.41833333,"rng_nm":50,"alt_fmsl":0,"id":"IN","desc":"PULLY NDB"},
{"type":"NDB","hdg_t":1.3,"dist_nm":91,"freq":350,"lat":41.96777200,"lon":-88.02670000,"rng_nm":50,"alt_fmsl":699,"id":"ME","desc":"DEANA NDB"},
{"type":"NDB","hdg_t":122.4,"dist_nm":91.6,"freq":219,"lat":39.61725000,"lon":-86.40786111,"rng_nm":50,"alt_fmsl":0,"id":"OQ","desc":"BRINN NDB"},
{"type":"NDB","hdg_t":274.9,"dist_nm":91.8,"freq":236,"lat":40.56586111,"lon":-90.07705556,"rng_nm":50,"alt_fmsl":0,"id":"CTK","desc":"CANTON NDB"},
{"type":"VOR","hdg_t":86.4,"dist_nm":92.4,"freq":113.5,"lat":40.52777778,"lon":-86.05800000,"rng_nm":130,"alt_fmsl":827,"id":"OKK","desc":"KOKOMO VORTAC"},
{"type":"VOR","hdg_t":4.7,"dist_nm":92.5,"freq":113.9,"lat":41.98766667,"lon":-87.90488889,"rng_nm":40,"alt_fmsl":650,"id":"ORD","desc":"CHICAGO O'HARE IN VOR-DME"},
{"type":"NDB","hdg_t":7.9,"dist_nm":92.9,"freq":414,"lat":41.98431700,"lon":-87.78902200,"rng_nm":25,"alt_fmsl":0,"id":"IA","desc":"TAFFS NDB"},
{"type":"NDB","hdg_t":342.3,"dist_nm":93.4,"freq":209,"lat":41.93402778,"lon":-88.70733333,"rng_nm":50,"alt_fmsl":0,"id":"DKB","desc":"DEKALB NDB"},
{"type":"DME","hdg_t":3.9,"dist_nm":93.4,"freq":111.75,"lat":42.00391666,"lon":-87.93006695,"rng_nm":18,"alt_fmsl":668,"id":"KORD","desc":"09L DME-ILS"},
{"type":"DME","hdg_t":3.9,"dist_nm":93.4,"freq":111.75,"lat":42.00391667,"lon":-87.93006690,"rng_nm":18,"alt_fmsl":668,"id":"KORD","desc":"27R DME-ILS"},
{"type":"VOR","hdg_t":191.7,"dist_nm":93.6,"freq":109,"lat":38.92036111,"lon":-88.48180556,"rng_nm":40,"alt_fmsl":540,"id":"BIB","desc":"BIBLE GROVE VORTAC"},
{"type":"NDB","hdg_t":114,"dist_nm":95.1,"freq":349,"lat":39.78644444,"lon":-86.19625000,"rng_nm":50,"alt_fmsl":0,"id":"FV","desc":"LAREZ NDB"},
{"type":"VOR","hdg_t":212,"dist_nm":95.6,"freq":114.3,"lat":39.09369444,"lon":-89.16247222,"rng_nm":40,"alt_fmsl":604,"id":"VLA","desc":"VANDALIA VORTAC"},
{"type":"NDB","hdg_t":1.7,"dist_nm":96.3,"freq":394,"lat":42.05593600,"lon":-88.00779200,"rng_nm":25,"alt_fmsl":0,"id":"OR","desc":"CHSTR NDB"},
{"type":"NDB","hdg_t":2.2,"dist_nm":97.1,"freq":368,"lat":42.06918300,"lon":-87.99088300,"rng_nm":25,"alt_fmsl":0,"id":"OH","desc":"LEAMA NDB"},
{"type":"NDB","hdg_t":107.6,"dist_nm":98,"freq":338,"lat":39.93769444,"lon":-86.05022222,"rng_nm":50,"alt_fmsl":0,"id":"UMP","desc":"METROPOLITAN NDB"},
{"type":"NDB","hdg_t":118,"dist_nm":99.1,"freq":232,"lat":39.65686111,"lon":-86.18541667,"rng_nm":50,"alt_fmsl":0,"id":"CO","desc":"COLFA NDB"}
]
}
