{"success":true,"source":"xp2csv.pl","last_updated":"2013/11/08 14:53:21 UTC"
,"icao":"LL89","name":"Blackhawk Farms Inc","lat":42.48723666,"lon":-89.10788862,"rwys":1,"ils":0,"index":1483035,"path":"w090n40/w090n42"
,"runways":[
{"len_m":611,"wid_m":30.48,"hdg":89,"surf":"Turf/grass","rwy1":"09","lat1":42.48723666,"lon1":-89.11160828,"rwy2":"27","lat2":42.48723666,"lon2":-89.10416896}
]
,"navaids":[
{"type":"VOR","hdg_t":1.5,"dist_nm":4.2,"freq":114.3,"lat":42.55800000,"lon":-89.10525000,"rng_nm":40,"alt_fmsl":931,"id":"JVL","desc":"JANESVILLE VOR-DME"},
{"type":"NDB","hdg_t":21,"dist_nm":8.2,"freq":375,"lat":42.61511111,"lon":-89.04127778,"rng_nm":50,"alt_fmsl":0,"id":"JVL","desc":"JANESVILLE NDB"},
{"type":"VOR","hdg_t":194.5,"dist_nm":16.2,"freq":110.8,"lat":42.22558333,"lon":-89.19927778,"rng_nm":40,"alt_fmsl":868,"id":"RFD","desc":"ROCKFORD VOR-DME"},
{"type":"NDB","hdg_t":178.9,"dist_nm":22.3,"freq":275,"lat":42.11433333,"lon":-89.09872222,"rng_nm":50,"alt_fmsl":0,"id":"RF","desc":"GILMY NDB"},
{"type":"NDB","hdg_t":60.7,"dist_nm":26.1,"freq":404,"lat":42.69883333,"lon":-88.59316667,"rng_nm":50,"alt_fmsl":0,"id":"LVV","desc":"LAKE LAWN NDB"},
{"type":"NDB","hdg_t":343.1,"dist_nm":36,"freq":400,"lat":43.06275000,"lon":-89.34588889,"rng_nm":50,"alt_fmsl":0,"id":"MS","desc":"MONAH NDB"},
{"type":"VOR","hdg_t":210.8,"dist_nm":36.3,"freq":111.2,"lat":41.96563889,"lon":-89.52422222,"rng_nm":40,"alt_fmsl":840,"id":"PLL","desc":"POLO VOR-DME"},
{"type":"NDB","hdg_t":151.5,"dist_nm":37.6,"freq":209,"lat":41.93402778,"lon":-88.70733333,"rng_nm":50,"alt_fmsl":0,"id":"DKB","desc":"DEKALB NDB"},
{"type":"VOR","hdg_t":70.9,"dist_nm":37.7,"freq":114.5,"lat":42.68933333,"lon":-88.30177778,"rng_nm":25,"alt_fmsl":772,"id":"BUU","desc":"BURBUN VOR-DME"},
{"type":"VOR","hdg_t":345.5,"dist_nm":40.7,"freq":108.6,"lat":43.14483333,"lon":-89.33969444,"rng_nm":40,"alt_fmsl":857,"id":"MSN","desc":"MADISON VORTAC"},
{"type":"NDB","hdg_t":22.1,"dist_nm":44.5,"freq":371,"lat":43.17366667,"lon":-88.72527778,"rng_nm":50,"alt_fmsl":0,"id":"RYV","desc":"ROCK RIVER NDB"},
{"type":"NDB","hdg_t":84.3,"dist_nm":48,"freq":389,"lat":42.56044444,"lon":-88.02877778,"rng_nm":50,"alt_fmsl":0,"id":"EN","desc":"CODEE NDB"},
{"type":"VOR","hdg_t":136.3,"dist_nm":49.2,"freq":108.4,"lat":41.89036111,"lon":-88.35016667,"rng_nm":40,"alt_fmsl":838,"id":"DPA","desc":"DUPAGE VOR-DME"},
{"type":"VOR","hdg_t":43.6,"dist_nm":52.4,"freq":116.4,"lat":43.11686111,"lon":-88.28433333,"rng_nm":130,"alt_fmsl":1080,"id":"BAE","desc":"BADGER VORTAC"},
{"type":"VOR","hdg_t":82.2,"dist_nm":52.5,"freq":109.2,"lat":42.59905556,"lon":-87.93172222,"rng_nm":25,"alt_fmsl":734,"id":"ENW","desc":"KENOSHA VOR-DME"},
{"type":"NDB","hdg_t":61.4,"dist_nm":53.5,"freq":242,"lat":42.90905556,"lon":-88.04097222,"rng_nm":50,"alt_fmsl":0,"id":"GM","desc":"TEELS NDB"},
{"type":"VOR","hdg_t":106.8,"dist_nm":53.8,"freq":113,"lat":42.22147222,"lon":-87.95180556,"rng_nm":130,"alt_fmsl":758,"id":"OBK","desc":"NORTHBROOK VOR-DME"},
{"type":"NDB","hdg_t":77.2,"dist_nm":54.8,"freq":206,"lat":42.68255556,"lon":-87.89947222,"rng_nm":50,"alt_fmsl":0,"id":"RA","desc":"PASER NDB"},
{"type":"NDB","hdg_t":296.2,"dist_nm":55,"freq":365,"lat":42.88805556,"lon":-90.22650000,"rng_nm":50,"alt_fmsl":0,"id":"MRJ","desc":"MINERAL POINT NDB"},
{"type":"NDB","hdg_t":117.4,"dist_nm":55.4,"freq":394,"lat":42.05593600,"lon":-88.00779200,"rng_nm":25,"alt_fmsl":0,"id":"OR","desc":"CHSTR NDB"},
{"type":"NDB","hdg_t":213.2,"dist_nm":55.5,"freq":254,"lat":41.71111111,"lon":-89.78561111,"rng_nm":50,"alt_fmsl":0,"id":"BOZ","desc":"WHITESIDE NDB"},
{"type":"NDB","hdg_t":116.3,"dist_nm":55.7,"freq":368,"lat":42.06918300,"lon":-87.99088300,"rng_nm":25,"alt_fmsl":0,"id":"OH","desc":"LEAMA NDB"},
{"type":"NDB","hdg_t":67.8,"dist_nm":56.9,"freq":410,"lat":42.83961111,"lon":-87.91300000,"rng_nm":50,"alt_fmsl":0,"id":"MK","desc":"CAPPY NDB"},
{"type":"NDB","hdg_t":122.5,"dist_nm":57.3,"freq":350,"lat":41.96777200,"lon":-88.02670000,"rng_nm":50,"alt_fmsl":699,"id":"ME","desc":"DEANA NDB"},
{"type":"NDB","hdg_t":90.9,"dist_nm":58,"freq":379,"lat":42.46405556,"lon":-87.80141667,"rng_nm":50,"alt_fmsl":0,"id":"UG","desc":"WAUKE NDB"},
{"type":"NDB","hdg_t":17.4,"dist_nm":59.2,"freq":344,"lat":43.42900000,"lon":-88.70216667,"rng_nm":50,"alt_fmsl":0,"id":"UNU","desc":"JUNEAU NDB"},
{"type":"VOR","hdg_t":73.5,"dist_nm":59.6,"freq":117.7,"lat":42.76216667,"lon":-87.81472222,"rng_nm":25,"alt_fmsl":669,"id":"HRK","desc":"HORLICK VOR-DME"},
{"type":"DME","hdg_t":118.5,"dist_nm":59.9,"freq":111.75,"lat":42.00391666,"lon":-87.93006695,"rng_nm":18,"alt_fmsl":668,"id":"KORD","desc":"09L DME-ILS"},
{"type":"DME","hdg_t":118.5,"dist_nm":59.9,"freq":111.75,"lat":42.00391667,"lon":-87.93006690,"rng_nm":18,"alt_fmsl":668,"id":"KORD","desc":"27R DME-ILS"},
{"type":"VOR","hdg_t":51.3,"dist_nm":60.2,"freq":112.5,"lat":43.10977778,"lon":-88.03727778,"rng_nm":40,"alt_fmsl":737,"id":"LJT","desc":"TIMMERMAN VOR-DME"},
{"type":"NDB","hdg_t":31,"dist_nm":60.4,"freq":200,"lat":43.34763889,"lon":-88.39522222,"rng_nm":50,"alt_fmsl":0,"id":"HXF","desc":"HARTFORD NDB"},
{"type":"VOR","hdg_t":118.7,"dist_nm":61.4,"freq":113.9,"lat":41.98766667,"lon":-87.90488889,"rng_nm":40,"alt_fmsl":650,"id":"ORD","desc":"CHICAGO O'HARE IN VOR-DME"},
{"type":"NDB","hdg_t":57.3,"dist_nm":64.3,"freq":260,"lat":43.06002778,"lon":-87.87675000,"rng_nm":50,"alt_fmsl":0,"id":"BL","desc":"YANKS NDB"},
{"type":"NDB","hdg_t":116.7,"dist_nm":66,"freq":414,"lat":41.98431700,"lon":-87.78902200,"rng_nm":25,"alt_fmsl":0,"id":"IA","desc":"TAFFS NDB"},
{"type":"VOR","hdg_t":317.3,"dist_nm":66.2,"freq":112.8,"lat":43.29436111,"lon":-90.13313889,"rng_nm":40,"alt_fmsl":1184,"id":"LNR","desc":"LONE ROCK VOR-DME"},
{"type":"VOR","hdg_t":147.6,"dist_nm":66.5,"freq":112.3,"lat":41.54641667,"lon":-88.31841667,"rng_nm":130,"alt_fmsl":592,"id":"JOT","desc":"JOLIET VORTAC"},
{"type":"NDB","hdg_t":262,"dist_nm":67,"freq":341,"lat":42.32300000,"lon":-90.59886111,"rng_nm":50,"alt_fmsl":0,"id":"DB","desc":"ZILOM NDB"},
{"type":"NDB","hdg_t":120.6,"dist_nm":67.7,"freq":385,"lat":41.90486100,"lon":-87.80691700,"rng_nm":25,"alt_fmsl":0,"id":"ID","desc":"INDDY NDB"},
{"type":"NDB","hdg_t":181.5,"dist_nm":67.9,"freq":230,"lat":41.35475600,"lon":-89.14813900,"rng_nm":25,"alt_fmsl":652,"id":"VYS","desc":"VALLEY NDB"},
{"type":"NDB","hdg_t":170.3,"dist_nm":68.4,"freq":266,"lat":41.36252778,"lon":-88.85425000,"rng_nm":50,"alt_fmsl":0,"id":"OIX","desc":"OTTAWA NDB"},
{"type":"VOR","hdg_t":335.8,"dist_nm":70,"freq":117,"lat":43.55083333,"lon":-89.76361111,"rng_nm":130,"alt_fmsl":1022,"id":"DLL","desc":"DELLS VORTAC"},
{"type":"VOR","hdg_t":37.3,"dist_nm":70.8,"freq":109.8,"lat":43.42197222,"lon":-88.12519444,"rng_nm":25,"alt_fmsl":0,"id":"BJB","desc":"WEST BEND VOR"},
{"type":"VOR","hdg_t":266.4,"dist_nm":71.3,"freq":115.8,"lat":42.40147222,"lon":-90.70908333,"rng_nm":130,"alt_fmsl":1051,"id":"DBQ","desc":"DUBUQUE VORTAC"},
{"type":"NDB","hdg_t":232.8,"dist_nm":72.2,"freq":517,"lat":41.75166667,"lon":-90.39050000,"rng_nm":50,"alt_fmsl":0,"id":"FN","desc":"HILLZ NDB"},
{"type":"NDB","hdg_t":128.6,"dist_nm":73.1,"freq":332,"lat":41.71897222,"lon":-87.83638889,"rng_nm":50,"alt_fmsl":0,"id":"HK","desc":"ERMIN NDB"},
{"type":"VOR","hdg_t":233.2,"dist_nm":77.1,"freq":113.8,"lat":41.70855556,"lon":-90.48330556,"rng_nm":40,"alt_fmsl":767,"id":"CVA","desc":"DAVENPORT VORTAC"},
{"type":"NDB","hdg_t":250.7,"dist_nm":77.3,"freq":386,"lat":42.05138600,"lon":-90.74095300,"rng_nm":25,"alt_fmsl":765,"id":"OQW","desc":"MAQUOKETA NDB"},
{"type":"NDB","hdg_t":124.7,"dist_nm":77.5,"freq":248,"lat":41.74150000,"lon":-87.68966667,"rng_nm":50,"alt_fmsl":0,"id":"MX","desc":"KEDZI NDB"},
{"type":"NDB","hdg_t":19.3,"dist_nm":81.6,"freq":248,"lat":43.76954400,"lon":-88.48462800,"rng_nm":25,"alt_fmsl":0,"id":"FLD","desc":"FOND DU LAC NDB"},
{"type":"VOR","hdg_t":195.2,"dist_nm":82.4,"freq":114.7,"lat":41.15972222,"lon":-89.58786111,"rng_nm":130,"alt_fmsl":810,"id":"BDF","desc":"BRADFORD VORTAC"},
{"type":"NDB","hdg_t":236,"dist_nm":83.9,"freq":353,"lat":41.69486111,"lon":-90.65588889,"rng_nm":50,"alt_fmsl":0,"id":"DV","desc":"AUNEY NDB"},
{"type":"NDB","hdg_t":16,"dist_nm":86.6,"freq":395,"lat":43.87380556,"lon":-88.55761111,"rng_nm":50,"alt_fmsl":0,"id":"OS","desc":"POBER NDB"},
{"type":"NDB","hdg_t":322.8,"dist_nm":88.3,"freq":251,"lat":43.65516667,"lon":-90.33308333,"rng_nm":50,"alt_fmsl":0,"id":"HBW","desc":"KICKAPOO NDB"},
{"type":"VOR","hdg_t":129.9,"dist_nm":90.3,"freq":114.2,"lat":41.51000000,"lon":-87.57155556,"rng_nm":40,"alt_fmsl":634,"id":"CGT","desc":"CHICAGO HEIGHTS VORTAC"},
{"type":"NDB","hdg_t":227.8,"dist_nm":91.9,"freq":215,"lat":41.44905556,"lon":-90.61847222,"rng_nm":50,"alt_fmsl":0,"id":"ML","desc":"MOLLI NDB"},
{"type":"VOR","hdg_t":14.8,"dist_nm":93.3,"freq":111.8,"lat":43.99041667,"lon":-88.55594444,"rng_nm":40,"alt_fmsl":780,"id":"OSH","desc":"OSHKOSH VORTAC"},
{"type":"VOR","hdg_t":140.6,"dist_nm":93.8,"freq":113.2,"lat":41.26963889,"lon":-87.79105556,"rng_nm":40,"alt_fmsl":689,"id":"EON","desc":"PEOTONE VORTAC"},
{"type":"VOR","hdg_t":35.3,"dist_nm":94.7,"freq":110,"lat":43.76877778,"lon":-87.84875000,"rng_nm":40,"alt_fmsl":744,"id":"FAH","desc":"FALLS VOR-DME"},
{"type":"NDB","hdg_t":123.9,"dist_nm":96.6,"freq":236,"lat":41.57241667,"lon":-87.32702778,"rng_nm":50,"alt_fmsl":0,"id":"GY","desc":"GARIE NDB"},
{"type":"VOR","hdg_t":224.9,"dist_nm":97.9,"freq":114.4,"lat":41.32091667,"lon":-90.63822222,"rng_nm":40,"alt_fmsl":817,"id":"MZV","desc":"MOLINE VORTAC"}
]
}
