{"success":true,"source":"xp2csv.pl","last_updated":"2013/11/08 14:53:21 UTC"
,"icao":"LOAA","name":"Ottenschlag","lat":48.418,"lon":15.217,"rwys":1,"ils":0,"index":3203736,"path":"e010n40/e015n48"
,"runways":[
{"len_m":516,"wid_m":29.87,"hdg":205,"surf":"Turf/grass","rwy1":"21","lat1":48.42008829,"lon1":15.21852473,"rwy2":"03","lat2":48.41591171,"lon2":15.21547527}
]
,"navaids":[
{"type":"NDB","hdg_t":101.7,"dist_nm":31.2,"freq":358,"lat":48.30944400,"lon":15.98111100,"rng_nm":40,"alt_fmsl":594,"id":"TUN","desc":"TULLN NDB"},
{"type":"VOR","hdg_t":101.7,"dist_nm":31.2,"freq":111.4,"lat":48.30972200,"lon":15.98083300,"rng_nm":25,"alt_fmsl":640,"id":"TUN","desc":"TULLN VOR-DME"},
{"type":"VOR","hdg_t":89.7,"dist_nm":32,"freq":113,"lat":48.41713600,"lon":16.01859400,"rng_nm":60,"alt_fmsl":750,"id":"STO","desc":"STOCKERAU VOR-DME"},
{"type":"VOR","hdg_t":21.4,"dist_nm":35.5,"freq":113.15,"lat":48.96917500,"lon":15.54557800,"rng_nm":130,"alt_fmsl":1600,"id":"OKF","desc":"DESNA VOR-DME"},
{"type":"NDB","hdg_t":253.4,"dist_nm":37.4,"freq":327,"lat":48.23710000,"lon":14.32178300,"rng_nm":40,"alt_fmsl":0,"id":"LNZ","desc":"LINZ NDB"},
{"type":"NDB","hdg_t":318.9,"dist_nm":42.2,"freq":402,"lat":48.94627800,"lon":14.51531900,"rng_nm":50,"alt_fmsl":0,"id":"RA","desc":"CESKE BUDEJOVICE NDB"},
{"type":"NDB","hdg_t":106.4,"dist_nm":43,"freq":293,"lat":48.21061700,"lon":16.24713600,"rng_nm":25,"alt_fmsl":1056,"id":"STE","desc":"STEINHOF NDB"},
{"type":"VOR","hdg_t":271.4,"dist_nm":43.4,"freq":113.5,"lat":48.43178100,"lon":14.12983100,"rng_nm":60,"alt_fmsl":2014,"id":"FRE","desc":"FREISTADT VOR-DME"},
{"type":"NDB","hdg_t":316.7,"dist_nm":43.7,"freq":830,"lat":48.94630600,"lon":14.45822200,"rng_nm":50,"alt_fmsl":0,"id":"R","desc":"CESKE BUDEJOVICE NDB"},
{"type":"VOR","hdg_t":256.1,"dist_nm":46,"freq":116.6,"lat":48.22971100,"lon":14.10315600,"rng_nm":60,"alt_fmsl":1145,"id":"LNZ","desc":"LINZ VOR-DME"},
{"type":"VOR","hdg_t":95.8,"dist_nm":51.2,"freq":112.2,"lat":48.32385600,"lon":16.49095300,"rng_nm":60,"alt_fmsl":574,"id":"WGM","desc":"WAGRAM VOR-DME"},
{"type":"NDB","hdg_t":107.6,"dist_nm":52.3,"freq":303,"lat":48.14742500,"lon":16.45759200,"rng_nm":25,"alt_fmsl":0,"id":"WO","desc":"SCHWECHAT NDB"},
{"type":"VOR","hdg_t":126.7,"dist_nm":54,"freq":115.5,"lat":47.87487500,"lon":16.28843600,"rng_nm":60,"alt_fmsl":891,"id":"SNU","desc":"SOLLENAU VOR-DME"},
{"type":"NDB","hdg_t":128.5,"dist_nm":55,"freq":315,"lat":47.84099700,"lon":16.28173100,"rng_nm":20,"alt_fmsl":0,"id":"TF","desc":"WIERNER NEUSTADT EAST NDB"},
{"type":"NDB","hdg_t":41.1,"dist_nm":57.6,"freq":563,"lat":49.13650300,"lon":16.17961100,"rng_nm":75,"alt_fmsl":0,"id":"LA","desc":"NAMEST NDB"},
{"type":"NDB","hdg_t":35.4,"dist_nm":57.6,"freq":514,"lat":49.19725300,"lon":16.06679700,"rng_nm":75,"alt_fmsl":0,"id":"XU","desc":"NAMEST NDB"},
{"type":"VOR","hdg_t":107.8,"dist_nm":59.6,"freq":110.4,"lat":48.10511400,"lon":16.62926400,"rng_nm":60,"alt_fmsl":639,"id":"FMD","desc":"FISCHAMEND VOR-DME"},
{"type":"NDB","hdg_t":108.9,"dist_nm":63.8,"freq":408,"lat":48.06292200,"lon":16.71674700,"rng_nm":25,"alt_fmsl":558,"id":"BRK","desc":"BRUCK NDB"},
{"type":"VOR","hdg_t":348.6,"dist_nm":68.2,"freq":116.3,"lat":49.53232800,"lon":14.87466400,"rng_nm":130,"alt_fmsl":2200,"id":"VOZ","desc":"VOZICE VOR-DME"},
{"type":"VOR","hdg_t":52.5,"dist_nm":73.2,"freq":113.9,"lat":49.15006400,"lon":16.69258100,"rng_nm":130,"alt_fmsl":800,"id":"BNO","desc":"BRNO VOR-DME"},
{"type":"NDB","hdg_t":54,"dist_nm":75.4,"freq":368,"lat":49.14482500,"lon":16.76855000,"rng_nm":50,"alt_fmsl":0,"id":"BNO","desc":"BRNO NDB"},
{"type":"NDB","hdg_t":194.4,"dist_nm":75.5,"freq":418,"lat":47.19805600,"lon":14.75666700,"rng_nm":40,"alt_fmsl":0,"id":"ZW","desc":"ZELTWEG NDB"},
{"type":"NDB","hdg_t":86.7,"dist_nm":77.3,"freq":477,"lat":48.47444400,"lon":17.15250000,"rng_nm":50,"alt_fmsl":0,"id":"RP","desc":"MALACKY NDB"},
{"type":"VOR","hdg_t":355.6,"dist_nm":77.4,"freq":114.3,"lat":49.70427200,"lon":15.06674200,"rng_nm":130,"alt_fmsl":1500,"id":"VLM","desc":"VLASIM VOR-DME"},
{"type":"SDME","hdg_t":99.4,"dist_nm":81.7,"freq":108.3,"lat":48.17664700,"lon":17.22476400,"rng_nm":25,"alt_fmsl":449,"id":"OKR","desc":"STEFANIK DME"},
{"type":"NDB","hdg_t":99,"dist_nm":82,"freq":429,"lat":48.18635000,"lon":17.23618900,"rng_nm":25,"alt_fmsl":0,"id":"D","desc":"DAVID NDB"},
{"type":"NDB","hdg_t":100.4,"dist_nm":82.7,"freq":438,"lat":48.15074400,"lon":17.24269700,"rng_nm":25,"alt_fmsl":0,"id":"B","desc":"BARKA NDB"},
{"type":"NDB","hdg_t":97.2,"dist_nm":83.8,"freq":391,"lat":48.22386700,"lon":17.29031900,"rng_nm":75,"alt_fmsl":0,"id":"OKR","desc":"STEFANIK NORTH NDB"},
{"type":"NDB","hdg_t":101.5,"dist_nm":85.3,"freq":330,"lat":48.11482800,"lon":17.29836700,"rng_nm":25,"alt_fmsl":0,"id":"OB","desc":"STEFANIK SOUTH NDB"},
{"type":"VOR","hdg_t":173.7,"dist_nm":88.3,"freq":116.2,"lat":46.95536700,"lon":15.44943100,"rng_nm":60,"alt_fmsl":1097,"id":"GRZ","desc":"GRAZ VOR-DME"},
{"type":"NDB","hdg_t":5.3,"dist_nm":89.6,"freq":345,"lat":49.90401900,"lon":15.43285300,"rng_nm":50,"alt_fmsl":0,"id":"CF","desc":"CASLAV NDB"},
{"type":"NDB","hdg_t":173.6,"dist_nm":90.4,"freq":290,"lat":46.92065600,"lon":15.45895300,"rng_nm":40,"alt_fmsl":1043,"id":"GRZ","desc":"GRAZ NDB"},
{"type":"VOR","hdg_t":97.8,"dist_nm":94.3,"freq":110.8,"lat":48.17861100,"lon":17.54472200,"rng_nm":60,"alt_fmsl":423,"id":"JAN","desc":"JANOVCE VOR-DME"},
{"type":"SDME","hdg_t":330.8,"dist_nm":94.3,"freq":117.6,"lat":49.78487200,"lon":14.03473900,"rng_nm":130,"alt_fmsl":2300,"id":"PSK","desc":"PISEK DME"},
{"type":"NDB","hdg_t":165.3,"dist_nm":94.9,"freq":426,"lat":46.88698900,"lon":15.80031900,"rng_nm":40,"alt_fmsl":984,"id":"GBG","desc":"GLEICHENBERG NDB"},
{"type":"NDB","hdg_t":66.1,"dist_nm":96.4,"freq":434,"lat":49.04648600,"lon":17.45215300,"rng_nm":25,"alt_fmsl":0,"id":"KNE","desc":"KUNOVICE NDB"},
{"type":"NDB","hdg_t":248.9,"dist_nm":96.5,"freq":410,"lat":47.81861100,"lon":12.98768900,"rng_nm":25,"alt_fmsl":0,"id":"SI","desc":"SALZBURG NDB"},
{"type":"VOR","hdg_t":255.8,"dist_nm":96.5,"freq":113.8,"lat":48.00258300,"lon":12.89276100,"rng_nm":60,"alt_fmsl":1494,"id":"SBG","desc":"SALZBURG VOR-DME"},
{"type":"NDB","hdg_t":251.2,"dist_nm":96.6,"freq":356,"lat":47.87933300,"lon":12.94986400,"rng_nm":25,"alt_fmsl":0,"id":"SU","desc":"SALZBURG NDB"},
{"type":"NDB","hdg_t":254.6,"dist_nm":97,"freq":382,"lat":47.96753100,"lon":12.89407800,"rng_nm":40,"alt_fmsl":0,"id":"SBG","desc":"SALZBURG NDB"},
{"type":"NDB","hdg_t":13.5,"dist_nm":98.4,"freq":432,"lat":50.01109200,"lon":15.81301900,"rng_nm":75,"alt_fmsl":0,"id":"PK","desc":"PARDUBICE NDB"},
{"type":"NDB","hdg_t":270.1,"dist_nm":98.6,"freq":393,"lat":48.39705000,"lon":12.74978100,"rng_nm":25,"alt_fmsl":1329,"id":"EGG","desc":"EGGENFELDEN NDB"},
{"type":"SDME","hdg_t":270.1,"dist_nm":99.6,"freq":115.4,"lat":48.39435800,"lon":12.72538100,"rng_nm":25,"alt_fmsl":1381,"id":"END","desc":"EGGENFELDEN DME"},
{"type":"NDB","hdg_t":64.4,"dist_nm":99.8,"freq":416,"lat":49.11392200,"lon":17.50139700,"rng_nm":25,"alt_fmsl":0,"id":"KUN","desc":"KUNOVICE NDB"}
]
}
