{"success":true,"source":"xp2csv.pl","last_updated":"2013/11/08 14:53:21 UTC"
,"icao":"LOGO","name":"Niederoeblarn","lat":47.48,"lon":14.008,"rwys":1,"ils":0,"index":3187288,"path":"e010n40/e014n47"
,"runways":[
{"len_m":730,"wid_m":17.98,"hdg":36,"surf":"Asphalt","rwy1":"04","lat1":47.47734355,"lon1":14.00514481,"rwy2":"22","lat2":47.48265645,"lon2":14.01085519}
]
,"navaids":[
{"type":"NDB","hdg_t":118.7,"dist_nm":34.9,"freq":418,"lat":47.19805600,"lon":14.75666700,"rng_nm":40,"alt_fmsl":0,"id":"ZW","desc":"ZELTWEG NDB"},
{"type":"VOR","hdg_t":4.8,"dist_nm":45.1,"freq":116.6,"lat":48.22971100,"lon":14.10315600,"rng_nm":60,"alt_fmsl":1145,"id":"LNZ","desc":"LINZ VOR-DME"},
{"type":"NDB","hdg_t":296.5,"dist_nm":46.1,"freq":410,"lat":47.81861100,"lon":12.98768900,"rng_nm":25,"alt_fmsl":0,"id":"SI","desc":"SALZBURG NDB"},
{"type":"NDB","hdg_t":15.4,"dist_nm":47.1,"freq":327,"lat":48.23710000,"lon":14.32178300,"rng_nm":40,"alt_fmsl":0,"id":"LNZ","desc":"LINZ NDB"},
{"type":"VOR","hdg_t":184.6,"dist_nm":47.1,"freq":112.9,"lat":46.69639200,"lon":13.91464400,"rng_nm":60,"alt_fmsl":6285,"id":"VIW","desc":"VILLACH VOR-DME"},
{"type":"NDB","hdg_t":299.5,"dist_nm":49.1,"freq":356,"lat":47.87933300,"lon":12.94986400,"rng_nm":25,"alt_fmsl":0,"id":"SU","desc":"SALZBURG NDB"},
{"type":"NDB","hdg_t":169.8,"dist_nm":49.5,"freq":405,"lat":46.66747500,"lon":14.21825300,"rng_nm":25,"alt_fmsl":0,"id":"KW","desc":"KLAGENFURT NDB"},
{"type":"NDB","hdg_t":303.3,"dist_nm":53.7,"freq":382,"lat":47.96753100,"lon":12.89407800,"rng_nm":40,"alt_fmsl":0,"id":"SBG","desc":"SALZBURG NDB"},
{"type":"VOR","hdg_t":305.1,"dist_nm":54.9,"freq":113.8,"lat":48.00258300,"lon":12.89276100,"rng_nm":60,"alt_fmsl":1494,"id":"SBG","desc":"SALZBURG VOR-DME"},
{"type":"NDB","hdg_t":156.9,"dist_nm":55.6,"freq":374,"lat":46.62515000,"lon":14.53416400,"rng_nm":40,"alt_fmsl":1509,"id":"KFT","desc":"KLAGENFURT NDB"},
{"type":"VOR","hdg_t":4.8,"dist_nm":57.3,"freq":113.5,"lat":48.43178100,"lon":14.12983100,"rng_nm":60,"alt_fmsl":2014,"id":"FRE","desc":"FREISTADT VOR-DME"},
{"type":"VOR","hdg_t":156.5,"dist_nm":57.6,"freq":113.1,"lat":46.59758300,"lon":14.56231900,"rng_nm":60,"alt_fmsl":2279,"id":"KFT","desc":"KLAGENFURT VOR-DME"},
{"type":"VOR","hdg_t":117.5,"dist_nm":66.8,"freq":116.2,"lat":46.95536700,"lon":15.44943100,"rng_nm":60,"alt_fmsl":1097,"id":"GRZ","desc":"GRAZ VOR-DME"},
{"type":"NDB","hdg_t":118.9,"dist_nm":68.1,"freq":290,"lat":46.92065600,"lon":15.45895300,"rng_nm":40,"alt_fmsl":1043,"id":"GRZ","desc":"GRAZ NDB"},
{"type":"NDB","hdg_t":317.7,"dist_nm":74.8,"freq":393,"lat":48.39705000,"lon":12.74978100,"rng_nm":25,"alt_fmsl":1329,"id":"EGG","desc":"EGGENFELDEN NDB"},
{"type":"SDME","hdg_t":317.1,"dist_nm":75.4,"freq":115.4,"lat":48.39435800,"lon":12.72538100,"rng_nm":25,"alt_fmsl":1381,"id":"END","desc":"EGGENFELDEN DME"},
{"type":"VOR","hdg_t":304.4,"dist_nm":81.2,"freq":117,"lat":48.23469400,"lon":12.33741900,"rng_nm":60,"alt_fmsl":1526,"id":"MDF","desc":"MILLDORF VOR-DME"},
{"type":"NDB","hdg_t":115.2,"dist_nm":81.5,"freq":426,"lat":46.88698900,"lon":15.80031900,"rng_nm":40,"alt_fmsl":984,"id":"GBG","desc":"GLEICHENBERG NDB"},
{"type":"NDB","hdg_t":163.7,"dist_nm":81.6,"freq":296,"lat":46.17323100,"lon":14.55594400,"rng_nm":25,"alt_fmsl":1063,"id":"MG","desc":"LJUBLJANA NDB"},
{"type":"NDB","hdg_t":268.7,"dist_nm":84.2,"freq":303,"lat":47.43092200,"lon":11.94005300,"rng_nm":25,"alt_fmsl":3707,"id":"RTT","desc":"RATTENBERG NDB"},
{"type":"NDB","hdg_t":161.3,"dist_nm":86.9,"freq":328,"lat":46.10500000,"lon":14.67546400,"rng_nm":100,"alt_fmsl":1004,"id":"KAM","desc":"DOLSKO NDB"},
{"type":"VOR","hdg_t":158.9,"dist_nm":89.6,"freq":112.7,"lat":46.08413900,"lon":14.77857500,"rng_nm":100,"alt_fmsl":2047,"id":"DOL","desc":"DOLSKO VOR-DME"},
{"type":"NDB","hdg_t":11.4,"dist_nm":89.8,"freq":830,"lat":48.94630600,"lon":14.45822200,"rng_nm":50,"alt_fmsl":0,"id":"R","desc":"CESKE BUDEJOVICE NDB"},
{"type":"NDB","hdg_t":12.8,"dist_nm":90.3,"freq":402,"lat":48.94627800,"lon":14.51531900,"rng_nm":50,"alt_fmsl":0,"id":"RA","desc":"CESKE BUDEJOVICE NDB"},
{"type":"NDB","hdg_t":130.6,"dist_nm":92.6,"freq":355,"lat":46.46275300,"lon":15.70306100,"rng_nm":50,"alt_fmsl":847,"id":"MI","desc":"MARIBOR NDB"},
{"type":"NDB","hdg_t":57.2,"dist_nm":93.9,"freq":358,"lat":48.30944400,"lon":15.98111100,"rng_nm":40,"alt_fmsl":594,"id":"TUN","desc":"TULLN NDB"},
{"type":"VOR","hdg_t":57.2,"dist_nm":93.9,"freq":111.4,"lat":48.30972200,"lon":15.98083300,"rng_nm":25,"alt_fmsl":640,"id":"TUN","desc":"TULLN VOR-DME"},
{"type":"NDB","hdg_t":75.9,"dist_nm":94.7,"freq":315,"lat":47.84099700,"lon":16.28173100,"rng_nm":20,"alt_fmsl":0,"id":"TF","desc":"WIERNER NEUSTADT EAST NDB"},
{"type":"VOR","hdg_t":74.7,"dist_nm":95.4,"freq":115.5,"lat":47.87487500,"lon":16.28843600,"rng_nm":60,"alt_fmsl":891,"id":"SNU","desc":"SOLLENAU VOR-DME"},
{"type":"VOR","hdg_t":313.6,"dist_nm":96.2,"freq":117.15,"lat":48.57340800,"lon":12.26100000,"rng_nm":60,"alt_fmsl":1658,"id":"MBG","desc":"MOOSBURG VOR-DME"},
{"type":"SDME","hdg_t":203.4,"dist_nm":96.8,"freq":110,"lat":45.99572800,"lon":13.08838900,"rng_nm":130,"alt_fmsl":267,"id":"RIV","desc":"RIVOLTO TACAN"},
{"type":"SDME","hdg_t":302.1,"dist_nm":97.2,"freq":113.6,"lat":48.32483300,"lon":11.95283300,"rng_nm":40,"alt_fmsl":1545,"id":"ERD","desc":"ERDING TACAN"},
{"type":"VOR","hdg_t":296.1,"dist_nm":98,"freq":112.3,"lat":48.18032500,"lon":11.81601700,"rng_nm":40,"alt_fmsl":1802,"id":"MUN","desc":"MUNCHEN VOR-DME"},
{"type":"VOR","hdg_t":54.5,"dist_nm":98.6,"freq":113,"lat":48.41713600,"lon":16.01859400,"rng_nm":60,"alt_fmsl":750,"id":"STO","desc":"STOCKERAU VOR-DME"},
{"type":"NDB","hdg_t":131.5,"dist_nm":99,"freq":334,"lat":46.37153100,"lon":15.79324400,"rng_nm":25,"alt_fmsl":768,"id":"MR","desc":"MARIBOR NDB"},
{"type":"NDB","hdg_t":302.4,"dist_nm":99.7,"freq":400,"lat":48.35237800,"lon":11.90376700,"rng_nm":25,"alt_fmsl":0,"id":"MSW","desc":"MUNCHEN NDB"}
]
}
