{"success":true,"source":"xp2csv.pl","last_updated":"2013/11/08 14:53:21 UTC"
,"icao":"LPVL","name":"Maia Airfield","lat":41.2666702,"lon":-8.5010157,"rwys":1,"ils":0,"index":2810065,"path":"w010n40/w009n41"
,"runways":[
{"len_m":823,"wid_m":30.18,"hdg":333,"surf":"Asphalt","rwy1":"34","lat1":41.26335624,"lon1":-8.49881749,"rwy2":"16","lat2":41.26998416,"lon2":-8.50321391}
]
,"navaids":[
{"type":"VOR","hdg_t":272.6,"dist_nm":8.4,"freq":114.1,"lat":41.27299700,"lon":-8.68783100,"rng_nm":130,"alt_fmsl":182,"id":"PRT","desc":"PORTO VOR-DME"},
{"type":"NDB","hdg_t":297.6,"dist_nm":10.5,"freq":327,"lat":41.34815000,"lon":-8.70815000,"rng_nm":250,"alt_fmsl":0,"id":"POR","desc":"PORTO NDB"},
{"type":"NDB","hdg_t":208.5,"dist_nm":12.8,"freq":367,"lat":41.07808900,"lon":-8.63654200,"rng_nm":25,"alt_fmsl":0,"id":"PG","desc":"PORTO NDB"},
{"type":"SDME","hdg_t":195.8,"dist_nm":23.6,"freq":110.6,"lat":40.88701900,"lon":-8.64335300,"rng_nm":130,"alt_fmsl":102,"id":"OVR","desc":"OVAR TACAN"},
{"type":"NDB","hdg_t":94.8,"dist_nm":34.4,"freq":304,"lat":41.21527800,"lon":-7.74388900,"rng_nm":25,"alt_fmsl":0,"id":"VR","desc":"VILA REAL NDB"},
{"type":"VOR","hdg_t":139.1,"dist_nm":42.9,"freq":113.1,"lat":40.72333300,"lon":-7.88583300,"rng_nm":130,"alt_fmsl":2109,"id":"VIS","desc":"VISEU VOR-DME"},
{"type":"NDB","hdg_t":353.6,"dist_nm":55.4,"freq":433,"lat":42.18604200,"lon":-8.63900000,"rng_nm":40,"alt_fmsl":0,"id":"VON","desc":"VIGO NDB"},
{"type":"NDB","hdg_t":355.8,"dist_nm":63.2,"freq":345,"lat":42.31819400,"lon":-8.60324400,"rng_nm":20,"alt_fmsl":0,"id":"VI","desc":"VIGO NDB"},
{"type":"VOR","hdg_t":355.9,"dist_nm":63.4,"freq":113.6,"lat":42.32130800,"lon":-8.60163600,"rng_nm":130,"alt_fmsl":912,"id":"VGO","desc":"VIGO VOR-DME"},
{"type":"NDB","hdg_t":178.8,"dist_nm":66.3,"freq":426,"lat":40.16055600,"lon":-8.47194400,"rng_nm":50,"alt_fmsl":0,"id":"CB","desc":"COIMBRA NDB"},
{"type":"NDB","hdg_t":139.4,"dist_nm":75.9,"freq":360,"lat":40.29916700,"lon":-7.42583300,"rng_nm":25,"alt_fmsl":0,"id":"COV","desc":"COVILHA NDB"},
{"type":"NDB","hdg_t":192.2,"dist_nm":83.3,"freq":336,"lat":39.90774700,"lon":-8.88354200,"rng_nm":150,"alt_fmsl":0,"id":"MTL","desc":"MONTE REAL NDB"},
{"type":"NDB","hdg_t":67.7,"dist_nm":86,"freq":358,"lat":41.79666700,"lon":-6.72527800,"rng_nm":25,"alt_fmsl":2241,"id":"BRG","desc":"BRAGANCA NDB"},
{"type":"SDME","hdg_t":191.8,"dist_nm":87.8,"freq":109.6,"lat":39.83261400,"lon":-8.89014400,"rng_nm":130,"alt_fmsl":263,"id":"MTR","desc":"MONTE REAL TACAN"},
{"type":"NDB","hdg_t":98.9,"dist_nm":94.5,"freq":365,"lat":41.00163900,"lon":-6.44472200,"rng_nm":50,"alt_fmsl":0,"id":"VGD","desc":"VITIGUDINO NDB"},
{"type":"VOR","hdg_t":179.7,"dist_nm":95.9,"freq":113.5,"lat":39.66607800,"lon":-8.49321400,"rng_nm":60,"alt_fmsl":686,"id":"FTM","desc":"FATIMA VOR-DME"},
{"type":"NDB","hdg_t":1.8,"dist_nm":98.4,"freq":417,"lat":42.90776400,"lon":-8.42845300,"rng_nm":40,"alt_fmsl":0,"id":"SNO","desc":"SANTIAGO NDB"},
{"type":"VOR","hdg_t":1.9,"dist_nm":99.6,"freq":116.4,"lat":42.92687500,"lon":-8.42539200,"rng_nm":130,"alt_fmsl":1283,"id":"STG","desc":"SANTIAGO VOR-DME"}
]
}
