{"success":true,"source":"xp2csv.pl","last_updated":"2013/11/08 14:53:21 UTC"
,"icao":"LS93","name":"Greenwood Plantation","lat":29.6107675,"lon":-90.89842806,"rwys":1,"ils":0,"index":1465824,"path":"w100n20/w091n29"
,"runways":[
{"len_m":91,"wid_m":22.86,"hdg":43,"surf":"Turf/grass","rwy1":"04","lat1":29.61046659,"lon1":-90.89875082,"rwy2":"22","lat2":29.61106841,"lon2":-90.89810530}
]
,"navaids":[
{"type":"VOR","hdg_t":48.4,"dist_nm":4.8,"freq":112,"lat":29.66433333,"lon":-90.82908333,"rng_nm":40,"alt_fmsl":10,"id":"TBD","desc":"TIBBY VORTAC"},
{"type":"NDB","hdg_t":75.8,"dist_nm":12.8,"freq":219,"lat":29.66327778,"lon":-90.65969444,"rng_nm":50,"alt_fmsl":0,"id":"HU","desc":"HOUMA NDB"},
{"type":"NDB","hdg_t":285.2,"dist_nm":23.7,"freq":245,"lat":29.71463889,"lon":-91.33672222,"rng_nm":50,"alt_fmsl":0,"id":"PTN","desc":"PATTERSON NDB"},
{"type":"VOR","hdg_t":29.4,"dist_nm":32.7,"freq":110.8,"lat":30.08750000,"lon":-90.58863889,"rng_nm":40,"alt_fmsl":5,"id":"RQR","desc":"RESERVE VOR-DME"},
{"type":"NDB","hdg_t":46.2,"dist_nm":35.9,"freq":338,"lat":30.02519444,"lon":-90.39988889,"rng_nm":50,"alt_fmsl":0,"id":"MS","desc":"KINTE NDB"},
{"type":"VOR","hdg_t":72.7,"dist_nm":48.9,"freq":114.1,"lat":29.85019444,"lon":-90.00297222,"rng_nm":130,"alt_fmsl":2,"id":"HRV","desc":"HARVEY VORTAC"},
{"type":"VOR","hdg_t":121.8,"dist_nm":49.1,"freq":113.5,"lat":29.17522222,"lon":-90.10402778,"rng_nm":130,"alt_fmsl":2,"id":"LEV","desc":"LEEVILLE VORTAC"},
{"type":"NDB","hdg_t":119.9,"dist_nm":49.9,"freq":236,"lat":29.19189600,"lon":-90.07507400,"rng_nm":75,"alt_fmsl":0,"id":"GNI","desc":"GRAND ISLE NDB"},
{"type":"NDB","hdg_t":292.5,"dist_nm":54.4,"freq":269,"lat":29.95627778,"lon":-91.86333333,"rng_nm":50,"alt_fmsl":0,"id":"AR","desc":"ACADI NDB"},
{"type":"VOR","hdg_t":338.6,"dist_nm":56.2,"freq":116.5,"lat":30.48513889,"lon":-91.29405556,"rng_nm":40,"alt_fmsl":20,"id":"BTR","desc":"BATON ROUGE VORTAC"},
{"type":"VOR","hdg_t":24.6,"dist_nm":59.8,"freq":109.6,"lat":30.51941667,"lon":-90.41750000,"rng_nm":25,"alt_fmsl":0,"id":"HMU","desc":"HAMMOND VOR"},
{"type":"NDB","hdg_t":344.4,"dist_nm":60.4,"freq":284,"lat":30.58288889,"lon":-91.21102778,"rng_nm":50,"alt_fmsl":0,"id":"BT","desc":"RUNDI NDB"},
{"type":"NDB","hdg_t":22.5,"dist_nm":64.5,"freq":212,"lat":30.60633333,"lon":-90.42116667,"rng_nm":50,"alt_fmsl":0,"id":"HP","desc":"ANGER NDB"},
{"type":"NDB","hdg_t":307.9,"dist_nm":66.4,"freq":375,"lat":30.28930556,"lon":-91.90794444,"rng_nm":50,"alt_fmsl":0,"id":"LF","desc":"LAFFS NDB"},
{"type":"VOR","hdg_t":301.7,"dist_nm":66.8,"freq":109.8,"lat":30.19380556,"lon":-91.99258333,"rng_nm":40,"alt_fmsl":36,"id":"LFT","desc":"LAFAYETTE VORTAC"},
{"type":"NDB","hdg_t":333.4,"dist_nm":68.4,"freq":356,"lat":30.63313300,"lon":-91.48941800,"rng_nm":25,"alt_fmsl":35,"id":"HZ","desc":"HAZER NDB"},
{"type":"NDB","hdg_t":333.4,"dist_nm":68.4,"freq":356,"lat":30.63313889,"lon":-91.48941667,"rng_nm":50,"alt_fmsl":0,"id":"FWX","desc":"NEW ROADS NDB"},
{"type":"NDB","hdg_t":53.2,"dist_nm":69,"freq":256,"lat":30.29683333,"lon":-89.83413889,"rng_nm":50,"alt_fmsl":0,"id":"DEF","desc":"SLIDELL NDB"},
{"type":"NDB","hdg_t":293.1,"dist_nm":69.3,"freq":230,"lat":30.06113889,"lon":-92.12327778,"rng_nm":50,"alt_fmsl":0,"id":"BNZ","desc":"ABBEVILLE NDB"},
{"type":"NDB","hdg_t":49.1,"dist_nm":74,"freq":371,"lat":30.41563889,"lon":-89.82005556,"rng_nm":50,"alt_fmsl":0,"id":"FNA","desc":"FLORENVILLE NDB"},
{"type":"VOR","hdg_t":272.6,"dist_nm":77.1,"freq":110.4,"lat":29.66322222,"lon":-92.37363889,"rng_nm":40,"alt_fmsl":40,"id":"LLA","desc":"WHITE LAKE VOR-DME"},
{"type":"VOR","hdg_t":46.6,"dist_nm":83.2,"freq":112.2,"lat":30.56116667,"lon":-89.73050000,"rng_nm":40,"alt_fmsl":70,"id":"PCU","desc":"PICAYUNE VOR-DME"},
{"type":"NDB","hdg_t":50.4,"dist_nm":83.6,"freq":276,"lat":30.49470300,"lon":-89.65314200,"rng_nm":25,"alt_fmsl":54,"id":"MJD","desc":"PICAYUNE NDB"},
{"type":"NDB","hdg_t":315.3,"dist_nm":88.3,"freq":335,"lat":30.65525000,"lon":-92.09869444,"rng_nm":50,"alt_fmsl":0,"id":"OPL","desc":"SAINT LANDRY NDB"},
{"type":"NDB","hdg_t":55.8,"dist_nm":90.4,"freq":221,"lat":30.45133333,"lon":-89.45552778,"rng_nm":50,"alt_fmsl":0,"id":"HS","desc":"HANCO (OM/NDB) NDB"},
{"type":"NDB","hdg_t":35,"dist_nm":93.2,"freq":353,"lat":30.88161111,"lon":-89.86211111,"rng_nm":50,"alt_fmsl":0,"id":"GVB","desc":"BOGALUSA NDB"},
{"type":"NDB","hdg_t":305.5,"dist_nm":98.6,"freq":263,"lat":30.55983333,"lon":-92.44808333,"rng_nm":50,"alt_fmsl":0,"id":"ECY","desc":"DURALDE NDB"}
]
}
