{"success":true,"source":"xp2csv.pl","last_updated":"2013/11/08 14:53:21 UTC"
,"icao":"LSMP","name":"Payerne","lat":46.8432044,"lon":6.91505674,"rwys":1,"ils":1,"index":3056179,"path":"e000n40/e006n46"
,"runways":[
{"len_m":2857,"wid_m":39.93,"hdg":48,"surf":"Asphalt","rwy1":"05","lat1":46.83466839,"lon1":6.90104995,"rwy2":"23","lat2":46.85174042,"lon2":6.92906354}
]
,"radios":[
{"type":"TWR","freq":128.67,"desc":"TWR"},
{"type":"APP","freq":136.35,"desc":"ARR"}
]
,"ils":[
{"type":"ILS","freq":109.3,"lat":46.83350000,"lon":6.89887500,"rng_nm":18,"alt_fmsl":1465,"hdg":228.53,"id":"IPY","rwy":"23","desc":"ILS-cat-I"},
{"type":"GS","freq":109.3,"lat":46.84734400,"lon":6.92298100,"rng_nm":10,"alt_fmsl":1456,"id":"IPY","rwy":"23","desc":"GS","gs":3.7},
{"type":"DME","freq":109.3,"lat":46.84728100,"lon":6.92298600,"rng_nm":18,"alt_fmsl":1456,"id":"IPY","rwy":"23","desc":"DME-ILS"}
]
,"navaids":[
{"type":"VOR","hdg_t":107.1,"dist_nm":13.3,"freq":110.85,"lat":46.77758300,"lon":7.22350000,"rng_nm":130,"alt_fmsl":2659,"id":"FRI","desc":"FRIBOURG VOR-DME"},
{"type":"NDB","hdg_t":341,"dist_nm":15.2,"freq":403,"lat":47.08366700,"lon":6.79388900,"rng_nm":25,"alt_fmsl":0,"id":"LPS","desc":"LES EPLATURES NDB"},
{"type":"SDME","hdg_t":244.3,"dist_nm":22.9,"freq":110.65,"lat":46.67611100,"lon":6.41333300,"rng_nm":80,"alt_fmsl":4244,"id":"LAP","desc":"LA PRAZ DME"},
{"type":"NDB","hdg_t":81.9,"dist_nm":24.7,"freq":335,"lat":46.89911700,"lon":7.51048300,"rng_nm":25,"alt_fmsl":1690,"id":"BER","desc":"BERN NDB"},
{"type":"VOR","hdg_t":45.1,"dist_nm":29,"freq":115.45,"lat":47.18315300,"lon":7.41818100,"rng_nm":25,"alt_fmsl":1435,"id":"GRE","desc":"GRENCHEN VOR-DME"},
{"type":"VOR","hdg_t":220.8,"dist_nm":29.6,"freq":113.9,"lat":46.46869400,"lon":6.44805600,"rng_nm":100,"alt_fmsl":1252,"id":"SPR","desc":"ST. PREX VOR-DME"},
{"type":"NDB","hdg_t":227,"dist_nm":38,"freq":375,"lat":46.40869400,"lon":6.24425000,"rng_nm":25,"alt_fmsl":1350,"id":"GLA","desc":"GLAND NDB"},
{"type":"NDB","hdg_t":311.2,"dist_nm":38.7,"freq":370,"lat":47.26694444,"lon":6.20250000,"rng_nm":25,"alt_fmsl":1348,"id":"BSV","desc":"Besancon la Veze NDB"},
{"type":"NDB","hdg_t":0.5,"dist_nm":39.6,"freq":330,"lat":47.50444444,"lon":6.92388888,"rng_nm":25,"alt_fmsl":1283,"id":"MB","desc":"Montbeliard Courcelles NDB"},
{"type":"VOR","hdg_t":142.3,"dist_nm":40,"freq":115.85,"lat":46.31336100,"lon":7.50333300,"rng_nm":40,"alt_fmsl":4456,"id":"MOT","desc":"MONTANA VOR-DME"},
{"type":"VOR","hdg_t":157.5,"dist_nm":40.7,"freq":112.15,"lat":46.21550000,"lon":7.28877800,"rng_nm":40,"alt_fmsl":1594,"id":"SIO","desc":"SION VOR-DME"},
{"type":"NDB","hdg_t":350.2,"dist_nm":43.7,"freq":289,"lat":47.56166700,"lon":6.73225000,"rng_nm":50,"alt_fmsl":0,"id":"HR","desc":"HERICOURT NDB"},
{"type":"VOR","hdg_t":63.3,"dist_nm":45.3,"freq":116.9,"lat":47.17830600,"lon":7.90591700,"rng_nm":60,"alt_fmsl":2417,"id":"WIL","desc":"WILLISAU VOR-DME"},
{"type":"VOR","hdg_t":222.7,"dist_nm":47.9,"freq":115.75,"lat":46.25391700,"lon":6.13222200,"rng_nm":50,"alt_fmsl":1377,"id":"GVA","desc":"GENEVA COINTRIN VOR-DME"},
{"type":"VOR","hdg_t":39.1,"dist_nm":48.4,"freq":113.2,"lat":47.46655600,"lon":7.66544400,"rng_nm":100,"alt_fmsl":2425,"id":"HOC","desc":"HOCHWALD VOR-DME"},
{"type":"NDB","hdg_t":29.6,"dist_nm":50.9,"freq":376,"lat":47.57972200,"lon":7.53625000,"rng_nm":50,"alt_fmsl":0,"id":"BS","desc":"Bale Mulhouse NDB"},
{"type":"VOR","hdg_t":26.5,"dist_nm":53,"freq":117.45,"lat":47.63280600,"lon":7.49950000,"rng_nm":100,"alt_fmsl":886,"id":"BLM","desc":"BALE-MULHOUSE VOR-DME"},
{"type":"NDB","hdg_t":24.9,"dist_nm":54.2,"freq":353,"lat":47.66169400,"lon":7.47908300,"rng_nm":15,"alt_fmsl":885,"id":"BN","desc":"BALE MULHOUSE NDB"},
{"type":"VOR","hdg_t":223.2,"dist_nm":55.6,"freq":116.6,"lat":46.16369400,"lon":5.99991700,"rng_nm":80,"alt_fmsl":1415,"id":"PAS","desc":"PASSEIRY VOR-DME"},
{"type":"VOR","hdg_t":333.7,"dist_nm":56.6,"freq":117.1,"lat":47.68827800,"lon":6.29558300,"rng_nm":80,"alt_fmsl":1072,"id":"LUL","desc":"LUXEUIL VOR"},
{"type":"SDME","hdg_t":338.2,"dist_nm":60.8,"freq":108.2,"lat":47.78316700,"lon":6.35711100,"rng_nm":50,"alt_fmsl":913,"id":"LXI","desc":"LUXEUIL TACAN"},
{"type":"NDB","hdg_t":339.1,"dist_nm":61.3,"freq":363,"lat":47.79658300,"lon":6.37519400,"rng_nm":80,"alt_fmsl":913,"id":"LXI","desc":"LUXEUIL NDB"},
{"type":"NDB","hdg_t":297.9,"dist_nm":64.2,"freq":427,"lat":47.33722300,"lon":5.52444500,"rng_nm":50,"alt_fmsl":0,"id":"BRP","desc":"BROYE LES PESMES NDB"},
{"type":"NDB","hdg_t":277.6,"dist_nm":66.7,"freq":309,"lat":46.97972222,"lon":5.30527777,"rng_nm":25,"alt_fmsl":604,"id":"DO","desc":"Dole Tavaux NDB"},
{"type":"NDB","hdg_t":17.3,"dist_nm":68,"freq":322,"lat":47.92333200,"lon":7.41888900,"rng_nm":150,"alt_fmsl":0,"id":"CLR","desc":"COLMAR MEYENHEIM NDB"},
{"type":"VOR","hdg_t":164.8,"dist_nm":68.1,"freq":109.25,"lat":45.74572200,"lon":7.33858300,"rng_nm":40,"alt_fmsl":774,"id":"SCS","desc":"AOSTA VOR-DME"},
{"type":"SDME","hdg_t":16.6,"dist_nm":68.1,"freq":110,"lat":47.92933300,"lon":7.39997200,"rng_nm":50,"alt_fmsl":693,"id":"CLR","desc":"COLMAR TACAN"},
{"type":"NDB","hdg_t":212.5,"dist_nm":69.6,"freq":384,"lat":45.86166666,"lon":6.02055555,"rng_nm":25,"alt_fmsl":2205,"id":"AT","desc":"Annecy Meythet NDB"},
{"type":"NDB","hdg_t":24.1,"dist_nm":70.3,"freq":430,"lat":47.91111000,"lon":7.62777800,"rng_nm":50,"alt_fmsl":0,"id":"BGT","desc":"BREMGARTEN NDB"},
{"type":"NDB","hdg_t":16.5,"dist_nm":74.5,"freq":348,"lat":48.03222300,"lon":7.44083400,"rng_nm":150,"alt_fmsl":0,"id":"AP","desc":"COLMAR MEYENHEIM NDB"},
{"type":"VOR","hdg_t":220.2,"dist_nm":75.1,"freq":115.4,"lat":45.88188900,"lon":5.75730600,"rng_nm":40,"alt_fmsl":4783,"id":"CBY","desc":"CHAMBERY VOR-DME"},
{"type":"VOR","hdg_t":60.5,"dist_nm":76.2,"freq":114.85,"lat":47.45713900,"lon":8.54558300,"rng_nm":40,"alt_fmsl":1410,"id":"KLO","desc":"KLOTEN VOR-DME"},
{"type":"NDB","hdg_t":240.9,"dist_nm":77.5,"freq":423,"lat":46.20388888,"lon":5.28888888,"rng_nm":25,"alt_fmsl":869,"id":"BOR","desc":"Bourg Ceyzeriat NDB"},
{"type":"VOR","hdg_t":289.6,"dist_nm":78.8,"freq":111.45,"lat":47.27077800,"lon":5.09733300,"rng_nm":100,"alt_fmsl":726,"id":"DJL","desc":"DIJON-LONGVIC VOR-DME"},
{"type":"SDME","hdg_t":289.6,"dist_nm":79.1,"freq":113.5,"lat":47.27194400,"lon":5.09152800,"rng_nm":50,"alt_fmsl":726,"id":"DIJ","desc":"DIJON TACAN"},
{"type":"NDB","hdg_t":13.1,"dist_nm":79.6,"freq":380,"lat":48.13375000,"lon":7.36611100,"rng_nm":50,"alt_fmsl":0,"id":"HO","desc":"Colmar NDB"},
{"type":"VOR","hdg_t":50.1,"dist_nm":80.2,"freq":114.3,"lat":47.68950000,"lon":8.43694700,"rng_nm":100,"alt_fmsl":1850,"id":"TRA","desc":"TRASADINGEN VOR-DME"},
{"type":"SDME","hdg_t":232.6,"dist_nm":83.3,"freq":116.3,"lat":45.98861100,"lon":5.33125000,"rng_nm":50,"alt_fmsl":801,"id":"AMU","desc":"AMBERIEU TACAN"},
{"type":"NDB","hdg_t":265.8,"dist_nm":85.7,"freq":391,"lat":46.72167777,"lon":4.84305555,"rng_nm":25,"alt_fmsl":656,"id":"CC","desc":"Chalon Champforgeuil NDB"},
{"type":"NDB","hdg_t":210.1,"dist_nm":86.4,"freq":346,"lat":45.59250000,"lon":5.88361100,"rng_nm":25,"alt_fmsl":840,"id":"CH","desc":"Chambery Aix les Bains NDB"},
{"type":"VOR","hdg_t":59.2,"dist_nm":89.8,"freq":110.05,"lat":47.59216700,"lon":8.81766700,"rng_nm":130,"alt_fmsl":1730,"id":"ZUE","desc":"ZURICH EAST VOR-DME"},
{"type":"VOR","hdg_t":313.8,"dist_nm":93.2,"freq":117.3,"lat":47.90630600,"lon":5.24916700,"rng_nm":120,"alt_fmsl":1490,"id":"RLP","desc":"ROLAMPONT VOR-DME"},
{"type":"NDB","hdg_t":43.7,"dist_nm":93.7,"freq":490,"lat":47.96072200,"lon":8.52270800,"rng_nm":25,"alt_fmsl":0,"id":"DVI","desc":"DONAUESCHINGEN NDB"},
{"type":"SDME","hdg_t":43.7,"dist_nm":93.7,"freq":110.55,"lat":47.96068100,"lon":8.52255300,"rng_nm":25,"alt_fmsl":2212,"id":"DON","desc":"DONAUESCHINGEN DME"},
{"type":"NDB","hdg_t":250.1,"dist_nm":93.8,"freq":400,"lat":46.29250000,"lon":4.79361111,"rng_nm":25,"alt_fmsl":705,"id":"MO","desc":"Macon Charnay NDB"},
{"type":"NDB","hdg_t":342.1,"dist_nm":94,"freq":419,"lat":48.33250000,"lon":6.19361111,"rng_nm":25,"alt_fmsl":906,"id":"EMT","desc":"Epinal Mirecourt NDB"},
{"type":"VOR","hdg_t":148.1,"dist_nm":94.8,"freq":116.1,"lat":45.49420500,"lon":8.10057500,"rng_nm":30,"alt_fmsl":921,"id":"BLA","desc":"BIELLA VOR-DME"},
{"type":"VOR","hdg_t":338.8,"dist_nm":95.1,"freq":113,"lat":48.31783300,"lon":6.05941700,"rng_nm":60,"alt_fmsl":1154,"id":"EPL","desc":"EPINAL MIRECOURT VOR"},
{"type":"NDB","hdg_t":148.2,"dist_nm":97,"freq":350,"lat":45.46219400,"lon":8.12336100,"rng_nm":25,"alt_fmsl":773,"id":"BLA","desc":"BIELLA CERRIONE NDB"},
{"type":"NDB","hdg_t":21.6,"dist_nm":97.4,"freq":337,"lat":48.34873600,"lon":7.81116400,"rng_nm":25,"alt_fmsl":0,"id":"LHR","desc":"LAHR NDB"},
{"type":"SDME","hdg_t":21.7,"dist_nm":98.5,"freq":108.05,"lat":48.36414200,"lon":7.82751700,"rng_nm":25,"alt_fmsl":556,"id":"LRD","desc":"LAHR DME"},
{"type":"NDB","hdg_t":240,"dist_nm":98.7,"freq":337,"lat":46.00388700,"lon":4.86805500,"rng_nm":50,"alt_fmsl":0,"id":"AD","desc":"AMBERIEUX NDB"}
]
}
