{"success":true,"source":"xp2csv.pl","last_updated":"2013/11/08 14:53:21 UTC"
,"icao":"LSZF","name":"Birrfeld","lat":47.44313225,"lon":8.2338245,"rwys":2,"ils":0,"index":3088984,"path":"e000n40/e008n47"
,"runways":[
{"len_m":642,"wid_m":20.12,"hdg":83,"surf":"Asphalt","rwy1":"08","lat1":47.44296300,"lon1":8.22907621,"rwy2":"26","lat2":47.44366500,"lon2":8.23752979},
{"len_m":562,"wid_m":20.12,"hdg":80,"surf":"Turf/grass","rwy1":"08R","lat1":47.44253800,"lon1":8.23066800,"rwy2":"26L","lat2":47.44336300,"lon2":8.23802400}
]
,"radios":[
{"type":"CTAF","freq":123.55,"desc":"AFIS"}
]
,"navaids":[
{"type":"VOR","hdg_t":86,"dist_nm":12.7,"freq":114.85,"lat":47.45713900,"lon":8.54558300,"rng_nm":40,"alt_fmsl":1410,"id":"KLO","desc":"KLOTEN VOR-DME"},
{"type":"VOR","hdg_t":29,"dist_nm":16.9,"freq":114.3,"lat":47.68950000,"lon":8.43694700,"rng_nm":100,"alt_fmsl":1850,"id":"TRA","desc":"TRASADINGEN VOR-DME"},
{"type":"VOR","hdg_t":220.2,"dist_nm":20.7,"freq":116.9,"lat":47.17830600,"lon":7.90591700,"rng_nm":60,"alt_fmsl":2417,"id":"WIL","desc":"WILLISAU VOR-DME"},
{"type":"VOR","hdg_t":273.6,"dist_nm":23.1,"freq":113.2,"lat":47.46655600,"lon":7.66544400,"rng_nm":100,"alt_fmsl":2425,"id":"HOC","desc":"HOCHWALD VOR-DME"},
{"type":"VOR","hdg_t":69.1,"dist_nm":25.3,"freq":110.05,"lat":47.59216700,"lon":8.81766700,"rng_nm":130,"alt_fmsl":1730,"id":"ZUE","desc":"ZURICH EAST VOR-DME"},
{"type":"NDB","hdg_t":286.3,"dist_nm":29.5,"freq":376,"lat":47.57972200,"lon":7.53625000,"rng_nm":50,"alt_fmsl":0,"id":"BS","desc":"Bale Mulhouse NDB"},
{"type":"VOR","hdg_t":291.1,"dist_nm":31.9,"freq":117.45,"lat":47.63280600,"lon":7.49950000,"rng_nm":100,"alt_fmsl":886,"id":"BLM","desc":"BALE-MULHOUSE VOR-DME"},
{"type":"NDB","hdg_t":20.5,"dist_nm":33.2,"freq":490,"lat":47.96072200,"lon":8.52270800,"rng_nm":25,"alt_fmsl":0,"id":"DVI","desc":"DONAUESCHINGEN NDB"},
{"type":"SDME","hdg_t":20.5,"dist_nm":33.2,"freq":110.55,"lat":47.96068100,"lon":8.52255300,"rng_nm":25,"alt_fmsl":2212,"id":"DON","desc":"DONAUESCHINGEN DME"},
{"type":"NDB","hdg_t":293.4,"dist_nm":33.3,"freq":353,"lat":47.66169400,"lon":7.47908300,"rng_nm":15,"alt_fmsl":885,"id":"BN","desc":"BALE MULHOUSE NDB"},
{"type":"VOR","hdg_t":245.1,"dist_nm":36.7,"freq":115.45,"lat":47.18315300,"lon":7.41818100,"rng_nm":25,"alt_fmsl":1435,"id":"GRE","desc":"GRENCHEN VOR-DME"},
{"type":"NDB","hdg_t":319,"dist_nm":37.3,"freq":430,"lat":47.91111000,"lon":7.62777800,"rng_nm":50,"alt_fmsl":0,"id":"BGT","desc":"BREMGARTEN NDB"},
{"type":"NDB","hdg_t":40.4,"dist_nm":42.2,"freq":442,"lat":47.97638700,"lon":8.91250000,"rng_nm":150,"alt_fmsl":0,"id":"NUN","desc":"NEUHAUSEN NDB"},
{"type":"NDB","hdg_t":311.4,"dist_nm":43.8,"freq":322,"lat":47.92333200,"lon":7.41888900,"rng_nm":150,"alt_fmsl":0,"id":"CLR","desc":"COLMAR MEYENHEIM NDB"},
{"type":"NDB","hdg_t":222.4,"dist_nm":44,"freq":335,"lat":46.89911700,"lon":7.51048300,"rng_nm":25,"alt_fmsl":1690,"id":"BER","desc":"BERN NDB"},
{"type":"SDME","hdg_t":311.1,"dist_nm":44.6,"freq":110,"lat":47.92933300,"lon":7.39997200,"rng_nm":50,"alt_fmsl":693,"id":"CLR","desc":"COLMAR TACAN"},
{"type":"NDB","hdg_t":318,"dist_nm":47.7,"freq":348,"lat":48.03222300,"lon":7.44083400,"rng_nm":150,"alt_fmsl":0,"id":"AP","desc":"COLMAR MEYENHEIM NDB"},
{"type":"NDB","hdg_t":274.4,"dist_nm":53.4,"freq":330,"lat":47.50444444,"lon":6.92388888,"rng_nm":25,"alt_fmsl":1283,"id":"MB","desc":"Montbeliard Courcelles NDB"},
{"type":"SDME","hdg_t":75,"dist_nm":53.5,"freq":112.6,"lat":47.66635300,"lon":9.50885800,"rng_nm":25,"alt_fmsl":1400,"id":"FHD","desc":"FRIEDRICHSHAFEN DME"},
{"type":"NDB","hdg_t":320,"dist_nm":54.3,"freq":380,"lat":48.13375000,"lon":7.36611100,"rng_nm":50,"alt_fmsl":0,"id":"HO","desc":"Colmar NDB"},
{"type":"NDB","hdg_t":74.4,"dist_nm":54.8,"freq":473,"lat":47.68121700,"lon":9.53777800,"rng_nm":40,"alt_fmsl":1366,"id":"FHA","desc":"FRIEDRICHSHAFEN NDB"},
{"type":"NDB","hdg_t":342.7,"dist_nm":56.9,"freq":337,"lat":48.34873600,"lon":7.81116400,"rng_nm":25,"alt_fmsl":0,"id":"LHR","desc":"LAHR NDB"},
{"type":"VOR","hdg_t":226.3,"dist_nm":57.5,"freq":110.85,"lat":46.77758300,"lon":7.22350000,"rng_nm":130,"alt_fmsl":2659,"id":"FRI","desc":"FRIBOURG VOR-DME"},
{"type":"SDME","hdg_t":343.6,"dist_nm":57.6,"freq":108.05,"lat":48.36414200,"lon":7.82751700,"rng_nm":25,"alt_fmsl":556,"id":"LRD","desc":"LAHR DME"},
{"type":"NDB","hdg_t":50.9,"dist_nm":58.7,"freq":401,"lat":48.05435000,"lon":9.36754700,"rng_nm":25,"alt_fmsl":0,"id":"MEG","desc":"MENGEN NDB"},
{"type":"VOR","hdg_t":16.2,"dist_nm":58.7,"freq":116.1,"lat":48.38158600,"lon":8.64483600,"rng_nm":60,"alt_fmsl":0,"id":"SUL","desc":"SULZ VOR"},
{"type":"NDB","hdg_t":277.1,"dist_nm":61.4,"freq":289,"lat":47.56166700,"lon":6.73225000,"rng_nm":50,"alt_fmsl":0,"id":"HR","desc":"HERICOURT NDB"},
{"type":"NDB","hdg_t":250.3,"dist_nm":62.6,"freq":403,"lat":47.08366700,"lon":6.79388900,"rng_nm":25,"alt_fmsl":0,"id":"LPS","desc":"LES EPLATURES NDB"},
{"type":"VOR","hdg_t":337.5,"dist_nm":69.1,"freq":115.6,"lat":48.50538900,"lon":7.57197200,"rng_nm":150,"alt_fmsl":577,"id":"STR","desc":"STRASBOURG ENTZHEIM VOR-DME"},
{"type":"NDB","hdg_t":343.2,"dist_nm":71.8,"freq":412,"lat":48.58829000,"lon":7.71472300,"rng_nm":50,"alt_fmsl":502,"id":"SE","desc":"Strasbourg NDB"},
{"type":"VOR","hdg_t":204.1,"dist_nm":74.1,"freq":115.85,"lat":46.31336100,"lon":7.50333300,"rng_nm":40,"alt_fmsl":4456,"id":"MOT","desc":"MONTANA VOR-DME"},
{"type":"NDB","hdg_t":286.3,"dist_nm":78.3,"freq":363,"lat":47.79658300,"lon":6.37519400,"rng_nm":80,"alt_fmsl":913,"id":"LXI","desc":"LUXEUIL NDB"},
{"type":"SDME","hdg_t":285.6,"dist_nm":78.8,"freq":108.2,"lat":47.78316700,"lon":6.35711100,"rng_nm":50,"alt_fmsl":913,"id":"LXI","desc":"LUXEUIL TACAN"},
{"type":"VOR","hdg_t":281.2,"dist_nm":80.1,"freq":117.1,"lat":47.68827800,"lon":6.29558300,"rng_nm":80,"alt_fmsl":1072,"id":"LUL","desc":"LUXEUIL VOR"},
{"type":"NDB","hdg_t":355.2,"dist_nm":80.4,"freq":440,"lat":48.77833200,"lon":8.06722300,"rng_nm":150,"alt_fmsl":0,"id":"SLN","desc":"SOLLINGEN NDB"},
{"type":"SDME","hdg_t":355.8,"dist_nm":80.4,"freq":115.8,"lat":48.78022800,"lon":8.08848600,"rng_nm":25,"alt_fmsl":495,"id":"KBD","desc":"KARLSRUHE BADEN BADEN DME"},
{"type":"NDB","hdg_t":356.1,"dist_nm":81.5,"freq":431,"lat":48.79796400,"lon":8.09755300,"rng_nm":30,"alt_fmsl":408,"id":"KBA","desc":"KARLSRUHE BADEN BADEN NDB"},
{"type":"NDB","hdg_t":25.3,"dist_nm":81.6,"freq":384,"lat":48.66924400,"lon":9.11420300,"rng_nm":25,"alt_fmsl":0,"id":"SY","desc":"STUTTGART NDB"},
{"type":"VOR","hdg_t":29.9,"dist_nm":81.7,"freq":112.5,"lat":48.61840800,"lon":9.25920800,"rng_nm":60,"alt_fmsl":1213,"id":"TGO","desc":"TANGO VORTAC"},
{"type":"NDB","hdg_t":54.9,"dist_nm":82.2,"freq":407,"lat":48.21804200,"lon":9.91087200,"rng_nm":25,"alt_fmsl":1846,"id":"LUP","desc":"LAUPHEIM NDB"},
{"type":"VOR","hdg_t":208.1,"dist_nm":83.3,"freq":112.15,"lat":46.21550000,"lon":7.28877800,"rng_nm":40,"alt_fmsl":1594,"id":"SIO","desc":"SION VOR-DME"},
{"type":"NDB","hdg_t":263.4,"dist_nm":83.5,"freq":370,"lat":47.26694444,"lon":6.20250000,"rng_nm":25,"alt_fmsl":1348,"id":"BSV","desc":"Besancon la Veze NDB"},
{"type":"SDME","hdg_t":27.7,"dist_nm":84.6,"freq":115.45,"lat":48.68794700,"lon":9.22410600,"rng_nm":25,"alt_fmsl":1332,"id":"SGD","desc":"STUTTGART DME"},
{"type":"VOR","hdg_t":28.2,"dist_nm":85.7,"freq":116.85,"lat":48.69643000,"lon":9.25654700,"rng_nm":40,"alt_fmsl":1217,"id":"STG","desc":"Stuttgart VOR-DME"},
{"type":"VOR","hdg_t":339,"dist_nm":87.1,"freq":110.45,"lat":48.79624400,"lon":7.44798100,"rng_nm":60,"alt_fmsl":1021,"id":"SAV","desc":"SAVERNE VOR-DME"},
{"type":"SDME","hdg_t":239,"dist_nm":87.7,"freq":110.65,"lat":46.67611100,"lon":6.41333300,"rng_nm":80,"alt_fmsl":4244,"id":"LAP","desc":"LA PRAZ DME"},
{"type":"VOR","hdg_t":77.2,"dist_nm":87.8,"freq":109.6,"lat":47.74583300,"lon":10.34972200,"rng_nm":130,"alt_fmsl":2529,"id":"KPT","desc":"KEMPTEN VOR-DME"},
{"type":"NDB","hdg_t":29.7,"dist_nm":88,"freq":306,"lat":48.71128900,"lon":9.33504200,"rng_nm":25,"alt_fmsl":0,"id":"SG","desc":"STUTTGART NDB"},
{"type":"NDB","hdg_t":332.7,"dist_nm":89.7,"freq":424,"lat":48.76722222,"lon":7.19944444,"rng_nm":25,"alt_fmsl":1000,"id":"PHG","desc":"Phalsbourg Boursheid NDB"},
{"type":"SDME","hdg_t":132.7,"dist_nm":89.7,"freq":112.05,"lat":46.41805600,"lon":9.82166700,"rng_nm":80,"alt_fmsl":10987,"id":"CVA","desc":"CORVATSCH DME"},
{"type":"VOR","hdg_t":232.1,"dist_nm":93.8,"freq":113.9,"lat":46.46869400,"lon":6.44805600,"rng_nm":100,"alt_fmsl":1252,"id":"SPR","desc":"ST. PREX VOR-DME"},
{"type":"VOR","hdg_t":8.4,"dist_nm":94.1,"freq":115.95,"lat":48.99294400,"lon":8.58423600,"rng_nm":130,"alt_fmsl":908,"id":"KRH","desc":"KARLSRUHE VOR-DME"},
{"type":"NDB","hdg_t":303.7,"dist_nm":98.1,"freq":419,"lat":48.33250000,"lon":6.19361111,"rng_nm":25,"alt_fmsl":906,"id":"EMT","desc":"Epinal Mirecourt NDB"},
{"type":"VOR","hdg_t":26.3,"dist_nm":98.7,"freq":109.2,"lat":48.91297500,"lon":9.34022800,"rng_nm":25,"alt_fmsl":1064,"id":"LBU","desc":"LUBURG VOR-DME"}
]
}
