{"success":true,"source":"xp2csv.pl","last_updated":"2013/11/08 14:53:21 UTC"
,"icao":"LTAN","name":"Konya","lat":37.979,"lon":32.561847,"rwys":1,"ils":0,"index":3481594,"path":"e030n30/e032n37"
,"runways":[
{"len_m":3349,"wid_m":45.11,"hdg":16,"surf":"Asphalt","rwy1":"01","lat1":37.96455600,"lon1":32.55633300,"rwy2":"19","lat2":37.99344400,"lon2":32.56736100}
]
,"radios":[
{"type":"ATIS","freq":128.35,"desc":"ATIS"},
{"type":"GND","freq":121.95,"desc":"GND"},
{"type":"TWR","freq":122.1,"desc":"TWR"},
{"type":"APP","freq":122.1,"desc":"APP"}
]
,"navaids":[
{"type":"NDB","hdg_t":6.6,"dist_nm":1,"freq":390,"lat":37.99666700,"lon":32.56444400,"rng_nm":25,"alt_fmsl":3422,"id":"KNY","desc":"KONYA NDB"},
{"type":"VOR","hdg_t":6.6,"dist_nm":1,"freq":111.2,"lat":37.99666700,"lon":32.56444400,"rng_nm":25,"alt_fmsl":3389,"id":"KNY","desc":"KONYA VOR-DME"},
{"type":"SDME","hdg_t":9.6,"dist_nm":1.2,"freq":114.1,"lat":37.99888900,"lon":32.56611100,"rng_nm":25,"alt_fmsl":3390,"id":"KON","desc":"KONYA TACAN"},
{"type":"VOR","hdg_t":152.1,"dist_nm":75.3,"freq":112.3,"lat":36.86416700,"lon":33.29222200,"rng_nm":130,"alt_fmsl":5791,"id":"MUT","desc":"MUT VOR-DME"},
{"type":"NDB","hdg_t":152.1,"dist_nm":75.4,"freq":334,"lat":36.86388900,"lon":33.29305600,"rng_nm":100,"alt_fmsl":0,"id":"MUT","desc":"MUT NDB"},
{"type":"NDB","hdg_t":358.4,"dist_nm":87.4,"freq":350,"lat":39.43750000,"lon":32.50972200,"rng_nm":75,"alt_fmsl":4242,"id":"HAY","desc":"HAYMANA NDB-DME"},
{"type":"SDME","hdg_t":358.4,"dist_nm":87.4,"freq":111.8,"lat":39.43750000,"lon":32.50972200,"rng_nm":75,"alt_fmsl":4242,"id":"HAY","desc":"HAYMANA NDB-DME"},
{"type":"SDME","hdg_t":296.3,"dist_nm":101.8,"freq":115.2,"lat":38.71763100,"lon":30.61763900,"rng_nm":25,"alt_fmsl":3313,"id":"KFK","desc":"AFYON TACAN"},
{"type":"SDME","hdg_t":327.9,"dist_nm":104.1,"freq":109.2,"lat":39.44588100,"lon":31.37409400,"rng_nm":25,"alt_fmsl":3172,"id":"SYT","desc":"SIVRIHISAR TACAN"},
{"type":"NDB","hdg_t":6.5,"dist_nm":104.6,"freq":315,"lat":39.71250000,"lon":32.82000000,"rng_nm":25,"alt_fmsl":0,"id":"GBI","desc":"GOLBASI NDB"}
]
}
