{"success":true,"source":"xp2csv.pl","last_updated":"2013/11/08 14:53:21 UTC"
,"icao":"M40","name":"Monroe Co","lat":33.87375,"lon":-88.489682,"rwys":1,"ils":0,"index":1498866,"path":"w090n30/w089n33"
,"runways":[
{"len_m":1524,"wid_m":22.86,"hdg":186,"surf":"Asphalt","rwy1":"18","lat1":33.88058100,"lon1":-88.48879200,"rwy2":"36","lat2":33.86691900,"lon2":-88.49057200}
]
,"radios":[
{"type":"ATIS","freq":118.47,"desc":"AWOS 3"},
{"type":"CTAF","freq":122.8,"desc":"CTAF/UNICOM"},
{"type":"APP","freq":126.07,"desc":"COLUMBUS APP/DEP"}
]
,"navaids":[
{"type":"VOR","hdg_t":169.5,"dist_nm":14.1,"freq":115.2,"lat":33.64152778,"lon":-88.43858333,"rng_nm":25,"alt_fmsl":250,"id":"CBM","desc":"CALEDONIA VORTAC"},
{"type":"NDB","hdg_t":322.9,"dist_nm":23,"freq":420,"lat":34.18038889,"lon":-88.76875000,"rng_nm":50,"alt_fmsl":0,"id":"TU","desc":"VERON NDB"},
{"type":"VOR","hdg_t":182.9,"dist_nm":23.2,"freq":116.2,"lat":33.48547222,"lon":-88.51358333,"rng_nm":40,"alt_fmsl":240,"id":"IGB","desc":"BIGBEE VORTAC"},
{"type":"VOR","hdg_t":323.9,"dist_nm":25.9,"freq":109.8,"lat":34.22386111,"lon":-88.79733333,"rng_nm":40,"alt_fmsl":360,"id":"OTB","desc":"TUPELO VOR-DME"},
{"type":"VOR","hdg_t":50.6,"dist_nm":30.7,"freq":110.4,"lat":34.19877778,"lon":-88.01161111,"rng_nm":40,"alt_fmsl":802,"id":"HAB","desc":"HAMILTON VORTAC"},
{"type":"NDB","hdg_t":214.4,"dist_nm":32,"freq":281,"lat":33.43205556,"lon":-88.85033333,"rng_nm":50,"alt_fmsl":0,"id":"STF","desc":"BRYAN NDB"},
{"type":"NDB","hdg_t":161.3,"dist_nm":47.9,"freq":254,"lat":33.11401400,"lon":-88.18558600,"rng_nm":25,"alt_fmsl":0,"id":"AIV","desc":"ALICEVILLE NDB"},
{"type":"NDB","hdg_t":213.4,"dist_nm":52.2,"freq":212,"lat":33.14375000,"lon":-89.06088889,"rng_nm":50,"alt_fmsl":0,"id":"LMS","desc":"LOUISVILLE NDB"},
{"type":"NDB","hdg_t":135.9,"dist_nm":59.3,"freq":362,"lat":33.15847222,"lon":-87.67030556,"rng_nm":50,"alt_fmsl":0,"id":"TC","desc":"TUSKE NDB"},
{"type":"VOR","hdg_t":127.3,"dist_nm":60.3,"freq":117.8,"lat":33.25886111,"lon":-87.53688889,"rng_nm":40,"alt_fmsl":370,"id":"LDK","desc":"CRIMSON VORTAC"},
{"type":"NDB","hdg_t":298.7,"dist_nm":64.3,"freq":426,"lat":34.38508333,"lon":-89.62597222,"rng_nm":50,"alt_fmsl":0,"id":"UV","desc":"TUNNG NDB"},
{"type":"NDB","hdg_t":354.8,"dist_nm":68.6,"freq":334,"lat":35.01552778,"lon":-88.61569444,"rng_nm":50,"alt_fmsl":0,"id":"UU","desc":"SEYER NDB"},
{"type":"NDB","hdg_t":271.2,"dist_nm":69.1,"freq":245,"lat":33.89111111,"lon":-89.87463889,"rng_nm":50,"alt_fmsl":0,"id":"SBQ","desc":"SCOBEY NDB"},
{"type":"VOR","hdg_t":44.5,"dist_nm":70.3,"freq":116.5,"lat":34.70686111,"lon":-87.49158333,"rng_nm":40,"alt_fmsl":620,"id":"MSL","desc":"MUSCLE SHOALS VORTAC"},
{"type":"NDB","hdg_t":206.5,"dist_nm":71.8,"freq":219,"lat":32.79825000,"lon":-89.12480556,"rng_nm":50,"alt_fmsl":0,"id":"MPE","desc":"PHILADELPHIA NDB"},
{"type":"VOR","hdg_t":121,"dist_nm":72.8,"freq":111,"lat":33.23955556,"lon":-87.25000000,"rng_nm":40,"alt_fmsl":649,"id":"OKW","desc":"BROOKWOOD VORTAC"},
{"type":"VOR","hdg_t":317.3,"dist_nm":73.3,"freq":112.4,"lat":34.77025000,"lon":-89.49650000,"rng_nm":40,"alt_fmsl":630,"id":"HLI","desc":"HOLLY SPRINGS VORTAC"},
{"type":"SDME","hdg_t":182,"dist_nm":77.6,"freq":111.9,"lat":32.57846900,"lon":-88.54531700,"rng_nm":40,"alt_fmsl":310,"id":"NMM","desc":"MERIDIAN TACAN"},
{"type":"VOR","hdg_t":98.2,"dist_nm":80.4,"freq":114.4,"lat":33.67019444,"lon":-86.89980556,"rng_nm":130,"alt_fmsl":750,"id":"VUZ","desc":"VULCAN VORTAC"},
{"type":"NDB","hdg_t":258.5,"dist_nm":81.5,"freq":349,"lat":33.59191667,"lon":-90.08436111,"rng_nm":50,"alt_fmsl":0,"id":"GW","desc":"TEOCK NDB"},
{"type":"NDB","hdg_t":359,"dist_nm":81.6,"freq":386,"lat":35.23702778,"lon":-88.51600000,"rng_nm":50,"alt_fmsl":0,"id":"SZY","desc":"SIBLEY NDB"},
{"type":"NDB","hdg_t":341.3,"dist_nm":84.8,"freq":404,"lat":35.21433333,"lon":-89.04213889,"rng_nm":50,"alt_fmsl":0,"id":"BAV","desc":"HARDEMAN NDB"},
{"type":"NDB","hdg_t":104.3,"dist_nm":85.1,"freq":224,"lat":33.51127778,"lon":-86.84561111,"rng_nm":50,"alt_fmsl":0,"id":"BH","desc":"MCDEN NDB"},
{"type":"NDB","hdg_t":112.7,"dist_nm":85.4,"freq":368,"lat":33.31194700,"lon":-86.92315800,"rng_nm":25,"alt_fmsl":660,"id":"BEQ","desc":"BESSEMER NDB"},
{"type":"NDB","hdg_t":151.1,"dist_nm":86.7,"freq":417,"lat":32.60235500,"lon":-87.66306300,"rng_nm":25,"alt_fmsl":160,"id":"EOG","desc":"GREENSBORO NDB"},
{"type":"NDB","hdg_t":69.9,"dist_nm":88,"freq":230,"lat":34.36787300,"lon":-86.82389100,"rng_nm":25,"alt_fmsl":830,"id":"CPP","desc":"COLE SPRING NDB"},
{"type":"SDME","hdg_t":102.1,"dist_nm":88.1,"freq":109.5,"lat":33.55216700,"lon":-86.77133300,"rng_nm":18,"alt_fmsl":644,"id":"IROE","desc":"KBHM 24 DME-ILS DME"},
{"type":"VOR","hdg_t":58.5,"dist_nm":89.9,"freq":112.8,"lat":34.64830556,"lon":-86.93952778,"rng_nm":40,"alt_fmsl":590,"id":"DCU","desc":"DECATUR VOR-DME"},
{"type":"VOR","hdg_t":178.9,"dist_nm":90.2,"freq":113.8,"lat":32.36680556,"lon":-88.45836111,"rng_nm":40,"alt_fmsl":300,"id":"EWA","desc":"KEWANEE VORTAC"},
{"type":"VOR","hdg_t":190.1,"dist_nm":90.9,"freq":117,"lat":32.37844444,"lon":-88.80425000,"rng_nm":130,"alt_fmsl":580,"id":"MEI","desc":"MERIDIAN VORTAC"},
{"type":"NDB","hdg_t":330.9,"dist_nm":91.4,"freq":255,"lat":35.20558333,"lon":-89.39277778,"rng_nm":50,"alt_fmsl":0,"id":"FYE","desc":"SOMERVILLE NDB"},
{"type":"NDB","hdg_t":99.4,"dist_nm":91.9,"freq":394,"lat":33.60761111,"lon":-86.67877778,"rng_nm":50,"alt_fmsl":0,"id":"RO","desc":"ROEBY NDB"},
{"type":"NDB","hdg_t":283.9,"dist_nm":92.2,"freq":391,"lat":34.23297200,"lon":-90.28978900,"rng_nm":25,"alt_fmsl":160,"id":"MMS","desc":"MARKS NDB"},
{"type":"NDB","hdg_t":316.1,"dist_nm":92.4,"freq":275,"lat":34.97980800,"lon":-89.78875000,"rng_nm":25,"alt_fmsl":401,"id":"OLV","desc":"OLIVE BRANCH NDB"},
{"type":"VOR","hdg_t":255.1,"dist_nm":92.8,"freq":114.7,"lat":33.46386111,"lon":-90.27733333,"rng_nm":130,"alt_fmsl":125,"id":"SQS","desc":"SIDON VORTAC"},
{"type":"NDB","hdg_t":188.3,"dist_nm":98.4,"freq":356,"lat":32.24730556,"lon":-88.77161111,"rng_nm":50,"alt_fmsl":0,"id":"ME","desc":"SAVOY NDB"}
]
}
