{"success":true,"source":"xp2csv.pl","last_updated":"2013/11/08 14:53:21 UTC"
,"icao":"ME42","name":"Hogans Field","lat":44.92172361,"lon":-70.05228528,"rwys":1,"ils":0,"index":1794491,"path":"w080n40/w071n44"
,"runways":[
{"len_m":503,"wid_m":30.48,"hdg":161,"surf":"Turf/grass","rwy1":"18","lat1":44.92387581,"lon1":-70.05327288,"rwy2":"36","lat2":44.91957141,"lon2":-70.05129768}
]
,"navaids":[
{"type":"NDB","hdg_t":271.7,"dist_nm":29.8,"freq":221,"lat":44.93458333,"lon":-70.75119444,"rng_nm":50,"alt_fmsl":0,"id":"RQM","desc":"RANGELEY NDB"},
{"type":"NDB","hdg_t":164.9,"dist_nm":31.7,"freq":366,"lat":44.41091667,"lon":-69.86066667,"rng_nm":50,"alt_fmsl":0,"id":"AU","desc":"DUNNS NDB"},
{"type":"NDB","hdg_t":114.1,"dist_nm":32.5,"freq":348,"lat":44.69772222,"lon":-69.35858333,"rng_nm":50,"alt_fmsl":0,"id":"BUP","desc":"BURNHAM NDB"},
{"type":"VOR","hdg_t":163,"dist_nm":37.7,"freq":111.4,"lat":44.32002778,"lon":-69.79655556,"rng_nm":40,"alt_fmsl":349,"id":"AUG","desc":"AUGUSTA VOR-DME"},
{"type":"NDB","hdg_t":23.8,"dist_nm":39.4,"freq":236,"lat":45.52172222,"lon":-69.67450000,"rng_nm":50,"alt_fmsl":0,"id":"XQA","desc":"SQUAW NDB"},
{"type":"VOR","hdg_t":95,"dist_nm":50.4,"freq":114.8,"lat":44.84180556,"lon":-68.87397222,"rng_nm":130,"alt_fmsl":360,"id":"BGR","desc":"BANGOR VORTAC"},
{"type":"VOR","hdg_t":250.7,"dist_nm":51.4,"freq":110.4,"lat":44.63341667,"lon":-71.18611111,"rng_nm":25,"alt_fmsl":1731,"id":"BML","desc":"BERLIN VOR-DME"},
{"type":"NDB","hdg_t":247.1,"dist_nm":52.4,"freq":281,"lat":44.57690300,"lon":-71.17909200,"rng_nm":25,"alt_fmsl":1158,"id":"HXK","desc":"HORNEBROOK NDB"},
{"type":"NDB","hdg_t":124.1,"dist_nm":54,"freq":278,"lat":44.41122222,"lon":-69.01094444,"rng_nm":50,"alt_fmsl":0,"id":"BST","desc":"BELFAST NDB"},
{"type":"NDB","hdg_t":192.1,"dist_nm":58.8,"freq":240,"lat":43.96225000,"lon":-70.33794444,"rng_nm":50,"alt_fmsl":0,"id":"LE","desc":"LEWIE NDB"},
{"type":"NDB","hdg_t":84.7,"dist_nm":60.6,"freq":272,"lat":45.00572222,"lon":-68.63427778,"rng_nm":50,"alt_fmsl":0,"id":"OLD","desc":"OLD TOWN NDB"},
{"type":"NDB","hdg_t":143.9,"dist_nm":61.2,"freq":334,"lat":44.09347222,"lon":-69.21900000,"rng_nm":50,"alt_fmsl":0,"id":"RM","desc":"NOXKS NDB"},
{"type":"SDME","hdg_t":174.8,"dist_nm":63.1,"freq":115.2,"lat":43.87351400,"lon":-69.92191100,"rng_nm":25,"alt_fmsl":181,"id":"NHZ","desc":"BRUNSWICK TACAN"},
{"type":"NDB","hdg_t":141.7,"dist_nm":66.2,"freq":356,"lat":44.05013889,"lon":-69.10502778,"rng_nm":50,"alt_fmsl":0,"id":"SUH","desc":"SPRUCEHEAD NDB"},
{"type":"NDB","hdg_t":207.4,"dist_nm":68.6,"freq":227,"lat":43.90405556,"lon":-70.78233333,"rng_nm":50,"alt_fmsl":0,"id":"SZO","desc":"SEBAGO NDB"},
{"type":"VOR","hdg_t":331.1,"dist_nm":68.9,"freq":117.2,"lat":45.92500000,"lon":-70.84611111,"rng_nm":130,"alt_fmsl":1584,"id":"VLV","desc":"BEAUCE VOR-DME"},
{"type":"NDB","hdg_t":67.3,"dist_nm":69.4,"freq":216,"lat":45.35644444,"lon":-68.53697222,"rng_nm":50,"alt_fmsl":0,"id":"LRG","desc":"LINCOLN NDB"},
{"type":"VOR","hdg_t":57.9,"dist_nm":76.3,"freq":117.9,"lat":45.58672222,"lon":-68.51547222,"rng_nm":130,"alt_fmsl":550,"id":"MLT","desc":"MILLINOCKET VOR-DME"},
{"type":"NDB","hdg_t":55,"dist_nm":77.1,"freq":344,"lat":45.64861111,"lon":-68.55030556,"rng_nm":50,"alt_fmsl":0,"id":"LNT","desc":"MILNOT NDB"},
{"type":"VOR","hdg_t":288.4,"dist_nm":77.4,"freq":113.2,"lat":45.31644444,"lon":-71.78813889,"rng_nm":130,"alt_fmsl":1000,"id":"YSC","desc":"SHERBROOKE VORTAC"},
{"type":"NDB","hdg_t":244.9,"dist_nm":77.6,"freq":386,"lat":44.36233333,"lon":-71.68591667,"rng_nm":50,"alt_fmsl":0,"id":"GMA","desc":"MAHN NDB"},
{"type":"NDB","hdg_t":106.4,"dist_nm":78.1,"freq":330,"lat":44.53872222,"lon":-68.30661111,"rng_nm":50,"alt_fmsl":0,"id":"BH","desc":"SURRY NDB"},
{"type":"NDB","hdg_t":294.8,"dist_nm":80.7,"freq":362,"lat":45.47450000,"lon":-71.78791667,"rng_nm":50,"alt_fmsl":0,"id":"SC","desc":"SHERBROOKE NDB"},
{"type":"NDB","hdg_t":323.1,"dist_nm":84.7,"freq":275,"lat":46.04555556,"lon":-71.26777778,"rng_nm":50,"alt_fmsl":0,"id":"R1","desc":"THETFORD MINES NDB"},
{"type":"NDB","hdg_t":254.1,"dist_nm":88.2,"freq":353,"lat":44.50422222,"lon":-72.02925000,"rng_nm":50,"alt_fmsl":0,"id":"LLX","desc":"LYNDONVILLE NDB"},
{"type":"VOR","hdg_t":195.3,"dist_nm":92.9,"freq":117.1,"lat":43.42566667,"lon":-70.61352778,"rng_nm":130,"alt_fmsl":192,"id":"ENE","desc":"KENNEBUNK VORTAC"},
{"type":"NDB","hdg_t":336,"dist_nm":93,"freq":257,"lat":46.33500000,"lon":-70.96000000,"rng_nm":50,"alt_fmsl":0,"id":"T8","desc":"ST-FREDERIC NDB"}
]
}
