{"success":true,"source":"xp2csv.pl","last_updated":"2013/11/08 14:53:21 UTC"
,"icao":"ME81","name":"Rogers","lat":46.62504194,"lon":-67.93613667,"rwys":2,"ils":0,"index":1843752,"path":"w070n40/w068n46"
,"runways":[
{"len_m":518,"wid_m":15.24,"hdg":149,"surf":"Turf/grass","rwy1":"17","lat1":46.62706111,"lon1":-67.93783413,"rwy2":"35","lat2":46.62302277,"lon2":-67.93443921},
{"len_m":487,"wid_m":15.24,"hdg":10,"surf":"Turf/grass","rwy1":"03","lat1":46.62288089,"lon1":-67.93669152,"rwy2":"21","lat2":46.62720299,"lon2":-67.93558182}
]
,"navaids":[
{"type":"NDB","hdg_t":255.6,"dist_nm":3.5,"freq":278,"lat":46.61044444,"lon":-68.01888889,"rng_nm":50,"alt_fmsl":0,"id":"PQ","desc":"EXCAL NDB"},
{"type":"VOR","hdg_t":323.9,"dist_nm":11,"freq":116.4,"lat":46.77419444,"lon":-68.09452778,"rng_nm":130,"alt_fmsl":590,"id":"PQI","desc":"PRESQUE ISLE VOR-DME"},
{"type":"NDB","hdg_t":15.6,"dist_nm":13.4,"freq":220,"lat":46.84058333,"lon":-67.84838889,"rng_nm":50,"alt_fmsl":0,"id":"LIF","desc":"LIMESTONE NDB"},
{"type":"NDB","hdg_t":4.4,"dist_nm":35,"freq":404,"lat":47.20777778,"lon":-67.86972222,"rng_nm":50,"alt_fmsl":0,"id":"YSL","desc":"ST LEONARD NDB"},
{"type":"VOR","hdg_t":173,"dist_nm":35.3,"freq":116.1,"lat":46.03950000,"lon":-67.83416667,"rng_nm":130,"alt_fmsl":860,"id":"HUL","desc":"HOULTON VOR-DME"},
{"type":"NDB","hdg_t":203.8,"dist_nm":63.9,"freq":344,"lat":45.64861111,"lon":-68.55030556,"rng_nm":50,"alt_fmsl":0,"id":"LNT","desc":"MILNOT NDB"},
{"type":"VOR","hdg_t":201.4,"dist_nm":66.8,"freq":117.9,"lat":45.58672222,"lon":-68.51547222,"rng_nm":130,"alt_fmsl":550,"id":"MLT","desc":"MILLINOCKET VOR-DME"},
{"type":"NDB","hdg_t":126.8,"dist_nm":69.9,"freq":326,"lat":45.91722222,"lon":-66.60000000,"rng_nm":50,"alt_fmsl":0,"id":"FC","desc":"FREDERICTON NDB"},
{"type":"SDME","hdg_t":127.8,"dist_nm":73.7,"freq":111.3,"lat":45.86305600,"lon":-66.54777800,"rng_nm":25,"alt_fmsl":79,"id":"IDC","desc":"FREDERICTON DME"},
{"type":"VOR","hdg_t":124.2,"dist_nm":76.8,"freq":113,"lat":45.89477778,"lon":-66.41888889,"rng_nm":130,"alt_fmsl":52,"id":"YFC","desc":"FREDERICTON VOR-DME"},
{"type":"VOR","hdg_t":172.8,"dist_nm":78.3,"freq":114.3,"lat":45.32919444,"lon":-67.70419444,"rng_nm":40,"alt_fmsl":398,"id":"PNN","desc":"PRINCETON VOR-DME"},
{"type":"NDB","hdg_t":198.4,"dist_nm":80.1,"freq":216,"lat":45.35644444,"lon":-68.53697222,"rng_nm":50,"alt_fmsl":0,"id":"LRG","desc":"LINCOLN NDB"},
{"type":"NDB","hdg_t":316,"dist_nm":95.8,"freq":201,"lat":47.76363889,"lon":-69.57811111,"rng_nm":50,"alt_fmsl":0,"id":"RI","desc":"RIVIERE-DU-LOUP NDB"},
{"type":"VOR","hdg_t":315.7,"dist_nm":95.9,"freq":113.9,"lat":47.75752778,"lon":-69.58977778,"rng_nm":130,"alt_fmsl":0,"id":"YRI","desc":"RIVIERE DU LOUP VOR"},
{"type":"NDB","hdg_t":228.2,"dist_nm":98.2,"freq":236,"lat":45.52172222,"lon":-69.67450000,"rng_nm":50,"alt_fmsl":0,"id":"XQA","desc":"SQUAW NDB"}
]
}
