{"success":true,"source":"xp2csv.pl","last_updated":"2013/11/08 14:53:21 UTC"
,"icao":"ME94","name":"Clark Field","lat":44.21674388,"lon":-69.29115528,"rwys":1,"ils":0,"index":1810826,"path":"w070n40/w070n44"
,"runways":[
{"len_m":550,"wid_m":24.38,"hdg":72,"surf":"Turf/grass","rwy1":"09","lat1":44.21598102,"lon1":-69.29443118,"rwy2":"27","lat2":44.21750674,"lon2":-69.28787938}
]
,"navaids":[
{"type":"NDB","hdg_t":157.1,"dist_nm":8,"freq":334,"lat":44.09347222,"lon":-69.21900000,"rng_nm":50,"alt_fmsl":0,"id":"RM","desc":"NOXKS NDB"},
{"type":"NDB","hdg_t":141.1,"dist_nm":12.8,"freq":356,"lat":44.05013889,"lon":-69.10502778,"rng_nm":50,"alt_fmsl":0,"id":"SUH","desc":"SPRUCEHEAD NDB"},
{"type":"NDB","hdg_t":45.8,"dist_nm":16.7,"freq":278,"lat":44.41122222,"lon":-69.01094444,"rng_nm":50,"alt_fmsl":0,"id":"BST","desc":"BELFAST NDB"},
{"type":"VOR","hdg_t":286,"dist_nm":22.6,"freq":111.4,"lat":44.32002778,"lon":-69.79655556,"rng_nm":40,"alt_fmsl":349,"id":"AUG","desc":"AUGUSTA VOR-DME"},
{"type":"NDB","hdg_t":295.5,"dist_nm":27.1,"freq":366,"lat":44.41091667,"lon":-69.86066667,"rng_nm":50,"alt_fmsl":0,"id":"AU","desc":"DUNNS NDB"},
{"type":"NDB","hdg_t":354.2,"dist_nm":29,"freq":348,"lat":44.69772222,"lon":-69.35858333,"rng_nm":50,"alt_fmsl":0,"id":"BUP","desc":"BURNHAM NDB"},
{"type":"SDME","hdg_t":233.1,"dist_nm":34.1,"freq":115.2,"lat":43.87351400,"lon":-69.92191100,"rng_nm":25,"alt_fmsl":181,"id":"NHZ","desc":"BRUNSWICK TACAN"},
{"type":"VOR","hdg_t":25.3,"dist_nm":41.5,"freq":114.8,"lat":44.84180556,"lon":-68.87397222,"rng_nm":130,"alt_fmsl":360,"id":"BGR","desc":"BANGOR VORTAC"},
{"type":"NDB","hdg_t":65.1,"dist_nm":46.5,"freq":330,"lat":44.53872222,"lon":-68.30661111,"rng_nm":50,"alt_fmsl":0,"id":"BH","desc":"SURRY NDB"},
{"type":"NDB","hdg_t":251.7,"dist_nm":47.7,"freq":240,"lat":43.96225000,"lon":-70.33794444,"rng_nm":50,"alt_fmsl":0,"id":"LE","desc":"LEWIE NDB"},
{"type":"NDB","hdg_t":30.5,"dist_nm":55,"freq":272,"lat":45.00572222,"lon":-68.63427778,"rng_nm":50,"alt_fmsl":0,"id":"OLD","desc":"OLD TOWN NDB"},
{"type":"NDB","hdg_t":254.3,"dist_nm":67.1,"freq":227,"lat":43.90405556,"lon":-70.78233333,"rng_nm":50,"alt_fmsl":0,"id":"SZO","desc":"SEBAGO NDB"},
{"type":"VOR","hdg_t":230.8,"dist_nm":74.5,"freq":117.1,"lat":43.42566667,"lon":-70.61352778,"rng_nm":130,"alt_fmsl":192,"id":"ENE","desc":"KENNEBUNK VORTAC"},
{"type":"NDB","hdg_t":24.9,"dist_nm":75.5,"freq":216,"lat":45.35644444,"lon":-68.53697222,"rng_nm":50,"alt_fmsl":0,"id":"LRG","desc":"LINCOLN NDB"},
{"type":"NDB","hdg_t":305,"dist_nm":75.9,"freq":221,"lat":44.93458333,"lon":-70.75119444,"rng_nm":50,"alt_fmsl":0,"id":"RQM","desc":"RANGELEY NDB"},
{"type":"NDB","hdg_t":348.3,"dist_nm":79.9,"freq":236,"lat":45.52172222,"lon":-69.67450000,"rng_nm":50,"alt_fmsl":0,"id":"XQA","desc":"SQUAW NDB"},
{"type":"NDB","hdg_t":285.5,"dist_nm":84,"freq":281,"lat":44.57690300,"lon":-71.17909200,"rng_nm":25,"alt_fmsl":1158,"id":"HXK","desc":"HORNEBROOK NDB"},
{"type":"VOR","hdg_t":287.7,"dist_nm":85.2,"freq":110.4,"lat":44.63341667,"lon":-71.18611111,"rng_nm":25,"alt_fmsl":1731,"id":"BML","desc":"BERLIN VOR-DME"},
{"type":"NDB","hdg_t":232.2,"dist_nm":85.4,"freq":349,"lat":43.33419444,"lon":-70.83452778,"rng_nm":50,"alt_fmsl":0,"id":"SF","desc":"SANFD NDB"},
{"type":"VOR","hdg_t":21.6,"dist_nm":88.6,"freq":117.9,"lat":45.58672222,"lon":-68.51547222,"rng_nm":130,"alt_fmsl":550,"id":"MLT","desc":"MILLINOCKET VOR-DME"},
{"type":"NDB","hdg_t":228.7,"dist_nm":89.7,"freq":260,"lat":43.22027778,"lon":-70.82830556,"rng_nm":50,"alt_fmsl":0,"id":"ESG","desc":"ROLLINS NDB"},
{"type":"NDB","hdg_t":19.9,"dist_nm":91.5,"freq":344,"lat":45.64861111,"lon":-68.55030556,"rng_nm":50,"alt_fmsl":0,"id":"LNT","desc":"MILNOT NDB"},
{"type":"VOR","hdg_t":44.9,"dist_nm":95.1,"freq":114.3,"lat":45.32919444,"lon":-67.70419444,"rng_nm":40,"alt_fmsl":398,"id":"PNN","desc":"PRINCETON VOR-DME"},
{"type":"VOR","hdg_t":225.1,"dist_nm":95.4,"freq":116.5,"lat":43.08447222,"lon":-70.83200000,"rng_nm":40,"alt_fmsl":99,"id":"PSM","desc":"PEASE VOR-DME"}
]
}
