{"success":true,"source":"xp2csv.pl","last_updated":"2013/11/08 14:53:21 UTC"
,"icao":"MG13","name":"Inta Northeast","lat":15.8041875,"lon":-89.8506775,"rwys":1,"ils":0,"index":1481329,"path":"w090n10/w090n15"
,"runways":[
{"len_m":1198,"wid_m":14.63,"hdg":90,"surf":"Asphalt","rwy1":"09","lat1":15.80420800,"lon1":-89.85627200,"rwy2":"27","lat2":15.80416700,"lon2":-89.84508300}
]
,"navaids":[
{"type":"NDB","hdg_t":288,"dist_nm":36.3,"freq":260,"lat":15.99200000,"lon":-90.44891700,"rng_nm":50,"alt_fmsl":426,"id":"RUB","desc":"RUBELSANTO NDB"},
{"type":"NDB","hdg_t":38.4,"dist_nm":39.7,"freq":363,"lat":16.32500000,"lon":-89.42166700,"rng_nm":50,"alt_fmsl":1804,"id":"POP","desc":"POPTUN NDB"},
{"type":"NDB","hdg_t":217.2,"dist_nm":59.4,"freq":313,"lat":15.01141400,"lon":-90.46925300,"rng_nm":50,"alt_fmsl":4925,"id":"RBN","desc":"RABINAL NDB"},
{"type":"VOR","hdg_t":217.1,"dist_nm":59.5,"freq":116.1,"lat":15.00863889,"lon":-90.47033333,"rng_nm":130,"alt_fmsl":4925,"id":"RAB","desc":"RABINAL VOR-DME"},
{"type":"NDB","hdg_t":214.6,"dist_nm":64,"freq":375,"lat":14.92191667,"lon":-90.47797222,"rng_nm":50,"alt_fmsl":0,"id":"GUA","desc":"GUATEMALA CITY NDB"},
{"type":"NDB","hdg_t":358.5,"dist_nm":66.4,"freq":385,"lat":16.91562800,"lon":-89.88013300,"rng_nm":50,"alt_fmsl":380,"id":"TKL","desc":"TIKAL NDB"},
{"type":"VOR","hdg_t":358.7,"dist_nm":66.6,"freq":113.3,"lat":16.91902778,"lon":-89.87652778,"rng_nm":130,"alt_fmsl":427,"id":"TIK","desc":"TIKAL VOR-DME"},
{"type":"NDB","hdg_t":93,"dist_nm":72.7,"freq":347,"lat":15.73666667,"lon":-88.59500000,"rng_nm":50,"alt_fmsl":0,"id":"BAR","desc":"PUERTO BARRIOS NDB"},
{"type":"VOR","hdg_t":92.9,"dist_nm":73.1,"freq":115.1,"lat":15.73676400,"lon":-88.58881700,"rng_nm":40,"alt_fmsl":20,"id":"IOS","desc":"PUERTO BARRIOS VOR-DME"},
{"type":"VOR","hdg_t":208.4,"dist_nm":82.3,"freq":114.5,"lat":14.59100000,"lon":-90.52600000,"rng_nm":130,"alt_fmsl":4952,"id":"AUR","desc":"LA AURORA VOR-DME"}
]
}
