{"success":true,"source":"xp2csv.pl","last_updated":"2013/11/08 14:53:21 UTC"
,"icao":"MGRB","name":"Rubelsanto","lat":15.9920085,"lon":-90.445329,"rwys":1,"ils":0,"index":1464956,"path":"w100n10/w091n15"
,"runways":[
{"len_m":1433,"wid_m":21.34,"hdg":87,"surf":"Asphalt","rwy1":"08","lat1":15.99178100,"lon1":-90.45201900,"rwy2":"26","lat2":15.99223600,"lon2":-90.43863900}
]
,"navaids":[
{"type":"NDB","hdg_t":269.8,"dist_nm":0.2,"freq":260,"lat":15.99200000,"lon":-90.44891700,"rng_nm":50,"alt_fmsl":426,"id":"RUB","desc":"RUBELSANTO NDB"},
{"type":"NDB","hdg_t":181.3,"dist_nm":58.6,"freq":313,"lat":15.01141400,"lon":-90.46925300,"rng_nm":50,"alt_fmsl":4925,"id":"RBN","desc":"RABINAL NDB"},
{"type":"VOR","hdg_t":181.4,"dist_nm":58.7,"freq":116.1,"lat":15.00863889,"lon":-90.47033333,"rng_nm":130,"alt_fmsl":4925,"id":"RAB","desc":"RABINAL VOR-DME"},
{"type":"NDB","hdg_t":71.2,"dist_nm":62.3,"freq":363,"lat":16.32500000,"lon":-89.42166700,"rng_nm":50,"alt_fmsl":1804,"id":"POP","desc":"POPTUN NDB"},
{"type":"NDB","hdg_t":181.6,"dist_nm":63.9,"freq":375,"lat":14.92191667,"lon":-90.47797222,"rng_nm":50,"alt_fmsl":0,"id":"GUA","desc":"GUATEMALA CITY NDB"},
{"type":"NDB","hdg_t":30.4,"dist_nm":64,"freq":385,"lat":16.91562800,"lon":-89.88013300,"rng_nm":50,"alt_fmsl":380,"id":"TKL","desc":"TIKAL NDB"},
{"type":"VOR","hdg_t":30.5,"dist_nm":64.3,"freq":113.3,"lat":16.91902778,"lon":-89.87652778,"rng_nm":130,"alt_fmsl":427,"id":"TIK","desc":"TIKAL VOR-DME"},
{"type":"VOR","hdg_t":183.2,"dist_nm":83.8,"freq":114.5,"lat":14.59100000,"lon":-90.52600000,"rng_nm":130,"alt_fmsl":4952,"id":"AUR","desc":"LA AURORA VOR-DME"},
{"type":"VOR","hdg_t":277,"dist_nm":93.7,"freq":114.7,"lat":16.17805600,"lon":-92.05750000,"rng_nm":40,"alt_fmsl":5164,"id":"CMT","desc":"COMITAN VOR-DME"},
{"type":"NDB","hdg_t":97.8,"dist_nm":108,"freq":347,"lat":15.73666667,"lon":-88.59500000,"rng_nm":50,"alt_fmsl":0,"id":"BAR","desc":"PUERTO BARRIOS NDB"}
]
}
