{"success":true,"source":"xp2csv.pl","last_updated":"2013/11/08 14:53:21 UTC"
,"icao":"MI52","name":"Markham","lat":42.09059722,"lon":-83.96799862,"rwys":1,"ils":0,"index":1581312,"path":"w090n40/w084n42"
,"runways":[
{"len_m":672,"wid_m":19.81,"hdg":86,"surf":"Turf/grass","rwy1":"09","lat1":42.09038675,"lon1":-83.97205466,"rwy2":"27","lat2":42.09080769,"lon2":-83.96394258}
]
,"navaids":[
{"type":"NDB","hdg_t":132.9,"dist_nm":4.9,"freq":239,"lat":42.03394444,"lon":-83.88633333,"rng_nm":50,"alt_fmsl":0,"id":"TCU","desc":"TECUMSEH NDB"},
{"type":"NDB","hdg_t":200.3,"dist_nm":14.1,"freq":278,"lat":41.86997222,"lon":-84.07747222,"rng_nm":50,"alt_fmsl":0,"id":"ADG","desc":"ADRIAN NDB"},
{"type":"NDB","hdg_t":71.9,"dist_nm":16.2,"freq":359,"lat":42.17422222,"lon":-83.62155556,"rng_nm":50,"alt_fmsl":0,"id":"YI","desc":"YIPPS NDB"},
{"type":"NDB","hdg_t":307.6,"dist_nm":22.3,"freq":212,"lat":42.31783333,"lon":-84.36555556,"rng_nm":50,"alt_fmsl":0,"id":"JX","desc":"JAKSO NDB"},
{"type":"VOR","hdg_t":96.2,"dist_nm":22.9,"freq":115.7,"lat":42.04802778,"lon":-83.45758333,"rng_nm":130,"alt_fmsl":629,"id":"CRL","desc":"CARLETON VORTAC"},
{"type":"NDB","hdg_t":85.5,"dist_nm":24,"freq":388,"lat":42.12011111,"lon":-83.43172222,"rng_nm":50,"alt_fmsl":0,"id":"DT","desc":"REVUP NDB"},
{"type":"VOR","hdg_t":294.9,"dist_nm":24.1,"freq":109.6,"lat":42.25925000,"lon":-84.45855556,"rng_nm":40,"alt_fmsl":995,"id":"JXN","desc":"JACKSON VOR-DME"},
{"type":"VOR","hdg_t":40.9,"dist_nm":25.3,"freq":114.3,"lat":42.40886111,"lon":-83.59419444,"rng_nm":40,"alt_fmsl":950,"id":"SVM","desc":"SALEM VORTAC"},
{"type":"VOR","hdg_t":74.4,"dist_nm":27.8,"freq":113.4,"lat":42.21313889,"lon":-83.36666667,"rng_nm":130,"alt_fmsl":638,"id":"DXO","desc":"DETROIT VOR-DME"},
{"type":"NDB","hdg_t":194.4,"dist_nm":29.7,"freq":375,"lat":41.60922222,"lon":-84.13272222,"rng_nm":50,"alt_fmsl":0,"id":"USE","desc":"FULTON NDB"},
{"type":"SDME","hdg_t":165.7,"dist_nm":30.7,"freq":112.5,"lat":41.59370300,"lon":-83.79936400,"rng_nm":25,"alt_fmsl":671,"id":"TOL","desc":"TOLEDO TACAN"},
{"type":"NDB","hdg_t":176.2,"dist_nm":32.2,"freq":219,"lat":41.55347222,"lon":-83.92108333,"rng_nm":50,"alt_fmsl":0,"id":"TO","desc":"TOPHR NDB"},
{"type":"NDB","hdg_t":358.8,"dist_nm":32.5,"freq":243,"lat":42.63341667,"lon":-83.98252778,"rng_nm":50,"alt_fmsl":0,"id":"OZW","desc":"HOWELL NDB"},
{"type":"NDB","hdg_t":76.9,"dist_nm":34.9,"freq":223,"lat":42.22000000,"lon":-83.20330556,"rng_nm":50,"alt_fmsl":0,"id":"DM","desc":"SPENC NDB"},
{"type":"VOR","hdg_t":267.5,"dist_nm":35.6,"freq":111.2,"lat":42.06250000,"lon":-84.76513889,"rng_nm":40,"alt_fmsl":1040,"id":"LFD","desc":"LITCHFIELD VOR-DME"},
{"type":"NDB","hdg_t":88.7,"dist_nm":36.4,"freq":419,"lat":42.10111111,"lon":-83.15297222,"rng_nm":50,"alt_fmsl":0,"id":"RYS","desc":"GROSSE ILE NDB"},
{"type":"VOR","hdg_t":158.7,"dist_nm":41,"freq":113.1,"lat":41.45147222,"lon":-83.63869444,"rng_nm":40,"alt_fmsl":664,"id":"VWV","desc":"WATERVILLE VOR-DME"},
{"type":"VOR","hdg_t":27.7,"dist_nm":41.4,"freq":111,"lat":42.70086111,"lon":-83.53275000,"rng_nm":40,"alt_fmsl":1148,"id":"PSI","desc":"PONTIAC VORTAC"},
{"type":"NDB","hdg_t":77,"dist_nm":42,"freq":398,"lat":42.24388900,"lon":-83.04750000,"rng_nm":25,"alt_fmsl":0,"id":"ZQG","desc":"LAUREL NDB"},
{"type":"NDB","hdg_t":211.5,"dist_nm":42.9,"freq":260,"lat":41.47886111,"lon":-84.46591667,"rng_nm":50,"alt_fmsl":0,"id":"BYN","desc":"BRYAN NDB"},
{"type":"NDB","hdg_t":57.8,"dist_nm":45.8,"freq":338,"lat":42.49477778,"lon":-83.09330556,"rng_nm":50,"alt_fmsl":0,"id":"DE","desc":"MADDS (LOM) NDB"},
{"type":"NDB","hdg_t":330.4,"dist_nm":47.4,"freq":206,"lat":42.77755800,"lon":-84.49758600,"rng_nm":25,"alt_fmsl":841,"id":"LA","desc":"ARTDA NDB"},
{"type":"NDB","hdg_t":70.2,"dist_nm":47.9,"freq":230,"lat":42.35625000,"lon":-82.95427778,"rng_nm":50,"alt_fmsl":0,"id":"VQ","desc":"CARGL NDB"},
{"type":"VOR","hdg_t":319.4,"dist_nm":49.6,"freq":110.8,"lat":42.71738889,"lon":-84.69750000,"rng_nm":40,"alt_fmsl":888,"id":"LAN","desc":"LANSING VORTAC"},
{"type":"NDB","hdg_t":204.6,"dist_nm":49.8,"freq":246,"lat":41.33369444,"lon":-84.42800000,"rng_nm":50,"alt_fmsl":0,"id":"DFI","desc":"DEFIANCE NDB"},
{"type":"NDB","hdg_t":74.4,"dist_nm":50.8,"freq":353,"lat":42.31269444,"lon":-82.86852778,"rng_nm":50,"alt_fmsl":0,"id":"QG","desc":"WINDSOR NDB"},
{"type":"VOR","hdg_t":78.9,"dist_nm":51.7,"freq":113.8,"lat":42.24972222,"lon":-82.82894444,"rng_nm":40,"alt_fmsl":625,"id":"YQG","desc":"WINDSOR VOR-DME"},
{"type":"NDB","hdg_t":3.7,"dist_nm":52.7,"freq":269,"lat":42.96811111,"lon":-83.89008333,"rng_nm":50,"alt_fmsl":0,"id":"FN","desc":"PETLI NDB"},
{"type":"VOR","hdg_t":10.4,"dist_nm":53.4,"freq":116.9,"lat":42.96677778,"lon":-83.74697222,"rng_nm":130,"alt_fmsl":772,"id":"FNT","desc":"FLINT VORTAC"},
{"type":"NDB","hdg_t":52.1,"dist_nm":56.2,"freq":215,"lat":42.66142200,"lon":-82.96548100,"rng_nm":25,"alt_fmsl":607,"id":"UIZ","desc":"BERZ NDB"},
{"type":"NDB","hdg_t":287.1,"dist_nm":56.6,"freq":272,"lat":42.36200000,"lon":-85.18450000,"rng_nm":50,"alt_fmsl":0,"id":"BT","desc":"BATOL NDB"},
{"type":"NDB","hdg_t":242,"dist_nm":56.9,"freq":347,"lat":41.63977778,"lon":-85.08691667,"rng_nm":50,"alt_fmsl":0,"id":"ANQ","desc":"ANGOLA NDB"},
{"type":"VOR","hdg_t":283.3,"dist_nm":58.7,"freq":109.4,"lat":42.30980556,"lon":-85.25233333,"rng_nm":25,"alt_fmsl":922,"id":"BTL","desc":"BATTLE CREEK VORTAC"},
{"type":"NDB","hdg_t":154.3,"dist_nm":59.8,"freq":379,"lat":41.18933333,"lon":-83.39713889,"rng_nm":50,"alt_fmsl":0,"id":"FZI","desc":"FOSTORIA NDB"},
{"type":"NDB","hdg_t":124.4,"dist_nm":60,"freq":423,"lat":41.51858333,"lon":-82.86872222,"rng_nm":50,"alt_fmsl":0,"id":"PCW","desc":"PORT CLINTON NDB"},
{"type":"NDB","hdg_t":107.3,"dist_nm":61,"freq":283,"lat":41.77944444,"lon":-82.67000000,"rng_nm":50,"alt_fmsl":0,"id":"PT","desc":"PELEE ISLAND NDB"},
{"type":"NDB","hdg_t":180.2,"dist_nm":63.5,"freq":233,"lat":41.03116400,"lon":-83.97522200,"rng_nm":25,"alt_fmsl":760,"id":"PDR","desc":"OTTAWA NDB"},
{"type":"NDB","hdg_t":223.4,"dist_nm":64.2,"freq":227,"lat":41.30830556,"lon":-84.94419444,"rng_nm":50,"alt_fmsl":0,"id":"GW","desc":"SHENK NDB"},
{"type":"NDB","hdg_t":168,"dist_nm":65.5,"freq":334,"lat":41.02111111,"lon":-83.66911111,"rng_nm":50,"alt_fmsl":0,"id":"BNR","desc":"BENTON RIDGE NDB"},
{"type":"VOR","hdg_t":167.9,"dist_nm":65.9,"freq":114.9,"lat":41.01488889,"lon":-83.66433333,"rng_nm":25,"alt_fmsl":0,"id":"MAH","desc":"MARATHON VOR"},
{"type":"NDB","hdg_t":256.2,"dist_nm":67.6,"freq":382,"lat":41.81313889,"lon":-85.43377778,"rng_nm":50,"alt_fmsl":0,"id":"IRS","desc":"STURGIS NDB"},
{"type":"NDB","hdg_t":150.1,"dist_nm":68.6,"freq":269,"lat":41.09466667,"lon":-83.21497222,"rng_nm":50,"alt_fmsl":0,"id":"TII","desc":"TIFFIN NDB"},
{"type":"VOR","hdg_t":171.9,"dist_nm":68.7,"freq":108.2,"lat":40.95533333,"lon":-83.75602778,"rng_nm":40,"alt_fmsl":820,"id":"FBC","desc":"FLAG CITY VORTAC"},
{"type":"NDB","hdg_t":272.5,"dist_nm":69.7,"freq":371,"lat":42.13105556,"lon":-85.52975000,"rng_nm":50,"alt_fmsl":0,"id":"AZ","desc":"AUSTN NDB"},
{"type":"VOR","hdg_t":123.2,"dist_nm":70.8,"freq":109.2,"lat":41.43447222,"lon":-82.65480556,"rng_nm":40,"alt_fmsl":580,"id":"SKY","desc":"SANDUSKY VOR-DME"},
{"type":"VOR","hdg_t":277.6,"dist_nm":71.2,"freq":109,"lat":42.23700000,"lon":-85.55316667,"rng_nm":40,"alt_fmsl":870,"id":"AZO","desc":"KALAMAZOO VOR-DME"},
{"type":"NDB","hdg_t":264.3,"dist_nm":73,"freq":407,"lat":41.95838889,"lon":-85.59166667,"rng_nm":50,"alt_fmsl":0,"id":"HAI","desc":"THREE RIVERS NDB"},
{"type":"NDB","hdg_t":53,"dist_nm":75.7,"freq":332,"lat":42.84291667,"lon":-82.59669444,"rng_nm":50,"alt_fmsl":0,"id":"PH","desc":"PHURN NDB"},
{"type":"NDB","hdg_t":308.1,"dist_nm":79,"freq":263,"lat":42.89563889,"lon":-85.37858333,"rng_nm":50,"alt_fmsl":0,"id":"GR","desc":"KNOBS NDB"},
{"type":"NDB","hdg_t":201.7,"dist_nm":79.1,"freq":411,"lat":40.86255556,"lon":-84.61383333,"rng_nm":50,"alt_fmsl":0,"id":"VFU","desc":"STANLEY NDB"},
{"type":"VOR","hdg_t":302,"dist_nm":79.7,"freq":115.95,"lat":42.78672222,"lon":-85.49708333,"rng_nm":130,"alt_fmsl":803,"id":"GRR","desc":"GRAND RAPIDS VOR-DME"},
{"type":"NDB","hdg_t":353.5,"dist_nm":82.7,"freq":257,"lat":43.46150000,"lon":-84.17983333,"rng_nm":50,"alt_fmsl":0,"id":"MB","desc":"OLSTE NDB"},
{"type":"VOR","hdg_t":180,"dist_nm":82.9,"freq":108.4,"lat":40.70711111,"lon":-83.96816667,"rng_nm":25,"alt_fmsl":0,"id":"AOH","desc":"ALLEN CO VOR"},
{"type":"NDB","hdg_t":80.4,"dist_nm":85.3,"freq":236,"lat":42.31222222,"lon":-82.07777778,"rng_nm":50,"alt_fmsl":0,"id":"4L","desc":"CHATHAM-KENT NDB"},
{"type":"VOR","hdg_t":234.1,"dist_nm":85.3,"freq":110.4,"lat":41.24691667,"lon":-85.49738889,"rng_nm":40,"alt_fmsl":0,"id":"OLK","desc":"WEBSTER LAKE VOR"},
{"type":"VOR","hdg_t":219.9,"dist_nm":86.4,"freq":117.8,"lat":40.97905556,"lon":-85.18805556,"rng_nm":130,"alt_fmsl":793,"id":"FWA","desc":"FORT WAYNE VORTAC"},
{"type":"VOR","hdg_t":356.8,"dist_nm":86.5,"freq":112.9,"lat":43.53166667,"lon":-84.07730556,"rng_nm":40,"alt_fmsl":663,"id":"MBS","desc":"SAGINAW VOR-DME"},
{"type":"NDB","hdg_t":217.1,"dist_nm":86.8,"freq":251,"lat":40.93050000,"lon":-85.11963889,"rng_nm":50,"alt_fmsl":0,"id":"FW","desc":"HOAGY NDB"},
{"type":"VOR","hdg_t":37.9,"dist_nm":89.1,"freq":114,"lat":43.25588889,"lon":-82.71791667,"rng_nm":130,"alt_fmsl":810,"id":"ECK","desc":"PECK VORTAC"},
{"type":"NDB","hdg_t":55.8,"dist_nm":92.2,"freq":404,"lat":42.94047222,"lon":-82.23383333,"rng_nm":50,"alt_fmsl":0,"id":"ZR","desc":"SARNIA NDB"},
{"type":"VOR","hdg_t":117.8,"dist_nm":92.2,"freq":113.6,"lat":41.35805556,"lon":-82.16197222,"rng_nm":130,"alt_fmsl":780,"id":"DJB","desc":"DRYER VOR-DME"},
{"type":"VOR","hdg_t":139.2,"dist_nm":96,"freq":108.8,"lat":40.86861111,"lon":-82.59097222,"rng_nm":40,"alt_fmsl":1210,"id":"MFD","desc":"MANSFIELD VORTAC"},
{"type":"VOR","hdg_t":272.6,"dist_nm":96.2,"freq":116.6,"lat":42.14441667,"lon":-86.12269444,"rng_nm":40,"alt_fmsl":795,"id":"ELX","desc":"KEELER VOR-DME"},
{"type":"VOR","hdg_t":154.8,"dist_nm":97.3,"freq":109.8,"lat":40.61658333,"lon":-83.06383333,"rng_nm":25,"alt_fmsl":0,"id":"BUD","desc":"BUCKEYE VOR"},
{"type":"VOR","hdg_t":284,"dist_nm":97.7,"freq":112.1,"lat":42.46602778,"lon":-86.10480556,"rng_nm":130,"alt_fmsl":640,"id":"PMM","desc":"PULLMAN VOR-DME"},
{"type":"VOR","hdg_t":339.9,"dist_nm":97.9,"freq":110.6,"lat":43.62283333,"lon":-84.73727778,"rng_nm":40,"alt_fmsl":752,"id":"MOP","desc":"MOUNT PLEASANT VOR-DME"},
{"type":"VOR","hdg_t":250.5,"dist_nm":98.4,"freq":113.7,"lat":41.52516667,"lon":-86.02794444,"rng_nm":130,"alt_fmsl":852,"id":"GSH","desc":"GOSHEN VORTAC"},
{"type":"NDB","hdg_t":172,"dist_nm":98.7,"freq":326,"lat":40.45894444,"lon":-83.66800000,"rng_nm":50,"alt_fmsl":0,"id":"RUV","desc":"RUSHSYLVANIA NDB"}
]
}
