{"success":true,"source":"xp2csv.pl","last_updated":"2013/11/08 14:53:21 UTC"
,"icao":"MM22","name":"La Pesca","lat":23.8021625,"lon":-97.77371,"rwys":1,"ils":0,"index":1350768,"path":"w100n20/w098n23"
,"runways":[
{"len_m":2070,"wid_m":21.34,"hdg":168,"surf":"Asphalt","rwy1":"16","lat1":23.81131400,"lon1":-97.77576700,"rwy2":"34","lat2":23.79301100,"lon2":-97.77165300}
]
,"radios":[
{"type":"CTAF","freq":122.5,"desc":"UNICOM"}
]
,"navaids":[
{"type":"VOR","hdg_t":265.1,"dist_nm":65.5,"freq":113.7,"lat":23.70552778,"lon":-98.95902778,"rng_nm":130,"alt_fmsl":761,"id":"CVM","desc":"VICTORIA VOR-DME"},
{"type":"VOR","hdg_t":183.1,"dist_nm":90.5,"freq":117.5,"lat":22.28961111,"lon":-97.86302778,"rng_nm":130,"alt_fmsl":80,"id":"TAM","desc":"TAMPICO VOR-DME"},
{"type":"VOR","hdg_t":6.5,"dist_nm":118.5,"freq":114.3,"lat":25.77083333,"lon":-97.52391667,"rng_nm":130,"alt_fmsl":25,"id":"MAM","desc":"MATAMOROS VOR-DME"},
{"type":"VOR","hdg_t":208.7,"dist_nm":120,"freq":113.3,"lat":22.03847222,"lon":-98.80794444,"rng_nm":130,"alt_fmsl":164,"id":"TMN","desc":"TAMUIN VOR-DME"},
{"type":"VOR","hdg_t":246,"dist_nm":121,"freq":114.4,"lat":22.96786111,"lon":-99.77269444,"rng_nm":130,"alt_fmsl":3750,"id":"TTM","desc":"NORIA VOR-DME"},
{"type":"VOR","hdg_t":9.6,"dist_nm":128.7,"freq":116.3,"lat":25.92408333,"lon":-97.37527778,"rng_nm":130,"alt_fmsl":10,"id":"BRO","desc":"BROWNSVILLE VORTAC"},
{"type":"NDB","hdg_t":6.2,"dist_nm":131.2,"freq":393,"lat":25.98361111,"lon":-97.50908333,"rng_nm":50,"alt_fmsl":0,"id":"BR","desc":"DEPOO NDB"},
{"type":"VOR","hdg_t":349.3,"dist_nm":134.4,"freq":112.4,"lat":26.01063889,"lon":-98.23186111,"rng_nm":130,"alt_fmsl":139,"id":"REX","desc":"REYNOSA VOR-DME"},
{"type":"VOR","hdg_t":349.9,"dist_nm":144.1,"freq":117.2,"lat":26.17388889,"lon":-98.24077778,"rng_nm":130,"alt_fmsl":100,"id":"MFE","desc":"MC ALLEN VOR-DME"},
{"type":"VOR","hdg_t":2.5,"dist_nm":145.3,"freq":109.2,"lat":26.22922222,"lon":-97.65227778,"rng_nm":40,"alt_fmsl":32,"id":"HRL","desc":"HARLINGEN VOR-DME"}
]
}
