{"success":true,"source":"xp2csv.pl","last_updated":"2013/11/08 14:53:21 UTC"
,"icao":"MM37","name":"Casa Madero","lat":25.506214,"lon":-102.2024595,"rwys":1,"ils":0,"index":1268963,"path":"w110n20/w103n25"
,"runways":[
{"len_m":2046,"wid_m":20.73,"hdg":109,"surf":"Asphalt","rwy1":"10","lat1":25.50928600,"lon1":-102.21205800,"rwy2":"28","lat2":25.50314200,"lon2":-102.19286100}
]
,"navaids":[
{"type":"VOR","hdg_t":273.2,"dist_nm":65.5,"freq":116.4,"lat":25.56396400,"lon":-103.40840800,"rng_nm":130,"alt_fmsl":3688,"id":"TRC","desc":"TORREON VOR-DME"},
{"type":"VOR","hdg_t":87.7,"dist_nm":69.1,"freq":116.1,"lat":25.54611111,"lon":-100.92980556,"rng_nm":130,"alt_fmsl":4782,"id":"SLW","desc":"SALTILLO VOR-DME"},
{"type":"VOR","hdg_t":153.9,"dist_nm":89.4,"freq":117.1,"lat":24.15972222,"lon":-101.48750000,"rng_nm":130,"alt_fmsl":6217,"id":"CDR","desc":"CONCEPCION VOR-DME"},
{"type":"VOR","hdg_t":24.3,"dist_nm":95.2,"freq":117.9,"lat":26.95550000,"lon":-101.47102778,"rng_nm":130,"alt_fmsl":1864,"id":"MOV","desc":"MONCLOVA VOR-DME"},
{"type":"VOR","hdg_t":78.1,"dist_nm":108.5,"freq":115.4,"lat":25.86544444,"lon":-100.23880556,"rng_nm":130,"alt_fmsl":1476,"id":"ADN","desc":"ROBERTO VOR-DME"},
{"type":"VOR","hdg_t":81.5,"dist_nm":114.8,"freq":114.7,"lat":25.77288889,"lon":-100.10397222,"rng_nm":130,"alt_fmsl":1305,"id":"MTY","desc":"MONTERREY VOR-DME"},
{"type":"VOR","hdg_t":237.5,"dist_nm":150.4,"freq":112.9,"lat":24.13800600,"lon":-104.51641700,"rng_nm":130,"alt_fmsl":6104,"id":"DGO","desc":"DURANGO VOR-DME"},
{"type":"VOR","hdg_t":189.8,"dist_nm":158.9,"freq":117.6,"lat":22.88744200,"lon":-102.69326100,"rng_nm":130,"alt_fmsl":7141,"id":"ZCL","desc":"ZACATECAS VOR-DME"},
{"type":"VOR","hdg_t":50.2,"dist_nm":183.1,"freq":112.6,"lat":27.43938889,"lon":-99.56458333,"rng_nm":130,"alt_fmsl":484,"id":"NLD","desc":"NEWLA VOR-DME"},
{"type":"VOR","hdg_t":51.1,"dist_nm":190.7,"freq":117.4,"lat":27.47872222,"lon":-99.41766667,"rng_nm":130,"alt_fmsl":580,"id":"LRD","desc":"LAREDO VORTAC"}
]
}
