{"success":true,"source":"xp2csv.pl","last_updated":"2013/11/08 14:53:21 UTC"
,"icao":"MM48","name":"Ciudad Pemex","lat":17.880139,"lon":-92.475667,"rwys":1,"ils":0,"index":1432316,"path":"w100n10/w093n17"
,"runways":[
{"len_m":1524,"wid_m":29.87,"hdg":55,"surf":"Asphalt","rwy1":"05","lat1":17.87628900,"lon1":-92.48162800,"rwy2":"23","lat2":17.88398900,"lon2":-92.46970600}
]
,"navaids":[
{"type":"VOR","hdg_t":289.9,"dist_nm":20.8,"freq":116.7,"lat":17.99886111,"lon":-92.81822222,"rng_nm":130,"alt_fmsl":46,"id":"VSA","desc":"VILLAHERMOSA VOR-DME"},
{"type":"NDB","hdg_t":309.2,"dist_nm":52.5,"freq":392,"lat":18.43583600,"lon":-93.18916700,"rng_nm":50,"alt_fmsl":15,"id":"PB1","desc":"BOCAS NDB"},
{"type":"VOR","hdg_t":39.2,"dist_nm":60.3,"freq":113,"lat":18.66044444,"lon":-91.80513889,"rng_nm":130,"alt_fmsl":10,"id":"CME","desc":"CARMEN VOR-DME"},
{"type":"VOR","hdg_t":182.1,"dist_nm":71.4,"freq":116,"lat":16.68555600,"lon":-92.52166700,"rng_nm":40,"alt_fmsl":7707,"id":"SZT","desc":"CRISTOBAL VOR-DME"},
{"type":"VOR","hdg_t":210.6,"dist_nm":79,"freq":117.3,"lat":16.74000000,"lon":-93.17472200,"rng_nm":130,"alt_fmsl":1909,"id":"TGM","desc":"TERAN VOR-DME"},
{"type":"NDB","hdg_t":12.2,"dist_nm":81.6,"freq":341,"lat":19.21528100,"lon":-92.17000000,"rng_nm":50,"alt_fmsl":200,"id":"PM1","desc":"ABKATUM 1A NDB"},
{"type":"VOR","hdg_t":202.2,"dist_nm":84.4,"freq":115.7,"lat":16.57061111,"lon":-93.03005556,"rng_nm":130,"alt_fmsl":1491,"id":"TGZ","desc":"TUXTLA VOR-DME"},
{"type":"NDB","hdg_t":12.3,"dist_nm":85.2,"freq":350,"lat":19.27333600,"lon":-92.15500000,"rng_nm":50,"alt_fmsl":200,"id":"PM2","desc":"ABKATUM 5 NDB"},
{"type":"NDB","hdg_t":9.3,"dist_nm":92.9,"freq":354,"lat":19.41472200,"lon":-92.20861100,"rng_nm":50,"alt_fmsl":200,"id":"PI1","desc":"IXTOC NDB"},
{"type":"NDB","hdg_t":16.7,"dist_nm":92.9,"freq":318,"lat":19.36833600,"lon":-92.00388900,"rng_nm":50,"alt_fmsl":200,"id":"PN1","desc":"NOHOCH A NDB"},
{"type":"NDB","hdg_t":15.2,"dist_nm":94.1,"freq":304,"lat":19.39916900,"lon":-92.03888900,"rng_nm":50,"alt_fmsl":200,"id":"PA1","desc":"AKAL C NDB"},
{"type":"NDB","hdg_t":13.7,"dist_nm":95.2,"freq":255,"lat":19.42805800,"lon":-92.07527800,"rng_nm":50,"alt_fmsl":200,"id":"PA2","desc":"AKAL J NDB"},
{"type":"NDB","hdg_t":15.1,"dist_nm":96.1,"freq":371,"lat":19.43333600,"lon":-92.03333300,"rng_nm":50,"alt_fmsl":200,"id":"PO1","desc":"NEPTUNO NDB"},
{"type":"NDB","hdg_t":9.4,"dist_nm":99.3,"freq":359,"lat":19.51972500,"lon":-92.18777800,"rng_nm":50,"alt_fmsl":200,"id":"PK1","desc":"KU 22 NDB"}
]
}
