{"success":true,"source":"xp2csv.pl","last_updated":"2013/11/08 14:53:21 UTC"
,"icao":"MMIT","name":"Ixtepec","lat":16.449336,"lon":-95.0936985,"rwys":1,"ils":0,"index":1383071,"path":"w100n10/w096n16"
,"runways":[
{"len_m":2327,"wid_m":45.11,"hdg":179,"surf":"Asphalt","rwy1":"17","lat1":16.45985300,"lon1":-95.09371400,"rwy2":"35","lat2":16.43881900,"lon2":-95.09368300}
]
,"radios":[
{"type":"GND","freq":121.7,"desc":"GND"},
{"type":"TWR","freq":118.45,"desc":"TWR"}
]
,"navaids":[
{"type":"VOR","hdg_t":354.6,"dist_nm":0.8,"freq":112.2,"lat":16.46386111,"lon":-95.09511111,"rng_nm":130,"alt_fmsl":164,"id":"IZT","desc":"IXTEPEC VOR-DME"},
{"type":"VOR","hdg_t":239.4,"dist_nm":78.4,"freq":113.2,"lat":15.77777778,"lon":-96.26144444,"rng_nm":130,"alt_fmsl":464,"id":"HUX","desc":"HUATULCO VOR-DME"},
{"type":"DME","hdg_t":19,"dist_nm":98.5,"freq":116.4,"lat":18.00722222,"lon":-94.53250000,"rng_nm":130,"alt_fmsl":36,"id":"MTT","desc":"MINATITLAN VOR-DME"},
{"type":"VOR","hdg_t":288.5,"dist_nm":99.3,"freq":112,"lat":16.97225000,"lon":-96.73136111,"rng_nm":130,"alt_fmsl":5013,"id":"OAX","desc":"OAXACA VOR-DME"},
{"type":"VOR","hdg_t":16.4,"dist_nm":103,"freq":116.4,"lat":18.10288889,"lon":-94.58227778,"rng_nm":130,"alt_fmsl":36,"id":"MTT","desc":"MINATITLAN VOR-DME"},
{"type":"VOR","hdg_t":80.7,"dist_nm":111.9,"freq":117.3,"lat":16.74000000,"lon":-93.17472200,"rng_nm":130,"alt_fmsl":1909,"id":"TGM","desc":"TERAN VOR-DME"},
{"type":"VOR","hdg_t":86.2,"dist_nm":119.1,"freq":115.7,"lat":16.57061111,"lon":-93.03005556,"rng_nm":130,"alt_fmsl":1491,"id":"TGZ","desc":"TUXTLA VOR-DME"},
{"type":"VOR","hdg_t":253.6,"dist_nm":119.8,"freq":112.5,"lat":15.87511111,"lon":-97.08172222,"rng_nm":130,"alt_fmsl":294,"id":"PXM","desc":"ESCONDIDO VOR-DME"},
{"type":"VOR","hdg_t":84.1,"dist_nm":148.8,"freq":116,"lat":16.68555600,"lon":-92.52166700,"rng_nm":40,"alt_fmsl":7707,"id":"SZT","desc":"CRISTOBAL VOR-DME"},
{"type":"VOR","hdg_t":54.3,"dist_nm":160.1,"freq":116.7,"lat":17.99886111,"lon":-92.81822222,"rng_nm":130,"alt_fmsl":46,"id":"VSA","desc":"VILLAHERMOSA VOR-DME"}
]
}
