{"success":true,"source":"xp2csv.pl","last_updated":"2013/11/08 14:53:21 UTC"
,"icao":"MMMA","name":"General Servando Canales Intl","lat":25.7698945,"lon":-97.5253095,"rwys":1,"ils":0,"index":1350897,"path":"w100n20/w098n25"
,"runways":[
{"len_m":2304,"wid_m":46.02,"hdg":156,"surf":"Asphalt","rwy1":"15","lat1":25.77941100,"lon1":-97.52994700,"rwy2":"33","lat2":25.76037800,"lon2":-97.52067200}
]
,"radios":[
{"type":"APP","freq":118,"desc":"MATAMOROS APP/TWR"}
]
,"navaids":[
{"type":"VOR","hdg_t":53.3,"dist_nm":0,"freq":114.3,"lat":25.77083333,"lon":-97.52391667,"rng_nm":130,"alt_fmsl":25,"id":"MAM","desc":"MATAMOROS VOR-DME"},
{"type":"VOR","hdg_t":41.3,"dist_nm":12.2,"freq":116.3,"lat":25.92408333,"lon":-97.37527778,"rng_nm":130,"alt_fmsl":10,"id":"BRO","desc":"BROWNSVILLE VORTAC"},
{"type":"NDB","hdg_t":3.9,"dist_nm":12.8,"freq":393,"lat":25.98361111,"lon":-97.50908333,"rng_nm":50,"alt_fmsl":0,"id":"BR","desc":"DEPOO NDB"},
{"type":"VOR","hdg_t":346,"dist_nm":28.3,"freq":109.2,"lat":26.22922222,"lon":-97.65227778,"rng_nm":40,"alt_fmsl":32,"id":"HRL","desc":"HARLINGEN VOR-DME"},
{"type":"NDB","hdg_t":347.4,"dist_nm":32.8,"freq":338,"lat":26.30516667,"lon":-97.65736111,"rng_nm":50,"alt_fmsl":0,"id":"HR","desc":"SEBAS NDB"},
{"type":"VOR","hdg_t":290.7,"dist_nm":40.8,"freq":112.4,"lat":26.01063889,"lon":-98.23186111,"rng_nm":130,"alt_fmsl":139,"id":"REX","desc":"REYNOSA VOR-DME"},
{"type":"VOR","hdg_t":302.1,"dist_nm":45.6,"freq":117.2,"lat":26.17388889,"lon":-98.24077778,"rng_nm":130,"alt_fmsl":100,"id":"MFE","desc":"MC ALLEN VOR-DME"},
{"type":"NDB","hdg_t":304.4,"dist_nm":51.3,"freq":330,"lat":26.25386111,"lon":-98.31038889,"rng_nm":50,"alt_fmsl":0,"id":"MF","desc":"MISSI NDB"},
{"type":"NDB","hdg_t":315.2,"dist_nm":80.2,"freq":260,"lat":26.71894444,"lon":-98.57725000,"rng_nm":50,"alt_fmsl":0,"id":"SNE","desc":"SANTA ELENA NDB"},
{"type":"NDB","hdg_t":339.6,"dist_nm":91.7,"freq":353,"lat":27.20694444,"lon":-98.12177778,"rng_nm":50,"alt_fmsl":0,"id":"BKS","desc":"BROOKS CO NDB"}
]
}
