{"success":true,"source":"xp2csv.pl","last_updated":"2013/11/08 14:53:21 UTC"
,"icao":"MMZO","name":"Playa De Oro Intl","lat":19.144779,"lon":-104.5586305,"rwys":1,"ils":0,"index":1235787,"path":"w110n10/w105n19"
,"runways":[
{"len_m":2200,"wid_m":45.11,"hdg":106,"surf":"Asphalt","rwy1":"10","lat1":19.14753900,"lon1":-104.56867800,"rwy2":"28","lat2":19.14201900,"lon2":-104.54858300}
]
,"radios":[
{"type":"APP","freq":118.7,"desc":"MANZANILLO APP/TWR"}
]
,"navaids":[
{"type":"VOR","hdg_t":293,"dist_nm":0.8,"freq":116.8,"lat":19.15008100,"lon":-104.57173600,"rng_nm":130,"alt_fmsl":30,"id":"ZLO","desc":"MANZANILLO VOR-DME"},
{"type":"VOR","hdg_t":81.8,"dist_nm":56.1,"freq":117.7,"lat":19.27512800,"lon":-103.57900600,"rng_nm":130,"alt_fmsl":2467,"id":"COL","desc":"COLIMA VOR-DME"},
{"type":"VOR","hdg_t":336.7,"dist_nm":99.5,"freq":116.6,"lat":20.67309400,"lon":-105.25749700,"rng_nm":130,"alt_fmsl":23,"id":"PVR","desc":"VALLARTA VOR-DME"},
{"type":"VOR","hdg_t":40.3,"dist_nm":108.4,"freq":117.3,"lat":20.52342200,"lon":-103.31161100,"rng_nm":130,"alt_fmsl":5016,"id":"GDL","desc":"GUADALAJARA VOR-DME"},
{"type":"NDB","hdg_t":44.5,"dist_nm":111.1,"freq":395,"lat":20.46507800,"lon":-103.17604200,"rng_nm":50,"alt_fmsl":0,"id":"GD","desc":"GUADALAJARA NDB"},
{"type":"VOR","hdg_t":32.6,"dist_nm":114.1,"freq":113.4,"lat":20.74975000,"lon":-103.46496700,"rng_nm":130,"alt_fmsl":5333,"id":"ZAP","desc":"ZAPOPAN VOR-DME"},
{"type":"VOR","hdg_t":353.4,"dist_nm":137.2,"freq":113.9,"lat":21.42651700,"lon":-104.83698100,"rng_nm":130,"alt_fmsl":3020,"id":"TNY","desc":"TEPIC VOR-DME"},
{"type":"VOR","hdg_t":83.5,"dist_nm":143.6,"freq":114.2,"lat":19.39575600,"lon":-102.04108900,"rng_nm":130,"alt_fmsl":5258,"id":"UPN","desc":"URUAPAN VOR-DME"},
{"type":"VOR","hdg_t":117.1,"dist_nm":198.5,"freq":113.8,"lat":17.60316400,"lon":-101.47671900,"rng_nm":130,"alt_fmsl":26,"id":"ZIH","desc":"ZIHUATANEJO VOR-DME"},
{"type":"VOR","hdg_t":39,"dist_nm":198.6,"freq":113.6,"lat":21.71140000,"lon":-102.31904700,"rng_nm":130,"alt_fmsl":6112,"id":"AGU","desc":"AGUASCALIENTES VOR-DME"}
]
}
