{"success":true,"source":"xp2csv.pl","last_updated":"2013/11/08 14:53:21 UTC"
,"icao":"MN63","name":"Stocker - Private","lat":44.68329611,"lon":-93.63690167,"rwys":3,"ils":0,"index":1417641,"path":"w100n40/w094n44"
,"runways":[
{"len_m":610,"wid_m":30.48,"hdg":48,"surf":"Turf/grass","rwy1":"05","lat1":44.68146070,"lon1":-93.63976864,"rwy2":"23","lat2":44.68513152,"lon2":-93.63403470},
{"len_m":428,"wid_m":30.48,"hdg":92,"surf":"Turf/grass","rwy1":"09","lat1":44.68339660,"lon1":-93.63959850,"rwy2":"27","lat2":44.68319562,"lon2":-93.63420484},
{"len_m":426,"wid_m":30.48,"hdg":3,"surf":"Turf/grass","rwy1":"36","lat1":44.68137866,"lon1":-93.63704300,"rwy2":"18","lat2":44.68521356,"lon2":-93.63676034}
]
,"navaids":[
{"type":"VOR","hdg_t":44.1,"dist_nm":11.9,"freq":117.7,"lat":44.82536111,"lon":-93.44269444,"rng_nm":40,"alt_fmsl":900,"id":"FCM","desc":"FLYING CLOUD VOR-DME"},
{"type":"NDB","hdg_t":59,"dist_nm":16.4,"freq":338,"lat":44.82411100,"lon":-93.30583300,"rng_nm":25,"alt_fmsl":0,"id":"AP","desc":"VAGEY NDB"},
{"type":"NDB","hdg_t":283.7,"dist_nm":19.7,"freq":407,"lat":44.76063889,"lon":-94.08666667,"rng_nm":50,"alt_fmsl":0,"id":"GYL","desc":"GLENCOE NDB"},
{"type":"VOR","hdg_t":99,"dist_nm":19.7,"freq":115.7,"lat":44.63094444,"lon":-93.18205556,"rng_nm":130,"alt_fmsl":972,"id":"FGT","desc":"FARMINGTON VORTAC"},
{"type":"VOR","hdg_t":53,"dist_nm":21.3,"freq":115.3,"lat":44.89650000,"lon":-93.23652778,"rng_nm":130,"alt_fmsl":831,"id":"MSP","desc":"MINNEAPOLIS VOR-DME"},
{"type":"NDB","hdg_t":69.3,"dist_nm":29.7,"freq":385,"lat":44.85675000,"lon":-92.98444444,"rng_nm":50,"alt_fmsl":0,"id":"BA","desc":"BABCO NDB"},
{"type":"VOR","hdg_t":21.9,"dist_nm":29.9,"freq":117.3,"lat":45.14569444,"lon":-93.37319444,"rng_nm":130,"alt_fmsl":877,"id":"GEP","desc":"GOPHER VORTAC"},
{"type":"VOR","hdg_t":203.1,"dist_nm":30.2,"freq":110.8,"lat":44.21991667,"lon":-93.91236111,"rng_nm":40,"alt_fmsl":1026,"id":"MKT","desc":"MANKATO VOR-DME"},
{"type":"VOR","hdg_t":158.1,"dist_nm":30.9,"freq":111.2,"lat":44.20444444,"lon":-93.37050000,"rng_nm":25,"alt_fmsl":1100,"id":"FOW","desc":"HALFWAY VOR-DME"},
{"type":"NDB","hdg_t":68.7,"dist_nm":31.8,"freq":400,"lat":44.87336111,"lon":-92.94200000,"rng_nm":50,"alt_fmsl":0,"id":"PPI","desc":"HOPEY NDB"},
{"type":"NDB","hdg_t":150.2,"dist_nm":42,"freq":379,"lat":44.07383333,"lon":-93.15527778,"rng_nm":50,"alt_fmsl":0,"id":"OW","desc":"TONNA NDB"},
{"type":"VOR","hdg_t":305.1,"dist_nm":42.4,"freq":109,"lat":45.08747222,"lon":-94.45386111,"rng_nm":40,"alt_fmsl":1130,"id":"DWN","desc":"DARWIN VORTAC"},
{"type":"NDB","hdg_t":96.5,"dist_nm":42.6,"freq":274,"lat":44.59783333,"lon":-92.64747222,"rng_nm":50,"alt_fmsl":0,"id":"RG","desc":"REGUE NDB"},
{"type":"NDB","hdg_t":239.6,"dist_nm":42.9,"freq":272,"lat":44.31802778,"lon":-94.49802778,"rng_nm":50,"alt_fmsl":0,"id":"ULM","desc":"NEW ULM NDB"},
{"type":"NDB","hdg_t":96.1,"dist_nm":49.3,"freq":394,"lat":44.58885600,"lon":-92.49213300,"rng_nm":25,"alt_fmsl":782,"id":"RGK","desc":"RED WING NDB"},
{"type":"NDB","hdg_t":343.6,"dist_nm":49.7,"freq":342,"lat":45.47894444,"lon":-93.96869444,"rng_nm":50,"alt_fmsl":0,"id":"ST","desc":"HUSSK NDB"},
{"type":"NDB","hdg_t":1.3,"dist_nm":52.9,"freq":368,"lat":45.56466667,"lon":-93.60761111,"rng_nm":50,"alt_fmsl":0,"id":"PNM","desc":"PRINCETON NDB"},
{"type":"NDB","hdg_t":58.9,"dist_nm":54.6,"freq":257,"lat":45.14725000,"lon":-92.53344444,"rng_nm":50,"alt_fmsl":0,"id":"RNH","desc":"NEW RICHMOND NDB"},
{"type":"NDB","hdg_t":16.7,"dist_nm":54.8,"freq":350,"lat":45.55769444,"lon":-93.26211111,"rng_nm":50,"alt_fmsl":0,"id":"CBG","desc":"CAMBRIDGE NDB"},
{"type":"VOR","hdg_t":341.1,"dist_nm":54.9,"freq":112.1,"lat":45.54930556,"lon":-94.05861111,"rng_nm":25,"alt_fmsl":1023,"id":"STC","desc":"ST CLOUD VOR-DME"},
{"type":"NDB","hdg_t":46.6,"dist_nm":55.2,"freq":233,"lat":45.31038900,"lon":-92.68808300,"rng_nm":25,"alt_fmsl":944,"id":"OEO","desc":"OSCEOLA NDB"},
{"type":"NDB","hdg_t":223.6,"dist_nm":57.5,"freq":260,"lat":43.98550000,"lon":-94.55269444,"rng_nm":50,"alt_fmsl":0,"id":"JYG","desc":"ST JAMES NDB"},
{"type":"VOR","hdg_t":169,"dist_nm":61.1,"freq":109.8,"lat":43.68172222,"lon":-93.37075000,"rng_nm":25,"alt_fmsl":1265,"id":"AEL","desc":"ALBERT LEA VOR-DME"},
{"type":"VOR","hdg_t":259,"dist_nm":65.2,"freq":113.3,"lat":44.46727778,"lon":-95.12822222,"rng_nm":130,"alt_fmsl":1061,"id":"RWF","desc":"REDWOOD FALLS VOR-DME"},
{"type":"VOR","hdg_t":293.3,"dist_nm":67.2,"freq":113.7,"lat":45.11752800,"lon":-95.09061100,"rng_nm":25,"alt_fmsl":1120,"id":"ILL","desc":"WILLMAR VOR-DME"},
{"type":"NDB","hdg_t":25.1,"dist_nm":67.3,"freq":282,"lat":45.69680556,"lon":-92.95575000,"rng_nm":50,"alt_fmsl":0,"id":"ROS","desc":"RUSH CITY NDB"},
{"type":"NDB","hdg_t":197.1,"dist_nm":68.1,"freq":332,"lat":43.59702778,"lon":-94.09686111,"rng_nm":50,"alt_fmsl":0,"id":"SBU","desc":"BLUE EARTH NDB"},
{"type":"VOR","hdg_t":292.8,"dist_nm":68.6,"freq":113.7,"lat":45.11766667,"lon":-95.12705556,"rng_nm":25,"alt_fmsl":1125,"id":"BDH","desc":"WILLMAR VOR-DME"},
{"type":"VOR","hdg_t":139.9,"dist_nm":70.2,"freq":112,"lat":43.78286111,"lon":-92.59691667,"rng_nm":40,"alt_fmsl":1389,"id":"RST","desc":"ROCHESTER VOR-DME"},
{"type":"VOR","hdg_t":208.8,"dist_nm":70.8,"freq":110.2,"lat":43.64597222,"lon":-94.42255556,"rng_nm":40,"alt_fmsl":1164,"id":"FRM","desc":"FAIRMONT VOR-DME"},
{"type":"NDB","hdg_t":132.8,"dist_nm":72.5,"freq":329,"lat":43.85436700,"lon":-92.41167500,"rng_nm":25,"alt_fmsl":1263,"id":"RS","desc":"MINGO NDB"},
{"type":"NDB","hdg_t":204,"dist_nm":72.7,"freq":420,"lat":43.57363889,"lon":-94.31797222,"rng_nm":50,"alt_fmsl":0,"id":"FQ","desc":"MONTZ NDB"},
{"type":"VOR","hdg_t":154.7,"dist_nm":73.3,"freq":108.2,"lat":43.57625000,"lon":-92.91866667,"rng_nm":25,"alt_fmsl":1233,"id":"JAY","desc":"AUSTIN VOR-DME"},
{"type":"NDB","hdg_t":12,"dist_nm":74,"freq":327,"lat":45.89027778,"lon":-93.26922222,"rng_nm":50,"alt_fmsl":0,"id":"JMR","desc":"MORA NDB"},
{"type":"NDB","hdg_t":234.3,"dist_nm":78.6,"freq":203,"lat":43.90938889,"lon":-95.10916667,"rng_nm":50,"alt_fmsl":0,"id":"MWM","desc":"WINDOM NDB"},
{"type":"NDB","hdg_t":338.5,"dist_nm":80.7,"freq":359,"lat":45.93341667,"lon":-94.34161111,"rng_nm":50,"alt_fmsl":0,"id":"LXL","desc":"LITTLE FALLS NDB"},
{"type":"NDB","hdg_t":223.6,"dist_nm":85.2,"freq":353,"lat":43.64688889,"lon":-94.98597222,"rng_nm":50,"alt_fmsl":0,"id":"MJQ","desc":"JACKSON NDB"},
{"type":"VOR","hdg_t":37.6,"dist_nm":86.7,"freq":109.4,"lat":45.82044444,"lon":-92.37452778,"rng_nm":40,"alt_fmsl":987,"id":"RZN","desc":"SIREN VOR-DME"},
{"type":"NDB","hdg_t":179.5,"dist_nm":86.8,"freq":359,"lat":43.23580556,"lon":-93.62083333,"rng_nm":50,"alt_fmsl":0,"id":"FXY","desc":"FOREST CITY NDB"},
{"type":"NDB","hdg_t":63.3,"dist_nm":86.8,"freq":221,"lat":45.31747222,"lon":-91.80277778,"rng_nm":50,"alt_fmsl":0,"id":"RP","desc":"WICKR NDB"},
{"type":"NDB","hdg_t":37.8,"dist_nm":86.9,"freq":203,"lat":45.82127778,"lon":-92.36641667,"rng_nm":50,"alt_fmsl":0,"id":"BXR","desc":"BIG DOCTOR NDB"},
{"type":"NDB","hdg_t":340.6,"dist_nm":88.9,"freq":404,"lat":46.07919444,"lon":-94.34347222,"rng_nm":50,"alt_fmsl":0,"id":"XCR","desc":"RIPLEY NDB"},
{"type":"SDME","hdg_t":340.4,"dist_nm":89.7,"freq":111.1,"lat":46.09097500,"lon":-94.35498600,"rng_nm":130,"alt_fmsl":1149,"id":"RYM","desc":"CAMP RIPLEY TACAN"},
{"type":"VOR","hdg_t":212.4,"dist_nm":90.2,"freq":110.4,"lat":43.40930556,"lon":-94.74444444,"rng_nm":25,"alt_fmsl":0,"id":"EST","desc":"ESTHERVILLE VOR"},
{"type":"VOR","hdg_t":281.8,"dist_nm":90.2,"freq":111.6,"lat":44.97266667,"lon":-95.71219444,"rng_nm":25,"alt_fmsl":1037,"id":"MVE","desc":"MONTEVIDEO VOR-DME"},
{"type":"VOR","hdg_t":60.2,"dist_nm":90.4,"freq":110,"lat":45.41519444,"lon":-91.77800000,"rng_nm":25,"alt_fmsl":1092,"id":"RPD","desc":"RICE LAKE VOR-DME"},
{"type":"VOR","hdg_t":112.9,"dist_nm":90.7,"freq":111.4,"lat":44.07622222,"lon":-91.70572222,"rng_nm":25,"alt_fmsl":653,"id":"ONA","desc":"WINONA VOR-DME"},
{"type":"NDB","hdg_t":309.5,"dist_nm":91.7,"freq":346,"lat":45.64430556,"lon":-95.31830556,"rng_nm":50,"alt_fmsl":0,"id":"GHW","desc":"GLENWOOD NDB"},
{"type":"NDB","hdg_t":211.2,"dist_nm":93,"freq":345,"lat":43.35152778,"lon":-94.73777778,"rng_nm":50,"alt_fmsl":0,"id":"PUF","desc":"PUFF NDB"},
{"type":"VOR","hdg_t":81.3,"dist_nm":93.1,"freq":112.9,"lat":44.89766667,"lon":-91.47855556,"rng_nm":40,"alt_fmsl":804,"id":"EAU","desc":"EAU CLAIRE VORTAC"},
{"type":"NDB","hdg_t":294.9,"dist_nm":94,"freq":239,"lat":45.32719444,"lon":-95.65091667,"rng_nm":50,"alt_fmsl":0,"id":"BBB","desc":"BENSON NDB"},
{"type":"NDB","hdg_t":58.9,"dist_nm":94.4,"freq":407,"lat":45.47955600,"lon":-91.72072200,"rng_nm":25,"alt_fmsl":1140,"id":"RIE","desc":"RICE LAKE NDB"},
{"type":"VOR","hdg_t":262.2,"dist_nm":94.8,"freq":111,"lat":44.44841667,"lon":-95.82477778,"rng_nm":25,"alt_fmsl":1180,"id":"MML","desc":"MARSHALL VOR-DME"},
{"type":"NDB","hdg_t":113.2,"dist_nm":95.8,"freq":264,"lat":44.03479435,"lon":-91.60121996,"rng_nm":15,"alt_fmsl":656,"id":"ON","desc":"BOLLN LOM"},
{"type":"VOR","hdg_t":171.9,"dist_nm":96.2,"freq":114.9,"lat":43.09475000,"lon":-93.32986111,"rng_nm":130,"alt_fmsl":1209,"id":"MCW","desc":"MASON CITY VORTAC"},
{"type":"NDB","hdg_t":313.8,"dist_nm":97,"freq":281,"lat":45.79171200,"lon":-95.30547900,"rng_nm":25,"alt_fmsl":1404,"id":"AJW","desc":"ANDRI NDB"},
{"type":"NDB","hdg_t":313.8,"dist_nm":97.1,"freq":374,"lat":45.79172222,"lon":-95.30552778,"rng_nm":50,"alt_fmsl":0,"id":"EE","desc":"TAMIE (LOM) NDB"},
{"type":"NDB","hdg_t":79.9,"dist_nm":97.9,"freq":239,"lat":44.94475000,"lon":-91.37366667,"rng_nm":50,"alt_fmsl":0,"id":"EA","desc":"MAGGS NDB"},
{"type":"NDB","hdg_t":264.4,"dist_nm":98.1,"freq":253,"lat":44.50175000,"lon":-95.91097222,"rng_nm":50,"alt_fmsl":0,"id":"GB","desc":"GARNO NDB"},
{"type":"NDB","hdg_t":172,"dist_nm":98.7,"freq":348,"lat":43.05261111,"lon":-93.32775000,"rng_nm":50,"alt_fmsl":0,"id":"MC","desc":"SURFF NDB"},
{"type":"NDB","hdg_t":196.2,"dist_nm":99.9,"freq":403,"lat":43.08136111,"lon":-94.27247222,"rng_nm":50,"alt_fmsl":0,"id":"AXA","desc":"ALGONA NDB"}
]
}
