{"success":true,"source":"xp2csv.pl","last_updated":"2013/11/08 14:53:21 UTC"
,"icao":"MN66","name":"Ingleside","lat":45.08107416,"lon":-93.66829584,"rwys":1,"ils":0,"index":1417665,"path":"w100n40/w094n45"
,"runways":[
{"len_m":519,"wid_m":13.72,"hdg":83,"surf":"Turf/grass","rwy1":"08","lat1":45.08079002,"lon1":-93.67157319,"rwy2":"26","lat2":45.08135830,"lon2":-93.66501849}
]
,"navaids":[
{"type":"VOR","hdg_t":72.7,"dist_nm":13.1,"freq":117.3,"lat":45.14569444,"lon":-93.37319444,"rng_nm":130,"alt_fmsl":877,"id":"GEP","desc":"GOPHER VORTAC"},
{"type":"VOR","hdg_t":147.8,"dist_nm":18.1,"freq":117.7,"lat":44.82536111,"lon":-93.44269444,"rng_nm":40,"alt_fmsl":900,"id":"FCM","desc":"FLYING CLOUD VOR-DME"},
{"type":"VOR","hdg_t":120.9,"dist_nm":21.4,"freq":115.3,"lat":44.89650000,"lon":-93.23652778,"rng_nm":130,"alt_fmsl":831,"id":"MSP","desc":"MINNEAPOLIS VOR-DME"},
{"type":"NDB","hdg_t":134.8,"dist_nm":21.8,"freq":338,"lat":44.82411100,"lon":-93.30583300,"rng_nm":25,"alt_fmsl":0,"id":"AP","desc":"VAGEY NDB"},
{"type":"NDB","hdg_t":222.9,"dist_nm":26.2,"freq":407,"lat":44.76063889,"lon":-94.08666667,"rng_nm":50,"alt_fmsl":0,"id":"GYL","desc":"GLENCOE NDB"},
{"type":"NDB","hdg_t":332,"dist_nm":27,"freq":342,"lat":45.47894444,"lon":-93.96869444,"rng_nm":50,"alt_fmsl":0,"id":"ST","desc":"HUSSK NDB"},
{"type":"NDB","hdg_t":5,"dist_nm":29.1,"freq":368,"lat":45.56466667,"lon":-93.60761111,"rng_nm":50,"alt_fmsl":0,"id":"PNM","desc":"PRINCETON NDB"},
{"type":"NDB","hdg_t":114.5,"dist_nm":32,"freq":385,"lat":44.85675000,"lon":-92.98444444,"rng_nm":50,"alt_fmsl":0,"id":"BA","desc":"BABCO NDB"},
{"type":"VOR","hdg_t":329.6,"dist_nm":32.5,"freq":112.1,"lat":45.54930556,"lon":-94.05861111,"rng_nm":25,"alt_fmsl":1023,"id":"STC","desc":"ST CLOUD VOR-DME"},
{"type":"NDB","hdg_t":30.8,"dist_nm":33.3,"freq":350,"lat":45.55769444,"lon":-93.26211111,"rng_nm":50,"alt_fmsl":0,"id":"CBG","desc":"CAMBRIDGE NDB"},
{"type":"NDB","hdg_t":111.6,"dist_nm":33.3,"freq":400,"lat":44.87336111,"lon":-92.94200000,"rng_nm":50,"alt_fmsl":0,"id":"PPI","desc":"HOPEY NDB"},
{"type":"VOR","hdg_t":270.9,"dist_nm":33.3,"freq":109,"lat":45.08747222,"lon":-94.45386111,"rng_nm":40,"alt_fmsl":1130,"id":"DWN","desc":"DARWIN VORTAC"},
{"type":"VOR","hdg_t":142.2,"dist_nm":34,"freq":115.7,"lat":44.63094444,"lon":-93.18205556,"rng_nm":130,"alt_fmsl":972,"id":"FGT","desc":"FARMINGTON VORTAC"},
{"type":"NDB","hdg_t":71.3,"dist_nm":43.8,"freq":233,"lat":45.31038900,"lon":-92.68808300,"rng_nm":25,"alt_fmsl":944,"id":"OEO","desc":"OSCEOLA NDB"},
{"type":"NDB","hdg_t":38.9,"dist_nm":47.6,"freq":282,"lat":45.69680556,"lon":-92.95575000,"rng_nm":50,"alt_fmsl":0,"id":"ROS","desc":"RUSH CITY NDB"},
{"type":"NDB","hdg_t":84.8,"dist_nm":48.3,"freq":257,"lat":45.14725000,"lon":-92.53344444,"rng_nm":50,"alt_fmsl":0,"id":"RNH","desc":"NEW RICHMOND NDB"},
{"type":"NDB","hdg_t":18.9,"dist_nm":51.4,"freq":327,"lat":45.89027778,"lon":-93.26922222,"rng_nm":50,"alt_fmsl":0,"id":"JMR","desc":"MORA NDB"},
{"type":"NDB","hdg_t":123.2,"dist_nm":52.3,"freq":274,"lat":44.59783333,"lon":-92.64747222,"rng_nm":50,"alt_fmsl":0,"id":"RG","desc":"REGUE NDB"},
{"type":"VOR","hdg_t":191.5,"dist_nm":52.7,"freq":110.8,"lat":44.21991667,"lon":-93.91236111,"rng_nm":40,"alt_fmsl":1026,"id":"MKT","desc":"MANKATO VOR-DME"},
{"type":"VOR","hdg_t":166.2,"dist_nm":54.1,"freq":111.2,"lat":44.20444444,"lon":-93.37050000,"rng_nm":25,"alt_fmsl":1100,"id":"FOW","desc":"HALFWAY VOR-DME"},
{"type":"NDB","hdg_t":218,"dist_nm":57.9,"freq":272,"lat":44.31802778,"lon":-94.49802778,"rng_nm":50,"alt_fmsl":0,"id":"ULM","desc":"NEW ULM NDB"},
{"type":"NDB","hdg_t":120,"dist_nm":58.2,"freq":394,"lat":44.58885600,"lon":-92.49213300,"rng_nm":25,"alt_fmsl":782,"id":"RGK","desc":"RED WING NDB"},
{"type":"NDB","hdg_t":331.1,"dist_nm":58.5,"freq":359,"lat":45.93341667,"lon":-94.34161111,"rng_nm":50,"alt_fmsl":0,"id":"LXL","desc":"LITTLE FALLS NDB"},
{"type":"VOR","hdg_t":272.5,"dist_nm":60.4,"freq":113.7,"lat":45.11752800,"lon":-95.09061100,"rng_nm":25,"alt_fmsl":1120,"id":"ILL","desc":"WILLMAR VOR-DME"},
{"type":"VOR","hdg_t":272.5,"dist_nm":62,"freq":113.7,"lat":45.11766667,"lon":-95.12705556,"rng_nm":25,"alt_fmsl":1125,"id":"BDH","desc":"WILLMAR VOR-DME"},
{"type":"NDB","hdg_t":159.8,"dist_nm":64.3,"freq":379,"lat":44.07383333,"lon":-93.15527778,"rng_nm":50,"alt_fmsl":0,"id":"OW","desc":"TONNA NDB"},
{"type":"NDB","hdg_t":334.8,"dist_nm":66.3,"freq":404,"lat":46.07919444,"lon":-94.34347222,"rng_nm":50,"alt_fmsl":0,"id":"XCR","desc":"RIPLEY NDB"},
{"type":"SDME","hdg_t":334.7,"dist_nm":67.1,"freq":111.1,"lat":46.09097500,"lon":-94.35498600,"rng_nm":130,"alt_fmsl":1149,"id":"RYM","desc":"CAMP RIPLEY TACAN"},
{"type":"VOR","hdg_t":50.4,"dist_nm":70.3,"freq":109.4,"lat":45.82044444,"lon":-92.37452778,"rng_nm":40,"alt_fmsl":987,"id":"RZN","desc":"SIREN VOR-DME"},
{"type":"NDB","hdg_t":50.6,"dist_nm":70.6,"freq":203,"lat":45.82127778,"lon":-92.36641667,"rng_nm":50,"alt_fmsl":0,"id":"BXR","desc":"BIG DOCTOR NDB"},
{"type":"VOR","hdg_t":239.9,"dist_nm":72.4,"freq":113.3,"lat":44.46727778,"lon":-95.12822222,"rng_nm":130,"alt_fmsl":1061,"id":"RWF","desc":"REDWOOD FALLS VOR-DME"},
{"type":"NDB","hdg_t":210.3,"dist_nm":75.9,"freq":260,"lat":43.98550000,"lon":-94.55269444,"rng_nm":50,"alt_fmsl":0,"id":"JYG","desc":"ST JAMES NDB"},
{"type":"NDB","hdg_t":296.4,"dist_nm":77.5,"freq":346,"lat":45.64430556,"lon":-95.31830556,"rng_nm":50,"alt_fmsl":0,"id":"GHW","desc":"GLENWOOD NDB"},
{"type":"VOR","hdg_t":348.9,"dist_nm":77.5,"freq":116.9,"lat":46.34822222,"lon":-94.02588889,"rng_nm":130,"alt_fmsl":1260,"id":"BRD","desc":"BRAINERD VORTAC"},
{"type":"NDB","hdg_t":79.1,"dist_nm":80.4,"freq":221,"lat":45.31747222,"lon":-91.80277778,"rng_nm":50,"alt_fmsl":0,"id":"RP","desc":"WICKR NDB"},
{"type":"NDB","hdg_t":302.2,"dist_nm":81.2,"freq":281,"lat":45.79171200,"lon":-95.30547900,"rng_nm":25,"alt_fmsl":1404,"id":"AJW","desc":"ANDRI NDB"},
{"type":"NDB","hdg_t":302.2,"dist_nm":81.2,"freq":374,"lat":45.79172222,"lon":-95.30552778,"rng_nm":50,"alt_fmsl":0,"id":"EE","desc":"TAMIE (LOM) NDB"},
{"type":"VOR","hdg_t":75.2,"dist_nm":82.5,"freq":110,"lat":45.41519444,"lon":-91.77800000,"rng_nm":25,"alt_fmsl":1092,"id":"RPD","desc":"RICE LAKE VOR-DME"},
{"type":"NDB","hdg_t":349.9,"dist_nm":83.8,"freq":251,"lat":46.45658333,"lon":-94.02250000,"rng_nm":50,"alt_fmsl":0,"id":"BR","desc":"LAREW NDB"},
{"type":"VOR","hdg_t":309.1,"dist_nm":84.4,"freq":112.8,"lat":45.95838889,"lon":-95.23263889,"rng_nm":40,"alt_fmsl":1367,"id":"AXN","desc":"ALEXANDRIA VOR-DME"},
{"type":"VOR","hdg_t":171.2,"dist_nm":84.9,"freq":109.8,"lat":43.68172222,"lon":-93.37075000,"rng_nm":25,"alt_fmsl":1265,"id":"AEL","desc":"ALBERT LEA VOR-DME"},
{"type":"NDB","hdg_t":280.6,"dist_nm":85.3,"freq":239,"lat":45.32719444,"lon":-95.65091667,"rng_nm":50,"alt_fmsl":0,"id":"BBB","desc":"BENSON NDB"},
{"type":"NDB","hdg_t":73.1,"dist_nm":85.9,"freq":407,"lat":45.47955600,"lon":-91.72072200,"rng_nm":25,"alt_fmsl":1140,"id":"RIE","desc":"RICE LAKE NDB"},
{"type":"VOR","hdg_t":266.4,"dist_nm":87.2,"freq":111.6,"lat":44.97266667,"lon":-95.71219444,"rng_nm":25,"alt_fmsl":1037,"id":"MVE","desc":"MONTEVIDEO VOR-DME"},
{"type":"NDB","hdg_t":24,"dist_nm":87.9,"freq":362,"lat":46.41650000,"lon":-92.80475000,"rng_nm":50,"alt_fmsl":0,"id":"MZH","desc":"MOOSE LAKE NDB"},
{"type":"NDB","hdg_t":359.8,"dist_nm":88,"freq":397,"lat":46.54830556,"lon":-93.67544444,"rng_nm":50,"alt_fmsl":0,"id":"AIT","desc":"AITKIN NDB"},
{"type":"VOR","hdg_t":149,"dist_nm":90.4,"freq":112,"lat":43.78286111,"lon":-92.59691667,"rng_nm":40,"alt_fmsl":1389,"id":"RST","desc":"ROCHESTER VOR-DME"},
{"type":"NDB","hdg_t":191.8,"dist_nm":90.9,"freq":332,"lat":43.59702778,"lon":-94.09686111,"rng_nm":50,"alt_fmsl":0,"id":"SBU","desc":"BLUE EARTH NDB"},
{"type":"NDB","hdg_t":143.2,"dist_nm":91.2,"freq":329,"lat":43.85436700,"lon":-92.41167500,"rng_nm":25,"alt_fmsl":1263,"id":"RS","desc":"MINGO NDB"},
{"type":"NDB","hdg_t":328.9,"dist_nm":91.5,"freq":257,"lat":46.38230556,"lon":-94.80491667,"rng_nm":50,"alt_fmsl":0,"id":"SAZ","desc":"STAPLES NDB"},
{"type":"VOR","hdg_t":200.9,"dist_nm":92,"freq":110.2,"lat":43.64597222,"lon":-94.42255556,"rng_nm":40,"alt_fmsl":1164,"id":"FRM","desc":"FAIRMONT VOR-DME"},
{"type":"NDB","hdg_t":221.8,"dist_nm":93.6,"freq":203,"lat":43.90938889,"lon":-95.10916667,"rng_nm":50,"alt_fmsl":0,"id":"MWM","desc":"WINDOM NDB"},
{"type":"VOR","hdg_t":95.9,"dist_nm":93.8,"freq":112.9,"lat":44.89766667,"lon":-91.47855556,"rng_nm":40,"alt_fmsl":804,"id":"EAU","desc":"EAU CLAIRE VORTAC"},
{"type":"NDB","hdg_t":197.4,"dist_nm":94.6,"freq":420,"lat":43.57363889,"lon":-94.31797222,"rng_nm":50,"alt_fmsl":0,"id":"FQ","desc":"MONTZ NDB"},
{"type":"VOR","hdg_t":160,"dist_nm":95.8,"freq":108.2,"lat":43.57625000,"lon":-92.91866667,"rng_nm":25,"alt_fmsl":1233,"id":"JAY","desc":"AUSTIN VOR-DME"},
{"type":"NDB","hdg_t":93.9,"dist_nm":98,"freq":239,"lat":44.94475000,"lon":-91.37366667,"rng_nm":50,"alt_fmsl":0,"id":"EA","desc":"MAGGS NDB"},
{"type":"VOR","hdg_t":248.3,"dist_nm":99.6,"freq":111,"lat":44.44841667,"lon":-95.82477778,"rng_nm":25,"alt_fmsl":1180,"id":"MML","desc":"MARSHALL VOR-DME"},
{"type":"NDB","hdg_t":275.9,"dist_nm":99.7,"freq":356,"lat":45.22847222,"lon":-96.00955556,"rng_nm":50,"alt_fmsl":0,"id":"AQP","desc":"APPLETON NDB"}
]
}
