{"success":true,"source":"xp2csv.pl","last_updated":"2013/11/08 14:53:21 UTC"
,"icao":"MN97","name":"Thens Private Airstrip","lat":45.59024277,"lon":-94.20443584,"rwys":1,"ils":0,"index":1401315,"path":"w100n40/w095n45"
,"runways":[
{"len_m":670,"wid_m":22.86,"hdg":184,"surf":"Turf/grass","rwy1":"18","lat1":45.59325270,"lon1":-94.20413507,"rwy2":"36","lat2":45.58723284,"lon2":-94.20473661}
]
,"navaids":[
{"type":"VOR","hdg_t":111.7,"dist_nm":6.6,"freq":112.1,"lat":45.54930556,"lon":-94.05861111,"rng_nm":25,"alt_fmsl":1023,"id":"STC","desc":"ST CLOUD VOR-DME"},
{"type":"NDB","hdg_t":123.8,"dist_nm":11.9,"freq":342,"lat":45.47894444,"lon":-93.96869444,"rng_nm":50,"alt_fmsl":0,"id":"ST","desc":"HUSSK NDB"},
{"type":"NDB","hdg_t":344.4,"dist_nm":21.3,"freq":359,"lat":45.93341667,"lon":-94.34161111,"rng_nm":50,"alt_fmsl":0,"id":"LXL","desc":"LITTLE FALLS NDB"},
{"type":"NDB","hdg_t":93.2,"dist_nm":25.1,"freq":368,"lat":45.56466667,"lon":-93.60761111,"rng_nm":50,"alt_fmsl":0,"id":"PNM","desc":"PRINCETON NDB"},
{"type":"NDB","hdg_t":348.8,"dist_nm":29.9,"freq":404,"lat":46.07919444,"lon":-94.34347222,"rng_nm":50,"alt_fmsl":0,"id":"XCR","desc":"RIPLEY NDB"},
{"type":"SDME","hdg_t":348.1,"dist_nm":30.7,"freq":111.1,"lat":46.09097500,"lon":-94.35498600,"rng_nm":130,"alt_fmsl":1149,"id":"RYM","desc":"CAMP RIPLEY TACAN"},
{"type":"VOR","hdg_t":199.3,"dist_nm":31.9,"freq":109,"lat":45.08747222,"lon":-94.45386111,"rng_nm":40,"alt_fmsl":1130,"id":"DWN","desc":"DARWIN VORTAC"},
{"type":"NDB","hdg_t":92.4,"dist_nm":39.7,"freq":350,"lat":45.55769444,"lon":-93.26211111,"rng_nm":50,"alt_fmsl":0,"id":"CBG","desc":"CAMBRIDGE NDB"},
{"type":"NDB","hdg_t":65,"dist_nm":43.2,"freq":327,"lat":45.89027778,"lon":-93.26922222,"rng_nm":50,"alt_fmsl":0,"id":"JMR","desc":"MORA NDB"},
{"type":"VOR","hdg_t":126.8,"dist_nm":44.1,"freq":117.3,"lat":45.14569444,"lon":-93.37319444,"rng_nm":130,"alt_fmsl":877,"id":"GEP","desc":"GOPHER VORTAC"},
{"type":"VOR","hdg_t":9.2,"dist_nm":46.1,"freq":116.9,"lat":46.34822222,"lon":-94.02588889,"rng_nm":130,"alt_fmsl":1260,"id":"BRD","desc":"BRAINERD VORTAC"},
{"type":"NDB","hdg_t":274.3,"dist_nm":47,"freq":346,"lat":45.64430556,"lon":-95.31830556,"rng_nm":50,"alt_fmsl":0,"id":"GHW","desc":"GLENWOOD NDB"},
{"type":"VOR","hdg_t":233.2,"dist_nm":47,"freq":113.7,"lat":45.11752800,"lon":-95.09061100,"rng_nm":25,"alt_fmsl":1120,"id":"ILL","desc":"WILLMAR VOR-DME"},
{"type":"NDB","hdg_t":285,"dist_nm":47.8,"freq":281,"lat":45.79171200,"lon":-95.30547900,"rng_nm":25,"alt_fmsl":1404,"id":"AJW","desc":"ANDRI NDB"},
{"type":"NDB","hdg_t":285,"dist_nm":47.8,"freq":374,"lat":45.79172222,"lon":-95.30552778,"rng_nm":50,"alt_fmsl":0,"id":"EE","desc":"TAMIE (LOM) NDB"},
{"type":"VOR","hdg_t":234.3,"dist_nm":48.2,"freq":113.7,"lat":45.11766667,"lon":-95.12705556,"rng_nm":25,"alt_fmsl":1125,"id":"BDH","desc":"WILLMAR VOR-DME"},
{"type":"VOR","hdg_t":297.4,"dist_nm":48.5,"freq":112.8,"lat":45.95838889,"lon":-95.23263889,"rng_nm":40,"alt_fmsl":1367,"id":"AXN","desc":"ALEXANDRIA VOR-DME"},
{"type":"NDB","hdg_t":174.2,"dist_nm":50,"freq":407,"lat":44.76063889,"lon":-94.08666667,"rng_nm":50,"alt_fmsl":0,"id":"GYL","desc":"GLENCOE NDB"},
{"type":"NDB","hdg_t":8.2,"dist_nm":52.5,"freq":251,"lat":46.45658333,"lon":-94.02250000,"rng_nm":50,"alt_fmsl":0,"id":"BR","desc":"LAREW NDB"},
{"type":"NDB","hdg_t":82.6,"dist_nm":52.9,"freq":282,"lat":45.69680556,"lon":-92.95575000,"rng_nm":50,"alt_fmsl":0,"id":"ROS","desc":"RUSH CITY NDB"},
{"type":"NDB","hdg_t":332.3,"dist_nm":53.7,"freq":257,"lat":46.38230556,"lon":-94.80491667,"rng_nm":50,"alt_fmsl":0,"id":"SAZ","desc":"STAPLES NDB"},
{"type":"VOR","hdg_t":144.5,"dist_nm":56.1,"freq":117.7,"lat":44.82536111,"lon":-93.44269444,"rng_nm":40,"alt_fmsl":900,"id":"FCM","desc":"FLYING CLOUD VOR-DME"},
{"type":"VOR","hdg_t":135,"dist_nm":58.4,"freq":115.3,"lat":44.89650000,"lon":-93.23652778,"rng_nm":130,"alt_fmsl":831,"id":"MSP","desc":"MINNEAPOLIS VOR-DME"},
{"type":"NDB","hdg_t":140,"dist_nm":59.7,"freq":338,"lat":44.82411100,"lon":-93.30583300,"rng_nm":25,"alt_fmsl":0,"id":"AP","desc":"VAGEY NDB"},
{"type":"NDB","hdg_t":20.8,"dist_nm":61.6,"freq":397,"lat":46.54830556,"lon":-93.67544444,"rng_nm":50,"alt_fmsl":0,"id":"AIT","desc":"AITKIN NDB"},
{"type":"NDB","hdg_t":256,"dist_nm":63,"freq":239,"lat":45.32719444,"lon":-95.65091667,"rng_nm":50,"alt_fmsl":0,"id":"BBB","desc":"BENSON NDB"},
{"type":"NDB","hdg_t":104.1,"dist_nm":66.2,"freq":233,"lat":45.31038900,"lon":-92.68808300,"rng_nm":25,"alt_fmsl":944,"id":"OEO","desc":"OSCEOLA NDB"},
{"type":"NDB","hdg_t":129.9,"dist_nm":67.9,"freq":385,"lat":44.85675000,"lon":-92.98444444,"rng_nm":50,"alt_fmsl":0,"id":"BA","desc":"BABCO NDB"},
{"type":"NDB","hdg_t":128.3,"dist_nm":68.6,"freq":400,"lat":44.87336111,"lon":-92.94200000,"rng_nm":50,"alt_fmsl":0,"id":"PPI","desc":"HOPEY NDB"},
{"type":"NDB","hdg_t":353.7,"dist_nm":68.6,"freq":330,"lat":46.72702778,"lon":-94.38500000,"rng_nm":50,"alt_fmsl":0,"id":"PWC","desc":"PINE RIVER NDB"},
{"type":"VOR","hdg_t":142.5,"dist_nm":72.1,"freq":115.7,"lat":44.63094444,"lon":-93.18205556,"rng_nm":130,"alt_fmsl":972,"id":"FGT","desc":"FARMINGTON VORTAC"},
{"type":"VOR","hdg_t":240.4,"dist_nm":73.8,"freq":111.6,"lat":44.97266667,"lon":-95.71219444,"rng_nm":25,"alt_fmsl":1037,"id":"MVE","desc":"MONTEVIDEO VOR-DME"},
{"type":"VOR","hdg_t":269.5,"dist_nm":74.3,"freq":109.6,"lat":45.56580556,"lon":-95.96922222,"rng_nm":25,"alt_fmsl":1132,"id":"MOX","desc":"MORRIS VOR-DME"},
{"type":"NDB","hdg_t":110,"dist_nm":75.5,"freq":257,"lat":45.14725000,"lon":-92.53344444,"rng_nm":50,"alt_fmsl":0,"id":"RNH","desc":"NEW RICHMOND NDB"},
{"type":"NDB","hdg_t":49.2,"dist_nm":76.7,"freq":362,"lat":46.41650000,"lon":-92.80475000,"rng_nm":50,"alt_fmsl":0,"id":"MZH","desc":"MOOSE LAKE NDB"},
{"type":"NDB","hdg_t":189.4,"dist_nm":77.3,"freq":272,"lat":44.31802778,"lon":-94.49802778,"rng_nm":50,"alt_fmsl":0,"id":"ULM","desc":"NEW ULM NDB"},
{"type":"VOR","hdg_t":210.5,"dist_nm":78,"freq":113.3,"lat":44.46727778,"lon":-95.12822222,"rng_nm":130,"alt_fmsl":1061,"id":"RWF","desc":"REDWOOD FALLS VOR-DME"},
{"type":"VOR","hdg_t":79.1,"dist_nm":78.1,"freq":109.4,"lat":45.82044444,"lon":-92.37452778,"rng_nm":40,"alt_fmsl":987,"id":"RZN","desc":"SIREN VOR-DME"},
{"type":"NDB","hdg_t":79.1,"dist_nm":78.5,"freq":203,"lat":45.82127778,"lon":-92.36641667,"rng_nm":50,"alt_fmsl":0,"id":"BXR","desc":"BIG DOCTOR NDB"},
{"type":"NDB","hdg_t":254.7,"dist_nm":79.3,"freq":356,"lat":45.22847222,"lon":-96.00955556,"rng_nm":50,"alt_fmsl":0,"id":"AQP","desc":"APPLETON NDB"},
{"type":"VOR","hdg_t":171.2,"dist_nm":83.1,"freq":110.8,"lat":44.21991667,"lon":-93.91236111,"rng_nm":40,"alt_fmsl":1026,"id":"MKT","desc":"MANKATO VOR-DME"},
{"type":"NDB","hdg_t":359.9,"dist_nm":84.2,"freq":392,"lat":46.99430556,"lon":-94.20650000,"rng_nm":50,"alt_fmsl":0,"id":"XVG","desc":"LONGVILLE NDB"},
{"type":"NDB","hdg_t":296.6,"dist_nm":86.3,"freq":337,"lat":46.21980556,"lon":-96.05769444,"rng_nm":50,"alt_fmsl":0,"id":"FF","desc":"HAMRE NDB"},
{"type":"VOR","hdg_t":335.6,"dist_nm":86.3,"freq":110.6,"lat":46.89813889,"lon":-95.07088889,"rng_nm":40,"alt_fmsl":1441,"id":"PKD","desc":"PARK RAPIDS VOR-DME"},
{"type":"NDB","hdg_t":131.4,"dist_nm":89,"freq":274,"lat":44.59783333,"lon":-92.64747222,"rng_nm":50,"alt_fmsl":0,"id":"RG","desc":"REGUE NDB"},
{"type":"VOR","hdg_t":156.5,"dist_nm":90.4,"freq":111.2,"lat":44.20444444,"lon":-93.37050000,"rng_nm":25,"alt_fmsl":1100,"id":"FOW","desc":"HALFWAY VOR-DME"},
{"type":"NDB","hdg_t":247.2,"dist_nm":91.2,"freq":341,"lat":44.98416667,"lon":-96.17894444,"rng_nm":50,"alt_fmsl":0,"id":"DXX","desc":"DAWSON/MADISON NDB"},
{"type":"VOR","hdg_t":297.8,"dist_nm":91.8,"freq":110.4,"lat":46.28936111,"lon":-96.15680556,"rng_nm":25,"alt_fmsl":1201,"id":"FFM","desc":"FERGUS FALLS VOR-DME"},
{"type":"NDB","hdg_t":128.9,"dist_nm":94.3,"freq":394,"lat":44.58885600,"lon":-92.49213300,"rng_nm":25,"alt_fmsl":782,"id":"RGK","desc":"RED WING NDB"},
{"type":"NDB","hdg_t":260.3,"dist_nm":95.2,"freq":332,"lat":45.30166667,"lon":-96.42080556,"rng_nm":50,"alt_fmsl":0,"id":"VVV","desc":"ORTONVILLE NDB"},
{"type":"NDB","hdg_t":17.7,"dist_nm":97.1,"freq":272,"lat":47.13030556,"lon":-93.48133333,"rng_nm":50,"alt_fmsl":0,"id":"GP","desc":"GALEX NDB"},
{"type":"NDB","hdg_t":46.2,"dist_nm":97.2,"freq":335,"lat":46.69697222,"lon":-92.50300000,"rng_nm":50,"alt_fmsl":0,"id":"COQ","desc":"CLOQUET NDB"},
{"type":"VOR","hdg_t":225.7,"dist_nm":97.2,"freq":111,"lat":44.44841667,"lon":-95.82477778,"rng_nm":25,"alt_fmsl":1180,"id":"MML","desc":"MARSHALL VOR-DME"},
{"type":"NDB","hdg_t":188.9,"dist_nm":97.4,"freq":260,"lat":43.98550000,"lon":-94.55269444,"rng_nm":50,"alt_fmsl":0,"id":"JYG","desc":"ST JAMES NDB"},
{"type":"NDB","hdg_t":228.6,"dist_nm":97.6,"freq":253,"lat":44.50175000,"lon":-95.91097222,"rng_nm":50,"alt_fmsl":0,"id":"GB","desc":"GARNO NDB"},
{"type":"VOR","hdg_t":17.2,"dist_nm":99,"freq":111.4,"lat":47.16361111,"lon":-93.48855556,"rng_nm":40,"alt_fmsl":1400,"id":"GPZ","desc":"GRAND RAPIDS VOR-DME"},
{"type":"NDB","hdg_t":277.5,"dist_nm":99.1,"freq":326,"lat":45.78327778,"lon":-96.54669444,"rng_nm":50,"alt_fmsl":0,"id":"ETH","desc":"WHEATON NDB"}
]
}
