{"success":true,"source":"xp2csv.pl","last_updated":"2013/11/08 14:53:21 UTC"
,"icao":"MO62","name":"Hibbs Farm","lat":40.51026722,"lon":-94.58162945,"rwys":1,"ils":0,"index":1400993,"path":"w100n40/w095n40"
,"runways":[
{"len_m":568,"wid_m":12.19,"hdg":114,"surf":"Turf/grass","rwy1":"11","lat1":40.51134531,"lon1":-94.58467035,"rwy2":"29","lat2":40.50918913,"lon2":-94.57858855}
]
,"navaids":[
{"type":"NDB","hdg_t":302.2,"dist_nm":24,"freq":353,"lat":40.72366667,"lon":-95.02797222,"rng_nm":50,"alt_fmsl":0,"id":"ICL","desc":"CLARINDA NDB"},
{"type":"VOR","hdg_t":79.3,"dist_nm":28.5,"freq":116.7,"lat":40.59675000,"lon":-93.96758333,"rng_nm":130,"alt_fmsl":1140,"id":"LMN","desc":"LAMONI VORTAC"},
{"type":"NDB","hdg_t":21.6,"dist_nm":28.8,"freq":379,"lat":40.95744444,"lon":-94.34725000,"rng_nm":50,"alt_fmsl":0,"id":"UNE","desc":"UNION CO NDB"},
{"type":"NDB","hdg_t":344.7,"dist_nm":30.2,"freq":278,"lat":40.99638889,"lon":-94.75691667,"rng_nm":50,"alt_fmsl":0,"id":"CRZ","desc":"CORNING NDB"},
{"type":"VOR","hdg_t":205.7,"dist_nm":36.5,"freq":115.5,"lat":39.96058333,"lon":-94.92522222,"rng_nm":130,"alt_fmsl":1160,"id":"STJ","desc":"ST JOSEPH VORTAC"},
{"type":"NDB","hdg_t":201.8,"dist_nm":40.4,"freq":233,"lat":39.88380556,"lon":-94.90813889,"rng_nm":50,"alt_fmsl":0,"id":"AZN","desc":"AMAZON NDB"},
{"type":"NDB","hdg_t":291.2,"dist_nm":40.4,"freq":411,"lat":40.75169444,"lon":-95.40750000,"rng_nm":50,"alt_fmsl":0,"id":"SDA","desc":"SHENANDOAH NDB"},
{"type":"NDB","hdg_t":314.7,"dist_nm":43.1,"freq":230,"lat":41.01525000,"lon":-95.25575000,"rng_nm":50,"alt_fmsl":0,"id":"RDK","desc":"RED OAK NDB"},
{"type":"NDB","hdg_t":162.9,"dist_nm":48.9,"freq":394,"lat":39.72941667,"lon":-94.27230556,"rng_nm":50,"alt_fmsl":0,"id":"EZZ","desc":"CAMERON NDB"},
{"type":"NDB","hdg_t":119.2,"dist_nm":52.1,"freq":400,"lat":40.08027778,"lon":-93.59300000,"rng_nm":50,"alt_fmsl":0,"id":"TRX","desc":"TRENTON NDB"},
{"type":"NDB","hdg_t":196.7,"dist_nm":52.2,"freq":260,"lat":39.67572222,"lon":-94.90683333,"rng_nm":50,"alt_fmsl":0,"id":"ST","desc":"TARIO NDB"},
{"type":"NDB","hdg_t":240.9,"dist_nm":52.9,"freq":404,"lat":40.07633333,"lon":-95.58688889,"rng_nm":50,"alt_fmsl":0,"id":"FNB","desc":"BRENNER NDB"},
{"type":"VOR","hdg_t":224.6,"dist_nm":55.3,"freq":108.2,"lat":39.85083333,"lon":-95.42305556,"rng_nm":40,"alt_fmsl":1126,"id":"RBA","desc":"ROBINSON VOR-DME"},
{"type":"NDB","hdg_t":338.6,"dist_nm":57.6,"freq":365,"lat":41.40397222,"lon":-95.04625000,"rng_nm":50,"alt_fmsl":0,"id":"AIO","desc":"ATLANTIC NDB"},
{"type":"NDB","hdg_t":275.9,"dist_nm":58.7,"freq":347,"lat":40.60555556,"lon":-95.86083333,"rng_nm":50,"alt_fmsl":0,"id":"AFK","desc":"NEBRASKA CITY NDB"},
{"type":"VOR","hdg_t":148.1,"dist_nm":61.9,"freq":111.2,"lat":39.63055556,"lon":-93.87527778,"rng_nm":40,"alt_fmsl":930,"id":"BQS","desc":"BRAYMER VOR-DME"},
{"type":"NDB","hdg_t":60.9,"dist_nm":63.3,"freq":335,"lat":41.01675000,"lon":-93.36194444,"rng_nm":50,"alt_fmsl":0,"id":"CNC","desc":"CHARITON NDB"},
{"type":"VOR","hdg_t":307.2,"dist_nm":65.7,"freq":116.3,"lat":41.16727778,"lon":-95.73672222,"rng_nm":130,"alt_fmsl":1300,"id":"OVR","desc":"OMAHA VORTAC"},
{"type":"NDB","hdg_t":293.6,"dist_nm":66,"freq":329,"lat":40.94377778,"lon":-95.91247222,"rng_nm":50,"alt_fmsl":0,"id":"PMV","desc":"PLATTSMOUTH NDB"},
{"type":"NDB","hdg_t":130.9,"dist_nm":66.6,"freq":375,"lat":39.77711111,"lon":-93.49419444,"rng_nm":50,"alt_fmsl":0,"id":"CHT","desc":"CHILLICOTHE NDB"},
{"type":"NDB","hdg_t":183.7,"dist_nm":67.4,"freq":275,"lat":39.38691667,"lon":-94.67697222,"rng_nm":50,"alt_fmsl":0,"id":"DY","desc":"LEXEY NDB"},
{"type":"VOR","hdg_t":37,"dist_nm":69.9,"freq":117.5,"lat":41.43761111,"lon":-93.64855556,"rng_nm":130,"alt_fmsl":951,"id":"DSM","desc":"DES MOINES VORTAC"},
{"type":"SDME","hdg_t":301.6,"dist_nm":70.2,"freq":111.7,"lat":41.11722800,"lon":-95.90000300,"rng_nm":40,"alt_fmsl":1090,"id":"OFF","desc":"OFFUTT TACAN"},
{"type":"NDB","hdg_t":307.4,"dist_nm":70.5,"freq":426,"lat":41.21958333,"lon":-95.81791667,"rng_nm":50,"alt_fmsl":0,"id":"EN","desc":"RIKKY NDB"},
{"type":"NDB","hdg_t":348.2,"dist_nm":72.3,"freq":266,"lat":41.69027778,"lon":-94.90997222,"rng_nm":50,"alt_fmsl":0,"id":"ADU","desc":"AUDUBON NDB"},
{"type":"NDB","hdg_t":331.9,"dist_nm":72.7,"freq":272,"lat":41.57897222,"lon":-95.34097222,"rng_nm":50,"alt_fmsl":0,"id":"HNR","desc":"HARLAN NDB"},
{"type":"NDB","hdg_t":189.8,"dist_nm":73.5,"freq":416,"lat":39.30197222,"lon":-94.85111111,"rng_nm":50,"alt_fmsl":0,"id":"RN","desc":"HUGGY NDB"},
{"type":"VOR","hdg_t":185.6,"dist_nm":73.7,"freq":113.25,"lat":39.28527778,"lon":-94.73705556,"rng_nm":130,"alt_fmsl":1017,"id":"MCI","desc":"KANSAS CITY VORTAC"},
{"type":"NDB","hdg_t":37.6,"dist_nm":73.9,"freq":344,"lat":41.48213889,"lon":-93.58072222,"rng_nm":50,"alt_fmsl":0,"id":"DS","desc":"FOREM NDB"},
{"type":"VOR","hdg_t":256.5,"dist_nm":76.8,"freq":112.4,"lat":40.20036111,"lon":-96.20627778,"rng_nm":130,"alt_fmsl":1360,"id":"PWE","desc":"PAWNEE CITY VORTAC"},
{"type":"NDB","hdg_t":179.4,"dist_nm":77.3,"freq":344,"lat":39.22080556,"lon":-94.56433333,"rng_nm":50,"alt_fmsl":0,"id":"MK","desc":"KENZY NDB"},
{"type":"NDB","hdg_t":185.7,"dist_nm":77.6,"freq":359,"lat":39.22088889,"lon":-94.74991667,"rng_nm":50,"alt_fmsl":0,"id":"DO","desc":"DOTTE NDB"},
{"type":"NDB","hdg_t":312.2,"dist_nm":80.1,"freq":513,"lat":41.40175000,"lon":-95.89391667,"rng_nm":50,"alt_fmsl":0,"id":"PP","desc":"FLICK NDB"},
{"type":"NDB","hdg_t":309.8,"dist_nm":80.9,"freq":320,"lat":41.36677778,"lon":-95.95630556,"rng_nm":50,"alt_fmsl":0,"id":"OM","desc":"GERFI NDB"},
{"type":"NDB","hdg_t":300.9,"dist_nm":80.9,"freq":371,"lat":41.19486111,"lon":-96.11405556,"rng_nm":50,"alt_fmsl":0,"id":"MLE","desc":"MILLARD NDB"},
{"type":"NDB","hdg_t":122.9,"dist_nm":81.1,"freq":383,"lat":39.76419444,"lon":-93.10908333,"rng_nm":50,"alt_fmsl":0,"id":"BZK","desc":"BROOKFIELD NDB"},
{"type":"VOR","hdg_t":180.4,"dist_nm":83.3,"freq":111.4,"lat":39.12038889,"lon":-94.59658333,"rng_nm":25,"alt_fmsl":740,"id":"RIS","desc":"RIVERSIDE VOR-DME"},
{"type":"VOR","hdg_t":165.9,"dist_nm":87.3,"freq":114,"lat":39.09541667,"lon":-94.12883333,"rng_nm":40,"alt_fmsl":878,"id":"ANX","desc":"NAPOLEON VORTAC"},
{"type":"NDB","hdg_t":6.7,"dist_nm":90.7,"freq":391,"lat":42.01347222,"lon":-94.34269444,"rng_nm":50,"alt_fmsl":0,"id":"EFW","desc":"JEFFERSON NDB"},
{"type":"NDB","hdg_t":53.6,"dist_nm":91.7,"freq":257,"lat":41.40452778,"lon":-92.94463889,"rng_nm":50,"alt_fmsl":0,"id":"PEA","desc":"PELLA NDB"},
{"type":"NDB","hdg_t":26.2,"dist_nm":93.3,"freq":362,"lat":41.90302778,"lon":-93.65888889,"rng_nm":50,"alt_fmsl":0,"id":"EE","desc":"MERLE NDB"},
{"type":"NDB","hdg_t":173.9,"dist_nm":93.4,"freq":263,"lat":38.96068600,"lon":-94.37173900,"rng_nm":25,"alt_fmsl":1041,"id":"LXT","desc":"LESUMIT NDB"},
{"type":"VOR","hdg_t":208.8,"dist_nm":93.6,"freq":117.8,"lat":39.13711111,"lon":-95.54911111,"rng_nm":40,"alt_fmsl":1070,"id":"TOP","desc":"TOPEKA VORTAC"},
{"type":"VOR","hdg_t":103.1,"dist_nm":94,"freq":114.6,"lat":40.13502778,"lon":-92.59172222,"rng_nm":130,"alt_fmsl":985,"id":"IRK","desc":"KIRKSVILLE VORTAC"},
{"type":"NDB","hdg_t":184.4,"dist_nm":94.7,"freq":526,"lat":38.93488845,"lon":-94.73732723,"rng_nm":25,"alt_fmsl":0,"id":"OJ","desc":"Furor LOM"},
{"type":"NDB","hdg_t":338,"dist_nm":95.4,"freq":350,"lat":41.98388889,"lon":-95.37927778,"rng_nm":50,"alt_fmsl":0,"id":"DNS","desc":"DENISON NDB"},
{"type":"NDB","hdg_t":211.8,"dist_nm":97.7,"freq":521,"lat":39.12036111,"lon":-95.68711111,"rng_nm":50,"alt_fmsl":0,"id":"TO","desc":"BILOY NDB"},
{"type":"NDB","hdg_t":81.1,"dist_nm":99.2,"freq":269,"lat":40.74502778,"lon":-92.43047222,"rng_nm":50,"alt_fmsl":0,"id":"BEX","desc":"BLOOMFIELD NDB"},
{"type":"NDB","hdg_t":195.6,"dist_nm":99.3,"freq":338,"lat":38.91363889,"lon":-95.15375000,"rng_nm":50,"alt_fmsl":0,"id":"JZ","desc":"NEWBN NDB"}
]
}
