{"success":true,"source":"xp2csv.pl","last_updated":"2013/11/08 14:53:21 UTC"
,"icao":"MO64","name":"Kimberling Airways","lat":36.60978555,"lon":-93.44463112,"rwys":1,"ils":0,"index":1417122,"path":"w100n30/w094n36"
,"runways":[
{"len_m":793,"wid_m":12.19,"hdg":123,"surf":"Asphalt","rwy1":"12","lat1":36.61177956,"lon1":-93.44831392,"rwy2":"30","lat2":36.60779154,"lon2":-93.44094832}
]
,"navaids":[
{"type":"NDB","hdg_t":84,"dist_nm":10.4,"freq":204,"lat":36.62756400,"lon":-93.22991100,"rng_nm":25,"alt_fmsl":933,"id":"PLK","desc":"POINT LOOKOUT NDB"},
{"type":"VOR","hdg_t":147.2,"dist_nm":20.7,"freq":112.5,"lat":36.31830556,"lon":-93.21327778,"rng_nm":40,"alt_fmsl":1400,"id":"HRO","desc":"HARRISON VOR-DME"},
{"type":"NDB","hdg_t":151.1,"dist_nm":28.6,"freq":395,"lat":36.19105556,"lon":-93.16019444,"rng_nm":50,"alt_fmsl":0,"id":"HR","desc":"BAKKY NDB"},
{"type":"NDB","hdg_t":253.7,"dist_nm":31.4,"freq":263,"lat":36.46113889,"lon":-94.06947222,"rng_nm":50,"alt_fmsl":0,"id":"RO","desc":"ROGRS NDB"},
{"type":"NDB","hdg_t":2.2,"dist_nm":34.2,"freq":404,"lat":37.18022222,"lon":-93.41719444,"rng_nm":50,"alt_fmsl":0,"id":"SG","desc":"COOLE NDB"},
{"type":"VOR","hdg_t":47.6,"dist_nm":36.9,"freq":109.4,"lat":37.02347222,"lon":-92.87691667,"rng_nm":40,"alt_fmsl":1600,"id":"DGD","desc":"DOGWOOD VORTAC"},
{"type":"VOR","hdg_t":236.6,"dist_nm":39.3,"freq":116.4,"lat":36.24641667,"lon":-94.12138889,"rng_nm":130,"alt_fmsl":1331,"id":"RZC","desc":"RAZORBACK VORTAC"},
{"type":"NDB","hdg_t":0.2,"dist_nm":41.3,"freq":254,"lat":37.29940600,"lon":-93.44073100,"rng_nm":50,"alt_fmsl":0,"id":"ILJ","desc":"WILLARD NDB"},
{"type":"VOR","hdg_t":6.7,"dist_nm":45,"freq":116.9,"lat":37.35594444,"lon":-93.33402778,"rng_nm":130,"alt_fmsl":1240,"id":"SGF","desc":"SPRINGFIELD VORTAC"},
{"type":"VOR","hdg_t":286.5,"dist_nm":49.7,"freq":117.3,"lat":36.84244444,"lon":-94.43569444,"rng_nm":130,"alt_fmsl":1200,"id":"EOS","desc":"NEOSHO VOR-DME"},
{"type":"VOR","hdg_t":227.2,"dist_nm":49.8,"freq":108.8,"lat":36.04288889,"lon":-94.19755556,"rng_nm":25,"alt_fmsl":1530,"id":"DAK","desc":"DRAKE VOR-DME"},
{"type":"VOR","hdg_t":110.9,"dist_nm":51.2,"freq":112.8,"lat":36.29963889,"lon":-92.45838889,"rng_nm":40,"alt_fmsl":780,"id":"FLP","desc":"FLIPPIN VOR-DME"},
{"type":"NDB","hdg_t":243.8,"dist_nm":56.4,"freq":284,"lat":36.18925000,"lon":-94.48855556,"rng_nm":50,"alt_fmsl":0,"id":"SLG","desc":"SILOAM SPRINGS NDB"},
{"type":"NDB","hdg_t":303.8,"dist_nm":64.3,"freq":344,"lat":37.20308333,"lon":-94.55858333,"rng_nm":50,"alt_fmsl":0,"id":"JL","desc":"LUNNS NDB"},
{"type":"NDB","hdg_t":321.9,"dist_nm":67,"freq":356,"lat":37.48700000,"lon":-94.31022222,"rng_nm":50,"alt_fmsl":0,"id":"LLU","desc":"SPRING RIVER NDB"},
{"type":"NDB","hdg_t":179.1,"dist_nm":68.3,"freq":201,"lat":35.46925000,"lon":-93.42352778,"rng_nm":50,"alt_fmsl":0,"id":"CZE","desc":"CLARKSVILLE NDB"},
{"type":"NDB","hdg_t":33,"dist_nm":68.8,"freq":414,"lat":37.57127778,"lon":-92.65780556,"rng_nm":50,"alt_fmsl":0,"id":"IEB","desc":"LEBANON NDB"},
{"type":"VOR","hdg_t":77.6,"dist_nm":76.1,"freq":111.6,"lat":36.87138889,"lon":-91.90000000,"rng_nm":40,"alt_fmsl":1220,"id":"HUW","desc":"HUTTON VOR-DME"},
{"type":"NDB","hdg_t":123.7,"dist_nm":79.1,"freq":348,"lat":35.86757500,"lon":-92.09459700,"rng_nm":25,"alt_fmsl":783,"id":"VLX","desc":"WILCOX NDB"},
{"type":"NDB","hdg_t":309.3,"dist_nm":79.2,"freq":365,"lat":37.44247222,"lon":-94.72655556,"rng_nm":50,"alt_fmsl":0,"id":"PTS","desc":"PITTSBURG NDB"},
{"type":"NDB","hdg_t":168,"dist_nm":82.8,"freq":379,"lat":35.25708333,"lon":-93.09461111,"rng_nm":50,"alt_fmsl":0,"id":"RUE","desc":"RUSSELLVILLE NDB"},
{"type":"VOR","hdg_t":209,"dist_nm":83.5,"freq":110.4,"lat":35.38841667,"lon":-94.27152778,"rng_nm":40,"alt_fmsl":430,"id":"FSM","desc":"FORT SMITH VORTAC"},
{"type":"NDB","hdg_t":206.7,"dist_nm":84.1,"freq":223,"lat":35.35419444,"lon":-94.21700000,"rng_nm":50,"alt_fmsl":0,"id":"FS","desc":"WIZER NDB"},
{"type":"NDB","hdg_t":242.1,"dist_nm":86.1,"freq":215,"lat":35.92722222,"lon":-95.00658333,"rng_nm":50,"alt_fmsl":0,"id":"TQH","desc":"TAHLEQUAH NDB"},
{"type":"NDB","hdg_t":74,"dist_nm":86.5,"freq":365,"lat":36.99394444,"lon":-91.71263889,"rng_nm":50,"alt_fmsl":0,"id":"MNF","desc":"MOUNTAIN VIEW NDB"},
{"type":"VOR","hdg_t":291.7,"dist_nm":90.8,"freq":117.6,"lat":37.15750000,"lon":-95.20363889,"rng_nm":40,"alt_fmsl":930,"id":"OSW","desc":"OSWEGO VORTAC"},
{"type":"NDB","hdg_t":44.2,"dist_nm":91.5,"freq":391,"lat":37.69755556,"lon":-92.10380556,"rng_nm":50,"alt_fmsl":0,"id":"BHN","desc":"BUCKHORN NDB"},
{"type":"NDB","hdg_t":213.3,"dist_nm":91.9,"freq":311,"lat":35.32271111,"lon":-94.47417500,"rng_nm":50,"alt_fmsl":0,"id":"GK","desc":"JEMBO NDB"},
{"type":"VOR","hdg_t":42.2,"dist_nm":92.3,"freq":110,"lat":37.74241667,"lon":-92.13900000,"rng_nm":40,"alt_fmsl":0,"id":"TBN","desc":"FORNEY VOR"},
{"type":"NDB","hdg_t":164,"dist_nm":92.8,"freq":410,"lat":35.11869444,"lon":-92.92516667,"rng_nm":50,"alt_fmsl":0,"id":"MPJ","desc":"MORRILTON NDB"},
{"type":"VOR","hdg_t":24.9,"dist_nm":94.7,"freq":108.4,"lat":38.04061111,"lon":-92.60241667,"rng_nm":40,"alt_fmsl":910,"id":"SHY","desc":"SUNSHINE VOR-DME"},
{"type":"NDB","hdg_t":157.7,"dist_nm":95,"freq":208,"lat":35.13925000,"lon":-92.71238600,"rng_nm":25,"alt_fmsl":320,"id":"BDQ","desc":"BRIDGE NDB"},
{"type":"NDB","hdg_t":318.7,"dist_nm":95.2,"freq":379,"lat":37.79688889,"lon":-94.76555556,"rng_nm":50,"alt_fmsl":0,"id":"FSK","desc":"FORT SCOTT NDB"},
{"type":"NDB","hdg_t":132.8,"dist_nm":95.7,"freq":256,"lat":35.51432800,"lon":-92.01106500,"rng_nm":25,"alt_fmsl":625,"id":"HBZ","desc":"HEBER SPRINGS NDB"},
{"type":"NDB","hdg_t":123.6,"dist_nm":96.7,"freq":335,"lat":35.70322222,"lon":-91.79769444,"rng_nm":50,"alt_fmsl":0,"id":"BV","desc":"ALMND NDB"},
{"type":"NDB","hdg_t":222.5,"dist_nm":97.8,"freq":520,"lat":35.39858333,"lon":-94.79422222,"rng_nm":50,"alt_fmsl":0,"id":"IQS","desc":"SALLISAW NDB"},
{"type":"NDB","hdg_t":25.3,"dist_nm":98.7,"freq":377,"lat":38.09661111,"lon":-92.55308333,"rng_nm":50,"alt_fmsl":0,"id":"AIZ","desc":"KAISER NDB"},
{"type":"VOR","hdg_t":53,"dist_nm":98.8,"freq":113.4,"lat":37.59077778,"lon":-91.78858333,"rng_nm":40,"alt_fmsl":1370,"id":"MAP","desc":"MAPLES VORTAC"}
]
}
