{"success":true,"source":"xp2csv.pl","last_updated":"2013/11/08 14:53:21 UTC"
,"icao":"MRCX","name":"Laguna San Ignacio","lat":26.854387,"lon":-113.139336,"rwys":1,"ils":0,"index":1088819,"path":"w120n20/w114n26"
,"runways":[
{"len_m":1192,"wid_m":49.99,"hdg":13,"surf":"Dirt","rwy1":"18","lat1":26.84914321,"lon1":-113.14069296,"rwy2":"36","lat2":26.85963079,"lon2":-113.13797904}
]
,"radios":[
{"type":"CTAF","freq":122.8,"desc":"CTAF/UNICOM"}
]
,"navaids":[
{"type":"VOR","hdg_t":58.4,"dist_nm":54.4,"freq":112.6,"lat":27.32826700,"lon":-112.27029200,"rng_nm":130,"alt_fmsl":625,"id":"SRL","desc":"ROSALIA VOR-DME"},
{"type":"NDB","hdg_t":326.3,"dist_nm":84.5,"freq":382,"lat":28.02690000,"lon":-114.02231400,"rng_nm":50,"alt_fmsl":59,"id":"GRN","desc":"NEGRO NDB"},
{"type":"VOR","hdg_t":118,"dist_nm":109.6,"freq":113.2,"lat":25.98065600,"lon":-111.34952800,"rng_nm":130,"alt_fmsl":34,"id":"LTO","desc":"LORETO VOR-DME"},
{"type":"NDB","hdg_t":60.3,"dist_nm":135.1,"freq":368,"lat":27.95576100,"lon":-110.92905300,"rng_nm":50,"alt_fmsl":59,"id":"GYM","desc":"GUAYMAS NDB"},
{"type":"VOR","hdg_t":39.1,"dist_nm":174,"freq":112.8,"lat":29.09555556,"lon":-111.05205556,"rng_nm":130,"alt_fmsl":627,"id":"HMO","desc":"HERMOSILLO VOR-DME"},
{"type":"VOR","hdg_t":78.8,"dist_nm":179.6,"freq":115.1,"lat":27.39475800,"lon":-109.83728300,"rng_nm":130,"alt_fmsl":205,"id":"CEN","desc":"OBREGON VOR-DME"},
{"type":"VOR","hdg_t":137,"dist_nm":224,"freq":112.3,"lat":24.08560300,"lon":-110.35866100,"rng_nm":130,"alt_fmsl":69,"id":"LAP","desc":"LA PAZ VOR-DME"},
{"type":"VOR","hdg_t":106.8,"dist_nm":230.3,"freq":115.5,"lat":25.68261100,"lon":-109.07158100,"rng_nm":130,"alt_fmsl":16,"id":"LMM","desc":"MOCHIS VOR-DME"},
{"type":"NDB","hdg_t":90.7,"dist_nm":258.3,"freq":214,"lat":26.71640800,"lon":-108.33049200,"rng_nm":50,"alt_fmsl":794,"id":"CHX","desc":"CHOIX NDB"},
{"type":"VOR","hdg_t":326.7,"dist_nm":266.1,"freq":113.3,"lat":30.54535800,"lon":-115.95565300,"rng_nm":130,"alt_fmsl":60,"id":"SQN","desc":"QUINTIN VOR-DME"}
]
}
