{"success":true,"source":"xp2csv.pl","last_updated":"2013/11/08 14:53:21 UTC"
,"icao":"MRUP","name":"Upala","lat":10.8921845,"lon":-85.0161555,"rwys":1,"ils":0,"index":1546559,"path":"w090n10/w086n10"
,"runways":[
{"len_m":1013,"wid_m":11.89,"hdg":43,"surf":"Asphalt","rwy1":"04","lat1":10.88888600,"lon1":-85.01937200,"rwy2":"22","lat2":10.89548300,"lon2":-85.01293900}
]
,"navaids":[
{"type":"NDB","hdg_t":64.1,"dist_nm":20,"freq":221,"lat":11.03833300,"lon":-84.70999900,"rng_nm":50,"alt_fmsl":131,"id":"CHI","desc":"LOS CHILES NDB"},
{"type":"VOR","hdg_t":240.4,"dist_nm":36,"freq":112.8,"lat":10.59419444,"lon":-85.54636111,"rng_nm":130,"alt_fmsl":270,"id":"LIB","desc":"LIBERIA VOR-DME"},
{"type":"NDB","hdg_t":129.1,"dist_nm":41.9,"freq":212,"lat":10.44833300,"lon":-84.46666700,"rng_nm":50,"alt_fmsl":210,"id":"FIO","desc":"FIORA NDB"},
{"type":"NDB","hdg_t":142.4,"dist_nm":70.1,"freq":260,"lat":9.96053100,"lon":-84.29353900,"rng_nm":100,"alt_fmsl":0,"id":"HOR","desc":"HORCONES NDB"},
{"type":"VOR","hdg_t":139.5,"dist_nm":71.2,"freq":115.7,"lat":9.98366667,"lon":-84.23616667,"rng_nm":130,"alt_fmsl":3021,"id":"TIO","desc":"EL COCO VOR-DME"},
{"type":"NDB","hdg_t":95.4,"dist_nm":85,"freq":380,"lat":10.75333300,"lon":-83.58333300,"rng_nm":50,"alt_fmsl":10,"id":"COL","desc":"BARRA DEL COLORADO NDB"},
{"type":"NDB","hdg_t":153.1,"dist_nm":91.9,"freq":395,"lat":9.51750000,"lon":-84.31694400,"rng_nm":50,"alt_fmsl":0,"id":"PAR","desc":"PARRITA NDB"},
{"type":"VOR","hdg_t":47.9,"dist_nm":98.5,"freq":116.7,"lat":11.99451100,"lon":-83.77262200,"rng_nm":40,"alt_fmsl":41,"id":"BLU","desc":"BLUEFIELDS VOR-DME"},
{"type":"NDB","hdg_t":318,"dist_nm":100.5,"freq":290,"lat":12.14204700,"lon":-86.15887200,"rng_nm":280,"alt_fmsl":194,"id":"YNP","desc":"MANAGUA NDB"},
{"type":"VOR","hdg_t":317.6,"dist_nm":101,"freq":112.1,"lat":12.13972222,"lon":-86.17422222,"rng_nm":130,"alt_fmsl":199,"id":"MGA","desc":"MANAGUA VOR-DME"}
]
}
