{"success":true,"source":"xp2csv.pl","last_updated":"2013/11/08 14:53:21 UTC"
,"icao":"MS18","name":"Dilworth","lat":34.77,"lon":-88.60555556,"rwys":1,"ils":0,"index":1498929,"path":"w090n30/w089n34"
,"runways":[
{"len_m":730,"wid_m":10.67,"hdg":181,"surf":"Turf/grass","rwy1":"18","lat1":34.77329108,"lon1":-88.60548563,"rwy2":"36","lat2":34.76670892,"lon2":-88.60562549}
]
,"navaids":[
{"type":"NDB","hdg_t":358,"dist_nm":14.7,"freq":334,"lat":35.01552778,"lon":-88.61569444,"rng_nm":50,"alt_fmsl":0,"id":"UU","desc":"SEYER NDB"},
{"type":"NDB","hdg_t":8.9,"dist_nm":28.3,"freq":386,"lat":35.23702778,"lon":-88.51600000,"rng_nm":50,"alt_fmsl":0,"id":"SZY","desc":"SIBLEY NDB"},
{"type":"VOR","hdg_t":196.2,"dist_nm":34,"freq":109.8,"lat":34.22386111,"lon":-88.79733333,"rng_nm":40,"alt_fmsl":360,"id":"OTB","desc":"TUPELO VOR-DME"},
{"type":"NDB","hdg_t":321.1,"dist_nm":34.2,"freq":404,"lat":35.21433333,"lon":-89.04213889,"rng_nm":50,"alt_fmsl":0,"id":"BAV","desc":"HARDEMAN NDB"},
{"type":"NDB","hdg_t":192.9,"dist_nm":36.2,"freq":420,"lat":34.18038889,"lon":-88.76875000,"rng_nm":50,"alt_fmsl":0,"id":"TU","desc":"VERON NDB"},
{"type":"VOR","hdg_t":270.2,"dist_nm":44,"freq":112.4,"lat":34.77025000,"lon":-89.49650000,"rng_nm":40,"alt_fmsl":630,"id":"HLI","desc":"HOLLY SPRINGS VORTAC"},
{"type":"VOR","hdg_t":139.1,"dist_nm":45.1,"freq":110.4,"lat":34.19877778,"lon":-88.01161111,"rng_nm":40,"alt_fmsl":802,"id":"HAB","desc":"HAMILTON VORTAC"},
{"type":"NDB","hdg_t":304.1,"dist_nm":46.7,"freq":255,"lat":35.20558333,"lon":-89.39277778,"rng_nm":50,"alt_fmsl":0,"id":"FYE","desc":"SOMERVILLE NDB"},
{"type":"NDB","hdg_t":338.9,"dist_nm":47.9,"freq":394,"lat":35.51577778,"lon":-88.95697222,"rng_nm":50,"alt_fmsl":0,"id":"MK","desc":"MERSY NDB"},
{"type":"VOR","hdg_t":13.6,"dist_nm":51.1,"freq":109.4,"lat":35.59900000,"lon":-88.35888889,"rng_nm":40,"alt_fmsl":630,"id":"JKS","desc":"JACKS CREEK VOR-DME"},
{"type":"VOR","hdg_t":343.3,"dist_nm":52.1,"freq":112,"lat":35.60355556,"lon":-88.91041667,"rng_nm":25,"alt_fmsl":410,"id":"MKL","desc":"MC KELLAR VOR-DME"},
{"type":"VOR","hdg_t":93.6,"dist_nm":55.2,"freq":116.5,"lat":34.70686111,"lon":-87.49158333,"rng_nm":40,"alt_fmsl":620,"id":"MSL","desc":"MUSCLE SHOALS VORTAC"},
{"type":"NDB","hdg_t":245.7,"dist_nm":55.5,"freq":426,"lat":34.38508333,"lon":-89.62597222,"rng_nm":50,"alt_fmsl":0,"id":"UV","desc":"TUNNG NDB"},
{"type":"NDB","hdg_t":282.4,"dist_nm":59.7,"freq":275,"lat":34.97980800,"lon":-89.78875000,"rng_nm":25,"alt_fmsl":401,"id":"OLV","desc":"OLIVE BRANCH NDB"},
{"type":"NDB","hdg_t":300.7,"dist_nm":60.8,"freq":265,"lat":35.28468900,"lon":-89.67139200,"rng_nm":25,"alt_fmsl":308,"id":"LHC","desc":"LOOSAHATCHIE NDB"},
{"type":"NDB","hdg_t":48.8,"dist_nm":63.4,"freq":257,"lat":35.46250000,"lon":-87.63027778,"rng_nm":50,"alt_fmsl":0,"id":"JHG","desc":"HOHENWALD NDB"},
{"type":"VOR","hdg_t":172.9,"dist_nm":68,"freq":115.2,"lat":33.64152778,"lon":-88.43858333,"rng_nm":25,"alt_fmsl":250,"id":"CBM","desc":"CALEDONIA VORTAC"},
{"type":"NDB","hdg_t":315.7,"dist_nm":68.8,"freq":326,"lat":35.58966667,"lon":-89.58733333,"rng_nm":50,"alt_fmsl":0,"id":"COO","desc":"COVINGTON NDB"},
{"type":"VOR","hdg_t":282.5,"dist_nm":69.5,"freq":117.5,"lat":35.01511111,"lon":-89.98322222,"rng_nm":130,"alt_fmsl":360,"id":"MEM","desc":"MEMPHIS VORTAC"},
{"type":"NDB","hdg_t":66.7,"dist_nm":71.9,"freq":269,"lat":35.23552778,"lon":-87.26066667,"rng_nm":50,"alt_fmsl":0,"id":"LRT","desc":"LAWRENCEBURG NDB"},
{"type":"NDB","hdg_t":295.4,"dist_nm":72.2,"freq":232,"lat":35.28050000,"lon":-89.93294444,"rng_nm":50,"alt_fmsl":0,"id":"MIG","desc":"MILLINGTON NDB"},
{"type":"NDB","hdg_t":290.3,"dist_nm":75.8,"freq":414,"lat":35.20119444,"lon":-90.05119444,"rng_nm":50,"alt_fmsl":0,"id":"SPQ","desc":"SPAIN NDB"},
{"type":"VOR","hdg_t":176.5,"dist_nm":77,"freq":116.2,"lat":33.48547222,"lon":-88.51358333,"rng_nm":40,"alt_fmsl":240,"id":"IGB","desc":"BIGBEE VORTAC"},
{"type":"NDB","hdg_t":4.8,"dist_nm":79.2,"freq":217,"lat":36.08847222,"lon":-88.46686111,"rng_nm":50,"alt_fmsl":0,"id":"HZD","desc":"HUNTINGDON NDB"},
{"type":"NDB","hdg_t":188.7,"dist_nm":81,"freq":281,"lat":33.43205556,"lon":-88.85033333,"rng_nm":50,"alt_fmsl":0,"id":"STF","desc":"BRYAN NDB"},
{"type":"NDB","hdg_t":230.5,"dist_nm":82.1,"freq":245,"lat":33.89111111,"lon":-89.87463889,"rng_nm":50,"alt_fmsl":0,"id":"SBQ","desc":"SCOBEY NDB"},
{"type":"VOR","hdg_t":335.1,"dist_nm":82.5,"freq":116.8,"lat":36.01855556,"lon":-89.31769444,"rng_nm":40,"alt_fmsl":380,"id":"DYR","desc":"DYERSBURG VORTAC"},
{"type":"VOR","hdg_t":94.5,"dist_nm":82.7,"freq":112.8,"lat":34.64830556,"lon":-86.93952778,"rng_nm":40,"alt_fmsl":590,"id":"DCU","desc":"DECATUR VOR-DME"},
{"type":"VOR","hdg_t":41.3,"dist_nm":85.2,"freq":111.6,"lat":35.83391667,"lon":-87.45175000,"rng_nm":40,"alt_fmsl":775,"id":"GHM","desc":"GRAHAM VORTAC"},
{"type":"NDB","hdg_t":5.9,"dist_nm":89.1,"freq":410,"lat":36.24955556,"lon":-88.41536111,"rng_nm":50,"alt_fmsl":0,"id":"TIQ","desc":"TRAINER NDB"},
{"type":"NDB","hdg_t":249.4,"dist_nm":89.4,"freq":391,"lat":34.23297200,"lon":-90.28978900,"rng_nm":25,"alt_fmsl":160,"id":"MMS","desc":"MARKS NDB"},
{"type":"NDB","hdg_t":55.5,"dist_nm":89.8,"freq":365,"lat":35.60819444,"lon":-87.09141667,"rng_nm":50,"alt_fmsl":0,"id":"PBC","desc":"MAURY COUNTY NDB"},
{"type":"NDB","hdg_t":89.3,"dist_nm":90.2,"freq":350,"lat":34.77369444,"lon":-86.77902778,"rng_nm":50,"alt_fmsl":0,"id":"CWH","desc":"CAPSHAW NDB"},
{"type":"NDB","hdg_t":27.4,"dist_nm":91,"freq":329,"lat":36.11616667,"lon":-87.74127778,"rng_nm":50,"alt_fmsl":0,"id":"AEY","desc":"WAVERLY NDB"},
{"type":"NDB","hdg_t":104.7,"dist_nm":91.5,"freq":230,"lat":34.36787300,"lon":-86.82389100,"rng_nm":25,"alt_fmsl":830,"id":"CPP","desc":"COLE SPRING NDB"},
{"type":"NDB","hdg_t":348.3,"dist_nm":93.4,"freq":212,"lat":36.29769444,"lon":-88.99486111,"rng_nm":50,"alt_fmsl":0,"id":"UC","desc":"OBION NDB"},
{"type":"NDB","hdg_t":92,"dist_nm":94.9,"freq":287,"lat":34.69847222,"lon":-86.68800000,"rng_nm":50,"alt_fmsl":0,"id":"HUA","desc":"REDSTONE NDB"},
{"type":"VOR","hdg_t":317.5,"dist_nm":96.4,"freq":111.8,"lat":35.95097222,"lon":-89.94105556,"rng_nm":40,"alt_fmsl":0,"id":"GOJ","desc":"GOSNELL VOR"},
{"type":"VOR","hdg_t":88.4,"dist_nm":97.4,"freq":112.2,"lat":34.79725000,"lon":-86.63383333,"rng_nm":40,"alt_fmsl":1199,"id":"RQZ","desc":"ROCKET VORTAC"},
{"type":"VOR","hdg_t":291,"dist_nm":98.5,"freq":113,"lat":35.34702778,"lon":-90.47816667,"rng_nm":40,"alt_fmsl":211,"id":"GQE","desc":"GILMORE VOR-DME"},
{"type":"NDB","hdg_t":63.1,"dist_nm":98.6,"freq":251,"lat":35.50050000,"lon":-86.80972222,"rng_nm":50,"alt_fmsl":0,"id":"LUG","desc":"VERONA NDB"},
{"type":"NDB","hdg_t":34.9,"dist_nm":99.5,"freq":203,"lat":36.12730556,"lon":-87.43236111,"rng_nm":50,"alt_fmsl":0,"id":"DMZ","desc":"DICKSON NDB"}
]
}
