{"success":true,"source":"xp2csv.pl","last_updated":"2013/11/08 14:53:21 UTC"
,"icao":"MS51","name":"Belle-terre","lat":30.52935805,"lon":-89.60839417,"rwys":1,"ils":0,"index":1482273,"path":"w090n30/w090n30"
,"runways":[
{"len_m":611,"wid_m":18.29,"hdg":92,"surf":"Turf/grass","rwy1":"09","lat1":30.52950161,"lon1":-89.61157425,"rwy2":"27","lat2":30.52921449,"lon2":-89.60521409}
]
,"navaids":[
{"type":"NDB","hdg_t":228.2,"dist_nm":3.1,"freq":276,"lat":30.49470300,"lon":-89.65314200,"rng_nm":25,"alt_fmsl":54,"id":"MJD","desc":"PICAYUNE NDB"},
{"type":"VOR","hdg_t":286.7,"dist_nm":6.6,"freq":112.2,"lat":30.56116667,"lon":-89.73050000,"rng_nm":40,"alt_fmsl":70,"id":"PCU","desc":"PICAYUNE VOR-DME"},
{"type":"NDB","hdg_t":120.4,"dist_nm":9.1,"freq":221,"lat":30.45133333,"lon":-89.45552778,"rng_nm":50,"alt_fmsl":0,"id":"HS","desc":"HANCO (OM/NDB) NDB"},
{"type":"NDB","hdg_t":238.2,"dist_nm":12.9,"freq":371,"lat":30.41563889,"lon":-89.82005556,"rng_nm":50,"alt_fmsl":0,"id":"FNA","desc":"FLORENVILLE NDB"},
{"type":"NDB","hdg_t":220.1,"dist_nm":18.1,"freq":256,"lat":30.29683333,"lon":-89.83413889,"rng_nm":50,"alt_fmsl":0,"id":"DEF","desc":"SLIDELL NDB"},
{"type":"NDB","hdg_t":96.3,"dist_nm":23.2,"freq":360,"lat":30.48555556,"lon":-89.16225000,"rng_nm":50,"alt_fmsl":0,"id":"GP","desc":"BAYOU NDB"},
{"type":"NDB","hdg_t":328.1,"dist_nm":24.8,"freq":353,"lat":30.88161111,"lon":-89.86211111,"rng_nm":50,"alt_fmsl":0,"id":"GVB","desc":"BOGALUSA NDB"},
{"type":"VOR","hdg_t":104.7,"dist_nm":28.5,"freq":109,"lat":30.40683333,"lon":-89.07677778,"rng_nm":40,"alt_fmsl":23,"id":"GPT","desc":"GULFPORT VORTAC"},
{"type":"SDME","hdg_t":101.5,"dist_nm":35.9,"freq":111.8,"lat":30.40708600,"lon":-88.92971100,"rng_nm":25,"alt_fmsl":10,"id":"BIX","desc":"KEESLER TACAN"},
{"type":"VOR","hdg_t":269.3,"dist_nm":41.9,"freq":109.6,"lat":30.51941667,"lon":-90.41750000,"rng_nm":25,"alt_fmsl":0,"id":"HMU","desc":"HAMMOND VOR"},
{"type":"NDB","hdg_t":276.4,"dist_nm":42.3,"freq":212,"lat":30.60633333,"lon":-90.42116667,"rng_nm":50,"alt_fmsl":0,"id":"HP","desc":"ANGER NDB"},
{"type":"VOR","hdg_t":206.8,"dist_nm":45.5,"freq":114.1,"lat":29.85019444,"lon":-90.00297222,"rng_nm":130,"alt_fmsl":2,"id":"HRV","desc":"HARVEY VORTAC"},
{"type":"NDB","hdg_t":233.9,"dist_nm":51,"freq":338,"lat":30.02519444,"lon":-90.39988889,"rng_nm":50,"alt_fmsl":0,"id":"MS","desc":"KINTE NDB"},
{"type":"NDB","hdg_t":88.5,"dist_nm":54.6,"freq":209,"lat":30.54816667,"lon":-88.55316667,"rng_nm":50,"alt_fmsl":0,"id":"PQ","desc":"TLOTT NDB"},
{"type":"VOR","hdg_t":14.6,"dist_nm":55,"freq":110.6,"lat":31.41869444,"lon":-89.33761111,"rng_nm":40,"alt_fmsl":290,"id":"LBY","desc":"EATON VORTAC"},
{"type":"VOR","hdg_t":324.3,"dist_nm":57.2,"freq":116.7,"lat":31.30444444,"lon":-90.25819444,"rng_nm":130,"alt_fmsl":440,"id":"MCB","desc":"MC COMB VORTAC"},
{"type":"VOR","hdg_t":242.7,"dist_nm":57.3,"freq":110.8,"lat":30.08750000,"lon":-90.58863889,"rng_nm":40,"alt_fmsl":5,"id":"RQR","desc":"RESERVE VOR-DME"},
{"type":"NDB","hdg_t":313.2,"dist_nm":63.6,"freq":413,"lat":31.25450000,"lon":-90.51041667,"rng_nm":50,"alt_fmsl":0,"id":"MC","desc":"FERNI NDB"},
{"type":"VOR","hdg_t":79.3,"dist_nm":65.7,"freq":115.3,"lat":30.72597222,"lon":-88.35930556,"rng_nm":130,"alt_fmsl":190,"id":"SJI","desc":"SEMMES VORTAC"},
{"type":"VOR","hdg_t":59.2,"dist_nm":67.2,"freq":115.7,"lat":31.09797222,"lon":-88.48613889,"rng_nm":130,"alt_fmsl":300,"id":"GCV","desc":"GREENE CO VORTAC"},
{"type":"NDB","hdg_t":17.1,"dist_nm":72.6,"freq":346,"lat":31.68750000,"lon":-89.18980556,"rng_nm":50,"alt_fmsl":0,"id":"THJ","desc":"TALLAHALA NDB"},
{"type":"NDB","hdg_t":226.8,"dist_nm":75.3,"freq":219,"lat":29.66327778,"lon":-90.65969444,"rng_nm":50,"alt_fmsl":0,"id":"HU","desc":"HOUMA NDB"},
{"type":"NDB","hdg_t":327.5,"dist_nm":76.6,"freq":407,"lat":31.60800300,"lon":-90.41028900,"rng_nm":25,"alt_fmsl":485,"id":"BVV","desc":"BROOKHAVEN NDB"},
{"type":"VOR","hdg_t":86,"dist_nm":80.5,"freq":112.8,"lat":30.61272222,"lon":-88.05550000,"rng_nm":40,"alt_fmsl":30,"id":"BFM","desc":"BROOKLEY VORTAC"},
{"type":"VOR","hdg_t":231.1,"dist_nm":81.9,"freq":112,"lat":29.66433333,"lon":-90.82908333,"rng_nm":40,"alt_fmsl":10,"id":"TBD","desc":"TIBBY VORTAC"},
{"type":"NDB","hdg_t":272.6,"dist_nm":83,"freq":284,"lat":30.58288889,"lon":-91.21102778,"rng_nm":50,"alt_fmsl":0,"id":"BT","desc":"RUNDI NDB"},
{"type":"NDB","hdg_t":197,"dist_nm":83.6,"freq":236,"lat":29.19189600,"lon":-90.07507400,"rng_nm":75,"alt_fmsl":0,"id":"GNI","desc":"GRAND ISLE NDB"},
{"type":"VOR","hdg_t":197.8,"dist_nm":85,"freq":113.5,"lat":29.17522222,"lon":-90.10402778,"rng_nm":130,"alt_fmsl":2,"id":"LEV","desc":"LEEVILLE VORTAC"},
{"type":"VOR","hdg_t":268.6,"dist_nm":87.4,"freq":116.5,"lat":30.48513889,"lon":-91.29405556,"rng_nm":40,"alt_fmsl":20,"id":"BTR","desc":"BATON ROUGE VORTAC"},
{"type":"NDB","hdg_t":90.5,"dist_nm":97.5,"freq":204,"lat":30.49925000,"lon":-87.72566667,"rng_nm":50,"alt_fmsl":0,"id":"ESU","desc":"SUMMERDALE NDB"},
{"type":"NDB","hdg_t":274.1,"dist_nm":97.6,"freq":356,"lat":30.63313300,"lon":-91.48941800,"rng_nm":25,"alt_fmsl":35,"id":"HZ","desc":"HAZER NDB"},
{"type":"NDB","hdg_t":274.1,"dist_nm":97.6,"freq":356,"lat":30.63313889,"lon":-91.48941667,"rng_nm":50,"alt_fmsl":0,"id":"FWX","desc":"NEW ROADS NDB"}
]
}
