{"success":true,"source":"xp2csv.pl","last_updated":"2013/11/08 14:53:21 UTC"
,"icao":"MS88","name":"Oreck","lat":30.7774055,"lon":-89.7250695,"rwys":1,"ils":0,"index":1482289,"path":"w090n30/w090n30"
,"runways":[
{"len_m":1158,"wid_m":22.86,"hdg":90,"surf":"Asphalt","rwy1":"09","lat1":30.77743200,"lon1":-89.73111900,"rwy2":"27","lat2":30.77737900,"lon2":-89.71902000}
]
,"navaids":[
{"type":"NDB","hdg_t":311.4,"dist_nm":9.4,"freq":353,"lat":30.88161111,"lon":-89.86211111,"rng_nm":50,"alt_fmsl":0,"id":"GVB","desc":"BOGALUSA NDB"},
{"type":"VOR","hdg_t":181.2,"dist_nm":12.9,"freq":112.2,"lat":30.56116667,"lon":-89.73050000,"rng_nm":40,"alt_fmsl":70,"id":"PCU","desc":"PICAYUNE VOR-DME"},
{"type":"NDB","hdg_t":167.5,"dist_nm":17.3,"freq":276,"lat":30.49470300,"lon":-89.65314200,"rng_nm":25,"alt_fmsl":54,"id":"MJD","desc":"PICAYUNE NDB"},
{"type":"NDB","hdg_t":192.8,"dist_nm":22.2,"freq":371,"lat":30.41563889,"lon":-89.82005556,"rng_nm":50,"alt_fmsl":0,"id":"FNA","desc":"FLORENVILLE NDB"},
{"type":"NDB","hdg_t":144.3,"dist_nm":23.9,"freq":221,"lat":30.45133333,"lon":-89.45552778,"rng_nm":50,"alt_fmsl":0,"id":"HS","desc":"HANCO (OM/NDB) NDB"},
{"type":"NDB","hdg_t":191.1,"dist_nm":29.3,"freq":256,"lat":30.29683333,"lon":-89.83413889,"rng_nm":50,"alt_fmsl":0,"id":"DEF","desc":"SLIDELL NDB"},
{"type":"NDB","hdg_t":120.8,"dist_nm":33.9,"freq":360,"lat":30.48555556,"lon":-89.16225000,"rng_nm":50,"alt_fmsl":0,"id":"GP","desc":"BAYOU NDB"},
{"type":"NDB","hdg_t":254.3,"dist_nm":37.4,"freq":212,"lat":30.60633333,"lon":-90.42116667,"rng_nm":50,"alt_fmsl":0,"id":"HP","desc":"ANGER NDB"},
{"type":"VOR","hdg_t":246.8,"dist_nm":39,"freq":109.6,"lat":30.51941667,"lon":-90.41750000,"rng_nm":25,"alt_fmsl":0,"id":"HMU","desc":"HAMMOND VOR"},
{"type":"VOR","hdg_t":123.2,"dist_nm":40.2,"freq":109,"lat":30.40683333,"lon":-89.07677778,"rng_nm":40,"alt_fmsl":23,"id":"GPT","desc":"GULFPORT VORTAC"},
{"type":"VOR","hdg_t":319,"dist_nm":41.8,"freq":116.7,"lat":31.30444444,"lon":-90.25819444,"rng_nm":130,"alt_fmsl":440,"id":"MCB","desc":"MC COMB VORTAC"},
{"type":"VOR","hdg_t":27.3,"dist_nm":43.2,"freq":110.6,"lat":31.41869444,"lon":-89.33761111,"rng_nm":40,"alt_fmsl":290,"id":"LBY","desc":"EATON VORTAC"},
{"type":"SDME","hdg_t":118,"dist_nm":46.7,"freq":111.8,"lat":30.40708600,"lon":-88.92971100,"rng_nm":25,"alt_fmsl":10,"id":"BIX","desc":"KEESLER TACAN"},
{"type":"NDB","hdg_t":305.3,"dist_nm":49.5,"freq":413,"lat":31.25450000,"lon":-90.51041667,"rng_nm":50,"alt_fmsl":0,"id":"MC","desc":"FERNI NDB"},
{"type":"NDB","hdg_t":218,"dist_nm":57,"freq":338,"lat":30.02519444,"lon":-90.39988889,"rng_nm":50,"alt_fmsl":0,"id":"MS","desc":"KINTE NDB"},
{"type":"VOR","hdg_t":194.6,"dist_nm":57.3,"freq":114.1,"lat":29.85019444,"lon":-90.00297222,"rng_nm":130,"alt_fmsl":2,"id":"HRV","desc":"HARVEY VORTAC"},
{"type":"NDB","hdg_t":324.8,"dist_nm":60.9,"freq":407,"lat":31.60800300,"lon":-90.41028900,"rng_nm":25,"alt_fmsl":485,"id":"BVV","desc":"BROOKHAVEN NDB"},
{"type":"VOR","hdg_t":227.5,"dist_nm":60.9,"freq":110.8,"lat":30.08750000,"lon":-90.58863889,"rng_nm":40,"alt_fmsl":5,"id":"RQR","desc":"RESERVE VOR-DME"},
{"type":"NDB","hdg_t":26.6,"dist_nm":61,"freq":346,"lat":31.68750000,"lon":-89.18980556,"rng_nm":50,"alt_fmsl":0,"id":"THJ","desc":"TALLAHALA NDB"},
{"type":"NDB","hdg_t":102.4,"dist_nm":62.1,"freq":209,"lat":30.54816667,"lon":-88.55316667,"rng_nm":50,"alt_fmsl":0,"id":"PQ","desc":"TLOTT NDB"},
{"type":"VOR","hdg_t":72.9,"dist_nm":66.7,"freq":115.7,"lat":31.09797222,"lon":-88.48613889,"rng_nm":130,"alt_fmsl":300,"id":"GCV","desc":"GREENE CO VORTAC"},
{"type":"VOR","hdg_t":92.1,"dist_nm":70.6,"freq":115.3,"lat":30.72597222,"lon":-88.35930556,"rng_nm":130,"alt_fmsl":190,"id":"SJI","desc":"SEMMES VORTAC"},
{"type":"NDB","hdg_t":261.7,"dist_nm":77.7,"freq":284,"lat":30.58288889,"lon":-91.21102778,"rng_nm":50,"alt_fmsl":0,"id":"BT","desc":"RUNDI NDB"},
{"type":"NDB","hdg_t":216.3,"dist_nm":82.5,"freq":219,"lat":29.66327778,"lon":-90.65969444,"rng_nm":50,"alt_fmsl":0,"id":"HU","desc":"HOUMA NDB"},
{"type":"VOR","hdg_t":258.2,"dist_nm":83,"freq":116.5,"lat":30.48513889,"lon":-91.29405556,"rng_nm":40,"alt_fmsl":20,"id":"BTR","desc":"BATON ROUGE VORTAC"},
{"type":"VOR","hdg_t":96,"dist_nm":86.9,"freq":112.8,"lat":30.61272222,"lon":-88.05550000,"rng_nm":40,"alt_fmsl":30,"id":"BFM","desc":"BROOKLEY VORTAC"},
{"type":"VOR","hdg_t":221,"dist_nm":87.9,"freq":112,"lat":29.66433333,"lon":-90.82908333,"rng_nm":40,"alt_fmsl":10,"id":"TBD","desc":"TIBBY VORTAC"},
{"type":"NDB","hdg_t":265,"dist_nm":91.6,"freq":356,"lat":30.63313300,"lon":-91.48941800,"rng_nm":25,"alt_fmsl":35,"id":"HZ","desc":"HAZER NDB"},
{"type":"NDB","hdg_t":265,"dist_nm":91.6,"freq":356,"lat":30.63313889,"lon":-91.48941667,"rng_nm":50,"alt_fmsl":0,"id":"FWX","desc":"NEW ROADS NDB"},
{"type":"VOR","hdg_t":302.2,"dist_nm":95.3,"freq":110,"lat":31.61819444,"lon":-91.29963889,"rng_nm":40,"alt_fmsl":280,"id":"HEZ","desc":"NATCHEZ VOR-DME"},
{"type":"NDB","hdg_t":190.9,"dist_nm":96.6,"freq":236,"lat":29.19189600,"lon":-90.07507400,"rng_nm":75,"alt_fmsl":0,"id":"GNI","desc":"GRAND ISLE NDB"},
{"type":"NDB","hdg_t":304.5,"dist_nm":97.4,"freq":388,"lat":31.69022222,"lon":-91.29330556,"rng_nm":50,"alt_fmsl":0,"id":"HAH","desc":"NATCHEZ-ADAMS CO NDB"},
{"type":"NDB","hdg_t":339.1,"dist_nm":97.7,"freq":375,"lat":32.30094444,"lon":-90.41066667,"rng_nm":50,"alt_fmsl":0,"id":"RYB","desc":"RAYMOND NDB"},
{"type":"VOR","hdg_t":191.7,"dist_nm":97.9,"freq":113.5,"lat":29.17522222,"lon":-90.10402778,"rng_nm":130,"alt_fmsl":2,"id":"LEV","desc":"LEEVILLE VORTAC"},
{"type":"NDB","hdg_t":348.4,"dist_nm":99.9,"freq":365,"lat":32.41250000,"lon":-90.11952778,"rng_nm":50,"alt_fmsl":0,"id":"JA","desc":"ALLEN NDB"}
]
}
