{"success":true,"source":"xp2csv.pl","last_updated":"2013/11/08 14:53:21 UTC"
,"icao":"MT07","name":"Langhus Airstrip","lat":46.04160944,"lon":-110.15908056,"rwys":1,"ils":0,"index":1139203,"path":"w120n40/w111n46"
,"runways":[
{"len_m":1128,"wid_m":18.29,"hdg":175,"surf":"Turf/grass","rwy1":"16","lat1":46.04667159,"lon1":-110.15959052,"rwy2":"34","lat2":46.03654729,"lon2":-110.15857060}
]
,"navaids":[
{"type":"VOR","hdg_t":210.3,"dist_nm":23.5,"freq":116.1,"lat":45.70247222,"lon":-110.44244444,"rng_nm":40,"alt_fmsl":4653,"id":"LVM","desc":"LIVINGSTON VOR-DME"},
{"type":"NDB","hdg_t":29.8,"dist_nm":27.2,"freq":242,"lat":46.43494444,"lon":-109.83241667,"rng_nm":50,"alt_fmsl":0,"id":"HWQ","desc":"HARLOWTON NDB"},
{"type":"VOR","hdg_t":250,"dist_nm":44.5,"freq":112.4,"lat":45.78388889,"lon":-111.15544444,"rng_nm":130,"alt_fmsl":4430,"id":"BZN","desc":"BOZEMAN VOR-DME"},
{"type":"NDB","hdg_t":258.2,"dist_nm":48.2,"freq":266,"lat":45.87180556,"lon":-111.28572222,"rng_nm":50,"alt_fmsl":0,"id":"BZ","desc":"MANNI NDB"},
{"type":"NDB","hdg_t":99.9,"dist_nm":62.3,"freq":251,"lat":45.85222222,"lon":-108.69450000,"rng_nm":50,"alt_fmsl":0,"id":"BI","desc":"SAIGE NDB"},
{"type":"VOR","hdg_t":20.4,"dist_nm":64.8,"freq":112,"lat":47.05297222,"lon":-109.60613889,"rng_nm":130,"alt_fmsl":4133,"id":"LWT","desc":"LEWISTOWN VOR-DME"},
{"type":"VOR","hdg_t":101.7,"dist_nm":65.7,"freq":114.5,"lat":45.80855556,"lon":-108.62463889,"rng_nm":130,"alt_fmsl":3811,"id":"BIL","desc":"BILLINGS VORTAC"},
{"type":"NDB","hdg_t":22.5,"dist_nm":66.7,"freq":353,"lat":47.06742500,"lon":-109.53534400,"rng_nm":50,"alt_fmsl":4100,"id":"LWT","desc":"LEWISTOWN NDB"},
{"type":"NDB","hdg_t":68.3,"dist_nm":71.7,"freq":362,"lat":46.47113889,"lon":-108.55130556,"rng_nm":50,"alt_fmsl":0,"id":"RPX","desc":"ROUNDUP NDB"},
{"type":"NDB","hdg_t":296,"dist_nm":73.6,"freq":386,"lat":46.56888889,"lon":-111.75805556,"rng_nm":50,"alt_fmsl":0,"id":"HAU","desc":"HAUSER NDB"},
{"type":"NDB","hdg_t":233.9,"dist_nm":78.1,"freq":286,"lat":45.26583333,"lon":-111.65138889,"rng_nm":50,"alt_fmsl":0,"id":"EKS","desc":"ENNIS NDB"},
{"type":"NDB","hdg_t":295.2,"dist_nm":81.3,"freq":335,"lat":46.60666667,"lon":-111.93716667,"rng_nm":50,"alt_fmsl":0,"id":"CVP","desc":"CAPITOL NDB"},
{"type":"VOR","hdg_t":295,"dist_nm":81.9,"freq":117.7,"lat":46.60683333,"lon":-111.95347222,"rng_nm":130,"alt_fmsl":3823,"id":"HLN","desc":"HELENA VORTAC"},
{"type":"VOR","hdg_t":263.4,"dist_nm":84.8,"freq":113.7,"lat":45.86180556,"lon":-112.16961111,"rng_nm":130,"alt_fmsl":4652,"id":"HIA","desc":"WHITEHALL VOR-DME"},
{"type":"NDB","hdg_t":206.9,"dist_nm":90.7,"freq":338,"lat":44.68958333,"lon":-111.12108333,"rng_nm":50,"alt_fmsl":0,"id":"ESY","desc":"YELLOWSTONE NDB"},
{"type":"NDB","hdg_t":140,"dist_nm":91.2,"freq":344,"lat":44.86683333,"lon":-108.78630556,"rng_nm":50,"alt_fmsl":0,"id":"POY","desc":"POWELL NDB"},
{"type":"NDB","hdg_t":328.2,"dist_nm":93.9,"freq":371,"lat":47.36588889,"lon":-111.37286111,"rng_nm":50,"alt_fmsl":0,"id":"ITU","desc":"TRULY NDB"},
{"type":"SDME","hdg_t":334.7,"dist_nm":97.3,"freq":115.8,"lat":47.50406100,"lon":-111.18205600,"rng_nm":40,"alt_fmsl":3501,"id":"GFA","desc":"MALMSTROM TACAN"},
{"type":"NDB","hdg_t":206.9,"dist_nm":98.3,"freq":415,"lat":44.57541667,"lon":-111.19755556,"rng_nm":50,"alt_fmsl":0,"id":"LO","desc":"TARGY NDB"},
{"type":"VOR","hdg_t":329,"dist_nm":99,"freq":115.1,"lat":47.44997222,"lon":-111.41216667,"rng_nm":130,"alt_fmsl":3672,"id":"GTF","desc":"GREAT FALLS VORTAC"},
{"type":"NDB","hdg_t":132.4,"dist_nm":99.1,"freq":257,"lat":44.91400000,"lon":-108.44316667,"rng_nm":50,"alt_fmsl":0,"id":"HCY","desc":"COWLEY NDB"},
{"type":"VOR","hdg_t":148.9,"dist_nm":99.1,"freq":111.8,"lat":44.62044444,"lon":-108.96491667,"rng_nm":40,"alt_fmsl":4800,"id":"COD","desc":"CODY VOR-DME"}
]
}
