{"success":true,"source":"xp2csv.pl","last_updated":"2013/11/08 14:53:21 UTC"
,"icao":"MT79","name":"Sand Creek Wildlife Station","lat":47.58415527,"lon":-108.70904084,"rwys":1,"ils":0,"index":1172065,"path":"w110n40/w109n47"
,"runways":[
{"len_m":795,"wid_m":15.24,"hdg":95,"surf":"Turf/grass","rwy1":"08","lat1":47.58452801,"lon1":-108.71429852,"rwy2":"26","lat2":47.58378253,"lon2":-108.70378316}
]
,"navaids":[
{"type":"NDB","hdg_t":227.6,"dist_nm":45.8,"freq":353,"lat":47.06742500,"lon":-109.53534400,"rng_nm":50,"alt_fmsl":4100,"id":"LWT","desc":"LEWISTOWN NDB"},
{"type":"VOR","hdg_t":229.2,"dist_nm":48.5,"freq":112,"lat":47.05297222,"lon":-109.60613889,"rng_nm":130,"alt_fmsl":4133,"id":"LWT","desc":"LEWISTOWN VOR-DME"},
{"type":"NDB","hdg_t":33.8,"dist_nm":56.9,"freq":272,"lat":48.36886111,"lon":-107.91730556,"rng_nm":50,"alt_fmsl":0,"id":"MLK","desc":"MALTA NDB"},
{"type":"NDB","hdg_t":174.4,"dist_nm":67.1,"freq":362,"lat":46.47113889,"lon":-108.55130556,"rng_nm":50,"alt_fmsl":0,"id":"RPX","desc":"ROUNDUP NDB"},
{"type":"NDB","hdg_t":325.9,"dist_nm":69.9,"freq":389,"lat":48.54541400,"lon":-109.69036700,"rng_nm":25,"alt_fmsl":2547,"id":"LDS","desc":"LEEDS NDB"},
{"type":"VOR","hdg_t":323.7,"dist_nm":71.5,"freq":111.8,"lat":48.54047222,"lon":-109.77000000,"rng_nm":40,"alt_fmsl":2583,"id":"HVR","desc":"HAVRE VOR-DME"},
{"type":"NDB","hdg_t":101.1,"dist_nm":73.6,"freq":263,"lat":47.33333333,"lon":-106.93811111,"rng_nm":50,"alt_fmsl":0,"id":"JDN","desc":"JORDAN NDB"},
{"type":"NDB","hdg_t":214.1,"dist_nm":82.9,"freq":242,"lat":46.43494444,"lon":-109.83241667,"rng_nm":50,"alt_fmsl":0,"id":"HWQ","desc":"HARLOWTON NDB"},
{"type":"NDB","hdg_t":65.2,"dist_nm":92,"freq":339,"lat":48.20788889,"lon":-106.62616667,"rng_nm":50,"alt_fmsl":0,"id":"MKR","desc":"MILK RIVER NDB"},
{"type":"VOR","hdg_t":64.9,"dist_nm":92.2,"freq":113.9,"lat":48.21530556,"lon":-106.62541667,"rng_nm":130,"alt_fmsl":2283,"id":"GGW","desc":"GLASGOW VOR-DME"}
]
}
