{"success":true,"source":"xp2csv.pl","last_updated":"2013/11/08 14:53:21 UTC"
,"icao":"MT94","name":"Ousel Falls","lat":45.246595,"lon":-111.32856778,"rwys":1,"ils":0,"index":1122762,"path":"w120n40/w112n45"
,"runways":[
{"len_m":275,"wid_m":18.29,"hdg":66,"surf":"Turf/grass","rwy1":"05","lat1":45.24609295,"lon1":-111.33016939,"rwy2":"23","lat2":45.24709705,"lon2":-111.32696617}
]
,"navaids":[
{"type":"NDB","hdg_t":274.9,"dist_nm":13.7,"freq":286,"lat":45.26583333,"lon":-111.65138889,"rng_nm":50,"alt_fmsl":0,"id":"EKS","desc":"ENNIS NDB"},
{"type":"VOR","hdg_t":12.7,"dist_nm":33,"freq":112.4,"lat":45.78388889,"lon":-111.15544444,"rng_nm":130,"alt_fmsl":4430,"id":"BZN","desc":"BOZEMAN VOR-DME"},
{"type":"NDB","hdg_t":165.1,"dist_nm":34.5,"freq":338,"lat":44.68958333,"lon":-111.12108333,"rng_nm":50,"alt_fmsl":0,"id":"ESY","desc":"YELLOWSTONE NDB"},
{"type":"NDB","hdg_t":2.7,"dist_nm":37.5,"freq":266,"lat":45.87180556,"lon":-111.28572222,"rng_nm":50,"alt_fmsl":0,"id":"BZ","desc":"MANNI NDB"},
{"type":"NDB","hdg_t":172,"dist_nm":40.6,"freq":415,"lat":44.57541667,"lon":-111.19755556,"rng_nm":50,"alt_fmsl":0,"id":"LO","desc":"TARGY NDB"},
{"type":"VOR","hdg_t":53.5,"dist_nm":46.3,"freq":116.1,"lat":45.70247222,"lon":-110.44244444,"rng_nm":40,"alt_fmsl":4653,"id":"LVM","desc":"LIVINGSTON VOR-DME"},
{"type":"VOR","hdg_t":316.4,"dist_nm":51.1,"freq":113.7,"lat":45.86180556,"lon":-112.16961111,"rng_nm":130,"alt_fmsl":4652,"id":"HIA","desc":"WHITEHALL VOR-DME"},
{"type":"VOR","hdg_t":270.5,"dist_nm":51.6,"freq":113,"lat":45.24858333,"lon":-112.54713889,"rng_nm":130,"alt_fmsl":5257,"id":"DLN","desc":"DILLON VOR-DME"},
{"type":"VOR","hdg_t":308.7,"dist_nm":76,"freq":111.6,"lat":46.03200000,"lon":-112.74752778,"rng_nm":40,"alt_fmsl":5780,"id":"CPN","desc":"COPPERTOWN VOR-DME"},
{"type":"VOR","hdg_t":208.8,"dist_nm":79,"freq":116.9,"lat":44.08886111,"lon":-112.20933333,"rng_nm":130,"alt_fmsl":4915,"id":"DBS","desc":"DUBOIS VORTAC"},
{"type":"NDB","hdg_t":347.3,"dist_nm":81.3,"freq":386,"lat":46.56888889,"lon":-111.75805556,"rng_nm":50,"alt_fmsl":0,"id":"HAU","desc":"HAUSER NDB"},
{"type":"NDB","hdg_t":342.8,"dist_nm":85.5,"freq":335,"lat":46.60666667,"lon":-111.93716667,"rng_nm":50,"alt_fmsl":0,"id":"CVP","desc":"CAPITOL NDB"},
{"type":"VOR","hdg_t":342.4,"dist_nm":85.7,"freq":117.7,"lat":46.60683333,"lon":-111.95347222,"rng_nm":130,"alt_fmsl":3823,"id":"HLN","desc":"HELENA VORTAC"},
{"type":"NDB","hdg_t":40.8,"dist_nm":94.9,"freq":242,"lat":46.43494444,"lon":-109.83241667,"rng_nm":50,"alt_fmsl":0,"id":"HWQ","desc":"HARLOWTON NDB"},
{"type":"VOR","hdg_t":153,"dist_nm":95.1,"freq":117.2,"lat":43.82827778,"lon":-110.33547222,"rng_nm":130,"alt_fmsl":7720,"id":"DNW","desc":"DUNOIR VOR-DME"}
]
}
