{"success":true,"source":"xp2csv.pl","last_updated":"2013/11/08 14:53:21 UTC"
,"icao":"MY04","name":"Kochs Personal Field","lat":44.65996111,"lon":-96.03725584,"rwys":1,"ils":0,"index":1368491,"path":"w100n40/w097n44"
,"runways":[
{"len_m":672,"wid_m":22.86,"hdg":94,"surf":"Turf/grass","rwy1":"09","lat1":44.66022408,"lon1":-96.04148167,"rwy2":"27","lat2":44.65969814,"lon2":-96.03303001}
]
,"navaids":[
{"type":"NDB","hdg_t":150.2,"dist_nm":10.9,"freq":253,"lat":44.50175000,"lon":-95.91097222,"rng_nm":50,"alt_fmsl":0,"id":"GB","desc":"GARNO NDB"},
{"type":"VOR","hdg_t":144.2,"dist_nm":15.6,"freq":111,"lat":44.44841667,"lon":-95.82477778,"rng_nm":25,"alt_fmsl":1180,"id":"MML","desc":"MARSHALL VOR-DME"},
{"type":"NDB","hdg_t":342.7,"dist_nm":20.3,"freq":341,"lat":44.98416667,"lon":-96.17894444,"rng_nm":50,"alt_fmsl":0,"id":"DXX","desc":"DAWSON/MADISON NDB"},
{"type":"VOR","hdg_t":36.3,"dist_nm":23.3,"freq":111.6,"lat":44.97266667,"lon":-95.71219444,"rng_nm":25,"alt_fmsl":1037,"id":"MVE","desc":"MONTEVIDEO VOR-DME"},
{"type":"NDB","hdg_t":1.9,"dist_nm":34.1,"freq":356,"lat":45.22847222,"lon":-96.00955556,"rng_nm":50,"alt_fmsl":0,"id":"AQP","desc":"APPLETON NDB"},
{"type":"VOR","hdg_t":237.6,"dist_nm":39.6,"freq":108.8,"lat":44.30325000,"lon":-96.81511111,"rng_nm":25,"alt_fmsl":1641,"id":"BKX","desc":"BROOKINGS VOR-DME"},
{"type":"VOR","hdg_t":106.1,"dist_nm":40.6,"freq":113.3,"lat":44.46727778,"lon":-95.12822222,"rng_nm":130,"alt_fmsl":1061,"id":"RWF","desc":"REDWOOD FALLS VOR-DME"},
{"type":"NDB","hdg_t":337.1,"dist_nm":41.8,"freq":332,"lat":45.30166667,"lon":-96.42080556,"rng_nm":50,"alt_fmsl":0,"id":"VVV","desc":"ORTONVILLE NDB"},
{"type":"NDB","hdg_t":195.5,"dist_nm":41.9,"freq":284,"lat":43.98616667,"lon":-96.29636111,"rng_nm":50,"alt_fmsl":0,"id":"PQN","desc":"PIPESTONE NDB"},
{"type":"NDB","hdg_t":22.1,"dist_nm":43.2,"freq":239,"lat":45.32719444,"lon":-95.65091667,"rng_nm":50,"alt_fmsl":0,"id":"BBB","desc":"BENSON NDB"},
{"type":"VOR","hdg_t":54.4,"dist_nm":47.5,"freq":113.7,"lat":45.11766667,"lon":-95.12705556,"rng_nm":25,"alt_fmsl":1125,"id":"BDH","desc":"WILLMAR VOR-DME"},
{"type":"NDB","hdg_t":280.6,"dist_nm":48.3,"freq":215,"lat":44.80327778,"lon":-97.15013889,"rng_nm":50,"alt_fmsl":0,"id":"AT","desc":"LICAN NDB"},
{"type":"VOR","hdg_t":55.4,"dist_nm":48.8,"freq":113.7,"lat":45.11752800,"lon":-95.09061100,"rng_nm":25,"alt_fmsl":1120,"id":"ILL","desc":"WILLMAR VOR-DME"},
{"type":"VOR","hdg_t":292.5,"dist_nm":50.9,"freq":116.6,"lat":44.97963889,"lon":-97.14177778,"rng_nm":40,"alt_fmsl":1762,"id":"ATY","desc":"WATERTOWN VORTAC"},
{"type":"VOR","hdg_t":3,"dist_nm":54.4,"freq":109.6,"lat":45.56580556,"lon":-95.96922222,"rng_nm":25,"alt_fmsl":1132,"id":"MOX","desc":"MORRIS VOR-DME"},
{"type":"NDB","hdg_t":229.7,"dist_nm":59.6,"freq":400,"lat":44.01327778,"lon":-97.08841667,"rng_nm":50,"alt_fmsl":0,"id":"MDS","desc":"WENTWORTH NDB"},
{"type":"NDB","hdg_t":138,"dist_nm":60.2,"freq":203,"lat":43.90938889,"lon":-95.10916667,"rng_nm":50,"alt_fmsl":0,"id":"MWM","desc":"WINDOM NDB"},
{"type":"VOR","hdg_t":161.9,"dist_nm":63.8,"freq":110.6,"lat":43.64691667,"lon":-95.58197222,"rng_nm":40,"alt_fmsl":1571,"id":"OTG","desc":"WORTHINGTON VOR-DME"},
{"type":"NDB","hdg_t":27,"dist_nm":66.4,"freq":346,"lat":45.64430556,"lon":-95.31830556,"rng_nm":50,"alt_fmsl":0,"id":"GHW","desc":"GLENWOOD NDB"},
{"type":"NDB","hdg_t":158.2,"dist_nm":67.2,"freq":277,"lat":43.61738889,"lon":-95.46408333,"rng_nm":50,"alt_fmsl":0,"id":"OT","desc":"WONDD NDB"},
{"type":"VOR","hdg_t":208.1,"dist_nm":68.6,"freq":115,"lat":43.64950000,"lon":-96.78113889,"rng_nm":130,"alt_fmsl":1571,"id":"FSD","desc":"SIOUX FALLS VORTAC"},
{"type":"NDB","hdg_t":106.7,"dist_nm":69.2,"freq":272,"lat":44.31802778,"lon":-94.49802778,"rng_nm":50,"alt_fmsl":0,"id":"ULM","desc":"NEW ULM NDB"},
{"type":"NDB","hdg_t":342.4,"dist_nm":70.7,"freq":326,"lat":45.78327778,"lon":-96.54669444,"rng_nm":50,"alt_fmsl":0,"id":"ETH","desc":"WHEATON NDB"},
{"type":"VOR","hdg_t":68.6,"dist_nm":72.2,"freq":109,"lat":45.08747222,"lon":-94.45386111,"rng_nm":40,"alt_fmsl":1130,"id":"DWN","desc":"DARWIN VORTAC"},
{"type":"NDB","hdg_t":24.2,"dist_nm":74.6,"freq":281,"lat":45.79171200,"lon":-95.30547900,"rng_nm":25,"alt_fmsl":1404,"id":"AJW","desc":"ANDRI NDB"},
{"type":"NDB","hdg_t":24.2,"dist_nm":74.6,"freq":374,"lat":45.79172222,"lon":-95.30552778,"rng_nm":50,"alt_fmsl":0,"id":"EE","desc":"TAMIE (LOM) NDB"},
{"type":"NDB","hdg_t":121.8,"dist_nm":75.6,"freq":260,"lat":43.98550000,"lon":-94.55269444,"rng_nm":50,"alt_fmsl":0,"id":"JYG","desc":"ST JAMES NDB"},
{"type":"NDB","hdg_t":142.8,"dist_nm":75.8,"freq":353,"lat":43.64688889,"lon":-94.98597222,"rng_nm":50,"alt_fmsl":0,"id":"MJQ","desc":"JACKSON NDB"},
{"type":"NDB","hdg_t":206.3,"dist_nm":77.8,"freq":245,"lat":43.49416667,"lon":-96.82877778,"rng_nm":50,"alt_fmsl":0,"id":"FS","desc":"ROKKY NDB"},
{"type":"NDB","hdg_t":170.8,"dist_nm":78.4,"freq":269,"lat":43.36802778,"lon":-95.75252778,"rng_nm":50,"alt_fmsl":0,"id":"ISB","desc":"SIBLEY NDB"},
{"type":"NDB","hdg_t":85.1,"dist_nm":83.6,"freq":407,"lat":44.76063889,"lon":-94.08666667,"rng_nm":50,"alt_fmsl":0,"id":"GYL","desc":"GLENCOE NDB"},
{"type":"VOR","hdg_t":23.3,"dist_nm":85,"freq":112.8,"lat":45.95838889,"lon":-95.23263889,"rng_nm":40,"alt_fmsl":1367,"id":"AXN","desc":"ALEXANDRIA VOR-DME"},
{"type":"NDB","hdg_t":174.1,"dist_nm":87.1,"freq":338,"lat":43.21416667,"lon":-95.83386111,"rng_nm":50,"alt_fmsl":0,"id":"SHL","desc":"SHELDON NDB"},
{"type":"VOR","hdg_t":174.1,"dist_nm":87.3,"freq":108.6,"lat":43.21213889,"lon":-95.83391667,"rng_nm":25,"alt_fmsl":1417,"id":"DDL","desc":"SHELDON VOR-DME"},
{"type":"NDB","hdg_t":159.9,"dist_nm":90.9,"freq":394,"lat":43.23258333,"lon":-95.32761111,"rng_nm":50,"alt_fmsl":0,"id":"SP","desc":"SNORE NDB"},
{"type":"NDB","hdg_t":184.1,"dist_nm":91.8,"freq":368,"lat":43.13302778,"lon":-96.18975000,"rng_nm":50,"alt_fmsl":0,"id":"SOY","desc":"SIOUX CENTER NDB"},
{"type":"VOR","hdg_t":130.5,"dist_nm":92.5,"freq":110.2,"lat":43.64597222,"lon":-94.42255556,"rng_nm":40,"alt_fmsl":1164,"id":"FRM","desc":"FAIRMONT VOR-DME"},
{"type":"VOR","hdg_t":142.8,"dist_nm":93.5,"freq":110.4,"lat":43.40930556,"lon":-94.74444444,"rng_nm":25,"alt_fmsl":0,"id":"EST","desc":"ESTHERVILLE VOR"},
{"type":"NDB","hdg_t":359.4,"dist_nm":93.6,"freq":337,"lat":46.21980556,"lon":-96.05769444,"rng_nm":50,"alt_fmsl":0,"id":"FF","desc":"HAMRE NDB"},
{"type":"VOR","hdg_t":105.3,"dist_nm":95,"freq":110.8,"lat":44.21991667,"lon":-93.91236111,"rng_nm":40,"alt_fmsl":1026,"id":"MKT","desc":"MANKATO VOR-DME"},
{"type":"NDB","hdg_t":143.9,"dist_nm":96.5,"freq":345,"lat":43.35152778,"lon":-94.73777778,"rng_nm":50,"alt_fmsl":0,"id":"PUF","desc":"PUFF NDB"},
{"type":"VOR","hdg_t":157.7,"dist_nm":96.9,"freq":110,"lat":43.16216667,"lon":-95.20100000,"rng_nm":40,"alt_fmsl":1330,"id":"SPW","desc":"SPENCER VOR-DME"},
{"type":"VOR","hdg_t":357,"dist_nm":97.9,"freq":110.4,"lat":46.28936111,"lon":-96.15680556,"rng_nm":25,"alt_fmsl":1201,"id":"FFM","desc":"FERGUS FALLS VOR-DME"},
{"type":"NDB","hdg_t":346,"dist_nm":98,"freq":233,"lat":46.24488889,"lon":-96.60361111,"rng_nm":50,"alt_fmsl":0,"id":"BWP","desc":"BRECKENRIDGE-WAHP NDB"},
{"type":"VOR","hdg_t":263,"dist_nm":98.4,"freq":117.6,"lat":44.44008333,"lon":-98.31108333,"rng_nm":40,"alt_fmsl":1300,"id":"HON","desc":"HURON VORTAC"},
{"type":"NDB","hdg_t":130.6,"dist_nm":98.8,"freq":420,"lat":43.57363889,"lon":-94.31797222,"rng_nm":50,"alt_fmsl":0,"id":"FQ","desc":"MONTZ NDB"},
{"type":"NDB","hdg_t":263.3,"dist_nm":99.5,"freq":302,"lat":44.44388889,"lon":-98.33683333,"rng_nm":50,"alt_fmsl":0,"id":"HO","desc":"BEADY NDB"},
{"type":"VOR","hdg_t":56.8,"dist_nm":99.5,"freq":112.1,"lat":45.54930556,"lon":-94.05861111,"rng_nm":25,"alt_fmsl":1023,"id":"STC","desc":"ST CLOUD VOR-DME"},
{"type":"NDB","hdg_t":156.5,"dist_nm":99.9,"freq":326,"lat":43.12705556,"lon":-95.13272222,"rng_nm":50,"alt_fmsl":0,"id":"LTU","desc":"LITTLE SIOUX NDB"}
]
}
