{"success":true,"source":"xp2csv.pl","last_updated":"2013/11/08 14:53:21 UTC"
,"icao":"MY06","name":"Ramerth","lat":43.83135138,"lon":-95.55528417,"rwys":1,"ils":0,"index":1384817,"path":"w100n40/w096n43"
,"runways":[
{"len_m":518,"wid_m":25.91,"hdg":174,"surf":"Turf/grass","rwy1":"17","lat1":43.83367404,"lon1":-95.55556586,"rwy2":"35","lat2":43.82902872,"lon2":-95.55500248}
]
,"navaids":[
{"type":"VOR","hdg_t":185.9,"dist_nm":11.1,"freq":110.6,"lat":43.64691667,"lon":-95.58197222,"rng_nm":40,"alt_fmsl":1571,"id":"OTG","desc":"WORTHINGTON VOR-DME"},
{"type":"NDB","hdg_t":162.7,"dist_nm":13.4,"freq":277,"lat":43.61738889,"lon":-95.46408333,"rng_nm":50,"alt_fmsl":0,"id":"OT","desc":"WONDD NDB"},
{"type":"NDB","hdg_t":76.2,"dist_nm":19.9,"freq":203,"lat":43.90938889,"lon":-95.10916667,"rng_nm":50,"alt_fmsl":0,"id":"MWM","desc":"WINDOM NDB"},
{"type":"NDB","hdg_t":113.8,"dist_nm":27.1,"freq":353,"lat":43.64688889,"lon":-94.98597222,"rng_nm":50,"alt_fmsl":0,"id":"MJQ","desc":"JACKSON NDB"},
{"type":"NDB","hdg_t":197.2,"dist_nm":29,"freq":269,"lat":43.36802778,"lon":-95.75252778,"rng_nm":50,"alt_fmsl":0,"id":"ISB","desc":"SIBLEY NDB"},
{"type":"NDB","hdg_t":286.3,"dist_nm":33.4,"freq":284,"lat":43.98616667,"lon":-96.29636111,"rng_nm":50,"alt_fmsl":0,"id":"PQN","desc":"PIPESTONE NDB"},
{"type":"NDB","hdg_t":164.4,"dist_nm":37.2,"freq":394,"lat":43.23258333,"lon":-95.32761111,"rng_nm":50,"alt_fmsl":0,"id":"SP","desc":"SNORE NDB"},
{"type":"VOR","hdg_t":342.6,"dist_nm":38.8,"freq":111,"lat":44.44841667,"lon":-95.82477778,"rng_nm":25,"alt_fmsl":1180,"id":"MML","desc":"MARSHALL VOR-DME"},
{"type":"NDB","hdg_t":198.2,"dist_nm":38.9,"freq":338,"lat":43.21416667,"lon":-95.83386111,"rng_nm":50,"alt_fmsl":0,"id":"SHL","desc":"SHELDON NDB"},
{"type":"VOR","hdg_t":198.2,"dist_nm":39,"freq":108.6,"lat":43.21213889,"lon":-95.83391667,"rng_nm":25,"alt_fmsl":1417,"id":"DDL","desc":"SHELDON VOR-DME"},
{"type":"VOR","hdg_t":25.6,"dist_nm":42.3,"freq":113.3,"lat":44.46727778,"lon":-95.12822222,"rng_nm":130,"alt_fmsl":1061,"id":"RWF","desc":"REDWOOD FALLS VOR-DME"},
{"type":"NDB","hdg_t":339.2,"dist_nm":43,"freq":253,"lat":44.50175000,"lon":-95.91097222,"rng_nm":50,"alt_fmsl":0,"id":"GB","desc":"GARNO NDB"},
{"type":"VOR","hdg_t":158.8,"dist_nm":43,"freq":110,"lat":43.16216667,"lon":-95.20100000,"rng_nm":40,"alt_fmsl":1330,"id":"SPW","desc":"SPENCER VOR-DME"},
{"type":"VOR","hdg_t":125.3,"dist_nm":43.4,"freq":110.4,"lat":43.40930556,"lon":-94.74444444,"rng_nm":25,"alt_fmsl":0,"id":"EST","desc":"ESTHERVILLE VOR"},
{"type":"NDB","hdg_t":77.6,"dist_nm":44.4,"freq":260,"lat":43.98550000,"lon":-94.55269444,"rng_nm":50,"alt_fmsl":0,"id":"JYG","desc":"ST JAMES NDB"},
{"type":"NDB","hdg_t":128.6,"dist_nm":45.8,"freq":345,"lat":43.35152778,"lon":-94.73777778,"rng_nm":50,"alt_fmsl":0,"id":"PUF","desc":"PUFF NDB"},
{"type":"NDB","hdg_t":156.2,"dist_nm":46.1,"freq":326,"lat":43.12705556,"lon":-95.13272222,"rng_nm":50,"alt_fmsl":0,"id":"LTU","desc":"LITTLE SIOUX NDB"},
{"type":"NDB","hdg_t":213.7,"dist_nm":50.2,"freq":368,"lat":43.13302778,"lon":-96.18975000,"rng_nm":50,"alt_fmsl":0,"id":"SOY","desc":"SIOUX CENTER NDB"},
{"type":"VOR","hdg_t":102.3,"dist_nm":50.5,"freq":110.2,"lat":43.64597222,"lon":-94.42255556,"rng_nm":40,"alt_fmsl":1164,"id":"FRM","desc":"FAIRMONT VOR-DME"},
{"type":"NDB","hdg_t":57,"dist_nm":54.2,"freq":272,"lat":44.31802778,"lon":-94.49802778,"rng_nm":50,"alt_fmsl":0,"id":"ULM","desc":"NEW ULM NDB"},
{"type":"VOR","hdg_t":258.8,"dist_nm":54.4,"freq":115,"lat":43.64950000,"lon":-96.78113889,"rng_nm":130,"alt_fmsl":1571,"id":"FSD","desc":"SIOUX FALLS VORTAC"},
{"type":"NDB","hdg_t":203.8,"dist_nm":55,"freq":521,"lat":42.99138889,"lon":-96.06058333,"rng_nm":50,"alt_fmsl":0,"id":"ORC","desc":"ORANGE CITY NDB"},
{"type":"NDB","hdg_t":105.5,"dist_nm":56,"freq":420,"lat":43.57363889,"lon":-94.31797222,"rng_nm":50,"alt_fmsl":0,"id":"FQ","desc":"MONTZ NDB"},
{"type":"NDB","hdg_t":139.5,"dist_nm":57.3,"freq":410,"lat":43.10069444,"lon":-94.70825000,"rng_nm":50,"alt_fmsl":0,"id":"EGQ","desc":"EMMETSBURG NDB"},
{"type":"NDB","hdg_t":250.4,"dist_nm":59,"freq":245,"lat":43.49416667,"lon":-96.82877778,"rng_nm":50,"alt_fmsl":0,"id":"FS","desc":"ROKKY NDB"},
{"type":"VOR","hdg_t":297.8,"dist_nm":61.4,"freq":108.8,"lat":44.30325000,"lon":-96.81511111,"rng_nm":25,"alt_fmsl":1641,"id":"BKX","desc":"BROOKINGS VOR-DME"},
{"type":"NDB","hdg_t":101.9,"dist_nm":65,"freq":332,"lat":43.59702778,"lon":-94.09686111,"rng_nm":50,"alt_fmsl":0,"id":"SBU","desc":"BLUE EARTH NDB"},
{"type":"NDB","hdg_t":279.8,"dist_nm":67.3,"freq":400,"lat":44.01327778,"lon":-97.08841667,"rng_nm":50,"alt_fmsl":0,"id":"MDS","desc":"WENTWORTH NDB"},
{"type":"VOR","hdg_t":354.4,"dist_nm":68.8,"freq":111.6,"lat":44.97266667,"lon":-95.71219444,"rng_nm":25,"alt_fmsl":1037,"id":"MVE","desc":"MONTEVIDEO VOR-DME"},
{"type":"NDB","hdg_t":203.9,"dist_nm":69.2,"freq":382,"lat":42.77443300,"lon":-96.19252200,"rng_nm":25,"alt_fmsl":1190,"id":"LRJ","desc":"LE MARS NDB"},
{"type":"NDB","hdg_t":128.3,"dist_nm":71.8,"freq":403,"lat":43.08136111,"lon":-94.27247222,"rng_nm":50,"alt_fmsl":0,"id":"AXA","desc":"ALGONA NDB"},
{"type":"NDB","hdg_t":339,"dist_nm":74.1,"freq":341,"lat":44.98416667,"lon":-96.17894444,"rng_nm":50,"alt_fmsl":0,"id":"DXX","desc":"DAWSON/MADISON NDB"},
{"type":"VOR","hdg_t":71.2,"dist_nm":74.8,"freq":110.8,"lat":44.21991667,"lon":-93.91236111,"rng_nm":40,"alt_fmsl":1026,"id":"MKT","desc":"MANKATO VOR-DME"},
{"type":"NDB","hdg_t":169.4,"dist_nm":75,"freq":434,"lat":42.60044444,"lon":-95.24438889,"rng_nm":50,"alt_fmsl":0,"id":"SLB","desc":"STORM LAKE NDB"},
{"type":"NDB","hdg_t":148.3,"dist_nm":76.2,"freq":428,"lat":42.74638889,"lon":-94.64922222,"rng_nm":50,"alt_fmsl":0,"id":"POH","desc":"POCAHONTAS NDB"},
{"type":"VOR","hdg_t":13.2,"dist_nm":79.3,"freq":113.7,"lat":45.11766667,"lon":-95.12705556,"rng_nm":25,"alt_fmsl":1125,"id":"BDH","desc":"WILLMAR VOR-DME"},
{"type":"VOR","hdg_t":14.3,"dist_nm":79.7,"freq":113.7,"lat":45.11752800,"lon":-95.09061100,"rng_nm":25,"alt_fmsl":1120,"id":"ILL","desc":"WILLMAR VOR-DME"},
{"type":"NDB","hdg_t":48.1,"dist_nm":84.3,"freq":407,"lat":44.76063889,"lon":-94.08666667,"rng_nm":50,"alt_fmsl":0,"id":"GYL","desc":"GLENCOE NDB"},
{"type":"NDB","hdg_t":347,"dist_nm":86,"freq":356,"lat":45.22847222,"lon":-96.00955556,"rng_nm":50,"alt_fmsl":0,"id":"AQP","desc":"APPLETON NDB"},
{"type":"VOR","hdg_t":31.7,"dist_nm":88.9,"freq":109,"lat":45.08747222,"lon":-94.45386111,"rng_nm":40,"alt_fmsl":1130,"id":"DWN","desc":"DARWIN VORTAC"},
{"type":"NDB","hdg_t":357.4,"dist_nm":89.8,"freq":239,"lat":45.32719444,"lon":-95.65091667,"rng_nm":50,"alt_fmsl":0,"id":"BBB","desc":"BENSON NDB"},
{"type":"NDB","hdg_t":310.8,"dist_nm":90.1,"freq":215,"lat":44.80327778,"lon":-97.15013889,"rng_nm":50,"alt_fmsl":0,"id":"AT","desc":"LICAN NDB"},
{"type":"NDB","hdg_t":163.6,"dist_nm":90.5,"freq":356,"lat":42.38061111,"lon":-94.98277778,"rng_nm":50,"alt_fmsl":0,"id":"SKI","desc":"SAC CITY NDB"},
{"type":"NDB","hdg_t":206.1,"dist_nm":91.3,"freq":305,"lat":42.46011111,"lon":-96.46222222,"rng_nm":50,"alt_fmsl":0,"id":"OI","desc":"TOMMI NDB"},
{"type":"NDB","hdg_t":112.2,"dist_nm":91.6,"freq":359,"lat":43.23580556,"lon":-93.62083333,"rng_nm":50,"alt_fmsl":0,"id":"FXY","desc":"FOREST CITY NDB"},
{"type":"VOR","hdg_t":142.4,"dist_nm":91.7,"freq":113.5,"lat":42.61111111,"lon":-94.29480556,"rng_nm":130,"alt_fmsl":1164,"id":"FOD","desc":"FORT DODGE VORTAC"},
{"type":"NDB","hdg_t":203.4,"dist_nm":92.8,"freq":233,"lat":42.40811111,"lon":-96.38602778,"rng_nm":50,"alt_fmsl":0,"id":"GAK","desc":"SIOUX GATEWAY NDB"},
{"type":"VOR","hdg_t":201,"dist_nm":95.3,"freq":116.5,"lat":42.34452778,"lon":-96.32363889,"rng_nm":40,"alt_fmsl":1087,"id":"SUX","desc":"SIOUX CITY VORTAC"},
{"type":"VOR","hdg_t":94.6,"dist_nm":95.4,"freq":109.8,"lat":43.68172222,"lon":-93.37075000,"rng_nm":25,"alt_fmsl":1265,"id":"AEL","desc":"ALBERT LEA VOR-DME"},
{"type":"NDB","hdg_t":337.4,"dist_nm":95.7,"freq":332,"lat":45.30166667,"lon":-96.42080556,"rng_nm":50,"alt_fmsl":0,"id":"VVV","desc":"ORTONVILLE NDB"},
{"type":"NDB","hdg_t":199.9,"dist_nm":95.8,"freq":414,"lat":42.32752778,"lon":-96.29050000,"rng_nm":50,"alt_fmsl":0,"id":"SU","desc":"SALIX NDB"},
{"type":"NDB","hdg_t":144.7,"dist_nm":96.1,"freq":341,"lat":42.51450000,"lon":-94.30558333,"rng_nm":50,"alt_fmsl":0,"id":"FO","desc":"BARRO NDB"},
{"type":"NDB","hdg_t":232.8,"dist_nm":96.7,"freq":347,"lat":42.84372222,"lon":-97.30211111,"rng_nm":50,"alt_fmsl":0,"id":"YK","desc":"CAGUR NDB"},
{"type":"VOR","hdg_t":315.8,"dist_nm":96.9,"freq":116.6,"lat":44.97963889,"lon":-97.14177778,"rng_nm":40,"alt_fmsl":1762,"id":"ATY","desc":"WATERTOWN VORTAC"},
{"type":"VOR","hdg_t":236.2,"dist_nm":97,"freq":111.4,"lat":42.91836111,"lon":-97.38497222,"rng_nm":40,"alt_fmsl":1301,"id":"YKN","desc":"YANKTON VOR-DME"},
{"type":"VOR","hdg_t":75.9,"dist_nm":97.1,"freq":111.2,"lat":44.20444444,"lon":-93.37050000,"rng_nm":25,"alt_fmsl":1100,"id":"FOW","desc":"HALFWAY VOR-DME"},
{"type":"NDB","hdg_t":132.4,"dist_nm":98.6,"freq":302,"lat":42.70858333,"lon":-93.91058333,"rng_nm":50,"alt_fmsl":0,"id":"EAG","desc":"EAGLE GROVE NDB"},
{"type":"NDB","hdg_t":186.1,"dist_nm":99.5,"freq":335,"lat":42.18055556,"lon":-95.79472222,"rng_nm":50,"alt_fmsl":0,"id":"MEY","desc":"MAPLETON NDB"}
]
}
