{"success":true,"source":"xp2csv.pl","last_updated":"2013/11/08 14:53:21 UTC"
,"icao":"MY54","name":"Cloverleaf-east Bemidji","lat":47.43828583,"lon":-94.81221778,"rwys":1,"ils":0,"index":1401432,"path":"w100n40/w095n47"
,"runways":[
{"len_m":1284,"wid_m":30.48,"hdg":93,"surf":"Turf/grass","rwy1":"09","lat1":47.43868765,"lon1":-94.82071329,"rwy2":"27","lat2":47.43788401,"lon2":-94.80372227}
]
,"navaids":[
{"type":"NDB","hdg_t":293,"dist_nm":0.9,"freq":371,"lat":47.44480556,"lon":-94.83477778,"rng_nm":50,"alt_fmsl":0,"id":"MD","desc":"BUNAN NDB"},
{"type":"VOR","hdg_t":312.7,"dist_nm":6.1,"freq":110,"lat":47.50783333,"lon":-94.92330556,"rng_nm":25,"alt_fmsl":1384,"id":"IDJ","desc":"LAKE BEMIDJI VOR-DME"},
{"type":"VOR","hdg_t":198.1,"dist_nm":34.1,"freq":110.6,"lat":46.89813889,"lon":-95.07088889,"rng_nm":40,"alt_fmsl":1441,"id":"PKD","desc":"PARK RAPIDS VOR-DME"},
{"type":"NDB","hdg_t":136.8,"dist_nm":36.3,"freq":392,"lat":46.99430556,"lon":-94.20650000,"rng_nm":50,"alt_fmsl":0,"id":"XVG","desc":"LONGVILLE NDB"},
{"type":"NDB","hdg_t":283.4,"dist_nm":39.9,"freq":224,"lat":47.58902778,"lon":-95.76958333,"rng_nm":50,"alt_fmsl":0,"id":"FSE","desc":"FOSSTON NDB"},
{"type":"NDB","hdg_t":157.5,"dist_nm":46.1,"freq":330,"lat":46.72702778,"lon":-94.38500000,"rng_nm":50,"alt_fmsl":0,"id":"PWC","desc":"PINE RIVER NDB"},
{"type":"NDB","hdg_t":65.8,"dist_nm":51.4,"freq":345,"lat":47.78347222,"lon":-93.65325000,"rng_nm":50,"alt_fmsl":0,"id":"FOZ","desc":"BIGFORK NDB"},
{"type":"VOR","hdg_t":106.4,"dist_nm":56.5,"freq":111.4,"lat":47.16361111,"lon":-93.48855556,"rng_nm":40,"alt_fmsl":1400,"id":"GPZ","desc":"GRAND RAPIDS VOR-DME"},
{"type":"VOR","hdg_t":230.5,"dist_nm":57.3,"freq":111.2,"lat":46.82555556,"lon":-95.88733333,"rng_nm":25,"alt_fmsl":1387,"id":"DTL","desc":"DETROIT LAKES VOR-DME"},
{"type":"NDB","hdg_t":108.2,"dist_nm":57.4,"freq":272,"lat":47.13030556,"lon":-93.48133333,"rng_nm":50,"alt_fmsl":0,"id":"GP","desc":"GALEX NDB"},
{"type":"NDB","hdg_t":303.7,"dist_nm":62.1,"freq":260,"lat":48.00655556,"lon":-96.09550000,"rng_nm":50,"alt_fmsl":0,"id":"HY","desc":"HARVI NDB"},
{"type":"NDB","hdg_t":179.7,"dist_nm":63.3,"freq":257,"lat":46.38230556,"lon":-94.80491667,"rng_nm":50,"alt_fmsl":0,"id":"SAZ","desc":"STAPLES NDB"},
{"type":"NDB","hdg_t":150.8,"dist_nm":67.2,"freq":251,"lat":46.45658333,"lon":-94.02250000,"rng_nm":50,"alt_fmsl":0,"id":"BR","desc":"LAREW NDB"},
{"type":"VOR","hdg_t":304.7,"dist_nm":67.3,"freq":108.4,"lat":48.06930556,"lon":-96.18644444,"rng_nm":40,"alt_fmsl":1039,"id":"TVF","desc":"THIEF RIVER FALLS VOR-DME"},
{"type":"NDB","hdg_t":138.4,"dist_nm":70.9,"freq":397,"lat":46.54830556,"lon":-93.67544444,"rng_nm":50,"alt_fmsl":0,"id":"AIT","desc":"AITKIN NDB"},
{"type":"VOR","hdg_t":153.3,"dist_nm":72.9,"freq":116.9,"lat":46.34822222,"lon":-94.02588889,"rng_nm":130,"alt_fmsl":1260,"id":"BRD","desc":"BRAINERD VORTAC"},
{"type":"NDB","hdg_t":288.9,"dist_nm":77,"freq":400,"lat":47.84033333,"lon":-96.61641667,"rng_nm":50,"alt_fmsl":0,"id":"CKN","desc":"CROOKSTON NDB"},
{"type":"VOR","hdg_t":6,"dist_nm":77.5,"freq":111.6,"lat":48.72280556,"lon":-94.60730556,"rng_nm":40,"alt_fmsl":1081,"id":"BDE","desc":"BAUDETTE VOR-DME"},
{"type":"SDME","hdg_t":166.7,"dist_nm":83,"freq":111.1,"lat":46.09097500,"lon":-94.35498600,"rng_nm":130,"alt_fmsl":1149,"id":"RYM","desc":"CAMP RIPLEY TACAN"},
{"type":"NDB","hdg_t":166.4,"dist_nm":83.8,"freq":404,"lat":46.07919444,"lon":-94.34347222,"rng_nm":50,"alt_fmsl":0,"id":"XCR","desc":"RIPLEY NDB"},
{"type":"NDB","hdg_t":253.2,"dist_nm":85.8,"freq":365,"lat":47.00916667,"lon":-96.81516667,"rng_nm":50,"alt_fmsl":0,"id":"AA","desc":"KENIE NDB"},
{"type":"NDB","hdg_t":65.4,"dist_nm":86.3,"freq":341,"lat":48.01844444,"lon":-92.86141667,"rng_nm":50,"alt_fmsl":0,"id":"ORB","desc":"ORR NDB"},
{"type":"VOR","hdg_t":94.6,"dist_nm":86.3,"freq":110.8,"lat":47.30152778,"lon":-92.70405556,"rng_nm":40,"alt_fmsl":1312,"id":"HIB","desc":"HIBBING VOR-DME"},
{"type":"NDB","hdg_t":348.7,"dist_nm":87.2,"freq":360,"lat":48.86275000,"lon":-95.24188889,"rng_nm":50,"alt_fmsl":0,"id":"SW","desc":"ROADD NDB"},
{"type":"NDB","hdg_t":44,"dist_nm":88,"freq":353,"lat":48.48133333,"lon":-93.27805556,"rng_nm":50,"alt_fmsl":0,"id":"IN","desc":"RAIZE NDB"},
{"type":"VOR","hdg_t":39.4,"dist_nm":88.2,"freq":111,"lat":48.56580556,"lon":-93.40566667,"rng_nm":40,"alt_fmsl":1180,"id":"INL","desc":"INTL FALLS VORTAC"},
{"type":"VOR","hdg_t":219.2,"dist_nm":88.4,"freq":110.4,"lat":46.28936111,"lon":-96.15680556,"rng_nm":25,"alt_fmsl":1201,"id":"FFM","desc":"FERGUS FALLS VOR-DME"},
{"type":"NDB","hdg_t":74.2,"dist_nm":89,"freq":233,"lat":47.82105800,"lon":-92.69134200,"rng_nm":25,"alt_fmsl":1322,"id":"CQM","desc":"COOK NDB"},
{"type":"NDB","hdg_t":215.5,"dist_nm":89.3,"freq":337,"lat":46.21980556,"lon":-96.05769444,"rng_nm":50,"alt_fmsl":0,"id":"FF","desc":"HAMRE NDB"},
{"type":"VOR","hdg_t":191.2,"dist_nm":90.5,"freq":112.8,"lat":45.95838889,"lon":-95.23263889,"rng_nm":40,"alt_fmsl":1367,"id":"AXN","desc":"ALEXANDRIA VOR-DME"},
{"type":"NDB","hdg_t":33.8,"dist_nm":90.9,"freq":376,"lat":48.68972222,"lon":-93.53905556,"rng_nm":50,"alt_fmsl":0,"id":"YAG","desc":"FORT FRANCES NDB"},
{"type":"VOR","hdg_t":337.6,"dist_nm":92.1,"freq":108.8,"lat":48.85475000,"lon":-95.69497222,"rng_nm":40,"alt_fmsl":1055,"id":"ROX","desc":"ROSEAU VOR-DME"},
{"type":"NDB","hdg_t":167.6,"dist_nm":92.3,"freq":359,"lat":45.93341667,"lon":-94.34161111,"rng_nm":50,"alt_fmsl":0,"id":"LXL","desc":"LITTLE FALLS NDB"},
{"type":"VOR","hdg_t":244.5,"dist_nm":93.1,"freq":116.2,"lat":46.75336111,"lon":-96.85133333,"rng_nm":130,"alt_fmsl":908,"id":"FAR","desc":"FARGO VORTAC"},
{"type":"VOR","hdg_t":89.7,"dist_nm":94.2,"freq":108.2,"lat":47.42222222,"lon":-92.49869444,"rng_nm":25,"alt_fmsl":1371,"id":"EVM","desc":"EVELETH VOR-DME"},
{"type":"NDB","hdg_t":285.1,"dist_nm":99.1,"freq":345,"lat":47.84638889,"lon":-97.18152778,"rng_nm":50,"alt_fmsl":0,"id":"GF","desc":"HISER NDB"}
]
}
