{"success":true,"source":"xp2csv.pl","last_updated":"2013/11/08 14:53:21 UTC"
,"icao":"MYRP","name":"New Port Nelson","lat":23.684379,"lon":-74.836186,"rwys":1,"ils":0,"index":1727592,"path":"w080n20/w075n23"
,"runways":[
{"len_m":1374,"wid_m":30.48,"hdg":89,"surf":"Asphalt","rwy1":"09","lat1":23.68437500,"lon1":-74.84292200,"rwy2":"27","lat2":23.68438300,"lon2":-74.82945000}
]
,"radios":[
{"type":"CTAF","freq":122.8,"desc":"UNICOM"}
]
,"navaids":[
{"type":"NDB","hdg_t":255.3,"dist_nm":24.3,"freq":526,"lat":23.58055556,"lon":-75.26388889,"rng_nm":50,"alt_fmsl":0,"id":"ZLS","desc":"STELLA MARIS NDB"},
{"type":"NDB","hdg_t":36.2,"dist_nm":27.9,"freq":281,"lat":24.06155556,"lon":-74.53480556,"rng_nm":50,"alt_fmsl":0,"id":"ZSJ","desc":"SAN SALVADOR NDB"},
{"type":"NDB","hdg_t":319.6,"dist_nm":124.4,"freq":224,"lat":25.26388889,"lon":-76.31666667,"rng_nm":50,"alt_fmsl":0,"id":"ZGB","desc":"GOVERNORS HARBOUR NDB"},
{"type":"VOR","hdg_t":299.8,"dist_nm":163.9,"freq":112.7,"lat":25.02552778,"lon":-77.44641667,"rng_nm":130,"alt_fmsl":38,"id":"ZQA","desc":"NASSAU VOR-DME"},
{"type":"NDB","hdg_t":299.8,"dist_nm":165.5,"freq":251,"lat":25.04041667,"lon":-77.47050000,"rng_nm":50,"alt_fmsl":0,"id":"ZQA","desc":"NASSAU NDB"},
{"type":"NDB","hdg_t":291.3,"dist_nm":172,"freq":245,"lat":24.70333300,"lon":-77.77000000,"rng_nm":25,"alt_fmsl":10,"id":"NCZ","desc":"AUTEC NDB"},
{"type":"SDME","hdg_t":291.3,"dist_nm":172,"freq":112.75,"lat":24.70333300,"lon":-77.77000000,"rng_nm":130,"alt_fmsl":29,"id":"NCZ","desc":"AUTEC TACAN"},
{"type":"NDB","hdg_t":158.1,"dist_nm":175.1,"freq":376,"lat":20.95972222,"lon":-73.67750000,"rng_nm":50,"alt_fmsl":0,"id":"ZIN","desc":"GREAT INAGUA NDB"},
{"type":"NDB","hdg_t":181.6,"dist_nm":181.5,"freq":212,"lat":20.64880556,"lon":-74.93050000,"rng_nm":50,"alt_fmsl":0,"id":"UMO","desc":"MOA NDB"},
{"type":"VOR","hdg_t":128.2,"dist_nm":182.7,"freq":115.6,"lat":21.77222222,"lon":-72.26602778,"rng_nm":130,"alt_fmsl":54,"id":"PVN","desc":"PROVIDENCIALES VOR-DME"}
]
}
