{"success":true,"source":"xp2csv.pl","last_updated":"2013/11/08 14:53:21 UTC"
,"icao":"N01","name":"New London","lat":39.7809425,"lon":-75.87994195,"rwys":1,"ils":0,"index":1712240,"path":"w080n30/w076n39"
,"runways":[
{"len_m":695,"wid_m":38.10,"hdg":29,"surf":"Turf/grass","rwy1":"04","lat1":39.77820757,"lon1":-75.88191463,"rwy2":"22","lat2":39.78367743,"lon2":-75.87796927}
]
,"navaids":[
{"type":"VOR","hdg_t":49.5,"dist_nm":12.6,"freq":113.2,"lat":39.91805556,"lon":-75.67080556,"rng_nm":40,"alt_fmsl":473,"id":"MXE","desc":"MODENA VORTAC"},
{"type":"VOR","hdg_t":115.9,"dist_nm":14,"freq":114,"lat":39.67813889,"lon":-75.60708333,"rng_nm":40,"alt_fmsl":70,"id":"DQO","desc":"DUPONT VORTAC"},
{"type":"NDB","hdg_t":134,"dist_nm":17.1,"freq":248,"lat":39.58122222,"lon":-75.61388889,"rng_nm":50,"alt_fmsl":0,"id":"IL","desc":"HADIN (LOM) NDB"},
{"type":"NDB","hdg_t":215.6,"dist_nm":18,"freq":349,"lat":39.53586111,"lon":-76.10638889,"rng_nm":50,"alt_fmsl":0,"id":"APG","desc":"ABERDEEN NDB"},
{"type":"VOR","hdg_t":215.6,"dist_nm":23.1,"freq":108.4,"lat":39.46666667,"lon":-76.17094444,"rng_nm":25,"alt_fmsl":47,"id":"PPM","desc":"PHILLIPS VOR-DME"},
{"type":"VOR","hdg_t":317,"dist_nm":27.8,"freq":117.3,"lat":40.11997222,"lon":-76.29130556,"rng_nm":40,"alt_fmsl":399,"id":"LRP","desc":"LANCASTER VORTAC"},
{"type":"VOR","hdg_t":107.8,"dist_nm":28,"freq":112.8,"lat":39.63602778,"lon":-75.30302778,"rng_nm":40,"alt_fmsl":140,"id":"OOD","desc":"WOODSTOWN VORTAC"},
{"type":"VOR","hdg_t":29,"dist_nm":30.2,"freq":116.5,"lat":40.22227778,"lon":-75.56027778,"rng_nm":40,"alt_fmsl":290,"id":"PTW","desc":"POTTSTOWN VORTAC"},
{"type":"NDB","hdg_t":52.8,"dist_nm":34.3,"freq":275,"lat":40.12594444,"lon":-75.28516667,"rng_nm":50,"alt_fmsl":0,"id":"ING","desc":"AMBLER NDB"},
{"type":"NDB","hdg_t":78.5,"dist_nm":36.9,"freq":222,"lat":39.90123100,"lon":-75.09486400,"rng_nm":25,"alt_fmsl":0,"id":"PD","desc":"SPEEZ NDB"},
{"type":"VOR","hdg_t":152.7,"dist_nm":37,"freq":111.4,"lat":39.23166667,"lon":-75.51591667,"rng_nm":40,"alt_fmsl":10,"id":"ENO","desc":"SMYRNA VORTAC"},
{"type":"NDB","hdg_t":121.9,"dist_nm":40.8,"freq":363,"lat":39.41811111,"lon":-75.13505556,"rng_nm":50,"alt_fmsl":0,"id":"RNB","desc":"RAINBOW NDB"},
{"type":"SDME","hdg_t":153.6,"dist_nm":43.3,"freq":110,"lat":39.13233300,"lon":-75.46733300,"rng_nm":25,"alt_fmsl":17,"id":"DOV","desc":"DOVER TACAN"},
{"type":"VOR","hdg_t":65.5,"dist_nm":44,"freq":112,"lat":40.08205556,"lon":-75.00955556,"rng_nm":25,"alt_fmsl":0,"id":"PNE","desc":"NORTH PHILADELPHI VOR"},
{"type":"VOR","hdg_t":108.7,"dist_nm":44.7,"freq":115.2,"lat":39.53766667,"lon":-74.96713889,"rng_nm":40,"alt_fmsl":120,"id":"VCN","desc":"CEDAR LAKE VORTAC"},
{"type":"NDB","hdg_t":229.6,"dist_nm":45.5,"freq":404,"lat":39.28705556,"lon":-76.62525000,"rng_nm":50,"alt_fmsl":0,"id":"IUB","desc":"INSTITUTE NDB"},
{"type":"VOR","hdg_t":36.4,"dist_nm":45.5,"freq":108.85,"lat":40.39090800,"lon":-75.28876700,"rng_nm":25,"alt_fmsl":552,"id":"CKZ","desc":"PENNRIDGE VOR-DME"},
{"type":"NDB","hdg_t":280.5,"dist_nm":46.8,"freq":254,"lat":39.92002778,"lon":-76.87755556,"rng_nm":50,"alt_fmsl":0,"id":"EUD","desc":"YORK NDB"},
{"type":"NDB","hdg_t":34.5,"dist_nm":46.9,"freq":208,"lat":40.42472222,"lon":-75.29777778,"rng_nm":50,"alt_fmsl":0,"id":"UKT","desc":"QUAKERTOWN NDB"},
{"type":"NDB","hdg_t":46.1,"dist_nm":48.2,"freq":237,"lat":40.33566100,"lon":-75.12211700,"rng_nm":5,"alt_fmsl":394,"id":"DYL","desc":"DOYLESTOWN NDB"},
{"type":"VOR","hdg_t":10.5,"dist_nm":48.8,"freq":110.2,"lat":40.58102778,"lon":-75.68402778,"rng_nm":40,"alt_fmsl":742,"id":"ETX","desc":"EAST TEXAS VOR-DME"},
{"type":"NDB","hdg_t":321.9,"dist_nm":50,"freq":328,"lat":40.43591667,"lon":-76.55302778,"rng_nm":50,"alt_fmsl":0,"id":"BZJ","desc":"BELLGROVE NDB"},
{"type":"NDB","hdg_t":234.8,"dist_nm":51,"freq":371,"lat":39.28736111,"lon":-76.77702778,"rng_nm":50,"alt_fmsl":0,"id":"FND","desc":"ELLICOTT NDB"},
{"type":"VOR","hdg_t":225,"dist_nm":51.5,"freq":115.1,"lat":39.17105556,"lon":-76.66125000,"rng_nm":40,"alt_fmsl":140,"id":"BAL","desc":"BALTIMORE VORTAC"},
{"type":"NDB","hdg_t":59.9,"dist_nm":52.1,"freq":369,"lat":40.21263889,"lon":-74.89916667,"rng_nm":50,"alt_fmsl":0,"id":"TT","desc":"TRENN NDB"},
{"type":"VOR","hdg_t":57.4,"dist_nm":53,"freq":108.2,"lat":40.25333333,"lon":-74.90761111,"rng_nm":40,"alt_fmsl":300,"id":"ARD","desc":"YARDLEY VOR-DME"},
{"type":"VOR","hdg_t":251.7,"dist_nm":53.7,"freq":117.9,"lat":39.49500000,"lon":-76.97858333,"rng_nm":130,"alt_fmsl":820,"id":"EMI","desc":"WESTMINSTER VORTAC"},
{"type":"NDB","hdg_t":300.9,"dist_nm":54.7,"freq":204,"lat":40.24638889,"lon":-76.90063889,"rng_nm":50,"alt_fmsl":0,"id":"MD","desc":"ENOLA NDB"},
{"type":"VOR","hdg_t":324.6,"dist_nm":56.9,"freq":114.6,"lat":40.55338889,"lon":-76.59938889,"rng_nm":40,"alt_fmsl":1750,"id":"RAV","desc":"RAVINE VORTAC"},
{"type":"NDB","hdg_t":224.6,"dist_nm":58.4,"freq":260,"lat":39.08405556,"lon":-76.76000000,"rng_nm":50,"alt_fmsl":0,"id":"BUH","desc":"ANNE ARUNDEL NDB"},
{"type":"VOR","hdg_t":18.8,"dist_nm":59.9,"freq":117.5,"lat":40.72669444,"lon":-75.45475000,"rng_nm":40,"alt_fmsl":680,"id":"FJC","desc":"ALLENTOWN VORTAC"},
{"type":"VOR","hdg_t":76.5,"dist_nm":60.8,"freq":110.6,"lat":40.00947222,"lon":-74.59650000,"rng_nm":40,"alt_fmsl":119,"id":"GXU","desc":"MC GUIRE VORTAC"},
{"type":"VOR","hdg_t":300,"dist_nm":63.1,"freq":112.5,"lat":40.30225000,"lon":-77.06955556,"rng_nm":40,"alt_fmsl":1301,"id":"HAR","desc":"HARRISBURG VORTAC"},
{"type":"VOR","hdg_t":107.4,"dist_nm":63.5,"freq":108.6,"lat":39.45586111,"lon":-74.57633333,"rng_nm":40,"alt_fmsl":67,"id":"ACY","desc":"ATLANTIC CITY VORTAC"},
{"type":"VOR","hdg_t":128.9,"dist_nm":64.8,"freq":114.8,"lat":39.09550000,"lon":-74.80033333,"rng_nm":130,"alt_fmsl":10,"id":"SIE","desc":"SEA ISLE VORTAC"},
{"type":"VOR","hdg_t":151.6,"dist_nm":66,"freq":112.6,"lat":38.80980556,"lon":-75.21133333,"rng_nm":40,"alt_fmsl":5,"id":"ATR","desc":"WATERLOO VOR-DME"},
{"type":"VOR","hdg_t":87.6,"dist_nm":67,"freq":113.4,"lat":39.81733333,"lon":-74.43163889,"rng_nm":130,"alt_fmsl":203,"id":"CYN","desc":"COYLE VORTAC"},
{"type":"VOR","hdg_t":67.9,"dist_nm":68.6,"freq":113.8,"lat":40.20238889,"lon":-74.49502778,"rng_nm":130,"alt_fmsl":248,"id":"RBV","desc":"ROBBINSVILLE VORTAC"},
{"type":"NDB","hdg_t":222.1,"dist_nm":69.2,"freq":232,"lat":38.92000000,"lon":-76.87166700,"rng_nm":25,"alt_fmsl":74,"id":"MX","desc":"ZOOTE NDB"},
{"type":"NDB","hdg_t":238.8,"dist_nm":70,"freq":385,"lat":39.16972222,"lon":-77.16591667,"rng_nm":50,"alt_fmsl":0,"id":"GAI","desc":"GAITHERSBURG NDB"},
{"type":"VOR","hdg_t":47,"dist_nm":71,"freq":112.9,"lat":40.58305556,"lon":-74.74180556,"rng_nm":40,"alt_fmsl":190,"id":"SBJ","desc":"SOLBERG VOR-DME"},
{"type":"SDME","hdg_t":77.2,"dist_nm":72.1,"freq":111.8,"lat":40.03696100,"lon":-74.35313700,"rng_nm":25,"alt_fmsl":144,"id":"NEL","desc":"LAKEHURST TACAN"},
{"type":"VOR","hdg_t":351.1,"dist_nm":72.4,"freq":109.4,"lat":40.97508333,"lon":-76.12580556,"rng_nm":25,"alt_fmsl":0,"id":"HZL","desc":"HAZLETON VOR"},
{"type":"VOR","hdg_t":252.7,"dist_nm":72.7,"freq":109,"lat":39.41222222,"lon":-77.37513889,"rng_nm":25,"alt_fmsl":0,"id":"FDK","desc":"FREDERICK VOR"},
{"type":"NDB","hdg_t":76.9,"dist_nm":73,"freq":396,"lat":40.04486111,"lon":-74.33547222,"rng_nm":50,"alt_fmsl":0,"id":"NEL","desc":"LAKEHURST NDB"},
{"type":"VOR","hdg_t":218.5,"dist_nm":74.2,"freq":113.1,"lat":38.80722222,"lon":-76.86625000,"rng_nm":40,"alt_fmsl":260,"id":"ADW","desc":"ANDREWS VORTAC"},
{"type":"NDB","hdg_t":185.4,"dist_nm":74.8,"freq":355,"lat":38.53725000,"lon":-76.03058333,"rng_nm":50,"alt_fmsl":0,"id":"CGE","desc":"CAMBRIDGE NDB"},
{"type":"VOR","hdg_t":212.3,"dist_nm":76,"freq":113.7,"lat":38.70586111,"lon":-76.74475000,"rng_nm":40,"alt_fmsl":210,"id":"OTT","desc":"NOTTINGHAM VORTAC"},
{"type":"VOR","hdg_t":323,"dist_nm":76.1,"freq":110.4,"lat":40.79083333,"lon":-76.88402778,"rng_nm":40,"alt_fmsl":620,"id":"SEG","desc":"SELINSGROVE VORTAC"},
{"type":"NDB","hdg_t":229,"dist_nm":77.1,"freq":323,"lat":38.92988889,"lon":-77.12422222,"rng_nm":50,"alt_fmsl":0,"id":"GTN","desc":"GEORGETOWN NDB"},
{"type":"VOR","hdg_t":224.6,"dist_nm":77.1,"freq":111,"lat":38.85944444,"lon":-77.03644444,"rng_nm":40,"alt_fmsl":10,"id":"DCA","desc":"WASHINGTON VOR-DME"},
{"type":"VOR","hdg_t":38.1,"dist_nm":77.9,"freq":114.2,"lat":40.79844444,"lon":-74.82183333,"rng_nm":40,"alt_fmsl":1050,"id":"BWZ","desc":"BROADWAY VOR-DME"},
{"type":"NDB","hdg_t":215.7,"dist_nm":79.5,"freq":360,"lat":38.70077778,"lon":-76.87022222,"rng_nm":50,"alt_fmsl":0,"id":"RW","desc":"KIRBE NDB"},
{"type":"NDB","hdg_t":219.3,"dist_nm":79.6,"freq":241,"lat":38.74888900,"lon":-76.95611100,"rng_nm":25,"alt_fmsl":115,"id":"VKX","desc":"POTOMAC NDB"},
{"type":"NDB","hdg_t":221.6,"dist_nm":80.9,"freq":332,"lat":38.76594444,"lon":-77.02738889,"rng_nm":50,"alt_fmsl":0,"id":"DC","desc":"OXONN NDB"},
{"type":"VOR","hdg_t":334.4,"dist_nm":82.7,"freq":109.2,"lat":41.02338889,"lon":-76.66530556,"rng_nm":40,"alt_fmsl":1000,"id":"MIP","desc":"MILTON VORTAC"},
{"type":"VOR","hdg_t":67.5,"dist_nm":85.4,"freq":115.4,"lat":40.31163889,"lon":-74.15972222,"rng_nm":40,"alt_fmsl":129,"id":"COL","desc":"COLTS NECK VOR-DME"},
{"type":"NDB","hdg_t":1.4,"dist_nm":85.7,"freq":410,"lat":41.21038889,"lon":-75.83183333,"rng_nm":50,"alt_fmsl":0,"id":"CYE","desc":"CRYSTAL LAKE NDB"},
{"type":"VOR","hdg_t":32.1,"dist_nm":86.3,"freq":109.6,"lat":40.99583333,"lon":-74.86902778,"rng_nm":40,"alt_fmsl":920,"id":"STW","desc":"STILLWATER VOR-DME"},
{"type":"VOR","hdg_t":168.5,"dist_nm":87.7,"freq":111.2,"lat":38.34500000,"lon":-75.51058333,"rng_nm":40,"alt_fmsl":48,"id":"SBY","desc":"SALISBURY VORTAC"},
{"type":"NDB","hdg_t":48.7,"dist_nm":88,"freq":254,"lat":40.74077778,"lon":-74.42988889,"rng_nm":50,"alt_fmsl":0,"id":"CAT","desc":"CHATHAM NDB"},
{"type":"NDB","hdg_t":220.9,"dist_nm":88.2,"freq":223,"lat":38.66163889,"lon":-77.11016667,"rng_nm":50,"alt_fmsl":0,"id":"DAA","desc":"DAVEE NDB"},
{"type":"VOR","hdg_t":236,"dist_nm":89.5,"freq":113.5,"lat":38.93458333,"lon":-77.46669444,"rng_nm":40,"alt_fmsl":297,"id":"AML","desc":"ARMEL VORTAC"},
{"type":"VOR","hdg_t":5.5,"dist_nm":89.8,"freq":111.6,"lat":41.27280556,"lon":-75.68947222,"rng_nm":40,"alt_fmsl":2119,"id":"LVZ","desc":"WILKES BARRE VORTAC"},
{"type":"NDB","hdg_t":56.7,"dist_nm":90.1,"freq":241,"lat":40.59366700,"lon":-74.23000000,"rng_nm":25,"alt_fmsl":0,"id":"EW","desc":"CHESA NDB"},
{"type":"NDB","hdg_t":159.2,"dist_nm":90.7,"freq":407,"lat":38.36261111,"lon":-75.19780556,"rng_nm":50,"alt_fmsl":0,"id":"OX","desc":"LANDY NDB"},
{"type":"NDB","hdg_t":56.5,"dist_nm":91,"freq":373,"lat":40.60733300,"lon":-74.21797200,"rng_nm":25,"alt_fmsl":10,"id":"EZ","desc":"LIZAH NDB"},
{"type":"VOR","hdg_t":267.5,"dist_nm":91.5,"freq":109.8,"lat":39.69772222,"lon":-77.85572222,"rng_nm":40,"alt_fmsl":0,"id":"HGR","desc":"HAGERSTOWN VOR"},
{"type":"NDB","hdg_t":232.8,"dist_nm":91.6,"freq":346,"lat":38.84727778,"lon":-77.43788889,"rng_nm":50,"alt_fmsl":0,"id":"IA","desc":"TILLE NDB"},
{"type":"NDB","hdg_t":166,"dist_nm":92.7,"freq":278,"lat":38.27870000,"lon":-75.40577800,"rng_nm":25,"alt_fmsl":0,"id":"SB","desc":"COLBE NDB"},
{"type":"VOR","hdg_t":195.3,"dist_nm":92.7,"freq":117.6,"lat":38.28786111,"lon":-76.40022222,"rng_nm":40,"alt_fmsl":20,"id":"PXT","desc":"PATUXENT VORTAC"},
{"type":"NDB","hdg_t":195.4,"dist_nm":92.8,"freq":400,"lat":38.28594444,"lon":-76.40325000,"rng_nm":50,"alt_fmsl":0,"id":"NHK","desc":"PATUXENT NDB"},
{"type":"VOR","hdg_t":256,"dist_nm":94.3,"freq":112.1,"lat":39.38558333,"lon":-77.84836111,"rng_nm":40,"alt_fmsl":600,"id":"MRB","desc":"MARTINSBURG VORTAC"},
{"type":"VOR","hdg_t":276.1,"dist_nm":96.1,"freq":115,"lat":39.93322222,"lon":-77.95094444,"rng_nm":40,"alt_fmsl":2340,"id":"THS","desc":"ST THOMAS VORTAC"},
{"type":"NDB","hdg_t":337.3,"dist_nm":97.4,"freq":344,"lat":41.27708333,"lon":-76.71013889,"rng_nm":50,"alt_fmsl":0,"id":"PIX","desc":"PICTURE ROCKS NDB"},
{"type":"VOR","hdg_t":38.1,"dist_nm":98.6,"freq":115.7,"lat":41.06755556,"lon":-74.53830556,"rng_nm":130,"alt_fmsl":1400,"id":"SAX","desc":"SPARTA VORTAC"}
]
}
