{"success":true,"source":"xp2csv.pl","last_updated":"2013/11/08 14:53:21 UTC"
,"icao":"N56","name":"Great Valley","lat":42.20506388,"lon":-78.64725056,"rwys":1,"ils":0,"index":1663241,"path":"w080n40/w079n42"
,"runways":[
{"len_m":1160,"wid_m":30.48,"hdg":50,"surf":"Turf/grass","rwy1":"06","lat1":42.20171389,"lon1":-78.65264022,"rwy2":"24","lat2":42.20841387,"lon2":-78.64186090}
]
,"navaids":[
{"type":"NDB","hdg_t":71.2,"dist_nm":14.6,"freq":360,"lat":42.28352778,"lon":-78.33491667,"rng_nm":50,"alt_fmsl":0,"id":"LYS","desc":"OLEAN NDB"},
{"type":"VOR","hdg_t":267.4,"dist_nm":21.1,"freq":114.7,"lat":42.18861111,"lon":-79.12130556,"rng_nm":130,"alt_fmsl":1786,"id":"JHW","desc":"JAMESTOWN VOR-DME"},
{"type":"VOR","hdg_t":177.1,"dist_nm":25.1,"freq":116.6,"lat":41.78638889,"lon":-78.61936111,"rng_nm":40,"alt_fmsl":2100,"id":"BFD","desc":"BRADFORD VOR-DME"},
{"type":"VOR","hdg_t":103.2,"dist_nm":29.7,"freq":111.4,"lat":42.08963889,"lon":-77.99955556,"rng_nm":40,"alt_fmsl":2296,"id":"ELZ","desc":"WELLSVILLE VORTAC"},
{"type":"VOR","hdg_t":301.7,"dist_nm":32.7,"freq":116.2,"lat":42.49055556,"lon":-79.27411111,"rng_nm":130,"alt_fmsl":680,"id":"DKK","desc":"DUNKIRK VORTAC"},
{"type":"NDB","hdg_t":349.4,"dist_nm":40.8,"freq":204,"lat":42.87388889,"lon":-78.81658333,"rng_nm":50,"alt_fmsl":0,"id":"GB","desc":"PLAZZ NDB"},
{"type":"VOR","hdg_t":0,"dist_nm":43.4,"freq":116.4,"lat":42.92900000,"lon":-78.64633333,"rng_nm":130,"alt_fmsl":730,"id":"BUF","desc":"BUFFALO VOR-DME"},
{"type":"VOR","hdg_t":229.6,"dist_nm":45.3,"freq":117.6,"lat":41.71302778,"lon":-79.41727778,"rng_nm":40,"alt_fmsl":1710,"id":"TDT","desc":"TIDIOUTE VORTAC"},
{"type":"NDB","hdg_t":359.8,"dist_nm":47.6,"freq":231,"lat":43.00027778,"lon":-78.65086111,"rng_nm":50,"alt_fmsl":0,"id":"BU","desc":"KLUMP NDB"},
{"type":"NDB","hdg_t":248.9,"dist_nm":48,"freq":258,"lat":41.91266667,"lon":-79.64844444,"rng_nm":50,"alt_fmsl":0,"id":"ORJ","desc":"CORRY NDB"},
{"type":"VOR","hdg_t":143.5,"dist_nm":51.4,"freq":113.9,"lat":41.51275000,"lon":-77.97011111,"rng_nm":130,"alt_fmsl":2320,"id":"SLT","desc":"SLATE RUN VORTAC"},
{"type":"NDB","hdg_t":351.1,"dist_nm":54.8,"freq":329,"lat":43.10902778,"lon":-78.83838889,"rng_nm":50,"alt_fmsl":0,"id":"IA","desc":"KATHI NDB"},
{"type":"VOR","hdg_t":46.7,"dist_nm":55.4,"freq":108.2,"lat":42.83438889,"lon":-77.73275000,"rng_nm":40,"alt_fmsl":990,"id":"GEE","desc":"GENESEO VOR-DME"},
{"type":"SDME","hdg_t":345.8,"dist_nm":56.1,"freq":111,"lat":43.11250000,"lon":-78.96027800,"rng_nm":25,"alt_fmsl":635,"id":"IAG","desc":"NIAGARA FALLS TACAN"},
{"type":"NDB","hdg_t":38.5,"dist_nm":61.9,"freq":344,"lat":43.00991667,"lon":-77.76927778,"rng_nm":50,"alt_fmsl":0,"id":"AVN","desc":"AVON NDB"},
{"type":"NDB","hdg_t":334.7,"dist_nm":62.5,"freq":408,"lat":43.14716667,"lon":-79.25497222,"rng_nm":50,"alt_fmsl":0,"id":"SN","desc":"ST CATHERINES NDB"},
{"type":"VOR","hdg_t":118.6,"dist_nm":62.8,"freq":108.6,"lat":41.69525000,"lon":-77.41991667,"rng_nm":40,"alt_fmsl":1985,"id":"SFK","desc":"STONYFORK VOR-DME"},
{"type":"VOR","hdg_t":158.9,"dist_nm":63.5,"freq":116,"lat":41.21494444,"lon":-78.14275000,"rng_nm":130,"alt_fmsl":2250,"id":"ETG","desc":"KEATING VORTAC"},
{"type":"NDB","hdg_t":265.9,"dist_nm":65.2,"freq":372,"lat":42.11919444,"lon":-80.10458333,"rng_nm":50,"alt_fmsl":0,"id":"CQD","desc":"CASCADE NDB"},
{"type":"VOR","hdg_t":37.9,"dist_nm":69.7,"freq":110,"lat":43.11797222,"lon":-77.67280556,"rng_nm":40,"alt_fmsl":549,"id":"ROC","desc":"ROCHESTER VOR-DME"},
{"type":"VOR","hdg_t":230.1,"dist_nm":71.1,"freq":109.6,"lat":41.43861111,"lon":-79.85677778,"rng_nm":40,"alt_fmsl":0,"id":"FKL","desc":"FRANKLIN VOR"},
{"type":"NDB","hdg_t":262.6,"dist_nm":72.4,"freq":349,"lat":42.03863889,"lon":-80.25536111,"rng_nm":50,"alt_fmsl":0,"id":"ER","desc":"ESMER NDB"},
{"type":"VOR","hdg_t":94.7,"dist_nm":72.7,"freq":109.65,"lat":42.09416667,"lon":-77.02480556,"rng_nm":40,"alt_fmsl":1632,"id":"ULW","desc":"ELMIRA VOR-DME"},
{"type":"VOR","hdg_t":210.1,"dist_nm":73.2,"freq":112.9,"lat":41.14630556,"lon":-79.45797222,"rng_nm":40,"alt_fmsl":1520,"id":"CIP","desc":"CLARION VOR-DME"},
{"type":"NDB","hdg_t":40.8,"dist_nm":73.4,"freq":400,"lat":43.12652778,"lon":-77.55394444,"rng_nm":50,"alt_fmsl":0,"id":"RO","desc":"BREIT NDB"},
{"type":"VOR","hdg_t":261.8,"dist_nm":74.3,"freq":109.4,"lat":42.01741667,"lon":-80.29269444,"rng_nm":40,"alt_fmsl":800,"id":"ERI","desc":"ERIE VORTAC"},
{"type":"NDB","hdg_t":69,"dist_nm":75.4,"freq":260,"lat":42.64397222,"lon":-77.05613889,"rng_nm":50,"alt_fmsl":0,"id":"PYA","desc":"PENN YAN NDB"},
{"type":"NDB","hdg_t":318.3,"dist_nm":75.8,"freq":266,"lat":43.14421700,"lon":-79.79396900,"rng_nm":25,"alt_fmsl":0,"id":"ZHM","desc":"BINBROOK NDB"},
{"type":"NDB","hdg_t":162.5,"dist_nm":76.5,"freq":275,"lat":40.98613889,"lon":-78.14252778,"rng_nm":50,"alt_fmsl":0,"id":"PS","desc":"PORTS NDB"},
{"type":"NDB","hdg_t":312.8,"dist_nm":81.4,"freq":221,"lat":43.12111111,"lon":-80.00666667,"rng_nm":50,"alt_fmsl":0,"id":"HM","desc":"HAMILTON NDB"},
{"type":"VOR","hdg_t":158.9,"dist_nm":82.7,"freq":115.5,"lat":40.91625000,"lon":-77.99272222,"rng_nm":130,"alt_fmsl":2440,"id":"PSB","desc":"PHILIPSBURG VORTAC"},
{"type":"NDB","hdg_t":87.9,"dist_nm":83.9,"freq":245,"lat":42.23866667,"lon":-76.76394444,"rng_nm":50,"alt_fmsl":0,"id":"ALP","desc":"ALPINE NDB"},
{"type":"NDB","hdg_t":314.7,"dist_nm":85.3,"freq":397,"lat":43.19727200,"lon":-80.02869700,"rng_nm":25,"alt_fmsl":0,"id":"ZHA","desc":"ANCASTER NDB"},
{"type":"NDB","hdg_t":151.9,"dist_nm":87.7,"freq":388,"lat":40.91030556,"lon":-77.74175000,"rng_nm":50,"alt_fmsl":0,"id":"UN","desc":"PENUE NDB"},
{"type":"VOR","hdg_t":170.7,"dist_nm":89.2,"freq":114.9,"lat":40.73511111,"lon":-78.33130556,"rng_nm":40,"alt_fmsl":2630,"id":"TON","desc":"TYRONE VORTAC"},
{"type":"NDB","hdg_t":339.1,"dist_nm":90.4,"freq":257,"lat":43.61261111,"lon":-79.38561111,"rng_nm":50,"alt_fmsl":0,"id":"TZ","desc":"GIBRALTAR POINT NDB"},
{"type":"SDME","hdg_t":339,"dist_nm":91.5,"freq":110.15,"lat":43.62722200,"lon":-79.39944400,"rng_nm":25,"alt_fmsl":286,"id":"ITZ","desc":"CITY CENTRE DME"},
{"type":"NDB","hdg_t":335.2,"dist_nm":93.6,"freq":368,"lat":43.61950000,"lon":-79.54777778,"rng_nm":50,"alt_fmsl":0,"id":"ZYZ","desc":"QUEENSWAY(TORONTO NDB"},
{"type":"NDB","hdg_t":304.2,"dist_nm":94,"freq":207,"lat":43.07333333,"lon":-80.41611111,"rng_nm":50,"alt_fmsl":0,"id":"FD","desc":"BRANTFORD NDB"},
{"type":"NDB","hdg_t":331.8,"dist_nm":96.2,"freq":236,"lat":43.61616100,"lon":-79.68840600,"rng_nm":25,"alt_fmsl":0,"id":"ZLB","desc":"BRITANNIA NDB"},
{"type":"NDB","hdg_t":191.4,"dist_nm":96.2,"freq":242,"lat":40.63191667,"lon":-79.06591667,"rng_nm":50,"alt_fmsl":0,"id":"INP","desc":"INDIANA NDB"},
{"type":"VOR","hdg_t":333.8,"dist_nm":97.3,"freq":112.15,"lat":43.65822222,"lon":-79.63152778,"rng_nm":130,"alt_fmsl":620,"id":"YYZ","desc":"TORONTO VOR-DME"},
{"type":"SDME","hdg_t":334.2,"dist_nm":97.3,"freq":109.1,"lat":43.66305600,"lon":-79.61861100,"rng_nm":25,"alt_fmsl":588,"id":"IJS","desc":"TORONTO DME"},
{"type":"SDME","hdg_t":334.8,"dist_nm":97.6,"freq":109.3,"lat":43.67555600,"lon":-79.59944400,"rng_nm":25,"alt_fmsl":565,"id":"INV","desc":"TORONTO DME"},
{"type":"VOR","hdg_t":254.8,"dist_nm":97.7,"freq":115.2,"lat":41.76011111,"lon":-80.74811111,"rng_nm":40,"alt_fmsl":900,"id":"JFN","desc":"JEFFERSON VOR-DME"},
{"type":"NDB","hdg_t":331.1,"dist_nm":97.8,"freq":341,"lat":43.62788889,"lon":-79.73113889,"rng_nm":50,"alt_fmsl":0,"id":"ZLP","desc":"MEADOWVALE(TORONT NDB"},
{"type":"SDME","hdg_t":333.9,"dist_nm":98,"freq":110.95,"lat":43.67027800,"lon":-79.63444400,"rng_nm":25,"alt_fmsl":565,"id":"ITO","desc":"TORONTO DME"},
{"type":"VOR","hdg_t":333.3,"dist_nm":98.7,"freq":116.55,"lat":43.67191667,"lon":-79.66411111,"rng_nm":130,"alt_fmsl":620,"id":"YTP","desc":"PEARSON VOR-DME"},
{"type":"VOR","hdg_t":79.1,"dist_nm":98.8,"freq":111.8,"lat":42.49502778,"lon":-76.46000000,"rng_nm":40,"alt_fmsl":1102,"id":"ITH","desc":"ITHACA VOR-DME"},
{"type":"VOR","hdg_t":121,"dist_nm":98.8,"freq":114.4,"lat":41.33855556,"lon":-76.77486111,"rng_nm":40,"alt_fmsl":2098,"id":"FQM","desc":"WILLIAMSPORT VOR-DME"},
{"type":"VOR","hdg_t":182.6,"dist_nm":99.5,"freq":110.6,"lat":40.54647222,"lon":-78.74702778,"rng_nm":40,"alt_fmsl":2340,"id":"REC","desc":"REVLOC VOR-DME"}
]
}
