{"success":true,"source":"xp2csv.pl","last_updated":"2013/11/08 14:53:21 UTC"
,"icao":"NA05","name":"Kraig Farms","lat":46.61219305,"lon":-97.43564806,"rwys":1,"ils":0,"index":1352226,"path":"w100n40/w098n46"
,"runways":[
{"len_m":762,"wid_m":21.34,"hdg":176,"surf":"Turf/grass","rwy1":"17","lat1":46.61561708,"lon1":-97.43590929,"rwy2":"35","lat2":46.60876902,"lon2":-97.43538683}
]
,"navaids":[
{"type":"NDB","hdg_t":200.3,"dist_nm":24.8,"freq":278,"lat":46.22369444,"lon":-97.64263889,"rng_nm":50,"alt_fmsl":0,"id":"GWR","desc":"GWINNER NDB"},
{"type":"VOR","hdg_t":70.4,"dist_nm":25.5,"freq":116.2,"lat":46.75336111,"lon":-96.85133333,"rng_nm":130,"alt_fmsl":908,"id":"FAR","desc":"FARGO VORTAC"},
{"type":"NDB","hdg_t":46.7,"dist_nm":34.9,"freq":365,"lat":47.00916667,"lon":-96.81516667,"rng_nm":50,"alt_fmsl":0,"id":"AA","desc":"KENIE NDB"},
{"type":"NDB","hdg_t":122.2,"dist_nm":40.9,"freq":233,"lat":46.24488889,"lon":-96.60361111,"rng_nm":50,"alt_fmsl":0,"id":"BWP","desc":"BRECKENRIDGE-WAHP NDB"},
{"type":"NDB","hdg_t":195.2,"dist_nm":49.3,"freq":386,"lat":45.81916700,"lon":-97.74558300,"rng_nm":25,"alt_fmsl":1312,"id":"BTN","desc":"BRITTON NDB"},
{"type":"NDB","hdg_t":288,"dist_nm":49.5,"freq":395,"lat":46.86286111,"lon":-98.58072222,"rng_nm":50,"alt_fmsl":0,"id":"JM","desc":"SABON NDB"},
{"type":"VOR","hdg_t":291,"dist_nm":54.7,"freq":114.5,"lat":46.93286111,"lon":-98.67877778,"rng_nm":40,"alt_fmsl":1493,"id":"JMS","desc":"JAMESTOWN VOR-DME"},
{"type":"VOR","hdg_t":109.5,"dist_nm":56.4,"freq":110.4,"lat":46.28936111,"lon":-96.15680556,"rng_nm":25,"alt_fmsl":1201,"id":"FFM","desc":"FERGUS FALLS VOR-DME"},
{"type":"NDB","hdg_t":111.8,"dist_nm":61.8,"freq":337,"lat":46.21980556,"lon":-96.05769444,"rng_nm":50,"alt_fmsl":0,"id":"FF","desc":"HAMRE NDB"},
{"type":"NDB","hdg_t":143,"dist_nm":62,"freq":326,"lat":45.78327778,"lon":-96.54669444,"rng_nm":50,"alt_fmsl":0,"id":"ETH","desc":"WHEATON NDB"},
{"type":"VOR","hdg_t":78.1,"dist_nm":65.1,"freq":111.2,"lat":46.82555556,"lon":-95.88733333,"rng_nm":25,"alt_fmsl":1387,"id":"DTL","desc":"DETROIT LAKES VOR-DME"},
{"type":"NDB","hdg_t":7.8,"dist_nm":74.8,"freq":345,"lat":47.84638889,"lon":-97.18152778,"rng_nm":50,"alt_fmsl":0,"id":"GF","desc":"HISER NDB"},
{"type":"SDME","hdg_t":0.8,"dist_nm":80.7,"freq":116.4,"lat":47.95716700,"lon":-97.40583300,"rng_nm":130,"alt_fmsl":951,"id":"RDR","desc":"RED RIVER TACAN"},
{"type":"NDB","hdg_t":24.1,"dist_nm":80.9,"freq":400,"lat":47.84033333,"lon":-96.61641667,"rng_nm":50,"alt_fmsl":0,"id":"CKN","desc":"CROOKSTON NDB"},
{"type":"VOR","hdg_t":7.1,"dist_nm":81.2,"freq":114.3,"lat":47.95483333,"lon":-97.18536111,"rng_nm":130,"alt_fmsl":841,"id":"GFK","desc":"GRAND FORKS VOR-DME"},
{"type":"VOR","hdg_t":208.8,"dist_nm":81.6,"freq":113,"lat":45.41736111,"lon":-98.36872222,"rng_nm":130,"alt_fmsl":1301,"id":"ABR","desc":"ABERDEEN VOR-DME"},
{"type":"NDB","hdg_t":207.2,"dist_nm":82.5,"freq":203,"lat":45.38600000,"lon":-98.32836111,"rng_nm":50,"alt_fmsl":0,"id":"AB","desc":"RENEY NDB"},
{"type":"VOR","hdg_t":135.1,"dist_nm":87.7,"freq":109.6,"lat":45.56580556,"lon":-95.96922222,"rng_nm":25,"alt_fmsl":1132,"id":"MOX","desc":"MORRIS VOR-DME"},
{"type":"NDB","hdg_t":151.2,"dist_nm":89.3,"freq":332,"lat":45.30166667,"lon":-96.42080556,"rng_nm":50,"alt_fmsl":0,"id":"VVV","desc":"ORTONVILLE NDB"},
{"type":"NDB","hdg_t":48.7,"dist_nm":90,"freq":224,"lat":47.58902778,"lon":-95.76958333,"rng_nm":50,"alt_fmsl":0,"id":"FSE","desc":"FOSSTON NDB"},
{"type":"VOR","hdg_t":172.7,"dist_nm":98.7,"freq":116.6,"lat":44.97963889,"lon":-97.14177778,"rng_nm":40,"alt_fmsl":1762,"id":"ATY","desc":"WATERTOWN VORTAC"},
{"type":"VOR","hdg_t":79.1,"dist_nm":99,"freq":110.6,"lat":46.89813889,"lon":-95.07088889,"rng_nm":40,"alt_fmsl":1441,"id":"PKD","desc":"PARK RAPIDS VOR-DME"},
{"type":"VOR","hdg_t":112.3,"dist_nm":99.7,"freq":112.8,"lat":45.95838889,"lon":-95.23263889,"rng_nm":40,"alt_fmsl":1367,"id":"AXN","desc":"ALEXANDRIA VOR-DME"},
{"type":"NDB","hdg_t":32.6,"dist_nm":99.9,"freq":260,"lat":48.00655556,"lon":-96.09550000,"rng_nm":50,"alt_fmsl":0,"id":"HY","desc":"HARVI NDB"}
]
}
