{"success":true,"source":"xp2csv.pl","last_updated":"2013/11/08 14:53:21 UTC"
,"icao":"NA34","name":"Bickerdike Airstrip","lat":45.94551472,"lon":-96.71646306,"rwys":1,"ils":0,"index":1368569,"path":"w100n40/w097n45"
,"runways":[
{"len_m":703,"wid_m":18.29,"hdg":105,"surf":"Turf/grass","rwy1":"10","lat1":45.94638420,"lon1":-96.72082383,"rwy2":"28","lat2":45.94464524,"lon2":-96.71210229}
]
,"navaids":[
{"type":"NDB","hdg_t":143.7,"dist_nm":12,"freq":326,"lat":45.78327778,"lon":-96.54669444,"rng_nm":50,"alt_fmsl":0,"id":"ETH","desc":"WHEATON NDB"},
{"type":"NDB","hdg_t":14.6,"dist_nm":18.5,"freq":233,"lat":46.24488889,"lon":-96.60361111,"rng_nm":50,"alt_fmsl":0,"id":"BWP","desc":"BRECKENRIDGE-WAHP NDB"},
{"type":"VOR","hdg_t":48.3,"dist_nm":31.1,"freq":110.4,"lat":46.28936111,"lon":-96.15680556,"rng_nm":25,"alt_fmsl":1201,"id":"FFM","desc":"FERGUS FALLS VOR-DME"},
{"type":"NDB","hdg_t":58.8,"dist_nm":32,"freq":337,"lat":46.21980556,"lon":-96.05769444,"rng_nm":50,"alt_fmsl":0,"id":"FF","desc":"HAMRE NDB"},
{"type":"VOR","hdg_t":125.7,"dist_nm":38.7,"freq":109.6,"lat":45.56580556,"lon":-95.96922222,"rng_nm":25,"alt_fmsl":1132,"id":"MOX","desc":"MORRIS VOR-DME"},
{"type":"NDB","hdg_t":162,"dist_nm":40.5,"freq":332,"lat":45.30166667,"lon":-96.42080556,"rng_nm":50,"alt_fmsl":0,"id":"VVV","desc":"ORTONVILLE NDB"},
{"type":"NDB","hdg_t":293.6,"dist_nm":42.1,"freq":278,"lat":46.22369444,"lon":-97.64263889,"rng_nm":50,"alt_fmsl":0,"id":"GWR","desc":"GWINNER NDB"},
{"type":"NDB","hdg_t":260.3,"dist_nm":43.7,"freq":386,"lat":45.81916700,"lon":-97.74558300,"rng_nm":25,"alt_fmsl":1312,"id":"BTN","desc":"BRITTON NDB"},
{"type":"VOR","hdg_t":353.4,"dist_nm":48.8,"freq":116.2,"lat":46.75336111,"lon":-96.85133333,"rng_nm":130,"alt_fmsl":908,"id":"FAR","desc":"FARGO VORTAC"},
{"type":"NDB","hdg_t":145,"dist_nm":52.3,"freq":356,"lat":45.22847222,"lon":-96.00955556,"rng_nm":50,"alt_fmsl":0,"id":"AQP","desc":"APPLETON NDB"},
{"type":"NDB","hdg_t":129.2,"dist_nm":58.2,"freq":239,"lat":45.32719444,"lon":-95.65091667,"rng_nm":50,"alt_fmsl":0,"id":"BBB","desc":"BENSON NDB"},
{"type":"NDB","hdg_t":98.3,"dist_nm":59.8,"freq":281,"lat":45.79171200,"lon":-95.30547900,"rng_nm":25,"alt_fmsl":1404,"id":"AJW","desc":"ANDRI NDB"},
{"type":"NDB","hdg_t":98.3,"dist_nm":59.8,"freq":374,"lat":45.79172222,"lon":-95.30552778,"rng_nm":50,"alt_fmsl":0,"id":"EE","desc":"TAMIE (LOM) NDB"},
{"type":"VOR","hdg_t":197.3,"dist_nm":60.6,"freq":116.6,"lat":44.97963889,"lon":-97.14177778,"rng_nm":40,"alt_fmsl":1762,"id":"ATY","desc":"WATERTOWN VORTAC"},
{"type":"NDB","hdg_t":106.6,"dist_nm":61.4,"freq":346,"lat":45.64430556,"lon":-95.31830556,"rng_nm":50,"alt_fmsl":0,"id":"GHW","desc":"GLENWOOD NDB"},
{"type":"NDB","hdg_t":158.3,"dist_nm":61.9,"freq":341,"lat":44.98416667,"lon":-96.17894444,"rng_nm":50,"alt_fmsl":0,"id":"DXX","desc":"DAWSON/MADISON NDB"},
{"type":"VOR","hdg_t":88.7,"dist_nm":62.1,"freq":112.8,"lat":45.95838889,"lon":-95.23263889,"rng_nm":40,"alt_fmsl":1367,"id":"AXN","desc":"ALEXANDRIA VOR-DME"},
{"type":"VOR","hdg_t":32.8,"dist_nm":63,"freq":111.2,"lat":46.82555556,"lon":-95.88733333,"rng_nm":25,"alt_fmsl":1387,"id":"DTL","desc":"DETROIT LAKES VOR-DME"},
{"type":"NDB","hdg_t":356.3,"dist_nm":63.9,"freq":365,"lat":47.00916667,"lon":-96.81516667,"rng_nm":50,"alt_fmsl":0,"id":"AA","desc":"KENIE NDB"},
{"type":"NDB","hdg_t":195.1,"dist_nm":70.9,"freq":215,"lat":44.80327778,"lon":-97.15013889,"rng_nm":50,"alt_fmsl":0,"id":"AT","desc":"LICAN NDB"},
{"type":"VOR","hdg_t":143.6,"dist_nm":72.1,"freq":111.6,"lat":44.97266667,"lon":-95.71219444,"rng_nm":25,"alt_fmsl":1037,"id":"MVE","desc":"MONTEVIDEO VOR-DME"},
{"type":"NDB","hdg_t":244.2,"dist_nm":75.6,"freq":203,"lat":45.38600000,"lon":-98.32836111,"rng_nm":50,"alt_fmsl":0,"id":"AB","desc":"RENEY NDB"},
{"type":"VOR","hdg_t":246,"dist_nm":76.3,"freq":113,"lat":45.41736111,"lon":-98.36872222,"rng_nm":130,"alt_fmsl":1301,"id":"ABR","desc":"ABERDEEN VOR-DME"},
{"type":"VOR","hdg_t":125.9,"dist_nm":83.4,"freq":113.7,"lat":45.11766667,"lon":-95.12705556,"rng_nm":25,"alt_fmsl":1125,"id":"BDH","desc":"WILLMAR VOR-DME"},
{"type":"NDB","hdg_t":71.1,"dist_nm":83.9,"freq":257,"lat":46.38230556,"lon":-94.80491667,"rng_nm":50,"alt_fmsl":0,"id":"SAZ","desc":"STAPLES NDB"},
{"type":"VOR","hdg_t":125.3,"dist_nm":84.6,"freq":113.7,"lat":45.11752800,"lon":-95.09061100,"rng_nm":25,"alt_fmsl":1120,"id":"ILL","desc":"WILLMAR VOR-DME"},
{"type":"VOR","hdg_t":49.4,"dist_nm":89,"freq":110.6,"lat":46.89813889,"lon":-95.07088889,"rng_nm":40,"alt_fmsl":1441,"id":"PKD","desc":"PARK RAPIDS VOR-DME"},
{"type":"NDB","hdg_t":158.1,"dist_nm":93.1,"freq":253,"lat":44.50175000,"lon":-95.91097222,"rng_nm":50,"alt_fmsl":0,"id":"GB","desc":"GARNO NDB"},
{"type":"NDB","hdg_t":306,"dist_nm":94.9,"freq":395,"lat":46.86286111,"lon":-98.58072222,"rng_nm":50,"alt_fmsl":0,"id":"JM","desc":"SABON NDB"},
{"type":"VOR","hdg_t":156.8,"dist_nm":97.4,"freq":111,"lat":44.44841667,"lon":-95.82477778,"rng_nm":25,"alt_fmsl":1180,"id":"MML","desc":"MARSHALL VOR-DME"},
{"type":"VOR","hdg_t":182.4,"dist_nm":98.6,"freq":108.8,"lat":44.30325000,"lon":-96.81511111,"rng_nm":25,"alt_fmsl":1641,"id":"BKX","desc":"BROOKINGS VOR-DME"},
{"type":"SDME","hdg_t":84,"dist_nm":99.1,"freq":111.1,"lat":46.09097500,"lon":-94.35498600,"rng_nm":130,"alt_fmsl":1149,"id":"RYM","desc":"CAMP RIPLEY TACAN"},
{"type":"NDB","hdg_t":89.5,"dist_nm":99.4,"freq":359,"lat":45.93341667,"lon":-94.34161111,"rng_nm":50,"alt_fmsl":0,"id":"LXL","desc":"LITTLE FALLS NDB"},
{"type":"NDB","hdg_t":84.5,"dist_nm":99.5,"freq":404,"lat":46.07919444,"lon":-94.34347222,"rng_nm":50,"alt_fmsl":0,"id":"XCR","desc":"RIPLEY NDB"}
]
}
