{"success":true,"source":"xp2csv.pl","last_updated":"2013/11/08 14:53:21 UTC"
,"icao":"NA51","name":"Anderson Airstrip","lat":47.40277305,"lon":-98.48315334,"rwys":1,"ils":0,"index":1335898,"path":"w100n40/w099n47"
,"runways":[
{"len_m":795,"wid_m":12.19,"hdg":87,"surf":"Turf/grass","rwy1":"08","lat1":47.40258643,"lon1":-98.48841453,"rwy2":"26","lat2":47.40295967,"lon2":-98.47789215}
]
,"navaids":[
{"type":"VOR","hdg_t":195.9,"dist_nm":29.3,"freq":114.5,"lat":46.93286111,"lon":-98.67877778,"rng_nm":40,"alt_fmsl":1493,"id":"JMS","desc":"JAMESTOWN VOR-DME"},
{"type":"NDB","hdg_t":187,"dist_nm":32.6,"freq":395,"lat":46.86286111,"lon":-98.58072222,"rng_nm":50,"alt_fmsl":0,"id":"JM","desc":"SABON NDB"},
{"type":"NDB","hdg_t":341.2,"dist_nm":40.1,"freq":332,"lat":48.03552778,"lon":-98.80383333,"rng_nm":50,"alt_fmsl":0,"id":"VK","desc":"VIKOR NDB"},
{"type":"VOR","hdg_t":338,"dist_nm":46.1,"freq":111,"lat":48.11522222,"lon":-98.91250000,"rng_nm":40,"alt_fmsl":1448,"id":"DVL","desc":"DEVILS LAKE VOR-DME"},
{"type":"SDME","hdg_t":52.2,"dist_nm":54.9,"freq":116.4,"lat":47.95716700,"lon":-97.40583300,"rng_nm":130,"alt_fmsl":951,"id":"RDR","desc":"RED RIVER TACAN"},
{"type":"NDB","hdg_t":62.7,"dist_nm":59.1,"freq":345,"lat":47.84638889,"lon":-97.18152778,"rng_nm":50,"alt_fmsl":0,"id":"GF","desc":"HISER NDB"},
{"type":"VOR","hdg_t":57.3,"dist_nm":62.1,"freq":114.3,"lat":47.95483333,"lon":-97.18536111,"rng_nm":130,"alt_fmsl":841,"id":"GFK","desc":"GRAND FORKS VOR-DME"},
{"type":"NDB","hdg_t":108.4,"dist_nm":72.2,"freq":365,"lat":47.00916667,"lon":-96.81516667,"rng_nm":50,"alt_fmsl":0,"id":"AA","desc":"KENIE NDB"},
{"type":"VOR","hdg_t":119.6,"dist_nm":77.4,"freq":116.2,"lat":46.75336111,"lon":-96.85133333,"rng_nm":130,"alt_fmsl":908,"id":"FAR","desc":"FARGO VORTAC"},
{"type":"NDB","hdg_t":153.6,"dist_nm":78.7,"freq":278,"lat":46.22369444,"lon":-97.64263889,"rng_nm":50,"alt_fmsl":0,"id":"GWR","desc":"GWINNER NDB"},
{"type":"NDB","hdg_t":70.1,"dist_nm":80.1,"freq":400,"lat":47.84033333,"lon":-96.61641667,"rng_nm":50,"alt_fmsl":0,"id":"CKN","desc":"CROOKSTON NDB"},
{"type":"VOR","hdg_t":247.5,"dist_nm":97.3,"freq":116.5,"lat":46.76175000,"lon":-100.66541667,"rng_nm":40,"alt_fmsl":1853,"id":"BIS","desc":"BISMARCK VOR-DME"},
{"type":"NDB","hdg_t":245.3,"dist_nm":98.3,"freq":230,"lat":46.69808333,"lon":-100.64783333,"rng_nm":50,"alt_fmsl":0,"id":"BI","desc":"JADAN NDB"},
{"type":"NDB","hdg_t":161.9,"dist_nm":99.8,"freq":386,"lat":45.81916700,"lon":-97.74558300,"rng_nm":25,"alt_fmsl":1312,"id":"BTN","desc":"BRITTON NDB"}
]
}
