{"success":true,"source":"xp2csv.pl","last_updated":"2013/11/08 14:53:21 UTC"
,"icao":"NA60","name":"Dakota","lat":47.23497833,"lon":-97.03841806,"rwys":1,"ils":0,"index":1352267,"path":"w100n40/w098n47"
,"runways":[
{"len_m":792,"wid_m":18.29,"hdg":175,"surf":"Turf/grass","rwy1":"17","lat1":47.23853552,"lon1":-97.03878440,"rwy2":"35","lat2":47.23142114,"lon2":-97.03805172}
]
,"navaids":[
{"type":"NDB","hdg_t":145.9,"dist_nm":16.3,"freq":365,"lat":47.00916667,"lon":-96.81516667,"rng_nm":50,"alt_fmsl":0,"id":"AA","desc":"KENIE NDB"},
{"type":"VOR","hdg_t":165,"dist_nm":29.9,"freq":116.2,"lat":46.75336111,"lon":-96.85133333,"rng_nm":130,"alt_fmsl":908,"id":"FAR","desc":"FARGO VORTAC"},
{"type":"NDB","hdg_t":351,"dist_nm":37.1,"freq":345,"lat":47.84638889,"lon":-97.18152778,"rng_nm":50,"alt_fmsl":0,"id":"GF","desc":"HISER NDB"},
{"type":"NDB","hdg_t":25.1,"dist_nm":40.1,"freq":400,"lat":47.84033333,"lon":-96.61641667,"rng_nm":50,"alt_fmsl":0,"id":"CKN","desc":"CROOKSTON NDB"},
{"type":"VOR","hdg_t":352.1,"dist_nm":43.6,"freq":114.3,"lat":47.95483333,"lon":-97.18536111,"rng_nm":130,"alt_fmsl":841,"id":"GFK","desc":"GRAND FORKS VOR-DME"},
{"type":"SDME","hdg_t":341.1,"dist_nm":45.8,"freq":116.4,"lat":47.95716700,"lon":-97.40583300,"rng_nm":130,"alt_fmsl":951,"id":"RDR","desc":"RED RIVER TACAN"},
{"type":"VOR","hdg_t":117,"dist_nm":53.2,"freq":111.2,"lat":46.82555556,"lon":-95.88733333,"rng_nm":25,"alt_fmsl":1387,"id":"DTL","desc":"DETROIT LAKES VOR-DME"},
{"type":"NDB","hdg_t":67.1,"dist_nm":55.9,"freq":224,"lat":47.58902778,"lon":-95.76958333,"rng_nm":50,"alt_fmsl":0,"id":"FSE","desc":"FOSSTON NDB"},
{"type":"NDB","hdg_t":39.2,"dist_nm":60,"freq":260,"lat":48.00655556,"lon":-96.09550000,"rng_nm":50,"alt_fmsl":0,"id":"HY","desc":"HARVI NDB"},
{"type":"VOR","hdg_t":34.2,"dist_nm":60.8,"freq":108.4,"lat":48.06930556,"lon":-96.18644444,"rng_nm":40,"alt_fmsl":1039,"id":"TVF","desc":"THIEF RIVER FALLS VOR-DME"},
{"type":"NDB","hdg_t":163,"dist_nm":62,"freq":233,"lat":46.24488889,"lon":-96.60361111,"rng_nm":50,"alt_fmsl":0,"id":"BWP","desc":"BRECKENRIDGE-WAHP NDB"},
{"type":"NDB","hdg_t":202.5,"dist_nm":65.6,"freq":278,"lat":46.22369444,"lon":-97.64263889,"rng_nm":50,"alt_fmsl":0,"id":"GWR","desc":"GWINNER NDB"},
{"type":"NDB","hdg_t":251.1,"dist_nm":67.1,"freq":395,"lat":46.86286111,"lon":-98.58072222,"rng_nm":50,"alt_fmsl":0,"id":"JM","desc":"SABON NDB"},
{"type":"VOR","hdg_t":147,"dist_nm":67.4,"freq":110.4,"lat":46.28936111,"lon":-96.15680556,"rng_nm":25,"alt_fmsl":1201,"id":"FFM","desc":"FERGUS FALLS VOR-DME"},
{"type":"VOR","hdg_t":255.5,"dist_nm":69.6,"freq":114.5,"lat":46.93286111,"lon":-98.67877778,"rng_nm":40,"alt_fmsl":1493,"id":"JMS","desc":"JAMESTOWN VOR-DME"},
{"type":"NDB","hdg_t":146,"dist_nm":73.1,"freq":337,"lat":46.21980556,"lon":-96.05769444,"rng_nm":50,"alt_fmsl":0,"id":"FF","desc":"HAMRE NDB"},
{"type":"VOR","hdg_t":103.3,"dist_nm":83.1,"freq":110.6,"lat":46.89813889,"lon":-95.07088889,"rng_nm":40,"alt_fmsl":1441,"id":"PKD","desc":"PARK RAPIDS VOR-DME"},
{"type":"NDB","hdg_t":304.5,"dist_nm":86.2,"freq":332,"lat":48.03552778,"lon":-98.80383333,"rng_nm":50,"alt_fmsl":0,"id":"VK","desc":"VIKOR NDB"},
{"type":"VOR","hdg_t":78.4,"dist_nm":87.7,"freq":110,"lat":47.50783333,"lon":-94.92330556,"rng_nm":25,"alt_fmsl":1384,"id":"IDJ","desc":"LAKE BEMIDJI VOR-DME"},
{"type":"NDB","hdg_t":166.6,"dist_nm":89.4,"freq":326,"lat":45.78327778,"lon":-96.54669444,"rng_nm":50,"alt_fmsl":0,"id":"ETH","desc":"WHEATON NDB"},
{"type":"NDB","hdg_t":199.2,"dist_nm":89.8,"freq":386,"lat":45.81916700,"lon":-97.74558300,"rng_nm":25,"alt_fmsl":1312,"id":"BTN","desc":"BRITTON NDB"},
{"type":"NDB","hdg_t":81.2,"dist_nm":90.7,"freq":371,"lat":47.44480556,"lon":-94.83477778,"rng_nm":50,"alt_fmsl":0,"id":"MD","desc":"BUNAN NDB"},
{"type":"VOR","hdg_t":305.5,"dist_nm":92.5,"freq":111,"lat":48.11522222,"lon":-98.91250000,"rng_nm":40,"alt_fmsl":1448,"id":"DVL","desc":"DEVILS LAKE VOR-DME"},
{"type":"VOR","hdg_t":358.1,"dist_nm":98.1,"freq":112.4,"lat":48.86916667,"lon":-97.11708333,"rng_nm":130,"alt_fmsl":798,"id":"HML","desc":"HUMBOLDT VORTAC"}
]
}
