{"success":true,"source":"xp2csv.pl","last_updated":"2013/11/08 14:53:21 UTC"
,"icao":"NC16","name":"Hiatt","lat":35.83013666,"lon":-80.10754473,"rwys":2,"ils":0,"index":1630067,"path":"w090n30/w081n35"
,"runways":[
{"len_m":669,"wid_m":22.86,"hdg":4,"surf":"Turf/grass","rwy1":"01","lat1":35.82712673,"lon1":-80.10780433,"rwy2":"19","lat2":35.83314659,"lon2":-80.10728513},
{"len_m":354,"wid_m":15.24,"hdg":84,"surf":"Turf/grass","rwy1":"09","lat1":35.82997036,"lon1":-80.10949626,"rwy2":"27","lat2":35.83030296,"lon2":-80.10559320}
]
,"navaids":[
{"type":"NDB","hdg_t":119.9,"dist_nm":13.6,"freq":266,"lat":35.71625000,"lon":-79.86530556,"rng_nm":50,"alt_fmsl":0,"id":"CQJ","desc":"CITY LAKE NDB"},
{"type":"VOR","hdg_t":26.2,"dist_nm":14.4,"freq":116.2,"lat":36.04569444,"lon":-79.97638889,"rng_nm":130,"alt_fmsl":879,"id":"GSO","desc":"GREENSBORO VORTAC"},
{"type":"NDB","hdg_t":348.6,"dist_nm":14.7,"freq":317,"lat":36.07091667,"lon":-80.16683333,"rng_nm":50,"alt_fmsl":0,"id":"IN","desc":"REENO NDB"},
{"type":"SDME","hdg_t":23.7,"dist_nm":17.5,"freq":109.7,"lat":36.09776389,"lon":-79.96214444,"rng_nm":18,"alt_fmsl":925,"id":"IIDB","desc":"KGSO 23R DME-ILS DME"},
{"type":"NDB","hdg_t":286.4,"dist_nm":17.7,"freq":354,"lat":35.91346900,"lon":-80.45616700,"rng_nm":25,"alt_fmsl":810,"id":"DVZ","desc":"DAVIE NDB"},
{"type":"SDME","hdg_t":25.7,"dist_nm":19.2,"freq":109.55,"lat":36.11876111,"lon":-79.93550833,"rng_nm":18,"alt_fmsl":882,"id":"ILLG","desc":"KGSO 05L DME-ILS DME"},
{"type":"SDME","hdg_t":28.7,"dist_nm":19.2,"freq":111.9,"lat":36.11145556,"lon":-79.91745278,"rng_nm":18,"alt_fmsl":882,"id":"ILZY","desc":"KGSO 05R DME-ILS DME"},
{"type":"NDB","hdg_t":252.7,"dist_nm":19.5,"freq":275,"lat":35.73311111,"lon":-80.48955556,"rng_nm":50,"alt_fmsl":0,"id":"RU","desc":"ROVDY (LOM/NDB) NDB"},
{"type":"NDB","hdg_t":176.6,"dist_nm":20.4,"freq":346,"lat":35.48916667,"lon":-80.08341667,"rng_nm":50,"alt_fmsl":0,"id":"VU","desc":"ALLER NDB"},
{"type":"NDB","hdg_t":9.8,"dist_nm":20.4,"freq":254,"lat":36.16697222,"lon":-80.03563889,"rng_nm":50,"alt_fmsl":0,"id":"GS","desc":"MARKY NDB"},
{"type":"VOR","hdg_t":92.4,"dist_nm":24.1,"freq":113,"lat":35.81163889,"lon":-79.61261111,"rng_nm":40,"alt_fmsl":830,"id":"LIB","desc":"LIBERTY VORTAC"},
{"type":"NDB","hdg_t":70.6,"dist_nm":26.9,"freq":361,"lat":35.97811111,"lon":-79.58483333,"rng_nm":50,"alt_fmsl":0,"id":"HB","desc":"ALAMM NDB"},
{"type":"NDB","hdg_t":97.2,"dist_nm":31.7,"freq":371,"lat":35.76152778,"lon":-79.46225000,"rng_nm":50,"alt_fmsl":0,"id":"TOX","desc":"SILER CITY NDB"},
{"type":"NDB","hdg_t":26.7,"dist_nm":37,"freq":423,"lat":36.38169444,"lon":-79.76277778,"rng_nm":50,"alt_fmsl":0,"id":"SIF","desc":"SLAMMER NDB"},
{"type":"NDB","hdg_t":327.6,"dist_nm":39.1,"freq":223,"lat":36.38097222,"lon":-80.54019444,"rng_nm":50,"alt_fmsl":0,"id":"AZW","desc":"MT AIRY NDB"},
{"type":"NDB","hdg_t":313.8,"dist_nm":41.6,"freq":326,"lat":36.31005556,"lon":-80.72636111,"rng_nm":50,"alt_fmsl":0,"id":"ZEF","desc":"ZEPHYR NDB"},
{"type":"VOR","hdg_t":145.2,"dist_nm":44.7,"freq":111.8,"lat":35.21547222,"lon":-79.58794444,"rng_nm":40,"alt_fmsl":590,"id":"SDZ","desc":"SANDHILLS VORTAC"},
{"type":"NDB","hdg_t":11.4,"dist_nm":46.4,"freq":396,"lat":36.59008333,"lon":-79.91744444,"rng_nm":50,"alt_fmsl":0,"id":"UV","desc":"BALES NDB"},
{"type":"NDB","hdg_t":266.2,"dist_nm":46.8,"freq":280,"lat":35.77455300,"lon":-81.06496400,"rng_nm":25,"alt_fmsl":964,"id":"VW","desc":"TEMKY NDB"},
{"type":"NDB","hdg_t":178.5,"dist_nm":48.3,"freq":283,"lat":35.02398100,"lon":-80.08299700,"rng_nm":25,"alt_fmsl":302,"id":"AFP","desc":"ANSON CO NDB"},
{"type":"NDB","hdg_t":250.1,"dist_nm":50.9,"freq":432,"lat":35.53763889,"lon":-81.08647222,"rng_nm":50,"alt_fmsl":0,"id":"IZN","desc":"LINCOLNTON NDB"},
{"type":"NDB","hdg_t":289.6,"dist_nm":51.1,"freq":209,"lat":36.11286111,"lon":-81.09808333,"rng_nm":50,"alt_fmsl":0,"id":"UKF","desc":"WILKI NDB"},
{"type":"NDB","hdg_t":112.5,"dist_nm":51.3,"freq":406,"lat":35.49730556,"lon":-79.13991667,"rng_nm":50,"alt_fmsl":0,"id":"TT","desc":"LEECO NDB"},
{"type":"VOR","hdg_t":272.7,"dist_nm":55.3,"freq":110.8,"lat":35.86886111,"lon":-81.24052778,"rng_nm":40,"alt_fmsl":1880,"id":"BZM","desc":"BARRETTS MOUNTAIN VOR-DME"},
{"type":"NDB","hdg_t":64.2,"dist_nm":56.1,"freq":220,"lat":36.23327778,"lon":-79.06588889,"rng_nm":50,"alt_fmsl":0,"id":"HUR","desc":"PERSON(LOM/NDB) NDB"},
{"type":"VOR","hdg_t":227.4,"dist_nm":56.3,"freq":115,"lat":35.19027778,"lon":-80.95175000,"rng_nm":40,"alt_fmsl":732,"id":"CLT","desc":"CHARLOTTE VOR-DME"},
{"type":"NDB","hdg_t":147.4,"dist_nm":56.9,"freq":278,"lat":35.02794444,"lon":-79.48558333,"rng_nm":50,"alt_fmsl":0,"id":"HFF","desc":"MACKALL NDB"},
{"type":"VOR","hdg_t":39.9,"dist_nm":57.9,"freq":113.1,"lat":36.56886111,"lon":-79.33669444,"rng_nm":40,"alt_fmsl":0,"id":"DAN","desc":"DANVILLE VOR"},
{"type":"NDB","hdg_t":267.7,"dist_nm":58.5,"freq":332,"lat":35.78652778,"lon":-81.30530556,"rng_nm":50,"alt_fmsl":0,"id":"HK","desc":"TAWBA NDB"},
{"type":"NDB","hdg_t":209.3,"dist_nm":60.1,"freq":204,"lat":34.95294444,"lon":-80.70519444,"rng_nm":50,"alt_fmsl":0,"id":"TWL","desc":"WESLEY NDB"},
{"type":"NDB","hdg_t":160.7,"dist_nm":61.9,"freq":375,"lat":34.85266667,"lon":-79.69366667,"rng_nm":50,"alt_fmsl":0,"id":"RCZ","desc":"ROSCOE NDB"},
{"type":"NDB","hdg_t":233.6,"dist_nm":64.1,"freq":260,"lat":35.19147222,"lon":-81.15786111,"rng_nm":50,"alt_fmsl":0,"id":"GHJ","desc":"STONIA NDB"},
{"type":"VOR","hdg_t":87.3,"dist_nm":64.6,"freq":117.2,"lat":35.87252778,"lon":-78.78333333,"rng_nm":130,"alt_fmsl":429,"id":"RDU","desc":"RALEIGH/DURHAM VORTAC"},
{"type":"NDB","hdg_t":328.3,"dist_nm":65.7,"freq":269,"lat":36.76222222,"lon":-80.82194444,"rng_nm":50,"alt_fmsl":0,"id":"HLX","desc":"HILLSVILLE NDB"},
{"type":"NDB","hdg_t":189.9,"dist_nm":65.9,"freq":270,"lat":34.74497222,"lon":-80.33808333,"rng_nm":50,"alt_fmsl":0,"id":"PYG","desc":"PAGELAND NDB"},
{"type":"NDB","hdg_t":169.5,"dist_nm":66.2,"freq":409,"lat":34.74183333,"lon":-79.86561111,"rng_nm":50,"alt_fmsl":0,"id":"CQW","desc":"CHERAW NDB"},
{"type":"SDME","hdg_t":126.3,"dist_nm":66.4,"freq":113.8,"lat":35.16848600,"lon":-79.01966900,"rng_nm":40,"alt_fmsl":240,"id":"POB","desc":"POPE TACAN"},
{"type":"NDB","hdg_t":122.2,"dist_nm":67,"freq":338,"lat":35.22683333,"lon":-78.95436111,"rng_nm":50,"alt_fmsl":0,"id":"POB","desc":"POPE NDB"},
{"type":"NDB","hdg_t":84.6,"dist_nm":67.8,"freq":350,"lat":35.92722222,"lon":-78.72191667,"rng_nm":50,"alt_fmsl":0,"id":"LE","desc":"LEEVY NDB"},
{"type":"NDB","hdg_t":301.8,"dist_nm":69.2,"freq":410,"lat":36.43402778,"lon":-81.32180556,"rng_nm":50,"alt_fmsl":0,"id":"JU","desc":"ASHEE NDB"},
{"type":"VOR","hdg_t":186.6,"dist_nm":71.1,"freq":108.2,"lat":34.65047222,"lon":-80.27491667,"rng_nm":40,"alt_fmsl":560,"id":"CTF","desc":"CHESTERFIELD VOR-DME"},
{"type":"NDB","hdg_t":153.4,"dist_nm":73.3,"freq":257,"lat":34.73316667,"lon":-79.44369444,"rng_nm":50,"alt_fmsl":0,"id":"ME","desc":"MAXTN NDB"},
{"type":"VOR","hdg_t":46,"dist_nm":73.3,"freq":110.4,"lat":36.67502778,"lon":-79.01450000,"rng_nm":40,"alt_fmsl":530,"id":"SBV","desc":"SOUTH BOSTON VORTAC"},
{"type":"NDB","hdg_t":220.5,"dist_nm":73.8,"freq":227,"lat":34.89002778,"lon":-81.08091667,"rng_nm":50,"alt_fmsl":0,"id":"UZ","desc":"RALLY NDB"},
{"type":"NDB","hdg_t":108.3,"dist_nm":74,"freq":417,"lat":35.43300000,"lon":-78.67475000,"rng_nm":50,"alt_fmsl":0,"id":"HQT","desc":"HARNETT NDB"},
{"type":"NDB","hdg_t":165.6,"dist_nm":74.7,"freq":230,"lat":34.62022222,"lon":-79.73319444,"rng_nm":50,"alt_fmsl":0,"id":"BES","desc":"BENNETTSVILLE NDB"},
{"type":"NDB","hdg_t":122.7,"dist_nm":75.7,"freq":393,"lat":35.13905556,"lon":-78.81280556,"rng_nm":50,"alt_fmsl":0,"id":"FGP","desc":"FORT BRAGG NDB"},
{"type":"NDB","hdg_t":209.3,"dist_nm":75.9,"freq":400,"lat":34.72269444,"lon":-80.85916667,"rng_nm":50,"alt_fmsl":0,"id":"LKR","desc":"LANCASTER NDB"},
{"type":"NDB","hdg_t":265,"dist_nm":76.6,"freq":391,"lat":35.71022222,"lon":-81.67136111,"rng_nm":50,"alt_fmsl":0,"id":"FIQ","desc":"FIDDLERS NDB"},
{"type":"NDB","hdg_t":68.2,"dist_nm":77.7,"freq":271,"lat":36.30122222,"lon":-78.61850000,"rng_nm":50,"alt_fmsl":0,"id":"HXO","desc":"HUNTSBORO NDB"},
{"type":"VOR","hdg_t":129.5,"dist_nm":78.8,"freq":108.8,"lat":34.98555556,"lon":-78.87505556,"rng_nm":40,"alt_fmsl":179,"id":"FAY","desc":"FAYETTEVILLE VOR-DME"},
{"type":"NDB","hdg_t":133.4,"dist_nm":79.4,"freq":367,"lat":34.91244444,"lon":-78.93963889,"rng_nm":50,"alt_fmsl":0,"id":"GR","desc":"DOONE NDB"},
{"type":"NDB","hdg_t":245,"dist_nm":80.7,"freq":417,"lat":35.25266667,"lon":-81.59880556,"rng_nm":50,"alt_fmsl":0,"id":"SLP","desc":"FIRST RIVER NDB"},
{"type":"VOR","hdg_t":338.9,"dist_nm":80.8,"freq":116.8,"lat":37.08769444,"lon":-80.71288889,"rng_nm":130,"alt_fmsl":2120,"id":"PSK","desc":"PULASKI VORTAC"},
{"type":"NDB","hdg_t":220.9,"dist_nm":82.4,"freq":220,"lat":34.78575000,"lon":-81.20083333,"rng_nm":50,"alt_fmsl":0,"id":"DCM","desc":"CHESTER NDB"},
{"type":"NDB","hdg_t":7.4,"dist_nm":83,"freq":277,"lat":37.20405556,"lon":-79.88163889,"rng_nm":50,"alt_fmsl":0,"id":"VIT","desc":"VINTN NDB"},
{"type":"NDB","hdg_t":172.5,"dist_nm":83.7,"freq":245,"lat":34.44325000,"lon":-79.88733333,"rng_nm":50,"alt_fmsl":0,"id":"UDG","desc":"DARLINGTON NDB"},
{"type":"NDB","hdg_t":350.2,"dist_nm":83.8,"freq":368,"lat":37.20861111,"lon":-80.40344444,"rng_nm":50,"alt_fmsl":0,"id":"TEC","desc":"TECH NDB"},
{"type":"NDB","hdg_t":104,"dist_nm":84.9,"freq":263,"lat":35.47497222,"lon":-78.42522222,"rng_nm":50,"alt_fmsl":0,"id":"JN","desc":"JURLY NDB"},
{"type":"NDB","hdg_t":180.4,"dist_nm":85.2,"freq":341,"lat":34.40658333,"lon":-80.11994444,"rng_nm":50,"alt_fmsl":0,"id":"HVS","desc":"HARTSVILLE NDB"},
{"type":"NDB","hdg_t":320.2,"dist_nm":85.4,"freq":335,"lat":36.92016667,"lon":-81.24330556,"rng_nm":50,"alt_fmsl":0,"id":"MK","desc":"SUZZE NDB"},
{"type":"NDB","hdg_t":358.3,"dist_nm":85.7,"freq":379,"lat":37.26139700,"lon":-80.15815000,"rng_nm":25,"alt_fmsl":1220,"id":"CNQ","desc":"CALLAHAN NDB"},
{"type":"NDB","hdg_t":283.1,"dist_nm":88.4,"freq":320,"lat":36.15347222,"lon":-81.87983333,"rng_nm":50,"alt_fmsl":0,"id":"BAR","desc":"HEMLOCK NDB"},
{"type":"NDB","hdg_t":144.4,"dist_nm":89.1,"freq":359,"lat":34.61447222,"lon":-79.06091667,"rng_nm":50,"alt_fmsl":0,"id":"RSY","desc":"ROBESON NDB"},
{"type":"VOR","hdg_t":144.4,"dist_nm":89.4,"freq":110,"lat":34.61069444,"lon":-79.05594444,"rng_nm":25,"alt_fmsl":0,"id":"LBT","desc":"LUMBERTON VOR"},
{"type":"VOR","hdg_t":3.9,"dist_nm":89.7,"freq":114.9,"lat":37.32419444,"lon":-79.97897222,"rng_nm":25,"alt_fmsl":0,"id":"ODR","desc":"WOODRUM VOR"},
{"type":"NDB","hdg_t":156,"dist_nm":90.3,"freq":274,"lat":34.45013889,"lon":-79.36883333,"rng_nm":50,"alt_fmsl":0,"id":"DLC","desc":"DILLON NDB"},
{"type":"NDB","hdg_t":147.9,"dist_nm":90.5,"freq":384,"lat":34.54580556,"lon":-79.13850000,"rng_nm":50,"alt_fmsl":0,"id":"JB","desc":"JIGEL NDB"},
{"type":"VOR","hdg_t":1.1,"dist_nm":90.6,"freq":109.4,"lat":37.34347222,"lon":-80.07038889,"rng_nm":40,"alt_fmsl":3072,"id":"ROA","desc":"ROANOKE VORTAC"},
{"type":"VOR","hdg_t":26,"dist_nm":95.1,"freq":109.2,"lat":37.25458333,"lon":-79.23638889,"rng_nm":40,"alt_fmsl":871,"id":"LYH","desc":"LYNCHBURG VORTAC"},
{"type":"NDB","hdg_t":193.7,"dist_nm":95.3,"freq":263,"lat":34.28355556,"lon":-80.56152778,"rng_nm":50,"alt_fmsl":0,"id":"CDN","desc":"CAMDEN NDB"},
{"type":"NDB","hdg_t":25.7,"dist_nm":95.4,"freq":385,"lat":37.26241667,"lon":-79.24313889,"rng_nm":50,"alt_fmsl":0,"id":"LY","desc":"BOJAR NDB"},
{"type":"VOR","hdg_t":166.8,"dist_nm":98.2,"freq":115.2,"lat":34.23294444,"lon":-79.65711111,"rng_nm":130,"alt_fmsl":110,"id":"FLO","desc":"FLORENCE VORTAC"},
{"type":"NDB","hdg_t":120.3,"dist_nm":99.7,"freq":412,"lat":34.97544444,"lon":-78.36305556,"rng_nm":50,"alt_fmsl":0,"id":"CTZ","desc":"CLINTON NDB"}
]
}
