{"success":true,"source":"xp2csv.pl","last_updated":"2013/11/08 14:53:21 UTC"
,"icao":"NCPY","name":"Penrhyyn/tongareva","lat":-9.01522923,"lon":-158.03175387,"rwys":1,"ils":0,"index":349247,"path":"w160s10/w159s10"
,"runways":[
{"len_m":2248,"wid_m":82.91,"hdg":151,"surf":"Gravel","rwy1":"14","lat1":-9.00629146,"lon1":-158.03662656,"rwy2":"32","lat2":-9.02416701,"lon2":-158.02688118}
]
,"navaids":[
{"type":"NDB","hdg_t":330.3,"dist_nm":1.4,"freq":400,"lat":-8.99416700,"lon":-158.04383300,"rng_nm":110,"alt_fmsl":0,"id":"PY","desc":"PENRHYN NDB"},
{"type":"NDB","hdg_t":244.9,"dist_nm":193.9,"freq":380,"lat":-10.37966700,"lon":-161.00250000,"rng_nm":100,"alt_fmsl":0,"id":"MH","desc":"MANIHIKI NDB"},
{"type":"NDB","hdg_t":143.1,"dist_nm":557.7,"freq":316,"lat":-16.42777800,"lon":-152.24250000,"rng_nm":100,"alt_fmsl":46,"id":"MA","desc":"MAUPITI NDB"},
{"type":"NDB","hdg_t":140.9,"dist_nm":576.3,"freq":384,"lat":-16.44363900,"lon":-151.75450000,"rng_nm":100,"alt_fmsl":58,"id":"BB","desc":"BORA BORA NDB"},
{"type":"NDB","hdg_t":189.6,"dist_nm":594.7,"freq":320,"lat":-18.82483333,"lon":-159.77350000,"rng_nm":50,"alt_fmsl":0,"id":"AI","desc":"AITUTAKI NDB"},
{"type":"NDB","hdg_t":140.7,"dist_nm":599.7,"freq":372,"lat":-16.72141700,"lon":-151.46655600,"rng_nm":100,"alt_fmsl":73,"id":"RU","desc":"RAIATEA NDB"},
{"type":"NDB","hdg_t":138.8,"dist_nm":615.1,"freq":345,"lat":-16.69111100,"lon":-151.02972200,"rng_nm":100,"alt_fmsl":43,"id":"HH","desc":"HUAHINE NDB"},
{"type":"VOR","hdg_t":138.7,"dist_nm":615.6,"freq":112.7,"lat":-16.68544400,"lon":-151.01050000,"rng_nm":130,"alt_fmsl":39,"id":"HHN","desc":"HUAHINE VOR-DME"},
{"type":"NDB","hdg_t":180.3,"dist_nm":656.4,"freq":388,"lat":-20.00333300,"lon":-158.10666700,"rng_nm":100,"alt_fmsl":0,"id":"AT","desc":"ATIU NDB"},
{"type":"NDB","hdg_t":3.5,"dist_nm":658.2,"freq":333,"lat":1.98805600,"lon":-157.35333300,"rng_nm":25,"alt_fmsl":0,"id":"XI","desc":"CHRISTMAS ISLAND NDB"}
]
}
