{"success":true,"source":"xp2csv.pl","last_updated":"2013/11/08 14:53:21 UTC"
,"icao":"ND82","name":"Lindseth Strip","lat":48.63805555,"lon":-98.77944445,"rwys":1,"ils":0,"index":1335976,"path":"w100n40/w099n48"
,"runways":[
{"len_m":611,"wid_m":15.24,"hdg":97,"surf":"Turf/grass","rwy1":"09","lat1":48.63843730,"lon1":-98.78355497,"rwy2":"27","lat2":48.63767380,"lon2":-98.77533393}
]
,"navaids":[
{"type":"VOR","hdg_t":189.6,"dist_nm":31.8,"freq":111,"lat":48.11522222,"lon":-98.91250000,"rng_nm":40,"alt_fmsl":1448,"id":"DVL","desc":"DEVILS LAKE VOR-DME"},
{"type":"NDB","hdg_t":181.5,"dist_nm":36.1,"freq":332,"lat":48.03552778,"lon":-98.80383333,"rng_nm":50,"alt_fmsl":0,"id":"VK","desc":"VIKOR NDB"},
{"type":"VOR","hdg_t":77.5,"dist_nm":67.4,"freq":112.4,"lat":48.86916667,"lon":-97.11708333,"rng_nm":130,"alt_fmsl":798,"id":"HML","desc":"HUMBOLDT VORTAC"},
{"type":"SDME","hdg_t":126,"dist_nm":68.5,"freq":116.4,"lat":47.95716700,"lon":-97.40583300,"rng_nm":130,"alt_fmsl":951,"id":"RDR","desc":"RED RIVER TACAN"},
{"type":"VOR","hdg_t":122.1,"dist_nm":75.9,"freq":114.3,"lat":47.95483333,"lon":-97.18536111,"rng_nm":130,"alt_fmsl":841,"id":"GFK","desc":"GRAND FORKS VOR-DME"},
{"type":"NDB","hdg_t":17.8,"dist_nm":76,"freq":353,"lat":49.84177778,"lon":-98.17963889,"rng_nm":50,"alt_fmsl":0,"id":"PG","desc":"PORTAGE NDB"},
{"type":"VOR","hdg_t":14.6,"dist_nm":78.3,"freq":114.6,"lat":49.89966667,"lon":-98.26725000,"rng_nm":130,"alt_fmsl":900,"id":"YPG","desc":"PORTAGE VOR-DME"},
{"type":"NDB","hdg_t":125.9,"dist_nm":79.7,"freq":345,"lat":47.84638889,"lon":-97.18152778,"rng_nm":50,"alt_fmsl":0,"id":"GF","desc":"HISER NDB"},
{"type":"NDB","hdg_t":43.4,"dist_nm":83.8,"freq":336,"lat":49.64249400,"lon":-97.30002800,"rng_nm":25,"alt_fmsl":0,"id":"LF","desc":"LA SALLE NDB"},
{"type":"VOR","hdg_t":329.4,"dist_nm":89,"freq":113.8,"lat":49.90988889,"lon":-99.94566667,"rng_nm":130,"alt_fmsl":1346,"id":"YBR","desc":"BRANDON VOR-DME"},
{"type":"NDB","hdg_t":326.7,"dist_nm":91.6,"freq":233,"lat":49.90802778,"lon":-100.07375000,"rng_nm":50,"alt_fmsl":0,"id":"BR","desc":"BRANDON NDB"},
{"type":"NDB","hdg_t":39.3,"dist_nm":93.3,"freq":215,"lat":49.82999400,"lon":-97.25696900,"rng_nm":25,"alt_fmsl":0,"id":"ZWW","desc":"BOINE NDB"},
{"type":"NDB","hdg_t":11.2,"dist_nm":93.6,"freq":269,"lat":50.16666667,"lon":-98.30722222,"rng_nm":50,"alt_fmsl":0,"id":"UDE","desc":"DELTA NDB"},
{"type":"NDB","hdg_t":36,"dist_nm":94.3,"freq":248,"lat":49.90000000,"lon":-97.35000000,"rng_nm":50,"alt_fmsl":0,"id":"WG","desc":"WINNIPEG NDB"},
{"type":"NDB","hdg_t":41.2,"dist_nm":96.3,"freq":236,"lat":49.83388300,"lon":-97.14418900,"rng_nm":25,"alt_fmsl":0,"id":"ZHT","desc":"FORKS NDB"},
{"type":"NDB","hdg_t":35.1,"dist_nm":98,"freq":201,"lat":49.96388889,"lon":-97.32169444,"rng_nm":50,"alt_fmsl":0,"id":"ZWN","desc":"DOWNS NDB"},
{"type":"VOR","hdg_t":37.4,"dist_nm":98.2,"freq":115.5,"lat":49.92777778,"lon":-97.23922222,"rng_nm":130,"alt_fmsl":820,"id":"YWG","desc":"WINNIPEG VORTAC"},
{"type":"NDB","hdg_t":118,"dist_nm":99,"freq":400,"lat":47.84033333,"lon":-96.61641667,"rng_nm":50,"alt_fmsl":0,"id":"CKN","desc":"CROOKSTON NDB"}
]
}
