{"success":true,"source":"xp2csv.pl","last_updated":"2013/11/08 14:53:21 UTC"
,"icao":"ND83","name":"Mc Leish Lndg Strip","lat":46.53359833,"lon":-100.12288695,"rwys":1,"ils":0,"index":1303075,"path":"w110n40/w101n46"
,"runways":[
{"len_m":824,"wid_m":12.19,"hdg":128,"surf":"Turf/grass","rwy1":"12","lat1":46.53592872,"lon1":-100.12707022,"rwy2":"30","lat2":46.53126794,"lon2":-100.11870368}
]
,"navaids":[
{"type":"NDB","hdg_t":294.6,"dist_nm":23.8,"freq":230,"lat":46.69808333,"lon":-100.64783333,"rng_nm":50,"alt_fmsl":0,"id":"BI","desc":"JADAN NDB"},
{"type":"VOR","hdg_t":301.6,"dist_nm":26.2,"freq":116.5,"lat":46.76175000,"lon":-100.66541667,"rng_nm":40,"alt_fmsl":1853,"id":"BIS","desc":"BISMARCK VOR-DME"},
{"type":"VOR","hdg_t":67.5,"dist_nm":64.2,"freq":114.5,"lat":46.93286111,"lon":-98.67877778,"rng_nm":40,"alt_fmsl":1493,"id":"JMS","desc":"JAMESTOWN VOR-DME"},
{"type":"NDB","hdg_t":72.1,"dist_nm":66.6,"freq":395,"lat":46.86286111,"lon":-98.58072222,"rng_nm":50,"alt_fmsl":0,"id":"JM","desc":"SABON NDB"},
{"type":"VOR","hdg_t":246.6,"dist_nm":90.3,"freq":111.4,"lat":45.91977778,"lon":-102.10363889,"rng_nm":25,"alt_fmsl":0,"id":"LEM","desc":"LEMMON VOR"},
{"type":"VOR","hdg_t":131.7,"dist_nm":99.3,"freq":113,"lat":45.41736111,"lon":-98.36872222,"rng_nm":130,"alt_fmsl":1301,"id":"ABR","desc":"ABERDEEN VOR-DME"},
{"type":"NDB","hdg_t":131.8,"dist_nm":101.9,"freq":203,"lat":45.38600000,"lon":-98.32836111,"rng_nm":50,"alt_fmsl":0,"id":"AB","desc":"RENEY NDB"},
{"type":"NDB","hdg_t":99.3,"dist_nm":104.6,"freq":278,"lat":46.22369444,"lon":-97.64263889,"rng_nm":50,"alt_fmsl":0,"id":"GWR","desc":"GWINNER NDB"},
{"type":"NDB","hdg_t":30.3,"dist_nm":105,"freq":332,"lat":48.03552778,"lon":-98.80383333,"rng_nm":50,"alt_fmsl":0,"id":"VK","desc":"VIKOR NDB"},
{"type":"VOR","hdg_t":27,"dist_nm":107,"freq":111,"lat":48.11522222,"lon":-98.91250000,"rng_nm":40,"alt_fmsl":1448,"id":"DVL","desc":"DEVILS LAKE VOR-DME"}
]
}
