{"success":true,"source":"xp2csv.pl","last_updated":"2013/11/08 14:53:21 UTC"
,"icao":"NE33","name":"Clearidge","lat":40.710198,"lon":-96.47742492,"rwys":1,"ils":0,"index":1368234,"path":"w100n40/w097n40"
,"runways":[
{"len_m":456,"wid_m":21.03,"hdg":115,"surf":"Turf/grass","rwy1":"11","lat1":40.71109199,"lon1":-96.47985884,"rwy2":"29","lat2":40.70930400,"lon2":-96.47499100}
]
,"navaids":[
{"type":"NDB","hdg_t":279.7,"dist_nm":13.1,"freq":385,"lat":40.74719444,"lon":-96.76241667,"rng_nm":50,"alt_fmsl":0,"id":"LN","desc":"POTTS NDB"},
{"type":"VOR","hdg_t":316.8,"dist_nm":17.5,"freq":116.1,"lat":40.92380556,"lon":-96.74200000,"rng_nm":130,"alt_fmsl":1370,"id":"LNK","desc":"LINCOLN VORTAC"},
{"type":"NDB","hdg_t":256,"dist_nm":21.1,"freq":420,"lat":40.62411400,"lon":-96.92761100,"rng_nm":25,"alt_fmsl":1479,"id":"CEK","desc":"CRETE NDB"},
{"type":"NDB","hdg_t":216.5,"dist_nm":25.8,"freq":248,"lat":40.36361100,"lon":-96.81294200,"rng_nm":25,"alt_fmsl":1352,"id":"BJU","desc":"BIG BLUE NDB"},
{"type":"VOR","hdg_t":207.4,"dist_nm":27.5,"freq":110.6,"lat":40.30141667,"lon":-96.75463889,"rng_nm":25,"alt_fmsl":1304,"id":"BIE","desc":"BEATRICE VOR-DME"},
{"type":"NDB","hdg_t":102.3,"dist_nm":28.8,"freq":347,"lat":40.60555556,"lon":-95.86083333,"rng_nm":50,"alt_fmsl":0,"id":"AFK","desc":"NEBRASKA CITY NDB"},
{"type":"NDB","hdg_t":61.2,"dist_nm":29.2,"freq":329,"lat":40.94377778,"lon":-95.91247222,"rng_nm":50,"alt_fmsl":0,"id":"PMV","desc":"PLATTSMOUTH NDB"},
{"type":"NDB","hdg_t":205.7,"dist_nm":29.6,"freq":263,"lat":40.26500000,"lon":-96.75708100,"rng_nm":25,"alt_fmsl":1250,"id":"HWB","desc":"SHAW NDB"},
{"type":"NDB","hdg_t":287.6,"dist_nm":30.3,"freq":269,"lat":40.86127778,"lon":-97.11194444,"rng_nm":50,"alt_fmsl":0,"id":"SWT","desc":"SEWARD NDB"},
{"type":"NDB","hdg_t":350.2,"dist_nm":32.1,"freq":400,"lat":41.23916667,"lon":-96.59836111,"rng_nm":50,"alt_fmsl":0,"id":"AHQ","desc":"WAHOO NDB"},
{"type":"VOR","hdg_t":157.8,"dist_nm":32.9,"freq":112.4,"lat":40.20036111,"lon":-96.20627778,"rng_nm":130,"alt_fmsl":1360,"id":"PWE","desc":"PAWNEE CITY VORTAC"},
{"type":"NDB","hdg_t":29.4,"dist_nm":33.4,"freq":371,"lat":41.19486111,"lon":-96.11405556,"rng_nm":50,"alt_fmsl":0,"id":"MLE","desc":"MILLARD NDB"},
{"type":"SDME","hdg_t":46.9,"dist_nm":35.8,"freq":111.7,"lat":41.11722800,"lon":-95.90000300,"rng_nm":40,"alt_fmsl":1090,"id":"OFF","desc":"OFFUTT TACAN"},
{"type":"NDB","hdg_t":44.2,"dist_nm":42.7,"freq":426,"lat":41.21958333,"lon":-95.81791667,"rng_nm":50,"alt_fmsl":0,"id":"EN","desc":"RIKKY NDB"},
{"type":"VOR","hdg_t":50.6,"dist_nm":43.4,"freq":116.3,"lat":41.16727778,"lon":-95.73672222,"rng_nm":130,"alt_fmsl":1300,"id":"OVR","desc":"OMAHA VORTAC"},
{"type":"NDB","hdg_t":224.8,"dist_nm":44.9,"freq":293,"lat":40.17666667,"lon":-97.16586111,"rng_nm":50,"alt_fmsl":0,"id":"FBY","desc":"FAIRBURY NDB"},
{"type":"NDB","hdg_t":30.8,"dist_nm":45.9,"freq":320,"lat":41.36677778,"lon":-95.95630556,"rng_nm":50,"alt_fmsl":0,"id":"OM","desc":"GERFI NDB"},
{"type":"NDB","hdg_t":86.7,"dist_nm":48.8,"freq":411,"lat":40.75169444,"lon":-95.40750000,"rng_nm":50,"alt_fmsl":0,"id":"SDA","desc":"SHENANDOAH NDB"},
{"type":"NDB","hdg_t":32.3,"dist_nm":49.2,"freq":513,"lat":41.40175000,"lon":-95.89391667,"rng_nm":50,"alt_fmsl":0,"id":"PP","desc":"FLICK NDB"},
{"type":"NDB","hdg_t":262.1,"dist_nm":50.3,"freq":392,"lat":40.58994444,"lon":-97.56805556,"rng_nm":50,"alt_fmsl":0,"id":"FMZ","desc":"BEKLOF NDB"},
{"type":"NDB","hdg_t":282.5,"dist_nm":53.1,"freq":257,"lat":40.89755556,"lon":-97.61700000,"rng_nm":50,"alt_fmsl":0,"id":"JYR","desc":"YORK NDB"},
{"type":"VOR","hdg_t":352.7,"dist_nm":54,"freq":111,"lat":41.60475000,"lon":-96.62883333,"rng_nm":25,"alt_fmsl":1318,"id":"SCB","desc":"SCRIBNER VOR-DME"},
{"type":"NDB","hdg_t":132.6,"dist_nm":55.7,"freq":404,"lat":40.07633333,"lon":-95.58688889,"rng_nm":50,"alt_fmsl":0,"id":"FNB","desc":"BRENNER NDB"},
{"type":"NDB","hdg_t":71.3,"dist_nm":58.5,"freq":230,"lat":41.01525000,"lon":-95.25575000,"rng_nm":50,"alt_fmsl":0,"id":"RDK","desc":"RED OAK NDB"},
{"type":"VOR","hdg_t":318.8,"dist_nm":59.1,"freq":111.8,"lat":41.45002778,"lon":-97.34080556,"rng_nm":40,"alt_fmsl":1442,"id":"OLU","desc":"COLUMBUS VOR-DME"},
{"type":"NDB","hdg_t":236.9,"dist_nm":60.9,"freq":323,"lat":40.15036111,"lon":-97.58777778,"rng_nm":50,"alt_fmsl":0,"id":"HJH","desc":"HEBRON NDB"},
{"type":"NDB","hdg_t":319.2,"dist_nm":62.4,"freq":407,"lat":41.49655556,"lon":-97.38175000,"rng_nm":50,"alt_fmsl":0,"id":"PLT","desc":"PLATTE CENTER NDB"},
{"type":"NDB","hdg_t":204.7,"dist_nm":62.5,"freq":212,"lat":39.76169444,"lon":-97.04233333,"rng_nm":50,"alt_fmsl":0,"id":"DBX","desc":"MORRISON NDB"},
{"type":"VOR","hdg_t":12,"dist_nm":64.3,"freq":108.4,"lat":41.75958333,"lon":-96.17855556,"rng_nm":25,"alt_fmsl":0,"id":"TQE","desc":"TEKAMAH VOR"},
{"type":"NDB","hdg_t":88.8,"dist_nm":66.1,"freq":353,"lat":40.72366667,"lon":-95.02797222,"rng_nm":50,"alt_fmsl":0,"id":"ICL","desc":"CLARINDA NDB"},
{"type":"NDB","hdg_t":279.4,"dist_nm":70.1,"freq":278,"lat":40.89251400,"lon":-97.99719400,"rng_nm":25,"alt_fmsl":1799,"id":"AUH","desc":"AURORA NDB"},
{"type":"VOR","hdg_t":136.4,"dist_nm":70.7,"freq":108.2,"lat":39.85083333,"lon":-95.42305556,"rng_nm":40,"alt_fmsl":1126,"id":"RBA","desc":"ROBINSON VOR-DME"},
{"type":"NDB","hdg_t":44.3,"dist_nm":73.2,"freq":272,"lat":41.57897222,"lon":-95.34097222,"rng_nm":50,"alt_fmsl":0,"id":"HNR","desc":"HARLAN NDB"},
{"type":"NDB","hdg_t":225.6,"dist_nm":76.3,"freq":414,"lat":39.81327778,"lon":-97.65786111,"rng_nm":50,"alt_fmsl":0,"id":"RPB","desc":"REPUBLICAN NDB"},
{"type":"NDB","hdg_t":56.8,"dist_nm":77.1,"freq":365,"lat":41.40397222,"lon":-95.04625000,"rng_nm":50,"alt_fmsl":0,"id":"AIO","desc":"ATLANTIC NDB"},
{"type":"NDB","hdg_t":77,"dist_nm":80.1,"freq":278,"lat":40.99638889,"lon":-94.75691667,"rng_nm":50,"alt_fmsl":0,"id":"CRZ","desc":"CORNING NDB"},
{"type":"NDB","hdg_t":327.6,"dist_nm":83.9,"freq":510,"lat":41.88761111,"lon":-97.48025000,"rng_nm":50,"alt_fmsl":0,"id":"OF","desc":"CARSY NDB"},
{"type":"NDB","hdg_t":277.2,"dist_nm":84.2,"freq":380,"lat":40.87288889,"lon":-98.31472222,"rng_nm":50,"alt_fmsl":0,"id":"GR","desc":"SANCY NDB"},
{"type":"VOR","hdg_t":121.7,"dist_nm":84.2,"freq":115.5,"lat":39.96058333,"lon":-94.92522222,"rng_nm":130,"alt_fmsl":1160,"id":"STJ","desc":"ST JOSEPH VORTAC"},
{"type":"VOR","hdg_t":281.7,"dist_nm":85.2,"freq":112,"lat":40.98402778,"lon":-98.31477778,"rng_nm":40,"alt_fmsl":1840,"id":"GRI","desc":"GRAND ISLAND VORTAC"},
{"type":"NDB","hdg_t":201.7,"dist_nm":85.7,"freq":362,"lat":39.38075000,"lon":-97.16125000,"rng_nm":50,"alt_fmsl":0,"id":"CYW","desc":"CLAY CENTER NDB"},
{"type":"NDB","hdg_t":124,"dist_nm":87.4,"freq":233,"lat":39.88380556,"lon":-94.90813889,"rng_nm":50,"alt_fmsl":0,"id":"AZN","desc":"AMAZON NDB"},
{"type":"NDB","hdg_t":218.2,"dist_nm":87.9,"freq":335,"lat":39.55333333,"lon":-97.65113889,"rng_nm":50,"alt_fmsl":0,"id":"CNK","desc":"CONCORDIA NDB"},
{"type":"VOR","hdg_t":330.8,"dist_nm":87.9,"freq":109.6,"lat":41.98791667,"lon":-97.43458333,"rng_nm":40,"alt_fmsl":1540,"id":"OFK","desc":"NORFOLK VOR-DME"},
{"type":"VOR","hdg_t":266.5,"dist_nm":89.3,"freq":108.8,"lat":40.60452778,"lon":-98.42961111,"rng_nm":40,"alt_fmsl":1967,"id":"HSI","desc":"HASTINGS VOR-DME"},
{"type":"NDB","hdg_t":32.6,"dist_nm":91,"freq":350,"lat":41.98388889,"lon":-95.37927778,"rng_nm":50,"alt_fmsl":0,"id":"DNS","desc":"DENISON NDB"},
{"type":"NDB","hdg_t":269.7,"dist_nm":91.2,"freq":338,"lat":40.68625000,"lon":-98.47752778,"rng_nm":50,"alt_fmsl":0,"id":"PSS","desc":"PROSSER NDB"},
{"type":"NDB","hdg_t":49.8,"dist_nm":92.1,"freq":266,"lat":41.69027778,"lon":-94.90997222,"rng_nm":50,"alt_fmsl":0,"id":"ADU","desc":"AUDUBON NDB"},
{"type":"NDB","hdg_t":19,"dist_nm":93.4,"freq":335,"lat":42.18055556,"lon":-95.79472222,"rng_nm":50,"alt_fmsl":0,"id":"MEY","desc":"MAPLETON NDB"},
{"type":"NDB","hdg_t":311.1,"dist_nm":93.9,"freq":332,"lat":41.72958333,"lon":-98.05269444,"rng_nm":50,"alt_fmsl":0,"id":"BVN","desc":"ALABY NDB"},
{"type":"VOR","hdg_t":295.7,"dist_nm":94,"freq":114.8,"lat":41.37572222,"lon":-98.35358333,"rng_nm":130,"alt_fmsl":2010,"id":"OBH","desc":"WOLBACH VORTAC"},
{"type":"VOR","hdg_t":185.4,"dist_nm":94.2,"freq":110.2,"lat":39.14544444,"lon":-96.66872222,"rng_nm":25,"alt_fmsl":1044,"id":"MHK","desc":"MANHATTAN VOR-DME"},
{"type":"NDB","hdg_t":346.2,"dist_nm":94.6,"freq":389,"lat":42.24255556,"lon":-96.98375000,"rng_nm":50,"alt_fmsl":0,"id":"LCG","desc":"WAYNE NDB"},
{"type":"NDB","hdg_t":130.1,"dist_nm":95.1,"freq":260,"lat":39.67572222,"lon":-94.90683333,"rng_nm":50,"alt_fmsl":0,"id":"ST","desc":"TARIO NDB"},
{"type":"NDB","hdg_t":184.2,"dist_nm":95.7,"freq":391,"lat":39.11744200,"lon":-96.62933600,"rng_nm":50,"alt_fmsl":1060,"id":"MQD","desc":"MC DOWELL CREEK NDB"},
{"type":"NDB","hdg_t":4.9,"dist_nm":97.3,"freq":414,"lat":42.32752778,"lon":-96.29050000,"rng_nm":50,"alt_fmsl":0,"id":"SU","desc":"SALIX NDB"},
{"type":"NDB","hdg_t":80.6,"dist_nm":98.1,"freq":379,"lat":40.95744444,"lon":-94.34725000,"rng_nm":50,"alt_fmsl":0,"id":"UNE","desc":"UNION CO NDB"},
{"type":"VOR","hdg_t":237,"dist_nm":98.1,"freq":109.8,"lat":39.80638889,"lon":-98.26002778,"rng_nm":40,"alt_fmsl":1880,"id":"TKO","desc":"MANKATO VORTAC"},
{"type":"VOR","hdg_t":3.9,"dist_nm":98.2,"freq":116.5,"lat":42.34452778,"lon":-96.32363889,"rng_nm":40,"alt_fmsl":1087,"id":"SUX","desc":"SIOUX CITY VORTAC"}
]
}
