{"success":true,"source":"xp2csv.pl","last_updated":"2013/11/08 14:53:21 UTC"
,"icao":"NGTE","name":"Tabiteuea North","lat":-1.22392813,"lon":174.77615256,"rwys":1,"ils":0,"index":5805622,"path":"e170s10/e174s02"
,"runways":[
{"len_m":1054,"wid_m":24.08,"hdg":152,"surf":"Dirt","rwy1":"15","lat1":-1.21971128,"lon1":174.77393816,"rwy2":"33","lat2":-1.22814498,"lon2":174.77836696}
]
,"navaids":[
{"type":"NDB","hdg_t":331.5,"dist_nm":117,"freq":396,"lat":0.50000000,"lon":173.85000000,"rng_nm":25,"alt_fmsl":108,"id":"AA","desc":"ABEMAMA NDB"},
{"type":"SDME","hdg_t":327.6,"dist_nm":183.7,"freq":114.3,"lat":1.37700000,"lon":173.14283300,"rng_nm":130,"alt_fmsl":9,"id":"TW","desc":"TARAWA DME"},
{"type":"NDB","hdg_t":327.7,"dist_nm":183.7,"freq":390,"lat":1.37972222,"lon":173.14583333,"rng_nm":50,"alt_fmsl":0,"id":"BO","desc":"BONRIKI NDB"},
{"type":"NDB","hdg_t":162.9,"dist_nm":277.8,"freq":358,"lat":-5.67166667,"lon":176.13666667,"rng_nm":50,"alt_fmsl":0,"id":"NM","desc":"NANUMEA NDB"},
{"type":"NDB","hdg_t":158.4,"dist_nm":386.6,"freq":380,"lat":-7.24511111,"lon":177.15225000,"rng_nm":50,"alt_fmsl":0,"id":"TN","desc":"NUI NDB"},
{"type":"NDB","hdg_t":148,"dist_nm":440.5,"freq":394,"lat":-7.47983333,"lon":178.67477778,"rng_nm":50,"alt_fmsl":0,"id":"VA","desc":"VAITUPA NDB"},
{"type":"VOR","hdg_t":274.8,"dist_nm":473.5,"freq":113,"lat":-0.54333333,"lon":166.92666667,"rng_nm":130,"alt_fmsl":22,"id":"NI","desc":"NAURU VOR-DME"},
{"type":"NDB","hdg_t":274.8,"dist_nm":474,"freq":355,"lat":-0.54333333,"lon":166.91833333,"rng_nm":50,"alt_fmsl":0,"id":"NI","desc":"NAURU NDB"},
{"type":"NDB","hdg_t":148.8,"dist_nm":509.9,"freq":340,"lat":-8.52305556,"lon":179.20027778,"rng_nm":50,"alt_fmsl":0,"id":"FU","desc":"FUNAFUTI NDB"},
{"type":"NDB","hdg_t":337.1,"dist_nm":537.6,"freq":316,"lat":7.06883333,"lon":171.28183333,"rng_nm":50,"alt_fmsl":0,"id":"MAJ","desc":"MAJURO NDB"}
]
}
