{"success":true,"source":"xp2csv.pl","last_updated":"2013/11/08 14:53:21 UTC"
,"icao":"NH28","name":"Cibor","lat":43.0084225,"lon":-70.79949751,"rwys":1,"ils":0,"index":1794368,"path":"w080n40/w071n43"
,"runways":[
{"len_m":764,"wid_m":45.72,"hdg":84,"surf":"Asphalt","rwy1":"10","lat1":43.00806410,"lon1":-70.80416066,"rwy2":"28","lat2":43.00878090,"lon2":-70.79483436}
]
,"navaids":[
{"type":"VOR","hdg_t":342.6,"dist_nm":4.7,"freq":116.5,"lat":43.08447222,"lon":-70.83200000,"rng_nm":40,"alt_fmsl":99,"id":"PSM","desc":"PEASE VOR-DME"},
{"type":"NDB","hdg_t":354.3,"dist_nm":12.7,"freq":260,"lat":43.22027778,"lon":-70.82830556,"rng_nm":50,"alt_fmsl":0,"id":"ESG","desc":"ROLLINS NDB"},
{"type":"NDB","hdg_t":355.5,"dist_nm":19.6,"freq":349,"lat":43.33419444,"lon":-70.83452778,"rng_nm":50,"alt_fmsl":0,"id":"SF","desc":"SANFD NDB"},
{"type":"VOR","hdg_t":219.1,"dist_nm":20.6,"freq":112.5,"lat":42.74041667,"lon":-71.09483333,"rng_nm":40,"alt_fmsl":302,"id":"LWM","desc":"LAWRENCE VOR-DME"},
{"type":"VOR","hdg_t":17.9,"dist_nm":26.3,"freq":117.1,"lat":43.42566667,"lon":-70.61352778,"rng_nm":130,"alt_fmsl":192,"id":"ENE","desc":"KENNEBUNK VORTAC"},
{"type":"VOR","hdg_t":251.7,"dist_nm":26.4,"freq":114.4,"lat":42.86852778,"lon":-71.36952778,"rng_nm":40,"alt_fmsl":471,"id":"MHT","desc":"MANCHESTER VOR-DME"},
{"type":"NDB","hdg_t":218.9,"dist_nm":28,"freq":402,"lat":42.64413889,"lon":-71.19719444,"rng_nm":50,"alt_fmsl":0,"id":"LW","desc":"HAGET NDB"},
{"type":"NDB","hdg_t":283.2,"dist_nm":29.4,"freq":216,"lat":43.11883333,"lon":-71.45269444,"rng_nm":50,"alt_fmsl":0,"id":"CO","desc":"EPSOM NDB"},
{"type":"NDB","hdg_t":255.1,"dist_nm":33.2,"freq":209,"lat":42.86422222,"lon":-71.52880556,"rng_nm":50,"alt_fmsl":0,"id":"MJ","desc":"FITZY NDB"},
{"type":"NDB","hdg_t":192.3,"dist_nm":34.1,"freq":382,"lat":42.45202778,"lon":-70.96330556,"rng_nm":50,"alt_fmsl":0,"id":"LQ","desc":"LYNDY NDB"},
{"type":"VOR","hdg_t":290.6,"dist_nm":36.3,"freq":112.9,"lat":43.21977778,"lon":-71.57544444,"rng_nm":40,"alt_fmsl":715,"id":"CON","desc":"CONCORD VORTAC"},
{"type":"NDB","hdg_t":252.8,"dist_nm":37,"freq":359,"lat":42.82338889,"lon":-71.60216667,"rng_nm":50,"alt_fmsl":0,"id":"AS","desc":"CHERN NDB"},
{"type":"NDB","hdg_t":206.9,"dist_nm":37.1,"freq":251,"lat":42.45575000,"lon":-71.17852778,"rng_nm":50,"alt_fmsl":0,"id":"SKR","desc":"SHAKER HILL NDB"},
{"type":"VOR","hdg_t":192.2,"dist_nm":39.9,"freq":112.7,"lat":42.35744444,"lon":-70.98955556,"rng_nm":130,"alt_fmsl":20,"id":"BOS","desc":"BOSTON VOR-DME"},
{"type":"NDB","hdg_t":219.6,"dist_nm":41,"freq":332,"lat":42.47986111,"lon":-71.38866667,"rng_nm":50,"alt_fmsl":0,"id":"BE","desc":"BEDDS (LOM) NDB"},
{"type":"NDB","hdg_t":187.3,"dist_nm":42.6,"freq":346,"lat":42.30308333,"lon":-70.92186111,"rng_nm":50,"alt_fmsl":0,"id":"LI","desc":"HULLZ NDB"},
{"type":"NDB","hdg_t":314.6,"dist_nm":45.2,"freq":328,"lat":43.53663889,"lon":-71.53702778,"rng_nm":50,"alt_fmsl":0,"id":"LC","desc":"BLNAP NDB"},
{"type":"NDB","hdg_t":194.1,"dist_nm":45.4,"freq":375,"lat":42.27375000,"lon":-71.04916667,"rng_nm":50,"alt_fmsl":0,"id":"BO","desc":"MILTT NDB"},
{"type":"NDB","hdg_t":237.3,"dist_nm":50.4,"freq":365,"lat":42.55091667,"lon":-71.75713889,"rng_nm":50,"alt_fmsl":0,"id":"FIT","desc":"FITCHBURG NDB"},
{"type":"NDB","hdg_t":0.7,"dist_nm":53.7,"freq":227,"lat":43.90405556,"lon":-70.78233333,"rng_nm":50,"alt_fmsl":0,"id":"SZO","desc":"SEBAGO NDB"},
{"type":"NDB","hdg_t":174.2,"dist_nm":54.8,"freq":368,"lat":42.09800000,"lon":-70.67577778,"rng_nm":50,"alt_fmsl":0,"id":"IMR","desc":"MARSHFIELD NDB"},
{"type":"NDB","hdg_t":195.4,"dist_nm":55.2,"freq":397,"lat":42.11975000,"lon":-71.12841667,"rng_nm":50,"alt_fmsl":0,"id":"OW","desc":"STOGE NDB"},
{"type":"NDB","hdg_t":19.2,"dist_nm":60.6,"freq":240,"lat":43.96225000,"lon":-70.33794444,"rng_nm":50,"alt_fmsl":0,"id":"LE","desc":"LEWIE NDB"},
{"type":"NDB","hdg_t":223,"dist_nm":61.1,"freq":417,"lat":42.25988889,"lon":-71.73527778,"rng_nm":50,"alt_fmsl":0,"id":"EK","desc":"GOZZR NDB"},
{"type":"NDB","hdg_t":155.4,"dist_nm":61.8,"freq":389,"lat":42.06880556,"lon":-70.22344444,"rng_nm":50,"alt_fmsl":0,"id":"PVC","desc":"PROVINCETOWN NDB"},
{"type":"VOR","hdg_t":243.9,"dist_nm":62.1,"freq":110.6,"lat":42.54594444,"lon":-72.05819444,"rng_nm":40,"alt_fmsl":1280,"id":"GDM","desc":"GARDNER VOR-DME"},
{"type":"NDB","hdg_t":196.4,"dist_nm":62.8,"freq":220,"lat":42.00277778,"lon":-71.19711111,"rng_nm":50,"alt_fmsl":0,"id":"IHM","desc":"MANSFIELD NDB"},
{"type":"SDME","hdg_t":36.1,"dist_nm":64.5,"freq":115.2,"lat":43.87351400,"lon":-69.92191100,"rng_nm":25,"alt_fmsl":181,"id":"NHZ","desc":"BRUNSWICK TACAN"},
{"type":"VOR","hdg_t":259.4,"dist_nm":67,"freq":109.4,"lat":42.79427778,"lon":-72.29177778,"rng_nm":40,"alt_fmsl":1380,"id":"EEN","desc":"KEENE VORTAC"},
{"type":"VOR","hdg_t":150.1,"dist_nm":68.4,"freq":114.7,"lat":42.01719444,"lon":-70.03722222,"rng_nm":130,"alt_fmsl":151,"id":"LFV","desc":"MARCONI VOR-DME"},
{"type":"NDB","hdg_t":188.1,"dist_nm":68.5,"freq":227,"lat":41.87650000,"lon":-71.01700000,"rng_nm":50,"alt_fmsl":0,"id":"TAN","desc":"TAUNTON NDB"},
{"type":"NDB","hdg_t":231.2,"dist_nm":69.7,"freq":279,"lat":42.27450000,"lon":-72.01994444,"rng_nm":50,"alt_fmsl":0,"id":"RS","desc":"DUNCA NDB"},
{"type":"NDB","hdg_t":248.6,"dist_nm":70.7,"freq":205,"lat":42.56861111,"lon":-72.28611111,"rng_nm":50,"alt_fmsl":0,"id":"ORE","desc":"ORANGE NDB"},
{"type":"NDB","hdg_t":205.3,"dist_nm":72.1,"freq":241,"lat":41.91905600,"lon":-71.48858300,"rng_nm":25,"alt_fmsl":490,"id":"SFZ","desc":"CENTRAL NDB"},
{"type":"NDB","hdg_t":287.9,"dist_nm":72.2,"freq":233,"lat":43.36930556,"lon":-72.37108333,"rng_nm":50,"alt_fmsl":0,"id":"CNH","desc":"CLAREMONT NDB"},
{"type":"NDB","hdg_t":305,"dist_nm":73.2,"freq":276,"lat":43.70227778,"lon":-72.17747222,"rng_nm":50,"alt_fmsl":0,"id":"LAH","desc":"HANOVER NDB"},
{"type":"VOR","hdg_t":303.4,"dist_nm":73.9,"freq":113.7,"lat":43.67886111,"lon":-72.21608333,"rng_nm":40,"alt_fmsl":1443,"id":"LEB","desc":"LEBANON VOR-DME"},
{"type":"NDB","hdg_t":199,"dist_nm":75.9,"freq":356,"lat":41.81036111,"lon":-71.35322222,"rng_nm":50,"alt_fmsl":0,"id":"AR","desc":"ARMIN NDB"},
{"type":"NDB","hdg_t":168.1,"dist_nm":78.1,"freq":362,"lat":41.73225000,"lon":-70.44138889,"rng_nm":50,"alt_fmsl":0,"id":"FM","desc":"BOMDE NDB"},
{"type":"NDB","hdg_t":168.1,"dist_nm":78.1,"freq":362,"lat":41.73257200,"lon":-70.44086400,"rng_nm":25,"alt_fmsl":80,"id":"FMH","desc":"OTIS NDB"},
{"type":"VOR","hdg_t":216.6,"dist_nm":78.3,"freq":117.4,"lat":41.95547222,"lon":-71.84408333,"rng_nm":130,"alt_fmsl":652,"id":"PUT","desc":"PUTNAM VOR-DME"},
{"type":"NDB","hdg_t":294.9,"dist_nm":80.1,"freq":379,"lat":43.56013889,"lon":-72.46566667,"rng_nm":50,"alt_fmsl":0,"id":"IVV","desc":"WHITE RIVER NDB"},
{"type":"SDME","hdg_t":170.9,"dist_nm":81.8,"freq":115.8,"lat":41.65960600,"lon":-70.51394400,"rng_nm":40,"alt_fmsl":120,"id":"FMH","desc":"OTIS TACAN"},
{"type":"NDB","hdg_t":160.8,"dist_nm":81.9,"freq":342,"lat":41.71613889,"lon":-70.20294444,"rng_nm":50,"alt_fmsl":0,"id":"HY","desc":"BOGEY NDB"},
{"type":"VOR","hdg_t":200.2,"dist_nm":81.9,"freq":115.6,"lat":41.72433333,"lon":-71.42963889,"rng_nm":130,"alt_fmsl":49,"id":"PVD","desc":"PROVIDENCE VORTAC"},
{"type":"NDB","hdg_t":186.7,"dist_nm":83.7,"freq":274,"lat":41.62163889,"lon":-71.01769444,"rng_nm":50,"alt_fmsl":0,"id":"EW","desc":"NEFOR NDB"},
{"type":"NDB","hdg_t":155.2,"dist_nm":86.7,"freq":279,"lat":41.69177778,"lon":-69.98980556,"rng_nm":50,"alt_fmsl":0,"id":"CQX","desc":"NAUSET NDB"},
{"type":"NDB","hdg_t":200.9,"dist_nm":87.6,"freq":335,"lat":41.64177778,"lon":-71.49469444,"rng_nm":50,"alt_fmsl":0,"id":"PV","desc":"RENCH NDB"},
{"type":"NDB","hdg_t":334.8,"dist_nm":89.9,"freq":386,"lat":44.36233333,"lon":-71.68591667,"rng_nm":50,"alt_fmsl":0,"id":"GMA","desc":"MAHN NDB"},
{"type":"VOR","hdg_t":28.6,"dist_nm":89.9,"freq":111.4,"lat":44.32002778,"lon":-69.79655556,"rng_nm":40,"alt_fmsl":349,"id":"AUG","desc":"AUGUSTA VOR-DME"},
{"type":"VOR","hdg_t":238.1,"dist_nm":90.6,"freq":114,"lat":42.19755556,"lon":-72.52630556,"rng_nm":40,"alt_fmsl":241,"id":"CEF","desc":"WESTOVER VORTAC"},
{"type":"NDB","hdg_t":267.6,"dist_nm":91,"freq":224,"lat":42.92758333,"lon":-72.86400000,"rng_nm":50,"alt_fmsl":0,"id":"VWD","desc":"MOUNT SNOW NDB"},
{"type":"NDB","hdg_t":25.5,"dist_nm":93.5,"freq":366,"lat":44.41091667,"lon":-69.86066667,"rng_nm":50,"alt_fmsl":0,"id":"AU","desc":"DUNNS NDB"},
{"type":"NDB","hdg_t":46.1,"dist_nm":94.8,"freq":334,"lat":44.09347222,"lon":-69.21900000,"rng_nm":50,"alt_fmsl":0,"id":"RM","desc":"NOXKS NDB"},
{"type":"NDB","hdg_t":350.1,"dist_nm":95.5,"freq":281,"lat":44.57690300,"lon":-71.17909200,"rng_nm":25,"alt_fmsl":1158,"id":"HXK","desc":"HORNEBROOK NDB"},
{"type":"VOR","hdg_t":312.4,"dist_nm":96.7,"freq":110.8,"lat":44.08547222,"lon":-72.44938889,"rng_nm":40,"alt_fmsl":2080,"id":"MPV","desc":"MONTPELIER VOR-DME"},
{"type":"NDB","hdg_t":49.2,"dist_nm":96.8,"freq":356,"lat":44.05013889,"lon":-69.10502778,"rng_nm":50,"alt_fmsl":0,"id":"SUH","desc":"SPRUCEHEAD NDB"},
{"type":"VOR","hdg_t":175,"dist_nm":97,"freq":114.5,"lat":41.39622222,"lon":-70.61272222,"rng_nm":40,"alt_fmsl":59,"id":"MVY","desc":"MARTHAS VINEYARD VOR-DME"},
{"type":"VOR","hdg_t":239.7,"dist_nm":98.9,"freq":113,"lat":42.16194444,"lon":-72.71619444,"rng_nm":40,"alt_fmsl":268,"id":"BAF","desc":"BARNES VORTAC"},
{"type":"VOR","hdg_t":350.3,"dist_nm":98.9,"freq":110.4,"lat":44.63341667,"lon":-71.18611111,"rng_nm":25,"alt_fmsl":1731,"id":"BML","desc":"BERLIN VOR-DME"},
{"type":"VOR","hdg_t":288.9,"dist_nm":99.2,"freq":111,"lat":43.52661111,"lon":-72.95066667,"rng_nm":25,"alt_fmsl":781,"id":"RUT","desc":"RUTLAND VOR-DME"}
]
}
