{"success":true,"source":"xp2csv.pl","last_updated":"2013/11/08 14:53:21 UTC"
,"icao":"NH38","name":"Leavitt","lat":43.97257111,"lon":-71.1697925,"rwys":1,"ils":0,"index":1778043,"path":"w080n40/w072n43"
,"runways":[
{"len_m":611,"wid_m":12.19,"hdg":83,"surf":"Gravel","rwy1":"10","lat1":43.97223682,"lon1":-71.17357552,"rwy2":"28","lat2":43.97290540,"lon2":-71.16600948}
]
,"navaids":[
{"type":"NDB","hdg_t":103.6,"dist_nm":17.2,"freq":227,"lat":43.90405556,"lon":-70.78233333,"rng_nm":50,"alt_fmsl":0,"id":"SZO","desc":"SEBAGO NDB"},
{"type":"NDB","hdg_t":211.5,"dist_nm":30.6,"freq":328,"lat":43.53663889,"lon":-71.53702778,"rng_nm":50,"alt_fmsl":0,"id":"LC","desc":"BLNAP NDB"},
{"type":"NDB","hdg_t":316.5,"dist_nm":32.3,"freq":386,"lat":44.36233333,"lon":-71.68591667,"rng_nm":50,"alt_fmsl":0,"id":"GMA","desc":"MAHN NDB"},
{"type":"NDB","hdg_t":90.6,"dist_nm":36,"freq":240,"lat":43.96225000,"lon":-70.33794444,"rng_nm":50,"alt_fmsl":0,"id":"LE","desc":"LEWIE NDB"},
{"type":"NDB","hdg_t":359.3,"dist_nm":36.2,"freq":281,"lat":44.57690300,"lon":-71.17909200,"rng_nm":25,"alt_fmsl":1158,"id":"HXK","desc":"HORNEBROOK NDB"},
{"type":"VOR","hdg_t":358.9,"dist_nm":39.6,"freq":110.4,"lat":44.63341667,"lon":-71.18611111,"rng_nm":25,"alt_fmsl":1731,"id":"BML","desc":"BERLIN VOR-DME"},
{"type":"VOR","hdg_t":143.3,"dist_nm":40.7,"freq":117.1,"lat":43.42566667,"lon":-70.61352778,"rng_nm":130,"alt_fmsl":192,"id":"ENE","desc":"KENNEBUNK VORTAC"},
{"type":"NDB","hdg_t":159,"dist_nm":40.9,"freq":349,"lat":43.33419444,"lon":-70.83452778,"rng_nm":50,"alt_fmsl":0,"id":"SF","desc":"SANFD NDB"},
{"type":"NDB","hdg_t":250,"dist_nm":46.6,"freq":276,"lat":43.70227778,"lon":-72.17747222,"rng_nm":50,"alt_fmsl":0,"id":"LAH","desc":"HANOVER NDB"},
{"type":"NDB","hdg_t":161.6,"dist_nm":47.5,"freq":260,"lat":43.22027778,"lon":-70.82830556,"rng_nm":50,"alt_fmsl":0,"id":"ESG","desc":"ROLLINS NDB"},
{"type":"VOR","hdg_t":201.5,"dist_nm":48.5,"freq":112.9,"lat":43.21977778,"lon":-71.57544444,"rng_nm":40,"alt_fmsl":715,"id":"CON","desc":"CONCORD VORTAC"},
{"type":"VOR","hdg_t":249.1,"dist_nm":48.7,"freq":113.7,"lat":43.67886111,"lon":-72.21608333,"rng_nm":40,"alt_fmsl":1443,"id":"LEB","desc":"LEBANON VOR-DME"},
{"type":"NDB","hdg_t":311,"dist_nm":48.9,"freq":353,"lat":44.50422222,"lon":-72.02925000,"rng_nm":50,"alt_fmsl":0,"id":"LLX","desc":"LYNDONVILLE NDB"},
{"type":"NDB","hdg_t":193.6,"dist_nm":52.6,"freq":216,"lat":43.11883333,"lon":-71.45269444,"rng_nm":50,"alt_fmsl":0,"id":"CO","desc":"EPSOM NDB"},
{"type":"SDME","hdg_t":95.8,"dist_nm":54.4,"freq":115.2,"lat":43.87351400,"lon":-69.92191100,"rng_nm":25,"alt_fmsl":181,"id":"NHZ","desc":"BRUNSWICK TACAN"},
{"type":"VOR","hdg_t":164.4,"dist_nm":55.2,"freq":116.5,"lat":43.08447222,"lon":-70.83200000,"rng_nm":40,"alt_fmsl":99,"id":"PSM","desc":"PEASE VOR-DME"},
{"type":"VOR","hdg_t":277.4,"dist_nm":55.8,"freq":110.8,"lat":44.08547222,"lon":-72.44938889,"rng_nm":40,"alt_fmsl":2080,"id":"MPV","desc":"MONTPELIER VOR-DME"},
{"type":"NDB","hdg_t":17.1,"dist_nm":60.4,"freq":221,"lat":44.93458333,"lon":-70.75119444,"rng_nm":50,"alt_fmsl":0,"id":"RQM","desc":"RANGELEY NDB"},
{"type":"NDB","hdg_t":246.7,"dist_nm":61.5,"freq":379,"lat":43.56013889,"lon":-72.46566667,"rng_nm":50,"alt_fmsl":0,"id":"IVV","desc":"WHITE RIVER NDB"},
{"type":"NDB","hdg_t":64.5,"dist_nm":62.3,"freq":366,"lat":44.41091667,"lon":-69.86066667,"rng_nm":50,"alt_fmsl":0,"id":"AU","desc":"DUNNS NDB"},
{"type":"VOR","hdg_t":70.1,"dist_nm":62.8,"freq":111.4,"lat":44.32002778,"lon":-69.79655556,"rng_nm":40,"alt_fmsl":349,"id":"AUG","desc":"AUGUSTA VOR-DME"},
{"type":"NDB","hdg_t":235.7,"dist_nm":63.6,"freq":233,"lat":43.36930556,"lon":-72.37108333,"rng_nm":50,"alt_fmsl":0,"id":"CNH","desc":"CLAREMONT NDB"},
{"type":"VOR","hdg_t":187.5,"dist_nm":66.8,"freq":114.4,"lat":42.86852778,"lon":-71.36952778,"rng_nm":40,"alt_fmsl":471,"id":"MHT","desc":"MANCHESTER VOR-DME"},
{"type":"NDB","hdg_t":193.4,"dist_nm":68.3,"freq":209,"lat":42.86422222,"lon":-71.52880556,"rng_nm":50,"alt_fmsl":0,"id":"MJ","desc":"FITZY NDB"},
{"type":"NDB","hdg_t":301.2,"dist_nm":71.1,"freq":375,"lat":44.57866667,"lon":-72.58733333,"rng_nm":50,"alt_fmsl":0,"id":"JRV","desc":"MORRISVILLE-STOWE NDB"},
{"type":"NDB","hdg_t":195.4,"dist_nm":71.4,"freq":359,"lat":42.82338889,"lon":-71.60216667,"rng_nm":50,"alt_fmsl":0,"id":"AS","desc":"CHERN NDB"},
{"type":"VOR","hdg_t":177.4,"dist_nm":73.9,"freq":112.5,"lat":42.74041667,"lon":-71.09483333,"rng_nm":40,"alt_fmsl":302,"id":"LWM","desc":"LAWRENCE VOR-DME"},
{"type":"NDB","hdg_t":258.9,"dist_nm":79.2,"freq":221,"lat":43.70633333,"lon":-72.95716667,"rng_nm":50,"alt_fmsl":0,"id":"DYO","desc":"SMUTO NDB"},
{"type":"NDB","hdg_t":180.8,"dist_nm":79.6,"freq":402,"lat":42.64413889,"lon":-71.19719444,"rng_nm":50,"alt_fmsl":0,"id":"LW","desc":"HAGET NDB"},
{"type":"VOR","hdg_t":251.5,"dist_nm":81.9,"freq":111,"lat":43.52661111,"lon":-72.95066667,"rng_nm":25,"alt_fmsl":781,"id":"RUT","desc":"RUTLAND VOR-DME"},
{"type":"NDB","hdg_t":84.4,"dist_nm":84.7,"freq":334,"lat":44.09347222,"lon":-69.21900000,"rng_nm":50,"alt_fmsl":0,"id":"RM","desc":"NOXKS NDB"},
{"type":"VOR","hdg_t":342,"dist_nm":84.8,"freq":113.2,"lat":45.31644444,"lon":-71.78813889,"rng_nm":130,"alt_fmsl":1000,"id":"YSC","desc":"SHERBROOKE VORTAC"},
{"type":"VOR","hdg_t":215.1,"dist_nm":86,"freq":109.4,"lat":42.79427778,"lon":-72.29177778,"rng_nm":40,"alt_fmsl":1380,"id":"EEN","desc":"KEENE VORTAC"},
{"type":"NDB","hdg_t":197,"dist_nm":89,"freq":365,"lat":42.55091667,"lon":-71.75713889,"rng_nm":50,"alt_fmsl":0,"id":"FIT","desc":"FITCHBURG NDB"},
{"type":"NDB","hdg_t":60.2,"dist_nm":89.3,"freq":348,"lat":44.69772222,"lon":-69.35858333,"rng_nm":50,"alt_fmsl":0,"id":"BUP","desc":"BURNHAM NDB"},
{"type":"NDB","hdg_t":86.3,"dist_nm":89.5,"freq":356,"lat":44.05013889,"lon":-69.10502778,"rng_nm":50,"alt_fmsl":0,"id":"SUH","desc":"SPRUCEHEAD NDB"},
{"type":"NDB","hdg_t":186.1,"dist_nm":90,"freq":332,"lat":42.47986111,"lon":-71.38866667,"rng_nm":50,"alt_fmsl":0,"id":"BE","desc":"BEDDS (LOM) NDB"},
{"type":"VOR","hdg_t":287,"dist_nm":90.5,"freq":117.5,"lat":44.39711111,"lon":-73.18250000,"rng_nm":40,"alt_fmsl":420,"id":"BTV","desc":"BURLINGTON VOR-DME"},
{"type":"NDB","hdg_t":180.2,"dist_nm":90.9,"freq":251,"lat":42.45575000,"lon":-71.17852778,"rng_nm":50,"alt_fmsl":0,"id":"SKR","desc":"SHAKER HILL NDB"},
{"type":"NDB","hdg_t":174.2,"dist_nm":91.6,"freq":382,"lat":42.45202778,"lon":-70.96330556,"rng_nm":50,"alt_fmsl":0,"id":"LQ","desc":"LYNDY NDB"},
{"type":"NDB","hdg_t":343.8,"dist_nm":93.9,"freq":362,"lat":45.47450000,"lon":-71.78791667,"rng_nm":50,"alt_fmsl":0,"id":"SC","desc":"SHERBROOKE NDB"},
{"type":"VOR","hdg_t":204.7,"dist_nm":94,"freq":110.6,"lat":42.54594444,"lon":-72.05819444,"rng_nm":40,"alt_fmsl":1280,"id":"GDM","desc":"GARDNER VOR-DME"},
{"type":"NDB","hdg_t":291.2,"dist_nm":95.7,"freq":382,"lat":44.53222222,"lon":-73.24947222,"rng_nm":50,"alt_fmsl":0,"id":"BT","desc":"HERRO NDB"},
{"type":"NDB","hdg_t":73.4,"dist_nm":96.8,"freq":278,"lat":44.41122222,"lon":-69.01094444,"rng_nm":50,"alt_fmsl":0,"id":"BST","desc":"BELFAST NDB"},
{"type":"NDB","hdg_t":230.3,"dist_nm":97,"freq":224,"lat":42.92758333,"lon":-72.86400000,"rng_nm":50,"alt_fmsl":0,"id":"VWD","desc":"MOUNT SNOW NDB"},
{"type":"VOR","hdg_t":175.2,"dist_nm":97.2,"freq":112.7,"lat":42.35744444,"lon":-70.98955556,"rng_nm":130,"alt_fmsl":20,"id":"BOS","desc":"BOSTON VOR-DME"},
{"type":"NDB","hdg_t":210.5,"dist_nm":97.4,"freq":205,"lat":42.56861111,"lon":-72.28611111,"rng_nm":50,"alt_fmsl":0,"id":"ORE","desc":"ORANGE NDB"}
]
}
