{"success":true,"source":"xp2csv.pl","last_updated":"2013/11/08 14:53:21 UTC"
,"icao":"NH60","name":"Huff Memorial","lat":42.96063944,"lon":-71.65340556,"rwys":1,"ils":0,"index":1777977,"path":"w080n40/w072n42"
,"runways":[
{"len_m":286,"wid_m":30.48,"hdg":143,"surf":"Turf/grass","rwy1":"16","lat1":42.96168243,"lon1":-71.65444102,"rwy2":"34","lat2":42.95959645,"lon2":-71.65237010}
]
,"navaids":[
{"type":"NDB","hdg_t":136.4,"dist_nm":7.9,"freq":209,"lat":42.86422222,"lon":-71.52880556,"rng_nm":50,"alt_fmsl":0,"id":"MJ","desc":"FITZY NDB"},
{"type":"NDB","hdg_t":164.6,"dist_nm":8.5,"freq":359,"lat":42.82338889,"lon":-71.60216667,"rng_nm":50,"alt_fmsl":0,"id":"AS","desc":"CHERN NDB"},
{"type":"NDB","hdg_t":42.8,"dist_nm":12.9,"freq":216,"lat":43.11883333,"lon":-71.45269444,"rng_nm":50,"alt_fmsl":0,"id":"CO","desc":"EPSOM NDB"},
{"type":"VOR","hdg_t":113.7,"dist_nm":13.6,"freq":114.4,"lat":42.86852778,"lon":-71.36952778,"rng_nm":40,"alt_fmsl":471,"id":"MHT","desc":"MANCHESTER VOR-DME"},
{"type":"VOR","hdg_t":12.4,"dist_nm":15.9,"freq":112.9,"lat":43.21977778,"lon":-71.57544444,"rng_nm":40,"alt_fmsl":715,"id":"CON","desc":"CONCORD VORTAC"},
{"type":"NDB","hdg_t":190.6,"dist_nm":25,"freq":365,"lat":42.55091667,"lon":-71.75713889,"rng_nm":50,"alt_fmsl":0,"id":"FIT","desc":"FITCHBURG NDB"},
{"type":"NDB","hdg_t":133.1,"dist_nm":27.6,"freq":402,"lat":42.64413889,"lon":-71.19719444,"rng_nm":50,"alt_fmsl":0,"id":"LW","desc":"HAGET NDB"},
{"type":"VOR","hdg_t":117.9,"dist_nm":27.9,"freq":112.5,"lat":42.74041667,"lon":-71.09483333,"rng_nm":40,"alt_fmsl":302,"id":"LWM","desc":"LAWRENCE VOR-DME"},
{"type":"VOR","hdg_t":250.7,"dist_nm":29.8,"freq":109.4,"lat":42.79427778,"lon":-72.29177778,"rng_nm":40,"alt_fmsl":1380,"id":"EEN","desc":"KEENE VORTAC"},
{"type":"VOR","hdg_t":215.8,"dist_nm":30.6,"freq":110.6,"lat":42.54594444,"lon":-72.05819444,"rng_nm":40,"alt_fmsl":1280,"id":"GDM","desc":"GARDNER VOR-DME"},
{"type":"NDB","hdg_t":157.8,"dist_nm":31.1,"freq":332,"lat":42.47986111,"lon":-71.38866667,"rng_nm":50,"alt_fmsl":0,"id":"BE","desc":"BEDDS (LOM) NDB"},
{"type":"NDB","hdg_t":8.3,"dist_nm":34.9,"freq":328,"lat":43.53663889,"lon":-71.53702778,"rng_nm":50,"alt_fmsl":0,"id":"LC","desc":"BLNAP NDB"},
{"type":"NDB","hdg_t":230.1,"dist_nm":36.5,"freq":205,"lat":42.56861111,"lon":-72.28611111,"rng_nm":50,"alt_fmsl":0,"id":"ORE","desc":"ORANGE NDB"},
{"type":"NDB","hdg_t":145,"dist_nm":36.8,"freq":251,"lat":42.45575000,"lon":-71.17852778,"rng_nm":50,"alt_fmsl":0,"id":"SKR","desc":"SHAKER HILL NDB"},
{"type":"VOR","hdg_t":78.1,"dist_nm":36.9,"freq":116.5,"lat":43.08447222,"lon":-70.83200000,"rng_nm":40,"alt_fmsl":99,"id":"PSM","desc":"PEASE VOR-DME"},
{"type":"NDB","hdg_t":66.4,"dist_nm":39.4,"freq":260,"lat":43.22027778,"lon":-70.82830556,"rng_nm":50,"alt_fmsl":0,"id":"ESG","desc":"ROLLINS NDB"},
{"type":"NDB","hdg_t":308.1,"dist_nm":39.9,"freq":233,"lat":43.36930556,"lon":-72.37108333,"rng_nm":50,"alt_fmsl":0,"id":"CNH","desc":"CLAREMONT NDB"},
{"type":"NDB","hdg_t":184.9,"dist_nm":42.1,"freq":417,"lat":42.25988889,"lon":-71.73527778,"rng_nm":50,"alt_fmsl":0,"id":"EK","desc":"GOZZR NDB"},
{"type":"NDB","hdg_t":57.7,"dist_nm":42.3,"freq":349,"lat":43.33419444,"lon":-70.83452778,"rng_nm":50,"alt_fmsl":0,"id":"SF","desc":"SANFD NDB"},
{"type":"NDB","hdg_t":134.7,"dist_nm":43.1,"freq":382,"lat":42.45202778,"lon":-70.96330556,"rng_nm":50,"alt_fmsl":0,"id":"LQ","desc":"LYNDY NDB"},
{"type":"NDB","hdg_t":201.6,"dist_nm":44.2,"freq":279,"lat":42.27450000,"lon":-72.01994444,"rng_nm":50,"alt_fmsl":0,"id":"RS","desc":"DUNCA NDB"},
{"type":"VOR","hdg_t":140.6,"dist_nm":46.6,"freq":112.7,"lat":42.35744444,"lon":-70.98955556,"rng_nm":130,"alt_fmsl":20,"id":"BOS","desc":"BOSTON VOR-DME"},
{"type":"NDB","hdg_t":146.7,"dist_nm":49.1,"freq":375,"lat":42.27375000,"lon":-71.04916667,"rng_nm":50,"alt_fmsl":0,"id":"BO","desc":"MILTT NDB"},
{"type":"VOR","hdg_t":330.4,"dist_nm":49.6,"freq":113.7,"lat":43.67886111,"lon":-72.21608333,"rng_nm":40,"alt_fmsl":1443,"id":"LEB","desc":"LEBANON VOR-DME"},
{"type":"NDB","hdg_t":332.8,"dist_nm":50,"freq":276,"lat":43.70227778,"lon":-72.17747222,"rng_nm":50,"alt_fmsl":0,"id":"LAH","desc":"HANOVER NDB"},
{"type":"NDB","hdg_t":315.5,"dist_nm":50.6,"freq":379,"lat":43.56013889,"lon":-72.46566667,"rng_nm":50,"alt_fmsl":0,"id":"IVV","desc":"WHITE RIVER NDB"},
{"type":"NDB","hdg_t":140.3,"dist_nm":51,"freq":346,"lat":42.30308333,"lon":-70.92186111,"rng_nm":50,"alt_fmsl":0,"id":"LI","desc":"HULLZ NDB"},
{"type":"NDB","hdg_t":268.2,"dist_nm":53.3,"freq":224,"lat":42.92758333,"lon":-72.86400000,"rng_nm":50,"alt_fmsl":0,"id":"VWD","desc":"MOUNT SNOW NDB"},
{"type":"VOR","hdg_t":58.2,"dist_nm":53.4,"freq":117.1,"lat":43.42566667,"lon":-70.61352778,"rng_nm":130,"alt_fmsl":192,"id":"ENE","desc":"KENNEBUNK VORTAC"},
{"type":"NDB","hdg_t":155,"dist_nm":55.5,"freq":397,"lat":42.11975000,"lon":-71.12841667,"rng_nm":50,"alt_fmsl":0,"id":"OW","desc":"STOGE NDB"},
{"type":"VOR","hdg_t":220.5,"dist_nm":59.9,"freq":114,"lat":42.19755556,"lon":-72.52630556,"rng_nm":40,"alt_fmsl":241,"id":"CEF","desc":"WESTOVER VORTAC"},
{"type":"VOR","hdg_t":188,"dist_nm":60.8,"freq":117.4,"lat":41.95547222,"lon":-71.84408333,"rng_nm":130,"alt_fmsl":652,"id":"PUT","desc":"PUTNAM VOR-DME"},
{"type":"NDB","hdg_t":160.4,"dist_nm":60.9,"freq":220,"lat":42.00277778,"lon":-71.19711111,"rng_nm":50,"alt_fmsl":0,"id":"IHM","desc":"MANSFIELD NDB"},
{"type":"NDB","hdg_t":173.2,"dist_nm":62.9,"freq":241,"lat":41.91905600,"lon":-71.48858300,"rng_nm":25,"alt_fmsl":490,"id":"SFZ","desc":"CENTRAL NDB"},
{"type":"VOR","hdg_t":301.2,"dist_nm":66.2,"freq":111,"lat":43.52661111,"lon":-72.95066667,"rng_nm":25,"alt_fmsl":781,"id":"RUT","desc":"RUTLAND VOR-DME"},
{"type":"VOR","hdg_t":224.8,"dist_nm":67.1,"freq":113,"lat":42.16194444,"lon":-72.71619444,"rng_nm":40,"alt_fmsl":268,"id":"BAF","desc":"BARNES VORTAC"},
{"type":"NDB","hdg_t":139.6,"dist_nm":67.5,"freq":368,"lat":42.09800000,"lon":-70.67577778,"rng_nm":50,"alt_fmsl":0,"id":"IMR","desc":"MARSHFIELD NDB"},
{"type":"NDB","hdg_t":33.6,"dist_nm":68.2,"freq":227,"lat":43.90405556,"lon":-70.78233333,"rng_nm":50,"alt_fmsl":0,"id":"SZO","desc":"SEBAGO NDB"},
{"type":"VOR","hdg_t":235.4,"dist_nm":70,"freq":115.1,"lat":42.29130556,"lon":-72.94938889,"rng_nm":40,"alt_fmsl":1600,"id":"CTR","desc":"CHESTER VOR-DME"},
{"type":"NDB","hdg_t":168.9,"dist_nm":70.2,"freq":356,"lat":41.81036111,"lon":-71.35322222,"rng_nm":50,"alt_fmsl":0,"id":"AR","desc":"ARMIN NDB"},
{"type":"NDB","hdg_t":156.2,"dist_nm":70.9,"freq":227,"lat":41.87650000,"lon":-71.01700000,"rng_nm":50,"alt_fmsl":0,"id":"TAN","desc":"TAUNTON NDB"},
{"type":"NDB","hdg_t":308.5,"dist_nm":72.5,"freq":221,"lat":43.70633333,"lon":-72.95716667,"rng_nm":50,"alt_fmsl":0,"id":"DYO","desc":"SMUTO NDB"},
{"type":"VOR","hdg_t":272.1,"dist_nm":74.4,"freq":115,"lat":42.99427778,"lon":-73.34402778,"rng_nm":40,"alt_fmsl":1490,"id":"CAM","desc":"CAMBRIDGE VOR-DME"},
{"type":"VOR","hdg_t":172.2,"dist_nm":74.8,"freq":115.6,"lat":41.72433333,"lon":-71.42963889,"rng_nm":130,"alt_fmsl":49,"id":"PVD","desc":"PROVIDENCE VORTAC"},
{"type":"VOR","hdg_t":333,"dist_nm":75.8,"freq":110.8,"lat":44.08547222,"lon":-72.44938889,"rng_nm":40,"alt_fmsl":2080,"id":"MPV","desc":"MONTPELIER VOR-DME"},
{"type":"VOR","hdg_t":217.2,"dist_nm":76.5,"freq":109,"lat":41.94100000,"lon":-72.68858333,"rng_nm":25,"alt_fmsl":160,"id":"BDL","desc":"BRADLEY VORTAC"},
{"type":"NDB","hdg_t":174.8,"dist_nm":79.4,"freq":335,"lat":41.64177778,"lon":-71.49469444,"rng_nm":50,"alt_fmsl":0,"id":"PV","desc":"RENCH NDB"},
{"type":"NDB","hdg_t":217.6,"dist_nm":81.6,"freq":388,"lat":41.87738300,"lon":-72.76620600,"rng_nm":25,"alt_fmsl":0,"id":"BD","desc":"CHUPP NDB"},
{"type":"NDB","hdg_t":129.6,"dist_nm":82.9,"freq":389,"lat":42.06880556,"lon":-70.22344444,"rng_nm":50,"alt_fmsl":0,"id":"PVC","desc":"PROVINCETOWN NDB"},
{"type":"NDB","hdg_t":43.2,"dist_nm":83.1,"freq":240,"lat":43.96225000,"lon":-70.33794444,"rng_nm":50,"alt_fmsl":0,"id":"LE","desc":"LEWIE NDB"},
{"type":"NDB","hdg_t":359,"dist_nm":84.1,"freq":386,"lat":44.36233333,"lon":-71.68591667,"rng_nm":50,"alt_fmsl":0,"id":"GMA","desc":"MAHN NDB"},
{"type":"NDB","hdg_t":160.3,"dist_nm":85.1,"freq":274,"lat":41.62163889,"lon":-71.01769444,"rng_nm":50,"alt_fmsl":0,"id":"EW","desc":"NEFOR NDB"},
{"type":"VOR","hdg_t":190.4,"dist_nm":85.6,"freq":110,"lat":41.55638889,"lon":-71.99936111,"rng_nm":40,"alt_fmsl":310,"id":"ORW","desc":"NORWICH VOR-DME"},
{"type":"NDB","hdg_t":282.2,"dist_nm":87.6,"freq":209,"lat":43.25511111,"lon":-73.60577778,"rng_nm":50,"alt_fmsl":0,"id":"GF","desc":"GANSE NDB"},
{"type":"VOR","hdg_t":207,"dist_nm":88.5,"freq":114.9,"lat":41.64111111,"lon":-72.54741667,"rng_nm":40,"alt_fmsl":849,"id":"HFD","desc":"HARTFORD VOR-DME"},
{"type":"VOR","hdg_t":285.5,"dist_nm":88.9,"freq":110.2,"lat":43.34169444,"lon":-73.61177778,"rng_nm":40,"alt_fmsl":319,"id":"GFL","desc":"GLENS FALLS VORTAC"},
{"type":"NDB","hdg_t":239.5,"dist_nm":90.5,"freq":395,"lat":42.18297222,"lon":-73.40402778,"rng_nm":50,"alt_fmsl":0,"id":"GBR","desc":"GREAT BARRINGTON NDB"},
{"type":"NDB","hdg_t":143.3,"dist_nm":91.2,"freq":362,"lat":41.73257200,"lon":-70.44086400,"rng_nm":25,"alt_fmsl":80,"id":"FMH","desc":"OTIS NDB"},
{"type":"NDB","hdg_t":143.3,"dist_nm":91.3,"freq":362,"lat":41.73225000,"lon":-70.44138889,"rng_nm":50,"alt_fmsl":0,"id":"FM","desc":"BOMDE NDB"},
{"type":"VOR","hdg_t":127.7,"dist_nm":91.3,"freq":114.7,"lat":42.01719444,"lon":-70.03722222,"rng_nm":130,"alt_fmsl":151,"id":"LFV","desc":"MARCONI VOR-DME"},
{"type":"SDME","hdg_t":146.5,"dist_nm":93,"freq":115.8,"lat":41.65960600,"lon":-70.51394400,"rng_nm":40,"alt_fmsl":120,"id":"FMH","desc":"OTIS TACAN"},
{"type":"SDME","hdg_t":53.5,"dist_nm":93.4,"freq":115.2,"lat":43.87351400,"lon":-69.92191100,"rng_nm":25,"alt_fmsl":181,"id":"NHZ","desc":"BRUNSWICK TACAN"},
{"type":"NDB","hdg_t":350.1,"dist_nm":94,"freq":353,"lat":44.50422222,"lon":-72.02925000,"rng_nm":50,"alt_fmsl":0,"id":"LLX","desc":"LYNDONVILLE NDB"},
{"type":"NDB","hdg_t":265.5,"dist_nm":95.4,"freq":219,"lat":42.81730556,"lon":-73.80850000,"rng_nm":50,"alt_fmsl":0,"id":"AL","desc":"HAWKY NDB"},
{"type":"VOR","hdg_t":263,"dist_nm":95.7,"freq":115.3,"lat":42.74727778,"lon":-73.80319444,"rng_nm":40,"alt_fmsl":274,"id":"ALB","desc":"ALBANY VORTAC"},
{"type":"NDB","hdg_t":138.6,"dist_nm":98.6,"freq":342,"lat":41.71613889,"lon":-70.20294444,"rng_nm":50,"alt_fmsl":0,"id":"HY","desc":"BOGEY NDB"},
{"type":"NDB","hdg_t":11.8,"dist_nm":99.1,"freq":281,"lat":44.57690300,"lon":-71.17909200,"rng_nm":25,"alt_fmsl":1158,"id":"HXK","desc":"HORNEBROOK NDB"},
{"type":"VOR","hdg_t":190.4,"dist_nm":99.3,"freq":110.85,"lat":41.33038889,"lon":-72.05197222,"rng_nm":25,"alt_fmsl":9,"id":"GON","desc":"GROTON VOR-DME"}
]
}
