{"success":true,"source":"xp2csv.pl","last_updated":"2013/11/08 14:53:21 UTC"
,"icao":"NJ02","name":"Alloway Airfield","lat":39.54178083,"lon":-75.30435667,"rwys":1,"ils":0,"index":1712226,"path":"w080n30/w076n39"
,"runways":[
{"len_m":669,"wid_m":30.48,"hdg":358,"surf":"Turf/grass","rwy1":"01","lat1":39.53876401,"lon1":-75.30428838,"rwy2":"19","lat2":39.54479765,"lon2":-75.30442496}
]
,"navaids":[
{"type":"VOR","hdg_t":0.6,"dist_nm":5.6,"freq":112.8,"lat":39.63602778,"lon":-75.30302778,"rng_nm":40,"alt_fmsl":140,"id":"OOD","desc":"WOODSTOWN VORTAC"},
{"type":"NDB","hdg_t":133.2,"dist_nm":10.8,"freq":363,"lat":39.41811111,"lon":-75.13505556,"rng_nm":50,"alt_fmsl":0,"id":"RNB","desc":"RAINBOW NDB"},
{"type":"NDB","hdg_t":279.4,"dist_nm":14.5,"freq":248,"lat":39.58122222,"lon":-75.61388889,"rng_nm":50,"alt_fmsl":0,"id":"IL","desc":"HADIN (LOM) NDB"},
{"type":"VOR","hdg_t":90.7,"dist_nm":15.6,"freq":115.2,"lat":39.53766667,"lon":-74.96713889,"rng_nm":40,"alt_fmsl":120,"id":"VCN","desc":"CEDAR LAKE VORTAC"},
{"type":"VOR","hdg_t":300.3,"dist_nm":16.2,"freq":114,"lat":39.67813889,"lon":-75.60708333,"rng_nm":40,"alt_fmsl":70,"id":"DQO","desc":"DUPONT VORTAC"},
{"type":"VOR","hdg_t":207.9,"dist_nm":21,"freq":111.4,"lat":39.23166667,"lon":-75.51591667,"rng_nm":40,"alt_fmsl":10,"id":"ENO","desc":"SMYRNA VORTAC"},
{"type":"NDB","hdg_t":24.1,"dist_nm":23.6,"freq":222,"lat":39.90123100,"lon":-75.09486400,"rng_nm":25,"alt_fmsl":0,"id":"PD","desc":"SPEEZ NDB"},
{"type":"SDME","hdg_t":197.2,"dist_nm":25.6,"freq":110,"lat":39.13233300,"lon":-75.46733300,"rng_nm":25,"alt_fmsl":17,"id":"DOV","desc":"DOVER TACAN"},
{"type":"VOR","hdg_t":323.1,"dist_nm":28.2,"freq":113.2,"lat":39.91805556,"lon":-75.67080556,"rng_nm":40,"alt_fmsl":473,"id":"MXE","desc":"MODENA VORTAC"},
{"type":"VOR","hdg_t":98.4,"dist_nm":34.2,"freq":108.6,"lat":39.45586111,"lon":-74.57633333,"rng_nm":40,"alt_fmsl":67,"id":"ACY","desc":"ATLANTIC CITY VORTAC"},
{"type":"NDB","hdg_t":1.4,"dist_nm":35,"freq":275,"lat":40.12594444,"lon":-75.28516667,"rng_nm":50,"alt_fmsl":0,"id":"ING","desc":"AMBLER NDB"},
{"type":"VOR","hdg_t":22.7,"dist_nm":35.1,"freq":112,"lat":40.08205556,"lon":-75.00955556,"rng_nm":25,"alt_fmsl":0,"id":"PNE","desc":"NORTH PHILADELPHI VOR"},
{"type":"VOR","hdg_t":138.5,"dist_nm":35.5,"freq":114.8,"lat":39.09550000,"lon":-74.80033333,"rng_nm":130,"alt_fmsl":10,"id":"SIE","desc":"SEA ISLE VORTAC"},
{"type":"NDB","hdg_t":269.7,"dist_nm":37.2,"freq":349,"lat":39.53586111,"lon":-76.10638889,"rng_nm":50,"alt_fmsl":0,"id":"APG","desc":"ABERDEEN NDB"},
{"type":"VOR","hdg_t":263.8,"dist_nm":40.4,"freq":108.4,"lat":39.46666667,"lon":-76.17094444,"rng_nm":25,"alt_fmsl":47,"id":"PPM","desc":"PHILLIPS VOR-DME"},
{"type":"VOR","hdg_t":343.9,"dist_nm":42.4,"freq":116.5,"lat":40.22227778,"lon":-75.56027778,"rng_nm":40,"alt_fmsl":290,"id":"PTW","desc":"POTTSTOWN VORTAC"},
{"type":"VOR","hdg_t":49.2,"dist_nm":43.1,"freq":110.6,"lat":40.00947222,"lon":-74.59650000,"rng_nm":40,"alt_fmsl":119,"id":"GXU","desc":"MC GUIRE VORTAC"},
{"type":"VOR","hdg_t":67.4,"dist_nm":43.6,"freq":113.4,"lat":39.81733333,"lon":-74.43163889,"rng_nm":130,"alt_fmsl":203,"id":"CYN","desc":"COYLE VORTAC"},
{"type":"VOR","hdg_t":174.3,"dist_nm":44,"freq":112.6,"lat":38.80980556,"lon":-75.21133333,"rng_nm":40,"alt_fmsl":5,"id":"ATR","desc":"WATERLOO VOR-DME"},
{"type":"NDB","hdg_t":24.8,"dist_nm":44.3,"freq":369,"lat":40.21263889,"lon":-74.89916667,"rng_nm":50,"alt_fmsl":0,"id":"TT","desc":"TRENN NDB"},
{"type":"VOR","hdg_t":23.1,"dist_nm":46.4,"freq":108.2,"lat":40.25333333,"lon":-74.90761111,"rng_nm":40,"alt_fmsl":300,"id":"ARD","desc":"YARDLEY VOR-DME"},
{"type":"NDB","hdg_t":9.9,"dist_nm":48.3,"freq":237,"lat":40.33566100,"lon":-75.12211700,"rng_nm":5,"alt_fmsl":394,"id":"DYL","desc":"DOYLESTOWN NDB"},
{"type":"VOR","hdg_t":0.8,"dist_nm":50.9,"freq":108.85,"lat":40.39090800,"lon":-75.28876700,"rng_nm":25,"alt_fmsl":552,"id":"CKZ","desc":"PENNRIDGE VOR-DME"},
{"type":"NDB","hdg_t":0.3,"dist_nm":52.9,"freq":208,"lat":40.42472222,"lon":-75.29777778,"rng_nm":50,"alt_fmsl":0,"id":"UKT","desc":"QUAKERTOWN NDB"},
{"type":"SDME","hdg_t":55.6,"dist_nm":53,"freq":111.8,"lat":40.03696100,"lon":-74.35313700,"rng_nm":25,"alt_fmsl":144,"id":"NEL","desc":"LAKEHURST TACAN"},
{"type":"NDB","hdg_t":55.7,"dist_nm":54,"freq":396,"lat":40.04486111,"lon":-74.33547222,"rng_nm":50,"alt_fmsl":0,"id":"NEL","desc":"LAKEHURST NDB"},
{"type":"VOR","hdg_t":43,"dist_nm":54.4,"freq":113.8,"lat":40.20238889,"lon":-74.49502778,"rng_nm":130,"alt_fmsl":248,"id":"RBV","desc":"ROBBINSVILLE VORTAC"},
{"type":"VOR","hdg_t":307.5,"dist_nm":57.2,"freq":117.3,"lat":40.11997222,"lon":-76.29130556,"rng_nm":40,"alt_fmsl":399,"id":"LRP","desc":"LANCASTER VORTAC"},
{"type":"NDB","hdg_t":256.4,"dist_nm":63.2,"freq":404,"lat":39.28705556,"lon":-76.62525000,"rng_nm":50,"alt_fmsl":0,"id":"IUB","desc":"INSTITUTE NDB"},
{"type":"VOR","hdg_t":344.4,"dist_nm":64.7,"freq":110.2,"lat":40.58102778,"lon":-75.68402778,"rng_nm":40,"alt_fmsl":742,"id":"ETX","desc":"EAST TEXAS VOR-DME"},
{"type":"VOR","hdg_t":251,"dist_nm":66.9,"freq":115.1,"lat":39.17105556,"lon":-76.66125000,"rng_nm":40,"alt_fmsl":140,"id":"BAL","desc":"BALTIMORE VORTAC"},
{"type":"VOR","hdg_t":22.3,"dist_nm":67.5,"freq":112.9,"lat":40.58305556,"lon":-74.74180556,"rng_nm":40,"alt_fmsl":190,"id":"SBJ","desc":"SOLBERG VOR-DME"},
{"type":"NDB","hdg_t":209.6,"dist_nm":69.1,"freq":355,"lat":38.53725000,"lon":-76.03058333,"rng_nm":50,"alt_fmsl":0,"id":"CGE","desc":"CAMBRIDGE NDB"},
{"type":"NDB","hdg_t":257.9,"dist_nm":70.1,"freq":371,"lat":39.28736111,"lon":-76.77702778,"rng_nm":50,"alt_fmsl":0,"id":"FND","desc":"ELLICOTT NDB"},
{"type":"VOR","hdg_t":48.4,"dist_nm":70.1,"freq":115.4,"lat":40.31163889,"lon":-74.15972222,"rng_nm":40,"alt_fmsl":129,"id":"COL","desc":"COLTS NECK VOR-DME"},
{"type":"NDB","hdg_t":175.9,"dist_nm":70.8,"freq":407,"lat":38.36261111,"lon":-75.19780556,"rng_nm":50,"alt_fmsl":0,"id":"OX","desc":"LANDY NDB"},
{"type":"VOR","hdg_t":354.4,"dist_nm":71.3,"freq":117.5,"lat":40.72669444,"lon":-75.45475000,"rng_nm":40,"alt_fmsl":680,"id":"FJC","desc":"ALLENTOWN VORTAC"},
{"type":"VOR","hdg_t":187.7,"dist_nm":72.3,"freq":111.2,"lat":38.34500000,"lon":-75.51058333,"rng_nm":40,"alt_fmsl":48,"id":"SBY","desc":"SALISBURY VORTAC"},
{"type":"NDB","hdg_t":248.4,"dist_nm":73.1,"freq":260,"lat":39.08405556,"lon":-76.76000000,"rng_nm":50,"alt_fmsl":0,"id":"BUH","desc":"ANNE ARUNDEL NDB"},
{"type":"NDB","hdg_t":183.6,"dist_nm":75.8,"freq":278,"lat":38.27870000,"lon":-75.40577800,"rng_nm":25,"alt_fmsl":0,"id":"SB","desc":"COLBE NDB"},
{"type":"NDB","hdg_t":287.7,"dist_nm":76.2,"freq":254,"lat":39.92002778,"lon":-76.87755556,"rng_nm":50,"alt_fmsl":0,"id":"EUD","desc":"YORK NDB"},
{"type":"VOR","hdg_t":268.4,"dist_nm":77.7,"freq":117.9,"lat":39.49500000,"lon":-76.97858333,"rng_nm":130,"alt_fmsl":820,"id":"EMI","desc":"WESTMINSTER VORTAC"},
{"type":"VOR","hdg_t":16.2,"dist_nm":78.5,"freq":114.2,"lat":40.79844444,"lon":-74.82183333,"rng_nm":40,"alt_fmsl":1050,"id":"BWZ","desc":"BROADWAY VOR-DME"},
{"type":"NDB","hdg_t":313.3,"dist_nm":78.6,"freq":328,"lat":40.43591667,"lon":-76.55302778,"rng_nm":50,"alt_fmsl":0,"id":"BZJ","desc":"BELLGROVE NDB"},
{"type":"NDB","hdg_t":37.7,"dist_nm":80.1,"freq":241,"lat":40.59366700,"lon":-74.23000000,"rng_nm":25,"alt_fmsl":0,"id":"EW","desc":"CHESA NDB"},
{"type":"NDB","hdg_t":37.7,"dist_nm":81.1,"freq":373,"lat":40.60733300,"lon":-74.21797200,"rng_nm":25,"alt_fmsl":10,"id":"EZ","desc":"LIZAH NDB"},
{"type":"NDB","hdg_t":243.4,"dist_nm":82,"freq":232,"lat":38.92000000,"lon":-76.87166700,"rng_nm":25,"alt_fmsl":74,"id":"MX","desc":"ZOOTE NDB"},
{"type":"NDB","hdg_t":28.9,"dist_nm":82.3,"freq":254,"lat":40.74077778,"lon":-74.42988889,"rng_nm":50,"alt_fmsl":0,"id":"CAT","desc":"CHATHAM NDB"},
{"type":"VOR","hdg_t":233.7,"dist_nm":83.8,"freq":113.7,"lat":38.70586111,"lon":-76.74475000,"rng_nm":40,"alt_fmsl":210,"id":"OTT","desc":"NOTTINGHAM VORTAC"},
{"type":"NDB","hdg_t":300.3,"dist_nm":84.9,"freq":204,"lat":40.24638889,"lon":-76.90063889,"rng_nm":50,"alt_fmsl":0,"id":"MD","desc":"ENOLA NDB"},
{"type":"VOR","hdg_t":315.8,"dist_nm":85,"freq":114.6,"lat":40.55338889,"lon":-76.59938889,"rng_nm":40,"alt_fmsl":1750,"id":"RAV","desc":"RAVINE VORTAC"},
{"type":"VOR","hdg_t":239.3,"dist_nm":85.1,"freq":113.1,"lat":38.80722222,"lon":-76.86625000,"rng_nm":40,"alt_fmsl":260,"id":"ADW","desc":"ANDREWS VORTAC"},
{"type":"NDB","hdg_t":235.9,"dist_nm":88.8,"freq":360,"lat":38.70077778,"lon":-76.87022222,"rng_nm":50,"alt_fmsl":0,"id":"RW","desc":"KIRBE NDB"},
{"type":"VOR","hdg_t":184.8,"dist_nm":89.3,"freq":112.4,"lat":38.05658333,"lon":-75.46388889,"rng_nm":40,"alt_fmsl":34,"id":"SWL","desc":"SNOW HILL VORTAC"},
{"type":"NDB","hdg_t":256.1,"dist_nm":89.4,"freq":385,"lat":39.16972222,"lon":-77.16591667,"rng_nm":50,"alt_fmsl":0,"id":"GAI","desc":"GAITHERSBURG NDB"},
{"type":"VOR","hdg_t":12.7,"dist_nm":89.4,"freq":109.6,"lat":40.99583333,"lon":-74.86902778,"rng_nm":40,"alt_fmsl":920,"id":"STW","desc":"STILLWATER VOR-DME"},
{"type":"NDB","hdg_t":46.3,"dist_nm":89.8,"freq":414,"lat":40.56813889,"lon":-73.88297222,"rng_nm":50,"alt_fmsl":0,"id":"OGY","desc":"BRIDGE NDB"},
{"type":"NDB","hdg_t":238.8,"dist_nm":90.5,"freq":241,"lat":38.74888900,"lon":-76.95611100,"rng_nm":25,"alt_fmsl":115,"id":"VKX","desc":"POTOMAC NDB"},
{"type":"VOR","hdg_t":243.6,"dist_nm":90.5,"freq":111,"lat":38.85944444,"lon":-77.03644444,"rng_nm":40,"alt_fmsl":10,"id":"DCA","desc":"WASHINGTON VOR-DME"},
{"type":"VOR","hdg_t":214.6,"dist_nm":91,"freq":117.6,"lat":38.28786111,"lon":-76.40022222,"rng_nm":40,"alt_fmsl":20,"id":"PXT","desc":"PATUXENT VORTAC"},
{"type":"NDB","hdg_t":214.7,"dist_nm":91.1,"freq":400,"lat":38.28594444,"lon":-76.40325000,"rng_nm":50,"alt_fmsl":0,"id":"NHK","desc":"PATUXENT NDB"},
{"type":"VOR","hdg_t":44.8,"dist_nm":91.3,"freq":112.3,"lat":40.61247222,"lon":-73.89444444,"rng_nm":25,"alt_fmsl":10,"id":"CRI","desc":"CANARSIE VOR-DME"},
{"type":"NDB","hdg_t":247.1,"dist_nm":92.4,"freq":323,"lat":38.92988889,"lon":-77.12422222,"rng_nm":50,"alt_fmsl":0,"id":"GTN","desc":"GEORGETOWN NDB"},
{"type":"NDB","hdg_t":240.5,"dist_nm":92.8,"freq":332,"lat":38.76594444,"lon":-77.02738889,"rng_nm":50,"alt_fmsl":0,"id":"DC","desc":"OXONN NDB"},
{"type":"NDB","hdg_t":35,"dist_nm":92.9,"freq":214,"lat":40.80444444,"lon":-74.13250000,"rng_nm":50,"alt_fmsl":0,"id":"TE","desc":"TORBY NDB"},
{"type":"VOR","hdg_t":299.7,"dist_nm":93.3,"freq":112.5,"lat":40.30225000,"lon":-77.06955556,"rng_nm":40,"alt_fmsl":1301,"id":"HAR","desc":"HARRISBURG VORTAC"},
{"type":"NDB","hdg_t":47.4,"dist_nm":93.4,"freq":373,"lat":40.58698600,"lon":-73.79965000,"rng_nm":25,"alt_fmsl":0,"id":"JF","desc":"CONDA NDB"},
{"type":"VOR","hdg_t":336.5,"dist_nm":93.8,"freq":109.4,"lat":40.97508333,"lon":-76.12580556,"rng_nm":25,"alt_fmsl":0,"id":"HZL","desc":"HAZLETON VOR"},
{"type":"VOR","hdg_t":46.6,"dist_nm":96.2,"freq":115.9,"lat":40.63288889,"lon":-73.77138889,"rng_nm":130,"alt_fmsl":11,"id":"JFK","desc":"KENNEDY VOR-DME"},
{"type":"VOR","hdg_t":266,"dist_nm":96.5,"freq":109,"lat":39.41222222,"lon":-77.37513889,"rng_nm":25,"alt_fmsl":0,"id":"FDK","desc":"FREDERICK VOR"},
{"type":"VOR","hdg_t":35.6,"dist_nm":96.9,"freq":108.4,"lat":40.84872222,"lon":-74.06225000,"rng_nm":25,"alt_fmsl":10,"id":"TEB","desc":"TETERBORO VOR-DME"},
{"type":"VOR","hdg_t":20.7,"dist_nm":98,"freq":115.7,"lat":41.06755556,"lon":-74.53830556,"rng_nm":130,"alt_fmsl":1400,"id":"SAX","desc":"SPARTA VORTAC"},
{"type":"NDB","hdg_t":238.5,"dist_nm":99.4,"freq":223,"lat":38.66163889,"lon":-77.11016667,"rng_nm":50,"alt_fmsl":0,"id":"DAA","desc":"DAVEE NDB"},
{"type":"VOR","hdg_t":41.1,"dist_nm":99.5,"freq":113.1,"lat":40.78372222,"lon":-73.86861111,"rng_nm":40,"alt_fmsl":9,"id":"LGA","desc":"LA GUARDIA VOR-DME"}
]
}
