{"success":true,"source":"xp2csv.pl","last_updated":"2013/11/08 14:53:21 UTC"
,"icao":"NM04","name":"Keller Field","lat":36.6777825,"lon":-108.08395862,"rwys":1,"ils":0,"index":1171371,"path":"w110n30/w109n36"
,"runways":[
{"len_m":733,"wid_m":19.81,"hdg":101,"surf":"Dirt","rwy1":"09","lat1":36.67846686,"lon1":-108.08797311,"rwy2":"27","lat2":36.67709814,"lon2":-108.07994413}
]
,"navaids":[
{"type":"VOR","hdg_t":350.3,"dist_nm":4.2,"freq":115.3,"lat":36.74838889,"lon":-108.09888889,"rng_nm":130,"alt_fmsl":5823,"id":"RSK","desc":"RATTLESNAKE VORTAC"},
{"type":"VOR","hdg_t":29.3,"dist_nm":32.7,"freq":108.2,"lat":37.15325000,"lon":-107.74961111,"rng_nm":40,"alt_fmsl":6660,"id":"DRO","desc":"DURANGO VOR-DME"},
{"type":"VOR","hdg_t":331.8,"dist_nm":48.4,"freq":108.4,"lat":37.38986111,"lon":-108.56175000,"rng_nm":40,"alt_fmsl":6223,"id":"CEZ","desc":"CORTEZ VOR-DME"},
{"type":"NDB","hdg_t":218.5,"dist_nm":77.2,"freq":254,"lat":35.66447222,"lon":-109.06813889,"rng_nm":50,"alt_fmsl":0,"id":"AWR","desc":"WINDOW ROCK NDB"},
{"type":"VOR","hdg_t":329.3,"dist_nm":79,"freq":114.6,"lat":37.80875000,"lon":-108.93127778,"rng_nm":130,"alt_fmsl":6990,"id":"DVC","desc":"DOVE CREEK VORTAC"},
{"type":"VOR","hdg_t":208.2,"dist_nm":81.5,"freq":115.1,"lat":35.47600000,"lon":-108.87261111,"rng_nm":130,"alt_fmsl":7053,"id":"GUP","desc":"GALLUP VORTAC"},
{"type":"VOR","hdg_t":354.2,"dist_nm":82,"freq":110.2,"lat":38.04025000,"lon":-108.25858333,"rng_nm":40,"alt_fmsl":8460,"id":"ETL","desc":"CONES VOR-DME"},
{"type":"NDB","hdg_t":346.3,"dist_nm":96.5,"freq":375,"lat":38.24276800,"lon":-108.56675800,"rng_nm":25,"alt_fmsl":5936,"id":"HPL","desc":"HOPKINS NDB"},
{"type":"VOR","hdg_t":91.6,"dist_nm":105.2,"freq":117.6,"lat":36.60877778,"lon":-105.90633333,"rng_nm":40,"alt_fmsl":7860,"id":"TAS","desc":"TAOS VORTAC"},
{"type":"VOR","hdg_t":4.5,"dist_nm":109.9,"freq":117.1,"lat":38.50644444,"lon":-107.89927778,"rng_nm":130,"alt_fmsl":5713,"id":"MTJ","desc":"MONTROSE VOR-DME"}
]
}
