{"success":true,"source":"xp2csv.pl","last_updated":"2013/11/08 14:53:21 UTC"
,"icao":"NM16","name":"Chama Land & Cattle Co","lat":36.86667916,"lon":-106.56725723,"rwys":1,"ils":0,"index":1204145,"path":"w110n30/w107n36"
,"runways":[
{"len_m":1770,"wid_m":30.48,"hdg":57,"surf":"Asphalt","rwy1":"05","lat1":36.86234675,"lon1":-106.57559604,"rwy2":"23","lat2":36.87101157,"lon2":-106.55891842}
]
,"navaids":[
{"type":"VOR","hdg_t":115.6,"dist_nm":35.4,"freq":117.6,"lat":36.60877778,"lon":-105.90633333,"rng_nm":40,"alt_fmsl":7860,"id":"TAS","desc":"TAOS VORTAC"},
{"type":"NDB","hdg_t":46,"dist_nm":42.2,"freq":400,"lat":37.35442500,"lon":-105.93101100,"rng_nm":25,"alt_fmsl":0,"id":"VQ","desc":"BESAQ NDB"},
{"type":"VOR","hdg_t":51,"dist_nm":46.2,"freq":113.9,"lat":37.34916667,"lon":-105.81552778,"rng_nm":130,"alt_fmsl":7535,"id":"ALS","desc":"ALAMOSA VORTAC"},
{"type":"VOR","hdg_t":287.1,"dist_nm":59.3,"freq":108.2,"lat":37.15325000,"lon":-107.74961111,"rng_nm":40,"alt_fmsl":6660,"id":"DRO","desc":"DURANGO VOR-DME"},
{"type":"VOR","hdg_t":264.9,"dist_nm":74.1,"freq":115.3,"lat":36.74838889,"lon":-108.09888889,"rng_nm":130,"alt_fmsl":5823,"id":"RSK","desc":"RATTLESNAKE VORTAC"},
{"type":"NDB","hdg_t":165,"dist_nm":81.2,"freq":341,"lat":35.55525000,"lon":-106.14013889,"rng_nm":50,"alt_fmsl":0,"id":"SG","desc":"DOMAN NDB"},
{"type":"VOR","hdg_t":162.7,"dist_nm":83.1,"freq":110.6,"lat":35.54052778,"lon":-106.06494444,"rng_nm":40,"alt_fmsl":6263,"id":"SAF","desc":"SANTA FE VORTAC"},
{"type":"VOR","hdg_t":104.8,"dist_nm":84.8,"freq":116.4,"lat":36.49138889,"lon":-104.87200000,"rng_nm":130,"alt_fmsl":6550,"id":"CIM","desc":"CIMARRON VORTAC"},
{"type":"VOR","hdg_t":346.8,"dist_nm":97.6,"freq":114.9,"lat":38.45216667,"lon":-107.03980556,"rng_nm":130,"alt_fmsl":8730,"id":"HBU","desc":"BLUE MESA VOR-DME"},
{"type":"NDB","hdg_t":184.1,"dist_nm":99,"freq":351,"lat":35.21736111,"lon":-106.71280556,"rng_nm":50,"alt_fmsl":0,"id":"AE","desc":"DUDLE NDB"}
]
}
