{"success":true,"source":"xp2csv.pl","last_updated":"2013/11/08 14:53:21 UTC"
,"icao":"NM66","name":"Poco Loco","lat":34.41518333,"lon":-108.077,"rwys":1,"ils":0,"index":1171227,"path":"w110n30/w109n34"
,"runways":[
{"len_m":916,"wid_m":9.14,"hdg":110,"surf":"Dirt","rwy1":"10","lat1":34.41665782,"lon1":-108.08165619,"rwy2":"28","lat2":34.41370884,"lon2":-108.07234381}
]
,"navaids":[
{"type":"VOR","hdg_t":270.8,"dist_nm":52.9,"freq":112.3,"lat":34.42405556,"lon":-109.14352778,"rng_nm":130,"alt_fmsl":6840,"id":"SJN","desc":"ST JOHNS VORTAC"},
{"type":"NDB","hdg_t":107.5,"dist_nm":61.4,"freq":329,"lat":34.10034400,"lon":-106.90058300,"rng_nm":25,"alt_fmsl":4660,"id":"FIA","desc":"FLORIDA NDB"},
{"type":"VOR","hdg_t":93.8,"dist_nm":62.5,"freq":116.8,"lat":34.33888889,"lon":-106.82047222,"rng_nm":130,"alt_fmsl":4910,"id":"ONM","desc":"SOCORRO VORTAC"},
{"type":"VOR","hdg_t":302,"dist_nm":62.6,"freq":113.4,"lat":34.96575000,"lon":-109.15450000,"rng_nm":130,"alt_fmsl":6550,"id":"ZUN","desc":"ZUNI VORTAC"},
{"type":"VOR","hdg_t":58.5,"dist_nm":72.8,"freq":113.2,"lat":35.04380556,"lon":-106.81630556,"rng_nm":130,"alt_fmsl":5749,"id":"ABQ","desc":"ALBUQUERQUE VORTAC"},
{"type":"VOR","hdg_t":328.5,"dist_nm":74.6,"freq":115.1,"lat":35.47600000,"lon":-108.87261111,"rng_nm":130,"alt_fmsl":7053,"id":"GUP","desc":"GALLUP VORTAC"},
{"type":"VOR","hdg_t":149.3,"dist_nm":78.6,"freq":112.7,"lat":33.28250000,"lon":-107.28055556,"rng_nm":130,"alt_fmsl":4905,"id":"TCS","desc":"TRUTH OR CONSEQ VORTAC"},
{"type":"NDB","hdg_t":64.1,"dist_nm":79.7,"freq":247,"lat":34.98702500,"lon":-106.62039200,"rng_nm":50,"alt_fmsl":5304,"id":"ILT","desc":"ISLETA NDB"},
{"type":"NDB","hdg_t":54.1,"dist_nm":82.7,"freq":351,"lat":35.21736111,"lon":-106.71280556,"rng_nm":50,"alt_fmsl":0,"id":"AE","desc":"DUDLE NDB"},
{"type":"NDB","hdg_t":327.1,"dist_nm":89.3,"freq":254,"lat":35.66447222,"lon":-109.06813889,"rng_nm":50,"alt_fmsl":0,"id":"AWR","desc":"WINDOW ROCK NDB"},
{"type":"NDB","hdg_t":265.2,"dist_nm":96.3,"freq":206,"lat":34.26727778,"lon":-110.00822222,"rng_nm":50,"alt_fmsl":0,"id":"SOW","desc":"SHOW LOW NDB"}
]
}
