{"success":true,"source":"xp2csv.pl","last_updated":"2013/11/08 14:53:21 UTC"
,"icao":"NM72","name":"Turner Ridgeport","lat":32.74464375,"lon":-108.28650975,"rwys":2,"ils":0,"index":1171114,"path":"w110n30/w109n32"
,"runways":[
{"len_m":1219,"wid_m":12.19,"hdg":150,"surf":"Asphalt","rwy1":"15","lat1":32.74670600,"lon1":-108.29130800,"rwy2":"33","lat2":32.73718300,"lon2":-108.28480300},
{"len_m":731,"wid_m":10.67,"hdg":91,"surf":"Dirt","rwy1":"08","lat1":32.74745800,"lon1":-108.28886400,"rwy2":"26","lat2":32.74722800,"lon2":-108.28106400}
]
,"navaids":[
{"type":"VOR","hdg_t":135.1,"dist_nm":9,"freq":110.8,"lat":32.63769444,"lon":-108.16105556,"rng_nm":40,"alt_fmsl":5423,"id":"SVC","desc":"SILVER CITY VORTAC"},
{"type":"NDB","hdg_t":120.7,"dist_nm":13.1,"freq":251,"lat":32.63205556,"lon":-108.06333333,"rng_nm":50,"alt_fmsl":0,"id":"SV","desc":"COZEY NDB"},
{"type":"VOR","hdg_t":128.9,"dist_nm":44.5,"freq":108.6,"lat":32.27555556,"lon":-107.60550000,"rng_nm":40,"alt_fmsl":4210,"id":"DMN","desc":"DEMING VORTAC"},
{"type":"VOR","hdg_t":240.3,"dist_nm":57.1,"freq":115.4,"lat":32.26925000,"lon":-109.26308333,"rng_nm":130,"alt_fmsl":3600,"id":"SSO","desc":"SAN SIMON VORTAC"},
{"type":"VOR","hdg_t":57.3,"dist_nm":60.1,"freq":112.7,"lat":33.28250000,"lon":-107.28055556,"rng_nm":130,"alt_fmsl":4905,"id":"TCS","desc":"TRUTH OR CONSEQ VORTAC"},
{"type":"VOR","hdg_t":146.6,"dist_nm":66.2,"freq":111.2,"lat":31.81908333,"lon":-107.57447222,"rng_nm":40,"alt_fmsl":4008,"id":"CUS","desc":"COLUMBUS VOR-DME"},
{"type":"NDB","hdg_t":112.7,"dist_nm":80,"freq":206,"lat":32.21902778,"lon":-106.83627778,"rng_nm":50,"alt_fmsl":0,"id":"LR","desc":"HAWKE NDB"},
{"type":"VOR","hdg_t":240.7,"dist_nm":86,"freq":115.8,"lat":32.03338889,"lon":-109.75819444,"rng_nm":130,"alt_fmsl":4230,"id":"CIE","desc":"COCHISE VORTAC"},
{"type":"VOR","hdg_t":221.7,"dist_nm":101.4,"freq":108.8,"lat":31.47266667,"lon":-109.60205556,"rng_nm":40,"alt_fmsl":4131,"id":"DUG","desc":"DOUGLAS VORTAC"},
{"type":"NDB","hdg_t":40.2,"dist_nm":106.9,"freq":329,"lat":34.10034400,"lon":-106.90058300,"rng_nm":25,"alt_fmsl":4660,"id":"FIA","desc":"FLORIDA NDB"}
]
}
