{"success":true,"source":"xp2csv.pl","last_updated":"2013/11/08 14:53:21 UTC"
,"icao":"NTTE","name":"Tetiaroa","lat":-17.01,"lon":-149.610001,"rwys":1,"ils":0,"index":496187,"path":"w150s20/w150s18"
,"runways":[
{"len_m":760,"wid_m":20.12,"hdg":72,"surf":"Concrete","rwy1":"07","lat1":-17.01105614,"lon1":-149.61340018,"rwy2":"25","lat2":-17.00894386,"lon2":-149.60660182}
]
,"navaids":[
{"type":"NDB","hdg_t":198.6,"dist_nm":29.5,"freq":377,"lat":-17.47833300,"lon":-149.77444400,"rng_nm":100,"alt_fmsl":10,"id":"MO","desc":"MOOREA NDB"},
{"type":"VOR","hdg_t":179.1,"dist_nm":32.1,"freq":112.9,"lat":-17.54711111,"lon":-149.60150000,"rng_nm":130,"alt_fmsl":48,"id":"TAF","desc":"TAHITI FAAA VOR-DME"},
{"type":"NDB","hdg_t":180.3,"dist_nm":32.4,"freq":305,"lat":-17.55297200,"lon":-149.61377800,"rng_nm":150,"alt_fmsl":10,"id":"FA","desc":"TAHITI FAAA NDB"},
{"type":"VOR","hdg_t":283.3,"dist_nm":82.8,"freq":112.7,"lat":-16.68544400,"lon":-151.01050000,"rng_nm":130,"alt_fmsl":39,"id":"HHN","desc":"HUAHINE VOR-DME"},
{"type":"NDB","hdg_t":282.9,"dist_nm":83.8,"freq":345,"lat":-16.69111100,"lon":-151.02972200,"rng_nm":100,"alt_fmsl":43,"id":"HH","desc":"HUAHINE NDB"},
{"type":"NDB","hdg_t":278.9,"dist_nm":108.2,"freq":372,"lat":-16.72141700,"lon":-151.46655600,"rng_nm":100,"alt_fmsl":73,"id":"RU","desc":"RAIATEA NDB"},
{"type":"NDB","hdg_t":285,"dist_nm":128,"freq":384,"lat":-16.44363900,"lon":-151.75450000,"rng_nm":100,"alt_fmsl":58,"id":"BB","desc":"BORA BORA NDB"},
{"type":"NDB","hdg_t":282.5,"dist_nm":155.5,"freq":316,"lat":-16.42777800,"lon":-152.24250000,"rng_nm":100,"alt_fmsl":46,"id":"MA","desc":"MAUPITI NDB"},
{"type":"SDME","hdg_t":42.5,"dist_nm":166.3,"freq":115.3,"lat":-14.95041700,"lon":-147.67358300,"rng_nm":200,"alt_fmsl":40,"id":"RD","desc":"RANGIROA DME"},
{"type":"VOR","hdg_t":42.5,"dist_nm":166.3,"freq":112.3,"lat":-14.95041667,"lon":-147.67358333,"rng_nm":130,"alt_fmsl":40,"id":"RAN","desc":"RANGIROA VOR-DME"}
]
}
