{"success":true,"source":"xp2csv.pl","last_updated":"2013/11/08 14:53:21 UTC"
,"icao":"NV11","name":"Yucca Airstrip","lat":36.945786,"lon":-116.0378115,"rwys":1,"ils":0,"index":1040315,"path":"w120n30/w117n36"
,"runways":[
{"len_m":2743,"wid_m":60.96,"hdg":151,"surf":"Dirt","rwy1":"14","lat1":36.95662800,"lon1":-116.04520600,"rwy2":"32","lat2":36.93494400,"lon2":-116.03041700}
]
,"radios":[
{"type":"APP","freq":118.7,"desc":"DREAMLAND APP"},
{"type":"APP","freq":126.15,"desc":"DREAMLAND APP"}
]
,"navaids":[
{"type":"VOR","hdg_t":255.9,"dist_nm":35.2,"freq":114.7,"lat":36.80058333,"lon":-116.74763889,"rng_nm":130,"alt_fmsl":2928,"id":"BTY","desc":"BEATTY VORTAC"},
{"type":"VOR","hdg_t":325.2,"dist_nm":61.8,"freq":113,"lat":37.79041667,"lon":-116.77927778,"rng_nm":25,"alt_fmsl":5541,"id":"TQQ","desc":"SILVERBOW VORTAC"},
{"type":"VOR","hdg_t":140.4,"dist_nm":67,"freq":116.9,"lat":36.07969444,"lon":-115.15980556,"rng_nm":130,"alt_fmsl":2141,"id":"LAS","desc":"LAS VEGAS VORTAC"},
{"type":"VOR","hdg_t":134.6,"dist_nm":80.4,"freq":116.7,"lat":35.99577778,"lon":-114.86358333,"rng_nm":130,"alt_fmsl":3650,"id":"BLD","desc":"BOULDER CITY VORTAC"},
{"type":"VOR","hdg_t":324.1,"dist_nm":80.5,"freq":117.2,"lat":38.03063889,"lon":-117.03350000,"rng_nm":40,"alt_fmsl":5344,"id":"TPH","desc":"TONOPAH VORTAC"},
{"type":"VOR","hdg_t":96.5,"dist_nm":85.4,"freq":114.3,"lat":36.76927778,"lon":-114.27747222,"rng_nm":40,"alt_fmsl":2120,"id":"MMM","desc":"MORMON MESA VORTAC"},
{"type":"VOR","hdg_t":307.9,"dist_nm":104.2,"freq":117.7,"lat":38.00325000,"lon":-117.77044444,"rng_nm":130,"alt_fmsl":4800,"id":"OAL","desc":"COALDALE VORTAC"},
{"type":"SDME","hdg_t":227.2,"dist_nm":110,"freq":111.6,"lat":35.68792800,"lon":-117.69047200,"rng_nm":25,"alt_fmsl":2272,"id":"NID","desc":"CHINA LAKE TACAN"},
{"type":"VOR","hdg_t":44.5,"dist_nm":110.6,"freq":116.3,"lat":38.25019444,"lon":-114.39422222,"rng_nm":130,"alt_fmsl":9318,"id":"ILC","desc":"WILSON CREEK VORTAC"},
{"type":"VOR","hdg_t":283.7,"dist_nm":114.6,"freq":109.6,"lat":37.37694444,"lon":-118.36652778,"rng_nm":25,"alt_fmsl":4117,"id":"BIH","desc":"BISHOP VOR-DME"}
]
}
