{"success":true,"source":"xp2csv.pl","last_updated":"2013/11/08 14:53:21 UTC"
,"icao":"NV27","name":"Circle L Ranch","lat":37.71392775,"lon":-118.08327525,"rwys":2,"ils":0,"index":1007595,"path":"w120n30/w119n37"
,"runways":[
{"len_m":1341,"wid_m":18.29,"hdg":30,"surf":"Asphalt","rwy1":"03","lat1":37.70872500,"lon1":-118.08931700,"rwy2":"21","lat2":37.71909400,"lon2":-118.08150600},
{"len_m":1341,"wid_m":18.29,"hdg":144,"surf":"Asphalt","rwy1":"13","lat1":37.71888900,"lon1":-118.08551100,"rwy2":"31","lat2":37.70900300,"lon2":-118.07676700}
]
,"radios":[
{"type":"CTAF","freq":122.9,"desc":"CTAF"}
]
,"navaids":[
{"type":"VOR","hdg_t":40.5,"dist_nm":22.8,"freq":117.7,"lat":38.00325000,"lon":-117.77044444,"rng_nm":130,"alt_fmsl":4800,"id":"OAL","desc":"COALDALE VORTAC"},
{"type":"VOR","hdg_t":213.8,"dist_nm":24.3,"freq":109.6,"lat":37.37694444,"lon":-118.36652778,"rng_nm":25,"alt_fmsl":4117,"id":"BIH","desc":"BISHOP VOR-DME"},
{"type":"VOR","hdg_t":2.6,"dist_nm":51,"freq":115.1,"lat":38.56530556,"lon":-118.03286111,"rng_nm":130,"alt_fmsl":7860,"id":"MVA","desc":"MINA VORTAC"},
{"type":"VOR","hdg_t":68.8,"dist_nm":53.3,"freq":117.2,"lat":38.03063889,"lon":-117.03350000,"rng_nm":40,"alt_fmsl":5344,"id":"TPH","desc":"TONOPAH VORTAC"},
{"type":"VOR","hdg_t":85.3,"dist_nm":62.2,"freq":113,"lat":37.79041667,"lon":-116.77927778,"rng_nm":25,"alt_fmsl":5541,"id":"TQQ","desc":"SILVERBOW VORTAC"},
{"type":"VOR","hdg_t":243.6,"dist_nm":80.9,"freq":115.6,"lat":37.10441667,"lon":-119.59544444,"rng_nm":40,"alt_fmsl":2380,"id":"FRA","desc":"FRIANT VORTAC"},
{"type":"VOR","hdg_t":130.1,"dist_nm":84.1,"freq":114.7,"lat":36.80058333,"lon":-116.74763889,"rng_nm":130,"alt_fmsl":2928,"id":"BTY","desc":"BEATTY VORTAC"},
{"type":"VOR","hdg_t":239.5,"dist_nm":96.6,"freq":112.9,"lat":36.88433333,"lon":-119.81513889,"rng_nm":130,"alt_fmsl":360,"id":"CZQ","desc":"CLOVIS VORTAC"},
{"type":"NDB","hdg_t":235.2,"dist_nm":102.7,"freq":344,"lat":36.72394444,"lon":-119.83369444,"rng_nm":50,"alt_fmsl":0,"id":"FCH","desc":"CHANDLER NDB"},
{"type":"VOR","hdg_t":220.2,"dist_nm":105,"freq":109.4,"lat":36.36730556,"lon":-119.48216667,"rng_nm":25,"alt_fmsl":260,"id":"VIS","desc":"VISALIA VOR-DME"}
]
}
