{"success":true,"source":"xp2csv.pl","last_updated":"2013/11/08 14:53:21 UTC"
,"icao":"NWWA","name":"Tiga","lat":-21.09583549,"lon":167.80411234,"rwys":1,"ils":0,"index":5689662,"path":"e160s30/e167s22"
,"runways":[
{"len_m":1288,"wid_m":29.87,"hdg":171,"surf":"Dirt","rwy1":"16","lat1":-21.09008388,"lon1":167.80316899,"rwy2":"34","lat2":-21.10158709,"lon2":167.80505568}
]
,"navaids":[
{"type":"NDB","hdg_t":150.6,"dist_nm":26.4,"freq":388,"lat":-21.48161100,"lon":168.03580600,"rng_nm":25,"alt_fmsl":141,"id":"MR","desc":"MARE NDB"},
{"type":"VOR","hdg_t":301.1,"dist_nm":37,"freq":113.3,"lat":-20.77419400,"lon":167.24055600,"rng_nm":25,"alt_fmsl":92,"id":"LFU","desc":"LIFOU VOR-DME"},
{"type":"NDB","hdg_t":300.9,"dist_nm":37,"freq":264,"lat":-20.77594400,"lon":167.23886100,"rng_nm":25,"alt_fmsl":92,"id":"LU","desc":"LIFOU NDB"},
{"type":"NDB","hdg_t":291.1,"dist_nm":74.3,"freq":402,"lat":-20.64213900,"lon":166.57205600,"rng_nm":25,"alt_fmsl":23,"id":"OA","desc":"OUVEA NDB"},
{"type":"NDB","hdg_t":192.3,"dist_nm":91.4,"freq":332,"lat":-22.59000000,"lon":167.45108300,"rng_nm":25,"alt_fmsl":315,"id":"IP","desc":"ILE DES PINS NDB"},
{"type":"NDB","hdg_t":226.4,"dist_nm":102.2,"freq":394,"lat":-22.26986100,"lon":166.47308300,"rng_nm":25,"alt_fmsl":0,"id":"MG","desc":"MAGENTA NDB"},
{"type":"NDB","hdg_t":236.7,"dist_nm":103.4,"freq":338,"lat":-22.03647400,"lon":166.25205600,"rng_nm":50,"alt_fmsl":0,"id":"AV","desc":"LA TONTOUTA NDB"},
{"type":"VOR","hdg_t":225.3,"dist_nm":104.1,"freq":113,"lat":-22.31538900,"lon":166.47316700,"rng_nm":130,"alt_fmsl":-8,"id":"MGA","desc":"OUERE VOR-DME"},
{"type":"VOR","hdg_t":238.3,"dist_nm":104.3,"freq":112.9,"lat":-22.00511111,"lon":166.21177778,"rng_nm":130,"alt_fmsl":52,"id":"LTO","desc":"LA TONTOUTA VOR-DME"},
{"type":"NDB","hdg_t":238.8,"dist_nm":105.3,"freq":354,"lat":-22.00025000,"lon":166.18758300,"rng_nm":150,"alt_fmsl":52,"id":"FND","desc":"LA TONTOUTA NDB"}
]
}
