{"success":true,"source":"xp2csv.pl","last_updated":"2013/11/08 14:53:21 UTC"
,"icao":"NZAN","name":"Alfredton","lat":-40.697998,"lon":175.8553162,"rwys":1,"ils":0,"index":5819475,"path":"e170s50/e175s41"
,"runways":[
{"len_m":804,"wid_m":50.29,"hdg":351,"surf":"Turf/grass","rwy1":"33","lat1":-40.70158350,"lon1":175.85598085,"rwy2":"15","lat2":-40.69441250,"lon2":175.85465155}
]
,"navaids":[
{"type":"VOR","hdg_t":336.2,"dist_nm":24.7,"freq":113.4,"lat":-40.32025000,"lon":175.63786100,"rng_nm":60,"alt_fmsl":149,"id":"PM","desc":"PALMERSTON NORTH VOR-DME"},
{"type":"NDB","hdg_t":334.3,"dist_nm":24.8,"freq":258,"lat":-40.32427800,"lon":175.62119400,"rng_nm":60,"alt_fmsl":0,"id":"PM","desc":"PALMERSTON NORTH NDB"},
{"type":"VOR","hdg_t":323.9,"dist_nm":36.1,"freq":109,"lat":-40.20961111,"lon":175.39197222,"rng_nm":50,"alt_fmsl":164,"id":"OH","desc":"OHAKEA VORTAC"},
{"type":"NDB","hdg_t":324.4,"dist_nm":36.5,"freq":218,"lat":-40.20161400,"lon":175.39302500,"rng_nm":75,"alt_fmsl":0,"id":"OH","desc":"OHAKEA NDB"},
{"type":"NDB","hdg_t":252.5,"dist_nm":41.5,"freq":242,"lat":-40.90300000,"lon":174.98334700,"rng_nm":50,"alt_fmsl":38,"id":"PP","desc":"PARAPARAUMU NDB-DME"},
{"type":"SDME","hdg_t":252.5,"dist_nm":41.6,"freq":117.3,"lat":-40.90274400,"lon":174.98189700,"rng_nm":50,"alt_fmsl":38,"id":"PP","desc":"PARAPARAUMU NDB-DME"},
{"type":"NDB","hdg_t":217.3,"dist_nm":52.5,"freq":226,"lat":-41.39181100,"lon":175.14901400,"rng_nm":55,"alt_fmsl":0,"id":"FY","desc":"FERRY NDB"},
{"type":"NDB","hdg_t":241.5,"dist_nm":53.3,"freq":234,"lat":-41.11668600,"lon":174.82023100,"rng_nm":50,"alt_fmsl":0,"id":"TY","desc":"TITAHI BAY NDB"},
{"type":"NDB","hdg_t":235.3,"dist_nm":56.5,"freq":358,"lat":-41.22878600,"lon":174.82819200,"rng_nm":20,"alt_fmsl":0,"id":"NL","desc":"NEWLANDS NDB"},
{"type":"NDB","hdg_t":319,"dist_nm":58.3,"freq":382,"lat":-39.95937800,"lon":175.02650300,"rng_nm":50,"alt_fmsl":27,"id":"WU","desc":"WANGANUI NDB-DME"},
{"type":"SDME","hdg_t":319,"dist_nm":58.3,"freq":116,"lat":-39.95898300,"lon":175.02665800,"rng_nm":50,"alt_fmsl":27,"id":"WU","desc":"WANGANUI NDB-DME"},
{"type":"VOR","hdg_t":230.5,"dist_nm":60.7,"freq":112.3,"lat":-41.33722800,"lon":174.81696100,"rng_nm":50,"alt_fmsl":42,"id":"WN","desc":"WELLINGTON VOR-DME"},
{"type":"NDB","hdg_t":230.6,"dist_nm":60.9,"freq":298,"lat":-41.33823900,"lon":174.81359200,"rng_nm":100,"alt_fmsl":0,"id":"WN","desc":"WELLINGTON NDB"},
{"type":"VOR","hdg_t":246.1,"dist_nm":73.9,"freq":114.6,"lat":-41.18583333,"lon":174.36238889,"rng_nm":130,"alt_fmsl":1830,"id":"TR","desc":"TORY VOR-DME"},
{"type":"NDB","hdg_t":32.8,"dist_nm":87.1,"freq":354,"lat":-39.47233600,"lon":176.87152800,"rng_nm":50,"alt_fmsl":0,"id":"NR","desc":"NAPIER NDB"},
{"type":"VOR","hdg_t":32.3,"dist_nm":87.9,"freq":113.8,"lat":-39.45380300,"lon":176.86892500,"rng_nm":50,"alt_fmsl":6,"id":"NR","desc":"NAPIER VOR-DME"},
{"type":"NDB","hdg_t":228.5,"dist_nm":94.8,"freq":286,"lat":-41.73398100,"lon":174.27235300,"rng_nm":60,"alt_fmsl":0,"id":"CC","desc":"CAPE CAMPBELL NDB"}
]
}
