{"success":true,"source":"xp2csv.pl","last_updated":"2013/11/08 14:53:21 UTC"
,"icao":"NZTG","name":"Tauranga","lat":-37.67346725,"lon":176.195858125,"rwys":4,"ils":0,"index":5836048,"path":"e170s40/e176s38"
,"runways":[
{"len_m":1824,"wid_m":45.11,"hdg":96,"surf":"Asphalt","rwy1":"07R","lat1":-37.67375000,"lon1":176.18805600,"rwy2":"25L","lat2":-37.67555600,"lon2":176.20861100},
{"len_m":777,"wid_m":60.05,"hdg":96,"surf":"Dirt","rwy1":"07L","lat1":-37.67333300,"lon1":176.19513900,"rwy2":"25R","lat2":-37.67416700,"lon2":176.20388900},
{"len_m":700,"wid_m":45.11,"hdg":183,"surf":"Dirt","rwy1":"16","lat1":-37.67107100,"lon1":176.19460400,"rwy2":"34","lat2":-37.67736400,"lon2":176.19405800},
{"len_m":651,"wid_m":60.05,"hdg":52,"surf":"Dirt","rwy1":"04","lat1":-37.67305300,"lon1":176.18833900,"rwy2":"22","lat2":-37.66944400,"lon2":176.19416900}
]
,"radios":[
{"type":"ATIS","freq":126.6,"desc":"ATIS"},
{"type":"CTAF","freq":118.3,"desc":"CTAF"},
{"type":"TWR","freq":123.4,"desc":"TWR"},
{"type":"TWR","freq":118.3,"desc":"TWR"},
{"type":"APP","freq":119.5,"desc":"CHRISTCHURCH APP"},
{"type":"APP","freq":123.8,"desc":"CHRISTCHURCH APP"}
]
,"navaids":[
{"type":"NDB","hdg_t":221.9,"dist_nm":0.3,"freq":346,"lat":-37.67756700,"lon":176.19122200,"rng_nm":40,"alt_fmsl":13,"id":"TG","desc":"TAURANGA NDB-DME"},
{"type":"SDME","hdg_t":221.9,"dist_nm":0.3,"freq":113.2,"lat":-37.67756700,"lon":176.19122200,"rng_nm":40,"alt_fmsl":13,"id":"TG","desc":"TAURANGA NDB-DME"},
{"type":"VOR","hdg_t":167.8,"dist_nm":26.6,"freq":112.1,"lat":-38.10805000,"lon":176.31391400,"rng_nm":50,"alt_fmsl":935,"id":"RO","desc":"ROTORUA VOR-DME"},
{"type":"NDB","hdg_t":113.9,"dist_nm":37.3,"freq":362,"lat":-37.92465800,"lon":176.91545600,"rng_nm":30,"alt_fmsl":20,"id":"WK","desc":"WHAKATANE NDB-DME"},
{"type":"SDME","hdg_t":113.9,"dist_nm":37.3,"freq":117.7,"lat":-37.92465800,"lon":176.91573300,"rng_nm":30,"alt_fmsl":20,"id":"WK","desc":"WHAKATANE NDB-DME"},
{"type":"VOR","hdg_t":255.2,"dist_nm":42.1,"freq":114,"lat":-37.84926400,"lon":175.33852800,"rng_nm":50,"alt_fmsl":172,"id":"HN","desc":"HAMILTON VOR-DME"},
{"type":"NDB","hdg_t":254.4,"dist_nm":42.6,"freq":390,"lat":-37.86064200,"lon":175.33091700,"rng_nm":60,"alt_fmsl":0,"id":"HN","desc":"HAMILTON NDB"},
{"type":"NDB","hdg_t":303.5,"dist_nm":51.6,"freq":314,"lat":-37.19381100,"lon":175.29863300,"rng_nm":50,"alt_fmsl":0,"id":"RD","desc":"MIRANDA NDB"},
{"type":"NDB","hdg_t":297.6,"dist_nm":55.6,"freq":350,"lat":-37.23834400,"lon":175.16683900,"rng_nm":25,"alt_fmsl":0,"id":"SY","desc":"SURREY NDB"},
{"type":"NDB","hdg_t":185,"dist_nm":64.3,"freq":230,"lat":-38.74321400,"lon":176.07428600,"rng_nm":30,"alt_fmsl":1335,"id":"AP","desc":"TAUPO NDB-DME"},
{"type":"SDME","hdg_t":185,"dist_nm":64.3,"freq":116.7,"lat":-38.74321400,"lon":176.07428600,"rng_nm":30,"alt_fmsl":1335,"id":"AP","desc":"TAUPO NDB-DME"},
{"type":"NDB","hdg_t":289.8,"dist_nm":70.3,"freq":254,"lat":-37.26765000,"lon":174.81406900,"rng_nm":20,"alt_fmsl":0,"id":"WI","desc":"WAIUKU NDB"},
{"type":"NDB","hdg_t":307.1,"dist_nm":71.3,"freq":334,"lat":-36.94812200,"lon":175.01466900,"rng_nm":60,"alt_fmsl":0,"id":"HD","desc":"WHITFORD NDB"},
{"type":"VOR","hdg_t":300.7,"dist_nm":77.3,"freq":114.8,"lat":-37.00463889,"lon":174.81363889,"rng_nm":130,"alt_fmsl":29,"id":"AA","desc":"AUCKLAND VOR-DME"},
{"type":"NDB","hdg_t":295.3,"dist_nm":84.2,"freq":398,"lat":-37.06040800,"lon":174.60965300,"rng_nm":60,"alt_fmsl":0,"id":"OT","desc":"WESTPOINT NDB"},
{"type":"NDB","hdg_t":208.8,"dist_nm":85.6,"freq":163,"lat":-38.92153900,"lon":175.31373300,"rng_nm":40,"alt_fmsl":0,"id":"TM","desc":"TAUMARUNUI NDB"},
{"type":"VOR","hdg_t":304.8,"dist_nm":91.9,"freq":108.8,"lat":-36.78680600,"lon":174.63077800,"rng_nm":50,"alt_fmsl":100,"id":"WP","desc":"WHENUAPAI VORTAC"},
{"type":"NDB","hdg_t":337.3,"dist_nm":92.6,"freq":274,"lat":-36.24411700,"lon":175.46144700,"rng_nm":50,"alt_fmsl":0,"id":"GB","desc":"GREAT BARRIER NDB"},
{"type":"VOR","hdg_t":223.1,"dist_nm":95.3,"freq":113,"lat":-38.82662200,"lon":174.80662800,"rng_nm":50,"alt_fmsl":1128,"id":"OR","desc":"OHURA VOR-DME"}
]
}
