{"success":true,"source":"xp2csv.pl","last_updated":"2013/11/08 14:53:21 UTC"
,"icao":"NZTN","name":"Turangi","lat":-38.9694977,"lon":175.8138428,"rwys":1,"ils":0,"index":5819587,"path":"e170s40/e175s39"
,"runways":[
{"len_m":843,"wid_m":60.35,"hdg":41,"surf":"Turf/grass","rwy1":"02","lat1":-38.97235865,"lon1":175.81064402,"rwy2":"20","lat2":-38.96663675,"lon2":175.81704158}
]
,"navaids":[
{"type":"NDB","hdg_t":42,"dist_nm":18.2,"freq":230,"lat":-38.74321400,"lon":176.07428600,"rng_nm":30,"alt_fmsl":1335,"id":"AP","desc":"TAUPO NDB-DME"},
{"type":"SDME","hdg_t":42,"dist_nm":18.2,"freq":116.7,"lat":-38.74321400,"lon":176.07428600,"rng_nm":30,"alt_fmsl":1335,"id":"AP","desc":"TAUPO NDB-DME"},
{"type":"NDB","hdg_t":276.8,"dist_nm":23.5,"freq":163,"lat":-38.92153900,"lon":175.31373300,"rng_nm":40,"alt_fmsl":0,"id":"TM","desc":"TAUMARUNUI NDB"},
{"type":"VOR","hdg_t":279.9,"dist_nm":47.9,"freq":113,"lat":-38.82662200,"lon":174.80662800,"rng_nm":50,"alt_fmsl":1128,"id":"OR","desc":"OHURA VOR-DME"},
{"type":"VOR","hdg_t":24.6,"dist_nm":56.7,"freq":112.1,"lat":-38.10805000,"lon":176.31391400,"rng_nm":50,"alt_fmsl":935,"id":"RO","desc":"ROTORUA VOR-DME"},
{"type":"VOR","hdg_t":120.8,"dist_nm":57.1,"freq":113.8,"lat":-39.45380300,"lon":176.86892500,"rng_nm":50,"alt_fmsl":6,"id":"NR","desc":"NAPIER VOR-DME"},
{"type":"NDB","hdg_t":121.7,"dist_nm":57.8,"freq":354,"lat":-39.47233600,"lon":176.87152800,"rng_nm":50,"alt_fmsl":0,"id":"NR","desc":"NAPIER NDB"},
{"type":"SDME","hdg_t":211.4,"dist_nm":69.6,"freq":116,"lat":-39.95898300,"lon":175.02665800,"rng_nm":50,"alt_fmsl":27,"id":"WU","desc":"WANGANUI NDB-DME"},
{"type":"NDB","hdg_t":211.4,"dist_nm":69.7,"freq":382,"lat":-39.95937800,"lon":175.02650300,"rng_nm":50,"alt_fmsl":27,"id":"WU","desc":"WANGANUI NDB-DME"},
{"type":"NDB","hdg_t":340.9,"dist_nm":70.2,"freq":390,"lat":-37.86064200,"lon":175.33091700,"rng_nm":60,"alt_fmsl":0,"id":"HN","desc":"HAMILTON NDB"},
{"type":"VOR","hdg_t":341.3,"dist_nm":70.7,"freq":114,"lat":-37.84926400,"lon":175.33852800,"rng_nm":50,"alt_fmsl":172,"id":"HN","desc":"HAMILTON VOR-DME"},
{"type":"NDB","hdg_t":94.7,"dist_nm":74.9,"freq":246,"lat":-39.06130000,"lon":177.41242800,"rng_nm":40,"alt_fmsl":0,"id":"WO","desc":"WAIROA NDB"},
{"type":"VOR","hdg_t":267.7,"dist_nm":76.2,"freq":114.4,"lat":-39.00725000,"lon":174.18394444,"rng_nm":50,"alt_fmsl":97,"id":"NP","desc":"NEW PLYMOUTH VOR-DME"},
{"type":"NDB","hdg_t":194.6,"dist_nm":76.4,"freq":218,"lat":-40.20161400,"lon":175.39302500,"rng_nm":75,"alt_fmsl":0,"id":"OH","desc":"OHAKEA NDB"},
{"type":"VOR","hdg_t":194.6,"dist_nm":76.8,"freq":109,"lat":-40.20961111,"lon":175.39197222,"rng_nm":50,"alt_fmsl":164,"id":"OH","desc":"OHAKEA VORTAC"},
{"type":"NDB","hdg_t":13,"dist_nm":79.4,"freq":346,"lat":-37.67756700,"lon":176.19122200,"rng_nm":40,"alt_fmsl":13,"id":"TG","desc":"TAURANGA NDB-DME"},
{"type":"SDME","hdg_t":13,"dist_nm":79.4,"freq":113.2,"lat":-37.67756700,"lon":176.19122200,"rng_nm":40,"alt_fmsl":13,"id":"TG","desc":"TAURANGA NDB-DME"},
{"type":"NDB","hdg_t":40,"dist_nm":81.3,"freq":362,"lat":-37.92465800,"lon":176.91545600,"rng_nm":30,"alt_fmsl":20,"id":"WK","desc":"WHAKATANE NDB-DME"},
{"type":"VOR","hdg_t":185.6,"dist_nm":81.3,"freq":113.4,"lat":-40.32025000,"lon":175.63786100,"rng_nm":60,"alt_fmsl":149,"id":"PM","desc":"PALMERSTON NORTH VOR-DME"},
{"type":"SDME","hdg_t":40,"dist_nm":81.3,"freq":117.7,"lat":-37.92465800,"lon":176.91573300,"rng_nm":30,"alt_fmsl":20,"id":"WK","desc":"WHAKATANE NDB-DME"},
{"type":"NDB","hdg_t":186.2,"dist_nm":81.7,"freq":258,"lat":-40.32427800,"lon":175.62119400,"rng_nm":60,"alt_fmsl":0,"id":"PM","desc":"PALMERSTON NORTH NDB"},
{"type":"NDB","hdg_t":253.9,"dist_nm":96.7,"freq":338,"lat":-39.39963889,"lon":173.81544444,"rng_nm":50,"alt_fmsl":0,"id":"MCC","desc":"OAONUI NDB-DME"},
{"type":"SDME","hdg_t":253.9,"dist_nm":96.7,"freq":111.8,"lat":-39.39963889,"lon":173.81544444,"rng_nm":50,"alt_fmsl":0,"id":"MCC","desc":"OAONUI DME"}
]
}
