{"success":true,"source":"xp2csv.pl","last_updated":"2013/11/08 14:53:21 UTC"
,"icao":"NZWK","name":"Whakatane","lat":-37.91981275,"lon":176.91488825,"rwys":2,"ils":0,"index":5836035,"path":"e170s40/e176s38"
,"runways":[
{"len_m":1292,"wid_m":30.48,"hdg":114,"surf":"Asphalt","rwy1":"09L","lat1":-37.91661100,"lon1":176.90895000,"rwy2":"27R","lat2":-37.92152800,"lon2":176.92226900},
{"len_m":751,"wid_m":29.87,"hdg":110,"surf":"Turf/grass","rwy1":"09R","lat1":-37.91939057,"lon1":176.91015340,"rwy2":"27L","lat2":-37.92172143,"lon2":176.91818060}
]
,"radios":[
{"type":"CTAF","freq":118.6,"desc":"CTAF"},
{"type":"TWR","freq":125.5,"desc":"CHRISTCHURCH FIS"}
]
,"navaids":[
{"type":"NDB","hdg_t":174.6,"dist_nm":0.2,"freq":362,"lat":-37.92465800,"lon":176.91545600,"rng_nm":30,"alt_fmsl":20,"id":"WK","desc":"WHAKATANE NDB-DME"},
{"type":"SDME","hdg_t":172.1,"dist_nm":0.2,"freq":117.7,"lat":-37.92465800,"lon":176.91573300,"rng_nm":30,"alt_fmsl":20,"id":"WK","desc":"WHAKATANE NDB-DME"},
{"type":"VOR","hdg_t":248.2,"dist_nm":30.6,"freq":112.1,"lat":-38.10805000,"lon":176.31391400,"rng_nm":50,"alt_fmsl":935,"id":"RO","desc":"ROTORUA VOR-DME"},
{"type":"NDB","hdg_t":292.6,"dist_nm":37.3,"freq":346,"lat":-37.67756700,"lon":176.19122200,"rng_nm":40,"alt_fmsl":13,"id":"TG","desc":"TAURANGA NDB-DME"},
{"type":"SDME","hdg_t":292.6,"dist_nm":37.3,"freq":113.2,"lat":-37.67756700,"lon":176.19122200,"rng_nm":40,"alt_fmsl":13,"id":"TG","desc":"TAURANGA NDB-DME"},
{"type":"NDB","hdg_t":218.5,"dist_nm":63.3,"freq":230,"lat":-38.74321400,"lon":176.07428600,"rng_nm":30,"alt_fmsl":1335,"id":"AP","desc":"TAUPO NDB-DME"},
{"type":"SDME","hdg_t":218.5,"dist_nm":63.3,"freq":116.7,"lat":-38.74321400,"lon":176.07428600,"rng_nm":30,"alt_fmsl":1335,"id":"AP","desc":"TAUPO NDB-DME"},
{"type":"VOR","hdg_t":131.8,"dist_nm":67,"freq":114.2,"lat":-38.66050000,"lon":177.97755556,"rng_nm":130,"alt_fmsl":15,"id":"GS","desc":"GISBORNE VOR-DME"},
{"type":"NDB","hdg_t":161.2,"dist_nm":72.3,"freq":246,"lat":-39.06130000,"lon":177.41242800,"rng_nm":40,"alt_fmsl":0,"id":"WO","desc":"WAIROA NDB"},
{"type":"VOR","hdg_t":272.7,"dist_nm":74.9,"freq":114,"lat":-37.84926400,"lon":175.33852800,"rng_nm":50,"alt_fmsl":172,"id":"HN","desc":"HAMILTON VOR-DME"},
{"type":"NDB","hdg_t":272.2,"dist_nm":75.3,"freq":390,"lat":-37.86064200,"lon":175.33091700,"rng_nm":60,"alt_fmsl":0,"id":"HN","desc":"HAMILTON NDB"},
{"type":"NDB","hdg_t":298.9,"dist_nm":88.5,"freq":314,"lat":-37.19381100,"lon":175.29863300,"rng_nm":50,"alt_fmsl":0,"id":"RD","desc":"MIRANDA NDB"},
{"type":"VOR","hdg_t":181.3,"dist_nm":91.9,"freq":113.8,"lat":-39.45380300,"lon":176.86892500,"rng_nm":50,"alt_fmsl":6,"id":"NR","desc":"NAPIER VOR-DME"},
{"type":"NDB","hdg_t":295.5,"dist_nm":92.8,"freq":350,"lat":-37.23834400,"lon":175.16683900,"rng_nm":25,"alt_fmsl":0,"id":"SY","desc":"SURREY NDB"},
{"type":"NDB","hdg_t":181.2,"dist_nm":93,"freq":354,"lat":-39.47233600,"lon":176.87152800,"rng_nm":50,"alt_fmsl":0,"id":"NR","desc":"NAPIER NDB"},
{"type":"NDB","hdg_t":231,"dist_nm":96.4,"freq":163,"lat":-38.92153900,"lon":175.31373300,"rng_nm":40,"alt_fmsl":0,"id":"TM","desc":"TAUMARUNUI NDB"}
]
}
