{"success":true,"source":"xp2csv.pl","last_updated":"2013/11/08 14:53:21 UTC"
,"icao":"O51","name":"Laverne Muni","lat":36.7444445,"lon":-99.908608,"rwys":1,"ils":0,"index":1318824,"path":"w100n30/w100n36"
,"runways":[
{"len_m":1233,"wid_m":15.24,"hdg":180,"surf":"Asphalt","rwy1":"17","lat1":36.75000000,"lon1":-99.90860800,"rwy2":"35","lat2":36.73888900,"lon2":-99.90860800}
]
,"radios":[
{"type":"CTAF","freq":122.9,"desc":"CTAF"}
]
,"navaids":[
{"type":"NDB","hdg_t":62.6,"dist_nm":15.6,"freq":215,"lat":36.86419444,"lon":-99.62011111,"rng_nm":50,"alt_fmsl":0,"id":"BFK","desc":"BUFFALO NDB"},
{"type":"VOR","hdg_t":176.7,"dist_nm":24,"freq":115.6,"lat":36.34372222,"lon":-99.88011111,"rng_nm":130,"alt_fmsl":2430,"id":"MMB","desc":"MITBEE VORTAC"},
{"type":"NDB","hdg_t":134.8,"dist_nm":26.2,"freq":329,"lat":36.43431500,"lon":-99.52416800,"rng_nm":25,"alt_fmsl":2167,"id":"OWU","desc":"WEST WOODWARD NDB"},
{"type":"NDB","hdg_t":244.1,"dist_nm":45.1,"freq":266,"lat":36.41233333,"lon":-100.74775000,"rng_nm":50,"alt_fmsl":0,"id":"PYX","desc":"PERRYTON NDB"},
{"type":"NDB","hdg_t":284.9,"dist_nm":52.1,"freq":383,"lat":36.96455556,"lon":-100.95627778,"rng_nm":50,"alt_fmsl":0,"id":"LB","desc":"PANCK NDB"},
{"type":"VOR","hdg_t":289.6,"dist_nm":54.2,"freq":112.3,"lat":37.04438889,"lon":-100.97119444,"rng_nm":130,"alt_fmsl":2891,"id":"LBL","desc":"LIBERAL VORTAC"},
{"type":"VOR","hdg_t":356,"dist_nm":66.4,"freq":108.2,"lat":37.85058333,"lon":-100.00563889,"rng_nm":40,"alt_fmsl":2565,"id":"DDC","desc":"DODGE CITY VORTAC"},
{"type":"NDB","hdg_t":111.2,"dist_nm":74.4,"freq":246,"lat":36.28516700,"lon":-98.47800000,"rng_nm":25,"alt_fmsl":1273,"id":"FAU","desc":"FAIRVIEW NDB"},
{"type":"NDB","hdg_t":290,"dist_nm":74.8,"freq":365,"lat":37.16361111,"lon":-101.37472222,"rng_nm":50,"alt_fmsl":0,"id":"HQG","desc":"HUGOTON NDB"},
{"type":"NDB","hdg_t":329.2,"dist_nm":75.8,"freq":347,"lat":37.82897222,"lon":-100.72436111,"rng_nm":50,"alt_fmsl":0,"id":"GC","desc":"PIEVE NDB"},
{"type":"NDB","hdg_t":268.7,"dist_nm":77,"freq":275,"lat":36.70536111,"lon":-101.50508333,"rng_nm":50,"alt_fmsl":0,"id":"GUY","desc":"GUYMON NDB"},
{"type":"VOR","hdg_t":331.2,"dist_nm":80.5,"freq":113.3,"lat":37.91905556,"lon":-100.72505556,"rng_nm":130,"alt_fmsl":2877,"id":"GCK","desc":"GARDEN CITY VORTAC"},
{"type":"NDB","hdg_t":43,"dist_nm":80.9,"freq":356,"lat":37.72630556,"lon":-98.74708333,"rng_nm":50,"alt_fmsl":0,"id":"PTT","desc":"PRATT NDB"},
{"type":"NDB","hdg_t":155.8,"dist_nm":84.7,"freq":393,"lat":35.45066667,"lon":-99.20147222,"rng_nm":50,"alt_fmsl":0,"id":"BZ","desc":"FOSSI NDB"},
{"type":"VOR","hdg_t":170.9,"dist_nm":84.8,"freq":115.2,"lat":35.34516667,"lon":-99.63536111,"rng_nm":40,"alt_fmsl":1990,"id":"SYO","desc":"SAYRE VORTAC"},
{"type":"NDB","hdg_t":218.1,"dist_nm":85.8,"freq":368,"lat":35.61272222,"lon":-100.99194444,"rng_nm":50,"alt_fmsl":0,"id":"PPA","desc":"PAMPA NDB"},
{"type":"NDB","hdg_t":146.4,"dist_nm":86.3,"freq":320,"lat":35.53921700,"lon":-98.93508300,"rng_nm":25,"alt_fmsl":1605,"id":"CLK","desc":"CLINTON NDB"},
{"type":"NDB","hdg_t":306.5,"dist_nm":86.6,"freq":395,"lat":37.59711111,"lon":-101.36802778,"rng_nm":50,"alt_fmsl":0,"id":"ULS","desc":"ULYSSES NDB"},
{"type":"VOR","hdg_t":72.9,"dist_nm":87.1,"freq":112.9,"lat":37.15891667,"lon":-98.17072222,"rng_nm":40,"alt_fmsl":1390,"id":"ANY","desc":"ANTHONY VORTAC"},
{"type":"NDB","hdg_t":125.8,"dist_nm":89.2,"freq":359,"lat":35.86198600,"lon":-98.42535000,"rng_nm":25,"alt_fmsl":1530,"id":"JWG","desc":"WATONGA NDB"},
{"type":"VOR","hdg_t":232.2,"dist_nm":90.9,"freq":108.6,"lat":35.80708333,"lon":-101.38213889,"rng_nm":40,"alt_fmsl":3130,"id":"BGD","desc":"BORGER VORTAC"},
{"type":"NDB","hdg_t":140,"dist_nm":94.4,"freq":272,"lat":35.53005200,"lon":-98.67062900,"rng_nm":25,"alt_fmsl":1581,"id":"OJA","desc":"WEATHERFORD NDB"},
{"type":"NDB","hdg_t":23.8,"dist_nm":95.8,"freq":296,"lat":38.20436111,"lon":-99.08791667,"rng_nm":50,"alt_fmsl":0,"id":"LQR","desc":"LARNED NDB"},
{"type":"NDB","hdg_t":279.7,"dist_nm":96.3,"freq":377,"lat":37.00113889,"lon":-101.88452778,"rng_nm":50,"alt_fmsl":0,"id":"EHA","desc":"ELKHART NDB"},
{"type":"VOR","hdg_t":159,"dist_nm":96.5,"freq":110,"lat":35.23694444,"lon":-99.20616667,"rng_nm":25,"alt_fmsl":1780,"id":"BFV","desc":"BURNS FLAT VORTAC"},
{"type":"VOR","hdg_t":103.3,"dist_nm":99.1,"freq":115.4,"lat":36.34497222,"lon":-97.91836111,"rng_nm":130,"alt_fmsl":1276,"id":"END","desc":"VANCE VORTAC"}
]
}
