{"success":true,"source":"xp2csv.pl","last_updated":"2013/11/08 14:53:21 UTC"
,"icao":"O57","name":"Bryant Field","lat":38.26413555,"lon":-119.22270173,"rwys":1,"ils":0,"index":991251,"path":"w120n30/w120n38"
,"runways":[
{"len_m":1290,"wid_m":17.98,"hdg":180,"surf":"Asphalt","rwy1":"16","lat1":38.26994930,"lon1":-119.22269974,"rwy2":"34","lat2":38.25832181,"lon2":-119.22270372}
]
,"radios":[
{"type":"CTAF","freq":122.9,"desc":"CTAF"}
]
,"navaids":[
{"type":"VOR","hdg_t":71.7,"dist_nm":58.9,"freq":115.1,"lat":38.56530556,"lon":-118.03286111,"rng_nm":130,"alt_fmsl":7860,"id":"MVA","desc":"MINA VORTAC"},
{"type":"VOR","hdg_t":142.3,"dist_nm":66.9,"freq":109.6,"lat":37.37694444,"lon":-118.36652778,"rng_nm":25,"alt_fmsl":4117,"id":"BIH","desc":"BISHOP VOR-DME"},
{"type":"VOR","hdg_t":102.3,"dist_nm":70.5,"freq":117.7,"lat":38.00325000,"lon":-117.77044444,"rng_nm":130,"alt_fmsl":4800,"id":"OAL","desc":"COALDALE VORTAC"},
{"type":"VOR","hdg_t":194.4,"dist_nm":71.7,"freq":115.6,"lat":37.10441667,"lon":-119.59544444,"rng_nm":40,"alt_fmsl":2380,"id":"FRA","desc":"FRIANT VORTAC"},
{"type":"SDME","hdg_t":19.1,"dist_nm":73.2,"freq":113.5,"lat":39.41686400,"lon":-118.70486900,"rng_nm":130,"alt_fmsl":3929,"id":"NFL","desc":"FALLON TACAN"},
{"type":"VOR","hdg_t":318.4,"dist_nm":73.7,"freq":113.2,"lat":39.18033333,"lon":-120.26961111,"rng_nm":40,"alt_fmsl":8850,"id":"SWR","desc":"SQUAW VALLEY VOR-DME"},
{"type":"VOR","hdg_t":7.9,"dist_nm":75.8,"freq":114.1,"lat":39.51641667,"lon":-118.99769444,"rng_nm":40,"alt_fmsl":4085,"id":"HZN","desc":"HAZEN VORTAC"},
{"type":"VOR","hdg_t":291.4,"dist_nm":77,"freq":115.5,"lat":38.72472222,"lon":-120.74925000,"rng_nm":40,"alt_fmsl":2583,"id":"HNW","desc":"HANGTOWN VOR-DME"},
{"type":"VOR","hdg_t":345.1,"dist_nm":78.6,"freq":117.9,"lat":39.53127778,"lon":-119.65608333,"rng_nm":130,"alt_fmsl":5949,"id":"FMG","desc":"MUSTANG VORTAC"},
{"type":"NDB","hdg_t":341.3,"dist_nm":79.4,"freq":351,"lat":39.51954200,"lon":-119.76920600,"rng_nm":15,"alt_fmsl":4400,"id":"NO","desc":"Josef NDB"},
{"type":"VOR","hdg_t":222.1,"dist_nm":84,"freq":114.2,"lat":37.21944444,"lon":-120.40022222,"rng_nm":40,"alt_fmsl":184,"id":"HYP","desc":"EL NIDO VOR-DME"},
{"type":"VOR","hdg_t":262.8,"dist_nm":85,"freq":114.8,"lat":38.07458333,"lon":-121.00386111,"rng_nm":130,"alt_fmsl":260,"id":"LIN","desc":"LINDEN VORTAC"},
{"type":"VOR","hdg_t":199,"dist_nm":87.3,"freq":112.9,"lat":36.88433333,"lon":-119.81513889,"rng_nm":130,"alt_fmsl":360,"id":"CZQ","desc":"CLOVIS VORTAC"},
{"type":"NDB","hdg_t":242.3,"dist_nm":87.8,"freq":367,"lat":37.57311111,"lon":-120.85511111,"rng_nm":50,"alt_fmsl":0,"id":"MO","desc":"WOWAR NDB"},
{"type":"VOR","hdg_t":245.6,"dist_nm":90.7,"freq":114.6,"lat":37.62736111,"lon":-120.95786111,"rng_nm":130,"alt_fmsl":93,"id":"MOD","desc":"MODESTO VOR-DME"},
{"type":"VOR","hdg_t":254.9,"dist_nm":95.8,"freq":116,"lat":37.83361111,"lon":-121.17138889,"rng_nm":130,"alt_fmsl":47,"id":"ECA","desc":"MANTECA VOR-DME"},
{"type":"NDB","hdg_t":197.7,"dist_nm":96.8,"freq":344,"lat":36.72394444,"lon":-119.83369444,"rng_nm":50,"alt_fmsl":0,"id":"FCH","desc":"CHANDLER NDB"}
]
}
