{"success":true,"source":"xp2csv.pl","last_updated":"2013/11/08 14:53:21 UTC"
,"icao":"O59","name":"Cedarville","lat":41.552778,"lon":-120.1665305,"rwys":1,"ils":0,"index":975075,"path":"w130n40/w121n41"
,"runways":[
{"len_m":1351,"wid_m":15.24,"hdg":29,"surf":"Asphalt","rwy1":"01","lat1":41.54750000,"lon1":-120.17056100,"rwy2":"19","lat2":41.55805600,"lon2":-120.16250000}
]
,"radios":[
{"type":"CTAF","freq":122.8,"desc":"CTAF/UNICOM"}
]
,"navaids":[
{"type":"VOR","hdg_t":344.9,"dist_nm":58.4,"freq":112,"lat":42.49286111,"lon":-120.50711111,"rng_nm":130,"alt_fmsl":7460,"id":"LKV","desc":"LAKEVIEW VORTAC"},
{"type":"VOR","hdg_t":179.5,"dist_nm":77,"freq":109,"lat":40.26786111,"lon":-120.15197222,"rng_nm":25,"alt_fmsl":4006,"id":"AHC","desc":"AMEDEE VOR-DME"},
{"type":"VOR","hdg_t":297.7,"dist_nm":78.7,"freq":115.9,"lat":42.15313889,"lon":-121.72752778,"rng_nm":130,"alt_fmsl":4087,"id":"LMT","desc":"KLAMATH FALLS VORTAC"},
{"type":"VOR","hdg_t":94.4,"dist_nm":96.5,"freq":114.3,"lat":41.40705556,"lon":-118.03472222,"rng_nm":40,"alt_fmsl":4161,"id":"SDO","desc":"SOD HOUSE VORTAC"},
{"type":"NDB","hdg_t":276.5,"dist_nm":104.6,"freq":404,"lat":41.72727778,"lon":-122.48169444,"rng_nm":50,"alt_fmsl":0,"id":"MOG","desc":"MONTAGUE NDB"},
{"type":"VOR","hdg_t":139.2,"dist_nm":112,"freq":116.5,"lat":40.12491667,"lon":-118.57763889,"rng_nm":40,"alt_fmsl":4784,"id":"LLC","desc":"LOVELOCK VORTAC"},
{"type":"NDB","hdg_t":75.1,"dist_nm":113.1,"freq":204,"lat":42.01155556,"lon":-117.72097222,"rng_nm":50,"alt_fmsl":0,"id":"RMD","desc":"MC DERMITT STATE NDB"},
{"type":"VOR","hdg_t":109.4,"dist_nm":113.5,"freq":108.2,"lat":40.89927778,"lon":-117.81219444,"rng_nm":25,"alt_fmsl":4302,"id":"INA","desc":"WINNEMUCCA VOR-DME"},
{"type":"VOR","hdg_t":237.6,"dist_nm":115.1,"freq":108.4,"lat":40.50455556,"lon":-122.29169444,"rng_nm":25,"alt_fmsl":490,"id":"RDD","desc":"REDDING VOR-DME"},
{"type":"VOR","hdg_t":267.9,"dist_nm":119.1,"freq":109.6,"lat":41.44966667,"lon":-122.80644444,"rng_nm":40,"alt_fmsl":4900,"id":"FJS","desc":"FORT JONES VOR-DME"}
]
}
