{"success":true,"source":"xp2csv.pl","last_updated":"2013/11/08 14:53:21 UTC"
,"icao":"O65","name":"Okeene - Christman Airfield","lat":36.1103515,"lon":-98.3087025,"rwys":1,"ils":0,"index":1335170,"path":"w100n30/w099n36"
,"runways":[
{"len_m":914,"wid_m":18.29,"hdg":179,"surf":"Asphalt","rwy1":"17","lat1":36.11447200,"lon1":-98.30870800,"rwy2":"35","lat2":36.10623100,"lon2":-98.30869700}
]
,"radios":[
{"type":"CTAF","freq":122.9,"desc":"CTAF"}
]
,"navaids":[
{"type":"NDB","hdg_t":321.9,"dist_nm":13.3,"freq":246,"lat":36.28516700,"lon":-98.47800000,"rng_nm":25,"alt_fmsl":1273,"id":"FAU","desc":"FAIRVIEW NDB"},
{"type":"NDB","hdg_t":200.9,"dist_nm":15.9,"freq":359,"lat":35.86198600,"lon":-98.42535000,"rng_nm":25,"alt_fmsl":1530,"id":"JWG","desc":"WATONGA NDB"},
{"type":"VOR","hdg_t":140.8,"dist_nm":23.5,"freq":114.7,"lat":35.80527778,"lon":-98.00391667,"rng_nm":130,"alt_fmsl":1110,"id":"IFI","desc":"KINGFISHER VORTAC"},
{"type":"VOR","hdg_t":53.3,"dist_nm":23.5,"freq":115.4,"lat":36.34497222,"lon":-97.91836111,"rng_nm":130,"alt_fmsl":1276,"id":"END","desc":"VANCE VORTAC"},
{"type":"NDB","hdg_t":68.4,"dist_nm":27,"freq":341,"lat":36.27502778,"lon":-97.79077778,"rng_nm":50,"alt_fmsl":0,"id":"EI","desc":"GARFY NDB"},
{"type":"VOR","hdg_t":57.8,"dist_nm":29.7,"freq":109,"lat":36.37375000,"lon":-97.78816667,"rng_nm":25,"alt_fmsl":1149,"id":"ODG","desc":"WOODRING VOR-DME"},
{"type":"NDB","hdg_t":207,"dist_nm":38.9,"freq":272,"lat":35.53005200,"lon":-98.67062900,"rng_nm":25,"alt_fmsl":1581,"id":"OJA","desc":"WEATHERFORD NDB"},
{"type":"NDB","hdg_t":221.9,"dist_nm":45.8,"freq":320,"lat":35.53921700,"lon":-98.93508300,"rng_nm":25,"alt_fmsl":1605,"id":"CLK","desc":"CLINTON NDB"},
{"type":"NDB","hdg_t":109.7,"dist_nm":46.2,"freq":326,"lat":35.84555600,"lon":-97.41580600,"rng_nm":25,"alt_fmsl":1074,"id":"LCY","desc":"LOGAN COUNTY NDB"},
{"type":"VOR","hdg_t":136.7,"dist_nm":47.3,"freq":113.4,"lat":35.53294444,"lon":-97.64716667,"rng_nm":25,"alt_fmsl":1271,"id":"PWA","desc":"WILEY POST VOR-DME"},
{"type":"NDB","hdg_t":137.9,"dist_nm":51.4,"freq":406,"lat":35.47144444,"lon":-97.60544444,"rng_nm":50,"alt_fmsl":0,"id":"OK","desc":"TULOO NDB"},
{"type":"VOR","hdg_t":142.6,"dist_nm":56.5,"freq":114.1,"lat":35.35858333,"lon":-97.60922222,"rng_nm":130,"alt_fmsl":1230,"id":"IRW","desc":"WILL ROGERS VORTAC"},
{"type":"NDB","hdg_t":228,"dist_nm":58.8,"freq":393,"lat":35.45066667,"lon":-99.20147222,"rng_nm":50,"alt_fmsl":0,"id":"BZ","desc":"FOSSI NDB"},
{"type":"NDB","hdg_t":82.3,"dist_nm":59.8,"freq":255,"lat":36.23616667,"lon":-97.08730556,"rng_nm":50,"alt_fmsl":0,"id":"SW","desc":"BLAKI NDB"},
{"type":"VOR","hdg_t":83.1,"dist_nm":60,"freq":108.4,"lat":36.22425000,"lon":-97.08125000,"rng_nm":25,"alt_fmsl":1022,"id":"SWO","desc":"STILLWATER VOR-DME"},
{"type":"NDB","hdg_t":144,"dist_nm":60.1,"freq":350,"lat":35.29505556,"lon":-97.58866667,"rng_nm":50,"alt_fmsl":0,"id":"RG","desc":"GALLY NDB"},
{"type":"SDME","hdg_t":131.3,"dist_nm":60.7,"freq":115.8,"lat":35.43650800,"lon":-97.37968900,"rng_nm":25,"alt_fmsl":1251,"id":"TIK","desc":"TINKER TACAN"},
{"type":"NDB","hdg_t":288.5,"dist_nm":62,"freq":329,"lat":36.43431500,"lon":-99.52416800,"rng_nm":25,"alt_fmsl":2167,"id":"OWU","desc":"WEST WOODWARD NDB"},
{"type":"VOR","hdg_t":6,"dist_nm":63.1,"freq":112.9,"lat":37.15891667,"lon":-98.17072222,"rng_nm":40,"alt_fmsl":1390,"id":"ANY","desc":"ANTHONY VORTAC"},
{"type":"NDB","hdg_t":141.3,"dist_nm":65.9,"freq":370,"lat":35.24825000,"lon":-97.46997222,"rng_nm":50,"alt_fmsl":0,"id":"OUN","desc":"NORMAN NDB"},
{"type":"VOR","hdg_t":55.2,"dist_nm":67.4,"freq":113.2,"lat":36.74652778,"lon":-97.16016667,"rng_nm":130,"alt_fmsl":1054,"id":"PER","desc":"PIONEER VORTAC"},
{"type":"VOR","hdg_t":220.2,"dist_nm":68.2,"freq":110,"lat":35.23694444,"lon":-99.20616667,"rng_nm":25,"alt_fmsl":1780,"id":"BFV","desc":"BURNS FLAT VORTAC"},
{"type":"NDB","hdg_t":53.4,"dist_nm":72.4,"freq":515,"lat":36.82502778,"lon":-97.10052778,"rng_nm":50,"alt_fmsl":0,"id":"PN","desc":"PONCA NDB"},
{"type":"NDB","hdg_t":99.5,"dist_nm":75.9,"freq":242,"lat":35.89011111,"lon":-96.77333333,"rng_nm":50,"alt_fmsl":0,"id":"CUH","desc":"CUSHING NDB"},
{"type":"NDB","hdg_t":107.3,"dist_nm":76.2,"freq":396,"lat":35.72227778,"lon":-96.81863889,"rng_nm":50,"alt_fmsl":0,"id":"CQB","desc":"TILGHMAN NDB"},
{"type":"NDB","hdg_t":120.2,"dist_nm":77.5,"freq":264,"lat":35.44983333,"lon":-96.94300000,"rng_nm":50,"alt_fmsl":0,"id":"HN","desc":"SUYBE NDB"},
{"type":"VOR","hdg_t":280.8,"dist_nm":77.5,"freq":115.6,"lat":36.34372222,"lon":-99.88011111,"rng_nm":130,"alt_fmsl":2430,"id":"MMB","desc":"MITBEE VORTAC"},
{"type":"NDB","hdg_t":305.8,"dist_nm":77.8,"freq":215,"lat":36.86419444,"lon":-99.62011111,"rng_nm":50,"alt_fmsl":0,"id":"BFK","desc":"BUFFALO NDB"},
{"type":"VOR","hdg_t":235.1,"dist_nm":79.3,"freq":115.2,"lat":35.34516667,"lon":-99.63536111,"rng_nm":40,"alt_fmsl":1990,"id":"SYO","desc":"SAYRE VORTAC"},
{"type":"NDB","hdg_t":183.3,"dist_nm":79.7,"freq":388,"lat":34.78138889,"lon":-98.40230556,"rng_nm":50,"alt_fmsl":0,"id":"OFZ","desc":"TRAIL NDB"},
{"type":"VOR","hdg_t":206.6,"dist_nm":83.1,"freq":111.8,"lat":34.86655556,"lon":-99.06338889,"rng_nm":40,"alt_fmsl":1472,"id":"HBR","desc":"HOBART VORTAC"},
{"type":"NDB","hdg_t":140.5,"dist_nm":83.5,"freq":512,"lat":35.02897222,"lon":-97.23047222,"rng_nm":50,"alt_fmsl":0,"id":"HMY","desc":"MULDROW NDB"},
{"type":"NDB","hdg_t":45.9,"dist_nm":84.9,"freq":353,"lat":37.08972222,"lon":-97.03625000,"rng_nm":50,"alt_fmsl":0,"id":"SO","desc":"SAWCY NDB"},
{"type":"NDB","hdg_t":31,"dist_nm":85.1,"freq":414,"lat":37.32366667,"lon":-97.39019444,"rng_nm":50,"alt_fmsl":0,"id":"EGT","desc":"WELLINGTON NDB"},
{"type":"NDB","hdg_t":114.1,"dist_nm":85.3,"freq":314,"lat":35.51672222,"lon":-96.71863889,"rng_nm":50,"alt_fmsl":0,"id":"GGU","desc":"PRAGUE NDB"},
{"type":"NDB","hdg_t":182.9,"dist_nm":90,"freq":308,"lat":34.60885200,"lon":-98.40377500,"rng_nm":25,"alt_fmsl":0,"id":"PFL","desc":"POST NDB"},
{"type":"NDB","hdg_t":182.9,"dist_nm":90,"freq":425,"lat":34.60886111,"lon":-98.40377778,"rng_nm":50,"alt_fmsl":0,"id":"PFL","desc":"POST NDB"},
{"type":"NDB","hdg_t":101.9,"dist_nm":94,"freq":251,"lat":35.76980000,"lon":-96.42472800,"rng_nm":25,"alt_fmsl":929,"id":"TZO","desc":"BRISTOW NDB"},
{"type":"NDB","hdg_t":121.6,"dist_nm":94.3,"freq":278,"lat":35.27175000,"lon":-96.67475000,"rng_nm":50,"alt_fmsl":0,"id":"SRE","desc":"SEMINOLE NDB"},
{"type":"VOR","hdg_t":183,"dist_nm":96.8,"freq":109.4,"lat":34.49616667,"lon":-98.41308333,"rng_nm":40,"alt_fmsl":1104,"id":"LAW","desc":"LAWTON VOR-DME"},
{"type":"NDB","hdg_t":24.7,"dist_nm":97,"freq":332,"lat":37.57819444,"lon":-97.45586111,"rng_nm":50,"alt_fmsl":0,"id":"IC","desc":"PICHE NDB"},
{"type":"VOR","hdg_t":208.8,"dist_nm":98.7,"freq":109.8,"lat":34.66275000,"lon":-99.27097222,"rng_nm":40,"alt_fmsl":1370,"id":"LTS","desc":"ALTUS VORTAC"},
{"type":"NDB","hdg_t":147.3,"dist_nm":98.9,"freq":384,"lat":34.71541667,"lon":-97.22891667,"rng_nm":50,"alt_fmsl":0,"id":"PVJ","desc":"PAULS VALLEY NDB"},
{"type":"NDB","hdg_t":347.8,"dist_nm":99.1,"freq":356,"lat":37.72630556,"lon":-98.74708333,"rng_nm":50,"alt_fmsl":0,"id":"PTT","desc":"PRATT NDB"}
]
}
