{"success":true,"source":"xp2csv.pl","last_updated":"2013/11/08 14:53:21 UTC"
,"icao":"OEAA","name":"Abu Ali","lat":27.3190555,"lon":49.5870705,"rwys":1,"ils":0,"index":3759442,"path":"e040n20/e049n27"
,"runways":[
{"len_m":1510,"wid_m":27.43,"hdg":149,"surf":"Asphalt","rwy1":"15","lat1":27.32491400,"lon1":49.58316900,"rwy2":"33","lat2":27.31319700,"lon2":49.59097200}
]
,"navaids":[
{"type":"VOR","hdg_t":209.9,"dist_nm":19.3,"freq":112.9,"lat":27.03941700,"lon":49.40708300,"rng_nm":130,"alt_fmsl":25,"id":"JBL","desc":"JUBAIL VOR-DME"},
{"type":"NDB","hdg_t":148.3,"dist_nm":42.2,"freq":286,"lat":26.71666700,"lon":50.00000000,"rng_nm":75,"alt_fmsl":6,"id":"RT","desc":"RAS TANURA NDB"},
{"type":"NDB","hdg_t":307,"dist_nm":54.6,"freq":382,"lat":27.86666700,"lon":48.76666700,"rng_nm":25,"alt_fmsl":0,"id":"TJ","desc":"RAS TANAJIB NDB"},
{"type":"VOR","hdg_t":167.6,"dist_nm":58.4,"freq":112.5,"lat":26.36480600,"lon":49.81950000,"rng_nm":130,"alt_fmsl":66,"id":"KFA","desc":"DAMMAM VORTAC"},
{"type":"VOR","hdg_t":311.4,"dist_nm":68.8,"freq":116.4,"lat":28.07794400,"lon":48.61466700,"rng_nm":25,"alt_fmsl":13,"id":"RAS","desc":"RAS MISHAB VORTAC"},
{"type":"VOR","hdg_t":154.7,"dist_nm":69.9,"freq":117.2,"lat":26.26077800,"lon":50.14019400,"rng_nm":130,"alt_fmsl":65,"id":"DHA","desc":"DHAHRAN VORTAC"},
{"type":"NDB","hdg_t":180.1,"dist_nm":84.8,"freq":290,"lat":25.90000000,"lon":49.58333300,"rng_nm":25,"alt_fmsl":229,"id":"AB","desc":"ABQAIQ NDB"},
{"type":"VOR","hdg_t":137.6,"dist_nm":85,"freq":115.3,"lat":26.26419400,"lon":50.64885300,"rng_nm":200,"alt_fmsl":24,"id":"BAH","desc":"BAHRAIN VOR-DME"},
{"type":"NDB","hdg_t":137.6,"dist_nm":85.5,"freq":395,"lat":26.25840300,"lon":50.65517200,"rng_nm":25,"alt_fmsl":0,"id":"LB","desc":"BAHRAIN NDB"},
{"type":"VOR","hdg_t":146.9,"dist_nm":99.4,"freq":117.6,"lat":25.92183300,"lon":50.59050600,"rng_nm":130,"alt_fmsl":136,"id":"SIA","desc":"SHAIKH ISA VORTAC"}
]
}
