{"success":true,"source":"xp2csv.pl","last_updated":"2013/11/08 14:53:21 UTC"
,"icao":"OH26","name":"Birdland","lat":41.65644,"lon":-81.10620889,"rwys":1,"ils":0,"index":1614059,"path":"w090n40/w082n41"
,"runways":[
{"len_m":670,"wid_m":22.86,"hdg":172,"surf":"Turf/grass","rwy1":"18","lat1":41.65943479,"lon1":-81.10670105,"rwy2":"36","lat2":41.65344521,"lon2":-81.10571673}
]
,"navaids":[
{"type":"VOR","hdg_t":197,"dist_nm":8.7,"freq":112.7,"lat":41.51694444,"lon":-81.16319444,"rng_nm":130,"alt_fmsl":1310,"id":"CXR","desc":"CHARDON VOR-DME"},
{"type":"NDB","hdg_t":277.3,"dist_nm":12.3,"freq":263,"lat":41.68241667,"lon":-81.37900000,"rng_nm":50,"alt_fmsl":0,"id":"LQL","desc":"LAKELAND NDB"},
{"type":"NDB","hdg_t":253.3,"dist_nm":17.1,"freq":521,"lat":41.57411111,"lon":-81.47122222,"rng_nm":50,"alt_fmsl":0,"id":"GF","desc":"HOGAF NDB"},
{"type":"VOR","hdg_t":68.7,"dist_nm":17.2,"freq":115.2,"lat":41.76011111,"lon":-80.74811111,"rng_nm":40,"alt_fmsl":900,"id":"JFN","desc":"JEFFERSON VOR-DME"},
{"type":"NDB","hdg_t":256.1,"dist_nm":21.6,"freq":248,"lat":41.56913889,"lon":-81.57375000,"rng_nm":50,"alt_fmsl":0,"id":"BF","desc":"TABEY NDB"},
{"type":"NDB","hdg_t":253.2,"dist_nm":26.2,"freq":416,"lat":41.52874700,"lon":-81.66336700,"rng_nm":25,"alt_fmsl":581,"id":"BKL","desc":"BURKE LAKEFRONT NDB"},
{"type":"VOR","hdg_t":134.9,"dist_nm":27.5,"freq":109,"lat":41.33102778,"lon":-80.67466667,"rng_nm":40,"alt_fmsl":1160,"id":"YNG","desc":"YOUNGSTOWN VORTAC"},
{"type":"NDB","hdg_t":250.3,"dist_nm":29.5,"freq":226,"lat":41.48891900,"lon":-81.72283100,"rng_nm":25,"alt_fmsl":617,"id":"EZE","desc":"ENGEL NDB"},
{"type":"VOR","hdg_t":187.4,"dist_nm":33.1,"freq":114.4,"lat":41.10788889,"lon":-81.20152778,"rng_nm":40,"alt_fmsl":1193,"id":"ACO","desc":"AKRON VOR-DME"},
{"type":"NDB","hdg_t":139.7,"dist_nm":35.7,"freq":338,"lat":41.20052778,"lon":-80.59613889,"rng_nm":50,"alt_fmsl":0,"id":"YN","desc":"FETCH NDB"},
{"type":"NDB","hdg_t":199.9,"dist_nm":37.4,"freq":362,"lat":41.06975000,"lon":-81.38747222,"rng_nm":50,"alt_fmsl":0,"id":"AK","desc":"AKRON NDB"},
{"type":"NDB","hdg_t":139.1,"dist_nm":39.8,"freq":408,"lat":41.15288889,"lon":-80.53144444,"rng_nm":50,"alt_fmsl":0,"id":"HBD","desc":"HUBBARD NDB"},
{"type":"VOR","hdg_t":59,"dist_nm":42.4,"freq":109.4,"lat":42.01741667,"lon":-80.29269444,"rng_nm":40,"alt_fmsl":800,"id":"ERI","desc":"ERIE VORTAC"},
{"type":"NDB","hdg_t":244,"dist_nm":43.1,"freq":344,"lat":41.33862800,"lon":-81.96443300,"rng_nm":50,"alt_fmsl":800,"id":"CL","desc":"HARRI NDB"},
{"type":"NDB","hdg_t":58.7,"dist_nm":44.5,"freq":349,"lat":42.03863889,"lon":-80.25536111,"rng_nm":50,"alt_fmsl":0,"id":"ER","desc":"ESMER NDB"},
{"type":"NDB","hdg_t":140.3,"dist_nm":49.1,"freq":272,"lat":41.02300000,"lon":-80.41583333,"rng_nm":50,"alt_fmsl":0,"id":"UCP","desc":"CASTLE NDB"},
{"type":"VOR","hdg_t":249.7,"dist_nm":50.8,"freq":113.6,"lat":41.35805556,"lon":-82.16197222,"rng_nm":130,"alt_fmsl":780,"id":"DJB","desc":"DRYER VOR-DME"},
{"type":"NDB","hdg_t":57.9,"dist_nm":52.7,"freq":372,"lat":42.11919444,"lon":-80.10458333,"rng_nm":50,"alt_fmsl":0,"id":"CQD","desc":"CASCADE NDB"},
{"type":"VOR","hdg_t":195.1,"dist_nm":56.8,"freq":112.4,"lat":40.74069444,"lon":-81.43211111,"rng_nm":40,"alt_fmsl":1221,"id":"BSV","desc":"BRIGGS VOR-DME"},
{"type":"NDB","hdg_t":215.3,"dist_nm":57.2,"freq":400,"lat":40.87505600,"lon":-81.83319200,"rng_nm":25,"alt_fmsl":1170,"id":"SLW","desc":"SMITHVILLE NDB"},
{"type":"VOR","hdg_t":102.6,"dist_nm":57.7,"freq":109.6,"lat":41.43861111,"lon":-79.85677778,"rng_nm":40,"alt_fmsl":0,"id":"FKL","desc":"FRANKLIN VOR"},
{"type":"NDB","hdg_t":312.4,"dist_nm":58.6,"freq":236,"lat":42.31222222,"lon":-82.07777778,"rng_nm":50,"alt_fmsl":0,"id":"4L","desc":"CHATHAM-KENT NDB"},
{"type":"VOR","hdg_t":8.7,"dist_nm":63.7,"freq":114.2,"lat":42.70672222,"lon":-80.88791667,"rng_nm":130,"alt_fmsl":780,"id":"YQO","desc":"AYLMER VOR-DME"},
{"type":"VOR","hdg_t":140.6,"dist_nm":64.2,"freq":115.8,"lat":40.82494444,"lon":-80.21155556,"rng_nm":130,"alt_fmsl":1227,"id":"EWC","desc":"ELLWOOD CITY VORTAC"},
{"type":"NDB","hdg_t":178.8,"dist_nm":65.6,"freq":395,"lat":40.56263300,"lon":-81.07759700,"rng_nm":25,"alt_fmsl":1184,"id":"TSO","desc":"TOLSON NDB"},
{"type":"NDB","hdg_t":231.6,"dist_nm":66.4,"freq":329,"lat":40.96333333,"lon":-82.25336111,"rng_nm":50,"alt_fmsl":0,"id":"AAU","desc":"ASHLAND NDB"},
{"type":"NDB","hdg_t":0,"dist_nm":66.8,"freq":375,"lat":42.77083333,"lon":-81.10583333,"rng_nm":50,"alt_fmsl":0,"id":"7B","desc":"ST THOMAS NDB"},
{"type":"NDB","hdg_t":76.2,"dist_nm":67.2,"freq":258,"lat":41.91266667,"lon":-79.64844444,"rng_nm":50,"alt_fmsl":0,"id":"ORJ","desc":"CORRY NDB"},
{"type":"NDB","hdg_t":276.5,"dist_nm":70.6,"freq":283,"lat":41.77944444,"lon":-82.67000000,"rng_nm":50,"alt_fmsl":0,"id":"PT","desc":"PELEE ISLAND NDB"},
{"type":"VOR","hdg_t":259.7,"dist_nm":71,"freq":109.2,"lat":41.43447222,"lon":-82.65480556,"rng_nm":40,"alt_fmsl":580,"id":"SKY","desc":"SANDUSKY VOR-DME"},
{"type":"VOR","hdg_t":86.8,"dist_nm":76,"freq":117.6,"lat":41.71302778,"lon":-79.41727778,"rng_nm":40,"alt_fmsl":1710,"id":"TDT","desc":"TIDIOUTE VORTAC"},
{"type":"NDB","hdg_t":0.5,"dist_nm":79.5,"freq":201,"lat":42.98233333,"lon":-81.08869444,"rng_nm":50,"alt_fmsl":0,"id":"ZXU","desc":"THAMES NDB"},
{"type":"NDB","hdg_t":264.6,"dist_nm":79.7,"freq":423,"lat":41.51858333,"lon":-82.86872222,"rng_nm":50,"alt_fmsl":0,"id":"PCW","desc":"PORT CLINTON NDB"},
{"type":"VOR","hdg_t":111.7,"dist_nm":80.4,"freq":112.9,"lat":41.14630556,"lon":-79.45797222,"rng_nm":40,"alt_fmsl":1520,"id":"CIP","desc":"CLARION VOR-DME"},
{"type":"NDB","hdg_t":229,"dist_nm":80.7,"freq":372,"lat":40.76633333,"lon":-82.44513889,"rng_nm":50,"alt_fmsl":0,"id":"MF","desc":"MANNS NDB"},
{"type":"VOR","hdg_t":149.1,"dist_nm":81.3,"freq":112,"lat":40.48813889,"lon":-80.19386111,"rng_nm":40,"alt_fmsl":1200,"id":"MMJ","desc":"MONTOUR VORTAC"},
{"type":"VOR","hdg_t":235.3,"dist_nm":82.1,"freq":108.8,"lat":40.86861111,"lon":-82.59097222,"rng_nm":40,"alt_fmsl":1210,"id":"MFD","desc":"MANSFIELD VORTAC"},
{"type":"VOR","hdg_t":358.7,"dist_nm":82.8,"freq":117.2,"lat":43.03811111,"lon":-81.14847222,"rng_nm":130,"alt_fmsl":910,"id":"YXU","desc":"LONDON VOR-DME"},
{"type":"VOR","hdg_t":295.3,"dist_nm":84.9,"freq":113.8,"lat":42.24972222,"lon":-82.82894444,"rng_nm":40,"alt_fmsl":625,"id":"YQG","desc":"WINDSOR VOR-DME"},
{"type":"NDB","hdg_t":177.1,"dist_nm":85.2,"freq":239,"lat":40.23672222,"lon":-81.01313889,"rng_nm":50,"alt_fmsl":0,"id":"CFX","desc":"CADIZ NDB"},
{"type":"VOR","hdg_t":213.1,"dist_nm":85.4,"freq":116.5,"lat":40.45802778,"lon":-82.12683333,"rng_nm":40,"alt_fmsl":1340,"id":"TVT","desc":"TIVERTON VOR-DME"},
{"type":"NDB","hdg_t":356.7,"dist_nm":86.2,"freq":382,"lat":43.09175000,"lon":-81.21869444,"rng_nm":50,"alt_fmsl":0,"id":"XU","desc":"LONDON NDB"},
{"type":"VOR","hdg_t":191.2,"dist_nm":87.2,"freq":111.8,"lat":40.22922222,"lon":-81.47647222,"rng_nm":40,"alt_fmsl":1180,"id":"CTW","desc":"NEWCOMERSTOWN VOR-DME"},
{"type":"VOR","hdg_t":163.5,"dist_nm":87.2,"freq":112.2,"lat":40.25988889,"lon":-80.56861111,"rng_nm":40,"alt_fmsl":1269,"id":"HLG","desc":"WHEELING VOR-DME"},
{"type":"NDB","hdg_t":297.1,"dist_nm":88.1,"freq":353,"lat":42.31269444,"lon":-82.86852778,"rng_nm":50,"alt_fmsl":0,"id":"QG","desc":"WINDSOR NDB"},
{"type":"NDB","hdg_t":19.6,"dist_nm":90.3,"freq":207,"lat":43.07333333,"lon":-80.41611111,"rng_nm":50,"alt_fmsl":0,"id":"FD","desc":"BRANTFORD NDB"},
{"type":"NDB","hdg_t":327.2,"dist_nm":91.9,"freq":404,"lat":42.94047222,"lon":-82.23383333,"rng_nm":50,"alt_fmsl":0,"id":"ZR","desc":"SARNIA NDB"},
{"type":"NDB","hdg_t":297.5,"dist_nm":92.7,"freq":230,"lat":42.35625000,"lon":-82.95427778,"rng_nm":50,"alt_fmsl":0,"id":"VQ","desc":"CARGL NDB"},
{"type":"NDB","hdg_t":292.7,"dist_nm":93.7,"freq":398,"lat":42.24388900,"lon":-83.04750000,"rng_nm":25,"alt_fmsl":0,"id":"ZQG","desc":"LAUREL NDB"},
{"type":"VOR","hdg_t":69.5,"dist_nm":94.4,"freq":114.7,"lat":42.18861111,"lon":-79.12130556,"rng_nm":130,"alt_fmsl":1786,"id":"JHW","desc":"JAMESTOWN VOR-DME"},
{"type":"NDB","hdg_t":168.2,"dist_nm":94.6,"freq":212,"lat":40.10963889,"lon":-80.68869444,"rng_nm":50,"alt_fmsl":0,"id":"HL","desc":"DORCH (OM) NDB"},
{"type":"NDB","hdg_t":286.8,"dist_nm":95.5,"freq":419,"lat":42.10111111,"lon":-83.15297222,"rng_nm":50,"alt_fmsl":0,"id":"RYS","desc":"GROSSE ILE NDB"},
{"type":"VOR","hdg_t":149.2,"dist_nm":95.7,"freq":110,"lat":40.27866667,"lon":-80.04086111,"rng_nm":40,"alt_fmsl":1289,"id":"AGC","desc":"ALLEGHENY VOR-DME"},
{"type":"VOR","hdg_t":57.9,"dist_nm":95.9,"freq":116.2,"lat":42.49055556,"lon":-79.27411111,"rng_nm":130,"alt_fmsl":680,"id":"DKK","desc":"DUNKIRK VORTAC"},
{"type":"NDB","hdg_t":317.4,"dist_nm":97.3,"freq":332,"lat":42.84291667,"lon":-82.59669444,"rng_nm":50,"alt_fmsl":0,"id":"PH","desc":"PHURN NDB"},
{"type":"NDB","hdg_t":141.9,"dist_nm":98.5,"freq":287,"lat":40.35530556,"lon":-79.78100000,"rng_nm":50,"alt_fmsl":0,"id":"MKP","desc":"MC KEESPORT NDB"},
{"type":"VOR","hdg_t":172.2,"dist_nm":99.1,"freq":117.1,"lat":40.01702778,"lon":-80.81725000,"rng_nm":130,"alt_fmsl":1290,"id":"AIR","desc":"BELLAIRE VOR-DME"},
{"type":"NDB","hdg_t":290.4,"dist_nm":99.7,"freq":223,"lat":42.22000000,"lon":-83.20330556,"rng_nm":50,"alt_fmsl":0,"id":"DM","desc":"SPENC NDB"}
]
}
