{"success":true,"source":"xp2csv.pl","last_updated":"2013/11/08 14:53:21 UTC"
,"icao":"OH98","name":"Lyttle","lat":40.04950777,"lon":-82.78822973,"rwys":1,"ils":0,"index":1597568,"path":"w090n40/w083n40"
,"runways":[
{"len_m":517,"wid_m":22.86,"hdg":174,"surf":"Turf/grass","rwy1":"18","lat1":40.05183043,"lon1":-82.78849519,"rwy2":"36","lat2":40.04718511,"lon2":-82.78796427}
]
,"navaids":[
{"type":"NDB","hdg_t":157.7,"dist_nm":4.1,"freq":391,"lat":39.98622222,"lon":-82.75450000,"rng_nm":50,"alt_fmsl":0,"id":"CM","desc":"SUMIE NDB"},
{"type":"NDB","hdg_t":192.3,"dist_nm":10.3,"freq":376,"lat":39.88105556,"lon":-82.83608333,"rng_nm":50,"alt_fmsl":0,"id":"LC","desc":"PICKL NDB"},
{"type":"VOR","hdg_t":56.4,"dist_nm":11,"freq":116.7,"lat":40.15105556,"lon":-82.58830556,"rng_nm":130,"alt_fmsl":1350,"id":"APE","desc":"APPLETON VORTAC"},
{"type":"NDB","hdg_t":258,"dist_nm":11.3,"freq":272,"lat":40.01013889,"lon":-83.02897222,"rng_nm":50,"alt_fmsl":0,"id":"CHC","desc":"GRENS NDB"},
{"type":"NDB","hdg_t":258,"dist_nm":11.3,"freq":272,"lat":40.01013889,"lon":-83.02897222,"rng_nm":50,"alt_fmsl":0,"id":"CB","desc":"GRENS NDB"},
{"type":"NDB","hdg_t":95.2,"dist_nm":15,"freq":524,"lat":40.02591667,"lon":-82.46352778,"rng_nm":50,"alt_fmsl":0,"id":"HEH","desc":"NEWARK NDB"},
{"type":"NDB","hdg_t":274.5,"dist_nm":18.9,"freq":515,"lat":40.07363889,"lon":-83.19805556,"rng_nm":50,"alt_fmsl":0,"id":"OS","desc":"FULER NDB"},
{"type":"NDB","hdg_t":313.3,"dist_nm":19.9,"freq":215,"lat":40.27688889,"lon":-83.10372222,"rng_nm":50,"alt_fmsl":0,"id":"DLZ","desc":"DELAWARE NDB"},
{"type":"NDB","hdg_t":210.3,"dist_nm":21.2,"freq":253,"lat":39.74294444,"lon":-83.02033333,"rng_nm":50,"alt_fmsl":0,"id":"DD","desc":"COBBS NDB"},
{"type":"NDB","hdg_t":146.9,"dist_nm":21.4,"freq":338,"lat":39.74888889,"lon":-82.53530556,"rng_nm":50,"alt_fmsl":0,"id":"LH","desc":"CASER NDB"},
{"type":"NDB","hdg_t":234.4,"dist_nm":23.6,"freq":230,"lat":39.81925000,"lon":-83.20488889,"rng_nm":50,"alt_fmsl":0,"id":"BU","desc":"BOUTN NDB"},
{"type":"NDB","hdg_t":292.5,"dist_nm":27.9,"freq":403,"lat":40.22672800,"lon":-83.34961400,"rng_nm":25,"alt_fmsl":997,"id":"MRT","desc":"MARYSVILLE NDB"},
{"type":"NDB","hdg_t":257.4,"dist_nm":31.9,"freq":263,"lat":39.93150000,"lon":-83.46397222,"rng_nm":50,"alt_fmsl":0,"id":"UYF","desc":"LONDON NDB"},
{"type":"VOR","hdg_t":195.7,"dist_nm":32.5,"freq":112.5,"lat":39.52688889,"lon":-82.97794444,"rng_nm":25,"alt_fmsl":0,"id":"XUB","desc":"YELLOW BUD VOR"},
{"type":"VOR","hdg_t":339.6,"dist_nm":36.2,"freq":109.8,"lat":40.61658333,"lon":-83.06383333,"rng_nm":25,"alt_fmsl":0,"id":"BUD","desc":"BUCKEYE VOR"},
{"type":"NDB","hdg_t":196.9,"dist_nm":38.3,"freq":236,"lat":39.43819444,"lon":-83.02877778,"rng_nm":50,"alt_fmsl":0,"id":"RZT","desc":"ROSS CO NDB"},
{"type":"NDB","hdg_t":226.2,"dist_nm":38.7,"freq":414,"lat":39.60086111,"lon":-83.39161111,"rng_nm":50,"alt_fmsl":0,"id":"CSS","desc":"COURT HOUSE NDB"},
{"type":"VOR","hdg_t":50.9,"dist_nm":39,"freq":116.5,"lat":40.45802778,"lon":-82.12683333,"rng_nm":40,"alt_fmsl":1340,"id":"TVT","desc":"TIVERTON VOR-DME"},
{"type":"NDB","hdg_t":101.8,"dist_nm":40.9,"freq":204,"lat":39.90630556,"lon":-81.91927778,"rng_nm":50,"alt_fmsl":0,"id":"HRA","desc":"ZANESVILLE NDB"},
{"type":"VOR","hdg_t":98.6,"dist_nm":41.8,"freq":111.4,"lat":39.94086111,"lon":-81.89261111,"rng_nm":40,"alt_fmsl":898,"id":"ZZV","desc":"ZANESVILLE VOR-DME"},
{"type":"NDB","hdg_t":19.9,"dist_nm":45.7,"freq":372,"lat":40.76633333,"lon":-82.44513889,"rng_nm":50,"alt_fmsl":0,"id":"MF","desc":"MANNS NDB"},
{"type":"NDB","hdg_t":257.3,"dist_nm":46.9,"freq":341,"lat":39.87363889,"lon":-83.77958333,"rng_nm":50,"alt_fmsl":0,"id":"CCJ","desc":"CLARK CO NDB"},
{"type":"NDB","hdg_t":301.5,"dist_nm":47.2,"freq":326,"lat":40.45894444,"lon":-83.66800000,"rng_nm":50,"alt_fmsl":0,"id":"RUV","desc":"RUSHSYLVANIA NDB"},
{"type":"VOR","hdg_t":10.3,"dist_nm":49.9,"freq":108.8,"lat":40.86861111,"lon":-82.59097222,"rng_nm":40,"alt_fmsl":1210,"id":"MFD","desc":"MANSFIELD VORTAC"},
{"type":"VOR","hdg_t":255.6,"dist_nm":50.4,"freq":113.2,"lat":39.83652778,"lon":-83.84497222,"rng_nm":25,"alt_fmsl":1047,"id":"SGH","desc":"SPRINGFIELD VOR-DME"},
{"type":"NDB","hdg_t":187.2,"dist_nm":53.3,"freq":385,"lat":39.16691667,"lon":-82.93219444,"rng_nm":50,"alt_fmsl":0,"id":"EOP","desc":"WAVERLY NDB"},
{"type":"NDB","hdg_t":233.1,"dist_nm":55.1,"freq":407,"lat":39.49311111,"lon":-83.73816667,"rng_nm":50,"alt_fmsl":0,"id":"IL","desc":"AIRBO NDB"},
{"type":"NDB","hdg_t":249.5,"dist_nm":56.4,"freq":395,"lat":39.71506100,"lon":-83.92993100,"rng_nm":25,"alt_fmsl":970,"id":"XEN","desc":"XENIA NDB"},
{"type":"NDB","hdg_t":146.9,"dist_nm":56.5,"freq":250,"lat":39.25725000,"lon":-82.12597222,"rng_nm":50,"alt_fmsl":0,"id":"UGS","desc":"UNIVERSITY NDB"},
{"type":"VOR","hdg_t":284.3,"dist_nm":59.4,"freq":117.5,"lat":40.28780556,"lon":-84.04313889,"rng_nm":130,"alt_fmsl":1083,"id":"ROD","desc":"ROSEWOOD VORTAC"},
{"type":"VOR","hdg_t":231.9,"dist_nm":59.8,"freq":112.9,"lat":39.42969444,"lon":-83.80125000,"rng_nm":25,"alt_fmsl":1050,"id":"MXQ","desc":"MIDWEST VOR-DME"},
{"type":"NDB","hdg_t":23.8,"dist_nm":60,"freq":329,"lat":40.96333333,"lon":-82.25336111,"rng_nm":50,"alt_fmsl":0,"id":"AAU","desc":"ASHLAND NDB"},
{"type":"SDME","hdg_t":257.1,"dist_nm":60,"freq":115.2,"lat":39.81897800,"lon":-84.05548100,"rng_nm":25,"alt_fmsl":804,"id":"FFO","desc":"PATTERSON TACAN"},
{"type":"VOR","hdg_t":79.4,"dist_nm":61.3,"freq":111.8,"lat":40.22922222,"lon":-81.47647222,"rng_nm":40,"alt_fmsl":1180,"id":"CTW","desc":"NEWCOMERSTOWN VOR-DME"},
{"type":"NDB","hdg_t":214.2,"dist_nm":62.5,"freq":278,"lat":39.18472222,"lon":-83.54297222,"rng_nm":50,"alt_fmsl":0,"id":"HOC","desc":"HILLSBORO NDB"},
{"type":"NDB","hdg_t":230.7,"dist_nm":65.4,"freq":299,"lat":39.35344444,"lon":-83.87577778,"rng_nm":50,"alt_fmsl":0,"id":"HW","desc":"CUBLA NDB"},
{"type":"NDB","hdg_t":342.8,"dist_nm":65.6,"freq":269,"lat":41.09466667,"lon":-83.21497222,"rng_nm":50,"alt_fmsl":0,"id":"TII","desc":"TIFFIN NDB"},
{"type":"NDB","hdg_t":41.1,"dist_nm":66,"freq":400,"lat":40.87505600,"lon":-81.83319200,"rng_nm":25,"alt_fmsl":1170,"id":"SLW","desc":"SMITHVILLE NDB"},
{"type":"VOR","hdg_t":306.4,"dist_nm":66.9,"freq":108.4,"lat":40.70711111,"lon":-83.96816667,"rng_nm":25,"alt_fmsl":0,"id":"AOH","desc":"ALLEN CO VOR"},
{"type":"VOR","hdg_t":321.1,"dist_nm":70,"freq":108.2,"lat":40.95533333,"lon":-83.75602778,"rng_nm":40,"alt_fmsl":820,"id":"FBC","desc":"FLAG CITY VORTAC"},
{"type":"VOR","hdg_t":325.5,"dist_nm":70.4,"freq":114.9,"lat":41.01488889,"lon":-83.66433333,"rng_nm":25,"alt_fmsl":0,"id":"MAH","desc":"MARATHON VOR"},
{"type":"NDB","hdg_t":325.6,"dist_nm":70.8,"freq":334,"lat":41.02111111,"lon":-83.66911111,"rng_nm":50,"alt_fmsl":0,"id":"BNR","desc":"BENTON RIDGE NDB"},
{"type":"NDB","hdg_t":200.4,"dist_nm":72.1,"freq":329,"lat":38.92119444,"lon":-83.32686111,"rng_nm":50,"alt_fmsl":0,"id":"PZO","desc":"PEEBLES NDB"},
{"type":"NDB","hdg_t":260.8,"dist_nm":72.3,"freq":315,"lat":39.84702778,"lon":-84.33480556,"rng_nm":50,"alt_fmsl":0,"id":"AT","desc":"BRUNY NDB"},
{"type":"NDB","hdg_t":338,"dist_nm":73.7,"freq":379,"lat":41.18933333,"lon":-83.39713889,"rng_nm":50,"alt_fmsl":0,"id":"FZI","desc":"FOSTORIA NDB"},
{"type":"VOR","hdg_t":268.9,"dist_nm":74.1,"freq":114.5,"lat":40.01641667,"lon":-84.39686111,"rng_nm":40,"alt_fmsl":990,"id":"DQN","desc":"DAYTON VOR-DME"},
{"type":"VOR","hdg_t":55.8,"dist_nm":74.7,"freq":112.4,"lat":40.74069444,"lon":-81.43211111,"rng_nm":40,"alt_fmsl":1221,"id":"BSV","desc":"BRIGGS VOR-DME"},
{"type":"VOR","hdg_t":118.6,"dist_nm":74.8,"freq":108.6,"lat":39.44116667,"lon":-81.37475000,"rng_nm":40,"alt_fmsl":1030,"id":"JPU","desc":"PARKERSBURG VORTAC"},
{"type":"NDB","hdg_t":248.7,"dist_nm":76.3,"freq":223,"lat":39.57825000,"lon":-84.32347222,"rng_nm":50,"alt_fmsl":0,"id":"MW","desc":"ONIDA NDB"},
{"type":"NDB","hdg_t":127.8,"dist_nm":76.9,"freq":388,"lat":39.25408333,"lon":-81.48494444,"rng_nm":50,"alt_fmsl":0,"id":"PK","desc":"VERSI NDB"},
{"type":"NDB","hdg_t":158,"dist_nm":78.5,"freq":420,"lat":38.83341667,"lon":-82.16152778,"rng_nm":50,"alt_fmsl":0,"id":"GAS","desc":"GALLIPOLIS NDB"},
{"type":"NDB","hdg_t":317.6,"dist_nm":80,"freq":233,"lat":41.03116400,"lon":-83.97522200,"rng_nm":25,"alt_fmsl":760,"id":"PDR","desc":"OTTAWA NDB"},
{"type":"NDB","hdg_t":206.9,"dist_nm":80.1,"freq":359,"lat":38.85541667,"lon":-83.56377778,"rng_nm":50,"alt_fmsl":0,"id":"AMT","desc":"WEST UNION NDB"},
{"type":"NDB","hdg_t":277.2,"dist_nm":80.3,"freq":356,"lat":40.20616667,"lon":-84.52272222,"rng_nm":50,"alt_fmsl":0,"id":"VES","desc":"VERSAILLES NDB"},
{"type":"NDB","hdg_t":81.6,"dist_nm":82.4,"freq":239,"lat":40.23672222,"lon":-81.01313889,"rng_nm":50,"alt_fmsl":0,"id":"CFX","desc":"CADIZ NDB"},
{"type":"VOR","hdg_t":4.1,"dist_nm":83.2,"freq":109.2,"lat":41.43447222,"lon":-82.65480556,"rng_nm":40,"alt_fmsl":580,"id":"SKY","desc":"SANDUSKY VOR-DME"},
{"type":"NDB","hdg_t":247.2,"dist_nm":83.5,"freq":239,"lat":39.49877778,"lon":-84.44752778,"rng_nm":50,"alt_fmsl":0,"id":"HKF","desc":"HOOK FLD NDB"},
{"type":"VOR","hdg_t":19.8,"dist_nm":83.5,"freq":113.6,"lat":41.35805556,"lon":-82.16197222,"rng_nm":130,"alt_fmsl":780,"id":"DJB","desc":"DRYER VOR-DME"},
{"type":"NDB","hdg_t":68,"dist_nm":84.3,"freq":395,"lat":40.56263300,"lon":-81.07759700,"rng_nm":25,"alt_fmsl":1184,"id":"TSO","desc":"TOLSON NDB"},
{"type":"VOR","hdg_t":186,"dist_nm":84.7,"freq":112.8,"lat":38.64413889,"lon":-82.97833333,"rng_nm":40,"alt_fmsl":1040,"id":"YRK","desc":"YORK VORTAC"},
{"type":"VOR","hdg_t":155.2,"dist_nm":85.3,"freq":115.9,"lat":38.75411111,"lon":-82.02616667,"rng_nm":130,"alt_fmsl":880,"id":"HNN","desc":"HENDERSON VORTAC"},
{"type":"NDB","hdg_t":288.2,"dist_nm":85.5,"freq":205,"lat":40.48200000,"lon":-84.56438889,"rng_nm":50,"alt_fmsl":0,"id":"CQA","desc":"LAKEFIELD NDB"},
{"type":"NDB","hdg_t":25.6,"dist_nm":85.9,"freq":344,"lat":41.33862800,"lon":-81.96443300,"rng_nm":50,"alt_fmsl":800,"id":"CL","desc":"HARRI NDB"},
{"type":"NDB","hdg_t":216.4,"dist_nm":86.5,"freq":219,"lat":38.88201700,"lon":-83.88518100,"rng_nm":25,"alt_fmsl":954,"id":"GEO","desc":"GEORGETOWN NDB"},
{"type":"NDB","hdg_t":236.1,"dist_nm":87.9,"freq":379,"lat":39.22275000,"lon":-84.35536111,"rng_nm":50,"alt_fmsl":0,"id":"MDE","desc":"MADEIRA NDB"},
{"type":"NDB","hdg_t":357.6,"dist_nm":88.1,"freq":423,"lat":41.51858333,"lon":-82.86872222,"rng_nm":50,"alt_fmsl":0,"id":"PCW","desc":"PORT CLINTON NDB"},
{"type":"NDB","hdg_t":229,"dist_nm":88.2,"freq":245,"lat":39.07669444,"lon":-84.21541667,"rng_nm":50,"alt_fmsl":0,"id":"PWF","desc":"SPORTYS NDB"},
{"type":"NDB","hdg_t":237.6,"dist_nm":88.3,"freq":388,"lat":39.24880556,"lon":-84.38961111,"rng_nm":50,"alt_fmsl":0,"id":"ISZ","desc":"CINCINNATI-BLUE A NDB"},
{"type":"NDB","hdg_t":45.8,"dist_nm":88.5,"freq":362,"lat":41.06975000,"lon":-81.38747222,"rng_nm":50,"alt_fmsl":0,"id":"AK","desc":"AKRON NDB"},
{"type":"NDB","hdg_t":233.9,"dist_nm":89.6,"freq":335,"lat":39.15966667,"lon":-84.34127778,"rng_nm":50,"alt_fmsl":0,"id":"LUK","desc":"CINCINNATI NDB"},
{"type":"VOR","hdg_t":90.5,"dist_nm":90.8,"freq":117.1,"lat":40.01702778,"lon":-80.81725000,"rng_nm":130,"alt_fmsl":1290,"id":"AIR","desc":"BELLAIRE VOR-DME"},
{"type":"NDB","hdg_t":244.4,"dist_nm":92,"freq":260,"lat":39.37288889,"lon":-84.57211111,"rng_nm":50,"alt_fmsl":0,"id":"HAO","desc":"HAMILTON NDB"},
{"type":"VOR","hdg_t":335.5,"dist_nm":92.5,"freq":113.1,"lat":41.45147222,"lon":-83.63869444,"rng_nm":40,"alt_fmsl":664,"id":"VWV","desc":"WATERVILLE VOR-DME"},
{"type":"VOR","hdg_t":48.3,"dist_nm":96.3,"freq":114.4,"lat":41.10788889,"lon":-81.20152778,"rng_nm":40,"alt_fmsl":1193,"id":"ACO","desc":"AKRON VOR-DME"},
{"type":"VOR","hdg_t":260,"dist_nm":96.3,"freq":110.6,"lat":39.75502778,"lon":-84.83886111,"rng_nm":40,"alt_fmsl":1135,"id":"RID","desc":"RICHMOND VORTAC"},
{"type":"NDB","hdg_t":87.1,"dist_nm":96.7,"freq":212,"lat":40.10963889,"lon":-80.68869444,"rng_nm":50,"alt_fmsl":0,"id":"HL","desc":"DORCH (OM) NDB"},
{"type":"NDB","hdg_t":300.8,"dist_nm":96.7,"freq":411,"lat":40.86255556,"lon":-84.61383333,"rng_nm":50,"alt_fmsl":0,"id":"VFU","desc":"STANLEY NDB"},
{"type":"NDB","hdg_t":204.5,"dist_nm":97,"freq":400,"lat":38.57358333,"lon":-83.64702778,"rng_nm":50,"alt_fmsl":0,"id":"XW","desc":"FLMNG NDB"},
{"type":"NDB","hdg_t":251.2,"dist_nm":97.7,"freq":282,"lat":39.50755556,"lon":-84.78063889,"rng_nm":50,"alt_fmsl":0,"id":"OXD","desc":"OXFORD NDB"},
{"type":"NDB","hdg_t":29,"dist_nm":99,"freq":226,"lat":41.48891900,"lon":-81.72283100,"rng_nm":25,"alt_fmsl":617,"id":"EZE","desc":"ENGEL NDB"}
]
}
