{"success":true,"source":"xp2csv.pl","last_updated":"2013/11/08 14:53:21 UTC"
,"icao":"OI24","name":"Gonbad Ghabus","lat":37.246093,"lon":55.0958875,"rwys":1,"ils":0,"index":3858376,"path":"e050n30/e055n37"
,"runways":[
{"len_m":995,"wid_m":28.96,"hdg":67,"surf":"Asphalt","rwy1":"06","lat1":37.24440800,"lon1":55.09068600,"rwy2":"24","lat2":37.24777800,"lon2":55.10108900}
]
,"navaids":[
{"type":"NDB","hdg_t":63.6,"dist_nm":19.2,"freq":325,"lat":37.38833300,"lon":55.45666700,"rng_nm":75,"alt_fmsl":500,"id":"KLH","desc":"KALALEH NDB"},
{"type":"NDB","hdg_t":238.1,"dist_nm":39,"freq":310,"lat":36.90036100,"lon":54.40761100,"rng_nm":25,"alt_fmsl":0,"id":"GGN","desc":"GORGAN NDB"},
{"type":"VOR","hdg_t":240.8,"dist_nm":39.3,"freq":117.6,"lat":36.92472200,"lon":54.38163900,"rng_nm":130,"alt_fmsl":29,"id":"GGN","desc":"GORGAN VOR-DME"},
{"type":"NDB","hdg_t":177.5,"dist_nm":48.6,"freq":268,"lat":36.43475000,"lon":55.13850000,"rng_nm":50,"alt_fmsl":4219,"id":"SHR","desc":"SHAHROUD NDB"},
{"type":"VOR","hdg_t":249.1,"dist_nm":98.4,"freq":113.1,"lat":36.64455600,"lon":53.19038900,"rng_nm":130,"alt_fmsl":35,"id":"DNZ","desc":"DASHT-E-NAZ VOR-DME"},
{"type":"NDB","hdg_t":250,"dist_nm":98.4,"freq":362,"lat":36.67008300,"lon":53.17769400,"rng_nm":25,"alt_fmsl":35,"id":"DNZ","desc":"DASHT-E-NAZ NDB"},
{"type":"NDB","hdg_t":81.4,"dist_nm":106.6,"freq":346,"lat":37.48905600,"lon":57.30569400,"rng_nm":50,"alt_fmsl":0,"id":"BRD","desc":"BOJNORD NDB"},
{"type":"VOR","hdg_t":81.3,"dist_nm":107.5,"freq":114.8,"lat":37.49547200,"lon":57.32347200,"rng_nm":130,"alt_fmsl":3543,"id":"BRD","desc":"BOJNORD VOR-DME"},
{"type":"NDB","hdg_t":28.1,"dist_nm":119.5,"freq":445,"lat":39.00000000,"lon":56.30000000,"rng_nm":50,"alt_fmsl":0,"id":"RJ","desc":"SERDAR NDB"},
{"type":"VOR","hdg_t":117.6,"dist_nm":135.7,"freq":117,"lat":36.16983300,"lon":57.57097200,"rng_nm":130,"alt_fmsl":3010,"id":"SBZ","desc":"SABZEVAR VOR-DME"}
]
}
