{"success":true,"source":"xp2csv.pl","last_updated":"2013/11/08 14:53:21 UTC"
,"icao":"OI39","name":"Vensil Farms","lat":40.10673472,"lon":-82.13208584,"rwys":1,"ils":0,"index":1597571,"path":"w090n40/w083n40"
,"runways":[
{"len_m":794,"wid_m":18.29,"hdg":84,"surf":"Turf/grass","rwy1":"09","lat1":40.10636198,"lon1":-82.13672251,"rwy2":"27","lat2":40.10710746,"lon2":-82.12744917}
]
,"navaids":[
{"type":"VOR","hdg_t":131.9,"dist_nm":14.8,"freq":111.4,"lat":39.94086111,"lon":-81.89261111,"rng_nm":40,"alt_fmsl":898,"id":"ZZV","desc":"ZANESVILLE VOR-DME"},
{"type":"NDB","hdg_t":140.7,"dist_nm":15.5,"freq":204,"lat":39.90630556,"lon":-81.91927778,"rng_nm":50,"alt_fmsl":0,"id":"HRA","desc":"ZANESVILLE NDB"},
{"type":"NDB","hdg_t":252.4,"dist_nm":16,"freq":524,"lat":40.02591667,"lon":-82.46352778,"rng_nm":50,"alt_fmsl":0,"id":"HEH","desc":"NEWARK NDB"},
{"type":"VOR","hdg_t":0.6,"dist_nm":21,"freq":116.5,"lat":40.45802778,"lon":-82.12683333,"rng_nm":40,"alt_fmsl":1340,"id":"TVT","desc":"TIVERTON VOR-DME"},
{"type":"VOR","hdg_t":277.3,"dist_nm":21.1,"freq":116.7,"lat":40.15105556,"lon":-82.58830556,"rng_nm":130,"alt_fmsl":1350,"id":"APE","desc":"APPLETON VORTAC"},
{"type":"NDB","hdg_t":221,"dist_nm":28.4,"freq":338,"lat":39.74888889,"lon":-82.53530556,"rng_nm":50,"alt_fmsl":0,"id":"LH","desc":"CASER NDB"},
{"type":"NDB","hdg_t":256,"dist_nm":29.5,"freq":391,"lat":39.98622222,"lon":-82.75450000,"rng_nm":50,"alt_fmsl":0,"id":"CM","desc":"SUMIE NDB"},
{"type":"VOR","hdg_t":76.1,"dist_nm":31,"freq":111.8,"lat":40.22922222,"lon":-81.47647222,"rng_nm":40,"alt_fmsl":1180,"id":"CTW","desc":"NEWCOMERSTOWN VOR-DME"},
{"type":"NDB","hdg_t":247.6,"dist_nm":35.1,"freq":376,"lat":39.88105556,"lon":-82.83608333,"rng_nm":50,"alt_fmsl":0,"id":"LC","desc":"PICKL NDB"},
{"type":"NDB","hdg_t":262.3,"dist_nm":41.7,"freq":272,"lat":40.01013889,"lon":-83.02897222,"rng_nm":50,"alt_fmsl":0,"id":"CHC","desc":"GRENS NDB"},
{"type":"NDB","hdg_t":262.3,"dist_nm":41.7,"freq":272,"lat":40.01013889,"lon":-83.02897222,"rng_nm":50,"alt_fmsl":0,"id":"CB","desc":"GRENS NDB"},
{"type":"NDB","hdg_t":340.1,"dist_nm":42,"freq":372,"lat":40.76633333,"lon":-82.44513889,"rng_nm":50,"alt_fmsl":0,"id":"MF","desc":"MANNS NDB"},
{"type":"NDB","hdg_t":283.1,"dist_nm":45.8,"freq":215,"lat":40.27688889,"lon":-83.10372222,"rng_nm":50,"alt_fmsl":0,"id":"DLZ","desc":"DELAWARE NDB"},
{"type":"NDB","hdg_t":242.2,"dist_nm":46.4,"freq":253,"lat":39.74294444,"lon":-83.02033333,"rng_nm":50,"alt_fmsl":0,"id":"DD","desc":"COBBS NDB"},
{"type":"NDB","hdg_t":16.4,"dist_nm":48,"freq":400,"lat":40.87505600,"lon":-81.83319200,"rng_nm":25,"alt_fmsl":1170,"id":"SLW","desc":"SMITHVILLE NDB"},
{"type":"NDB","hdg_t":268,"dist_nm":49.1,"freq":515,"lat":40.07363889,"lon":-83.19805556,"rng_nm":50,"alt_fmsl":0,"id":"OS","desc":"FULER NDB"},
{"type":"VOR","hdg_t":39.9,"dist_nm":49.7,"freq":112.4,"lat":40.74069444,"lon":-81.43211111,"rng_nm":40,"alt_fmsl":1221,"id":"BSV","desc":"BRIGGS VOR-DME"},
{"type":"VOR","hdg_t":335.4,"dist_nm":50.2,"freq":108.8,"lat":40.86861111,"lon":-82.59097222,"rng_nm":40,"alt_fmsl":1210,"id":"MFD","desc":"MANSFIELD VORTAC"},
{"type":"NDB","hdg_t":179.6,"dist_nm":50.9,"freq":250,"lat":39.25725000,"lon":-82.12597222,"rng_nm":50,"alt_fmsl":0,"id":"UGS","desc":"UNIVERSITY NDB"},
{"type":"NDB","hdg_t":353.8,"dist_nm":51.6,"freq":329,"lat":40.96333333,"lon":-82.25336111,"rng_nm":50,"alt_fmsl":0,"id":"AAU","desc":"ASHLAND NDB"},
{"type":"NDB","hdg_t":81,"dist_nm":52,"freq":239,"lat":40.23672222,"lon":-81.01313889,"rng_nm":50,"alt_fmsl":0,"id":"CFX","desc":"CADIZ NDB"},
{"type":"VOR","hdg_t":228.6,"dist_nm":52.3,"freq":112.5,"lat":39.52688889,"lon":-82.97794444,"rng_nm":25,"alt_fmsl":0,"id":"XUB","desc":"YELLOW BUD VOR"},
{"type":"NDB","hdg_t":251.1,"dist_nm":52.4,"freq":230,"lat":39.81925000,"lon":-83.20488889,"rng_nm":50,"alt_fmsl":0,"id":"BU","desc":"BOUTN NDB"},
{"type":"VOR","hdg_t":305.8,"dist_nm":52.5,"freq":109.8,"lat":40.61658333,"lon":-83.06383333,"rng_nm":25,"alt_fmsl":0,"id":"BUD","desc":"BUCKEYE VOR"},
{"type":"VOR","hdg_t":138.4,"dist_nm":53,"freq":108.6,"lat":39.44116667,"lon":-81.37475000,"rng_nm":40,"alt_fmsl":1030,"id":"JPU","desc":"PARKERSBURG VORTAC"},
{"type":"NDB","hdg_t":60.1,"dist_nm":55.5,"freq":395,"lat":40.56263300,"lon":-81.07759700,"rng_nm":25,"alt_fmsl":1184,"id":"TSO","desc":"TOLSON NDB"},
{"type":"NDB","hdg_t":277.7,"dist_nm":56.4,"freq":403,"lat":40.22672800,"lon":-83.34961400,"rng_nm":25,"alt_fmsl":997,"id":"MRT","desc":"MARYSVILLE NDB"},
{"type":"NDB","hdg_t":226.2,"dist_nm":57.6,"freq":236,"lat":39.43819444,"lon":-83.02877778,"rng_nm":50,"alt_fmsl":0,"id":"RZT","desc":"ROSS CO NDB"},
{"type":"NDB","hdg_t":149.4,"dist_nm":59.2,"freq":388,"lat":39.25408333,"lon":-81.48494444,"rng_nm":50,"alt_fmsl":0,"id":"PK","desc":"VERSI NDB"},
{"type":"VOR","hdg_t":94.6,"dist_nm":60.8,"freq":117.1,"lat":40.01702778,"lon":-80.81725000,"rng_nm":130,"alt_fmsl":1290,"id":"AIR","desc":"BELLAIRE VOR-DME"},
{"type":"NDB","hdg_t":260.7,"dist_nm":62.2,"freq":263,"lat":39.93150000,"lon":-83.46397222,"rng_nm":50,"alt_fmsl":0,"id":"UYF","desc":"LONDON NDB"},
{"type":"NDB","hdg_t":242.8,"dist_nm":65.6,"freq":414,"lat":39.60086111,"lon":-83.39161111,"rng_nm":50,"alt_fmsl":0,"id":"CSS","desc":"COURT HOUSE NDB"},
{"type":"NDB","hdg_t":89.3,"dist_nm":66.4,"freq":212,"lat":40.10963889,"lon":-80.68869444,"rng_nm":50,"alt_fmsl":0,"id":"HL","desc":"DORCH (OM) NDB"},
{"type":"NDB","hdg_t":30.2,"dist_nm":67,"freq":362,"lat":41.06975000,"lon":-81.38747222,"rng_nm":50,"alt_fmsl":0,"id":"AK","desc":"AKRON NDB"},
{"type":"NDB","hdg_t":213.6,"dist_nm":67.4,"freq":385,"lat":39.16691667,"lon":-82.93219444,"rng_nm":50,"alt_fmsl":0,"id":"EOP","desc":"WAVERLY NDB"},
{"type":"VOR","hdg_t":82.2,"dist_nm":72.4,"freq":112.2,"lat":40.25988889,"lon":-80.56861111,"rng_nm":40,"alt_fmsl":1269,"id":"HLG","desc":"WHEELING VOR-DME"},
{"type":"VOR","hdg_t":35,"dist_nm":73.5,"freq":114.4,"lat":41.10788889,"lon":-81.20152778,"rng_nm":40,"alt_fmsl":1193,"id":"ACO","desc":"AKRON VOR-DME"},
{"type":"NDB","hdg_t":287.1,"dist_nm":73.6,"freq":326,"lat":40.45894444,"lon":-83.66800000,"rng_nm":50,"alt_fmsl":0,"id":"RUV","desc":"RUSHSYLVANIA NDB"},
{"type":"NDB","hdg_t":5.8,"dist_nm":74.2,"freq":344,"lat":41.33862800,"lon":-81.96443300,"rng_nm":50,"alt_fmsl":800,"id":"CL","desc":"HARRI NDB"},
{"type":"VOR","hdg_t":358.9,"dist_nm":75,"freq":113.6,"lat":41.35805556,"lon":-82.16197222,"rng_nm":130,"alt_fmsl":780,"id":"DJB","desc":"DRYER VOR-DME"},
{"type":"NDB","hdg_t":181,"dist_nm":76.3,"freq":420,"lat":38.83341667,"lon":-82.16152778,"rng_nm":50,"alt_fmsl":0,"id":"GAS","desc":"GALLIPOLIS NDB"},
{"type":"NDB","hdg_t":320.4,"dist_nm":77.1,"freq":269,"lat":41.09466667,"lon":-83.21497222,"rng_nm":50,"alt_fmsl":0,"id":"TII","desc":"TIFFIN NDB"},
{"type":"NDB","hdg_t":260.1,"dist_nm":77.2,"freq":341,"lat":39.87363889,"lon":-83.77958333,"rng_nm":50,"alt_fmsl":0,"id":"CCJ","desc":"CLARK CO NDB"},
{"type":"VOR","hdg_t":258.9,"dist_nm":80.6,"freq":113.2,"lat":39.83652778,"lon":-83.84497222,"rng_nm":25,"alt_fmsl":1047,"id":"SGH","desc":"SPRINGFIELD VOR-DME"},
{"type":"VOR","hdg_t":176.4,"dist_nm":81.2,"freq":115.9,"lat":38.75411111,"lon":-82.02616667,"rng_nm":130,"alt_fmsl":880,"id":"HNN","desc":"HENDERSON VORTAC"},
{"type":"NDB","hdg_t":244.1,"dist_nm":82.8,"freq":407,"lat":39.49311111,"lon":-83.73816667,"rng_nm":50,"alt_fmsl":0,"id":"IL","desc":"AIRBO NDB"},
{"type":"VOR","hdg_t":343.5,"dist_nm":83.1,"freq":109.2,"lat":41.43447222,"lon":-82.65480556,"rng_nm":40,"alt_fmsl":580,"id":"SKY","desc":"SANDUSKY VOR-DME"},
{"type":"NDB","hdg_t":12.5,"dist_nm":84.9,"freq":226,"lat":41.48891900,"lon":-81.72283100,"rng_nm":25,"alt_fmsl":617,"id":"EZE","desc":"ENGEL NDB"},
{"type":"NDB","hdg_t":230.2,"dist_nm":85.6,"freq":278,"lat":39.18472222,"lon":-83.54297222,"rng_nm":50,"alt_fmsl":0,"id":"HOC","desc":"HILLSBORO NDB"},
{"type":"NDB","hdg_t":254.7,"dist_nm":86.2,"freq":395,"lat":39.71506100,"lon":-83.92993100,"rng_nm":25,"alt_fmsl":970,"id":"XEN","desc":"XENIA NDB"},
{"type":"NDB","hdg_t":318.7,"dist_nm":86.8,"freq":379,"lat":41.18933333,"lon":-83.39713889,"rng_nm":50,"alt_fmsl":0,"id":"FZI","desc":"FOSTORIA NDB"},
{"type":"VOR","hdg_t":242.8,"dist_nm":87.2,"freq":112.9,"lat":39.42969444,"lon":-83.80125000,"rng_nm":25,"alt_fmsl":1050,"id":"MXQ","desc":"MIDWEST VOR-DME"},
{"type":"NDB","hdg_t":13.9,"dist_nm":87.8,"freq":416,"lat":41.52874700,"lon":-81.66336700,"rng_nm":25,"alt_fmsl":581,"id":"BKL","desc":"BURKE LAKEFRONT NDB"},
{"type":"VOR","hdg_t":277.6,"dist_nm":88.5,"freq":117.5,"lat":40.28780556,"lon":-84.04313889,"rng_nm":130,"alt_fmsl":1083,"id":"ROD","desc":"ROSEWOOD VORTAC"},
{"type":"VOR","hdg_t":308.3,"dist_nm":88.7,"freq":114.9,"lat":41.01488889,"lon":-83.66433333,"rng_nm":25,"alt_fmsl":0,"id":"MAH","desc":"MARATHON VOR"},
{"type":"NDB","hdg_t":308.4,"dist_nm":89.1,"freq":334,"lat":41.02111111,"lon":-83.66911111,"rng_nm":50,"alt_fmsl":0,"id":"BNR","desc":"BENTON RIDGE NDB"},
{"type":"VOR","hdg_t":304.9,"dist_nm":90,"freq":108.2,"lat":40.95533333,"lon":-83.75602778,"rng_nm":40,"alt_fmsl":820,"id":"FBC","desc":"FLAG CITY VORTAC"},
{"type":"NDB","hdg_t":218.3,"dist_nm":90.1,"freq":329,"lat":38.92119444,"lon":-83.32686111,"rng_nm":50,"alt_fmsl":0,"id":"PZO","desc":"PEEBLES NDB"},
{"type":"SDME","hdg_t":259.6,"dist_nm":90.3,"freq":115.2,"lat":39.81897800,"lon":-84.05548100,"rng_nm":25,"alt_fmsl":804,"id":"FFO","desc":"PATTERSON TACAN"},
{"type":"NDB","hdg_t":338.6,"dist_nm":91,"freq":423,"lat":41.51858333,"lon":-82.86872222,"rng_nm":50,"alt_fmsl":0,"id":"PCW","desc":"PORT CLINTON NDB"},
{"type":"NDB","hdg_t":15.9,"dist_nm":91.3,"freq":248,"lat":41.56913889,"lon":-81.57375000,"rng_nm":50,"alt_fmsl":0,"id":"BF","desc":"TABEY NDB"},
{"type":"VOR","hdg_t":293.7,"dist_nm":91.5,"freq":108.4,"lat":40.70711111,"lon":-83.96816667,"rng_nm":25,"alt_fmsl":0,"id":"AOH","desc":"ALLEN CO VOR"},
{"type":"VOR","hdg_t":74.9,"dist_nm":91.8,"freq":112,"lat":40.48813889,"lon":-80.19386111,"rng_nm":40,"alt_fmsl":1200,"id":"MMJ","desc":"MONTOUR VORTAC"},
{"type":"NDB","hdg_t":241.3,"dist_nm":92.4,"freq":299,"lat":39.35344444,"lon":-83.87577778,"rng_nm":50,"alt_fmsl":0,"id":"HW","desc":"CUBLA NDB"},
{"type":"NDB","hdg_t":18.6,"dist_nm":92.9,"freq":521,"lat":41.57411111,"lon":-81.47122222,"rng_nm":50,"alt_fmsl":0,"id":"GF","desc":"HOGAF NDB"},
{"type":"VOR","hdg_t":27.2,"dist_nm":95.3,"freq":112.7,"lat":41.51694444,"lon":-81.16319444,"rng_nm":130,"alt_fmsl":1310,"id":"CXR","desc":"CHARDON VOR-DME"},
{"type":"NDB","hdg_t":54.4,"dist_nm":95.7,"freq":272,"lat":41.02300000,"lon":-80.41583333,"rng_nm":50,"alt_fmsl":0,"id":"UCP","desc":"CASTLE NDB"},
{"type":"NDB","hdg_t":46.4,"dist_nm":96,"freq":338,"lat":41.20052778,"lon":-80.59613889,"rng_nm":50,"alt_fmsl":0,"id":"YN","desc":"FETCH NDB"},
{"type":"VOR","hdg_t":204.4,"dist_nm":96.1,"freq":112.8,"lat":38.64413889,"lon":-82.97833333,"rng_nm":40,"alt_fmsl":1040,"id":"YRK","desc":"YORK VORTAC"},
{"type":"NDB","hdg_t":48.8,"dist_nm":96.3,"freq":408,"lat":41.15288889,"lon":-80.53144444,"rng_nm":50,"alt_fmsl":0,"id":"HBD","desc":"HUBBARD NDB"},
{"type":"VOR","hdg_t":83.2,"dist_nm":96.7,"freq":110,"lat":40.27866667,"lon":-80.04086111,"rng_nm":40,"alt_fmsl":1289,"id":"AGC","desc":"ALLEGHENY VOR-DME"},
{"type":"VOR","hdg_t":63.2,"dist_nm":97.9,"freq":115.8,"lat":40.82494444,"lon":-80.21155556,"rng_nm":130,"alt_fmsl":1227,"id":"EWC","desc":"ELLWOOD CITY VORTAC"},
{"type":"VOR","hdg_t":41.6,"dist_nm":99,"freq":109,"lat":41.33102778,"lon":-80.67466667,"rng_nm":40,"alt_fmsl":1160,"id":"YNG","desc":"YOUNGSTOWN VORTAC"}
]
}
