{"success":true,"source":"xp2csv.pl","last_updated":"2013/11/08 14:53:21 UTC"
,"icao":"OIAJ","name":"Omidiyeh","lat":30.83516675,"lon":49.53491675,"rwys":2,"ils":0,"index":3759666,"path":"e040n30/e049n30"
,"runways":[
{"len_m":4113,"wid_m":45.11,"hdg":127,"surf":"Asphalt","rwy1":"12R","lat1":30.84550000,"lon1":49.51500000,"rwy2":"30L","lat2":30.82316700,"lon2":49.54933300},
{"len_m":3483,"wid_m":45.11,"hdg":127,"surf":"Asphalt","rwy1":"12L","lat1":30.84550000,"lon1":49.52316700,"rwy2":"30R","lat2":30.82650000,"lon2":49.55216700}
]
,"radios":[
{"type":"TWR","freq":124.9,"desc":"TWR"},
{"type":"TWR","freq":122.6,"desc":"TWR"}
]
,"navaids":[
{"type":"NDB","hdg_t":354.3,"dist_nm":0.8,"freq":348,"lat":30.84888900,"lon":49.53333300,"rng_nm":75,"alt_fmsl":85,"id":"OMD","desc":"OMIDIYEH NDB"},
{"type":"VOR","hdg_t":303.2,"dist_nm":1.8,"freq":113.6,"lat":30.85194400,"lon":49.50527800,"rng_nm":130,"alt_fmsl":68,"id":"OMD","desc":"OMIDIYEH VORTAC"},
{"type":"NDB","hdg_t":123.5,"dist_nm":9.2,"freq":365,"lat":30.75000000,"lon":49.68333300,"rng_nm":75,"alt_fmsl":88,"id":"AJ","desc":"AGHAJARI NDB"},
{"type":"VOR","hdg_t":230.1,"dist_nm":26,"freq":115.8,"lat":30.55633300,"lon":49.14944400,"rng_nm":130,"alt_fmsl":8,"id":"MAH","desc":"MAHSHAHR VOR-DME"},
{"type":"VOR","hdg_t":307.3,"dist_nm":49.8,"freq":114,"lat":31.33761100,"lon":48.76433300,"rng_nm":130,"alt_fmsl":66,"id":"AWZ","desc":"AHWAZ VOR-DME"},
{"type":"NDB","hdg_t":307,"dist_nm":50.8,"freq":415,"lat":31.34413900,"lon":48.74458300,"rng_nm":50,"alt_fmsl":66,"id":"AWZ","desc":"AHWAZ NDB"},
{"type":"NDB","hdg_t":350.8,"dist_nm":66.3,"freq":391,"lat":31.92938900,"lon":49.32722200,"rng_nm":75,"alt_fmsl":0,"id":"MIS","desc":"MASJED SOLEIMAN NDB"},
{"type":"VOR","hdg_t":248.8,"dist_nm":73.2,"freq":114.5,"lat":30.38702800,"lon":48.21761100,"rng_nm":130,"alt_fmsl":10,"id":"ABD","desc":"ABADAN VOR-DME"},
{"type":"NDB","hdg_t":114,"dist_nm":75.9,"freq":245,"lat":30.31233300,"lon":50.87041700,"rng_nm":25,"alt_fmsl":2414,"id":"GSN","desc":"GACHSARAN NDB"},
{"type":"VOR","hdg_t":259.5,"dist_nm":97.4,"freq":112.3,"lat":30.52566700,"lon":47.68666700,"rng_nm":130,"alt_fmsl":15,"id":"BSR","desc":"BASRAH VOR-DME"},
{"type":"SDME","hdg_t":260.4,"dist_nm":98.5,"freq":108.3,"lat":30.54883300,"lon":47.65983300,"rng_nm":130,"alt_fmsl":11,"id":"BAR","desc":"BASRAH TACAN"}
]
}
