{"success":true,"source":"xp2csv.pl","last_updated":"2013/11/08 14:53:21 UTC"
,"icao":"OIAM","name":"Mahshahr","lat":30.5561915,"lon":49.1518795,"rwys":1,"ils":0,"index":3759648,"path":"e040n30/e049n30"
,"runways":[
{"len_m":2694,"wid_m":45.11,"hdg":137,"surf":"Asphalt","rwy1":"14","lat1":30.56511900,"lon1":49.14235300,"rwy2":"32","lat2":30.54726400,"lon2":49.16140600}
]
,"radios":[
{"type":"TWR","freq":118.65,"desc":"ATIS"}
]
,"navaids":[
{"type":"VOR","hdg_t":273.8,"dist_nm":0.1,"freq":115.8,"lat":30.55633300,"lon":49.14944400,"rng_nm":130,"alt_fmsl":8,"id":"MAH","desc":"MAHSHAHR VOR-DME"},
{"type":"VOR","hdg_t":45.8,"dist_nm":25.4,"freq":113.6,"lat":30.85194400,"lon":49.50527800,"rng_nm":130,"alt_fmsl":68,"id":"OMD","desc":"OMIDIYEH VORTAC"},
{"type":"NDB","hdg_t":48.2,"dist_nm":26.3,"freq":348,"lat":30.84888900,"lon":49.53333300,"rng_nm":75,"alt_fmsl":85,"id":"OMD","desc":"OMIDIYEH NDB"},
{"type":"NDB","hdg_t":66.9,"dist_nm":29.8,"freq":365,"lat":30.75000000,"lon":49.68333300,"rng_nm":75,"alt_fmsl":88,"id":"AJ","desc":"AGHAJARI NDB"},
{"type":"VOR","hdg_t":258.4,"dist_nm":49.4,"freq":114.5,"lat":30.38702800,"lon":48.21761100,"rng_nm":130,"alt_fmsl":10,"id":"ABD","desc":"ABADAN VOR-DME"},
{"type":"VOR","hdg_t":336.9,"dist_nm":50.8,"freq":114,"lat":31.33761100,"lon":48.76433300,"rng_nm":130,"alt_fmsl":66,"id":"AWZ","desc":"AHWAZ VOR-DME"},
{"type":"NDB","hdg_t":336,"dist_nm":51.6,"freq":415,"lat":31.34413900,"lon":48.74458300,"rng_nm":50,"alt_fmsl":66,"id":"AWZ","desc":"AHWAZ NDB"},
{"type":"VOR","hdg_t":268.9,"dist_nm":75.9,"freq":112.3,"lat":30.52566700,"lon":47.68666700,"rng_nm":130,"alt_fmsl":15,"id":"BSR","desc":"BASRAH VOR-DME"},
{"type":"SDME","hdg_t":270,"dist_nm":77.2,"freq":108.3,"lat":30.54883300,"lon":47.65983300,"rng_nm":130,"alt_fmsl":11,"id":"BAR","desc":"BASRAH TACAN"},
{"type":"NDB","hdg_t":6.2,"dist_nm":82.7,"freq":391,"lat":31.92938900,"lon":49.32722200,"rng_nm":75,"alt_fmsl":0,"id":"MIS","desc":"MASJED SOLEIMAN NDB"},
{"type":"NDB","hdg_t":98.8,"dist_nm":90.3,"freq":245,"lat":30.31233300,"lon":50.87041700,"rng_nm":25,"alt_fmsl":2414,"id":"GSN","desc":"GACHSARAN NDB"},
{"type":"VOR","hdg_t":141.5,"dist_nm":98.3,"freq":113.4,"lat":29.26458300,"lon":50.31722200,"rng_nm":40,"alt_fmsl":17,"id":"KHG","desc":"KHARK ISLAND VOR-DME"},
{"type":"NDB","hdg_t":141.5,"dist_nm":98.6,"freq":325,"lat":29.26066700,"lon":50.32125000,"rng_nm":50,"alt_fmsl":17,"id":"KHG","desc":"KHARK ISLAND NDB"}
]
}
