{"success":true,"source":"xp2csv.pl","last_updated":"2013/11/08 14:53:21 UTC"
,"icao":"OIFP","name":"Badr Air Base","lat":32.620084,"lon":51.691995,"rwys":2,"ils":0,"index":3792546,"path":"e050n30/e051n32"
,"runways":[
{"len_m":3327,"wid_m":42.67,"hdg":85,"surf":"Asphalt","rwy1":"08L","lat1":32.61986100,"lon1":51.67935000,"rwy2":"26R","lat2":32.62235800,"lon2":51.71468300},
{"len_m":447,"wid_m":29.57,"hdg":85,"surf":"Asphalt","rwy1":"08R","lat1":32.61891400,"lon1":51.68459700,"rwy2":"26L","lat2":32.61920300,"lon2":51.68935000}
]
,"radios":[
{"type":"TWR","freq":121.7,"desc":"TWR"},
{"type":"TWR","freq":118.1,"desc":"TWR"}
]
,"navaids":[
{"type":"NDB","hdg_t":178.4,"dist_nm":3.2,"freq":413,"lat":32.56650000,"lon":51.69369400,"rng_nm":25,"alt_fmsl":5310,"id":"ESH","desc":"SHAHID VATAN POUR NDB"},
{"type":"SDME","hdg_t":41.5,"dist_nm":10.1,"freq":117.1,"lat":32.74638900,"lon":51.82472200,"rng_nm":130,"alt_fmsl":5072,"id":"IFN","desc":"ESFAHAN TACAN"},
{"type":"VOR","hdg_t":42.1,"dist_nm":10.2,"freq":113.2,"lat":32.74697200,"lon":51.82800000,"rng_nm":130,"alt_fmsl":5072,"id":"ISN","desc":"ESFAHAN VOR-DME"},
{"type":"NDB","hdg_t":51,"dist_nm":12.2,"freq":337,"lat":32.74897200,"lon":51.88080600,"rng_nm":25,"alt_fmsl":5072,"id":"IFN","desc":"ESFAHAN NDB"},
{"type":"NDB","hdg_t":340.4,"dist_nm":19.8,"freq":230,"lat":32.93258300,"lon":51.56011100,"rng_nm":25,"alt_fmsl":5250,"id":"HSA","desc":"HESA NDB-DME"},
{"type":"SDME","hdg_t":340.4,"dist_nm":19.8,"freq":113.45,"lat":32.93258300,"lon":51.56011100,"rng_nm":25,"alt_fmsl":5250,"id":"HSA","desc":"HESA NDB-DME"},
{"type":"VOR","hdg_t":244.6,"dist_nm":47.1,"freq":117.3,"lat":32.27983300,"lon":50.85491700,"rng_nm":130,"alt_fmsl":6723,"id":"SKD","desc":"SHAHRE KORD VOR-DME"},
{"type":"NDB","hdg_t":246.7,"dist_nm":47.2,"freq":376,"lat":32.30547200,"lon":50.83858300,"rng_nm":25,"alt_fmsl":6723,"id":"SKD","desc":"SHAHRE KORD NDB"},
{"type":"NDB","hdg_t":183.6,"dist_nm":115.1,"freq":235,"lat":30.70138900,"lon":51.54902800,"rng_nm":25,"alt_fmsl":5939,"id":"YSJ","desc":"YASOUJ NDB-DME"},
{"type":"SDME","hdg_t":183.6,"dist_nm":115.1,"freq":116.55,"lat":30.70138900,"lon":51.54902800,"rng_nm":25,"alt_fmsl":5939,"id":"YSJ","desc":"YASOUJ NDB-DME"}
]
}
