{"success":true,"source":"xp2csv.pl","last_updated":"2013/11/08 14:53:21 UTC"
,"icao":"OIIM","name":"Naja","lat":35.7762845,"lon":50.8810125,"rwys":1,"ils":0,"index":3776371,"path":"e050n30/e050n35"
,"runways":[
{"len_m":1106,"wid_m":19.81,"hdg":138,"surf":"Asphalt","rwy1":"13","lat1":35.78002200,"lon1":50.87696400,"rwy2":"31","lat2":35.77254700,"lon2":50.88506100}
]
,"radios":[
{"type":"TWR","freq":130.1,"desc":"MEHRSHAHR TWR"}
]
,"navaids":[
{"type":"VOR","hdg_t":239.3,"dist_nm":1.6,"freq":117.5,"lat":35.76202800,"lon":50.85155600,"rng_nm":130,"alt_fmsl":4125,"id":"PIM","desc":"PAYAM VOR-DME"},
{"type":"NDB","hdg_t":240.5,"dist_nm":1.7,"freq":306,"lat":35.76177800,"lon":50.84944400,"rng_nm":100,"alt_fmsl":4170,"id":"PIM","desc":"PAYAM NDB"},
{"type":"NDB","hdg_t":177.1,"dist_nm":19.8,"freq":275,"lat":35.44505600,"lon":50.90130600,"rng_nm":75,"alt_fmsl":3661,"id":"RUS","desc":"RUDESHUR NDB"},
{"type":"SDME","hdg_t":103.2,"dist_nm":20,"freq":113.3,"lat":35.69888900,"lon":51.28027800,"rng_nm":130,"alt_fmsl":3999,"id":"THR","desc":"TEHRAN TACAN"},
{"type":"VOR","hdg_t":103.4,"dist_nm":20.2,"freq":115.3,"lat":35.69697200,"lon":51.28377800,"rng_nm":130,"alt_fmsl":3987,"id":"TRN","desc":"TEHRAN VOR-DME"},
{"type":"VOR","hdg_t":146.3,"dist_nm":26.3,"freq":114.3,"lat":35.40966700,"lon":51.17847200,"rng_nm":130,"alt_fmsl":3271,"id":"IKA","desc":"IMAM KHOMEINI VOR-DME"},
{"type":"NDB","hdg_t":107.8,"dist_nm":27.5,"freq":397,"lat":35.63366700,"lon":51.41775000,"rng_nm":25,"alt_fmsl":3603,"id":"AA","desc":"ALIABAD NDB"},
{"type":"NDB","hdg_t":123,"dist_nm":28.3,"freq":358,"lat":35.51669400,"lon":51.36686100,"rng_nm":25,"alt_fmsl":3298,"id":"KAZ","desc":"KAHRIZAK NDB"},
{"type":"NDB","hdg_t":124.8,"dist_nm":45.2,"freq":373,"lat":35.34266700,"lon":51.63716700,"rng_nm":75,"alt_fmsl":3033,"id":"VR","desc":"VARAMIN NDB"},
{"type":"NDB","hdg_t":208.9,"dist_nm":51.8,"freq":408,"lat":35.01855600,"lon":50.37136100,"rng_nm":75,"alt_fmsl":3264,"id":"SAV","desc":"SAVEH NDB-DME"},
{"type":"SDME","hdg_t":208.9,"dist_nm":51.8,"freq":115.2,"lat":35.01855600,"lon":50.37136100,"rng_nm":75,"alt_fmsl":3264,"id":"SAV","desc":"SAVEH NDB-DME"},
{"type":"NDB","hdg_t":29.7,"dist_nm":60.6,"freq":260,"lat":36.65327800,"lon":51.50472200,"rng_nm":75,"alt_fmsl":-64,"id":"NSR","desc":"NOSHAHR NDB-DME"},
{"type":"SDME","hdg_t":29.7,"dist_nm":60.6,"freq":113.9,"lat":36.65327800,"lon":51.50472200,"rng_nm":75,"alt_fmsl":-64,"id":"NSR","desc":"NOSHAHR NDB-DME"},
{"type":"NDB","hdg_t":351.8,"dist_nm":68.2,"freq":332,"lat":36.90347200,"lon":50.68044400,"rng_nm":75,"alt_fmsl":-21,"id":"RSR","desc":"RAMSAR NDB-DME"},
{"type":"SDME","hdg_t":351.8,"dist_nm":68.2,"freq":115.5,"lat":36.90347200,"lon":50.68044400,"rng_nm":75,"alt_fmsl":-21,"id":"RSR","desc":"RAMSAR NDB-DME"},
{"type":"VOR","hdg_t":108.6,"dist_nm":95.3,"freq":114.5,"lat":35.25397200,"lon":52.72027800,"rng_nm":130,"alt_fmsl":2756,"id":"DHN","desc":"DEHNAMAK VOR-DME"}
]
}
