{"success":true,"source":"xp2csv.pl","last_updated":"2013/11/08 14:53:21 UTC"
,"icao":"OL09","name":"Jennings Ranch","lat":34.88339527,"lon":-98.75034473,"rwys":1,"ils":0,"index":1335096,"path":"w100n30/w099n34"
,"runways":[
{"len_m":700,"wid_m":9.14,"hdg":18,"surf":"Gravel","rwy1":"01","lat1":34.88039523,"lon1":-98.75153302,"rwy2":"19","lat2":34.88639531,"lon2":-98.74915644}
]
,"navaids":[
{"type":"VOR","hdg_t":266.3,"dist_nm":15.4,"freq":111.8,"lat":34.86655556,"lon":-99.06338889,"rng_nm":40,"alt_fmsl":1472,"id":"HBR","desc":"HOBART VORTAC"},
{"type":"NDB","hdg_t":109.4,"dist_nm":18.2,"freq":388,"lat":34.78138889,"lon":-98.40230556,"rng_nm":50,"alt_fmsl":0,"id":"OFZ","desc":"TRAIL NDB"},
{"type":"NDB","hdg_t":133.7,"dist_nm":23.7,"freq":308,"lat":34.60885200,"lon":-98.40377500,"rng_nm":25,"alt_fmsl":0,"id":"PFL","desc":"POST NDB"},
{"type":"NDB","hdg_t":133.7,"dist_nm":23.7,"freq":425,"lat":34.60886111,"lon":-98.40377778,"rng_nm":50,"alt_fmsl":0,"id":"PFL","desc":"POST NDB"},
{"type":"VOR","hdg_t":144.1,"dist_nm":28.5,"freq":109.4,"lat":34.49616667,"lon":-98.41308333,"rng_nm":40,"alt_fmsl":1104,"id":"LAW","desc":"LAWTON VOR-DME"},
{"type":"VOR","hdg_t":242.9,"dist_nm":28.9,"freq":109.8,"lat":34.66275000,"lon":-99.27097222,"rng_nm":40,"alt_fmsl":1370,"id":"LTS","desc":"ALTUS VORTAC"},
{"type":"VOR","hdg_t":313.4,"dist_nm":30.8,"freq":110,"lat":35.23694444,"lon":-99.20616667,"rng_nm":25,"alt_fmsl":1780,"id":"BFV","desc":"BURNS FLAT VORTAC"},
{"type":"NDB","hdg_t":200.3,"dist_nm":33.8,"freq":222,"lat":34.35383900,"lon":-98.98647800,"rng_nm":25,"alt_fmsl":1255,"id":"FDR","desc":"FREDERICK NDB"},
{"type":"NDB","hdg_t":5.7,"dist_nm":38.9,"freq":272,"lat":35.53005200,"lon":-98.67062900,"rng_nm":25,"alt_fmsl":1581,"id":"OJA","desc":"WEATHERFORD NDB"},
{"type":"NDB","hdg_t":347,"dist_nm":40.3,"freq":320,"lat":35.53921700,"lon":-98.93508300,"rng_nm":25,"alt_fmsl":1605,"id":"CLK","desc":"CLINTON NDB"},
{"type":"NDB","hdg_t":326.9,"dist_nm":40.5,"freq":393,"lat":35.45066667,"lon":-99.20147222,"rng_nm":50,"alt_fmsl":0,"id":"BZ","desc":"FOSSI NDB"},
{"type":"NDB","hdg_t":213.8,"dist_nm":47.3,"freq":230,"lat":34.22608333,"lon":-99.27936111,"rng_nm":50,"alt_fmsl":0,"id":"VRT","desc":"WILBARGER NDB"},
{"type":"VOR","hdg_t":125.6,"dist_nm":50.9,"freq":111,"lat":34.38447222,"lon":-97.91683333,"rng_nm":40,"alt_fmsl":1087,"id":"DUC","desc":"DUNCAN VOR-DME"},
{"type":"VOR","hdg_t":302.6,"dist_nm":51.6,"freq":115.2,"lat":35.34516667,"lon":-99.63536111,"rng_nm":40,"alt_fmsl":1990,"id":"SYO","desc":"SAYRE VORTAC"},
{"type":"VOR","hdg_t":171.7,"dist_nm":54.2,"freq":112.7,"lat":33.98727778,"lon":-98.59347222,"rng_nm":130,"alt_fmsl":1133,"id":"SPS","desc":"WICHITA FALLS VORTAC"},
{"type":"SDME","hdg_t":166.3,"dist_nm":55.5,"freq":110.8,"lat":33.98258300,"lon":-98.48733300,"rng_nm":40,"alt_fmsl":1020,"id":"SHP","desc":"SHEPPARD TACAN"},
{"type":"NDB","hdg_t":165.7,"dist_nm":60,"freq":296,"lat":33.91072222,"lon":-98.45466667,"rng_nm":50,"alt_fmsl":0,"id":"ICF","desc":"MADISON NDB"},
{"type":"NDB","hdg_t":165.7,"dist_nm":60,"freq":296,"lat":33.91063889,"lon":-98.45491667,"rng_nm":50,"alt_fmsl":0,"id":"SP","desc":"SHAWN NDB"},
{"type":"NDB","hdg_t":15.1,"dist_nm":60.7,"freq":359,"lat":35.86198600,"lon":-98.42535000,"rng_nm":25,"alt_fmsl":1530,"id":"JWG","desc":"WATONGA NDB"},
{"type":"NDB","hdg_t":66.3,"dist_nm":62.2,"freq":350,"lat":35.29505556,"lon":-97.58866667,"rng_nm":50,"alt_fmsl":0,"id":"RG","desc":"GALLY NDB"},
{"type":"VOR","hdg_t":62.7,"dist_nm":62.9,"freq":114.1,"lat":35.35858333,"lon":-97.60922222,"rng_nm":130,"alt_fmsl":1230,"id":"IRW","desc":"WILL ROGERS VORTAC"},
{"type":"VOR","hdg_t":33.3,"dist_nm":66.2,"freq":114.7,"lat":35.80527778,"lon":-98.00391667,"rng_nm":130,"alt_fmsl":1110,"id":"IFI","desc":"KINGFISHER VORTAC"},
{"type":"NDB","hdg_t":57.6,"dist_nm":66.4,"freq":406,"lat":35.47144444,"lon":-97.60544444,"rng_nm":50,"alt_fmsl":0,"id":"OK","desc":"TULOO NDB"},
{"type":"NDB","hdg_t":70.5,"dist_nm":66.7,"freq":370,"lat":35.24825000,"lon":-97.46997222,"rng_nm":50,"alt_fmsl":0,"id":"OUN","desc":"NORMAN NDB"},
{"type":"VOR","hdg_t":54,"dist_nm":66.7,"freq":113.4,"lat":35.53294444,"lon":-97.64716667,"rng_nm":25,"alt_fmsl":1271,"id":"PWA","desc":"WILEY POST VOR-DME"},
{"type":"NDB","hdg_t":168.7,"dist_nm":67.2,"freq":344,"lat":33.78227778,"lon":-98.48816667,"rng_nm":50,"alt_fmsl":0,"id":"SKB","desc":"SCOTLAND NDB"},
{"type":"SDME","hdg_t":63.4,"dist_nm":75.1,"freq":115.8,"lat":35.43650800,"lon":-97.37968900,"rng_nm":25,"alt_fmsl":1251,"id":"TIK","desc":"TINKER TACAN"},
{"type":"NDB","hdg_t":82.9,"dist_nm":75.4,"freq":512,"lat":35.02897222,"lon":-97.23047222,"rng_nm":50,"alt_fmsl":0,"id":"HMY","desc":"MULDROW NDB"},
{"type":"NDB","hdg_t":97.1,"dist_nm":75.8,"freq":384,"lat":34.71541667,"lon":-97.22891667,"rng_nm":50,"alt_fmsl":0,"id":"PVJ","desc":"PAULS VALLEY NDB"},
{"type":"VOR","hdg_t":248.4,"dist_nm":82.1,"freq":117.6,"lat":34.36905556,"lon":-100.28902778,"rng_nm":40,"alt_fmsl":1920,"id":"CDS","desc":"CHILDRESS VORTAC"},
{"type":"NDB","hdg_t":8.9,"dist_nm":85,"freq":246,"lat":36.28516700,"lon":-98.47800000,"rng_nm":25,"alt_fmsl":1273,"id":"FAU","desc":"FAIRVIEW NDB"},
{"type":"NDB","hdg_t":48.2,"dist_nm":87.2,"freq":326,"lat":35.84555600,"lon":-97.41580600,"rng_nm":25,"alt_fmsl":1074,"id":"LCY","desc":"LOGAN COUNTY NDB"},
{"type":"VOR","hdg_t":116.7,"dist_nm":88.1,"freq":116.7,"lat":34.21158333,"lon":-97.16822222,"rng_nm":130,"alt_fmsl":937,"id":"ADM","desc":"ARDMORE VORTAC"},
{"type":"NDB","hdg_t":147.3,"dist_nm":90.6,"freq":356,"lat":33.60538889,"lon":-97.77336111,"rng_nm":50,"alt_fmsl":0,"id":"GMZ","desc":"GRINDSTONE MTN NDB"},
{"type":"VOR","hdg_t":149.9,"dist_nm":93,"freq":112.4,"lat":33.53588889,"lon":-97.82127778,"rng_nm":130,"alt_fmsl":1100,"id":"UKW","desc":"BOWIE VORTAC"},
{"type":"NDB","hdg_t":68.5,"dist_nm":95.1,"freq":264,"lat":35.44983333,"lon":-96.94300000,"rng_nm":50,"alt_fmsl":0,"id":"HN","desc":"SUYBE NDB"},
{"type":"NDB","hdg_t":29.1,"dist_nm":95.6,"freq":341,"lat":36.27502778,"lon":-97.79077778,"rng_nm":50,"alt_fmsl":0,"id":"EI","desc":"GARFY NDB"},
{"type":"VOR","hdg_t":24.6,"dist_nm":96.5,"freq":115.4,"lat":36.34497222,"lon":-97.91836111,"rng_nm":130,"alt_fmsl":1276,"id":"END","desc":"VANCE VORTAC"},
{"type":"NDB","hdg_t":112.8,"dist_nm":98.1,"freq":400,"lat":34.23233333,"lon":-96.93311111,"rng_nm":50,"alt_fmsl":0,"id":"AI","desc":"ADDMO NDB"}
]
}
