{"success":true,"source":"xp2csv.pl","last_updated":"2013/11/08 14:53:21 UTC"
,"icao":"OP13","name":"Mad Juma","lat":28.3561615,"lon":70.6001845,"rwys":1,"ils":0,"index":4103570,"path":"e070n20/e070n28"
,"runways":[
{"len_m":2400,"wid_m":62.48,"hdg":77,"surf":"Dirt","rwy1":"08","lat1":28.35381700,"lon1":70.58823300,"rwy2":"26","lat2":28.35850600,"lon2":70.61213600}
]
,"navaids":[
{"type":"NDB","hdg_t":281.9,"dist_nm":16,"freq":290,"lat":28.41127800,"lon":70.30347800,"rng_nm":200,"alt_fmsl":360,"id":"RK","desc":"RAHIM YAR KHAN NDB"},
{"type":"VOR","hdg_t":271.9,"dist_nm":17.3,"freq":113.7,"lat":28.36564700,"lon":70.27315300,"rng_nm":130,"alt_fmsl":289,"id":"RK","desc":"RAHIM YAR KHAN VOR-DME"},
{"type":"VOR","hdg_t":15.8,"dist_nm":82.4,"freq":113.3,"lat":29.68000000,"lon":71.03111100,"rng_nm":130,"alt_fmsl":0,"id":"BI","desc":"BINDO VOR"},
{"type":"NDB","hdg_t":44.4,"dist_nm":83.7,"freq":332,"lat":29.34986400,"lon":71.71913600,"rng_nm":25,"alt_fmsl":405,"id":"BW","desc":"BAHAWALPUR NDB"},
{"type":"NDB","hdg_t":356.5,"dist_nm":96.2,"freq":322,"lat":29.96218900,"lon":70.49034700,"rng_nm":25,"alt_fmsl":516,"id":"DG","desc":"DERA GHAZI KHAN NDB"},
{"type":"NDB","hdg_t":248.8,"dist_nm":103,"freq":375,"lat":27.72229400,"lon":68.79611700,"rng_nm":50,"alt_fmsl":242,"id":"SK","desc":"SUKKUR NDB"},
{"type":"VOR","hdg_t":21,"dist_nm":118,"freq":116.7,"lat":30.19401900,"lon":71.41638900,"rng_nm":130,"alt_fmsl":423,"id":"MT","desc":"MULTAN VOR"},
{"type":"NDB","hdg_t":21.2,"dist_nm":118.3,"freq":387,"lat":30.19684200,"lon":71.42385300,"rng_nm":150,"alt_fmsl":436,"id":"MT","desc":"MULTAN NDB"},
{"type":"NDB","hdg_t":245.4,"dist_nm":144.4,"freq":304,"lat":27.33096700,"lon":68.14104700,"rng_nm":50,"alt_fmsl":211,"id":"MJ","desc":"MOENJODARO NDB"},
{"type":"NDB","hdg_t":297.2,"dist_nm":162,"freq":208,"lat":29.56953900,"lon":67.84706900,"rng_nm":25,"alt_fmsl":0,"id":"SB","desc":"SIBI NDB"}
]
}
