{"success":true,"source":"xp2csv.pl","last_updated":"2013/11/08 14:53:21 UTC"
,"icao":"OP20","name":"Minhas","lat":33.86909,"lon":72.4009305,"rwys":1,"ils":0,"index":4136689,"path":"e070n30/e072n33"
,"runways":[
{"len_m":3032,"wid_m":50.29,"hdg":121,"surf":"Asphalt","rwy1":"12","lat1":33.87618600,"lon1":72.38692500,"rwy2":"30","lat2":33.86199400,"lon2":72.41493600}
]
,"navaids":[
{"type":"NDB","hdg_t":114,"dist_nm":37.3,"freq":344,"lat":33.61333300,"lon":73.08166700,"rng_nm":150,"alt_fmsl":0,"id":"RN","desc":"ISLAMABAD NDB"},
{"type":"VOR","hdg_t":113.2,"dist_nm":39.5,"freq":112.1,"lat":33.60594200,"lon":73.12593600,"rng_nm":130,"alt_fmsl":1655,"id":"RN","desc":"ISLAMABAD VOR-DME"},
{"type":"VOR","hdg_t":278.4,"dist_nm":44.5,"freq":114.3,"lat":33.97537200,"lon":71.51715600,"rng_nm":130,"alt_fmsl":1257,"id":"PS","desc":"PESHAWAR VOR-DME"},
{"type":"NDB","hdg_t":279.8,"dist_nm":45.3,"freq":308,"lat":33.99583300,"lon":71.50444400,"rng_nm":150,"alt_fmsl":1257,"id":"PS","desc":"PESHAWAR NDB"},
{"type":"NDB","hdg_t":357.5,"dist_nm":56.3,"freq":357,"lat":34.80895000,"lon":72.35222200,"rng_nm":50,"alt_fmsl":0,"id":"SS","desc":"SAIDU SHARIF NDB"},
{"type":"NDB","hdg_t":62.4,"dist_nm":61.9,"freq":207,"lat":34.34222200,"lon":73.50672200,"rng_nm":50,"alt_fmsl":2705,"id":"MF","desc":"MUZAFFARABAD NDB"},
{"type":"NDB","hdg_t":90.6,"dist_nm":69.8,"freq":295,"lat":33.84768100,"lon":73.79916700,"rng_nm":50,"alt_fmsl":5465,"id":"RT","desc":"RAWALAKOT NDB"},
{"type":"NDB","hdg_t":208.5,"dist_nm":88.6,"freq":240,"lat":32.56627800,"lon":71.56616500,"rng_nm":75,"alt_fmsl":0,"id":"MI","desc":"MIANWALI NDB"},
{"type":"NDB","hdg_t":240.9,"dist_nm":108.4,"freq":257,"lat":32.97638900,"lon":70.52094400,"rng_nm":50,"alt_fmsl":1325,"id":"BN","desc":"BANNU NDB"},
{"type":"NDB","hdg_t":271.7,"dist_nm":116.3,"freq":273,"lat":33.90540000,"lon":70.07245000,"rng_nm":25,"alt_fmsl":5802,"id":"PC","desc":"PARACHINAR NDB"}
]
}
