{"success":true,"source":"xp2csv.pl","last_updated":"2013/11/08 14:53:21 UTC"
,"icao":"OPBG","name":"Bhagatanwala","lat":32.0563465,"lon":72.9483985,"rwys":2,"ils":0,"index":4136579,"path":"e070n30/e072n32"
,"runways":[
{"len_m":2733,"wid_m":27.43,"hdg":69,"surf":"Asphalt","rwy1":"07","lat1":32.05186400,"lon1":72.93480800,"rwy2":"25","lat2":32.06035000,"lon2":72.96198900},
{"len_m":1530,"wid_m":45.72,"hdg":162,"surf":"Concrete","rwy1":"16","lat1":32.06317500,"lon1":72.94599400,"rwy2":"34","lat2":32.04999700,"lon2":72.95080300}
]
,"navaids":[
{"type":"NDB","hdg_t":176.6,"dist_nm":41.1,"freq":212,"lat":31.37027800,"lon":72.99500000,"rng_nm":50,"alt_fmsl":654,"id":"FA","desc":"FAISALABAD NDB"},
{"type":"NDB","hdg_t":111.3,"dist_nm":57.7,"freq":317,"lat":31.70068300,"lon":73.99900800,"rng_nm":50,"alt_fmsl":730,"id":"SP","desc":"SHEIKHUPURA NDB"},
{"type":"NDB","hdg_t":293.8,"dist_nm":76.6,"freq":240,"lat":32.56627800,"lon":71.56616500,"rng_nm":75,"alt_fmsl":0,"id":"MI","desc":"MIANWALI NDB"},
{"type":"NDB","hdg_t":113.9,"dist_nm":80.5,"freq":268,"lat":31.50111100,"lon":74.38333300,"rng_nm":200,"alt_fmsl":0,"id":"LA","desc":"LAHORE NDB"},
{"type":"VOR","hdg_t":113.7,"dist_nm":81.3,"freq":112.7,"lat":31.49972200,"lon":74.40001900,"rng_nm":130,"alt_fmsl":729,"id":"LA","desc":"LAHORE VOR-DME"},
{"type":"VOR","hdg_t":5.4,"dist_nm":93.2,"freq":112.1,"lat":33.60594200,"lon":73.12593600,"rng_nm":130,"alt_fmsl":1655,"id":"RN","desc":"ISLAMABAD VOR-DME"},
{"type":"NDB","hdg_t":4,"dist_nm":93.4,"freq":344,"lat":33.61333300,"lon":73.08166700,"rng_nm":150,"alt_fmsl":0,"id":"RN","desc":"ISLAMABAD NDB"},
{"type":"VOR","hdg_t":101.9,"dist_nm":96.9,"freq":115.5,"lat":31.70694400,"lon":74.80083300,"rng_nm":130,"alt_fmsl":752,"id":"AAR","desc":"AMRITSAR VOR-DME"},
{"type":"NDB","hdg_t":101.8,"dist_nm":97.5,"freq":351,"lat":31.70860800,"lon":74.81430800,"rng_nm":50,"alt_fmsl":0,"id":"AR","desc":"AMRITSAR NDB"},
{"type":"VOR","hdg_t":67.8,"dist_nm":103.2,"freq":113.3,"lat":32.69155600,"lon":74.83763900,"rng_nm":130,"alt_fmsl":1029,"id":"JJU","desc":"JAMMU VOR-DME"}
]
}
