{"success":true,"source":"xp2csv.pl","last_updated":"2013/11/08 14:53:21 UTC"
,"icao":"OPSS","name":"Saidu Sharif","lat":34.813557,"lon":72.3528155,"rwys":1,"ils":0,"index":4136753,"path":"e070n30/e072n34"
,"runways":[
{"len_m":1750,"wid_m":46.02,"hdg":51,"surf":"Asphalt","rwy1":"05","lat1":34.80868100,"lon1":72.34529200,"rwy2":"23","lat2":34.81843300,"lon2":72.36033900}
]
,"radios":[
{"type":"GND","freq":121.8,"desc":"GND"},
{"type":"TWR","freq":120.7,"desc":"TWR"}
]
,"navaids":[
{"type":"NDB","hdg_t":186,"dist_nm":0.2,"freq":357,"lat":34.80895000,"lon":72.35222200,"rng_nm":50,"alt_fmsl":0,"id":"SS","desc":"SAIDU SHARIF NDB"},
{"type":"NDB","hdg_t":115.9,"dist_nm":63.7,"freq":207,"lat":34.34222200,"lon":73.50672200,"rng_nm":50,"alt_fmsl":2705,"id":"MF","desc":"MUZAFFARABAD NDB"},
{"type":"NDB","hdg_t":220.9,"dist_nm":64.5,"freq":308,"lat":33.99583300,"lon":71.50444400,"rng_nm":150,"alt_fmsl":1257,"id":"PS","desc":"PESHAWAR NDB"},
{"type":"VOR","hdg_t":219.8,"dist_nm":65.1,"freq":114.3,"lat":33.97537200,"lon":71.51715600,"rng_nm":130,"alt_fmsl":1257,"id":"PS","desc":"PESHAWAR VOR-DME"},
{"type":"NDB","hdg_t":153,"dist_nm":80.5,"freq":344,"lat":33.61333300,"lon":73.08166700,"rng_nm":150,"alt_fmsl":0,"id":"RN","desc":"ISLAMABAD NDB"},
{"type":"VOR","hdg_t":151.7,"dist_nm":81.9,"freq":112.1,"lat":33.60594200,"lon":73.12593600,"rng_nm":130,"alt_fmsl":1655,"id":"RN","desc":"ISLAMABAD VOR-DME"},
{"type":"NDB","hdg_t":128.4,"dist_nm":92.2,"freq":295,"lat":33.84768100,"lon":73.79916700,"rng_nm":50,"alt_fmsl":5465,"id":"RT","desc":"RAWALAKOT NDB"},
{"type":"NDB","hdg_t":55.1,"dist_nm":117.7,"freq":324,"lat":35.92027800,"lon":74.33508100,"rng_nm":50,"alt_fmsl":4817,"id":"GT","desc":"GILGIT NDB"},
{"type":"NDB","hdg_t":244.9,"dist_nm":125.6,"freq":273,"lat":33.90540000,"lon":70.07245000,"rng_nm":25,"alt_fmsl":5802,"id":"PC","desc":"PARACHINAR NDB"},
{"type":"VOR","hdg_t":111.4,"dist_nm":128.7,"freq":115.9,"lat":34.00197200,"lon":74.75458300,"rng_nm":130,"alt_fmsl":5458,"id":"SNG","desc":"SRINAGAR VOR-DME"}
]
}
