{"success":true,"source":"xp2csv.pl","last_updated":"2013/11/08 14:53:21 UTC"
,"icao":"OS62","name":"Jirah","lat":36.0967415,"lon":37.936465,"rwys":1,"ils":0,"index":3563395,"path":"e030n30/e037n36"
,"runways":[
{"len_m":3102,"wid_m":39.62,"hdg":100,"surf":"Asphalt","rwy1":"10","lat1":36.09922500,"lon1":37.91951100,"rwy2":"28","lat2":36.09425800,"lon2":37.95341900}
]
,"radios":[
{"type":"TWR","freq":118.1,"desc":"DEIR ZZOR TWR"}
]
,"navaids":[
{"type":"NDB","hdg_t":278.5,"dist_nm":31,"freq":365,"lat":36.17170000,"lon":37.30458600,"rng_nm":50,"alt_fmsl":0,"id":"MER","desc":"ALEPPO NDB"},
{"type":"VOR","hdg_t":278.1,"dist_nm":35.6,"freq":114.5,"lat":36.17925000,"lon":37.20955600,"rng_nm":130,"alt_fmsl":1276,"id":"ALE","desc":"ALEPPO VOR-DME"},
{"type":"NDB","hdg_t":278,"dist_nm":35.8,"freq":396,"lat":36.17797200,"lon":37.20655600,"rng_nm":75,"alt_fmsl":0,"id":"ALE","desc":"ALEPPO NDB"},
{"type":"NDB","hdg_t":336.4,"dist_nm":55.8,"freq":432,"lat":36.95027800,"lon":37.47333300,"rng_nm":25,"alt_fmsl":0,"id":"GAZ","desc":"OGUZELI NDB"},
{"type":"VOR","hdg_t":336.4,"dist_nm":55.8,"freq":116.7,"lat":36.95027800,"lon":37.47333300,"rng_nm":130,"alt_fmsl":2297,"id":"GAZ","desc":"GAZIANTEP VOR-DME"},
{"type":"NDB","hdg_t":36,"dist_nm":74.1,"freq":415,"lat":37.09388900,"lon":38.84472200,"rng_nm":75,"alt_fmsl":1483,"id":"URF","desc":"SANLIURFA NDB"},
{"type":"VOR","hdg_t":36,"dist_nm":74.1,"freq":117.7,"lat":37.09388900,"lon":38.84472200,"rng_nm":75,"alt_fmsl":1486,"id":"URF","desc":"SANLIURFA VOR-DME"},
{"type":"NDB","hdg_t":288.9,"dist_nm":90.7,"freq":434,"lat":36.57611100,"lon":36.16000000,"rng_nm":50,"alt_fmsl":25,"id":"ISK","desc":"ISKENDERUN NDB"},
{"type":"NDB","hdg_t":169,"dist_nm":94.1,"freq":337,"lat":34.55288900,"lon":38.29829200,"rng_nm":75,"alt_fmsl":0,"id":"PAL","desc":"PALMYRA NDB"},
{"type":"NDB","hdg_t":331.5,"dist_nm":98.4,"freq":374,"lat":37.53805600,"lon":36.95361100,"rng_nm":75,"alt_fmsl":1723,"id":"KHM","desc":"KAHRAMANMARAS NDB"},
{"type":"VOR","hdg_t":331.5,"dist_nm":98.4,"freq":113.9,"lat":37.53805600,"lon":36.95361100,"rng_nm":75,"alt_fmsl":1723,"id":"KHM","desc":"KAHRAMANMARAS VOR-DME"}
]
}
