{"success":true,"source":"xp2csv.pl","last_updated":"2013/11/08 14:53:21 UTC"
,"icao":"P19","name":"Stellar Airpark","lat":33.298932,"lon":-111.9154365,"rwys":1,"ils":0,"index":1122000,"path":"w120n30/w112n33"
,"runways":[
{"len_m":1180,"wid_m":18.29,"hdg":180,"surf":"Asphalt","rwy1":"17","lat1":33.30425300,"lon1":-111.91543100,"rwy2":"35","lat2":33.29361100,"lon2":-111.91544200}
]
,"radios":[
{"type":"CTAF","freq":122.9,"desc":"CTAF"},
{"type":"APP","freq":123.7,"desc":"PHOENIX APP/DEP"}
]
,"navaids":[
{"type":"NDB","hdg_t":109.7,"dist_nm":5.7,"freq":407,"lat":33.26650000,"lon":-111.80791667,"rng_nm":50,"alt_fmsl":0,"id":"CHD","desc":"CHANDLER NDB"},
{"type":"VOR","hdg_t":341.1,"dist_nm":8.4,"freq":115.6,"lat":33.43302778,"lon":-111.97019444,"rng_nm":130,"alt_fmsl":1182,"id":"PXR","desc":"PHOENIX VORTAC"},
{"type":"VOR","hdg_t":88.8,"dist_nm":13.2,"freq":113.3,"lat":33.30316667,"lon":-111.65144444,"rng_nm":40,"alt_fmsl":1366,"id":"IWA","desc":"WILLIE VORTAC"},
{"type":"NDB","hdg_t":43.1,"dist_nm":13.3,"freq":281,"lat":33.46188889,"lon":-111.73308333,"rng_nm":50,"alt_fmsl":0,"id":"FFZ","desc":"FALCON FIELD NDB"},
{"type":"NDB","hdg_t":1.1,"dist_nm":19.7,"freq":224,"lat":33.62909700,"lon":-111.90782800,"rng_nm":25,"alt_fmsl":1542,"id":"SDL","desc":"SCOTTSDALE NDB"},
{"type":"VOR","hdg_t":179.2,"dist_nm":24.7,"freq":114.8,"lat":32.88586111,"lon":-111.90872222,"rng_nm":130,"alt_fmsl":1316,"id":"TFD","desc":"STANFIELD VORTAC"},
{"type":"SDME","hdg_t":301.6,"dist_nm":27.3,"freq":113,"lat":33.53768300,"lon":-112.38021100,"rng_nm":40,"alt_fmsl":1076,"id":"LUF","desc":"LUKE TACAN"},
{"type":"VOR","hdg_t":241.9,"dist_nm":43.3,"freq":116.6,"lat":32.95627778,"lon":-112.67427778,"rng_nm":130,"alt_fmsl":790,"id":"GBN","desc":"GILA BEND VORTAC"},
{"type":"VOR","hdg_t":281.7,"dist_nm":46.6,"freq":110.6,"lat":33.45344444,"lon":-112.82458333,"rng_nm":40,"alt_fmsl":1060,"id":"BXK","desc":"BUCKEYE VORTAC"},
{"type":"NDB","hdg_t":146.1,"dist_nm":63.8,"freq":245,"lat":32.41183333,"lon":-111.21558333,"rng_nm":50,"alt_fmsl":0,"id":"AVQ","desc":"MARANA NDB"},
{"type":"NDB","hdg_t":158.8,"dist_nm":78.5,"freq":220,"lat":32.07405556,"lon":-111.36030556,"rng_nm":50,"alt_fmsl":0,"id":"RBJ","desc":"ROBLES NDB"},
{"type":"NDB","hdg_t":151,"dist_nm":79.2,"freq":338,"lat":32.13838889,"lon":-111.16152778,"rng_nm":50,"alt_fmsl":0,"id":"RYN","desc":"RYAN NDB"},
{"type":"SDME","hdg_t":142.2,"dist_nm":85.9,"freq":117.6,"lat":32.15991700,"lon":-110.88090800,"rng_nm":40,"alt_fmsl":2663,"id":"DMA","desc":"DAVIS MONTHAN TACAN"},
{"type":"VOR","hdg_t":144.6,"dist_nm":88.1,"freq":116,"lat":32.09519444,"lon":-110.91486111,"rng_nm":130,"alt_fmsl":2672,"id":"TUS","desc":"TUCSON VORTAC"},
{"type":"VOR","hdg_t":341.6,"dist_nm":88.6,"freq":114.1,"lat":34.70255556,"lon":-112.48036111,"rng_nm":130,"alt_fmsl":4963,"id":"DRK","desc":"DRAKE VORTAC"}
]
}
