{"success":true,"source":"xp2csv.pl","last_updated":"2013/11/08 14:53:21 UTC"
,"icao":"PA76","name":"Rosenzweig","lat":41.13699444,"lon":-75.86111112,"rwys":2,"ils":0,"index":1712328,"path":"w080n40/w076n41"
,"runways":[
{"len_m":548,"wid_m":30.48,"hdg":34,"surf":"Turf/grass","rwy1":"05","lat1":41.13494781,"lon1":-75.86294408,"rwy2":"23","lat2":41.13904107,"lon2":-75.85927816},
{"len_m":397,"wid_m":30.48,"hdg":79,"surf":"Turf/grass","rwy1":"09","lat1":41.13665424,"lon1":-75.86343497,"rwy2":"27","lat2":41.13733464,"lon2":-75.85878727}
]
,"navaids":[
{"type":"NDB","hdg_t":16.7,"dist_nm":4.5,"freq":410,"lat":41.21038889,"lon":-75.83183333,"rng_nm":50,"alt_fmsl":0,"id":"CYE","desc":"CRYSTAL LAKE NDB"},
{"type":"VOR","hdg_t":43.6,"dist_nm":11.2,"freq":111.6,"lat":41.27280556,"lon":-75.68947222,"rng_nm":40,"alt_fmsl":2119,"id":"LVZ","desc":"WILKES BARRE VORTAC"},
{"type":"VOR","hdg_t":231.1,"dist_nm":15.4,"freq":109.4,"lat":40.97508333,"lon":-76.12580556,"rng_nm":25,"alt_fmsl":0,"id":"HZL","desc":"HAZLETON VOR"},
{"type":"VOR","hdg_t":39.9,"dist_nm":26.5,"freq":110.8,"lat":41.47577778,"lon":-75.48263889,"rng_nm":40,"alt_fmsl":2320,"id":"LHY","desc":"LAKE HENRY VORTAC"},
{"type":"VOR","hdg_t":142.9,"dist_nm":30.7,"freq":117.5,"lat":40.72669444,"lon":-75.45475000,"rng_nm":40,"alt_fmsl":680,"id":"FJC","desc":"ALLENTOWN VORTAC"},
{"type":"VOR","hdg_t":166.3,"dist_nm":34.2,"freq":110.2,"lat":40.58102778,"lon":-75.68402778,"rng_nm":40,"alt_fmsl":742,"id":"ETX","desc":"EAST TEXAS VOR-DME"},
{"type":"VOR","hdg_t":259.6,"dist_nm":37.1,"freq":109.2,"lat":41.02338889,"lon":-76.66530556,"rng_nm":40,"alt_fmsl":1000,"id":"MIP","desc":"MILTON VORTAC"},
{"type":"NDB","hdg_t":282.6,"dist_nm":39.3,"freq":344,"lat":41.27708333,"lon":-76.71013889,"rng_nm":50,"alt_fmsl":0,"id":"PIX","desc":"PICTURE ROCKS NDB"},
{"type":"VOR","hdg_t":286.5,"dist_nm":43,"freq":114.4,"lat":41.33855556,"lon":-76.77486111,"rng_nm":40,"alt_fmsl":2098,"id":"FQM","desc":"WILLIAMSPORT VOR-DME"},
{"type":"VOR","hdg_t":100.3,"dist_nm":45.8,"freq":109.6,"lat":40.99583333,"lon":-74.86902778,"rng_nm":40,"alt_fmsl":920,"id":"STW","desc":"STILLWATER VOR-DME"},
{"type":"VOR","hdg_t":224,"dist_nm":48.5,"freq":114.6,"lat":40.55338889,"lon":-76.59938889,"rng_nm":40,"alt_fmsl":1750,"id":"RAV","desc":"RAVINE VORTAC"},
{"type":"NDB","hdg_t":148.8,"dist_nm":49.8,"freq":208,"lat":40.42472222,"lon":-75.29777778,"rng_nm":50,"alt_fmsl":0,"id":"UKT","desc":"QUAKERTOWN NDB"},
{"type":"VOR","hdg_t":246.2,"dist_nm":50.9,"freq":110.4,"lat":40.79083333,"lon":-76.88402778,"rng_nm":40,"alt_fmsl":620,"id":"SEG","desc":"SELINSGROVE VORTAC"},
{"type":"VOR","hdg_t":112.9,"dist_nm":51.4,"freq":114.2,"lat":40.79844444,"lon":-74.82183333,"rng_nm":40,"alt_fmsl":1050,"id":"BWZ","desc":"BROADWAY VOR-DME"},
{"type":"VOR","hdg_t":149.5,"dist_nm":51.7,"freq":108.85,"lat":40.39090800,"lon":-75.28876700,"rng_nm":25,"alt_fmsl":552,"id":"CKZ","desc":"PENNRIDGE VOR-DME"},
{"type":"NDB","hdg_t":217.1,"dist_nm":52.5,"freq":328,"lat":40.43591667,"lon":-76.55302778,"rng_nm":50,"alt_fmsl":0,"id":"BZJ","desc":"BELLGROVE NDB"},
{"type":"VOR","hdg_t":165.8,"dist_nm":56.5,"freq":116.5,"lat":40.22227778,"lon":-75.56027778,"rng_nm":40,"alt_fmsl":290,"id":"PTW","desc":"POTTSTOWN VORTAC"},
{"type":"NDB","hdg_t":358.6,"dist_nm":58,"freq":332,"lat":42.10475000,"lon":-75.89119444,"rng_nm":50,"alt_fmsl":0,"id":"BG","desc":"SMITE NDB"},
{"type":"NDB","hdg_t":144.7,"dist_nm":58.6,"freq":237,"lat":40.33566100,"lon":-75.12211700,"rng_nm":5,"alt_fmsl":394,"id":"DYL","desc":"DOYLESTOWN NDB"},
{"type":"NDB","hdg_t":49.7,"dist_nm":58.8,"freq":359,"lat":41.76666667,"lon":-74.86072222,"rng_nm":50,"alt_fmsl":0,"id":"MS","desc":"MONGA NDB"},
{"type":"VOR","hdg_t":73.6,"dist_nm":59.7,"freq":116.1,"lat":41.40969444,"lon":-74.59158333,"rng_nm":130,"alt_fmsl":1300,"id":"HUO","desc":"HUGUENOT VOR-DME"},
{"type":"VOR","hdg_t":93.5,"dist_nm":60.1,"freq":115.7,"lat":41.06755556,"lon":-74.53830556,"rng_nm":130,"alt_fmsl":1400,"id":"SAX","desc":"SPARTA VORTAC"},
{"type":"VOR","hdg_t":23.6,"dist_nm":60.7,"freq":116.8,"lat":42.06305556,"lon":-75.31627778,"rng_nm":130,"alt_fmsl":2070,"id":"HNK","desc":"HANCOCK VOR-DME"},
{"type":"VOR","hdg_t":122.7,"dist_nm":60.8,"freq":112.9,"lat":40.58305556,"lon":-74.74180556,"rng_nm":40,"alt_fmsl":190,"id":"SBJ","desc":"SOLBERG VOR-DME"},
{"type":"VOR","hdg_t":348.6,"dist_nm":62.4,"freq":112.2,"lat":42.15750000,"lon":-76.13647222,"rng_nm":40,"alt_fmsl":1583,"id":"CFB","desc":"BINGHAMTON VORTAC"},
{"type":"VOR","hdg_t":198,"dist_nm":64,"freq":117.3,"lat":40.11997222,"lon":-76.29130556,"rng_nm":40,"alt_fmsl":399,"id":"LRP","desc":"LANCASTER VORTAC"},
{"type":"NDB","hdg_t":156.3,"dist_nm":66,"freq":275,"lat":40.12594444,"lon":-75.28516667,"rng_nm":50,"alt_fmsl":0,"id":"ING","desc":"AMBLER NDB"},
{"type":"VOR","hdg_t":140.2,"dist_nm":68.5,"freq":108.2,"lat":40.25333333,"lon":-74.90761111,"rng_nm":40,"alt_fmsl":300,"id":"ARD","desc":"YARDLEY VOR-DME"},
{"type":"NDB","hdg_t":109.5,"dist_nm":69.2,"freq":254,"lat":40.74077778,"lon":-74.42988889,"rng_nm":50,"alt_fmsl":0,"id":"CAT","desc":"CHATHAM NDB"},
{"type":"NDB","hdg_t":141.2,"dist_nm":70.7,"freq":369,"lat":40.21263889,"lon":-74.89916667,"rng_nm":50,"alt_fmsl":0,"id":"TT","desc":"TRENN NDB"},
{"type":"NDB","hdg_t":221.9,"dist_nm":71.4,"freq":204,"lat":40.24638889,"lon":-76.90063889,"rng_nm":50,"alt_fmsl":0,"id":"MD","desc":"ENOLA NDB"},
{"type":"NDB","hdg_t":74.9,"dist_nm":73.3,"freq":353,"lat":41.44488889,"lon":-74.29113889,"rng_nm":50,"alt_fmsl":0,"id":"MG","desc":"OTIMS NDB"},
{"type":"VOR","hdg_t":173.1,"dist_nm":73.6,"freq":113.2,"lat":39.91805556,"lon":-75.67080556,"rng_nm":40,"alt_fmsl":473,"id":"MXE","desc":"MODENA VORTAC"},
{"type":"VOR","hdg_t":148.1,"dist_nm":74.2,"freq":112,"lat":40.08205556,"lon":-75.00955556,"rng_nm":25,"alt_fmsl":0,"id":"PNE","desc":"NORTH PHILADELPHI VOR"},
{"type":"VOR","hdg_t":228.1,"dist_nm":74.4,"freq":112.5,"lat":40.30225000,"lon":-77.06955556,"rng_nm":40,"alt_fmsl":1301,"id":"HAR","desc":"HARRISBURG VORTAC"},
{"type":"VOR","hdg_t":32.7,"dist_nm":74.5,"freq":112.1,"lat":42.17827778,"lon":-74.95694444,"rng_nm":40,"alt_fmsl":2560,"id":"DNY","desc":"DELANCEY VOR-DME"},
{"type":"NDB","hdg_t":73.6,"dist_nm":76.7,"freq":335,"lat":41.48608333,"lon":-74.22791667,"rng_nm":50,"alt_fmsl":0,"id":"SW","desc":"NEELY NDB"},
{"type":"NDB","hdg_t":328.7,"dist_nm":77.5,"freq":245,"lat":42.23866667,"lon":-76.76394444,"rng_nm":50,"alt_fmsl":0,"id":"ALP","desc":"ALPINE NDB"},
{"type":"VOR","hdg_t":318,"dist_nm":77.7,"freq":109.65,"lat":42.09416667,"lon":-77.02480556,"rng_nm":40,"alt_fmsl":1632,"id":"ULW","desc":"ELMIRA VOR-DME"},
{"type":"VOR","hdg_t":295.9,"dist_nm":77.9,"freq":108.6,"lat":41.69525000,"lon":-77.41991667,"rng_nm":40,"alt_fmsl":1985,"id":"SFK","desc":"STONYFORK VOR-DME"},
{"type":"NDB","hdg_t":343.8,"dist_nm":80.8,"freq":266,"lat":42.43005556,"lon":-76.36797222,"rng_nm":50,"alt_fmsl":0,"id":"IT","desc":"VRNAH NDB"},
{"type":"NDB","hdg_t":113.1,"dist_nm":81,"freq":241,"lat":40.59366700,"lon":-74.23000000,"rng_nm":25,"alt_fmsl":0,"id":"EW","desc":"CHESA NDB"},
{"type":"NDB","hdg_t":103.6,"dist_nm":81,"freq":214,"lat":40.80444444,"lon":-74.13250000,"rng_nm":50,"alt_fmsl":0,"id":"TE","desc":"TORBY NDB"},
{"type":"NDB","hdg_t":112.4,"dist_nm":81.2,"freq":373,"lat":40.60733300,"lon":-74.21797200,"rng_nm":25,"alt_fmsl":10,"id":"EZ","desc":"LIZAH NDB"},
{"type":"NDB","hdg_t":154.4,"dist_nm":81.9,"freq":222,"lat":39.90123100,"lon":-75.09486400,"rng_nm":25,"alt_fmsl":0,"id":"PD","desc":"SPEEZ NDB"},
{"type":"VOR","hdg_t":101.3,"dist_nm":83.5,"freq":108.4,"lat":40.84872222,"lon":-74.06225000,"rng_nm":25,"alt_fmsl":10,"id":"TEB","desc":"TETERBORO VOR-DME"},
{"type":"VOR","hdg_t":131.4,"dist_nm":83.8,"freq":113.8,"lat":40.20238889,"lon":-74.49502778,"rng_nm":130,"alt_fmsl":248,"id":"RBV","desc":"ROBBINSVILLE VORTAC"},
{"type":"VOR","hdg_t":19,"dist_nm":84.4,"freq":112.6,"lat":42.46636111,"lon":-75.23930556,"rng_nm":40,"alt_fmsl":2027,"id":"RKA","desc":"ROCKDALE VOR-DME"},
{"type":"NDB","hdg_t":73.4,"dist_nm":85.3,"freq":261,"lat":41.52800000,"lon":-74.04497222,"rng_nm":50,"alt_fmsl":0,"id":"SKU","desc":"STANWYCK NDB"},
{"type":"VOR","hdg_t":341.9,"dist_nm":85.7,"freq":111.8,"lat":42.49502778,"lon":-76.46000000,"rng_nm":40,"alt_fmsl":1102,"id":"ITH","desc":"ITHACA VOR-DME"},
{"type":"NDB","hdg_t":261.5,"dist_nm":86.4,"freq":388,"lat":40.91030556,"lon":-77.74175000,"rng_nm":50,"alt_fmsl":0,"id":"UN","desc":"PENUE NDB"},
{"type":"NDB","hdg_t":212.8,"dist_nm":86.5,"freq":254,"lat":39.92002778,"lon":-76.87755556,"rng_nm":50,"alt_fmsl":0,"id":"EUD","desc":"YORK NDB"},
{"type":"VOR","hdg_t":172.3,"dist_nm":88.2,"freq":114,"lat":39.67813889,"lon":-75.60708333,"rng_nm":40,"alt_fmsl":70,"id":"DQO","desc":"DUPONT VORTAC"},
{"type":"VOR","hdg_t":139,"dist_nm":88.9,"freq":110.6,"lat":40.00947222,"lon":-74.59650000,"rng_nm":40,"alt_fmsl":119,"id":"GXU","desc":"MC GUIRE VORTAC"},
{"type":"NDB","hdg_t":72.3,"dist_nm":89.6,"freq":403,"lat":41.57512800,"lon":-73.96484400,"rng_nm":25,"alt_fmsl":9,"id":"PO","desc":"MEIER NDB"},
{"type":"VOR","hdg_t":121.9,"dist_nm":92,"freq":115.4,"lat":40.31163889,"lon":-74.15972222,"rng_nm":40,"alt_fmsl":129,"id":"COL","desc":"COLTS NECK VOR-DME"},
{"type":"VOR","hdg_t":102.5,"dist_nm":93,"freq":113.1,"lat":40.78372222,"lon":-73.86861111,"rng_nm":40,"alt_fmsl":9,"id":"LGA","desc":"LA GUARDIA VOR-DME"},
{"type":"VOR","hdg_t":163.9,"dist_nm":93.5,"freq":112.8,"lat":39.63602778,"lon":-75.30302778,"rng_nm":40,"alt_fmsl":140,"id":"OOD","desc":"WOODSTOWN VORTAC"},
{"type":"NDB","hdg_t":172.9,"dist_nm":93.9,"freq":248,"lat":39.58122222,"lon":-75.61388889,"rng_nm":50,"alt_fmsl":0,"id":"IL","desc":"HADIN (LOM) NDB"},
{"type":"NDB","hdg_t":99.1,"dist_nm":94.8,"freq":385,"lat":40.86638889,"lon":-73.80355556,"rng_nm":50,"alt_fmsl":0,"id":"UR","desc":"ORCHY NDB"},
{"type":"VOR","hdg_t":108.7,"dist_nm":94.8,"freq":112.3,"lat":40.61247222,"lon":-73.89444444,"rng_nm":25,"alt_fmsl":10,"id":"CRI","desc":"CANARSIE VOR-DME"},
{"type":"NDB","hdg_t":24,"dist_nm":95.2,"freq":279,"lat":42.58466667,"lon":-74.98636111,"rng_nm":50,"alt_fmsl":0,"id":"OZ","desc":"KRING NDB"},
{"type":"SDME","hdg_t":133.2,"dist_nm":95.4,"freq":111.8,"lat":40.03696100,"lon":-74.35313700,"rng_nm":25,"alt_fmsl":144,"id":"NEL","desc":"LAKEHURST TACAN"},
{"type":"NDB","hdg_t":132.7,"dist_nm":95.6,"freq":396,"lat":40.04486111,"lon":-74.33547222,"rng_nm":50,"alt_fmsl":0,"id":"NEL","desc":"LAKEHURST NDB"},
{"type":"NDB","hdg_t":110,"dist_nm":96.3,"freq":414,"lat":40.56813889,"lon":-73.88297222,"rng_nm":50,"alt_fmsl":0,"id":"OGY","desc":"BRIDGE NDB"},
{"type":"NDB","hdg_t":186.7,"dist_nm":96.6,"freq":349,"lat":39.53586111,"lon":-76.10638889,"rng_nm":50,"alt_fmsl":0,"id":"APG","desc":"ABERDEEN NDB"},
{"type":"VOR","hdg_t":70.3,"dist_nm":97.3,"freq":117.6,"lat":41.66544444,"lon":-73.82222222,"rng_nm":40,"alt_fmsl":580,"id":"IGN","desc":"KINGSTON VOR-DME"},
{"type":"VOR","hdg_t":262.9,"dist_nm":97.6,"freq":115.5,"lat":40.91625000,"lon":-77.99272222,"rng_nm":130,"alt_fmsl":2440,"id":"PSB","desc":"PHILIPSBURG VORTAC"},
{"type":"VOR","hdg_t":283.9,"dist_nm":97.9,"freq":113.9,"lat":41.51275000,"lon":-77.97011111,"rng_nm":130,"alt_fmsl":2320,"id":"SLT","desc":"SLATE RUN VORTAC"},
{"type":"VOR","hdg_t":0.8,"dist_nm":99,"freq":117.8,"lat":42.78894444,"lon":-75.82675000,"rng_nm":40,"alt_fmsl":2040,"id":"GGT","desc":"GEORGETOWN VORTAC"},
{"type":"NDB","hdg_t":108.6,"dist_nm":99.4,"freq":373,"lat":40.58698600,"lon":-73.79965000,"rng_nm":25,"alt_fmsl":0,"id":"JF","desc":"CONDA NDB"},
{"type":"VOR","hdg_t":106.9,"dist_nm":99.7,"freq":115.9,"lat":40.63288889,"lon":-73.77138889,"rng_nm":130,"alt_fmsl":11,"id":"JFK","desc":"KENNEDY VOR-DME"}
]
}
