{"success":true,"source":"xp2csv.pl","last_updated":"2013/11/08 14:53:21 UTC"
,"icao":"PADM","name":"Marshall Don Hunter Sr","lat":61.8641775,"lon":-162.02611,"rwys":1,"ils":0,"index":288243,"path":"w170n60/w163n61"
,"runways":[
{"len_m":975,"wid_m":30.48,"hdg":84,"surf":"Gravel","rwy1":"07","lat1":61.86379400,"lon1":-162.03534200,"rwy2":"25","lat2":61.86456100,"lon2":-162.01687800}
]
,"radios":[
{"type":"CTAF","freq":122.9,"desc":"CTAF"}
]
,"navaids":[
{"type":"NDB","hdg_t":288.6,"dist_nm":37.7,"freq":230,"lat":62.05836111,"lon":-163.29161111,"rng_nm":50,"alt_fmsl":0,"id":"SMA","desc":"ST MARYS NDB"},
{"type":"NDB","hdg_t":176,"dist_nm":64.7,"freq":251,"lat":60.79130556,"lon":-161.87275000,"rng_nm":50,"alt_fmsl":0,"id":"OSE","desc":"OSCARVILLE NDB"},
{"type":"VOR","hdg_t":174.7,"dist_nm":65.2,"freq":114.1,"lat":60.78483333,"lon":-161.82433333,"rng_nm":130,"alt_fmsl":98,"id":"BET","desc":"BETHEL VORTAC"},
{"type":"NDB","hdg_t":46.9,"dist_nm":69.5,"freq":365,"lat":62.64141667,"lon":-160.19002778,"rng_nm":50,"alt_fmsl":0,"id":"ANV","desc":"ANVIK NDB"},
{"type":"NDB","hdg_t":102.3,"dist_nm":71.2,"freq":359,"lat":61.59016667,"lon":-159.59791667,"rng_nm":50,"alt_fmsl":0,"id":"ANI","desc":"ANIAK NDB"},
{"type":"VOR","hdg_t":309.8,"dist_nm":88.3,"freq":117.8,"lat":62.78458333,"lon":-164.48755556,"rng_nm":130,"alt_fmsl":11,"id":"ENM","desc":"EMMONAK VOR-DME"},
{"type":"NDB","hdg_t":269.4,"dist_nm":112.2,"freq":275,"lat":61.79058333,"lon":-165.96958333,"rng_nm":50,"alt_fmsl":0,"id":"CZF","desc":"CAPE ROMANZOF NDB"},
{"type":"SDME","hdg_t":269.2,"dist_nm":114.2,"freq":116.75,"lat":61.78033300,"lon":-166.03866700,"rng_nm":40,"alt_fmsl":457,"id":"CZF","desc":"CAPE ROMANZOF DME"},
{"type":"VOR","hdg_t":261.6,"dist_nm":119.2,"freq":115.2,"lat":61.51436111,"lon":-166.13450000,"rng_nm":130,"alt_fmsl":13,"id":"HPB","desc":"HOOPER BAY VOR-DME"},
{"type":"NDB","hdg_t":14.6,"dist_nm":127.4,"freq":382,"lat":63.90772222,"lon":-160.81194444,"rng_nm":50,"alt_fmsl":0,"id":"JNR","desc":"NORTH RIVER NDB"}
]
}
