{"success":true,"source":"xp2csv.pl","last_updated":"2013/11/08 14:53:21 UTC"
,"icao":"PAEN","name":"Kenai Muni","lat":60.57464575,"lon":-151.24148475,"rwys":2,"ils":1,"index":468387,"path":"w160n60/w152n60"
,"runways":[
{"len_m":2309,"wid_m":45.72,"hdg":31,"surf":"Asphalt","rwy1":"01L","lat1":60.56311100,"lon1":-151.25838900,"rwy2":"19R","lat2":60.58086400,"lon2":-151.23666700},
{"len_m":609,"wid_m":18.29,"hdg":31,"surf":"Gravel","rwy1":"01R","lat1":60.57496100,"lon1":-151.23831100,"rwy2":"19L","lat2":60.57964700,"lon2":-151.23257200}
]
,"radios":[
{"type":"ATIS","freq":120.3,"desc":"ATIS"},
{"type":"CTAF","freq":121.3,"desc":"CTAF"},
{"type":"GND","freq":121.9,"desc":"GND"},
{"type":"TWR","freq":121.3,"desc":"TWR"}
]
,"ils":[
{"type":"ILS","freq":108.9,"lat":60.56116700,"lon":-151.26076700,"rng_nm":18,"alt_fmsl":89,"hdg":211.00,"id":"IENA","rwy":"19R","desc":"ILS-cat-I"},
{"type":"GS","freq":108.9,"lat":60.57915800,"lon":-151.24135300,"rng_nm":10,"alt_fmsl":97,"id":"IENA","rwy":"19R","desc":"GS","gs":3},
{"type":"MM","freq":0,"lat":60.58806900,"lon":-151.22789700,"rng_nm":0,"alt_fmsl":89,"id":"----","rwy":"19R","desc":"MM"}
]
,"navaids":[
{"type":"NDB","hdg_t":31.7,"dist_nm":1.7,"freq":379,"lat":60.59866667,"lon":-151.21119444,"rng_nm":50,"alt_fmsl":0,"id":"IWW","desc":"WILDWOOD NDB"},
{"type":"VOR","hdg_t":29.5,"dist_nm":2.7,"freq":117.6,"lat":60.61469444,"lon":-151.19525000,"rng_nm":130,"alt_fmsl":114,"id":"ENA","desc":"KENAI VOR-DME"},
{"type":"NDB","hdg_t":118.9,"dist_nm":12.3,"freq":346,"lat":60.47497222,"lon":-150.87888889,"rng_nm":50,"alt_fmsl":0,"id":"OLT","desc":"SOLDOTNA NDB"},
{"type":"NDB","hdg_t":353.3,"dist_nm":23.4,"freq":356,"lat":60.96138889,"lon":-151.33391667,"rng_nm":50,"alt_fmsl":0,"id":"GRP","desc":"GRANITE POINT NDB"},
{"type":"NDB","hdg_t":272.8,"dist_nm":26.6,"freq":368,"lat":60.59386111,"lon":-152.14252778,"rng_nm":50,"alt_fmsl":0,"id":"DRF","desc":"DRIFT RIVER NDB"},
{"type":"NDB","hdg_t":40.7,"dist_nm":47.4,"freq":387,"lat":61.16761111,"lon":-150.17727778,"rng_nm":50,"alt_fmsl":0,"id":"BOB","desc":"BRUCK NDB"},
{"type":"NDB","hdg_t":43.7,"dist_nm":50.1,"freq":338,"lat":61.17102778,"lon":-150.04766667,"rng_nm":50,"alt_fmsl":0,"id":"CMQ","desc":"CAMPBELL LAKE NDB"},
{"type":"VOR","hdg_t":45.9,"dist_nm":51.8,"freq":113.15,"lat":61.16786560,"lon":-149.96014330,"rng_nm":130,"alt_fmsl":283,"id":"TED","desc":"ANCHORAGE VOR-DME"},
{"type":"SDME","hdg_t":46.2,"dist_nm":52.2,"freq":111.3,"lat":61.16981900,"lon":-149.94239800,"rng_nm":90,"alt_fmsl":140,"id":"MTGN","desc":"Anchorage MLS 6L DME"},
{"type":"VOR","hdg_t":187.1,"dist_nm":52.4,"freq":114.6,"lat":59.70941667,"lon":-151.45661111,"rng_nm":130,"alt_fmsl":1626,"id":"HOM","desc":"HOMER VOR-DME"},
{"type":"NDB","hdg_t":187.9,"dist_nm":56.6,"freq":277,"lat":59.64133333,"lon":-151.50027778,"rng_nm":50,"alt_fmsl":0,"id":"ACE","desc":"KACHEMAK NDB"},
{"type":"SDME","hdg_t":45.8,"dist_nm":59.4,"freq":113.4,"lat":61.25500600,"lon":-149.76915000,"rng_nm":130,"alt_fmsl":360,"id":"EDF","desc":"ELMENDORF TACAN"},
{"type":"VOR","hdg_t":31.2,"dist_nm":70.4,"freq":112.5,"lat":61.56944444,"lon":-149.96713889,"rng_nm":130,"alt_fmsl":160,"id":"BGQ","desc":"BIG LAKE VORTAC"}
]
}
