{"success":true,"source":"xp2csv.pl","last_updated":"2013/11/08 14:53:21 UTC"
,"icao":"PAHM","name":"Minchumina","lat":63.885997,"lon":-152.3018735,"rwys":1,"ils":0,"index":452217,"path":"w160n60/w153n63"
,"runways":[
{"len_m":1280,"wid_m":30.48,"hdg":44,"surf":"Gravel","rwy1":"02","lat1":63.88193600,"lon1":-152.31108300,"rwy2":"20","lat2":63.89005800,"lon2":-152.29266400}
]
,"radios":[
{"type":"ATIS","freq":135.55,"desc":"AWOS 3"},
{"type":"CTAF","freq":122.9,"desc":"CTAF"},
{"type":"APP","freq":120.9,"desc":"ANCHORAGE CNTR"}
]
,"navaids":[
{"type":"NDB","hdg_t":251.8,"dist_nm":0.4,"freq":227,"lat":63.88388889,"lon":-152.31650000,"rng_nm":50,"alt_fmsl":0,"id":"MHM","desc":"MINCHUMINA NDB"},
{"type":"NDB","hdg_t":1.7,"dist_nm":77.5,"freq":212,"lat":65.17388889,"lon":-152.20594444,"rng_nm":50,"alt_fmsl":0,"id":"BCC","desc":"BEAR CREEK NDB"},
{"type":"VOR","hdg_t":2.3,"dist_nm":77.7,"freq":116.6,"lat":65.17713889,"lon":-152.17755556,"rng_nm":130,"alt_fmsl":390,"id":"TAL","desc":"TANANA VOR-DME"},
{"type":"NDB","hdg_t":110.7,"dist_nm":91.7,"freq":326,"lat":63.31130556,"lon":-149.13066667,"rng_nm":50,"alt_fmsl":0,"id":"UMM","desc":"SUMMIT NDB"},
{"type":"NDB","hdg_t":63.3,"dist_nm":93.3,"freq":525,"lat":64.54569444,"lon":-149.07688889,"rng_nm":50,"alt_fmsl":0,"id":"ICW","desc":"ICE POOL NDB"},
{"type":"VOR","hdg_t":61.9,"dist_nm":94.5,"freq":115.8,"lat":64.59000000,"lon":-149.07286111,"rng_nm":130,"alt_fmsl":1600,"id":"ENN","desc":"NENANA VORTAC"},
{"type":"NDB","hdg_t":238.6,"dist_nm":104.4,"freq":350,"lat":62.94683333,"lon":-155.55725000,"rng_nm":50,"alt_fmsl":0,"id":"VTR","desc":"TAKOTNA RIVER NDB"},
{"type":"VOR","hdg_t":239.2,"dist_nm":105.4,"freq":115.5,"lat":62.95102778,"lon":-155.61138889,"rng_nm":130,"alt_fmsl":350,"id":"MCG","desc":"MC GRATH VORTAC"},
{"type":"NDB","hdg_t":146.2,"dist_nm":111.2,"freq":305,"lat":62.33116667,"lon":-150.09641667,"rng_nm":50,"alt_fmsl":0,"id":"PEE","desc":"PETERS CREEK NDB"},
{"type":"VOR","hdg_t":146.9,"dist_nm":112.7,"freq":116.2,"lat":62.29866667,"lon":-150.10558333,"rng_nm":130,"alt_fmsl":360,"id":"TKA","desc":"TALKEETNA VOR-DME"}
]
}
