{"success":true,"source":"xp2csv.pl","last_updated":"2013/11/08 14:53:21 UTC"
,"icao":"PAKH","name":"Akhiok","lat":56.93920222,"lon":-154.183135,"rwys":1,"ils":0,"index":419003,"path":"w160n50/w155n56"
,"runways":[
{"len_m":936,"wid_m":18.29,"hdg":61,"surf":"Gravel","rwy1":"04","lat1":56.93716759,"lon1":-154.18986346,"rwy2":"22","lat2":56.94123685,"lon2":-154.17640654}
]
,"navaids":[
{"type":"VOR","hdg_t":49.2,"dist_nm":78.1,"freq":117.1,"lat":57.77502778,"lon":-152.33977778,"rng_nm":130,"alt_fmsl":130,"id":"ODK","desc":"KODIAK VOR-DME"},
{"type":"NDB","hdg_t":49.4,"dist_nm":78.5,"freq":394,"lat":57.77447222,"lon":-152.32313889,"rng_nm":50,"alt_fmsl":0,"id":"RWO","desc":"WOODY ISLAND NDB"},
{"type":"NDB","hdg_t":340.6,"dist_nm":132.9,"freq":334,"lat":59.01772222,"lon":-155.60038889,"rng_nm":50,"alt_fmsl":0,"id":"HCP","desc":"KULIK LAKE NDB"},
{"type":"VOR","hdg_t":323.5,"dist_nm":135.3,"freq":112.8,"lat":58.72472222,"lon":-156.75233333,"rng_nm":130,"alt_fmsl":95,"id":"AKN","desc":"KING SALMON VORTAC"},
{"type":"NDB","hdg_t":323.5,"dist_nm":136.4,"freq":355,"lat":58.73716667,"lon":-156.77830556,"rng_nm":50,"alt_fmsl":0,"id":"AUB","desc":"CHINOOK NDB"},
{"type":"NDB","hdg_t":323.5,"dist_nm":136.4,"freq":355,"lat":58.73716700,"lon":-156.77830800,"rng_nm":50,"alt_fmsl":0,"id":"AK","desc":"SALDO NDB"},
{"type":"NDB","hdg_t":272.2,"dist_nm":146.6,"freq":371,"lat":56.95427778,"lon":-158.64755556,"rng_nm":50,"alt_fmsl":0,"id":"PDN","desc":"PORT HEIDEN NDB"},
{"type":"NDB","hdg_t":352.5,"dist_nm":170.4,"freq":411,"lat":59.74808333,"lon":-154.90963889,"rng_nm":50,"alt_fmsl":0,"id":"ILI","desc":"ILIAMNA NDB"},
{"type":"NDB","hdg_t":26.4,"dist_nm":183.3,"freq":277,"lat":59.64133333,"lon":-151.50027778,"rng_nm":50,"alt_fmsl":0,"id":"ACE","desc":"KACHEMAK NDB"},
{"type":"VOR","hdg_t":313.3,"dist_nm":186.4,"freq":116.4,"lat":58.99422222,"lon":-158.55222222,"rng_nm":130,"alt_fmsl":81,"id":"DLG","desc":"DILLINGHAM VOR-DME"}
]
}
