{"success":true,"source":"xp2csv.pl","last_updated":"2013/11/08 14:53:21 UTC"
,"icao":"PALN","name":"Lonely As","lat":70.91074527,"lon":-153.242215,"rwys":1,"ils":0,"index":436281,"path":"w160n70/w154n70"
,"runways":[
{"len_m":1531,"wid_m":30.48,"hdg":97,"surf":"Gravel","rwy1":"07","lat1":70.91169964,"lon1":-153.26297913,"rwy2":"25","lat2":70.90979090,"lon2":-153.22145087}
]
,"navaids":[
{"type":"NDB","hdg_t":132,"dist_nm":61.5,"freq":241,"lat":70.21216667,"lon":-151.00083333,"rng_nm":50,"alt_fmsl":0,"id":"UQS","desc":"NUIQSUT VILLAGE NDB"},
{"type":"VOR","hdg_t":289.1,"dist_nm":72.6,"freq":116.2,"lat":71.27341667,"lon":-156.78811111,"rng_nm":130,"alt_fmsl":60,"id":"BRW","desc":"BARROW VOR-DME"},
{"type":"NDB","hdg_t":289.6,"dist_nm":72.6,"freq":281,"lat":71.28230556,"lon":-156.78127778,"rng_nm":50,"alt_fmsl":0,"id":"VIR","desc":"BROWERVILLE NDB"},
{"type":"NDB","hdg_t":114.2,"dist_nm":80.2,"freq":290,"lat":70.32802778,"lon":-149.63533333,"rng_nm":50,"alt_fmsl":0,"id":"PYC","desc":"PITSAND NDB"},
{"type":"NDB","hdg_t":254.2,"dist_nm":87.5,"freq":350,"lat":70.46905556,"lon":-157.42750000,"rng_nm":50,"alt_fmsl":0,"id":"ATK","desc":"ATQASUK NDB"},
{"type":"NDB","hdg_t":110.8,"dist_nm":105.2,"freq":376,"lat":70.22266667,"lon":-148.41619444,"rng_nm":50,"alt_fmsl":0,"id":"PVQ","desc":"PUT RIVER NDB"},
{"type":"VOR","hdg_t":111.5,"dist_nm":105.8,"freq":113.9,"lat":70.19919444,"lon":-148.41616667,"rng_nm":130,"alt_fmsl":76,"id":"SCC","desc":"DEADHORSE VOR-DME"},
{"type":"NDB","hdg_t":180.7,"dist_nm":124.7,"freq":268,"lat":68.84013889,"lon":-153.31600000,"rng_nm":50,"alt_fmsl":0,"id":"ACU","desc":"EAST KUPURA NDB"},
{"type":"NDB","hdg_t":266.2,"dist_nm":135.2,"freq":338,"lat":70.63761111,"lon":-160.00941667,"rng_nm":50,"alt_fmsl":0,"id":"UKK","desc":"WAINWRIGHT VILLAG NDB"},
{"type":"NDB","hdg_t":150.1,"dist_nm":166,"freq":417,"lat":68.47902778,"lon":-149.49847222,"rng_nm":50,"alt_fmsl":0,"id":"GBH","desc":"GALBRAITH LAKE NDB"}
]
}
