{"success":true,"source":"xp2csv.pl","last_updated":"2013/11/08 14:53:21 UTC"
,"icao":"PAPH","name":"Port Heiden","lat":56.95909075,"lon":-158.634728,"rwys":2,"ils":0,"index":353465,"path":"w160n50/w159n56"
,"runways":[
{"len_m":1524,"wid_m":30.48,"hdg":70,"surf":"Gravel","rwy1":"05","lat1":56.95688300,"lon1":-158.63423600,"rwy2":"23","lat2":56.96148300,"lon2":-158.61064200},
{"len_m":1219,"wid_m":30.48,"hdg":147,"surf":"Gravel","rwy1":"13","lat1":56.96361400,"lon1":-158.65240600,"rwy2":"31","lat2":56.95438300,"lon2":-158.64162800}
]
,"radios":[
{"type":"ATIS","freq":135.4,"desc":"AWOS 3"},
{"type":"CTAF","freq":122.8,"desc":"CTAF"}
]
,"navaids":[
{"type":"NDB","hdg_t":235.5,"dist_nm":0.5,"freq":371,"lat":56.95427778,"lon":-158.64755556,"rng_nm":50,"alt_fmsl":0,"id":"PDN","desc":"PORT HEIDEN NDB"},
{"type":"NDB","hdg_t":213.4,"dist_nm":117.2,"freq":390,"lat":55.31566667,"lon":-160.51844444,"rng_nm":50,"alt_fmsl":0,"id":"HBT","desc":"BORLAND NDB"},
{"type":"VOR","hdg_t":28.8,"dist_nm":122.1,"freq":112.8,"lat":58.72472222,"lon":-156.75233333,"rng_nm":130,"alt_fmsl":95,"id":"AKN","desc":"KING SALMON VORTAC"},
{"type":"NDB","hdg_t":28.3,"dist_nm":122.3,"freq":355,"lat":58.73716700,"lon":-156.77830800,"rng_nm":50,"alt_fmsl":0,"id":"AK","desc":"SALDO NDB"},
{"type":"NDB","hdg_t":28.3,"dist_nm":122.3,"freq":355,"lat":58.73716667,"lon":-156.77830556,"rng_nm":50,"alt_fmsl":0,"id":"AUB","desc":"CHINOOK NDB"},
{"type":"VOR","hdg_t":1.1,"dist_nm":122.4,"freq":116.4,"lat":58.99422222,"lon":-158.55222222,"rng_nm":130,"alt_fmsl":81,"id":"DLG","desc":"DILLINGHAM VOR-DME"},
{"type":"NDB","hdg_t":1.2,"dist_nm":122.7,"freq":429,"lat":58.99961111,"lon":-158.54830556,"rng_nm":50,"alt_fmsl":0,"id":"BTS","desc":"WOOD RIVER NDB"},
{"type":"NDB","hdg_t":337,"dist_nm":138.2,"freq":393,"lat":59.06408333,"lon":-160.37408333,"rng_nm":50,"alt_fmsl":0,"id":"TOG","desc":"TOGIAK NDB"},
{"type":"NDB","hdg_t":314.2,"dist_nm":150.2,"freq":385,"lat":58.65677778,"lon":-162.07144444,"rng_nm":50,"alt_fmsl":0,"id":"EHM","desc":"CAPE NEWENHAM NDB"},
{"type":"NDB","hdg_t":36.7,"dist_nm":157.1,"freq":334,"lat":59.01772222,"lon":-155.60038889,"rng_nm":50,"alt_fmsl":0,"id":"HCP","desc":"KULIK LAKE NDB"}
]
}
