{"success":true,"source":"xp2csv.pl","last_updated":"2013/11/08 14:53:21 UTC"
,"icao":"PASH","name":"Shishmaref","lat":66.249567,"lon":-166.089346,"rwys":1,"ils":0,"index":222985,"path":"w170n60/w167n66"
,"runways":[
{"len_m":1524,"wid_m":21.34,"hdg":63,"surf":"Asphalt","rwy1":"05","lat1":66.24651700,"lon1":-166.10451400,"rwy2":"23","lat2":66.25261700,"lon2":-166.07417800}
]
,"radios":[
{"type":"ATIS","freq":121.1,"desc":"AWOS 3"},
{"type":"CTAF","freq":123,"desc":"CTAF"}
]
,"navaids":[
{"type":"NDB","hdg_t":59.9,"dist_nm":1,"freq":365,"lat":66.25816667,"lon":-166.05250000,"rng_nm":50,"alt_fmsl":0,"id":"SHH","desc":"SHISHMAREF NDB"},
{"type":"NDB","hdg_t":228.3,"dist_nm":61.2,"freq":347,"lat":65.56202778,"lon":-167.92413889,"rng_nm":50,"alt_fmsl":0,"id":"TNC","desc":"TIN CITY NDB"},
{"type":"NDB","hdg_t":63.4,"dist_nm":93.1,"freq":356,"lat":66.90125000,"lon":-162.56436111,"rng_nm":50,"alt_fmsl":0,"id":"HHM","desc":"HOTHAM NDB"},
{"type":"VOR","hdg_t":64.1,"dist_nm":93.2,"freq":115.7,"lat":66.88569444,"lon":-162.53994444,"rng_nm":130,"alt_fmsl":120,"id":"OTZ","desc":"KOTZEBUE VOR-DME"},
{"type":"NDB","hdg_t":170.7,"dist_nm":105.8,"freq":208,"lat":64.51283333,"lon":-165.43341667,"rng_nm":50,"alt_fmsl":0,"id":"OYN","desc":"GOLD NDB"},
{"type":"NDB","hdg_t":169.2,"dist_nm":107.4,"freq":529,"lat":64.49458333,"lon":-165.31400000,"rng_nm":50,"alt_fmsl":0,"id":"FDV","desc":"FORT DAVIS NDB"},
{"type":"VOR","hdg_t":168.4,"dist_nm":108.2,"freq":115,"lat":64.48511111,"lon":-165.25316667,"rng_nm":130,"alt_fmsl":100,"id":"OME","desc":"NOME VOR-DME"},
{"type":"NDB","hdg_t":41.3,"dist_nm":108.4,"freq":414,"lat":67.57186111,"lon":-162.97377778,"rng_nm":50,"alt_fmsl":0,"id":"OQK","desc":"NOATAK NDB"},
{"type":"NDB","hdg_t":95.4,"dist_nm":121.6,"freq":325,"lat":65.97980556,"lon":-161.14938889,"rng_nm":50,"alt_fmsl":0,"id":"BVK","desc":"BUCKLAND NDB"},
{"type":"NDB","hdg_t":352.8,"dist_nm":127.2,"freq":221,"lat":68.34463889,"lon":-166.79825000,"rng_nm":50,"alt_fmsl":0,"id":"PHO","desc":"POINT HOPE NDB"}
]
}
