{"success":true,"source":"xp2csv.pl","last_updated":"2013/11/08 14:53:21 UTC"
,"icao":"PAWM","name":"White Mountain","lat":64.68919444,"lon":-163.41255556,"rwys":1,"ils":0,"index":272041,"path":"w170n60/w164n64"
,"runways":[
{"len_m":917,"wid_m":18.29,"hdg":167,"surf":"Gravel","rwy1":"15","lat1":64.69321900,"lon1":-163.41455647,"rwy2":"33","lat2":64.68516988,"lon2":-163.41055465}
]
,"navaids":[
{"type":"VOR","hdg_t":88.6,"dist_nm":34.5,"freq":116.3,"lat":64.69652778,"lon":-162.07127778,"rng_nm":40,"alt_fmsl":15,"id":"MOS","desc":"MOSES POINT VOR-DME"},
{"type":"NDB","hdg_t":88.7,"dist_nm":34.7,"freq":263,"lat":64.69552778,"lon":-162.06372222,"rng_nm":50,"alt_fmsl":0,"id":"OAY","desc":"NORTON BAY NDB"},
{"type":"VOR","hdg_t":256.3,"dist_nm":49.1,"freq":115,"lat":64.48511111,"lon":-165.25316667,"rng_nm":130,"alt_fmsl":100,"id":"OME","desc":"NOME VOR-DME"},
{"type":"NDB","hdg_t":257.4,"dist_nm":50.5,"freq":529,"lat":64.49458333,"lon":-165.31400000,"rng_nm":50,"alt_fmsl":0,"id":"FDV","desc":"FORT DAVIS NDB"},
{"type":"NDB","hdg_t":259.4,"dist_nm":53.3,"freq":208,"lat":64.51283333,"lon":-165.43341667,"rng_nm":50,"alt_fmsl":0,"id":"OYN","desc":"GOLD NDB"},
{"type":"NDB","hdg_t":74.5,"dist_nm":59.7,"freq":299,"lat":64.93641667,"lon":-161.15513889,"rng_nm":50,"alt_fmsl":0,"id":"KKA","desc":"KOYUK NDB"},
{"type":"NDB","hdg_t":123.5,"dist_nm":82.6,"freq":382,"lat":63.90772222,"lon":-160.81194444,"rng_nm":50,"alt_fmsl":0,"id":"JNR","desc":"NORTH RIVER NDB"},
{"type":"VOR","hdg_t":122.6,"dist_nm":85.9,"freq":116.9,"lat":63.89194444,"lon":-160.68433333,"rng_nm":130,"alt_fmsl":430,"id":"UNK","desc":"UNALAKLEET VOR-DME"},
{"type":"NDB","hdg_t":35.2,"dist_nm":96.3,"freq":325,"lat":65.97980556,"lon":-161.14938889,"rng_nm":50,"alt_fmsl":0,"id":"BVK","desc":"BUCKLAND NDB"},
{"type":"NDB","hdg_t":326.2,"dist_nm":115.2,"freq":365,"lat":66.25816667,"lon":-166.05250000,"rng_nm":50,"alt_fmsl":0,"id":"SHH","desc":"SHISHMAREF NDB"}
]
}
