{"success":true,"source":"xp2csv.pl","last_updated":"2013/11/08 14:53:21 UTC"
,"icao":"PFTO","name":"Tok Junction","lat":63.3295135,"lon":-142.953683,"rwys":1,"ils":0,"index":616016,"path":"w150n60/w143n63"
,"runways":[
{"len_m":764,"wid_m":15.24,"hdg":99,"surf":"Asphalt","rwy1":"07","lat1":63.33005800,"lon1":-142.96121900,"rwy2":"25","lat2":63.32896900,"lon2":-142.94614700}
]
,"radios":[
{"type":"CTAF","freq":122.8,"desc":"CTAF/UNICOM"},
{"type":"APP","freq":126.55,"desc":"ANCHORAGE CNTR"}
]
,"navaids":[
{"type":"NDB","hdg_t":126.5,"dist_nm":36.3,"freq":390,"lat":62.96577778,"lon":-141.88830556,"rng_nm":50,"alt_fmsl":0,"id":"AES","desc":"NABESNA NDB"},
{"type":"VOR","hdg_t":128.6,"dist_nm":36.5,"freq":116.3,"lat":62.94716667,"lon":-141.91275000,"rng_nm":130,"alt_fmsl":1780,"id":"ORT","desc":"NORTHWAY VORTAC"},
{"type":"NDB","hdg_t":133,"dist_nm":79.8,"freq":239,"lat":62.40888889,"lon":-140.86166667,"rng_nm":50,"alt_fmsl":0,"id":"YXQ","desc":"BEAVER CREEK NDB"},
{"type":"NDB","hdg_t":300.9,"dist_nm":84.1,"freq":347,"lat":64.02350000,"lon":-145.68677778,"rng_nm":50,"alt_fmsl":0,"id":"DJN","desc":"DELTA JUNCTION NDB"},
{"type":"VOR","hdg_t":300,"dist_nm":84.3,"freq":114.9,"lat":64.00438889,"lon":-145.71716667,"rng_nm":130,"alt_fmsl":1230,"id":"BIG","desc":"BIG DELTA VORTAC"},
{"type":"NDB","hdg_t":226.5,"dist_nm":97.2,"freq":248,"lat":62.19555556,"lon":-145.46772222,"rng_nm":50,"alt_fmsl":0,"id":"GLA","desc":"GLENNALLEN NDB"},
{"type":"VOR","hdg_t":225.3,"dist_nm":98.7,"freq":115.6,"lat":62.15375000,"lon":-145.44736111,"rng_nm":130,"alt_fmsl":1549,"id":"GKN","desc":"GULKANA VOR-DME"},
{"type":"NDB","hdg_t":65.7,"dist_nm":109.5,"freq":214,"lat":64.02888889,"lon":-139.16805556,"rng_nm":50,"alt_fmsl":0,"id":"DA","desc":"DAWSON CITY NDB"},
{"type":"SDME","hdg_t":307.9,"dist_nm":135.3,"freq":115.1,"lat":64.65383300,"lon":-147.09400000,"rng_nm":130,"alt_fmsl":528,"id":"EIL","desc":"EIELSON TACAN"},
{"type":"NDB","hdg_t":309.2,"dist_nm":150.1,"freq":257,"lat":64.83858333,"lon":-147.49508333,"rng_nm":50,"alt_fmsl":0,"id":"CUN","desc":"CHENA NDB"}
]
}
