{"success":true,"source":"xp2csv.pl","last_updated":"2013/11/08 14:53:21 UTC"
,"icao":"PHMU","name":"Waimea Kohala","lat":20.0013265,"lon":-155.6681065,"rwys":1,"ils":0,"index":400258,"path":"w160n20/w156n20"
,"runways":[
{"len_m":1583,"wid_m":30.48,"hdg":51,"surf":"Asphalt","rwy1":"04","lat1":19.99692200,"lon1":-155.67406900,"rwy2":"22","lat2":20.00573100,"lon2":-155.66214400}
]
,"radios":[
{"type":"CTAF","freq":122.9,"desc":"CTAF"}
]
,"navaids":[
{"type":"VOR","hdg_t":206.8,"dist_nm":0.2,"freq":113.3,"lat":19.99805556,"lon":-155.66986111,"rng_nm":130,"alt_fmsl":2670,"id":"MUE","desc":"KAMUELA VOR-DME"},
{"type":"NDB","hdg_t":163.6,"dist_nm":14.8,"freq":339,"lat":19.76336111,"lon":-155.59436111,"rng_nm":50,"alt_fmsl":0,"id":"BSF","desc":"BRADSHAW NDB"},
{"type":"VOR","hdg_t":320.3,"dist_nm":15.4,"freq":112.3,"lat":20.20052778,"lon":-155.84327778,"rng_nm":130,"alt_fmsl":1760,"id":"UPP","desc":"UPOLU POINT VORTAC"},
{"type":"VOR","hdg_t":231.5,"dist_nm":27.2,"freq":112.1,"lat":19.71725000,"lon":-156.04491667,"rng_nm":130,"alt_fmsl":36,"id":"KOA","desc":"KONA VORTAC"},
{"type":"VOR","hdg_t":114.1,"dist_nm":40.7,"freq":116.9,"lat":19.72136111,"lon":-155.01094444,"rng_nm":130,"alt_fmsl":23,"id":"ITO","desc":"HILO VORTAC"},
{"type":"NDB","hdg_t":124.8,"dist_nm":48,"freq":332,"lat":19.54113889,"lon":-154.97222222,"rng_nm":50,"alt_fmsl":0,"id":"POA","desc":"PAHOA NDB"},
{"type":"NDB","hdg_t":320.4,"dist_nm":68.3,"freq":327,"lat":20.88077778,"lon":-156.44263889,"rng_nm":50,"alt_fmsl":0,"id":"VYI","desc":"VALLEY ISLAND NDB"},
{"type":"VOR","hdg_t":322,"dist_nm":68.7,"freq":115.1,"lat":20.90644444,"lon":-156.42097222,"rng_nm":130,"alt_fmsl":30,"id":"OGG","desc":"MAUI VORTAC"},
{"type":"VOR","hdg_t":302.1,"dist_nm":86.3,"freq":117.7,"lat":20.76450000,"lon":-156.96888889,"rng_nm":130,"alt_fmsl":1250,"id":"LNY","desc":"LANAI VORTAC"},
{"type":"NDB","hdg_t":302.2,"dist_nm":86.8,"freq":353,"lat":20.77244444,"lon":-156.97341667,"rng_nm":75,"alt_fmsl":0,"id":"LLD","desc":"LANAI NDB"}
]
}
