{"success":true,"source":"xp2csv.pl","last_updated":"2013/11/08 14:53:21 UTC"
,"icao":"PN01","name":"Cedar Run","lat":40.58812277,"lon":-79.90588612,"rwys":1,"ils":0,"index":1646752,"path":"w080n40/w080n40"
,"runways":[
{"len_m":548,"wid_m":15.24,"hdg":171,"surf":"Turf/grass","rwy1":"18","lat1":40.59056743,"lon1":-79.90633854,"rwy2":"36","lat2":40.58567811,"lon2":-79.90543370}
]
,"navaids":[
{"type":"VOR","hdg_t":245.6,"dist_nm":14.4,"freq":112,"lat":40.48813889,"lon":-80.19386111,"rng_nm":40,"alt_fmsl":1200,"id":"MMJ","desc":"MONTOUR VORTAC"},
{"type":"NDB","hdg_t":157.6,"dist_nm":15,"freq":287,"lat":40.35530556,"lon":-79.78100000,"rng_nm":50,"alt_fmsl":0,"id":"MKP","desc":"MC KEESPORT NDB"},
{"type":"VOR","hdg_t":198.4,"dist_nm":19.5,"freq":110,"lat":40.27866667,"lon":-80.04086111,"rng_nm":40,"alt_fmsl":1289,"id":"AGC","desc":"ALLEGHENY VOR-DME"},
{"type":"VOR","hdg_t":315.6,"dist_nm":19.9,"freq":115.8,"lat":40.82494444,"lon":-80.21155556,"rng_nm":130,"alt_fmsl":1227,"id":"EWC","desc":"ELLWOOD CITY VORTAC"},
{"type":"NDB","hdg_t":113.5,"dist_nm":31.7,"freq":382,"lat":40.37544444,"lon":-79.27172222,"rng_nm":50,"alt_fmsl":0,"id":"BHU","desc":"BENJE NDB"},
{"type":"NDB","hdg_t":318.4,"dist_nm":34.9,"freq":272,"lat":41.02300000,"lon":-80.41583333,"rng_nm":50,"alt_fmsl":0,"id":"UCP","desc":"CASTLE NDB"},
{"type":"VOR","hdg_t":237.2,"dist_nm":36.1,"freq":112.2,"lat":40.25988889,"lon":-80.56861111,"rng_nm":40,"alt_fmsl":1269,"id":"HLG","desc":"WHEELING VOR-DME"},
{"type":"NDB","hdg_t":85.8,"dist_nm":38.4,"freq":242,"lat":40.63191667,"lon":-79.06591667,"rng_nm":50,"alt_fmsl":0,"id":"INP","desc":"INDIANA NDB"},
{"type":"VOR","hdg_t":31.2,"dist_nm":39.1,"freq":112.9,"lat":41.14630556,"lon":-79.45797222,"rng_nm":40,"alt_fmsl":1520,"id":"CIP","desc":"CLARION VOR-DME"},
{"type":"NDB","hdg_t":170,"dist_nm":42.9,"freq":299,"lat":39.88277778,"lon":-79.74472222,"rng_nm":50,"alt_fmsl":0,"id":"VV","desc":"CAMOR NDB"},
{"type":"NDB","hdg_t":320.1,"dist_nm":44.2,"freq":408,"lat":41.15288889,"lon":-80.53144444,"rng_nm":50,"alt_fmsl":0,"id":"HBD","desc":"HUBBARD NDB"},
{"type":"VOR","hdg_t":145.4,"dist_nm":44.5,"freq":108.2,"lat":39.97425000,"lon":-79.35836111,"rng_nm":40,"alt_fmsl":2820,"id":"IHD","desc":"INDIAN HEAD VORTAC"},
{"type":"NDB","hdg_t":231.6,"dist_nm":45.9,"freq":212,"lat":40.10963889,"lon":-80.68869444,"rng_nm":50,"alt_fmsl":0,"id":"HL","desc":"DORCH (OM) NDB"},
{"type":"NDB","hdg_t":319.6,"dist_nm":48.3,"freq":338,"lat":41.20052778,"lon":-80.59613889,"rng_nm":50,"alt_fmsl":0,"id":"YN","desc":"FETCH NDB"},
{"type":"VOR","hdg_t":2.4,"dist_nm":51,"freq":109.6,"lat":41.43861111,"lon":-79.85677778,"rng_nm":40,"alt_fmsl":0,"id":"FKL","desc":"FRANKLIN VOR"},
{"type":"VOR","hdg_t":107.9,"dist_nm":51.7,"freq":113,"lat":40.31672222,"lon":-78.83416667,"rng_nm":40,"alt_fmsl":2280,"id":"JST","desc":"JOHNSTOWN VORTAC"},
{"type":"VOR","hdg_t":92.3,"dist_nm":53,"freq":110.6,"lat":40.54647222,"lon":-78.74702778,"rng_nm":40,"alt_fmsl":2340,"id":"REC","desc":"REVLOC VOR-DME"},
{"type":"NDB","hdg_t":268.7,"dist_nm":53.5,"freq":395,"lat":40.56263300,"lon":-81.07759700,"rng_nm":25,"alt_fmsl":1184,"id":"TSO","desc":"TOLSON NDB"},
{"type":"VOR","hdg_t":230.9,"dist_nm":54,"freq":117.1,"lat":40.01702778,"lon":-80.81725000,"rng_nm":130,"alt_fmsl":1290,"id":"AIR","desc":"BELLAIRE VOR-DME"},
{"type":"NDB","hdg_t":123.2,"dist_nm":54.4,"freq":209,"lat":40.08569444,"lon":-78.91655556,"rng_nm":50,"alt_fmsl":0,"id":"SYS","desc":"STOYSTOWN NDB"},
{"type":"NDB","hdg_t":247.8,"dist_nm":54.9,"freq":239,"lat":40.23672222,"lon":-81.01313889,"rng_nm":50,"alt_fmsl":0,"id":"CFX","desc":"CADIZ NDB"},
{"type":"VOR","hdg_t":322.1,"dist_nm":56.6,"freq":109,"lat":41.33102778,"lon":-80.67466667,"rng_nm":40,"alt_fmsl":1160,"id":"YNG","desc":"YOUNGSTOWN VORTAC"},
{"type":"VOR","hdg_t":178,"dist_nm":61.8,"freq":111.6,"lat":39.55669444,"lon":-79.86038889,"rng_nm":40,"alt_fmsl":2339,"id":"MGW","desc":"MORGANTOWN VORTAC"},
{"type":"VOR","hdg_t":298.2,"dist_nm":66.7,"freq":114.4,"lat":41.10788889,"lon":-81.20152778,"rng_nm":40,"alt_fmsl":1193,"id":"ACO","desc":"AKRON VOR-DME"},
{"type":"VOR","hdg_t":145.1,"dist_nm":69.3,"freq":112.3,"lat":39.63502778,"lon":-79.05052778,"rng_nm":40,"alt_fmsl":2640,"id":"GRV","desc":"GRANTSVILLE VOR-DME"},
{"type":"VOR","hdg_t":277.9,"dist_nm":70.2,"freq":112.4,"lat":40.74069444,"lon":-81.43211111,"rng_nm":40,"alt_fmsl":1221,"id":"BSV","desc":"BRIGGS VOR-DME"},
{"type":"VOR","hdg_t":18,"dist_nm":70.9,"freq":117.6,"lat":41.71302778,"lon":-79.41727778,"rng_nm":40,"alt_fmsl":1710,"id":"TDT","desc":"TIDIOUTE VORTAC"},
{"type":"VOR","hdg_t":82.4,"dist_nm":72.4,"freq":114.9,"lat":40.73511111,"lon":-78.33130556,"rng_nm":40,"alt_fmsl":2630,"id":"TON","desc":"TYRONE VORTAC"},
{"type":"NDB","hdg_t":293.6,"dist_nm":73.3,"freq":362,"lat":41.06975000,"lon":-81.38747222,"rng_nm":50,"alt_fmsl":0,"id":"AK","desc":"AKRON NDB"},
{"type":"VOR","hdg_t":101.5,"dist_nm":75,"freq":108.8,"lat":40.32544444,"lon":-78.30369444,"rng_nm":25,"alt_fmsl":0,"id":"AOO","desc":"ALTOONA VOR"},
{"type":"VOR","hdg_t":253.8,"dist_nm":75.1,"freq":111.8,"lat":40.22922222,"lon":-81.47647222,"rng_nm":40,"alt_fmsl":1180,"id":"CTW","desc":"NEWCOMERSTOWN VOR-DME"},
{"type":"NDB","hdg_t":136.2,"dist_nm":77.5,"freq":317,"lat":39.64825000,"lon":-78.74719444,"rng_nm":50,"alt_fmsl":0,"id":"CBE","desc":"CUMBERLAND NDB"},
{"type":"VOR","hdg_t":314.7,"dist_nm":79.7,"freq":112.7,"lat":41.51694444,"lon":-81.16319444,"rng_nm":130,"alt_fmsl":1310,"id":"CXR","desc":"CHARDON VOR-DME"},
{"type":"VOR","hdg_t":331.7,"dist_nm":79.9,"freq":115.2,"lat":41.76011111,"lon":-80.74811111,"rng_nm":40,"alt_fmsl":900,"id":"JFN","desc":"JEFFERSON VOR-DME"},
{"type":"NDB","hdg_t":8.2,"dist_nm":80.2,"freq":258,"lat":41.91266667,"lon":-79.64844444,"rng_nm":50,"alt_fmsl":0,"id":"ORJ","desc":"CORRY NDB"},
{"type":"VOR","hdg_t":191.9,"dist_nm":81.7,"freq":112.6,"lat":39.25322222,"lon":-80.26786111,"rng_nm":40,"alt_fmsl":1430,"id":"CKB","desc":"CLARKSBURG VOR-DME"},
{"type":"NDB","hdg_t":72.8,"dist_nm":83.8,"freq":275,"lat":40.98613889,"lon":-78.14252778,"rng_nm":50,"alt_fmsl":0,"id":"PS","desc":"PORTS NDB"},
{"type":"VOR","hdg_t":348.5,"dist_nm":87.4,"freq":109.4,"lat":42.01741667,"lon":-80.29269444,"rng_nm":40,"alt_fmsl":800,"id":"ERI","desc":"ERIE VORTAC"},
{"type":"NDB","hdg_t":349.8,"dist_nm":88.4,"freq":349,"lat":42.03863889,"lon":-80.25536111,"rng_nm":50,"alt_fmsl":0,"id":"ER","desc":"ESMER NDB"},
{"type":"VOR","hdg_t":64.3,"dist_nm":88.5,"freq":116,"lat":41.21494444,"lon":-78.14275000,"rng_nm":130,"alt_fmsl":2250,"id":"ETG","desc":"KEATING VORTAC"},
{"type":"VOR","hdg_t":76.6,"dist_nm":89.4,"freq":115.5,"lat":40.91625000,"lon":-77.99272222,"rng_nm":130,"alt_fmsl":2440,"id":"PSB","desc":"PHILIPSBURG VORTAC"},
{"type":"NDB","hdg_t":281.7,"dist_nm":89.5,"freq":400,"lat":40.87505600,"lon":-81.83319200,"rng_nm":25,"alt_fmsl":1170,"id":"SLW","desc":"SMITHVILLE NDB"},
{"type":"VOR","hdg_t":152.3,"dist_nm":91.9,"freq":110.8,"lat":39.22550000,"lon":-78.98950000,"rng_nm":40,"alt_fmsl":2590,"id":"ESL","desc":"KESSEL VOR-DME"},
{"type":"NDB","hdg_t":354.4,"dist_nm":92.2,"freq":372,"lat":42.11919444,"lon":-80.10458333,"rng_nm":50,"alt_fmsl":0,"id":"CQD","desc":"CASCADE NDB"},
{"type":"NDB","hdg_t":310.2,"dist_nm":92.4,"freq":521,"lat":41.57411111,"lon":-81.47122222,"rng_nm":50,"alt_fmsl":0,"id":"GF","desc":"HOGAF NDB"},
{"type":"VOR","hdg_t":38.6,"dist_nm":92.5,"freq":116.6,"lat":41.78638889,"lon":-78.61936111,"rng_nm":40,"alt_fmsl":2100,"id":"BFD","desc":"BRADFORD VOR-DME"},
{"type":"NDB","hdg_t":314.9,"dist_nm":93.6,"freq":263,"lat":41.68241667,"lon":-81.37900000,"rng_nm":50,"alt_fmsl":0,"id":"LQL","desc":"LAKELAND NDB"},
{"type":"NDB","hdg_t":308.4,"dist_nm":95.8,"freq":248,"lat":41.56913889,"lon":-81.57375000,"rng_nm":50,"alt_fmsl":0,"id":"BF","desc":"TABEY NDB"},
{"type":"VOR","hdg_t":225,"dist_nm":96.5,"freq":108.6,"lat":39.44116667,"lon":-81.37475000,"rng_nm":40,"alt_fmsl":1030,"id":"JPU","desc":"PARKERSBURG VORTAC"},
{"type":"NDB","hdg_t":305.8,"dist_nm":97.6,"freq":416,"lat":41.52874700,"lon":-81.66336700,"rng_nm":25,"alt_fmsl":581,"id":"BKL","desc":"BURKE LAKEFRONT NDB"},
{"type":"VOR","hdg_t":112.9,"dist_nm":98,"freq":115,"lat":39.93322222,"lon":-77.95094444,"rng_nm":40,"alt_fmsl":2340,"id":"THS","desc":"ST THOMAS VORTAC"},
{"type":"NDB","hdg_t":303.8,"dist_nm":98.6,"freq":226,"lat":41.48891900,"lon":-81.72283100,"rng_nm":25,"alt_fmsl":617,"id":"EZE","desc":"ENGEL NDB"},
{"type":"VOR","hdg_t":247.6,"dist_nm":99.1,"freq":111.4,"lat":39.94086111,"lon":-81.89261111,"rng_nm":40,"alt_fmsl":898,"id":"ZZV","desc":"ZANESVILLE VOR-DME"}
]
}
