{"success":true,"source":"xp2csv.pl","last_updated":"2013/11/08 14:53:21 UTC"
,"icao":"PS87","name":"Home Safe","lat":40.10590527,"lon":-80.03394195,"rwys":1,"ils":0,"index":1630339,"path":"w090n40/w081n40"
,"runways":[
{"len_m":504,"wid_m":60.96,"hdg":83,"surf":"Turf/grass","rwy1":"09","lat1":40.10562948,"lon1":-80.03687857,"rwy2":"27","lat2":40.10618106,"lon2":-80.03100533}
]
,"navaids":[
{"type":"VOR","hdg_t":358.2,"dist_nm":10.3,"freq":110,"lat":40.27866667,"lon":-80.04086111,"rng_nm":40,"alt_fmsl":1289,"id":"AGC","desc":"ALLEGHENY VOR-DME"},
{"type":"NDB","hdg_t":134.9,"dist_nm":18.8,"freq":299,"lat":39.88277778,"lon":-79.74472222,"rng_nm":50,"alt_fmsl":0,"id":"VV","desc":"CAMOR NDB"},
{"type":"NDB","hdg_t":37.7,"dist_nm":18.9,"freq":287,"lat":40.35530556,"lon":-79.78100000,"rng_nm":50,"alt_fmsl":0,"id":"MKP","desc":"MC KEESPORT NDB"},
{"type":"VOR","hdg_t":342.2,"dist_nm":24,"freq":112,"lat":40.48813889,"lon":-80.19386111,"rng_nm":40,"alt_fmsl":1200,"id":"MMJ","desc":"MONTOUR VORTAC"},
{"type":"VOR","hdg_t":290.7,"dist_nm":26.2,"freq":112.2,"lat":40.25988889,"lon":-80.56861111,"rng_nm":40,"alt_fmsl":1269,"id":"HLG","desc":"WHEELING VOR-DME"},
{"type":"NDB","hdg_t":270.6,"dist_nm":30.1,"freq":212,"lat":40.10963889,"lon":-80.68869444,"rng_nm":50,"alt_fmsl":0,"id":"HL","desc":"DORCH (OM) NDB"},
{"type":"VOR","hdg_t":104,"dist_nm":32.1,"freq":108.2,"lat":39.97425000,"lon":-79.35836111,"rng_nm":40,"alt_fmsl":2820,"id":"IHD","desc":"INDIAN HEAD VORTAC"},
{"type":"VOR","hdg_t":166.2,"dist_nm":33.8,"freq":111.6,"lat":39.55669444,"lon":-79.86038889,"rng_nm":40,"alt_fmsl":2339,"id":"MGW","desc":"MORGANTOWN VORTAC"},
{"type":"VOR","hdg_t":261.8,"dist_nm":36.4,"freq":117.1,"lat":40.01702778,"lon":-80.81725000,"rng_nm":130,"alt_fmsl":1290,"id":"AIR","desc":"BELLAIRE VOR-DME"},
{"type":"NDB","hdg_t":64.9,"dist_nm":38.5,"freq":382,"lat":40.37544444,"lon":-79.27172222,"rng_nm":50,"alt_fmsl":0,"id":"BHU","desc":"BENJE NDB"},
{"type":"VOR","hdg_t":349.3,"dist_nm":43.8,"freq":115.8,"lat":40.82494444,"lon":-80.21155556,"rng_nm":130,"alt_fmsl":1227,"id":"EWC","desc":"ELLWOOD CITY VORTAC"},
{"type":"NDB","hdg_t":280.1,"dist_nm":45.7,"freq":239,"lat":40.23672222,"lon":-81.01313889,"rng_nm":50,"alt_fmsl":0,"id":"CFX","desc":"CADIZ NDB"},
{"type":"NDB","hdg_t":90.9,"dist_nm":51.4,"freq":209,"lat":40.08569444,"lon":-78.91655556,"rng_nm":50,"alt_fmsl":0,"id":"SYS","desc":"STOYSTOWN NDB"},
{"type":"VOR","hdg_t":192,"dist_nm":52.2,"freq":112.6,"lat":39.25322222,"lon":-80.26786111,"rng_nm":40,"alt_fmsl":1430,"id":"CKB","desc":"CLARKSBURG VOR-DME"},
{"type":"VOR","hdg_t":121.5,"dist_nm":53.4,"freq":112.3,"lat":39.63502778,"lon":-79.05052778,"rng_nm":40,"alt_fmsl":2640,"id":"GRV","desc":"GRANTSVILLE VOR-DME"},
{"type":"NDB","hdg_t":54.2,"dist_nm":54.4,"freq":242,"lat":40.63191667,"lon":-79.06591667,"rng_nm":50,"alt_fmsl":0,"id":"INP","desc":"INDIANA NDB"},
{"type":"NDB","hdg_t":300.1,"dist_nm":55.1,"freq":395,"lat":40.56263300,"lon":-81.07759700,"rng_nm":25,"alt_fmsl":1184,"id":"TSO","desc":"TOLSON NDB"},
{"type":"VOR","hdg_t":76.7,"dist_nm":56.5,"freq":113,"lat":40.31672222,"lon":-78.83416667,"rng_nm":40,"alt_fmsl":2280,"id":"JST","desc":"JOHNSTOWN VORTAC"},
{"type":"NDB","hdg_t":342.5,"dist_nm":57.6,"freq":272,"lat":41.02300000,"lon":-80.41583333,"rng_nm":50,"alt_fmsl":0,"id":"UCP","desc":"CASTLE NDB"},
{"type":"VOR","hdg_t":65.4,"dist_nm":64.6,"freq":110.6,"lat":40.54647222,"lon":-78.74702778,"rng_nm":40,"alt_fmsl":2340,"id":"REC","desc":"REVLOC VOR-DME"},
{"type":"NDB","hdg_t":114.3,"dist_nm":65.4,"freq":317,"lat":39.64825000,"lon":-78.74719444,"rng_nm":50,"alt_fmsl":0,"id":"CBE","desc":"CUMBERLAND NDB"},
{"type":"NDB","hdg_t":340.2,"dist_nm":66.7,"freq":408,"lat":41.15288889,"lon":-80.53144444,"rng_nm":50,"alt_fmsl":0,"id":"HBD","desc":"HUBBARD NDB"},
{"type":"VOR","hdg_t":276.8,"dist_nm":66.7,"freq":111.8,"lat":40.22922222,"lon":-81.47647222,"rng_nm":40,"alt_fmsl":1180,"id":"CTW","desc":"NEWCOMERSTOWN VOR-DME"},
{"type":"VOR","hdg_t":22.6,"dist_nm":67.7,"freq":112.9,"lat":41.14630556,"lon":-79.45797222,"rng_nm":40,"alt_fmsl":1520,"id":"CIP","desc":"CLARION VOR-DME"},
{"type":"NDB","hdg_t":338.8,"dist_nm":70.4,"freq":338,"lat":41.20052778,"lon":-80.59613889,"rng_nm":50,"alt_fmsl":0,"id":"YN","desc":"FETCH NDB"},
{"type":"VOR","hdg_t":182.4,"dist_nm":71.4,"freq":114.2,"lat":38.91444444,"lon":-80.09927778,"rng_nm":40,"alt_fmsl":2160,"id":"EKN","desc":"ELKINS VORTAC"},
{"type":"VOR","hdg_t":137.1,"dist_nm":71.6,"freq":110.8,"lat":39.22550000,"lon":-78.98950000,"rng_nm":40,"alt_fmsl":2590,"id":"ESL","desc":"KESSEL VOR-DME"},
{"type":"NDB","hdg_t":173.5,"dist_nm":73.1,"freq":284,"lat":38.89394444,"lon":-79.85941667,"rng_nm":50,"alt_fmsl":0,"id":"RQY","desc":"RANDOLPH CO NDB"},
{"type":"VOR","hdg_t":237.7,"dist_nm":73.7,"freq":108.6,"lat":39.44116667,"lon":-81.37475000,"rng_nm":40,"alt_fmsl":1030,"id":"JPU","desc":"PARKERSBURG VORTAC"},
{"type":"VOR","hdg_t":301.1,"dist_nm":74.5,"freq":112.4,"lat":40.74069444,"lon":-81.43211111,"rng_nm":40,"alt_fmsl":1221,"id":"BSV","desc":"BRIGGS VOR-DME"},
{"type":"VOR","hdg_t":338.5,"dist_nm":79,"freq":109,"lat":41.33102778,"lon":-80.67466667,"rng_nm":40,"alt_fmsl":1160,"id":"YNG","desc":"YOUNGSTOWN VORTAC"},
{"type":"VOR","hdg_t":318.7,"dist_nm":80.3,"freq":114.4,"lat":41.10788889,"lon":-81.20152778,"rng_nm":40,"alt_fmsl":1193,"id":"ACO","desc":"AKRON VOR-DME"},
{"type":"VOR","hdg_t":5.7,"dist_nm":80.3,"freq":109.6,"lat":41.43861111,"lon":-79.85677778,"rng_nm":40,"alt_fmsl":0,"id":"FKL","desc":"FRANKLIN VOR"},
{"type":"VOR","hdg_t":80,"dist_nm":80.6,"freq":108.8,"lat":40.32544444,"lon":-78.30369444,"rng_nm":25,"alt_fmsl":0,"id":"AOO","desc":"ALTOONA VOR"},
{"type":"NDB","hdg_t":233.2,"dist_nm":84.4,"freq":388,"lat":39.25408333,"lon":-81.48494444,"rng_nm":50,"alt_fmsl":0,"id":"PK","desc":"VERSI NDB"},
{"type":"NDB","hdg_t":313.4,"dist_nm":84.6,"freq":362,"lat":41.06975000,"lon":-81.38747222,"rng_nm":50,"alt_fmsl":0,"id":"AK","desc":"AKRON NDB"},
{"type":"VOR","hdg_t":264,"dist_nm":86.2,"freq":111.4,"lat":39.94086111,"lon":-81.89261111,"rng_nm":40,"alt_fmsl":898,"id":"ZZV","desc":"ZANESVILLE VOR-DME"},
{"type":"VOR","hdg_t":63.6,"dist_nm":86.6,"freq":114.9,"lat":40.73511111,"lon":-78.33130556,"rng_nm":40,"alt_fmsl":2630,"id":"TON","desc":"TYRONE VORTAC"},
{"type":"NDB","hdg_t":262.7,"dist_nm":87.7,"freq":204,"lat":39.90630556,"lon":-81.91927778,"rng_nm":50,"alt_fmsl":0,"id":"HRA","desc":"ZANESVILLE NDB"},
{"type":"NDB","hdg_t":299.8,"dist_nm":94.3,"freq":400,"lat":40.87505600,"lon":-81.83319200,"rng_nm":25,"alt_fmsl":1170,"id":"SLW","desc":"SMITHVILLE NDB"},
{"type":"VOR","hdg_t":95.4,"dist_nm":96.5,"freq":115,"lat":39.93322222,"lon":-77.95094444,"rng_nm":40,"alt_fmsl":2340,"id":"THS","desc":"ST THOMAS VORTAC"},
{"type":"VOR","hdg_t":283,"dist_nm":98.3,"freq":116.5,"lat":40.45802778,"lon":-82.12683333,"rng_nm":40,"alt_fmsl":1340,"id":"TVT","desc":"TIVERTON VOR-DME"},
{"type":"VOR","hdg_t":329,"dist_nm":99,"freq":112.7,"lat":41.51694444,"lon":-81.16319444,"rng_nm":130,"alt_fmsl":1310,"id":"CXR","desc":"CHARDON VOR-DME"}
]
}
