{"success":true,"source":"xp2csv.pl","last_updated":"2013/11/08 14:53:21 UTC"
,"icao":"PT2","name":"Killarney","lat":45.9775,"lon":-81.494721,"rwys":1,"ils":0,"index":1614330,"path":"w090n40/w082n45"
,"runways":[
{"len_m":1063,"wid_m":22.86,"hdg":50,"surf":"Asphalt","rwy1":"06","lat1":45.97444400,"lon1":-81.50000000,"rwy2":"24","lat2":45.98055600,"lon2":-81.48944200}
]
,"radios":[
{"type":"CTAF","freq":122.8,"desc":"CTAF"}
]
,"navaids":[
{"type":"NDB","hdg_t":241.5,"dist_nm":17,"freq":388,"lat":45.84147222,"lon":-81.85269444,"rng_nm":50,"alt_fmsl":0,"id":"H7","desc":"MANITOULIN EAST NDB"},
{"type":"NDB","hdg_t":30.3,"dist_nm":46.7,"freq":362,"lat":46.64800000,"lon":-80.92275000,"rng_nm":50,"alt_fmsl":0,"id":"SB","desc":"SUDBURY NDB"},
{"type":"NDB","hdg_t":266.8,"dist_nm":47,"freq":245,"lat":45.92833333,"lon":-82.61527778,"rng_nm":50,"alt_fmsl":0,"id":"YZE","desc":"GORE BAY NDB"},
{"type":"VOR","hdg_t":36.2,"dist_nm":48.6,"freq":112.3,"lat":46.62913889,"lon":-80.79822222,"rng_nm":130,"alt_fmsl":1152,"id":"YSB","desc":"SUDBURY VOR-DME"},
{"type":"NDB","hdg_t":35.9,"dist_nm":52.4,"freq":344,"lat":46.68341667,"lon":-80.74930556,"rng_nm":50,"alt_fmsl":0,"id":"ZSB","desc":"NORANDA(SUDBURY) NDB"},
{"type":"NDB","hdg_t":297,"dist_nm":52.8,"freq":276,"lat":46.37202778,"lon":-82.62875000,"rng_nm":50,"alt_fmsl":0,"id":"YEL","desc":"ELLIOT LAKE NDB"},
{"type":"VOR","hdg_t":167.3,"dist_nm":75.7,"freq":117.7,"lat":44.74477778,"lon":-81.10541667,"rng_nm":130,"alt_fmsl":730,"id":"YVV","desc":"WIARTON VOR-DME"},
{"type":"NDB","hdg_t":170,"dist_nm":77.9,"freq":326,"lat":44.69805556,"lon":-81.17972222,"rng_nm":50,"alt_fmsl":0,"id":"VV","desc":"WIARTON NDB"},
{"type":"NDB","hdg_t":120.7,"dist_nm":81.7,"freq":353,"lat":45.26888889,"lon":-79.83666667,"rng_nm":50,"alt_fmsl":0,"id":"F7","desc":"GEORGIAN BAY NDB"},
{"type":"NDB","hdg_t":74.8,"dist_nm":84.7,"freq":404,"lat":46.33097222,"lon":-79.52655556,"rng_nm":50,"alt_fmsl":0,"id":"ZYB","desc":"YELLEK(NORTH BAY) NDB"},
{"type":"VOR","hdg_t":74.1,"dist_nm":88.9,"freq":115.4,"lat":46.36391667,"lon":-79.43641667,"rng_nm":130,"alt_fmsl":1207,"id":"YYB","desc":"NORTH BAY VOR-DME"}
]
}
