{"success":true,"source":"xp2csv.pl","last_updated":"2013/11/08 14:53:21 UTC"
,"icao":"RJFC","name":"Yakushima","lat":30.3855275,"lon":130.659585,"rwys":1,"ils":0,"index":5086746,"path":"e130n30/e130n30"
,"runways":[
{"len_m":1493,"wid_m":45.11,"hdg":133,"surf":"Asphalt","rwy1":"14","lat1":30.39019400,"lon1":130.65398100,"rwy2":"32","lat2":30.38086100,"lon2":130.66518900}
]
,"radios":[
{"type":"TWR","freq":118.65,"desc":"REMOTE"}
]
,"navaids":[
{"type":"VOR","hdg_t":155.9,"dist_nm":0.3,"freq":117,"lat":30.37944700,"lon":130.66271700,"rng_nm":100,"alt_fmsl":190,"id":"YKE","desc":"YAKUSHIMA VOR-DME"},
{"type":"VOR","hdg_t":302.1,"dist_nm":0.5,"freq":115.4,"lat":30.39008600,"lon":130.65122200,"rng_nm":100,"alt_fmsl":139,"id":"KYE","desc":"KAMIYAKU VOR-DME"},
{"type":"VOR","hdg_t":52.9,"dist_nm":21.5,"freq":115.4,"lat":30.60215600,"lon":130.99153300,"rng_nm":40,"alt_fmsl":808,"id":"TGE","desc":"NAKATANE VOR-DME"},
{"type":"NDB","hdg_t":9.4,"dist_nm":58.9,"freq":238,"lat":31.35638900,"lon":130.84861100,"rng_nm":50,"alt_fmsl":214,"id":"JA","desc":"KANOYA NDB"},
{"type":"SDME","hdg_t":8.5,"dist_nm":59.1,"freq":113.8,"lat":31.36277800,"lon":130.83000000,"rng_nm":100,"alt_fmsl":252,"id":"JAT","desc":"KANOYA TACAN"},
{"type":"NDB","hdg_t":356.3,"dist_nm":75.5,"freq":390,"lat":31.64466400,"lon":130.56577200,"rng_nm":100,"alt_fmsl":0,"id":"HK","desc":"KAGOSHIMA NDB"},
{"type":"VOR","hdg_t":7,"dist_nm":75.9,"freq":117.3,"lat":31.64388100,"lon":130.84210300,"rng_nm":100,"alt_fmsl":1499,"id":"KBE","desc":"KOKUBU VOR-DME"},
{"type":"VOR","hdg_t":357.1,"dist_nm":78.6,"freq":113.3,"lat":31.69722222,"lon":130.58294444,"rng_nm":130,"alt_fmsl":1909,"id":"HKC","desc":"KAGOSHIMA VOR-DME"},
{"type":"VOR","hdg_t":2.3,"dist_nm":84.6,"freq":115.7,"lat":31.79754200,"lon":130.72610300,"rng_nm":100,"alt_fmsl":900,"id":"KGE","desc":"KAJIKI VOR-DME"},
{"type":"VOR","hdg_t":23.9,"dist_nm":97.9,"freq":112.4,"lat":31.87872800,"lon":131.43746700,"rng_nm":100,"alt_fmsl":32,"id":"MZE","desc":"MIYAZAKI VOR-DME"}
]
}
