{"success":true,"source":"xp2csv.pl","last_updated":"2013/11/08 14:53:21 UTC"
,"icao":"RJOO","name":"Osaka Intl","lat":34.78560275,"lon":135.4380195,"rwys":2,"ils":1,"index":5168945,"path":"e130n30/e135n34"
,"runways":[
{"len_m":2999,"wid_m":60.96,"hdg":135,"surf":"Concrete","rwy1":"14R","lat1":34.79132500,"lon1":135.42870600,"rwy2":"32L","lat2":34.77220000,"lon2":135.45187800},
{"len_m":1827,"wid_m":45.72,"hdg":134,"surf":"Asphalt","rwy1":"14L","lat1":34.79526900,"lon1":135.42868600,"rwy2":"32R","lat2":34.78361700,"lon2":135.44280800}
]
,"radios":[
{"type":"ATIS","freq":128.6,"desc":"ATIS"},
{"type":"CLD","freq":118.8,"desc":"CLNC DEL"},
{"type":"GND","freq":126.2,"desc":"GND"},
{"type":"GND","freq":121.7,"desc":"GND"},
{"type":"TWR","freq":126.2,"desc":"TWR"},
{"type":"TWR","freq":118.1,"desc":"TWR"},
{"type":"APP","freq":121.1,"desc":"TCA"},
{"type":"APP","freq":120.45,"desc":"KANSAI APP"},
{"type":"APP","freq":127.5,"desc":"GCA"},
{"type":"APP","freq":125.1,"desc":"GCA"},
{"type":"APP","freq":134.1,"desc":"GCA"},
{"type":"DEP","freq":119.5,"desc":"KANSAI DEP"},
{"type":"DEP","freq":125.3,"desc":"KANSAI DEP"}
]
,"ils":[
{"type":"ILS","freq":110.1,"lat":34.79274200,"lon":135.42698900,"rng_nm":18,"alt_fmsl":50,"hdg":315.13,"id":"ISK","rwy":"32L","desc":"ILS-cat-I"},
{"type":"GS","freq":110.1,"lat":34.77355000,"lon":135.44838600,"rng_nm":10,"alt_fmsl":54,"id":"ISK","rwy":"32L","desc":"GS","gs":3},
{"type":"OM","freq":0,"lat":34.71909400,"lon":135.51591400,"rng_nm":0,"alt_fmsl":50,"id":"----","rwy":"32L","desc":"OM"},
{"type":"MM","freq":0,"lat":34.76556100,"lon":135.46036700,"rng_nm":0,"alt_fmsl":50,"id":"----","rwy":"32L","desc":"MM"}
]
,"navaids":[
{"type":"VOR","hdg_t":130.4,"dist_nm":0.8,"freq":113.9,"lat":34.77603600,"lon":135.45161400,"rng_nm":100,"alt_fmsl":76,"id":"OWE","desc":"OSAKA VOR-DME"},
{"type":"NDB","hdg_t":305,"dist_nm":2,"freq":211,"lat":34.80548300,"lon":135.40366100,"rng_nm":100,"alt_fmsl":0,"id":"OW","desc":"ITAMI NDB"},
{"type":"NDB","hdg_t":136.6,"dist_nm":8.1,"freq":340,"lat":34.68654700,"lon":135.55101400,"rng_nm":50,"alt_fmsl":0,"id":"RK","desc":"OSAKA NDB"},
{"type":"VOR","hdg_t":145.4,"dist_nm":13.6,"freq":114.6,"lat":34.59845800,"lon":135.59370600,"rng_nm":130,"alt_fmsl":101,"id":"YOE","desc":"YAO VOR-DME"},
{"type":"VOR","hdg_t":228.2,"dist_nm":13.9,"freq":111.25,"lat":34.63099400,"lon":135.22845800,"rng_nm":25,"alt_fmsl":44,"id":"KCE","desc":"KOBE VOR-DME"},
{"type":"VOR","hdg_t":130.2,"dist_nm":14.5,"freq":111.6,"lat":34.62837800,"lon":135.66204200,"rng_nm":25,"alt_fmsl":1494,"id":"SIE","desc":"SHIGI VOR-DME"},
{"type":"VOR","hdg_t":178.3,"dist_nm":17.5,"freq":112.3,"lat":34.49194700,"lon":135.44833100,"rng_nm":100,"alt_fmsl":244,"id":"SKE","desc":"SHINODA VOR-DME"},
{"type":"NDB","hdg_t":179,"dist_nm":17.6,"freq":219,"lat":34.49131100,"lon":135.44362800,"rng_nm":100,"alt_fmsl":0,"id":"SK","desc":"SHINODA NDB"},
{"type":"NDB","hdg_t":194.8,"dist_nm":18,"freq":346,"lat":34.49505600,"lon":135.34518100,"rng_nm":25,"alt_fmsl":0,"id":"KN","desc":"KANSAI NDB"},
{"type":"VOR","hdg_t":203.4,"dist_nm":23.2,"freq":111.8,"lat":34.43008600,"lon":135.25178300,"rng_nm":25,"alt_fmsl":42,"id":"KNE","desc":"KANSAI VOR-DME"},
{"type":"VOR","hdg_t":53.9,"dist_nm":23.6,"freq":117.1,"lat":35.01704700,"lon":135.82600300,"rng_nm":100,"alt_fmsl":1576,"id":"CUE","desc":"OTSU VOR-DME"},
{"type":"NDB","hdg_t":53.3,"dist_nm":26.6,"freq":368,"lat":35.05033300,"lon":135.87145600,"rng_nm":100,"alt_fmsl":0,"id":"CU","desc":"OTSU NDB"},
{"type":"VOR","hdg_t":215.4,"dist_nm":37,"freq":116.4,"lat":34.28043600,"lon":135.00564700,"rng_nm":25,"alt_fmsl":425,"id":"TME","desc":"TOMO VOR-DME"},
{"type":"VOR","hdg_t":340.5,"dist_nm":44.1,"freq":112.6,"lat":35.48069200,"lon":135.13702200,"rng_nm":100,"alt_fmsl":2428,"id":"YME","desc":"MIYAZU VOR-DME"},
{"type":"SDME","hdg_t":359.2,"dist_nm":45.6,"freq":109.65,"lat":35.54805600,"lon":135.42555600,"rng_nm":25,"alt_fmsl":2014,"id":"MZT","desc":"MAIZURU TACAN"},
{"type":"VOR","hdg_t":229.5,"dist_nm":47.3,"freq":115.6,"lat":34.27030300,"lon":134.71294200,"rng_nm":25,"alt_fmsl":884,"id":"AJE","desc":"AWAJI VOR-DME"},
{"type":"VOR","hdg_t":324.2,"dist_nm":54.1,"freq":110.45,"lat":35.51796100,"lon":134.79146400,"rng_nm":100,"alt_fmsl":689,"id":"THE","desc":"TAJIMA VOR-DME"},
{"type":"VOR","hdg_t":197.5,"dist_nm":54.9,"freq":116.9,"lat":33.91009700,"lon":135.10617800,"rng_nm":100,"alt_fmsl":1118,"id":"GBE","desc":"GOBOH VOR-DME"},
{"type":"VOR","hdg_t":226.5,"dist_nm":56.8,"freq":114.9,"lat":34.13000000,"lon":134.60972200,"rng_nm":100,"alt_fmsl":46,"id":"TSC","desc":"TOKUSHIMA VORTAC"},
{"type":"NDB","hdg_t":226.5,"dist_nm":57,"freq":332,"lat":34.12805600,"lon":134.60611100,"rng_nm":50,"alt_fmsl":26,"id":"TS","desc":"TOKUSHIMA NDB"},
{"type":"VOR","hdg_t":254.4,"dist_nm":59.8,"freq":114.4,"lat":34.51236400,"lon":134.27421400,"rng_nm":25,"alt_fmsl":2531,"id":"STE","desc":"SHODO VOR-DME"},
{"type":"SDME","hdg_t":220.9,"dist_nm":61.7,"freq":113.55,"lat":34.00414200,"lon":134.62560000,"rng_nm":100,"alt_fmsl":60,"id":"KJT","desc":"KOMATSUJIMA TACAN"},
{"type":"NDB","hdg_t":219.1,"dist_nm":62.3,"freq":352,"lat":33.97694400,"lon":134.64888900,"rng_nm":50,"alt_fmsl":0,"id":"KJ","desc":"KOMATSUJIMA NDB"},
{"type":"SDME","hdg_t":103.7,"dist_nm":63.1,"freq":112.05,"lat":34.52852800,"lon":136.67516700,"rng_nm":50,"alt_fmsl":20,"id":"AKT","desc":"AKENO TACAN"},
{"type":"NDB","hdg_t":103.5,"dist_nm":64.1,"freq":380,"lat":34.52777800,"lon":136.69666700,"rng_nm":50,"alt_fmsl":0,"id":"AK","desc":"AKENO NDB"},
{"type":"VOR","hdg_t":183.3,"dist_nm":67.4,"freq":109.05,"lat":33.66126400,"lon":135.35941400,"rng_nm":100,"alt_fmsl":338,"id":"NKE","desc":"NANKI VOR-DME"},
{"type":"VOR","hdg_t":85.9,"dist_nm":67.5,"freq":117.8,"lat":34.85800600,"lon":136.80316900,"rng_nm":100,"alt_fmsl":39,"id":"CBE","desc":"CHUBU VOR-DME"},
{"type":"VOR","hdg_t":264.8,"dist_nm":70.6,"freq":115.9,"lat":34.67137800,"lon":134.01513100,"rng_nm":100,"alt_fmsl":783,"id":"OKC","desc":"OKAYAMA VORTAC"},
{"type":"NDB","hdg_t":91.1,"dist_nm":73.5,"freq":325,"lat":34.75205800,"lon":136.92641100,"rng_nm":100,"alt_fmsl":0,"id":"XM","desc":"KOWA NDB"},
{"type":"VOR","hdg_t":93.2,"dist_nm":75.3,"freq":113.5,"lat":34.70463100,"lon":136.95794700,"rng_nm":100,"alt_fmsl":314,"id":"XMC","desc":"KOWA VORTAC"},
{"type":"VOR","hdg_t":305.7,"dist_nm":76.7,"freq":110.2,"lat":35.52730000,"lon":134.16488600,"rng_nm":25,"alt_fmsl":115,"id":"TRE","desc":"TOTTORI VOR-DME"},
{"type":"NDB","hdg_t":68.2,"dist_nm":78.1,"freq":360,"lat":35.25939700,"lon":136.91635800,"rng_nm":100,"alt_fmsl":52,"id":"KC","desc":"NAGOYA NDB"},
{"type":"VOR","hdg_t":244.3,"dist_nm":78.1,"freq":108.4,"lat":34.21249700,"lon":134.02259200,"rng_nm":100,"alt_fmsl":696,"id":"KTE","desc":"KAGAWA VOR-DME"},
{"type":"VOR","hdg_t":68,"dist_nm":78.2,"freq":114.2,"lat":35.26526700,"lon":136.91492500,"rng_nm":100,"alt_fmsl":76,"id":"KCC","desc":"NAGOYA VORTAC"},
{"type":"VOR","hdg_t":249.9,"dist_nm":78.5,"freq":117.5,"lat":34.32644700,"lon":133.95346100,"rng_nm":100,"alt_fmsl":1607,"id":"TZC","desc":"TAKAMATSU VORTAC"},
{"type":"SDME","hdg_t":62.1,"dist_nm":78.7,"freq":112.25,"lat":35.39138900,"lon":136.85861100,"rng_nm":200,"alt_fmsl":146,"id":"GFT","desc":"GIFU TACAN"},
{"type":"VOR","hdg_t":268.9,"dist_nm":79.2,"freq":111,"lat":34.75038300,"lon":133.83505600,"rng_nm":100,"alt_fmsl":880,"id":"OYE","desc":"KIBI VOR-DME"},
{"type":"NDB","hdg_t":74,"dist_nm":79.7,"freq":397,"lat":35.14227500,"lon":136.99656700,"rng_nm":30,"alt_fmsl":0,"id":"NG","desc":"AICHI NDB"},
{"type":"VOR","hdg_t":167.4,"dist_nm":82,"freq":112.9,"lat":33.44775000,"lon":135.79450000,"rng_nm":130,"alt_fmsl":150,"id":"KEC","desc":"KUSHIMOTO VORTAC"},
{"type":"NDB","hdg_t":24.4,"dist_nm":91.6,"freq":400,"lat":36.17536900,"lon":136.22028100,"rng_nm":100,"alt_fmsl":0,"id":"FQ","desc":"FUKUI NDB"}
]
}
