{"success":true,"source":"xp2csv.pl","last_updated":"2013/11/08 14:53:21 UTC"
,"icao":"RK43","name":"G 414","lat":38.106046,"lon":128.200847,"rwys":1,"ils":0,"index":5054464,"path":"e120n30/e128n38"
,"runways":[
{"len_m":518,"wid_m":24.38,"hdg":48,"surf":"Dirt","rwy1":"05","lat1":38.10448900,"lon1":128.19864700,"rwy2":"23","lat2":38.10760300,"lon2":128.20304700}
]
,"navaids":[
{"type":"NDB","hdg_t":84.4,"dist_nm":18.8,"freq":378,"lat":38.13611100,"lon":128.59777800,"rng_nm":50,"alt_fmsl":49,"id":"SK","desc":"SOKCHO NDB"},
{"type":"VOR","hdg_t":82.3,"dist_nm":19.1,"freq":111,"lat":38.14777800,"lon":128.60111100,"rng_nm":25,"alt_fmsl":49,"id":"SCH","desc":"SOKCHO VOR-DME"},
{"type":"VOR","hdg_t":96.5,"dist_nm":21.9,"freq":110.6,"lat":38.06322200,"lon":128.66150000,"rng_nm":25,"alt_fmsl":241,"id":"YAG","desc":"YANGYANG VOR-DME"},
{"type":"VOR","hdg_t":132.6,"dist_nm":35.7,"freq":115.6,"lat":37.70055600,"lon":128.75361100,"rng_nm":100,"alt_fmsl":3360,"id":"KAE","desc":"GANGWON VORTAC"},
{"type":"VOR","hdg_t":195.9,"dist_nm":39.2,"freq":110.2,"lat":37.47583300,"lon":127.97500000,"rng_nm":130,"alt_fmsl":474,"id":"HGS","desc":"WONJU VOR-DME"},
{"type":"SDME","hdg_t":195.6,"dist_nm":39.4,"freq":111.6,"lat":37.47125800,"lon":127.97756100,"rng_nm":25,"alt_fmsl":481,"id":"WNJ","desc":"WONJU TACAN"},
{"type":"VOR","hdg_t":120,"dist_nm":41.2,"freq":113.5,"lat":37.75884200,"lon":128.95026400,"rng_nm":25,"alt_fmsl":50,"id":"KOG","desc":"GANGNEUNG VOR-DME"},
{"type":"SDME","hdg_t":120,"dist_nm":41.2,"freq":111.9,"lat":37.75833300,"lon":128.95166700,"rng_nm":25,"alt_fmsl":35,"id":"KAN","desc":"GANGNEUNG TACAN"},
{"type":"NDB","hdg_t":120.7,"dist_nm":41.4,"freq":257,"lat":37.75000000,"lon":128.95000000,"rng_nm":75,"alt_fmsl":6,"id":"LC","desc":"KANGNUNG NDB"},
{"type":"NDB","hdg_t":197.3,"dist_nm":46.7,"freq":274,"lat":37.36166700,"lon":127.91027800,"rng_nm":15,"alt_fmsl":329,"id":"WJ","desc":"WONJU NDB"},
{"type":"VOR","hdg_t":249.9,"dist_nm":61.4,"freq":114.9,"lat":37.74797200,"lon":126.98825000,"rng_nm":130,"alt_fmsl":1368,"id":"YJU","desc":"YANGJU VOR-DME"},
{"type":"VOR","hdg_t":212.4,"dist_nm":64,"freq":117.2,"lat":37.20169400,"lon":127.48255300,"rng_nm":25,"alt_fmsl":255,"id":"ICN","desc":"ICHEON VOR"},
{"type":"VOR","hdg_t":232.5,"dist_nm":65.6,"freq":113,"lat":37.43520300,"lon":127.11017800,"rng_nm":25,"alt_fmsl":82,"id":"KSM","desc":"SEOUL VOR-DME"},
{"type":"SDME","hdg_t":193,"dist_nm":65.9,"freq":111.3,"lat":37.03308900,"lon":127.89191900,"rng_nm":25,"alt_fmsl":281,"id":"JWN","desc":"JUNGWON TACAN"},
{"type":"SDME","hdg_t":232.4,"dist_nm":66,"freq":110.9,"lat":37.42883300,"lon":127.10550000,"rng_nm":25,"alt_fmsl":133,"id":"SOL","desc":"SEOUL TACAN"},
{"type":"VOR","hdg_t":235.9,"dist_nm":73.3,"freq":115.5,"lat":37.41388900,"lon":126.92861100,"rng_nm":125,"alt_fmsl":900,"id":"SEL","desc":"ANYANG VORTAC"},
{"type":"VOR","hdg_t":244.2,"dist_nm":74.5,"freq":113.6,"lat":37.55752800,"lon":126.79202800,"rng_nm":25,"alt_fmsl":49,"id":"KIP","desc":"GIMPO VOR-DME"},
{"type":"SDME","hdg_t":228.1,"dist_nm":77.1,"freq":108.5,"lat":37.23990800,"lon":127.00146900,"rng_nm":25,"alt_fmsl":86,"id":"SWN","desc":"SUWON TACAN"},
{"type":"VOR","hdg_t":222.9,"dist_nm":82.5,"freq":114.7,"lat":37.09190000,"lon":127.02974700,"rng_nm":100,"alt_fmsl":34,"id":"OSN","desc":"OSAN VORTAC"},
{"type":"NDB","hdg_t":219.5,"dist_nm":88.4,"freq":381,"lat":36.96146400,"lon":127.02963300,"rng_nm":50,"alt_fmsl":38,"id":"RE","desc":"PYEONGTAEK NDB"},
{"type":"VOR","hdg_t":219.9,"dist_nm":88.4,"freq":108.2,"lat":36.96776400,"lon":127.02086900,"rng_nm":25,"alt_fmsl":47,"id":"PTK","desc":"PYEONGTAEK VOR-DME"},
{"type":"VOR","hdg_t":176.1,"dist_nm":88.5,"freq":114.8,"lat":36.63202800,"lon":128.32538900,"rng_nm":130,"alt_fmsl":400,"id":"CUN","desc":"YECHEON VOR-DME"},
{"type":"SDME","hdg_t":174.8,"dist_nm":88.5,"freq":108.9,"lat":36.63412800,"lon":128.36439200,"rng_nm":25,"alt_fmsl":354,"id":"YCN","desc":"YECHEON TACAN"},
{"type":"VOR","hdg_t":202.3,"dist_nm":89.7,"freq":109,"lat":36.71777800,"lon":127.49416700,"rng_nm":25,"alt_fmsl":191,"id":"CHO","desc":"CHEONGJU VOR-DME"},
{"type":"SDME","hdg_t":202.1,"dist_nm":90.2,"freq":110.5,"lat":36.70933300,"lon":127.49716700,"rng_nm":25,"alt_fmsl":191,"id":"CHJ","desc":"CHEONGJU TACAN"},
{"type":"VOR","hdg_t":247,"dist_nm":91.8,"freq":113.8,"lat":37.49491700,"lon":126.43033300,"rng_nm":25,"alt_fmsl":23,"id":"NCN","desc":"INCHEON VOR-DME"},
{"type":"NDB","hdg_t":200.2,"dist_nm":98.2,"freq":351,"lat":36.56486100,"lon":127.49738900,"rng_nm":50,"alt_fmsl":388,"id":"CW","desc":"SEONGMU NDB"}
]
}
