{"success":true,"source":"xp2csv.pl","last_updated":"2013/11/08 14:53:21 UTC"
,"icao":"RK49","name":"G 530","lat":36.7560335,"lon":126.329857,"rwys":1,"ils":0,"index":5021617,"path":"e120n30/e126n36"
,"runways":[
{"len_m":406,"wid_m":21.34,"hdg":69,"surf":"Dirt","rwy1":"07","lat1":36.75538900,"lon1":126.32772500,"rwy2":"25","lat2":36.75667800,"lon2":126.33198900}
]
,"navaids":[
{"type":"SDME","hdg_t":110.4,"dist_nm":7.8,"freq":111.5,"lat":36.71006100,"lon":126.48226400,"rng_nm":25,"alt_fmsl":39,"id":"SAN","desc":"SEOSAN TACAN"},
{"type":"VOR","hdg_t":68.9,"dist_nm":35.6,"freq":108.2,"lat":36.96776400,"lon":127.02086900,"rng_nm":25,"alt_fmsl":47,"id":"PTK","desc":"PYEONGTAEK VOR-DME"},
{"type":"NDB","hdg_t":69.7,"dist_nm":35.8,"freq":381,"lat":36.96146400,"lon":127.02963300,"rng_nm":50,"alt_fmsl":38,"id":"RE","desc":"PYEONGTAEK NDB"},
{"type":"VOR","hdg_t":58.9,"dist_nm":39.2,"freq":114.7,"lat":37.09190000,"lon":127.02974700,"rng_nm":100,"alt_fmsl":34,"id":"OSN","desc":"OSAN VORTAC"},
{"type":"SDME","hdg_t":47.8,"dist_nm":43.3,"freq":108.5,"lat":37.23990800,"lon":127.00146900,"rng_nm":25,"alt_fmsl":86,"id":"SWN","desc":"SUWON TACAN"},
{"type":"VOR","hdg_t":6.1,"dist_nm":44.5,"freq":113.8,"lat":37.49491700,"lon":126.43033300,"rng_nm":25,"alt_fmsl":23,"id":"NCN","desc":"INCHEON VOR-DME"},
{"type":"VOR","hdg_t":127.2,"dist_nm":48.1,"freq":117.5,"lat":36.26722200,"lon":127.11888900,"rng_nm":40,"alt_fmsl":104,"id":"NSN","desc":"NONSAN VOR-DME"},
{"type":"VOR","hdg_t":35.9,"dist_nm":48.7,"freq":115.5,"lat":37.41388900,"lon":126.92861100,"rng_nm":125,"alt_fmsl":900,"id":"SEL","desc":"ANYANG VORTAC"},
{"type":"VOR","hdg_t":164.8,"dist_nm":52.4,"freq":112.8,"lat":35.91036700,"lon":126.61136700,"rng_nm":100,"alt_fmsl":61,"id":"KUZ","desc":"KUNSAN VORTAC"},
{"type":"VOR","hdg_t":24.6,"dist_nm":52.8,"freq":113.6,"lat":37.55752800,"lon":126.79202800,"rng_nm":25,"alt_fmsl":49,"id":"KIP","desc":"GIMPO VOR-DME"},
{"type":"SDME","hdg_t":42.4,"dist_nm":54.8,"freq":110.9,"lat":37.42883300,"lon":127.10550000,"rng_nm":25,"alt_fmsl":133,"id":"SOL","desc":"SEOUL TACAN"},
{"type":"VOR","hdg_t":42.3,"dist_nm":55.3,"freq":113,"lat":37.43520300,"lon":127.11017800,"rng_nm":25,"alt_fmsl":82,"id":"KSM","desc":"SEOUL VOR-DME"},
{"type":"VOR","hdg_t":91.9,"dist_nm":56.1,"freq":109,"lat":36.71777800,"lon":127.49416700,"rng_nm":25,"alt_fmsl":191,"id":"CHO","desc":"CHEONGJU VOR-DME"},
{"type":"SDME","hdg_t":92.4,"dist_nm":56.3,"freq":110.5,"lat":36.70933300,"lon":127.49716700,"rng_nm":25,"alt_fmsl":191,"id":"CHJ","desc":"CHEONGJU TACAN"},
{"type":"NDB","hdg_t":101.1,"dist_nm":57.5,"freq":351,"lat":36.56486100,"lon":127.49738900,"rng_nm":50,"alt_fmsl":388,"id":"CW","desc":"SEONGMU NDB"},
{"type":"VOR","hdg_t":63.9,"dist_nm":61.5,"freq":117.2,"lat":37.20169400,"lon":127.48255300,"rng_nm":25,"alt_fmsl":255,"id":"ICN","desc":"ICHEON VOR"},
{"type":"VOR","hdg_t":27.7,"dist_nm":67.2,"freq":114.9,"lat":37.74797200,"lon":126.98825000,"rng_nm":130,"alt_fmsl":1368,"id":"YJU","desc":"YANGJU VOR-DME"},
{"type":"SDME","hdg_t":77,"dist_nm":76.9,"freq":111.3,"lat":37.03308900,"lon":127.89191900,"rng_nm":25,"alt_fmsl":281,"id":"JWN","desc":"JUNGWON TACAN"},
{"type":"NDB","hdg_t":63.9,"dist_nm":84.1,"freq":274,"lat":37.36166700,"lon":127.91027800,"rng_nm":15,"alt_fmsl":329,"id":"WJ","desc":"WONJU NDB"},
{"type":"VOR","hdg_t":60.8,"dist_nm":89.9,"freq":110.2,"lat":37.47583300,"lon":127.97500000,"rng_nm":130,"alt_fmsl":474,"id":"HGS","desc":"WONJU VOR-DME"},
{"type":"SDME","hdg_t":61,"dist_nm":89.9,"freq":111.6,"lat":37.47125800,"lon":127.97756100,"rng_nm":25,"alt_fmsl":481,"id":"WNJ","desc":"WONJU TACAN"},
{"type":"VOR","hdg_t":93.8,"dist_nm":96.5,"freq":114.8,"lat":36.63202800,"lon":128.32538900,"rng_nm":130,"alt_fmsl":400,"id":"CUN","desc":"YECHEON VOR-DME"},
{"type":"SDME","hdg_t":93.6,"dist_nm":98.4,"freq":108.9,"lat":36.63412800,"lon":128.36439200,"rng_nm":25,"alt_fmsl":354,"id":"YCN","desc":"YECHEON TACAN"}
]
}
