{"success":true,"source":"xp2csv.pl","last_updated":"2013/11/08 14:53:21 UTC"
,"icao":"RK52","name":"G 501","lat":37.286827,"lon":127.22665475,"rwys":2,"ils":0,"index":5038032,"path":"e120n30/e127n37"
,"runways":[
{"len_m":578,"wid_m":22.86,"hdg":15,"surf":"Asphalt","rwy1":"02R","lat1":37.28241700,"lon1":127.22571900,"rwy2":"20L","lat2":37.28744400,"lon2":127.22745000},
{"len_m":198,"wid_m":22.86,"hdg":15,"surf":"Asphalt","rwy1":"02L","lat1":37.28786100,"lon1":127.22641900,"rwy2":"20R","lat2":37.28958600,"lon2":127.22703100}
]
,"radios":[
{"type":"TWR","freq":119.6,"desc":"YONGIN TWR"}
]
,"navaids":[
{"type":"SDME","hdg_t":325.7,"dist_nm":10.2,"freq":110.9,"lat":37.42883300,"lon":127.10550000,"rng_nm":25,"alt_fmsl":133,"id":"SOL","desc":"SEOUL TACAN"},
{"type":"VOR","hdg_t":327.9,"dist_nm":10.4,"freq":113,"lat":37.43520300,"lon":127.11017800,"rng_nm":25,"alt_fmsl":82,"id":"KSM","desc":"SEOUL VOR-DME"},
{"type":"SDME","hdg_t":255.4,"dist_nm":11.1,"freq":108.5,"lat":37.23990800,"lon":127.00146900,"rng_nm":25,"alt_fmsl":86,"id":"SWN","desc":"SUWON TACAN"},
{"type":"VOR","hdg_t":112.5,"dist_nm":13.2,"freq":117.2,"lat":37.20169400,"lon":127.48255300,"rng_nm":25,"alt_fmsl":255,"id":"ICN","desc":"ICHEON VOR"},
{"type":"VOR","hdg_t":219,"dist_nm":15,"freq":114.7,"lat":37.09190000,"lon":127.02974700,"rng_nm":100,"alt_fmsl":34,"id":"OSN","desc":"OSAN VORTAC"},
{"type":"VOR","hdg_t":298.1,"dist_nm":16.1,"freq":115.5,"lat":37.41388900,"lon":126.92861100,"rng_nm":125,"alt_fmsl":900,"id":"SEL","desc":"ANYANG VORTAC"},
{"type":"VOR","hdg_t":207.3,"dist_nm":21.5,"freq":108.2,"lat":36.96776400,"lon":127.02086900,"rng_nm":25,"alt_fmsl":47,"id":"PTK","desc":"PYEONGTAEK VOR-DME"},
{"type":"NDB","hdg_t":205.9,"dist_nm":21.6,"freq":381,"lat":36.96146400,"lon":127.02963300,"rng_nm":50,"alt_fmsl":38,"id":"RE","desc":"PYEONGTAEK NDB"},
{"type":"VOR","hdg_t":308.1,"dist_nm":26.3,"freq":113.6,"lat":37.55752800,"lon":126.79202800,"rng_nm":25,"alt_fmsl":49,"id":"KIP","desc":"GIMPO VOR-DME"},
{"type":"VOR","hdg_t":337.6,"dist_nm":29.8,"freq":114.9,"lat":37.74797200,"lon":126.98825000,"rng_nm":130,"alt_fmsl":1368,"id":"YJU","desc":"YANGJU VOR-DME"},
{"type":"NDB","hdg_t":81.9,"dist_nm":33,"freq":274,"lat":37.36166700,"lon":127.91027800,"rng_nm":15,"alt_fmsl":329,"id":"WJ","desc":"WONJU NDB"},
{"type":"SDME","hdg_t":115.2,"dist_nm":35.3,"freq":111.3,"lat":37.03308900,"lon":127.89191900,"rng_nm":25,"alt_fmsl":281,"id":"JWN","desc":"JUNGWON TACAN"},
{"type":"VOR","hdg_t":159.2,"dist_nm":36.4,"freq":109,"lat":36.71777800,"lon":127.49416700,"rng_nm":25,"alt_fmsl":191,"id":"CHO","desc":"CHEONGJU VOR-DME"},
{"type":"SDME","hdg_t":159.3,"dist_nm":36.9,"freq":110.5,"lat":36.70933300,"lon":127.49716700,"rng_nm":25,"alt_fmsl":191,"id":"CHJ","desc":"CHEONGJU TACAN"},
{"type":"VOR","hdg_t":72.2,"dist_nm":37.5,"freq":110.2,"lat":37.47583300,"lon":127.97500000,"rng_nm":130,"alt_fmsl":474,"id":"HGS","desc":"WONJU VOR-DME"},
{"type":"SDME","hdg_t":72.6,"dist_nm":37.5,"freq":111.6,"lat":37.47125800,"lon":127.97756100,"rng_nm":25,"alt_fmsl":481,"id":"WNJ","desc":"WONJU TACAN"},
{"type":"VOR","hdg_t":288.3,"dist_nm":40,"freq":113.8,"lat":37.49491700,"lon":126.43033300,"rng_nm":25,"alt_fmsl":23,"id":"NCN","desc":"INCHEON VOR-DME"},
{"type":"NDB","hdg_t":163.1,"dist_nm":45.1,"freq":351,"lat":36.56486100,"lon":127.49738900,"rng_nm":50,"alt_fmsl":388,"id":"CW","desc":"SEONGMU NDB"},
{"type":"SDME","hdg_t":226.2,"dist_nm":49.7,"freq":111.5,"lat":36.71006100,"lon":126.48226400,"rng_nm":25,"alt_fmsl":39,"id":"SAN","desc":"SEOSAN TACAN"},
{"type":"VOR","hdg_t":184.8,"dist_nm":61.3,"freq":117.5,"lat":36.26722200,"lon":127.11888900,"rng_nm":40,"alt_fmsl":104,"id":"NSN","desc":"NONSAN VOR-DME"},
{"type":"VOR","hdg_t":126.2,"dist_nm":65.8,"freq":114.8,"lat":36.63202800,"lon":128.32538900,"rng_nm":130,"alt_fmsl":400,"id":"CUN","desc":"YECHEON VOR-DME"},
{"type":"SDME","hdg_t":125.2,"dist_nm":67.2,"freq":108.9,"lat":36.63412800,"lon":128.36439200,"rng_nm":25,"alt_fmsl":354,"id":"YCN","desc":"YECHEON TACAN"},
{"type":"VOR","hdg_t":70.7,"dist_nm":77,"freq":115.6,"lat":37.70055600,"lon":128.75361100,"rng_nm":100,"alt_fmsl":3360,"id":"KAE","desc":"GANGWON VORTAC"},
{"type":"VOR","hdg_t":55.3,"dist_nm":82.6,"freq":110.6,"lat":38.06322200,"lon":128.66150000,"rng_nm":25,"alt_fmsl":241,"id":"YAG","desc":"YANGYANG VOR-DME"},
{"type":"NDB","hdg_t":51.6,"dist_nm":82.7,"freq":378,"lat":38.13611100,"lon":128.59777800,"rng_nm":50,"alt_fmsl":49,"id":"SK","desc":"SOKCHO NDB"},
{"type":"VOR","hdg_t":51.3,"dist_nm":83.3,"freq":111,"lat":38.14777800,"lon":128.60111100,"rng_nm":25,"alt_fmsl":49,"id":"SCH","desc":"SOKCHO VOR-DME"},
{"type":"NDB","hdg_t":70.8,"dist_nm":86.8,"freq":257,"lat":37.75000000,"lon":128.95000000,"rng_nm":75,"alt_fmsl":6,"id":"LC","desc":"KANGNUNG NDB"},
{"type":"VOR","hdg_t":70.5,"dist_nm":86.9,"freq":113.5,"lat":37.75884200,"lon":128.95026400,"rng_nm":25,"alt_fmsl":50,"id":"KOG","desc":"GANGNEUNG VOR-DME"},
{"type":"SDME","hdg_t":70.5,"dist_nm":87,"freq":111.9,"lat":37.75833300,"lon":128.95166700,"rng_nm":25,"alt_fmsl":35,"id":"KAN","desc":"GANGNEUNG TACAN"},
{"type":"VOR","hdg_t":200,"dist_nm":87.6,"freq":112.8,"lat":35.91036700,"lon":126.61136700,"rng_nm":100,"alt_fmsl":61,"id":"KUZ","desc":"KUNSAN VORTAC"}
]
}
