{"success":true,"source":"xp2csv.pl","last_updated":"2013/11/08 14:53:21 UTC"
,"icao":"RKRK","name":"G 213","lat":37.8116665,"lon":127.357222,"rwys":1,"ils":0,"index":5038065,"path":"e120n30/e127n37"
,"runways":[
{"len_m":461,"wid_m":23.16,"hdg":160,"surf":"Concrete","rwy1":"16","lat1":37.81362200,"lon1":127.35632500,"rwy2":"34","lat2":37.80971100,"lon2":127.35811900}
]
,"navaids":[
{"type":"VOR","hdg_t":257.8,"dist_nm":17.9,"freq":114.9,"lat":37.74797200,"lon":126.98825000,"rng_nm":130,"alt_fmsl":1368,"id":"YJU","desc":"YANGJU VOR-DME"},
{"type":"VOR","hdg_t":207.6,"dist_nm":25.4,"freq":113,"lat":37.43520300,"lon":127.11017800,"rng_nm":25,"alt_fmsl":82,"id":"KSM","desc":"SEOUL VOR-DME"},
{"type":"SDME","hdg_t":207.6,"dist_nm":25.8,"freq":110.9,"lat":37.42883300,"lon":127.10550000,"rng_nm":25,"alt_fmsl":133,"id":"SOL","desc":"SEOUL TACAN"},
{"type":"VOR","hdg_t":240.6,"dist_nm":30.9,"freq":113.6,"lat":37.55752800,"lon":126.79202800,"rng_nm":25,"alt_fmsl":49,"id":"KIP","desc":"GIMPO VOR-DME"},
{"type":"VOR","hdg_t":220.7,"dist_nm":31.3,"freq":115.5,"lat":37.41388900,"lon":126.92861100,"rng_nm":125,"alt_fmsl":900,"id":"SEL","desc":"ANYANG VORTAC"},
{"type":"VOR","hdg_t":124.1,"dist_nm":35.6,"freq":110.2,"lat":37.47583300,"lon":127.97500000,"rng_nm":130,"alt_fmsl":474,"id":"HGS","desc":"WONJU VOR-DME"},
{"type":"SDME","hdg_t":124.4,"dist_nm":35.9,"freq":111.6,"lat":37.47125800,"lon":127.97756100,"rng_nm":25,"alt_fmsl":481,"id":"WNJ","desc":"WONJU TACAN"},
{"type":"VOR","hdg_t":170.6,"dist_nm":37,"freq":117.2,"lat":37.20169400,"lon":127.48255300,"rng_nm":25,"alt_fmsl":255,"id":"ICN","desc":"ICHEON VOR"},
{"type":"NDB","hdg_t":135.4,"dist_nm":37.7,"freq":274,"lat":37.36166700,"lon":127.91027800,"rng_nm":15,"alt_fmsl":329,"id":"WJ","desc":"WONJU NDB"},
{"type":"SDME","hdg_t":206.4,"dist_nm":38.2,"freq":108.5,"lat":37.23990800,"lon":127.00146900,"rng_nm":25,"alt_fmsl":86,"id":"SWN","desc":"SUWON TACAN"},
{"type":"VOR","hdg_t":200,"dist_nm":45.8,"freq":114.7,"lat":37.09190000,"lon":127.02974700,"rng_nm":100,"alt_fmsl":34,"id":"OSN","desc":"OSAN VORTAC"},
{"type":"VOR","hdg_t":247,"dist_nm":48,"freq":113.8,"lat":37.49491700,"lon":126.43033300,"rng_nm":25,"alt_fmsl":23,"id":"NCN","desc":"INCHEON VOR-DME"},
{"type":"VOR","hdg_t":197.7,"dist_nm":53,"freq":108.2,"lat":36.96776400,"lon":127.02086900,"rng_nm":25,"alt_fmsl":47,"id":"PTK","desc":"PYEONGTAEK VOR-DME"},
{"type":"SDME","hdg_t":151.1,"dist_nm":53.1,"freq":111.3,"lat":37.03308900,"lon":127.89191900,"rng_nm":25,"alt_fmsl":281,"id":"JWN","desc":"JUNGWON TACAN"},
{"type":"NDB","hdg_t":197.1,"dist_nm":53.3,"freq":381,"lat":36.96146400,"lon":127.02963300,"rng_nm":50,"alt_fmsl":38,"id":"RE","desc":"PYEONGTAEK NDB"},
{"type":"NDB","hdg_t":71.3,"dist_nm":61.9,"freq":378,"lat":38.13611100,"lon":128.59777800,"rng_nm":50,"alt_fmsl":49,"id":"SK","desc":"SOKCHO NDB"},
{"type":"VOR","hdg_t":70.7,"dist_nm":62.3,"freq":111,"lat":38.14777800,"lon":128.60111100,"rng_nm":25,"alt_fmsl":49,"id":"SCH","desc":"SOKCHO VOR-DME"},
{"type":"VOR","hdg_t":75.9,"dist_nm":63.7,"freq":110.6,"lat":38.06322200,"lon":128.66150000,"rng_nm":25,"alt_fmsl":241,"id":"YAG","desc":"YANGYANG VOR-DME"},
{"type":"VOR","hdg_t":174.2,"dist_nm":65.8,"freq":109,"lat":36.71777800,"lon":127.49416700,"rng_nm":25,"alt_fmsl":191,"id":"CHO","desc":"CHEONGJU VOR-DME"},
{"type":"SDME","hdg_t":174.1,"dist_nm":66.3,"freq":110.5,"lat":36.70933300,"lon":127.49716700,"rng_nm":25,"alt_fmsl":191,"id":"CHJ","desc":"CHEONGJU TACAN"},
{"type":"VOR","hdg_t":95.2,"dist_nm":66.7,"freq":115.6,"lat":37.70055600,"lon":128.75361100,"rng_nm":100,"alt_fmsl":3360,"id":"KAE","desc":"GANGWON VORTAC"},
{"type":"NDB","hdg_t":174.8,"dist_nm":75,"freq":351,"lat":36.56486100,"lon":127.49738900,"rng_nm":50,"alt_fmsl":388,"id":"CW","desc":"SEONGMU NDB"},
{"type":"NDB","hdg_t":92.3,"dist_nm":75.8,"freq":257,"lat":37.75000000,"lon":128.95000000,"rng_nm":75,"alt_fmsl":6,"id":"LC","desc":"KANGNUNG NDB"},
{"type":"VOR","hdg_t":91.9,"dist_nm":75.8,"freq":113.5,"lat":37.75884200,"lon":128.95026400,"rng_nm":25,"alt_fmsl":50,"id":"KOG","desc":"GANGNEUNG VOR-DME"},
{"type":"SDME","hdg_t":91.9,"dist_nm":75.9,"freq":111.9,"lat":37.75833300,"lon":128.95166700,"rng_nm":25,"alt_fmsl":35,"id":"KAN","desc":"GANGNEUNG TACAN"},
{"type":"SDME","hdg_t":212.6,"dist_nm":78.1,"freq":111.5,"lat":36.71006100,"lon":126.48226400,"rng_nm":25,"alt_fmsl":39,"id":"SAN","desc":"SEOSAN TACAN"},
{"type":"VOR","hdg_t":146.4,"dist_nm":84.5,"freq":114.8,"lat":36.63202800,"lon":128.32538900,"rng_nm":130,"alt_fmsl":400,"id":"CUN","desc":"YECHEON VOR-DME"},
{"type":"SDME","hdg_t":145.3,"dist_nm":85.4,"freq":108.9,"lat":36.63412800,"lon":128.36439200,"rng_nm":25,"alt_fmsl":354,"id":"YCN","desc":"YECHEON TACAN"},
{"type":"VOR","hdg_t":187.1,"dist_nm":93.2,"freq":117.5,"lat":36.26722200,"lon":127.11888900,"rng_nm":40,"alt_fmsl":104,"id":"NSN","desc":"NONSAN VOR-DME"}
]
}
