{"success":true,"source":"xp2csv.pl","last_updated":"2013/11/08 14:53:21 UTC"
,"icao":"RPLP","name":"Legazpi","lat":13.1570635,"lon":123.729581,"rwys":1,"ils":0,"index":4970957,"path":"e120n10/e123n13"
,"runways":[
{"len_m":2277,"wid_m":35.97,"hdg":57,"surf":"Asphalt","rwy1":"06","lat1":13.15151900,"lon1":123.72073100,"rwy2":"24","lat2":13.16260800,"lon2":123.73843100}
]
,"radios":[
{"type":"TWR","freq":118.1,"desc":"TWR"},
{"type":"TWR","freq":123.3,"desc":"TWR"}
]
,"navaids":[
{"type":"VOR","hdg_t":192.1,"dist_nm":0.4,"freq":112.2,"lat":13.15024700,"lon":123.72808100,"rng_nm":50,"alt_fmsl":66,"id":"LP","desc":"LEGAZPI VOR-DME"},
{"type":"NDB","hdg_t":239.1,"dist_nm":9.1,"freq":360,"lat":13.07858600,"lon":123.59558100,"rng_nm":50,"alt_fmsl":0,"id":"JV","desc":"JOVELLAR NDB"},
{"type":"VOR","hdg_t":313.3,"dist_nm":37,"freq":114.7,"lat":13.58221900,"lon":123.26954200,"rng_nm":60,"alt_fmsl":170,"id":"NGA","desc":"NAGA VOR-DME"},
{"type":"NDB","hdg_t":45.1,"dist_nm":39.8,"freq":268,"lat":13.62688100,"lon":124.21308300,"rng_nm":50,"alt_fmsl":0,"id":"VC","desc":"VIRAC NDB"},
{"type":"VOR","hdg_t":187,"dist_nm":47.4,"freq":115.7,"lat":12.36922800,"lon":123.63051400,"rng_nm":50,"alt_fmsl":50,"id":"MBT","desc":"MASBATE VOR-DME"},
{"type":"NDB","hdg_t":323.3,"dist_nm":72.8,"freq":215,"lat":14.13346400,"lon":122.98303300,"rng_nm":50,"alt_fmsl":0,"id":"DT","desc":"DAET NDB"},
{"type":"NDB","hdg_t":316.5,"dist_nm":92.7,"freq":228,"lat":14.28184700,"lon":122.63475600,"rng_nm":61,"alt_fmsl":18,"id":"LR","desc":"LARAP NDB"},
{"type":"VOR","hdg_t":211.6,"dist_nm":109.3,"freq":112.9,"lat":11.59692500,"lon":122.75511900,"rng_nm":100,"alt_fmsl":47,"id":"ROX","desc":"ROXAS VOR-DME"},
{"type":"VOR","hdg_t":222,"dist_nm":118.2,"freq":113,"lat":11.68358300,"lon":122.38327800,"rng_nm":100,"alt_fmsl":14,"id":"KLO","desc":"KALIBO VOR-DME"},
{"type":"NDB","hdg_t":301.2,"dist_nm":123.1,"freq":247,"lat":14.22028900,"lon":121.92403100,"rng_nm":300,"alt_fmsl":6,"id":"AL","desc":"ALABAT NDB"}
]
}
