{"success":true,"source":"xp2csv.pl","last_updated":"2013/11/08 14:53:21 UTC"
,"icao":"RPLU","name":"Lubang","lat":13.8554265,"lon":120.105396,"rwys":1,"ils":0,"index":4921840,"path":"e120n10/e120n13"
,"runways":[
{"len_m":1258,"wid_m":30.48,"hdg":65,"surf":"Asphalt","rwy1":"07","lat1":13.85305300,"lon1":120.10010600,"rwy2":"25","lat2":13.85780000,"lon2":120.11068600}
]
,"navaids":[
{"type":"VOR","hdg_t":128.4,"dist_nm":0.1,"freq":117.5,"lat":13.85412500,"lon":120.10707500,"rng_nm":50,"alt_fmsl":43,"id":"LBG","desc":"LUBANG VOR-DME"},
{"type":"NDB","hdg_t":53.3,"dist_nm":55,"freq":285,"lat":14.40479200,"lon":120.86451700,"rng_nm":50,"alt_fmsl":0,"id":"RS","desc":"ROSARIO NDB"},
{"type":"VOR","hdg_t":7.2,"dist_nm":55,"freq":113.5,"lat":14.76960800,"lon":120.22507200,"rng_nm":50,"alt_fmsl":158,"id":"SBA","desc":"SUBIC BAY VOR-DME"},
{"type":"NDB","hdg_t":7.1,"dist_nm":55.3,"freq":366,"lat":14.77476100,"lon":120.22364200,"rng_nm":50,"alt_fmsl":78,"id":"SFS","desc":"SUBIC BAY NDB"},
{"type":"NDB","hdg_t":84.1,"dist_nm":59.9,"freq":259,"lat":13.95621100,"lon":121.12669700,"rng_nm":50,"alt_fmsl":1220,"id":"LIP","desc":"LIPA NDB"},
{"type":"VOR","hdg_t":84.1,"dist_nm":59.9,"freq":115.1,"lat":13.95621100,"lon":121.12669700,"rng_nm":50,"alt_fmsl":1220,"id":"LIP","desc":"LIPA VOR"},
{"type":"VOR","hdg_t":53.7,"dist_nm":66.1,"freq":113.8,"lat":14.50797200,"lon":121.02173600,"rng_nm":50,"alt_fmsl":60,"id":"MIA","desc":"MANILA VOR-DME"},
{"type":"NDB","hdg_t":18.1,"dist_nm":70.8,"freq":404,"lat":14.98181400,"lon":120.48476100,"rng_nm":50,"alt_fmsl":151,"id":"BB","desc":"BASA NDB"},
{"type":"NDB","hdg_t":35.2,"dist_nm":75.1,"freq":295,"lat":14.88181900,"lon":120.85142800,"rng_nm":50,"alt_fmsl":20,"id":"PL","desc":"PLARIDEL NDB"},
{"type":"VOR","hdg_t":18.3,"dist_nm":83.8,"freq":113.1,"lat":15.18688900,"lon":120.56063100,"rng_nm":130,"alt_fmsl":484,"id":"CIA","desc":"CLARK VOR-DME"},
{"type":"NDB","hdg_t":18.4,"dist_nm":85.3,"freq":362,"lat":15.20940800,"lon":120.57146100,"rng_nm":50,"alt_fmsl":0,"id":"CIA","desc":"CLARK NDB"}
]
}
