{"success":true,"source":"xp2csv.pl","last_updated":"2013/11/08 14:53:21 UTC"
,"icao":"RPUG","name":"Lingayen","lat":16.0347845,"lon":120.2411055,"rwys":1,"ils":0,"index":4921985,"path":"e120n10/e120n16"
,"runways":[
{"len_m":1043,"wid_m":29.87,"hdg":74,"surf":"Asphalt","rwy1":"08","lat1":16.03350800,"lon1":120.23641400,"rwy2":"26","lat2":16.03606100,"lon2":120.24579700}
]
,"navaids":[
{"type":"NDB","hdg_t":46.8,"dist_nm":29.6,"freq":272,"lat":16.37439200,"lon":120.61670800,"rng_nm":50,"alt_fmsl":4242,"id":"BG","desc":"BAGUIO NDB"},
{"type":"VOR","hdg_t":9.2,"dist_nm":41.9,"freq":114.5,"lat":16.72837500,"lon":120.35810800,"rng_nm":50,"alt_fmsl":0,"id":"SAN","desc":"SAN FERNANDO VOR"},
{"type":"NDB","hdg_t":158.7,"dist_nm":52.8,"freq":362,"lat":15.20940800,"lon":120.57146100,"rng_nm":50,"alt_fmsl":0,"id":"CIA","desc":"CLARK NDB"},
{"type":"VOR","hdg_t":159.8,"dist_nm":53.9,"freq":113.1,"lat":15.18688900,"lon":120.56063100,"rng_nm":130,"alt_fmsl":484,"id":"CIA","desc":"CLARK VOR-DME"},
{"type":"VOR","hdg_t":125.9,"dist_nm":56,"freq":112.7,"lat":15.48226900,"lon":121.02429700,"rng_nm":100,"alt_fmsl":177,"id":"CAB","desc":"CABANATUAN VOR-DME"},
{"type":"NDB","hdg_t":167.3,"dist_nm":64.4,"freq":404,"lat":14.98181400,"lon":120.48476100,"rng_nm":50,"alt_fmsl":151,"id":"BB","desc":"BASA NDB"},
{"type":"NDB","hdg_t":59,"dist_nm":67.9,"freq":339,"lat":16.61786100,"lon":121.25287800,"rng_nm":50,"alt_fmsl":0,"id":"BA","desc":"BAGABAG NDB"},
{"type":"NDB","hdg_t":180.7,"dist_nm":75.2,"freq":366,"lat":14.77476100,"lon":120.22364200,"rng_nm":50,"alt_fmsl":78,"id":"SFS","desc":"SUBIC BAY NDB"},
{"type":"VOR","hdg_t":180.7,"dist_nm":75.5,"freq":113.5,"lat":14.76960800,"lon":120.22507200,"rng_nm":50,"alt_fmsl":158,"id":"SBA","desc":"SUBIC BAY VOR-DME"},
{"type":"NDB","hdg_t":152.7,"dist_nm":77.4,"freq":295,"lat":14.88181900,"lon":120.85142800,"rng_nm":50,"alt_fmsl":20,"id":"PL","desc":"PLARIDEL NDB"}
]
}
