{"success":true,"source":"xp2csv.pl","last_updated":"2013/11/08 14:53:21 UTC"
,"icao":"S33","name":"City Co","lat":44.6715265,"lon":-121.15596175,"rwys":2,"ils":0,"index":958891,"path":"w130n40/w122n44"
,"runways":[
{"len_m":1550,"wid_m":22.86,"hdg":180,"surf":"Asphalt","rwy1":"16","lat1":44.67403100,"lon1":-121.15338600,"rwy2":"34","lat2":44.66007800,"lon2":-121.15338900},
{"len_m":834,"wid_m":15.24,"hdg":54,"surf":"Asphalt","rwy1":"03","lat1":44.67384400,"lon1":-121.16284700,"rwy2":"21","lat2":44.67815300,"lon2":-121.15422500}
]
,"radios":[
{"type":"CTAF","freq":122.8,"desc":"CTAF/UNICOM"}
]
,"navaids":[
{"type":"NDB","hdg_t":164.8,"dist_nm":22.5,"freq":411,"lat":44.30797222,"lon":-121.01894444,"rng_nm":50,"alt_fmsl":0,"id":"RD","desc":"BODEY NDB"},
{"type":"VOR","hdg_t":194.2,"dist_nm":25.9,"freq":117.6,"lat":44.25275000,"lon":-121.30352778,"rng_nm":130,"alt_fmsl":4101,"id":"DSD","desc":"DESCHUTES VORTAC"},
{"type":"VOR","hdg_t":90.7,"dist_nm":61.8,"freq":115.6,"lat":44.64838889,"lon":-119.71163889,"rng_nm":130,"alt_fmsl":5220,"id":"IMB","desc":"KIMBERLY VORTAC"},
{"type":"VOR","hdg_t":2.1,"dist_nm":62.5,"freq":112.3,"lat":45.71355556,"lon":-121.10083333,"rng_nm":130,"alt_fmsl":3220,"id":"LTJ","desc":"KLICKITAT VOR-DME"},
{"type":"NDB","hdg_t":313.6,"dist_nm":76.1,"freq":332,"lat":45.54105556,"lon":-122.46233333,"rng_nm":50,"alt_fmsl":0,"id":"LBH","desc":"LAKER (LOM/NDB) NDB"},
{"type":"NDB","hdg_t":278.4,"dist_nm":77.4,"freq":266,"lat":44.84744444,"lon":-122.95102778,"rng_nm":50,"alt_fmsl":0,"id":"SL","desc":"TURNO NDB"},
{"type":"NDB","hdg_t":298.6,"dist_nm":77.9,"freq":366,"lat":45.28339200,"lon":-122.77036400,"rng_nm":25,"alt_fmsl":157,"id":"PLV","desc":"PRAHL NDB"},
{"type":"SDME","hdg_t":312.1,"dist_nm":82.7,"freq":109.2,"lat":45.58863100,"lon":-122.61125300,"rng_nm":130,"alt_fmsl":22,"id":"CBU","desc":"COLUMBIA TACAN"},
{"type":"VOR","hdg_t":312.4,"dist_nm":82.8,"freq":111.8,"lat":45.59369444,"lon":-122.60627778,"rng_nm":40,"alt_fmsl":23,"id":"PDX","desc":"PORTLAND VOR-DME"},
{"type":"NDB","hdg_t":294,"dist_nm":86.9,"freq":383,"lat":45.24613100,"lon":-123.02973600,"rng_nm":50,"alt_fmsl":159,"id":"MM","desc":"MINNE NDB"},
{"type":"VOR","hdg_t":298.4,"dist_nm":87.6,"freq":117.4,"lat":45.35322222,"lon":-122.97816667,"rng_nm":130,"alt_fmsl":1440,"id":"UBG","desc":"NEWBERG VOR-DME"},
{"type":"VOR","hdg_t":317.1,"dist_nm":88.7,"freq":116.6,"lat":45.74780556,"lon":-122.59152778,"rng_nm":130,"alt_fmsl":253,"id":"BTG","desc":"BATTLEGROUND VORTAC"},
{"type":"NDB","hdg_t":268.5,"dist_nm":90.6,"freq":225,"lat":44.61358333,"lon":-123.27066667,"rng_nm":50,"alt_fmsl":0,"id":"LWG","desc":"LEWISBURG NDB"},
{"type":"VOR","hdg_t":264.3,"dist_nm":92.2,"freq":115.4,"lat":44.49958333,"lon":-123.29366667,"rng_nm":130,"alt_fmsl":241,"id":"CVO","desc":"CORVALLIS VOR-DME"},
{"type":"VOR","hdg_t":250.3,"dist_nm":94.8,"freq":112.9,"lat":44.12088889,"lon":-123.22283333,"rng_nm":130,"alt_fmsl":364,"id":"EUG","desc":"EUGENE VORTAC"},
{"type":"NDB","hdg_t":306.3,"dist_nm":98.7,"freq":356,"lat":45.63027778,"lon":-123.04580556,"rng_nm":50,"alt_fmsl":0,"id":"PND","desc":"BANKS NDB"}
]
}
