{"success":true,"source":"xp2csv.pl","last_updated":"2013/11/08 14:53:21 UTC"
,"icao":"S69","name":"Lincoln","lat":46.9543555,"lon":-112.6504635,"rwys":1,"ils":0,"index":1106489,"path":"w120n40/w113n46"
,"runways":[
{"len_m":1220,"wid_m":22.86,"hdg":55,"surf":"Asphalt","rwy1":"04","lat1":46.95125800,"lon1":-112.65708300,"rwy2":"22","lat2":46.95745300,"lon2":-112.64384400}
]
,"radios":[
{"type":"CTAF","freq":122.9,"desc":"CTAF"}
]
,"navaids":[
{"type":"VOR","hdg_t":229.3,"dist_nm":29.2,"freq":117.1,"lat":46.63609700,"lon":-113.18659400,"rng_nm":40,"alt_fmsl":4150,"id":"DRU","desc":"DRUMMOND VOR"},
{"type":"VOR","hdg_t":125.7,"dist_nm":35.5,"freq":117.7,"lat":46.60683333,"lon":-111.95347222,"rng_nm":130,"alt_fmsl":3823,"id":"HLN","desc":"HELENA VORTAC"},
{"type":"NDB","hdg_t":125,"dist_nm":36,"freq":335,"lat":46.60666667,"lon":-111.93716667,"rng_nm":50,"alt_fmsl":0,"id":"CVP","desc":"CAPITOL NDB"},
{"type":"NDB","hdg_t":121.8,"dist_nm":43.4,"freq":386,"lat":46.56888889,"lon":-111.75805556,"rng_nm":50,"alt_fmsl":0,"id":"HAU","desc":"HAUSER NDB"},
{"type":"VOR","hdg_t":184.1,"dist_nm":55.5,"freq":111.6,"lat":46.03200000,"lon":-112.74752778,"rng_nm":40,"alt_fmsl":5780,"id":"CPN","desc":"COPPERTOWN VOR-DME"},
{"type":"NDB","hdg_t":20.3,"dist_nm":55.6,"freq":269,"lat":47.82247222,"lon":-112.17102778,"rng_nm":50,"alt_fmsl":0,"id":"CII","desc":"CHOTEAU NDB"},
{"type":"NDB","hdg_t":64.2,"dist_nm":57.8,"freq":371,"lat":47.36588889,"lon":-111.37286111,"rng_nm":50,"alt_fmsl":0,"id":"ITU","desc":"TRULY NDB"},
{"type":"VOR","hdg_t":59.1,"dist_nm":58.7,"freq":115.1,"lat":47.44997222,"lon":-111.41216667,"rng_nm":130,"alt_fmsl":3672,"id":"GTF","desc":"GREAT FALLS VORTAC"},
{"type":"VOR","hdg_t":267.8,"dist_nm":58.9,"freq":112.8,"lat":46.90797222,"lon":-114.08363889,"rng_nm":40,"alt_fmsl":3202,"id":"MSO","desc":"MISSOULA VOR-DME"},
{"type":"NDB","hdg_t":253.7,"dist_nm":66.1,"freq":275,"lat":46.63609700,"lon":-114.18789400,"rng_nm":50,"alt_fmsl":2936,"id":"PLS","desc":"POLSON NDB"},
{"type":"VOR","hdg_t":162.8,"dist_nm":68.5,"freq":113.7,"lat":45.86180556,"lon":-112.16961111,"rng_nm":130,"alt_fmsl":4652,"id":"HIA","desc":"WHITEHALL VOR-DME"},
{"type":"SDME","hdg_t":60.6,"dist_nm":68.5,"freq":115.8,"lat":47.50406100,"lon":-111.18205600,"rng_nm":40,"alt_fmsl":3501,"id":"GFA","desc":"MALMSTROM TACAN"},
{"type":"NDB","hdg_t":277.3,"dist_nm":72.1,"freq":521,"lat":47.09436111,"lon":-114.39677778,"rng_nm":50,"alt_fmsl":0,"id":"INE","desc":"KONNA NDB"},
{"type":"NDB","hdg_t":21.7,"dist_nm":79.7,"freq":293,"lat":48.18561111,"lon":-111.91413889,"rng_nm":50,"alt_fmsl":0,"id":"CRD","desc":"CONRAD NDB"},
{"type":"NDB","hdg_t":138.4,"dist_nm":86.2,"freq":266,"lat":45.87180556,"lon":-111.28572222,"rng_nm":50,"alt_fmsl":0,"id":"BZ","desc":"MANNI NDB"},
{"type":"VOR","hdg_t":137.9,"dist_nm":93.7,"freq":112.4,"lat":45.78388889,"lon":-111.15544444,"rng_nm":130,"alt_fmsl":4430,"id":"BZN","desc":"BOZEMAN VOR-DME"},
{"type":"VOR","hdg_t":7.2,"dist_nm":97.4,"freq":114.4,"lat":48.56491667,"lon":-112.34325000,"rng_nm":40,"alt_fmsl":3780,"id":"CTB","desc":"CUT BANK VORTAC"},
{"type":"VOR","hdg_t":321.2,"dist_nm":97.7,"freq":113.2,"lat":48.21411111,"lon":-114.17588889,"rng_nm":130,"alt_fmsl":2984,"id":"FCA","desc":"KALISPELL VOR-DME"}
]
}
