{"success":true,"source":"xp2csv.pl","last_updated":"2013/11/08 14:53:21 UTC"
,"icao":"S81","name":"Indian Creek Usfs","lat":44.76129722,"lon":-115.10732334,"rwys":1,"ils":0,"index":1057203,"path":"w120n40/w116n44"
,"runways":[
{"len_m":1420,"wid_m":12.19,"hdg":57,"surf":"Dirt","rwy1":"04","lat1":44.75782382,"lon1":-115.11485603,"rwy2":"22","lat2":44.76477062,"lon2":-115.09979065}
]
,"navaids":[
{"type":"VOR","hdg_t":69.9,"dist_nm":46.3,"freq":113.5,"lat":45.02130556,"lon":-114.08425000,"rng_nm":130,"alt_fmsl":9258,"id":"LKT","desc":"SALMON VOR-DME"},
{"type":"VOR","hdg_t":270.8,"dist_nm":46.9,"freq":116.2,"lat":44.76711111,"lon":-116.20627778,"rng_nm":130,"alt_fmsl":7333,"id":"DNJ","desc":"DONNELLY VORTAC"},
{"type":"VOR","hdg_t":213.2,"dist_nm":86.3,"freq":113.3,"lat":43.55280556,"lon":-116.19213889,"rng_nm":130,"alt_fmsl":2876,"id":"BOI","desc":"BOISE VORTAC"},
{"type":"NDB","hdg_t":217.1,"dist_nm":87.1,"freq":359,"lat":43.59686111,"lon":-116.31522222,"rng_nm":50,"alt_fmsl":0,"id":"BO","desc":"USTIK NDB"},
{"type":"NDB","hdg_t":222.1,"dist_nm":92.9,"freq":238,"lat":43.60336111,"lon":-116.53905556,"rng_nm":50,"alt_fmsl":0,"id":"MPA","desc":"MERIDIAN NDB"},
{"type":"NDB","hdg_t":242.1,"dist_nm":93.1,"freq":305,"lat":44.01975000,"lon":-117.00833333,"rng_nm":50,"alt_fmsl":0,"id":"ONO","desc":"ONTARIO NDB"},
{"type":"NDB","hdg_t":156.1,"dist_nm":93.6,"freq":220,"lat":43.32977778,"lon":-114.24369444,"rng_nm":50,"alt_fmsl":0,"id":"HLE","desc":"HAILEY NDB"},
{"type":"NDB","hdg_t":193.7,"dist_nm":101.7,"freq":333,"lat":43.11330556,"lon":-115.65850000,"rng_nm":50,"alt_fmsl":0,"id":"STI","desc":"STURGEON NDB"},
{"type":"SDME","hdg_t":198.1,"dist_nm":108.4,"freq":114,"lat":43.04051900,"lon":-115.87463000,"rng_nm":40,"alt_fmsl":3000,"id":"MUO","desc":"MOUNTAIN HOME TACAN"},
{"type":"VOR","hdg_t":195.4,"dist_nm":110.5,"freq":114.9,"lat":42.98266667,"lon":-115.77425000,"rng_nm":40,"alt_fmsl":0,"id":"LIA","desc":"LIBERATOR VOR"}
]
}
