{"success":true,"source":"xp2csv.pl","last_updated":"2013/11/08 14:53:21 UTC"
,"icao":"S88","name":"Skykomish State","lat":47.71095683,"lon":-121.33907901,"rwys":1,"ils":0,"index":959082,"path":"w130n40/w122n47"
,"runways":[
{"len_m":627,"wid_m":29.87,"hdg":78,"surf":"Turf/grass","rwy1":"06","lat1":47.71040616,"lon1":-121.34317653,"rwy2":"24","lat2":47.71150750,"lon2":-121.33498149}
]
,"radios":[
{"type":"CTAF","freq":122.9,"desc":"SPANAWAY CTAF"}
]
,"navaids":[
{"type":"NDB","hdg_t":250.3,"dist_nm":37.8,"freq":353,"lat":47.49544444,"lon":-122.21472222,"rng_nm":50,"alt_fmsl":0,"id":"RNT","desc":"RENTON NDB"},
{"type":"NDB","hdg_t":303.9,"dist_nm":39.5,"freq":382,"lat":48.07611111,"lon":-122.15391667,"rng_nm":50,"alt_fmsl":0,"id":"AW","desc":"WATON NDB"},
{"type":"VOR","hdg_t":288.6,"dist_nm":39.9,"freq":110.6,"lat":47.91983333,"lon":-122.27783333,"rng_nm":40,"alt_fmsl":670,"id":"PAE","desc":"PAINE VOR-DME"},
{"type":"NDB","hdg_t":255,"dist_nm":40.7,"freq":281,"lat":47.53237700,"lon":-122.30695900,"rng_nm":50,"alt_fmsl":0,"id":"SZ","desc":"PARKK NDB"},
{"type":"VOR","hdg_t":247.5,"dist_nm":42.7,"freq":116.8,"lat":47.43536111,"lon":-122.30961111,"rng_nm":130,"alt_fmsl":354,"id":"SEA","desc":"SEATTLE VORTAC"},
{"type":"NDB","hdg_t":264,"dist_nm":42.8,"freq":362,"lat":47.63252778,"lon":-122.38952778,"rng_nm":50,"alt_fmsl":0,"id":"BF","desc":"NOLLA NDB"},
{"type":"VOR","hdg_t":111.7,"dist_nm":49.5,"freq":111,"lat":47.39969444,"lon":-120.21086111,"rng_nm":40,"alt_fmsl":1224,"id":"EAT","desc":"WENATCHEE VOR-DME"},
{"type":"VOR","hdg_t":138.6,"dist_nm":54.6,"freq":117.9,"lat":47.02436111,"lon":-120.45841667,"rng_nm":130,"alt_fmsl":1770,"id":"ELN","desc":"ELLENSBURG VORTAC"},
{"type":"VOR","hdg_t":234.2,"dist_nm":57.3,"freq":109.6,"lat":47.14766667,"lon":-122.47502778,"rng_nm":25,"alt_fmsl":287,"id":"TCM","desc":"MCCHORD VORTAC"},
{"type":"NDB","hdg_t":257.6,"dist_nm":59,"freq":206,"lat":47.49230556,"lon":-122.75661111,"rng_nm":50,"alt_fmsl":0,"id":"PWT","desc":"KITSAP NDB"},
{"type":"NDB","hdg_t":237.3,"dist_nm":61.5,"freq":216,"lat":47.15030556,"lon":-122.60463889,"rng_nm":50,"alt_fmsl":0,"id":"GRF","desc":"GRAYE NDB"},
{"type":"NDB","hdg_t":316.7,"dist_nm":62.8,"freq":240,"lat":48.46861111,"lon":-122.41841667,"rng_nm":50,"alt_fmsl":0,"id":"BVS","desc":"SKAGIT/BAY VIEW NDB"},
{"type":"NDB","hdg_t":254,"dist_nm":63.5,"freq":274,"lat":47.41058333,"lon":-122.83886111,"rng_nm":50,"alt_fmsl":0,"id":"CAN","desc":"CARNEY NDB"},
{"type":"VOR","hdg_t":300.3,"dist_nm":64.3,"freq":117.2,"lat":48.24469444,"lon":-122.72441667,"rng_nm":40,"alt_fmsl":200,"id":"CVV","desc":"PENN COVE VOR-DME"},
{"type":"NDB","hdg_t":230,"dist_nm":65.1,"freq":328,"lat":47.00797222,"lon":-122.55641667,"rng_nm":50,"alt_fmsl":0,"id":"LAC","desc":"LACOMAS NDB"},
{"type":"SDME","hdg_t":306.4,"dist_nm":65.8,"freq":113.8,"lat":48.35489700,"lon":-122.66173600,"rng_nm":130,"alt_fmsl":51,"id":"NUW","desc":"WHIDBEY ISLAND TACAN"},
{"type":"NDB","hdg_t":249.3,"dist_nm":76.3,"freq":348,"lat":47.24808333,"lon":-123.08636111,"rng_nm":50,"alt_fmsl":0,"id":"MNC","desc":"MASON CO NDB"},
{"type":"VOR","hdg_t":235.7,"dist_nm":77.6,"freq":113.4,"lat":46.97163889,"lon":-122.90183333,"rng_nm":130,"alt_fmsl":200,"id":"OLM","desc":"OLYMPIA VORTAC"},
{"type":"VOR","hdg_t":151.5,"dist_nm":77.6,"freq":116,"lat":46.57025000,"lon":-120.44463889,"rng_nm":130,"alt_fmsl":984,"id":"YKM","desc":"YAKIMA VORTAC"},
{"type":"NDB","hdg_t":306.5,"dist_nm":78.5,"freq":356,"lat":48.47927778,"lon":-122.92100000,"rng_nm":50,"alt_fmsl":0,"id":"OPZ","desc":"LOPEZ ISLAND NDB"},
{"type":"VOR","hdg_t":103.6,"dist_nm":80.3,"freq":112.6,"lat":47.37791667,"lon":-119.42400000,"rng_nm":130,"alt_fmsl":1250,"id":"EPH","desc":"EPHRATA VORTAC"},
{"type":"NDB","hdg_t":150.5,"dist_nm":81.4,"freq":371,"lat":46.52563889,"lon":-120.37219444,"rng_nm":50,"alt_fmsl":0,"id":"YK","desc":"DONNY NDB"},
{"type":"NDB","hdg_t":306,"dist_nm":83,"freq":284,"lat":48.51213889,"lon":-123.02386111,"rng_nm":50,"alt_fmsl":0,"id":"FHR","desc":"FRIDAY HARBOR NDB"},
{"type":"NDB","hdg_t":340.3,"dist_nm":83.6,"freq":214,"lat":49.02166667,"lon":-122.05000000,"rng_nm":50,"alt_fmsl":0,"id":"LU","desc":"CULTUS NDB"},
{"type":"NDB","hdg_t":58,"dist_nm":85.7,"freq":219,"lat":48.45338889,"lon":-119.51700000,"rng_nm":50,"alt_fmsl":0,"id":"OMK","desc":"OMAK NDB"},
{"type":"NDB","hdg_t":326.5,"dist_nm":85.9,"freq":338,"lat":48.89910000,"lon":-122.53477200,"rng_nm":50,"alt_fmsl":44,"id":"BL","desc":"BENZA NDB"},
{"type":"NDB","hdg_t":287.9,"dist_nm":87.1,"freq":338,"lat":48.13991667,"lon":-123.40338889,"rng_nm":50,"alt_fmsl":0,"id":"K","desc":"EDIZ HOOK NDB"},
{"type":"VOR","hdg_t":109.2,"dist_nm":87.6,"freq":115,"lat":47.21086111,"lon":-119.31680556,"rng_nm":130,"alt_fmsl":1194,"id":"MWH","desc":"MOSES LAKE VOR-DME"},
{"type":"VOR","hdg_t":326.6,"dist_nm":89.2,"freq":113,"lat":48.94527778,"lon":-122.57925000,"rng_nm":130,"alt_fmsl":83,"id":"HUH","desc":"WHATCOM VORTAC"},
{"type":"NDB","hdg_t":330,"dist_nm":90.8,"freq":344,"lat":49.01544444,"lon":-122.48777778,"rng_nm":50,"alt_fmsl":0,"id":"XX","desc":"ABBOTSFORD NDB"},
{"type":"NDB","hdg_t":112.2,"dist_nm":91.4,"freq":408,"lat":47.11572222,"lon":-119.27450000,"rng_nm":50,"alt_fmsl":0,"id":"MW","desc":"PELLY NDB"},
{"type":"NDB","hdg_t":324.4,"dist_nm":95.9,"freq":332,"lat":49.00333333,"lon":-122.75027778,"rng_nm":50,"alt_fmsl":0,"id":"WC","desc":"WHITE ROCK NDB"},
{"type":"NDB","hdg_t":286.5,"dist_nm":97.6,"freq":515,"lat":48.15019444,"lon":-123.67025000,"rng_nm":50,"alt_fmsl":0,"id":"CL","desc":"ELWHA NDB"},
{"type":"NDB","hdg_t":304.8,"dist_nm":99.9,"freq":200,"lat":48.64416667,"lon":-123.39947222,"rng_nm":50,"alt_fmsl":0,"id":"YJ","desc":"VICTORIA NDB"}
]
}
