{"success":true,"source":"xp2csv.pl","last_updated":"2013/11/08 14:53:21 UTC"
,"icao":"SA04","name":"Isla Martin Garcia","lat":-34.182122,"lon":-58.2469115,"rwys":1,"ils":0,"index":1986035,"path":"w060s40/w059s35"
,"runways":[
{"len_m":1262,"wid_m":29.87,"hdg":163,"surf":"Asphalt","rwy1":"17","lat1":-34.17665800,"lon1":-58.24881700,"rwy2":"35","lat2":-34.18758600,"lon2":-58.24500600}
]
,"navaids":[
{"type":"VOR","hdg_t":226,"dist_nm":23.2,"freq":114.4,"lat":-34.45138900,"lon":-58.58416700,"rng_nm":185,"alt_fmsl":49,"id":"FDO","desc":"SAN FERNANDO VOR-DME"},
{"type":"NDB","hdg_t":210.3,"dist_nm":23.4,"freq":260,"lat":-34.52011490,"lon":-58.48653412,"rng_nm":25,"alt_fmsl":53,"id":"OP","desc":"AEROPARQUE JORGE NEWBERY NDB"},
{"type":"NDB","hdg_t":203.6,"dist_nm":23.8,"freq":280,"lat":-34.54641700,"lon":-58.43950000,"rng_nm":25,"alt_fmsl":20,"id":"P","desc":"AEROPARQUE JORGE NEWBERY NDB"},
{"type":"NDB","hdg_t":194,"dist_nm":24.8,"freq":375,"lat":-34.58491516,"lon":-58.36888885,"rng_nm":25,"alt_fmsl":37,"id":"N","desc":"AEROPARQUE NDB"},
{"type":"NDB","hdg_t":124.6,"dist_nm":28.7,"freq":203,"lat":-34.45394400,"lon":-57.77008300,"rng_nm":30,"alt_fmsl":0,"id":"COL","desc":"COLONIA NDB"},
{"type":"NDB","hdg_t":217.5,"dist_nm":30.7,"freq":315,"lat":-34.58833300,"lon":-58.62500000,"rng_nm":25,"alt_fmsl":0,"id":"L","desc":"EL PALOMAR NDB"},
{"type":"VOR","hdg_t":215.1,"dist_nm":31.5,"freq":115.2,"lat":-34.61277800,"lon":-58.61388900,"rng_nm":175,"alt_fmsl":58,"id":"PAL","desc":"EL PALOMAR VOR-DME"},
{"type":"NDB","hdg_t":179.4,"dist_nm":31.6,"freq":210,"lat":-34.71083300,"lon":-58.24027800,"rng_nm":162,"alt_fmsl":7,"id":"ILM","desc":"QUILMES NDB"},
{"type":"NDB","hdg_t":237.5,"dist_nm":33.7,"freq":295,"lat":-34.48333300,"lon":-58.82166700,"rng_nm":25,"alt_fmsl":0,"id":"OZ","desc":"MARIANO MORENO NDB"},
{"type":"NDB","hdg_t":232,"dist_nm":34.7,"freq":395,"lat":-34.53833300,"lon":-58.80000000,"rng_nm":25,"alt_fmsl":92,"id":"Z","desc":"MARIANO MORENO NDB"},
{"type":"VOR","hdg_t":229.6,"dist_nm":35.3,"freq":112.9,"lat":-34.56277800,"lon":-58.79055600,"rng_nm":185,"alt_fmsl":105,"id":"ENO","desc":"MARIANO MORENO VOR-DME"},
{"type":"VOR","hdg_t":200.3,"dist_nm":41,"freq":116.5,"lat":-34.82416534,"lon":-58.53527832,"rng_nm":185,"alt_fmsl":66,"id":"EZE","desc":"EZEIZA VOR-DME"},
{"type":"NDB","hdg_t":202.4,"dist_nm":41.1,"freq":305,"lat":-34.81705475,"lon":-58.56466675,"rng_nm":25,"alt_fmsl":66,"id":"C","desc":"MINISTRO PISTARINI NDB"},
{"type":"NDB","hdg_t":198.9,"dist_nm":41.7,"freq":237,"lat":-34.84163900,"lon":-58.52236100,"rng_nm":25,"alt_fmsl":66,"id":"A","desc":"MINISTRO PISTARINI NDB"},
{"type":"NDB","hdg_t":207,"dist_nm":41.9,"freq":330,"lat":-34.80483246,"lon":-58.63344574,"rng_nm":25,"alt_fmsl":31,"id":"OC","desc":"MINISTRO PISTARINI NDB"},
{"type":"NDB","hdg_t":196.7,"dist_nm":44.3,"freq":270,"lat":-34.89027786,"lon":-58.50602722,"rng_nm":25,"alt_fmsl":81,"id":"OA","desc":"MINISTRO PISTARINI NDB"},
{"type":"NDB","hdg_t":159.8,"dist_nm":50,"freq":250,"lat":-34.96666700,"lon":-57.89777800,"rng_nm":81,"alt_fmsl":72,"id":"PTA","desc":"LA PLATA NDB"},
{"type":"VOR","hdg_t":160.1,"dist_nm":50.5,"freq":113.7,"lat":-34.97583300,"lon":-57.89833300,"rng_nm":170,"alt_fmsl":69,"id":"PTA","desc":"LA PLATA VOR"},
{"type":"VOR","hdg_t":267.5,"dist_nm":59.1,"freq":117.7,"lat":-34.21944400,"lon":-59.43555600,"rng_nm":185,"alt_fmsl":98,"id":"SNT","desc":"SAN ANTONIO DE ARECO VOR-DME"},
{"type":"NDB","hdg_t":265.9,"dist_nm":61.2,"freq":340,"lat":-34.24777800,"lon":-59.47555600,"rng_nm":162,"alt_fmsl":98,"id":"SNT","desc":"SAN ANTONIO DE ARECO NDB"},
{"type":"VOR","hdg_t":345.2,"dist_nm":72.5,"freq":113.2,"lat":-33.00972200,"lon":-58.61416700,"rng_nm":175,"alt_fmsl":75,"id":"GUA","desc":"GUALEGUAYCHU VOR-DME"},
{"type":"NDB","hdg_t":146.7,"dist_nm":84.1,"freq":325,"lat":-35.35277800,"lon":-57.30722200,"rng_nm":216,"alt_fmsl":52,"id":"PDI","desc":"PUNTA INDIO NDB"},
{"type":"VOR","hdg_t":145.7,"dist_nm":84.6,"freq":114.1,"lat":-35.34611100,"lon":-57.27555600,"rng_nm":140,"alt_fmsl":52,"id":"PDI","desc":"PUNTA INDIO VOR-DME"},
{"type":"VOR","hdg_t":186.4,"dist_nm":94.5,"freq":115.6,"lat":-35.75111100,"lon":-58.46388900,"rng_nm":185,"alt_fmsl":57,"id":"GBE","desc":"GENERAL BELGRANO VOR"},
{"type":"NDB","hdg_t":60.3,"dist_nm":98.1,"freq":245,"lat":-33.35975000,"lon":-56.54975000,"rng_nm":60,"alt_fmsl":0,"id":"DO","desc":"DURAZNO NDB"},
{"type":"NDB","hdg_t":61.8,"dist_nm":98.6,"freq":277,"lat":-33.39161100,"lon":-56.51569400,"rng_nm":25,"alt_fmsl":305,"id":"BD","desc":"DURAZNO NDB"}
]
}
