{"success":true,"source":"xp2csv.pl","last_updated":"2013/11/08 14:53:21 UTC"
,"icao":"SA1H","name":"Trenque Lauquen","lat":-36.01583333,"lon":-62.69388889,"rwys":2,"ils":0,"index":1920377,"path":"w070s40/w063s37"
,"runways":[
{"len_m":727,"wid_m":29.87,"hdg":90,"surf":"Turf/grass","rwy1":"09","lat1":-36.01583333,"lon1":-62.69792237,"rwy2":"27","lat2":-36.01583333,"lon2":-62.68985541},
{"len_m":929,"wid_m":29.87,"hdg":180,"surf":"Turf/grass","rwy1":"18","lat1":-36.01164300,"lon1":-62.69388889,"rwy2":"36","lat2":-36.02002367,"lon2":-62.69388889}
]
,"navaids":[
{"type":"NDB","hdg_t":75.7,"dist_nm":41.9,"freq":265,"lat":-35.84111100,"lon":-61.86083300,"rng_nm":230,"alt_fmsl":279,"id":"PEH","desc":"PEHUAJO NDB"},
{"type":"NDB","hdg_t":288.9,"dist_nm":54.5,"freq":307,"lat":-35.71500000,"lon":-63.75027800,"rng_nm":25,"alt_fmsl":0,"id":"G","desc":"GENERAL PICO NDB"},
{"type":"VOR","hdg_t":290.2,"dist_nm":55,"freq":112.2,"lat":-35.69277800,"lon":-63.75083300,"rng_nm":185,"alt_fmsl":459,"id":"GPI","desc":"GENERAL PICO VOR"},
{"type":"NDB","hdg_t":290.4,"dist_nm":55.5,"freq":285,"lat":-35.68750000,"lon":-63.75805600,"rng_nm":189,"alt_fmsl":456,"id":"GPI","desc":"GENERAL PICO NDB"},
{"type":"NDB","hdg_t":246.1,"dist_nm":83.3,"freq":300,"lat":-36.56833300,"lon":-64.27000000,"rng_nm":50,"alt_fmsl":630,"id":"O","desc":"SANTA ROSA NDB"},
{"type":"VOR","hdg_t":245.5,"dist_nm":83.7,"freq":112.5,"lat":-36.58372200,"lon":-64.27283300,"rng_nm":189,"alt_fmsl":630,"id":"OSA","desc":"SANTA ROSA VOR-DME"},
{"type":"VOR","hdg_t":343.4,"dist_nm":117,"freq":116.3,"lat":-34.14111100,"lon":-63.36250000,"rng_nm":185,"alt_fmsl":449,"id":"LYE","desc":"LABOULAYE VOR"},
{"type":"NDB","hdg_t":45,"dist_nm":123.1,"freq":220,"lat":-34.55111100,"lon":-60.93388900,"rng_nm":189,"alt_fmsl":269,"id":"NIN","desc":"JUNIN NDB"},
{"type":"VOR","hdg_t":44.8,"dist_nm":123.6,"freq":116.1,"lat":-34.54111100,"lon":-60.93388900,"rng_nm":185,"alt_fmsl":269,"id":"NIN","desc":"JUNIN VOR"},
{"type":"NDB","hdg_t":44.6,"dist_nm":124.1,"freq":345,"lat":-34.52833300,"lon":-60.93500000,"rng_nm":25,"alt_fmsl":0,"id":"N","desc":"JUNIN NDB"}
]
}
