{"success":true,"source":"xp2csv.pl","last_updated":"2013/11/08 14:53:21 UTC"
,"icao":"SA21","name":"Veinticinco De Mayo","lat":-37.809786,"lon":-67.6593375,"rwys":1,"ils":0,"index":1838345,"path":"w070s40/w068s38"
,"runways":[
{"len_m":1253,"wid_m":24.99,"hdg":59,"surf":"Asphalt","rwy1":"04","lat1":-37.81263300,"lon1":-67.66548300,"rwy2":"22","lat2":-37.80693900,"lon2":-67.65319200}
]
,"navaids":[
{"type":"NDB","hdg_t":177.7,"dist_nm":70.3,"freq":275,"lat":-38.98305600,"lon":-67.60111100,"rng_nm":140,"alt_fmsl":853,"id":"GNR","desc":"GENERAL ROCA NDB"},
{"type":"VOR","hdg_t":198.7,"dist_nm":72.2,"freq":116.7,"lat":-38.95027800,"lon":-68.15472200,"rng_nm":189,"alt_fmsl":885,"id":"NEU","desc":"NEUQUEN VOR-DME"},
{"type":"NDB","hdg_t":199.8,"dist_nm":72.7,"freq":307,"lat":-38.95000000,"lon":-68.18708300,"rng_nm":30,"alt_fmsl":0,"id":"N","desc":"PRESIDENTE PERON NDB"},
{"type":"NDB","hdg_t":202.2,"dist_nm":73.9,"freq":332,"lat":-38.94994400,"lon":-68.25775000,"rng_nm":50,"alt_fmsl":0,"id":"ON","desc":"PRESIDENTE PERON NDB"},
{"type":"VOR","hdg_t":133,"dist_nm":130.7,"freq":113.4,"lat":-39.28250000,"lon":-65.61000000,"rng_nm":130,"alt_fmsl":643,"id":"OEL","desc":"CHOELE CHOEL VOR-DME"},
{"type":"NDB","hdg_t":325.7,"dist_nm":165.3,"freq":320,"lat":-35.51333300,"lon":-69.55833300,"rng_nm":25,"alt_fmsl":4682,"id":"M","desc":"MALARGUE NDB"},
{"type":"VOR","hdg_t":325.7,"dist_nm":167.2,"freq":117.2,"lat":-35.48611100,"lon":-69.57861100,"rng_nm":178,"alt_fmsl":4665,"id":"MLG","desc":"MALARGUE VOR-DME"},
{"type":"VOR","hdg_t":66.6,"dist_nm":178.1,"freq":112.5,"lat":-36.58372200,"lon":-64.27283300,"rng_nm":189,"alt_fmsl":630,"id":"OSA","desc":"SANTA ROSA VOR-DME"},
{"type":"NDB","hdg_t":66.4,"dist_nm":178.7,"freq":300,"lat":-36.56833300,"lon":-64.27000000,"rng_nm":50,"alt_fmsl":630,"id":"O","desc":"SANTA ROSA NDB"},
{"type":"VOR","hdg_t":349.2,"dist_nm":196.2,"freq":116.9,"lat":-34.58944400,"lon":-68.39472200,"rng_nm":178,"alt_fmsl":2444,"id":"SRA","desc":"SAN RAFAEL VOR"}
]
}
