{"success":true,"source":"xp2csv.pl","last_updated":"2013/11/08 14:53:21 UTC"
,"icao":"SA3E","name":"Canada Rosquin","lat":-32.09944445,"lon":-61.58388889,"rwys":1,"ils":0,"index":1937017,"path":"w070s40/w062s33"
,"runways":[
{"len_m":831,"wid_m":24.99,"hdg":8,"surf":"Dirt","rwy1":"01","lat1":-32.10315183,"lon1":-61.58454260,"rwy2":"19","lat2":-32.09573706,"lon2":-61.58323518}
]
,"navaids":[
{"type":"NDB","hdg_t":63.4,"dist_nm":42.3,"freq":262,"lat":-31.78085000,"lon":-60.84305600,"rng_nm":25,"alt_fmsl":56,"id":"OV","desc":"SAUCE VIEJO NDB"},
{"type":"NDB","hdg_t":60.7,"dist_nm":44.7,"freq":282,"lat":-31.73227500,"lon":-60.82109400,"rng_nm":25,"alt_fmsl":56,"id":"V","desc":"SAUCE VIEJO NDB"},
{"type":"VOR","hdg_t":219.6,"dist_nm":45.8,"freq":114.7,"lat":-32.68777800,"lon":-62.16083300,"rng_nm":185,"alt_fmsl":361,"id":"MJZ","desc":"MARCOS JUAREZ VOR"},
{"type":"NDB","hdg_t":59.8,"dist_nm":45.9,"freq":405,"lat":-31.71166700,"lon":-60.80638900,"rng_nm":230,"alt_fmsl":56,"id":"SVO","desc":"SAUCE VIEJO NDB"},
{"type":"VOR","hdg_t":73,"dist_nm":58.7,"freq":116.8,"lat":-31.80833300,"lon":-60.48472200,"rng_nm":175,"alt_fmsl":243,"id":"PAR","desc":"PARANA VOR-DME"},
{"type":"NDB","hdg_t":139.1,"dist_nm":62.1,"freq":305,"lat":-32.88236100,"lon":-60.77972200,"rng_nm":25,"alt_fmsl":85,"id":"F","desc":"ROSARIO NDB"},
{"type":"SDME","hdg_t":139.6,"dist_nm":62.5,"freq":109.9,"lat":-32.89311100,"lon":-60.78097200,"rng_nm":18,"alt_fmsl":138,"id":"RO","desc":"SAAR 20 DME"},
{"type":"VOR","hdg_t":140,"dist_nm":63.1,"freq":117.3,"lat":-32.90500000,"lon":-60.78138900,"rng_nm":175,"alt_fmsl":80,"id":"ROS","desc":"ROSARIO VOR-DME"},
{"type":"VOR","hdg_t":353.5,"dist_nm":134.6,"freq":115.5,"lat":-29.86444400,"lon":-61.87222200,"rng_nm":185,"alt_fmsl":287,"id":"ERE","desc":"CERES VOR-DME"},
{"type":"VOR","hdg_t":288.6,"dist_nm":142.1,"freq":114.5,"lat":-31.31333300,"lon":-64.20361100,"rng_nm":183,"alt_fmsl":1588,"id":"CBA","desc":"CORDOBA VOR-DME"}
]
}
