{"success":true,"source":"xp2csv.pl","last_updated":"2013/11/08 14:53:21 UTC"
,"icao":"SA3H","name":"Canuelas","lat":-35.11166667,"lon":-58.72638889,"rwys":1,"ils":0,"index":1985977,"path":"w060s40/w059s36"
,"runways":[
{"len_m":706,"wid_m":29.87,"hdg":180,"surf":"Dirt","rwy1":"18","lat1":-35.10848470,"lon1":-58.72638889,"rwy2":"36","lat2":-35.11484863,"lon2":-58.72638889}
]
,"navaids":[
{"type":"NDB","hdg_t":39.3,"dist_nm":17.1,"freq":270,"lat":-34.89027786,"lon":-58.50602722,"rng_nm":25,"alt_fmsl":81,"id":"OA","desc":"MINISTRO PISTARINI NDB"},
{"type":"NDB","hdg_t":14,"dist_nm":18.9,"freq":330,"lat":-34.80483246,"lon":-58.63344574,"rng_nm":25,"alt_fmsl":31,"id":"OC","desc":"MINISTRO PISTARINI NDB"},
{"type":"NDB","hdg_t":31.9,"dist_nm":19,"freq":237,"lat":-34.84163900,"lon":-58.52236100,"rng_nm":25,"alt_fmsl":66,"id":"A","desc":"MINISTRO PISTARINI NDB"},
{"type":"NDB","hdg_t":24.3,"dist_nm":19.3,"freq":305,"lat":-34.81705475,"lon":-58.56466675,"rng_nm":25,"alt_fmsl":66,"id":"C","desc":"MINISTRO PISTARINI NDB"},
{"type":"VOR","hdg_t":28.7,"dist_nm":19.6,"freq":116.5,"lat":-34.82416534,"lon":-58.53527832,"rng_nm":185,"alt_fmsl":66,"id":"EZE","desc":"EZEIZA VOR-DME"},
{"type":"VOR","hdg_t":10.5,"dist_nm":30.3,"freq":115.2,"lat":-34.61277800,"lon":-58.61388900,"rng_nm":175,"alt_fmsl":58,"id":"PAL","desc":"EL PALOMAR VOR-DME"},
{"type":"NDB","hdg_t":9.1,"dist_nm":31.7,"freq":315,"lat":-34.58833300,"lon":-58.62500000,"rng_nm":25,"alt_fmsl":0,"id":"L","desc":"EL PALOMAR NDB"},
{"type":"VOR","hdg_t":354.4,"dist_nm":33,"freq":112.9,"lat":-34.56277800,"lon":-58.79055600,"rng_nm":185,"alt_fmsl":105,"id":"ENO","desc":"MARIANO MORENO VOR-DME"},
{"type":"NDB","hdg_t":45.1,"dist_nm":33.9,"freq":210,"lat":-34.71083300,"lon":-58.24027800,"rng_nm":162,"alt_fmsl":7,"id":"ILM","desc":"QUILMES NDB"},
{"type":"NDB","hdg_t":353.9,"dist_nm":34.5,"freq":395,"lat":-34.53833300,"lon":-58.80000000,"rng_nm":25,"alt_fmsl":92,"id":"Z","desc":"MARIANO MORENO NDB"},
{"type":"NDB","hdg_t":29.3,"dist_nm":36.1,"freq":375,"lat":-34.58491516,"lon":-58.36888885,"rng_nm":25,"alt_fmsl":37,"id":"N","desc":"AEROPARQUE NDB"},
{"type":"NDB","hdg_t":22.7,"dist_nm":36.7,"freq":280,"lat":-34.54641700,"lon":-58.43950000,"rng_nm":25,"alt_fmsl":20,"id":"P","desc":"AEROPARQUE JORGE NEWBERY NDB"},
{"type":"NDB","hdg_t":18.5,"dist_nm":37.3,"freq":260,"lat":-34.52011490,"lon":-58.48653412,"rng_nm":25,"alt_fmsl":53,"id":"OP","desc":"AEROPARQUE JORGE NEWBERY NDB"},
{"type":"NDB","hdg_t":352.8,"dist_nm":37.9,"freq":295,"lat":-34.48333300,"lon":-58.82166700,"rng_nm":25,"alt_fmsl":0,"id":"OZ","desc":"MARIANO MORENO NDB"},
{"type":"VOR","hdg_t":10.1,"dist_nm":40.1,"freq":114.4,"lat":-34.45138900,"lon":-58.58416700,"rng_nm":185,"alt_fmsl":49,"id":"FDO","desc":"SAN FERNANDO VOR-DME"},
{"type":"VOR","hdg_t":161.5,"dist_nm":40.4,"freq":115.6,"lat":-35.75111100,"lon":-58.46388900,"rng_nm":185,"alt_fmsl":57,"id":"GBE","desc":"GENERAL BELGRANO VOR"},
{"type":"VOR","hdg_t":78.9,"dist_nm":41.5,"freq":113.7,"lat":-34.97583300,"lon":-57.89833300,"rng_nm":170,"alt_fmsl":69,"id":"PTA","desc":"LA PLATA VOR"},
{"type":"NDB","hdg_t":78.2,"dist_nm":41.7,"freq":250,"lat":-34.96666700,"lon":-57.89777800,"rng_nm":81,"alt_fmsl":72,"id":"PTA","desc":"LA PLATA NDB"},
{"type":"NDB","hdg_t":50.4,"dist_nm":61.5,"freq":203,"lat":-34.45394400,"lon":-57.77008300,"rng_nm":30,"alt_fmsl":0,"id":"COL","desc":"COLONIA NDB"},
{"type":"NDB","hdg_t":324.1,"dist_nm":63.6,"freq":340,"lat":-34.24777800,"lon":-59.47555600,"rng_nm":162,"alt_fmsl":98,"id":"SNT","desc":"SAN ANTONIO DE ARECO NDB"},
{"type":"VOR","hdg_t":326.5,"dist_nm":63.9,"freq":117.7,"lat":-34.21944400,"lon":-59.43555600,"rng_nm":185,"alt_fmsl":98,"id":"SNT","desc":"SAN ANTONIO DE ARECO VOR-DME"},
{"type":"NDB","hdg_t":102.1,"dist_nm":71.2,"freq":325,"lat":-35.35277800,"lon":-57.30722200,"rng_nm":216,"alt_fmsl":52,"id":"PDI","desc":"PUNTA INDIO NDB"},
{"type":"VOR","hdg_t":101.5,"dist_nm":72.6,"freq":114.1,"lat":-35.34611100,"lon":-57.27555600,"rng_nm":140,"alt_fmsl":52,"id":"PDI","desc":"PUNTA INDIO VOR-DME"}
]
}
