{"success":true,"source":"xp2csv.pl","last_updated":"2013/11/08 14:53:21 UTC"
,"icao":"SA3N","name":"Carlos Casares","lat":-35.63277778,"lon":-61.38416667,"rwys":1,"ils":0,"index":1936786,"path":"w070s40/w062s36"
,"runways":[
{"len_m":1088,"wid_m":29.87,"hdg":171,"surf":"Dirt","rwy1":"17","lat1":-35.62792287,"lon1":-61.38502272,"rwy2":"35","lat2":-35.63763269,"lon2":-61.38331061}
]
,"navaids":[
{"type":"NDB","hdg_t":241.6,"dist_nm":26.4,"freq":265,"lat":-35.84111100,"lon":-61.86083300,"rng_nm":230,"alt_fmsl":279,"id":"PEH","desc":"PEHUAJO NDB"},
{"type":"NDB","hdg_t":19,"dist_nm":68.4,"freq":220,"lat":-34.55111100,"lon":-60.93388900,"rng_nm":189,"alt_fmsl":269,"id":"NIN","desc":"JUNIN NDB"},
{"type":"VOR","hdg_t":18.8,"dist_nm":69,"freq":116.1,"lat":-34.54111100,"lon":-60.93388900,"rng_nm":185,"alt_fmsl":269,"id":"NIN","desc":"JUNIN VOR"},
{"type":"NDB","hdg_t":18.6,"dist_nm":69.7,"freq":345,"lat":-34.52833300,"lon":-60.93500000,"rng_nm":25,"alt_fmsl":0,"id":"N","desc":"JUNIN NDB"},
{"type":"NDB","hdg_t":143.6,"dist_nm":93.8,"freq":405,"lat":-36.88851700,"lon":-60.22723300,"rng_nm":173,"alt_fmsl":551,"id":"OLA","desc":"OLAVARRIA NDB"},
{"type":"VOR","hdg_t":267.5,"dist_nm":115.7,"freq":112.2,"lat":-35.69277800,"lon":-63.75083300,"rng_nm":185,"alt_fmsl":459,"id":"GPI","desc":"GENERAL PICO VOR"},
{"type":"NDB","hdg_t":266.8,"dist_nm":115.7,"freq":307,"lat":-35.71500000,"lon":-63.75027800,"rng_nm":25,"alt_fmsl":0,"id":"G","desc":"GENERAL PICO NDB"},
{"type":"NDB","hdg_t":267.6,"dist_nm":116.1,"freq":285,"lat":-35.68750000,"lon":-63.75805600,"rng_nm":189,"alt_fmsl":456,"id":"GPI","desc":"GENERAL PICO NDB"},
{"type":"NDB","hdg_t":49.1,"dist_nm":125.4,"freq":340,"lat":-34.24777800,"lon":-59.47555600,"rng_nm":162,"alt_fmsl":98,"id":"SNT","desc":"SAN ANTONIO DE ARECO NDB"},
{"type":"VOR","hdg_t":49.1,"dist_nm":128,"freq":117.7,"lat":-34.21944400,"lon":-59.43555600,"rng_nm":185,"alt_fmsl":98,"id":"SNT","desc":"SAN ANTONIO DE ARECO VOR-DME"}
]
}
