{"success":true,"source":"xp2csv.pl","last_updated":"2013/11/08 14:53:21 UTC"
,"icao":"SA3W","name":"Chajari Estancia La Choza","lat":-30.5425,"lon":-58.29444444,"rwys":1,"ils":0,"index":1986266,"path":"w060s40/w059s31"
,"runways":[
{"len_m":832,"wid_m":29.87,"hdg":17,"surf":"Dirt","rwy1":"02","lat1":-30.54607966,"lon1":-58.29574733,"rwy2":"20","lat2":-30.53892034,"lon2":-58.29314155}
]
,"navaids":[
{"type":"VOR","hdg_t":64.2,"dist_nm":37.8,"freq":113.9,"lat":-30.26666700,"lon":-57.63833300,"rng_nm":194,"alt_fmsl":174,"id":"MCS","desc":"MONTE CASEROS VOR-DME"},
{"type":"NDB","hdg_t":160.4,"dist_nm":46.9,"freq":280,"lat":-31.28166700,"lon":-57.98833300,"rng_nm":25,"alt_fmsl":115,"id":"D","desc":"COMODORO PIERRESTEGUI NDB"},
{"type":"NDB","hdg_t":161.8,"dist_nm":47.8,"freq":335,"lat":-31.30166700,"lon":-58.00416700,"rng_nm":189,"alt_fmsl":115,"id":"DIA","desc":"CONCORDIA NDB"},
{"type":"VOR","hdg_t":163.4,"dist_nm":55.7,"freq":117.9,"lat":-31.43472200,"lon":-57.98425000,"rng_nm":130,"alt_fmsl":187,"id":"STO","desc":"SALTO VOR"},
{"type":"NDB","hdg_t":164.3,"dist_nm":56.4,"freq":410,"lat":-31.45066700,"lon":-57.99672200,"rng_nm":60,"alt_fmsl":0,"id":"ST","desc":"SALTO NDB"},
{"type":"NDB","hdg_t":49.9,"dist_nm":78.3,"freq":250,"lat":-29.69472200,"lon":-57.14805600,"rng_nm":189,"alt_fmsl":230,"id":"LIB","desc":"PASO DE LOS LIBRES NDB"},
{"type":"NDB","hdg_t":48.8,"dist_nm":79,"freq":325,"lat":-29.66936100,"lon":-57.15575000,"rng_nm":25,"alt_fmsl":230,"id":"L","desc":"PASO DE LOS LIBRES NDB"},
{"type":"NDB","hdg_t":55.6,"dist_nm":79.5,"freq":275,"lat":-29.78600000,"lon":-57.03666700,"rng_nm":100,"alt_fmsl":256,"id":"URG","desc":"URUGUAIANA NDB"},
{"type":"NDB","hdg_t":85.3,"dist_nm":94,"freq":405,"lat":-30.40291700,"lon":-56.48708300,"rng_nm":110,"alt_fmsl":0,"id":"AT","desc":"ARTIGAS NDB"},
{"type":"NDB","hdg_t":331.2,"dist_nm":99,"freq":277,"lat":-29.08833300,"lon":-59.20000000,"rng_nm":25,"alt_fmsl":0,"id":"Y","desc":"GOYA NDB"}
]
}
