{"success":true,"source":"xp2csv.pl","last_updated":"2013/11/08 14:53:21 UTC"
,"icao":"SA46","name":"General Alvear-buenos Aires","lat":-35.97833,"lon":-59.90611,"rwys":1,"ils":0,"index":1969536,"path":"w060s40/w060s36"
,"runways":[
{"len_m":623,"wid_m":29.87,"hdg":90,"surf":"Turf/grass","rwy1":"09","lat1":-35.97833000,"lon1":-59.90956737,"rwy2":"27","lat2":-35.97833000,"lon2":-59.90265263}
]
,"navaids":[
{"type":"NDB","hdg_t":195.8,"dist_nm":56.7,"freq":405,"lat":-36.88851700,"lon":-60.22723300,"rng_nm":173,"alt_fmsl":551,"id":"OLA","desc":"OLAVARRIA NDB"},
{"type":"VOR","hdg_t":79.4,"dist_nm":71.6,"freq":115.6,"lat":-35.75111100,"lon":-58.46388900,"rng_nm":185,"alt_fmsl":57,"id":"GBE","desc":"GENERAL BELGRANO VOR"},
{"type":"NDB","hdg_t":155.1,"dist_nm":78,"freq":300,"lat":-37.15833300,"lon":-59.22166700,"rng_nm":25,"alt_fmsl":0,"id":"OD","desc":"TANDIL NDB"},
{"type":"NDB","hdg_t":156.1,"dist_nm":80.6,"freq":255,"lat":-37.20833300,"lon":-59.22666700,"rng_nm":25,"alt_fmsl":574,"id":"D","desc":"TANDIL NDB"},
{"type":"VOR","hdg_t":156.5,"dist_nm":81.5,"freq":115.9,"lat":-37.22500000,"lon":-59.22944400,"rng_nm":175,"alt_fmsl":574,"id":"DIL","desc":"TANDIL VOR-DME"},
{"type":"NDB","hdg_t":41.9,"dist_nm":94,"freq":330,"lat":-34.80483246,"lon":-58.63344574,"rng_nm":25,"alt_fmsl":31,"id":"OC","desc":"MINISTRO PISTARINI NDB"},
{"type":"NDB","hdg_t":46.8,"dist_nm":94.6,"freq":270,"lat":-34.89027786,"lon":-58.50602722,"rng_nm":25,"alt_fmsl":81,"id":"OA","desc":"MINISTRO PISTARINI NDB"},
{"type":"NDB","hdg_t":274.3,"dist_nm":95.6,"freq":265,"lat":-35.84111100,"lon":-61.86083300,"rng_nm":230,"alt_fmsl":279,"id":"PEH","desc":"PEHUAJO NDB"},
{"type":"NDB","hdg_t":43.7,"dist_nm":95.7,"freq":305,"lat":-34.81705475,"lon":-58.56466675,"rng_nm":25,"alt_fmsl":66,"id":"C","desc":"MINISTRO PISTARINI NDB"},
{"type":"NDB","hdg_t":45.3,"dist_nm":96.1,"freq":237,"lat":-34.84163900,"lon":-58.52236100,"rng_nm":25,"alt_fmsl":66,"id":"A","desc":"MINISTRO PISTARINI NDB"},
{"type":"VOR","hdg_t":44.5,"dist_nm":96.4,"freq":116.5,"lat":-34.82416534,"lon":-58.53527832,"rng_nm":185,"alt_fmsl":66,"id":"EZE","desc":"EZEIZA VOR-DME"},
{"type":"NDB","hdg_t":329.1,"dist_nm":99.2,"freq":220,"lat":-34.55111100,"lon":-60.93388900,"rng_nm":189,"alt_fmsl":269,"id":"NIN","desc":"JUNIN NDB"},
{"type":"VOR","hdg_t":329.3,"dist_nm":99.8,"freq":116.1,"lat":-34.54111100,"lon":-60.93388900,"rng_nm":185,"alt_fmsl":269,"id":"NIN","desc":"JUNIN VOR"}
]
}
