{"success":true,"source":"xp2csv.pl","last_updated":"2013/11/08 14:53:21 UTC"
,"icao":"SA4Z","name":"Villa Angela","lat":-27.594722,"lon":-60.68249985,"rwys":1,"ils":0,"index":1953689,"path":"w070s30/w061s28"
,"runways":[
{"len_m":1201,"wid_m":29.87,"hdg":129,"surf":"Turf/grass","rwy1":"13","lat1":-27.59124864,"lon1":-60.68717102,"rwy2":"31","lat2":-27.59819536,"lon2":-60.67782868}
]
,"navaids":[
{"type":"NDB","hdg_t":11.7,"dist_nm":51.7,"freq":205,"lat":-26.74722200,"lon":-60.48611100,"rng_nm":178,"alt_fmsl":299,"id":"PSP","desc":"PRESIDENCIA ROQUE SAENZ PENA NDB"},
{"type":"NDB","hdg_t":85.1,"dist_nm":86.3,"freq":285,"lat":-27.46416700,"lon":-59.06972200,"rng_nm":50,"alt_fmsl":0,"id":"SIS","desc":"RESISTANCIA NDB"},
{"type":"VOR","hdg_t":84.5,"dist_nm":87.1,"freq":115.1,"lat":-27.44694400,"lon":-59.05722200,"rng_nm":185,"alt_fmsl":194,"id":"SIS","desc":"RESISTENCIA VOR-DME"},
{"type":"NDB","hdg_t":83.7,"dist_nm":87.9,"freq":262,"lat":-27.42427800,"lon":-59.04511100,"rng_nm":25,"alt_fmsl":174,"id":"N","desc":"RESISTENCIA NDB"},
{"type":"VOR","hdg_t":85.1,"dist_nm":102.9,"freq":115.4,"lat":-27.43722200,"lon":-58.76166700,"rng_nm":183,"alt_fmsl":203,"id":"CRR","desc":"CORRIENTES VOR-DME"},
{"type":"NDB","hdg_t":152.1,"dist_nm":109.6,"freq":242,"lat":-29.21100800,"lon":-59.70760600,"rng_nm":25,"alt_fmsl":0,"id":"A","desc":"RECONQUISTA NDB"},
{"type":"VOR","hdg_t":151.5,"dist_nm":110.1,"freq":117.1,"lat":-29.20861100,"lon":-59.68250000,"rng_nm":185,"alt_fmsl":157,"id":"RTA","desc":"RECONQUISTA VOR-DME"},
{"type":"NDB","hdg_t":139,"dist_nm":118.9,"freq":277,"lat":-29.08833300,"lon":-59.20000000,"rng_nm":25,"alt_fmsl":0,"id":"Y","desc":"GOYA NDB"},
{"type":"VOR","hdg_t":204.5,"dist_nm":149.6,"freq":115.5,"lat":-29.86444400,"lon":-61.87222200,"rng_nm":185,"alt_fmsl":287,"id":"ERE","desc":"CERES VOR-DME"},
{"type":"NDB","hdg_t":58.6,"dist_nm":154.3,"freq":300,"lat":-26.23244400,"lon":-58.23838900,"rng_nm":50,"alt_fmsl":192,"id":"F","desc":"FORMOSA NDB"}
]
}
