{"success":true,"source":"xp2csv.pl","last_updated":"2013/11/08 14:53:21 UTC"
,"icao":"SA5U","name":"Gancedo Agroaire","lat":-27.49777778,"lon":-61.65861111,"rwys":1,"ils":0,"index":1937313,"path":"w070s30/w062s28"
,"runways":[
{"len_m":1089,"wid_m":20.12,"hdg":8,"surf":"Dirt","rwy1":"01","lat1":-27.50263269,"lon1":-61.65946716,"rwy2":"19","lat2":-27.49292287,"lon2":-61.65775506}
]
,"navaids":[
{"type":"NDB","hdg_t":54.6,"dist_nm":77.1,"freq":205,"lat":-26.74722200,"lon":-60.48611100,"rng_nm":178,"alt_fmsl":299,"id":"PSP","desc":"PRESIDENCIA ROQUE SAENZ PENA NDB"},
{"type":"NDB","hdg_t":89.7,"dist_nm":138.1,"freq":285,"lat":-27.46416700,"lon":-59.06972200,"rng_nm":50,"alt_fmsl":0,"id":"SIS","desc":"RESISTANCIA NDB"},
{"type":"VOR","hdg_t":89.3,"dist_nm":138.8,"freq":115.1,"lat":-27.44694400,"lon":-59.05722200,"rng_nm":185,"alt_fmsl":194,"id":"SIS","desc":"RESISTENCIA VOR-DME"},
{"type":"NDB","hdg_t":88.7,"dist_nm":139.5,"freq":262,"lat":-27.42427800,"lon":-59.04511100,"rng_nm":25,"alt_fmsl":174,"id":"N","desc":"RESISTENCIA NDB"},
{"type":"VOR","hdg_t":184.4,"dist_nm":142,"freq":115.5,"lat":-29.86444400,"lon":-61.87222200,"rng_nm":185,"alt_fmsl":287,"id":"ERE","desc":"CERES VOR-DME"},
{"type":"VOR","hdg_t":262.6,"dist_nm":142.7,"freq":114.8,"lat":-27.77944400,"lon":-64.31805600,"rng_nm":185,"alt_fmsl":656,"id":"SDE","desc":"SANTIAGO DEL ESTERO VOR"},
{"type":"NDB","hdg_t":262.4,"dist_nm":142.9,"freq":330,"lat":-27.78500000,"lon":-64.32166700,"rng_nm":50,"alt_fmsl":653,"id":"D","desc":"SANTIAGO DEL ESTERO NDB"},
{"type":"NDB","hdg_t":135.2,"dist_nm":145.5,"freq":242,"lat":-29.21100800,"lon":-59.70760600,"rng_nm":25,"alt_fmsl":0,"id":"A","desc":"RECONQUISTA NDB"},
{"type":"VOR","hdg_t":134.8,"dist_nm":146.3,"freq":117.1,"lat":-29.20861100,"lon":-59.68250000,"rng_nm":185,"alt_fmsl":157,"id":"RTA","desc":"RECONQUISTA VOR-DME"},
{"type":"VOR","hdg_t":89.3,"dist_nm":154.6,"freq":115.4,"lat":-27.43722200,"lon":-58.76166700,"rng_nm":183,"alt_fmsl":203,"id":"CRR","desc":"CORRIENTES VOR-DME"}
]
}
