{"success":true,"source":"xp2csv.pl","last_updated":"2013/11/08 14:53:21 UTC"
,"icao":"SA6P","name":"Gobernador Crespo Aeroclub","lat":-30.30416667,"lon":-60.36888889,"rwys":1,"ils":0,"index":1953514,"path":"w070s40/w061s31"
,"runways":[
{"len_m":658,"wid_m":17.98,"hdg":112,"surf":"Dirt","rwy1":"11","lat1":-30.30301706,"lon1":-60.37204741,"rwy2":"29","lat2":-30.30531628,"lon2":-60.36573036}
]
,"navaids":[
{"type":"NDB","hdg_t":27.9,"dist_nm":73.9,"freq":242,"lat":-29.21100800,"lon":-59.70760600,"rng_nm":25,"alt_fmsl":0,"id":"A","desc":"RECONQUISTA NDB"},
{"type":"VOR","hdg_t":28.8,"dist_nm":74.7,"freq":117.1,"lat":-29.20861100,"lon":-59.68250000,"rng_nm":185,"alt_fmsl":157,"id":"RTA","desc":"RECONQUISTA VOR-DME"},
{"type":"VOR","hdg_t":288.2,"dist_nm":82.5,"freq":115.5,"lat":-29.86444400,"lon":-61.87222200,"rng_nm":185,"alt_fmsl":287,"id":"ERE","desc":"CERES VOR-DME"},
{"type":"NDB","hdg_t":194.8,"dist_nm":87.2,"freq":405,"lat":-31.71166700,"lon":-60.80638900,"rng_nm":230,"alt_fmsl":56,"id":"SVO","desc":"SAUCE VIEJO NDB"},
{"type":"NDB","hdg_t":195.1,"dist_nm":88.6,"freq":282,"lat":-31.73227500,"lon":-60.82109400,"rng_nm":25,"alt_fmsl":56,"id":"V","desc":"SAUCE VIEJO NDB"},
{"type":"VOR","hdg_t":183.7,"dist_nm":90.2,"freq":116.8,"lat":-31.80833300,"lon":-60.48472200,"rng_nm":175,"alt_fmsl":243,"id":"PAR","desc":"PARANA VOR-DME"},
{"type":"NDB","hdg_t":195.3,"dist_nm":91.7,"freq":262,"lat":-31.78085000,"lon":-60.84305600,"rng_nm":25,"alt_fmsl":56,"id":"OV","desc":"SAUCE VIEJO NDB"},
{"type":"NDB","hdg_t":40.3,"dist_nm":95,"freq":277,"lat":-29.08833300,"lon":-59.20000000,"rng_nm":25,"alt_fmsl":0,"id":"Y","desc":"GOYA NDB"},
{"type":"NDB","hdg_t":116.6,"dist_nm":135.9,"freq":335,"lat":-31.30166700,"lon":-58.00416700,"rng_nm":189,"alt_fmsl":115,"id":"DIA","desc":"CONCORDIA NDB"},
{"type":"NDB","hdg_t":116,"dist_nm":136.2,"freq":280,"lat":-31.28166700,"lon":-57.98833300,"rng_nm":25,"alt_fmsl":115,"id":"D","desc":"COMODORO PIERRESTEGUI NDB"}
]
}
