{"success":true,"source":"xp2csv.pl","last_updated":"2013/11/08 14:53:21 UTC"
,"icao":"SA7B","name":"Huinca Renanco","lat":-34.81611111,"lon":-64.3675,"rwys":1,"ils":0,"index":1887690,"path":"w070s40/w065s35"
,"runways":[
{"len_m":890,"wid_m":22.86,"hdg":8,"surf":"Dirt","rwy1":"01","lat1":-34.82008331,"lon1":-64.36820041,"rwy2":"19","lat2":-34.81213891,"lon2":-64.36679959}
]
,"navaids":[
{"type":"NDB","hdg_t":150.3,"dist_nm":60.1,"freq":285,"lat":-35.68750000,"lon":-63.75805600,"rng_nm":189,"alt_fmsl":456,"id":"GPI","desc":"GENERAL PICO NDB"},
{"type":"VOR","hdg_t":150.1,"dist_nm":60.6,"freq":112.2,"lat":-35.69277800,"lon":-63.75083300,"rng_nm":185,"alt_fmsl":459,"id":"GPI","desc":"GENERAL PICO VOR"},
{"type":"NDB","hdg_t":150.7,"dist_nm":61.8,"freq":307,"lat":-35.71500000,"lon":-63.75027800,"rng_nm":25,"alt_fmsl":0,"id":"G","desc":"GENERAL PICO NDB"},
{"type":"VOR","hdg_t":51.2,"dist_nm":64.1,"freq":116.3,"lat":-34.14111100,"lon":-63.36250000,"rng_nm":185,"alt_fmsl":449,"id":"LYE","desc":"LABOULAYE VOR"},
{"type":"VOR","hdg_t":321.9,"dist_nm":82.3,"freq":115.7,"lat":-33.72861100,"lon":-65.38111100,"rng_nm":185,"alt_fmsl":1591,"id":"RYD","desc":"VILLA REYNOLDS VOR-DME"},
{"type":"NDB","hdg_t":321.2,"dist_nm":82.5,"freq":237,"lat":-33.73666700,"lon":-65.40000000,"rng_nm":25,"alt_fmsl":0,"id":"W","desc":"VILLA REYNOLDS NDB"},
{"type":"NDB","hdg_t":321.9,"dist_nm":82.6,"freq":335,"lat":-33.72444400,"lon":-65.38583300,"rng_nm":259,"alt_fmsl":1591,"id":"RYD","desc":"VILLA REYNOLDS NDB"},
{"type":"NDB","hdg_t":321.3,"dist_nm":83,"freq":295,"lat":-33.72833300,"lon":-65.40333300,"rng_nm":25,"alt_fmsl":1591,"id":"V","desc":"VILLA REYNOLDS NDB"},
{"type":"NDB","hdg_t":1.3,"dist_nm":99.9,"freq":322,"lat":-33.14833300,"lon":-64.32000000,"rng_nm":25,"alt_fmsl":0,"id":"OR","desc":"RIO CUARTO NDB"},
{"type":"NDB","hdg_t":2.6,"dist_nm":102.1,"freq":305,"lat":-33.11166700,"lon":-64.27500000,"rng_nm":25,"alt_fmsl":1381,"id":"R","desc":"RIO CUARTO NDB"}
]
}
