{"success":true,"source":"xp2csv.pl","last_updated":"2013/11/08 14:53:21 UTC"
,"icao":"SA80","name":"San Benito","lat":-31.80861111,"lon":-60.45166667,"rwys":1,"ils":0,"index":1953418,"path":"w070s40/w061s32"
,"runways":[
{"len_m":346,"wid_m":17.98,"hdg":113,"surf":"Turf/grass","rwy1":"11","lat1":-31.80799799,"lon1":-60.45335121,"rwy2":"29","lat2":-31.80922424,"lon2":-60.44998212}
]
,"navaids":[
{"type":"VOR","hdg_t":270.5,"dist_nm":1.6,"freq":116.8,"lat":-31.80833300,"lon":-60.48472200,"rng_nm":175,"alt_fmsl":243,"id":"PAR","desc":"PARANA VOR-DME"},
{"type":"NDB","hdg_t":287.6,"dist_nm":19,"freq":405,"lat":-31.71166700,"lon":-60.80638900,"rng_nm":230,"alt_fmsl":56,"id":"SVO","desc":"SAUCE VIEJO NDB"},
{"type":"NDB","hdg_t":283.4,"dist_nm":19.4,"freq":282,"lat":-31.73227500,"lon":-60.82109400,"rng_nm":25,"alt_fmsl":56,"id":"V","desc":"SAUCE VIEJO NDB"},
{"type":"NDB","hdg_t":274.6,"dist_nm":20,"freq":262,"lat":-31.78085000,"lon":-60.84305600,"rng_nm":25,"alt_fmsl":56,"id":"OV","desc":"SAUCE VIEJO NDB"},
{"type":"NDB","hdg_t":194.4,"dist_nm":66.4,"freq":305,"lat":-32.88236100,"lon":-60.77972200,"rng_nm":25,"alt_fmsl":85,"id":"F","desc":"ROSARIO NDB"},
{"type":"SDME","hdg_t":194.3,"dist_nm":67,"freq":109.9,"lat":-32.89311100,"lon":-60.78097200,"rng_nm":18,"alt_fmsl":138,"id":"RO","desc":"SAAR 20 DME"},
{"type":"VOR","hdg_t":194.2,"dist_nm":67.7,"freq":117.3,"lat":-32.90500000,"lon":-60.78138900,"rng_nm":175,"alt_fmsl":80,"id":"ROS","desc":"ROSARIO VOR-DME"},
{"type":"VOR","hdg_t":238.3,"dist_nm":101.6,"freq":114.7,"lat":-32.68777800,"lon":-62.16083300,"rng_nm":185,"alt_fmsl":361,"id":"MJZ","desc":"MARCOS JUAREZ VOR"},
{"type":"VOR","hdg_t":128.1,"dist_nm":117.8,"freq":113.2,"lat":-33.00972200,"lon":-58.61416700,"rng_nm":175,"alt_fmsl":75,"id":"GUA","desc":"GUALEGUAYCHU VOR-DME"},
{"type":"NDB","hdg_t":105.9,"dist_nm":125.8,"freq":360,"lat":-32.36266700,"lon":-58.06936100,"rng_nm":100,"alt_fmsl":157,"id":"PN","desc":"PAYSANDU NDB"}
]
}
