{"success":true,"source":"xp2csv.pl","last_updated":"2013/11/08 14:53:21 UTC"
,"icao":"SA85","name":"San Jorge-bocca","lat":-31.866,"lon":-61.93000049,"rwys":1,"ils":0,"index":1937032,"path":"w070s40/w062s32"
,"runways":[
{"len_m":599,"wid_m":21.95,"hdg":20,"surf":"Dirt","rwy1":"02","lat1":-31.86853892,"lon1":-61.93108849,"rwy2":"20","lat2":-31.86346108,"lon2":-61.92891248}
]
,"navaids":[
{"type":"VOR","hdg_t":193.3,"dist_nm":50.5,"freq":114.7,"lat":-32.68777800,"lon":-62.16083300,"rng_nm":185,"alt_fmsl":361,"id":"MJZ","desc":"MARCOS JUAREZ VOR"},
{"type":"NDB","hdg_t":85,"dist_nm":55.7,"freq":262,"lat":-31.78085000,"lon":-60.84305600,"rng_nm":25,"alt_fmsl":56,"id":"OV","desc":"SAUCE VIEJO NDB"},
{"type":"NDB","hdg_t":82.2,"dist_nm":57.2,"freq":282,"lat":-31.73227500,"lon":-60.82109400,"rng_nm":25,"alt_fmsl":56,"id":"V","desc":"SAUCE VIEJO NDB"},
{"type":"NDB","hdg_t":81.1,"dist_nm":58.1,"freq":405,"lat":-31.71166700,"lon":-60.80638900,"rng_nm":230,"alt_fmsl":56,"id":"SVO","desc":"SAUCE VIEJO NDB"},
{"type":"VOR","hdg_t":87.7,"dist_nm":73.9,"freq":116.8,"lat":-31.80833300,"lon":-60.48472200,"rng_nm":175,"alt_fmsl":243,"id":"PAR","desc":"PARANA VOR-DME"},
{"type":"NDB","hdg_t":136.4,"dist_nm":84.3,"freq":305,"lat":-32.88236100,"lon":-60.77972200,"rng_nm":25,"alt_fmsl":85,"id":"F","desc":"ROSARIO NDB"},
{"type":"SDME","hdg_t":136.7,"dist_nm":84.7,"freq":109.9,"lat":-32.89311100,"lon":-60.78097200,"rng_nm":18,"alt_fmsl":138,"id":"RO","desc":"SAAR 20 DME"},
{"type":"VOR","hdg_t":137.1,"dist_nm":85.2,"freq":117.3,"lat":-32.90500000,"lon":-60.78138900,"rng_nm":175,"alt_fmsl":80,"id":"ROS","desc":"ROSARIO VOR-DME"},
{"type":"VOR","hdg_t":1.4,"dist_nm":119.8,"freq":115.5,"lat":-29.86444400,"lon":-61.87222200,"rng_nm":185,"alt_fmsl":287,"id":"ERE","desc":"CERES VOR-DME"},
{"type":"VOR","hdg_t":285.2,"dist_nm":121.1,"freq":114.5,"lat":-31.31333300,"lon":-64.20361100,"rng_nm":183,"alt_fmsl":1588,"id":"CBA","desc":"CORDOBA VOR-DME"}
]
}
