{"success":true,"source":"xp2csv.pl","last_updated":"2013/11/08 14:53:21 UTC"
,"icao":"SA8J","name":"Las Rosas","lat":-32.49305555,"lon":-61.58166667,"rwys":1,"ils":0,"index":1936993,"path":"w070s40/w062s33"
,"runways":[
{"len_m":781,"wid_m":29.87,"hdg":17,"surf":"Dirt","rwy1":"02","lat1":-32.49642465,"lon1":-61.58289292,"rwy2":"20","lat2":-32.48968646,"lon2":-61.58044042}
]
,"navaids":[
{"type":"VOR","hdg_t":248.1,"dist_nm":31.5,"freq":114.7,"lat":-32.68777800,"lon":-62.16083300,"rng_nm":185,"alt_fmsl":361,"id":"MJZ","desc":"MARCOS JUAREZ VOR"},
{"type":"NDB","hdg_t":120,"dist_nm":46.8,"freq":305,"lat":-32.88236100,"lon":-60.77972200,"rng_nm":25,"alt_fmsl":85,"id":"F","desc":"ROSARIO NDB"},
{"type":"SDME","hdg_t":120.7,"dist_nm":47,"freq":109.9,"lat":-32.89311100,"lon":-60.78097200,"rng_nm":18,"alt_fmsl":138,"id":"RO","desc":"SAAR 20 DME"},
{"type":"VOR","hdg_t":121.5,"dist_nm":47.4,"freq":117.3,"lat":-32.90500000,"lon":-60.78138900,"rng_nm":175,"alt_fmsl":80,"id":"ROS","desc":"ROSARIO VOR-DME"},
{"type":"NDB","hdg_t":41.6,"dist_nm":56.8,"freq":262,"lat":-31.78085000,"lon":-60.84305600,"rng_nm":25,"alt_fmsl":56,"id":"OV","desc":"SAUCE VIEJO NDB"},
{"type":"NDB","hdg_t":40.5,"dist_nm":59.8,"freq":282,"lat":-31.73227500,"lon":-60.82109400,"rng_nm":25,"alt_fmsl":56,"id":"V","desc":"SAUCE VIEJO NDB"},
{"type":"NDB","hdg_t":40.3,"dist_nm":61.2,"freq":405,"lat":-31.71166700,"lon":-60.80638900,"rng_nm":230,"alt_fmsl":56,"id":"SVO","desc":"SAUCE VIEJO NDB"},
{"type":"VOR","hdg_t":54,"dist_nm":69.3,"freq":116.8,"lat":-31.80833300,"lon":-60.48472200,"rng_nm":175,"alt_fmsl":243,"id":"PAR","desc":"PARANA VOR-DME"},
{"type":"NDB","hdg_t":165.2,"dist_nm":126.1,"freq":345,"lat":-34.52833300,"lon":-60.93500000,"rng_nm":25,"alt_fmsl":0,"id":"N","desc":"JUNIN NDB"},
{"type":"VOR","hdg_t":165.3,"dist_nm":126.8,"freq":116.1,"lat":-34.54111100,"lon":-60.93388900,"rng_nm":185,"alt_fmsl":269,"id":"NIN","desc":"JUNIN VOR"}
]
}
