{"success":true,"source":"xp2csv.pl","last_updated":"2013/11/08 14:53:21 UTC"
,"icao":"SA8M","name":"Leones","lat":-32.78972223,"lon":-62.21666667,"rwys":1,"ils":0,"index":1920587,"path":"w070s40/w063s33"
,"runways":[
{"len_m":1039,"wid_m":31.09,"hdg":8,"surf":"Dirt","rwy1":"01","lat1":-32.79435646,"lon1":-62.21748381,"rwy2":"19","lat2":-32.78508799,"lon2":-62.21584953}
]
,"navaids":[
{"type":"VOR","hdg_t":24.8,"dist_nm":6.7,"freq":114.7,"lat":-32.68777800,"lon":-62.16083300,"rng_nm":185,"alt_fmsl":361,"id":"MJZ","desc":"MARCOS JUAREZ VOR"},
{"type":"SDME","hdg_t":95.2,"dist_nm":72.8,"freq":109.9,"lat":-32.89311100,"lon":-60.78097200,"rng_nm":18,"alt_fmsl":138,"id":"RO","desc":"SAAR 20 DME"},
{"type":"NDB","hdg_t":94.7,"dist_nm":72.8,"freq":305,"lat":-32.88236100,"lon":-60.77972200,"rng_nm":25,"alt_fmsl":85,"id":"F","desc":"ROSARIO NDB"},
{"type":"VOR","hdg_t":95.8,"dist_nm":72.8,"freq":117.3,"lat":-32.90500000,"lon":-60.78138900,"rng_nm":175,"alt_fmsl":80,"id":"ROS","desc":"ROSARIO VOR-DME"},
{"type":"NDB","hdg_t":49.5,"dist_nm":92.3,"freq":262,"lat":-31.78085000,"lon":-60.84305600,"rng_nm":25,"alt_fmsl":56,"id":"OV","desc":"SAUCE VIEJO NDB"},
{"type":"NDB","hdg_t":48.6,"dist_nm":95.1,"freq":282,"lat":-31.73227500,"lon":-60.82109400,"rng_nm":25,"alt_fmsl":56,"id":"V","desc":"SAUCE VIEJO NDB"},
{"type":"NDB","hdg_t":48.4,"dist_nm":96.5,"freq":405,"lat":-31.71166700,"lon":-60.80638900,"rng_nm":230,"alt_fmsl":56,"id":"SVO","desc":"SAUCE VIEJO NDB"},
{"type":"VOR","hdg_t":215,"dist_nm":99.2,"freq":116.3,"lat":-34.14111100,"lon":-63.36250000,"rng_nm":185,"alt_fmsl":449,"id":"LYE","desc":"LABOULAYE VOR"},
{"type":"VOR","hdg_t":259.5,"dist_nm":105,"freq":114.2,"lat":-33.09222200,"lon":-64.26500000,"rng_nm":178,"alt_fmsl":1378,"id":"TRC","desc":"RIO CUARTO VOR"},
{"type":"NDB","hdg_t":258.9,"dist_nm":105.6,"freq":305,"lat":-33.11166700,"lon":-64.27500000,"rng_nm":25,"alt_fmsl":1381,"id":"R","desc":"RIO CUARTO NDB"}
]
}
