{"success":true,"source":"xp2csv.pl","last_updated":"2013/11/08 14:53:21 UTC"
,"icao":"SA8X","name":"Los Molinos Establecimiento La Florenc","lat":-33.07694445,"lon":-61.31777778,"rwys":1,"ils":0,"index":1936954,"path":"w070s40/w062s34"
,"runways":[
{"len_m":536,"wid_m":14.94,"hdg":154,"surf":"Dirt","rwy1":"15","lat1":-33.07477096,"lon1":-61.31903264,"rwy2":"33","lat2":-33.07911793,"lon2":-61.31652292}
]
,"navaids":[
{"type":"VOR","hdg_t":69.3,"dist_nm":28.9,"freq":117.3,"lat":-32.90500000,"lon":-60.78138900,"rng_nm":175,"alt_fmsl":80,"id":"ROS","desc":"ROSARIO VOR-DME"},
{"type":"SDME","hdg_t":68,"dist_nm":29.2,"freq":109.9,"lat":-32.89311100,"lon":-60.78097200,"rng_nm":18,"alt_fmsl":138,"id":"RO","desc":"SAAR 20 DME"},
{"type":"NDB","hdg_t":66.9,"dist_nm":29.5,"freq":305,"lat":-32.88236100,"lon":-60.77972200,"rng_nm":25,"alt_fmsl":85,"id":"F","desc":"ROSARIO NDB"},
{"type":"VOR","hdg_t":298.4,"dist_nm":48.5,"freq":114.7,"lat":-32.68777800,"lon":-62.16083300,"rng_nm":185,"alt_fmsl":361,"id":"MJZ","desc":"MARCOS JUAREZ VOR"},
{"type":"NDB","hdg_t":17.3,"dist_nm":81.2,"freq":262,"lat":-31.78085000,"lon":-60.84305600,"rng_nm":25,"alt_fmsl":56,"id":"OV","desc":"SAUCE VIEJO NDB"},
{"type":"NDB","hdg_t":17.5,"dist_nm":84.3,"freq":282,"lat":-31.73227500,"lon":-60.82109400,"rng_nm":25,"alt_fmsl":56,"id":"V","desc":"SAUCE VIEJO NDB"},
{"type":"NDB","hdg_t":17.7,"dist_nm":85.7,"freq":405,"lat":-31.71166700,"lon":-60.80638900,"rng_nm":230,"alt_fmsl":56,"id":"SVO","desc":"SAUCE VIEJO NDB"},
{"type":"VOR","hdg_t":29.3,"dist_nm":86.9,"freq":116.8,"lat":-31.80833300,"lon":-60.48472200,"rng_nm":175,"alt_fmsl":243,"id":"PAR","desc":"PARANA VOR-DME"},
{"type":"NDB","hdg_t":167.6,"dist_nm":89,"freq":345,"lat":-34.52833300,"lon":-60.93500000,"rng_nm":25,"alt_fmsl":0,"id":"N","desc":"JUNIN NDB"},
{"type":"VOR","hdg_t":167.7,"dist_nm":89.7,"freq":116.1,"lat":-34.54111100,"lon":-60.93388900,"rng_nm":185,"alt_fmsl":269,"id":"NIN","desc":"JUNIN VOR"},
{"type":"NDB","hdg_t":167.8,"dist_nm":90.3,"freq":220,"lat":-34.55111100,"lon":-60.93388900,"rng_nm":189,"alt_fmsl":269,"id":"NIN","desc":"JUNIN NDB"}
]
}
