{"success":true,"source":"xp2csv.pl","last_updated":"2013/11/08 14:53:21 UTC"
,"icao":"SA9O","name":"Mercedes San Luis","lat":-33.6425,"lon":-65.42083333,"rwys":2,"ils":0,"index":1871378,"path":"w070s40/w066s34"
,"runways":[
{"len_m":1731,"wid_m":49.99,"hdg":8,"surf":"Dirt","rwy1":"01","lat1":-33.65022372,"lon1":-65.42219523,"rwy2":"19","lat2":-33.63477628,"lon2":-65.41947143},
{"len_m":623,"wid_m":49.99,"hdg":90,"surf":"Dirt","rwy1":"09","lat1":-33.64250000,"lon1":-65.42419456,"rwy2":"27","lat2":-33.64250000,"lon2":-65.41747210}
]
,"navaids":[
{"type":"NDB","hdg_t":160.3,"dist_nm":5.2,"freq":335,"lat":-33.72444400,"lon":-65.38583300,"rng_nm":259,"alt_fmsl":1591,"id":"RYD","desc":"VILLA REYNOLDS NDB"},
{"type":"NDB","hdg_t":170.3,"dist_nm":5.2,"freq":295,"lat":-33.72833300,"lon":-65.40333300,"rng_nm":25,"alt_fmsl":1591,"id":"V","desc":"VILLA REYNOLDS NDB"},
{"type":"VOR","hdg_t":158.9,"dist_nm":5.5,"freq":115.7,"lat":-33.72861100,"lon":-65.38111100,"rng_nm":185,"alt_fmsl":1591,"id":"RYD","desc":"VILLA REYNOLDS VOR-DME"},
{"type":"NDB","hdg_t":169.5,"dist_nm":5.7,"freq":237,"lat":-33.73666700,"lon":-65.40000000,"rng_nm":25,"alt_fmsl":0,"id":"W","desc":"VILLA REYNOLDS NDB"},
{"type":"NDB","hdg_t":292.9,"dist_nm":51.3,"freq":307,"lat":-33.30500000,"lon":-66.36166700,"rng_nm":25,"alt_fmsl":0,"id":"U","desc":"SAN LUIS NDB"},
{"type":"VOR","hdg_t":295,"dist_nm":52.2,"freq":116,"lat":-33.26944400,"lon":-66.36083300,"rng_nm":177,"alt_fmsl":2329,"id":"UIS","desc":"SAN LUIS VOR"},
{"type":"NDB","hdg_t":62.1,"dist_nm":62.7,"freq":322,"lat":-33.14833300,"lon":-64.32000000,"rng_nm":25,"alt_fmsl":0,"id":"OR","desc":"RIO CUARTO NDB"},
{"type":"NDB","hdg_t":61.4,"dist_nm":65.7,"freq":305,"lat":-33.11166700,"lon":-64.27500000,"rng_nm":25,"alt_fmsl":1381,"id":"R","desc":"RIO CUARTO NDB"},
{"type":"VOR","hdg_t":60.7,"dist_nm":66.7,"freq":114.2,"lat":-33.09222200,"lon":-64.26500000,"rng_nm":178,"alt_fmsl":1378,"id":"TRC","desc":"RIO CUARTO VOR"},
{"type":"VOR","hdg_t":9,"dist_nm":76.9,"freq":117.5,"lat":-32.37361100,"lon":-65.18333300,"rng_nm":130,"alt_fmsl":2021,"id":"SRC","desc":"SANTA ROSA DE CONLARA VOR-DME"}
]
}
