{"success":true,"source":"xp2csv.pl","last_updated":"2013/11/08 14:53:21 UTC"
,"icao":"SAAV","name":"Sauce Viejo","lat":-31.711653,"lon":-60.811597,"rwys":1,"ils":1,"index":1953424,"path":"w070s40/w061s32"
,"runways":[
{"len_m":2323,"wid_m":29.87,"hdg":22,"surf":"Asphalt","rwy1":"03","lat1":-31.72130600,"lon1":-60.81636100,"rwy2":"21","lat2":-31.70200000,"lon2":-60.80683300}
]
,"radios":[
{"type":"TWR","freq":118.5,"desc":"TWR"},
{"type":"APP","freq":118.95,"desc":"APP"},
{"type":"APP","freq":118.45,"desc":"APP"}
]
,"ils":[
{"type":"ILS","freq":109.5,"lat":-31.70030600,"lon":-60.80602800,"rng_nm":18,"alt_fmsl":56,"hdg":22.71,"id":"SV","rwy":"03","desc":"ILS-cat-I"},
{"type":"GS","freq":109.5,"lat":-31.71808300,"lon":-60.81647200,"rng_nm":10,"alt_fmsl":56,"id":"SV","rwy":"03","desc":"GS","gs":3},
{"type":"OM","freq":0,"lat":-31.78085000,"lon":-60.84305600,"rng_nm":0,"alt_fmsl":56,"id":"----","rwy":"03","desc":"OM"},
{"type":"MM","freq":0,"lat":-31.73227500,"lon":-60.82109400,"rng_nm":0,"alt_fmsl":56,"id":"----","rwy":"03","desc":"MM"},
{"type":"DME","freq":109.5,"lat":-31.71808300,"lon":-60.81647200,"rng_nm":18,"alt_fmsl":56,"id":"SV","rwy":"03","desc":"DME-ILS"}
]
,"navaids":[
{"type":"NDB","hdg_t":90.1,"dist_nm":0.2,"freq":405,"lat":-31.71166700,"lon":-60.80638900,"rng_nm":230,"alt_fmsl":56,"id":"SVO","desc":"SAUCE VIEJO NDB"},
{"type":"NDB","hdg_t":201.4,"dist_nm":1.3,"freq":282,"lat":-31.73227500,"lon":-60.82109400,"rng_nm":25,"alt_fmsl":56,"id":"V","desc":"SAUCE VIEJO NDB"},
{"type":"NDB","hdg_t":201.2,"dist_nm":4.4,"freq":262,"lat":-31.78085000,"lon":-60.84305600,"rng_nm":25,"alt_fmsl":56,"id":"OV","desc":"SAUCE VIEJO NDB"},
{"type":"VOR","hdg_t":109.1,"dist_nm":17.6,"freq":116.8,"lat":-31.80833300,"lon":-60.48472200,"rng_nm":175,"alt_fmsl":243,"id":"PAR","desc":"PARANA VOR-DME"},
{"type":"NDB","hdg_t":178.6,"dist_nm":70.1,"freq":305,"lat":-32.88236100,"lon":-60.77972200,"rng_nm":25,"alt_fmsl":85,"id":"F","desc":"ROSARIO NDB"},
{"type":"SDME","hdg_t":178.7,"dist_nm":70.7,"freq":109.9,"lat":-32.89311100,"lon":-60.78097200,"rng_nm":18,"alt_fmsl":138,"id":"RO","desc":"SAAR 20 DME"},
{"type":"VOR","hdg_t":178.7,"dist_nm":71.4,"freq":117.3,"lat":-32.90500000,"lon":-60.78138900,"rng_nm":175,"alt_fmsl":80,"id":"ROS","desc":"ROSARIO VOR-DME"},
{"type":"VOR","hdg_t":229.2,"dist_nm":90.1,"freq":114.7,"lat":-32.68777800,"lon":-62.16083300,"rng_nm":185,"alt_fmsl":361,"id":"MJZ","desc":"MARCOS JUAREZ VOR"},
{"type":"VOR","hdg_t":333.3,"dist_nm":123.4,"freq":115.5,"lat":-29.86444400,"lon":-61.87222200,"rng_nm":185,"alt_fmsl":287,"id":"ERE","desc":"CERES VOR-DME"},
{"type":"VOR","hdg_t":125.4,"dist_nm":136,"freq":113.2,"lat":-33.00972200,"lon":-58.61416700,"rng_nm":175,"alt_fmsl":75,"id":"GUA","desc":"GUALEGUAYCHU VOR-DME"}
]
}
