{"success":true,"source":"xp2csv.pl","last_updated":"2013/11/08 14:53:21 UTC"
,"icao":"SAB0","name":"Puan","lat":-37.53944445,"lon":-62.73444445,"rwys":2,"ils":0,"index":1920281,"path":"w070s40/w063s38"
,"runways":[
{"len_m":824,"wid_m":22.86,"hdg":33,"surf":"Dirt","rwy1":"04","lat1":-37.54253427,"lon1":-62.73703711,"rwy2":"22","lat2":-37.53635462,"lon2":-62.73185178},
{"len_m":944,"wid_m":22.86,"hdg":146,"surf":"Dirt","rwy1":"14","lat1":-37.53590831,"lon1":-62.73741161,"rwy2":"32","lat2":-37.54298058,"lon2":-62.73147728}
]
,"navaids":[
{"type":"NDB","hdg_t":158.7,"dist_nm":71.6,"freq":260,"lat":-38.65166700,"lon":-62.18166700,"rng_nm":25,"alt_fmsl":0,"id":"OC","desc":"COMANDANTE ESPORA NDB"},
{"type":"NDB","hdg_t":158.9,"dist_nm":75,"freq":280,"lat":-38.70666700,"lon":-62.16000000,"rng_nm":25,"alt_fmsl":246,"id":"C","desc":"COMANDANTE ESPORA NDB"},
{"type":"VOR","hdg_t":159,"dist_nm":75.8,"freq":114.3,"lat":-38.72000000,"lon":-62.15833300,"rng_nm":175,"alt_fmsl":246,"id":"BCA","desc":"BAHIA BLANCA VOR-DME"},
{"type":"NDB","hdg_t":159.4,"dist_nm":76.5,"freq":370,"lat":-38.73388900,"lon":-62.16277800,"rng_nm":216,"alt_fmsl":246,"id":"EPO","desc":"COMANDANTE ESPORA NDB"},
{"type":"VOR","hdg_t":307.3,"dist_nm":93.4,"freq":112.5,"lat":-36.58372200,"lon":-64.27283300,"rng_nm":189,"alt_fmsl":630,"id":"OSA","desc":"SANTA ROSA VOR-DME"},
{"type":"NDB","hdg_t":307.8,"dist_nm":93.9,"freq":300,"lat":-36.56833300,"lon":-64.27000000,"rng_nm":50,"alt_fmsl":630,"id":"O","desc":"SANTA ROSA NDB"},
{"type":"NDB","hdg_t":22.7,"dist_nm":110.1,"freq":265,"lat":-35.84111100,"lon":-61.86083300,"rng_nm":230,"alt_fmsl":279,"id":"PEH","desc":"PEHUAJO NDB"},
{"type":"NDB","hdg_t":335.5,"dist_nm":119.8,"freq":307,"lat":-35.71500000,"lon":-63.75027800,"rng_nm":25,"alt_fmsl":0,"id":"G","desc":"GENERAL PICO NDB"},
{"type":"VOR","hdg_t":335.7,"dist_nm":121,"freq":112.2,"lat":-35.69277800,"lon":-63.75083300,"rng_nm":185,"alt_fmsl":459,"id":"GPI","desc":"GENERAL PICO VOR"},
{"type":"NDB","hdg_t":335.6,"dist_nm":121.4,"freq":285,"lat":-35.68750000,"lon":-63.75805600,"rng_nm":189,"alt_fmsl":456,"id":"GPI","desc":"GENERAL PICO NDB"}
]
}
