{"success":true,"source":"xp2csv.pl","last_updated":"2013/11/08 14:53:21 UTC"
,"icao":"SADM","name":"Moron","lat":-34.67623109,"lon":-58.64276967,"rwys":1,"ils":0,"index":1986001,"path":"w060s40/w059s35"
,"runways":[
{"len_m":2884,"wid_m":42.98,"hdg":13,"surf":"Concrete","rwy1":"01","lat1":-34.68886896,"lon1":-58.64645906,"rwy2":"19","lat2":-34.66359322,"lon2":-58.63908027}
]
,"radios":[
{"type":"TWR","freq":118.5,"desc":"Moron TWR"},
{"type":"TWR","freq":119.25,"desc":"Moron TWR AUX"}
]
,"navaids":[
{"type":"VOR","hdg_t":20.6,"dist_nm":4,"freq":115.2,"lat":-34.61277800,"lon":-58.61388900,"rng_nm":175,"alt_fmsl":58,"id":"PAL","desc":"EL PALOMAR VOR-DME"},
{"type":"NDB","hdg_t":9.4,"dist_nm":5.3,"freq":315,"lat":-34.58833300,"lon":-58.62500000,"rng_nm":25,"alt_fmsl":0,"id":"L","desc":"EL PALOMAR NDB"},
{"type":"NDB","hdg_t":176.5,"dist_nm":7.7,"freq":330,"lat":-34.80483246,"lon":-58.63344574,"rng_nm":25,"alt_fmsl":31,"id":"OC","desc":"MINISTRO PISTARINI NDB"},
{"type":"NDB","hdg_t":155.4,"dist_nm":9.2,"freq":305,"lat":-34.81705475,"lon":-58.56466675,"rng_nm":25,"alt_fmsl":66,"id":"C","desc":"MINISTRO PISTARINI NDB"},
{"type":"VOR","hdg_t":312.8,"dist_nm":9.9,"freq":112.9,"lat":-34.56277800,"lon":-58.79055600,"rng_nm":185,"alt_fmsl":105,"id":"ENO","desc":"MARIANO MORENO VOR-DME"},
{"type":"VOR","hdg_t":149,"dist_nm":10.3,"freq":116.5,"lat":-34.82416534,"lon":-58.53527832,"rng_nm":185,"alt_fmsl":66,"id":"EZE","desc":"EZEIZA VOR-DME"},
{"type":"NDB","hdg_t":316.6,"dist_nm":11.3,"freq":395,"lat":-34.53833300,"lon":-58.80000000,"rng_nm":25,"alt_fmsl":92,"id":"Z","desc":"MARIANO MORENO NDB"},
{"type":"NDB","hdg_t":149,"dist_nm":11.5,"freq":237,"lat":-34.84163900,"lon":-58.52236100,"rng_nm":25,"alt_fmsl":66,"id":"A","desc":"MINISTRO PISTARINI NDB"},
{"type":"NDB","hdg_t":39.6,"dist_nm":12.1,"freq":260,"lat":-34.52011490,"lon":-58.48653412,"rng_nm":25,"alt_fmsl":53,"id":"OP","desc":"AEROPARQUE JORGE NEWBERY NDB"},
{"type":"NDB","hdg_t":52.3,"dist_nm":12.7,"freq":280,"lat":-34.54641700,"lon":-58.43950000,"rng_nm":25,"alt_fmsl":20,"id":"P","desc":"AEROPARQUE JORGE NEWBERY NDB"},
{"type":"VOR","hdg_t":12.1,"dist_nm":13.7,"freq":114.4,"lat":-34.45138900,"lon":-58.58416700,"rng_nm":185,"alt_fmsl":49,"id":"FDO","desc":"SAN FERNANDO VOR-DME"},
{"type":"NDB","hdg_t":152.2,"dist_nm":14.4,"freq":270,"lat":-34.89027786,"lon":-58.50602722,"rng_nm":25,"alt_fmsl":81,"id":"OA","desc":"MINISTRO PISTARINI NDB"},
{"type":"NDB","hdg_t":322.4,"dist_nm":14.5,"freq":295,"lat":-34.48333300,"lon":-58.82166700,"rng_nm":25,"alt_fmsl":0,"id":"OZ","desc":"MARIANO MORENO NDB"},
{"type":"NDB","hdg_t":68.1,"dist_nm":14.6,"freq":375,"lat":-34.58491516,"lon":-58.36888885,"rng_nm":25,"alt_fmsl":37,"id":"N","desc":"AEROPARQUE NDB"},
{"type":"NDB","hdg_t":96,"dist_nm":20,"freq":210,"lat":-34.71083300,"lon":-58.24027800,"rng_nm":162,"alt_fmsl":7,"id":"ILM","desc":"QUILMES NDB"},
{"type":"NDB","hdg_t":115.5,"dist_nm":40.7,"freq":250,"lat":-34.96666700,"lon":-57.89777800,"rng_nm":81,"alt_fmsl":72,"id":"PTA","desc":"LA PLATA NDB"},
{"type":"VOR","hdg_t":116.2,"dist_nm":40.9,"freq":113.7,"lat":-34.97583300,"lon":-57.89833300,"rng_nm":170,"alt_fmsl":69,"id":"PTA","desc":"LA PLATA VOR"},
{"type":"NDB","hdg_t":73.1,"dist_nm":45.2,"freq":203,"lat":-34.45394400,"lon":-57.77008300,"rng_nm":30,"alt_fmsl":0,"id":"COL","desc":"COLONIA NDB"},
{"type":"VOR","hdg_t":304.5,"dist_nm":47.9,"freq":117.7,"lat":-34.21944400,"lon":-59.43555600,"rng_nm":185,"alt_fmsl":98,"id":"SNT","desc":"SAN ANTONIO DE ARECO VOR-DME"},
{"type":"NDB","hdg_t":301.6,"dist_nm":48.6,"freq":340,"lat":-34.24777800,"lon":-59.47555600,"rng_nm":162,"alt_fmsl":98,"id":"SNT","desc":"SAN ANTONIO DE ARECO NDB"},
{"type":"VOR","hdg_t":172.2,"dist_nm":64.9,"freq":115.6,"lat":-35.75111100,"lon":-58.46388900,"rng_nm":185,"alt_fmsl":57,"id":"GBE","desc":"GENERAL BELGRANO VOR"},
{"type":"NDB","hdg_t":122,"dist_nm":77.2,"freq":325,"lat":-35.35277800,"lon":-57.30722200,"rng_nm":216,"alt_fmsl":52,"id":"PDI","desc":"PUNTA INDIO NDB"},
{"type":"VOR","hdg_t":121.1,"dist_nm":78.4,"freq":114.1,"lat":-35.34611100,"lon":-57.27555600,"rng_nm":140,"alt_fmsl":52,"id":"PDI","desc":"PUNTA INDIO VOR-DME"},
{"type":"VOR","hdg_t":0.8,"dist_nm":99.8,"freq":113.2,"lat":-33.00972200,"lon":-58.61416700,"rng_nm":175,"alt_fmsl":75,"id":"GUA","desc":"GUALEGUAYCHU VOR-DME"}
]
}
