{"success":true,"source":"xp2csv.pl","last_updated":"2013/11/08 14:53:21 UTC"
,"icao":"SAE3","name":"Daireaux","lat":-36.5827777733333,"lon":-61.78416667,"rwys":3,"ils":0,"index":1936728,"path":"w070s40/w062s37"
,"runways":[
{"len_m":679,"wid_m":22.86,"hdg":77,"surf":"Dirt","rwy1":"08","lat1":-36.58343149,"lon1":-61.78787405,"rwy2":"26","lat2":-36.58212407,"lon2":-61.78045928},
{"len_m":621,"wid_m":22.86,"hdg":34,"surf":"Dirt","rwy1":"04","lat1":-36.58509514,"lon1":-61.78611117,"rwy2":"22","lat2":-36.58046041,"lon2":-61.78222216},
{"len_m":989,"wid_m":29.87,"hdg":8,"surf":"Dirt","rwy1":"01","lat1":-36.58719133,"lon1":-61.78494490,"rwy2":"19","lat2":-36.57836422,"lon2":-61.78338844}
]
,"navaids":[
{"type":"NDB","hdg_t":355.1,"dist_nm":44.5,"freq":265,"lat":-35.84111100,"lon":-61.86083300,"rng_nm":230,"alt_fmsl":279,"id":"PEH","desc":"PEHUAJO NDB"},
{"type":"NDB","hdg_t":104.1,"dist_nm":77.2,"freq":405,"lat":-36.88851700,"lon":-60.22723300,"rng_nm":173,"alt_fmsl":551,"id":"OLA","desc":"OLAVARRIA NDB"},
{"type":"NDB","hdg_t":297.9,"dist_nm":108.7,"freq":307,"lat":-35.71500000,"lon":-63.75027800,"rng_nm":25,"alt_fmsl":0,"id":"G","desc":"GENERAL PICO NDB"},
{"type":"VOR","hdg_t":298.5,"dist_nm":109.4,"freq":112.2,"lat":-35.69277800,"lon":-63.75083300,"rng_nm":185,"alt_fmsl":459,"id":"GPI","desc":"GENERAL PICO VOR"},
{"type":"NDB","hdg_t":298.6,"dist_nm":109.9,"freq":285,"lat":-35.68750000,"lon":-63.75805600,"rng_nm":189,"alt_fmsl":456,"id":"GPI","desc":"GENERAL PICO NDB"},
{"type":"NDB","hdg_t":269.6,"dist_nm":120.1,"freq":300,"lat":-36.56833300,"lon":-64.27000000,"rng_nm":50,"alt_fmsl":630,"id":"O","desc":"SANTA ROSA NDB"},
{"type":"VOR","hdg_t":269.2,"dist_nm":120.2,"freq":112.5,"lat":-36.58372200,"lon":-64.27283300,"rng_nm":189,"alt_fmsl":630,"id":"OSA","desc":"SANTA ROSA VOR-DME"},
{"type":"NDB","hdg_t":188.5,"dist_nm":125.4,"freq":260,"lat":-38.65166700,"lon":-62.18166700,"rng_nm":25,"alt_fmsl":0,"id":"OC","desc":"COMANDANTE ESPORA NDB"},
{"type":"NDB","hdg_t":106.3,"dist_nm":128,"freq":300,"lat":-37.15833300,"lon":-59.22166700,"rng_nm":25,"alt_fmsl":0,"id":"OD","desc":"TANDIL NDB"},
{"type":"NDB","hdg_t":187.8,"dist_nm":128.5,"freq":280,"lat":-38.70666700,"lon":-62.16000000,"rng_nm":25,"alt_fmsl":246,"id":"C","desc":"COMANDANTE ESPORA NDB"}
]
}
