{"success":true,"source":"xp2csv.pl","last_updated":"2013/11/08 14:53:21 UTC"
,"icao":"SAE5","name":"Darregueira","lat":-37.71166666,"lon":-63.16361111,"rwys":1,"ils":0,"index":1903891,"path":"w070s40/w064s38"
,"runways":[
{"len_m":900,"wid_m":22.86,"hdg":155,"surf":"Dirt","rwy1":"15","lat1":-37.70797951,"lon1":-63.16573989,"rwy2":"33","lat2":-37.71535382,"lon2":-63.16148233}
]
,"navaids":[
{"type":"NDB","hdg_t":140.7,"dist_nm":73,"freq":260,"lat":-38.65166700,"lon":-62.18166700,"rng_nm":25,"alt_fmsl":0,"id":"OC","desc":"COMANDANTE ESPORA NDB"},
{"type":"NDB","hdg_t":141.7,"dist_nm":76.2,"freq":280,"lat":-38.70666700,"lon":-62.16000000,"rng_nm":25,"alt_fmsl":246,"id":"C","desc":"COMANDANTE ESPORA NDB"},
{"type":"VOR","hdg_t":142.1,"dist_nm":76.8,"freq":114.3,"lat":-38.72000000,"lon":-62.15833300,"rng_nm":175,"alt_fmsl":246,"id":"BCA","desc":"BAHIA BLANCA VOR-DME"},
{"type":"NDB","hdg_t":142.6,"dist_nm":77.4,"freq":370,"lat":-38.73388900,"lon":-62.16277800,"rng_nm":216,"alt_fmsl":246,"id":"EPO","desc":"COMANDANTE ESPORA NDB"},
{"type":"VOR","hdg_t":321.4,"dist_nm":86,"freq":112.5,"lat":-36.58372200,"lon":-64.27283300,"rng_nm":189,"alt_fmsl":630,"id":"OSA","desc":"SANTA ROSA VOR-DME"},
{"type":"NDB","hdg_t":321.8,"dist_nm":86.6,"freq":300,"lat":-36.56833300,"lon":-64.27000000,"rng_nm":50,"alt_fmsl":630,"id":"O","desc":"SANTA ROSA NDB"},
{"type":"NDB","hdg_t":346.5,"dist_nm":122.9,"freq":307,"lat":-35.71500000,"lon":-63.75027800,"rng_nm":25,"alt_fmsl":0,"id":"G","desc":"GENERAL PICO NDB"},
{"type":"VOR","hdg_t":346.6,"dist_nm":124.2,"freq":112.2,"lat":-35.69277800,"lon":-63.75083300,"rng_nm":185,"alt_fmsl":459,"id":"GPI","desc":"GENERAL PICO VOR"},
{"type":"NDB","hdg_t":346.5,"dist_nm":124.6,"freq":285,"lat":-35.68750000,"lon":-63.75805600,"rng_nm":189,"alt_fmsl":456,"id":"GPI","desc":"GENERAL PICO NDB"},
{"type":"NDB","hdg_t":29.6,"dist_nm":128.4,"freq":265,"lat":-35.84111100,"lon":-61.86083300,"rng_nm":230,"alt_fmsl":279,"id":"PEH","desc":"PEHUAJO NDB"}
]
}
