{"success":true,"source":"xp2csv.pl","last_updated":"2013/11/08 14:53:21 UTC"
,"icao":"SAHR","name":"General Roca","lat":-39.0006725,"lon":-67.6205125,"rwys":1,"ils":0,"index":1838265,"path":"w070s40/w068s40"
,"runways":[
{"len_m":2154,"wid_m":45.11,"hdg":94,"surf":"Asphalt","rwy1":"09","lat1":-38.99994200,"lon1":-67.63291400,"rwy2":"27","lat2":-39.00140300,"lon2":-67.60811100}
]
,"navaids":[
{"type":"NDB","hdg_t":40.6,"dist_nm":1.3,"freq":275,"lat":-38.98305600,"lon":-67.60111100,"rng_nm":140,"alt_fmsl":853,"id":"GNR","desc":"GENERAL ROCA NDB"},
{"type":"VOR","hdg_t":276.7,"dist_nm":25.1,"freq":116.7,"lat":-38.95027800,"lon":-68.15472200,"rng_nm":189,"alt_fmsl":885,"id":"NEU","desc":"NEUQUEN VOR-DME"},
{"type":"NDB","hdg_t":276.3,"dist_nm":26.6,"freq":307,"lat":-38.95000000,"lon":-68.18708300,"rng_nm":30,"alt_fmsl":0,"id":"N","desc":"PRESIDENTE PERON NDB"},
{"type":"NDB","hdg_t":275.6,"dist_nm":29.9,"freq":332,"lat":-38.94994400,"lon":-68.25775000,"rng_nm":50,"alt_fmsl":0,"id":"ON","desc":"PRESIDENTE PERON NDB"},
{"type":"VOR","hdg_t":100.8,"dist_nm":95.3,"freq":113.4,"lat":-39.28250000,"lon":-65.61000000,"rng_nm":130,"alt_fmsl":643,"id":"OEL","desc":"CHOELE CHOEL VOR-DME"},
{"type":"NDB","hdg_t":132.3,"dist_nm":159.5,"freq":220,"lat":-40.76472200,"lon":-65.03416700,"rng_nm":162,"alt_fmsl":85,"id":"SAN","desc":"SAN ANTONIO OESTE NDB"},
{"type":"VOR","hdg_t":247.6,"dist_nm":173.1,"freq":117,"lat":-40.04888900,"lon":-71.09527800,"rng_nm":130,"alt_fmsl":2569,"id":"CHP","desc":"SAN MARTIN DE LOS ANDES VOR-DME"},
{"type":"NDB","hdg_t":247.2,"dist_nm":176,"freq":265,"lat":-40.08166700,"lon":-71.14722200,"rng_nm":162,"alt_fmsl":2569,"id":"CHP","desc":"SAN MARTIN DE LOS ANDES NDB"},
{"type":"NDB","hdg_t":230.8,"dist_nm":208.3,"freq":305,"lat":-41.14264400,"lon":-71.18251400,"rng_nm":25,"alt_fmsl":2774,"id":"B","desc":"SAN CARLOS DE BARILOCHE NDB"},
{"type":"VOR","hdg_t":230.8,"dist_nm":208.4,"freq":117.4,"lat":-41.14027800,"lon":-71.18888900,"rng_nm":175,"alt_fmsl":2776,"id":"BAR","desc":"SAN CARLOS DE BARILOCHE VOR-DME"}
]
}
