{"success":true,"source":"xp2csv.pl","last_updated":"2013/11/08 14:53:21 UTC"
,"icao":"SASJ","name":"Jujuy","lat":-24.3927365,"lon":-65.097833,"rwys":1,"ils":1,"index":1871971,"path":"w070s30/w066s25"
,"runways":[
{"len_m":2955,"wid_m":39.93,"hdg":150,"surf":"Asphalt","rwy1":"15","lat1":-24.38116700,"lon1":-65.10508300,"rwy2":"33","lat2":-24.40430600,"lon2":-65.09058300}
]
,"radios":[
{"type":"TWR","freq":118.7,"desc":"TWR/APP"},
{"type":"TWR","freq":118.5,"desc":"TWR/APP"}
]
,"ils":[
{"type":"ILS","freq":110.1,"lat":-24.37783300,"lon":-65.10716700,"rng_nm":18,"alt_fmsl":3019,"hdg":330.30,"id":"JU","rwy":"33","desc":"ILS-cat-I"},
{"type":"GS","freq":110.1,"lat":-24.40291700,"lon":-65.09291700,"rng_nm":10,"alt_fmsl":3019,"id":"JU","rwy":"33","desc":"GS","gs":3},
{"type":"OM","freq":0,"lat":-24.46083300,"lon":-65.05538900,"rng_nm":0,"alt_fmsl":3019,"id":"----","rwy":"33","desc":"OM"},
{"type":"MM","freq":0,"lat":-24.41600000,"lon":-65.08325000,"rng_nm":0,"alt_fmsl":3019,"id":"----","rwy":"33","desc":"MM"}
]
,"navaids":[
{"type":"VOR","hdg_t":100.6,"dist_nm":0.2,"freq":112.9,"lat":-24.39361100,"lon":-65.09277800,"rng_nm":186,"alt_fmsl":3000,"id":"JUJ","desc":"JUJUY VOR-DME"},
{"type":"NDB","hdg_t":150.1,"dist_nm":1.6,"freq":330,"lat":-24.41600000,"lon":-65.08325000,"rng_nm":25,"alt_fmsl":0,"id":"J","desc":"JUJUY NDB"},
{"type":"NDB","hdg_t":150.2,"dist_nm":4.6,"freq":315,"lat":-24.46083300,"lon":-65.05538900,"rng_nm":25,"alt_fmsl":0,"id":"OJ","desc":"JUJUY NDB"},
{"type":"VOR","hdg_t":217.4,"dist_nm":34.6,"freq":116.7,"lat":-24.85226700,"lon":-65.48392800,"rng_nm":185,"alt_fmsl":4062,"id":"SAL","desc":"SALTA VOR-DME"},
{"type":"NDB","hdg_t":217.7,"dist_nm":35.6,"freq":305,"lat":-24.86358900,"lon":-65.49735600,"rng_nm":16,"alt_fmsl":4062,"id":"L","desc":"SALTA NDB"},
{"type":"NDB","hdg_t":218.8,"dist_nm":38.7,"freq":340,"lat":-24.89667200,"lon":-65.54418600,"rng_nm":25,"alt_fmsl":0,"id":"OL","desc":"SALTA NDB"},
{"type":"NDB","hdg_t":29.9,"dist_nm":85.6,"freq":285,"lat":-23.14944400,"lon":-64.32416700,"rng_nm":189,"alt_fmsl":1171,"id":"ORA","desc":"ORAN NDB"},
{"type":"NDB","hdg_t":24.1,"dist_nm":106.3,"freq":400,"lat":-22.76880800,"lon":-64.31206600,"rng_nm":50,"alt_fmsl":1250,"id":"BJO","desc":"BERMEJO NDB"},
{"type":"NDB","hdg_t":34,"dist_nm":126.9,"freq":210,"lat":-22.62777800,"lon":-63.81916700,"rng_nm":173,"alt_fmsl":1476,"id":"TAR","desc":"TARTAGAL NDB"},
{"type":"VOR","hdg_t":180.2,"dist_nm":146.7,"freq":114.1,"lat":-26.84583300,"lon":-65.10833300,"rng_nm":185,"alt_fmsl":1483,"id":"TUC","desc":"TUCUMAN VOR-DME"}
]
}
