{"success":true,"source":"xp2csv.pl","last_updated":"2013/11/08 14:53:21 UTC"
,"icao":"SATD","name":"Eldorado","lat":-26.3975,"lon":-54.5745835,"rwys":1,"ils":0,"index":2052065,"path":"w060s30/w055s27"
,"runways":[
{"len_m":1418,"wid_m":29.87,"hdg":356,"surf":"Asphalt","rwy1":"01","lat1":-26.40388900,"lon1":-54.57416700,"rwy2":"19","lat2":-26.39111100,"lon2":-54.57500000}
]
,"navaids":[
{"type":"NDB","hdg_t":10,"dist_nm":39.4,"freq":310,"lat":-25.74805600,"lon":-54.44766700,"rng_nm":25,"alt_fmsl":916,"id":"Z","desc":"CATARATAS DEL IGAUZU NDB"},
{"type":"VOR","hdg_t":6.9,"dist_nm":39.9,"freq":114.1,"lat":-25.73449700,"lon":-54.48571100,"rng_nm":176,"alt_fmsl":935,"id":"IGU","desc":"CATARATAS DEL IGUAZU VOR-DME"},
{"type":"NDB","hdg_t":4.5,"dist_nm":48.8,"freq":395,"lat":-25.58416700,"lon":-54.50250000,"rng_nm":25,"alt_fmsl":0,"id":"QQ","desc":"IGUACU NDB"},
{"type":"VOR","hdg_t":4.5,"dist_nm":48.8,"freq":112.1,"lat":-25.58333300,"lon":-54.50350000,"rng_nm":200,"alt_fmsl":787,"id":"FOZ","desc":"FOZ VOR-DME"},
{"type":"NDB","hdg_t":0.2,"dist_nm":51.8,"freq":410,"lat":-25.53116700,"lon":-54.57050000,"rng_nm":150,"alt_fmsl":0,"id":"FOZ","desc":"FOZ NDB"},
{"type":"NDB","hdg_t":343.9,"dist_nm":57.1,"freq":200,"lat":-25.47916700,"lon":-54.86583300,"rng_nm":200,"alt_fmsl":0,"id":"CDE","desc":"CIUDAD DEL ESTE NDB"},
{"type":"VOR","hdg_t":345,"dist_nm":58,"freq":116.3,"lat":-25.46000000,"lon":-54.85000000,"rng_nm":130,"alt_fmsl":888,"id":"VES","desc":"CIUDAD DEL ESTE VOR-DME"},
{"type":"NDB","hdg_t":357.5,"dist_nm":59.2,"freq":225,"lat":-25.40861100,"lon":-54.62166700,"rng_nm":30,"alt_fmsl":762,"id":"ITU","desc":"ITAIPU NDB"},
{"type":"NDB","hdg_t":350.6,"dist_nm":62.3,"freq":293,"lat":-25.36972200,"lon":-54.76138900,"rng_nm":25,"alt_fmsl":793,"id":"ALG","desc":"CIUDAD DEL ESTE NDB"},
{"type":"VOR","hdg_t":231.3,"dist_nm":95.3,"freq":114.9,"lat":-27.38555600,"lon":-55.96916700,"rng_nm":185,"alt_fmsl":429,"id":"POS","desc":"POSADAS VOR-DME"},
{"type":"NDB","hdg_t":230.8,"dist_nm":96.1,"freq":307,"lat":-27.40625000,"lon":-55.97019400,"rng_nm":25,"alt_fmsl":0,"id":"P","desc":"POSADAS NDB"}
]
}
