{"success":true,"source":"xp2csv.pl","last_updated":"2013/11/08 14:53:21 UTC"
,"icao":"SAWA","name":"Lago Argentino","lat":-50.3383331,"lon":-72.2488861,"rwys":2,"ils":0,"index":1755627,"path":"w080s60/w073s51"
,"runways":[
{"len_m":1200,"wid_m":17.07,"hdg":186,"surf":"Concrete","rwy1":"17","lat1":-50.33296449,"lon1":-72.24800202,"rwy2":"35","lat2":-50.34370171,"lon2":-72.24977018},
{"len_m":902,"wid_m":12.80,"hdg":66,"surf":"Concrete","rwy1":"05","lat1":-50.33997983,"lon1":-72.25468101,"rwy2":"23","lat2":-50.33668637,"lon2":-72.24309119}
]
,"navaids":[
{"type":"NDB","hdg_t":67.2,"dist_nm":8.2,"freq":385,"lat":-50.28472200,"lon":-72.05000000,"rng_nm":25,"alt_fmsl":669,"id":"ECA","desc":"EL CALAFATE NDB"},
{"type":"VOR","hdg_t":65.3,"dist_nm":8.6,"freq":114.7,"lat":-50.27833300,"lon":-72.04555600,"rng_nm":130,"alt_fmsl":732,"id":"ECA","desc":"EL CALAFATE VOR-DME"},
{"type":"NDB","hdg_t":179.2,"dist_nm":76.3,"freq":205,"lat":-51.61000000,"lon":-72.22138900,"rng_nm":243,"alt_fmsl":896,"id":"BIO","desc":"EL TURBIO NDB"},
{"type":"VOR","hdg_t":185,"dist_nm":84.2,"freq":115.9,"lat":-51.73500000,"lon":-72.44805600,"rng_nm":130,"alt_fmsl":423,"id":"PNT","desc":"PUERTO NATALES VOR-DME"},
{"type":"NDB","hdg_t":41.9,"dist_nm":123.9,"freq":360,"lat":-48.78305600,"lon":-70.16138900,"rng_nm":540,"alt_fmsl":1168,"id":"GRE","desc":"GOBERNADOR GREGORES NDB"},
{"type":"VOR","hdg_t":125.7,"dist_nm":134.5,"freq":116.7,"lat":-51.61098600,"lon":-69.33016700,"rng_nm":185,"alt_fmsl":62,"id":"GAL","desc":"RIO GALLEGOS VOR-DME"},
{"type":"NDB","hdg_t":125.1,"dist_nm":136.1,"freq":255,"lat":-51.60702800,"lon":-69.27411100,"rng_nm":25,"alt_fmsl":62,"id":"G","desc":"RIO GALLEGOS NDB"},
{"type":"NDB","hdg_t":125.6,"dist_nm":136.3,"freq":330,"lat":-51.62500000,"lon":-69.28444400,"rng_nm":810,"alt_fmsl":62,"id":"GAL","desc":"RIO GALLEGOS NDB"},
{"type":"NDB","hdg_t":83.7,"dist_nm":142.7,"freq":245,"lat":-50.02166700,"lon":-68.57944400,"rng_nm":189,"alt_fmsl":364,"id":"SCZ","desc":"SANTA CRUZ NDB"},
{"type":"NDB","hdg_t":83.6,"dist_nm":144.2,"freq":282,"lat":-50.01166700,"lon":-68.54333300,"rng_nm":25,"alt_fmsl":0,"id":"Z","desc":"SANTA CRUZ NDB"}
]
}
