{"success":true,"source":"xp2csv.pl","last_updated":"2013/11/08 14:53:21 UTC"
,"icao":"SAZD","name":"Dolores","lat":-36.32284938,"lon":-57.722224205,"rwys":2,"ils":0,"index":2002281,"path":"w060s40/w058s37"
,"runways":[
{"len_m":1148,"wid_m":22.86,"hdg":180,"surf":"Turf/grass","rwy1":"18","lat1":-36.31842550,"lon1":-57.72134825,"rwy2":"36","lat2":-36.32877202,"lon2":-57.72134825},
{"len_m":1002,"wid_m":22.86,"hdg":40,"surf":"Turf/grass","rwy1":"04","lat1":-36.32551960,"lon1":-57.72674379,"rwy2":"22","lat2":-36.31868040,"lon2":-57.71945653}
]
,"navaids":[
{"type":"VOR","hdg_t":313.2,"dist_nm":49.7,"freq":115.6,"lat":-35.75111100,"lon":-58.46388900,"rng_nm":185,"alt_fmsl":57,"id":"GBE","desc":"GENERAL BELGRANO VOR"},
{"type":"NDB","hdg_t":105.4,"dist_nm":52,"freq":365,"lat":-36.54972200,"lon":-56.68388900,"rng_nm":189,"alt_fmsl":13,"id":"STR","desc":"SANTA TERESITA NDB"},
{"type":"NDB","hdg_t":19.3,"dist_nm":61.5,"freq":325,"lat":-35.35277800,"lon":-57.30722200,"rng_nm":216,"alt_fmsl":52,"id":"PDI","desc":"PUNTA INDIO NDB"},
{"type":"VOR","hdg_t":20.5,"dist_nm":62.4,"freq":114.1,"lat":-35.34611100,"lon":-57.27555600,"rng_nm":140,"alt_fmsl":52,"id":"PDI","desc":"PUNTA INDIO VOR-DME"},
{"type":"NDB","hdg_t":148.5,"dist_nm":64.1,"freq":242,"lat":-37.23472200,"lon":-57.02388900,"rng_nm":189,"alt_fmsl":33,"id":"GES","desc":"VILLA GESELL NDB"},
{"type":"VOR","hdg_t":353.8,"dist_nm":81.1,"freq":113.7,"lat":-34.97583300,"lon":-57.89833300,"rng_nm":170,"alt_fmsl":69,"id":"PTA","desc":"LA PLATA VOR"},
{"type":"NDB","hdg_t":353.9,"dist_nm":81.7,"freq":250,"lat":-34.96666700,"lon":-57.89777800,"rng_nm":81,"alt_fmsl":72,"id":"PTA","desc":"LA PLATA NDB"},
{"type":"NDB","hdg_t":234.8,"dist_nm":87.9,"freq":300,"lat":-37.15833300,"lon":-59.22166700,"rng_nm":25,"alt_fmsl":0,"id":"OD","desc":"TANDIL NDB"},
{"type":"NDB","hdg_t":233.3,"dist_nm":89.8,"freq":255,"lat":-37.20833300,"lon":-59.22666700,"rng_nm":25,"alt_fmsl":574,"id":"D","desc":"TANDIL NDB"},
{"type":"VOR","hdg_t":232.9,"dist_nm":90.5,"freq":115.9,"lat":-37.22500000,"lon":-59.22944400,"rng_nm":175,"alt_fmsl":574,"id":"DIL","desc":"TANDIL VOR-DME"},
{"type":"NDB","hdg_t":335.6,"dist_nm":94,"freq":270,"lat":-34.89027786,"lon":-58.50602722,"rng_nm":25,"alt_fmsl":81,"id":"OA","desc":"MINISTRO PISTARINI NDB"},
{"type":"VOR","hdg_t":175.8,"dist_nm":96.5,"freq":116.2,"lat":-37.92972200,"lon":-57.57638900,"rng_nm":175,"alt_fmsl":73,"id":"MDP","desc":"MAR DEL PLATA VOR-DME"},
{"type":"NDB","hdg_t":335.9,"dist_nm":96.9,"freq":237,"lat":-34.84163900,"lon":-58.52236100,"rng_nm":25,"alt_fmsl":66,"id":"A","desc":"MINISTRO PISTARINI NDB"},
{"type":"NDB","hdg_t":175.8,"dist_nm":97.1,"freq":385,"lat":-37.93944400,"lon":-57.57555600,"rng_nm":162,"alt_fmsl":72,"id":"MDP","desc":"MAR DEL PLATA NDB"},
{"type":"VOR","hdg_t":335.8,"dist_nm":98.2,"freq":116.5,"lat":-34.82416534,"lon":-58.53527832,"rng_nm":185,"alt_fmsl":66,"id":"EZE","desc":"EZEIZA VOR-DME"},
{"type":"NDB","hdg_t":335.1,"dist_nm":99.1,"freq":305,"lat":-34.81705475,"lon":-58.56466675,"rng_nm":25,"alt_fmsl":66,"id":"C","desc":"MINISTRO PISTARINI NDB"},
{"type":"NDB","hdg_t":345.1,"dist_nm":99.8,"freq":210,"lat":-34.71083300,"lon":-58.24027800,"rng_nm":162,"alt_fmsl":7,"id":"ILM","desc":"QUILMES NDB"}
]
}
