{"success":true,"source":"xp2csv.pl","last_updated":"2013/11/08 14:53:21 UTC"
,"icao":"SB11","name":"Camocim","lat":-2.8961835,"lon":-40.857993,"rwys":1,"ils":0,"index":2282945,"path":"w050s10/w041s03"
,"runways":[
{"len_m":1215,"wid_m":29.87,"hdg":115,"surf":"Asphalt","rwy1":"14","lat1":-2.89380000,"lon1":-40.86291700,"rwy2":"32","lat2":-2.89856700,"lon2":-40.85306900}
]
,"navaids":[
{"type":"NDB","hdg_t":269.8,"dist_nm":52.2,"freq":365,"lat":-2.89750000,"lon":-41.72883300,"rng_nm":62,"alt_fmsl":16,"id":"PNB","desc":"PARNAIBA NDB"},
{"type":"NDB","hdg_t":115.6,"dist_nm":95.2,"freq":235,"lat":-3.58550000,"lon":-39.42666700,"rng_nm":25,"alt_fmsl":0,"id":"URT","desc":"URUBURETAMA NDB"},
{"type":"NDB","hdg_t":143.9,"dist_nm":124.8,"freq":415,"lat":-4.58533300,"lon":-39.63033300,"rng_nm":50,"alt_fmsl":0,"id":"YTT","desc":"ITATAIA NDB"},
{"type":"NDB","hdg_t":110.9,"dist_nm":143.4,"freq":210,"lat":-3.75166700,"lon":-38.62500000,"rng_nm":50,"alt_fmsl":0,"id":"PCI","desc":"PICI NDB"},
{"type":"VOR","hdg_t":110.7,"dist_nm":148.1,"freq":114.1,"lat":-3.77226900,"lon":-38.54768900,"rng_nm":200,"alt_fmsl":82,"id":"FLZ","desc":"FORTALEZA VOR-DME"},
{"type":"NDB","hdg_t":110.5,"dist_nm":149.2,"freq":260,"lat":-3.76983900,"lon":-38.52769200,"rng_nm":110,"alt_fmsl":192,"id":"FLZ","desc":"FORTALEZA NDB"},
{"type":"NDB","hdg_t":222.1,"dist_nm":175,"freq":215,"lat":-5.06733300,"lon":-42.81950000,"rng_nm":60,"alt_fmsl":219,"id":"TRS","desc":"TERESINA NDB"},
{"type":"VOR","hdg_t":222.2,"dist_nm":175.2,"freq":112.3,"lat":-5.06617800,"lon":-42.82488600,"rng_nm":200,"alt_fmsl":219,"id":"TRS","desc":"TERESINA VOR-DME"},
{"type":"NDB","hdg_t":275.2,"dist_nm":203.6,"freq":280,"lat":-2.58183300,"lon":-44.23616700,"rng_nm":50,"alt_fmsl":291,"id":"SLI","desc":"SAO LUIS NDB"},
{"type":"VOR","hdg_t":275,"dist_nm":203.8,"freq":113.5,"lat":-2.58916700,"lon":-44.24000000,"rng_nm":190,"alt_fmsl":178,"id":"SLI","desc":"SAO LUIS VOR-DME"}
]
}
