{"success":true,"source":"xp2csv.pl","last_updated":"2013/11/08 14:53:21 UTC"
,"icao":"SBFU","name":"Furnas","lat":-20.702817,"lon":-46.3352625,"rwys":1,"ils":0,"index":2183509,"path":"w050s30/w047s21"
,"runways":[
{"len_m":1611,"wid_m":29.87,"hdg":134,"surf":"Asphalt","rwy1":"16","lat1":-20.69773100,"lon1":-46.34079400,"rwy2":"34","lat2":-20.70790300,"lon2":-46.32973100}
]
,"radios":[
{"type":"TWR","freq":130.3,"desc":"RDO"}
]
,"navaids":[
{"type":"NDB","hdg_t":245.5,"dist_nm":0.1,"freq":390,"lat":-20.70392500,"lon":-46.33785300,"rng_nm":50,"alt_fmsl":2413,"id":"FUR","desc":"FURNAS NDB"},
{"type":"NDB","hdg_t":276.7,"dist_nm":59.3,"freq":405,"lat":-20.58366700,"lon":-47.38250000,"rng_nm":50,"alt_fmsl":3292,"id":"FRC","desc":"FRANCA NDB"},
{"type":"NDB","hdg_t":190.7,"dist_nm":68.9,"freq":415,"lat":-21.83583300,"lon":-46.56566700,"rng_nm":150,"alt_fmsl":4135,"id":"PCL","desc":"POCOS NDB"},
{"type":"NDB","hdg_t":137.7,"dist_nm":71.6,"freq":325,"lat":-21.58816700,"lon":-45.47433300,"rng_nm":75,"alt_fmsl":3028,"id":"VGH","desc":"VARGINHA NDB"},
{"type":"VOR","hdg_t":325.8,"dist_nm":73.1,"freq":117,"lat":-19.68900000,"lon":-47.06050000,"rng_nm":200,"alt_fmsl":3989,"id":"ARX","desc":"ARAXA VOR-DME"},
{"type":"NDB","hdg_t":332.3,"dist_nm":76.9,"freq":210,"lat":-19.56100000,"lon":-46.96466700,"rng_nm":50,"alt_fmsl":3274,"id":"ARX","desc":"ARAXA NDB"},
{"type":"NDB","hdg_t":251.7,"dist_nm":85,"freq":330,"lat":-21.14266700,"lon":-47.77600000,"rng_nm":50,"alt_fmsl":1802,"id":"RPR","desc":"RIBEIRAO NDB"},
{"type":"NDB","hdg_t":216,"dist_nm":95,"freq":310,"lat":-21.98600000,"lon":-47.33750000,"rng_nm":50,"alt_fmsl":1968,"id":"PSN","desc":"PIRASSUNUNGA NDB"},
{"type":"VOR","hdg_t":216.2,"dist_nm":95.2,"freq":113.3,"lat":-21.98450000,"lon":-47.34416700,"rng_nm":200,"alt_fmsl":1968,"id":"PSN","desc":"PIRASSUNUNGA VOR-DME"},
{"type":"NDB","hdg_t":215.7,"dist_nm":95.9,"freq":345,"lat":-22.00246100,"lon":-47.34112500,"rng_nm":50,"alt_fmsl":0,"id":"IS","desc":"FONTE NDB"},
{"type":"NDB","hdg_t":214.4,"dist_nm":99.1,"freq":215,"lat":-22.06750000,"lon":-47.34066700,"rng_nm":50,"alt_fmsl":0,"id":"IY","desc":"PIRA NDB"}
]
}
