{"success":true,"source":"xp2csv.pl","last_updated":"2013/11/08 14:53:21 UTC"
,"icao":"SBJF","name":"Francisco De Assis","lat":-21.791506,"lon":-43.386768,"rwys":1,"ils":0,"index":2232588,"path":"w050s30/w044s22"
,"runways":[
{"len_m":1540,"wid_m":29.87,"hdg":5,"surf":"Asphalt","rwy1":"03","lat1":-21.79843100,"lon1":-43.38748900,"rwy2":"21","lat2":-21.78458100,"lon2":-43.38604700}
]
,"radios":[
{"type":"TWR","freq":128.1,"desc":"JUIZ DE FORA RDO"}
]
,"navaids":[
{"type":"NDB","hdg_t":6.9,"dist_nm":1.4,"freq":1730,"lat":-21.76783300,"lon":-43.38366700,"rng_nm":50,"alt_fmsl":0,"id":"FRA","desc":"FORA NDB"},
{"type":"NDB","hdg_t":325.9,"dist_nm":37.8,"freq":285,"lat":-21.26700000,"lon":-43.76416700,"rng_nm":60,"alt_fmsl":3657,"id":"BBC","desc":"BARBACENA NDB"},
{"type":"VOR","hdg_t":212.4,"dist_nm":46.9,"freq":115,"lat":-22.45400000,"lon":-43.84050000,"rng_nm":200,"alt_fmsl":318,"id":"PAI","desc":"PIRAI VOR-DME"},
{"type":"NDB","hdg_t":212.4,"dist_nm":47,"freq":355,"lat":-22.45509400,"lon":-43.84101700,"rng_nm":150,"alt_fmsl":318,"id":"PAI","desc":"PIRAI NDB"},
{"type":"NDB","hdg_t":185.3,"dist_nm":55.6,"freq":215,"lat":-22.71850000,"lon":-43.48050000,"rng_nm":50,"alt_fmsl":164,"id":"NOA","desc":"NOVA NDB"},
{"type":"NDB","hdg_t":177.3,"dist_nm":58.1,"freq":400,"lat":-22.76333300,"lon":-43.33750000,"rng_nm":200,"alt_fmsl":56,"id":"CAX","desc":"CAXIAS NDB"},
{"type":"VOR","hdg_t":177.1,"dist_nm":58.9,"freq":113,"lat":-22.77633300,"lon":-43.33316700,"rng_nm":200,"alt_fmsl":56,"id":"CAX","desc":"CAXIAS VOR-DME"},
{"type":"NDB","hdg_t":168.4,"dist_nm":60.7,"freq":330,"lat":-22.78700000,"lon":-43.16766700,"rng_nm":60,"alt_fmsl":402,"id":"YLA","desc":"ILHA NDB"},
{"type":"NDB","hdg_t":178.7,"dist_nm":62,"freq":290,"lat":-22.82950000,"lon":-43.36233300,"rng_nm":50,"alt_fmsl":0,"id":"IT","desc":"MERITI NDB"},
{"type":"VOR","hdg_t":152,"dist_nm":62.6,"freq":114.6,"lat":-22.71533300,"lon":-42.85750000,"rng_nm":130,"alt_fmsl":201,"id":"PCX","desc":"PORTO VOR-DME"},
{"type":"NDB","hdg_t":194.1,"dist_nm":63.7,"freq":245,"lat":-22.82507200,"lon":-43.66743100,"rng_nm":15,"alt_fmsl":0,"id":"QQ","desc":"CRUZ NDB"},
{"type":"NDB","hdg_t":179,"dist_nm":64.3,"freq":270,"lat":-22.86697200,"lon":-43.36686700,"rng_nm":50,"alt_fmsl":112,"id":"AFS","desc":"AFONSOS NDB"},
{"type":"NDB","hdg_t":169.2,"dist_nm":65.6,"freq":415,"lat":-22.87016700,"lon":-43.16516700,"rng_nm":25,"alt_fmsl":0,"id":"PP","desc":"PAIOL NDB"},
{"type":"NDB","hdg_t":194.8,"dist_nm":71.3,"freq":255,"lat":-22.94383300,"lon":-43.71716700,"rng_nm":80,"alt_fmsl":10,"id":"SCR","desc":"SANTA CRUZ NDB"},
{"type":"NDB","hdg_t":179.2,"dist_nm":71.5,"freq":205,"lat":-22.98788600,"lon":-43.36891100,"rng_nm":50,"alt_fmsl":10,"id":"JPG","desc":"JACAREPAGUA NDB"},
{"type":"VOR","hdg_t":195.2,"dist_nm":71.7,"freq":113.6,"lat":-22.94962800,"lon":-43.72768100,"rng_nm":200,"alt_fmsl":5,"id":"SCR","desc":"SANTA CRUZ VOR-DME"},
{"type":"VOR","hdg_t":158.7,"dist_nm":75.5,"freq":114,"lat":-22.96769400,"lon":-42.89130600,"rng_nm":200,"alt_fmsl":4,"id":"MRC","desc":"MARICA VOR-DME"},
{"type":"NDB","hdg_t":170,"dist_nm":77.2,"freq":315,"lat":-23.06385600,"lon":-43.14606400,"rng_nm":100,"alt_fmsl":0,"id":"IH","desc":"RASA NDB"},
{"type":"VOR","hdg_t":130.6,"dist_nm":94.2,"freq":112.1,"lat":-22.81277200,"lon":-42.09533900,"rng_nm":130,"alt_fmsl":61,"id":"ADA","desc":"ALDEIA VOR-DME"},
{"type":"NDB","hdg_t":130.9,"dist_nm":94.6,"freq":345,"lat":-22.82296100,"lon":-42.09648900,"rng_nm":80,"alt_fmsl":61,"id":"ADA","desc":"ALDEIA NDB"},
{"type":"VOR","hdg_t":110.4,"dist_nm":96,"freq":112.7,"lat":-22.34488300,"lon":-41.76890600,"rng_nm":200,"alt_fmsl":8,"id":"MAC","desc":"MACAE VOR-DME"},
{"type":"NDB","hdg_t":110.3,"dist_nm":96.4,"freq":240,"lat":-22.34531900,"lon":-41.76135600,"rng_nm":50,"alt_fmsl":8,"id":"MAC","desc":"MACAE NDB"},
{"type":"NDB","hdg_t":133.2,"dist_nm":99.4,"freq":515,"lat":-22.92600000,"lon":-42.07850000,"rng_nm":50,"alt_fmsl":14,"id":"CBF","desc":"CABO FRIO NDB"}
]
}
