{"success":true,"source":"xp2csv.pl","last_updated":"2013/11/08 14:53:21 UTC"
,"icao":"SBKP","name":"Sao Paulo Viracopos","lat":-23.0073835,"lon":-47.134522,"rwys":1,"ils":1,"index":2166971,"path":"w050s30/w048s24"
,"runways":[
{"len_m":3240,"wid_m":45.11,"hdg":127,"surf":"Asphalt","rwy1":"15","lat1":-22.99842800,"lon1":-47.14701900,"rwy2":"33","lat2":-23.01633900,"lon2":-47.12202500}
]
,"radios":[
{"type":"GND","freq":121.9,"desc":"GND"},
{"type":"TWR","freq":118.25,"desc":"CAMPINAS TWR"},
{"type":"APP","freq":121.4,"desc":"CAMPINAS APP"}
]
,"ils":[
{"type":"ILS","freq":110.3,"lat":-23.01866700,"lon":-47.11883300,"rng_nm":18,"alt_fmsl":2170,"hdg":127.95,"id":"IKP","rwy":"15","desc":"ILS-cat-I"},
{"type":"GS","freq":110.3,"lat":-22.99916700,"lon":-47.14400000,"rng_nm":10,"alt_fmsl":2170,"id":"IKP","rwy":"15","desc":"GS","gs":3},
{"type":"OM","freq":0,"lat":-22.95750000,"lon":-47.20416700,"rng_nm":0,"alt_fmsl":2170,"id":"----","rwy":"15","desc":"OM"},
{"type":"MM","freq":0,"lat":-22.99283300,"lon":-47.15516700,"rng_nm":0,"alt_fmsl":2170,"id":"----","rwy":"15","desc":"MM"}
]
,"navaids":[
{"type":"VOR","hdg_t":104.7,"dist_nm":0.3,"freq":112,"lat":-23.00871400,"lon":-47.12904400,"rng_nm":200,"alt_fmsl":2170,"id":"CPN","desc":"CAMPINAS VOR-DME"},
{"type":"NDB","hdg_t":307.2,"dist_nm":1.4,"freq":300,"lat":-22.99283300,"lon":-47.15516700,"rng_nm":50,"alt_fmsl":0,"id":"IP","desc":"JARDIM NDB"},
{"type":"NDB","hdg_t":127.7,"dist_nm":4.5,"freq":395,"lat":-23.05394700,"lon":-47.06959200,"rng_nm":50,"alt_fmsl":0,"id":"KP","desc":"GRAMA NDB"},
{"type":"NDB","hdg_t":307.7,"dist_nm":4.8,"freq":370,"lat":-22.95750000,"lon":-47.20416700,"rng_nm":50,"alt_fmsl":0,"id":"IK","desc":"BENTO NDB"},
{"type":"VOR","hdg_t":157.9,"dist_nm":30.9,"freq":114.3,"lat":-23.48750000,"lon":-46.92333300,"rng_nm":200,"alt_fmsl":2428,"id":"STN","desc":"SANTANA VOR-DME"},
{"type":"VOR","hdg_t":84.2,"dist_nm":31.5,"freq":116.2,"lat":-22.95313600,"lon":-46.56811700,"rng_nm":200,"alt_fmsl":2737,"id":"BGC","desc":"BRAGANCA VOR-DME"},
{"type":"NDB","hdg_t":139.8,"dist_nm":32.3,"freq":220,"lat":-23.42058600,"lon":-46.75592200,"rng_nm":25,"alt_fmsl":0,"id":"PER","desc":"PERUS NDB"},
{"type":"NDB","hdg_t":86.2,"dist_nm":32.5,"freq":385,"lat":-22.97079200,"lon":-46.54778900,"rng_nm":50,"alt_fmsl":2887,"id":"BGC","desc":"BRAGANCA NDB"},
{"type":"VOR","hdg_t":204.2,"dist_nm":32.7,"freq":115.2,"lat":-23.50700000,"lon":-47.37816700,"rng_nm":200,"alt_fmsl":2018,"id":"SCB","desc":"SOROCABA VOR-DME"},
{"type":"NDB","hdg_t":214.1,"dist_nm":34.4,"freq":350,"lat":-23.48316700,"lon":-47.48466700,"rng_nm":50,"alt_fmsl":2077,"id":"SCB","desc":"SOROCABA NDB"},
{"type":"NDB","hdg_t":160.7,"dist_nm":35.3,"freq":270,"lat":-23.56550000,"lon":-46.92266700,"rng_nm":25,"alt_fmsl":0,"id":"TPV","desc":"ITAPEVI NDB"},
{"type":"NDB","hdg_t":144,"dist_nm":39.7,"freq":290,"lat":-23.54483300,"lon":-46.71166700,"rng_nm":145,"alt_fmsl":0,"id":"IS","desc":"MADA NDB"},
{"type":"NDB","hdg_t":137.4,"dist_nm":40.6,"freq":260,"lat":-23.50683300,"lon":-46.63650000,"rng_nm":50,"alt_fmsl":2368,"id":"MAE","desc":"MARTE NDB"},
{"type":"NDB","hdg_t":131.3,"dist_nm":41.2,"freq":410,"lat":-23.46216700,"lon":-46.57333300,"rng_nm":50,"alt_fmsl":0,"id":"IG","desc":"TUCA NDB"},
{"type":"NDB","hdg_t":325.3,"dist_nm":41.8,"freq":280,"lat":-22.43016700,"lon":-47.56250000,"rng_nm":50,"alt_fmsl":0,"id":"RCL","desc":"RIO CLARO NDB"},
{"type":"NDB","hdg_t":144.5,"dist_nm":44.3,"freq":250,"lat":-23.61016700,"lon":-46.66750000,"rng_nm":50,"alt_fmsl":0,"id":"SPO","desc":"SAO PAULO NDB"},
{"type":"VOR","hdg_t":144.5,"dist_nm":45.5,"freq":116.9,"lat":-23.62750000,"lon":-46.65466700,"rng_nm":200,"alt_fmsl":2631,"id":"CGO","desc":"CONGONHAS VOR-DME"},
{"type":"NDB","hdg_t":144.6,"dist_nm":46.7,"freq":330,"lat":-23.64383300,"lon":-46.64433300,"rng_nm":50,"alt_fmsl":0,"id":"PP","desc":"METRO NDB"},
{"type":"NDB","hdg_t":120.2,"dist_nm":47.7,"freq":240,"lat":-23.40766700,"lon":-46.38716700,"rng_nm":50,"alt_fmsl":0,"id":"IB","desc":"BONSUCESSO NDB"},
{"type":"VOR","hdg_t":120,"dist_nm":47.7,"freq":116,"lat":-23.40633300,"lon":-46.38550000,"rng_nm":200,"alt_fmsl":2726,"id":"BCO","desc":"BONSUCESSO VOR-DME"},
{"type":"NDB","hdg_t":144.9,"dist_nm":51,"freq":200,"lat":-23.70566700,"lon":-46.60133300,"rng_nm":25,"alt_fmsl":0,"id":"DAD","desc":"DIADEMA NDB"},
{"type":"NDB","hdg_t":160.8,"dist_nm":53.3,"freq":525,"lat":-23.85066700,"lon":-46.81633300,"rng_nm":50,"alt_fmsl":0,"id":"EMB","desc":"EMBUGUACU NDB"},
{"type":"NDB","hdg_t":348.4,"dist_nm":57.3,"freq":215,"lat":-22.06750000,"lon":-47.34066700,"rng_nm":50,"alt_fmsl":0,"id":"IY","desc":"PIRA NDB"},
{"type":"NDB","hdg_t":349.1,"dist_nm":61.1,"freq":345,"lat":-22.00246100,"lon":-47.34112500,"rng_nm":50,"alt_fmsl":0,"id":"IS","desc":"FONTE NDB"},
{"type":"NDB","hdg_t":349.4,"dist_nm":62.1,"freq":310,"lat":-21.98600000,"lon":-47.33750000,"rng_nm":50,"alt_fmsl":1968,"id":"PSN","desc":"PIRASSUNUNGA NDB"},
{"type":"VOR","hdg_t":349.1,"dist_nm":62.2,"freq":113.3,"lat":-21.98450000,"lon":-47.34416700,"rng_nm":200,"alt_fmsl":1968,"id":"PSN","desc":"PIRASSUNUNGA VOR-DME"},
{"type":"VOR","hdg_t":147.7,"dist_nm":62.5,"freq":116.7,"lat":-23.89100000,"lon":-46.52816700,"rng_nm":200,"alt_fmsl":2215,"id":"RDE","desc":"REDE VOR-DME"},
{"type":"NDB","hdg_t":98.2,"dist_nm":67.2,"freq":230,"lat":-23.16450000,"lon":-45.93150000,"rng_nm":25,"alt_fmsl":0,"id":"IW","desc":"JAGUARI NDB"},
{"type":"NDB","hdg_t":100.2,"dist_nm":70.4,"freq":365,"lat":-23.21283300,"lon":-45.87950000,"rng_nm":25,"alt_fmsl":0,"id":"IJ","desc":"VILA NDB"},
{"type":"NDB","hdg_t":101.9,"dist_nm":71.7,"freq":230,"lat":-23.24972200,"lon":-45.86388900,"rng_nm":50,"alt_fmsl":0,"id":"SJC","desc":"SAO JOSE NDB"},
{"type":"VOR","hdg_t":101.6,"dist_nm":72.2,"freq":112.8,"lat":-23.24633300,"lon":-45.85416700,"rng_nm":200,"alt_fmsl":2120,"id":"SJC","desc":"SAO JOSE VOR-DME"},
{"type":"NDB","hdg_t":140.4,"dist_nm":73.1,"freq":360,"lat":-23.94750000,"lon":-46.28700000,"rng_nm":50,"alt_fmsl":0,"id":"RR","desc":"VICENTE NDB"},
{"type":"NDB","hdg_t":140.7,"dist_nm":75.5,"freq":375,"lat":-23.98333300,"lon":-46.26333300,"rng_nm":128,"alt_fmsl":0,"id":"SAT","desc":"SANTOS NDB"},
{"type":"NDB","hdg_t":24.4,"dist_nm":76.8,"freq":415,"lat":-21.83583300,"lon":-46.56566700,"rng_nm":150,"alt_fmsl":4135,"id":"PCL","desc":"POCOS NDB"},
{"type":"NDB","hdg_t":142.6,"dist_nm":78.7,"freq":305,"lat":-24.05050000,"lon":-46.26416700,"rng_nm":300,"alt_fmsl":0,"id":"NR","desc":"MOELA NDB"},
{"type":"NDB","hdg_t":91.7,"dist_nm":89.5,"freq":430,"lat":-23.04566700,"lon":-45.51683300,"rng_nm":25,"alt_fmsl":1923,"id":"TBE","desc":"TAUBATE NDB"},
{"type":"NDB","hdg_t":321.7,"dist_nm":90.6,"freq":205,"lat":-21.81300000,"lon":-48.13950000,"rng_nm":50,"alt_fmsl":2514,"id":"AAQ","desc":"ARARAQUARA NDB"}
]
}
