{"success":true,"source":"xp2csv.pl","last_updated":"2013/11/08 14:53:21 UTC"
,"icao":"SBPJ","name":"Tocantins","lat":-10.2915235,"lon":-48.356972,"rwys":1,"ils":0,"index":2151405,"path":"w050s20/w049s11"
,"runways":[
{"len_m":2494,"wid_m":45.11,"hdg":123,"surf":"Asphalt","rwy1":"14","lat1":-10.28523600,"lon1":-48.36642500,"rwy2":"32","lat2":-10.29781100,"lon2":-48.34751900}
]
,"radios":[
{"type":"TWR","freq":119,"desc":"PALMAS RDO"},
{"type":"TWR","freq":118,"desc":"PALMAS TWR"},
{"type":"APP","freq":119,"desc":"PALMAS APP"}
]
,"navaids":[
{"type":"VOR","hdg_t":338.3,"dist_nm":0.2,"freq":112.2,"lat":-10.28791700,"lon":-48.35841700,"rng_nm":130,"alt_fmsl":656,"id":"PMS","desc":"PALMAS VOR-DME"},
{"type":"NDB","hdg_t":275.3,"dist_nm":0.5,"freq":255,"lat":-10.29069400,"lon":-48.36586100,"rng_nm":50,"alt_fmsl":656,"id":"PMS","desc":"PALMAS NDB"},
{"type":"NDB","hdg_t":186,"dist_nm":25.3,"freq":395,"lat":-10.71283300,"lon":-48.40216700,"rng_nm":200,"alt_fmsl":1054,"id":"PNC","desc":"PORTO NACIONAL NDB"},
{"type":"VOR","hdg_t":186,"dist_nm":25.7,"freq":113,"lat":-10.72070600,"lon":-48.40258600,"rng_nm":200,"alt_fmsl":870,"id":"PNC","desc":"PORTO NACIONAL VOR-DME"},
{"type":"NDB","hdg_t":334.1,"dist_nm":128.5,"freq":230,"lat":-8.35366700,"lon":-49.29916700,"rng_nm":50,"alt_fmsl":854,"id":"ARG","desc":"ARAGUAIA NDB"},
{"type":"NDB","hdg_t":2.2,"dist_nm":182.7,"freq":205,"lat":-7.23350000,"lon":-48.23900000,"rng_nm":50,"alt_fmsl":771,"id":"AGI","desc":"ARAGUAINA NDB"},
{"type":"NDB","hdg_t":16.7,"dist_nm":185.1,"freq":330,"lat":-7.32300000,"lon":-47.46000000,"rng_nm":80,"alt_fmsl":565,"id":"CNA","desc":"CAROLINA NDB"},
{"type":"VOR","hdg_t":16.8,"dist_nm":185.4,"freq":115.3,"lat":-7.31873100,"lon":-47.45481900,"rng_nm":130,"alt_fmsl":565,"id":"CNA","desc":"CAROLINA VOR"},
{"type":"NDB","hdg_t":177.2,"dist_nm":194.4,"freq":305,"lat":-13.54366700,"lon":-48.19483300,"rng_nm":54,"alt_fmsl":0,"id":"CNB","desc":"CANA BRAVA NDB"},
{"type":"VOR","hdg_t":118.7,"dist_nm":224.5,"freq":114.3,"lat":-12.08000000,"lon":-45.00716700,"rng_nm":200,"alt_fmsl":2444,"id":"BRR","desc":"BARREIRAS VOR"}
]
}
