{"success":true,"source":"xp2csv.pl","last_updated":"2013/11/08 14:53:21 UTC"
,"icao":"SBSJ","name":"Sao Jose Dos Campos","lat":-23.2281705,"lon":-45.8627375,"rwys":1,"ils":1,"index":2199728,"path":"w050s30/w046s24"
,"runways":[
{"len_m":2660,"wid_m":45.11,"hdg":134,"surf":"Asphalt","rwy1":"15","lat1":-23.21968300,"lon1":-45.87193300,"rwy2":"33","lat2":-23.23665800,"lon2":-45.85354200}
]
,"radios":[
{"type":"GND","freq":121.9,"desc":"GND"},
{"type":"TWR","freq":118.5,"desc":"TWR"},
{"type":"APP","freq":119.25,"desc":"APP"},
{"type":"APP","freq":129.05,"desc":"APP"}
]
,"ils":[
{"type":"ILS","freq":110.3,"lat":-23.23950000,"lon":-45.85033300,"rng_nm":18,"alt_fmsl":2120,"hdg":134.95,"id":"ISJ","rwy":"15","desc":"ILS-cat-I"},
{"type":"GS","freq":110.3,"lat":-23.22300000,"lon":-45.87083300,"rng_nm":10,"alt_fmsl":2120,"id":"ISJ","rwy":"15","desc":"GS","gs":3},
{"type":"OM","freq":0,"lat":-23.16450000,"lon":-45.93150000,"rng_nm":0,"alt_fmsl":2120,"id":"----","rwy":"15","desc":"OM"},
{"type":"MM","freq":0,"lat":-23.21283300,"lon":-45.87950000,"rng_nm":0,"alt_fmsl":2120,"id":"----","rwy":"15","desc":"MM"},
{"type":"DME","freq":110.3,"lat":-23.23950000,"lon":-45.85033300,"rng_nm":18,"alt_fmsl":2120,"id":"ISJ","rwy":"15","desc":"DME-ILS"}
]
,"navaids":[
{"type":"VOR","hdg_t":156.4,"dist_nm":1.1,"freq":112.8,"lat":-23.24633300,"lon":-45.85416700,"rng_nm":200,"alt_fmsl":2120,"id":"SJC","desc":"SAO JOSE VOR-DME"},
{"type":"NDB","hdg_t":182.8,"dist_nm":1.2,"freq":230,"lat":-23.24972200,"lon":-45.86388900,"rng_nm":50,"alt_fmsl":0,"id":"SJC","desc":"SAO JOSE NDB"},
{"type":"NDB","hdg_t":314.7,"dist_nm":1.3,"freq":365,"lat":-23.21283300,"lon":-45.87950000,"rng_nm":25,"alt_fmsl":0,"id":"IJ","desc":"VILA NDB"},
{"type":"NDB","hdg_t":315,"dist_nm":5.3,"freq":230,"lat":-23.16450000,"lon":-45.93150000,"rng_nm":25,"alt_fmsl":0,"id":"IW","desc":"JAGUARI NDB"},
{"type":"NDB","hdg_t":60.3,"dist_nm":22,"freq":430,"lat":-23.04566700,"lon":-45.51683300,"rng_nm":25,"alt_fmsl":1923,"id":"TBE","desc":"TAUBATE NDB"},
{"type":"VOR","hdg_t":249.6,"dist_nm":30.7,"freq":116,"lat":-23.40633300,"lon":-46.38550000,"rng_nm":200,"alt_fmsl":2726,"id":"BCO","desc":"BONSUCESSO VOR-DME"},
{"type":"NDB","hdg_t":249.5,"dist_nm":30.8,"freq":240,"lat":-23.40766700,"lon":-46.38716700,"rng_nm":50,"alt_fmsl":0,"id":"IB","desc":"BONSUCESSO NDB"},
{"type":"NDB","hdg_t":291.9,"dist_nm":40.9,"freq":385,"lat":-22.97079200,"lon":-46.54778900,"rng_nm":50,"alt_fmsl":2887,"id":"BGC","desc":"BRAGANCA NDB"},
{"type":"NDB","hdg_t":250.2,"dist_nm":41.6,"freq":410,"lat":-23.46216700,"lon":-46.57333300,"rng_nm":50,"alt_fmsl":0,"id":"IG","desc":"TUCA NDB"},
{"type":"VOR","hdg_t":292.7,"dist_nm":42.3,"freq":116.2,"lat":-22.95313600,"lon":-46.56811700,"rng_nm":200,"alt_fmsl":2737,"id":"BGC","desc":"BRAGANCA VOR-DME"},
{"type":"NDB","hdg_t":53.8,"dist_nm":44.4,"freq":275,"lat":-22.78800000,"lon":-45.21533300,"rng_nm":50,"alt_fmsl":1761,"id":"GGT","desc":"GUARATINGUETA NDB"},
{"type":"NDB","hdg_t":107,"dist_nm":45.5,"freq":295,"lat":-23.44916700,"lon":-45.07383300,"rng_nm":50,"alt_fmsl":13,"id":"UBT","desc":"UBATUBA NDB"},
{"type":"NDB","hdg_t":248.5,"dist_nm":45.8,"freq":260,"lat":-23.50683300,"lon":-46.63650000,"rng_nm":50,"alt_fmsl":2368,"id":"MAE","desc":"MARTE NDB"},
{"type":"NDB","hdg_t":208.4,"dist_nm":48.9,"freq":360,"lat":-23.94750000,"lon":-46.28700000,"rng_nm":50,"alt_fmsl":0,"id":"RR","desc":"VICENTE NDB"},
{"type":"NDB","hdg_t":234.8,"dist_nm":49.7,"freq":200,"lat":-23.70566700,"lon":-46.60133300,"rng_nm":25,"alt_fmsl":0,"id":"DAD","desc":"DIADEMA NDB"},
{"type":"NDB","hdg_t":239.8,"dist_nm":49.7,"freq":330,"lat":-23.64383300,"lon":-46.64433300,"rng_nm":50,"alt_fmsl":0,"id":"PP","desc":"METRO NDB"},
{"type":"VOR","hdg_t":241.1,"dist_nm":49.7,"freq":116.9,"lat":-23.62750000,"lon":-46.65466700,"rng_nm":200,"alt_fmsl":2631,"id":"CGO","desc":"CONGONHAS VOR-DME"},
{"type":"NDB","hdg_t":242.6,"dist_nm":49.9,"freq":250,"lat":-23.61016700,"lon":-46.66750000,"rng_nm":50,"alt_fmsl":0,"id":"SPO","desc":"SAO PAULO NDB"},
{"type":"NDB","hdg_t":205.9,"dist_nm":50.2,"freq":375,"lat":-23.98333300,"lon":-46.26333300,"rng_nm":128,"alt_fmsl":0,"id":"SAT","desc":"SANTOS NDB"},
{"type":"NDB","hdg_t":247.8,"dist_nm":50.5,"freq":290,"lat":-23.54483300,"lon":-46.71166700,"rng_nm":145,"alt_fmsl":0,"id":"IS","desc":"MADA NDB"},
{"type":"NDB","hdg_t":256.6,"dist_nm":50.6,"freq":220,"lat":-23.42058600,"lon":-46.75592200,"rng_nm":25,"alt_fmsl":0,"id":"PER","desc":"PERUS NDB"},
{"type":"NDB","hdg_t":204.1,"dist_nm":53.9,"freq":305,"lat":-24.05050000,"lon":-46.26416700,"rng_nm":300,"alt_fmsl":0,"id":"NR","desc":"MOELA NDB"},
{"type":"VOR","hdg_t":222.6,"dist_nm":54,"freq":116.7,"lat":-23.89100000,"lon":-46.52816700,"rng_nm":200,"alt_fmsl":2215,"id":"RDE","desc":"REDE VOR-DME"},
{"type":"VOR","hdg_t":254.9,"dist_nm":60.5,"freq":114.3,"lat":-23.48750000,"lon":-46.92333300,"rng_nm":200,"alt_fmsl":2428,"id":"STN","desc":"SANTANA VOR-DME"},
{"type":"NDB","hdg_t":250.7,"dist_nm":61.8,"freq":270,"lat":-23.56550000,"lon":-46.92266700,"rng_nm":25,"alt_fmsl":0,"id":"TPV","desc":"ITAPEVI NDB"},
{"type":"NDB","hdg_t":234.5,"dist_nm":64.4,"freq":525,"lat":-23.85066700,"lon":-46.81633300,"rng_nm":50,"alt_fmsl":0,"id":"EMB","desc":"EMBUGUACU NDB"},
{"type":"NDB","hdg_t":278.6,"dist_nm":67.5,"freq":395,"lat":-23.05394700,"lon":-47.06959200,"rng_nm":50,"alt_fmsl":0,"id":"KP","desc":"GRAMA NDB"},
{"type":"VOR","hdg_t":280.3,"dist_nm":71.2,"freq":112,"lat":-23.00871400,"lon":-47.12904400,"rng_nm":200,"alt_fmsl":2170,"id":"CPN","desc":"CAMPINAS VOR-DME"},
{"type":"NDB","hdg_t":280.8,"dist_nm":72.8,"freq":300,"lat":-22.99283300,"lon":-47.15516700,"rng_nm":50,"alt_fmsl":0,"id":"IP","desc":"JARDIM NDB"},
{"type":"NDB","hdg_t":282,"dist_nm":75.9,"freq":370,"lat":-22.95750000,"lon":-47.20416700,"rng_nm":50,"alt_fmsl":0,"id":"IK","desc":"BENTO NDB"},
{"type":"VOR","hdg_t":258.4,"dist_nm":85.3,"freq":115.2,"lat":-23.50700000,"lon":-47.37816700,"rng_nm":200,"alt_fmsl":2018,"id":"SCB","desc":"SOROCABA VOR-DME"},
{"type":"NDB","hdg_t":260,"dist_nm":90.8,"freq":350,"lat":-23.48316700,"lon":-47.48466700,"rng_nm":50,"alt_fmsl":2077,"id":"SCB","desc":"SOROCABA NDB"},
{"type":"NDB","hdg_t":334.7,"dist_nm":91.9,"freq":415,"lat":-21.83583300,"lon":-46.56566700,"rng_nm":150,"alt_fmsl":4135,"id":"PCL","desc":"POCOS NDB"}
]
}
