{"success":true,"source":"xp2csv.pl","last_updated":"2013/11/08 14:53:21 UTC"
,"icao":"SBSL","name":"Marechal Cunha Machado","lat":-2.58730775,"lon":-44.2363835,"rwys":2,"ils":0,"index":2217438,"path":"w050s10/w045s03"
,"runways":[
{"len_m":2400,"wid_m":45.11,"hdg":38,"surf":"Asphalt","rwy1":"06","lat1":-2.59689200,"lon1":-44.24337800,"rwy2":"24","lat2":-2.58000000,"lon2":-44.22981400},
{"len_m":1483,"wid_m":41.15,"hdg":69,"surf":"Asphalt","rwy1":"09","lat1":-2.58856700,"lon1":-44.24240000,"rwy2":"27","lat2":-2.58377200,"lon2":-44.22994200}
]
,"radios":[
{"type":"TWR","freq":118.7,"desc":"SAO LUIS TWR"},
{"type":"APP","freq":119.1,"desc":"SAO LUIS APP"}
]
,"navaids":[
{"type":"VOR","hdg_t":242.9,"dist_nm":0.2,"freq":113.5,"lat":-2.58916700,"lon":-44.24000000,"rng_nm":190,"alt_fmsl":178,"id":"SLI","desc":"SAO LUIS VOR-DME"},
{"type":"NDB","hdg_t":2.2,"dist_nm":0.3,"freq":280,"lat":-2.58183300,"lon":-44.23616700,"rng_nm":50,"alt_fmsl":291,"id":"SLI","desc":"SAO LUIS NDB"},
{"type":"NDB","hdg_t":326.1,"dist_nm":7.1,"freq":300,"lat":-2.48850000,"lon":-44.30233300,"rng_nm":50,"alt_fmsl":0,"id":"SM","desc":"SAO MARCOS NDB"},
{"type":"NDB","hdg_t":321.4,"dist_nm":15.7,"freq":230,"lat":-2.38150000,"lon":-44.39932500,"rng_nm":70,"alt_fmsl":148,"id":"ALC","desc":"ALCANTARA NDB"},
{"type":"NDB","hdg_t":332.7,"dist_nm":87.6,"freq":320,"lat":-1.28133300,"lon":-44.90333300,"rng_nm":300,"alt_fmsl":0,"id":"AI","desc":"SAO JOAO NDB"},
{"type":"NDB","hdg_t":97,"dist_nm":151.6,"freq":365,"lat":-2.89750000,"lon":-41.72883300,"rng_nm":62,"alt_fmsl":16,"id":"PNB","desc":"PARNAIBA NDB"},
{"type":"VOR","hdg_t":150.2,"dist_nm":170.5,"freq":112.3,"lat":-5.06617800,"lon":-42.82488600,"rng_nm":200,"alt_fmsl":219,"id":"TRS","desc":"TERESINA VOR-DME"},
{"type":"NDB","hdg_t":150.1,"dist_nm":170.7,"freq":215,"lat":-5.06733300,"lon":-42.81950000,"rng_nm":60,"alt_fmsl":219,"id":"TRS","desc":"TERESINA NDB"},
{"type":"NDB","hdg_t":302,"dist_nm":221.4,"freq":315,"lat":-0.61533300,"lon":-47.35716700,"rng_nm":150,"alt_fmsl":0,"id":"BL","desc":"SALINOPOLIS NDB"},
{"type":"NDB","hdg_t":171.1,"dist_nm":253.3,"freq":400,"lat":-6.78016700,"lon":-43.58516700,"rng_nm":50,"alt_fmsl":0,"id":"GDP","desc":"GUADALUPE NDB"}
]
}
