{"success":true,"source":"xp2csv.pl","last_updated":"2013/11/08 14:53:21 UTC"
,"icao":"SBYA","name":"Lauarete","lat":0.6075,"lon":-69.185829,"rwys":1,"ils":0,"index":1808038,"path":"w070n00/w070n00"
,"runways":[
{"len_m":1606,"wid_m":29.87,"hdg":55,"surf":"Asphalt","rwy1":"06","lat1":0.60333300,"lon1":-69.19174200,"rwy2":"24","lat2":0.61166700,"lon2":-69.17991600}
]
,"radios":[
{"type":"TWR","freq":125.9,"desc":"RDO"}
]
,"navaids":[
{"type":"NDB","hdg_t":165.6,"dist_nm":0.4,"freq":380,"lat":0.59966700,"lon":-69.18383300,"rng_nm":50,"alt_fmsl":345,"id":"YAU","desc":"LAUARETE NDB"},
{"type":"NDB","hdg_t":240.3,"dist_nm":41.6,"freq":325,"lat":0.26183300,"lon":-69.78850000,"rng_nm":50,"alt_fmsl":0,"id":"PCR","desc":"PARI-CACHOEIRA NDB"},
{"type":"VOR","hdg_t":300.9,"dist_nm":73.6,"freq":112.2,"lat":1.24233900,"lon":-70.23654400,"rng_nm":100,"alt_fmsl":680,"id":"MTU","desc":"MITU VOR-DME"},
{"type":"NDB","hdg_t":301.6,"dist_nm":73.7,"freq":412,"lat":1.25600800,"lon":-70.23010000,"rng_nm":300,"alt_fmsl":680,"id":"MTU","desc":"MITU NDB"},
{"type":"NDB","hdg_t":191.6,"dist_nm":117.6,"freq":315,"lat":-1.32210000,"lon":-69.58023300,"rng_nm":200,"alt_fmsl":590,"id":"LPD","desc":"LA PEDRERA NDB"},
{"type":"NDB","hdg_t":108.9,"dist_nm":139.3,"freq":215,"lat":-0.14983300,"lon":-66.99250000,"rng_nm":50,"alt_fmsl":464,"id":"SGC","desc":"GABRIEL NDB"},
{"type":"VOR","hdg_t":108.8,"dist_nm":139.8,"freq":115.4,"lat":-0.15066700,"lon":-66.98516700,"rng_nm":130,"alt_fmsl":321,"id":"SGC","desc":"GABRIEL VOR-DME"},
{"type":"NDB","hdg_t":76.3,"dist_nm":145.4,"freq":345,"lat":1.18300000,"lon":-66.83383300,"rng_nm":50,"alt_fmsl":312,"id":"CCI","desc":"CUCUI NDB"},
{"type":"NDB","hdg_t":58.4,"dist_nm":150,"freq":395,"lat":1.92277800,"lon":-67.05755600,"rng_nm":50,"alt_fmsl":0,"id":"SRN","desc":"SAN CARLOS DE RIO NEGRO NDB"},
{"type":"NDB","hdg_t":249.4,"dist_nm":206,"freq":365,"lat":-0.60603600,"lon":-72.39586100,"rng_nm":150,"alt_fmsl":845,"id":"ARA","desc":"ARARACUARA NDB"}
]
}
