{"success":true,"source":"xp2csv.pl","last_updated":"2013/11/08 14:53:21 UTC"
,"icao":"SC06","name":"Pluff Mud Field","lat":32.63212527,"lon":-80.09231667,"rwys":1,"ils":0,"index":1629867,"path":"w090n30/w081n32"
,"runways":[
{"len_m":365,"wid_m":22.86,"hdg":174,"surf":"Dirt","rwy1":"18","lat1":32.63376480,"lon1":-80.09248700,"rwy2":"36","lat2":32.63048574,"lon2":-80.09214634}
]
,"navaids":[
{"type":"VOR","hdg_t":9.9,"dist_nm":15.9,"freq":113.5,"lat":32.89430556,"lon":-80.03780556,"rng_nm":130,"alt_fmsl":39,"id":"CHS","desc":"CHARLESTON VORTAC"},
{"type":"NDB","hdg_t":359.2,"dist_nm":20.6,"freq":329,"lat":32.97633333,"lon":-80.09744444,"rng_nm":50,"alt_fmsl":0,"id":"CH","desc":"ASHLY (LOM/NDB) NDB"},
{"type":"NDB","hdg_t":340,"dist_nm":27.3,"freq":365,"lat":33.06127778,"lon":-80.27730556,"rng_nm":50,"alt_fmsl":0,"id":"DYB","desc":"DORCHESTER CO NDB"},
{"type":"NDB","hdg_t":302.5,"dist_nm":32.8,"freq":221,"lat":32.92580556,"lon":-80.64019444,"rng_nm":50,"alt_fmsl":0,"id":"RBW","desc":"WALTERBORO NDB"},
{"type":"SDME","hdg_t":254,"dist_nm":32.9,"freq":110.5,"lat":32.47903600,"lon":-80.71733300,"rng_nm":40,"alt_fmsl":49,"id":"NBC","desc":"BEAUFORT TACAN"},
{"type":"NDB","hdg_t":5,"dist_nm":33.5,"freq":354,"lat":33.19100000,"lon":-80.03341667,"rng_nm":50,"alt_fmsl":0,"id":"MKS","desc":"MONCKS CORNER NDB"},
{"type":"VOR","hdg_t":340.4,"dist_nm":53.5,"freq":110.4,"lat":33.47483333,"lon":-80.44863889,"rng_nm":40,"alt_fmsl":140,"id":"VAN","desc":"VANCE VORTAC"},
{"type":"NDB","hdg_t":43.2,"dist_nm":56.3,"freq":242,"lat":33.31547222,"lon":-79.32452778,"rng_nm":50,"alt_fmsl":0,"id":"GGE","desc":"GEORGETOWN NDB"},
{"type":"NDB","hdg_t":29.9,"dist_nm":56.7,"freq":255,"lat":33.45147222,"lon":-79.52725000,"rng_nm":50,"alt_fmsl":0,"id":"PHH","desc":"ANDREWS NDB"},
{"type":"NDB","hdg_t":354.3,"dist_nm":57.5,"freq":381,"lat":33.58788889,"lon":-80.20613889,"rng_nm":50,"alt_fmsl":0,"id":"MNI","desc":"MANNING NDB"},
{"type":"NDB","hdg_t":230.6,"dist_nm":58.9,"freq":335,"lat":32.00397222,"lon":-80.98619444,"rng_nm":50,"alt_fmsl":0,"id":"SV","desc":"WASSA NDB"},
{"type":"VOR","hdg_t":322.1,"dist_nm":62.6,"freq":111.4,"lat":33.45572222,"lon":-80.85841667,"rng_nm":25,"alt_fmsl":188,"id":"EDS","desc":"EDISTO VOR-DME"},
{"type":"VOR","hdg_t":242.9,"dist_nm":63.3,"freq":115.95,"lat":32.14627778,"lon":-81.19911111,"rng_nm":130,"alt_fmsl":9,"id":"SAV","desc":"SAVANNAH VORTAC"},
{"type":"VOR","hdg_t":290.9,"dist_nm":64.8,"freq":116.7,"lat":33.01250000,"lon":-81.29222222,"rng_nm":40,"alt_fmsl":0,"id":"ALD","desc":"ALLENDALE VOR"},
{"type":"VOR","hdg_t":235.4,"dist_nm":64.9,"freq":111.6,"lat":32.01194444,"lon":-81.14086111,"rng_nm":25,"alt_fmsl":40,"id":"SVN","desc":"HUNTER VOR-DME"},
{"type":"NDB","hdg_t":10.3,"dist_nm":66.1,"freq":404,"lat":33.71777778,"lon":-79.85500000,"rng_nm":50,"alt_fmsl":0,"id":"CKI","desc":"KINGSTREE NDB"},
{"type":"NDB","hdg_t":244.8,"dist_nm":69.7,"freq":368,"lat":32.12986111,"lon":-81.33155556,"rng_nm":50,"alt_fmsl":0,"id":"SA","desc":"MAVIS NDB"},
{"type":"NDB","hdg_t":23.3,"dist_nm":71.6,"freq":236,"lat":33.72850000,"lon":-79.52505556,"rng_nm":50,"alt_fmsl":0,"id":"HEK","desc":"STUCKEY NDB"},
{"type":"NDB","hdg_t":12.5,"dist_nm":75.1,"freq":420,"lat":33.85600000,"lon":-79.76588889,"rng_nm":50,"alt_fmsl":0,"id":"CFY","desc":"EVANS NDB"},
{"type":"NDB","hdg_t":271.1,"dist_nm":76.1,"freq":245,"lat":32.64916667,"lon":-81.59427778,"rng_nm":50,"alt_fmsl":0,"id":"JYL","desc":"SYLVANIA NDB"},
{"type":"NDB","hdg_t":302.8,"dist_nm":79.6,"freq":392,"lat":33.34680300,"lon":-81.42405800,"rng_nm":25,"alt_fmsl":380,"id":"BKO","desc":"BARNWELL NDB"},
{"type":"NDB","hdg_t":261.1,"dist_nm":80.7,"freq":407,"lat":32.41536111,"lon":-81.66402778,"rng_nm":50,"alt_fmsl":0,"id":"BZ","desc":"BULLO NDB"},
{"type":"NDB","hdg_t":350.6,"dist_nm":82.4,"freq":252,"lat":33.99080556,"lon":-80.36002778,"rng_nm":50,"alt_fmsl":0,"id":"SMS","desc":"SUMTER NDB"},
{"type":"SDME","hdg_t":346.9,"dist_nm":82.7,"freq":110.1,"lat":33.97782500,"lon":-80.46622200,"rng_nm":40,"alt_fmsl":241,"id":"SSC","desc":"SHAW TACAN"},
{"type":"VOR","hdg_t":335.4,"dist_nm":85.2,"freq":113.2,"lat":33.92408333,"lon":-80.80233333,"rng_nm":40,"alt_fmsl":248,"id":"MMT","desc":"MC ENTIRE VORTAC"},
{"type":"NDB","hdg_t":335.7,"dist_nm":85.7,"freq":427,"lat":33.93572222,"lon":-80.79833333,"rng_nm":50,"alt_fmsl":0,"id":"MMT","desc":"MC ENTIRE NDB"},
{"type":"NDB","hdg_t":33.9,"dist_nm":86.2,"freq":370,"lat":33.82330556,"lon":-79.12822222,"rng_nm":50,"alt_fmsl":0,"id":"HYW","desc":"HORRY NDB"},
{"type":"NDB","hdg_t":236.7,"dist_nm":86.6,"freq":263,"lat":31.83116667,"lon":-81.51019444,"rng_nm":50,"alt_fmsl":0,"id":"MOQ","desc":"MC INTOSH NDB"},
{"type":"VOR","hdg_t":326.8,"dist_nm":87.8,"freq":114.7,"lat":33.85725000,"lon":-81.05391667,"rng_nm":130,"alt_fmsl":400,"id":"CAE","desc":"COLUMBIA VORTAC"},
{"type":"NDB","hdg_t":7.3,"dist_nm":93.1,"freq":335,"lat":34.17397222,"lon":-79.85250000,"rng_nm":50,"alt_fmsl":0,"id":"FL","desc":"ALCOT NDB"},
{"type":"NDB","hdg_t":254.4,"dist_nm":94.4,"freq":395,"lat":32.19688889,"lon":-81.88061111,"rng_nm":50,"alt_fmsl":0,"id":"CWV","desc":"CLAXTON NDB"},
{"type":"NDB","hdg_t":279.9,"dist_nm":96.1,"freq":205,"lat":32.89463889,"lon":-81.96694444,"rng_nm":50,"alt_fmsl":0,"id":"LNH","desc":"MILLEN NDB"},
{"type":"VOR","hdg_t":12.7,"dist_nm":98.3,"freq":115.2,"lat":34.23294444,"lon":-79.65711111,"rng_nm":130,"alt_fmsl":110,"id":"FLO","desc":"FLORENCE VORTAC"},
{"type":"NDB","hdg_t":324.3,"dist_nm":98.7,"freq":362,"lat":33.96716667,"lon":-81.24469444,"rng_nm":50,"alt_fmsl":0,"id":"CA","desc":"MURRY NDB"},
{"type":"VOR","hdg_t":43.8,"dist_nm":98.7,"freq":117.6,"lat":33.81386111,"lon":-78.72452778,"rng_nm":40,"alt_fmsl":20,"id":"CRE","desc":"GRAND STRAND VORTAC"},
{"type":"NDB","hdg_t":284.7,"dist_nm":99.7,"freq":356,"lat":33.04252778,"lon":-82.00483333,"rng_nm":50,"alt_fmsl":0,"id":"BXG","desc":"BURKE CO NDB"}
]
}
