{"success":true,"source":"xp2csv.pl","last_updated":"2013/11/08 14:53:21 UTC"
,"icao":"SCCL","name":"Caldera","lat":-27.0780525,"lon":-70.7953055,"rwys":1,"ils":0,"index":1789880,"path":"w080s30/w071s28"
,"runways":[
{"len_m":1204,"wid_m":24.38,"hdg":108,"surf":"Asphalt","rwy1":"10","lat1":-27.07633600,"lon1":-70.80106900,"rwy2":"28","lat2":-27.07976900,"lon2":-70.78954200}
]
,"navaids":[
{"type":"NDB","hdg_t":273,"dist_nm":1.2,"freq":227,"lat":-27.07694400,"lon":-70.81861100,"rng_nm":125,"alt_fmsl":0,"id":"CLD","desc":"CALDERA NDB"},
{"type":"VOR","hdg_t":175.1,"dist_nm":12,"freq":117.1,"lat":-27.27944400,"lon":-70.77611100,"rng_nm":130,"alt_fmsl":670,"id":"DAT","desc":"ATACAMA VOR-DME"},
{"type":"NDB","hdg_t":187.3,"dist_nm":170.8,"freq":305,"lat":-29.90891400,"lon":-71.21703100,"rng_nm":25,"alt_fmsl":335,"id":"SER","desc":"LA SERENA NDB"},
{"type":"VOR","hdg_t":187,"dist_nm":171.1,"freq":116.5,"lat":-29.91553300,"lon":-71.19704400,"rng_nm":130,"alt_fmsl":479,"id":"SER","desc":"LA SERENA VOR-DME"},
{"type":"NDB","hdg_t":190.5,"dist_nm":193.9,"freq":260,"lat":-30.26305600,"lon":-71.47972200,"rng_nm":350,"alt_fmsl":0,"id":"TOY","desc":"TONGOY NDB"},
{"type":"VOR","hdg_t":190.4,"dist_nm":194.7,"freq":115.5,"lat":-30.27638900,"lon":-71.47361100,"rng_nm":130,"alt_fmsl":200,"id":"TOY","desc":"TONGOY VOR-DME"},
{"type":"NDB","hdg_t":5,"dist_nm":216.6,"freq":305,"lat":-23.47020600,"lon":-70.44850000,"rng_nm":25,"alt_fmsl":0,"id":"R","desc":"ANTOFAGASTA NDB"},
{"type":"VOR","hdg_t":5,"dist_nm":216.8,"freq":114.9,"lat":-23.46694400,"lon":-70.44777800,"rng_nm":130,"alt_fmsl":290,"id":"FAG","desc":"ANTOFAGASTA VOR-DME"},
{"type":"VOR","hdg_t":126.4,"dist_nm":218.8,"freq":116.5,"lat":-29.21111100,"lon":-67.44250000,"rng_nm":177,"alt_fmsl":3099,"id":"ITO","desc":"CHILECITO VOR"},
{"type":"NDB","hdg_t":4.6,"dist_nm":238.1,"freq":240,"lat":-23.10916700,"lon":-70.44305600,"rng_nm":150,"alt_fmsl":0,"id":"MJL","desc":"MEJILLONES NDB"}
]
}
