{"success":true,"source":"xp2csv.pl","last_updated":"2013/11/08 14:53:21 UTC"
,"icao":"SCSL","name":"Stave Lake","lat":49.449432,"lon":-122.228955,"rwys":1,"ils":0,"index":942811,"path":"w130n40/w123n49"
,"runways":[
{"len_m":609,"wid_m":14.02,"hdg":200,"surf":"Concrete","rwy1":"18","lat1":49.45200500,"lon1":-122.22750200,"rwy2":"36","lat2":49.44685900,"lon2":-122.23040800}
]
,"navaids":[
{"type":"VOR","hdg_t":233.8,"dist_nm":23.6,"freq":112.4,"lat":49.21583333,"lon":-122.71500000,"rng_nm":40,"alt_fmsl":0,"id":"YPK","desc":"PITT MEADOWS VOR"},
{"type":"NDB","hdg_t":164.6,"dist_nm":26.6,"freq":214,"lat":49.02166667,"lon":-122.05000000,"rng_nm":50,"alt_fmsl":0,"id":"LU","desc":"CULTUS NDB"},
{"type":"NDB","hdg_t":201.4,"dist_nm":27.9,"freq":344,"lat":49.01544444,"lon":-122.48777778,"rng_nm":50,"alt_fmsl":0,"id":"XX","desc":"ABBOTSFORD NDB"},
{"type":"NDB","hdg_t":96.5,"dist_nm":31.7,"freq":245,"lat":49.38652778,"lon":-121.42416667,"rng_nm":50,"alt_fmsl":0,"id":"HE","desc":"HOPE NDB"},
{"type":"VOR","hdg_t":204.6,"dist_nm":33.2,"freq":113,"lat":48.94527778,"lon":-122.57925000,"rng_nm":130,"alt_fmsl":83,"id":"HUH","desc":"WHATCOM VORTAC"},
{"type":"NDB","hdg_t":217.6,"dist_nm":33.7,"freq":332,"lat":49.00333333,"lon":-122.75027778,"rng_nm":50,"alt_fmsl":0,"id":"WC","desc":"WHITE ROCK NDB"},
{"type":"NDB","hdg_t":200.1,"dist_nm":35.1,"freq":338,"lat":48.89910000,"lon":-122.53477200,"rng_nm":50,"alt_fmsl":44,"id":"BL","desc":"BENZA NDB"},
{"type":"NDB","hdg_t":243.2,"dist_nm":36.5,"freq":266,"lat":49.17286111,"lon":-123.05716667,"rng_nm":50,"alt_fmsl":0,"id":"VR","desc":"VANCOUVER NDB"},
{"type":"NDB","hdg_t":248.6,"dist_nm":41.8,"freq":368,"lat":49.19138889,"lon":-123.21972222,"rng_nm":50,"alt_fmsl":0,"id":"ZVR","desc":"SEA ISLAND NDB"},
{"type":"VOR","hdg_t":238.6,"dist_nm":42.5,"freq":115.9,"lat":49.07733333,"lon":-123.14908333,"rng_nm":130,"alt_fmsl":17,"id":"YVR","desc":"VANCOUVER VOR-DME"},
{"type":"NDB","hdg_t":230.8,"dist_nm":54.2,"freq":378,"lat":48.87386111,"lon":-123.29000000,"rng_nm":50,"alt_fmsl":0,"id":"AP","desc":"ACTIVE PASS NDB"},
{"type":"NDB","hdg_t":187.3,"dist_nm":59.3,"freq":240,"lat":48.46861111,"lon":-122.41841667,"rng_nm":50,"alt_fmsl":0,"id":"BVS","desc":"SKAGIT/BAY VIEW NDB"},
{"type":"NDB","hdg_t":205.4,"dist_nm":64.3,"freq":356,"lat":48.47927778,"lon":-122.92100000,"rng_nm":50,"alt_fmsl":0,"id":"OPZ","desc":"LOPEZ ISLAND NDB"},
{"type":"NDB","hdg_t":209.4,"dist_nm":64.4,"freq":284,"lat":48.51213889,"lon":-123.02386111,"rng_nm":50,"alt_fmsl":0,"id":"FHR","desc":"FRIDAY HARBOR NDB"},
{"type":"VOR","hdg_t":229.2,"dist_nm":65.8,"freq":113.7,"lat":48.72702778,"lon":-123.48436111,"rng_nm":130,"alt_fmsl":1997,"id":"YYJ","desc":"VICTORIA VOR-DME"},
{"type":"NDB","hdg_t":224.1,"dist_nm":66.8,"freq":200,"lat":48.64416667,"lon":-123.39947222,"rng_nm":50,"alt_fmsl":0,"id":"YJ","desc":"VICTORIA NDB"},
{"type":"NDB","hdg_t":88.3,"dist_nm":67,"freq":326,"lat":49.46944444,"lon":-120.51675000,"rng_nm":50,"alt_fmsl":0,"id":"DC","desc":"PRINCETON NDB"},
{"type":"NDB","hdg_t":253.9,"dist_nm":67.3,"freq":251,"lat":49.12791667,"lon":-123.87169444,"rng_nm":50,"alt_fmsl":0,"id":"YCD","desc":"NANAIMO NDB"},
{"type":"SDME","hdg_t":194.7,"dist_nm":67.9,"freq":113.8,"lat":48.35489700,"lon":-122.66173600,"rng_nm":130,"alt_fmsl":51,"id":"NUW","desc":"WHIDBEY ISLAND TACAN"},
{"type":"SDME","hdg_t":250.5,"dist_nm":68.7,"freq":111.45,"lat":49.05722200,"lon":-123.87166700,"rng_nm":25,"alt_fmsl":83,"id":"1CD","desc":"NANAIMO DME"},
{"type":"NDB","hdg_t":228.3,"dist_nm":69.5,"freq":293,"lat":48.67166667,"lon":-123.53666667,"rng_nm":50,"alt_fmsl":0,"id":"MB","desc":"MILL BAY NDB"},
{"type":"VOR","hdg_t":92.5,"dist_nm":72.7,"freq":113.9,"lat":49.38155556,"lon":-120.37377778,"rng_nm":130,"alt_fmsl":5329,"id":"YDC","desc":"PRINCETON VOR-DME"},
{"type":"VOR","hdg_t":195.3,"dist_nm":74.9,"freq":117.2,"lat":48.24469444,"lon":-122.72441667,"rng_nm":40,"alt_fmsl":200,"id":"CVV","desc":"PENN COVE VOR-DME"},
{"type":"NDB","hdg_t":177.9,"dist_nm":82.5,"freq":382,"lat":48.07611111,"lon":-122.15391667,"rng_nm":50,"alt_fmsl":0,"id":"AW","desc":"WATON NDB"},
{"type":"NDB","hdg_t":24.6,"dist_nm":83,"freq":236,"lat":50.70166667,"lon":-121.32027778,"rng_nm":50,"alt_fmsl":0,"id":"YZA","desc":"ASHCROFT NDB"},
{"type":"NDB","hdg_t":211,"dist_nm":91.3,"freq":338,"lat":48.13991667,"lon":-123.40338889,"rng_nm":50,"alt_fmsl":0,"id":"K","desc":"EDIZ HOOK NDB"},
{"type":"SDME","hdg_t":285.5,"dist_nm":91.5,"freq":109.3,"lat":49.83555600,"lon":-124.49916700,"rng_nm":25,"alt_fmsl":425,"id":"9S","desc":"POWELL RIVER BC DME"},
{"type":"NDB","hdg_t":285.5,"dist_nm":91.6,"freq":382,"lat":49.83669444,"lon":-124.50138889,"rng_nm":50,"alt_fmsl":0,"id":"YPW","desc":"POWELL RIVER NDB"},
{"type":"VOR","hdg_t":181.2,"dist_nm":91.8,"freq":110.6,"lat":47.91983333,"lon":-122.27783333,"rng_nm":40,"alt_fmsl":670,"id":"PAE","desc":"PAINE VOR-DME"},
{"type":"NDB","hdg_t":216.7,"dist_nm":96.7,"freq":515,"lat":48.15019444,"lon":-123.67025000,"rng_nm":50,"alt_fmsl":0,"id":"CL","desc":"ELWHA NDB"}
]
}
