{"success":true,"source":"xp2csv.pl","last_updated":"2013/11/08 14:53:21 UTC"
,"icao":"SCTL","name":"Panguilemo","lat":-35.3778265,"lon":-71.601682,"rwys":1,"ils":0,"index":1772961,"path":"w080s40/w072s36"
,"runways":[
{"len_m":1115,"wid_m":24.38,"hdg":38,"surf":"Asphalt","rwy1":"03","lat1":-35.38173900,"lon1":-71.60553900,"rwy2":"21","lat2":-35.37391400,"lon2":-71.59782500}
]
,"navaids":[
{"type":"NDB","hdg_t":35.7,"dist_nm":29.2,"freq":270,"lat":-34.98111100,"lon":-71.25555600,"rng_nm":150,"alt_fmsl":0,"id":"ICO","desc":"CURICO NDB"},
{"type":"VOR","hdg_t":37.8,"dist_nm":31,"freq":114.7,"lat":-34.96777800,"lon":-71.21583300,"rng_nm":130,"alt_fmsl":6036,"id":"ICO","desc":"CURICO VOR-DME"},
{"type":"NDB","hdg_t":276.2,"dist_nm":38.4,"freq":340,"lat":-35.30555600,"lon":-72.37944400,"rng_nm":200,"alt_fmsl":0,"id":"CTN","desc":"CONSTITUCION NDB"},
{"type":"VOR","hdg_t":196.1,"dist_nm":75.2,"freq":115.9,"lat":-36.58305600,"lon":-72.03583300,"rng_nm":130,"alt_fmsl":488,"id":"CHI","desc":"CHILLAN VOR-DME"},
{"type":"NDB","hdg_t":195.8,"dist_nm":75.4,"freq":411,"lat":-36.58888900,"lon":-72.02916700,"rng_nm":100,"alt_fmsl":486,"id":"CHI","desc":"CHILLAN NDB"},
{"type":"VOR","hdg_t":94.3,"dist_nm":99.4,"freq":117.2,"lat":-35.48611100,"lon":-69.57861100,"rng_nm":178,"alt_fmsl":4665,"id":"MLG","desc":"MALARGUE VOR-DME"},
{"type":"NDB","hdg_t":95.2,"dist_nm":100.4,"freq":320,"lat":-35.51333300,"lon":-69.55833300,"rng_nm":25,"alt_fmsl":4682,"id":"M","desc":"MALARGUE NDB"},
{"type":"VOR","hdg_t":359.5,"dist_nm":102.5,"freq":113.7,"lat":-33.66583300,"lon":-71.61944400,"rng_nm":130,"alt_fmsl":245,"id":"SNO","desc":"SANTO DOMINGO VOR-DME"},
{"type":"NDB","hdg_t":359.6,"dist_nm":103.4,"freq":355,"lat":-33.65111100,"lon":-71.61277800,"rng_nm":150,"alt_fmsl":245,"id":"SNO","desc":"SANTO DOMINGO NDB"},
{"type":"NDB","hdg_t":10.5,"dist_nm":103.5,"freq":317,"lat":-33.67750000,"lon":-71.22305600,"rng_nm":50,"alt_fmsl":541,"id":"PIL","desc":"MELIPILLA NDB"}
]
}
