{"success":true,"source":"xp2csv.pl","last_updated":"2013/11/08 14:53:21 UTC"
,"icao":"SCTT","name":"Las Breas","lat":-25.564278,"lon":-70.375871,"rwys":1,"ils":0,"index":1789978,"path":"w080s30/w071s26"
,"runways":[
{"len_m":1196,"wid_m":21.34,"hdg":157,"surf":"Asphalt","rwy1":"16","lat1":-25.55930600,"lon1":-70.37818900,"rwy2":"34","lat2":-25.56925000,"lon2":-70.37355300}
]
,"navaids":[
{"type":"NDB","hdg_t":194.6,"dist_nm":93.5,"freq":227,"lat":-27.07694400,"lon":-70.81861100,"rng_nm":125,"alt_fmsl":0,"id":"CLD","desc":"CALDERA NDB"},
{"type":"VOR","hdg_t":191.7,"dist_nm":104.8,"freq":117.1,"lat":-27.27944400,"lon":-70.77611100,"rng_nm":130,"alt_fmsl":670,"id":"DAT","desc":"ATACAMA VOR-DME"},
{"type":"NDB","hdg_t":358.1,"dist_nm":125.3,"freq":305,"lat":-23.47020600,"lon":-70.44850000,"rng_nm":25,"alt_fmsl":0,"id":"R","desc":"ANTOFAGASTA NDB"},
{"type":"VOR","hdg_t":358.1,"dist_nm":125.5,"freq":114.9,"lat":-23.46694400,"lon":-70.44777800,"rng_nm":130,"alt_fmsl":290,"id":"FAG","desc":"ANTOFAGASTA VOR-DME"},
{"type":"NDB","hdg_t":358.5,"dist_nm":146.8,"freq":240,"lat":-23.10916700,"lon":-70.44305600,"rng_nm":150,"alt_fmsl":0,"id":"MJL","desc":"MEJILLONES NDB"},
{"type":"NDB","hdg_t":24,"dist_nm":200.6,"freq":215,"lat":-22.49361100,"lon":-68.90305600,"rng_nm":100,"alt_fmsl":7606,"id":"CFL","desc":"CALAMA NDB"},
{"type":"VOR","hdg_t":24.5,"dist_nm":200.8,"freq":116.3,"lat":-22.50027800,"lon":-68.87694400,"rng_nm":130,"alt_fmsl":7692,"id":"LOA","desc":"CALAMA VOR-DME"},
{"type":"VOR","hdg_t":4.9,"dist_nm":205.5,"freq":114.5,"lat":-22.14000000,"lon":-70.05500000,"rng_nm":130,"alt_fmsl":3475,"id":"TOC","desc":"TOCOPILLA VOR"},
{"type":"NDB","hdg_t":189.5,"dist_nm":263.7,"freq":305,"lat":-29.90891400,"lon":-71.21703100,"rng_nm":25,"alt_fmsl":335,"id":"SER","desc":"LA SERENA NDB"},
{"type":"VOR","hdg_t":189.3,"dist_nm":264,"freq":116.5,"lat":-29.91553300,"lon":-71.19704400,"rng_nm":130,"alt_fmsl":479,"id":"SER","desc":"LA SERENA VOR-DME"}
]
}
