{"success":true,"source":"xp2csv.pl","last_updated":"2013/11/08 14:53:21 UTC"
,"icao":"SD44","name":"Cook Field","lat":43.78332888,"lon":-99.25759751,"rwys":2,"ils":0,"index":1319282,"path":"w100n40/w100n43"
,"runways":[
{"len_m":805,"wid_m":36.58,"hdg":322,"surf":"Turf/grass","rwy1":"32","lat1":43.78043723,"lon1":-99.25457933,"rwy2":"14","lat2":43.78622053,"lon2":-99.26061569},
{"len_m":799,"wid_m":27.43,"hdg":97,"surf":"Turf/grass","rwy1":"09","lat1":43.78382783,"lon1":-99.26251493,"rwy2":"27","lat2":43.78282993,"lon2":-99.25268009}
]
,"navaids":[
{"type":"VOR","hdg_t":231.2,"dist_nm":28.2,"freq":112.8,"lat":43.48791667,"lon":-99.76138889,"rng_nm":40,"alt_fmsl":0,"id":"ISD","desc":"WINNER VOR"},
{"type":"VOR","hdg_t":89.9,"dist_nm":53,"freq":109.2,"lat":43.77702778,"lon":-98.03758333,"rng_nm":40,"alt_fmsl":1298,"id":"MHE","desc":"MITCHELL VOR-DME"},
{"type":"VOR","hdg_t":313.4,"dist_nm":53.6,"freq":112.5,"lat":44.39450000,"lon":-100.16286111,"rng_nm":40,"alt_fmsl":1789,"id":"PIR","desc":"PIERRE VORTAC"},
{"type":"NDB","hdg_t":44.8,"dist_nm":56.1,"freq":302,"lat":44.44388889,"lon":-98.33683333,"rng_nm":50,"alt_fmsl":0,"id":"HO","desc":"BEADY NDB"},
{"type":"VOR","hdg_t":45.7,"dist_nm":56.8,"freq":117.6,"lat":44.44008333,"lon":-98.31108333,"rng_nm":40,"alt_fmsl":1300,"id":"HON","desc":"HURON VORTAC"},
{"type":"NDB","hdg_t":135.3,"dist_nm":60.3,"freq":392,"lat":43.06338889,"lon":-98.29316667,"rng_nm":50,"alt_fmsl":0,"id":"AGZ","desc":"WAGNER NDB"},
{"type":"NDB","hdg_t":191,"dist_nm":73.9,"freq":341,"lat":42.57358333,"lon":-99.57780556,"rng_nm":50,"alt_fmsl":0,"id":"RBE","desc":"ROCK CO NDB"},
{"type":"NDB","hdg_t":226.1,"dist_nm":79.1,"freq":314,"lat":42.86161111,"lon":-100.54963889,"rng_nm":50,"alt_fmsl":0,"id":"VTN","desc":"VALENTINE NDB"},
{"type":"VOR","hdg_t":204,"dist_nm":79.6,"freq":112.7,"lat":42.56911111,"lon":-99.98966667,"rng_nm":40,"alt_fmsl":2582,"id":"ANW","desc":"AINSWORTH VOR-DME"},
{"type":"VOR","hdg_t":162.1,"dist_nm":82.6,"freq":113.9,"lat":42.47050000,"lon":-98.68691667,"rng_nm":130,"alt_fmsl":2030,"id":"ONL","desc":"O NEILL VORTAC"},
{"type":"NDB","hdg_t":80.9,"dist_nm":95.1,"freq":400,"lat":44.01327778,"lon":-97.08841667,"rng_nm":50,"alt_fmsl":0,"id":"MDS","desc":"WENTWORTH NDB"},
{"type":"VOR","hdg_t":121.6,"dist_nm":97,"freq":111.4,"lat":42.91836111,"lon":-97.38497222,"rng_nm":40,"alt_fmsl":1301,"id":"YKN","desc":"YANKTON VOR-DME"}
]
}
