{"success":true,"source":"xp2csv.pl","last_updated":"2013/11/08 14:53:21 UTC"
,"icao":"SD73","name":"Staben Strip","lat":44.52081777,"lon":-101.59292362,"rwys":1,"ils":0,"index":1286561,"path":"w110n40/w102n44"
,"runways":[
{"len_m":807,"wid_m":9.14,"hdg":99,"surf":"Turf/grass","rwy1":"09","lat1":44.52144650,"lon1":-101.59792467,"rwy2":"27","lat2":44.52018904,"lon2":-101.58792257}
]
,"navaids":[
{"type":"VOR","hdg_t":186.3,"dist_nm":27.9,"freq":108.4,"lat":44.05825000,"lon":-101.66419444,"rng_nm":40,"alt_fmsl":2340,"id":"PHP","desc":"PHILIP VOR-DME"},
{"type":"VOR","hdg_t":351.1,"dist_nm":33.8,"freq":116.8,"lat":45.07816667,"lon":-101.71508333,"rng_nm":130,"alt_fmsl":2530,"id":"DPR","desc":"DUPREE VORTAC"},
{"type":"VOR","hdg_t":96.5,"dist_nm":61.9,"freq":112.5,"lat":44.39450000,"lon":-100.16286111,"rng_nm":40,"alt_fmsl":1789,"id":"PIR","desc":"PIERRE VORTAC"},
{"type":"SDME","hdg_t":251.1,"dist_nm":68.9,"freq":108.8,"lat":44.13899400,"lon":-103.10175800,"rng_nm":40,"alt_fmsl":3200,"id":"RCA","desc":"ELLSWORTH TACAN"},
{"type":"NDB","hdg_t":241.6,"dist_nm":69.2,"freq":254,"lat":43.96486111,"lon":-102.99888889,"rng_nm":50,"alt_fmsl":0,"id":"RA","desc":"RANCH NDB"},
{"type":"VOR","hdg_t":242.3,"dist_nm":69.3,"freq":112.3,"lat":43.97602778,"lon":-103.01233333,"rng_nm":130,"alt_fmsl":3160,"id":"RAP","desc":"RAPID CITY VORTAC"},
{"type":"VOR","hdg_t":345.7,"dist_nm":86.6,"freq":111.4,"lat":45.91977778,"lon":-102.10363889,"rng_nm":25,"alt_fmsl":0,"id":"LEM","desc":"LEMMON VOR"},
{"type":"NDB","hdg_t":269.4,"dist_nm":94.1,"freq":300,"lat":44.48436111,"lon":-103.78438889,"rng_nm":50,"alt_fmsl":0,"id":"SPF","desc":"BLACK HILLS NDB"},
{"type":"VOR","hdg_t":308.6,"dist_nm":100.5,"freq":109.4,"lat":45.55219444,"lon":-103.45636111,"rng_nm":25,"alt_fmsl":3014,"id":"BUA","desc":"BUFFALO VOR-DME"},
{"type":"VOR","hdg_t":127.3,"dist_nm":100.6,"freq":112.8,"lat":43.48791667,"lon":-99.76138889,"rng_nm":40,"alt_fmsl":0,"id":"ISD","desc":"WINNER VOR"}
]
}
