{"success":true,"source":"xp2csv.pl","last_updated":"2013/11/08 14:53:21 UTC"
,"icao":"SDCO","name":"Sorocaba","lat":-23.4780365,"lon":-47.4900015,"rwys":1,"ils":0,"index":2166946,"path":"w050s30/w048s24"
,"runways":[
{"len_m":1468,"wid_m":29.87,"hdg":160,"surf":"Asphalt","rwy1":"18","lat1":-23.47176700,"lon1":-47.49234200,"rwy2":"36","lat2":-23.48430600,"lon2":-47.48766100}
]
,"radios":[
{"type":"TWR","freq":125.67,"desc":"RDO"}
]
,"navaids":[
{"type":"NDB","hdg_t":136.1,"dist_nm":0.4,"freq":350,"lat":-23.48316700,"lon":-47.48466700,"rng_nm":50,"alt_fmsl":2077,"id":"SCB","desc":"SOROCABA NDB"},
{"type":"VOR","hdg_t":105.7,"dist_nm":6.4,"freq":115.2,"lat":-23.50700000,"lon":-47.37816700,"rng_nm":200,"alt_fmsl":2018,"id":"SCB","desc":"SOROCABA VOR-DME"},
{"type":"VOR","hdg_t":91.1,"dist_nm":31.2,"freq":114.3,"lat":-23.48750000,"lon":-46.92333300,"rng_nm":200,"alt_fmsl":2428,"id":"STN","desc":"SANTANA VOR-DME"},
{"type":"NDB","hdg_t":99.6,"dist_nm":31.7,"freq":270,"lat":-23.56550000,"lon":-46.92266700,"rng_nm":25,"alt_fmsl":0,"id":"TPV","desc":"ITAPEVI NDB"},
{"type":"NDB","hdg_t":42.5,"dist_nm":34.3,"freq":395,"lat":-23.05394700,"lon":-47.06959200,"rng_nm":50,"alt_fmsl":0,"id":"KP","desc":"GRAMA NDB"},
{"type":"NDB","hdg_t":32.5,"dist_nm":34.4,"freq":300,"lat":-22.99283300,"lon":-47.15516700,"rng_nm":50,"alt_fmsl":0,"id":"IP","desc":"JARDIM NDB"},
{"type":"VOR","hdg_t":35.4,"dist_nm":34.4,"freq":112,"lat":-23.00871400,"lon":-47.12904400,"rng_nm":200,"alt_fmsl":2170,"id":"CPN","desc":"CAMPINAS VOR-DME"},
{"type":"NDB","hdg_t":26.9,"dist_nm":34.9,"freq":370,"lat":-22.95750000,"lon":-47.20416700,"rng_nm":50,"alt_fmsl":0,"id":"IK","desc":"BENTO NDB"},
{"type":"NDB","hdg_t":85.2,"dist_nm":40.6,"freq":220,"lat":-23.42058600,"lon":-46.75592200,"rng_nm":25,"alt_fmsl":0,"id":"PER","desc":"PERUS NDB"},
{"type":"NDB","hdg_t":95.4,"dist_nm":43.1,"freq":290,"lat":-23.54483300,"lon":-46.71166700,"rng_nm":145,"alt_fmsl":0,"id":"IS","desc":"MADA NDB"},
{"type":"NDB","hdg_t":121.1,"dist_nm":43.2,"freq":525,"lat":-23.85066700,"lon":-46.81633300,"rng_nm":50,"alt_fmsl":0,"id":"EMB","desc":"EMBUGUACU NDB"},
{"type":"NDB","hdg_t":100,"dist_nm":46,"freq":250,"lat":-23.61016700,"lon":-46.66750000,"rng_nm":50,"alt_fmsl":0,"id":"SPO","desc":"SAO PAULO NDB"},
{"type":"VOR","hdg_t":101.1,"dist_nm":46.9,"freq":116.9,"lat":-23.62750000,"lon":-46.65466700,"rng_nm":200,"alt_fmsl":2631,"id":"CGO","desc":"CONGONHAS VOR-DME"},
{"type":"NDB","hdg_t":92.2,"dist_nm":47.1,"freq":260,"lat":-23.50683300,"lon":-46.63650000,"rng_nm":50,"alt_fmsl":2368,"id":"MAE","desc":"MARTE NDB"},
{"type":"NDB","hdg_t":102.1,"dist_nm":47.6,"freq":330,"lat":-23.64383300,"lon":-46.64433300,"rng_nm":50,"alt_fmsl":0,"id":"PP","desc":"METRO NDB"},
{"type":"NDB","hdg_t":89.1,"dist_nm":50.5,"freq":410,"lat":-23.46216700,"lon":-46.57333300,"rng_nm":50,"alt_fmsl":0,"id":"IG","desc":"TUCA NDB"},
{"type":"NDB","hdg_t":105.7,"dist_nm":50.8,"freq":200,"lat":-23.70566700,"lon":-46.60133300,"rng_nm":25,"alt_fmsl":0,"id":"DAD","desc":"DIADEMA NDB"},
{"type":"VOR","hdg_t":115.1,"dist_nm":58.4,"freq":116.7,"lat":-23.89100000,"lon":-46.52816700,"rng_nm":200,"alt_fmsl":2215,"id":"RDE","desc":"REDE VOR-DME"},
{"type":"VOR","hdg_t":58.5,"dist_nm":59.8,"freq":116.2,"lat":-22.95313600,"lon":-46.56811700,"rng_nm":200,"alt_fmsl":2737,"id":"BGC","desc":"BRAGANCA VOR-DME"},
{"type":"NDB","hdg_t":59.9,"dist_nm":60.2,"freq":385,"lat":-22.97079200,"lon":-46.54778900,"rng_nm":50,"alt_fmsl":2887,"id":"BGC","desc":"BRAGANCA NDB"},
{"type":"NDB","hdg_t":86.2,"dist_nm":60.9,"freq":240,"lat":-23.40766700,"lon":-46.38716700,"rng_nm":50,"alt_fmsl":0,"id":"IB","desc":"BONSUCESSO NDB"},
{"type":"VOR","hdg_t":86.1,"dist_nm":61,"freq":116,"lat":-23.40633300,"lon":-46.38550000,"rng_nm":200,"alt_fmsl":2726,"id":"BCO","desc":"BONSUCESSO VOR-DME"},
{"type":"NDB","hdg_t":356.3,"dist_nm":62.7,"freq":280,"lat":-22.43016700,"lon":-47.56250000,"rng_nm":50,"alt_fmsl":0,"id":"RCL","desc":"RIO CLARO NDB"},
{"type":"NDB","hdg_t":113.2,"dist_nm":71.9,"freq":360,"lat":-23.94750000,"lon":-46.28700000,"rng_nm":50,"alt_fmsl":0,"id":"RR","desc":"VICENTE NDB"},
{"type":"NDB","hdg_t":114.3,"dist_nm":73.9,"freq":375,"lat":-23.98333300,"lon":-46.26333300,"rng_nm":128,"alt_fmsl":0,"id":"SAT","desc":"SANTOS NDB"},
{"type":"NDB","hdg_t":117.1,"dist_nm":75.6,"freq":305,"lat":-24.05050000,"lon":-46.26416700,"rng_nm":300,"alt_fmsl":0,"id":"NR","desc":"MOELA NDB"},
{"type":"NDB","hdg_t":5.6,"dist_nm":84.7,"freq":215,"lat":-22.06750000,"lon":-47.34066700,"rng_nm":50,"alt_fmsl":0,"id":"IY","desc":"PIRA NDB"},
{"type":"NDB","hdg_t":78,"dist_nm":88,"freq":230,"lat":-23.16450000,"lon":-45.93150000,"rng_nm":25,"alt_fmsl":0,"id":"IW","desc":"JAGUARI NDB"},
{"type":"NDB","hdg_t":5.3,"dist_nm":88.6,"freq":345,"lat":-22.00246100,"lon":-47.34112500,"rng_nm":50,"alt_fmsl":0,"id":"IS","desc":"FONTE NDB"},
{"type":"NDB","hdg_t":5.4,"dist_nm":89.6,"freq":310,"lat":-21.98600000,"lon":-47.33750000,"rng_nm":50,"alt_fmsl":1968,"id":"PSN","desc":"PIRASSUNUNGA NDB"},
{"type":"VOR","hdg_t":5.2,"dist_nm":89.6,"freq":113.3,"lat":-21.98450000,"lon":-47.34416700,"rng_nm":200,"alt_fmsl":1968,"id":"PSN","desc":"PIRASSUNUNGA VOR-DME"},
{"type":"NDB","hdg_t":80.2,"dist_nm":90.3,"freq":365,"lat":-23.21283300,"lon":-45.87950000,"rng_nm":25,"alt_fmsl":0,"id":"IJ","desc":"VILA NDB"},
{"type":"NDB","hdg_t":81.6,"dist_nm":90.8,"freq":230,"lat":-23.24972200,"lon":-45.86388900,"rng_nm":50,"alt_fmsl":0,"id":"SJC","desc":"SAO JOSE NDB"},
{"type":"VOR","hdg_t":81.6,"dist_nm":91.3,"freq":112.8,"lat":-23.24633300,"lon":-45.85416700,"rng_nm":200,"alt_fmsl":2120,"id":"SJC","desc":"SAO JOSE VOR-DME"}
]
}
