{"success":true,"source":"xp2csv.pl","last_updated":"2013/11/08 14:53:21 UTC"
,"icao":"SDCW","name":"Fazenda Paloma","lat":-20.32611111,"lon":-48.82833333,"rwys":1,"ils":0,"index":2150761,"path":"w050s30/w049s21"
,"runways":[
{"len_m":1009,"wid_m":24.99,"hdg":121,"surf":"Dirt","rwy1":"14","lat1":-20.32372678,"lon1":-48.83245149,"rwy2":"32","lat2":-20.32849544,"lon2":-48.82421517}
]
,"navaids":[
{"type":"NDB","hdg_t":139.5,"dist_nm":20.1,"freq":360,"lat":-20.58216700,"lon":-48.59666700,"rng_nm":50,"alt_fmsl":1898,"id":"BRT","desc":"BARRETOS NDB"},
{"type":"NDB","hdg_t":278.1,"dist_nm":20.5,"freq":220,"lat":-20.27695300,"lon":-49.18959400,"rng_nm":50,"alt_fmsl":1599,"id":"FTR","desc":"FRONTEIRA NDB"},
{"type":"NDB","hdg_t":228,"dist_nm":43.6,"freq":420,"lat":-20.81324700,"lon":-49.40601400,"rng_nm":100,"alt_fmsl":1782,"id":"JRP","desc":"RIO PRETO NDB"},
{"type":"NDB","hdg_t":55.8,"dist_nm":59.4,"freq":235,"lat":-19.76550000,"lon":-47.95916700,"rng_nm":50,"alt_fmsl":2649,"id":"URB","desc":"UBERABA NDB"},
{"type":"NDB","hdg_t":129.7,"dist_nm":76.7,"freq":330,"lat":-21.14266700,"lon":-47.77600000,"rng_nm":50,"alt_fmsl":1802,"id":"RPR","desc":"RIBEIRAO NDB"},
{"type":"NDB","hdg_t":100.9,"dist_nm":82.9,"freq":405,"lat":-20.58366700,"lon":-47.38250000,"rng_nm":50,"alt_fmsl":3292,"id":"FRC","desc":"FRANCA NDB"},
{"type":"NDB","hdg_t":21.6,"dist_nm":92.4,"freq":350,"lat":-18.88716700,"lon":-48.23000000,"rng_nm":50,"alt_fmsl":3094,"id":"ULD","desc":"UBERLANDIA NDB"},
{"type":"VOR","hdg_t":21.7,"dist_nm":93.2,"freq":116.1,"lat":-18.87661100,"lon":-48.22130000,"rng_nm":130,"alt_fmsl":3094,"id":"ULD","desc":"UBERLANDIA VOR-DME"},
{"type":"NDB","hdg_t":212.2,"dist_nm":94.7,"freq":400,"lat":-21.66350000,"lon":-49.73366700,"rng_nm":50,"alt_fmsl":1559,"id":"LNS","desc":"LINS NDB"},
{"type":"NDB","hdg_t":156.6,"dist_nm":96.9,"freq":205,"lat":-21.81300000,"lon":-48.13950000,"rng_nm":50,"alt_fmsl":2514,"id":"AAQ","desc":"ARARAQUARA NDB"}
]
}
