{"success":true,"source":"xp2csv.pl","last_updated":"2013/11/08 14:53:21 UTC"
,"icao":"SDIL","name":"Fazenda Pedra Branca","lat":-22.9034335,"lon":-44.288965,"rwys":1,"ils":0,"index":2216130,"path":"w050s30/w045s23"
,"runways":[
{"len_m":1074,"wid_m":17.98,"hdg":39,"surf":"Asphalt","rwy1":"06","lat1":-22.90716400,"lon1":-44.29231100,"rwy2":"24","lat2":-22.89970300,"lon2":-44.28561900}
]
,"navaids":[
{"type":"VOR","hdg_t":95.1,"dist_nm":31.2,"freq":113.6,"lat":-22.94962800,"lon":-43.72768100,"rng_nm":200,"alt_fmsl":5,"id":"SCR","desc":"SANTA CRUZ VOR-DME"},
{"type":"NDB","hdg_t":94.4,"dist_nm":31.7,"freq":255,"lat":-22.94383300,"lon":-43.71716700,"rng_nm":80,"alt_fmsl":10,"id":"SCR","desc":"SANTA CRUZ NDB"},
{"type":"NDB","hdg_t":82.3,"dist_nm":34.7,"freq":245,"lat":-22.82507200,"lon":-43.66743100,"rng_nm":15,"alt_fmsl":0,"id":"QQ","desc":"CRUZ NDB"},
{"type":"NDB","hdg_t":42.9,"dist_nm":36.5,"freq":355,"lat":-22.45509400,"lon":-43.84101700,"rng_nm":150,"alt_fmsl":318,"id":"PAI","desc":"PIRAI NDB"},
{"type":"VOR","hdg_t":42.8,"dist_nm":36.6,"freq":115,"lat":-22.45400000,"lon":-43.84050000,"rng_nm":200,"alt_fmsl":318,"id":"PAI","desc":"PIRAI VOR-DME"},
{"type":"NDB","hdg_t":76.2,"dist_nm":46.1,"freq":215,"lat":-22.71850000,"lon":-43.48050000,"rng_nm":50,"alt_fmsl":164,"id":"NOA","desc":"NOVA NDB"},
{"type":"NDB","hdg_t":87.7,"dist_nm":51.1,"freq":270,"lat":-22.86697200,"lon":-43.36686700,"rng_nm":50,"alt_fmsl":112,"id":"AFS","desc":"AFONSOS NDB"},
{"type":"NDB","hdg_t":95.8,"dist_nm":51.2,"freq":205,"lat":-22.98788600,"lon":-43.36891100,"rng_nm":50,"alt_fmsl":10,"id":"JPG","desc":"JACAREPAGUA NDB"},
{"type":"NDB","hdg_t":85.2,"dist_nm":51.5,"freq":290,"lat":-22.82950000,"lon":-43.36233300,"rng_nm":50,"alt_fmsl":0,"id":"IT","desc":"MERITI NDB"},
{"type":"NDB","hdg_t":277.4,"dist_nm":51.8,"freq":275,"lat":-22.78800000,"lon":-45.21533300,"rng_nm":50,"alt_fmsl":1761,"id":"GGT","desc":"GUARATINGUETA NDB"},
{"type":"NDB","hdg_t":81.1,"dist_nm":53.3,"freq":400,"lat":-22.76333300,"lon":-43.33750000,"rng_nm":200,"alt_fmsl":56,"id":"CAX","desc":"CAXIAS NDB"},
{"type":"VOR","hdg_t":82,"dist_nm":53.5,"freq":113,"lat":-22.77633300,"lon":-43.33316700,"rng_nm":200,"alt_fmsl":56,"id":"CAX","desc":"CAXIAS VOR-DME"},
{"type":"NDB","hdg_t":232.9,"dist_nm":54.2,"freq":295,"lat":-23.44916700,"lon":-45.07383300,"rng_nm":50,"alt_fmsl":13,"id":"UBT","desc":"UBATUBA NDB"},
{"type":"NDB","hdg_t":88.3,"dist_nm":62.2,"freq":415,"lat":-22.87016700,"lon":-43.16516700,"rng_nm":25,"alt_fmsl":0,"id":"PP","desc":"PAIOL NDB"},
{"type":"NDB","hdg_t":83.8,"dist_nm":62.5,"freq":330,"lat":-22.78700000,"lon":-43.16766700,"rng_nm":60,"alt_fmsl":402,"id":"YLA","desc":"ILHA NDB"},
{"type":"NDB","hdg_t":98.8,"dist_nm":63.9,"freq":315,"lat":-23.06385600,"lon":-43.14606400,"rng_nm":100,"alt_fmsl":0,"id":"IH","desc":"RASA NDB"},
{"type":"NDB","hdg_t":262.6,"dist_nm":68.5,"freq":430,"lat":-23.04566700,"lon":-45.51683300,"rng_nm":25,"alt_fmsl":1923,"id":"TBE","desc":"TAUBATE NDB"},
{"type":"VOR","hdg_t":93.1,"dist_nm":77.5,"freq":114,"lat":-22.96769400,"lon":-42.89130600,"rng_nm":200,"alt_fmsl":4,"id":"MRC","desc":"MARICA VOR-DME"},
{"type":"VOR","hdg_t":82.2,"dist_nm":80.1,"freq":114.6,"lat":-22.71533300,"lon":-42.85750000,"rng_nm":130,"alt_fmsl":201,"id":"PCX","desc":"PORTO VOR-DME"},
{"type":"NDB","hdg_t":36.7,"dist_nm":84.5,"freq":1730,"lat":-21.76783300,"lon":-43.38366700,"rng_nm":50,"alt_fmsl":0,"id":"FRA","desc":"FORA NDB"},
{"type":"VOR","hdg_t":256.3,"dist_nm":88.9,"freq":112.8,"lat":-23.24633300,"lon":-45.85416700,"rng_nm":200,"alt_fmsl":2120,"id":"SJC","desc":"SAO JOSE VOR-DME"},
{"type":"NDB","hdg_t":256.3,"dist_nm":89.5,"freq":230,"lat":-23.24972200,"lon":-45.86388900,"rng_nm":50,"alt_fmsl":0,"id":"SJC","desc":"SAO JOSE NDB"},
{"type":"NDB","hdg_t":257.8,"dist_nm":89.9,"freq":365,"lat":-23.21283300,"lon":-45.87950000,"rng_nm":25,"alt_fmsl":0,"id":"IJ","desc":"VILA NDB"},
{"type":"NDB","hdg_t":259.9,"dist_nm":92.2,"freq":230,"lat":-23.16450000,"lon":-45.93150000,"rng_nm":25,"alt_fmsl":0,"id":"IW","desc":"JAGUARI NDB"}
]
}
