{"success":true,"source":"xp2csv.pl","last_updated":"2013/11/08 14:53:21 UTC"
,"icao":"SDJA","name":"Dr Augusto De A Botelho","lat":-22.195164,"lon":-47.8624095,"rwys":1,"ils":0,"index":2167024,"path":"w050s30/w048s23"
,"runways":[
{"len_m":1198,"wid_m":21.34,"hdg":51,"surf":"Asphalt","rwy1":"07","lat1":-22.19852500,"lon1":-47.86696100,"rwy2":"25","lat2":-22.19180300,"lon2":-47.85785800}
]
,"navaids":[
{"type":"NDB","hdg_t":130.1,"dist_nm":21.8,"freq":280,"lat":-22.43016700,"lon":-47.56250000,"rng_nm":50,"alt_fmsl":0,"id":"RCL","desc":"RIO CLARO NDB"},
{"type":"NDB","hdg_t":325.8,"dist_nm":27.5,"freq":205,"lat":-21.81300000,"lon":-48.13950000,"rng_nm":50,"alt_fmsl":2514,"id":"AAQ","desc":"ARARAQUARA NDB"},
{"type":"NDB","hdg_t":75.3,"dist_nm":30,"freq":215,"lat":-22.06750000,"lon":-47.34066700,"rng_nm":50,"alt_fmsl":0,"id":"IY","desc":"PIRA NDB"},
{"type":"NDB","hdg_t":68.4,"dist_nm":31.2,"freq":345,"lat":-22.00246100,"lon":-47.34112500,"rng_nm":50,"alt_fmsl":0,"id":"IS","desc":"FONTE NDB"},
{"type":"VOR","hdg_t":66.5,"dist_nm":31.5,"freq":113.3,"lat":-21.98450000,"lon":-47.34416700,"rng_nm":200,"alt_fmsl":1968,"id":"PSN","desc":"PIRASSUNUNGA VOR-DME"},
{"type":"NDB","hdg_t":66.9,"dist_nm":31.8,"freq":310,"lat":-21.98600000,"lon":-47.33750000,"rng_nm":50,"alt_fmsl":1968,"id":"PSN","desc":"PIRASSUNUNGA NDB"},
{"type":"NDB","hdg_t":141.4,"dist_nm":58.4,"freq":370,"lat":-22.95750000,"lon":-47.20416700,"rng_nm":50,"alt_fmsl":0,"id":"IK","desc":"BENTO NDB"},
{"type":"NDB","hdg_t":140.6,"dist_nm":61.7,"freq":300,"lat":-22.99283300,"lon":-47.15516700,"rng_nm":50,"alt_fmsl":0,"id":"IP","desc":"JARDIM NDB"},
{"type":"NDB","hdg_t":4.4,"dist_nm":63.1,"freq":330,"lat":-21.14266700,"lon":-47.77600000,"rng_nm":50,"alt_fmsl":1802,"id":"RPR","desc":"RIBEIRAO NDB"},
{"type":"VOR","hdg_t":140.2,"dist_nm":63.4,"freq":112,"lat":-23.00871400,"lon":-47.12904400,"rng_nm":200,"alt_fmsl":2170,"id":"CPN","desc":"CAMPINAS VOR-DME"},
{"type":"NDB","hdg_t":139.5,"dist_nm":67.6,"freq":395,"lat":-23.05394700,"lon":-47.06959200,"rng_nm":50,"alt_fmsl":0,"id":"KP","desc":"GRAMA NDB"},
{"type":"NDB","hdg_t":263.9,"dist_nm":69.6,"freq":380,"lat":-22.31400000,"lon":-49.10716700,"rng_nm":50,"alt_fmsl":0,"id":"BRU","desc":"BAURU NDB"},
{"type":"NDB","hdg_t":73.6,"dist_nm":75.4,"freq":415,"lat":-21.83583300,"lon":-46.56566700,"rng_nm":150,"alt_fmsl":4135,"id":"PCL","desc":"POCOS NDB"},
{"type":"NDB","hdg_t":164.8,"dist_nm":79.8,"freq":350,"lat":-23.48316700,"lon":-47.48466700,"rng_nm":50,"alt_fmsl":2077,"id":"SCB","desc":"SOROCABA NDB"},
{"type":"VOR","hdg_t":161.2,"dist_nm":82.9,"freq":115.2,"lat":-23.50700000,"lon":-47.37816700,"rng_nm":200,"alt_fmsl":2018,"id":"SCB","desc":"SOROCABA VOR-DME"},
{"type":"VOR","hdg_t":122.4,"dist_nm":84.9,"freq":116.2,"lat":-22.95313600,"lon":-46.56811700,"rng_nm":200,"alt_fmsl":2737,"id":"BGC","desc":"BRAGANCA VOR-DME"},
{"type":"NDB","hdg_t":122.6,"dist_nm":86.4,"freq":385,"lat":-22.97079200,"lon":-46.54778900,"rng_nm":50,"alt_fmsl":2887,"id":"BGC","desc":"BRAGANCA NDB"},
{"type":"VOR","hdg_t":146.2,"dist_nm":93.1,"freq":114.3,"lat":-23.48750000,"lon":-46.92333300,"rng_nm":200,"alt_fmsl":2428,"id":"STN","desc":"SANTANA VOR-DME"},
{"type":"NDB","hdg_t":140.2,"dist_nm":95.5,"freq":220,"lat":-23.42058600,"lon":-46.75592200,"rng_nm":25,"alt_fmsl":0,"id":"PER","desc":"PERUS NDB"},
{"type":"NDB","hdg_t":147.7,"dist_nm":97,"freq":270,"lat":-23.56550000,"lon":-46.92266700,"rng_nm":25,"alt_fmsl":0,"id":"TPV","desc":"ITAPEVI NDB"}
]
}
