{"success":true,"source":"xp2csv.pl","last_updated":"2013/11/08 14:53:21 UTC"
,"icao":"SDNV","name":"Aldeia Nacepoti","lat":-9.50388889,"lon":-54.01194444,"rwys":1,"ils":0,"index":2053151,"path":"w060s10/w055s10"
,"runways":[
{"len_m":898,"wid_m":17.98,"hdg":11,"surf":"Turf/grass","rwy1":"03","lat1":-9.50786281,"lon1":-54.01278405,"rwy2":"21","lat2":-9.49991497,"lon2":-54.01110483}
]
,"navaids":[
{"type":"NDB","hdg_t":279.7,"dist_nm":57.4,"freq":215,"lat":-9.33956400,"lon":-54.96593600,"rng_nm":65,"alt_fmsl":1762,"id":"CXB","desc":"CACHIMBO NDB"},
{"type":"VOR","hdg_t":280,"dist_nm":57.5,"freq":115.1,"lat":-9.33514700,"lon":-54.96785000,"rng_nm":200,"alt_fmsl":1762,"id":"CXB","desc":"CACHIMBO VOR-DME"},
{"type":"NDB","hdg_t":259.7,"dist_nm":125.7,"freq":245,"lat":-9.87056400,"lon":-56.10146400,"rng_nm":100,"alt_fmsl":947,"id":"ATF","desc":"ALTA FLORESTA NDB"},
{"type":"VOR","hdg_t":259.8,"dist_nm":125.9,"freq":113.4,"lat":-9.86836400,"lon":-56.10492800,"rng_nm":200,"alt_fmsl":947,"id":"ATF","desc":"ALTA FLORESTA VOR-DME"},
{"type":"NDB","hdg_t":76.5,"dist_nm":288.1,"freq":230,"lat":-8.35366700,"lon":-49.29916700,"rng_nm":50,"alt_fmsl":854,"id":"ARG","desc":"ARAGUAIA NDB"},
{"type":"VOR","hdg_t":310.8,"dist_nm":296.9,"freq":112.2,"lat":-6.23566700,"lon":-57.77050000,"rng_nm":135,"alt_fmsl":323,"id":"JAC","desc":"JACAREACANGA VOR-DME"},
{"type":"NDB","hdg_t":310.7,"dist_nm":296.9,"freq":360,"lat":-6.23866700,"lon":-57.77400000,"rng_nm":75,"alt_fmsl":323,"id":"JAC","desc":"JACAREACANGA NDB"},
{"type":"VOR","hdg_t":50,"dist_nm":312.8,"freq":112.4,"lat":-6.11933300,"lon":-50.00216700,"rng_nm":200,"alt_fmsl":2038,"id":"CRJ","desc":"CARAJAS VOR-DME"},
{"type":"NDB","hdg_t":49.9,"dist_nm":313,"freq":1700,"lat":-6.11133300,"lon":-50.00400000,"rng_nm":130,"alt_fmsl":2038,"id":"CRJ","desc":"CARAJAS NDB"},
{"type":"NDB","hdg_t":339.1,"dist_nm":336,"freq":250,"lat":-4.24050000,"lon":-56.00466700,"rng_nm":50,"alt_fmsl":110,"id":"YUB","desc":"ITAITUBA NDB"}
]
}
