{"success":true,"source":"xp2csv.pl","last_updated":"2013/11/08 14:53:21 UTC"
,"icao":"SDRT","name":"Ponto Geral","lat":4.64805556,"lon":-60.78777778,"rwys":1,"ils":0,"index":1955753,"path":"w070n00/w061n04"
,"runways":[
{"len_m":870,"wid_m":20.12,"hdg":65,"surf":"Dirt","rwy1":"08","lat1":4.64641159,"lon1":-60.79134381,"rwy2":"26","lat2":4.64969952,"lon2":-60.78421175}
]
,"navaids":[
{"type":"VOR","hdg_t":280.5,"dist_nm":14.6,"freq":117.7,"lat":4.69277800,"lon":-61.02755600,"rng_nm":130,"alt_fmsl":618,"id":"LDP","desc":"LA DIVINA PASTORA VOR-DME"},
{"type":"NDB","hdg_t":281.6,"dist_nm":14.6,"freq":245,"lat":4.69750000,"lon":-61.02783300,"rng_nm":200,"alt_fmsl":0,"id":"LDP","desc":"LA DIVINA PASTORA NDB"},
{"type":"NDB","hdg_t":251.7,"dist_nm":59.9,"freq":318,"lat":4.33333300,"lon":-61.73805600,"rng_nm":50,"alt_fmsl":0,"id":"ICA","desc":"ICABARU NDB"},
{"type":"NDB","hdg_t":300.8,"dist_nm":68.2,"freq":272,"lat":5.23333300,"lon":-61.76666700,"rng_nm":50,"alt_fmsl":0,"id":"KEM","desc":"UONQUEN NDB"},
{"type":"NDB","hdg_t":7.8,"dist_nm":74.4,"freq":406,"lat":5.88333300,"lon":-60.61666700,"rng_nm":70,"alt_fmsl":0,"id":"KAM","desc":"KAMARANG NDB"},
{"type":"NDB","hdg_t":314.2,"dist_nm":80.4,"freq":398,"lat":5.58722222,"lon":-61.75200000,"rng_nm":50,"alt_fmsl":0,"id":"KAV","desc":"KAVANAYEN NDB"},
{"type":"NDB","hdg_t":329.2,"dist_nm":81.2,"freq":286,"lat":5.81666700,"lon":-61.48333300,"rng_nm":50,"alt_fmsl":0,"id":"LEA","desc":"LUEPA NDB"},
{"type":"VOR","hdg_t":176.7,"dist_nm":107.3,"freq":113.1,"lat":2.85216700,"lon":-60.68683300,"rng_nm":200,"alt_fmsl":274,"id":"BVI","desc":"BOA VISTA VOR-DME"},
{"type":"NDB","hdg_t":176.9,"dist_nm":108.1,"freq":405,"lat":2.83983300,"lon":-60.69200000,"rng_nm":200,"alt_fmsl":274,"id":"BVI","desc":"BOA VISTA NDB"},
{"type":"NDB","hdg_t":289.1,"dist_nm":125.3,"freq":220,"lat":5.33305600,"lon":-62.76700000,"rng_nm":20,"alt_fmsl":1214,"id":"URM","desc":"URIMAN NDB"}
]
}
