{"success":true,"source":"xp2csv.pl","last_updated":"2013/11/08 14:53:21 UTC"
,"icao":"SDTN","name":"Usina Acucareira Santo Antonio","lat":-21.12194444,"lon":-47.95222223,"rwys":1,"ils":0,"index":2167096,"path":"w050s30/w048s22"
,"runways":[
{"len_m":601,"wid_m":17.98,"hdg":89,"surf":"Dirt","rwy1":"11","lat1":-21.12195707,"lon1":-47.95511666,"rwy2":"29","lat2":-21.12193181,"lon2":-47.94932779}
]
,"navaids":[
{"type":"NDB","hdg_t":97.1,"dist_nm":9.9,"freq":330,"lat":-21.14266700,"lon":-47.77600000,"rng_nm":50,"alt_fmsl":1802,"id":"RPR","desc":"RIBEIRAO NDB"},
{"type":"NDB","hdg_t":194.2,"dist_nm":42.6,"freq":205,"lat":-21.81300000,"lon":-48.13950000,"rng_nm":50,"alt_fmsl":2514,"id":"AAQ","desc":"ARARAQUARA NDB"},
{"type":"NDB","hdg_t":44.9,"dist_nm":45.3,"freq":405,"lat":-20.58366700,"lon":-47.38250000,"rng_nm":50,"alt_fmsl":3292,"id":"FRC","desc":"FRANCA NDB"},
{"type":"NDB","hdg_t":311.5,"dist_nm":48.5,"freq":360,"lat":-20.58216700,"lon":-48.59666700,"rng_nm":50,"alt_fmsl":1898,"id":"BRT","desc":"BARRETOS NDB"},
{"type":"VOR","hdg_t":146.7,"dist_nm":61.7,"freq":113.3,"lat":-21.98450000,"lon":-47.34416700,"rng_nm":200,"alt_fmsl":1968,"id":"PSN","desc":"PIRASSUNUNGA VOR-DME"},
{"type":"NDB","hdg_t":146.4,"dist_nm":62,"freq":310,"lat":-21.98600000,"lon":-47.33750000,"rng_nm":50,"alt_fmsl":1968,"id":"PSN","desc":"PIRASSUNUNGA NDB"},
{"type":"NDB","hdg_t":147.1,"dist_nm":62.7,"freq":345,"lat":-22.00246100,"lon":-47.34112500,"rng_nm":50,"alt_fmsl":0,"id":"IS","desc":"FONTE NDB"},
{"type":"NDB","hdg_t":148.9,"dist_nm":66,"freq":215,"lat":-22.06750000,"lon":-47.34066700,"rng_nm":50,"alt_fmsl":0,"id":"IY","desc":"PIRA NDB"},
{"type":"NDB","hdg_t":359.7,"dist_nm":81,"freq":235,"lat":-19.76550000,"lon":-47.95916700,"rng_nm":50,"alt_fmsl":2649,"id":"URB","desc":"UBERABA NDB"},
{"type":"NDB","hdg_t":164.5,"dist_nm":81.1,"freq":280,"lat":-22.43016700,"lon":-47.56250000,"rng_nm":50,"alt_fmsl":0,"id":"RCL","desc":"RIO CLARO NDB"},
{"type":"NDB","hdg_t":282.4,"dist_nm":83.6,"freq":420,"lat":-20.81324700,"lon":-49.40601400,"rng_nm":100,"alt_fmsl":1782,"id":"JRP","desc":"RIO PRETO NDB"},
{"type":"NDB","hdg_t":305.7,"dist_nm":86,"freq":220,"lat":-20.27695300,"lon":-49.18959400,"rng_nm":50,"alt_fmsl":1599,"id":"FTR","desc":"FRONTEIRA NDB"},
{"type":"NDB","hdg_t":119,"dist_nm":88.5,"freq":415,"lat":-21.83583300,"lon":-46.56566700,"rng_nm":150,"alt_fmsl":4135,"id":"PCL","desc":"POCOS NDB"},
{"type":"NDB","hdg_t":74.8,"dist_nm":94,"freq":390,"lat":-20.70392500,"lon":-46.33785300,"rng_nm":50,"alt_fmsl":2413,"id":"FUR","desc":"FURNAS NDB"},
{"type":"NDB","hdg_t":221.9,"dist_nm":96.1,"freq":380,"lat":-22.31400000,"lon":-49.10716700,"rng_nm":50,"alt_fmsl":0,"id":"BRU","desc":"BAURU NDB"},
{"type":"VOR","hdg_t":30.5,"dist_nm":99.3,"freq":117,"lat":-19.68900000,"lon":-47.06050000,"rng_nm":200,"alt_fmsl":3989,"id":"ARX","desc":"ARAXA VOR-DME"}
]
}
