{"success":true,"source":"xp2csv.pl","last_updated":"2013/11/08 14:53:21 UTC"
,"icao":"SDUE","name":"Fazenda Figueira","lat":-21.51194444,"lon":-50.12111111,"rwys":1,"ils":0,"index":2117919,"path":"w060s30/w051s22"
,"runways":[
{"len_m":688,"wid_m":22.86,"hdg":351,"surf":"Turf/grass","rwy1":"01","lat1":-21.51501897,"lon1":-50.12062305,"rwy2":"19","lat2":-21.50886992,"lon2":-50.12159917}
]
,"navaids":[
{"type":"NDB","hdg_t":112.7,"dist_nm":23.4,"freq":400,"lat":-21.66350000,"lon":-49.73366700,"rng_nm":50,"alt_fmsl":1559,"id":"LNS","desc":"LINS NDB"},
{"type":"NDB","hdg_t":322.4,"dist_nm":28,"freq":265,"lat":-21.13933300,"lon":-50.42666700,"rng_nm":75,"alt_fmsl":1361,"id":"ARA","desc":"ARACATUBA NDB"},
{"type":"NDB","hdg_t":222.9,"dist_nm":31.2,"freq":345,"lat":-21.89383300,"lon":-50.50216700,"rng_nm":25,"alt_fmsl":1805,"id":"TUP","desc":"TUPA NDB"},
{"type":"NDB","hdg_t":165.3,"dist_nm":42.2,"freq":415,"lat":-22.19483300,"lon":-49.92933300,"rng_nm":54,"alt_fmsl":2122,"id":"MRA","desc":"MARILIA NDB"},
{"type":"NDB","hdg_t":43.9,"dist_nm":57.9,"freq":420,"lat":-20.81324700,"lon":-49.40601400,"rng_nm":100,"alt_fmsl":1782,"id":"JRP","desc":"RIO PRETO NDB"},
{"type":"NDB","hdg_t":195.2,"dist_nm":70.2,"freq":275,"lat":-22.64483300,"lon":-50.45300000,"rng_nm":25,"alt_fmsl":1850,"id":"ASS","desc":"ASSIS NDB"},
{"type":"NDB","hdg_t":130.4,"dist_nm":74.1,"freq":380,"lat":-22.31400000,"lon":-49.10716700,"rng_nm":50,"alt_fmsl":0,"id":"BRU","desc":"BAURU NDB"},
{"type":"NDB","hdg_t":239.9,"dist_nm":80.6,"freq":225,"lat":-22.18333300,"lon":-51.37516700,"rng_nm":50,"alt_fmsl":0,"id":"PRR","desc":"PRUDENTE NDB"},
{"type":"VOR","hdg_t":241.2,"dist_nm":82.8,"freq":113.5,"lat":-22.17305600,"lon":-51.42635300,"rng_nm":200,"alt_fmsl":1477,"id":"PRR","desc":"PRUDENTE VOR-DME"},
{"type":"NDB","hdg_t":172.4,"dist_nm":88.1,"freq":315,"lat":-22.97350000,"lon":-49.91233300,"rng_nm":50,"alt_fmsl":1531,"id":"ORH","desc":"OURINHOS NDB"},
{"type":"NDB","hdg_t":35.4,"dist_nm":90.4,"freq":220,"lat":-20.27695300,"lon":-49.18959400,"rng_nm":50,"alt_fmsl":1599,"id":"FTR","desc":"FRONTEIRA NDB"},
{"type":"VOR","hdg_t":298.3,"dist_nm":91.8,"freq":114.2,"lat":-20.77650000,"lon":-51.55883300,"rng_nm":200,"alt_fmsl":1169,"id":"URP","desc":"URUBUPUNGA VOR-DME"},
{"type":"NDB","hdg_t":298.3,"dist_nm":92.1,"freq":335,"lat":-20.77400000,"lon":-51.56400000,"rng_nm":70,"alt_fmsl":1169,"id":"URP","desc":"URUBUPUNGA NDB"}
]
}
