{"success":true,"source":"xp2csv.pl","last_updated":"2013/11/08 14:53:21 UTC"
,"icao":"SDVF","name":"Santo Antonio Do Pao","lat":4.58972222,"lon":-60.18138889,"rwys":1,"ils":0,"index":1955750,"path":"w070n00/w061n04"
,"runways":[
{"len_m":689,"wid_m":20.12,"hdg":104,"surf":"Dirt","rwy1":"12","lat1":4.59052235,"lon1":-60.18438967,"rwy2":"30","lat2":4.58892209,"lon2":-60.17838811}
]
,"navaids":[
{"type":"VOR","hdg_t":276.9,"dist_nm":51,"freq":117.7,"lat":4.69277800,"lon":-61.02755600,"rng_nm":130,"alt_fmsl":618,"id":"LDP","desc":"LA DIVINA PASTORA VOR-DME"},
{"type":"NDB","hdg_t":277.2,"dist_nm":51.1,"freq":245,"lat":4.69750000,"lon":-61.02783300,"rng_nm":200,"alt_fmsl":0,"id":"LDP","desc":"LA DIVINA PASTORA NDB"},
{"type":"NDB","hdg_t":341.3,"dist_nm":81.5,"freq":406,"lat":5.88333300,"lon":-60.61666700,"rng_nm":70,"alt_fmsl":0,"id":"KAM","desc":"KAMARANG NDB"},
{"type":"NDB","hdg_t":260.7,"dist_nm":94.5,"freq":318,"lat":4.33333300,"lon":-61.73805600,"rng_nm":50,"alt_fmsl":0,"id":"ICA","desc":"ICABARU NDB"},
{"type":"NDB","hdg_t":292.1,"dist_nm":102.4,"freq":272,"lat":5.23333300,"lon":-61.76666700,"rng_nm":50,"alt_fmsl":0,"id":"KEM","desc":"UONQUEN NDB"},
{"type":"NDB","hdg_t":313.2,"dist_nm":106.9,"freq":286,"lat":5.81666700,"lon":-61.48333300,"rng_nm":50,"alt_fmsl":0,"id":"LEA","desc":"LUEPA NDB"},
{"type":"VOR","hdg_t":196.3,"dist_nm":108,"freq":113.1,"lat":2.85216700,"lon":-60.68683300,"rng_nm":200,"alt_fmsl":274,"id":"BVI","desc":"BOA VISTA VOR-DME"},
{"type":"NDB","hdg_t":196.3,"dist_nm":108.8,"freq":405,"lat":2.83983300,"lon":-60.69200000,"rng_nm":200,"alt_fmsl":274,"id":"BVI","desc":"BOA VISTA NDB"},
{"type":"NDB","hdg_t":302.4,"dist_nm":111.3,"freq":398,"lat":5.58722222,"lon":-61.75200000,"rng_nm":50,"alt_fmsl":0,"id":"KAV","desc":"KAVANAYEN NDB"},
{"type":"NDB","hdg_t":71.8,"dist_nm":120.5,"freq":342,"lat":5.21632200,"lon":-58.26709900,"rng_nm":50,"alt_fmsl":0,"id":"KAI","desc":"KAIETEUR NDB"}
]
}
