{"success":true,"source":"xp2csv.pl","last_updated":"2013/11/08 14:53:21 UTC"
,"icao":"SDVS","name":"Fazenda Vassoural","lat":-21.07305556,"lon":-48.03222222,"rwys":1,"ils":0,"index":2150719,"path":"w050s30/w049s22"
,"runways":[
{"len_m":915,"wid_m":22.86,"hdg":151,"surf":"Dirt","rwy1":"17","lat1":-21.06943005,"lon1":-48.03433486,"rwy2":"35","lat2":-21.07668107,"lon2":-48.03010958}
]
,"navaids":[
{"type":"NDB","hdg_t":106.1,"dist_nm":14.9,"freq":330,"lat":-21.14266700,"lon":-47.77600000,"rng_nm":50,"alt_fmsl":1802,"id":"RPR","desc":"RIBEIRAO NDB"},
{"type":"NDB","hdg_t":312.6,"dist_nm":43.2,"freq":360,"lat":-20.58216700,"lon":-48.59666700,"rng_nm":50,"alt_fmsl":1898,"id":"BRT","desc":"BARRETOS NDB"},
{"type":"NDB","hdg_t":187.7,"dist_nm":44.6,"freq":205,"lat":-21.81300000,"lon":-48.13950000,"rng_nm":50,"alt_fmsl":2514,"id":"AAQ","desc":"ARARAQUARA NDB"},
{"type":"NDB","hdg_t":51.4,"dist_nm":46.7,"freq":405,"lat":-20.58366700,"lon":-47.38250000,"rng_nm":50,"alt_fmsl":3292,"id":"FRC","desc":"FRANCA NDB"},
{"type":"VOR","hdg_t":144.8,"dist_nm":66.7,"freq":113.3,"lat":-21.98450000,"lon":-47.34416700,"rng_nm":200,"alt_fmsl":1968,"id":"PSN","desc":"PIRASSUNUNGA VOR-DME"},
{"type":"NDB","hdg_t":144.6,"dist_nm":67,"freq":310,"lat":-21.98600000,"lon":-47.33750000,"rng_nm":50,"alt_fmsl":1968,"id":"PSN","desc":"PIRASSUNUNGA NDB"},
{"type":"NDB","hdg_t":145.2,"dist_nm":67.6,"freq":345,"lat":-22.00246100,"lon":-47.34112500,"rng_nm":50,"alt_fmsl":0,"id":"IS","desc":"FONTE NDB"},
{"type":"NDB","hdg_t":147,"dist_nm":70.9,"freq":215,"lat":-22.06750000,"lon":-47.34066700,"rng_nm":50,"alt_fmsl":0,"id":"IY","desc":"PIRA NDB"},
{"type":"NDB","hdg_t":3,"dist_nm":78.2,"freq":235,"lat":-19.76550000,"lon":-47.95916700,"rng_nm":50,"alt_fmsl":2649,"id":"URB","desc":"UBERABA NDB"},
{"type":"NDB","hdg_t":281.1,"dist_nm":78.7,"freq":420,"lat":-20.81324700,"lon":-49.40601400,"rng_nm":100,"alt_fmsl":1782,"id":"JRP","desc":"RIO PRETO NDB"},
{"type":"NDB","hdg_t":305.9,"dist_nm":80.6,"freq":220,"lat":-20.27695300,"lon":-49.18959400,"rng_nm":50,"alt_fmsl":1599,"id":"FTR","desc":"FRONTEIRA NDB"},
{"type":"NDB","hdg_t":162.1,"dist_nm":85.2,"freq":280,"lat":-22.43016700,"lon":-47.56250000,"rng_nm":50,"alt_fmsl":0,"id":"RCL","desc":"RIO CLARO NDB"},
{"type":"NDB","hdg_t":119.3,"dist_nm":93.8,"freq":415,"lat":-21.83583300,"lon":-46.56566700,"rng_nm":150,"alt_fmsl":4135,"id":"PCL","desc":"POCOS NDB"},
{"type":"NDB","hdg_t":218.7,"dist_nm":95.4,"freq":380,"lat":-22.31400000,"lon":-49.10716700,"rng_nm":50,"alt_fmsl":0,"id":"BRU","desc":"BAURU NDB"},
{"type":"NDB","hdg_t":77.2,"dist_nm":97.7,"freq":390,"lat":-20.70392500,"lon":-46.33785300,"rng_nm":50,"alt_fmsl":2413,"id":"FUR","desc":"FURNAS NDB"},
{"type":"VOR","hdg_t":33.6,"dist_nm":99.2,"freq":117,"lat":-19.68900000,"lon":-47.06050000,"rng_nm":200,"alt_fmsl":3989,"id":"ARX","desc":"ARAXA VOR-DME"}
]
}
