{"success":true,"source":"xp2csv.pl","last_updated":"2013/11/08 14:53:21 UTC"
,"icao":"SDXA","name":"Sawi","lat":4.21194445,"lon":-60.00444444,"rwys":1,"ils":0,"index":1955727,"path":"w070n00/w061n04"
,"runways":[
{"len_m":525,"wid_m":13.11,"hdg":34,"surf":"Dirt","rwy1":"05","lat1":4.20999526,"lon1":-60.00580168,"rwy2":"23","lat2":4.21389363,"lon2":-60.00308720}
]
,"navaids":[
{"type":"VOR","hdg_t":295.1,"dist_nm":67.7,"freq":117.7,"lat":4.69277800,"lon":-61.02755600,"rng_nm":130,"alt_fmsl":618,"id":"LDP","desc":"LA DIVINA PASTORA VOR-DME"},
{"type":"NDB","hdg_t":295.3,"dist_nm":67.8,"freq":245,"lat":4.69750000,"lon":-61.02783300,"rng_nm":200,"alt_fmsl":0,"id":"LDP","desc":"LA DIVINA PASTORA NDB"},
{"type":"VOR","hdg_t":206.7,"dist_nm":90.9,"freq":113.1,"lat":2.85216700,"lon":-60.68683300,"rng_nm":200,"alt_fmsl":274,"id":"BVI","desc":"BOA VISTA VOR-DME"},
{"type":"NDB","hdg_t":206.7,"dist_nm":91.7,"freq":405,"lat":2.83983300,"lon":-60.69200000,"rng_nm":200,"alt_fmsl":274,"id":"BVI","desc":"BOA VISTA NDB"},
{"type":"NDB","hdg_t":274,"dist_nm":104.1,"freq":318,"lat":4.33333300,"lon":-61.73805600,"rng_nm":50,"alt_fmsl":0,"id":"ICA","desc":"ICABARU NDB"},
{"type":"NDB","hdg_t":339.8,"dist_nm":106.3,"freq":406,"lat":5.88333300,"lon":-60.61666700,"rng_nm":70,"alt_fmsl":0,"id":"KAM","desc":"KAMARANG NDB"},
{"type":"NDB","hdg_t":59.9,"dist_nm":120.1,"freq":342,"lat":5.21632200,"lon":-58.26709900,"rng_nm":50,"alt_fmsl":0,"id":"KAI","desc":"KAIETEUR NDB"},
{"type":"NDB","hdg_t":300,"dist_nm":121.9,"freq":272,"lat":5.23333300,"lon":-61.76666700,"rng_nm":50,"alt_fmsl":0,"id":"KEM","desc":"UONQUEN NDB"},
{"type":"NDB","hdg_t":317.3,"dist_nm":130.4,"freq":286,"lat":5.81666700,"lon":-61.48333300,"rng_nm":50,"alt_fmsl":0,"id":"LEA","desc":"LUEPA NDB"},
{"type":"NDB","hdg_t":308.1,"dist_nm":133,"freq":398,"lat":5.58722222,"lon":-61.75200000,"rng_nm":50,"alt_fmsl":0,"id":"KAV","desc":"KAVANAYEN NDB"}
]
}
