{"success":true,"source":"xp2csv.pl","last_updated":"2013/11/08 14:53:21 UTC"
,"icao":"SERB","name":"Chimborazo","lat":-1.6534335,"lon":-78.6561415,"rwys":1,"ils":0,"index":1660434,"path":"w080s10/w079s02"
,"runways":[
{"len_m":1600,"wid_m":28.96,"hdg":55,"surf":"Asphalt","rwy1":"05","lat1":-1.65749200,"lon1":-78.66209700,"rwy2":"23","lat2":-1.64937500,"lon2":-78.65018600}
]
,"radios":[
{"type":"TWR","freq":122.9,"desc":"RIOBAMBA TWR"}
]
,"navaids":[
{"type":"NDB","hdg_t":170.4,"dist_nm":0.1,"freq":212,"lat":-1.65527800,"lon":-78.65583300,"rng_nm":50,"alt_fmsl":9151,"id":"RIO","desc":"RIOBAMBA NDB"},
{"type":"NDB","hdg_t":10.3,"dist_nm":26.7,"freq":360,"lat":-1.21323900,"lon":-78.57658600,"rng_nm":50,"alt_fmsl":8427,"id":"AMB","desc":"AMBATO NDB"},
{"type":"VOR","hdg_t":77.2,"dist_nm":37.6,"freq":113.1,"lat":-1.51388889,"lon":-78.04472222,"rng_nm":130,"alt_fmsl":3257,"id":"PAV","desc":"PASTAZA VOR-DME"},
{"type":"NDB","hdg_t":77.4,"dist_nm":37.7,"freq":340,"lat":-1.51622800,"lon":-78.04328300,"rng_nm":100,"alt_fmsl":3465,"id":"PTZ","desc":"PASTAZA NDB"},
{"type":"VOR","hdg_t":3,"dist_nm":43.6,"freq":117.1,"lat":-0.92419444,"lon":-78.61752778,"rng_nm":130,"alt_fmsl":9140,"id":"LTV","desc":"LATACUNGA VOR-DME"},
{"type":"VOR","hdg_t":137.7,"dist_nm":48.7,"freq":112.5,"lat":-2.25745600,"lon":-78.11012200,"rng_nm":130,"alt_fmsl":3625,"id":"MSV","desc":"MACAS VOR-DME"},
{"type":"NDB","hdg_t":140.3,"dist_nm":50.3,"freq":405,"lat":-2.30341667,"lon":-78.12083333,"rng_nm":50,"alt_fmsl":0,"id":"MAS","desc":"MACAS NDB"},
{"type":"NDB","hdg_t":51.2,"dist_nm":63.8,"freq":465,"lat":-0.98416700,"lon":-77.82833300,"rng_nm":300,"alt_fmsl":1708,"id":"TNA","desc":"TENA NDB"},
{"type":"VOR","hdg_t":192.5,"dist_nm":72.2,"freq":114.5,"lat":-2.83500000,"lon":-78.91683333,"rng_nm":130,"alt_fmsl":9039,"id":"CUV","desc":"CUENCA VOR-DME"},
{"type":"NDB","hdg_t":252.2,"dist_nm":72.7,"freq":365,"lat":-2.02500000,"lon":-79.80888900,"rng_nm":150,"alt_fmsl":0,"id":"PAL","desc":"PALMA NDB"},
{"type":"NDB","hdg_t":193.6,"dist_nm":74.2,"freq":221,"lat":-2.86238889,"lon":-78.94875000,"rng_nm":50,"alt_fmsl":0,"id":"CUR","desc":"CUENCA NDB"},
{"type":"VOR","hdg_t":248.6,"dist_nm":78,"freq":115.9,"lat":-2.12833333,"lon":-79.86694444,"rng_nm":130,"alt_fmsl":9,"id":"GYV","desc":"GUAYAQUIL VOR-DME"},
{"type":"NDB","hdg_t":248.5,"dist_nm":78.2,"freq":315,"lat":-2.13277800,"lon":-79.86888900,"rng_nm":25,"alt_fmsl":0,"id":"R","desc":"GUAYAQUIL NDB"},
{"type":"NDB","hdg_t":121.7,"dist_nm":81.3,"freq":210,"lat":-2.37019444,"lon":-77.50436111,"rng_nm":50,"alt_fmsl":0,"id":"TSH","desc":"TAISHA NDB"},
{"type":"VOR","hdg_t":7.2,"dist_nm":85.3,"freq":114.8,"lat":-0.23561111,"lon":-78.47783333,"rng_nm":130,"alt_fmsl":10033,"id":"QMS","desc":"MONJAS SUR VOR-DME"},
{"type":"NDB","hdg_t":6.7,"dist_nm":88.8,"freq":350,"lat":-0.17472200,"lon":-78.48305600,"rng_nm":25,"alt_fmsl":0,"id":"UIO","desc":"QUITO NDB"},
{"type":"NDB","hdg_t":247.5,"dist_nm":92.2,"freq":280,"lat":-2.24333300,"lon":-80.07555600,"rng_nm":75,"alt_fmsl":0,"id":"SOL","desc":"CHONGON NDB"},
{"type":"NDB","hdg_t":13,"dist_nm":96.2,"freq":290,"lat":-0.08333300,"lon":-78.29388900,"rng_nm":50,"alt_fmsl":0,"id":"ZUI","desc":"ASCAZUBI NDB"},
{"type":"VOR","hdg_t":5.1,"dist_nm":96.8,"freq":115.3,"lat":-0.03861111,"lon":-78.51133333,"rng_nm":130,"alt_fmsl":11778,"id":"QIT","desc":"CONDORCOCHA VOR-DME"}
]
}
