{"success":true,"source":"xp2csv.pl","last_updated":"2013/11/08 14:53:21 UTC"
,"icao":"SESC","name":"Sucua","lat":-2.470556,"lon":-78.1713867,"rwys":1,"ils":0,"index":1660390,"path":"w080s10/w079s03"
,"runways":[
{"len_m":995,"wid_m":14.33,"hdg":169,"surf":"Concrete","rwy1":"17","lat1":-2.46612585,"lon1":-78.17216858,"rwy2":"35","lat2":-2.47498615,"lon2":-78.17060482}
]
,"navaids":[
{"type":"NDB","hdg_t":16.9,"dist_nm":10.4,"freq":405,"lat":-2.30341667,"lon":-78.12083333,"rng_nm":50,"alt_fmsl":0,"id":"MAS","desc":"MACAS NDB"},
{"type":"VOR","hdg_t":16.1,"dist_nm":13.2,"freq":112.5,"lat":-2.25745600,"lon":-78.11012200,"rng_nm":130,"alt_fmsl":3625,"id":"MSV","desc":"MACAS VOR-DME"},
{"type":"NDB","hdg_t":81.5,"dist_nm":40.5,"freq":210,"lat":-2.37019444,"lon":-77.50436111,"rng_nm":50,"alt_fmsl":0,"id":"TSH","desc":"TAISHA NDB"},
{"type":"VOR","hdg_t":244,"dist_nm":49.7,"freq":114.5,"lat":-2.83500000,"lon":-78.91683333,"rng_nm":130,"alt_fmsl":9039,"id":"CUV","desc":"CUENCA VOR-DME"},
{"type":"NDB","hdg_t":243.3,"dist_nm":52.2,"freq":221,"lat":-2.86238889,"lon":-78.94875000,"rng_nm":50,"alt_fmsl":0,"id":"CUR","desc":"CUENCA NDB"},
{"type":"NDB","hdg_t":329.1,"dist_nm":56.7,"freq":212,"lat":-1.65527800,"lon":-78.65583300,"rng_nm":50,"alt_fmsl":9151,"id":"RIO","desc":"RIOBAMBA NDB"},
{"type":"NDB","hdg_t":7.6,"dist_nm":57.4,"freq":340,"lat":-1.51622800,"lon":-78.04328300,"rng_nm":100,"alt_fmsl":3465,"id":"PTZ","desc":"PASTAZA NDB"},
{"type":"VOR","hdg_t":7.5,"dist_nm":57.6,"freq":113.1,"lat":-1.51388889,"lon":-78.04472222,"rng_nm":130,"alt_fmsl":3257,"id":"PAV","desc":"PASTAZA VOR-DME"},
{"type":"NDB","hdg_t":201,"dist_nm":60.7,"freq":275,"lat":-3.42000000,"lon":-78.53555600,"rng_nm":50,"alt_fmsl":0,"id":"GLZ","desc":"GUALAQUIZA NDB"},
{"type":"NDB","hdg_t":71.7,"dist_nm":76,"freq":331,"lat":-2.07000000,"lon":-76.96888889,"rng_nm":50,"alt_fmsl":0,"id":"MTL","desc":"MONTALVO NDB"},
{"type":"NDB","hdg_t":342,"dist_nm":78.9,"freq":360,"lat":-1.21323900,"lon":-78.57658600,"rng_nm":50,"alt_fmsl":8427,"id":"AMB","desc":"AMBATO NDB"},
{"type":"NDB","hdg_t":13,"dist_nm":91.1,"freq":465,"lat":-0.98416700,"lon":-77.82833300,"rng_nm":300,"alt_fmsl":1708,"id":"TNA","desc":"TENA NDB"},
{"type":"VOR","hdg_t":343.8,"dist_nm":96.1,"freq":117.1,"lat":-0.92419444,"lon":-78.61752778,"rng_nm":130,"alt_fmsl":9140,"id":"LTV","desc":"LATACUNGA VOR-DME"}
]
}
