{"success":true,"source":"xp2csv.pl","last_updated":"2013/11/08 14:53:21 UTC"
,"icao":"SGPI","name":"Carlos Miguel Gimenez","lat":-26.8814665,"lon":-58.3180345,"rwys":1,"ils":0,"index":1986498,"path":"w060s30/w059s27"
,"runways":[
{"len_m":1506,"wid_m":18.90,"hdg":4,"surf":"Concrete","rwy1":"02","lat1":-26.88823900,"lon1":-58.31867500,"rwy2":"20","lat2":-26.87469400,"lon2":-58.31739400}
]
,"navaids":[
{"type":"NDB","hdg_t":6.3,"dist_nm":39,"freq":300,"lat":-26.23244400,"lon":-58.23838900,"rng_nm":50,"alt_fmsl":192,"id":"F","desc":"FORMOSA NDB"},
{"type":"VOR","hdg_t":7.1,"dist_nm":40.4,"freq":115.6,"lat":-26.21027800,"lon":-58.22472200,"rng_nm":179,"alt_fmsl":193,"id":"FSA","desc":"FORMOSA VOR-DME"},
{"type":"VOR","hdg_t":215.4,"dist_nm":40.8,"freq":115.4,"lat":-27.43722200,"lon":-58.76166700,"rng_nm":183,"alt_fmsl":203,"id":"CRR","desc":"CORRIENTES VOR-DME"},
{"type":"NDB","hdg_t":229.9,"dist_nm":50.6,"freq":262,"lat":-27.42427800,"lon":-59.04511100,"rng_nm":25,"alt_fmsl":174,"id":"N","desc":"RESISTENCIA NDB"},
{"type":"VOR","hdg_t":229.2,"dist_nm":52,"freq":115.1,"lat":-27.44694400,"lon":-59.05722200,"rng_nm":185,"alt_fmsl":194,"id":"SIS","desc":"RESISTENCIA VOR-DME"},
{"type":"NDB","hdg_t":228.9,"dist_nm":53.2,"freq":285,"lat":-27.46416700,"lon":-59.06972200,"rng_nm":50,"alt_fmsl":0,"id":"SIS","desc":"RESISTANCIA NDB"},
{"type":"NDB","hdg_t":24.1,"dist_nm":104.8,"freq":305,"lat":-25.28000000,"lon":-57.52833300,"rng_nm":25,"alt_fmsl":0,"id":"VB","desc":"ASUNCION NDB"},
{"type":"VOR","hdg_t":23.8,"dist_nm":106.9,"freq":115.9,"lat":-25.24416700,"lon":-57.52194400,"rng_nm":130,"alt_fmsl":256,"id":"VAS","desc":"ASUNCION VOR-DME"},
{"type":"NDB","hdg_t":24,"dist_nm":107.6,"freq":360,"lat":-25.23583300,"lon":-57.51305600,"rng_nm":300,"alt_fmsl":401,"id":"ASU","desc":"ASUNCION NDB"},
{"type":"NDB","hdg_t":23.7,"dist_nm":108.6,"freq":320,"lat":-25.21611100,"lon":-57.51333300,"rng_nm":25,"alt_fmsl":260,"id":"PS","desc":"ASUNCION NDB"}
]
}
