{"success":true,"source":"xp2csv.pl","last_updated":"2013/11/08 14:53:21 UTC"
,"icao":"SIAB","name":"Leda Mello Resende","lat":-21.371865,"lon":-45.494861,"rwys":1,"ils":0,"index":2199852,"path":"w050s30/w046s22"
,"runways":[
{"len_m":1151,"wid_m":20.12,"hdg":98,"surf":"Asphalt","rwy1":"12","lat1":-21.37111900,"lon1":-45.50035300,"rwy2":"30","lat2":-21.37261100,"lon2":-45.48936900}
]
,"navaids":[
{"type":"NDB","hdg_t":174.9,"dist_nm":12.9,"freq":325,"lat":-21.58816700,"lon":-45.47433300,"rng_nm":75,"alt_fmsl":3028,"id":"VGH","desc":"VARGINHA NDB"},
{"type":"NDB","hdg_t":310,"dist_nm":61.9,"freq":390,"lat":-20.70392500,"lon":-46.33785300,"rng_nm":50,"alt_fmsl":2413,"id":"FUR","desc":"FURNAS NDB"},
{"type":"NDB","hdg_t":244.9,"dist_nm":65.9,"freq":415,"lat":-21.83583300,"lon":-46.56566700,"rng_nm":150,"alt_fmsl":4135,"id":"PCL","desc":"POCOS NDB"},
{"type":"NDB","hdg_t":169.6,"dist_nm":86,"freq":275,"lat":-22.78800000,"lon":-45.21533300,"rng_nm":50,"alt_fmsl":1761,"id":"GGT","desc":"GUARATINGUETA NDB"},
{"type":"NDB","hdg_t":86.6,"dist_nm":97.1,"freq":285,"lat":-21.26700000,"lon":-43.76416700,"rng_nm":60,"alt_fmsl":3657,"id":"BBC","desc":"BARBACENA NDB"},
{"type":"NDB","hdg_t":180.6,"dist_nm":100,"freq":430,"lat":-23.04566700,"lon":-45.51683300,"rng_nm":25,"alt_fmsl":1923,"id":"TBE","desc":"TAUBATE NDB"},
{"type":"NDB","hdg_t":250,"dist_nm":109.3,"freq":310,"lat":-21.98600000,"lon":-47.33750000,"rng_nm":50,"alt_fmsl":1968,"id":"PSN","desc":"PIRASSUNUNGA NDB"},
{"type":"VOR","hdg_t":250.1,"dist_nm":109.6,"freq":113.3,"lat":-21.98450000,"lon":-47.34416700,"rng_nm":200,"alt_fmsl":1968,"id":"PSN","desc":"PIRASSUNUNGA VOR-DME"},
{"type":"NDB","hdg_t":249.5,"dist_nm":109.8,"freq":345,"lat":-22.00246100,"lon":-47.34112500,"rng_nm":50,"alt_fmsl":0,"id":"IS","desc":"FONTE NDB"},
{"type":"NDB","hdg_t":192.6,"dist_nm":109.9,"freq":230,"lat":-23.16450000,"lon":-45.93150000,"rng_nm":25,"alt_fmsl":0,"id":"IW","desc":"JAGUARI NDB"}
]
}
