{"success":true,"source":"xp2csv.pl","last_updated":"2013/11/08 14:53:21 UTC"
,"icao":"SIGL","name":"Fazenda Boa Sorte","lat":-21.91527778,"lon":-53.51749999,"rwys":1,"ils":0,"index":2068739,"path":"w060s30/w054s22"
,"runways":[
{"len_m":703,"wid_m":22.86,"hdg":104,"surf":"Turf/grass","rwy1":"12","lat1":-21.91450507,"lon1":-53.52079962,"rwy2":"30","lat2":-21.91605049,"lon2":-53.51420037}
]
,"navaids":[
{"type":"NDB","hdg_t":257.6,"dist_nm":80.4,"freq":285,"lat":-22.19733300,"lon":-54.92833300,"rng_nm":70,"alt_fmsl":1503,"id":"DOU","desc":"DOURA NDB"},
{"type":"NDB","hdg_t":351.3,"dist_nm":87.5,"freq":245,"lat":-20.46716700,"lon":-53.75050000,"rng_nm":70,"alt_fmsl":0,"id":"RIB","desc":"RIBAS NDB"},
{"type":"NDB","hdg_t":320.3,"dist_nm":107.1,"freq":270,"lat":-20.53066700,"lon":-54.73266700,"rng_nm":100,"alt_fmsl":0,"id":"CGR","desc":"CAMPO GRANDE NDB"},
{"type":"NDB","hdg_t":322.2,"dist_nm":107.7,"freq":395,"lat":-20.48586100,"lon":-54.68932800,"rng_nm":50,"alt_fmsl":0,"id":"IG","desc":"SOJA NDB"},
{"type":"VOR","hdg_t":323,"dist_nm":107.9,"freq":115.7,"lat":-20.46883300,"lon":-54.67033300,"rng_nm":200,"alt_fmsl":1833,"id":"CGR","desc":"CAMPO GRANDE VOR-DME"},
{"type":"NDB","hdg_t":325,"dist_nm":109.5,"freq":215,"lat":-20.40883300,"lon":-54.63033300,"rng_nm":50,"alt_fmsl":0,"id":"PP","desc":"MARACA NDB"},
{"type":"VOR","hdg_t":97.9,"dist_nm":117.5,"freq":113.5,"lat":-22.17305600,"lon":-51.42635300,"rng_nm":200,"alt_fmsl":1477,"id":"PRR","desc":"PRUDENTE VOR-DME"},
{"type":"NDB","hdg_t":98,"dist_nm":120.4,"freq":225,"lat":-22.18333300,"lon":-51.37516700,"rng_nm":50,"alt_fmsl":0,"id":"PRR","desc":"PRUDENTE NDB"},
{"type":"NDB","hdg_t":138.3,"dist_nm":125.4,"freq":320,"lat":-23.47583300,"lon":-52.00600000,"rng_nm":50,"alt_fmsl":1788,"id":"MRN","desc":"MARINGA NDB"},
{"type":"NDB","hdg_t":252.2,"dist_nm":127.6,"freq":340,"lat":-22.55016700,"lon":-55.70716700,"rng_nm":50,"alt_fmsl":2156,"id":"PTP","desc":"PONTA PORA NDB"}
]
}
