{"success":true,"source":"xp2csv.pl","last_updated":"2013/11/08 14:53:21 UTC"
,"icao":"SIKK","name":"Calciolandia","lat":-20.25055556,"lon":-45.64499999,"rwys":1,"ils":0,"index":2199914,"path":"w050s30/w046s21"
,"runways":[
{"len_m":897,"wid_m":17.98,"hdg":119,"surf":"Dirt","rwy1":"14","lat1":-20.24853069,"lon1":-45.64872159,"rwy2":"32","lat2":-20.25258043,"lon2":-45.64127840}
]
,"navaids":[
{"type":"NDB","hdg_t":235.1,"dist_nm":47.5,"freq":390,"lat":-20.70392500,"lon":-46.33785300,"rng_nm":50,"alt_fmsl":2413,"id":"FUR","desc":"FURNAS NDB"},
{"type":"NDB","hdg_t":173.1,"dist_nm":80.5,"freq":325,"lat":-21.58816700,"lon":-45.47433300,"rng_nm":75,"alt_fmsl":3028,"id":"VGH","desc":"VARGINHA NDB"},
{"type":"NDB","hdg_t":298.6,"dist_nm":85.2,"freq":210,"lat":-19.56100000,"lon":-46.96466700,"rng_nm":50,"alt_fmsl":3274,"id":"ARX","desc":"ARAXA NDB"},
{"type":"VOR","hdg_t":292.5,"dist_nm":86.7,"freq":117,"lat":-19.68900000,"lon":-47.06050000,"rng_nm":200,"alt_fmsl":3989,"id":"ARX","desc":"ARAXA VOR-DME"},
{"type":"VOR","hdg_t":75.3,"dist_nm":95.9,"freq":117.7,"lat":-19.83576900,"lon":-44.00356400,"rng_nm":200,"alt_fmsl":2889,"id":"BHZ","desc":"BELO HORIZONTE VOR-DME"},
{"type":"NDB","hdg_t":76.3,"dist_nm":98.3,"freq":520,"lat":-19.85333300,"lon":-43.95466700,"rng_nm":54,"alt_fmsl":2589,"id":"BHZ","desc":"BELO HORIZONTE NDB"},
{"type":"VOR","hdg_t":65.6,"dist_nm":99.2,"freq":114.4,"lat":-19.55816700,"lon":-44.04850000,"rng_nm":200,"alt_fmsl":2782,"id":"CNF","desc":"CONFINS VOR-DME"},
{"type":"NDB","hdg_t":65.8,"dist_nm":99.8,"freq":245,"lat":-19.55983300,"lon":-44.03683300,"rng_nm":50,"alt_fmsl":0,"id":"IC","desc":"MOCAMBO NDB"},
{"type":"NDB","hdg_t":258.2,"dist_nm":99.9,"freq":405,"lat":-20.58366700,"lon":-47.38250000,"rng_nm":50,"alt_fmsl":3292,"id":"FRC","desc":"FRANCA NDB"},
{"type":"NDB","hdg_t":68.2,"dist_nm":101.2,"freq":215,"lat":-19.61607200,"lon":-43.98503600,"rng_nm":50,"alt_fmsl":0,"id":"IF","desc":"FAZENDA NDB"}
]
}
