{"success":true,"source":"xp2csv.pl","last_updated":"2013/11/08 14:53:21 UTC"
,"icao":"SIMG","name":"Fazenda Seis Palmas","lat":-21.09944445,"lon":-57.71583333,"rwys":1,"ils":0,"index":2003258,"path":"w060s30/w058s22"
,"runways":[
{"len_m":1189,"wid_m":35.05,"hdg":356,"surf":"Turf/grass","rwy1":"01","lat1":-21.10480429,"lon1":-57.71545853,"rwy2":"19","lat2":-21.09408460,"lon2":-57.71620813}
]
,"navaids":[
{"type":"NDB","hdg_t":146.7,"dist_nm":109.4,"freq":397,"lat":-22.62583300,"lon":-56.63472200,"rng_nm":100,"alt_fmsl":0,"id":"STA","desc":"SANTA TERESA NDB"},
{"type":"NDB","hdg_t":1.3,"dist_nm":124.5,"freq":375,"lat":-19.01666700,"lon":-57.66333300,"rng_nm":10,"alt_fmsl":461,"id":"CUB","desc":"CORUMBA NDB"},
{"type":"NDB","hdg_t":357.3,"dist_nm":126.7,"freq":290,"lat":-18.98192500,"lon":-57.81837400,"rng_nm":100,"alt_fmsl":439,"id":"PSZ","desc":"PUERTO SUAREZ NDB"},
{"type":"NDB","hdg_t":131.6,"dist_nm":139.7,"freq":353,"lat":-22.64194400,"lon":-55.83333300,"rng_nm":25,"alt_fmsl":1873,"id":"PJC","desc":"PEDRO JUAN CABALLERO NDB"},
{"type":"NDB","hdg_t":173.5,"dist_nm":140.7,"freq":405,"lat":-23.43841900,"lon":-57.43059700,"rng_nm":65,"alt_fmsl":0,"id":"CON","desc":"CONCEPCION NDB"},
{"type":"NDB","hdg_t":128,"dist_nm":141.7,"freq":340,"lat":-22.55016700,"lon":-55.70716700,"rng_nm":50,"alt_fmsl":2156,"id":"PTP","desc":"PONTA PORA NDB"},
{"type":"NDB","hdg_t":239.4,"dist_nm":149.8,"freq":345,"lat":-22.35916700,"lon":-60.03500000,"rng_nm":100,"alt_fmsl":0,"id":"FIL","desc":"FILADELFIA NDB"},
{"type":"NDB","hdg_t":113.3,"dist_nm":169,"freq":285,"lat":-22.19733300,"lon":-54.92833300,"rng_nm":70,"alt_fmsl":1503,"id":"DOU","desc":"DOURA NDB"},
{"type":"NDB","hdg_t":79,"dist_nm":171,"freq":270,"lat":-20.53066700,"lon":-54.73266700,"rng_nm":100,"alt_fmsl":0,"id":"CGR","desc":"CAMPO GRANDE NDB"},
{"type":"NDB","hdg_t":250.3,"dist_nm":171.7,"freq":381,"lat":-22.04250000,"lon":-60.61694400,"rng_nm":300,"alt_fmsl":682,"id":"MCL","desc":"MARISCAL ESTIGARRIBIA NDB"}
]
}
