{"success":true,"source":"xp2csv.pl","last_updated":"2013/11/08 14:53:21 UTC"
,"icao":"SIML","name":"Codenorte","lat":-3.28555556,"lon":-49.20611111,"rwys":1,"ils":0,"index":2135470,"path":"w050s10/w050s04"
,"runways":[
{"len_m":651,"wid_m":17.98,"hdg":100,"surf":"Turf/grass","rwy1":"12","lat1":-3.28504329,"lon1":-49.20899572,"rwy2":"30","lat2":-3.28606783,"lon2":-49.20322650}
]
,"navaids":[
{"type":"NDB","hdg_t":225.5,"dist_nm":42.7,"freq":220,"lat":-3.78641400,"lon":-49.71436400,"rng_nm":200,"alt_fmsl":830,"id":"TUI","desc":"TUCURUI NDB"},
{"type":"VOR","hdg_t":225,"dist_nm":43.6,"freq":112.9,"lat":-3.80134200,"lon":-49.72132500,"rng_nm":130,"alt_fmsl":830,"id":"TUI","desc":"TUCURUI VOR-DME"},
{"type":"NDB","hdg_t":20.8,"dist_nm":120.7,"freq":395,"lat":-1.39444400,"lon":-48.49173100,"rng_nm":50,"alt_fmsl":0,"id":"IE","desc":"VALDE NDB"},
{"type":"NDB","hdg_t":21,"dist_nm":121.2,"freq":250,"lat":-1.38983300,"lon":-48.48116700,"rng_nm":50,"alt_fmsl":54,"id":"BEL","desc":"BELEM NDB"},
{"type":"VOR","hdg_t":21,"dist_nm":121.6,"freq":117.3,"lat":-1.38433300,"lon":-48.47850000,"rng_nm":200,"alt_fmsl":54,"id":"BEL","desc":"BELEM VOR-DME"},
{"type":"VOR","hdg_t":178,"dist_nm":124.4,"freq":113.7,"lat":-5.36816700,"lon":-49.13516700,"rng_nm":130,"alt_fmsl":357,"id":"MRB","desc":"MARABA VOR-DME"},
{"type":"NDB","hdg_t":178,"dist_nm":124.6,"freq":370,"lat":-5.37128900,"lon":-49.13466100,"rng_nm":130,"alt_fmsl":357,"id":"MRB","desc":"MARABA NDB"},
{"type":"VOR","hdg_t":141.8,"dist_nm":170.1,"freq":112.7,"lat":-5.52383300,"lon":-47.44983300,"rng_nm":200,"alt_fmsl":431,"id":"YTZ","desc":"IMPERATRIZ VOR-DME"},
{"type":"NDB","hdg_t":142,"dist_nm":170.3,"freq":390,"lat":-5.53450000,"lon":-47.45716700,"rng_nm":40,"alt_fmsl":431,"id":"YTZ","desc":"IMPERATRIZ NDB"},
{"type":"NDB","hdg_t":195.7,"dist_nm":175.3,"freq":1700,"lat":-6.11133300,"lon":-50.00400000,"rng_nm":130,"alt_fmsl":2038,"id":"CRJ","desc":"CARAJAS NDB"}
]
}
