{"success":true,"source":"xp2csv.pl","last_updated":"2013/11/08 14:53:21 UTC"
,"icao":"SIPJ","name":"Fazenda Marreco","lat":-18.10861111,"lon":-45.21555556,"rwys":1,"ils":0,"index":2200062,"path":"w050s20/w046s19"
,"runways":[
{"len_m":1009,"wid_m":35.05,"hdg":129,"surf":"Dirt","rwy1":"15","lat1":-18.10571431,"lon1":-45.21923674,"rwy2":"33","lat2":-18.11150791,"lon2":-45.21187438}
]
,"navaids":[
{"type":"VOR","hdg_t":247.6,"dist_nm":14.9,"freq":114.7,"lat":-18.20316700,"lon":-45.45700000,"rng_nm":200,"alt_fmsl":2835,"id":"TRM","desc":"TRES MARIAS VOR-DME"},
{"type":"NDB","hdg_t":245.1,"dist_nm":80.2,"freq":385,"lat":-18.66861100,"lon":-46.49333300,"rng_nm":50,"alt_fmsl":3274,"id":"PAT","desc":"PATOS DE MINAS NDB"},
{"type":"VOR","hdg_t":142.7,"dist_nm":109.1,"freq":114.4,"lat":-19.55816700,"lon":-44.04850000,"rng_nm":200,"alt_fmsl":2782,"id":"CNF","desc":"CONFINS VOR-DME"},
{"type":"NDB","hdg_t":142.4,"dist_nm":109.6,"freq":245,"lat":-19.55983300,"lon":-44.03683300,"rng_nm":50,"alt_fmsl":0,"id":"IC","desc":"MOCAMBO NDB"},
{"type":"NDB","hdg_t":298.1,"dist_nm":111.9,"freq":300,"lat":-17.21716700,"lon":-46.93383300,"rng_nm":65,"alt_fmsl":0,"id":"PKT","desc":"PARACATU NDB"},
{"type":"NDB","hdg_t":142.3,"dist_nm":114.1,"freq":215,"lat":-19.61607200,"lon":-43.98503600,"rng_nm":50,"alt_fmsl":0,"id":"IF","desc":"FAZENDA NDB"},
{"type":"NDB","hdg_t":43.8,"dist_nm":116,"freq":310,"lat":-16.70350000,"lon":-43.81916700,"rng_nm":50,"alt_fmsl":2191,"id":"MCL","desc":"MONTES CLAROS NDB"},
{"type":"NDB","hdg_t":141.2,"dist_nm":119.2,"freq":295,"lat":-19.65883300,"lon":-43.89700000,"rng_nm":50,"alt_fmsl":2747,"id":"LST","desc":"LAGOA SANTA NDB"},
{"type":"VOR","hdg_t":146.4,"dist_nm":124.1,"freq":117.7,"lat":-19.83576900,"lon":-44.00356400,"rng_nm":200,"alt_fmsl":2889,"id":"BHZ","desc":"BELO HORIZONTE VOR-DME"},
{"type":"NDB","hdg_t":145.6,"dist_nm":126.5,"freq":520,"lat":-19.85333300,"lon":-43.95466700,"rng_nm":54,"alt_fmsl":2589,"id":"BHZ","desc":"BELO HORIZONTE NDB"}
]
}
