{"success":true,"source":"xp2csv.pl","last_updated":"2013/11/08 14:53:21 UTC"
,"icao":"SIPY","name":"Ambrosio","lat":-1.98138888,"lon":-50.81138889,"rwys":1,"ils":0,"index":2119169,"path":"w060s10/w051s02"
,"runways":[
{"len_m":800,"wid_m":22.86,"hdg":60,"surf":"Gravel","rwy1":"08","lat1":-1.98315158,"lon1":-50.81452998,"rwy2":"26","lat2":-1.97962619,"lon2":-50.80824780}
]
,"navaids":[
{"type":"NDB","hdg_t":279.1,"dist_nm":86.5,"freq":285,"lat":-1.75033300,"lon":-52.23383300,"rng_nm":50,"alt_fmsl":53,"id":"MOZ","desc":"MOZ NDB"},
{"type":"VOR","hdg_t":228.6,"dist_nm":114.7,"freq":113.2,"lat":-3.24933300,"lon":-52.24766700,"rng_nm":200,"alt_fmsl":367,"id":"ATM","desc":"ALTAMIRA VOR"},
{"type":"NDB","hdg_t":228.5,"dist_nm":115.1,"freq":295,"lat":-3.25650000,"lon":-52.25083300,"rng_nm":120,"alt_fmsl":0,"id":"ATM","desc":"ALTAMIRA NDB"},
{"type":"NDB","hdg_t":352.7,"dist_nm":122,"freq":215,"lat":0.04650000,"lon":-51.06883300,"rng_nm":50,"alt_fmsl":56,"id":"MCP","desc":"MACAPA NDB"},
{"type":"VOR","hdg_t":352.6,"dist_nm":122.4,"freq":112,"lat":0.05216700,"lon":-51.07300000,"rng_nm":40,"alt_fmsl":56,"id":"MCP","desc":"MACAPA VOR-DME"},
{"type":"NDB","hdg_t":301.3,"dist_nm":126,"freq":305,"lat":-0.88333300,"lon":-52.60300000,"rng_nm":100,"alt_fmsl":677,"id":"MDD","desc":"DOURADO NDB"},
{"type":"NDB","hdg_t":148.5,"dist_nm":126.2,"freq":220,"lat":-3.78641400,"lon":-49.71436400,"rng_nm":200,"alt_fmsl":830,"id":"TUI","desc":"TUCURUI NDB"},
{"type":"VOR","hdg_t":148.9,"dist_nm":126.8,"freq":112.9,"lat":-3.80134200,"lon":-49.72132500,"rng_nm":130,"alt_fmsl":830,"id":"TUI","desc":"TUCURUI VOR-DME"},
{"type":"NDB","hdg_t":75.9,"dist_nm":143.7,"freq":395,"lat":-1.39444400,"lon":-48.49173100,"rng_nm":50,"alt_fmsl":0,"id":"IE","desc":"VALDE NDB"},
{"type":"NDB","hdg_t":75.8,"dist_nm":144.3,"freq":250,"lat":-1.38983300,"lon":-48.48116700,"rng_nm":50,"alt_fmsl":54,"id":"BEL","desc":"BELEM NDB"}
]
}
