{"success":true,"source":"xp2csv.pl","last_updated":"2013/11/08 14:53:21 UTC"
,"icao":"SIQR","name":"Fazenda Triangulo","lat":-13.58194445,"lon":-49.82055556,"rwys":1,"ils":0,"index":2134809,"path":"w050s20/w050s14"
,"runways":[
{"len_m":1089,"wid_m":18.90,"hdg":350,"surf":"Gravel","rwy1":"01","lat1":-13.58679437,"lon1":-49.81969777,"rwy2":"19","lat2":-13.57709452,"lon2":-49.82141335}
]
,"navaids":[
{"type":"NDB","hdg_t":88.8,"dist_nm":95,"freq":305,"lat":-13.54366700,"lon":-48.19483300,"rng_nm":54,"alt_fmsl":0,"id":"CNB","desc":"CANA BRAVA NDB"},
{"type":"NDB","hdg_t":160.7,"dist_nm":162.2,"freq":325,"lat":-16.14383300,"lon":-48.89383300,"rng_nm":25,"alt_fmsl":0,"id":"PP","desc":"POROROCA NDB"},
{"type":"VOR","hdg_t":163.3,"dist_nm":167.1,"freq":115.4,"lat":-16.26067200,"lon":-48.99201100,"rng_nm":200,"alt_fmsl":2960,"id":"ANP","desc":"ANAPOLIS VOR-DME"},
{"type":"NDB","hdg_t":164.5,"dist_nm":169.6,"freq":415,"lat":-16.31743900,"lon":-49.04026700,"rng_nm":50,"alt_fmsl":2960,"id":"ANP","desc":"ANAPOLIS NDB"},
{"type":"NDB","hdg_t":142.7,"dist_nm":172.1,"freq":340,"lat":-15.86966700,"lon":-48.02166700,"rng_nm":90,"alt_fmsl":0,"id":"BRS","desc":"BRASILIA NDB"},
{"type":"VOR","hdg_t":142.8,"dist_nm":172.3,"freq":115.9,"lat":-15.87375000,"lon":-48.02135600,"rng_nm":200,"alt_fmsl":3974,"id":"BRS","desc":"BRASILIA VOR-DME"},
{"type":"NDB","hdg_t":141.4,"dist_nm":174.8,"freq":280,"lat":-15.86416700,"lon":-47.93733300,"rng_nm":25,"alt_fmsl":0,"id":"IR","desc":"TREVO NDB"},
{"type":"VOR","hdg_t":141.4,"dist_nm":176,"freq":117.3,"lat":-15.87834400,"lon":-47.92175300,"rng_nm":25,"alt_fmsl":3479,"id":"XMA","desc":"GAMA VOR"},
{"type":"NDB","hdg_t":140.6,"dist_nm":176.6,"freq":240,"lat":-15.86083300,"lon":-47.88533300,"rng_nm":50,"alt_fmsl":3490,"id":"CH","desc":"COCHO NDB"},
{"type":"NDB","hdg_t":177.7,"dist_nm":179.2,"freq":230,"lat":-16.58048600,"lon":-49.69823100,"rng_nm":50,"alt_fmsl":0,"id":"SBG","desc":"SANTA BARBARA NDB"}
]
}
