{"success":true,"source":"xp2csv.pl","last_updated":"2013/11/08 14:53:21 UTC"
,"icao":"SITC","name":"Carmine Castaldo","lat":-11.30222222,"lon":-56.83666667,"rwys":1,"ils":0,"index":2020265,"path":"w060s20/w057s12"
,"runways":[
{"len_m":1000,"wid_m":24.08,"hdg":163,"surf":"Gravel","rwy1":"18","lat1":-11.29787912,"lon1":-56.83793668,"rwy2":"36","lat2":-11.30656532,"lon2":-56.83539666}
]
,"navaids":[
{"type":"NDB","hdg_t":27,"dist_nm":95.9,"freq":245,"lat":-9.87056400,"lon":-56.10146400,"rng_nm":100,"alt_fmsl":947,"id":"ATF","desc":"ALTA FLORESTA NDB"},
{"type":"VOR","hdg_t":26.8,"dist_nm":95.9,"freq":113.4,"lat":-9.86836400,"lon":-56.10492800,"rng_nm":200,"alt_fmsl":947,"id":"ATF","desc":"ALTA FLORESTA VOR-DME"},
{"type":"NDB","hdg_t":43.5,"dist_nm":161.1,"freq":215,"lat":-9.33956400,"lon":-54.96593600,"rng_nm":65,"alt_fmsl":1762,"id":"CXB","desc":"CACHIMBO NDB"},
{"type":"VOR","hdg_t":43.4,"dist_nm":161.2,"freq":115.1,"lat":-9.33514700,"lon":-54.96785000,"rng_nm":200,"alt_fmsl":1762,"id":"CXB","desc":"CACHIMBO VOR-DME"},
{"type":"NDB","hdg_t":200.9,"dist_nm":188.2,"freq":235,"lat":-14.24250000,"lon":-57.99083300,"rng_nm":30,"alt_fmsl":2188,"id":"YTN","desc":"ITAMARATI NORTE NDB"},
{"type":"NDB","hdg_t":185.7,"dist_nm":208.6,"freq":335,"lat":-14.77733300,"lon":-57.19350000,"rng_nm":30,"alt_fmsl":988,"id":"FGN","desc":"FAZENDA GUANABARA NDB"},
{"type":"VOR","hdg_t":246.2,"dist_nm":208.8,"freq":112.1,"lat":-12.69366700,"lon":-60.09533300,"rng_nm":200,"alt_fmsl":2036,"id":"VLH","desc":"VILHENA VOR-DME"},
{"type":"NDB","hdg_t":246.3,"dist_nm":209.1,"freq":395,"lat":-12.68950000,"lon":-60.10333300,"rng_nm":50,"alt_fmsl":2252,"id":"VLH","desc":"VILHENA NDB"},
{"type":"NDB","hdg_t":170.9,"dist_nm":263.3,"freq":380,"lat":-15.65500000,"lon":-56.12016700,"rng_nm":150,"alt_fmsl":614,"id":"CIA","desc":"CUIABA NDB"},
{"type":"VOR","hdg_t":170.8,"dist_nm":263.5,"freq":113.7,"lat":-15.65616700,"lon":-56.11200000,"rng_nm":200,"alt_fmsl":614,"id":"CIA","desc":"CUIABA VOR-DME"}
]
}
