{"success":true,"source":"xp2csv.pl","last_updated":"2013/11/08 14:53:21 UTC"
,"icao":"SIUG","name":"Fazenda Santa Irene","lat":-22.495,"lon":-51.90944444,"rwys":1,"ils":0,"index":2101472,"path":"w060s30/w052s23"
,"runways":[
{"len_m":751,"wid_m":29.87,"hdg":92,"surf":"Turf/grass","rwy1":"11","lat1":-22.49485532,"lon1":-51.91309429,"rwy2":"29","lat2":-22.49514468,"lon2":-51.90579459}
]
,"navaids":[
{"type":"VOR","hdg_t":54.4,"dist_nm":33,"freq":113.5,"lat":-22.17305600,"lon":-51.42635300,"rng_nm":200,"alt_fmsl":1477,"id":"PRR","desc":"PRUDENTE VOR-DME"},
{"type":"NDB","hdg_t":58,"dist_nm":35,"freq":225,"lat":-22.18333300,"lon":-51.37516700,"rng_nm":50,"alt_fmsl":0,"id":"PRR","desc":"PRUDENTE NDB"},
{"type":"NDB","hdg_t":185.1,"dist_nm":58.8,"freq":320,"lat":-23.47583300,"lon":-52.00600000,"rng_nm":50,"alt_fmsl":1788,"id":"MRN","desc":"MARINGA NDB"},
{"type":"NDB","hdg_t":139.9,"dist_nm":65.2,"freq":305,"lat":-23.32783300,"lon":-51.14950000,"rng_nm":15,"alt_fmsl":0,"id":"PP","desc":"GUARUJA NDB"},
{"type":"NDB","hdg_t":139.4,"dist_nm":65.6,"freq":365,"lat":-23.32766700,"lon":-51.13583300,"rng_nm":50,"alt_fmsl":1867,"id":"LON","desc":"LONDRINA NDB"},
{"type":"VOR","hdg_t":138.9,"dist_nm":67,"freq":112.4,"lat":-23.33951400,"lon":-51.11252500,"rng_nm":200,"alt_fmsl":1867,"id":"LON","desc":"LONDRINA VOR-DME"},
{"type":"NDB","hdg_t":96.6,"dist_nm":81.3,"freq":275,"lat":-22.64483300,"lon":-50.45300000,"rng_nm":25,"alt_fmsl":1850,"id":"ASS","desc":"ASSIS NDB"},
{"type":"NDB","hdg_t":65.6,"dist_nm":86.2,"freq":345,"lat":-21.89383300,"lon":-50.50216700,"rng_nm":25,"alt_fmsl":1805,"id":"TUP","desc":"TUPA NDB"},
{"type":"VOR","hdg_t":10.8,"dist_nm":104.5,"freq":114.2,"lat":-20.77650000,"lon":-51.55883300,"rng_nm":200,"alt_fmsl":1169,"id":"URP","desc":"URUBUPUNGA VOR-DME"},
{"type":"NDB","hdg_t":10.6,"dist_nm":104.6,"freq":335,"lat":-20.77400000,"lon":-51.56400000,"rng_nm":70,"alt_fmsl":1169,"id":"URP","desc":"URUBUPUNGA NDB"}
]
}
