{"success":true,"source":"xp2csv.pl","last_updated":"2013/11/08 14:53:21 UTC"
,"icao":"SIUL","name":"Agroserra","lat":-6.77555556,"lon":-45.89166667,"rwys":1,"ils":0,"index":2200776,"path":"w050s10/w046s07"
,"runways":[
{"len_m":1202,"wid_m":17.98,"hdg":78,"surf":"Gravel","rwy1":"10","lat1":-6.77661166,"lon1":-45.89700037,"rwy2":"28","lat2":-6.77449945,"lon2":-45.88633297}
]
,"navaids":[
{"type":"VOR","hdg_t":250.7,"dist_nm":98.7,"freq":115.3,"lat":-7.31873100,"lon":-47.45481900,"rng_nm":130,"alt_fmsl":565,"id":"CNA","desc":"CAROLINA VOR"},
{"type":"NDB","hdg_t":250.6,"dist_nm":99.1,"freq":330,"lat":-7.32300000,"lon":-47.46000000,"rng_nm":80,"alt_fmsl":565,"id":"CNA","desc":"CAROLINA NDB"},
{"type":"NDB","hdg_t":308.2,"dist_nm":119.3,"freq":390,"lat":-5.53450000,"lon":-47.45716700,"rng_nm":40,"alt_fmsl":431,"id":"YTZ","desc":"IMPERATRIZ NDB"},
{"type":"VOR","hdg_t":308.6,"dist_nm":119.4,"freq":112.7,"lat":-5.52383300,"lon":-47.44983300,"rng_nm":200,"alt_fmsl":431,"id":"YTZ","desc":"IMPERATRIZ VOR-DME"},
{"type":"NDB","hdg_t":90.2,"dist_nm":137.6,"freq":400,"lat":-6.78016700,"lon":-43.58516700,"rng_nm":50,"alt_fmsl":0,"id":"GDP","desc":"GUADALUPE NDB"},
{"type":"NDB","hdg_t":258.8,"dist_nm":142.6,"freq":205,"lat":-7.23350000,"lon":-48.23900000,"rng_nm":50,"alt_fmsl":771,"id":"AGI","desc":"ARAGUAINA NDB"},
{"type":"VOR","hdg_t":61,"dist_nm":209.8,"freq":112.3,"lat":-5.06617800,"lon":-42.82488600,"rng_nm":200,"alt_fmsl":219,"id":"TRS","desc":"TERESINA VOR-DME"},
{"type":"NDB","hdg_t":61.1,"dist_nm":210,"freq":215,"lat":-5.06733300,"lon":-42.81950000,"rng_nm":60,"alt_fmsl":219,"id":"TRS","desc":"TERESINA NDB"},
{"type":"NDB","hdg_t":293.2,"dist_nm":211.1,"freq":370,"lat":-5.37128900,"lon":-49.13466100,"rng_nm":130,"alt_fmsl":357,"id":"MRB","desc":"MARABA NDB"},
{"type":"VOR","hdg_t":293.2,"dist_nm":211.2,"freq":113.7,"lat":-5.36816700,"lon":-49.13516700,"rng_nm":130,"alt_fmsl":357,"id":"MRB","desc":"MARABA VOR-DME"}
]
}
