{"success":true,"source":"xp2csv.pl","last_updated":"2013/11/08 14:53:21 UTC"
,"icao":"SIVN","name":"Fazenda Sansara","lat":-16.6,"lon":-43.76666667,"rwys":1,"ils":0,"index":2232921,"path":"w050s20/w044s17"
,"runways":[
{"len_m":1159,"wid_m":29.87,"hdg":26,"surf":"Gravel","rwy1":"05","lat1":-16.60467732,"lon1":-43.76911503,"rwy2":"23","lat2":-16.59532268,"lon2":-43.76421831}
]
,"navaids":[
{"type":"NDB","hdg_t":206,"dist_nm":6.8,"freq":310,"lat":-16.70350000,"lon":-43.81916700,"rng_nm":50,"alt_fmsl":2191,"id":"MCL","desc":"MONTES CLAROS NDB"},
{"type":"VOR","hdg_t":225.1,"dist_nm":136.3,"freq":114.7,"lat":-18.20316700,"lon":-45.45700000,"rng_nm":200,"alt_fmsl":2835,"id":"TRM","desc":"TRES MARIAS VOR-DME"},
{"type":"NDB","hdg_t":143.7,"dist_nm":171,"freq":380,"lat":-18.89850000,"lon":-41.98766700,"rng_nm":50,"alt_fmsl":561,"id":"VAL","desc":"VALADARES NDB"},
{"type":"VOR","hdg_t":185.1,"dist_nm":177.5,"freq":114.4,"lat":-19.55816700,"lon":-44.04850000,"rng_nm":200,"alt_fmsl":2782,"id":"CNF","desc":"CONFINS VOR-DME"},
{"type":"NDB","hdg_t":184.9,"dist_nm":177.5,"freq":245,"lat":-19.55983300,"lon":-44.03683300,"rng_nm":50,"alt_fmsl":0,"id":"IC","desc":"MOCAMBO NDB"},
{"type":"NDB","hdg_t":183.9,"dist_nm":180.6,"freq":215,"lat":-19.61607200,"lon":-43.98503600,"rng_nm":50,"alt_fmsl":0,"id":"IF","desc":"FAZENDA NDB"},
{"type":"NDB","hdg_t":182.3,"dist_nm":182.9,"freq":295,"lat":-19.65883300,"lon":-43.89700000,"rng_nm":50,"alt_fmsl":2747,"id":"LST","desc":"LAGOA SANTA NDB"},
{"type":"NDB","hdg_t":258,"dist_nm":185.8,"freq":300,"lat":-17.21716700,"lon":-46.93383300,"rng_nm":65,"alt_fmsl":0,"id":"PKT","desc":"PARACATU NDB"},
{"type":"NDB","hdg_t":156.9,"dist_nm":186.2,"freq":1618,"lat":-19.46300000,"lon":-42.47950000,"rng_nm":25,"alt_fmsl":784,"id":"YPT","desc":"USIMINAS NDB"},
{"type":"VOR","hdg_t":183.9,"dist_nm":193.8,"freq":117.7,"lat":-19.83576900,"lon":-44.00356400,"rng_nm":200,"alt_fmsl":2889,"id":"BHZ","desc":"BELO HORIZONTE VOR-DME"}
]
}
