{"success":true,"source":"xp2csv.pl","last_updated":"2013/11/08 14:53:21 UTC"
,"icao":"SJAG","name":"Fazenda Paredao","lat":-13.62861111,"lon":-60.28833333,"rwys":1,"ils":0,"index":1954581,"path":"w070s20/w061s14"
,"runways":[
{"len_m":1201,"wid_m":60.05,"hdg":166,"surf":"Gravel","rwy1":"18","lat1":-13.62332735,"lon1":-60.28961454,"rwy2":"36","lat2":-13.63389487,"lon2":-60.28705212}
]
,"navaids":[
{"type":"VOR","hdg_t":11.4,"dist_nm":56.9,"freq":112.1,"lat":-12.69366700,"lon":-60.09533300,"rng_nm":200,"alt_fmsl":2036,"id":"VLH","desc":"VILHENA VOR-DME"},
{"type":"NDB","hdg_t":10.9,"dist_nm":57.1,"freq":395,"lat":-12.68950000,"lon":-60.10333300,"rng_nm":50,"alt_fmsl":2252,"id":"VLH","desc":"VILHENA NDB"},
{"type":"NDB","hdg_t":105.5,"dist_nm":138.9,"freq":235,"lat":-14.24250000,"lon":-57.99083300,"rng_nm":30,"alt_fmsl":2188,"id":"YTN","desc":"ITAMARATI NORTE NDB"},
{"type":"NDB","hdg_t":193.3,"dist_nm":169.1,"freq":250,"lat":-16.38300500,"lon":-60.96461700,"rng_nm":50,"alt_fmsl":0,"id":"SNG","desc":"SAN IGNACIO DE VELASCO NDB"},
{"type":"NDB","hdg_t":329.5,"dist_nm":189.4,"freq":255,"lat":-10.88800000,"lon":-61.91216700,"rng_nm":50,"alt_fmsl":0,"id":"RON","desc":"RONDONIA NDB"},
{"type":"NDB","hdg_t":111.2,"dist_nm":192.9,"freq":335,"lat":-14.77733300,"lon":-57.19350000,"rng_nm":30,"alt_fmsl":988,"id":"FGN","desc":"FAZENDA GUANABARA NDB"},
{"type":"NDB","hdg_t":145.9,"dist_nm":195.9,"freq":330,"lat":-16.33802300,"lon":-58.38699200,"rng_nm":50,"alt_fmsl":0,"id":"SMT","desc":"SAN MATIAS NDB"},
{"type":"NDB","hdg_t":231.2,"dist_nm":206.1,"freq":390,"lat":-15.77132100,"lon":-63.06637800,"rng_nm":80,"alt_fmsl":0,"id":"ASG","desc":"ASCENCION DE GUARAYOS NDB"},
{"type":"NDB","hdg_t":219.5,"dist_nm":210.1,"freq":1640,"lat":-16.33077000,"lon":-62.60580600,"rng_nm":50,"alt_fmsl":0,"id":"SJV","desc":"SAN JAVIER NDB"},
{"type":"NDB","hdg_t":275.2,"dist_nm":222.4,"freq":365,"lat":-13.26213900,"lon":-64.07501700,"rng_nm":100,"alt_fmsl":0,"id":"MGD","desc":"MAGDALENA NDB"}
]
}
