{"success":true,"source":"xp2csv.pl","last_updated":"2013/11/08 14:53:21 UTC"
,"icao":"SJAK","name":"Fazenda F5","lat":-18.3641665,"lon":-48.8719445,"rwys":1,"ils":0,"index":2150889,"path":"w050s20/w049s19"
,"runways":[
{"len_m":1200,"wid_m":17.98,"hdg":50,"surf":"Asphalt","rwy1":"07","lat1":-18.36761500,"lon1":-48.87632500,"rwy2":"25","lat2":-18.36071800,"lon2":-48.86756400}
]
,"navaids":[
{"type":"NDB","hdg_t":257,"dist_nm":20.3,"freq":245,"lat":-18.44025300,"lon":-49.21874700,"rng_nm":50,"alt_fmsl":1630,"id":"YBA","desc":"ITUMBIARA NDB"},
{"type":"VOR","hdg_t":129.6,"dist_nm":48,"freq":116.1,"lat":-18.87661100,"lon":-48.22130000,"rng_nm":130,"alt_fmsl":3094,"id":"ULD","desc":"UBERLANDIA VOR-DME"},
{"type":"NDB","hdg_t":130.6,"dist_nm":48.1,"freq":350,"lat":-18.88716700,"lon":-48.23000000,"rng_nm":50,"alt_fmsl":3094,"id":"ULD","desc":"UBERLANDIA NDB"},
{"type":"NDB","hdg_t":148.3,"dist_nm":98.5,"freq":235,"lat":-19.76550000,"lon":-47.95916700,"rng_nm":50,"alt_fmsl":2649,"id":"URB","desc":"UBERABA NDB"},
{"type":"NDB","hdg_t":348.8,"dist_nm":105.1,"freq":370,"lat":-16.63719700,"lon":-49.22439200,"rng_nm":75,"alt_fmsl":2450,"id":"GOI","desc":"GOIANIA NDB"},
{"type":"VOR","hdg_t":349.1,"dist_nm":105.3,"freq":112.7,"lat":-16.63243300,"lon":-49.21535600,"rng_nm":200,"alt_fmsl":2450,"id":"GOI","desc":"GOIANIA VOR-DME"},
{"type":"NDB","hdg_t":188.9,"dist_nm":115.7,"freq":220,"lat":-20.27695300,"lon":-49.18959400,"rng_nm":50,"alt_fmsl":1599,"id":"FTR","desc":"FRONTEIRA NDB"},
{"type":"NDB","hdg_t":335.9,"dist_nm":116.6,"freq":230,"lat":-16.58048600,"lon":-49.69823100,"rng_nm":50,"alt_fmsl":0,"id":"SBG","desc":"SANTA BARBARA NDB"},
{"type":"NDB","hdg_t":355.4,"dist_nm":122.6,"freq":415,"lat":-16.31743900,"lon":-49.04026700,"rng_nm":50,"alt_fmsl":2960,"id":"ANP","desc":"ANAPOLIS NDB"},
{"type":"VOR","hdg_t":356.8,"dist_nm":125.8,"freq":115.4,"lat":-16.26067200,"lon":-48.99201100,"rng_nm":200,"alt_fmsl":2960,"id":"ANP","desc":"ANAPOLIS VOR-DME"}
]
}
