{"success":true,"source":"xp2csv.pl","last_updated":"2013/11/08 14:53:21 UTC"
,"icao":"SJBK","name":"Iriri","lat":-5.67916667,"lon":-54.245,"rwys":1,"ils":0,"index":2053398,"path":"w060s10/w055s06"
,"runways":[
{"len_m":922,"wid_m":24.08,"hdg":131,"surf":"Dirt","rwy1":"15","lat1":-5.67637724,"lon1":-54.24809797,"rwy2":"33","lat2":-5.68195609,"lon2":-54.24190203}
]
,"navaids":[
{"type":"NDB","hdg_t":309.1,"dist_nm":135.9,"freq":250,"lat":-4.24050000,"lon":-56.00466700,"rng_nm":50,"alt_fmsl":110,"id":"YUB","desc":"ITAITUBA NDB"},
{"type":"NDB","hdg_t":39.6,"dist_nm":187.6,"freq":295,"lat":-3.25650000,"lon":-52.25083300,"rng_nm":120,"alt_fmsl":0,"id":"ATM","desc":"ALTAMIRA NDB"},
{"type":"VOR","hdg_t":39.6,"dist_nm":188,"freq":113.2,"lat":-3.24933300,"lon":-52.24766700,"rng_nm":200,"alt_fmsl":367,"id":"ATM","desc":"ALTAMIRA VOR"},
{"type":"NDB","hdg_t":350.3,"dist_nm":196.8,"freq":350,"lat":-2.42766700,"lon":-54.79166700,"rng_nm":40,"alt_fmsl":427,"id":"STM","desc":"SANTAREM NDB"},
{"type":"VOR","hdg_t":349.9,"dist_nm":197.2,"freq":112.3,"lat":-2.42650000,"lon":-54.81750000,"rng_nm":40,"alt_fmsl":198,"id":"STM","desc":"SANTAREM VOR-DME"},
{"type":"VOR","hdg_t":260.8,"dist_nm":213.3,"freq":112.2,"lat":-6.23566700,"lon":-57.77050000,"rng_nm":135,"alt_fmsl":323,"id":"JAC","desc":"JACAREACANGA VOR-DME"},
{"type":"NDB","hdg_t":260.8,"dist_nm":213.6,"freq":360,"lat":-6.23866700,"lon":-57.77400000,"rng_nm":75,"alt_fmsl":323,"id":"JAC","desc":"JACAREACANGA NDB"},
{"type":"VOR","hdg_t":191.1,"dist_nm":222.5,"freq":115.1,"lat":-9.33514700,"lon":-54.96785000,"rng_nm":200,"alt_fmsl":1762,"id":"CXB","desc":"CACHIMBO VOR-DME"},
{"type":"NDB","hdg_t":191,"dist_nm":222.7,"freq":215,"lat":-9.33956400,"lon":-54.96593600,"rng_nm":65,"alt_fmsl":1762,"id":"CXB","desc":"CACHIMBO NDB"},
{"type":"VOR","hdg_t":319.7,"dist_nm":235.1,"freq":114.1,"lat":-2.66728100,"lon":-56.77310800,"rng_nm":130,"alt_fmsl":87,"id":"PRI","desc":"PARINTINS VOR-DME"}
]
}
