{"success":true,"source":"xp2csv.pl","last_updated":"2013/11/08 14:53:21 UTC"
,"icao":"SJBX","name":"Severino Lopes","lat":-6.02,"lon":-35.23972222,"rwys":1,"ils":0,"index":2364670,"path":"w040s10/w036s07"
,"runways":[
{"len_m":801,"wid_m":20.12,"hdg":108,"surf":"Turf/grass","rwy1":"13","lat1":-6.01886847,"lon1":-35.24315974,"rwy2":"31","lat2":-6.02113153,"lon2":-35.23628470}
]
,"navaids":[
{"type":"VOR","hdg_t":355.4,"dist_nm":6.6,"freq":114.3,"lat":-5.90832200,"lon":-35.24858300,"rng_nm":200,"alt_fmsl":169,"id":"NTL","desc":"NATAL VOR-DME"},
{"type":"NDB","hdg_t":356.8,"dist_nm":7.1,"freq":400,"lat":-5.90000000,"lon":-35.24633300,"rng_nm":75,"alt_fmsl":169,"id":"NTL","desc":"NATAL NDB"},
{"type":"NDB","hdg_t":335.2,"dist_nm":41.6,"freq":205,"lat":-5.38616700,"lon":-35.53100000,"rng_nm":50,"alt_fmsl":302,"id":"MXN","desc":"MAXARANGUAPE NDB"},
{"type":"NDB","hdg_t":343.9,"dist_nm":53.3,"freq":305,"lat":-5.16116700,"lon":-35.48650000,"rng_nm":300,"alt_fmsl":0,"id":"DA","desc":"CALCANHAR NDB"},
{"type":"NDB","hdg_t":165.6,"dist_nm":69,"freq":320,"lat":-7.14050000,"lon":-34.95250000,"rng_nm":40,"alt_fmsl":215,"id":"JPS","desc":"JOAO PESSOA NDB"},
{"type":"NDB","hdg_t":207.6,"dist_nm":83.9,"freq":230,"lat":-7.26601400,"lon":-35.89267200,"rng_nm":60,"alt_fmsl":1777,"id":"CPG","desc":"CAMPINA GRANDE NDB"},
{"type":"NDB","hdg_t":314.6,"dist_nm":92.5,"freq":220,"lat":-4.92916700,"lon":-36.33972200,"rng_nm":25,"alt_fmsl":0,"id":"UBA","desc":"UBARANA NDB"},
{"type":"NDB","hdg_t":171.9,"dist_nm":121.7,"freq":380,"lat":-8.03850000,"lon":-34.95200000,"rng_nm":40,"alt_fmsl":0,"id":"OLD","desc":"OLINDA NDB"},
{"type":"NDB","hdg_t":181.3,"dist_nm":124.6,"freq":285,"lat":-8.10650000,"lon":-35.28733300,"rng_nm":100,"alt_fmsl":0,"id":"VSA","desc":"SANTO ANTAO NDB"},
{"type":"VOR","hdg_t":171.6,"dist_nm":127.7,"freq":116.9,"lat":-8.13658600,"lon":-34.92729700,"rng_nm":200,"alt_fmsl":33,"id":"REC","desc":"RECIFE VOR-DME"}
]
}
