{"success":true,"source":"xp2csv.pl","last_updated":"2013/11/08 14:53:21 UTC"
,"icao":"SJCF","name":"Fazenda Estrela D'alva","lat":-13.18916667,"lon":-52.30694443,"rwys":1,"ils":0,"index":2085685,"path":"w060s20/w053s14"
,"runways":[
{"len_m":1003,"wid_m":39.93,"hdg":60,"surf":"Dirt","rwy1":"08","lat1":-13.19138743,"lon1":-52.31098064,"rwy2":"26","lat2":-13.18694591,"lon2":-52.30290823}
]
,"navaids":[
{"type":"VOR","hdg_t":181.8,"dist_nm":159.2,"freq":113.3,"lat":-15.85350000,"lon":-52.39566700,"rng_nm":130,"alt_fmsl":1147,"id":"BAG","desc":"GARCAS VOR-DME"},
{"type":"NDB","hdg_t":181.7,"dist_nm":159.3,"freq":320,"lat":-15.85600000,"lon":-52.38933300,"rng_nm":75,"alt_fmsl":1147,"id":"BAG","desc":"GARCAS NDB"},
{"type":"NDB","hdg_t":95.5,"dist_nm":241.4,"freq":305,"lat":-13.54366700,"lon":-48.19483300,"rng_nm":54,"alt_fmsl":0,"id":"CNB","desc":"CANA BRAVA NDB"},
{"type":"NDB","hdg_t":143.5,"dist_nm":253,"freq":230,"lat":-16.58048600,"lon":-49.69823100,"rng_nm":50,"alt_fmsl":0,"id":"SBG","desc":"SANTA BARBARA NDB"},
{"type":"NDB","hdg_t":132,"dist_nm":265.6,"freq":325,"lat":-16.14383300,"lon":-48.89383300,"rng_nm":25,"alt_fmsl":0,"id":"PP","desc":"POROROCA NDB"},
{"type":"VOR","hdg_t":235.9,"dist_nm":266,"freq":113.7,"lat":-15.65616700,"lon":-56.11200000,"rng_nm":200,"alt_fmsl":614,"id":"CIA","desc":"CUIABA VOR-DME"},
{"type":"VOR","hdg_t":134,"dist_nm":266.1,"freq":115.4,"lat":-16.26067200,"lon":-48.99201100,"rng_nm":200,"alt_fmsl":2960,"id":"ANP","desc":"ANAPOLIS VOR-DME"},
{"type":"NDB","hdg_t":235.9,"dist_nm":266.4,"freq":380,"lat":-15.65500000,"lon":-56.12016700,"rng_nm":150,"alt_fmsl":614,"id":"CIA","desc":"CUIABA NDB"},
{"type":"NDB","hdg_t":134.9,"dist_nm":266.4,"freq":415,"lat":-16.31743900,"lon":-49.04026700,"rng_nm":50,"alt_fmsl":2960,"id":"ANP","desc":"ANAPOLIS NDB"},
{"type":"VOR","hdg_t":57.7,"dist_nm":272.8,"freq":113,"lat":-10.72070600,"lon":-48.40258600,"rng_nm":200,"alt_fmsl":870,"id":"PNC","desc":"PORTO NACIONAL VOR-DME"}
]
}
