{"success":true,"source":"xp2csv.pl","last_updated":"2013/11/08 14:53:21 UTC"
,"icao":"SJGB","name":"Fazenda Ponte De Pedra","lat":-13.58416667,"lon":-57.46305555,"rwys":1,"ils":0,"index":2003740,"path":"w060s20/w058s14"
,"runways":[
{"len_m":1205,"wid_m":20.12,"hdg":43,"surf":"Dirt","rwy1":"06","lat1":-13.58810448,"lon1":-57.46690771,"rwy2":"24","lat2":-13.58022885,"lon2":-57.45920340}
]
,"navaids":[
{"type":"NDB","hdg_t":218,"dist_nm":49.9,"freq":235,"lat":-14.24250000,"lon":-57.99083300,"rng_nm":30,"alt_fmsl":2188,"id":"YTN","desc":"ITAMARATI NORTE NDB"},
{"type":"NDB","hdg_t":167.6,"dist_nm":72.9,"freq":335,"lat":-14.77733300,"lon":-57.19350000,"rng_nm":30,"alt_fmsl":988,"id":"FGN","desc":"FAZENDA GUANABARA NDB"},
{"type":"NDB","hdg_t":147.8,"dist_nm":146.3,"freq":380,"lat":-15.65500000,"lon":-56.12016700,"rng_nm":150,"alt_fmsl":614,"id":"CIA","desc":"CUIABA NDB"},
{"type":"VOR","hdg_t":147.7,"dist_nm":146.6,"freq":113.7,"lat":-15.65616700,"lon":-56.11200000,"rng_nm":200,"alt_fmsl":614,"id":"CIA","desc":"CUIABA VOR-DME"},
{"type":"VOR","hdg_t":288.7,"dist_nm":163,"freq":112.1,"lat":-12.69366700,"lon":-60.09533300,"rng_nm":200,"alt_fmsl":2036,"id":"VLH","desc":"VILHENA VOR-DME"},
{"type":"NDB","hdg_t":288.7,"dist_nm":163.5,"freq":395,"lat":-12.68950000,"lon":-60.10333300,"rng_nm":50,"alt_fmsl":2252,"id":"VLH","desc":"VILHENA NDB"},
{"type":"NDB","hdg_t":197.9,"dist_nm":173,"freq":330,"lat":-16.33802300,"lon":-58.38699200,"rng_nm":50,"alt_fmsl":0,"id":"SMT","desc":"SAN MATIAS NDB"},
{"type":"NDB","hdg_t":20,"dist_nm":235.8,"freq":245,"lat":-9.87056400,"lon":-56.10146400,"rng_nm":100,"alt_fmsl":947,"id":"ATF","desc":"ALTA FLORESTA NDB"},
{"type":"VOR","hdg_t":19.9,"dist_nm":235.8,"freq":113.4,"lat":-9.86836400,"lon":-56.10492800,"rng_nm":200,"alt_fmsl":947,"id":"ATF","desc":"ALTA FLORESTA VOR-DME"},
{"type":"NDB","hdg_t":230.1,"dist_nm":263.2,"freq":250,"lat":-16.38300500,"lon":-60.96461700,"rng_nm":50,"alt_fmsl":0,"id":"SNG","desc":"SAN IGNACIO DE VELASCO NDB"}
]
}
