{"success":true,"source":"xp2csv.pl","last_updated":"2013/11/08 14:53:21 UTC"
,"icao":"SJHF","name":"Bunge","lat":-7.37222222,"lon":-44.39611111,"rwys":1,"ils":0,"index":2217132,"path":"w050s10/w045s08"
,"runways":[
{"len_m":1000,"wid_m":17.98,"hdg":48,"surf":"Gravel","rwy1":"07","lat1":-7.37522969,"lon1":-44.39949612,"rwy2":"25","lat2":-7.36921475,"lon2":-44.39272610}
]
,"navaids":[
{"type":"NDB","hdg_t":53.8,"dist_nm":59.9,"freq":400,"lat":-6.78016700,"lon":-43.58516700,"rng_nm":50,"alt_fmsl":0,"id":"GDP","desc":"GUADALUPE NDB"},
{"type":"VOR","hdg_t":34.3,"dist_nm":166.6,"freq":112.3,"lat":-5.06617800,"lon":-42.82488600,"rng_nm":200,"alt_fmsl":219,"id":"TRS","desc":"TERESINA VOR-DME"},
{"type":"NDB","hdg_t":34.4,"dist_nm":166.7,"freq":215,"lat":-5.06733300,"lon":-42.81950000,"rng_nm":60,"alt_fmsl":219,"id":"TRS","desc":"TERESINA NDB"},
{"type":"VOR","hdg_t":270.8,"dist_nm":182.3,"freq":115.3,"lat":-7.31873100,"lon":-47.45481900,"rng_nm":130,"alt_fmsl":565,"id":"CNA","desc":"CAROLINA VOR"},
{"type":"NDB","hdg_t":270.7,"dist_nm":182.6,"freq":330,"lat":-7.32300000,"lon":-47.46000000,"rng_nm":80,"alt_fmsl":565,"id":"CNA","desc":"CAROLINA NDB"},
{"type":"VOR","hdg_t":301,"dist_nm":213.1,"freq":112.7,"lat":-5.52383300,"lon":-47.44983300,"rng_nm":200,"alt_fmsl":431,"id":"YTZ","desc":"IMPERATRIZ VOR-DME"},
{"type":"NDB","hdg_t":300.7,"dist_nm":213.2,"freq":390,"lat":-5.53450000,"lon":-47.45716700,"rng_nm":40,"alt_fmsl":431,"id":"YTZ","desc":"IMPERATRIZ NDB"},
{"type":"NDB","hdg_t":271.8,"dist_nm":229.2,"freq":205,"lat":-7.23350000,"lon":-48.23900000,"rng_nm":50,"alt_fmsl":771,"id":"AGI","desc":"ARAGUAINA NDB"},
{"type":"NDB","hdg_t":117.8,"dist_nm":256.9,"freq":345,"lat":-9.36766700,"lon":-40.56750000,"rng_nm":27,"alt_fmsl":1396,"id":"PTL","desc":"PETROLINA NDB"},
{"type":"VOR","hdg_t":117.8,"dist_nm":257.1,"freq":112.1,"lat":-9.36316700,"lon":-40.56133300,"rng_nm":200,"alt_fmsl":1263,"id":"PTL","desc":"PETROLINA VOR-DME"}
]
}
