{"success":true,"source":"xp2csv.pl","last_updated":"2013/11/08 14:53:21 UTC"
,"icao":"SJHP","name":"Monte Belo","lat":-20.27638889,"lon":-53.66166667,"rwys":1,"ils":0,"index":2068842,"path":"w060s30/w054s21"
,"runways":[
{"len_m":790,"wid_m":29.87,"hdg":21,"surf":"Turf/grass","rwy1":"04","lat1":-20.27970495,"lon1":-53.66306879,"rwy2":"22","lat2":-20.27307283,"lon2":-53.66026455}
]
,"navaids":[
{"type":"NDB","hdg_t":203.6,"dist_nm":12.4,"freq":245,"lat":-20.46716700,"lon":-53.75050000,"rng_nm":70,"alt_fmsl":0,"id":"RIB","desc":"RIBAS NDB"},
{"type":"NDB","hdg_t":261.5,"dist_nm":55.1,"freq":215,"lat":-20.40883300,"lon":-54.63033300,"rng_nm":50,"alt_fmsl":0,"id":"PP","desc":"MARACA NDB"},
{"type":"VOR","hdg_t":258.3,"dist_nm":58,"freq":115.7,"lat":-20.46883300,"lon":-54.67033300,"rng_nm":200,"alt_fmsl":1833,"id":"CGR","desc":"CAMPO GRANDE VOR-DME"},
{"type":"NDB","hdg_t":257.6,"dist_nm":59.2,"freq":395,"lat":-20.48586100,"lon":-54.68932800,"rng_nm":50,"alt_fmsl":0,"id":"IG","desc":"SOJA NDB"},
{"type":"NDB","hdg_t":255.6,"dist_nm":62.2,"freq":270,"lat":-20.53066700,"lon":-54.73266700,"rng_nm":100,"alt_fmsl":0,"id":"CGR","desc":"CAMPO GRANDE NDB"},
{"type":"NDB","hdg_t":104.5,"dist_nm":121.8,"freq":335,"lat":-20.77400000,"lon":-51.56400000,"rng_nm":70,"alt_fmsl":1169,"id":"URP","desc":"URUBUPUNGA NDB"},
{"type":"VOR","hdg_t":104.5,"dist_nm":122.1,"freq":114.2,"lat":-20.77650000,"lon":-51.55883300,"rng_nm":200,"alt_fmsl":1169,"id":"URP","desc":"URUBUPUNGA VOR-DME"},
{"type":"NDB","hdg_t":329.5,"dist_nm":122.6,"freq":205,"lat":-18.50383300,"lon":-54.75050000,"rng_nm":50,"alt_fmsl":0,"id":"CXM","desc":"COXIM NDB"},
{"type":"NDB","hdg_t":211.4,"dist_nm":135,"freq":285,"lat":-22.19733300,"lon":-54.92833300,"rng_nm":70,"alt_fmsl":1503,"id":"DOU","desc":"DOURA NDB"},
{"type":"VOR","hdg_t":132.5,"dist_nm":168.9,"freq":113.5,"lat":-22.17305600,"lon":-51.42635300,"rng_nm":200,"alt_fmsl":1477,"id":"PRR","desc":"PRUDENTE VOR-DME"}
]
}
