{"success":true,"source":"xp2csv.pl","last_updated":"2013/11/08 14:53:21 UTC"
,"icao":"SJIY","name":"Sao Leopoldo","lat":-4.97916667,"lon":-56.92722222,"rwys":1,"ils":0,"index":2020672,"path":"w060s10/w057s05"
,"runways":[
{"len_m":1142,"wid_m":20.12,"hdg":43,"surf":"Gravel","rwy1":"06","lat1":-4.98291353,"lon1":-56.93076545,"rwy2":"24","lat2":-4.97541980,"lon2":-56.92367899}
]
,"navaids":[
{"type":"NDB","hdg_t":51.4,"dist_nm":70.7,"freq":250,"lat":-4.24050000,"lon":-56.00466700,"rng_nm":50,"alt_fmsl":110,"id":"YUB","desc":"ITAITUBA NDB"},
{"type":"VOR","hdg_t":213.8,"dist_nm":90.4,"freq":112.2,"lat":-6.23566700,"lon":-57.77050000,"rng_nm":135,"alt_fmsl":323,"id":"JAC","desc":"JACAREACANGA VOR-DME"},
{"type":"NDB","hdg_t":213.9,"dist_nm":90.6,"freq":360,"lat":-6.23866700,"lon":-57.77400000,"rng_nm":75,"alt_fmsl":323,"id":"JAC","desc":"JACAREACANGA NDB"},
{"type":"VOR","hdg_t":3.8,"dist_nm":138.3,"freq":114.1,"lat":-2.66728100,"lon":-56.77310800,"rng_nm":130,"alt_fmsl":87,"id":"PRI","desc":"PARINTINS VOR-DME"},
{"type":"NDB","hdg_t":319.9,"dist_nm":144.9,"freq":320,"lat":-3.11932500,"lon":-58.48089700,"rng_nm":75,"alt_fmsl":142,"id":"YTC","desc":"ITACOATIARA NDB"},
{"type":"VOR","hdg_t":39.7,"dist_nm":198,"freq":112.3,"lat":-2.42650000,"lon":-54.81750000,"rng_nm":40,"alt_fmsl":198,"id":"STM","desc":"SANTAREM VOR-DME"},
{"type":"NDB","hdg_t":40.1,"dist_nm":199,"freq":350,"lat":-2.42766700,"lon":-54.79166700,"rng_nm":40,"alt_fmsl":427,"id":"STM","desc":"SANTAREM NDB"},
{"type":"NDB","hdg_t":8.6,"dist_nm":210.9,"freq":205,"lat":-1.48633300,"lon":-56.39783300,"rng_nm":100,"alt_fmsl":287,"id":"PTT","desc":"TROMBETAS NDB"},
{"type":"NDB","hdg_t":300.6,"dist_nm":214,"freq":410,"lat":-3.14280800,"lon":-59.99360300,"rng_nm":70,"alt_fmsl":474,"id":"PEL","desc":"PELADA NDB"},
{"type":"NDB","hdg_t":301.5,"dist_nm":220.1,"freq":340,"lat":-3.04183300,"lon":-60.05200000,"rng_nm":50,"alt_fmsl":0,"id":"MAN","desc":"MANAUS NDB"}
]
}
