{"success":true,"source":"xp2csv.pl","last_updated":"2013/11/08 14:53:21 UTC"
,"icao":"SJJA","name":"Fazenda Jamanxin","lat":-8.375,"lon":-55.30611111,"rwys":1,"ils":0,"index":2036845,"path":"w060s10/w056s09"
,"runways":[
{"len_m":801,"wid_m":20.12,"hdg":72,"surf":"Dirt","rwy1":"09","lat1":-8.37608762,"lon1":-55.30958171,"rwy2":"27","lat2":-8.37391238,"lon2":-55.30264051}
]
,"navaids":[
{"type":"VOR","hdg_t":160.7,"dist_nm":60.7,"freq":115.1,"lat":-9.33514700,"lon":-54.96785000,"rng_nm":200,"alt_fmsl":1762,"id":"CXB","desc":"CACHIMBO VOR-DME"},
{"type":"NDB","hdg_t":160.6,"dist_nm":61,"freq":215,"lat":-9.33956400,"lon":-54.96593600,"rng_nm":65,"alt_fmsl":1762,"id":"CXB","desc":"CACHIMBO NDB"},
{"type":"VOR","hdg_t":207.9,"dist_nm":101,"freq":113.4,"lat":-9.86836400,"lon":-56.10492800,"rng_nm":200,"alt_fmsl":947,"id":"ATF","desc":"ALTA FLORESTA VOR-DME"},
{"type":"NDB","hdg_t":207.7,"dist_nm":101,"freq":245,"lat":-9.87056400,"lon":-56.10146400,"rng_nm":100,"alt_fmsl":947,"id":"ATF","desc":"ALTA FLORESTA NDB"},
{"type":"VOR","hdg_t":310.8,"dist_nm":194.6,"freq":112.2,"lat":-6.23566700,"lon":-57.77050000,"rng_nm":135,"alt_fmsl":323,"id":"JAC","desc":"JACAREACANGA VOR-DME"},
{"type":"NDB","hdg_t":310.7,"dist_nm":194.7,"freq":360,"lat":-6.23866700,"lon":-57.77400000,"rng_nm":75,"alt_fmsl":323,"id":"JAC","desc":"JACAREACANGA NDB"},
{"type":"NDB","hdg_t":350.3,"dist_nm":250.3,"freq":250,"lat":-4.24050000,"lon":-56.00466700,"rng_nm":50,"alt_fmsl":110,"id":"YUB","desc":"ITAITUBA NDB"},
{"type":"VOR","hdg_t":67.2,"dist_nm":343.7,"freq":112.4,"lat":-6.11933300,"lon":-50.00216700,"rng_nm":200,"alt_fmsl":2038,"id":"CRJ","desc":"CARAJAS VOR-DME"},
{"type":"NDB","hdg_t":67.2,"dist_nm":343.8,"freq":1700,"lat":-6.11133300,"lon":-50.00400000,"rng_nm":130,"alt_fmsl":2038,"id":"CRJ","desc":"CARAJAS NDB"},
{"type":"VOR","hdg_t":345.4,"dist_nm":351.9,"freq":114.1,"lat":-2.66728100,"lon":-56.77310800,"rng_nm":130,"alt_fmsl":87,"id":"PRI","desc":"PARINTINS VOR-DME"}
]
}
