{"success":true,"source":"xp2csv.pl","last_updated":"2013/11/08 14:53:21 UTC"
,"icao":"SJKC","name":"Fazenda Costa Norte Ii","lat":-9.29138889,"lon":-58.03305556,"rwys":1,"ils":0,"index":1987631,"path":"w060s10/w059s10"
,"runways":[
{"len_m":1001,"wid_m":35.05,"hdg":134,"surf":"Dirt","rwy1":"15","lat1":-9.28821724,"lon1":-58.03630794,"rwy2":"33","lat2":-9.29456054,"lon2":-58.02980318}
]
,"navaids":[
{"type":"VOR","hdg_t":106.9,"dist_nm":119.3,"freq":113.4,"lat":-9.86836400,"lon":-56.10492800,"rng_nm":200,"alt_fmsl":947,"id":"ATF","desc":"ALTA FLORESTA VOR-DME"},
{"type":"NDB","hdg_t":106.9,"dist_nm":119.6,"freq":245,"lat":-9.87056400,"lon":-56.10146400,"rng_nm":100,"alt_fmsl":947,"id":"ATF","desc":"ALTA FLORESTA NDB"},
{"type":"VOR","hdg_t":91,"dist_nm":181.8,"freq":115.1,"lat":-9.33514700,"lon":-54.96785000,"rng_nm":200,"alt_fmsl":1762,"id":"CXB","desc":"CACHIMBO VOR-DME"},
{"type":"NDB","hdg_t":91.1,"dist_nm":181.9,"freq":215,"lat":-9.33956400,"lon":-54.96593600,"rng_nm":65,"alt_fmsl":1762,"id":"CXB","desc":"CACHIMBO NDB"},
{"type":"NDB","hdg_t":4.8,"dist_nm":182.9,"freq":360,"lat":-6.23866700,"lon":-57.77400000,"rng_nm":75,"alt_fmsl":323,"id":"JAC","desc":"JACAREACANGA NDB"},
{"type":"VOR","hdg_t":4.9,"dist_nm":183.1,"freq":112.2,"lat":-6.23566700,"lon":-57.77050000,"rng_nm":135,"alt_fmsl":323,"id":"JAC","desc":"JACAREACANGA VOR-DME"},
{"type":"VOR","hdg_t":210.7,"dist_nm":236.8,"freq":112.1,"lat":-12.69366700,"lon":-60.09533300,"rng_nm":200,"alt_fmsl":2036,"id":"VLH","desc":"VILHENA VOR-DME"},
{"type":"NDB","hdg_t":210.8,"dist_nm":236.8,"freq":395,"lat":-12.68950000,"lon":-60.10333300,"rng_nm":50,"alt_fmsl":2252,"id":"VLH","desc":"VILHENA NDB"},
{"type":"NDB","hdg_t":247.1,"dist_nm":248.5,"freq":255,"lat":-10.88800000,"lon":-61.91216700,"rng_nm":50,"alt_fmsl":0,"id":"RON","desc":"RONDONIA NDB"},
{"type":"NDB","hdg_t":316.8,"dist_nm":284.1,"freq":310,"lat":-5.80716700,"lon":-61.28200000,"rng_nm":65,"alt_fmsl":0,"id":"MCR","desc":"MANICORE NDB"}
]
}
