{"success":true,"source":"xp2csv.pl","last_updated":"2013/11/08 14:53:21 UTC"
,"icao":"SJKZ","name":"Estevao","lat":4.44972223,"lon":-60.43916667,"rwys":1,"ils":0,"index":1955740,"path":"w070n00/w061n04"
,"runways":[
{"len_m":600,"wid_m":20.12,"hdg":75,"surf":"Dirt","rwy1":"09","lat1":4.44902731,"lon1":-60.44178387,"rwy2":"27","lat2":4.45041714,"lon2":-60.43654947}
]
,"navaids":[
{"type":"VOR","hdg_t":292.3,"dist_nm":38.1,"freq":117.7,"lat":4.69277800,"lon":-61.02755600,"rng_nm":130,"alt_fmsl":618,"id":"LDP","desc":"LA DIVINA PASTORA VOR-DME"},
{"type":"NDB","hdg_t":292.7,"dist_nm":38.2,"freq":245,"lat":4.69750000,"lon":-61.02783300,"rng_nm":200,"alt_fmsl":0,"id":"LDP","desc":"LA DIVINA PASTORA NDB"},
{"type":"NDB","hdg_t":264.9,"dist_nm":78.1,"freq":318,"lat":4.33333300,"lon":-61.73805600,"rng_nm":50,"alt_fmsl":0,"id":"ICA","desc":"ICABARU NDB"},
{"type":"NDB","hdg_t":352.9,"dist_nm":86.2,"freq":406,"lat":5.88333300,"lon":-60.61666700,"rng_nm":70,"alt_fmsl":0,"id":"KAM","desc":"KAMARANG NDB"},
{"type":"NDB","hdg_t":300.5,"dist_nm":92.2,"freq":272,"lat":5.23333300,"lon":-61.76666700,"rng_nm":50,"alt_fmsl":0,"id":"KEM","desc":"UONQUEN NDB"},
{"type":"VOR","hdg_t":188.8,"dist_nm":96.5,"freq":113.1,"lat":2.85216700,"lon":-60.68683300,"rng_nm":200,"alt_fmsl":274,"id":"BVI","desc":"BOA VISTA VOR-DME"},
{"type":"NDB","hdg_t":188.9,"dist_nm":97.3,"freq":405,"lat":2.83983300,"lon":-60.69200000,"rng_nm":200,"alt_fmsl":274,"id":"BVI","desc":"BOA VISTA NDB"},
{"type":"NDB","hdg_t":322.5,"dist_nm":102.8,"freq":286,"lat":5.81666700,"lon":-61.48333300,"rng_nm":50,"alt_fmsl":0,"id":"LEA","desc":"LUEPA NDB"},
{"type":"NDB","hdg_t":310.8,"dist_nm":103.8,"freq":398,"lat":5.58722222,"lon":-61.75200000,"rng_nm":50,"alt_fmsl":0,"id":"KAV","desc":"KAVANAYEN NDB"},
{"type":"NDB","hdg_t":70.5,"dist_nm":137.9,"freq":342,"lat":5.21632200,"lon":-58.26709900,"rng_nm":50,"alt_fmsl":0,"id":"KAI","desc":"KAIETEUR NDB"}
]
}
