{"success":true,"source":"xp2csv.pl","last_updated":"2013/11/08 14:53:21 UTC"
,"icao":"SJLG","name":"Fazenda Reunidas-pedreira","lat":-17.25111111,"lon":-51.50166667,"rwys":1,"ils":0,"index":2101803,"path":"w060s20/w052s18"
,"runways":[
{"len_m":701,"wid_m":18.90,"hdg":80,"surf":"Dirt","rwy1":"10","lat1":-17.25162964,"lon1":-51.50492216,"rwy2":"28","lat2":-17.25059258,"lon2":-51.49841118}
]
,"navaids":[
{"type":"NDB","hdg_t":328.3,"dist_nm":97.8,"freq":320,"lat":-15.85600000,"lon":-52.38933300,"rng_nm":75,"alt_fmsl":1147,"id":"BAG","desc":"GARCAS NDB"},
{"type":"VOR","hdg_t":328.1,"dist_nm":98.1,"freq":113.3,"lat":-15.85350000,"lon":-52.39566700,"rng_nm":130,"alt_fmsl":1147,"id":"BAG","desc":"GARCAS VOR-DME"},
{"type":"NDB","hdg_t":69.1,"dist_nm":111.2,"freq":230,"lat":-16.58048600,"lon":-49.69823100,"rng_nm":50,"alt_fmsl":0,"id":"SBG","desc":"SANTA BARBARA NDB"},
{"type":"NDB","hdg_t":74.6,"dist_nm":136,"freq":370,"lat":-16.63719700,"lon":-49.22439200,"rng_nm":75,"alt_fmsl":2450,"id":"GOI","desc":"GOIANIA NDB"},
{"type":"VOR","hdg_t":74.6,"dist_nm":136.5,"freq":112.7,"lat":-16.63243300,"lon":-49.21535600,"rng_nm":200,"alt_fmsl":2450,"id":"GOI","desc":"GOIANIA VOR-DME"},
{"type":"NDB","hdg_t":118.8,"dist_nm":148.7,"freq":245,"lat":-18.44025300,"lon":-49.21874700,"rng_nm":50,"alt_fmsl":1630,"id":"YBA","desc":"ITUMBIARA NDB"},
{"type":"NDB","hdg_t":68.8,"dist_nm":152.2,"freq":415,"lat":-16.31743900,"lon":-49.04026700,"rng_nm":50,"alt_fmsl":2960,"id":"ANP","desc":"ANAPOLIS NDB"},
{"type":"VOR","hdg_t":68,"dist_nm":156.1,"freq":115.4,"lat":-16.26067200,"lon":-48.99201100,"rng_nm":200,"alt_fmsl":2960,"id":"ANP","desc":"ANAPOLIS VOR-DME"},
{"type":"NDB","hdg_t":66.6,"dist_nm":164.1,"freq":325,"lat":-16.14383300,"lon":-48.89383300,"rng_nm":25,"alt_fmsl":0,"id":"PP","desc":"POROROCA NDB"},
{"type":"NDB","hdg_t":247.5,"dist_nm":200.4,"freq":205,"lat":-18.50383300,"lon":-54.75050000,"rng_nm":50,"alt_fmsl":0,"id":"CXM","desc":"COXIM NDB"}
]
}
