{"success":true,"source":"xp2csv.pl","last_updated":"2013/11/08 14:53:21 UTC"
,"icao":"SJLH","name":"Jacamim","lat":2.17611111,"lon":-59.78388889,"rwys":1,"ils":0,"index":1971977,"path":"w060n00/w060n02"
,"runways":[
{"len_m":600,"wid_m":20.12,"hdg":74,"surf":"Dirt","rwy1":"09","lat1":2.17540407,"lon1":-59.78649662,"rwy2":"27","lat2":2.17681815,"lon2":-59.78128116}
]
,"navaids":[
{"type":"NDB","hdg_t":306,"dist_nm":67.4,"freq":405,"lat":2.83983300,"lon":-60.69200000,"rng_nm":200,"alt_fmsl":274,"id":"BVI","desc":"BOA VISTA NDB"},
{"type":"VOR","hdg_t":306.6,"dist_nm":67.5,"freq":113.1,"lat":2.85216700,"lon":-60.68683300,"rng_nm":200,"alt_fmsl":274,"id":"BVI","desc":"BOA VISTA VOR-DME"},
{"type":"VOR","hdg_t":333.6,"dist_nm":167.7,"freq":117.7,"lat":4.69277800,"lon":-61.02755600,"rng_nm":130,"alt_fmsl":618,"id":"LDP","desc":"LA DIVINA PASTORA VOR-DME"},
{"type":"NDB","hdg_t":333.6,"dist_nm":168,"freq":245,"lat":4.69750000,"lon":-61.02783300,"rng_nm":200,"alt_fmsl":0,"id":"LDP","desc":"LA DIVINA PASTORA NDB"},
{"type":"NDB","hdg_t":317.7,"dist_nm":174.1,"freq":318,"lat":4.33333300,"lon":-61.73805600,"rng_nm":50,"alt_fmsl":0,"id":"ICA","desc":"ICABARU NDB"},
{"type":"NDB","hdg_t":26.5,"dist_nm":203,"freq":342,"lat":5.21632200,"lon":-58.26709900,"rng_nm":50,"alt_fmsl":0,"id":"KAI","desc":"KAIETEUR NDB"},
{"type":"NDB","hdg_t":326.9,"dist_nm":217.8,"freq":272,"lat":5.23333300,"lon":-61.76666700,"rng_nm":50,"alt_fmsl":0,"id":"KEM","desc":"UONQUEN NDB"},
{"type":"NDB","hdg_t":347.3,"dist_nm":226.9,"freq":406,"lat":5.88333300,"lon":-60.61666700,"rng_nm":70,"alt_fmsl":0,"id":"KAM","desc":"KAMARANG NDB"},
{"type":"NDB","hdg_t":89.2,"dist_nm":230.7,"freq":240,"lat":2.21900000,"lon":-55.94183300,"rng_nm":50,"alt_fmsl":1127,"id":"TIR","desc":"TIRIOS NDB"},
{"type":"NDB","hdg_t":329.9,"dist_nm":235.3,"freq":398,"lat":5.58722222,"lon":-61.75200000,"rng_nm":50,"alt_fmsl":0,"id":"KAV","desc":"KAVANAYEN NDB"}
]
}
