{"success":true,"source":"xp2csv.pl","last_updated":"2013/11/08 14:53:21 UTC"
,"icao":"SJLI","name":"Fazenda Liliani","lat":-4.21361111,"lon":-46.975,"rwys":1,"ils":0,"index":2184560,"path":"w050s10/w047s05"
,"runways":[
{"len_m":961,"wid_m":28.04,"hdg":69,"surf":"Gravel","rwy1":"09","lat1":-4.21513846,"lon1":-46.97905270,"rwy2":"27","lat2":-4.21208376,"lon2":-46.97094730}
]
,"navaids":[
{"type":"VOR","hdg_t":199.9,"dist_nm":83.2,"freq":112.7,"lat":-5.52383300,"lon":-47.44983300,"rng_nm":200,"alt_fmsl":431,"id":"YTZ","desc":"IMPERATRIZ VOR-DME"},
{"type":"NDB","hdg_t":200,"dist_nm":83.9,"freq":390,"lat":-5.53450000,"lon":-47.45716700,"rng_nm":40,"alt_fmsl":431,"id":"YTZ","desc":"IMPERATRIZ NDB"},
{"type":"VOR","hdg_t":241.8,"dist_nm":146.6,"freq":113.7,"lat":-5.36816700,"lon":-49.13516700,"rng_nm":130,"alt_fmsl":357,"id":"MRB","desc":"MARABA VOR-DME"},
{"type":"NDB","hdg_t":241.7,"dist_nm":146.6,"freq":370,"lat":-5.37128900,"lon":-49.13466100,"rng_nm":130,"alt_fmsl":357,"id":"MRB","desc":"MARABA NDB"},
{"type":"NDB","hdg_t":278.7,"dist_nm":166.2,"freq":220,"lat":-3.78641400,"lon":-49.71436400,"rng_nm":200,"alt_fmsl":830,"id":"TUI","desc":"TUCURUI NDB"},
{"type":"VOR","hdg_t":278.4,"dist_nm":166.5,"freq":112.9,"lat":-3.80134200,"lon":-49.72132500,"rng_nm":130,"alt_fmsl":830,"id":"TUI","desc":"TUCURUI VOR-DME"},
{"type":"VOR","hdg_t":188.7,"dist_nm":187.6,"freq":115.3,"lat":-7.31873100,"lon":-47.45481900,"rng_nm":130,"alt_fmsl":565,"id":"CNA","desc":"CAROLINA VOR"},
{"type":"NDB","hdg_t":188.8,"dist_nm":187.9,"freq":330,"lat":-7.32300000,"lon":-47.46000000,"rng_nm":80,"alt_fmsl":565,"id":"CNA","desc":"CAROLINA NDB"},
{"type":"NDB","hdg_t":54.7,"dist_nm":189.3,"freq":230,"lat":-2.38150000,"lon":-44.39932500,"rng_nm":70,"alt_fmsl":148,"id":"ALC","desc":"ALCANTARA NDB"},
{"type":"NDB","hdg_t":57.3,"dist_nm":190.5,"freq":300,"lat":-2.48850000,"lon":-44.30233300,"rng_nm":50,"alt_fmsl":0,"id":"SM","desc":"SAO MARCOS NDB"}
]
}
