{"success":true,"source":"xp2csv.pl","last_updated":"2013/11/08 14:53:21 UTC"
,"icao":"SJQX","name":"Fazenda Uruara","lat":-3.52472223,"lon":-53.38611111,"rwys":1,"ils":0,"index":2069916,"path":"w060s10/w054s04"
,"runways":[
{"len_m":801,"wid_m":29.87,"hdg":101,"surf":"Gravel","rwy1":"12","lat1":-3.52399515,"lon1":-53.38964375,"rwy2":"30","lat2":-3.52544930,"lon2":-53.38257847}
]
,"navaids":[
{"type":"NDB","hdg_t":76.8,"dist_nm":69.9,"freq":295,"lat":-3.25650000,"lon":-52.25083300,"rng_nm":120,"alt_fmsl":0,"id":"ATM","desc":"ALTAMIRA NDB"},
{"type":"VOR","hdg_t":76.5,"dist_nm":70.2,"freq":113.2,"lat":-3.24933300,"lon":-52.24766700,"rng_nm":200,"alt_fmsl":367,"id":"ATM","desc":"ALTAMIRA VOR"},
{"type":"NDB","hdg_t":307.7,"dist_nm":106.8,"freq":350,"lat":-2.42766700,"lon":-54.79166700,"rng_nm":40,"alt_fmsl":427,"id":"STM","desc":"SANTAREM NDB"},
{"type":"VOR","hdg_t":307.3,"dist_nm":108,"freq":112.3,"lat":-2.42650000,"lon":-54.81750000,"rng_nm":40,"alt_fmsl":198,"id":"STM","desc":"SANTAREM VOR-DME"},
{"type":"NDB","hdg_t":33.1,"dist_nm":126.5,"freq":285,"lat":-1.75033300,"lon":-52.23383300,"rng_nm":50,"alt_fmsl":53,"id":"MOZ","desc":"MOZ NDB"},
{"type":"NDB","hdg_t":254.6,"dist_nm":162.7,"freq":250,"lat":-4.24050000,"lon":-56.00466700,"rng_nm":50,"alt_fmsl":110,"id":"YUB","desc":"ITAITUBA NDB"},
{"type":"NDB","hdg_t":16.6,"dist_nm":164.5,"freq":305,"lat":-0.88333300,"lon":-52.60300000,"rng_nm":100,"alt_fmsl":677,"id":"MDD","desc":"DOURADO NDB"},
{"type":"VOR","hdg_t":284,"dist_nm":209.6,"freq":114.1,"lat":-2.66728100,"lon":-56.77310800,"rng_nm":130,"alt_fmsl":87,"id":"PRI","desc":"PARINTINS VOR-DME"},
{"type":"NDB","hdg_t":303.8,"dist_nm":217.9,"freq":205,"lat":-1.48633300,"lon":-56.39783300,"rng_nm":100,"alt_fmsl":287,"id":"PTT","desc":"TROMBETAS NDB"},
{"type":"VOR","hdg_t":94.4,"dist_nm":220.4,"freq":112.9,"lat":-3.80134200,"lon":-49.72132500,"rng_nm":130,"alt_fmsl":830,"id":"TUI","desc":"TUCURUI VOR-DME"}
]
}
