{"success":true,"source":"xp2csv.pl","last_updated":"2013/11/08 14:53:21 UTC"
,"icao":"SJSN","name":"Fazenda Carvalho","lat":-14.83666667,"lon":-49.36138888,"rwys":1,"ils":0,"index":2134733,"path":"w050s20/w050s15"
,"runways":[
{"len_m":801,"wid_m":17.98,"hdg":89,"surf":"Gravel","rwy1":"11","lat1":-14.83667967,"lon1":-49.36511303,"rwy2":"29","lat2":-14.83665367,"lon2":-49.35766474}
]
,"navaids":[
{"type":"NDB","hdg_t":160.9,"dist_nm":82.6,"freq":325,"lat":-16.14383300,"lon":-48.89383300,"rng_nm":25,"alt_fmsl":0,"id":"PP","desc":"POROROCA NDB"},
{"type":"VOR","hdg_t":165.9,"dist_nm":87.7,"freq":115.4,"lat":-16.26067200,"lon":-48.99201100,"rng_nm":200,"alt_fmsl":2960,"id":"ANP","desc":"ANAPOLIS VOR-DME"},
{"type":"NDB","hdg_t":168.1,"dist_nm":90.4,"freq":415,"lat":-16.31743900,"lon":-49.04026700,"rng_nm":50,"alt_fmsl":2960,"id":"ANP","desc":"ANAPOLIS NDB"},
{"type":"NDB","hdg_t":128.6,"dist_nm":99.2,"freq":340,"lat":-15.86966700,"lon":-48.02166700,"rng_nm":90,"alt_fmsl":0,"id":"BRS","desc":"BRASILIA NDB"},
{"type":"VOR","hdg_t":128.7,"dist_nm":99.3,"freq":115.9,"lat":-15.87375000,"lon":-48.02135600,"rng_nm":200,"alt_fmsl":3974,"id":"BRS","desc":"BRASILIA VOR-DME"},
{"type":"NDB","hdg_t":126.8,"dist_nm":102.8,"freq":280,"lat":-15.86416700,"lon":-47.93733300,"rng_nm":25,"alt_fmsl":0,"id":"IR","desc":"TREVO NDB"},
{"type":"NDB","hdg_t":41.4,"dist_nm":102.9,"freq":305,"lat":-13.54366700,"lon":-48.19483300,"rng_nm":54,"alt_fmsl":0,"id":"CNB","desc":"CANA BRAVA NDB"},
{"type":"VOR","hdg_t":126.9,"dist_nm":104.1,"freq":117.3,"lat":-15.87834400,"lon":-47.92175300,"rng_nm":25,"alt_fmsl":3479,"id":"XMA","desc":"GAMA VOR"},
{"type":"NDB","hdg_t":125.7,"dist_nm":105.2,"freq":240,"lat":-15.86083300,"lon":-47.88533300,"rng_nm":50,"alt_fmsl":3490,"id":"CH","desc":"COCHO NDB"},
{"type":"NDB","hdg_t":190.5,"dist_nm":106,"freq":230,"lat":-16.58048600,"lon":-49.69823100,"rng_nm":50,"alt_fmsl":0,"id":"SBG","desc":"SANTA BARBARA NDB"}
]
}
