{"success":true,"source":"xp2csv.pl","last_updated":"2013/11/08 14:53:21 UTC"
,"icao":"SJWA","name":"Usina Maracaju","lat":-21.34527779,"lon":-55.43333333,"rwys":1,"ils":0,"index":2036012,"path":"w060s30/w056s22"
,"runways":[
{"len_m":1011,"wid_m":49.99,"hdg":165,"surf":"Dirt","rwy1":"18","lat1":-21.34085804,"lon1":-55.43456901,"rwy2":"36","lat2":-21.34969753,"lon2":-55.43209765}
]
,"navaids":[
{"type":"NDB","hdg_t":151.1,"dist_nm":58.2,"freq":285,"lat":-22.19733300,"lon":-54.92833300,"rng_nm":70,"alt_fmsl":1503,"id":"DOU","desc":"DOURA NDB"},
{"type":"NDB","hdg_t":39,"dist_nm":62.6,"freq":270,"lat":-20.53066700,"lon":-54.73266700,"rng_nm":100,"alt_fmsl":0,"id":"CGR","desc":"CAMPO GRANDE NDB"},
{"type":"NDB","hdg_t":39.2,"dist_nm":66.2,"freq":395,"lat":-20.48586100,"lon":-54.68932800,"rng_nm":50,"alt_fmsl":0,"id":"IG","desc":"SOJA NDB"},
{"type":"VOR","hdg_t":39.4,"dist_nm":67.6,"freq":115.7,"lat":-20.46883300,"lon":-54.67033300,"rng_nm":200,"alt_fmsl":1833,"id":"CGR","desc":"CAMPO GRANDE VOR-DME"},
{"type":"NDB","hdg_t":39,"dist_nm":71.8,"freq":215,"lat":-20.40883300,"lon":-54.63033300,"rng_nm":50,"alt_fmsl":0,"id":"PP","desc":"MARACA NDB"},
{"type":"NDB","hdg_t":191.9,"dist_nm":73.6,"freq":340,"lat":-22.55016700,"lon":-55.70716700,"rng_nm":50,"alt_fmsl":2156,"id":"PTP","desc":"PONTA PORA NDB"},
{"type":"NDB","hdg_t":195.9,"dist_nm":80.6,"freq":353,"lat":-22.64194400,"lon":-55.83333300,"rng_nm":25,"alt_fmsl":1873,"id":"PJC","desc":"PEDRO JUAN CABALLERO NDB"},
{"type":"NDB","hdg_t":220.9,"dist_nm":101.7,"freq":397,"lat":-22.62583300,"lon":-56.63472200,"rng_nm":100,"alt_fmsl":0,"id":"STA","desc":"SANTA TERESA NDB"},
{"type":"NDB","hdg_t":61.2,"dist_nm":108.1,"freq":245,"lat":-20.46716700,"lon":-53.75050000,"rng_nm":70,"alt_fmsl":0,"id":"RIB","desc":"RIBAS NDB"},
{"type":"NDB","hdg_t":221.2,"dist_nm":167.3,"freq":405,"lat":-23.43841900,"lon":-57.43059700,"rng_nm":65,"alt_fmsl":0,"id":"CON","desc":"CONCEPCION NDB"}
]
}
