{"success":true,"source":"xp2csv.pl","last_updated":"2013/11/08 14:53:21 UTC"
,"icao":"SJWB","name":"Pouso Alto","lat":-17.45777778,"lon":-48.98305556,"rwys":1,"ils":0,"index":2150944,"path":"w050s20/w049s18"
,"runways":[
{"len_m":795,"wid_m":17.98,"hdg":58,"surf":"Dirt","rwy1":"08","lat1":-17.45964064,"lon1":-48.98625628,"rwy2":"26","lat2":-17.45591492,"lon2":-48.97985484}
]
,"navaids":[
{"type":"NDB","hdg_t":344.1,"dist_nm":50.9,"freq":370,"lat":-16.63719700,"lon":-49.22439200,"rng_nm":75,"alt_fmsl":2450,"id":"GOI","desc":"GOIANIA NDB"},
{"type":"VOR","hdg_t":344.8,"dist_nm":51,"freq":112.7,"lat":-16.63243300,"lon":-49.21535600,"rng_nm":200,"alt_fmsl":2450,"id":"GOI","desc":"GOIANIA VOR-DME"},
{"type":"NDB","hdg_t":192.8,"dist_nm":60.2,"freq":245,"lat":-18.44025300,"lon":-49.21874700,"rng_nm":50,"alt_fmsl":1630,"id":"YBA","desc":"ITUMBIARA NDB"},
{"type":"NDB","hdg_t":321.7,"dist_nm":66.6,"freq":230,"lat":-16.58048600,"lon":-49.69823100,"rng_nm":50,"alt_fmsl":0,"id":"SBG","desc":"SANTA BARBARA NDB"},
{"type":"NDB","hdg_t":357.2,"dist_nm":68.2,"freq":415,"lat":-16.31743900,"lon":-49.04026700,"rng_nm":50,"alt_fmsl":2960,"id":"ANP","desc":"ANAPOLIS NDB"},
{"type":"VOR","hdg_t":359.5,"dist_nm":71.5,"freq":115.4,"lat":-16.26067200,"lon":-48.99201100,"rng_nm":200,"alt_fmsl":2960,"id":"ANP","desc":"ANAPOLIS VOR-DME"},
{"type":"NDB","hdg_t":3.7,"dist_nm":78.6,"freq":325,"lat":-16.14383300,"lon":-48.89383300,"rng_nm":25,"alt_fmsl":0,"id":"PP","desc":"POROROCA NDB"},
{"type":"VOR","hdg_t":39.3,"dist_nm":92.2,"freq":113.1,"lat":-16.26085000,"lon":-47.97095600,"rng_nm":130,"alt_fmsl":3269,"id":"LUZ","desc":"LUZIANIA VOR-DME"},
{"type":"NDB","hdg_t":39.2,"dist_nm":92.3,"freq":400,"lat":-16.25856100,"lon":-47.96955800,"rng_nm":50,"alt_fmsl":3269,"id":"LUZ","desc":"LUZIANIA NDB"},
{"type":"VOR","hdg_t":152.9,"dist_nm":95.3,"freq":116.1,"lat":-18.87661100,"lon":-48.22130000,"rng_nm":130,"alt_fmsl":3094,"id":"ULD","desc":"UBERLANDIA VOR-DME"},
{"type":"NDB","hdg_t":153.3,"dist_nm":95.6,"freq":350,"lat":-18.88716700,"lon":-48.23000000,"rng_nm":50,"alt_fmsl":3094,"id":"ULD","desc":"UBERLANDIA NDB"}
]
}
