{"success":true,"source":"xp2csv.pl","last_updated":"2013/11/08 14:53:21 UTC"
,"icao":"SJXH","name":"Aguas Frias","lat":-27.21694444,"lon":-53.2725,"rwys":1,"ils":0,"index":2068402,"path":"w060s30/w054s28"
,"runways":[
{"len_m":510,"wid_m":29.87,"hdg":127,"surf":"Turf/grass","rwy1":"14","lat1":-27.21553653,"lon1":-53.27454241,"rwy2":"32","lat2":-27.21835234,"lon2":-53.27045760}
]
,"navaids":[
{"type":"VOR","hdg_t":81.6,"dist_nm":32.9,"freq":116.1,"lat":-27.13566700,"lon":-52.66300000,"rng_nm":130,"alt_fmsl":2146,"id":"XPC","desc":"CHAPECO VOR-DME"},
{"type":"NDB","hdg_t":81.3,"dist_nm":33.7,"freq":1734,"lat":-27.13079700,"lon":-52.64934700,"rng_nm":70,"alt_fmsl":2146,"id":"XPC","desc":"CHAPECO NDB"},
{"type":"VOR","hdg_t":140.7,"dist_nm":79.1,"freq":112.7,"lat":-28.23833300,"lon":-52.32650000,"rng_nm":130,"alt_fmsl":2376,"id":"PFD","desc":"PASSO FUNDO VOR"},
{"type":"NDB","hdg_t":140.8,"dist_nm":79.1,"freq":370,"lat":-28.24080300,"lon":-52.32977200,"rng_nm":100,"alt_fmsl":2376,"id":"PFD","desc":"PASSO FUNDO NDB"},
{"type":"NDB","hdg_t":216.7,"dist_nm":79.5,"freq":280,"lat":-28.27931700,"lon":-54.17193900,"rng_nm":50,"alt_fmsl":1056,"id":"SAN","desc":"SANTO ANGELO NDB"},
{"type":"NDB","hdg_t":323.9,"dist_nm":108.2,"freq":310,"lat":-25.74805600,"lon":-54.44766700,"rng_nm":25,"alt_fmsl":916,"id":"Z","desc":"CATARATAS DEL IGAUZU NDB"},
{"type":"VOR","hdg_t":323.3,"dist_nm":110.1,"freq":114.1,"lat":-25.73449700,"lon":-54.48571100,"rng_nm":176,"alt_fmsl":935,"id":"IGU","desc":"CATARATAS DEL IGUAZU VOR-DME"},
{"type":"NDB","hdg_t":325.5,"dist_nm":118,"freq":395,"lat":-25.58416700,"lon":-54.50250000,"rng_nm":25,"alt_fmsl":0,"id":"QQ","desc":"IGUACU NDB"},
{"type":"VOR","hdg_t":325.5,"dist_nm":118.1,"freq":112.1,"lat":-25.58333300,"lon":-54.50350000,"rng_nm":200,"alt_fmsl":787,"id":"FOZ","desc":"FOZ VOR-DME"},
{"type":"NDB","hdg_t":324.9,"dist_nm":122.7,"freq":410,"lat":-25.53116700,"lon":-54.57050000,"rng_nm":150,"alt_fmsl":0,"id":"FOZ","desc":"FOZ NDB"}
]
}
