{"success":true,"source":"xp2csv.pl","last_updated":"2013/11/08 14:53:21 UTC"
,"icao":"SJZC","name":"Destilaria Sao Luiz","lat":-8.77888889,"lon":-35.785,"rwys":1,"ils":0,"index":2364489,"path":"w040s10/w036s09"
,"runways":[
{"len_m":1001,"wid_m":28.04,"hdg":57,"surf":"Dirt","rwy1":"08","lat1":-8.78133557,"lon1":-35.78883019,"rwy2":"26","lat2":-8.77644221,"lon2":-35.78116981}
]
,"navaids":[
{"type":"VOR","hdg_t":180.1,"dist_nm":43.6,"freq":115.1,"lat":-9.50989400,"lon":-35.78687200,"rng_nm":130,"alt_fmsl":387,"id":"MCE","desc":"ZUMBI VOR-DME"},
{"type":"NDB","hdg_t":181.5,"dist_nm":43.7,"freq":340,"lat":-9.51166700,"lon":-35.80450000,"rng_nm":40,"alt_fmsl":387,"id":"MCO","desc":"MACEIO NDB"},
{"type":"NDB","hdg_t":36.4,"dist_nm":49.8,"freq":285,"lat":-8.10650000,"lon":-35.28733300,"rng_nm":100,"alt_fmsl":0,"id":"VSA","desc":"SANTO ANTAO NDB"},
{"type":"VOR","hdg_t":53.1,"dist_nm":63.8,"freq":116.9,"lat":-8.13658600,"lon":-34.92729700,"rng_nm":200,"alt_fmsl":33,"id":"REC","desc":"RECIFE VOR-DME"},
{"type":"NDB","hdg_t":48.3,"dist_nm":66.3,"freq":380,"lat":-8.03850000,"lon":-34.95200000,"rng_nm":40,"alt_fmsl":0,"id":"OLD","desc":"OLINDA NDB"},
{"type":"NDB","hdg_t":355.9,"dist_nm":90.5,"freq":230,"lat":-7.26601400,"lon":-35.89267200,"rng_nm":60,"alt_fmsl":1777,"id":"CPG","desc":"CAMPINA GRANDE NDB"},
{"type":"NDB","hdg_t":26.9,"dist_nm":109.6,"freq":320,"lat":-7.14050000,"lon":-34.95250000,"rng_nm":40,"alt_fmsl":215,"id":"JPS","desc":"JOAO PESSOA NDB"},
{"type":"NDB","hdg_t":255.5,"dist_nm":150.6,"freq":325,"lat":-9.39903300,"lon":-38.24556400,"rng_nm":50,"alt_fmsl":0,"id":"PAF","desc":"PAULO AFONSO NDB"},
{"type":"VOR","hdg_t":255.5,"dist_nm":151.1,"freq":113.3,"lat":-9.40200000,"lon":-38.25283300,"rng_nm":200,"alt_fmsl":883,"id":"PAF","desc":"PAULO AFONSO VOR"},
{"type":"VOR","hdg_t":210,"dist_nm":152.2,"freq":112,"lat":-10.98191000,"lon":-37.07733100,"rng_nm":200,"alt_fmsl":26,"id":"ACJ","desc":"ARACAJU VOR-DME"}
]
}
