{"success":true,"source":"xp2csv.pl","last_updated":"2013/11/08 14:53:21 UTC"
,"icao":"SKOL","name":"Carimagua","lat":-4.5666671,"lon":-71.3330536,"rwys":1,"ils":0,"index":1774941,"path":"w080s10/w072s05"
,"runways":[
{"len_m":1330,"wid_m":19.20,"hdg":25,"surf":"Concrete","rwy1":"03","lat1":-4.57211389,"lon1":-71.33560157,"rwy2":"21","lat2":-4.56122031,"lon2":-71.33050563}
]
,"navaids":[
{"type":"NDB","hdg_t":77.3,"dist_nm":85.8,"freq":230,"lat":-4.24933300,"lon":-69.93616700,"rng_nm":50,"alt_fmsl":265,"id":"TBT","desc":"TABATINGA NDB"},
{"type":"NDB","hdg_t":75.4,"dist_nm":86.1,"freq":407,"lat":-4.20167200,"lon":-69.94238600,"rng_nm":200,"alt_fmsl":277,"id":"LET","desc":"LETICIA NDB"},
{"type":"VOR","hdg_t":75.1,"dist_nm":86.4,"freq":117.5,"lat":-4.19499700,"lon":-69.93973300,"rng_nm":100,"alt_fmsl":277,"id":"LET","desc":"LETICIA VOR-DME"},
{"type":"VOR","hdg_t":291.1,"dist_nm":127.6,"freq":116.5,"lat":-3.79250000,"lon":-73.31777778,"rng_nm":130,"alt_fmsl":335,"id":"IQT","desc":"IQUITOS VOR-DME"},
{"type":"NDB","hdg_t":290.9,"dist_nm":128,"freq":335,"lat":-3.79616100,"lon":-73.32611100,"rng_nm":25,"alt_fmsl":0,"id":"EC","desc":"IQUITOS NDB"},
{"type":"NDB","hdg_t":292.5,"dist_nm":129.8,"freq":335,"lat":-3.73138900,"lon":-73.33250000,"rng_nm":25,"alt_fmsl":0,"id":"PE","desc":"EC NDB"},
{"type":"NDB","hdg_t":145.1,"dist_nm":152.5,"freq":265,"lat":-6.66100000,"lon":-69.87250000,"rng_nm":75,"alt_fmsl":412,"id":"ERP","desc":"EIRUNEPE NDB"},
{"type":"NDB","hdg_t":205.3,"dist_nm":200.1,"freq":260,"lat":-7.59455000,"lon":-72.77143300,"rng_nm":50,"alt_fmsl":637,"id":"CZS","desc":"CRUZEIRO DO SUL NDB"},
{"type":"VOR","hdg_t":205.3,"dist_nm":200.9,"freq":112,"lat":-7.60683300,"lon":-72.77350000,"rng_nm":200,"alt_fmsl":637,"id":"CZS","desc":"CRUZEIRO DO SUL VOR-DME"},
{"type":"NDB","hdg_t":28.5,"dist_nm":220.4,"freq":315,"lat":-1.32210000,"lon":-69.58023300,"rng_nm":200,"alt_fmsl":590,"id":"LPD","desc":"LA PEDRERA NDB"}
]
}
