{"success":true,"source":"xp2csv.pl","last_updated":"2013/11/08 14:53:21 UTC"
,"icao":"SKPV","name":"El Embrujo","lat":13.356875,"lon":-81.3584175,"rwys":1,"ils":0,"index":1612245,"path":"w090n10/w082n13"
,"runways":[
{"len_m":1167,"wid_m":15.24,"hdg":169,"surf":"Asphalt","rwy1":"17","lat1":13.36205600,"lon1":-81.35944400,"rwy2":"35","lat2":13.35169400,"lon2":-81.35739100}
]
,"radios":[
{"type":"TWR","freq":121.9,"desc":"TWR"},
{"type":"APP","freq":119.3,"desc":"SAN ANDRES APP"}
]
,"navaids":[
{"type":"NDB","hdg_t":203.8,"dist_nm":49.9,"freq":387,"lat":12.59194444,"lon":-81.70188889,"rng_nm":50,"alt_fmsl":0,"id":"SPP","desc":"SAN ANDRES NDB"},
{"type":"VOR","hdg_t":203.7,"dist_nm":50.5,"freq":113.3,"lat":12.58250000,"lon":-81.70500000,"rng_nm":130,"alt_fmsl":182,"id":"SPP","desc":"SAN ANDRES VOR-DME"},
{"type":"VOR","hdg_t":289.3,"dist_nm":125.4,"freq":112.9,"lat":14.04522222,"lon":-83.38827778,"rng_nm":130,"alt_fmsl":0,"id":"PZA","desc":"PUERTO CABEZAS VOR"},
{"type":"VOR","hdg_t":240.3,"dist_nm":163.3,"freq":116.7,"lat":11.99451100,"lon":-83.77262200,"rng_nm":40,"alt_fmsl":41,"id":"BLU","desc":"BLUEFIELDS VOR-DME"},
{"type":"NDB","hdg_t":220.3,"dist_nm":203.2,"freq":380,"lat":10.75333300,"lon":-83.58333300,"rng_nm":50,"alt_fmsl":10,"id":"COL","desc":"BARRA DEL COLORADO NDB"},
{"type":"NDB","hdg_t":206.1,"dist_nm":224.6,"freq":380,"lat":9.97666667,"lon":-83.03277778,"rng_nm":75,"alt_fmsl":0,"id":"LIO","desc":"LIMON NDB"},
{"type":"VOR","hdg_t":206,"dist_nm":225.2,"freq":116.3,"lat":9.96313889,"lon":-83.02716667,"rng_nm":130,"alt_fmsl":7,"id":"LIO","desc":"LIMON VOR-DME"},
{"type":"NDB","hdg_t":235.2,"dist_nm":240.7,"freq":221,"lat":11.03833300,"lon":-84.70999900,"rng_nm":50,"alt_fmsl":131,"id":"CHI","desc":"LOS CHILES NDB"},
{"type":"VOR","hdg_t":192.4,"dist_nm":245.6,"freq":114.9,"lat":9.33886111,"lon":-82.25175000,"rng_nm":130,"alt_fmsl":10,"id":"BDT","desc":"BOCAS DEL TORO VOR-DME"},
{"type":"NDB","hdg_t":226.7,"dist_nm":252.1,"freq":212,"lat":10.44833300,"lon":-84.46666700,"rng_nm":50,"alt_fmsl":210,"id":"FIO","desc":"FIORA NDB"}
]
}
