{"success":true,"source":"xp2csv.pl","last_updated":"2013/11/08 14:53:21 UTC"
,"icao":"SLSI","name":"Cap. Av. Juan Cochamanid","lat":-16.3791676,"lon":-60.9777794,"rwys":1,"ils":0,"index":1954400,"path":"w070s20/w061s17"
,"runways":[
{"len_m":1194,"wid_m":17.07,"hdg":170,"surf":"Concrete","rwy1":"18","lat1":-16.37383587,"lon1":-60.97865958,"rwy2":"36","lat2":-16.38449933,"lon2":-60.97689922}
]
,"navaids":[
{"type":"NDB","hdg_t":106.8,"dist_nm":0.7,"freq":250,"lat":-16.38300500,"lon":-60.96461700,"rng_nm":50,"alt_fmsl":0,"id":"SNG","desc":"SAN IGNACIO DE VELASCO NDB"},
{"type":"NDB","hdg_t":271.5,"dist_nm":93.9,"freq":1640,"lat":-16.33077000,"lon":-62.60580600,"rng_nm":50,"alt_fmsl":0,"id":"SJV","desc":"SAN JAVIER NDB"},
{"type":"NDB","hdg_t":286.4,"dist_nm":126,"freq":390,"lat":-15.77132100,"lon":-63.06637800,"rng_nm":80,"alt_fmsl":0,"id":"ASG","desc":"ASCENCION DE GUARAYOS NDB"},
{"type":"NDB","hdg_t":149.3,"dist_nm":135.8,"freq":325,"lat":-18.33190800,"lon":-59.76624200,"rng_nm":50,"alt_fmsl":0,"id":"OBO","desc":"ROBORE NDB"},
{"type":"NDB","hdg_t":235.9,"dist_nm":145.2,"freq":295,"lat":-17.72918100,"lon":-63.07833900,"rng_nm":25,"alt_fmsl":1224,"id":"VVO","desc":"VIRU VIRU NDB"},
{"type":"NDB","hdg_t":241.2,"dist_nm":145.3,"freq":280,"lat":-17.53668900,"lon":-63.20074400,"rng_nm":200,"alt_fmsl":1283,"id":"VRO","desc":"VIRU VIRU NDB"},
{"type":"VOR","hdg_t":238.8,"dist_nm":145.4,"freq":113.8,"lat":-17.62847800,"lon":-63.14989700,"rng_nm":200,"alt_fmsl":1224,"id":"VIR","desc":"VIRU VIRU VOR-DME"},
{"type":"NDB","hdg_t":89.4,"dist_nm":149.4,"freq":330,"lat":-16.33802300,"lon":-58.38699200,"rng_nm":50,"alt_fmsl":0,"id":"SMT","desc":"SAN MATIAS NDB"},
{"type":"NDB","hdg_t":235.6,"dist_nm":152.2,"freq":265,"lat":-17.80380800,"lon":-63.17349700,"rng_nm":50,"alt_fmsl":1371,"id":"TCZ","desc":"EL TROMPILLO NDB"},
{"type":"NDB","hdg_t":54,"dist_nm":215.1,"freq":235,"lat":-14.24250000,"lon":-57.99083300,"rng_nm":30,"alt_fmsl":2188,"id":"YTN","desc":"ITAMARATI NORTE NDB"}
]
}
