{"success":true,"source":"xp2csv.pl","last_updated":"2013/11/08 14:53:21 UTC"
,"icao":"SN73","name":"Stecklein Oil Company","lat":38.76390111,"lon":-99.26426806,"rwys":1,"ils":0,"index":1318962,"path":"w100n30/w100n38"
,"runways":[
{"len_m":761,"wid_m":19.81,"hdg":177,"surf":"Turf/grass","rwy1":"17","lat1":38.76732775,"lon1":-99.26442152,"rwy2":"35","lat2":38.76047447,"lon2":-99.26411460}
]
,"navaids":[
{"type":"NDB","hdg_t":62.3,"dist_nm":0.6,"freq":374,"lat":38.76922222,"lon":-99.25127778,"rng_nm":50,"alt_fmsl":0,"id":"HY","desc":"NETTE NDB"},
{"type":"VOR","hdg_t":353.3,"dist_nm":5,"freq":110.4,"lat":38.84766667,"lon":-99.27677778,"rng_nm":40,"alt_fmsl":1990,"id":"HYS","desc":"HAYS VORTAC"},
{"type":"NDB","hdg_t":144.8,"dist_nm":29.6,"freq":338,"lat":38.35908333,"lon":-98.90288889,"rng_nm":50,"alt_fmsl":0,"id":"HIL","desc":"HILYN NDB"},
{"type":"NDB","hdg_t":166,"dist_nm":34.5,"freq":296,"lat":38.20436111,"lon":-99.08791667,"rng_nm":50,"alt_fmsl":0,"id":"LQR","desc":"LARNED NDB"},
{"type":"NDB","hdg_t":147.8,"dist_nm":36.2,"freq":419,"lat":38.25169444,"lon":-98.85580556,"rng_nm":50,"alt_fmsl":0,"id":"GB","desc":"BABSY NDB"},
{"type":"VOR","hdg_t":303.7,"dist_nm":53.8,"freq":113.7,"lat":39.25875000,"lon":-100.22586111,"rng_nm":130,"alt_fmsl":2690,"id":"HLC","desc":"HILL CITY VORTAC"},
{"type":"NDB","hdg_t":116.7,"dist_nm":54.8,"freq":386,"lat":38.34722222,"lon":-98.22700000,"rng_nm":50,"alt_fmsl":0,"id":"LYO","desc":"LYONS NDB"},
{"type":"NDB","hdg_t":358.8,"dist_nm":56.4,"freq":368,"lat":39.70613889,"lon":-99.28830556,"rng_nm":50,"alt_fmsl":0,"id":"PHG","desc":"PHILLIPSBURG NDB"},
{"type":"VOR","hdg_t":212.8,"dist_nm":64.9,"freq":108.2,"lat":37.85058333,"lon":-100.00563889,"rng_nm":40,"alt_fmsl":2565,"id":"DDC","desc":"DODGE CITY VORTAC"},
{"type":"NDB","hdg_t":158.3,"dist_nm":66.8,"freq":356,"lat":37.72630556,"lon":-98.74708333,"rng_nm":50,"alt_fmsl":0,"id":"PTT","desc":"PRATT NDB"},
{"type":"NDB","hdg_t":336.1,"dist_nm":71.6,"freq":230,"lat":39.85527778,"lon":-99.89030556,"rng_nm":50,"alt_fmsl":0,"id":"NRN","desc":"NORTON NDB"},
{"type":"NDB","hdg_t":120.9,"dist_nm":73.7,"freq":404,"lat":38.12372222,"lon":-97.92702778,"rng_nm":50,"alt_fmsl":0,"id":"HU","desc":"SALTT NDB"},
{"type":"NDB","hdg_t":286.5,"dist_nm":75.5,"freq":380,"lat":39.11252778,"lon":-100.81530556,"rng_nm":50,"alt_fmsl":0,"id":"OEL","desc":"OAKLEY NDB"},
{"type":"NDB","hdg_t":93.2,"dist_nm":76.1,"freq":344,"lat":38.68152778,"lon":-97.64505556,"rng_nm":50,"alt_fmsl":0,"id":"SL","desc":"FLORY NDB"},
{"type":"VOR","hdg_t":82.3,"dist_nm":77.6,"freq":117.1,"lat":38.92513889,"lon":-97.62136111,"rng_nm":130,"alt_fmsl":1310,"id":"SLN","desc":"SALINA VORTAC"},
{"type":"VOR","hdg_t":125.8,"dist_nm":77.7,"freq":116.8,"lat":37.99691667,"lon":-97.93413889,"rng_nm":40,"alt_fmsl":1542,"id":"HUT","desc":"HUTCHINSON VOR-DME"},
{"type":"VOR","hdg_t":36.5,"dist_nm":78,"freq":109.8,"lat":39.80638889,"lon":-98.26002778,"rng_nm":40,"alt_fmsl":1880,"id":"TKO","desc":"MANKATO VORTAC"},
{"type":"NDB","hdg_t":108,"dist_nm":78.2,"freq":227,"lat":38.34850000,"lon":-97.68730556,"rng_nm":50,"alt_fmsl":0,"id":"MPR","desc":"MC PHERSON NDB"},
{"type":"NDB","hdg_t":257.9,"dist_nm":78.2,"freq":256,"lat":38.48013889,"lon":-100.88833333,"rng_nm":50,"alt_fmsl":0,"id":"TQK","desc":"SCOTT CITY NDB"},
{"type":"VOR","hdg_t":234.1,"dist_nm":85.5,"freq":113.3,"lat":37.91905556,"lon":-100.72505556,"rng_nm":130,"alt_fmsl":2877,"id":"GCK","desc":"GARDEN CITY VORTAC"},
{"type":"NDB","hdg_t":317.5,"dist_nm":87.1,"freq":341,"lat":39.82972222,"lon":-100.53763889,"rng_nm":50,"alt_fmsl":0,"id":"OIN","desc":"OBERLIN NDB"},
{"type":"NDB","hdg_t":231.3,"dist_nm":88.8,"freq":347,"lat":37.82897222,"lon":-100.72436111,"rng_nm":50,"alt_fmsl":0,"id":"GC","desc":"PIEVE NDB"},
{"type":"NDB","hdg_t":57.3,"dist_nm":88.9,"freq":335,"lat":39.55333333,"lon":-97.65113889,"rng_nm":50,"alt_fmsl":0,"id":"CNK","desc":"CONCORDIA NDB"},
{"type":"NDB","hdg_t":298.8,"dist_nm":94.5,"freq":408,"lat":39.50986111,"lon":-101.04763889,"rng_nm":50,"alt_fmsl":0,"id":"JDM","desc":"WHEATFIELD NDB"},
{"type":"NDB","hdg_t":49.4,"dist_nm":97.7,"freq":414,"lat":39.81327778,"lon":-97.65786111,"rng_nm":50,"alt_fmsl":0,"id":"RPB","desc":"REPUBLICAN NDB"}
]
}
