{"success":true,"source":"xp2csv.pl","last_updated":"2013/11/08 14:53:21 UTC"
,"icao":"SNDQ","name":"Fazenda Soya","lat":-12.92111111,"lon":-45.56944444,"rwys":1,"ils":0,"index":2200387,"path":"w050s20/w046s13"
,"runways":[
{"len_m":1203,"wid_m":20.12,"hdg":67,"surf":"Dirt","rwy1":"09","lat1":-12.92315862,"lon1":-45.57458177,"rwy2":"27","lat2":-12.91906360,"lon2":-45.56430711}
]
,"navaids":[
{"type":"VOR","hdg_t":33.3,"dist_nm":60.1,"freq":114.3,"lat":-12.08000000,"lon":-45.00716700,"rng_nm":200,"alt_fmsl":2444,"id":"BRR","desc":"BARREIRAS VOR"},
{"type":"NDB","hdg_t":33.7,"dist_nm":60.4,"freq":375,"lat":-12.07900000,"lon":-44.99833300,"rng_nm":200,"alt_fmsl":2444,"id":"BRR","desc":"BARREIRAS NDB"},
{"type":"NDB","hdg_t":99.4,"dist_nm":127.9,"freq":320,"lat":-13.26486400,"lon":-43.41307500,"rng_nm":75,"alt_fmsl":1580,"id":"LAP","desc":"LAPA NDB"},
{"type":"VOR","hdg_t":99.4,"dist_nm":128.2,"freq":113.7,"lat":-13.26464200,"lon":-43.40817200,"rng_nm":200,"alt_fmsl":1454,"id":"LAP","desc":"LAPA VOR-DME"},
{"type":"NDB","hdg_t":256,"dist_nm":158,"freq":305,"lat":-13.54366700,"lon":-48.19483300,"rng_nm":54,"alt_fmsl":0,"id":"CNB","desc":"CANA BRAVA NDB"},
{"type":"NDB","hdg_t":213.1,"dist_nm":188.1,"freq":210,"lat":-15.55133300,"lon":-47.34616700,"rng_nm":50,"alt_fmsl":0,"id":"FRM","desc":"FORMOSA NDB"},
{"type":"VOR","hdg_t":213.1,"dist_nm":188.5,"freq":114.1,"lat":-15.55759400,"lon":-47.34706900,"rng_nm":40,"alt_fmsl":3166,"id":"FRM","desc":"FORMOSA VOR-DME"},
{"type":"VOR","hdg_t":307.9,"dist_nm":212.2,"freq":113,"lat":-10.72070600,"lon":-48.40258600,"rng_nm":200,"alt_fmsl":870,"id":"PNC","desc":"PORTO NACIONAL VOR-DME"},
{"type":"NDB","hdg_t":308,"dist_nm":212.5,"freq":395,"lat":-10.71283300,"lon":-48.40216700,"rng_nm":200,"alt_fmsl":1054,"id":"PNC","desc":"PORTO NACIONAL NDB"},
{"type":"NDB","hdg_t":217.2,"dist_nm":221.4,"freq":240,"lat":-15.86083300,"lon":-47.88533300,"rng_nm":50,"alt_fmsl":3490,"id":"CH","desc":"COCHO NDB"}
]
}
