{"success":true,"source":"xp2csv.pl","last_updated":"2013/11/08 14:53:21 UTC"
,"icao":"SNDU","name":"Ponta Do Sol","lat":-20.63833333,"lon":-45.99805556,"rwys":1,"ils":0,"index":2199888,"path":"w050s30/w046s21"
,"runways":[
{"len_m":683,"wid_m":28.04,"hdg":8,"surf":"Asphalt","rwy1":"03","lat1":-20.64138927,"lon1":-45.99852591,"rwy2":"21","lat2":-20.63527740,"lon2":-45.99758521}
]
,"navaids":[
{"type":"NDB","hdg_t":258.3,"dist_nm":19.5,"freq":390,"lat":-20.70392500,"lon":-46.33785300,"rng_nm":50,"alt_fmsl":2413,"id":"FUR","desc":"FURNAS NDB"},
{"type":"NDB","hdg_t":152.7,"dist_nm":63.9,"freq":325,"lat":-21.58816700,"lon":-45.47433300,"rng_nm":75,"alt_fmsl":3028,"id":"VGH","desc":"VARGINHA NDB"},
{"type":"NDB","hdg_t":272.1,"dist_nm":77.9,"freq":405,"lat":-20.58366700,"lon":-47.38250000,"rng_nm":50,"alt_fmsl":3292,"id":"FRC","desc":"FRANCA NDB"},
{"type":"NDB","hdg_t":203.8,"dist_nm":78.3,"freq":415,"lat":-21.83583300,"lon":-46.56566700,"rng_nm":150,"alt_fmsl":4135,"id":"PCL","desc":"POCOS NDB"},
{"type":"VOR","hdg_t":313.2,"dist_nm":82.5,"freq":117,"lat":-19.68900000,"lon":-47.06050000,"rng_nm":200,"alt_fmsl":3989,"id":"ARX","desc":"ARAXA VOR-DME"},
{"type":"NDB","hdg_t":319.5,"dist_nm":84.4,"freq":210,"lat":-19.56100000,"lon":-46.96466700,"rng_nm":50,"alt_fmsl":3274,"id":"ARX","desc":"ARAXA NDB"},
{"type":"NDB","hdg_t":252.8,"dist_nm":104.3,"freq":330,"lat":-21.14266700,"lon":-47.77600000,"rng_nm":50,"alt_fmsl":1802,"id":"RPR","desc":"RIBEIRAO NDB"},
{"type":"NDB","hdg_t":222.7,"dist_nm":110,"freq":310,"lat":-21.98600000,"lon":-47.33750000,"rng_nm":50,"alt_fmsl":1968,"id":"PSN","desc":"PIRASSUNUNGA NDB"},
{"type":"VOR","hdg_t":222.8,"dist_nm":110.2,"freq":113.3,"lat":-21.98450000,"lon":-47.34416700,"rng_nm":200,"alt_fmsl":1968,"id":"PSN","desc":"PIRASSUNUNGA VOR-DME"},
{"type":"NDB","hdg_t":222.4,"dist_nm":110.9,"freq":345,"lat":-22.00246100,"lon":-47.34112500,"rng_nm":50,"alt_fmsl":0,"id":"IS","desc":"FONTE NDB"}
]
}
