{"success":true,"source":"xp2csv.pl","last_updated":"2013/11/08 14:53:21 UTC"
,"icao":"SNGK","name":"Fazenda Bela Vista","lat":-19.04833333,"lon":-48.97222222,"rwys":1,"ils":0,"index":2150840,"path":"w050s20/w049s20"
,"runways":[
{"len_m":1181,"wid_m":20.12,"hdg":350,"surf":"Dirt","rwy1":"01","lat1":-19.05359715,"lon1":-48.97129122,"rwy2":"19","lat2":-19.04306951,"lon2":-48.97315322}
]
,"navaids":[
{"type":"NDB","hdg_t":338.8,"dist_nm":38.9,"freq":245,"lat":-18.44025300,"lon":-49.21874700,"rng_nm":50,"alt_fmsl":1630,"id":"YBA","desc":"ITUMBIARA NDB"},
{"type":"NDB","hdg_t":77.2,"dist_nm":43.2,"freq":350,"lat":-18.88716700,"lon":-48.23000000,"rng_nm":50,"alt_fmsl":3094,"id":"ULD","desc":"UBERLANDIA NDB"},
{"type":"VOR","hdg_t":76.6,"dist_nm":43.9,"freq":116.1,"lat":-18.87661100,"lon":-48.22130000,"rng_nm":130,"alt_fmsl":3094,"id":"ULD","desc":"UBERLANDIA VOR-DME"},
{"type":"NDB","hdg_t":126.8,"dist_nm":71.6,"freq":235,"lat":-19.76550000,"lon":-47.95916700,"rng_nm":50,"alt_fmsl":2649,"id":"URB","desc":"UBERABA NDB"},
{"type":"NDB","hdg_t":189.4,"dist_nm":74.4,"freq":220,"lat":-20.27695300,"lon":-49.18959400,"rng_nm":50,"alt_fmsl":1599,"id":"FTR","desc":"FRONTEIRA NDB"},
{"type":"NDB","hdg_t":167,"dist_nm":94.1,"freq":360,"lat":-20.58216700,"lon":-48.59666700,"rng_nm":50,"alt_fmsl":1898,"id":"BRT","desc":"BARRETOS NDB"},
{"type":"NDB","hdg_t":193,"dist_nm":108.3,"freq":420,"lat":-20.81324700,"lon":-49.40601400,"rng_nm":100,"alt_fmsl":1782,"id":"JRP","desc":"RIO PRETO NDB"},
{"type":"VOR","hdg_t":109.7,"dist_nm":115,"freq":117,"lat":-19.68900000,"lon":-47.06050000,"rng_nm":200,"alt_fmsl":3989,"id":"ARX","desc":"ARAXA VOR-DME"},
{"type":"NDB","hdg_t":105.3,"dist_nm":117.9,"freq":210,"lat":-19.56100000,"lon":-46.96466700,"rng_nm":50,"alt_fmsl":3274,"id":"ARX","desc":"ARAXA NDB"},
{"type":"NDB","hdg_t":135.8,"dist_nm":128.4,"freq":405,"lat":-20.58366700,"lon":-47.38250000,"rng_nm":50,"alt_fmsl":3292,"id":"FRC","desc":"FRANCA NDB"}
]
}
