{"success":true,"source":"xp2csv.pl","last_updated":"2013/11/08 14:53:21 UTC"
,"icao":"SNHS","name":"Santa Magalhaes","lat":-8.062396,"lon":-38.328786,"rwys":1,"ils":0,"index":2315389,"path":"w040s10/w039s09"
,"runways":[
{"len_m":1797,"wid_m":27.43,"hdg":108,"surf":"Asphalt","rwy1":"13","lat1":-8.05988100,"lon1":-38.33653900,"rwy2":"31","lat2":-8.06491100,"lon2":-38.32103300}
]
,"navaids":[
{"type":"NDB","hdg_t":311.9,"dist_nm":75.7,"freq":205,"lat":-7.21383300,"lon":-39.27450000,"rng_nm":50,"alt_fmsl":1342,"id":"JZR","desc":"JUAZEIRO NDB"},
{"type":"NDB","hdg_t":176.4,"dist_nm":79.9,"freq":325,"lat":-9.39903300,"lon":-38.24556400,"rng_nm":50,"alt_fmsl":0,"id":"PAF","desc":"PAULO AFONSO NDB"},
{"type":"VOR","hdg_t":176.7,"dist_nm":80.1,"freq":113.3,"lat":-9.40200000,"lon":-38.25283300,"rng_nm":200,"alt_fmsl":883,"id":"PAF","desc":"PAULO AFONSO VOR"},
{"type":"NDB","hdg_t":72,"dist_nm":152.7,"freq":230,"lat":-7.26601400,"lon":-35.89267200,"rng_nm":60,"alt_fmsl":1777,"id":"CPG","desc":"CAMPINA GRANDE NDB"},
{"type":"VOR","hdg_t":239.4,"dist_nm":153.7,"freq":112.1,"lat":-9.36316700,"lon":-40.56133300,"rng_nm":200,"alt_fmsl":1263,"id":"PTL","desc":"PETROLINA VOR-DME"},
{"type":"NDB","hdg_t":239.4,"dist_nm":154.1,"freq":345,"lat":-9.36766700,"lon":-40.56750000,"rng_nm":27,"alt_fmsl":1396,"id":"PTL","desc":"PETROLINA NDB"},
{"type":"NDB","hdg_t":120.1,"dist_nm":173.1,"freq":340,"lat":-9.51166700,"lon":-35.80450000,"rng_nm":40,"alt_fmsl":387,"id":"MCO","desc":"MACEIO NDB"},
{"type":"VOR","hdg_t":119.9,"dist_nm":173.9,"freq":115.1,"lat":-9.50989400,"lon":-35.78687200,"rng_nm":130,"alt_fmsl":387,"id":"MCE","desc":"ZUMBI VOR-DME"},
{"type":"VOR","hdg_t":18.6,"dist_nm":180.5,"freq":112.4,"lat":-5.19733300,"lon":-37.36450000,"rng_nm":200,"alt_fmsl":88,"id":"MSS","desc":"MOSSORO VOR-DME"},
{"type":"NDB","hdg_t":18.6,"dist_nm":180.7,"freq":275,"lat":-5.19350000,"lon":-37.36450000,"rng_nm":90,"alt_fmsl":217,"id":"MSS","desc":"MOSSORO NDB"}
]
}
