{"success":true,"source":"xp2csv.pl","last_updated":"2013/11/08 14:53:21 UTC"
,"icao":"SNJR","name":"Sao Joao Del Rei","lat":-21.0864445,"lon":-44.2264725,"rwys":1,"ils":0,"index":2216254,"path":"w050s30/w045s22"
,"runways":[
{"len_m":1104,"wid_m":31.09,"hdg":56,"surf":"Asphalt","rwy1":"08","lat1":-21.08922200,"lon1":-44.23088900,"rwy2":"26","lat2":-21.08366700,"lon2":-44.22205600}
]
,"navaids":[
{"type":"NDB","hdg_t":112.6,"dist_nm":28,"freq":285,"lat":-21.26700000,"lon":-43.76416700,"rng_nm":60,"alt_fmsl":3657,"id":"BBC","desc":"BARBACENA NDB"},
{"type":"NDB","hdg_t":130.9,"dist_nm":62.3,"freq":1730,"lat":-21.76783300,"lon":-43.38366700,"rng_nm":50,"alt_fmsl":0,"id":"FRA","desc":"FORA NDB"},
{"type":"NDB","hdg_t":11.7,"dist_nm":75.2,"freq":520,"lat":-19.85333300,"lon":-43.95466700,"rng_nm":54,"alt_fmsl":2589,"id":"BHZ","desc":"BELO HORIZONTE NDB"},
{"type":"VOR","hdg_t":9.5,"dist_nm":75.8,"freq":117.7,"lat":-19.83576900,"lon":-44.00356400,"rng_nm":200,"alt_fmsl":2889,"id":"BHZ","desc":"BELO HORIZONTE VOR-DME"},
{"type":"NDB","hdg_t":246.5,"dist_nm":76,"freq":325,"lat":-21.58816700,"lon":-45.47433300,"rng_nm":75,"alt_fmsl":3028,"id":"VGH","desc":"VARGINHA NDB"},
{"type":"VOR","hdg_t":165.3,"dist_nm":84.5,"freq":115,"lat":-22.45400000,"lon":-43.84050000,"rng_nm":200,"alt_fmsl":318,"id":"PAI","desc":"PIRAI VOR-DME"},
{"type":"NDB","hdg_t":165.3,"dist_nm":84.6,"freq":355,"lat":-22.45509400,"lon":-43.84101700,"rng_nm":150,"alt_fmsl":318,"id":"PAI","desc":"PIRAI NDB"},
{"type":"NDB","hdg_t":12.3,"dist_nm":87.3,"freq":295,"lat":-19.65883300,"lon":-43.89700000,"rng_nm":50,"alt_fmsl":2747,"id":"LST","desc":"LAGOA SANTA NDB"},
{"type":"NDB","hdg_t":8.8,"dist_nm":88.9,"freq":215,"lat":-19.61607200,"lon":-43.98503600,"rng_nm":50,"alt_fmsl":0,"id":"IF","desc":"FAZENDA NDB"},
{"type":"NDB","hdg_t":6.7,"dist_nm":91.8,"freq":245,"lat":-19.55983300,"lon":-44.03683300,"rng_nm":50,"alt_fmsl":0,"id":"IC","desc":"MOCAMBO NDB"},
{"type":"VOR","hdg_t":6.2,"dist_nm":91.9,"freq":114.4,"lat":-19.55816700,"lon":-44.04850000,"rng_nm":200,"alt_fmsl":2782,"id":"CNF","desc":"CONFINS VOR-DME"}
]
}
