{"success":true,"source":"xp2csv.pl","last_updated":"2013/11/08 14:53:21 UTC"
,"icao":"SNKV","name":"Fazenda Campo Verde","lat":1.04277778,"lon":-50.51666667,"rwys":1,"ils":0,"index":2119363,"path":"w060n00/w051n01"
,"runways":[
{"len_m":509,"wid_m":17.98,"hdg":51,"surf":"Gravel","rwy1":"07","lat1":1.04133019,"lon1":-50.51844793,"rwy2":"25","lat2":1.04422536,"lon2":-50.51488541}
]
,"navaids":[
{"type":"NDB","hdg_t":169.1,"dist_nm":32.4,"freq":310,"lat":0.50916700,"lon":-50.41483300,"rng_nm":50,"alt_fmsl":0,"id":"CN","desc":"CANIVETE NDB"},
{"type":"NDB","hdg_t":341.3,"dist_nm":64.6,"freq":275,"lat":2.06883300,"lon":-50.86050000,"rng_nm":100,"alt_fmsl":184,"id":"AMP","desc":"AMAPA NDB"},
{"type":"VOR","hdg_t":209.4,"dist_nm":67.9,"freq":112,"lat":0.05216700,"lon":-51.07300000,"rng_nm":40,"alt_fmsl":56,"id":"MCP","desc":"MACAPA VOR-DME"},
{"type":"NDB","hdg_t":209.1,"dist_nm":68.1,"freq":215,"lat":0.04650000,"lon":-51.06883300,"rng_nm":50,"alt_fmsl":56,"id":"MCP","desc":"MACAPA NDB"},
{"type":"NDB","hdg_t":319.3,"dist_nm":167.5,"freq":208,"lat":3.17125000,"lon":-52.33452800,"rng_nm":15,"alt_fmsl":0,"id":"CP","desc":"CAMOPI NDB"},
{"type":"NDB","hdg_t":227.4,"dist_nm":170.1,"freq":305,"lat":-0.88333300,"lon":-52.60300000,"rng_nm":100,"alt_fmsl":677,"id":"MDD","desc":"DOURADO NDB"},
{"type":"NDB","hdg_t":335.4,"dist_nm":184.9,"freq":340,"lat":3.85983300,"lon":-51.79783300,"rng_nm":70,"alt_fmsl":63,"id":"OIA","desc":"OIAPOQUE NDB"},
{"type":"NDB","hdg_t":140,"dist_nm":189.7,"freq":395,"lat":-1.39444400,"lon":-48.49173100,"rng_nm":50,"alt_fmsl":0,"id":"IE","desc":"VALDE NDB"},
{"type":"VOR","hdg_t":139.7,"dist_nm":189.7,"freq":117.3,"lat":-1.38433300,"lon":-48.47850000,"rng_nm":200,"alt_fmsl":54,"id":"BEL","desc":"BELEM VOR-DME"},
{"type":"NDB","hdg_t":139.8,"dist_nm":189.8,"freq":250,"lat":-1.38983300,"lon":-48.48116700,"rng_nm":50,"alt_fmsl":54,"id":"BEL","desc":"BELEM NDB"}
]
}
