{"success":true,"source":"xp2csv.pl","last_updated":"2013/11/08 14:53:21 UTC"
,"icao":"SNNF","name":"Nossa Senhora De Fatima","lat":-5.03361112,"lon":-42.70555556,"rwys":1,"ils":0,"index":2250042,"path":"w050s10/w043s06"
,"runways":[
{"len_m":895,"wid_m":17.98,"hdg":358,"surf":"Gravel","rwy1":"02","lat1":-5.03765921,"lon1":-42.70544602,"rwy2":"20","lat2":-5.02956302,"lon2":-42.70566510}
]
,"navaids":[
{"type":"NDB","hdg_t":253.5,"dist_nm":7.1,"freq":215,"lat":-5.06733300,"lon":-42.81950000,"rng_nm":60,"alt_fmsl":219,"id":"TRS","desc":"TERESINA NDB"},
{"type":"VOR","hdg_t":254.7,"dist_nm":7.4,"freq":112.3,"lat":-5.06617800,"lon":-42.82488600,"rng_nm":200,"alt_fmsl":219,"id":"TRS","desc":"TERESINA VOR-DME"},
{"type":"NDB","hdg_t":206.7,"dist_nm":116.7,"freq":400,"lat":-6.78016700,"lon":-43.58516700,"rng_nm":50,"alt_fmsl":0,"id":"GDP","desc":"GUADALUPE NDB"},
{"type":"NDB","hdg_t":24.7,"dist_nm":140.3,"freq":365,"lat":-2.89750000,"lon":-41.72883300,"rng_nm":62,"alt_fmsl":16,"id":"PNB","desc":"PARNAIBA NDB"},
{"type":"VOR","hdg_t":327.7,"dist_nm":172.5,"freq":113.5,"lat":-2.58916700,"lon":-44.24000000,"rng_nm":190,"alt_fmsl":178,"id":"SLI","desc":"SAO LUIS VOR-DME"},
{"type":"NDB","hdg_t":327.8,"dist_nm":172.7,"freq":280,"lat":-2.58183300,"lon":-44.23616700,"rng_nm":50,"alt_fmsl":291,"id":"SLI","desc":"SAO LUIS NDB"},
{"type":"NDB","hdg_t":327.7,"dist_nm":179.6,"freq":300,"lat":-2.48850000,"lon":-44.30233300,"rng_nm":50,"alt_fmsl":0,"id":"SM","desc":"SAO MARCOS NDB"},
{"type":"NDB","hdg_t":81.8,"dist_nm":186.1,"freq":415,"lat":-4.58533300,"lon":-39.63033300,"rng_nm":50,"alt_fmsl":0,"id":"YTT","desc":"ITATAIA NDB"},
{"type":"NDB","hdg_t":327.2,"dist_nm":188.1,"freq":230,"lat":-2.38150000,"lon":-44.39932500,"rng_nm":70,"alt_fmsl":148,"id":"ALC","desc":"ALCANTARA NDB"},
{"type":"NDB","hdg_t":66.3,"dist_nm":214.7,"freq":235,"lat":-3.58550000,"lon":-39.42666700,"rng_nm":25,"alt_fmsl":0,"id":"URT","desc":"URUBURETAMA NDB"}
]
}
