{"success":true,"source":"xp2csv.pl","last_updated":"2013/11/08 14:53:21 UTC"
,"icao":"SNOX","name":"Oriximina","lat":-1.714085,"lon":-55.8362225,"rwys":1,"ils":0,"index":2037265,"path":"w060s10/w056s02"
,"runways":[
{"len_m":1601,"wid_m":29.87,"hdg":158,"surf":"Asphalt","rwy1":"17","lat1":-1.70732800,"lon1":-55.83880600,"rwy2":"35","lat2":-1.72084200,"lon2":-55.83363900}
]
,"navaids":[
{"type":"NDB","hdg_t":291.9,"dist_nm":36.3,"freq":205,"lat":-1.48633300,"lon":-56.39783300,"rng_nm":100,"alt_fmsl":287,"id":"PTT","desc":"TROMBETAS NDB"},
{"type":"VOR","hdg_t":124.8,"dist_nm":74.5,"freq":112.3,"lat":-2.42650000,"lon":-54.81750000,"rng_nm":40,"alt_fmsl":198,"id":"STM","desc":"SANTAREM VOR-DME"},
{"type":"NDB","hdg_t":124.1,"dist_nm":75.8,"freq":350,"lat":-2.42766700,"lon":-54.79166700,"rng_nm":40,"alt_fmsl":427,"id":"STM","desc":"SANTAREM NDB"},
{"type":"VOR","hdg_t":224.6,"dist_nm":80,"freq":114.1,"lat":-2.66728100,"lon":-56.77310800,"rng_nm":130,"alt_fmsl":87,"id":"PRI","desc":"PARINTINS VOR-DME"},
{"type":"NDB","hdg_t":183.8,"dist_nm":151.1,"freq":250,"lat":-4.24050000,"lon":-56.00466700,"rng_nm":50,"alt_fmsl":110,"id":"YUB","desc":"ITAITUBA NDB"},
{"type":"NDB","hdg_t":242.1,"dist_nm":179.6,"freq":320,"lat":-3.11932500,"lon":-58.48089700,"rng_nm":75,"alt_fmsl":142,"id":"YTC","desc":"ITACOATIARA NDB"},
{"type":"NDB","hdg_t":75.7,"dist_nm":200.5,"freq":305,"lat":-0.88333300,"lon":-52.60300000,"rng_nm":100,"alt_fmsl":677,"id":"MDD","desc":"DOURADO NDB"},
{"type":"NDB","hdg_t":90.6,"dist_nm":216.4,"freq":285,"lat":-1.75033300,"lon":-52.23383300,"rng_nm":50,"alt_fmsl":53,"id":"MOZ","desc":"MOZ NDB"},
{"type":"NDB","hdg_t":113.2,"dist_nm":234.1,"freq":295,"lat":-3.25650000,"lon":-52.25083300,"rng_nm":120,"alt_fmsl":0,"id":"ATM","desc":"ALTAMIRA NDB"},
{"type":"VOR","hdg_t":113.1,"dist_nm":234.1,"freq":113.2,"lat":-3.24933300,"lon":-52.24766700,"rng_nm":200,"alt_fmsl":367,"id":"ATM","desc":"ALTAMIRA VOR"}
]
}
