{"success":true,"source":"xp2csv.pl","last_updated":"2013/11/08 14:53:21 UTC"
,"icao":"SNPQ","name":"Pesqueira","lat":-8.3741674,"lon":-36.6377792,"rwys":1,"ils":0,"index":2348138,"path":"w040s10/w037s09"
,"runways":[
{"len_m":1001,"wid_m":14.33,"hdg":78,"surf":"Concrete","rwy1":"10","lat1":-8.37510269,"lon1":-36.64222681,"rwy2":"28","lat2":-8.37323211,"lon2":-36.63333159}
]
,"navaids":[
{"type":"NDB","hdg_t":33.8,"dist_nm":79.6,"freq":230,"lat":-7.26601400,"lon":-35.89267200,"rng_nm":60,"alt_fmsl":1777,"id":"CPG","desc":"CAMPINA GRANDE NDB"},
{"type":"NDB","hdg_t":78.8,"dist_nm":81.9,"freq":285,"lat":-8.10650000,"lon":-35.28733300,"rng_nm":100,"alt_fmsl":0,"id":"VSA","desc":"SANTO ANTAO NDB"},
{"type":"NDB","hdg_t":143.9,"dist_nm":84,"freq":340,"lat":-9.51166700,"lon":-35.80450000,"rng_nm":40,"alt_fmsl":387,"id":"MCO","desc":"MACEIO NDB"},
{"type":"VOR","hdg_t":143.3,"dist_nm":84.5,"freq":115.1,"lat":-9.50989400,"lon":-35.78687200,"rng_nm":130,"alt_fmsl":387,"id":"MCE","desc":"ZUMBI VOR-DME"},
{"type":"NDB","hdg_t":78.8,"dist_nm":102.2,"freq":380,"lat":-8.03850000,"lon":-34.95200000,"rng_nm":40,"alt_fmsl":0,"id":"OLD","desc":"OLINDA NDB"},
{"type":"VOR","hdg_t":82.1,"dist_nm":102.7,"freq":116.9,"lat":-8.13658600,"lon":-34.92729700,"rng_nm":200,"alt_fmsl":33,"id":"REC","desc":"RECIFE VOR-DME"},
{"type":"NDB","hdg_t":237.2,"dist_nm":113.4,"freq":325,"lat":-9.39903300,"lon":-38.24556400,"rng_nm":50,"alt_fmsl":0,"id":"PAF","desc":"PAULO AFONSO NDB"},
{"type":"VOR","hdg_t":237.2,"dist_nm":113.8,"freq":113.3,"lat":-9.40200000,"lon":-38.25283300,"rng_nm":200,"alt_fmsl":883,"id":"PAF","desc":"PAULO AFONSO VOR"},
{"type":"NDB","hdg_t":53.8,"dist_nm":124.5,"freq":320,"lat":-7.14050000,"lon":-34.95250000,"rng_nm":40,"alt_fmsl":215,"id":"JPS","desc":"JOAO PESSOA NDB"},
{"type":"VOR","hdg_t":189.4,"dist_nm":157.9,"freq":112,"lat":-10.98191000,"lon":-37.07733100,"rng_nm":200,"alt_fmsl":26,"id":"ACJ","desc":"ARACAJU VOR-DME"}
]
}
