{"success":true,"source":"xp2csv.pl","last_updated":"2013/11/08 14:53:21 UTC"
,"icao":"SNPW","name":"Piaus","lat":-8.833333,"lon":-50.0005569,"rwys":1,"ils":0,"index":2118735,"path":"w060s10/w051s09"
,"runways":[
{"len_m":1794,"wid_m":25.60,"hdg":150,"surf":"Concrete","rwy1":"17","lat1":-8.82624856,"lon1":-50.00453100,"rwy2":"35","lat2":-8.84041744,"lon2":-49.99658280}
]
,"navaids":[
{"type":"NDB","hdg_t":55.5,"dist_nm":50.5,"freq":230,"lat":-8.35366700,"lon":-49.29916700,"rng_nm":50,"alt_fmsl":854,"id":"ARG","desc":"ARAGUAIA NDB"},
{"type":"NDB","hdg_t":132,"dist_nm":130.2,"freq":255,"lat":-10.29069400,"lon":-48.36586100,"rng_nm":50,"alt_fmsl":656,"id":"PMS","desc":"PALMAS NDB"},
{"type":"VOR","hdg_t":131.8,"dist_nm":130.4,"freq":112.2,"lat":-10.28791700,"lon":-48.35841700,"rng_nm":130,"alt_fmsl":656,"id":"PMS","desc":"PALMAS VOR-DME"},
{"type":"NDB","hdg_t":47.7,"dist_nm":141.8,"freq":205,"lat":-7.23350000,"lon":-48.23900000,"rng_nm":50,"alt_fmsl":771,"id":"AGI","desc":"ARAGUAINA NDB"},
{"type":"NDB","hdg_t":139.9,"dist_nm":146.8,"freq":395,"lat":-10.71283300,"lon":-48.40216700,"rng_nm":200,"alt_fmsl":1054,"id":"PNC","desc":"PORTO NACIONAL NDB"},
{"type":"VOR","hdg_t":140.1,"dist_nm":147.1,"freq":113,"lat":-10.72070600,"lon":-48.40258600,"rng_nm":200,"alt_fmsl":870,"id":"PNC","desc":"PORTO NACIONAL VOR-DME"},
{"type":"VOR","hdg_t":359.9,"dist_nm":162,"freq":112.4,"lat":-6.11933300,"lon":-50.00216700,"rng_nm":200,"alt_fmsl":2038,"id":"CRJ","desc":"CARAJAS VOR-DME"},
{"type":"NDB","hdg_t":359.9,"dist_nm":162.5,"freq":1700,"lat":-6.11133300,"lon":-50.00400000,"rng_nm":130,"alt_fmsl":2038,"id":"CRJ","desc":"CARAJAS NDB"},
{"type":"NDB","hdg_t":59.3,"dist_nm":176,"freq":330,"lat":-7.32300000,"lon":-47.46000000,"rng_nm":80,"alt_fmsl":565,"id":"CNA","desc":"CAROLINA NDB"},
{"type":"VOR","hdg_t":59.3,"dist_nm":176.4,"freq":115.3,"lat":-7.31873100,"lon":-47.45481900,"rng_nm":130,"alt_fmsl":565,"id":"CNA","desc":"CAROLINA VOR"}
]
}
