{"success":true,"source":"xp2csv.pl","last_updated":"2013/11/08 14:53:21 UTC"
,"icao":"SNPZ","name":"Pedra Azul","lat":-16.0669441,"lon":-41.1669426,"rwys":1,"ils":0,"index":2265726,"path":"w050s20/w042s17"
,"runways":[
{"len_m":1001,"wid_m":14.33,"hdg":78,"surf":"Concrete","rwy1":"10","lat1":-16.06787939,"lon1":-41.17152165,"rwy2":"28","lat2":-16.06600881,"lon2":-41.16236355}
]
,"navaids":[
{"type":"NDB","hdg_t":13.7,"dist_nm":73.8,"freq":260,"lat":-14.86647200,"lon":-40.86558100,"rng_nm":50,"alt_fmsl":2998,"id":"VCO","desc":"CONQUISTA NDB"},
{"type":"NDB","hdg_t":100.8,"dist_nm":122.3,"freq":385,"lat":-16.44166700,"lon":-39.08250000,"rng_nm":27,"alt_fmsl":167,"id":"SGR","desc":"PORTO SEGURO NDB"},
{"type":"NDB","hdg_t":71.6,"dist_nm":132.2,"freq":335,"lat":-15.36083300,"lon":-39.00133300,"rng_nm":50,"alt_fmsl":0,"id":"COM","desc":"COMANDATUBA NDB"},
{"type":"NDB","hdg_t":59,"dist_nm":144.4,"freq":305,"lat":-14.81216700,"lon":-39.03666700,"rng_nm":70,"alt_fmsl":15,"id":"YLH","desc":"ILHEUS NDB"},
{"type":"VOR","hdg_t":130.9,"dist_nm":145,"freq":116,"lat":-17.64850000,"lon":-39.25566700,"rng_nm":200,"alt_fmsl":36,"id":"CVL","desc":"CARAVELAS VOR"},
{"type":"NDB","hdg_t":130.9,"dist_nm":145.4,"freq":365,"lat":-17.65416700,"lon":-39.24983300,"rng_nm":10,"alt_fmsl":36,"id":"CVL","desc":"CARAVELAS NDB"},
{"type":"NDB","hdg_t":255.6,"dist_nm":157.6,"freq":310,"lat":-16.70350000,"lon":-43.81916700,"rng_nm":50,"alt_fmsl":2191,"id":"MCL","desc":"MONTES CLAROS NDB"},
{"type":"NDB","hdg_t":195.4,"dist_nm":175.6,"freq":380,"lat":-18.89850000,"lon":-41.98766700,"rng_nm":50,"alt_fmsl":561,"id":"VAL","desc":"VALADARES NDB"},
{"type":"NDB","hdg_t":128.9,"dist_nm":181.8,"freq":290,"lat":-17.96450000,"lon":-38.69383300,"rng_nm":75,"alt_fmsl":0,"id":"AV","desc":"ABROLHOS NDB"},
{"type":"VOR","hdg_t":321.8,"dist_nm":212.1,"freq":113.7,"lat":-13.26464200,"lon":-43.40817200,"rng_nm":200,"alt_fmsl":1454,"id":"LAP","desc":"LAPA VOR-DME"}
]
}
