{"success":true,"source":"xp2csv.pl","last_updated":"2013/11/08 14:53:21 UTC"
,"icao":"SNQX","name":"Quixada","lat":-4.9790735,"lon":-38.987632,"rwys":1,"ils":0,"index":2315584,"path":"w040s10/w039s05"
,"runways":[
{"len_m":1202,"wid_m":29.87,"hdg":107,"surf":"Asphalt","rwy1":"14","lat1":-4.97744700,"lon1":-38.99280600,"rwy2":"32","lat2":-4.98070000,"lon2":-38.98245800}
]
,"navaids":[
{"type":"NDB","hdg_t":301.3,"dist_nm":45.1,"freq":415,"lat":-4.58533300,"lon":-39.63033300,"rng_nm":50,"alt_fmsl":0,"id":"YTT","desc":"ITATAIA NDB"},
{"type":"NDB","hdg_t":16.5,"dist_nm":76.4,"freq":210,"lat":-3.75166700,"lon":-38.62500000,"rng_nm":50,"alt_fmsl":0,"id":"PCI","desc":"PICI NDB"},
{"type":"VOR","hdg_t":20.1,"dist_nm":76.7,"freq":114.1,"lat":-3.77226900,"lon":-38.54768900,"rng_nm":200,"alt_fmsl":82,"id":"FLZ","desc":"FORTALEZA VOR-DME"},
{"type":"NDB","hdg_t":20.9,"dist_nm":77.2,"freq":260,"lat":-3.76983900,"lon":-38.52769200,"rng_nm":110,"alt_fmsl":192,"id":"FLZ","desc":"FORTALEZA NDB"},
{"type":"NDB","hdg_t":342.4,"dist_nm":87.2,"freq":235,"lat":-3.58550000,"lon":-39.42666700,"rng_nm":25,"alt_fmsl":0,"id":"URT","desc":"URUBURETAMA NDB"},
{"type":"NDB","hdg_t":97.5,"dist_nm":98,"freq":275,"lat":-5.19350000,"lon":-37.36450000,"rng_nm":90,"alt_fmsl":217,"id":"MSS","desc":"MOSSORO NDB"},
{"type":"VOR","hdg_t":97.7,"dist_nm":98,"freq":112.4,"lat":-5.19733300,"lon":-37.36450000,"rng_nm":200,"alt_fmsl":88,"id":"MSS","desc":"MOSSORO VOR-DME"},
{"type":"NDB","hdg_t":187.3,"dist_nm":134.5,"freq":205,"lat":-7.21383300,"lon":-39.27450000,"rng_nm":50,"alt_fmsl":1342,"id":"JZR","desc":"JUAZEIRO NDB"},
{"type":"NDB","hdg_t":89,"dist_nm":158.5,"freq":220,"lat":-4.92916700,"lon":-36.33972200,"rng_nm":25,"alt_fmsl":0,"id":"UBA","desc":"UBARANA NDB"},
{"type":"NDB","hdg_t":306.9,"dist_nm":206,"freq":365,"lat":-2.89750000,"lon":-41.72883300,"rng_nm":62,"alt_fmsl":16,"id":"PNB","desc":"PARNAIBA NDB"}
]
}
