{"success":true,"source":"xp2csv.pl","last_updated":"2013/11/08 14:53:21 UTC"
,"icao":"SNRQ","name":"Porto Rico","lat":-6.10416667,"lon":-57.37944444,"rwys":1,"ils":0,"index":2004220,"path":"w060s10/w058s07"
,"runways":[
{"len_m":901,"wid_m":17.98,"hdg":93,"surf":"Dirt","rwy1":"11","lat1":-6.10390382,"lon1":-57.38350900,"rwy2":"29","lat2":-6.10442951,"lon2":-57.37537988}
]
,"navaids":[
{"type":"VOR","hdg_t":251.4,"dist_nm":24.6,"freq":112.2,"lat":-6.23566700,"lon":-57.77050000,"rng_nm":135,"alt_fmsl":323,"id":"JAC","desc":"JACAREACANGA VOR-DME"},
{"type":"NDB","hdg_t":251.1,"dist_nm":24.9,"freq":360,"lat":-6.23866700,"lon":-57.77400000,"rng_nm":75,"alt_fmsl":323,"id":"JAC","desc":"JACAREACANGA NDB"},
{"type":"NDB","hdg_t":36.5,"dist_nm":138.4,"freq":250,"lat":-4.24050000,"lon":-56.00466700,"rng_nm":50,"alt_fmsl":110,"id":"YUB","desc":"ITAITUBA NDB"},
{"type":"NDB","hdg_t":339.6,"dist_nm":190,"freq":320,"lat":-3.11932500,"lon":-58.48089700,"rng_nm":75,"alt_fmsl":142,"id":"YTC","desc":"ITACOATIARA NDB"},
{"type":"VOR","hdg_t":10,"dist_nm":208.4,"freq":114.1,"lat":-2.66728100,"lon":-56.77310800,"rng_nm":130,"alt_fmsl":87,"id":"PRI","desc":"PARINTINS VOR-DME"},
{"type":"NDB","hdg_t":274.1,"dist_nm":233.9,"freq":310,"lat":-5.80716700,"lon":-61.28200000,"rng_nm":65,"alt_fmsl":0,"id":"MCR","desc":"MANICORE NDB"},
{"type":"NDB","hdg_t":318.3,"dist_nm":236.2,"freq":410,"lat":-3.14280800,"lon":-59.99360300,"rng_nm":70,"alt_fmsl":474,"id":"PEL","desc":"PELADA NDB"},
{"type":"VOR","hdg_t":161.4,"dist_nm":237.2,"freq":113.4,"lat":-9.86836400,"lon":-56.10492800,"rng_nm":200,"alt_fmsl":947,"id":"ATF","desc":"ALTA FLORESTA VOR-DME"},
{"type":"NDB","hdg_t":161.3,"dist_nm":237.4,"freq":245,"lat":-9.87056400,"lon":-56.10146400,"rng_nm":100,"alt_fmsl":947,"id":"ATF","desc":"ALTA FLORESTA NDB"},
{"type":"VOR","hdg_t":143.4,"dist_nm":240.5,"freq":115.1,"lat":-9.33514700,"lon":-54.96785000,"rng_nm":200,"alt_fmsl":1762,"id":"CXB","desc":"CACHIMBO VOR-DME"}
]
}
