{"success":true,"source":"xp2csv.pl","last_updated":"2013/11/08 14:53:21 UTC"
,"icao":"SNSB","name":"Sao Bento","lat":-2.70444445,"lon":-44.84472222,"rwys":1,"ils":0,"index":2217425,"path":"w050s10/w045s03"
,"runways":[
{"len_m":798,"wid_m":29.87,"hdg":39,"surf":"Turf/grass","rwy1":"06","lat1":-2.70723899,"lon1":-44.84699571,"rwy2":"24","lat2":-2.70164990,"lon2":-44.84244873}
]
,"navaids":[
{"type":"NDB","hdg_t":54.2,"dist_nm":32.9,"freq":230,"lat":-2.38150000,"lon":-44.39932500,"rng_nm":70,"alt_fmsl":148,"id":"ALC","desc":"ALCANTARA NDB"},
{"type":"NDB","hdg_t":68.4,"dist_nm":35,"freq":300,"lat":-2.48850000,"lon":-44.30233300,"rng_nm":50,"alt_fmsl":0,"id":"SM","desc":"SAO MARCOS NDB"},
{"type":"VOR","hdg_t":79.2,"dist_nm":36.9,"freq":113.5,"lat":-2.58916700,"lon":-44.24000000,"rng_nm":190,"alt_fmsl":178,"id":"SLI","desc":"SAO LUIS VOR-DME"},
{"type":"NDB","hdg_t":78.6,"dist_nm":37.2,"freq":280,"lat":-2.58183300,"lon":-44.23616700,"rng_nm":50,"alt_fmsl":291,"id":"SLI","desc":"SAO LUIS NDB"},
{"type":"NDB","hdg_t":357.6,"dist_nm":85,"freq":320,"lat":-1.28133300,"lon":-44.90333300,"rng_nm":300,"alt_fmsl":0,"id":"AI","desc":"SAO JOAO NDB"},
{"type":"VOR","hdg_t":139.4,"dist_nm":185.8,"freq":112.3,"lat":-5.06617800,"lon":-42.82488600,"rng_nm":200,"alt_fmsl":219,"id":"TRS","desc":"TERESINA VOR-DME"},
{"type":"NDB","hdg_t":139.3,"dist_nm":186.1,"freq":215,"lat":-5.06733300,"lon":-42.81950000,"rng_nm":60,"alt_fmsl":219,"id":"TRS","desc":"TERESINA NDB"},
{"type":"NDB","hdg_t":93.6,"dist_nm":187.4,"freq":365,"lat":-2.89750000,"lon":-41.72883300,"rng_nm":62,"alt_fmsl":16,"id":"PNB","desc":"PARNAIBA NDB"},
{"type":"NDB","hdg_t":309.5,"dist_nm":195.8,"freq":315,"lat":-0.61533300,"lon":-47.35716700,"rng_nm":150,"alt_fmsl":0,"id":"BL","desc":"SALINOPOLIS NDB"},
{"type":"VOR","hdg_t":222.7,"dist_nm":229.6,"freq":112.7,"lat":-5.52383300,"lon":-47.44983300,"rng_nm":200,"alt_fmsl":431,"id":"YTZ","desc":"IMPERATRIZ VOR-DME"}
]
}
