{"success":true,"source":"xp2csv.pl","last_updated":"2013/11/08 14:53:21 UTC"
,"icao":"SNSE","name":"Sento Se","lat":-9.74138889,"lon":-41.84111111,"rwys":1,"ils":0,"index":2266129,"path":"w050s10/w042s10"
,"runways":[
{"len_m":1101,"wid_m":24.99,"hdg":137,"surf":"Gravel","rwy1":"16","lat1":-9.73769748,"lon1":-41.84448183,"rwy2":"34","lat2":-9.74508030,"lon2":-41.83774039}
]
,"navaids":[
{"type":"NDB","hdg_t":73.6,"dist_nm":78.7,"freq":345,"lat":-9.36766700,"lon":-40.56750000,"rng_nm":27,"alt_fmsl":1396,"id":"PTL","desc":"PETROLINA NDB"},
{"type":"VOR","hdg_t":73.5,"dist_nm":79.1,"freq":112.1,"lat":-9.36316700,"lon":-40.56133300,"rng_nm":200,"alt_fmsl":1263,"id":"PTL","desc":"PETROLINA VOR-DME"},
{"type":"NDB","hdg_t":168.5,"dist_nm":167.2,"freq":235,"lat":-12.48565000,"lon":-41.27562200,"rng_nm":50,"alt_fmsl":0,"id":"LEN","desc":"LENCOIS NDB"},
{"type":"NDB","hdg_t":329.4,"dist_nm":205,"freq":400,"lat":-6.78016700,"lon":-43.58516700,"rng_nm":50,"alt_fmsl":0,"id":"GDP","desc":"GUADALUPE NDB"},
{"type":"VOR","hdg_t":84.8,"dist_nm":213.6,"freq":113.3,"lat":-9.40200000,"lon":-38.25283300,"rng_nm":200,"alt_fmsl":883,"id":"PAF","desc":"PAULO AFONSO VOR"},
{"type":"NDB","hdg_t":84.8,"dist_nm":214.1,"freq":325,"lat":-9.39903300,"lon":-38.24556400,"rng_nm":50,"alt_fmsl":0,"id":"PAF","desc":"PAULO AFONSO NDB"},
{"type":"NDB","hdg_t":45.5,"dist_nm":214.6,"freq":205,"lat":-7.21383300,"lon":-39.27450000,"rng_nm":50,"alt_fmsl":1342,"id":"JZR","desc":"JUAZEIRO NDB"},
{"type":"VOR","hdg_t":203.5,"dist_nm":229.7,"freq":113.7,"lat":-13.26464200,"lon":-43.40817200,"rng_nm":200,"alt_fmsl":1454,"id":"LAP","desc":"LAPA VOR-DME"},
{"type":"NDB","hdg_t":203.5,"dist_nm":229.9,"freq":320,"lat":-13.26486400,"lon":-43.41307500,"rng_nm":75,"alt_fmsl":1580,"id":"LAP","desc":"LAPA NDB"},
{"type":"NDB","hdg_t":232.8,"dist_nm":232.8,"freq":375,"lat":-12.07900000,"lon":-44.99833300,"rng_nm":200,"alt_fmsl":2444,"id":"BRR","desc":"BARREIRAS NDB"}
]
}
