{"success":true,"source":"xp2csv.pl","last_updated":"2013/11/08 14:53:21 UTC"
,"icao":"SNUI","name":"Aracuai","lat":-16.8526125,"lon":-42.045118,"rwys":1,"ils":0,"index":2249295,"path":"w050s20/w043s17"
,"runways":[
{"len_m":1199,"wid_m":29.87,"hdg":54,"surf":"Asphalt","rwy1":"08","lat1":-16.85575000,"lon1":-42.04970800,"rwy2":"26","lat2":-16.84947500,"lon2":-42.04052800}
]
,"navaids":[
{"type":"NDB","hdg_t":274.7,"dist_nm":102.5,"freq":310,"lat":-16.70350000,"lon":-43.81916700,"rng_nm":50,"alt_fmsl":2191,"id":"MCL","desc":"MONTES CLAROS NDB"},
{"type":"NDB","hdg_t":178.4,"dist_nm":122.3,"freq":380,"lat":-18.89850000,"lon":-41.98766700,"rng_nm":50,"alt_fmsl":561,"id":"VAL","desc":"VALADARES NDB"},
{"type":"NDB","hdg_t":30,"dist_nm":136.8,"freq":260,"lat":-14.86647200,"lon":-40.86558100,"rng_nm":50,"alt_fmsl":2998,"id":"VCO","desc":"CONQUISTA NDB"},
{"type":"NDB","hdg_t":188.9,"dist_nm":157.9,"freq":1618,"lat":-19.46300000,"lon":-42.47950000,"rng_nm":25,"alt_fmsl":784,"id":"YPT","desc":"USIMINAS NDB"},
{"type":"VOR","hdg_t":106.9,"dist_nm":167,"freq":116,"lat":-17.64850000,"lon":-39.25566700,"rng_nm":200,"alt_fmsl":36,"id":"CVL","desc":"CARAVELAS VOR"},
{"type":"NDB","hdg_t":107,"dist_nm":167.4,"freq":365,"lat":-17.65416700,"lon":-39.24983300,"rng_nm":10,"alt_fmsl":36,"id":"CVL","desc":"CARAVELAS NDB"},
{"type":"NDB","hdg_t":82.2,"dist_nm":172.4,"freq":385,"lat":-16.44166700,"lon":-39.08250000,"rng_nm":27,"alt_fmsl":167,"id":"SGR","desc":"PORTO SEGURO NDB"},
{"type":"NDB","hdg_t":63.5,"dist_nm":197.1,"freq":335,"lat":-15.36083300,"lon":-39.00133300,"rng_nm":50,"alt_fmsl":0,"id":"COM","desc":"COMANDATUBA NDB"},
{"type":"NDB","hdg_t":214.8,"dist_nm":197.7,"freq":245,"lat":-19.55983300,"lon":-44.03683300,"rng_nm":50,"alt_fmsl":0,"id":"IC","desc":"MOCAMBO NDB"},
{"type":"VOR","hdg_t":214.9,"dist_nm":198,"freq":114.4,"lat":-19.55816700,"lon":-44.04850000,"rng_nm":200,"alt_fmsl":2782,"id":"CNF","desc":"CONFINS VOR-DME"}
]
}
