{"success":true,"source":"xp2csv.pl","last_updated":"2013/11/08 14:53:21 UTC"
,"icao":"SNVJ","name":"Fazenda Salto Grande","lat":-15.25333333,"lon":-58.79333333,"rwys":1,"ils":0,"index":1987241,"path":"w060s20/w059s16"
,"runways":[
{"len_m":906,"wid_m":20.12,"hdg":136,"surf":"Turf/grass","rwy1":"15","lat1":-15.25036826,"lon1":-58.79624201,"rwy2":"33","lat2":-15.25629840,"lon2":-58.79042465}
]
,"navaids":[
{"type":"NDB","hdg_t":160.1,"dist_nm":68.9,"freq":330,"lat":-16.33802300,"lon":-58.38699200,"rng_nm":50,"alt_fmsl":0,"id":"SMT","desc":"SAN MATIAS NDB"},
{"type":"NDB","hdg_t":37.7,"dist_nm":76.3,"freq":235,"lat":-14.24250000,"lon":-57.99083300,"rng_nm":30,"alt_fmsl":2188,"id":"YTN","desc":"ITAMARATI NORTE NDB"},
{"type":"NDB","hdg_t":73.1,"dist_nm":97.1,"freq":335,"lat":-14.77733300,"lon":-57.19350000,"rng_nm":30,"alt_fmsl":988,"id":"FGN","desc":"FAZENDA GUANABARA NDB"},
{"type":"NDB","hdg_t":241.4,"dist_nm":142.5,"freq":250,"lat":-16.38300500,"lon":-60.96461700,"rng_nm":50,"alt_fmsl":0,"id":"SNG","desc":"SAN IGNACIO DE VELASCO NDB"},
{"type":"NDB","hdg_t":99.1,"dist_nm":156.7,"freq":380,"lat":-15.65500000,"lon":-56.12016700,"rng_nm":150,"alt_fmsl":614,"id":"CIA","desc":"CUIABA NDB"},
{"type":"VOR","hdg_t":99.1,"dist_nm":157.2,"freq":113.7,"lat":-15.65616700,"lon":-56.11200000,"rng_nm":200,"alt_fmsl":614,"id":"CIA","desc":"CUIABA VOR-DME"},
{"type":"VOR","hdg_t":333.4,"dist_nm":170.7,"freq":112.1,"lat":-12.69366700,"lon":-60.09533300,"rng_nm":200,"alt_fmsl":2036,"id":"VLH","desc":"VILHENA VOR-DME"},
{"type":"NDB","hdg_t":333.3,"dist_nm":171.1,"freq":395,"lat":-12.68950000,"lon":-60.10333300,"rng_nm":50,"alt_fmsl":2252,"id":"VLH","desc":"VILHENA NDB"},
{"type":"NDB","hdg_t":196.7,"dist_nm":192.2,"freq":325,"lat":-18.33190800,"lon":-59.76624200,"rng_nm":50,"alt_fmsl":0,"id":"OBO","desc":"ROBORE NDB"},
{"type":"NDB","hdg_t":166,"dist_nm":229.7,"freq":290,"lat":-18.98192500,"lon":-57.81837400,"rng_nm":100,"alt_fmsl":439,"id":"PSZ","desc":"PUERTO SUAREZ NDB"}
]
}
