{"success":true,"source":"xp2csv.pl","last_updated":"2013/11/08 14:53:21 UTC"
,"icao":"SNWU","name":"Fazenda Ponte Quinha","lat":-23.00861111,"lon":-55.50972222,"rwys":1,"ils":0,"index":2035897,"path":"w060s30/w056s24"
,"runways":[
{"len_m":897,"wid_m":39.93,"hdg":23,"surf":"Turf/grass","rwy1":"04","lat1":-23.01233447,"lon1":-55.51144817,"rwy2":"22","lat2":-23.00488775,"lon2":-55.50799627}
]
,"navaids":[
{"type":"NDB","hdg_t":320.6,"dist_nm":28.3,"freq":353,"lat":-22.64194400,"lon":-55.83333300,"rng_nm":25,"alt_fmsl":1873,"id":"PJC","desc":"PEDRO JUAN CABALLERO NDB"},
{"type":"NDB","hdg_t":338.1,"dist_nm":29.5,"freq":340,"lat":-22.55016700,"lon":-55.70716700,"rng_nm":50,"alt_fmsl":2156,"id":"PTP","desc":"PONTA PORA NDB"},
{"type":"NDB","hdg_t":33.7,"dist_nm":58.2,"freq":285,"lat":-22.19733300,"lon":-54.92833300,"rng_nm":70,"alt_fmsl":1503,"id":"DOU","desc":"DOURA NDB"},
{"type":"NDB","hdg_t":289.9,"dist_nm":66.4,"freq":397,"lat":-22.62583300,"lon":-56.63472200,"rng_nm":100,"alt_fmsl":0,"id":"STA","desc":"SANTA TERESA NDB"},
{"type":"NDB","hdg_t":256,"dist_nm":109.2,"freq":405,"lat":-23.43841900,"lon":-57.43059700,"rng_nm":65,"alt_fmsl":0,"id":"CON","desc":"CONCEPCION NDB"},
{"type":"NDB","hdg_t":135.5,"dist_nm":141.3,"freq":385,"lat":-24.68566700,"lon":-53.69966700,"rng_nm":50,"alt_fmsl":1854,"id":"TOL","desc":"TOLEDO NDB"},
{"type":"NDB","hdg_t":163.9,"dist_nm":147,"freq":293,"lat":-25.36972200,"lon":-54.76138900,"rng_nm":25,"alt_fmsl":793,"id":"ALG","desc":"CIUDAD DEL ESTE NDB"},
{"type":"VOR","hdg_t":166.2,"dist_nm":151,"freq":116.3,"lat":-25.46000000,"lon":-54.85000000,"rng_nm":130,"alt_fmsl":888,"id":"VES","desc":"CIUDAD DEL ESTE VOR-DME"},
{"type":"NDB","hdg_t":161.4,"dist_nm":151.5,"freq":225,"lat":-25.40861100,"lon":-54.62166700,"rng_nm":30,"alt_fmsl":762,"id":"ITU","desc":"ITAIPU NDB"},
{"type":"NDB","hdg_t":166.6,"dist_nm":151.9,"freq":200,"lat":-25.47916700,"lon":-54.86583300,"rng_nm":200,"alt_fmsl":0,"id":"CDE","desc":"CIUDAD DEL ESTE NDB"}
]
}
