{"success":true,"source":"xp2csv.pl","last_updated":"2013/11/08 14:53:21 UTC"
,"icao":"SNXS","name":"Caxias","lat":-4.8666668,"lon":-43.3502769,"rwys":1,"ils":0,"index":2233677,"path":"w050s10/w044s05"
,"runways":[
{"len_m":1161,"wid_m":16.46,"hdg":99,"surf":"Concrete","rwy1":"12","lat1":-4.86576038,"lon1":-43.35543609,"rwy2":"30","lat2":-4.86757322,"lon2":-43.34511771}
]
,"navaids":[
{"type":"VOR","hdg_t":110.7,"dist_nm":33.6,"freq":112.3,"lat":-5.06617800,"lon":-42.82488600,"rng_nm":200,"alt_fmsl":219,"id":"TRS","desc":"TERESINA VOR-DME"},
{"type":"NDB","hdg_t":110.6,"dist_nm":33.9,"freq":215,"lat":-5.06733300,"lon":-42.81950000,"rng_nm":60,"alt_fmsl":219,"id":"TRS","desc":"TERESINA NDB"},
{"type":"NDB","hdg_t":186.9,"dist_nm":115.1,"freq":400,"lat":-6.78016700,"lon":-43.58516700,"rng_nm":50,"alt_fmsl":0,"id":"GDP","desc":"GUADALUPE NDB"},
{"type":"VOR","hdg_t":338.5,"dist_nm":146,"freq":113.5,"lat":-2.58916700,"lon":-44.24000000,"rng_nm":190,"alt_fmsl":178,"id":"SLI","desc":"SAO LUIS VOR-DME"},
{"type":"NDB","hdg_t":338.6,"dist_nm":146.4,"freq":280,"lat":-2.58183300,"lon":-44.23616700,"rng_nm":50,"alt_fmsl":291,"id":"SLI","desc":"SAO LUIS NDB"},
{"type":"NDB","hdg_t":39.6,"dist_nm":152.5,"freq":365,"lat":-2.89750000,"lon":-41.72883300,"rng_nm":62,"alt_fmsl":16,"id":"PNB","desc":"PARNAIBA NDB"},
{"type":"NDB","hdg_t":338,"dist_nm":153,"freq":300,"lat":-2.48850000,"lon":-44.30233300,"rng_nm":50,"alt_fmsl":0,"id":"SM","desc":"SAO MARCOS NDB"},
{"type":"NDB","hdg_t":336.9,"dist_nm":161.1,"freq":230,"lat":-2.38150000,"lon":-44.39932500,"rng_nm":70,"alt_fmsl":148,"id":"ALC","desc":"ALCANTARA NDB"},
{"type":"NDB","hdg_t":85.8,"dist_nm":223.4,"freq":415,"lat":-4.58533300,"lon":-39.63033300,"rng_nm":50,"alt_fmsl":0,"id":"YTT","desc":"ITATAIA NDB"},
{"type":"NDB","hdg_t":336.4,"dist_nm":233.4,"freq":320,"lat":-1.28133300,"lon":-44.90333300,"rng_nm":300,"alt_fmsl":0,"id":"AI","desc":"SAO JOAO NDB"}
]
}
