{"success":true,"source":"xp2csv.pl","last_updated":"2013/11/08 14:53:21 UTC"
,"icao":"SNYF","name":"Fazenda Parnaiba","lat":-8.50972222,"lon":-46.125,"rwys":1,"ils":0,"index":2184287,"path":"w050s10/w047s09"
,"runways":[
{"len_m":1202,"wid_m":29.87,"hdg":88,"surf":"Gravel","rwy1":"11","lat1":-8.50984800,"lon1":-46.13045865,"rwy2":"29","lat2":-8.50959644,"lon2":-46.11954135}
]
,"navaids":[
{"type":"VOR","hdg_t":311.8,"dist_nm":106.4,"freq":115.3,"lat":-7.31873100,"lon":-47.45481900,"rng_nm":130,"alt_fmsl":565,"id":"CNA","desc":"CAROLINA VOR"},
{"type":"NDB","hdg_t":311.6,"dist_nm":106.4,"freq":330,"lat":-7.32300000,"lon":-47.46000000,"rng_nm":80,"alt_fmsl":565,"id":"CNA","desc":"CAROLINA NDB"},
{"type":"NDB","hdg_t":301,"dist_nm":147.1,"freq":205,"lat":-7.23350000,"lon":-48.23900000,"rng_nm":50,"alt_fmsl":771,"id":"AGI","desc":"ARAGUAINA NDB"},
{"type":"VOR","hdg_t":231.1,"dist_nm":169.7,"freq":112.2,"lat":-10.28791700,"lon":-48.35841700,"rng_nm":130,"alt_fmsl":656,"id":"PMS","desc":"PALMAS VOR-DME"},
{"type":"NDB","hdg_t":231.1,"dist_nm":170.2,"freq":255,"lat":-10.29069400,"lon":-48.36586100,"rng_nm":50,"alt_fmsl":656,"id":"PMS","desc":"PALMAS NDB"},
{"type":"NDB","hdg_t":55.8,"dist_nm":183.1,"freq":400,"lat":-6.78016700,"lon":-43.58516700,"rng_nm":50,"alt_fmsl":0,"id":"GDP","desc":"GUADALUPE NDB"},
{"type":"NDB","hdg_t":225.5,"dist_nm":188.4,"freq":395,"lat":-10.71283300,"lon":-48.40216700,"rng_nm":200,"alt_fmsl":1054,"id":"PNC","desc":"PORTO NACIONAL NDB"},
{"type":"VOR","hdg_t":225.4,"dist_nm":188.8,"freq":113,"lat":-10.72070600,"lon":-48.40258600,"rng_nm":200,"alt_fmsl":870,"id":"PNC","desc":"PORTO NACIONAL VOR-DME"},
{"type":"NDB","hdg_t":272.5,"dist_nm":188.9,"freq":230,"lat":-8.35366700,"lon":-49.29916700,"rng_nm":50,"alt_fmsl":854,"id":"ARG","desc":"ARAGUAIA NDB"},
{"type":"NDB","hdg_t":335.8,"dist_nm":194.6,"freq":390,"lat":-5.53450000,"lon":-47.45716700,"rng_nm":40,"alt_fmsl":431,"id":"YTZ","desc":"IMPERATRIZ NDB"}
]
}
