{"success":true,"source":"xp2csv.pl","last_updated":"2013/11/08 14:53:21 UTC"
,"icao":"SNYI","name":"Fazenda Hj","lat":-16.62361111,"lon":-47.29972222,"rwys":1,"ils":0,"index":2167389,"path":"w050s20/w048s17"
,"runways":[
{"len_m":857,"wid_m":20.12,"hdg":140,"surf":"Dirt","rwy1":"16","lat1":-16.62064304,"lon1":-47.30230505,"rwy2":"34","lat2":-16.62657918,"lon2":-47.29713939}
]
,"navaids":[
{"type":"NDB","hdg_t":149.3,"dist_nm":41.2,"freq":300,"lat":-17.21716700,"lon":-46.93383300,"rng_nm":65,"alt_fmsl":0,"id":"PKT","desc":"PARACATU NDB"},
{"type":"NDB","hdg_t":299.3,"dist_nm":44.3,"freq":400,"lat":-16.25856100,"lon":-47.96955800,"rng_nm":50,"alt_fmsl":3269,"id":"LUZ","desc":"LUZIANIA NDB"},
{"type":"VOR","hdg_t":299.1,"dist_nm":44.3,"freq":113.1,"lat":-16.26085000,"lon":-47.97095600,"rng_nm":130,"alt_fmsl":3269,"id":"LUZ","desc":"LUZIANIA VOR-DME"},
{"type":"NDB","hdg_t":323.3,"dist_nm":56.7,"freq":240,"lat":-15.86083300,"lon":-47.88533300,"rng_nm":50,"alt_fmsl":3490,"id":"CH","desc":"COCHO NDB"},
{"type":"VOR","hdg_t":321,"dist_nm":57.2,"freq":117.3,"lat":-15.87834400,"lon":-47.92175300,"rng_nm":25,"alt_fmsl":3479,"id":"XMA","desc":"GAMA VOR"},
{"type":"NDB","hdg_t":320.8,"dist_nm":58.4,"freq":280,"lat":-15.86416700,"lon":-47.93733300,"rng_nm":25,"alt_fmsl":0,"id":"IR","desc":"TREVO NDB"},
{"type":"VOR","hdg_t":316.9,"dist_nm":61.1,"freq":115.9,"lat":-15.87375000,"lon":-48.02135600,"rng_nm":200,"alt_fmsl":3974,"id":"BRS","desc":"BRASILIA VOR-DME"},
{"type":"NDB","hdg_t":317.1,"dist_nm":61.3,"freq":340,"lat":-15.86966700,"lon":-48.02166700,"rng_nm":90,"alt_fmsl":0,"id":"BRS","desc":"BRASILIA NDB"},
{"type":"VOR","hdg_t":357.5,"dist_nm":63.7,"freq":114.1,"lat":-15.55759400,"lon":-47.34706900,"rng_nm":40,"alt_fmsl":3166,"id":"FRM","desc":"FORMOSA VOR-DME"},
{"type":"NDB","hdg_t":357.5,"dist_nm":64.1,"freq":210,"lat":-15.55133300,"lon":-47.34616700,"rng_nm":50,"alt_fmsl":0,"id":"FRM","desc":"FORMOSA NDB"},
{"type":"NDB","hdg_t":287,"dist_nm":96.3,"freq":325,"lat":-16.14383300,"lon":-48.89383300,"rng_nm":25,"alt_fmsl":0,"id":"PP","desc":"POROROCA NDB"},
{"type":"VOR","hdg_t":282.2,"dist_nm":99.9,"freq":115.4,"lat":-16.26067200,"lon":-48.99201100,"rng_nm":200,"alt_fmsl":2960,"id":"ANP","desc":"ANAPOLIS VOR-DME"}
]
}
