{"success":true,"source":"xp2csv.pl","last_updated":"2013/11/08 14:53:21 UTC"
,"icao":"SPCP","name":"Pucacaca","lat":-6.833056,"lon":-76.3330536,"rwys":1,"ils":0,"index":1692877,"path":"w080s10/w077s07"
,"runways":[
{"len_m":1158,"wid_m":16.76,"hdg":22,"surf":"Concrete","rwy1":"02","lat1":-6.83790852,"lon1":-76.33502817,"rwy2":"20","lat2":-6.82820348,"lon2":-76.33107903}
]
,"navaids":[
{"type":"VOR","hdg_t":348.9,"dist_nm":10.6,"freq":115.5,"lat":-6.65810800,"lon":-76.36734200,"rng_nm":120,"alt_fmsl":1664,"id":"TAP","desc":"TARAPOTO VOR-DME"},
{"type":"NDB","hdg_t":229,"dist_nm":30.8,"freq":290,"lat":-7.17146700,"lon":-76.72385000,"rng_nm":50,"alt_fmsl":1148,"id":"UAN","desc":"JUANJUI NDB"},
{"type":"VOR","hdg_t":11.5,"dist_nm":57.3,"freq":113.7,"lat":-5.89225000,"lon":-76.14080600,"rng_nm":130,"alt_fmsl":0,"id":"YMR","desc":"YURIMAGUAS VOR"},
{"type":"NDB","hdg_t":14.7,"dist_nm":58.6,"freq":340,"lat":-5.88333300,"lon":-76.08333300,"rng_nm":120,"alt_fmsl":0,"id":"YMS","desc":"YURIMAGUAS NDB"},
{"type":"NDB","hdg_t":313.7,"dist_nm":69.2,"freq":201,"lat":-6.03002500,"lon":-77.16927500,"rng_nm":50,"alt_fmsl":659,"id":"RIO","desc":"RIOJA NDB"},
{"type":"NDB","hdg_t":111.1,"dist_nm":84.9,"freq":380,"lat":-7.34527800,"lon":-75.00527800,"rng_nm":50,"alt_fmsl":0,"id":"ANA","desc":"CONTAMANA NDB"},
{"type":"VOR","hdg_t":292.4,"dist_nm":98.7,"freq":115.1,"lat":-6.20027778,"lon":-77.86000000,"rng_nm":130,"alt_fmsl":8294,"id":"POY","desc":"CHACHAPOYAS VOR-DME"},
{"type":"NDB","hdg_t":261.7,"dist_nm":130,"freq":300,"lat":-7.14000000,"lon":-78.49055600,"rng_nm":120,"alt_fmsl":8590,"id":"MAR","desc":"CAJAMARCA NDB"},
{"type":"VOR","hdg_t":131.4,"dist_nm":139.6,"freq":116.7,"lat":-8.37583300,"lon":-74.57222200,"rng_nm":150,"alt_fmsl":537,"id":"PUL","desc":"PUCALLPA VOR-DME"},
{"type":"NDB","hdg_t":172.4,"dist_nm":148.3,"freq":385,"lat":-9.29645800,"lon":-76.00475000,"rng_nm":120,"alt_fmsl":0,"id":"TGM","desc":"TINGO MARIA NDB"}
]
}
