{"success":true,"source":"xp2csv.pl","last_updated":"2013/11/08 14:53:21 UTC"
,"icao":"SPRC","name":"Prince Rupert Coal","lat":54.224849,"lon":-130.327533,"rwys":1,"ils":0,"index":812042,"path":"w140n50/w131n54"
,"runways":[
{"len_m":610,"wid_m":14.94,"hdg":15,"surf":"Concrete","rwy1":"17","lat1":54.22220000,"lon1":-130.32874500,"rwy2":"35","lat2":54.22749800,"lon2":-130.32632100}
]
,"navaids":[
{"type":"NDB","hdg_t":304.3,"dist_nm":4.1,"freq":218,"lat":54.26333333,"lon":-130.42394444,"rng_nm":50,"alt_fmsl":0,"id":"PR","desc":"PRINCE RUPERT NDB"},
{"type":"SDME","hdg_t":312.4,"dist_nm":5.8,"freq":109.7,"lat":54.29055600,"lon":-130.45055600,"rng_nm":25,"alt_fmsl":91,"id":"IPR","desc":"PRINCE RUPERT DME"},
{"type":"NDB","hdg_t":99.2,"dist_nm":59.3,"freq":203,"lat":54.05411111,"lon":-128.67022222,"rng_nm":50,"alt_fmsl":0,"id":"ZKI","desc":"KITIMAT NDB"},
{"type":"NDB","hdg_t":80.9,"dist_nm":61.9,"freq":332,"lat":54.37400000,"lon":-128.58311111,"rng_nm":50,"alt_fmsl":0,"id":"XT","desc":"TERRACE NDB"},
{"type":"SDME","hdg_t":76.2,"dist_nm":62.7,"freq":110.1,"lat":54.46083300,"lon":-128.58777800,"rng_nm":25,"alt_fmsl":713,"id":"IXT","desc":"TERRACE DME"},
{"type":"NDB","hdg_t":75,"dist_nm":62.8,"freq":254,"lat":54.48277800,"lon":-128.59138900,"rng_nm":25,"alt_fmsl":713,"id":"TB","desc":"SKEENA NDB"},
{"type":"NDB","hdg_t":260.3,"dist_nm":64.5,"freq":278,"lat":54.03166667,"lon":-132.12722222,"rng_nm":50,"alt_fmsl":0,"id":"1U","desc":"MASSET NDB"},
{"type":"VOR","hdg_t":319.5,"dist_nm":66.5,"freq":117.1,"lat":55.06041667,"lon":-131.57838889,"rng_nm":130,"alt_fmsl":174,"id":"ANN","desc":"ANNETTE ISLAND VOR-DME"},
{"type":"NDB","hdg_t":319.3,"dist_nm":67.5,"freq":266,"lat":55.07088889,"lon":-131.60500000,"rng_nm":50,"alt_fmsl":0,"id":"ICK","desc":"NICHOLS NDB"},
{"type":"NDB","hdg_t":228.1,"dist_nm":77.8,"freq":248,"lat":53.35002778,"lon":-131.94002778,"rng_nm":50,"alt_fmsl":0,"id":"ZZP","desc":"DEAD TREE NDB"},
{"type":"VOR","hdg_t":222.6,"dist_nm":78.7,"freq":114.1,"lat":53.25222222,"lon":-131.80694444,"rng_nm":130,"alt_fmsl":30,"id":"YZP","desc":"SANDSPIT VOR-DME"},
{"type":"NDB","hdg_t":220.4,"dist_nm":80.5,"freq":368,"lat":53.19616667,"lon":-131.77750000,"rng_nm":50,"alt_fmsl":0,"id":"ZP","desc":"SANDSPIT NDB"},
{"type":"NDB","hdg_t":325.3,"dist_nm":82.1,"freq":396,"lat":55.34216667,"lon":-131.69077778,"rng_nm":50,"alt_fmsl":0,"id":"CMJ","desc":"CLAM COVE NDB"}
]
}
