{"success":true,"source":"xp2csv.pl","last_updated":"2013/11/08 14:53:21 UTC"
,"icao":"SSAW","name":"Fazenda Japecanga","lat":-20.80527778,"lon":-54.07805556,"rwys":1,"ils":0,"index":2052431,"path":"w060s30/w055s21"
,"runways":[
{"len_m":809,"wid_m":29.87,"hdg":164,"surf":"Gravel","rwy1":"18","lat1":-20.80176050,"lon1":-54.07911079,"rwy2":"36","lat2":-20.80879506,"lon2":-54.07700033}
]
,"navaids":[
{"type":"NDB","hdg_t":42.4,"dist_nm":27.3,"freq":245,"lat":-20.46716700,"lon":-53.75050000,"rng_nm":70,"alt_fmsl":0,"id":"RIB","desc":"RIBAS NDB"},
{"type":"VOR","hdg_t":301,"dist_nm":38.9,"freq":115.7,"lat":-20.46883300,"lon":-54.67033300,"rng_nm":200,"alt_fmsl":1833,"id":"CGR","desc":"CAMPO GRANDE VOR-DME"},
{"type":"NDB","hdg_t":307.2,"dist_nm":39,"freq":215,"lat":-20.40883300,"lon":-54.63033300,"rng_nm":50,"alt_fmsl":0,"id":"PP","desc":"MARACA NDB"},
{"type":"NDB","hdg_t":298.9,"dist_nm":39.3,"freq":395,"lat":-20.48586100,"lon":-54.68932800,"rng_nm":50,"alt_fmsl":0,"id":"IG","desc":"SOJA NDB"},
{"type":"NDB","hdg_t":293.9,"dist_nm":40.3,"freq":270,"lat":-20.53066700,"lon":-54.73266700,"rng_nm":100,"alt_fmsl":0,"id":"CGR","desc":"CAMPO GRANDE NDB"},
{"type":"NDB","hdg_t":209.5,"dist_nm":95.8,"freq":285,"lat":-22.19733300,"lon":-54.92833300,"rng_nm":70,"alt_fmsl":1503,"id":"DOU","desc":"DOURA NDB"},
{"type":"NDB","hdg_t":220.8,"dist_nm":138.4,"freq":340,"lat":-22.55016700,"lon":-55.70716700,"rng_nm":50,"alt_fmsl":2156,"id":"PTP","desc":"PONTA PORA NDB"},
{"type":"NDB","hdg_t":89.6,"dist_nm":141.3,"freq":335,"lat":-20.77400000,"lon":-51.56400000,"rng_nm":70,"alt_fmsl":1169,"id":"URP","desc":"URUBUPUNGA NDB"},
{"type":"VOR","hdg_t":89.7,"dist_nm":141.6,"freq":114.2,"lat":-20.77650000,"lon":-51.55883300,"rng_nm":200,"alt_fmsl":1169,"id":"URP","desc":"URUBUPUNGA VOR-DME"},
{"type":"NDB","hdg_t":344.4,"dist_nm":142.7,"freq":205,"lat":-18.50383300,"lon":-54.75050000,"rng_nm":50,"alt_fmsl":0,"id":"CXM","desc":"COXIM NDB"}
]
}
