{"success":true,"source":"xp2csv.pl","last_updated":"2013/11/08 14:53:21 UTC"
,"icao":"SSBO","name":"Palmares","lat":-28.72222222,"lon":-54.89083333,"rwys":1,"ils":0,"index":2051920,"path":"w060s30/w055s29"
,"runways":[
{"len_m":601,"wid_m":24.99,"hdg":85,"surf":"Turf/grass","rwy1":"10","lat1":-28.72241710,"lon1":-54.89390521,"rwy2":"28","lat2":-28.72202734,"lon2":-54.88776145}
]
,"navaids":[
{"type":"NDB","hdg_t":55.2,"dist_nm":46.3,"freq":280,"lat":-28.27931700,"lon":-54.17193900,"rng_nm":50,"alt_fmsl":1056,"id":"SAN","desc":"SANTO ANGELO NDB"},
{"type":"NDB","hdg_t":135.2,"dist_nm":83.2,"freq":210,"lat":-29.70616700,"lon":-53.76916700,"rng_nm":100,"alt_fmsl":0,"id":"SMR","desc":"CERRITO NDB"},
{"type":"VOR","hdg_t":134,"dist_nm":85.5,"freq":112,"lat":-29.71000000,"lon":-53.71316700,"rng_nm":200,"alt_fmsl":287,"id":"SMA","desc":"SANTA MARIA VOR-DME"},
{"type":"NDB","hdg_t":133.1,"dist_nm":86.6,"freq":365,"lat":-29.70766700,"lon":-53.68166700,"rng_nm":100,"alt_fmsl":287,"id":"SMA","desc":"SANTA MARIA NDB"},
{"type":"NDB","hdg_t":323.7,"dist_nm":97.3,"freq":307,"lat":-27.40625000,"lon":-55.97019400,"rng_nm":25,"alt_fmsl":0,"id":"P","desc":"POSADAS NDB"},
{"type":"VOR","hdg_t":324.1,"dist_nm":98.3,"freq":114.9,"lat":-27.38555600,"lon":-55.96916700,"rng_nm":185,"alt_fmsl":429,"id":"POS","desc":"POSADAS VOR-DME"},
{"type":"NDB","hdg_t":239.9,"dist_nm":129.3,"freq":275,"lat":-29.78600000,"lon":-57.03666700,"rng_nm":100,"alt_fmsl":256,"id":"URG","desc":"URUGUAIANA NDB"},
{"type":"NDB","hdg_t":219.3,"dist_nm":130.7,"freq":405,"lat":-30.40291700,"lon":-56.48708300,"rng_nm":110,"alt_fmsl":0,"id":"AT","desc":"ARTIGAS NDB"},
{"type":"NDB","hdg_t":243.9,"dist_nm":131.7,"freq":325,"lat":-29.66936100,"lon":-57.15575000,"rng_nm":25,"alt_fmsl":230,"id":"L","desc":"PASO DE LOS LIBRES NDB"},
{"type":"NDB","hdg_t":243.2,"dist_nm":132,"freq":250,"lat":-29.69472200,"lon":-57.14805600,"rng_nm":189,"alt_fmsl":230,"id":"LIB","desc":"PASO DE LOS LIBRES NDB"}
]
}
