{"success":true,"source":"xp2csv.pl","last_updated":"2013/11/08 14:53:21 UTC"
,"icao":"SSCK","name":"Concordia","lat":-27.180611,"lon":-52.0527225,"rwys":1,"ils":0,"index":2084787,"path":"w060s30/w053s28"
,"runways":[
{"len_m":1486,"wid_m":17.98,"hdg":129,"surf":"Asphalt","rwy1":"14","lat1":-27.17636100,"lon1":-52.05852800,"rwy2":"32","lat2":-27.18486100,"lon2":-52.04691700}
]
,"navaids":[
{"type":"NDB","hdg_t":275.1,"dist_nm":32,"freq":1734,"lat":-27.13079700,"lon":-52.64934700,"rng_nm":70,"alt_fmsl":2146,"id":"XPC","desc":"CHAPECO NDB"},
{"type":"VOR","hdg_t":274.5,"dist_nm":32.7,"freq":116.1,"lat":-27.13566700,"lon":-52.66300000,"rng_nm":130,"alt_fmsl":2146,"id":"XPC","desc":"CHAPECO VOR-DME"},
{"type":"NDB","hdg_t":68.9,"dist_nm":64.1,"freq":400,"lat":-26.79140300,"lon":-50.93836700,"rng_nm":50,"alt_fmsl":14,"id":"CAD","desc":"CACADOR NDB"},
{"type":"VOR","hdg_t":192.9,"dist_nm":64.9,"freq":112.7,"lat":-28.23833300,"lon":-52.32650000,"rng_nm":130,"alt_fmsl":2376,"id":"PFD","desc":"PASSO FUNDO VOR"},
{"type":"NDB","hdg_t":193,"dist_nm":65.1,"freq":370,"lat":-28.24080300,"lon":-52.32977200,"rng_nm":100,"alt_fmsl":2376,"id":"PFD","desc":"PASSO FUNDO NDB"},
{"type":"NDB","hdg_t":111.2,"dist_nm":101.3,"freq":240,"lat":-27.78250000,"lon":-50.27650000,"rng_nm":85,"alt_fmsl":3065,"id":"LJS","desc":"LAGES NDB"},
{"type":"NDB","hdg_t":15,"dist_nm":111,"freq":230,"lat":-25.38666700,"lon":-51.52266700,"rng_nm":50,"alt_fmsl":3429,"id":"GRU","desc":"GUARAPUAVA NDB"},
{"type":"NDB","hdg_t":159.9,"dist_nm":125.2,"freq":1690,"lat":-29.14400000,"lon":-51.23416700,"rng_nm":50,"alt_fmsl":0,"id":"CXS","desc":"DO SUL NDB"},
{"type":"VOR","hdg_t":159.4,"dist_nm":129.1,"freq":112.3,"lat":-29.19800000,"lon":-51.18866700,"rng_nm":130,"alt_fmsl":2472,"id":"CXS","desc":"DO SUL VOR-DME"},
{"type":"NDB","hdg_t":239.2,"dist_nm":130.5,"freq":280,"lat":-28.27931700,"lon":-54.17193900,"rng_nm":50,"alt_fmsl":1056,"id":"SAN","desc":"SANTO ANGELO NDB"}
]
}
