{"success":true,"source":"xp2csv.pl","last_updated":"2013/11/08 14:53:21 UTC"
,"icao":"SSJE","name":"Jacarezinho","lat":-23.148056,"lon":-49.9433327,"rwys":1,"ils":0,"index":2134192,"path":"w050s30/w050s24"
,"runways":[
{"len_m":1202,"wid_m":17.07,"hdg":102,"surf":"Concrete","rwy1":"12","lat1":-23.14684167,"lon1":-49.94905307,"rwy2":"30","lat2":-23.14927033,"lon2":-49.93761233}
]
,"navaids":[
{"type":"NDB","hdg_t":9.3,"dist_nm":10.5,"freq":315,"lat":-22.97350000,"lon":-49.91233300,"rng_nm":50,"alt_fmsl":1531,"id":"ORH","desc":"OURINHOS NDB"},
{"type":"NDB","hdg_t":316.7,"dist_nm":41.2,"freq":275,"lat":-22.64483300,"lon":-50.45300000,"rng_nm":25,"alt_fmsl":1850,"id":"ASS","desc":"ASSIS NDB"},
{"type":"NDB","hdg_t":0.7,"dist_nm":57,"freq":415,"lat":-22.19483300,"lon":-49.92933300,"rng_nm":54,"alt_fmsl":2122,"id":"MRA","desc":"MARILIA NDB"},
{"type":"VOR","hdg_t":259.7,"dist_nm":65.6,"freq":112.4,"lat":-23.33951400,"lon":-51.11252500,"rng_nm":200,"alt_fmsl":1867,"id":"LON","desc":"LONDRINA VOR-DME"},
{"type":"NDB","hdg_t":260.5,"dist_nm":66.7,"freq":365,"lat":-23.32766700,"lon":-51.13583300,"rng_nm":50,"alt_fmsl":1867,"id":"LON","desc":"LONDRINA NDB"},
{"type":"NDB","hdg_t":260.6,"dist_nm":67.5,"freq":305,"lat":-23.32783300,"lon":-51.14950000,"rng_nm":15,"alt_fmsl":0,"id":"PP","desc":"GUARUJA NDB"},
{"type":"NDB","hdg_t":43,"dist_nm":68.1,"freq":380,"lat":-22.31400000,"lon":-49.10716700,"rng_nm":50,"alt_fmsl":0,"id":"BRU","desc":"BAURU NDB"},
{"type":"NDB","hdg_t":209,"dist_nm":80.2,"freq":285,"lat":-24.31900000,"lon":-50.65350000,"rng_nm":36,"alt_fmsl":2610,"id":"TLB","desc":"TELEMACO NDB"},
{"type":"NDB","hdg_t":337.4,"dist_nm":81.1,"freq":345,"lat":-21.89383300,"lon":-50.50216700,"rng_nm":25,"alt_fmsl":1805,"id":"TUP","desc":"TUPA NDB"},
{"type":"NDB","hdg_t":7.5,"dist_nm":89.5,"freq":400,"lat":-21.66350000,"lon":-49.73366700,"rng_nm":50,"alt_fmsl":1559,"id":"LNS","desc":"LINS NDB"},
{"type":"NDB","hdg_t":305.7,"dist_nm":98.1,"freq":225,"lat":-22.18333300,"lon":-51.37516700,"rng_nm":50,"alt_fmsl":0,"id":"PRR","desc":"PRUDENTE NDB"}
]
}
