{"success":true,"source":"xp2csv.pl","last_updated":"2013/11/08 14:53:21 UTC"
,"icao":"SSJX","name":"Sao Bento","lat":-19.47805556,"lon":-57.01416667,"rwys":1,"ils":0,"index":2003367,"path":"w060s20/w058s20"
,"runways":[
{"len_m":912,"wid_m":17.98,"hdg":146,"surf":"Turf/grass","rwy1":"16","lat1":-19.47461936,"lon1":-57.01656558,"rwy2":"34","lat2":-19.48149177,"lon2":-57.01176776}
]
,"navaids":[
{"type":"NDB","hdg_t":306.7,"dist_nm":46,"freq":375,"lat":-19.01666700,"lon":-57.66333300,"rng_nm":10,"alt_fmsl":461,"id":"CUB","desc":"CORUMBA NDB"},
{"type":"NDB","hdg_t":302.8,"dist_nm":54.4,"freq":290,"lat":-18.98192500,"lon":-57.81837400,"rng_nm":100,"alt_fmsl":439,"id":"PSZ","desc":"PUERTO SUAREZ NDB"},
{"type":"NDB","hdg_t":66,"dist_nm":141.2,"freq":205,"lat":-18.50383300,"lon":-54.75050000,"rng_nm":50,"alt_fmsl":0,"id":"CXM","desc":"COXIM NDB"},
{"type":"NDB","hdg_t":116.4,"dist_nm":143.4,"freq":270,"lat":-20.53066700,"lon":-54.73266700,"rng_nm":100,"alt_fmsl":0,"id":"CGR","desc":"CAMPO GRANDE NDB"},
{"type":"NDB","hdg_t":115,"dist_nm":144.5,"freq":395,"lat":-20.48586100,"lon":-54.68932800,"rng_nm":50,"alt_fmsl":0,"id":"IG","desc":"SOJA NDB"},
{"type":"VOR","hdg_t":114.4,"dist_nm":145,"freq":115.7,"lat":-20.46883300,"lon":-54.67033300,"rng_nm":200,"alt_fmsl":1833,"id":"CGR","desc":"CAMPO GRANDE VOR-DME"},
{"type":"NDB","hdg_t":112.8,"dist_nm":145.7,"freq":215,"lat":-20.40883300,"lon":-54.63033300,"rng_nm":50,"alt_fmsl":0,"id":"PP","desc":"MARACA NDB"},
{"type":"NDB","hdg_t":293.1,"dist_nm":170.8,"freq":325,"lat":-18.33190800,"lon":-59.76624200,"rng_nm":50,"alt_fmsl":0,"id":"OBO","desc":"ROBORE NDB"},
{"type":"NDB","hdg_t":173.6,"dist_nm":189.3,"freq":397,"lat":-22.62583300,"lon":-56.63472200,"rng_nm":100,"alt_fmsl":0,"id":"STA","desc":"SANTA TERESA NDB"},
{"type":"NDB","hdg_t":108.3,"dist_nm":193.6,"freq":245,"lat":-20.46716700,"lon":-53.75050000,"rng_nm":70,"alt_fmsl":0,"id":"RIB","desc":"RIBAS NDB"}
]
}
