{"success":true,"source":"xp2csv.pl","last_updated":"2013/11/08 14:53:21 UTC"
,"icao":"SSLA","name":"Laguna","lat":-28.376667,"lon":-48.7427788,"rwys":1,"ils":0,"index":2150241,"path":"w050s30/w049s29"
,"runways":[
{"len_m":1496,"wid_m":21.34,"hdg":23,"surf":"Concrete","rwy1":"04","lat1":-28.38287832,"lon1":-48.74577542,"rwy2":"22","lat2":-28.37045568,"lon2":-48.73978218}
]
,"navaids":[
{"type":"NDB","hdg_t":195.4,"dist_nm":14.1,"freq":310,"lat":-28.60383300,"lon":-48.81383300,"rng_nm":85,"alt_fmsl":0,"id":"SW","desc":"SANTA MARTA NDB"},
{"type":"NDB","hdg_t":239.9,"dist_nm":41.3,"freq":405,"lat":-28.72131100,"lon":-49.42206100,"rng_nm":50,"alt_fmsl":93,"id":"CRY","desc":"CRICIUMA NDB"},
{"type":"NDB","hdg_t":17.6,"dist_nm":42.9,"freq":295,"lat":-27.69173100,"lon":-48.49809700,"rng_nm":150,"alt_fmsl":0,"id":"FLN","desc":"FLORIANOPOLIS NDB"},
{"type":"VOR","hdg_t":13.8,"dist_nm":43.5,"freq":117.8,"lat":-27.67033300,"lon":-48.54666700,"rng_nm":200,"alt_fmsl":19,"id":"XRO","desc":"FLORIANOPOLIS VOR-DME"},
{"type":"NDB","hdg_t":12.8,"dist_nm":43.8,"freq":350,"lat":-27.66150000,"lon":-48.55916700,"rng_nm":50,"alt_fmsl":0,"id":"IL","desc":"CARIANO NDB"},
{"type":"NDB","hdg_t":7.4,"dist_nm":45.5,"freq":380,"lat":-27.62183300,"lon":-48.63250000,"rng_nm":25,"alt_fmsl":0,"id":"BKO","desc":"BOKO NDB"},
{"type":"NDB","hdg_t":221.8,"dist_nm":83.6,"freq":230,"lat":-29.41433100,"lon":-49.80671900,"rng_nm":25,"alt_fmsl":93,"id":"TOR","desc":"TORRES NDB"},
{"type":"NDB","hdg_t":293.2,"dist_nm":88.8,"freq":240,"lat":-27.78250000,"lon":-50.27650000,"rng_nm":85,"alt_fmsl":3065,"id":"LJS","desc":"LAGES NDB"},
{"type":"NDB","hdg_t":3,"dist_nm":89.9,"freq":235,"lat":-26.87566700,"lon":-48.65283300,"rng_nm":50,"alt_fmsl":18,"id":"NVG","desc":"NAVEGANTES NDB"},
{"type":"NDB","hdg_t":0.4,"dist_nm":119.9,"freq":245,"lat":-26.37266700,"lon":-48.72433300,"rng_nm":25,"alt_fmsl":0,"id":"GAB","desc":"GABI NDB"}
]
}
