{"success":true,"source":"xp2csv.pl","last_updated":"2013/11/08 14:53:21 UTC"
,"icao":"SSOJ","name":"Fazenda Estrela","lat":-19.97916667,"lon":-51.735,"rwys":1,"ils":0,"index":2101634,"path":"w060s20/w052s20"
,"runways":[
{"len_m":904,"wid_m":29.87,"hdg":70,"surf":"Turf/grass","rwy1":"09","lat1":-19.98051919,"lon1":-51.73907770,"rwy2":"27","lat2":-19.97781414,"lon2":-51.73092229}
]
,"navaids":[
{"type":"NDB","hdg_t":168.5,"dist_nm":48.4,"freq":335,"lat":-20.77400000,"lon":-51.56400000,"rng_nm":70,"alt_fmsl":1169,"id":"URP","desc":"URUBUPUNGA NDB"},
{"type":"VOR","hdg_t":168.2,"dist_nm":48.6,"freq":114.2,"lat":-20.77650000,"lon":-51.55883300,"rng_nm":200,"alt_fmsl":1169,"id":"URP","desc":"URUBUPUNGA VOR-DME"},
{"type":"NDB","hdg_t":133.5,"dist_nm":101.1,"freq":265,"lat":-21.13933300,"lon":-50.42666700,"rng_nm":75,"alt_fmsl":1361,"id":"ARA","desc":"ARACATUBA NDB"},
{"type":"NDB","hdg_t":255.2,"dist_nm":117.4,"freq":245,"lat":-20.46716700,"lon":-53.75050000,"rng_nm":70,"alt_fmsl":0,"id":"RIB","desc":"RIBAS NDB"},
{"type":"VOR","hdg_t":172.5,"dist_nm":132.2,"freq":113.5,"lat":-22.17305600,"lon":-51.42635300,"rng_nm":200,"alt_fmsl":1477,"id":"PRR","desc":"PRUDENTE VOR-DME"},
{"type":"NDB","hdg_t":171.3,"dist_nm":133.3,"freq":225,"lat":-22.18333300,"lon":-51.37516700,"rng_nm":50,"alt_fmsl":0,"id":"PRR","desc":"PRUDENTE NDB"},
{"type":"NDB","hdg_t":149,"dist_nm":133.7,"freq":345,"lat":-21.89383300,"lon":-50.50216700,"rng_nm":25,"alt_fmsl":1805,"id":"TUP","desc":"TUPA NDB"},
{"type":"NDB","hdg_t":111.2,"dist_nm":140.4,"freq":420,"lat":-20.81324700,"lon":-49.40601400,"rng_nm":100,"alt_fmsl":1782,"id":"JRP","desc":"RIO PRETO NDB"},
{"type":"NDB","hdg_t":97.4,"dist_nm":144.8,"freq":220,"lat":-20.27695300,"lon":-49.18959400,"rng_nm":50,"alt_fmsl":1599,"id":"FTR","desc":"FRONTEIRA NDB"},
{"type":"NDB","hdg_t":132.1,"dist_nm":150.9,"freq":400,"lat":-21.66350000,"lon":-49.73366700,"rng_nm":50,"alt_fmsl":1559,"id":"LNS","desc":"LINS NDB"}
]
}
