{"success":true,"source":"xp2csv.pl","last_updated":"2013/11/08 14:53:21 UTC"
,"icao":"SSPF","name":"Fazenda Sao Rafael","lat":-24.769514,"lon":-54.11874,"rwys":1,"ils":0,"index":2052171,"path":"w060s30/w055s25"
,"runways":[
{"len_m":1092,"wid_m":17.98,"hdg":14,"surf":"Asphalt","rwy1":"05","lat1":-24.77427800,"lon1":-54.12013600,"rwy2":"23","lat2":-24.76475000,"lon2":-54.11734400}
]
,"navaids":[
{"type":"NDB","hdg_t":77.7,"dist_nm":23.4,"freq":385,"lat":-24.68566700,"lon":-53.69966700,"rng_nm":50,"alt_fmsl":1854,"id":"TOL","desc":"TOLEDO NDB"},
{"type":"NDB","hdg_t":112.7,"dist_nm":36.3,"freq":220,"lat":-25.00300000,"lon":-53.50316700,"rng_nm":50,"alt_fmsl":2473,"id":"CAV","desc":"CASCAVEL NDB"},
{"type":"NDB","hdg_t":215.5,"dist_nm":47,"freq":225,"lat":-25.40861100,"lon":-54.62166700,"rng_nm":30,"alt_fmsl":762,"id":"ITU","desc":"ITAIPU NDB"},
{"type":"NDB","hdg_t":224.1,"dist_nm":50.1,"freq":293,"lat":-25.36972200,"lon":-54.76138900,"rng_nm":25,"alt_fmsl":793,"id":"ALG","desc":"CIUDAD DEL ESTE NDB"},
{"type":"NDB","hdg_t":208.2,"dist_nm":51.7,"freq":410,"lat":-25.53116700,"lon":-54.57050000,"rng_nm":150,"alt_fmsl":0,"id":"FOZ","desc":"FOZ NDB"},
{"type":"VOR","hdg_t":203.1,"dist_nm":52.9,"freq":112.1,"lat":-25.58333300,"lon":-54.50350000,"rng_nm":200,"alt_fmsl":787,"id":"FOZ","desc":"FOZ VOR-DME"},
{"type":"NDB","hdg_t":203.1,"dist_nm":53,"freq":395,"lat":-25.58416700,"lon":-54.50250000,"rng_nm":25,"alt_fmsl":0,"id":"QQ","desc":"IGUACU NDB"},
{"type":"VOR","hdg_t":223.8,"dist_nm":57.3,"freq":116.3,"lat":-25.46000000,"lon":-54.85000000,"rng_nm":130,"alt_fmsl":888,"id":"VES","desc":"CIUDAD DEL ESTE VOR-DME"},
{"type":"NDB","hdg_t":223.6,"dist_nm":58.7,"freq":200,"lat":-25.47916700,"lon":-54.86583300,"rng_nm":200,"alt_fmsl":0,"id":"CDE","desc":"CIUDAD DEL ESTE NDB"},
{"type":"VOR","hdg_t":198.9,"dist_nm":61,"freq":114.1,"lat":-25.73449700,"lon":-54.48571100,"rng_nm":176,"alt_fmsl":935,"id":"IGU","desc":"CATARATAS DEL IGUAZU VOR-DME"},
{"type":"NDB","hdg_t":196.9,"dist_nm":61.2,"freq":310,"lat":-25.74805600,"lon":-54.44766700,"rng_nm":25,"alt_fmsl":916,"id":"Z","desc":"CATARATAS DEL IGAUZU NDB"}
]
}
