{"success":true,"source":"xp2csv.pl","last_updated":"2013/11/08 14:53:21 UTC"
,"icao":"SSPN","name":"Paranaiba","lat":-19.6511665,"lon":-51.1993615,"rwys":1,"ils":0,"index":2101654,"path":"w060s20/w052s20"
,"runways":[
{"len_m":1326,"wid_m":22.86,"hdg":124,"surf":"Asphalt","rwy1":"14","lat1":-19.64775000,"lon1":-51.20455600,"rwy2":"32","lat2":-19.65458300,"lon2":-51.19416700}
]
,"navaids":[
{"type":"NDB","hdg_t":196.9,"dist_nm":70.2,"freq":335,"lat":-20.77400000,"lon":-51.56400000,"rng_nm":70,"alt_fmsl":1169,"id":"URP","desc":"URUBUPUNGA NDB"},
{"type":"VOR","hdg_t":196.7,"dist_nm":70.2,"freq":114.2,"lat":-20.77650000,"lon":-51.55883300,"rng_nm":200,"alt_fmsl":1169,"id":"URP","desc":"URUBUPUNGA VOR-DME"},
{"type":"NDB","hdg_t":154,"dist_nm":99,"freq":265,"lat":-21.13933300,"lon":-50.42666700,"rng_nm":75,"alt_fmsl":1361,"id":"ARA","desc":"ARACATUBA NDB"},
{"type":"NDB","hdg_t":108.5,"dist_nm":119.5,"freq":220,"lat":-20.27695300,"lon":-49.18959400,"rng_nm":50,"alt_fmsl":1599,"id":"FTR","desc":"FRONTEIRA NDB"},
{"type":"NDB","hdg_t":124.7,"dist_nm":122.7,"freq":420,"lat":-20.81324700,"lon":-49.40601400,"rng_nm":100,"alt_fmsl":1782,"id":"JRP","desc":"RIO PRETO NDB"},
{"type":"NDB","hdg_t":57.5,"dist_nm":133.8,"freq":245,"lat":-18.44025300,"lon":-49.21874700,"rng_nm":50,"alt_fmsl":1630,"id":"YBA","desc":"ITUMBIARA NDB"},
{"type":"NDB","hdg_t":163.8,"dist_nm":139.6,"freq":345,"lat":-21.89383300,"lon":-50.50216700,"rng_nm":25,"alt_fmsl":1805,"id":"TUP","desc":"TUPA NDB"},
{"type":"NDB","hdg_t":145.8,"dist_nm":145.8,"freq":400,"lat":-21.66350000,"lon":-49.73366700,"rng_nm":50,"alt_fmsl":1559,"id":"LNS","desc":"LINS NDB"},
{"type":"VOR","hdg_t":184.7,"dist_nm":151.3,"freq":113.5,"lat":-22.17305600,"lon":-51.42635300,"rng_nm":200,"alt_fmsl":1477,"id":"PRR","desc":"PRUDENTE VOR-DME"},
{"type":"NDB","hdg_t":183.7,"dist_nm":151.6,"freq":225,"lat":-22.18333300,"lon":-51.37516700,"rng_nm":50,"alt_fmsl":0,"id":"PRR","desc":"PRUDENTE NDB"}
]
}
