{"success":true,"source":"xp2csv.pl","last_updated":"2013/11/08 14:53:21 UTC"
,"icao":"SSRD","name":"Fazenda Sol Nascente","lat":-23.3975,"lon":-55.24833333,"rwys":1,"ils":0,"index":2035875,"path":"w060s30/w056s24"
,"runways":[
{"len_m":771,"wid_m":14.94,"hdg":165,"surf":"Turf/grass","rwy1":"18","lat1":-23.39412234,"lon1":-55.24925229,"rwy2":"36","lat2":-23.40087766,"lon2":-55.24741437}
]
,"navaids":[
{"type":"NDB","hdg_t":324.2,"dist_nm":55.5,"freq":353,"lat":-22.64194400,"lon":-55.83333300,"rng_nm":25,"alt_fmsl":1873,"id":"PJC","desc":"PEDRO JUAN CABALLERO NDB"},
{"type":"NDB","hdg_t":333.2,"dist_nm":56.6,"freq":340,"lat":-22.55016700,"lon":-55.70716700,"rng_nm":50,"alt_fmsl":2156,"id":"PTP","desc":"PONTA PORA NDB"},
{"type":"NDB","hdg_t":13.9,"dist_nm":73.9,"freq":285,"lat":-22.19733300,"lon":-54.92833300,"rng_nm":70,"alt_fmsl":1503,"id":"DOU","desc":"DOURA NDB"},
{"type":"NDB","hdg_t":300.7,"dist_nm":89.5,"freq":397,"lat":-22.62583300,"lon":-56.63472200,"rng_nm":100,"alt_fmsl":0,"id":"STA","desc":"SANTA TERESA NDB"},
{"type":"NDB","hdg_t":132.4,"dist_nm":114.7,"freq":385,"lat":-24.68566700,"lon":-53.69966700,"rng_nm":50,"alt_fmsl":1854,"id":"TOL","desc":"TOLEDO NDB"},
{"type":"NDB","hdg_t":268.4,"dist_nm":120.4,"freq":405,"lat":-23.43841900,"lon":-57.43059700,"rng_nm":65,"alt_fmsl":0,"id":"CON","desc":"CONCEPCION NDB"},
{"type":"NDB","hdg_t":167.3,"dist_nm":120.9,"freq":293,"lat":-25.36972200,"lon":-54.76138900,"rng_nm":25,"alt_fmsl":793,"id":"ALG","desc":"CIUDAD DEL ESTE NDB"},
{"type":"NDB","hdg_t":164.2,"dist_nm":125,"freq":225,"lat":-25.40861100,"lon":-54.62166700,"rng_nm":30,"alt_fmsl":762,"id":"ITU","desc":"ITAIPU NDB"},
{"type":"VOR","hdg_t":170,"dist_nm":125.2,"freq":116.3,"lat":-25.46000000,"lon":-54.85000000,"rng_nm":130,"alt_fmsl":888,"id":"VES","desc":"CIUDAD DEL ESTE VOR-DME"},
{"type":"NDB","hdg_t":170.5,"dist_nm":126.2,"freq":200,"lat":-25.47916700,"lon":-54.86583300,"rng_nm":200,"alt_fmsl":0,"id":"CDE","desc":"CIUDAD DEL ESTE NDB"}
]
}
