{"success":true,"source":"xp2csv.pl","last_updated":"2013/11/08 14:53:21 UTC"
,"icao":"SSUI","name":"Fazenda Novo Horizonte","lat":-7.09694445,"lon":-48.76027778,"rwys":1,"ils":0,"index":2151609,"path":"w050s10/w049s08"
,"runways":[
{"len_m":1190,"wid_m":20.12,"hdg":337,"surf":"Asphalt","rwy1":"02","lat1":-7.10190322,"lon1":-48.75818124,"rwy2":"20","lat2":-7.09198567,"lon2":-48.76237432}
]
,"navaids":[
{"type":"NDB","hdg_t":104.7,"dist_nm":32.1,"freq":205,"lat":-7.23350000,"lon":-48.23900000,"rng_nm":50,"alt_fmsl":771,"id":"AGI","desc":"ARAGUAINA NDB"},
{"type":"NDB","hdg_t":99.9,"dist_nm":78.7,"freq":330,"lat":-7.32300000,"lon":-47.46000000,"rng_nm":80,"alt_fmsl":565,"id":"CNA","desc":"CAROLINA NDB"},
{"type":"VOR","hdg_t":99.7,"dist_nm":78.9,"freq":115.3,"lat":-7.31873100,"lon":-47.45481900,"rng_nm":130,"alt_fmsl":565,"id":"CNA","desc":"CAROLINA VOR"},
{"type":"NDB","hdg_t":203.1,"dist_nm":81.6,"freq":230,"lat":-8.35366700,"lon":-49.29916700,"rng_nm":50,"alt_fmsl":854,"id":"ARG","desc":"ARAGUAIA NDB"},
{"type":"VOR","hdg_t":308.1,"dist_nm":94.3,"freq":112.4,"lat":-6.11933300,"lon":-50.00216700,"rng_nm":200,"alt_fmsl":2038,"id":"CRJ","desc":"CARAJAS VOR-DME"},
{"type":"NDB","hdg_t":308.3,"dist_nm":94.7,"freq":1700,"lat":-6.11133300,"lon":-50.00400000,"rng_nm":130,"alt_fmsl":2038,"id":"CRJ","desc":"CARAJAS NDB"},
{"type":"NDB","hdg_t":347.7,"dist_nm":105.4,"freq":370,"lat":-5.37128900,"lon":-49.13466100,"rng_nm":130,"alt_fmsl":357,"id":"MRB","desc":"MARABA NDB"},
{"type":"VOR","hdg_t":347.7,"dist_nm":105.6,"freq":113.7,"lat":-5.36816700,"lon":-49.13516700,"rng_nm":130,"alt_fmsl":357,"id":"MRB","desc":"MARABA VOR-DME"},
{"type":"NDB","hdg_t":39.9,"dist_nm":121.5,"freq":390,"lat":-5.53450000,"lon":-47.45716700,"rng_nm":40,"alt_fmsl":431,"id":"YTZ","desc":"IMPERATRIZ NDB"},
{"type":"VOR","hdg_t":39.8,"dist_nm":122.2,"freq":112.7,"lat":-5.52383300,"lon":-47.44983300,"rng_nm":200,"alt_fmsl":431,"id":"YTZ","desc":"IMPERATRIZ VOR-DME"}
]
}
