{"success":true,"source":"xp2csv.pl","last_updated":"2013/11/08 14:53:21 UTC"
,"icao":"SSVV","name":"Fazenda Vaticano","lat":-21.29444444,"lon":-56.11861111,"rwys":1,"ils":0,"index":2019631,"path":"w060s30/w057s22"
,"runways":[
{"len_m":910,"wid_m":20.12,"hdg":165,"surf":"Turf/grass","rwy1":"18","lat1":-21.29046005,"lon1":-56.11968842,"rwy2":"36","lat2":-21.29842883,"lon2":-56.11753380}
]
,"navaids":[
{"type":"NDB","hdg_t":163,"dist_nm":78.5,"freq":340,"lat":-22.55016700,"lon":-55.70716700,"rng_nm":50,"alt_fmsl":2156,"id":"PTP","desc":"PONTA PORA NDB"},
{"type":"NDB","hdg_t":168.8,"dist_nm":82.1,"freq":353,"lat":-22.64194400,"lon":-55.83333300,"rng_nm":25,"alt_fmsl":1873,"id":"PJC","desc":"PEDRO JUAN CABALLERO NDB"},
{"type":"NDB","hdg_t":199.7,"dist_nm":84.6,"freq":397,"lat":-22.62583300,"lon":-56.63472200,"rng_nm":100,"alt_fmsl":0,"id":"STA","desc":"SANTA TERESA NDB"},
{"type":"NDB","hdg_t":129.2,"dist_nm":85.6,"freq":285,"lat":-22.19733300,"lon":-54.92833300,"rng_nm":70,"alt_fmsl":1503,"id":"DOU","desc":"DOURA NDB"},
{"type":"NDB","hdg_t":59.8,"dist_nm":90.2,"freq":270,"lat":-20.53066700,"lon":-54.73266700,"rng_nm":100,"alt_fmsl":0,"id":"CGR","desc":"CAMPO GRANDE NDB"},
{"type":"NDB","hdg_t":59.2,"dist_nm":93.7,"freq":395,"lat":-20.48586100,"lon":-54.68932800,"rng_nm":50,"alt_fmsl":0,"id":"IG","desc":"SOJA NDB"},
{"type":"VOR","hdg_t":59,"dist_nm":95.1,"freq":115.7,"lat":-20.46883300,"lon":-54.67033300,"rng_nm":200,"alt_fmsl":1833,"id":"CGR","desc":"CAMPO GRANDE VOR-DME"},
{"type":"NDB","hdg_t":57.9,"dist_nm":98.9,"freq":215,"lat":-20.40883300,"lon":-54.63033300,"rng_nm":50,"alt_fmsl":0,"id":"PP","desc":"MARACA NDB"},
{"type":"NDB","hdg_t":70,"dist_nm":141.9,"freq":245,"lat":-20.46716700,"lon":-53.75050000,"rng_nm":70,"alt_fmsl":0,"id":"RIB","desc":"RIBAS NDB"},
{"type":"NDB","hdg_t":209.3,"dist_nm":147.4,"freq":405,"lat":-23.43841900,"lon":-57.43059700,"rng_nm":65,"alt_fmsl":0,"id":"CON","desc":"CONCEPCION NDB"}
]
}
