{"success":true,"source":"xp2csv.pl","last_updated":"2013/11/08 14:53:21 UTC"
,"icao":"SSWH","name":"Dr. Emilio Fehr","lat":-21.91222223,"lon":-47.82361112,"rwys":1,"ils":0,"index":2167041,"path":"w050s30/w048s22"
,"runways":[
{"len_m":806,"wid_m":29.87,"hdg":9,"surf":"Turf/grass","rwy1":"03","lat1":-21.91581671,"lon1":-47.82423199,"rwy2":"21","lat2":-21.90862774,"lon2":-47.82299024}
]
,"navaids":[
{"type":"NDB","hdg_t":288.5,"dist_nm":18.6,"freq":205,"lat":-21.81300000,"lon":-48.13950000,"rng_nm":50,"alt_fmsl":2514,"id":"AAQ","desc":"ARARAQUARA NDB"},
{"type":"VOR","hdg_t":99.2,"dist_nm":27,"freq":113.3,"lat":-21.98450000,"lon":-47.34416700,"rng_nm":200,"alt_fmsl":1968,"id":"PSN","desc":"PIRASSUNUNGA VOR-DME"},
{"type":"NDB","hdg_t":101.4,"dist_nm":27.4,"freq":345,"lat":-22.00246100,"lon":-47.34112500,"rng_nm":50,"alt_fmsl":0,"id":"IS","desc":"FONTE NDB"},
{"type":"NDB","hdg_t":99.3,"dist_nm":27.4,"freq":310,"lat":-21.98600000,"lon":-47.33750000,"rng_nm":50,"alt_fmsl":1968,"id":"PSN","desc":"PIRASSUNUNGA NDB"},
{"type":"NDB","hdg_t":109.1,"dist_nm":28.4,"freq":215,"lat":-22.06750000,"lon":-47.34066700,"rng_nm":50,"alt_fmsl":0,"id":"IY","desc":"PIRA NDB"},
{"type":"NDB","hdg_t":154.8,"dist_nm":34.2,"freq":280,"lat":-22.43016700,"lon":-47.56250000,"rng_nm":50,"alt_fmsl":0,"id":"RCL","desc":"RIO CLARO NDB"},
{"type":"NDB","hdg_t":3.3,"dist_nm":46,"freq":330,"lat":-21.14266700,"lon":-47.77600000,"rng_nm":50,"alt_fmsl":1802,"id":"RPR","desc":"RIBEIRAO NDB"},
{"type":"NDB","hdg_t":86.5,"dist_nm":70.3,"freq":415,"lat":-21.83583300,"lon":-46.56566700,"rng_nm":150,"alt_fmsl":4135,"id":"PCL","desc":"POCOS NDB"},
{"type":"NDB","hdg_t":151.2,"dist_nm":71.3,"freq":370,"lat":-22.95750000,"lon":-47.20416700,"rng_nm":50,"alt_fmsl":0,"id":"IK","desc":"BENTO NDB"},
{"type":"NDB","hdg_t":150.2,"dist_nm":74.5,"freq":300,"lat":-22.99283300,"lon":-47.15516700,"rng_nm":50,"alt_fmsl":0,"id":"IP","desc":"JARDIM NDB"},
{"type":"NDB","hdg_t":251.1,"dist_nm":75.4,"freq":380,"lat":-22.31400000,"lon":-49.10716700,"rng_nm":50,"alt_fmsl":0,"id":"BRU","desc":"BAURU NDB"},
{"type":"VOR","hdg_t":149.6,"dist_nm":76,"freq":112,"lat":-23.00871400,"lon":-47.12904400,"rng_nm":200,"alt_fmsl":2170,"id":"CPN","desc":"CAMPINAS VOR-DME"},
{"type":"NDB","hdg_t":148.6,"dist_nm":80,"freq":395,"lat":-23.05394700,"lon":-47.06959200,"rng_nm":50,"alt_fmsl":0,"id":"KP","desc":"GRAMA NDB"},
{"type":"NDB","hdg_t":17.3,"dist_nm":83.1,"freq":405,"lat":-20.58366700,"lon":-47.38250000,"rng_nm":50,"alt_fmsl":3292,"id":"FRC","desc":"FRANCA NDB"},
{"type":"NDB","hdg_t":331.2,"dist_nm":90.5,"freq":360,"lat":-20.58216700,"lon":-48.59666700,"rng_nm":50,"alt_fmsl":1898,"id":"BRT","desc":"BARRETOS NDB"},
{"type":"VOR","hdg_t":131.9,"dist_nm":93.5,"freq":116.2,"lat":-22.95313600,"lon":-46.56811700,"rng_nm":200,"alt_fmsl":2737,"id":"BGC","desc":"BRAGANCA VOR-DME"},
{"type":"NDB","hdg_t":131.9,"dist_nm":95,"freq":385,"lat":-22.97079200,"lon":-46.54778900,"rng_nm":50,"alt_fmsl":2887,"id":"BGC","desc":"BRAGANCA NDB"},
{"type":"NDB","hdg_t":168.7,"dist_nm":95.7,"freq":350,"lat":-23.48316700,"lon":-47.48466700,"rng_nm":50,"alt_fmsl":2077,"id":"SCB","desc":"SOROCABA NDB"},
{"type":"VOR","hdg_t":165.5,"dist_nm":98.5,"freq":115.2,"lat":-23.50700000,"lon":-47.37816700,"rng_nm":200,"alt_fmsl":2018,"id":"SCB","desc":"SOROCABA VOR-DME"}
]
}
