{"success":true,"source":"xp2csv.pl","last_updated":"2013/11/08 14:53:21 UTC"
,"icao":"SSXA","name":"Fazenda Congonhas","lat":-23.03861111,"lon":-50.93444444,"rwys":1,"ils":0,"index":2117816,"path":"w060s30/w051s24"
,"runways":[
{"len_m":701,"wid_m":35.05,"hdg":91,"surf":"Turf/grass","rwy1":"11","lat1":-23.03850479,"lon1":-50.93786567,"rwy2":"29","lat2":-23.03871743,"lon2":-50.93102321}
]
,"navaids":[
{"type":"NDB","hdg_t":212.7,"dist_nm":20.5,"freq":365,"lat":-23.32766700,"lon":-51.13583300,"rng_nm":50,"alt_fmsl":1867,"id":"LON","desc":"LONDRINA NDB"},
{"type":"VOR","hdg_t":208.6,"dist_nm":20.5,"freq":112.4,"lat":-23.33951400,"lon":-51.11252500,"rng_nm":200,"alt_fmsl":1867,"id":"LON","desc":"LONDRINA VOR-DME"},
{"type":"NDB","hdg_t":214.4,"dist_nm":20.9,"freq":305,"lat":-23.32783300,"lon":-51.14950000,"rng_nm":15,"alt_fmsl":0,"id":"PP","desc":"GUARUJA NDB"},
{"type":"NDB","hdg_t":48.6,"dist_nm":35.5,"freq":275,"lat":-22.64483300,"lon":-50.45300000,"rng_nm":25,"alt_fmsl":1850,"id":"ASS","desc":"ASSIS NDB"},
{"type":"NDB","hdg_t":334.3,"dist_nm":56.6,"freq":225,"lat":-22.18333300,"lon":-51.37516700,"rng_nm":50,"alt_fmsl":0,"id":"PRR","desc":"PRUDENTE NDB"},
{"type":"NDB","hdg_t":86.2,"dist_nm":56.7,"freq":315,"lat":-22.97350000,"lon":-49.91233300,"rng_nm":50,"alt_fmsl":1531,"id":"ORH","desc":"OURINHOS NDB"},
{"type":"VOR","hdg_t":332,"dist_nm":58.5,"freq":113.5,"lat":-22.17305600,"lon":-51.42635300,"rng_nm":200,"alt_fmsl":1477,"id":"PRR","desc":"PRUDENTE VOR-DME"},
{"type":"NDB","hdg_t":245.9,"dist_nm":64.7,"freq":320,"lat":-23.47583300,"lon":-52.00600000,"rng_nm":50,"alt_fmsl":1788,"id":"MRN","desc":"MARINGA NDB"},
{"type":"NDB","hdg_t":19.4,"dist_nm":72.5,"freq":345,"lat":-21.89383300,"lon":-50.50216700,"rng_nm":25,"alt_fmsl":1805,"id":"TUP","desc":"TUPA NDB"},
{"type":"NDB","hdg_t":48,"dist_nm":75.2,"freq":415,"lat":-22.19483300,"lon":-49.92933300,"rng_nm":54,"alt_fmsl":2122,"id":"MRA","desc":"MARILIA NDB"},
{"type":"NDB","hdg_t":168.6,"dist_nm":78.1,"freq":285,"lat":-24.31900000,"lon":-50.65350000,"rng_nm":36,"alt_fmsl":2610,"id":"TLB","desc":"TELEMACO NDB"}
]
}
