{"success":true,"source":"xp2csv.pl","last_updated":"2013/11/08 14:53:21 UTC"
,"icao":"SSXU","name":"Fazenda Fartura","lat":-3.15777778,"lon":-48.54,"rwys":1,"ils":0,"index":2151859,"path":"w050s10/w049s04"
,"runways":[
{"len_m":901,"wid_m":20.12,"hdg":69,"surf":"Gravel","rwy1":"09","lat1":-3.15917292,"lon1":-48.54380828,"rwy2":"27","lat2":-3.15638264,"lon2":-48.53619172}
]
,"navaids":[
{"type":"NDB","hdg_t":241.9,"dist_nm":79.8,"freq":220,"lat":-3.78641400,"lon":-49.71436400,"rng_nm":200,"alt_fmsl":830,"id":"TUI","desc":"TUCURUI NDB"},
{"type":"VOR","hdg_t":241.5,"dist_nm":80.6,"freq":112.9,"lat":-3.80134200,"lon":-49.72132500,"rng_nm":130,"alt_fmsl":830,"id":"TUI","desc":"TUCURUI VOR-DME"},
{"type":"NDB","hdg_t":1.5,"dist_nm":105.3,"freq":395,"lat":-1.39444400,"lon":-48.49173100,"rng_nm":50,"alt_fmsl":0,"id":"IE","desc":"VALDE NDB"},
{"type":"NDB","hdg_t":1.9,"dist_nm":105.6,"freq":250,"lat":-1.38983300,"lon":-48.48116700,"rng_nm":50,"alt_fmsl":54,"id":"BEL","desc":"BELEM NDB"},
{"type":"VOR","hdg_t":1.9,"dist_nm":105.9,"freq":117.3,"lat":-1.38433300,"lon":-48.47850000,"rng_nm":200,"alt_fmsl":54,"id":"BEL","desc":"BELEM VOR-DME"},
{"type":"VOR","hdg_t":195.1,"dist_nm":136.7,"freq":113.7,"lat":-5.36816700,"lon":-49.13516700,"rng_nm":130,"alt_fmsl":357,"id":"MRB","desc":"MARABA VOR-DME"},
{"type":"NDB","hdg_t":195,"dist_nm":136.8,"freq":370,"lat":-5.37128900,"lon":-49.13466100,"rng_nm":130,"alt_fmsl":357,"id":"MRB","desc":"MARABA NDB"},
{"type":"VOR","hdg_t":155.2,"dist_nm":155.6,"freq":112.7,"lat":-5.52383300,"lon":-47.44983300,"rng_nm":200,"alt_fmsl":431,"id":"YTZ","desc":"IMPERATRIZ VOR-DME"},
{"type":"NDB","hdg_t":155.4,"dist_nm":156,"freq":390,"lat":-5.53450000,"lon":-47.45716700,"rng_nm":40,"alt_fmsl":431,"id":"YTZ","desc":"IMPERATRIZ NDB"},
{"type":"NDB","hdg_t":25.1,"dist_nm":167.6,"freq":315,"lat":-0.61533300,"lon":-47.35716700,"rng_nm":150,"alt_fmsl":0,"id":"BL","desc":"SALINOPOLIS NDB"}
]
}
