{"success":true,"source":"xp2csv.pl","last_updated":"2013/11/08 14:53:21 UTC"
,"icao":"SSYD","name":"Fazenda Andorinha I","lat":-7.54805556,"lon":-49.20805556,"rwys":1,"ils":0,"index":2135198,"path":"w050s10/w050s08"
,"runways":[
{"len_m":1082,"wid_m":21.03,"hdg":89,"surf":"Gravel","rwy1":"11","lat1":-7.54807524,"lon1":-49.21295800,"rwy2":"29","lat2":-7.54803588,"lon2":-49.20315312}
]
,"navaids":[
{"type":"NDB","hdg_t":186.4,"dist_nm":48.4,"freq":230,"lat":-8.35366700,"lon":-49.29916700,"rng_nm":50,"alt_fmsl":854,"id":"ARG","desc":"ARAGUAIA NDB"},
{"type":"NDB","hdg_t":72,"dist_nm":60.7,"freq":205,"lat":-7.23350000,"lon":-48.23900000,"rng_nm":50,"alt_fmsl":771,"id":"AGI","desc":"ARAGUAINA NDB"},
{"type":"VOR","hdg_t":330.8,"dist_nm":97.5,"freq":112.4,"lat":-6.11933300,"lon":-50.00216700,"rng_nm":200,"alt_fmsl":2038,"id":"CRJ","desc":"CARAJAS VOR-DME"},
{"type":"NDB","hdg_t":330.9,"dist_nm":98,"freq":1700,"lat":-6.11133300,"lon":-50.00400000,"rng_nm":130,"alt_fmsl":2038,"id":"CRJ","desc":"CARAJAS NDB"},
{"type":"NDB","hdg_t":82.7,"dist_nm":105,"freq":330,"lat":-7.32300000,"lon":-47.46000000,"rng_nm":80,"alt_fmsl":565,"id":"CNA","desc":"CAROLINA NDB"},
{"type":"VOR","hdg_t":82.6,"dist_nm":105.3,"freq":115.3,"lat":-7.31873100,"lon":-47.45481900,"rng_nm":130,"alt_fmsl":565,"id":"CNA","desc":"CAROLINA VOR"},
{"type":"NDB","hdg_t":1.9,"dist_nm":130,"freq":370,"lat":-5.37128900,"lon":-49.13466100,"rng_nm":130,"alt_fmsl":357,"id":"MRB","desc":"MARABA NDB"},
{"type":"VOR","hdg_t":1.9,"dist_nm":130.2,"freq":113.7,"lat":-5.36816700,"lon":-49.13516700,"rng_nm":130,"alt_fmsl":357,"id":"MRB","desc":"MARABA VOR-DME"},
{"type":"NDB","hdg_t":41.1,"dist_nm":159.3,"freq":390,"lat":-5.53450000,"lon":-47.45716700,"rng_nm":40,"alt_fmsl":431,"id":"YTZ","desc":"IMPERATRIZ NDB"},
{"type":"VOR","hdg_t":41,"dist_nm":160.1,"freq":112.7,"lat":-5.52383300,"lon":-47.44983300,"rng_nm":200,"alt_fmsl":431,"id":"YTZ","desc":"IMPERATRIZ VOR-DME"}
]
}
