{"success":true,"source":"xp2csv.pl","last_updated":"2013/11/08 14:53:21 UTC"
,"icao":"SSZW","name":"Ponta Grossa","lat":-25.18777778,"lon":-50.14444444,"rwys":1,"ils":0,"index":2117683,"path":"w060s30/w051s26"
,"runways":[
{"len_m":1459,"wid_m":29.87,"hdg":49,"surf":"Asphalt","rwy1":"07","lat1":-25.19208310,"lon1":-50.14992142,"rwy2":"25","lat2":-25.18347246,"lon2":-50.13896746}
]
,"navaids":[
{"type":"NDB","hdg_t":104.6,"dist_nm":51.4,"freq":300,"lat":-25.40266700,"lon":-49.22900000,"rng_nm":50,"alt_fmsl":3057,"id":"BCH","desc":"BACACHERI NDB"},
{"type":"NDB","hdg_t":108.8,"dist_nm":51.4,"freq":370,"lat":-25.46273600,"lon":-49.24832800,"rng_nm":15,"alt_fmsl":0,"id":"IC","desc":"GISA NDB"},
{"type":"NDB","hdg_t":110.8,"dist_nm":55.3,"freq":325,"lat":-25.51450000,"lon":-49.19150000,"rng_nm":25,"alt_fmsl":0,"id":"IT","desc":"PENA NDB"},
{"type":"NDB","hdg_t":110.9,"dist_nm":56.5,"freq":390,"lat":-25.52316700,"lon":-49.17150000,"rng_nm":70,"alt_fmsl":2988,"id":"CRT","desc":"CURITIBA NDB"},
{"type":"VOR","hdg_t":111.4,"dist_nm":56.9,"freq":116.5,"lat":-25.53200000,"lon":-49.16766700,"rng_nm":200,"alt_fmsl":2988,"id":"CTB","desc":"CURITIBA VOR-DME"},
{"type":"NDB","hdg_t":331.7,"dist_nm":58.9,"freq":285,"lat":-24.31900000,"lon":-50.65350000,"rng_nm":36,"alt_fmsl":2610,"id":"TLB","desc":"TELEMACO NDB"},
{"type":"NDB","hdg_t":113.8,"dist_nm":62.5,"freq":255,"lat":-25.60600000,"lon":-49.08966700,"rng_nm":56,"alt_fmsl":0,"id":"PNH","desc":"PINHAIS NDB"},
{"type":"NDB","hdg_t":260.6,"dist_nm":75.8,"freq":230,"lat":-25.38666700,"lon":-51.52266700,"rng_nm":50,"alt_fmsl":3429,"id":"GRU","desc":"GUARAPUAVA NDB"},
{"type":"NDB","hdg_t":103.6,"dist_nm":90.1,"freq":340,"lat":-25.53466700,"lon":-48.53083300,"rng_nm":50,"alt_fmsl":16,"id":"PNG","desc":"PARANAGUA NDB"},
{"type":"VOR","hdg_t":130.5,"dist_nm":95.6,"freq":115.1,"lat":-26.22233300,"lon":-48.79800000,"rng_nm":130,"alt_fmsl":15,"id":"JNV","desc":"JOINVILLE VOR-DME"}
]
}
