{"success":true,"source":"xp2csv.pl","last_updated":"2013/11/08 14:53:21 UTC"
,"icao":"SVBM","name":"Barquisimeto Intl","lat":10.0423485,"lon":-69.35886,"rwys":1,"ils":0,"index":1808645,"path":"w070n10/w070n10"
,"runways":[
{"len_m":2875,"wid_m":44.81,"hdg":80,"surf":"Asphalt","rwy1":"09","lat1":10.04030800,"lon1":-69.37181400,"rwy2":"27","lat2":10.04438900,"lon2":-69.34590600}
]
,"radios":[
{"type":"GND","freq":121.9,"desc":"GND"},
{"type":"TWR","freq":123.5,"desc":"TWR"},
{"type":"APP","freq":120.7,"desc":"APP"},
{"type":"APP","freq":119.4,"desc":"APP"}
]
,"navaids":[
{"type":"VOR","hdg_t":88.4,"dist_nm":0.4,"freq":112.2,"lat":10.04252778,"lon":-69.35197222,"rng_nm":130,"alt_fmsl":2034,"id":"BRM","desc":"BARQUISIMETO VOR-DME"},
{"type":"NDB","hdg_t":88.4,"dist_nm":16.6,"freq":260,"lat":10.04975000,"lon":-69.07841700,"rng_nm":100,"alt_fmsl":1165,"id":"YAR","desc":"YARITAGUA NDB"},
{"type":"VOR","hdg_t":166.2,"dist_nm":30.1,"freq":113.4,"lat":9.55208333,"lon":-69.23791667,"rng_nm":130,"alt_fmsl":758,"id":"AGV","desc":"ACARIGUA VOR-DME"},
{"type":"NDB","hdg_t":165.6,"dist_nm":30.2,"freq":225,"lat":9.55169400,"lon":-69.23286100,"rng_nm":25,"alt_fmsl":640,"id":"AGV","desc":"ACARIGUA NDB"},
{"type":"NDB","hdg_t":7.4,"dist_nm":34.5,"freq":323,"lat":10.61666700,"lon":-69.28333300,"rng_nm":50,"alt_fmsl":0,"id":"ADA","desc":"AGUADA GRANDE NDB"},
{"type":"NDB","hdg_t":67.9,"dist_nm":38.6,"freq":230,"lat":10.28475000,"lon":-68.75397200,"rng_nm":25,"alt_fmsl":761,"id":"SPE","desc":"SAN FELIPE NDB"},
{"type":"NDB","hdg_t":281.2,"dist_nm":42.5,"freq":358,"lat":10.18027800,"lon":-70.06500000,"rng_nm":50,"alt_fmsl":0,"id":"COR","desc":"CARORA NDB"},
{"type":"VOR","hdg_t":280.8,"dist_nm":42.6,"freq":112.7,"lat":10.17622222,"lon":-70.06713889,"rng_nm":130,"alt_fmsl":1434,"id":"COR","desc":"CARORA VOR-DME"},
{"type":"NDB","hdg_t":201.2,"dist_nm":64.5,"freq":318,"lat":9.03391700,"lon":-69.75258300,"rng_nm":30,"alt_fmsl":606,"id":"GRE","desc":"GUANARE NDB"},
{"type":"VOR","hdg_t":242.7,"dist_nm":79.9,"freq":114.4,"lat":9.42752800,"lon":-70.55702800,"rng_nm":130,"alt_fmsl":2060,"id":"VRA","desc":"VALERA VOR-DME"},
{"type":"VOR","hdg_t":70.6,"dist_nm":80.2,"freq":117.7,"lat":10.48419444,"lon":-68.07780556,"rng_nm":130,"alt_fmsl":23,"id":"PBL","desc":"PUERTO CABELLO VOR-DME"},
{"type":"NDB","hdg_t":240.1,"dist_nm":83.8,"freq":278,"lat":9.34030556,"lon":-70.58480556,"rng_nm":50,"alt_fmsl":0,"id":"VRA","desc":"VALERA NDB"},
{"type":"NDB","hdg_t":85.4,"dist_nm":84,"freq":380,"lat":10.15202800,"lon":-67.94236100,"rng_nm":50,"alt_fmsl":1417,"id":"VLC","desc":"VALENCIA NDB"},
{"type":"VOR","hdg_t":346.4,"dist_nm":84.1,"freq":117.3,"lat":11.41113889,"lon":-69.69397222,"rng_nm":130,"alt_fmsl":52,"id":"CRO","desc":"CORO VOR-DME"},
{"type":"VOR","hdg_t":85.6,"dist_nm":85.2,"freq":117.4,"lat":10.14786100,"lon":-67.92275000,"rng_nm":130,"alt_fmsl":1401,"id":"VAL","desc":"VALENCIA VOR-DME"},
{"type":"VOR","hdg_t":39.4,"dist_nm":87.4,"freq":112.9,"lat":11.17058300,"lon":-68.41619400,"rng_nm":130,"alt_fmsl":29,"id":"VSJ","desc":"PUNTA SAN JUAN VOR-DME"},
{"type":"NDB","hdg_t":211,"dist_nm":98.7,"freq":220,"lat":8.62388900,"lon":-70.21591700,"rng_nm":25,"alt_fmsl":666,"id":"BNS","desc":"BARINAS NDB"},
{"type":"VOR","hdg_t":211,"dist_nm":99.2,"freq":117.5,"lat":8.61750000,"lon":-70.22052778,"rng_nm":130,"alt_fmsl":627,"id":"BNS","desc":"BARINAS VOR-DME"}
]
}
