{"success":true,"source":"xp2csv.pl","last_updated":"2013/11/08 14:53:21 UTC"
,"icao":"SVMC","name":"La Chinita Intl","lat":10.558208,"lon":-71.72785775,"rwys":2,"ils":0,"index":1775906,"path":"w080n10/w072n10"
,"runways":[
{"len_m":3002,"wid_m":45.11,"hdg":22,"surf":"Asphalt","rwy1":"02L","lat1":10.54591700,"lon1":-71.73410000,"rwy2":"20R","lat2":10.57094200,"lon2":-71.72346700},
{"len_m":2499,"wid_m":29.87,"hdg":22,"surf":"Asphalt","rwy1":"02R","lat1":10.54756700,"lon1":-71.73134700,"rwy2":"20L","lat2":10.56840600,"lon2":-71.72251700}
]
,"radios":[
{"type":"GND","freq":121.9,"desc":"GND"},
{"type":"TWR","freq":118.9,"desc":"TWR"},
{"type":"APP","freq":120.2,"desc":"MARACAIBO APP"},
{"type":"APP","freq":119.7,"desc":"MARACAIBO APP"}
]
,"navaids":[
{"type":"VOR","hdg_t":29.3,"dist_nm":1.5,"freq":115.7,"lat":10.58136111,"lon":-71.71469444,"rng_nm":130,"alt_fmsl":240,"id":"MAR","desc":"MARACAIBO VORTAC"},
{"type":"VOR","hdg_t":79,"dist_nm":41.2,"freq":117.9,"lat":10.68816667,"lon":-71.04183333,"rng_nm":130,"alt_fmsl":406,"id":"MAU","desc":"MENE MAUROA VOR-DME"},
{"type":"NDB","hdg_t":130.3,"dist_nm":51.3,"freq":370,"lat":10.00000000,"lon":-71.06666700,"rng_nm":25,"alt_fmsl":0,"id":"BCO","desc":"BACHAQUERO NDB"},
{"type":"VOR","hdg_t":311.8,"dist_nm":60.3,"freq":113.4,"lat":11.23050000,"lon":-72.49050000,"rng_nm":130,"alt_fmsl":288,"id":"CJN","desc":"CERREJON VOR-DME"},
{"type":"NDB","hdg_t":311.2,"dist_nm":61.1,"freq":415,"lat":11.23254200,"lon":-72.50680300,"rng_nm":25,"alt_fmsl":272,"id":"CJN","desc":"CERREJON NDB"},
{"type":"NDB","hdg_t":265.3,"dist_nm":90,"freq":325,"lat":10.43211700,"lon":-73.24681900,"rng_nm":200,"alt_fmsl":453,"id":"VUP","desc":"VALLEDUPAR NDB"},
{"type":"VOR","hdg_t":309.6,"dist_nm":90.9,"freq":117.1,"lat":11.52750000,"lon":-72.91750000,"rng_nm":100,"alt_fmsl":13,"id":"RHC","desc":"RIOHACHA VOR-DME"},
{"type":"NDB","hdg_t":309.6,"dist_nm":91.4,"freq":295,"lat":11.53216667,"lon":-72.92411111,"rng_nm":50,"alt_fmsl":0,"id":"RHC","desc":"RIOHACHA NDB"},
{"type":"VOR","hdg_t":261.8,"dist_nm":91.6,"freq":114.6,"lat":10.33777800,"lon":-73.26250000,"rng_nm":100,"alt_fmsl":453,"id":"VVP","desc":"VALLEDUPAR VOR-DME"},
{"type":"NDB","hdg_t":187.5,"dist_nm":94.8,"freq":218,"lat":8.98361100,"lon":-71.93869400,"rng_nm":50,"alt_fmsl":118,"id":"STB","desc":"SANTA BARBARA DEL ZULIA NDB"},
{"type":"VOR","hdg_t":187.6,"dist_nm":95,"freq":114.9,"lat":8.98080556,"lon":-71.94025000,"rng_nm":130,"alt_fmsl":39,"id":"STB","desc":"SANTA BARBARA DEL VOR-DME"},
{"type":"VOR","hdg_t":134.1,"dist_nm":96.7,"freq":114.4,"lat":9.42752800,"lon":-70.55702800,"rng_nm":130,"alt_fmsl":2060,"id":"VRA","desc":"VALERA VOR-DME"},
{"type":"NDB","hdg_t":136.9,"dist_nm":99.3,"freq":278,"lat":9.34030556,"lon":-70.58480556,"rng_nm":50,"alt_fmsl":0,"id":"VRA","desc":"VALERA NDB"}
]
}
