{"success":true,"source":"xp2csv.pl","last_updated":"2013/11/08 14:53:21 UTC"
,"icao":"SVMZ","name":"Mantecal","lat":7.5578335,"lon":-69.1413195,"rwys":1,"ils":0,"index":1808486,"path":"w070n00/w070n07"
,"runways":[
{"len_m":1189,"wid_m":17.98,"hdg":58,"surf":"Asphalt","rwy1":"08","lat1":7.55502800,"lon1":-69.14591700,"rwy2":"26","lat2":7.56063900,"lon2":-69.13672200}
]
,"navaids":[
{"type":"NDB","hdg_t":215,"dist_nm":36.4,"freq":240,"lat":7.05833333,"lon":-69.49202778,"rng_nm":50,"alt_fmsl":0,"id":"EZA","desc":"ELORZA NDB"},
{"type":"VOR","hdg_t":314.6,"dist_nm":90.1,"freq":117.5,"lat":8.61750000,"lon":-70.22052778,"rng_nm":130,"alt_fmsl":627,"id":"BNS","desc":"BARINAS VOR-DME"},
{"type":"NDB","hdg_t":314.9,"dist_nm":90.2,"freq":220,"lat":8.62388900,"lon":-70.21591700,"rng_nm":25,"alt_fmsl":666,"id":"BNS","desc":"BARINAS NDB"},
{"type":"NDB","hdg_t":337.6,"dist_nm":95.3,"freq":318,"lat":9.03391700,"lon":-69.75258300,"rng_nm":30,"alt_fmsl":606,"id":"GRE","desc":"GUANARE NDB"},
{"type":"VOR","hdg_t":252.9,"dist_nm":99.4,"freq":114,"lat":7.06686111,"lon":-70.73483333,"rng_nm":130,"alt_fmsl":0,"id":"AUC","desc":"ARAUCA VOR"},
{"type":"NDB","hdg_t":259,"dist_nm":100.7,"freq":250,"lat":7.23305600,"lon":-70.80036100,"rng_nm":25,"alt_fmsl":489,"id":"GTO","desc":"GUASDUALITO NDB"},
{"type":"NDB","hdg_t":78.9,"dist_nm":103,"freq":333,"lat":7.88388900,"lon":-67.44313900,"rng_nm":50,"alt_fmsl":239,"id":"SFD","desc":"SAN FERNANDO DE APURE NDB"},
{"type":"VOR","hdg_t":79,"dist_nm":103.2,"freq":112.1,"lat":7.88275000,"lon":-67.43900000,"rng_nm":130,"alt_fmsl":174,"id":"SFD","desc":"SAN FERNANDO DE A VOR-DME"},
{"type":"NDB","hdg_t":357.3,"dist_nm":119.1,"freq":225,"lat":9.55169400,"lon":-69.23286100,"rng_nm":25,"alt_fmsl":640,"id":"AGV","desc":"ACARIGUA NDB"},
{"type":"VOR","hdg_t":357.2,"dist_nm":119.2,"freq":113.4,"lat":9.55208333,"lon":-69.23791667,"rng_nm":130,"alt_fmsl":758,"id":"AGV","desc":"ACARIGUA VOR-DME"}
]
}
