{"success":true,"source":"xp2csv.pl","last_updated":"2013/11/08 14:53:21 UTC"
,"icao":"SWDJ","name":"Fazenda Duas Ancoras - Secao Jao","lat":-14.8575,"lon":-52.03666667,"rwys":1,"ils":0,"index":2085583,"path":"w060s20/w053s15"
,"runways":[
{"len_m":903,"wid_m":39.93,"hdg":161,"surf":"Turf/grass","rwy1":"18","lat1":-14.85362395,"lon1":-52.03798845,"rwy2":"36","lat2":-14.86137605,"lon2":-52.03534489}
]
,"navaids":[
{"type":"VOR","hdg_t":199.2,"dist_nm":63,"freq":113.3,"lat":-15.85350000,"lon":-52.39566700,"rng_nm":130,"alt_fmsl":1147,"id":"BAG","desc":"GARCAS VOR-DME"},
{"type":"NDB","hdg_t":198.8,"dist_nm":63,"freq":320,"lat":-15.85600000,"lon":-52.38933300,"rng_nm":75,"alt_fmsl":1147,"id":"BAG","desc":"GARCAS NDB"},
{"type":"NDB","hdg_t":127.5,"dist_nm":170,"freq":230,"lat":-16.58048600,"lon":-49.69823100,"rng_nm":50,"alt_fmsl":0,"id":"SBG","desc":"SANTA BARBARA NDB"},
{"type":"NDB","hdg_t":117,"dist_nm":194.2,"freq":415,"lat":-16.31743900,"lon":-49.04026700,"rng_nm":50,"alt_fmsl":2960,"id":"ANP","desc":"ANAPOLIS NDB"},
{"type":"NDB","hdg_t":123.5,"dist_nm":194.3,"freq":370,"lat":-16.63719700,"lon":-49.22439200,"rng_nm":75,"alt_fmsl":2450,"id":"GOI","desc":"GOIANIA NDB"},
{"type":"VOR","hdg_t":123.3,"dist_nm":194.6,"freq":112.7,"lat":-16.63243300,"lon":-49.21535600,"rng_nm":200,"alt_fmsl":2450,"id":"GOI","desc":"GOIANIA VOR-DME"},
{"type":"VOR","hdg_t":115.8,"dist_nm":195.2,"freq":115.4,"lat":-16.26067200,"lon":-48.99201100,"rng_nm":200,"alt_fmsl":2960,"id":"ANP","desc":"ANAPOLIS VOR-DME"},
{"type":"NDB","hdg_t":113.2,"dist_nm":197.6,"freq":325,"lat":-16.14383300,"lon":-48.89383300,"rng_nm":25,"alt_fmsl":0,"id":"PP","desc":"POROROCA NDB"},
{"type":"NDB","hdg_t":71.1,"dist_nm":237.2,"freq":305,"lat":-13.54366700,"lon":-48.19483300,"rng_nm":54,"alt_fmsl":0,"id":"CNB","desc":"CANA BRAVA NDB"},
{"type":"NDB","hdg_t":105,"dist_nm":240.4,"freq":340,"lat":-15.86966700,"lon":-48.02166700,"rng_nm":90,"alt_fmsl":0,"id":"BRS","desc":"BRASILIA NDB"}
]
}
