{"success":true,"source":"xp2csv.pl","last_updated":"2013/11/08 14:53:21 UTC"
,"icao":"SWEB","name":"Fazenda Arauna","lat":-11.5675,"lon":-58.02611111,"rwys":1,"ils":0,"index":1987487,"path":"w060s20/w059s12"
,"runways":[
{"len_m":1203,"wid_m":29.87,"hdg":144,"surf":"Dirt","rwy1":"16","lat1":-11.56305085,"lon1":-58.02928466,"rwy2":"34","lat2":-11.57194915,"lon2":-58.02293756}
]
,"navaids":[
{"type":"VOR","hdg_t":240.8,"dist_nm":138.9,"freq":112.1,"lat":-12.69366700,"lon":-60.09533300,"rng_nm":200,"alt_fmsl":2036,"id":"VLH","desc":"VILHENA VOR-DME"},
{"type":"NDB","hdg_t":241,"dist_nm":139.2,"freq":395,"lat":-12.68950000,"lon":-60.10333300,"rng_nm":50,"alt_fmsl":2252,"id":"VLH","desc":"VILHENA NDB"},
{"type":"VOR","hdg_t":48.3,"dist_nm":152.2,"freq":113.4,"lat":-9.86836400,"lon":-56.10492800,"rng_nm":200,"alt_fmsl":947,"id":"ATF","desc":"ALTA FLORESTA VOR-DME"},
{"type":"NDB","hdg_t":48.4,"dist_nm":152.2,"freq":245,"lat":-9.87056400,"lon":-56.10146400,"rng_nm":100,"alt_fmsl":947,"id":"ATF","desc":"ALTA FLORESTA NDB"},
{"type":"NDB","hdg_t":179.2,"dist_nm":159.8,"freq":235,"lat":-14.24250000,"lon":-57.99083300,"rng_nm":30,"alt_fmsl":2188,"id":"YTN","desc":"ITAMARATI NORTE NDB"},
{"type":"NDB","hdg_t":165.8,"dist_nm":197.8,"freq":335,"lat":-14.77733300,"lon":-57.19350000,"rng_nm":30,"alt_fmsl":988,"id":"FGN","desc":"FAZENDA GUANABARA NDB"},
{"type":"NDB","hdg_t":53.9,"dist_nm":224.5,"freq":215,"lat":-9.33956400,"lon":-54.96593600,"rng_nm":65,"alt_fmsl":1762,"id":"CXB","desc":"CACHIMBO NDB"},
{"type":"VOR","hdg_t":53.8,"dist_nm":224.6,"freq":115.1,"lat":-9.33514700,"lon":-54.96785000,"rng_nm":200,"alt_fmsl":1762,"id":"CXB","desc":"CACHIMBO VOR-DME"},
{"type":"NDB","hdg_t":279.6,"dist_nm":232.7,"freq":255,"lat":-10.88800000,"lon":-61.91216700,"rng_nm":50,"alt_fmsl":0,"id":"RON","desc":"RONDONIA NDB"},
{"type":"NDB","hdg_t":155.7,"dist_nm":268.3,"freq":380,"lat":-15.65500000,"lon":-56.12016700,"rng_nm":150,"alt_fmsl":614,"id":"CIA","desc":"CUIABA NDB"}
]
}
