{"success":true,"source":"xp2csv.pl","last_updated":"2013/11/08 14:53:21 UTC"
,"icao":"SWED","name":"Fazenda Eldorado","lat":-7.75722222,"lon":-49.12166667,"rwys":1,"ils":0,"index":2135183,"path":"w050s10/w050s08"
,"runways":[
{"len_m":1202,"wid_m":29.87,"hdg":69,"surf":"Gravel","rwy1":"09","lat1":-7.75911012,"lon1":-49.12677581,"rwy2":"27","lat2":-7.75533433,"lon2":-49.11655753}
]
,"navaids":[
{"type":"NDB","hdg_t":196.5,"dist_nm":37.1,"freq":230,"lat":-8.35366700,"lon":-49.29916700,"rng_nm":50,"alt_fmsl":854,"id":"ARG","desc":"ARAGUAIA NDB"},
{"type":"NDB","hdg_t":59.3,"dist_nm":61.1,"freq":205,"lat":-7.23350000,"lon":-48.23900000,"rng_nm":50,"alt_fmsl":771,"id":"AGI","desc":"ARAGUAINA NDB"},
{"type":"NDB","hdg_t":75.4,"dist_nm":102.3,"freq":330,"lat":-7.32300000,"lon":-47.46000000,"rng_nm":80,"alt_fmsl":565,"id":"CNA","desc":"CAROLINA NDB"},
{"type":"VOR","hdg_t":75.3,"dist_nm":102.7,"freq":115.3,"lat":-7.31873100,"lon":-47.45481900,"rng_nm":130,"alt_fmsl":565,"id":"CNA","desc":"CAROLINA VOR"},
{"type":"VOR","hdg_t":331.7,"dist_nm":111,"freq":112.4,"lat":-6.11933300,"lon":-50.00216700,"rng_nm":200,"alt_fmsl":2038,"id":"CRJ","desc":"CARAJAS VOR-DME"},
{"type":"NDB","hdg_t":331.7,"dist_nm":111.4,"freq":1700,"lat":-6.11133300,"lon":-50.00400000,"rng_nm":130,"alt_fmsl":2038,"id":"CRJ","desc":"CARAJAS NDB"},
{"type":"NDB","hdg_t":359.6,"dist_nm":142.4,"freq":370,"lat":-5.37128900,"lon":-49.13466100,"rng_nm":130,"alt_fmsl":357,"id":"MRB","desc":"MARABA NDB"},
{"type":"VOR","hdg_t":359.6,"dist_nm":142.6,"freq":113.7,"lat":-5.36816700,"lon":-49.13516700,"rng_nm":130,"alt_fmsl":357,"id":"MRB","desc":"MARABA VOR-DME"},
{"type":"VOR","hdg_t":163.3,"dist_nm":157.7,"freq":112.2,"lat":-10.28791700,"lon":-48.35841700,"rng_nm":130,"alt_fmsl":656,"id":"PMS","desc":"PALMAS VOR-DME"},
{"type":"NDB","hdg_t":163.5,"dist_nm":157.8,"freq":255,"lat":-10.29069400,"lon":-48.36586100,"rng_nm":50,"alt_fmsl":656,"id":"PMS","desc":"PALMAS NDB"}
]
}
