{"success":true,"source":"xp2csv.pl","last_updated":"2013/11/08 14:53:21 UTC"
,"icao":"SWEE","name":"Estirao Do Equador","lat":-4.523782,"lon":-71.5608475,"rwys":1,"ils":0,"index":1774939,"path":"w080s10/w072s05"
,"runways":[
{"len_m":1203,"wid_m":29.87,"hdg":51,"surf":"Asphalt","rwy1":"06","lat1":-4.52713600,"lon1":-71.56511700,"rwy2":"24","lat2":-4.52042800,"lon2":-71.55657800}
]
,"navaids":[
{"type":"NDB","hdg_t":80.5,"dist_nm":98.7,"freq":230,"lat":-4.24933300,"lon":-69.93616700,"rng_nm":50,"alt_fmsl":265,"id":"TBT","desc":"TABATINGA NDB"},
{"type":"NDB","hdg_t":78.8,"dist_nm":98.8,"freq":407,"lat":-4.20167200,"lon":-69.94238600,"rng_nm":200,"alt_fmsl":277,"id":"LET","desc":"LETICIA NDB"},
{"type":"VOR","hdg_t":78.6,"dist_nm":99.1,"freq":117.5,"lat":-4.19499700,"lon":-69.93973300,"rng_nm":100,"alt_fmsl":277,"id":"LET","desc":"LETICIA VOR-DME"},
{"type":"VOR","hdg_t":292.4,"dist_nm":114,"freq":116.5,"lat":-3.79250000,"lon":-73.31777778,"rng_nm":130,"alt_fmsl":335,"id":"IQT","desc":"IQUITOS VOR-DME"},
{"type":"NDB","hdg_t":292.2,"dist_nm":114.3,"freq":335,"lat":-3.79616100,"lon":-73.32611100,"rng_nm":25,"alt_fmsl":0,"id":"EC","desc":"IQUITOS NDB"},
{"type":"NDB","hdg_t":293.9,"dist_nm":116.2,"freq":335,"lat":-3.73138900,"lon":-73.33250000,"rng_nm":25,"alt_fmsl":0,"id":"PE","desc":"EC NDB"},
{"type":"NDB","hdg_t":141.7,"dist_nm":162.7,"freq":265,"lat":-6.66100000,"lon":-69.87250000,"rng_nm":75,"alt_fmsl":412,"id":"ERP","desc":"EIRUNEPE NDB"},
{"type":"NDB","hdg_t":201.4,"dist_nm":197.1,"freq":260,"lat":-7.59455000,"lon":-72.77143300,"rng_nm":50,"alt_fmsl":637,"id":"CZS","desc":"CRUZEIRO DO SUL NDB"},
{"type":"VOR","hdg_t":201.4,"dist_nm":197.8,"freq":112,"lat":-7.60683300,"lon":-72.77350000,"rng_nm":200,"alt_fmsl":637,"id":"CZS","desc":"CRUZEIRO DO SUL VOR-DME"},
{"type":"NDB","hdg_t":281.5,"dist_nm":212.9,"freq":325,"lat":-3.79972200,"lon":-75.03972200,"rng_nm":25,"alt_fmsl":427,"id":"TRO","desc":"CORRIENTES NDB"}
]
}
