{"success":true,"source":"xp2csv.pl","last_updated":"2013/11/08 14:53:21 UTC"
,"icao":"SWEM","name":"Emal - Empresa Mineracao Aripuana Ltda","lat":-14.61888889,"lon":-54.00333333,"rwys":1,"ils":0,"index":2052831,"path":"w060s20/w055s15"
,"runways":[
{"len_m":903,"wid_m":20.12,"hdg":61,"surf":"Gravel","rwy1":"08","lat1":-14.62082855,"lon1":-54.00702470,"rwy2":"26","lat2":-14.61694923,"lon2":-53.99964196}
]
,"navaids":[
{"type":"VOR","hdg_t":128.5,"dist_nm":118.9,"freq":113.3,"lat":-15.85350000,"lon":-52.39566700,"rng_nm":130,"alt_fmsl":1147,"id":"BAG","desc":"GARCAS VOR-DME"},
{"type":"NDB","hdg_t":128.4,"dist_nm":119.2,"freq":320,"lat":-15.85600000,"lon":-52.38933300,"rng_nm":75,"alt_fmsl":1147,"id":"BAG","desc":"GARCAS NDB"},
{"type":"VOR","hdg_t":242.8,"dist_nm":137.1,"freq":113.7,"lat":-15.65616700,"lon":-56.11200000,"rng_nm":200,"alt_fmsl":614,"id":"CIA","desc":"CUIABA VOR-DME"},
{"type":"NDB","hdg_t":242.9,"dist_nm":137.5,"freq":380,"lat":-15.65500000,"lon":-56.12016700,"rng_nm":150,"alt_fmsl":614,"id":"CIA","desc":"CUIABA NDB"},
{"type":"NDB","hdg_t":266.6,"dist_nm":185.7,"freq":335,"lat":-14.77733300,"lon":-57.19350000,"rng_nm":30,"alt_fmsl":988,"id":"FGN","desc":"FAZENDA GUANABARA NDB"},
{"type":"NDB","hdg_t":275,"dist_nm":233.2,"freq":235,"lat":-14.24250000,"lon":-57.99083300,"rng_nm":30,"alt_fmsl":2188,"id":"YTN","desc":"ITAMARATI NORTE NDB"},
{"type":"NDB","hdg_t":190.4,"dist_nm":236,"freq":205,"lat":-18.50383300,"lon":-54.75050000,"rng_nm":50,"alt_fmsl":0,"id":"CXM","desc":"COXIM NDB"},
{"type":"NDB","hdg_t":247.4,"dist_nm":273.9,"freq":330,"lat":-16.33802300,"lon":-58.38699200,"rng_nm":50,"alt_fmsl":0,"id":"SMT","desc":"SAN MATIAS NDB"},
{"type":"NDB","hdg_t":115.7,"dist_nm":275.4,"freq":230,"lat":-16.58048600,"lon":-49.69823100,"rng_nm":50,"alt_fmsl":0,"id":"SBG","desc":"SANTA BARBARA NDB"},
{"type":"NDB","hdg_t":114.1,"dist_nm":301.8,"freq":370,"lat":-16.63719700,"lon":-49.22439200,"rng_nm":75,"alt_fmsl":2450,"id":"GOI","desc":"GOIANIA NDB"}
]
}
