{"success":true,"source":"xp2csv.pl","last_updated":"2013/11/08 14:53:21 UTC"
,"icao":"SWEX","name":"Fazenda Santa Escolastica","lat":-16.84666667,"lon":-54.45888889,"rwys":1,"ils":0,"index":2052684,"path":"w060s20/w055s17"
,"runways":[
{"len_m":903,"wid_m":20.12,"hdg":72,"surf":"Turf/grass","rwy1":"09","lat1":-16.84791348,"lon1":-54.46292417,"rwy2":"27","lat2":-16.84541986,"lon2":-54.45485361}
]
,"navaids":[
{"type":"NDB","hdg_t":189.5,"dist_nm":100.4,"freq":205,"lat":-18.50383300,"lon":-54.75050000,"rng_nm":50,"alt_fmsl":0,"id":"CXM","desc":"COXIM NDB"},
{"type":"VOR","hdg_t":306.4,"dist_nm":119,"freq":113.7,"lat":-15.65616700,"lon":-56.11200000,"rng_nm":200,"alt_fmsl":614,"id":"CIA","desc":"CUIABA VOR-DME"},
{"type":"NDB","hdg_t":306.3,"dist_nm":119.4,"freq":380,"lat":-15.65500000,"lon":-56.12016700,"rng_nm":150,"alt_fmsl":614,"id":"CIA","desc":"CUIABA NDB"},
{"type":"VOR","hdg_t":63.7,"dist_nm":133,"freq":113.3,"lat":-15.85350000,"lon":-52.39566700,"rng_nm":130,"alt_fmsl":1147,"id":"BAG","desc":"GARCAS VOR-DME"},
{"type":"NDB","hdg_t":63.9,"dist_nm":133.2,"freq":320,"lat":-15.85600000,"lon":-52.38933300,"rng_nm":75,"alt_fmsl":1147,"id":"BAG","desc":"GARCAS NDB"},
{"type":"NDB","hdg_t":307.6,"dist_nm":200.7,"freq":335,"lat":-14.77733300,"lon":-57.19350000,"rng_nm":30,"alt_fmsl":988,"id":"FGN","desc":"FAZENDA GUANABARA NDB"},
{"type":"NDB","hdg_t":182.6,"dist_nm":213.1,"freq":215,"lat":-20.40883300,"lon":-54.63033300,"rng_nm":50,"alt_fmsl":0,"id":"PP","desc":"MARACA NDB"},
{"type":"VOR","hdg_t":183.1,"dist_nm":216.8,"freq":115.7,"lat":-20.46883300,"lon":-54.67033300,"rng_nm":200,"alt_fmsl":1833,"id":"CGR","desc":"CAMPO GRANDE VOR-DME"},
{"type":"NDB","hdg_t":183.4,"dist_nm":217.8,"freq":395,"lat":-20.48586100,"lon":-54.68932800,"rng_nm":50,"alt_fmsl":0,"id":"IG","desc":"SOJA NDB"},
{"type":"NDB","hdg_t":169.5,"dist_nm":220.1,"freq":245,"lat":-20.46716700,"lon":-53.75050000,"rng_nm":70,"alt_fmsl":0,"id":"RIB","desc":"RIBAS NDB"}
]
}
