{"success":true,"source":"xp2csv.pl","last_updated":"2013/11/08 14:53:21 UTC"
,"icao":"SWHL","name":"Fazenda Maraba","lat":-15.275,"lon":-55.12166667,"rwys":1,"ils":0,"index":2036399,"path":"w060s20/w056s16"
,"runways":[
{"len_m":991,"wid_m":20.12,"hdg":353,"surf":"Gravel","rwy1":"01","lat1":-15.27944714,"lon1":-55.12112457,"rwy2":"19","lat2":-15.27055286,"lon2":-55.12220877}
]
,"navaids":[
{"type":"VOR","hdg_t":248.2,"dist_nm":61.7,"freq":113.7,"lat":-15.65616700,"lon":-56.11200000,"rng_nm":200,"alt_fmsl":614,"id":"CIA","desc":"CUIABA VOR-DME"},
{"type":"NDB","hdg_t":248.4,"dist_nm":62.1,"freq":380,"lat":-15.65500000,"lon":-56.12016700,"rng_nm":150,"alt_fmsl":614,"id":"CIA","desc":"CUIABA NDB"},
{"type":"NDB","hdg_t":283.6,"dist_nm":123.9,"freq":335,"lat":-14.77733300,"lon":-57.19350000,"rng_nm":30,"alt_fmsl":988,"id":"FGN","desc":"FAZENDA GUANABARA NDB"},
{"type":"VOR","hdg_t":102.7,"dist_nm":161.6,"freq":113.3,"lat":-15.85350000,"lon":-52.39566700,"rng_nm":130,"alt_fmsl":1147,"id":"BAG","desc":"GARCAS VOR-DME"},
{"type":"NDB","hdg_t":102.7,"dist_nm":162,"freq":320,"lat":-15.85600000,"lon":-52.38933300,"rng_nm":75,"alt_fmsl":1147,"id":"BAG","desc":"GARCAS NDB"},
{"type":"NDB","hdg_t":289.9,"dist_nm":177.8,"freq":235,"lat":-14.24250000,"lon":-57.99083300,"rng_nm":30,"alt_fmsl":2188,"id":"YTN","desc":"ITAMARATI NORTE NDB"},
{"type":"NDB","hdg_t":173.7,"dist_nm":194.1,"freq":205,"lat":-18.50383300,"lon":-54.75050000,"rng_nm":50,"alt_fmsl":0,"id":"CXM","desc":"COXIM NDB"},
{"type":"NDB","hdg_t":250.9,"dist_nm":199.2,"freq":330,"lat":-16.33802300,"lon":-58.38699200,"rng_nm":50,"alt_fmsl":0,"id":"SMT","desc":"SAN MATIAS NDB"},
{"type":"NDB","hdg_t":212.7,"dist_nm":267,"freq":375,"lat":-19.01666700,"lon":-57.66333300,"rng_nm":10,"alt_fmsl":461,"id":"CUB","desc":"CORUMBA NDB"},
{"type":"NDB","hdg_t":214.5,"dist_nm":270.3,"freq":290,"lat":-18.98192500,"lon":-57.81837400,"rng_nm":100,"alt_fmsl":439,"id":"PSZ","desc":"PUERTO SUAREZ NDB"}
]
}
