{"success":true,"source":"xp2csv.pl","last_updated":"2013/11/08 14:53:21 UTC"
,"icao":"SWIH","name":"Fazenda Felicidade","lat":-14.90583334,"lon":-52.73166667,"rwys":1,"ils":0,"index":2085570,"path":"w060s20/w053s15"
,"runways":[
{"len_m":844,"wid_m":17.98,"hdg":351,"surf":"Gravel","rwy1":"01","lat1":-14.90960830,"lon1":-52.73109239,"rwy2":"19","lat2":-14.90205837,"lon2":-52.73224095}
]
,"navaids":[
{"type":"VOR","hdg_t":161,"dist_nm":59.8,"freq":113.3,"lat":-15.85350000,"lon":-52.39566700,"rng_nm":130,"alt_fmsl":1147,"id":"BAG","desc":"GARCAS VOR-DME"},
{"type":"NDB","hdg_t":160.7,"dist_nm":60.1,"freq":320,"lat":-15.85600000,"lon":-52.38933300,"rng_nm":75,"alt_fmsl":1147,"id":"BAG","desc":"GARCAS NDB"},
{"type":"VOR","hdg_t":256.6,"dist_nm":201.1,"freq":113.7,"lat":-15.65616700,"lon":-56.11200000,"rng_nm":200,"alt_fmsl":614,"id":"CIA","desc":"CUIABA VOR-DME"},
{"type":"NDB","hdg_t":256.7,"dist_nm":201.5,"freq":380,"lat":-15.65500000,"lon":-56.12016700,"rng_nm":150,"alt_fmsl":614,"id":"CIA","desc":"CUIABA NDB"},
{"type":"NDB","hdg_t":120,"dist_nm":202,"freq":230,"lat":-16.58048600,"lon":-49.69823100,"rng_nm":50,"alt_fmsl":0,"id":"SBG","desc":"SANTA BARBARA NDB"},
{"type":"NDB","hdg_t":117.4,"dist_nm":227.7,"freq":370,"lat":-16.63719700,"lon":-49.22439200,"rng_nm":75,"alt_fmsl":2450,"id":"GOI","desc":"GOIANIA NDB"},
{"type":"VOR","hdg_t":117.3,"dist_nm":228.1,"freq":112.7,"lat":-16.63243300,"lon":-49.21535600,"rng_nm":200,"alt_fmsl":2450,"id":"GOI","desc":"GOIANIA VOR-DME"},
{"type":"NDB","hdg_t":112,"dist_nm":229.7,"freq":415,"lat":-16.31743900,"lon":-49.04026700,"rng_nm":50,"alt_fmsl":2960,"id":"ANP","desc":"ANAPOLIS NDB"},
{"type":"VOR","hdg_t":110.9,"dist_nm":231.1,"freq":115.4,"lat":-16.26067200,"lon":-48.99201100,"rng_nm":200,"alt_fmsl":2960,"id":"ANP","desc":"ANAPOLIS VOR-DME"},
{"type":"NDB","hdg_t":108.9,"dist_nm":234.2,"freq":325,"lat":-16.14383300,"lon":-48.89383300,"rng_nm":25,"alt_fmsl":0,"id":"PP","desc":"POROROCA NDB"}
]
}
