{"success":true,"source":"xp2csv.pl","last_updated":"2013/11/08 14:53:21 UTC"
,"icao":"SWIK","name":"Fazenda Vanguarda","lat":-14.91722222,"lon":-51.28388889,"rwys":1,"ils":0,"index":2101957,"path":"w060s20/w052s15"
,"runways":[
{"len_m":1006,"wid_m":29.87,"hdg":30,"surf":"Gravel","rwy1":"05","lat1":-14.92115773,"lon1":-51.28623214,"rwy2":"23","lat2":-14.91328671,"lon2":-51.28154564}
]
,"navaids":[
{"type":"NDB","hdg_t":228.6,"dist_nm":85.1,"freq":320,"lat":-15.85600000,"lon":-52.38933300,"rng_nm":75,"alt_fmsl":1147,"id":"BAG","desc":"GARCAS NDB"},
{"type":"VOR","hdg_t":228.8,"dist_nm":85.3,"freq":113.3,"lat":-15.85350000,"lon":-52.39566700,"rng_nm":130,"alt_fmsl":1147,"id":"BAG","desc":"GARCAS VOR-DME"},
{"type":"NDB","hdg_t":137.4,"dist_nm":135.2,"freq":230,"lat":-16.58048600,"lon":-49.69823100,"rng_nm":50,"alt_fmsl":0,"id":"SBG","desc":"SANTA BARBARA NDB"},
{"type":"NDB","hdg_t":123,"dist_nm":154.5,"freq":415,"lat":-16.31743900,"lon":-49.04026700,"rng_nm":50,"alt_fmsl":2960,"id":"ANP","desc":"ANAPOLIS NDB"},
{"type":"VOR","hdg_t":121.4,"dist_nm":155.1,"freq":115.4,"lat":-16.26067200,"lon":-48.99201100,"rng_nm":200,"alt_fmsl":2960,"id":"ANP","desc":"ANAPOLIS VOR-DME"},
{"type":"NDB","hdg_t":118.2,"dist_nm":156.6,"freq":325,"lat":-16.14383300,"lon":-48.89383300,"rng_nm":25,"alt_fmsl":0,"id":"PP","desc":"POROROCA NDB"},
{"type":"NDB","hdg_t":131,"dist_nm":157.3,"freq":370,"lat":-16.63719700,"lon":-49.22439200,"rng_nm":75,"alt_fmsl":2450,"id":"GOI","desc":"GOIANIA NDB"},
{"type":"VOR","hdg_t":130.8,"dist_nm":157.5,"freq":112.7,"lat":-16.63243300,"lon":-49.21535600,"rng_nm":200,"alt_fmsl":2450,"id":"GOI","desc":"GOIANIA VOR-DME"},
{"type":"NDB","hdg_t":107.1,"dist_nm":197.4,"freq":340,"lat":-15.86966700,"lon":-48.02166700,"rng_nm":90,"alt_fmsl":0,"id":"BRS","desc":"BRASILIA NDB"},
{"type":"VOR","hdg_t":107.2,"dist_nm":197.5,"freq":115.9,"lat":-15.87375000,"lon":-48.02135600,"rng_nm":200,"alt_fmsl":3974,"id":"BRS","desc":"BRASILIA VOR-DME"}
]
}
