{"success":true,"source":"xp2csv.pl","last_updated":"2013/11/08 14:53:21 UTC"
,"icao":"SWKX","name":"Corixa","lat":-16.3833332,"lon":-58.3169441,"rwys":1,"ils":0,"index":1987173,"path":"w060s20/w059s17"
,"runways":[
{"len_m":1097,"wid_m":15.85,"hdg":147,"surf":"Concrete","rwy1":"16","lat1":-16.37913677,"lon1":-58.31967730,"rwy2":"34","lat2":-16.38752963,"lon2":-58.31421090}
]
,"navaids":[
{"type":"NDB","hdg_t":303.8,"dist_nm":4.8,"freq":330,"lat":-16.33802300,"lon":-58.38699200,"rng_nm":50,"alt_fmsl":0,"id":"SMT","desc":"SAN MATIAS NDB"},
{"type":"NDB","hdg_t":34.2,"dist_nm":115.9,"freq":335,"lat":-14.77733300,"lon":-57.19350000,"rng_nm":30,"alt_fmsl":988,"id":"FGN","desc":"FAZENDA GUANABARA NDB"},
{"type":"NDB","hdg_t":8.4,"dist_nm":129.2,"freq":235,"lat":-14.24250000,"lon":-57.99083300,"rng_nm":30,"alt_fmsl":2188,"id":"YTN","desc":"ITAMARATI NORTE NDB"},
{"type":"NDB","hdg_t":71.3,"dist_nm":134.1,"freq":380,"lat":-15.65500000,"lon":-56.12016700,"rng_nm":150,"alt_fmsl":614,"id":"CIA","desc":"CUIABA NDB"},
{"type":"VOR","hdg_t":71.4,"dist_nm":134.6,"freq":113.7,"lat":-15.65616700,"lon":-56.11200000,"rng_nm":200,"alt_fmsl":614,"id":"CIA","desc":"CUIABA VOR-DME"},
{"type":"NDB","hdg_t":215.3,"dist_nm":143,"freq":325,"lat":-18.33190800,"lon":-59.76624200,"rng_nm":50,"alt_fmsl":0,"id":"OBO","desc":"ROBORE NDB"},
{"type":"NDB","hdg_t":269.6,"dist_nm":152.7,"freq":250,"lat":-16.38300500,"lon":-60.96461700,"rng_nm":50,"alt_fmsl":0,"id":"SNG","desc":"SAN IGNACIO DE VELASCO NDB"},
{"type":"NDB","hdg_t":169.6,"dist_nm":157.8,"freq":290,"lat":-18.98192500,"lon":-57.81837400,"rng_nm":100,"alt_fmsl":439,"id":"PSZ","desc":"PUERTO SUAREZ NDB"},
{"type":"NDB","hdg_t":166.7,"dist_nm":161.7,"freq":375,"lat":-19.01666700,"lon":-57.66333300,"rng_nm":10,"alt_fmsl":461,"id":"CUB","desc":"CORUMBA NDB"},
{"type":"NDB","hdg_t":122.3,"dist_nm":240.6,"freq":205,"lat":-18.50383300,"lon":-54.75050000,"rng_nm":50,"alt_fmsl":0,"id":"CXM","desc":"COXIM NDB"}
]
}
