{"success":true,"source":"xp2csv.pl","last_updated":"2013/11/08 14:53:21 UTC"
,"icao":"SWKZ","name":"Fazenda Cerejal","lat":-11.7175,"lon":-58.25944444,"rwys":1,"ils":0,"index":1987477,"path":"w060s20/w059s12"
,"runways":[
{"len_m":993,"wid_m":24.99,"hdg":354,"surf":"Gravel","rwy1":"01","lat1":-11.72197168,"lon1":-58.25902725,"rwy2":"19","lat2":-11.71302832,"lon2":-58.25986163}
]
,"navaids":[
{"type":"VOR","hdg_t":241.4,"dist_nm":122.6,"freq":112.1,"lat":-12.69366700,"lon":-60.09533300,"rng_nm":200,"alt_fmsl":2036,"id":"VLH","desc":"VILHENA VOR-DME"},
{"type":"NDB","hdg_t":241.6,"dist_nm":122.9,"freq":395,"lat":-12.68950000,"lon":-60.10333300,"rng_nm":50,"alt_fmsl":2252,"id":"VLH","desc":"VILHENA NDB"},
{"type":"NDB","hdg_t":174,"dist_nm":151.6,"freq":235,"lat":-14.24250000,"lon":-57.99083300,"rng_nm":30,"alt_fmsl":2188,"id":"YTN","desc":"ITAMARATI NORTE NDB"},
{"type":"VOR","hdg_t":49.2,"dist_nm":168.4,"freq":113.4,"lat":-9.86836400,"lon":-56.10492800,"rng_nm":200,"alt_fmsl":947,"id":"ATF","desc":"ALTA FLORESTA VOR-DME"},
{"type":"NDB","hdg_t":49.3,"dist_nm":168.5,"freq":245,"lat":-9.87056400,"lon":-56.10146400,"rng_nm":100,"alt_fmsl":947,"id":"ATF","desc":"ALTA FLORESTA NDB"},
{"type":"NDB","hdg_t":161.2,"dist_nm":193.1,"freq":335,"lat":-14.77733300,"lon":-57.19350000,"rng_nm":30,"alt_fmsl":988,"id":"FGN","desc":"FAZENDA GUANABARA NDB"},
{"type":"NDB","hdg_t":282.5,"dist_nm":220.9,"freq":255,"lat":-10.88800000,"lon":-61.91216700,"rng_nm":50,"alt_fmsl":0,"id":"RON","desc":"RONDONIA NDB"},
{"type":"NDB","hdg_t":54.1,"dist_nm":240.9,"freq":215,"lat":-9.33956400,"lon":-54.96593600,"rng_nm":65,"alt_fmsl":1762,"id":"CXB","desc":"CACHIMBO NDB"},
{"type":"VOR","hdg_t":54.1,"dist_nm":241,"freq":115.1,"lat":-9.33514700,"lon":-54.96785000,"rng_nm":200,"alt_fmsl":1762,"id":"CXB","desc":"CACHIMBO VOR-DME"},
{"type":"NDB","hdg_t":152.2,"dist_nm":266.3,"freq":380,"lat":-15.65500000,"lon":-56.12016700,"rng_nm":150,"alt_fmsl":614,"id":"CIA","desc":"CUIABA NDB"}
]
}
