{"success":true,"source":"xp2csv.pl","last_updated":"2013/11/08 14:53:21 UTC"
,"icao":"SWLB","name":"Labrea","lat":-7.278972,"lon":-64.7694725,"rwys":1,"ils":0,"index":1889449,"path":"w070s10/w065s08"
,"runways":[
{"len_m":1212,"wid_m":28.35,"hdg":176,"surf":"Asphalt","rwy1":"18","lat1":-7.27350000,"lon1":-64.76980600,"rwy2":"36","lat2":-7.28444400,"lon2":-64.76913900}
]
,"navaids":[
{"type":"NDB","hdg_t":333.2,"dist_nm":1.9,"freq":295,"lat":-7.25037200,"lon":-64.78389700,"rng_nm":75,"alt_fmsl":0,"id":"LBR","desc":"LABREA NDB"},
{"type":"NDB","hdg_t":148.7,"dist_nm":99.8,"freq":385,"lat":-8.70766700,"lon":-63.89833300,"rng_nm":50,"alt_fmsl":290,"id":"PVH","desc":"PORTO VELHO NDB"},
{"type":"VOR","hdg_t":149,"dist_nm":100,"freq":112.7,"lat":-8.71400000,"lon":-63.90333300,"rng_nm":200,"alt_fmsl":290,"id":"PVH","desc":"PORTO VELHO VOR-DME"},
{"type":"NDB","hdg_t":346.3,"dist_nm":147,"freq":355,"lat":-4.88611100,"lon":-65.34916700,"rng_nm":25,"alt_fmsl":0,"id":"URC","desc":"COARI NDB"},
{"type":"NDB","hdg_t":238.8,"dist_nm":188.6,"freq":305,"lat":-8.90426100,"lon":-67.48863300,"rng_nm":75,"alt_fmsl":0,"id":"BDA","desc":"BOCA DO ACRE NDB"},
{"type":"NDB","hdg_t":318.5,"dist_nm":191.5,"freq":285,"lat":-4.87066700,"lon":-66.88716700,"rng_nm":115,"alt_fmsl":355,"id":"CUA","desc":"CARAUARI NDB"},
{"type":"NDB","hdg_t":188.2,"dist_nm":211.5,"freq":400,"lat":-10.78425000,"lon":-65.28108300,"rng_nm":50,"alt_fmsl":0,"id":"GJM","desc":"GUAJARA NDB"},
{"type":"NDB","hdg_t":189,"dist_nm":214.5,"freq":250,"lat":-10.82545300,"lon":-65.34367000,"rng_nm":100,"alt_fmsl":0,"id":"GYA","desc":"GUAYARAMERIN NDB"},
{"type":"NDB","hdg_t":67.3,"dist_nm":226,"freq":310,"lat":-5.80716700,"lon":-61.28200000,"rng_nm":65,"alt_fmsl":0,"id":"MCR","desc":"MANICORE NDB"},
{"type":"VOR","hdg_t":0.6,"dist_nm":232.3,"freq":112.9,"lat":-3.38783300,"lon":-64.72800000,"rng_nm":200,"alt_fmsl":213,"id":"TFE","desc":"TEFE VOR-DME"}
]
}
