{"success":true,"source":"xp2csv.pl","last_updated":"2013/11/08 14:53:21 UTC"
,"icao":"SWNM","name":"Normandia","lat":3.86638889,"lon":-59.61722222,"rwys":1,"ils":0,"index":1972083,"path":"w060n00/w060n03"
,"runways":[
{"len_m":998,"wid_m":25.91,"hdg":44,"surf":"Dirt","rwy1":"06","lat1":3.86318626,"lon1":-59.62039369,"rwy2":"24","lat2":3.86959151,"lon2":-59.61405075}
]
,"navaids":[
{"type":"VOR","hdg_t":226.6,"dist_nm":88.2,"freq":113.1,"lat":2.85216700,"lon":-60.68683300,"rng_nm":200,"alt_fmsl":274,"id":"BVI","desc":"BOA VISTA VOR-DME"},
{"type":"NDB","hdg_t":226.4,"dist_nm":88.9,"freq":405,"lat":2.83983300,"lon":-60.69200000,"rng_nm":200,"alt_fmsl":274,"id":"BVI","desc":"BOA VISTA NDB"},
{"type":"VOR","hdg_t":300.3,"dist_nm":97.8,"freq":117.7,"lat":4.69277800,"lon":-61.02755600,"rng_nm":130,"alt_fmsl":618,"id":"LDP","desc":"LA DIVINA PASTORA VOR-DME"},
{"type":"NDB","hdg_t":300.4,"dist_nm":98,"freq":245,"lat":4.69750000,"lon":-61.02783300,"rng_nm":200,"alt_fmsl":0,"id":"LDP","desc":"LA DIVINA PASTORA NDB"},
{"type":"NDB","hdg_t":45,"dist_nm":114.1,"freq":342,"lat":5.21632200,"lon":-58.26709900,"rng_nm":50,"alt_fmsl":0,"id":"KAI","desc":"KAIETEUR NDB"},
{"type":"NDB","hdg_t":282.4,"dist_nm":130.1,"freq":318,"lat":4.33333300,"lon":-61.73805600,"rng_nm":50,"alt_fmsl":0,"id":"ICA","desc":"ICABARU NDB"},
{"type":"NDB","hdg_t":333.6,"dist_nm":134.4,"freq":406,"lat":5.88333300,"lon":-60.61666700,"rng_nm":70,"alt_fmsl":0,"id":"KAM","desc":"KAMARANG NDB"},
{"type":"NDB","hdg_t":302.4,"dist_nm":152.4,"freq":272,"lat":5.23333300,"lon":-61.76666700,"rng_nm":50,"alt_fmsl":0,"id":"KEM","desc":"UONQUEN NDB"},
{"type":"NDB","hdg_t":316.2,"dist_nm":161.4,"freq":286,"lat":5.81666700,"lon":-61.48333300,"rng_nm":50,"alt_fmsl":0,"id":"LEA","desc":"LUEPA NDB"},
{"type":"NDB","hdg_t":308.8,"dist_nm":164,"freq":398,"lat":5.58722222,"lon":-61.75200000,"rng_nm":50,"alt_fmsl":0,"id":"KAV","desc":"KAVANAYEN NDB"}
]
}
