{"success":true,"source":"xp2csv.pl","last_updated":"2013/11/08 14:53:21 UTC"
,"icao":"SWOW","name":"Moura","lat":-1.4666671,"lon":-61.6169434,"rwys":1,"ils":0,"index":1938979,"path":"w070s10/w062s02"
,"runways":[
{"len_m":1100,"wid_m":15.85,"hdg":107,"surf":"Concrete","rwy1":"12","lat1":-1.46513798,"lon1":-61.62165109,"rwy2":"30","lat2":-1.46819622,"lon2":-61.61223571}
]
,"navaids":[
{"type":"NDB","hdg_t":290.5,"dist_nm":83.6,"freq":225,"lat":-0.97550000,"lon":-62.92083300,"rng_nm":200,"alt_fmsl":112,"id":"BRL","desc":"BARCELOS NDB"},
{"type":"VOR","hdg_t":136.3,"dist_nm":129.6,"freq":115.8,"lat":-3.03700000,"lon":-60.12483300,"rng_nm":200,"alt_fmsl":108,"id":"MNS","desc":"MANAUS VOR-DME"},
{"type":"NDB","hdg_t":135,"dist_nm":132.9,"freq":340,"lat":-3.04183300,"lon":-60.05200000,"rng_nm":50,"alt_fmsl":0,"id":"MAN","desc":"MANAUS NDB"},
{"type":"NDB","hdg_t":135.7,"dist_nm":139.7,"freq":410,"lat":-3.14280800,"lon":-59.99360300,"rng_nm":70,"alt_fmsl":474,"id":"PEL","desc":"PELADA NDB"},
{"type":"NDB","hdg_t":117.7,"dist_nm":212.6,"freq":320,"lat":-3.11932500,"lon":-58.48089700,"rng_nm":75,"alt_fmsl":142,"id":"YTC","desc":"ITACOATIARA NDB"},
{"type":"NDB","hdg_t":286.9,"dist_nm":214.8,"freq":365,"lat":-0.41700000,"lon":-65.03633300,"rng_nm":75,"alt_fmsl":0,"id":"TPQ","desc":"TAPURUQUARA NDB"},
{"type":"NDB","hdg_t":238.4,"dist_nm":218.6,"freq":300,"lat":-3.37933300,"lon":-64.72133300,"rng_nm":80,"alt_fmsl":410,"id":"TFE","desc":"TEFE NDB"},
{"type":"VOR","hdg_t":238.3,"dist_nm":219.2,"freq":112.9,"lat":-3.38783300,"lon":-64.72800000,"rng_nm":200,"alt_fmsl":213,"id":"TFE","desc":"TEFE VOR-DME"},
{"type":"NDB","hdg_t":175.5,"dist_nm":259.9,"freq":310,"lat":-5.80716700,"lon":-61.28200000,"rng_nm":65,"alt_fmsl":0,"id":"MCR","desc":"MANICORE NDB"},
{"type":"NDB","hdg_t":12.1,"dist_nm":263,"freq":405,"lat":2.83983300,"lon":-60.69200000,"rng_nm":200,"alt_fmsl":274,"id":"BVI","desc":"BOA VISTA NDB"}
]
}
