{"success":true,"source":"xp2csv.pl","last_updated":"2013/11/08 14:53:21 UTC"
,"icao":"SWPN","name":"Parana","lat":-12.6194439,"lon":-47.8725014,"rwys":1,"ils":0,"index":2167641,"path":"w050s20/w048s13"
,"runways":[
{"len_m":999,"wid_m":14.33,"hdg":129,"surf":"Concrete","rwy1":"15","lat1":-12.61655233,"lon1":-47.87603275,"rwy2":"33","lat2":-12.62233547,"lon2":-47.86897005}
]
,"navaids":[
{"type":"NDB","hdg_t":198.8,"dist_nm":58.3,"freq":305,"lat":-13.54366700,"lon":-48.19483300,"rng_nm":54,"alt_fmsl":0,"id":"CNB","desc":"CANA BRAVA NDB"},
{"type":"VOR","hdg_t":344.5,"dist_nm":117.6,"freq":113,"lat":-10.72070600,"lon":-48.40258600,"rng_nm":200,"alt_fmsl":870,"id":"PNC","desc":"PORTO NACIONAL VOR-DME"},
{"type":"NDB","hdg_t":344.6,"dist_nm":118,"freq":395,"lat":-10.71283300,"lon":-48.40216700,"rng_nm":200,"alt_fmsl":1054,"id":"PNC","desc":"PORTO NACIONAL NDB"},
{"type":"NDB","hdg_t":348.1,"dist_nm":142,"freq":255,"lat":-10.29069400,"lon":-48.36586100,"rng_nm":50,"alt_fmsl":656,"id":"PMS","desc":"PALMAS NDB"},
{"type":"VOR","hdg_t":348.3,"dist_nm":142.1,"freq":112.2,"lat":-10.28791700,"lon":-48.35841700,"rng_nm":130,"alt_fmsl":656,"id":"PMS","desc":"PALMAS VOR-DME"},
{"type":"VOR","hdg_t":79.4,"dist_nm":171.3,"freq":114.3,"lat":-12.08000000,"lon":-45.00716700,"rng_nm":200,"alt_fmsl":2444,"id":"BRR","desc":"BARREIRAS VOR"},
{"type":"NDB","hdg_t":79.4,"dist_nm":171.8,"freq":375,"lat":-12.07900000,"lon":-44.99833300,"rng_nm":200,"alt_fmsl":2444,"id":"BRR","desc":"BARREIRAS NDB"},
{"type":"NDB","hdg_t":170.1,"dist_nm":177.8,"freq":210,"lat":-15.55133300,"lon":-47.34616700,"rng_nm":50,"alt_fmsl":0,"id":"FRM","desc":"FORMOSA NDB"},
{"type":"VOR","hdg_t":170.1,"dist_nm":178.1,"freq":114.1,"lat":-15.55759400,"lon":-47.34706900,"rng_nm":40,"alt_fmsl":3166,"id":"FRM","desc":"FORMOSA VOR-DME"},
{"type":"NDB","hdg_t":180.2,"dist_nm":193.6,"freq":240,"lat":-15.86083300,"lon":-47.88533300,"rng_nm":50,"alt_fmsl":3490,"id":"CH","desc":"COCHO NDB"}
]
}
