{"success":true,"source":"xp2csv.pl","last_updated":"2013/11/08 14:53:21 UTC"
,"icao":"SWQK","name":"Pedra","lat":-6.76666667,"lon":-36.48111111,"rwys":1,"ils":0,"index":2348236,"path":"w040s10/w037s07"
,"runways":[
{"len_m":879,"wid_m":20.12,"hdg":37,"surf":"Gravel","rwy1":"06","lat1":-6.76980406,"lon1":-36.48355526,"rwy2":"24","lat2":-6.76352928,"lon2":-36.47866696}
]
,"navaids":[
{"type":"NDB","hdg_t":130.3,"dist_nm":46,"freq":230,"lat":-7.26601400,"lon":-35.89267200,"rng_nm":60,"alt_fmsl":1777,"id":"CPG","desc":"CAMPINA GRANDE NDB"},
{"type":"VOR","hdg_t":55.2,"dist_nm":89.7,"freq":114.3,"lat":-5.90832200,"lon":-35.24858300,"rng_nm":200,"alt_fmsl":169,"id":"NTL","desc":"NATAL VOR-DME"},
{"type":"NDB","hdg_t":55,"dist_nm":90.1,"freq":400,"lat":-5.90000000,"lon":-35.24633300,"rng_nm":75,"alt_fmsl":169,"id":"NTL","desc":"NATAL NDB"},
{"type":"NDB","hdg_t":103.8,"dist_nm":93.9,"freq":320,"lat":-7.14050000,"lon":-34.95250000,"rng_nm":40,"alt_fmsl":215,"id":"JPS","desc":"JOAO PESSOA NDB"},
{"type":"NDB","hdg_t":34.6,"dist_nm":100.1,"freq":205,"lat":-5.38616700,"lon":-35.53100000,"rng_nm":50,"alt_fmsl":302,"id":"MXN","desc":"MAXARANGUAPE NDB"},
{"type":"NDB","hdg_t":138.4,"dist_nm":107,"freq":285,"lat":-8.10650000,"lon":-35.28733300,"rng_nm":100,"alt_fmsl":0,"id":"VSA","desc":"SANTO ANTAO NDB"},
{"type":"VOR","hdg_t":330.5,"dist_nm":107.5,"freq":112.4,"lat":-5.19733300,"lon":-37.36450000,"rng_nm":200,"alt_fmsl":88,"id":"MSS","desc":"MOSSORO VOR-DME"},
{"type":"NDB","hdg_t":330.6,"dist_nm":107.7,"freq":275,"lat":-5.19350000,"lon":-37.36450000,"rng_nm":90,"alt_fmsl":217,"id":"MSS","desc":"MOSSORO NDB"},
{"type":"NDB","hdg_t":4.4,"dist_nm":110,"freq":220,"lat":-4.92916700,"lon":-36.33972200,"rng_nm":25,"alt_fmsl":0,"id":"UBA","desc":"UBARANA NDB"},
{"type":"NDB","hdg_t":31.8,"dist_nm":112.8,"freq":305,"lat":-5.16116700,"lon":-35.48650000,"rng_nm":300,"alt_fmsl":0,"id":"DA","desc":"CALCANHAR NDB"}
]
}
