{"success":true,"source":"xp2csv.pl","last_updated":"2013/11/08 14:53:21 UTC"
,"icao":"SWRY","name":"Fazenda Santa Maria","lat":-15.7375,"lon":-57.47055556,"rwys":1,"ils":0,"index":2003604,"path":"w060s20/w058s16"
,"runways":[
{"len_m":1204,"wid_m":29.87,"hdg":165,"surf":"Gravel","rwy1":"18","lat1":-15.73223830,"lon1":-57.47199697,"rwy2":"36","lat2":-15.74276170,"lon2":-57.46911415}
]
,"navaids":[
{"type":"NDB","hdg_t":15.6,"dist_nm":59.5,"freq":335,"lat":-14.77733300,"lon":-57.19350000,"rng_nm":30,"alt_fmsl":988,"id":"FGN","desc":"FAZENDA GUANABARA NDB"},
{"type":"NDB","hdg_t":235.7,"dist_nm":63.9,"freq":330,"lat":-16.33802300,"lon":-58.38699200,"rng_nm":50,"alt_fmsl":0,"id":"SMT","desc":"SAN MATIAS NDB"},
{"type":"NDB","hdg_t":86.5,"dist_nm":78.3,"freq":380,"lat":-15.65500000,"lon":-56.12016700,"rng_nm":150,"alt_fmsl":614,"id":"CIA","desc":"CUIABA NDB"},
{"type":"VOR","hdg_t":86.6,"dist_nm":78.7,"freq":113.7,"lat":-15.65616700,"lon":-56.11200000,"rng_nm":200,"alt_fmsl":614,"id":"CIA","desc":"CUIABA VOR-DME"},
{"type":"NDB","hdg_t":341.2,"dist_nm":94.2,"freq":235,"lat":-14.24250000,"lon":-57.99083300,"rng_nm":30,"alt_fmsl":2188,"id":"YTN","desc":"ITAMARATI NORTE NDB"},
{"type":"NDB","hdg_t":185.8,"dist_nm":194.9,"freq":290,"lat":-18.98192500,"lon":-57.81837400,"rng_nm":100,"alt_fmsl":439,"id":"PSZ","desc":"PUERTO SUAREZ NDB"},
{"type":"NDB","hdg_t":183.2,"dist_nm":196.2,"freq":375,"lat":-19.01666700,"lon":-57.66333300,"rng_nm":10,"alt_fmsl":461,"id":"CUB","desc":"CORUMBA NDB"},
{"type":"NDB","hdg_t":220,"dist_nm":203.5,"freq":325,"lat":-18.33190800,"lon":-59.76624200,"rng_nm":50,"alt_fmsl":0,"id":"OBO","desc":"ROBORE NDB"},
{"type":"NDB","hdg_t":258.7,"dist_nm":205.5,"freq":250,"lat":-16.38300500,"lon":-60.96461700,"rng_nm":50,"alt_fmsl":0,"id":"SNG","desc":"SAN IGNACIO DE VELASCO NDB"},
{"type":"NDB","hdg_t":136.9,"dist_nm":227.4,"freq":205,"lat":-18.50383300,"lon":-54.75050000,"rng_nm":50,"alt_fmsl":0,"id":"CXM","desc":"COXIM NDB"}
]
}
