{"success":true,"source":"xp2csv.pl","last_updated":"2013/11/08 14:53:21 UTC"
,"icao":"SWSH","name":"Sao Raimundo Ii","lat":-9.96638889,"lon":-56.15277778,"rwys":1,"ils":0,"index":2020358,"path":"w060s10/w057s10"
,"runways":[
{"len_m":1028,"wid_m":20.12,"hdg":13,"surf":"Gravel","rwy1":"03","lat1":-9.97091756,"lon1":-56.15383830,"rwy2":"21","lat2":-9.96186021,"lon2":-56.15171726}
]
,"navaids":[
{"type":"NDB","hdg_t":27.9,"dist_nm":6.4,"freq":245,"lat":-9.87056400,"lon":-56.10146400,"rng_nm":100,"alt_fmsl":947,"id":"ATF","desc":"ALTA FLORESTA NDB"},
{"type":"VOR","hdg_t":25.8,"dist_nm":6.5,"freq":113.4,"lat":-9.86836400,"lon":-56.10492800,"rng_nm":200,"alt_fmsl":947,"id":"ATF","desc":"ALTA FLORESTA VOR-DME"},
{"type":"NDB","hdg_t":62,"dist_nm":79.6,"freq":215,"lat":-9.33956400,"lon":-54.96593600,"rng_nm":65,"alt_fmsl":1762,"id":"CXB","desc":"CACHIMBO NDB"},
{"type":"VOR","hdg_t":61.8,"dist_nm":79.7,"freq":115.1,"lat":-9.33514700,"lon":-54.96785000,"rng_nm":200,"alt_fmsl":1762,"id":"CXB","desc":"CACHIMBO VOR-DME"},
{"type":"NDB","hdg_t":336.4,"dist_nm":242.6,"freq":360,"lat":-6.23866700,"lon":-57.77400000,"rng_nm":75,"alt_fmsl":323,"id":"JAC","desc":"JACAREACANGA NDB"},
{"type":"VOR","hdg_t":336.5,"dist_nm":242.6,"freq":112.2,"lat":-6.23566700,"lon":-57.77050000,"rng_nm":135,"alt_fmsl":323,"id":"JAC","desc":"JACAREACANGA VOR-DME"},
{"type":"NDB","hdg_t":202.7,"dist_nm":277.3,"freq":235,"lat":-14.24250000,"lon":-57.99083300,"rng_nm":30,"alt_fmsl":2188,"id":"YTN","desc":"ITAMARATI NORTE NDB"},
{"type":"VOR","hdg_t":234.5,"dist_nm":283.7,"freq":112.1,"lat":-12.69366700,"lon":-60.09533300,"rng_nm":200,"alt_fmsl":2036,"id":"VLH","desc":"VILHENA VOR-DME"},
{"type":"NDB","hdg_t":234.6,"dist_nm":284,"freq":395,"lat":-12.68950000,"lon":-60.10333300,"rng_nm":50,"alt_fmsl":2252,"id":"VLH","desc":"VILHENA NDB"},
{"type":"NDB","hdg_t":191.8,"dist_nm":293.7,"freq":335,"lat":-14.77733300,"lon":-57.19350000,"rng_nm":30,"alt_fmsl":988,"id":"FGN","desc":"FAZENDA GUANABARA NDB"}
]
}
