{"success":true,"source":"xp2csv.pl","last_updated":"2013/11/08 14:53:21 UTC"
,"icao":"SWVE","name":"Fazenda Vista Alegre","lat":-9.75833333,"lon":-68.04583333,"rwys":1,"ils":0,"index":1823759,"path":"w070s10/w069s10"
,"runways":[
{"len_m":601,"wid_m":17.98,"hdg":61,"surf":"Turf/grass","rwy1":"07","lat1":-9.75963117,"lon1":-68.04824066,"rwy2":"25","lat2":-9.75703549,"lon2":-68.04342600}
]
,"navaids":[
{"type":"NDB","hdg_t":125.3,"dist_nm":10.8,"freq":355,"lat":-9.86311100,"lon":-67.89711100,"rng_nm":50,"alt_fmsl":633,"id":"RBC","desc":"BRANCO NDB"},
{"type":"VOR","hdg_t":127.2,"dist_nm":11.1,"freq":114.2,"lat":-9.87183300,"lon":-67.89533300,"rng_nm":200,"alt_fmsl":633,"id":"RBC","desc":"BRANCO VOR-DME"},
{"type":"NDB","hdg_t":32.9,"dist_nm":60.7,"freq":305,"lat":-8.90426100,"lon":-67.48863300,"rng_nm":75,"alt_fmsl":0,"id":"BDA","desc":"BOCA DO ACRE NDB"},
{"type":"NDB","hdg_t":209.5,"dist_nm":88.1,"freq":230,"lat":-11.04121200,"lon":-68.78162700,"rng_nm":100,"alt_fmsl":0,"id":"CIJ","desc":"COBIJA NDB"},
{"type":"NDB","hdg_t":220.9,"dist_nm":130,"freq":202,"lat":-11.40111100,"lon":-69.49138900,"rng_nm":75,"alt_fmsl":750,"id":"IBE","desc":"IBERIA NDB"},
{"type":"NDB","hdg_t":123.3,"dist_nm":137.2,"freq":370,"lat":-11.01545000,"lon":-66.10370500,"rng_nm":80,"alt_fmsl":0,"id":"REA","desc":"RIBERALTA NDB"},
{"type":"VOR","hdg_t":123.4,"dist_nm":137.4,"freq":113.7,"lat":-11.02072800,"lon":-66.10148300,"rng_nm":40,"alt_fmsl":0,"id":"RBT","desc":"RIBERALTA VOR"},
{"type":"VOR","hdg_t":269.5,"dist_nm":157.5,"freq":113.9,"lat":-9.76908100,"lon":-70.70505300,"rng_nm":130,"alt_fmsl":800,"id":"PZA","desc":"PUERTO ESPERANZA VOR"},
{"type":"NDB","hdg_t":269.8,"dist_nm":159.5,"freq":300,"lat":-9.75500000,"lon":-70.73833300,"rng_nm":50,"alt_fmsl":0,"id":"PZA","desc":"PUERTO ESPERANZA NDB"},
{"type":"NDB","hdg_t":111.9,"dist_nm":172,"freq":250,"lat":-10.82545300,"lon":-65.34367000,"rng_nm":100,"alt_fmsl":0,"id":"GYA","desc":"GUAYARAMERIN NDB"}
]
}
