{"success":true,"source":"xp2csv.pl","last_updated":"2013/11/08 14:53:21 UTC"
,"icao":"SWWA","name":"Porangatu","lat":-13.4048055,"lon":-49.1582735,"rwys":1,"ils":0,"index":2134822,"path":"w050s20/w050s14"
,"runways":[
{"len_m":1501,"wid_m":22.86,"hdg":136,"surf":"Asphalt","rwy1":"14","lat1":-13.39985300,"lon1":-49.16301100,"rwy2":"32","lat2":-13.40975800,"lon2":-49.15353600}
]
,"navaids":[
{"type":"NDB","hdg_t":98.4,"dist_nm":56.9,"freq":305,"lat":-13.54366700,"lon":-48.19483300,"rng_nm":54,"alt_fmsl":0,"id":"CNB","desc":"CANA BRAVA NDB"},
{"type":"NDB","hdg_t":155.9,"dist_nm":161.4,"freq":340,"lat":-15.86966700,"lon":-48.02166700,"rng_nm":90,"alt_fmsl":0,"id":"BRS","desc":"BRASILIA NDB"},
{"type":"VOR","hdg_t":155.9,"dist_nm":161.6,"freq":115.9,"lat":-15.87375000,"lon":-48.02135600,"rng_nm":200,"alt_fmsl":3974,"id":"BRS","desc":"BRASILIA VOR-DME"},
{"type":"NDB","hdg_t":154.3,"dist_nm":163.1,"freq":280,"lat":-15.86416700,"lon":-47.93733300,"rng_nm":25,"alt_fmsl":0,"id":"IR","desc":"TREVO NDB"},
{"type":"VOR","hdg_t":154.2,"dist_nm":164.3,"freq":117.3,"lat":-15.87834400,"lon":-47.92175300,"rng_nm":25,"alt_fmsl":3479,"id":"XMA","desc":"GAMA VOR"},
{"type":"NDB","hdg_t":153.3,"dist_nm":164.3,"freq":240,"lat":-15.86083300,"lon":-47.88533300,"rng_nm":50,"alt_fmsl":3490,"id":"CH","desc":"COCHO NDB"},
{"type":"NDB","hdg_t":174.6,"dist_nm":164.3,"freq":325,"lat":-16.14383300,"lon":-48.89383300,"rng_nm":25,"alt_fmsl":0,"id":"PP","desc":"POROROCA NDB"},
{"type":"NDB","hdg_t":140.7,"dist_nm":166,"freq":210,"lat":-15.55133300,"lon":-47.34616700,"rng_nm":50,"alt_fmsl":0,"id":"FRM","desc":"FORMOSA NDB"},
{"type":"VOR","hdg_t":140.8,"dist_nm":166.2,"freq":114.1,"lat":-15.55759400,"lon":-47.34706900,"rng_nm":40,"alt_fmsl":3166,"id":"FRM","desc":"FORMOSA VOR-DME"},
{"type":"VOR","hdg_t":15.5,"dist_nm":166.3,"freq":113,"lat":-10.72070600,"lon":-48.40258600,"rng_nm":200,"alt_fmsl":870,"id":"PNC","desc":"PORTO NACIONAL VOR-DME"}
]
}
