{"success":true,"source":"xp2csv.pl","last_updated":"2013/11/08 14:53:21 UTC"
,"icao":"SWXD","name":"Aerogardi","lat":-21.56111111,"lon":-48.79861111,"rwys":1,"ils":0,"index":2150681,"path":"w050s30/w049s22"
,"runways":[
{"len_m":719,"wid_m":17.98,"hdg":121,"surf":"Dirt","rwy1":"14","lat1":-21.55939211,"lon1":-48.80155872,"rwy2":"32","lat2":-21.56283011,"lon2":-48.79566350}
]
,"navaids":[
{"type":"NDB","hdg_t":112.3,"dist_nm":39.7,"freq":205,"lat":-21.81300000,"lon":-48.13950000,"rng_nm":50,"alt_fmsl":2514,"id":"AAQ","desc":"ARARAQUARA NDB"},
{"type":"NDB","hdg_t":200.8,"dist_nm":48.1,"freq":380,"lat":-22.31400000,"lon":-49.10716700,"rng_nm":50,"alt_fmsl":0,"id":"BRU","desc":"BAURU NDB"},
{"type":"NDB","hdg_t":263.1,"dist_nm":52.6,"freq":400,"lat":-21.66350000,"lon":-49.73366700,"rng_nm":50,"alt_fmsl":1559,"id":"LNS","desc":"LINS NDB"},
{"type":"NDB","hdg_t":322.5,"dist_nm":56.2,"freq":420,"lat":-20.81324700,"lon":-49.40601400,"rng_nm":100,"alt_fmsl":1782,"id":"JRP","desc":"RIO PRETO NDB"},
{"type":"NDB","hdg_t":10.9,"dist_nm":59.6,"freq":360,"lat":-20.58216700,"lon":-48.59666700,"rng_nm":50,"alt_fmsl":1898,"id":"BRT","desc":"BARRETOS NDB"},
{"type":"NDB","hdg_t":66.5,"dist_nm":62.4,"freq":330,"lat":-21.14266700,"lon":-47.77600000,"rng_nm":50,"alt_fmsl":1802,"id":"RPR","desc":"RIBEIRAO NDB"},
{"type":"NDB","hdg_t":238.8,"dist_nm":73.6,"freq":415,"lat":-22.19483300,"lon":-49.92933300,"rng_nm":54,"alt_fmsl":2122,"id":"MRA","desc":"MARILIA NDB"},
{"type":"NDB","hdg_t":343.9,"dist_nm":79.8,"freq":220,"lat":-20.27695300,"lon":-49.18959400,"rng_nm":50,"alt_fmsl":1599,"id":"FTR","desc":"FRONTEIRA NDB"},
{"type":"VOR","hdg_t":107.5,"dist_nm":85,"freq":113.3,"lat":-21.98450000,"lon":-47.34416700,"rng_nm":200,"alt_fmsl":1968,"id":"PSN","desc":"PIRASSUNUNGA VOR-DME"},
{"type":"NDB","hdg_t":107.5,"dist_nm":85.4,"freq":310,"lat":-21.98600000,"lon":-47.33750000,"rng_nm":50,"alt_fmsl":1968,"id":"PSN","desc":"PIRASSUNUNGA NDB"},
{"type":"NDB","hdg_t":108.2,"dist_nm":85.5,"freq":345,"lat":-22.00246100,"lon":-47.34112500,"rng_nm":50,"alt_fmsl":0,"id":"IS","desc":"FONTE NDB"},
{"type":"NDB","hdg_t":127.2,"dist_nm":86.3,"freq":280,"lat":-22.43016700,"lon":-47.56250000,"rng_nm":50,"alt_fmsl":0,"id":"RCL","desc":"RIO CLARO NDB"},
{"type":"NDB","hdg_t":110.6,"dist_nm":86.8,"freq":215,"lat":-22.06750000,"lon":-47.34066700,"rng_nm":50,"alt_fmsl":0,"id":"IY","desc":"PIRA NDB"},
{"type":"NDB","hdg_t":285.1,"dist_nm":94.6,"freq":265,"lat":-21.13933300,"lon":-50.42666700,"rng_nm":75,"alt_fmsl":1361,"id":"ARA","desc":"ARACATUBA NDB"},
{"type":"NDB","hdg_t":257.8,"dist_nm":97.2,"freq":345,"lat":-21.89383300,"lon":-50.50216700,"rng_nm":25,"alt_fmsl":1805,"id":"TUP","desc":"TUPA NDB"},
{"type":"NDB","hdg_t":53.9,"dist_nm":98.6,"freq":405,"lat":-20.58366700,"lon":-47.38250000,"rng_nm":50,"alt_fmsl":3292,"id":"FRC","desc":"FRANCA NDB"}
]
}
