{"success":true,"source":"xp2csv.pl","last_updated":"2013/11/08 14:53:21 UTC"
,"icao":"SWXO","name":"Fazenda Porto Seguro","lat":-7.13166667,"lon":-52.72722222,"rwys":1,"ils":0,"index":2086066,"path":"w060s10/w053s08"
,"runways":[
{"len_m":996,"wid_m":29.87,"hdg":11,"surf":"Gravel","rwy1":"03","lat1":-7.13608691,"lon1":-52.72810146,"rwy2":"21","lat2":-7.12724642,"lon2":-52.72634298}
]
,"navaids":[
{"type":"VOR","hdg_t":69.7,"dist_nm":173.5,"freq":112.4,"lat":-6.11933300,"lon":-50.00216700,"rng_nm":200,"alt_fmsl":2038,"id":"CRJ","desc":"CARAJAS VOR-DME"},
{"type":"NDB","hdg_t":69.6,"dist_nm":173.6,"freq":1700,"lat":-6.11133300,"lon":-50.00400000,"rng_nm":130,"alt_fmsl":2038,"id":"CRJ","desc":"CARAJAS NDB"},
{"type":"VOR","hdg_t":225.2,"dist_nm":187.3,"freq":115.1,"lat":-9.33514700,"lon":-54.96785000,"rng_nm":200,"alt_fmsl":1762,"id":"CXB","desc":"CACHIMBO VOR-DME"},
{"type":"NDB","hdg_t":225.1,"dist_nm":187.4,"freq":215,"lat":-9.33956400,"lon":-54.96593600,"rng_nm":65,"alt_fmsl":1762,"id":"CXB","desc":"CACHIMBO NDB"},
{"type":"NDB","hdg_t":109.8,"dist_nm":216.8,"freq":230,"lat":-8.35366700,"lon":-49.29916700,"rng_nm":50,"alt_fmsl":854,"id":"ARG","desc":"ARAGUAIA NDB"},
{"type":"NDB","hdg_t":7,"dist_nm":233.1,"freq":295,"lat":-3.25650000,"lon":-52.25083300,"rng_nm":120,"alt_fmsl":0,"id":"ATM","desc":"ALTAMIRA NDB"},
{"type":"VOR","hdg_t":7,"dist_nm":233.5,"freq":113.2,"lat":-3.24933300,"lon":-52.24766700,"rng_nm":200,"alt_fmsl":367,"id":"ATM","desc":"ALTAMIRA VOR"},
{"type":"NDB","hdg_t":64.1,"dist_nm":239,"freq":370,"lat":-5.37128900,"lon":-49.13466100,"rng_nm":130,"alt_fmsl":357,"id":"MRB","desc":"MARABA NDB"},
{"type":"VOR","hdg_t":64,"dist_nm":239,"freq":113.7,"lat":-5.36816700,"lon":-49.13516700,"rng_nm":130,"alt_fmsl":357,"id":"MRB","desc":"MARABA VOR-DME"},
{"type":"NDB","hdg_t":230.5,"dist_nm":258.8,"freq":245,"lat":-9.87056400,"lon":-56.10146400,"rng_nm":100,"alt_fmsl":947,"id":"ATF","desc":"ALTA FLORESTA NDB"}
]
}
