{"success":true,"source":"xp2csv.pl","last_updated":"2013/11/08 14:53:21 UTC"
,"icao":"SWXT","name":"Fazenda Medalha Milagrosa","lat":-16.10166667,"lon":-60.065,"rwys":1,"ils":0,"index":1954431,"path":"w070s20/w061s17"
,"runways":[
{"len_m":803,"wid_m":17.98,"hdg":16,"surf":"Gravel","rwy1":"03","lat1":-16.10515608,"lon1":-60.06604355,"rwy2":"21","lat2":-16.09817725,"lon2":-60.06395644}
]
,"navaids":[
{"type":"NDB","hdg_t":251.9,"dist_nm":54.5,"freq":250,"lat":-16.38300500,"lon":-60.96461700,"rng_nm":50,"alt_fmsl":0,"id":"SNG","desc":"SAN IGNACIO DE VELASCO NDB"},
{"type":"NDB","hdg_t":98.5,"dist_nm":97.8,"freq":330,"lat":-16.33802300,"lon":-58.38699200,"rng_nm":50,"alt_fmsl":0,"id":"SMT","desc":"SAN MATIAS NDB"},
{"type":"NDB","hdg_t":172.7,"dist_nm":134.3,"freq":325,"lat":-18.33190800,"lon":-59.76624200,"rng_nm":50,"alt_fmsl":0,"id":"OBO","desc":"ROBORE NDB"},
{"type":"NDB","hdg_t":264.3,"dist_nm":147.3,"freq":1640,"lat":-16.33077000,"lon":-62.60580600,"rng_nm":50,"alt_fmsl":0,"id":"SJV","desc":"SAN JAVIER NDB"},
{"type":"NDB","hdg_t":47.5,"dist_nm":163.7,"freq":235,"lat":-14.24250000,"lon":-57.99083300,"rng_nm":30,"alt_fmsl":2188,"id":"YTN","desc":"ITAMARATI NORTE NDB"},
{"type":"NDB","hdg_t":276,"dist_nm":174.6,"freq":390,"lat":-15.77132100,"lon":-63.06637800,"rng_nm":80,"alt_fmsl":0,"id":"ASG","desc":"ASCENCION DE GUARAYOS NDB"},
{"type":"NDB","hdg_t":64.9,"dist_nm":184.2,"freq":335,"lat":-14.77733300,"lon":-57.19350000,"rng_nm":30,"alt_fmsl":988,"id":"FGN","desc":"FAZENDA GUANABARA NDB"},
{"type":"NDB","hdg_t":240.2,"dist_nm":198.7,"freq":295,"lat":-17.72918100,"lon":-63.07833900,"rng_nm":25,"alt_fmsl":1224,"id":"VVO","desc":"VIRU VIRU NDB"},
{"type":"VOR","hdg_t":242.3,"dist_nm":199.5,"freq":113.8,"lat":-17.62847800,"lon":-63.14989700,"rng_nm":200,"alt_fmsl":1224,"id":"VIR","desc":"VIRU VIRU VOR-DME"},
{"type":"NDB","hdg_t":244.1,"dist_nm":199.7,"freq":280,"lat":-17.53668900,"lon":-63.20074400,"rng_nm":200,"alt_fmsl":1283,"id":"VRO","desc":"VIRU VIRU NDB"}
]
}
