{"success":true,"source":"xp2csv.pl","last_updated":"2013/11/08 14:53:21 UTC"
,"icao":"SWXY","name":"Fazenda Transoeste","lat":-10.35083334,"lon":-50.67083333,"rwys":1,"ils":0,"index":2118634,"path":"w060s20/w051s11"
,"runways":[
{"len_m":1194,"wid_m":17.98,"hdg":0,"surf":"Gravel","rwy1":"02","lat1":-10.35623373,"lon1":-50.67086161,"rwy2":"20","lat2":-10.34543294,"lon2":-50.67080505}
]
,"navaids":[
{"type":"NDB","hdg_t":99.3,"dist_nm":135.8,"freq":395,"lat":-10.71283300,"lon":-48.40216700,"rng_nm":200,"alt_fmsl":1054,"id":"PNC","desc":"PORTO NACIONAL NDB"},
{"type":"VOR","hdg_t":99.5,"dist_nm":135.8,"freq":113,"lat":-10.72070600,"lon":-48.40258600,"rng_nm":200,"alt_fmsl":870,"id":"PNC","desc":"PORTO NACIONAL VOR-DME"},
{"type":"NDB","hdg_t":88.6,"dist_nm":136.3,"freq":255,"lat":-10.29069400,"lon":-48.36586100,"rng_nm":50,"alt_fmsl":656,"id":"PMS","desc":"PALMAS NDB"},
{"type":"VOR","hdg_t":88.6,"dist_nm":136.8,"freq":112.2,"lat":-10.28791700,"lon":-48.35841700,"rng_nm":130,"alt_fmsl":656,"id":"PMS","desc":"PALMAS VOR-DME"},
{"type":"NDB","hdg_t":34.4,"dist_nm":144.3,"freq":230,"lat":-8.35366700,"lon":-49.29916700,"rng_nm":50,"alt_fmsl":854,"id":"ARG","desc":"ARAGUAIA NDB"},
{"type":"NDB","hdg_t":38,"dist_nm":235.6,"freq":205,"lat":-7.23350000,"lon":-48.23900000,"rng_nm":50,"alt_fmsl":771,"id":"AGI","desc":"ARAGUAINA NDB"},
{"type":"NDB","hdg_t":142.8,"dist_nm":239.9,"freq":305,"lat":-13.54366700,"lon":-48.19483300,"rng_nm":54,"alt_fmsl":0,"id":"CNB","desc":"CANA BRAVA NDB"},
{"type":"VOR","hdg_t":8.9,"dist_nm":255.8,"freq":112.4,"lat":-6.11933300,"lon":-50.00216700,"rng_nm":200,"alt_fmsl":2038,"id":"CRJ","desc":"CARAJAS VOR-DME"},
{"type":"NDB","hdg_t":8.9,"dist_nm":256.2,"freq":1700,"lat":-6.11133300,"lon":-50.00400000,"rng_nm":130,"alt_fmsl":2038,"id":"CRJ","desc":"CARAJAS NDB"},
{"type":"NDB","hdg_t":282.9,"dist_nm":261.4,"freq":215,"lat":-9.33956400,"lon":-54.96593600,"rng_nm":65,"alt_fmsl":1762,"id":"CXB","desc":"CACHIMBO NDB"}
]
}
