{"success":true,"source":"xp2csv.pl","last_updated":"2013/11/08 14:53:21 UTC"
,"icao":"SWZR","name":"Fazenda Santa Rita","lat":-15.38388889,"lon":-51.03388889,"rwys":1,"ils":0,"index":2101927,"path":"w060s20/w052s16"
,"runways":[
{"len_m":805,"wid_m":29.87,"hdg":141,"surf":"Turf/grass","rwy1":"16","lat1":-15.38103867,"lon1":-51.03622426,"rwy2":"34","lat2":-15.38673911,"lon2":-51.03155352}
]
,"navaids":[
{"type":"NDB","hdg_t":250,"dist_nm":83.3,"freq":320,"lat":-15.85600000,"lon":-52.38933300,"rng_nm":75,"alt_fmsl":1147,"id":"BAG","desc":"GARCAS NDB"},
{"type":"VOR","hdg_t":250.2,"dist_nm":83.6,"freq":113.3,"lat":-15.85350000,"lon":-52.39566700,"rng_nm":130,"alt_fmsl":1147,"id":"BAG","desc":"GARCAS VOR-DME"},
{"type":"NDB","hdg_t":132.9,"dist_nm":105.2,"freq":230,"lat":-16.58048600,"lon":-49.69823100,"rng_nm":50,"alt_fmsl":0,"id":"SBG","desc":"SANTA BARBARA NDB"},
{"type":"NDB","hdg_t":116,"dist_nm":128,"freq":415,"lat":-16.31743900,"lon":-49.04026700,"rng_nm":50,"alt_fmsl":2960,"id":"ANP","desc":"ANAPOLIS NDB"},
{"type":"NDB","hdg_t":125.8,"dist_nm":128.6,"freq":370,"lat":-16.63719700,"lon":-49.22439200,"rng_nm":75,"alt_fmsl":2450,"id":"GOI","desc":"GOIANIA NDB"},
{"type":"VOR","hdg_t":125.6,"dist_nm":128.8,"freq":112.7,"lat":-16.63243300,"lon":-49.21535600,"rng_nm":200,"alt_fmsl":2450,"id":"GOI","desc":"GOIANIA VOR-DME"},
{"type":"VOR","hdg_t":114.1,"dist_nm":129.2,"freq":115.4,"lat":-16.26067200,"lon":-48.99201100,"rng_nm":200,"alt_fmsl":2960,"id":"ANP","desc":"ANAPOLIS VOR-DME"},
{"type":"NDB","hdg_t":110.4,"dist_nm":131.8,"freq":325,"lat":-16.14383300,"lon":-48.89383300,"rng_nm":25,"alt_fmsl":0,"id":"PP","desc":"POROROCA NDB"},
{"type":"NDB","hdg_t":99.8,"dist_nm":176.8,"freq":340,"lat":-15.86966700,"lon":-48.02166700,"rng_nm":90,"alt_fmsl":0,"id":"BRS","desc":"BRASILIA NDB"},
{"type":"VOR","hdg_t":99.9,"dist_nm":176.8,"freq":115.9,"lat":-15.87375000,"lon":-48.02135600,"rng_nm":200,"alt_fmsl":3974,"id":"BRS","desc":"BRASILIA VOR-DME"}
]
}
