{"success":true,"source":"xp2csv.pl","last_updated":"2013/11/08 14:53:21 UTC"
,"icao":"T67","name":"Hicks","lat":32.931236,"lon":-97.411686,"rwys":1,"ils":0,"index":1351354,"path":"w100n30/w098n32"
,"runways":[
{"len_m":1139,"wid_m":18.29,"hdg":140,"surf":"Asphalt","rwy1":"14","lat1":32.93523000,"lon1":-97.41552100,"rwy2":"32","lat2":32.92724200,"lon2":-97.40785100}
]
,"radios":[
{"type":"CTAF","freq":123.05,"desc":"CTAF/UNICOM"},
{"type":"CLD","freq":125.9,"desc":"REGIONAL CLNC DEL"}
]
,"navaids":[
{"type":"NDB","hdg_t":139.9,"dist_nm":2.9,"freq":365,"lat":32.89297222,"lon":-97.37352778,"rng_nm":50,"alt_fmsl":0,"id":"FT","desc":"MUFIN NDB"},
{"type":"SDME","hdg_t":188.3,"dist_nm":9.6,"freq":108.7,"lat":32.77151700,"lon":-97.43946400,"rng_nm":40,"alt_fmsl":663,"id":"NFW","desc":"FORT WORTH NAS JRB TACAN"},
{"type":"VOR","hdg_t":101.9,"dist_nm":11.9,"freq":115.7,"lat":32.88944444,"lon":-97.17941667,"rng_nm":130,"alt_fmsl":637,"id":"FUZ","desc":"RANGER VORTAC"},
{"type":"VOR","hdg_t":101.1,"dist_nm":19.1,"freq":113.1,"lat":32.86916667,"lon":-97.04050000,"rng_nm":130,"alt_fmsl":540,"id":"TTT","desc":"MAVERICK VOR-DME"},
{"type":"NDB","hdg_t":78.5,"dist_nm":19.6,"freq":219,"lat":32.99578900,"lon":-97.02959200,"rng_nm":50,"alt_fmsl":547,"id":"FL","desc":"JIFFY NDB"},
{"type":"NDB","hdg_t":111.6,"dist_nm":20.8,"freq":233,"lat":32.80215100,"lon":-97.02746200,"rng_nm":50,"alt_fmsl":500,"id":"PK","desc":"ISSUE NDB"},
{"type":"NDB","hdg_t":27.2,"dist_nm":23.7,"freq":257,"lat":33.28308333,"lon":-97.19625000,"rng_nm":50,"alt_fmsl":0,"id":"DT","desc":"PINCK NDB"},
{"type":"VOR","hdg_t":95.3,"dist_nm":25.7,"freq":116.2,"lat":32.89030556,"lon":-96.90397222,"rng_nm":130,"alt_fmsl":450,"id":"CVE","desc":"COWBOY VOR-DME"},
{"type":"NDB","hdg_t":118.9,"dist_nm":31.2,"freq":287,"lat":32.67693600,"lon":-96.87106700,"rng_nm":50,"alt_fmsl":670,"id":"RBD","desc":"REDBIRD NDB"},
{"type":"VOR","hdg_t":247.6,"dist_nm":32,"freq":117.7,"lat":32.72619444,"lon":-97.99744444,"rng_nm":130,"alt_fmsl":900,"id":"MQP","desc":"MILLSAP VORTAC"},
{"type":"NDB","hdg_t":106,"dist_nm":33.5,"freq":275,"lat":32.77477200,"lon":-96.77527500,"rng_nm":25,"alt_fmsl":0,"id":"LV","desc":"CONIS NDB"},
{"type":"NDB","hdg_t":255.1,"dist_nm":33.7,"freq":266,"lat":32.78512800,"lon":-98.05726700,"rng_nm":25,"alt_fmsl":972,"id":"MWL","desc":"MINERAL WELLS NDB"},
{"type":"VOR","hdg_t":330.4,"dist_nm":41.6,"freq":112.4,"lat":33.53588889,"lon":-97.82127778,"rng_nm":130,"alt_fmsl":1100,"id":"UKW","desc":"BOWIE VORTAC"},
{"type":"NDB","hdg_t":335.8,"dist_nm":44.2,"freq":356,"lat":33.60538889,"lon":-97.77336111,"rng_nm":50,"alt_fmsl":0,"id":"GMZ","desc":"GRINDSTONE MTN NDB"},
{"type":"NDB","hdg_t":99,"dist_nm":45.1,"freq":248,"lat":32.80936111,"lon":-96.52911111,"rng_nm":50,"alt_fmsl":0,"id":"PQF","desc":"MESQUITE NDB"},
{"type":"NDB","hdg_t":64.2,"dist_nm":45.9,"freq":421,"lat":33.26166667,"lon":-96.58880556,"rng_nm":50,"alt_fmsl":585,"id":"EF","desc":"FLUET NDB"},
{"type":"NDB","hdg_t":109.2,"dist_nm":47.1,"freq":388,"lat":32.66808333,"lon":-96.53225000,"rng_nm":50,"alt_fmsl":0,"id":"JUG","desc":"JECCA NDB"},
{"type":"NDB","hdg_t":12.7,"dist_nm":48.3,"freq":330,"lat":33.71866667,"lon":-97.19866667,"rng_nm":50,"alt_fmsl":0,"id":"GLE","desc":"GAINESVILLE NDB"},
{"type":"NDB","hdg_t":271.6,"dist_nm":50.5,"freq":280,"lat":32.95150000,"lon":-98.41311111,"rng_nm":50,"alt_fmsl":0,"id":"GZV","desc":"BRAZOS RIVER NDB"},
{"type":"VOR","hdg_t":207.2,"dist_nm":51.8,"freq":115,"lat":32.15958333,"lon":-97.87769444,"rng_nm":40,"alt_fmsl":1300,"id":"JEN","desc":"GLEN ROSE VORTAC"},
{"type":"NDB","hdg_t":284.6,"dist_nm":56.4,"freq":371,"lat":33.16586111,"lon":-98.49661111,"rng_nm":50,"alt_fmsl":0,"id":"GHX","desc":"GRAHAM NDB"},
{"type":"NDB","hdg_t":83.3,"dist_nm":59,"freq":316,"lat":33.04038889,"lon":-96.24858333,"rng_nm":50,"alt_fmsl":0,"id":"MII","desc":"CADDO MILLS NDB"},
{"type":"NDB","hdg_t":99.5,"dist_nm":59.6,"freq":260,"lat":32.76013889,"lon":-96.24913889,"rng_nm":50,"alt_fmsl":0,"id":"AVZ","desc":"TRAVIS NDB"},
{"type":"NDB","hdg_t":34.6,"dist_nm":65.3,"freq":341,"lat":33.82650000,"lon":-96.66888889,"rng_nm":50,"alt_fmsl":0,"id":"DNI","desc":"DENISON NDB"},
{"type":"NDB","hdg_t":87,"dist_nm":67.9,"freq":428,"lat":32.98186111,"lon":-96.06730556,"rng_nm":50,"alt_fmsl":0,"id":"SYW","desc":"CASH NDB"},
{"type":"SDME","hdg_t":82.8,"dist_nm":68.6,"freq":109.6,"lat":33.06626900,"lon":-96.06139700,"rng_nm":25,"alt_fmsl":540,"id":"MJF","desc":"ARVILLA TACAN"},
{"type":"NDB","hdg_t":78.4,"dist_nm":69.3,"freq":201,"lat":33.15627778,"lon":-96.06361111,"rng_nm":50,"alt_fmsl":0,"id":"GV","desc":"MAJOR NDB"},
{"type":"VOR","hdg_t":58.1,"dist_nm":69.5,"freq":114.6,"lat":33.53750000,"lon":-96.23408333,"rng_nm":130,"alt_fmsl":700,"id":"BYP","desc":"BONHAM VORTAC"},
{"type":"NDB","hdg_t":135.8,"dist_nm":72,"freq":344,"lat":32.06413889,"lon":-96.42630556,"rng_nm":50,"alt_fmsl":0,"id":"CGQ","desc":"POWELL NDB"},
{"type":"NDB","hdg_t":166.5,"dist_nm":73.2,"freq":378,"lat":31.74091667,"lon":-97.07816667,"rng_nm":50,"alt_fmsl":0,"id":"CN","desc":"LEROI NDB"},
{"type":"NDB","hdg_t":313.5,"dist_nm":74.3,"freq":344,"lat":33.78227778,"lon":-98.48816667,"rng_nm":50,"alt_fmsl":0,"id":"SKB","desc":"SCOTLAND NDB"},
{"type":"NDB","hdg_t":136,"dist_nm":74.7,"freq":396,"lat":32.02841667,"lon":-96.39461111,"rng_nm":50,"alt_fmsl":0,"id":"CRS","desc":"CORSICANA NDB"},
{"type":"VOR","hdg_t":126,"dist_nm":75.2,"freq":114.8,"lat":32.18572222,"lon":-96.21811111,"rng_nm":40,"alt_fmsl":400,"id":"CQY","desc":"CEDAR CREEK VORTAC"},
{"type":"NDB","hdg_t":262,"dist_nm":75.5,"freq":245,"lat":32.74734400,"lon":-98.89117800,"rng_nm":25,"alt_fmsl":1226,"id":"BKD","desc":"BRECKENRIDGE NDB"},
{"type":"VOR","hdg_t":174.5,"dist_nm":76.3,"freq":115.3,"lat":31.66233333,"lon":-97.26902778,"rng_nm":130,"alt_fmsl":510,"id":"ACT","desc":"WACO VORTAC"},
{"type":"NDB","hdg_t":246.1,"dist_nm":77.6,"freq":410,"lat":32.39847222,"lon":-98.81033333,"rng_nm":50,"alt_fmsl":0,"id":"OIP","desc":"OLD RIP NDB"},
{"type":"VOR","hdg_t":8.9,"dist_nm":77.6,"freq":116.7,"lat":34.21158333,"lon":-97.16822222,"rng_nm":130,"alt_fmsl":937,"id":"ADM","desc":"ARDMORE VORTAC"},
{"type":"NDB","hdg_t":318.5,"dist_nm":78.6,"freq":296,"lat":33.91072222,"lon":-98.45466667,"rng_nm":50,"alt_fmsl":0,"id":"ICF","desc":"MADISON NDB"},
{"type":"NDB","hdg_t":318.5,"dist_nm":78.6,"freq":296,"lat":33.91063889,"lon":-98.45491667,"rng_nm":50,"alt_fmsl":0,"id":"SP","desc":"SHAWN NDB"},
{"type":"NDB","hdg_t":39.7,"dist_nm":79,"freq":359,"lat":33.94231900,"lon":-96.39860300,"rng_nm":25,"alt_fmsl":684,"id":"DUA","desc":"DURANT NDB"},
{"type":"VOR","hdg_t":39.8,"dist_nm":79.3,"freq":114.3,"lat":33.94419444,"lon":-96.39183333,"rng_nm":40,"alt_fmsl":681,"id":"URH","desc":"TEXOMA VOR-DME"},
{"type":"NDB","hdg_t":16.9,"dist_nm":81.5,"freq":400,"lat":34.23233333,"lon":-96.93311111,"rng_nm":50,"alt_fmsl":0,"id":"AI","desc":"ADDMO NDB"},
{"type":"SDME","hdg_t":319.6,"dist_nm":82.9,"freq":110.8,"lat":33.98258300,"lon":-98.48733300,"rng_nm":40,"alt_fmsl":1020,"id":"SHP","desc":"SHEPPARD TACAN"},
{"type":"VOR","hdg_t":317.1,"dist_nm":86.7,"freq":112.7,"lat":33.98727778,"lon":-98.59347222,"rng_nm":130,"alt_fmsl":1133,"id":"SPS","desc":"WICHITA FALLS VORTAC"},
{"type":"NDB","hdg_t":205.7,"dist_nm":86.9,"freq":251,"lat":31.62150000,"lon":-98.14891667,"rng_nm":50,"alt_fmsl":0,"id":"MNZ","desc":"HAMILTON NDB"},
{"type":"NDB","hdg_t":168.3,"dist_nm":87.2,"freq":400,"lat":31.50380556,"lon":-97.06958333,"rng_nm":50,"alt_fmsl":0,"id":"ROB","desc":"ROBINSON NDB"},
{"type":"NDB","hdg_t":135.7,"dist_nm":88.8,"freq":418,"lat":31.86266667,"lon":-96.19747222,"rng_nm":50,"alt_fmsl":0,"id":"PYF","desc":"PYRAMID NDB"},
{"type":"NDB","hdg_t":149.1,"dist_nm":89.8,"freq":329,"lat":31.63961111,"lon":-96.51219444,"rng_nm":50,"alt_fmsl":0,"id":"LXY","desc":"MEXIA NDB"},
{"type":"NDB","hdg_t":124.7,"dist_nm":90.2,"freq":215,"lat":32.06350000,"lon":-95.95763889,"rng_nm":50,"alt_fmsl":0,"id":"CSZ","desc":"CROSSROADS NDB"},
{"type":"VOR","hdg_t":343.9,"dist_nm":90.6,"freq":111,"lat":34.38447222,"lon":-97.91683333,"rng_nm":40,"alt_fmsl":1087,"id":"DUC","desc":"DUNCAN VOR-DME"},
{"type":"NDB","hdg_t":80.9,"dist_nm":91.4,"freq":338,"lat":33.15844700,"lon":-95.61828900,"rng_nm":25,"alt_fmsl":483,"id":"BHG","desc":"BRASHEAR NDB"},
{"type":"VOR","hdg_t":151.2,"dist_nm":91.9,"freq":108.8,"lat":31.58147222,"lon":-96.54908333,"rng_nm":40,"alt_fmsl":512,"id":"GNL","desc":"GROESBECK VOR-DME"},
{"type":"NDB","hdg_t":126.2,"dist_nm":92.3,"freq":335,"lat":32.01071700,"lon":-95.95274200,"rng_nm":25,"alt_fmsl":383,"id":"LIQ","desc":"LOCHRIDGE RANCH NDB"},
{"type":"NDB","hdg_t":119.5,"dist_nm":92.5,"freq":269,"lat":32.15933333,"lon":-95.83025000,"rng_nm":50,"alt_fmsl":0,"id":"AHX","desc":"ATHENS NDB"},
{"type":"VOR","hdg_t":79.8,"dist_nm":95.5,"freq":109,"lat":33.19855556,"lon":-95.54258333,"rng_nm":40,"alt_fmsl":508,"id":"SLR","desc":"SULPHUR SPRINGS VOR-DME"}
]
}
