{"success":true,"source":"xp2csv.pl","last_updated":"2013/11/08 14:53:21 UTC"
,"icao":"TCK","name":"Tinboli","lat":-4.090041,"lon":143.387726,"rwys":1,"ils":0,"index":5297531,"path":"e140s10/e143s05"
,"runways":[
{"len_m":607,"wid_m":30.48,"hdg":30,"surf":"Dirt","rwy1":"03","lat1":-4.09241649,"lon1":143.38635101,"rwy2":"21","lat2":-4.08766551,"lon2":143.38910099}
]
,"radios":[
{"type":"ATIS","freq":127.7,"desc":"TCK AWOS"}
]
,"navaids":[
{"type":"VOR","hdg_t":29.7,"dist_nm":34.8,"freq":116.6,"lat":-3.58352778,"lon":143.67594444,"rng_nm":130,"alt_fmsl":19,"id":"WK","desc":"WEWAK VOR-DME"},
{"type":"NDB","hdg_t":29.7,"dist_nm":34.9,"freq":336,"lat":-3.58136111,"lon":143.67750000,"rng_nm":50,"alt_fmsl":0,"id":"WK","desc":"WEWAK NDB"},
{"type":"NDB","hdg_t":152.1,"dist_nm":118,"freq":1689,"lat":-5.83786700,"lon":144.30853300,"rng_nm":40,"alt_fmsl":5425,"id":"MH","desc":"MOUNT HAGEN NDB-DME"},
{"type":"SDME","hdg_t":152.1,"dist_nm":118,"freq":115,"lat":-5.83786700,"lon":144.30853300,"rng_nm":40,"alt_fmsl":5425,"id":"MH","desc":"MOUNT HAGEN NDB-DME"},
{"type":"NDB","hdg_t":183.3,"dist_nm":135.9,"freq":1642,"lat":-6.36286700,"lon":143.25433300,"rng_nm":35,"alt_fmsl":2750,"id":"MOR","desc":"MORO NDB-DME"},
{"type":"SDME","hdg_t":183.3,"dist_nm":135.9,"freq":114.6,"lat":-6.36286700,"lon":143.25433300,"rng_nm":35,"alt_fmsl":2750,"id":"MOR","desc":"MORO NDB-DME"},
{"type":"NDB","hdg_t":237.4,"dist_nm":146.8,"freq":1632,"lat":-5.40990000,"lon":141.31870000,"rng_nm":35,"alt_fmsl":2574,"id":"OKT","desc":"OK TEDI NDB-DME"},
{"type":"SDME","hdg_t":237.4,"dist_nm":146.8,"freq":114.8,"lat":-5.40990000,"lon":141.31870000,"rng_nm":35,"alt_fmsl":2574,"id":"OKT","desc":"OK TEDI NDB-DME"},
{"type":"NDB","hdg_t":303.8,"dist_nm":150.8,"freq":257,"lat":-2.67890000,"lon":141.30311700,"rng_nm":25,"alt_fmsl":10,"id":"VNO","desc":"VANIMO NDB-DME"},
{"type":"SDME","hdg_t":303.8,"dist_nm":150.8,"freq":115.6,"lat":-2.67890000,"lon":141.30311700,"rng_nm":25,"alt_fmsl":10,"id":"VNO","desc":"VANIMO NDB-DME"}
]
}
