{"success":true,"source":"xp2csv.pl","last_updated":"2013/11/08 14:53:21 UTC"
,"icao":"TE13","name":"Weiblen","lat":29.40023333,"lon":-98.88752778,"rwys":1,"ils":0,"index":1334744,"path":"w100n20/w099n29"
,"runways":[
{"len_m":458,"wid_m":9.14,"hdg":88,"surf":"Turf/grass","rwy1":"08","lat1":29.40016153,"lon1":-98.88988769,"rwy2":"26","lat2":29.40030513,"lon2":-98.88516787}
]
,"navaids":[
{"type":"NDB","hdg_t":148.1,"dist_nm":3.8,"freq":338,"lat":29.34606900,"lon":-98.84919400,"rng_nm":25,"alt_fmsl":762,"id":"CVB","desc":"CASTROVILLE NDB"},
{"type":"NDB","hdg_t":263.9,"dist_nm":14.9,"freq":329,"lat":29.37341667,"lon":-99.17202778,"rng_nm":50,"alt_fmsl":0,"id":"HMA","desc":"HONDO NDB"},
{"type":"VOR","hdg_t":258.7,"dist_nm":15.5,"freq":109.4,"lat":29.34911111,"lon":-99.17788889,"rng_nm":40,"alt_fmsl":947,"id":"HDO","desc":"HONDO VOR-DME"},
{"type":"NDB","hdg_t":189.8,"dist_nm":15.9,"freq":359,"lat":29.13833333,"lon":-98.93925000,"rng_nm":50,"alt_fmsl":0,"id":"HHH","desc":"DEVINE NDB"},
{"type":"SDME","hdg_t":91.7,"dist_nm":16,"freq":112,"lat":29.39158300,"lon":-98.58104700,"rng_nm":40,"alt_fmsl":687,"id":"KSY","desc":"KELLY TACAN"},
{"type":"NDB","hdg_t":76.9,"dist_nm":19.8,"freq":219,"lat":29.47461400,"lon":-98.51861700,"rng_nm":25,"alt_fmsl":0,"id":"SA","desc":"BLUIE NDB"},
{"type":"NDB","hdg_t":53.2,"dist_nm":20.7,"freq":368,"lat":29.60758333,"lon":-98.56969444,"rng_nm":50,"alt_fmsl":0,"id":"AN","desc":"ALAMO NDB"},
{"type":"VOR","hdg_t":109.9,"dist_nm":24.7,"freq":108.4,"lat":29.25838889,"lon":-98.44347222,"rng_nm":40,"alt_fmsl":0,"id":"SSF","desc":"STINSON VOR"},
{"type":"VOR","hdg_t":56.7,"dist_nm":26.6,"freq":116.8,"lat":29.64402778,"lon":-98.46130556,"rng_nm":130,"alt_fmsl":1160,"id":"SAT","desc":"SAN ANTONIO VORTAC"},
{"type":"NDB","hdg_t":348.3,"dist_nm":31.4,"freq":263,"lat":29.91500000,"lon":-99.00941667,"rng_nm":50,"alt_fmsl":0,"id":"ER","desc":"SHEIN NDB"},
{"type":"VOR","hdg_t":77.1,"dist_nm":32.3,"freq":112.3,"lat":29.51916667,"lon":-98.28516667,"rng_nm":25,"alt_fmsl":772,"id":"RND","desc":"RANDOLPH VORTAC"},
{"type":"NDB","hdg_t":143.8,"dist_nm":32.9,"freq":275,"lat":28.95497200,"lon":-98.51862800,"rng_nm":25,"alt_fmsl":428,"id":"PEZ","desc":"PLEASANTON NDB"},
{"type":"SDME","hdg_t":75.6,"dist_nm":33.4,"freq":109.9,"lat":29.53694700,"lon":-98.26780300,"rng_nm":40,"alt_fmsl":773,"id":"DHK","desc":"RANDOLPH TACAN"},
{"type":"VOR","hdg_t":331.4,"dist_nm":35.6,"freq":117.5,"lat":29.92233333,"lon":-99.21450000,"rng_nm":130,"alt_fmsl":2080,"id":"CSI","desc":"CENTER POINT VORTAC"},
{"type":"NDB","hdg_t":253.3,"dist_nm":45.9,"freq":281,"lat":29.17772222,"lon":-99.72569444,"rng_nm":50,"alt_fmsl":0,"id":"UVA","desc":"UVALDE NDB"},
{"type":"VOR","hdg_t":11,"dist_nm":49.1,"freq":113.8,"lat":30.20675000,"lon":-98.70575000,"rng_nm":130,"alt_fmsl":1530,"id":"STV","desc":"STONEWALL VORTAC"},
{"type":"VOR","hdg_t":192.2,"dist_nm":57.4,"freq":115.8,"lat":28.46200000,"lon":-99.11852778,"rng_nm":40,"alt_fmsl":520,"id":"COT","desc":"COTULLA VORTAC"},
{"type":"NDB","hdg_t":241.2,"dist_nm":58,"freq":223,"lat":28.92997222,"lon":-99.85477778,"rng_nm":50,"alt_fmsl":0,"id":"LKX","desc":"LA PRYOR NDB"},
{"type":"NDB","hdg_t":55.4,"dist_nm":59.3,"freq":272,"lat":29.95880556,"lon":-97.94897222,"rng_nm":50,"alt_fmsl":0,"id":"RU","desc":"GARYS NDB"},
{"type":"NDB","hdg_t":243.7,"dist_nm":65.6,"freq":385,"lat":28.90997222,"lon":-100.00561111,"rng_nm":50,"alt_fmsl":0,"id":"CPZ","desc":"CHAPARROSA RANCH NDB"},
{"type":"VOR","hdg_t":143.9,"dist_nm":66.1,"freq":111.4,"lat":28.50500000,"lon":-98.15047222,"rng_nm":40,"alt_fmsl":270,"id":"THX","desc":"THREE RIVERS VORTAC"},
{"type":"NDB","hdg_t":223.5,"dist_nm":72.1,"freq":343,"lat":28.52244444,"lon":-99.82727778,"rng_nm":50,"alt_fmsl":0,"id":"DMD","desc":"DIMMIT CO NDB"},
{"type":"NDB","hdg_t":56.5,"dist_nm":75.5,"freq":255,"lat":30.08972222,"lon":-97.67602778,"rng_nm":50,"alt_fmsl":0,"id":"BS","desc":"CREED NDB"},
{"type":"NDB","hdg_t":259.6,"dist_nm":82.2,"freq":356,"lat":29.14525000,"lon":-100.42758333,"rng_nm":50,"alt_fmsl":0,"id":"PFO","desc":"SPOFFORD NDB"},
{"type":"NDB","hdg_t":49.5,"dist_nm":82.3,"freq":232,"lat":30.28759400,"lon":-97.68183600,"rng_nm":25,"alt_fmsl":0,"id":"GF","desc":"BIRDY NDB"},
{"type":"VOR","hdg_t":296.8,"dist_nm":82.4,"freq":111.2,"lat":30.01461111,"lon":-100.29983333,"rng_nm":40,"alt_fmsl":2310,"id":"RSG","desc":"ROCKSPRINGS VORTAC"},
{"type":"NDB","hdg_t":52.4,"dist_nm":82.6,"freq":353,"lat":30.23568300,"lon":-97.62569700,"rng_nm":25,"alt_fmsl":0,"id":"AU","desc":"AUSTI NDB"},
{"type":"VOR","hdg_t":3.5,"dist_nm":83.7,"freq":108.2,"lat":30.79633333,"lon":-98.78738889,"rng_nm":40,"alt_fmsl":1200,"id":"LLO","desc":"LLANO VORTAC"},
{"type":"NDB","hdg_t":136.7,"dist_nm":84.3,"freq":284,"lat":28.36862500,"lon":-97.79542500,"rng_nm":25,"alt_fmsl":269,"id":"BEA","desc":"BEEVILLE NDB"},
{"type":"VOR","hdg_t":326.1,"dist_nm":86.5,"freq":116,"lat":30.59802778,"lon":-99.81752778,"rng_nm":130,"alt_fmsl":2280,"id":"JCT","desc":"JUNCTION VORTAC"},
{"type":"NDB","hdg_t":22.7,"dist_nm":87,"freq":341,"lat":30.74027778,"lon":-98.23622222,"rng_nm":50,"alt_fmsl":0,"id":"BMQ","desc":"BURNET NDB"},
{"type":"NDB","hdg_t":263.2,"dist_nm":91.8,"freq":269,"lat":29.20858333,"lon":-100.62397222,"rng_nm":50,"alt_fmsl":0,"id":"BRX","desc":"LA FONDA RANCH NDB"},
{"type":"NDB","hdg_t":92.8,"dist_nm":91.8,"freq":350,"lat":29.31202778,"lon":-97.13863889,"rng_nm":50,"alt_fmsl":0,"id":"OKT","desc":"YOAKUM NDB"},
{"type":"VOR","hdg_t":50,"dist_nm":91.8,"freq":112.8,"lat":30.37855556,"lon":-97.52986111,"rng_nm":130,"alt_fmsl":593,"id":"CWK","desc":"CENTEX VORTAC"},
{"type":"VOR","hdg_t":242.4,"dist_nm":98.2,"freq":113.6,"lat":28.63183333,"lon":-100.53838889,"rng_nm":130,"alt_fmsl":901,"id":"PNG","desc":"PIEDRAS VOR-DME"},
{"type":"VOR","hdg_t":269,"dist_nm":98.7,"freq":114.4,"lat":29.36088889,"lon":-100.77172222,"rng_nm":130,"alt_fmsl":1071,"id":"DLF","desc":"LAUGHLIN VORTAC"},
{"type":"NDB","hdg_t":38.9,"dist_nm":99.3,"freq":332,"lat":30.68438889,"lon":-97.67991667,"rng_nm":50,"alt_fmsl":0,"id":"GUO","desc":"GEORGETOWN NDB"}
]
}
