{"success":true,"source":"xp2csv.pl","last_updated":"2013/11/08 14:53:21 UTC"
,"icao":"TFFJ","name":"St Barthelemy Is.","lat":17.904214,"lon":-62.843623,"rwys":1,"ils":0,"index":1923833,"path":"w070n10/w063n17"
,"runways":[
{"len_m":631,"wid_m":14.94,"hdg":88,"surf":"Concrete","rwy1":"10","lat1":17.90436300,"lon1":-62.84663500,"rwy2":"28","lat2":17.90446300,"lon2":-62.84067900}
]
,"helipads":[
{"rwy1":"H1","len_m":9,"wid_m":9.14,"hdg":-62,"surf":"Concrete","lat1":17.90401500,"lon1":-62.84358900}
]
,"radios":[
{"type":"CTAF","freq":118.45,"desc":"ST BARTHELEMY I MULT"}
]
,"navaids":[
{"type":"VOR","hdg_t":297,"dist_nm":17.6,"freq":113,"lat":18.03811111,"lon":-63.11827778,"rng_nm":130,"alt_fmsl":13,"id":"PJM","desc":"ST MAARTEN VOR-DME"},
{"type":"NDB","hdg_t":297,"dist_nm":17.6,"freq":284,"lat":18.03833333,"lon":-63.11833333,"rng_nm":50,"alt_fmsl":0,"id":"PJD","desc":"ST MAARTEN NDB"},
{"type":"NDB","hdg_t":198.8,"dist_nm":26.3,"freq":235,"lat":17.48708333,"lon":-62.99166667,"rng_nm":50,"alt_fmsl":0,"id":"PJE","desc":"ST. EUSTATIUS NDB"},
{"type":"SDME","hdg_t":169.4,"dist_nm":36.3,"freq":112,"lat":17.30572740,"lon":-62.72799366,"rng_nm":20,"alt_fmsl":10,"id":"SKB","desc":"Bradhsaw DME"},
{"type":"NDB","hdg_t":170.9,"dist_nm":36.8,"freq":325,"lat":17.29597222,"lon":-62.74327778,"rng_nm":50,"alt_fmsl":0,"id":"SKB","desc":"BRADSHAW NDB"},
{"type":"NDB","hdg_t":126.4,"dist_nm":74.8,"freq":369,"lat":17.15783333,"lon":-61.79466667,"rng_nm":75,"alt_fmsl":0,"id":"ZDX","desc":"V C BIRD NDB"},
{"type":"NDB","hdg_t":127.9,"dist_nm":75.2,"freq":351,"lat":17.12625000,"lon":-61.81075000,"rng_nm":50,"alt_fmsl":0,"id":"ANU","desc":"V C BIRD NDB"},
{"type":"VOR","hdg_t":127.7,"dist_nm":75.7,"freq":114.5,"lat":17.12588889,"lon":-61.80016667,"rng_nm":130,"alt_fmsl":400,"id":"ANU","desc":"V C BIRD VOR-DME"},
{"type":"NDB","hdg_t":150.5,"dist_nm":76.1,"freq":215,"lat":16.79277800,"lon":-62.19305600,"rng_nm":25,"alt_fmsl":550,"id":"MON","desc":"GERALDS NDB"},
{"type":"NDB","hdg_t":288.7,"dist_nm":101.9,"freq":360,"lat":18.44583333,"lon":-64.53583333,"rng_nm":50,"alt_fmsl":0,"id":"BFI","desc":"TERRANCE B LETTSO NDB"}
]
}
