{"success":true,"source":"xp2csv.pl","last_updated":"2013/11/08 14:53:21 UTC"
,"icao":"TGPY","name":"Grenada/bishop International","lat":12.0042475,"lon":-61.786192,"rwys":1,"ils":0,"index":1939841,"path":"w070n10/w062n12"
,"runways":[
{"len_m":2749,"wid_m":45.11,"hdg":90,"surf":"Asphalt","rwy1":"10","lat1":12.00430305,"lon1":-61.79881545,"rwy2":"28","lat2":12.00419195,"lon2":-61.77356855}
]
,"radios":[
{"type":"GND","freq":121.9,"desc":"GND"},
{"type":"TWR","freq":118.9,"desc":"TWR"},
{"type":"APP","freq":119.4,"desc":"APP"}
]
,"navaids":[
{"type":"VOR","hdg_t":166,"dist_nm":0.1,"freq":117.1,"lat":12.00127778,"lon":-61.78544444,"rng_nm":130,"alt_fmsl":40,"id":"GND","desc":"MAURICE BISHOP VOR-DME"},
{"type":"NDB","hdg_t":45.1,"dist_nm":0.4,"freq":362,"lat":12.00928900,"lon":-61.78103700,"rng_nm":50,"alt_fmsl":30,"id":"GND","desc":"POINT SALINES NDB"},
{"type":"NDB","hdg_t":32.3,"dist_nm":48.9,"freq":302,"lat":12.69619444,"lon":-61.33933333,"rng_nm":50,"alt_fmsl":0,"id":"CAI","desc":"CANOUAN NDB"},
{"type":"NDB","hdg_t":171.8,"dist_nm":52.6,"freq":250,"lat":11.13128300,"lon":-61.65897800,"rng_nm":50,"alt_fmsl":0,"id":"BGH","desc":"BGH NDB"},
{"type":"NDB","hdg_t":25.7,"dist_nm":75.4,"freq":403,"lat":13.14063889,"lon":-61.22616667,"rng_nm":50,"alt_fmsl":0,"id":"SV","desc":"E.T. JOSHUA NDB"},
{"type":"NDB","hdg_t":132.2,"dist_nm":75.9,"freq":323,"lat":11.14741667,"lon":-60.83352778,"rng_nm":50,"alt_fmsl":0,"id":"TAB","desc":"CROWN POINT NDB"},
{"type":"NDB","hdg_t":165.5,"dist_nm":86.7,"freq":382,"lat":10.59672222,"lon":-61.42066667,"rng_nm":50,"alt_fmsl":0,"id":"TRI","desc":"PIARCO NDB"},
{"type":"NDB","hdg_t":199.9,"dist_nm":91,"freq":370,"lat":10.57116700,"lon":-62.31088900,"rng_nm":25,"alt_fmsl":59,"id":"GUI","desc":"GUIRIA NDB"},
{"type":"VOR","hdg_t":165.7,"dist_nm":94.7,"freq":116.9,"lat":10.46638889,"lon":-61.39236111,"rng_nm":130,"alt_fmsl":88,"id":"POS","desc":"PIARCO VOR-DME"},
{"type":"VOR","hdg_t":24.5,"dist_nm":113.6,"freq":112.4,"lat":13.73333333,"lon":-60.97694444,"rng_nm":130,"alt_fmsl":11,"id":"BNE","desc":"HEWANORRA VOR-DME"}
]
}
