{"success":true,"source":"xp2csv.pl","last_updated":"2013/11/08 14:53:21 UTC"
,"icao":"TLT","name":"Tuluksak","lat":61.09676222,"lon":-160.96841667,"rwys":1,"ils":0,"index":320960,"path":"w170n60/w161n61"
,"runways":[
{"len_m":764,"wid_m":9.14,"hdg":39,"surf":"Gravel","rwy1":"02","lat1":61.09409760,"lon1":-160.97288103,"rwy2":"20","lat2":61.09942684,"lon2":-160.96395231}
]
,"navaids":[
{"type":"VOR","hdg_t":233.5,"dist_nm":31.3,"freq":114.1,"lat":60.78483333,"lon":-161.82433333,"rng_nm":130,"alt_fmsl":98,"id":"BET","desc":"BETHEL VORTAC"},
{"type":"NDB","hdg_t":235.6,"dist_nm":32.2,"freq":251,"lat":60.79130556,"lon":-161.87275000,"rng_nm":50,"alt_fmsl":0,"id":"OSE","desc":"OSCARVILLE NDB"},
{"type":"NDB","hdg_t":52.5,"dist_nm":49.4,"freq":359,"lat":61.59016667,"lon":-159.59791667,"rng_nm":50,"alt_fmsl":0,"id":"ANI","desc":"ANIAK NDB"},
{"type":"NDB","hdg_t":311.9,"dist_nm":88.2,"freq":230,"lat":62.05836111,"lon":-163.29161111,"rng_nm":50,"alt_fmsl":0,"id":"SMA","desc":"ST MARYS NDB"},
{"type":"NDB","hdg_t":13,"dist_nm":95.5,"freq":365,"lat":62.64141667,"lon":-160.19002778,"rng_nm":50,"alt_fmsl":0,"id":"ANV","desc":"ANVIK NDB"},
{"type":"NDB","hdg_t":171.4,"dist_nm":123.5,"freq":393,"lat":59.06408333,"lon":-160.37408333,"rng_nm":50,"alt_fmsl":0,"id":"TOG","desc":"TOGIAK NDB"},
{"type":"VOR","hdg_t":317,"dist_nm":142.3,"freq":117.8,"lat":62.78458333,"lon":-164.48755556,"rng_nm":130,"alt_fmsl":11,"id":"ENM","desc":"EMMONAK VOR-DME"},
{"type":"NDB","hdg_t":148.9,"dist_nm":145.6,"freq":429,"lat":58.99961111,"lon":-158.54830556,"rng_nm":50,"alt_fmsl":0,"id":"BTS","desc":"WOOD RIVER NDB"},
{"type":"VOR","hdg_t":149,"dist_nm":145.8,"freq":116.4,"lat":58.99422222,"lon":-158.55222222,"rng_nm":130,"alt_fmsl":81,"id":"DLG","desc":"DILLINGHAM VOR-DME"},
{"type":"NDB","hdg_t":288.3,"dist_nm":149.9,"freq":275,"lat":61.79058333,"lon":-165.96958333,"rng_nm":50,"alt_fmsl":0,"id":"CZF","desc":"CAPE ROMANZOF NDB"}
]
}
