{"success":true,"source":"xp2csv.pl","last_updated":"2013/11/08 14:53:21 UTC"
,"icao":"TN16","name":"Huntingdon","lat":35.99450694,"lon":-88.46116306,"rwys":1,"ils":0,"index":1499002,"path":"w090n30/w089n35"
,"runways":[
{"len_m":874,"wid_m":30.48,"hdg":21,"surf":"Turf/grass","rwy1":"02","lat1":35.99083220,"lon1":-88.46290654,"rwy2":"20","lat2":35.99818168,"lon2":-88.45941958}
]
,"navaids":[
{"type":"NDB","hdg_t":357.1,"dist_nm":5.6,"freq":217,"lat":36.08847222,"lon":-88.46686111,"rng_nm":50,"alt_fmsl":0,"id":"HZD","desc":"HUNTINGDON NDB"},
{"type":"NDB","hdg_t":8.2,"dist_nm":15.4,"freq":410,"lat":36.24955556,"lon":-88.41536111,"rng_nm":50,"alt_fmsl":0,"id":"TIQ","desc":"TRAINER NDB"},
{"type":"VOR","hdg_t":168,"dist_nm":24.2,"freq":109.4,"lat":35.59900000,"lon":-88.35888889,"rng_nm":40,"alt_fmsl":630,"id":"JKS","desc":"JACKS CREEK VOR-DME"},
{"type":"NDB","hdg_t":305.1,"dist_nm":31.6,"freq":212,"lat":36.29769444,"lon":-88.99486111,"rng_nm":50,"alt_fmsl":0,"id":"UC","desc":"OBION NDB"},
{"type":"VOR","hdg_t":223.2,"dist_nm":32,"freq":112,"lat":35.60355556,"lon":-88.91041667,"rng_nm":25,"alt_fmsl":410,"id":"MKL","desc":"MC KELLAR VOR-DME"},
{"type":"NDB","hdg_t":78,"dist_nm":35.7,"freq":329,"lat":36.11616667,"lon":-87.74127778,"rng_nm":50,"alt_fmsl":0,"id":"AEY","desc":"WAVERLY NDB"},
{"type":"NDB","hdg_t":220.3,"dist_nm":37.5,"freq":394,"lat":35.51577778,"lon":-88.95697222,"rng_nm":50,"alt_fmsl":0,"id":"MK","desc":"MERSY NDB"},
{"type":"VOR","hdg_t":272.2,"dist_nm":41.7,"freq":116.8,"lat":36.01855556,"lon":-89.31769444,"rng_nm":40,"alt_fmsl":380,"id":"DYR","desc":"DYERSBURG VORTAC"},
{"type":"NDB","hdg_t":10.7,"dist_nm":44.2,"freq":368,"lat":36.72065556,"lon":-88.28996111,"rng_nm":15,"alt_fmsl":0,"id":"EU","desc":"MUREY NDB"},
{"type":"NDB","hdg_t":183.3,"dist_nm":45.4,"freq":386,"lat":35.23702778,"lon":-88.51600000,"rng_nm":50,"alt_fmsl":0,"id":"SZY","desc":"SIBLEY NDB"},
{"type":"VOR","hdg_t":100.7,"dist_nm":50.1,"freq":111.6,"lat":35.83391667,"lon":-87.45175000,"rng_nm":40,"alt_fmsl":775,"id":"GHM","desc":"GRAHAM VORTAC"},
{"type":"NDB","hdg_t":80.6,"dist_nm":50.6,"freq":203,"lat":36.12730556,"lon":-87.43236111,"rng_nm":50,"alt_fmsl":0,"id":"DMZ","desc":"DICKSON NDB"},
{"type":"NDB","hdg_t":127.8,"dist_nm":51.6,"freq":257,"lat":35.46250000,"lon":-87.63027778,"rng_nm":50,"alt_fmsl":0,"id":"JHG","desc":"HOHENWALD NDB"},
{"type":"NDB","hdg_t":211.4,"dist_nm":54.7,"freq":404,"lat":35.21433333,"lon":-89.04213889,"rng_nm":50,"alt_fmsl":0,"id":"BAV","desc":"HARDEMAN NDB"},
{"type":"NDB","hdg_t":187.3,"dist_nm":59.1,"freq":334,"lat":35.01552778,"lon":-88.61569444,"rng_nm":50,"alt_fmsl":0,"id":"UU","desc":"SEYER NDB"},
{"type":"NDB","hdg_t":246.5,"dist_nm":60,"freq":326,"lat":35.58966667,"lon":-89.58733333,"rng_nm":50,"alt_fmsl":0,"id":"COO","desc":"COVINGTON NDB"},
{"type":"NDB","hdg_t":58.2,"dist_nm":61.1,"freq":335,"lat":36.52711111,"lon":-87.38672222,"rng_nm":50,"alt_fmsl":0,"id":"CK","desc":"SNUFF NDB"},
{"type":"SDME","hdg_t":48.7,"dist_nm":62.2,"freq":114.9,"lat":36.67643300,"lon":-87.49186400,"rng_nm":40,"alt_fmsl":572,"id":"HXW","desc":"SCREAMING EAGLE TACAN"},
{"type":"VOR","hdg_t":53.2,"dist_nm":63.2,"freq":110.6,"lat":36.62197222,"lon":-87.41266667,"rng_nm":25,"alt_fmsl":538,"id":"CKV","desc":"CLARKSVILLE VOR-DME"},
{"type":"VOR","hdg_t":343.4,"dist_nm":63.4,"freq":113.1,"lat":37.00861111,"lon":-88.83691667,"rng_nm":40,"alt_fmsl":480,"id":"CNG","desc":"CUNNINGHAM VORTAC"},
{"type":"NDB","hdg_t":224.2,"dist_nm":65.6,"freq":255,"lat":35.20558333,"lon":-89.39277778,"rng_nm":50,"alt_fmsl":0,"id":"FYE","desc":"SOMERVILLE NDB"},
{"type":"NDB","hdg_t":319.8,"dist_nm":66.9,"freq":208,"lat":36.84505556,"lon":-89.35675000,"rng_nm":50,"alt_fmsl":0,"id":"CHQ","desc":"CHARLESTON NDB"},
{"type":"NDB","hdg_t":48.4,"dist_nm":67.4,"freq":273,"lat":36.73700000,"lon":-87.41386111,"rng_nm":50,"alt_fmsl":0,"id":"FK","desc":"AIRBE NDB"},
{"type":"NDB","hdg_t":351.7,"dist_nm":69.7,"freq":254,"lat":37.14550000,"lon":-88.67047222,"rng_nm":50,"alt_fmsl":0,"id":"BDD","desc":"BELLGRADE NDB"},
{"type":"NDB","hdg_t":108.6,"dist_nm":70.7,"freq":365,"lat":35.60819444,"lon":-87.09141667,"rng_nm":50,"alt_fmsl":0,"id":"PBC","desc":"MAURY COUNTY NDB"},
{"type":"VOR","hdg_t":268.3,"dist_nm":72.1,"freq":111.8,"lat":35.95097222,"lon":-89.94105556,"rng_nm":40,"alt_fmsl":0,"id":"GOJ","desc":"GOSNELL VOR"},
{"type":"NDB","hdg_t":234.6,"dist_nm":72.8,"freq":265,"lat":35.28468900,"lon":-89.67139200,"rng_nm":25,"alt_fmsl":308,"id":"LHC","desc":"LOOSAHATCHIE NDB"},
{"type":"NDB","hdg_t":330.2,"dist_nm":73.8,"freq":397,"lat":37.06172222,"lon":-89.22341667,"rng_nm":50,"alt_fmsl":0,"id":"CIR","desc":"CAIRO NDB"},
{"type":"NDB","hdg_t":127.3,"dist_nm":74.2,"freq":269,"lat":35.23552778,"lon":-87.26066667,"rng_nm":50,"alt_fmsl":0,"id":"LRT","desc":"LAWRENCEBURG NDB"},
{"type":"NDB","hdg_t":315.3,"dist_nm":75.6,"freq":272,"lat":36.88781100,"lon":-89.56478600,"rng_nm":25,"alt_fmsl":350,"id":"SIK","desc":"SIKESTON NDB"},
{"type":"NDB","hdg_t":45.3,"dist_nm":76,"freq":356,"lat":36.88063889,"lon":-87.33758333,"rng_nm":50,"alt_fmsl":0,"id":"HIX","desc":"HONEY GROVE NDB"},
{"type":"NDB","hdg_t":68.2,"dist_nm":76.9,"freq":279,"lat":36.46044444,"lon":-86.98430556,"rng_nm":50,"alt_fmsl":0,"id":"ON","desc":"MUSIC NDB"},
{"type":"VOR","hdg_t":295.9,"dist_nm":77.9,"freq":111.2,"lat":36.55511111,"lon":-89.91141667,"rng_nm":40,"alt_fmsl":280,"id":"MAW","desc":"MALDEN VORTAC"},
{"type":"NDB","hdg_t":66.1,"dist_nm":81.6,"freq":221,"lat":36.53650000,"lon":-86.91755800,"rng_nm":25,"alt_fmsl":706,"id":"PED","desc":"NEEDMORE NDB"},
{"type":"NDB","hdg_t":239.7,"dist_nm":83.7,"freq":232,"lat":35.28050000,"lon":-89.93294444,"rng_nm":50,"alt_fmsl":0,"id":"MIG","desc":"MILLINGTON NDB"},
{"type":"NDB","hdg_t":88,"dist_nm":84.6,"freq":304,"lat":36.03100000,"lon":-86.72177778,"rng_nm":50,"alt_fmsl":0,"id":"BN","desc":"DOBBS NDB"},
{"type":"NDB","hdg_t":109.6,"dist_nm":85.9,"freq":251,"lat":35.50050000,"lon":-86.80972222,"rng_nm":50,"alt_fmsl":0,"id":"LUG","desc":"VERONA NDB"},
{"type":"VOR","hdg_t":83.8,"dist_nm":86.8,"freq":114.1,"lat":36.13697222,"lon":-86.68477778,"rng_nm":130,"alt_fmsl":566,"id":"BNA","desc":"NASHVILLE VORTAC"},
{"type":"NDB","hdg_t":227.3,"dist_nm":89,"freq":275,"lat":34.97980800,"lon":-89.78875000,"rng_nm":25,"alt_fmsl":401,"id":"OLV","desc":"OLIVE BRANCH NDB"},
{"type":"VOR","hdg_t":215,"dist_nm":89.2,"freq":112.4,"lat":34.77025000,"lon":-89.49650000,"rng_nm":40,"alt_fmsl":630,"id":"HLI","desc":"HOLLY SPRINGS VORTAC"},
{"type":"VOR","hdg_t":148,"dist_nm":90.6,"freq":116.5,"lat":34.70686111,"lon":-87.49158333,"rng_nm":40,"alt_fmsl":620,"id":"MSL","desc":"MUSCLE SHOALS VORTAC"},
{"type":"NDB","hdg_t":239,"dist_nm":91.1,"freq":414,"lat":35.20119444,"lon":-90.05119444,"rng_nm":50,"alt_fmsl":0,"id":"SPQ","desc":"SPAIN NDB"},
{"type":"VOR","hdg_t":324.3,"dist_nm":91.3,"freq":112.9,"lat":37.22752778,"lon":-89.57238889,"rng_nm":40,"alt_fmsl":340,"id":"CGI","desc":"CAPE GIRARDEAU VOR-DME"},
{"type":"VOR","hdg_t":232.2,"dist_nm":94.8,"freq":117.5,"lat":35.01511111,"lon":-89.98322222,"rng_nm":130,"alt_fmsl":360,"id":"MEM","desc":"MEMPHIS VORTAC"},
{"type":"NDB","hdg_t":321.9,"dist_nm":96.2,"freq":248,"lat":37.25341667,"lon":-89.70061111,"rng_nm":50,"alt_fmsl":0,"id":"CG","desc":"DUTCH NDB"},
{"type":"NDB","hdg_t":40,"dist_nm":97,"freq":362,"lat":37.22700000,"lon":-87.15916667,"rng_nm":50,"alt_fmsl":0,"id":"GMH","desc":"MUHLENBERG NDB"},
{"type":"NDB","hdg_t":90.7,"dist_nm":97.2,"freq":391,"lat":35.95683333,"lon":-86.46391667,"rng_nm":50,"alt_fmsl":0,"id":"SWZ","desc":"SEWART NDB"},
{"type":"NDB","hdg_t":294.6,"dist_nm":99.1,"freq":278,"lat":36.66908333,"lon":-90.32838889,"rng_nm":50,"alt_fmsl":0,"id":"FD","desc":"EARLI NDB"},
{"type":"NDB","hdg_t":272.9,"dist_nm":99.8,"freq":383,"lat":36.06277778,"lon":-90.51102778,"rng_nm":50,"alt_fmsl":0,"id":"PGR","desc":"PARAGOULD NDB"}
]
}
