{"success":true,"source":"xp2csv.pl","last_updated":"2013/11/08 14:53:21 UTC"
,"icao":"TN48","name":"Turner Field","lat":36.27756166,"lon":-88.65366584,"rwys":1,"ils":0,"index":1499025,"path":"w090n30/w089n36"
,"runways":[
{"len_m":587,"wid_m":12.19,"hdg":71,"surf":"Turf/grass","rwy1":"07","lat1":36.27670346,"lon1":-88.65675752,"rwy2":"25","lat2":36.27841986,"lon2":-88.65057416}
]
,"navaids":[
{"type":"NDB","hdg_t":98.1,"dist_nm":11.6,"freq":410,"lat":36.24955556,"lon":-88.41536111,"rng_nm":50,"alt_fmsl":0,"id":"TIQ","desc":"TRAINER NDB"},
{"type":"NDB","hdg_t":141.2,"dist_nm":14.5,"freq":217,"lat":36.08847222,"lon":-88.46686111,"rng_nm":50,"alt_fmsl":0,"id":"HZD","desc":"HUNTINGDON NDB"},
{"type":"NDB","hdg_t":274.2,"dist_nm":16.5,"freq":212,"lat":36.29769444,"lon":-88.99486111,"rng_nm":50,"alt_fmsl":0,"id":"UC","desc":"OBION NDB"},
{"type":"NDB","hdg_t":33.4,"dist_nm":31.8,"freq":368,"lat":36.72065556,"lon":-88.28996111,"rng_nm":15,"alt_fmsl":0,"id":"EU","desc":"MUREY NDB"},
{"type":"VOR","hdg_t":244.5,"dist_nm":35.8,"freq":116.8,"lat":36.01855556,"lon":-89.31769444,"rng_nm":40,"alt_fmsl":380,"id":"DYR","desc":"DYERSBURG VORTAC"},
{"type":"VOR","hdg_t":197.2,"dist_nm":42.2,"freq":112,"lat":35.60355556,"lon":-88.91041667,"rng_nm":25,"alt_fmsl":410,"id":"MKL","desc":"MC KELLAR VOR-DME"},
{"type":"VOR","hdg_t":160.4,"dist_nm":43.1,"freq":109.4,"lat":35.59900000,"lon":-88.35888889,"rng_nm":40,"alt_fmsl":630,"id":"JKS","desc":"JACKS CREEK VOR-DME"},
{"type":"VOR","hdg_t":348.6,"dist_nm":44.6,"freq":113.1,"lat":37.00861111,"lon":-88.83691667,"rng_nm":40,"alt_fmsl":480,"id":"CNG","desc":"CUNNINGHAM VORTAC"},
{"type":"NDB","hdg_t":102,"dist_nm":45.3,"freq":329,"lat":36.11616667,"lon":-87.74127778,"rng_nm":50,"alt_fmsl":0,"id":"AEY","desc":"WAVERLY NDB"},
{"type":"NDB","hdg_t":198,"dist_nm":47.9,"freq":394,"lat":35.51577778,"lon":-88.95697222,"rng_nm":50,"alt_fmsl":0,"id":"MK","desc":"MERSY NDB"},
{"type":"NDB","hdg_t":315.2,"dist_nm":48,"freq":208,"lat":36.84505556,"lon":-89.35675000,"rng_nm":50,"alt_fmsl":0,"id":"CHQ","desc":"CHARLESTON NDB"},
{"type":"NDB","hdg_t":359.1,"dist_nm":52,"freq":254,"lat":37.14550000,"lon":-88.67047222,"rng_nm":50,"alt_fmsl":0,"id":"BDD","desc":"BELLGRADE NDB"},
{"type":"NDB","hdg_t":329.8,"dist_nm":54.4,"freq":397,"lat":37.06172222,"lon":-89.22341667,"rng_nm":50,"alt_fmsl":0,"id":"CIR","desc":"CAIRO NDB"},
{"type":"NDB","hdg_t":309.9,"dist_nm":57.2,"freq":272,"lat":36.88781100,"lon":-89.56478600,"rng_nm":25,"alt_fmsl":350,"id":"SIK","desc":"SIKESTON NDB"},
{"type":"NDB","hdg_t":98.2,"dist_nm":59.9,"freq":203,"lat":36.12730556,"lon":-87.43236111,"rng_nm":50,"alt_fmsl":0,"id":"DMZ","desc":"DICKSON NDB"},
{"type":"SDME","hdg_t":66.6,"dist_nm":61,"freq":114.9,"lat":36.67643300,"lon":-87.49186400,"rng_nm":40,"alt_fmsl":572,"id":"HXW","desc":"SCREAMING EAGLE TACAN"},
{"type":"NDB","hdg_t":228.1,"dist_nm":61.3,"freq":326,"lat":35.58966667,"lon":-89.58733333,"rng_nm":50,"alt_fmsl":0,"id":"COO","desc":"COVINGTON NDB"},
{"type":"NDB","hdg_t":173.8,"dist_nm":62.7,"freq":386,"lat":35.23702778,"lon":-88.51600000,"rng_nm":50,"alt_fmsl":0,"id":"SZY","desc":"SIBLEY NDB"},
{"type":"NDB","hdg_t":75.9,"dist_nm":63.1,"freq":335,"lat":36.52711111,"lon":-87.38672222,"rng_nm":50,"alt_fmsl":0,"id":"CK","desc":"SNUFF NDB"},
{"type":"VOR","hdg_t":285.6,"dist_nm":63.1,"freq":111.2,"lat":36.55511111,"lon":-89.91141667,"rng_nm":40,"alt_fmsl":280,"id":"MAW","desc":"MALDEN VORTAC"},
{"type":"VOR","hdg_t":70.6,"dist_nm":63.5,"freq":110.6,"lat":36.62197222,"lon":-87.41266667,"rng_nm":25,"alt_fmsl":538,"id":"CKV","desc":"CLARKSVILLE VOR-DME"},
{"type":"VOR","hdg_t":114,"dist_nm":64.2,"freq":111.6,"lat":35.83391667,"lon":-87.45175000,"rng_nm":40,"alt_fmsl":775,"id":"GHM","desc":"GRAHAM VORTAC"},
{"type":"VOR","hdg_t":253,"dist_nm":65.5,"freq":111.8,"lat":35.95097222,"lon":-89.94105556,"rng_nm":40,"alt_fmsl":0,"id":"GOJ","desc":"GOSNELL VOR"},
{"type":"NDB","hdg_t":64.9,"dist_nm":65.9,"freq":273,"lat":36.73700000,"lon":-87.41386111,"rng_nm":50,"alt_fmsl":0,"id":"FK","desc":"AIRBE NDB"},
{"type":"NDB","hdg_t":196.7,"dist_nm":66.4,"freq":404,"lat":35.21433333,"lon":-89.04213889,"rng_nm":50,"alt_fmsl":0,"id":"BAV","desc":"HARDEMAN NDB"},
{"type":"NDB","hdg_t":134,"dist_nm":69.8,"freq":257,"lat":35.46250000,"lon":-87.63027778,"rng_nm":50,"alt_fmsl":0,"id":"JHG","desc":"HOHENWALD NDB"},
{"type":"VOR","hdg_t":322.3,"dist_nm":72.1,"freq":112.9,"lat":37.22752778,"lon":-89.57238889,"rng_nm":40,"alt_fmsl":340,"id":"CGI","desc":"CAPE GIRARDEAU VOR-DME"},
{"type":"NDB","hdg_t":60,"dist_nm":73.1,"freq":356,"lat":36.88063889,"lon":-87.33758333,"rng_nm":50,"alt_fmsl":0,"id":"HIX","desc":"HONEY GROVE NDB"},
{"type":"NDB","hdg_t":209.5,"dist_nm":73.6,"freq":255,"lat":35.20558333,"lon":-89.39277778,"rng_nm":50,"alt_fmsl":0,"id":"FYE","desc":"SOMERVILLE NDB"},
{"type":"NDB","hdg_t":178.5,"dist_nm":75.6,"freq":334,"lat":35.01552778,"lon":-88.61569444,"rng_nm":50,"alt_fmsl":0,"id":"UU","desc":"SEYER NDB"},
{"type":"NDB","hdg_t":319.5,"dist_nm":77.2,"freq":248,"lat":37.25341667,"lon":-89.70061111,"rng_nm":50,"alt_fmsl":0,"id":"CG","desc":"DUTCH NDB"},
{"type":"NDB","hdg_t":220.1,"dist_nm":77.5,"freq":265,"lat":35.28468900,"lon":-89.67139200,"rng_nm":25,"alt_fmsl":308,"id":"LHC","desc":"LOOSAHATCHIE NDB"},
{"type":"NDB","hdg_t":81.7,"dist_nm":81.6,"freq":279,"lat":36.46044444,"lon":-86.98430556,"rng_nm":50,"alt_fmsl":0,"id":"ON","desc":"MUSIC NDB"},
{"type":"NDB","hdg_t":286.6,"dist_nm":84.3,"freq":278,"lat":36.66908333,"lon":-90.32838889,"rng_nm":50,"alt_fmsl":0,"id":"FD","desc":"EARLI NDB"},
{"type":"NDB","hdg_t":79,"dist_nm":85.5,"freq":221,"lat":36.53650000,"lon":-86.91755800,"rng_nm":25,"alt_fmsl":706,"id":"PED","desc":"NEEDMORE NDB"},
{"type":"NDB","hdg_t":117.3,"dist_nm":86,"freq":365,"lat":35.60819444,"lon":-87.09141667,"rng_nm":50,"alt_fmsl":0,"id":"PBC","desc":"MAURY COUNTY NDB"},
{"type":"NDB","hdg_t":226.6,"dist_nm":86.4,"freq":232,"lat":35.28050000,"lon":-89.93294444,"rng_nm":50,"alt_fmsl":0,"id":"MIG","desc":"MILLINGTON NDB"},
{"type":"VOR","hdg_t":349.1,"dist_nm":90.1,"freq":110.4,"lat":37.75425000,"lon":-89.01166667,"rng_nm":40,"alt_fmsl":468,"id":"MWA","desc":"MARION VOR-DME"},
{"type":"NDB","hdg_t":262.4,"dist_nm":91.1,"freq":383,"lat":36.06277778,"lon":-90.51102778,"rng_nm":50,"alt_fmsl":0,"id":"PGR","desc":"PARAGOULD NDB"},
{"type":"NDB","hdg_t":51.2,"dist_nm":91.8,"freq":362,"lat":37.22700000,"lon":-87.15916667,"rng_nm":50,"alt_fmsl":0,"id":"GMH","desc":"MUHLENBERG NDB"},
{"type":"NDB","hdg_t":3.2,"dist_nm":92,"freq":230,"lat":37.81158333,"lon":-88.54533333,"rng_nm":50,"alt_fmsl":0,"id":"HSB","desc":"HARRISBURG-RALEIG NDB"},
{"type":"NDB","hdg_t":132.1,"dist_nm":92.3,"freq":269,"lat":35.23552778,"lon":-87.26066667,"rng_nm":50,"alt_fmsl":0,"id":"LRT","desc":"LAWRENCEBURG NDB"},
{"type":"NDB","hdg_t":227,"dist_nm":93.9,"freq":414,"lat":35.20119444,"lon":-90.05119444,"rng_nm":50,"alt_fmsl":0,"id":"SPQ","desc":"SPAIN NDB"},
{"type":"VOR","hdg_t":44.9,"dist_nm":94.1,"freq":109.8,"lat":37.38241667,"lon":-87.26369444,"rng_nm":40,"alt_fmsl":450,"id":"CCT","desc":"CENTRAL CITY VORTAC"},
{"type":"NDB","hdg_t":350.8,"dist_nm":94.8,"freq":382,"lat":37.83916667,"lon":-88.97077778,"rng_nm":50,"alt_fmsl":0,"id":"MW","desc":"JONNY NDB"},
{"type":"NDB","hdg_t":98.3,"dist_nm":95,"freq":304,"lat":36.03100000,"lon":-86.72177778,"rng_nm":50,"alt_fmsl":0,"id":"BN","desc":"DOBBS NDB"},
{"type":"NDB","hdg_t":215.8,"dist_nm":95.5,"freq":275,"lat":34.97980800,"lon":-89.78875000,"rng_nm":25,"alt_fmsl":401,"id":"OLV","desc":"OLIVE BRANCH NDB"},
{"type":"VOR","hdg_t":94.4,"dist_nm":95.9,"freq":114.1,"lat":36.13697222,"lon":-86.68477778,"rng_nm":130,"alt_fmsl":566,"id":"BNA","desc":"NASHVILLE VORTAC"},
{"type":"VOR","hdg_t":256.1,"dist_nm":97.1,"freq":108.6,"lat":35.87491667,"lon":-90.58850000,"rng_nm":25,"alt_fmsl":247,"id":"JBR","desc":"JONESBORO VOR-DME"},
{"type":"VOR","hdg_t":204.8,"dist_nm":99.2,"freq":112.4,"lat":34.77025000,"lon":-89.49650000,"rng_nm":40,"alt_fmsl":630,"id":"HLI","desc":"HOLLY SPRINGS VORTAC"},
{"type":"NDB","hdg_t":343.5,"dist_nm":99.5,"freq":388,"lat":37.87025000,"lon":-89.24552778,"rng_nm":50,"alt_fmsl":0,"id":"MD","desc":"CABBI NDB"},
{"type":"VOR","hdg_t":221,"dist_nm":99.7,"freq":117.5,"lat":35.01511111,"lon":-89.98322222,"rng_nm":130,"alt_fmsl":360,"id":"MEM","desc":"MEMPHIS VORTAC"}
]
}
