{"success":true,"source":"xp2csv.pl","last_updated":"2013/11/08 14:53:21 UTC"
,"icao":"TS69","name":"Barronena East","lat":27.48503361,"lon":-98.66196112,"rwys":1,"ils":0,"index":1334617,"path":"w100n20/w099n27"
,"runways":[
{"len_m":792,"wid_m":21.34,"hdg":126,"surf":"Turf/grass","rwy1":"12","lat1":27.48717961,"lon1":-98.66517128,"rwy2":"30","lat2":27.48288761,"lon2":-98.65875096}
]
,"navaids":[
{"type":"NDB","hdg_t":209.2,"dist_nm":8.9,"freq":266,"lat":27.35391667,"lon":-98.74413889,"rng_nm":50,"alt_fmsl":0,"id":"HBV","desc":"HEBBRONVILLE NDB"},
{"type":"NDB","hdg_t":76.5,"dist_nm":31.5,"freq":347,"lat":27.60633333,"lon":-98.08586111,"rng_nm":50,"alt_fmsl":0,"id":"TKB","desc":"KLEBERG CO NDB"},
{"type":"NDB","hdg_t":119.8,"dist_nm":33.3,"freq":353,"lat":27.20694444,"lon":-98.12177778,"rng_nm":50,"alt_fmsl":0,"id":"BKS","desc":"BROOKS CO NDB"},
{"type":"VOR","hdg_t":65.7,"dist_nm":37.3,"freq":114.5,"lat":27.73980556,"lon":-98.02133333,"rng_nm":40,"alt_fmsl":0,"id":"ALI","desc":"ALICE VOR"},
{"type":"VOR","hdg_t":269.6,"dist_nm":40.3,"freq":117.4,"lat":27.47872222,"lon":-99.41766667,"rng_nm":130,"alt_fmsl":580,"id":"LRD","desc":"LAREDO VORTAC"},
{"type":"NDB","hdg_t":282.6,"dist_nm":43.4,"freq":405,"lat":27.64236111,"lon":-99.45813889,"rng_nm":50,"alt_fmsl":0,"id":"AGH","desc":"ARDYTH NDB"},
{"type":"SDME","hdg_t":88.7,"dist_nm":45.7,"freq":117.8,"lat":27.49930300,"lon":-97.80552500,"rng_nm":130,"alt_fmsl":46,"id":"NQI","desc":"KINGSVILLE TACAN"},
{"type":"NDB","hdg_t":174.3,"dist_nm":46,"freq":260,"lat":26.71894444,"lon":-98.57725000,"rng_nm":50,"alt_fmsl":0,"id":"SNE","desc":"SANTA ELENA NDB"},
{"type":"VOR","hdg_t":266.9,"dist_nm":48.2,"freq":112.6,"lat":27.43938889,"lon":-99.56458333,"rng_nm":130,"alt_fmsl":484,"id":"NLD","desc":"NEWLA VOR-DME"},
{"type":"VOR","hdg_t":337.5,"dist_nm":63.2,"freq":115.8,"lat":28.46200000,"lon":-99.11852778,"rng_nm":40,"alt_fmsl":520,"id":"COT","desc":"COTULLA VORTAC"},
{"type":"VOR","hdg_t":23.8,"dist_nm":66.8,"freq":111.4,"lat":28.50500000,"lon":-98.15047222,"rng_nm":40,"alt_fmsl":270,"id":"THX","desc":"THREE RIVERS VORTAC"},
{"type":"VOR","hdg_t":68.5,"dist_nm":69.4,"freq":115.5,"lat":27.90377778,"lon":-97.44488889,"rng_nm":130,"alt_fmsl":60,"id":"CRP","desc":"CORPUS CHRISTI VORTAC"},
{"type":"NDB","hdg_t":40.8,"dist_nm":70.1,"freq":284,"lat":28.36862500,"lon":-97.79542500,"rng_nm":25,"alt_fmsl":269,"id":"BEA","desc":"BEEVILLE NDB"},
{"type":"VOR","hdg_t":80.3,"dist_nm":73.8,"freq":114,"lat":27.68627778,"lon":-97.29475000,"rng_nm":40,"alt_fmsl":17,"id":"NGP","desc":"TRUAX VORTAC"},
{"type":"NDB","hdg_t":165.5,"dist_nm":76,"freq":330,"lat":26.25386111,"lon":-98.31038889,"rng_nm":50,"alt_fmsl":0,"id":"MF","desc":"MISSI NDB"},
{"type":"VOR","hdg_t":163.8,"dist_nm":81.6,"freq":117.2,"lat":26.17388889,"lon":-98.24077778,"rng_nm":130,"alt_fmsl":100,"id":"MFE","desc":"MC ALLEN VOR-DME"},
{"type":"NDB","hdg_t":315.3,"dist_nm":87.6,"freq":343,"lat":28.52244444,"lon":-99.82727778,"rng_nm":50,"alt_fmsl":0,"id":"DMD","desc":"DIMMIT CO NDB"},
{"type":"NDB","hdg_t":4.9,"dist_nm":88.2,"freq":275,"lat":28.95497200,"lon":-98.51862800,"rng_nm":25,"alt_fmsl":428,"id":"PEZ","desc":"PLEASANTON NDB"},
{"type":"NDB","hdg_t":142.4,"dist_nm":88.8,"freq":338,"lat":26.30516667,"lon":-97.65736111,"rng_nm":50,"alt_fmsl":0,"id":"HR","desc":"SEBAS NDB"},
{"type":"NDB","hdg_t":58,"dist_nm":90.8,"freq":375,"lat":28.28000000,"lon":-97.20583333,"rng_nm":50,"alt_fmsl":0,"id":"MNO","desc":"MELLON RANCH NDB"},
{"type":"VOR","hdg_t":165.2,"dist_nm":91.1,"freq":112.4,"lat":26.01063889,"lon":-98.23186111,"rng_nm":130,"alt_fmsl":139,"id":"REX","desc":"REYNOSA VOR-DME"},
{"type":"VOR","hdg_t":143.9,"dist_nm":92.6,"freq":109.2,"lat":26.22922222,"lon":-97.65227778,"rng_nm":40,"alt_fmsl":32,"id":"HRL","desc":"HARLINGEN VOR-DME"},
{"type":"NDB","hdg_t":66.7,"dist_nm":93.2,"freq":391,"lat":28.09050000,"lon":-97.04655556,"rng_nm":50,"alt_fmsl":0,"id":"RKP","desc":"ROCKPORT NDB"}
]
}
