{"success":true,"source":"xp2csv.pl","last_updated":"2013/11/08 14:53:21 UTC"
,"icao":"TX25","name":"Lochridge Ranch","lat":31.9894445,"lon":-95.951111,"rwys":1,"ils":0,"index":1384056,"path":"w100n30/w096n31"
,"runways":[
{"len_m":1501,"wid_m":18.29,"hdg":169,"surf":"Asphalt","rwy1":"17","lat1":31.99611100,"lon1":-95.95250000,"rwy2":"35","lat2":31.98277800,"lon2":-95.94972200}
]
,"navaids":[
{"type":"NDB","hdg_t":356.2,"dist_nm":1.2,"freq":335,"lat":32.01071700,"lon":-95.95274200,"rng_nm":25,"alt_fmsl":383,"id":"LIQ","desc":"LOCHRIDGE RANCH NDB"},
{"type":"NDB","hdg_t":355.7,"dist_nm":4.4,"freq":215,"lat":32.06350000,"lon":-95.95763889,"rng_nm":50,"alt_fmsl":0,"id":"CSZ","desc":"CROSSROADS NDB"},
{"type":"NDB","hdg_t":31.1,"dist_nm":11.8,"freq":269,"lat":32.15933333,"lon":-95.83025000,"rng_nm":50,"alt_fmsl":0,"id":"AHX","desc":"ATHENS NDB"},
{"type":"NDB","hdg_t":238.9,"dist_nm":14.6,"freq":418,"lat":31.86266667,"lon":-96.19747222,"rng_nm":50,"alt_fmsl":0,"id":"PYF","desc":"PYRAMID NDB"},
{"type":"NDB","hdg_t":134.3,"dist_nm":17.8,"freq":375,"lat":31.78016667,"lon":-95.70105556,"rng_nm":50,"alt_fmsl":0,"id":"PSN","desc":"PALESTINE NDB"},
{"type":"VOR","hdg_t":310.8,"dist_nm":17.9,"freq":114.8,"lat":32.18572222,"lon":-96.21811111,"rng_nm":40,"alt_fmsl":400,"id":"CQY","desc":"CEDAR CREEK VORTAC"},
{"type":"VOR","hdg_t":76.5,"dist_nm":22,"freq":111.4,"lat":32.07461111,"lon":-95.53077778,"rng_nm":40,"alt_fmsl":305,"id":"FZT","desc":"FRANKSTON VOR-DME"},
{"type":"NDB","hdg_t":276,"dist_nm":22.7,"freq":396,"lat":32.02841667,"lon":-96.39461111,"rng_nm":50,"alt_fmsl":0,"id":"CRS","desc":"CORSICANA NDB"},
{"type":"NDB","hdg_t":280.5,"dist_nm":24.6,"freq":344,"lat":32.06413889,"lon":-96.42630556,"rng_nm":50,"alt_fmsl":0,"id":"CGQ","desc":"POWELL NDB"},
{"type":"NDB","hdg_t":43.7,"dist_nm":35.3,"freq":320,"lat":32.41575000,"lon":-95.46961111,"rng_nm":50,"alt_fmsl":0,"id":"TY","desc":"INDOO NDB"},
{"type":"VOR","hdg_t":51.6,"dist_nm":35.4,"freq":114.2,"lat":32.35586111,"lon":-95.40347222,"rng_nm":25,"alt_fmsl":540,"id":"TYR","desc":"TYLER VOR-DME"},
{"type":"NDB","hdg_t":234,"dist_nm":35.5,"freq":329,"lat":31.63961111,"lon":-96.51219444,"rng_nm":50,"alt_fmsl":0,"id":"LXY","desc":"MEXIA NDB"},
{"type":"NDB","hdg_t":100.5,"dist_nm":38.2,"freq":263,"lat":31.87016667,"lon":-95.21550000,"rng_nm":50,"alt_fmsl":0,"id":"JSO","desc":"CHEROKEE CO NDB"},
{"type":"VOR","hdg_t":231.5,"dist_nm":39.1,"freq":108.8,"lat":31.58147222,"lon":-96.54908333,"rng_nm":40,"alt_fmsl":512,"id":"GNL","desc":"GROESBECK VOR-DME"},
{"type":"NDB","hdg_t":341.9,"dist_nm":48.5,"freq":260,"lat":32.76013889,"lon":-96.24913889,"rng_nm":50,"alt_fmsl":0,"id":"AVZ","desc":"TRAVIS NDB"},
{"type":"NDB","hdg_t":324.1,"dist_nm":50.2,"freq":388,"lat":32.66808333,"lon":-96.53225000,"rng_nm":50,"alt_fmsl":0,"id":"JUG","desc":"JECCA NDB"},
{"type":"VOR","hdg_t":180.9,"dist_nm":51.8,"freq":110.8,"lat":31.12402778,"lon":-95.96794444,"rng_nm":40,"alt_fmsl":350,"id":"LOA","desc":"LEONA VORTAC"},
{"type":"NDB","hdg_t":49.8,"dist_nm":55.5,"freq":404,"lat":32.58541667,"lon":-95.11300000,"rng_nm":50,"alt_fmsl":0,"id":"ABG","desc":"AMBASSADOR NDB"},
{"type":"NDB","hdg_t":77.6,"dist_nm":56.8,"freq":371,"lat":32.18794444,"lon":-94.86105556,"rng_nm":50,"alt_fmsl":0,"id":"HNO","desc":"HENDERSON NDB"},
{"type":"NDB","hdg_t":329.2,"dist_nm":57.2,"freq":248,"lat":32.80936111,"lon":-96.52911111,"rng_nm":50,"alt_fmsl":0,"id":"PQF","desc":"MESQUITE NDB"},
{"type":"NDB","hdg_t":255.8,"dist_nm":59.4,"freq":378,"lat":31.74091667,"lon":-97.07816667,"rng_nm":50,"alt_fmsl":0,"id":"CN","desc":"LEROI NDB"},
{"type":"NDB","hdg_t":354.3,"dist_nm":59.7,"freq":428,"lat":32.98186111,"lon":-96.06730556,"rng_nm":50,"alt_fmsl":0,"id":"SYW","desc":"CASH NDB"},
{"type":"VOR","hdg_t":28.9,"dist_nm":61,"freq":114,"lat":32.88041667,"lon":-95.36675000,"rng_nm":40,"alt_fmsl":520,"id":"UIM","desc":"QUITMAN VOR-DME"},
{"type":"NDB","hdg_t":311.5,"dist_nm":62.3,"freq":287,"lat":32.67693600,"lon":-96.87106700,"rng_nm":50,"alt_fmsl":670,"id":"RBD","desc":"REDBIRD NDB"},
{"type":"NDB","hdg_t":318.5,"dist_nm":62.9,"freq":275,"lat":32.77477200,"lon":-96.77527500,"rng_nm":25,"alt_fmsl":0,"id":"LV","desc":"CONIS NDB"},
{"type":"NDB","hdg_t":243.3,"dist_nm":64.1,"freq":400,"lat":31.50380556,"lon":-97.06958333,"rng_nm":50,"alt_fmsl":0,"id":"ROB","desc":"ROBINSON NDB"},
{"type":"NDB","hdg_t":346.5,"dist_nm":64.7,"freq":316,"lat":33.04038889,"lon":-96.24858333,"rng_nm":50,"alt_fmsl":0,"id":"MII","desc":"CADDO MILLS NDB"},
{"type":"SDME","hdg_t":355,"dist_nm":64.7,"freq":109.6,"lat":33.06626900,"lon":-96.06139700,"rng_nm":25,"alt_fmsl":540,"id":"MJF","desc":"ARVILLA TACAN"},
{"type":"NDB","hdg_t":64.2,"dist_nm":65,"freq":410,"lat":32.45558333,"lon":-94.79758333,"rng_nm":50,"alt_fmsl":0,"id":"GG","desc":"VEELS NDB"},
{"type":"VOR","hdg_t":66.8,"dist_nm":66.1,"freq":112.3,"lat":32.41775000,"lon":-94.75319444,"rng_nm":40,"alt_fmsl":320,"id":"GGG","desc":"GREGG CO VORTAC"},
{"type":"NDB","hdg_t":107.4,"dist_nm":66.8,"freq":391,"lat":31.64850000,"lon":-94.70550000,"rng_nm":50,"alt_fmsl":0,"id":"GXD","desc":"NACOGDOCHES NDB"},
{"type":"NDB","hdg_t":115.2,"dist_nm":69.8,"freq":253,"lat":31.48555556,"lon":-94.72019444,"rng_nm":50,"alt_fmsl":0,"id":"OC","desc":"NADOS NDB"},
{"type":"NDB","hdg_t":355.3,"dist_nm":70.1,"freq":201,"lat":33.15627778,"lon":-96.06361111,"rng_nm":50,"alt_fmsl":0,"id":"GV","desc":"MAJOR NDB"},
{"type":"VOR","hdg_t":254.1,"dist_nm":70.1,"freq":115.3,"lat":31.66233333,"lon":-97.26902778,"rng_nm":130,"alt_fmsl":510,"id":"ACT","desc":"WACO VORTAC"},
{"type":"NDB","hdg_t":13.4,"dist_nm":72,"freq":338,"lat":33.15844700,"lon":-95.61828900,"rng_nm":25,"alt_fmsl":483,"id":"BHG","desc":"BRASHEAR NDB"},
{"type":"VOR","hdg_t":318.3,"dist_nm":72.4,"freq":116.2,"lat":32.89030556,"lon":-96.90397222,"rng_nm":130,"alt_fmsl":450,"id":"CVE","desc":"COWBOY VOR-DME"},
{"type":"NDB","hdg_t":311.9,"dist_nm":73.1,"freq":233,"lat":32.80215100,"lon":-97.02746200,"rng_nm":50,"alt_fmsl":500,"id":"PK","desc":"ISSUE NDB"},
{"type":"NDB","hdg_t":128.3,"dist_nm":73.8,"freq":350,"lat":31.21888889,"lon":-94.82508333,"rng_nm":50,"alt_fmsl":0,"id":"LF","desc":"FLUFY NDB"},
{"type":"VOR","hdg_t":15.8,"dist_nm":75.3,"freq":109,"lat":33.19855556,"lon":-95.54258333,"rng_nm":40,"alt_fmsl":508,"id":"SLR","desc":"SULPHUR SPRINGS VOR-DME"},
{"type":"VOR","hdg_t":313.8,"dist_nm":76.3,"freq":113.1,"lat":32.86916667,"lon":-97.04050000,"rng_nm":130,"alt_fmsl":540,"id":"TTT","desc":"MAVERICK VOR-DME"},
{"type":"NDB","hdg_t":166,"dist_nm":77,"freq":308,"lat":30.74075000,"lon":-95.59086111,"rng_nm":50,"alt_fmsl":0,"id":"UTS","desc":"HUNTSVILLE NDB"},
{"type":"VOR","hdg_t":127.7,"dist_nm":80.3,"freq":112.1,"lat":31.16236111,"lon":-94.71694444,"rng_nm":130,"alt_fmsl":200,"id":"LFK","desc":"LUFKIN VORTAC"},
{"type":"NDB","hdg_t":318,"dist_nm":81.4,"freq":219,"lat":32.99578900,"lon":-97.02959200,"rng_nm":50,"alt_fmsl":547,"id":"FL","desc":"JIFFY NDB"},
{"type":"VOR","hdg_t":311.1,"dist_nm":82.4,"freq":115.7,"lat":32.88944444,"lon":-97.17941667,"rng_nm":130,"alt_fmsl":637,"id":"FUZ","desc":"RANGER VORTAC"},
{"type":"NDB","hdg_t":337.1,"dist_nm":82.7,"freq":421,"lat":33.26166667,"lon":-96.58880556,"rng_nm":50,"alt_fmsl":585,"id":"EF","desc":"FLUET NDB"},
{"type":"NDB","hdg_t":35.7,"dist_nm":84.2,"freq":381,"lat":33.12845300,"lon":-94.97410300,"rng_nm":25,"alt_fmsl":404,"id":"MSA","desc":"MOUNT PLEASANT NDB"},
{"type":"NDB","hdg_t":81.8,"dist_nm":85.1,"freq":332,"lat":32.18025000,"lon":-94.29641667,"rng_nm":50,"alt_fmsl":0,"id":"RPF","desc":"CARTHAGE NDB"},
{"type":"VOR","hdg_t":196.3,"dist_nm":86.3,"freq":113.3,"lat":30.60500000,"lon":-96.42069444,"rng_nm":40,"alt_fmsl":275,"id":"CLL","desc":"COLLEGE STATION VORTAC"},
{"type":"VOR","hdg_t":238.6,"dist_nm":88.7,"freq":110.4,"lat":31.20933333,"lon":-97.42497222,"rng_nm":40,"alt_fmsl":710,"id":"TPL","desc":"TEMPLE VOR-DME"},
{"type":"SDME","hdg_t":302.1,"dist_nm":88.9,"freq":108.7,"lat":32.77151700,"lon":-97.43946400,"rng_nm":40,"alt_fmsl":663,"id":"NFW","desc":"FORT WORTH NAS JRB TACAN"},
{"type":"NDB","hdg_t":307.2,"dist_nm":90.2,"freq":365,"lat":32.89297222,"lon":-97.37352778,"rng_nm":50,"alt_fmsl":0,"id":"FT","desc":"MUFIN NDB"},
{"type":"NDB","hdg_t":192.6,"dist_nm":91.7,"freq":260,"lat":30.49372222,"lon":-96.33769444,"rng_nm":50,"alt_fmsl":0,"id":"CL","desc":"ROWDY NDB"},
{"type":"NDB","hdg_t":95.3,"dist_nm":92.2,"freq":341,"lat":31.83286111,"lon":-94.15375000,"rng_nm":50,"alt_fmsl":0,"id":"CZJ","desc":"AMASON NDB"},
{"type":"VOR","hdg_t":351.2,"dist_nm":93.7,"freq":114.6,"lat":33.53750000,"lon":-96.23408333,"rng_nm":130,"alt_fmsl":700,"id":"BYP","desc":"BONHAM VORTAC"},
{"type":"NDB","hdg_t":165.1,"dist_nm":96.3,"freq":281,"lat":30.43200000,"lon":-95.47625000,"rng_nm":50,"alt_fmsl":0,"id":"CX","desc":"ALIBI NDB"},
{"type":"VOR","hdg_t":15.1,"dist_nm":96.4,"freq":113.6,"lat":33.54238889,"lon":-95.44827778,"rng_nm":40,"alt_fmsl":510,"id":"PRX","desc":"PARIS VOR-DME"},
{"type":"VOR","hdg_t":276.4,"dist_nm":98.7,"freq":115,"lat":32.15958333,"lon":-97.87769444,"rng_nm":40,"alt_fmsl":1300,"id":"JEN","desc":"GLEN ROSE VORTAC"},
{"type":"NDB","hdg_t":321.1,"dist_nm":99.9,"freq":257,"lat":33.28308333,"lon":-97.19625000,"rng_nm":50,"alt_fmsl":0,"id":"DT","desc":"PINCK NDB"}
]
}
