{"success":true,"source":"xp2csv.pl","last_updated":"2013/11/08 14:53:21 UTC"
,"icao":"U14","name":"Nephi Muni","lat":39.74055115,"lon":-111.86864554,"rwys":1,"ils":0,"index":1122408,"path":"w120n30/w112n39"
,"runways":[
{"len_m":1428,"wid_m":29.87,"hdg":179,"surf":"Asphalt","rwy1":"16","lat1":39.74698251,"lon1":-111.86866946,"rwy2":"34","lat2":39.73411979,"lon2":-111.86862161}
]
,"radios":[
{"type":"CTAF","freq":122.8,"desc":"CTAF/UNICOM"}
]
,"navaids":[
{"type":"VOR","hdg_t":13.3,"dist_nm":29.2,"freq":108.4,"lat":40.21494444,"lon":-111.72133333,"rng_nm":25,"alt_fmsl":4493,"id":"PVU","desc":"PROVO VOR-DME"},
{"type":"VOR","hdg_t":354.1,"dist_nm":32.2,"freq":116.6,"lat":40.27488889,"lon":-111.94052778,"rng_nm":130,"alt_fmsl":7690,"id":"FFU","desc":"FAIRFIELD VORTAC"},
{"type":"VOR","hdg_t":228.5,"dist_nm":39.5,"freq":116.1,"lat":39.30233333,"lon":-112.50555556,"rng_nm":130,"alt_fmsl":4600,"id":"DTA","desc":"DELTA VORTAC"},
{"type":"VOR","hdg_t":98.7,"dist_nm":52.3,"freq":115.5,"lat":39.60319444,"lon":-110.75352778,"rng_nm":130,"alt_fmsl":5830,"id":"PUC","desc":"CARBON VOR-DME"},
{"type":"SDME","hdg_t":299.4,"dist_nm":55.6,"freq":113.2,"lat":40.19159900,"lon":-112.92216800,"rng_nm":25,"alt_fmsl":4372,"id":"MIJ","desc":"MICHAEL TACAN"},
{"type":"NDB","hdg_t":337.2,"dist_nm":56.6,"freq":371,"lat":40.61077778,"lon":-112.34769444,"rng_nm":50,"alt_fmsl":0,"id":"TVY","desc":"TOOELE NDB"},
{"type":"VOR","hdg_t":355.5,"dist_nm":66.7,"freq":116.8,"lat":40.85025000,"lon":-111.98191667,"rng_nm":130,"alt_fmsl":4220,"id":"TCH","desc":"WASATCH VORTAC"},
{"type":"SDME","hdg_t":357,"dist_nm":82.8,"freq":111.2,"lat":41.12050300,"lon":-111.96368100,"rng_nm":40,"alt_fmsl":4806,"id":"HIF","desc":"HILL TACAN"},
{"type":"VOR","hdg_t":72.4,"dist_nm":84,"freq":112.7,"lat":40.14908333,"lon":-110.12702778,"rng_nm":130,"alt_fmsl":5401,"id":"MTU","desc":"MYTON VOR-DME"},
{"type":"VOR","hdg_t":353.3,"dist_nm":89.5,"freq":115.7,"lat":41.22408333,"lon":-112.09825000,"rng_nm":40,"alt_fmsl":4223,"id":"OGD","desc":"OGDEN VORTAC"},
{"type":"VOR","hdg_t":145,"dist_nm":96.3,"freq":115.9,"lat":38.41680556,"lon":-110.69972222,"rng_nm":130,"alt_fmsl":4430,"id":"HVE","desc":"HANKSVILLE VORTAC"},
{"type":"VOR","hdg_t":213.2,"dist_nm":98.5,"freq":112.1,"lat":38.36036111,"lon":-113.01322222,"rng_nm":130,"alt_fmsl":4980,"id":"MLF","desc":"MILFORD VORTAC"},
{"type":"VOR","hdg_t":22,"dist_nm":99.2,"freq":109.6,"lat":41.27250000,"lon":-111.04677778,"rng_nm":25,"alt_fmsl":7145,"id":"EVW","desc":"EVANSTON VOR-DME"}
]
}
