{"success":true,"source":"xp2csv.pl","last_updated":"2013/11/08 14:53:21 UTC"
,"icao":"U70","name":"Cascade","lat":44.493889,"lon":-116.01625,"rwys":1,"ils":0,"index":1040795,"path":"w120n40/w117n44"
,"runways":[
{"len_m":1295,"wid_m":18.29,"hdg":135,"surf":"Asphalt","rwy1":"12","lat1":44.49805600,"lon1":-116.02194400,"rwy2":"30","lat2":44.48972200,"lon2":-116.01055600}
]
,"radios":[
{"type":"CTAF","freq":122.9,"desc":"CTAF"}
]
,"navaids":[
{"type":"VOR","hdg_t":333.6,"dist_nm":18.3,"freq":116.2,"lat":44.76711111,"lon":-116.20627778,"rng_nm":130,"alt_fmsl":7333,"id":"DNJ","desc":"DONNELLY VORTAC"},
{"type":"NDB","hdg_t":236.7,"dist_nm":51.3,"freq":305,"lat":44.01975000,"lon":-117.00833333,"rng_nm":50,"alt_fmsl":0,"id":"ONO","desc":"ONTARIO NDB"},
{"type":"NDB","hdg_t":193.6,"dist_nm":55.3,"freq":359,"lat":43.59686111,"lon":-116.31522222,"rng_nm":50,"alt_fmsl":0,"id":"BO","desc":"USTIK NDB"},
{"type":"VOR","hdg_t":187.7,"dist_nm":56.9,"freq":113.3,"lat":43.55280556,"lon":-116.19213889,"rng_nm":130,"alt_fmsl":2876,"id":"BOI","desc":"BOISE VORTAC"},
{"type":"NDB","hdg_t":203.1,"dist_nm":58,"freq":238,"lat":43.60336111,"lon":-116.53905556,"rng_nm":50,"alt_fmsl":0,"id":"MPA","desc":"MERIDIAN NDB"},
{"type":"VOR","hdg_t":285.8,"dist_nm":79.4,"freq":115.3,"lat":44.84061111,"lon":-117.80786111,"rng_nm":130,"alt_fmsl":3380,"id":"BKE","desc":"BAKER CITY VOR-DME"},
{"type":"NDB","hdg_t":169.2,"dist_nm":84.2,"freq":333,"lat":43.11330556,"lon":-115.65850000,"rng_nm":50,"alt_fmsl":0,"id":"STI","desc":"STURGEON NDB"},
{"type":"SDME","hdg_t":175.9,"dist_nm":87.4,"freq":114,"lat":43.04051900,"lon":-115.87463000,"rng_nm":40,"alt_fmsl":3000,"id":"MUO","desc":"MOUNTAIN HOME TACAN"},
{"type":"VOR","hdg_t":68.3,"dist_nm":88.4,"freq":113.5,"lat":45.02130556,"lon":-114.08425000,"rng_nm":130,"alt_fmsl":9258,"id":"LKT","desc":"SALMON VOR-DME"},
{"type":"VOR","hdg_t":173.2,"dist_nm":91.2,"freq":114.9,"lat":42.98266667,"lon":-115.77425000,"rng_nm":40,"alt_fmsl":0,"id":"LIA","desc":"LIBERATOR VOR"},
{"type":"NDB","hdg_t":302.2,"dist_nm":97.3,"freq":296,"lat":45.34250000,"lon":-117.96275000,"rng_nm":50,"alt_fmsl":0,"id":"LGD","desc":"LA GRANDE NDB"}
]
}
