{"success":true,"source":"xp2csv.pl","last_updated":"2013/11/08 14:53:21 UTC"
,"icao":"U93","name":"Magic Reservoir","lat":43.28240361,"lon":-114.39532417,"rwys":2,"ils":0,"index":1073490,"path":"w120n40/w115n43"
,"runways":[
{"len_m":1221,"wid_m":30.48,"hdg":46,"surf":"Turf/grass","rwy1":"03","lat1":43.27859274,"lon1":-114.40074499,"rwy2":"21","lat2":43.28621448,"lon2":-114.38990335},
{"len_m":535,"wid_m":30.48,"hdg":105,"surf":"Turf/grass","rwy1":"09","lat1":43.28306517,"lon1":-114.39849338,"rwy2":"27","lat2":43.28174205,"lon2":-114.39215496}
]
,"navaids":[
{"type":"NDB","hdg_t":66.7,"dist_nm":7.2,"freq":220,"lat":43.32977778,"lon":-114.24369444,"rng_nm":50,"alt_fmsl":0,"id":"HLE","desc":"HAILEY NDB"},
{"type":"NDB","hdg_t":209.2,"dist_nm":25.1,"freq":211,"lat":42.91613889,"lon":-114.67416667,"rng_nm":50,"alt_fmsl":0,"id":"HDG","desc":"STEELHEAD NDB"},
{"type":"VOR","hdg_t":150.8,"dist_nm":48.1,"freq":114.1,"lat":42.58025000,"lon":-113.86586111,"rng_nm":40,"alt_fmsl":4226,"id":"BYI","desc":"BURLEY VOR-DME"},
{"type":"NDB","hdg_t":177.8,"dist_nm":48.2,"freq":389,"lat":42.47863889,"lon":-114.35433333,"rng_nm":50,"alt_fmsl":0,"id":"TW","desc":"STRIK NDB"},
{"type":"VOR","hdg_t":184.9,"dist_nm":48.3,"freq":115.8,"lat":42.47986111,"lon":-114.48944444,"rng_nm":40,"alt_fmsl":4140,"id":"TWF","desc":"TWIN FALLS VORTAC"},
{"type":"NDB","hdg_t":260,"dist_nm":56.3,"freq":333,"lat":43.11330556,"lon":-115.65850000,"rng_nm":50,"alt_fmsl":0,"id":"STI","desc":"STURGEON NDB"},
{"type":"VOR","hdg_t":253.9,"dist_nm":63.1,"freq":114.9,"lat":42.98266667,"lon":-115.77425000,"rng_nm":40,"alt_fmsl":0,"id":"LIA","desc":"LIBERATOR VOR"},
{"type":"SDME","hdg_t":257.9,"dist_nm":66.5,"freq":114,"lat":43.04051900,"lon":-115.87463000,"rng_nm":40,"alt_fmsl":3000,"id":"MUO","desc":"MOUNTAIN HOME TACAN"},
{"type":"VOR","hdg_t":282.2,"dist_nm":80.2,"freq":113.3,"lat":43.55280556,"lon":-116.19213889,"rng_nm":130,"alt_fmsl":2876,"id":"BOI","desc":"BOISE VORTAC"},
{"type":"VOR","hdg_t":107.2,"dist_nm":80.5,"freq":112.6,"lat":42.87038889,"lon":-112.65222222,"rng_nm":130,"alt_fmsl":4430,"id":"PIH","desc":"POCATELLO VOR-DME"},
{"type":"NDB","hdg_t":102.3,"dist_nm":84.7,"freq":383,"lat":42.96375000,"lon":-112.51638889,"rng_nm":50,"alt_fmsl":0,"id":"PI","desc":"TYHEE NDB"},
{"type":"NDB","hdg_t":283.3,"dist_nm":86,"freq":359,"lat":43.59686111,"lon":-116.31522222,"rng_nm":50,"alt_fmsl":0,"id":"BO","desc":"USTIK NDB"},
{"type":"NDB","hdg_t":282.3,"dist_nm":95.6,"freq":238,"lat":43.60336111,"lon":-116.53905556,"rng_nm":50,"alt_fmsl":0,"id":"MPA","desc":"MERIDIAN NDB"},
{"type":"NDB","hdg_t":83.9,"dist_nm":98.1,"freq":350,"lat":43.43216667,"lon":-112.16252778,"rng_nm":50,"alt_fmsl":0,"id":"SWU","desc":"SWEDEN NDB"}
]
}
