{"success":true,"source":"xp2csv.pl","last_updated":"2013/11/08 14:53:21 UTC"
,"icao":"UA30","name":"Batken","lat":40.042743,"lon":70.8381205,"rwys":1,"ils":0,"index":4104323,"path":"e070n40/e070n40"
,"runways":[
{"len_m":1843,"wid_m":36.58,"hdg":143,"surf":"Asphalt","rwy1":"14","lat1":40.04944700,"lon1":70.83174700,"rwy2":"32","lat2":40.03603900,"lon2":70.84449400}
]
,"navaids":[
{"type":"NDB","hdg_t":20.5,"dist_nm":26.9,"freq":349,"lat":40.46333300,"lon":71.04500000,"rng_nm":50,"alt_fmsl":0,"id":"UP","desc":"KOKAND NDB"},
{"type":"NDB","hdg_t":61.9,"dist_nm":47.3,"freq":625,"lat":40.41000000,"lon":71.75000000,"rng_nm":50,"alt_fmsl":0,"id":"ZU","desc":"FERGANA NDB"},
{"type":"NDB","hdg_t":282.5,"dist_nm":50.8,"freq":655,"lat":40.22166700,"lon":69.75833300,"rng_nm":50,"alt_fmsl":0,"id":"HV","desc":"KHUDZHAND NDB"},
{"type":"NDB","hdg_t":280.5,"dist_nm":56.1,"freq":655,"lat":40.20833300,"lon":69.63666700,"rng_nm":50,"alt_fmsl":0,"id":"HD","desc":"KHUDZHAND NDB"},
{"type":"NDB","hdg_t":77.5,"dist_nm":59.3,"freq":555,"lat":40.25000000,"lon":72.10000000,"rng_nm":50,"alt_fmsl":0,"id":"KZ","desc":"KYZYL KIYA NDB"},
{"type":"NDB","hdg_t":32.6,"dist_nm":66,"freq":329,"lat":40.96833300,"lon":71.62166700,"rng_nm":50,"alt_fmsl":0,"id":"SA","desc":"NAMANGAN NDB"},
{"type":"NDB","hdg_t":318.1,"dist_nm":70.7,"freq":490,"lat":40.91666700,"lon":69.80000000,"rng_nm":50,"alt_fmsl":0,"id":"SW","desc":"KARAKHTAY NDB"},
{"type":"NDB","hdg_t":287.1,"dist_nm":74.5,"freq":955,"lat":40.40000000,"lon":69.28333300,"rng_nm":50,"alt_fmsl":0,"id":"FC","desc":"DALVERZIN NDB"},
{"type":"NDB","hdg_t":58.2,"dist_nm":75.7,"freq":422,"lat":40.69833300,"lon":72.25000000,"rng_nm":75,"alt_fmsl":0,"id":"AN","desc":"ANDIZHAN NDB"},
{"type":"NDB","hdg_t":57.8,"dist_nm":78.7,"freq":422,"lat":40.73333300,"lon":72.30000000,"rng_nm":50,"alt_fmsl":0,"id":"AD","desc":"ANDIZHAN NDB"},
{"type":"NDB","hdg_t":270.8,"dist_nm":86.9,"freq":385,"lat":40.05000000,"lon":68.95000000,"rng_nm":50,"alt_fmsl":0,"id":"PF","desc":"URA TYUBE NDB"},
{"type":"NDB","hdg_t":310.7,"dist_nm":87.2,"freq":725,"lat":40.98333300,"lon":69.38333300,"rng_nm":50,"alt_fmsl":0,"id":"UA","desc":"TOYTEPA NDB"},
{"type":"NDB","hdg_t":41.5,"dist_nm":90.7,"freq":691,"lat":41.16666700,"lon":72.16666700,"rng_nm":50,"alt_fmsl":0,"id":"NS","desc":"NARYN-GES NDB"},
{"type":"NDB","hdg_t":67.2,"dist_nm":94.3,"freq":780,"lat":40.63666700,"lon":72.74333300,"rng_nm":50,"alt_fmsl":2733,"id":"OU","desc":"OSH NDB"},
{"type":"NDB","hdg_t":70,"dist_nm":97.5,"freq":780,"lat":40.58033900,"lon":72.84474400,"rng_nm":50,"alt_fmsl":0,"id":"DZ","desc":"OSH NDB"}
]
}
