{"success":true,"source":"xp2csv.pl","last_updated":"2013/11/08 14:53:21 UTC"
,"icao":"UEBS","name":"Sakyryr","lat":67.7923445,"lon":130.39050679,"rwys":1,"ils":0,"index":5089136,"path":"e130n60/e130n67"
,"runways":[
{"len_m":2443,"wid_m":49.99,"hdg":109,"surf":"Dirt","rwy1":"13","lat1":67.79594445,"lon1":130.36315593,"rwy2":"31","lat2":67.78874455,"lon2":130.41785765}
]
,"radios":[
{"type":"CTAF","freq":125.9,"desc":"Sakyryr FSS"}
]
,"navaids":[
{"type":"NDB","hdg_t":100.9,"dist_nm":70,"freq":450,"lat":67.54333496,"lon":133.37666321,"rng_nm":112,"alt_fmsl":739,"id":"WH","desc":"Verkhoyansk NDB"},
{"type":"NDB","hdg_t":94.6,"dist_nm":97.6,"freq":375,"lat":67.60500000,"lon":134.63000000,"rng_nm":80,"alt_fmsl":0,"id":"ZA","desc":"BATAGAY NDB"},
{"type":"NDB","hdg_t":93.7,"dist_nm":98.2,"freq":264,"lat":67.63033295,"lon":134.66932678,"rng_nm":30,"alt_fmsl":764,"id":"Z","desc":"Batagay NDB"},
{"type":"NDB","hdg_t":254.3,"dist_nm":173.7,"freq":441,"lat":66.85333252,"lon":123.31500244,"rng_nm":80,"alt_fmsl":293,"id":"BL","desc":"Zhigansk NDB"},
{"type":"NDB","hdg_t":252.7,"dist_nm":174.1,"freq":243,"lat":66.77833557,"lon":123.37733459,"rng_nm":30,"alt_fmsl":291,"id":"V","desc":"Zhigansk NDB"},
{"type":"NDB","hdg_t":251.9,"dist_nm":174.5,"freq":441,"lat":66.73833300,"lon":123.40333300,"rng_nm":80,"alt_fmsl":0,"id":"VG","desc":"ZHIGANSK NDB"},
{"type":"NDB","hdg_t":353,"dist_nm":236,"freq":660,"lat":71.67666626,"lon":128.89399719,"rng_nm":30,"alt_fmsl":26,"id":"F","desc":"Tiksi NDB"},
{"type":"NDB","hdg_t":353.2,"dist_nm":238.5,"freq":660,"lat":71.72000122,"lon":128.91267395,"rng_nm":30,"alt_fmsl":26,"id":"K","desc":"Tiksi NDB"},
{"type":"NDB","hdg_t":353.3,"dist_nm":239.5,"freq":320,"lat":71.73666700,"lon":128.91833300,"rng_nm":80,"alt_fmsl":0,"id":"KF","desc":"TIKSI NDB"},
{"type":"NDB","hdg_t":198.8,"dist_nm":241.9,"freq":460,"lat":63.96000000,"lon":127.43166700,"rng_nm":75,"alt_fmsl":0,"id":"LM","desc":"SANGER NDB"}
]
}
