{"success":true,"source":"xp2csv.pl","last_updated":"2013/11/08 14:53:21 UTC"
,"icao":"UEMS","name":"Sangar","lat":63.959276,"lon":127.42111352,"rwys":1,"ils":0,"index":5039736,"path":"e120n60/e127n63"
,"runways":[
{"len_m":1401,"wid_m":49.99,"hdg":123,"surf":"Dirt","rwy1":"14","lat1":63.96275143,"lon1":127.40919819,"rwy2":"32","lat2":63.95580057,"lon2":127.43302885}
]
,"radios":[
{"type":"CTAF","freq":122.1,"desc":"Sangar FSS"}
]
,"navaids":[
{"type":"NDB","hdg_t":81.1,"dist_nm":0.2,"freq":460,"lat":63.96000000,"lon":127.43166700,"rng_nm":75,"alt_fmsl":0,"id":"LM","desc":"SANGER NDB"},
{"type":"NDB","hdg_t":146.9,"dist_nm":122.4,"freq":171,"lat":62.23333333,"lon":129.80000000,"rng_nm":80,"alt_fmsl":250,"id":"BS","desc":"Yakutsk NDB"},
{"type":"NDB","hdg_t":151.4,"dist_nm":124.8,"freq":479,"lat":62.11966705,"lon":129.53733826,"rng_nm":75,"alt_fmsl":636,"id":"CW","desc":"Magan NDB"},
{"type":"NDB","hdg_t":151.8,"dist_nm":126.5,"freq":391,"lat":62.08966827,"lon":129.54016113,"rng_nm":22,"alt_fmsl":637,"id":"N","desc":"Magan NDB"},
{"type":"NDB","hdg_t":152.4,"dist_nm":127.3,"freq":715,"lat":62.06666565,"lon":129.50500488,"rng_nm":37,"alt_fmsl":637,"id":"NE","desc":"Magan NDB"},
{"type":"NDB","hdg_t":148.1,"dist_nm":127.8,"freq":290,"lat":62.13333300,"lon":129.81333300,"rng_nm":80,"alt_fmsl":0,"id":"UD","desc":"YAKUTSK NDB"},
{"type":"NDB","hdg_t":147.8,"dist_nm":128.2,"freq":334,"lat":62.13333300,"lon":129.84000000,"rng_nm":80,"alt_fmsl":0,"id":"MF","desc":"YAKUTSK NDB"},
{"type":"NDB","hdg_t":148.5,"dist_nm":128.7,"freq":685,"lat":62.11333466,"lon":129.80667114,"rng_nm":30,"alt_fmsl":312,"id":"M","desc":"YAKUTSK NDB"},
{"type":"VOR","hdg_t":149,"dist_nm":129.6,"freq":112.3,"lat":62.09166667,"lon":129.78319444,"rng_nm":130,"alt_fmsl":320,"id":"UTS","desc":"Yakutsk VOR-DME"},
{"type":"NDB","hdg_t":149.6,"dist_nm":129.9,"freq":685,"lat":62.07666779,"lon":129.74800110,"rng_nm":30,"alt_fmsl":331,"id":"V","desc":"YAKUTSK NDB"}
]
}
