{"success":true,"source":"xp2csv.pl","last_updated":"2013/11/08 14:53:21 UTC"
,"icao":"UERA","name":"Aykhal","lat":65.960939,"lon":111.54528811,"rwys":1,"ils":0,"index":4777721,"path":"e110n60/e111n65"
,"runways":[
{"len_m":2200,"wid_m":49.99,"hdg":162,"surf":"Turf/grass","rwy1":"17","lat1":65.97034169,"lon1":111.53796605,"rwy2":"35","lat2":65.95153631,"lon2":111.55261017}
]
,"navaids":[
{"type":"NDB","hdg_t":27,"dist_nm":27.7,"freq":525,"lat":66.37000000,"lon":112.06666700,"rng_nm":80,"alt_fmsl":0,"id":"WN","desc":"POLIARNY NDB"},
{"type":"NDB","hdg_t":25.9,"dist_nm":27.8,"freq":255,"lat":66.37566376,"lon":112.04833221,"rng_nm":50,"alt_fmsl":1660,"id":"W","desc":"Poliarny NDB"},
{"type":"NDB","hdg_t":7.8,"dist_nm":152.8,"freq":300,"lat":68.47333527,"lon":112.48633575,"rng_nm":80,"alt_fmsl":315,"id":"NL","desc":"OLENEK NDB"},
{"type":"NDB","hdg_t":7.7,"dist_nm":154.3,"freq":257,"lat":68.49883270,"lon":112.48217010,"rng_nm":50,"alt_fmsl":639,"id":"L","desc":"OLENEK NDB"},
{"type":"NDB","hdg_t":160.5,"dist_nm":215.4,"freq":385,"lat":62.56166700,"lon":114.12166700,"rng_nm":80,"alt_fmsl":0,"id":"SG","desc":"MIRNY NDB"},
{"type":"VOR","hdg_t":161.4,"dist_nm":215.8,"freq":113.8,"lat":62.54000000,"lon":114.02000000,"rng_nm":40,"alt_fmsl":1283,"id":"DEM","desc":"MIRNY VOR-DME"},
{"type":"NDB","hdg_t":160.9,"dist_nm":215.9,"freq":770,"lat":62.54591751,"lon":114.07505035,"rng_nm":50,"alt_fmsl":1110,"id":"S","desc":"Mirny NDB"},
{"type":"NDB","hdg_t":161.6,"dist_nm":216.7,"freq":770,"lat":62.52208328,"lon":113.99833679,"rng_nm":50,"alt_fmsl":1157,"id":"N","desc":"Mirny NDB"},
{"type":"NDB","hdg_t":162,"dist_nm":217,"freq":385,"lat":62.51000000,"lon":113.95500000,"rng_nm":80,"alt_fmsl":0,"id":"NZ","desc":"MIRNY NDB"},
{"type":"NDB","hdg_t":130.5,"dist_nm":235.3,"freq":346,"lat":63.26333237,"lon":118.15000153,"rng_nm":80,"alt_fmsl":406,"id":"NT","desc":"Nyurba NDB"}
]
}
