{"success":true,"source":"xp2csv.pl","last_updated":"2013/11/08 14:53:21 UTC"
,"icao":"UEVV","name":"Zhigansk","lat":66.7952335,"lon":123.3629095,"rwys":1,"ils":0,"index":4974384,"path":"e120n60/e123n66"
,"runways":[
{"len_m":1803,"wid_m":60.05,"hdg":161,"surf":"Dirt","rwy1":"18","lat1":66.80290300,"lon1":123.35641800,"rwy2":"36","lat2":66.78756400,"lon2":123.36940100}
]
,"radios":[
{"type":"TWR","freq":128.1,"desc":"Zhigansk Tower"}
]
,"navaids":[
{"type":"NDB","hdg_t":161.3,"dist_nm":1,"freq":243,"lat":66.77833557,"lon":123.37733459,"rng_nm":30,"alt_fmsl":291,"id":"V","desc":"Zhigansk NDB"},
{"type":"NDB","hdg_t":164.3,"dist_nm":3.5,"freq":441,"lat":66.73833300,"lon":123.40333300,"rng_nm":80,"alt_fmsl":0,"id":"VG","desc":"ZHIGANSK NDB"},
{"type":"NDB","hdg_t":342,"dist_nm":3.6,"freq":441,"lat":66.85333252,"lon":123.31500244,"rng_nm":80,"alt_fmsl":293,"id":"BL","desc":"Zhigansk NDB"},
{"type":"NDB","hdg_t":192.9,"dist_nm":187.9,"freq":408,"lat":63.74333300,"lon":121.78333300,"rng_nm":80,"alt_fmsl":0,"id":"CZ","desc":"VILYUYSK NDB"},
{"type":"NDB","hdg_t":147.2,"dist_nm":198.8,"freq":460,"lat":63.96000000,"lon":127.43166700,"rng_nm":75,"alt_fmsl":0,"id":"LM","desc":"SANGER NDB"},
{"type":"NDB","hdg_t":74.5,"dist_nm":238.2,"freq":450,"lat":67.54333496,"lon":133.37666321,"rng_nm":112,"alt_fmsl":739,"id":"WH","desc":"Verkhoyansk NDB"},
{"type":"NDB","hdg_t":213.7,"dist_nm":247.1,"freq":318,"lat":63.28850174,"lon":118.29499817,"rng_nm":30,"alt_fmsl":406,"id":"N","desc":"Nyurba NDB"},
{"type":"NDB","hdg_t":214.3,"dist_nm":250.4,"freq":346,"lat":63.26333237,"lon":118.15000153,"rng_nm":80,"alt_fmsl":406,"id":"NT","desc":"Nyurba NDB"},
{"type":"NDB","hdg_t":74.3,"dist_nm":267.2,"freq":375,"lat":67.60500000,"lon":134.63000000,"rng_nm":80,"alt_fmsl":0,"id":"ZA","desc":"BATAGAY NDB"},
{"type":"NDB","hdg_t":74,"dist_nm":268.3,"freq":264,"lat":67.63033295,"lon":134.66932678,"rng_nm":30,"alt_fmsl":764,"id":"Z","desc":"Batagay NDB"}
]
}
