{"success":true,"source":"xp2csv.pl","last_updated":"2013/11/08 14:53:21 UTC"
,"icao":"UKLR","name":"Rivne Intl","lat":50.6039845,"lon":26.15171325,"rwys":2,"ils":1,"index":3384096,"path":"e020n50/e026n50"
,"runways":[
{"len_m":2615,"wid_m":42.06,"hdg":118,"surf":"Concrete","rwy1":"12","lat1":50.61271100,"lon1":26.12535600,"rwy2":"30","lat2":50.60156900,"lon2":26.15788600},
{"len_m":641,"wid_m":19.81,"hdg":56,"surf":"Asphalt","rwy1":"05","lat1":50.59922200,"lon1":26.15804200,"rwy2":"23","lat2":50.60243600,"lon2":26.16556900}
]
,"radios":[
{"type":"TWR","freq":123.7,"desc":"TWR"}
]
,"ils":[
{"type":"ILS","freq":111.1,"lat":50.59916700,"lon":26.16833300,"rng_nm":18,"alt_fmsl":755,"hdg":116.42,"id":"IRW","rwy":"12","desc":"ILS-cat-I"},
{"type":"GS","freq":111.1,"lat":50.61361100,"lon":26.13138900,"rng_nm":10,"alt_fmsl":755,"id":"IRW","rwy":"12","desc":"GS","gs":2.7},
{"type":"OM","freq":0,"lat":50.62803800,"lon":26.08150900,"rng_nm":0,"alt_fmsl":755,"id":"----","rwy":"12","desc":"OM"},
{"type":"MM","freq":0,"lat":50.61748300,"lon":26.11234300,"rng_nm":0,"alt_fmsl":755,"id":"----","rwy":"12","desc":"MM"}
]
,"navaids":[
{"type":"NDB","hdg_t":313.9,"dist_nm":1,"freq":330,"lat":50.61637200,"lon":26.13151000,"rng_nm":25,"alt_fmsl":0,"id":"RD","desc":"RIVNE NDB"},
{"type":"NDB","hdg_t":298.3,"dist_nm":1.7,"freq":678,"lat":50.61748300,"lon":26.11234300,"rng_nm":25,"alt_fmsl":0,"id":"W","desc":"RIVNE NDB"},
{"type":"NDB","hdg_t":298.3,"dist_nm":3,"freq":330,"lat":50.62803800,"lon":26.08150900,"rng_nm":25,"alt_fmsl":0,"id":"RW","desc":"RIVNE NDB"},
{"type":"NDB","hdg_t":126.2,"dist_nm":42.5,"freq":830,"lat":50.18138000,"lon":27.04153400,"rng_nm":75,"alt_fmsl":0,"id":"SW","desc":"SHEPETIVKA NDB"},
{"type":"NDB","hdg_t":359.1,"dist_nm":50.8,"freq":421,"lat":51.44971700,"lon":26.13147700,"rng_nm":75,"alt_fmsl":0,"id":"WM","desc":"VOLODYMYRETS NDB"},
{"type":"NDB","hdg_t":225.5,"dist_nm":68,"freq":265,"lat":49.80300800,"lon":24.90153200,"rng_nm":75,"alt_fmsl":0,"id":"ZL","desc":"ZOLOCHIV NDB"},
{"type":"NDB","hdg_t":232.1,"dist_nm":92.4,"freq":432,"lat":49.64299600,"lon":24.27986700,"rng_nm":75,"alt_fmsl":0,"id":"BB","desc":"BIBRKA NDB"},
{"type":"VOR","hdg_t":359.5,"dist_nm":93,"freq":113.4,"lat":52.15333300,"lon":26.13166700,"rng_nm":40,"alt_fmsl":476,"id":"PNK","desc":"PINSK VOR-DME"},
{"type":"NDB","hdg_t":239.9,"dist_nm":96.5,"freq":315,"lat":49.77938200,"lon":24.00347100,"rng_nm":25,"alt_fmsl":0,"id":"LV","desc":"LVIV NDB"},
{"type":"NDB","hdg_t":240.8,"dist_nm":96.8,"freq":650,"lat":49.79743800,"lon":23.97680300,"rng_nm":25,"alt_fmsl":0,"id":"V","desc":"LVIV NDB"},
{"type":"VOR","hdg_t":241.5,"dist_nm":97.2,"freq":115.5,"lat":49.81160400,"lon":23.95096900,"rng_nm":130,"alt_fmsl":1094,"id":"LIV","desc":"LVIV VOR-DME"},
{"type":"NDB","hdg_t":94.2,"dist_nm":97.6,"freq":525,"lat":50.45640900,"lon":28.69153800,"rng_nm":75,"alt_fmsl":0,"id":"CH","desc":"CHERNIAKHIV NDB"},
{"type":"NDB","hdg_t":243.2,"dist_nm":97.9,"freq":315,"lat":49.84854800,"lon":23.89985600,"rng_nm":25,"alt_fmsl":0,"id":"LO","desc":"LVIV NDB"}
]
}
