{"success":true,"source":"xp2csv.pl","last_updated":"2013/11/08 14:53:21 UTC"
,"icao":"UNBB","name":"Barnaul","lat":53.3637735,"lon":83.5385335,"rwys":1,"ils":2,"index":4318162,"path":"e080n50/e083n53"
,"runways":[
{"len_m":2854,"wid_m":49.99,"hdg":67,"surf":"Concrete","rwy1":"06","lat1":53.35881400,"lon1":83.51876400,"rwy2":"24","lat2":53.36873300,"lon2":83.55830300}
]
,"radios":[
{"type":"TWR","freq":123.5,"desc":"TWR"},
{"type":"APP","freq":129,"desc":"APP"},
{"type":"APP","freq":120.3,"desc":"APP"},
{"type":"APP","freq":124,"desc":"APP"}
]
,"ils":[
{"type":"ILS","freq":110.3,"lat":53.37333300,"lon":83.57000000,"rng_nm":18,"alt_fmsl":838,"hdg":64.62,"id":"IBU","rwy":"06","desc":"ILS-cat-I"},
{"type":"ILS","freq":108.7,"lat":53.35782500,"lon":83.51770600,"rng_nm":18,"alt_fmsl":838,"hdg":245.74,"id":"IAR","rwy":"24","desc":"ILS-cat-I"},
{"type":"GS","freq":110.3,"lat":53.36166700,"lon":83.52833300,"rng_nm":10,"alt_fmsl":838,"id":"IBU","rwy":"06","desc":"GS","gs":2.7},
{"type":"GS","freq":108.7,"lat":53.36626700,"lon":83.55622500,"rng_nm":10,"alt_fmsl":838,"id":"IAR","rwy":"24","desc":"GS","gs":2.7},
{"type":"OM","freq":0,"lat":53.34500000,"lon":83.46500000,"rng_nm":0,"alt_fmsl":838,"id":"----","rwy":"06","desc":"OM"},
{"type":"OM","freq":0,"lat":53.38000000,"lon":83.61166700,"rng_nm":0,"alt_fmsl":838,"id":"----","rwy":"24","desc":"OM"},
{"type":"MM","freq":0,"lat":53.35666700,"lon":83.51166700,"rng_nm":0,"alt_fmsl":838,"id":"----","rwy":"06","desc":"MM"},
{"type":"MM","freq":0,"lat":53.37166700,"lon":83.57333300,"rng_nm":0,"alt_fmsl":838,"id":"----","rwy":"24","desc":"MM"}
]
,"navaids":[
{"type":"NDB","hdg_t":69.6,"dist_nm":2.8,"freq":428,"lat":53.38000000,"lon":83.61166700,"rng_nm":80,"alt_fmsl":0,"id":"AR","desc":"BARNAUL NDB"},
{"type":"NDB","hdg_t":246.9,"dist_nm":2.8,"freq":428,"lat":53.34500000,"lon":83.46500000,"rng_nm":80,"alt_fmsl":0,"id":"BU","desc":"BARNAUL NDB"},
{"type":"NDB","hdg_t":259,"dist_nm":19.7,"freq":399,"lat":53.30000000,"lon":83.00000000,"rng_nm":80,"alt_fmsl":0,"id":"SR","desc":"PAVLOVSK NDB"},
{"type":"NDB","hdg_t":340.9,"dist_nm":64.9,"freq":750,"lat":54.38333300,"lon":82.93333300,"rng_nm":75,"alt_fmsl":0,"id":"NR","desc":"NOVOLOKTI NDB"},
{"type":"NDB","hdg_t":7.2,"dist_nm":76.9,"freq":320,"lat":54.63333300,"lon":83.81666700,"rng_nm":80,"alt_fmsl":0,"id":"OC","desc":"LEGOSTAYEVO NDB"},
{"type":"NDB","hdg_t":349.4,"dist_nm":83.3,"freq":465,"lat":54.72666700,"lon":83.09833300,"rng_nm":113,"alt_fmsl":0,"id":"NB","desc":"Berdsk NDB"},
{"type":"NDB","hdg_t":128,"dist_nm":85.9,"freq":375,"lat":52.46666700,"lon":85.38333300,"rng_nm":80,"alt_fmsl":0,"id":"LE","desc":"BIYSK NDB"},
{"type":"NDB","hdg_t":350.5,"dist_nm":95.6,"freq":1170,"lat":54.93333300,"lon":83.08333300,"rng_nm":80,"alt_fmsl":0,"id":"EB","desc":"MATVEYEVSKY NDB"},
{"type":"NDB","hdg_t":344.5,"dist_nm":103.4,"freq":310,"lat":55.02000000,"lon":82.74166700,"rng_nm":80,"alt_fmsl":0,"id":"KT","desc":"NOVOSIBIRSK NDB"},
{"type":"VOR","hdg_t":342.6,"dist_nm":104,"freq":113.3,"lat":55.01333300,"lon":82.64000000,"rng_nm":130,"alt_fmsl":388,"id":"NSK","desc":"NOVOSIBIRSK VOR-DME"}
]
}
