{"success":true,"source":"xp2csv.pl","last_updated":"2013/11/08 14:53:21 UTC"
,"icao":"UTDD","name":"Dushanbe","lat":38.543486,"lon":68.8246375,"rwys":1,"ils":0,"index":4071459,"path":"e060n30/e068n38"
,"runways":[
{"len_m":3102,"wid_m":44.81,"hdg":90,"surf":"Asphalt","rwy1":"09","lat1":38.54350300,"lon1":68.80684400,"rwy2":"27","lat2":38.54346900,"lon2":68.84243100}
]
,"radios":[
{"type":"ATIS","freq":126.2,"desc":"ATIS"},
{"type":"GND","freq":121.7,"desc":"GND"},
{"type":"TWR","freq":119.2,"desc":"TWR"},
{"type":"APP","freq":127.1,"desc":"APP"}
]
,"navaids":[
{"type":"VOR","hdg_t":259.8,"dist_nm":0.6,"freq":113.6,"lat":38.54166700,"lon":68.81166700,"rng_nm":130,"alt_fmsl":2589,"id":"DNB","desc":"DUSHANBE VOR-DME"},
{"type":"NDB","hdg_t":90.1,"dist_nm":2.8,"freq":420,"lat":38.54333300,"lon":68.88500000,"rng_nm":50,"alt_fmsl":0,"id":"WG","desc":"DUSHANBE NDB"},
{"type":"NDB","hdg_t":269.8,"dist_nm":3.2,"freq":372,"lat":38.54333300,"lon":68.75500000,"rng_nm":50,"alt_fmsl":0,"id":"FN","desc":"DUSHANBE NDB"},
{"type":"NDB","hdg_t":2.2,"dist_nm":17.9,"freq":505,"lat":38.84333300,"lon":68.84000000,"rng_nm":50,"alt_fmsl":0,"id":"SX","desc":"PUGUS NDB"},
{"type":"NDB","hdg_t":268.3,"dist_nm":19.9,"freq":310,"lat":38.53333300,"lon":68.40166700,"rng_nm":50,"alt_fmsl":0,"id":"PR","desc":"OKTYABRSKY NDB"},
{"type":"NDB","hdg_t":89.8,"dist_nm":23,"freq":475,"lat":38.54333300,"lon":69.31333300,"rng_nm":50,"alt_fmsl":0,"id":"JD","desc":"FAYZABAD NDB"},
{"type":"NDB","hdg_t":138.7,"dist_nm":36.5,"freq":1000,"lat":38.08333300,"lon":69.33333300,"rng_nm":50,"alt_fmsl":0,"id":"HU","desc":"DANGARA NDB"},
{"type":"NDB","hdg_t":128,"dist_nm":58.1,"freq":298,"lat":37.94166700,"lon":69.79000000,"rng_nm":50,"alt_fmsl":0,"id":"CG","desc":"KULYAB NDB"},
{"type":"NDB","hdg_t":229.4,"dist_nm":80.5,"freq":205,"lat":37.66333300,"lon":67.54000000,"rng_nm":50,"alt_fmsl":0,"id":"TD","desc":"KAKAYDY NDB"},
{"type":"NDB","hdg_t":227.7,"dist_nm":85.7,"freq":205,"lat":37.57333300,"lon":67.49500000,"rng_nm":50,"alt_fmsl":0,"id":"GZ","desc":"KAKAYDY NDB"},
{"type":"NDB","hdg_t":3.6,"dist_nm":90.4,"freq":385,"lat":40.05000000,"lon":68.95000000,"rng_nm":50,"alt_fmsl":0,"id":"PF","desc":"URA TYUBE NDB"},
{"type":"NDB","hdg_t":306.1,"dist_nm":91,"freq":635,"lat":39.42833300,"lon":67.24333300,"rng_nm":50,"alt_fmsl":0,"id":"DS","desc":"URGUT NDB"},
{"type":"NDB","hdg_t":239.2,"dist_nm":99.2,"freq":340,"lat":37.68333300,"lon":67.03333300,"rng_nm":50,"alt_fmsl":0,"id":"HA","desc":"SHERABAD NDB"}
]
}
