{"success":true,"source":"xp2csv.pl","last_updated":"2013/11/08 14:53:21 UTC"
,"icao":"UUMO","name":"Ostafievo","lat":55.515354126,"lon":37.50155147,"rwys":1,"ils":1,"index":3564642,"path":"e030n50/e037n55"
,"runways":[
{"len_m":2058,"wid_m":47.85,"hdg":84,"surf":"Concrete","rwy1":"08","lat1":55.50678989,"lon1":37.48765372,"rwy2":"26","lat2":55.50846240,"lon2":37.52009998}
]
,"helipads":[
{"rwy1":"H1","len_m":11,"wid_m":11.89,"hdg":37,"surf":"Concrete","lat1":55.51749209,"lon1":37.50120505},
{"rwy1":"H2","len_m":13,"wid_m":11.89,"hdg":37,"surf":"Concrete","lat1":55.51735777,"lon1":37.50105033},
{"rwy1":"H3","len_m":13,"wid_m":11.89,"hdg":37,"surf":"Concrete","lat1":55.51721738,"lon1":37.50088892},
{"rwy1":"H4","len_m":14,"wid_m":13.11,"hdg":37,"surf":"Concrete","lat1":55.51707724,"lon1":37.50073620}
]
,"radios":[
{"type":"ATIS","freq":127.6,"desc":"Ostafievo ATIS"},
{"type":"TWR","freq":119.2,"desc":"Ostafievo Tower"},
{"type":"APP","freq":124,"desc":"Nebesniy Podhod"}
]
,"ils":[
{"type":"ILS","freq":108.3,"lat":55.50636673,"lon":37.48083496,"rng_nm":50,"alt_fmsl":561,"hdg":264.62,"id":"IPS","rwy":"26","desc":"ILS-cat-I"},
{"type":"GS","freq":108.3,"lat":55.50754929,"lon":37.51566696,"rng_nm":50,"alt_fmsl":561,"id":"IPS","rwy":"26","desc":"GS","gs":3.1},
{"type":"OM","freq":0,"lat":55.51183319,"lon":37.58458328,"rng_nm":0,"alt_fmsl":561,"id":"----","rwy":"26","desc":"OM"},
{"type":"IM","freq":0,"lat":55.50916672,"lon":37.53250122,"rng_nm":0,"alt_fmsl":561,"id":"----","rwy":"26","desc":"IM"}
]
,"navaids":[
{"type":"NDB","hdg_t":237.2,"dist_nm":1,"freq":305,"lat":55.50628281,"lon":37.47668457,"rng_nm":22,"alt_fmsl":541,"id":"N","desc":"OSTAFIEVO NDB"},
{"type":"NDB","hdg_t":109.4,"dist_nm":1.1,"freq":305,"lat":55.50915146,"lon":37.53250122,"rng_nm":22,"alt_fmsl":561,"id":"P","desc":"OSTAFIEVO NDB"},
{"type":"NDB","hdg_t":252.8,"dist_nm":2.2,"freq":625,"lat":55.50450134,"lon":37.43976593,"rng_nm":112,"alt_fmsl":450,"id":"NV","desc":"OSTAFIEVO NDB"},
{"type":"NDB","hdg_t":94.2,"dist_nm":2.8,"freq":625,"lat":55.51184845,"lon":37.58454895,"rng_nm":112,"alt_fmsl":568,"id":"PS","desc":"OSTAFIEVO NDB"},
{"type":"NDB","hdg_t":318.6,"dist_nm":7.7,"freq":290,"lat":55.61166700,"lon":37.35166700,"rng_nm":50,"alt_fmsl":0,"id":"OB","desc":"VNUKOVO NDB"},
{"type":"NDB","hdg_t":308,"dist_nm":8.4,"freq":595,"lat":55.60166700,"lon":37.30666700,"rng_nm":25,"alt_fmsl":0,"id":"O","desc":"VNUKOVO NDB"},
{"type":"NDB","hdg_t":294,"dist_nm":9.3,"freq":949,"lat":55.57833300,"lon":37.25166700,"rng_nm":25,"alt_fmsl":0,"id":"W","desc":"VNUKOVO NDB"},
{"type":"NDB","hdg_t":284.7,"dist_nm":9.4,"freq":468,"lat":55.55500000,"lon":37.23333300,"rng_nm":80,"alt_fmsl":0,"id":"WM","desc":"VNUKOVO NDB"},
{"type":"NDB","hdg_t":310.3,"dist_nm":9.7,"freq":949,"lat":55.62000000,"lon":37.28333300,"rng_nm":25,"alt_fmsl":0,"id":"T","desc":"VNUKOVO NDB"},
{"type":"NDB","hdg_t":173.7,"dist_nm":9.9,"freq":1005,"lat":55.35000000,"lon":37.53333300,"rng_nm":80,"alt_fmsl":0,"id":"LO","desc":"KLIMOVSK NDB"},
{"type":"NDB","hdg_t":316.7,"dist_nm":10.1,"freq":468,"lat":55.63833300,"lon":37.29666700,"rng_nm":80,"alt_fmsl":0,"id":"TQ","desc":"VNUKOVO NDB"},
{"type":"NDB","hdg_t":293.8,"dist_nm":10.1,"freq":595,"lat":55.58333300,"lon":37.22833300,"rng_nm":25,"alt_fmsl":0,"id":"G","desc":"VNUKOVO NDB"},
{"type":"NDB","hdg_t":66.8,"dist_nm":10.4,"freq":1215,"lat":55.58333300,"lon":37.78333300,"rng_nm":80,"alt_fmsl":0,"id":"WT","desc":"KARTINO NDB"},
{"type":"NDB","hdg_t":288.6,"dist_nm":11.3,"freq":290,"lat":55.57500000,"lon":37.18666700,"rng_nm":80,"alt_fmsl":0,"id":"GG","desc":"VNUKOVO NDB"},
{"type":"NDB","hdg_t":108.2,"dist_nm":12.1,"freq":659,"lat":55.45166700,"lon":37.83833300,"rng_nm":80,"alt_fmsl":0,"id":"DM","desc":"DOMODEDOVO NDB"},
{"type":"NDB","hdg_t":106.1,"dist_nm":13.2,"freq":437,"lat":55.45333300,"lon":37.87500000,"rng_nm":80,"alt_fmsl":0,"id":"DW","desc":"DOMODEDOVO NDB"},
{"type":"NDB","hdg_t":112.3,"dist_nm":13.4,"freq":320,"lat":55.43000000,"lon":37.86500000,"rng_nm":25,"alt_fmsl":0,"id":"M","desc":"DOMODEDOVO NDB"},
{"type":"NDB","hdg_t":110.1,"dist_nm":14.5,"freq":887,"lat":55.43166700,"lon":37.90000000,"rng_nm":25,"alt_fmsl":0,"id":"W","desc":"DOMODEDOVO NDB"},
{"type":"VOR","hdg_t":118.3,"dist_nm":16,"freq":113.3,"lat":55.38833237,"lon":37.91333389,"rng_nm":130,"alt_fmsl":507,"id":"DMD","desc":"Domodedovo VOR-DME"},
{"type":"NDB","hdg_t":118.5,"dist_nm":16.1,"freq":320,"lat":55.38666700,"lon":37.91500000,"rng_nm":25,"alt_fmsl":0,"id":"O","desc":"DOMODEDOVO NDB"},
{"type":"NDB","hdg_t":120.8,"dist_nm":17.5,"freq":659,"lat":55.36500000,"lon":37.94166700,"rng_nm":80,"alt_fmsl":0,"id":"DO","desc":"DOMODEDOVO NDB"},
{"type":"NDB","hdg_t":118.5,"dist_nm":18.5,"freq":437,"lat":55.36666700,"lon":37.97833300,"rng_nm":80,"alt_fmsl":0,"id":"DE","desc":"DOMODEDOVO NDB"},
{"type":"NDB","hdg_t":194.4,"dist_nm":18.5,"freq":415,"lat":55.21666700,"lon":37.36666700,"rng_nm":80,"alt_fmsl":0,"id":"DR","desc":"SKURYGINO NDB"},
{"type":"NDB","hdg_t":337.4,"dist_nm":20.7,"freq":565,"lat":55.83333300,"lon":37.26666700,"rng_nm":80,"alt_fmsl":0,"id":"KS","desc":"OPALIKHA NDB"},
{"type":"NDB","hdg_t":154,"dist_nm":23.6,"freq":1020,"lat":55.16166700,"lon":37.80166700,"rng_nm":80,"alt_fmsl":0,"id":"DK","desc":"GLOTAYEVO NDB"},
{"type":"NDB","hdg_t":14.8,"dist_nm":23.9,"freq":680,"lat":55.90000000,"lon":37.68333300,"rng_nm":80,"alt_fmsl":0,"id":"BP","desc":"CHELOBITYEVO NDB"},
{"type":"NDB","hdg_t":223.9,"dist_nm":24.8,"freq":230,"lat":55.21666700,"lon":37.00000000,"rng_nm":80,"alt_fmsl":0,"id":"WZ","desc":"KAMENKA NDB"},
{"type":"NDB","hdg_t":65.1,"dist_nm":26.7,"freq":493,"lat":55.70000000,"lon":38.21666700,"rng_nm":80,"alt_fmsl":0,"id":"RW","desc":"MARYINO NDB"},
{"type":"NDB","hdg_t":347.6,"dist_nm":27.2,"freq":380,"lat":55.95833300,"lon":37.32833300,"rng_nm":50,"alt_fmsl":0,"id":"NL","desc":"SHEREMETYEVO NDB"},
{"type":"NDB","hdg_t":347.4,"dist_nm":27.3,"freq":700,"lat":55.96000000,"lon":37.32500000,"rng_nm":50,"alt_fmsl":0,"id":"MR","desc":"SHEREMETYEVO NDB"},
{"type":"VOR","hdg_t":349.1,"dist_nm":27.3,"freq":114.6,"lat":55.96166700,"lon":37.34833300,"rng_nm":130,"alt_fmsl":656,"id":"MR","desc":"SHEREMETYEVO VOR-DME"},
{"type":"NDB","hdg_t":350.9,"dist_nm":27.4,"freq":338,"lat":55.96666700,"lon":37.37333300,"rng_nm":25,"alt_fmsl":0,"id":"M","desc":"SHEREMETYEVO NDB"},
{"type":"NDB","hdg_t":357.4,"dist_nm":27.8,"freq":770,"lat":55.97833300,"lon":37.46500000,"rng_nm":25,"alt_fmsl":0,"id":"B","desc":"SHEREMETYEVO NDB"},
{"type":"NDB","hdg_t":357.2,"dist_nm":27.9,"freq":338,"lat":55.98000000,"lon":37.46166700,"rng_nm":25,"alt_fmsl":0,"id":"A","desc":"SHEREMETYEVO NDB"},
{"type":"NDB","hdg_t":0.5,"dist_nm":28.2,"freq":380,"lat":55.98500000,"lon":37.51000000,"rng_nm":80,"alt_fmsl":0,"id":"BW","desc":"SHEREMETYEVO NDB"},
{"type":"NDB","hdg_t":0,"dist_nm":28.3,"freq":700,"lat":55.98666700,"lon":37.50166700,"rng_nm":80,"alt_fmsl":0,"id":"AD","desc":"SHEREMETYEVO NDB"},
{"type":"NDB","hdg_t":317,"dist_nm":28.9,"freq":405,"lat":55.86666700,"lon":36.91666700,"rng_nm":80,"alt_fmsl":0,"id":"UM","desc":"IVANOVSKOYE NDB"},
{"type":"NDB","hdg_t":128.7,"dist_nm":34.8,"freq":732,"lat":55.15000000,"lon":38.29000000,"rng_nm":80,"alt_fmsl":0,"id":"QO","desc":"AKSINYINO NDB"},
{"type":"NDB","hdg_t":320,"dist_nm":36.8,"freq":1080,"lat":55.98333300,"lon":36.80000000,"rng_nm":80,"alt_fmsl":0,"id":"AR","desc":"BUZHAROVO NDB"},
{"type":"NDB","hdg_t":8.6,"dist_nm":47.7,"freq":642,"lat":56.30000000,"lon":37.71666700,"rng_nm":80,"alt_fmsl":0,"id":"KN","desc":"KOSTINO NDB"},
{"type":"NDB","hdg_t":357.4,"dist_nm":51.2,"freq":1285,"lat":56.36666700,"lon":37.43333300,"rng_nm":80,"alt_fmsl":0,"id":"SW","desc":"SAVELOVO NDB"},
{"type":"NDB","hdg_t":186,"dist_nm":55.3,"freq":1055,"lat":54.60000000,"lon":37.33333300,"rng_nm":80,"alt_fmsl":0,"id":"IN","desc":"SUKHOTINO NDB"},
{"type":"NDB","hdg_t":212.3,"dist_nm":55.4,"freq":688,"lat":54.73333300,"lon":36.65000000,"rng_nm":80,"alt_fmsl":0,"id":"IP","desc":"ZAKHAROVKA NDB"},
{"type":"NDB","hdg_t":159.8,"dist_nm":74.4,"freq":335,"lat":54.35000000,"lon":38.23333300,"rng_nm":80,"alt_fmsl":0,"id":"FV","desc":"VENEV NDB"},
{"type":"NDB","hdg_t":65.8,"dist_nm":78.6,"freq":478,"lat":56.03333300,"lon":39.63333300,"rng_nm":80,"alt_fmsl":0,"id":"MF","desc":"LARIONOVO NDB"},
{"type":"NDB","hdg_t":272.4,"dist_nm":84.1,"freq":985,"lat":55.55000000,"lon":35.03333300,"rng_nm":80,"alt_fmsl":0,"id":"FK","desc":"GAGARIN NDB"},
{"type":"NDB","hdg_t":87.5,"dist_nm":85.2,"freq":410,"lat":55.55000000,"lon":40.00000000,"rng_nm":80,"alt_fmsl":0,"id":"SF","desc":"CHERUSTI NDB"},
{"type":"NDB","hdg_t":147.2,"dist_nm":91,"freq":570,"lat":54.23333300,"lon":38.90000000,"rng_nm":80,"alt_fmsl":0,"id":"FE","desc":"OKTYABRSKY NDB"},
{"type":"NDB","hdg_t":283.1,"dist_nm":91.5,"freq":745,"lat":55.83333300,"lon":34.86666700,"rng_nm":80,"alt_fmsl":0,"id":"BG","desc":"KARMANOVO NDB"},
{"type":"NDB","hdg_t":240,"dist_nm":91.6,"freq":350,"lat":54.73333300,"lon":35.21666700,"rng_nm":80,"alt_fmsl":0,"id":"UK","desc":"YUKHNOV NDB"},
{"type":"NDB","hdg_t":10.1,"dist_nm":92.7,"freq":900,"lat":57.03333300,"lon":38.00000000,"rng_nm":80,"alt_fmsl":0,"id":"NE","desc":"NERL NDB"},
{"type":"NDB","hdg_t":4.2,"dist_nm":95.5,"freq":360,"lat":57.10000000,"lon":37.71666700,"rng_nm":80,"alt_fmsl":0,"id":"BD","desc":"BOGDANOVO NDB"},
{"type":"NDB","hdg_t":325.6,"dist_nm":96.9,"freq":449,"lat":56.83666700,"lon":35.84166700,"rng_nm":80,"alt_fmsl":0,"id":"KU","desc":"TVER NDB"},
{"type":"NDB","hdg_t":322.6,"dist_nm":99.1,"freq":449,"lat":56.81333300,"lon":35.67833300,"rng_nm":80,"alt_fmsl":0,"id":"MW","desc":"TVER NDB"}
]
}
