{"success":true,"source":"xp2csv.pl","last_updated":"2013/11/08 14:53:21 UTC"
,"icao":"VA78","name":"Wharton Field","lat":37.59458888,"lon":-77.21775306,"rwys":1,"ils":0,"index":1679331,"path":"w080n30/w078n37"
,"runways":[
{"len_m":534,"wid_m":15.24,"hdg":305,"surf":"Turf/grass","rwy1":"32","lat1":37.59317813,"lon1":-77.21530246,"rwy2":"14","lat2":37.59599963,"lon2":-77.22020366}
]
,"navaids":[
{"type":"VOR","hdg_t":221.5,"dist_nm":7.3,"freq":114.1,"lat":37.50236111,"lon":-77.32027778,"rng_nm":130,"alt_fmsl":159,"id":"RIC","desc":"RICHMOND VORTAC"},
{"type":"DME","hdg_t":301.9,"dist_nm":11.9,"freq":109.7,"lat":37.70029889,"lon":-77.43139970,"rng_nm":18,"alt_fmsl":208,"id":"KOFP","desc":"16 DME-ILS"},
{"type":"VOR","hdg_t":162.9,"dist_nm":16.6,"freq":112,"lat":37.32886111,"lon":-77.11594444,"rng_nm":40,"alt_fmsl":70,"id":"HPW","desc":"HOPEWELL VORTAC"},
{"type":"VOR","hdg_t":109.7,"dist_nm":25.7,"freq":108.8,"lat":37.44866667,"lon":-76.71136111,"rng_nm":40,"alt_fmsl":8,"id":"HCM","desc":"HARCUM VORTAC"},
{"type":"VOR","hdg_t":262.4,"dist_nm":29.3,"freq":113.3,"lat":37.52850000,"lon":-77.82822222,"rng_nm":130,"alt_fmsl":460,"id":"FAK","desc":"FLAT ROCK VORTAC"},
{"type":"NDB","hdg_t":350.2,"dist_nm":29.9,"freq":396,"lat":38.08777778,"lon":-77.32491667,"rng_nm":50,"alt_fmsl":0,"id":"APH","desc":"A P HILL NDB"},
{"type":"NDB","hdg_t":10.4,"dist_nm":30.8,"freq":396,"lat":38.10000000,"lon":-77.10000000,"rng_nm":50,"alt_fmsl":99,"id":"ZZA","desc":"ZZZ TEST A NDB"},
{"type":"NDB","hdg_t":211.6,"dist_nm":32.6,"freq":284,"lat":37.13027778,"lon":-77.57447222,"rng_nm":50,"alt_fmsl":0,"id":"PTB","desc":"PETERSBURG NDB"},
{"type":"NDB","hdg_t":1.3,"dist_nm":36.2,"freq":397,"lat":38.20000000,"lon":-77.20000000,"rng_nm":50,"alt_fmsl":99,"id":"ZZB","desc":"ZZZ TEST B NDB"},
{"type":"NDB","hdg_t":164.1,"dist_nm":38,"freq":274,"lat":36.98319444,"lon":-77.00108333,"rng_nm":50,"alt_fmsl":0,"id":"AKQ","desc":"WAKEFIELD NDB"},
{"type":"NDB","hdg_t":133.4,"dist_nm":39.5,"freq":226,"lat":37.13877778,"lon":-76.61855556,"rng_nm":50,"alt_fmsl":0,"id":"FAF","desc":"FELKER NDB"},
{"type":"NDB","hdg_t":344.7,"dist_nm":41.7,"freq":237,"lat":38.26638889,"lon":-77.45080556,"rng_nm":50,"alt_fmsl":0,"id":"EZF","desc":"SHANNON NDB"},
{"type":"VOR","hdg_t":354.7,"dist_nm":42.4,"freq":116.7,"lat":38.30000000,"lon":-77.30000000,"rng_nm":100,"alt_fmsl":57,"id":"ZZC","desc":"ZZZ TEST C VOR-DME"},
{"type":"NDB","hdg_t":128.3,"dist_nm":44.3,"freq":375,"lat":37.13280556,"lon":-76.49319444,"rng_nm":50,"alt_fmsl":0,"id":"PJS","desc":"HENRY NDB"},
{"type":"VOR","hdg_t":351.8,"dist_nm":44.9,"freq":114.5,"lat":38.33627778,"lon":-77.35291667,"rng_nm":40,"alt_fmsl":145,"id":"BRV","desc":"BROOKE VORTAC"},
{"type":"NDB","hdg_t":234.9,"dist_nm":48.4,"freq":326,"lat":37.12744444,"lon":-78.04452778,"rng_nm":50,"alt_fmsl":0,"id":"BKT","desc":"BLACKSTONE NDB"},
{"type":"SDME","hdg_t":349.9,"dist_nm":49,"freq":108.75,"lat":38.40000000,"lon":-77.40000000,"rng_nm":25,"alt_fmsl":172,"id":"ZZ","desc":"ZZZ TEST D DME"},
{"type":"VOR","hdg_t":299.7,"dist_nm":51,"freq":115.6,"lat":38.01361111,"lon":-78.15302778,"rng_nm":130,"alt_fmsl":382,"id":"GVE","desc":"GORDONSVILLE VORTAC"},
{"type":"SDME","hdg_t":126.3,"dist_nm":51.1,"freq":112.3,"lat":37.08556100,"lon":-76.35941100,"rng_nm":40,"alt_fmsl":11,"id":"LFI","desc":"LANGLEY TACAN"},
{"type":"VOR","hdg_t":169.3,"dist_nm":53.6,"freq":110.6,"lat":36.71425000,"lon":-77.01238889,"rng_nm":40,"alt_fmsl":84,"id":"FKN","desc":"FRANKLIN VORTAC"},
{"type":"NDB","hdg_t":42.7,"dist_nm":56.6,"freq":400,"lat":38.28594444,"lon":-76.40325000,"rng_nm":50,"alt_fmsl":0,"id":"NHK","desc":"PATUXENT NDB"},
{"type":"VOR","hdg_t":42.7,"dist_nm":56.8,"freq":117.6,"lat":38.28786111,"lon":-76.40022222,"rng_nm":40,"alt_fmsl":20,"id":"PXT","desc":"PATUXENT VORTAC"},
{"type":"VOR","hdg_t":215.4,"dist_nm":56.9,"freq":112.9,"lat":36.81802778,"lon":-77.90297222,"rng_nm":40,"alt_fmsl":350,"id":"LVL","desc":"LAWRENCEVILLE VORTAC"},
{"type":"NDB","hdg_t":189.7,"dist_nm":59.3,"freq":261,"lat":36.61797222,"lon":-77.42550000,"rng_nm":50,"alt_fmsl":0,"id":"ELQ","desc":"EMPORIA NDB"},
{"type":"SDME","hdg_t":130.7,"dist_nm":59.7,"freq":111.1,"lat":36.93998100,"lon":-76.27729400,"rng_nm":40,"alt_fmsl":45,"id":"NGU","desc":"CHAMBERS TACAN"},
{"type":"NDB","hdg_t":256.4,"dist_nm":60,"freq":367,"lat":37.35300000,"lon":-78.43752778,"rng_nm":50,"alt_fmsl":0,"id":"FVX","desc":"FARMVILLE NDB"},
{"type":"VOR","hdg_t":103.8,"dist_nm":60.1,"freq":112.2,"lat":37.34752778,"lon":-75.99766667,"rng_nm":40,"alt_fmsl":10,"id":"CCV","desc":"CAPE CHARLES VORTAC"},
{"type":"NDB","hdg_t":327.8,"dist_nm":60.9,"freq":351,"lat":38.45433333,"lon":-77.90527778,"rng_nm":50,"alt_fmsl":0,"id":"MSQ","desc":"NAILR NDB"},
{"type":"NDB","hdg_t":4.5,"dist_nm":64.1,"freq":223,"lat":38.66163889,"lon":-77.11016667,"rng_nm":50,"alt_fmsl":0,"id":"DAA","desc":"DAVEE NDB"},
{"type":"VOR","hdg_t":130.5,"dist_nm":64.4,"freq":116.9,"lat":36.89188889,"lon":-76.20033333,"rng_nm":130,"alt_fmsl":20,"id":"ORF","desc":"NORFOLK VORTAC"},
{"type":"NDB","hdg_t":133.9,"dist_nm":64.7,"freq":329,"lat":36.84047222,"lon":-76.25122222,"rng_nm":50,"alt_fmsl":0,"id":"OR","desc":"INGLE NDB"},
{"type":"NDB","hdg_t":292.3,"dist_nm":66.6,"freq":336,"lat":38.01016667,"lon":-78.51808333,"rng_nm":50,"alt_fmsl":0,"id":"AZS","desc":"AZALEA PARK NDB"},
{"type":"NDB","hdg_t":90.7,"dist_nm":67.7,"freq":336,"lat":37.57030556,"lon":-75.79830556,"rng_nm":50,"alt_fmsl":0,"id":"BDB","desc":"ACCOMACK NDB"},
{"type":"NDB","hdg_t":13.8,"dist_nm":68.3,"freq":360,"lat":38.70077778,"lon":-76.87022222,"rng_nm":50,"alt_fmsl":0,"id":"RW","desc":"KIRBE NDB"},
{"type":"VOR","hdg_t":334.1,"dist_nm":69.8,"freq":116.3,"lat":38.64119444,"lon":-77.86550000,"rng_nm":130,"alt_fmsl":439,"id":"CSN","desc":"CASANOVA VORTAC"},
{"type":"NDB","hdg_t":10,"dist_nm":70.2,"freq":241,"lat":38.74888900,"lon":-76.95611100,"rng_nm":25,"alt_fmsl":115,"id":"VKX","desc":"POTOMAC NDB"},
{"type":"VOR","hdg_t":18.4,"dist_nm":70.2,"freq":113.7,"lat":38.70586111,"lon":-76.74475000,"rng_nm":40,"alt_fmsl":210,"id":"OTT","desc":"NOTTINGHAM VORTAC"},
{"type":"NDB","hdg_t":7.2,"dist_nm":70.7,"freq":332,"lat":38.76594444,"lon":-77.02738889,"rng_nm":50,"alt_fmsl":0,"id":"DC","desc":"OXONN NDB"},
{"type":"NDB","hdg_t":214.5,"dist_nm":71.1,"freq":373,"lat":36.61455556,"lon":-78.05316667,"rng_nm":50,"alt_fmsl":0,"id":"AEA","desc":"JONES NDB"},
{"type":"NDB","hdg_t":198.9,"dist_nm":73,"freq":407,"lat":36.44097222,"lon":-77.70830556,"rng_nm":50,"alt_fmsl":0,"id":"RZZ","desc":"RAPIDS NDB"},
{"type":"SDME","hdg_t":128.8,"dist_nm":73,"freq":116.6,"lat":36.82421900,"lon":-76.03704700,"rng_nm":40,"alt_fmsl":64,"id":"NTU","desc":"OCEANA TACAN"},
{"type":"VOR","hdg_t":12.7,"dist_nm":74.5,"freq":113.1,"lat":38.80722222,"lon":-76.86625000,"rng_nm":40,"alt_fmsl":260,"id":"ADW","desc":"ANDREWS VORTAC"},
{"type":"VOR","hdg_t":167,"dist_nm":75,"freq":114.6,"lat":36.37291667,"lon":-76.87152778,"rng_nm":40,"alt_fmsl":70,"id":"CVI","desc":"COFIELD VORTAC"},
{"type":"NDB","hdg_t":352.1,"dist_nm":75.7,"freq":346,"lat":38.84727778,"lon":-77.43788889,"rng_nm":50,"alt_fmsl":0,"id":"IA","desc":"TILLE NDB"},
{"type":"VOR","hdg_t":6.3,"dist_nm":76.2,"freq":111,"lat":38.85944444,"lon":-77.03644444,"rng_nm":40,"alt_fmsl":10,"id":"DCA","desc":"WASHINGTON VOR-DME"},
{"type":"NDB","hdg_t":44.5,"dist_nm":79.7,"freq":355,"lat":38.53725000,"lon":-76.03058333,"rng_nm":50,"alt_fmsl":0,"id":"CGE","desc":"CAMBRIDGE NDB"},
{"type":"NDB","hdg_t":3.1,"dist_nm":80.1,"freq":323,"lat":38.92988889,"lon":-77.12422222,"rng_nm":50,"alt_fmsl":0,"id":"GTN","desc":"GEORGETOWN NDB"},
{"type":"NDB","hdg_t":11.5,"dist_nm":81.1,"freq":232,"lat":38.92000000,"lon":-76.87166700,"rng_nm":25,"alt_fmsl":74,"id":"MX","desc":"ZOOTE NDB"},
{"type":"VOR","hdg_t":351.7,"dist_nm":81.1,"freq":113.5,"lat":38.93458333,"lon":-77.46669444,"rng_nm":40,"alt_fmsl":297,"id":"AML","desc":"ARMEL VORTAC"},
{"type":"NDB","hdg_t":340.6,"dist_nm":86.4,"freq":227,"lat":38.95400000,"lon":-77.83111111,"rng_nm":50,"alt_fmsl":0,"id":"GDX","desc":"GOODWIN LAKE NDB"},
{"type":"VOR","hdg_t":71,"dist_nm":87.8,"freq":112.4,"lat":38.05658333,"lon":-75.46388889,"rng_nm":40,"alt_fmsl":34,"id":"SWL","desc":"SNOW HILL VORTAC"},
{"type":"VOR","hdg_t":328.5,"dist_nm":88.7,"freq":114.3,"lat":38.85438889,"lon":-78.20555556,"rng_nm":40,"alt_fmsl":2440,"id":"LDN","desc":"LINDEN VORTAC"},
{"type":"NDB","hdg_t":318.5,"dist_nm":88.9,"freq":245,"lat":38.69955556,"lon":-78.47166667,"rng_nm":50,"alt_fmsl":0,"id":"LUA","desc":"CAVERNS NDB"},
{"type":"NDB","hdg_t":294.3,"dist_nm":90.2,"freq":375,"lat":38.20175000,"lon":-78.95736111,"rng_nm":50,"alt_fmsl":0,"id":"SH","desc":"STAUT NDB"},
{"type":"NDB","hdg_t":150.7,"dist_nm":91.2,"freq":254,"lat":36.26300000,"lon":-76.29802778,"rng_nm":50,"alt_fmsl":0,"id":"LLW","desc":"WOODVILLE NDB"},
{"type":"VOR","hdg_t":282.1,"dist_nm":91.7,"freq":115.3,"lat":37.90052778,"lon":-79.10688889,"rng_nm":40,"alt_fmsl":3460,"id":"MOL","desc":"MONTEBELLO VOR-DME"},
{"type":"NDB","hdg_t":13.4,"dist_nm":91.8,"freq":260,"lat":39.08405556,"lon":-76.76000000,"rng_nm":50,"alt_fmsl":0,"id":"BUH","desc":"ANNE ARUNDEL NDB"},
{"type":"VOR","hdg_t":60.4,"dist_nm":92.6,"freq":111.2,"lat":38.34500000,"lon":-75.51058333,"rng_nm":40,"alt_fmsl":48,"id":"SBY","desc":"SALISBURY VORTAC"},
{"type":"NDB","hdg_t":1.4,"dist_nm":94.4,"freq":385,"lat":39.16972222,"lon":-77.16591667,"rng_nm":50,"alt_fmsl":0,"id":"GAI","desc":"GAITHERSBURG NDB"},
{"type":"VOR","hdg_t":147.6,"dist_nm":94.5,"freq":112.5,"lat":36.25758333,"lon":-76.17563889,"rng_nm":40,"alt_fmsl":10,"id":"ECG","desc":"ELIZABETH CITY VOR-DME"},
{"type":"NDB","hdg_t":63.9,"dist_nm":95.2,"freq":278,"lat":38.27870000,"lon":-75.40577800,"rng_nm":25,"alt_fmsl":0,"id":"SB","desc":"COLBE NDB"},
{"type":"NDB","hdg_t":336,"dist_nm":98,"freq":364,"lat":39.08650000,"lon":-78.06861111,"rng_nm":50,"alt_fmsl":0,"id":"TZ","desc":"COGAN NDB"},
{"type":"VOR","hdg_t":15.3,"dist_nm":98,"freq":115.1,"lat":39.17105556,"lon":-76.66125000,"rng_nm":40,"alt_fmsl":140,"id":"BAL","desc":"BALTIMORE VORTAC"},
{"type":"VOR","hdg_t":258.6,"dist_nm":98.6,"freq":109.2,"lat":37.25458333,"lon":-79.23638889,"rng_nm":40,"alt_fmsl":871,"id":"LYH","desc":"LYNCHBURG VORTAC"},
{"type":"NDB","hdg_t":258.9,"dist_nm":98.8,"freq":385,"lat":37.26241667,"lon":-79.24313889,"rng_nm":50,"alt_fmsl":0,"id":"LY","desc":"BOJAR NDB"},
{"type":"NDB","hdg_t":161.3,"dist_nm":99.1,"freq":265,"lat":36.02544444,"lon":-76.56650000,"rng_nm":50,"alt_fmsl":0,"id":"EDE","desc":"EDENTON NDB"},
{"type":"VOR","hdg_t":193.7,"dist_nm":99.7,"freq":117.8,"lat":35.97677778,"lon":-77.70375000,"rng_nm":40,"alt_fmsl":70,"id":"TYI","desc":"TAR RIVER VORTAC"}
]
}
