{"success":true,"source":"xp2csv.pl","last_updated":"2013/11/08 14:53:21 UTC"
,"icao":"VAKJ","name":"Khajuraho","lat":24.817197,"lon":79.918596,"rwys":1,"ils":1,"index":4250803,"path":"e070n20/e079n24"
,"runways":[
{"len_m":2274,"wid_m":45.11,"hdg":13,"surf":"Asphalt","rwy1":"01","lat1":24.80721100,"lon1":79.91598900,"rwy2":"19","lat2":24.82718300,"lon2":79.92120300}
]
,"radios":[
{"type":"TWR","freq":122.3,"desc":"TWR"}
]
,"ils":[
{"type":"ILS","freq":110.7,"lat":24.81041700,"lon":79.91675000,"rng_nm":18,"alt_fmsl":728,"hdg":193.55,"id":"KJR","rwy":"19","desc":"ILS-cat-I"},
{"type":"GS","freq":110.7,"lat":24.82486100,"lon":79.92172200,"rng_nm":10,"alt_fmsl":728,"id":"KJR","rwy":"19","desc":"GS","gs":3},
{"type":"DME","freq":110.7,"lat":24.82486100,"lon":79.92172200,"rng_nm":18,"alt_fmsl":728,"id":"KJR","rwy":"19","desc":"DME-ILS"}
]
,"navaids":[
{"type":"VOR","hdg_t":178.1,"dist_nm":0.1,"freq":116.4,"lat":24.81486900,"lon":79.91867800,"rng_nm":130,"alt_fmsl":737,"id":"KKJ","desc":"KHAJURAHO VOR-DME"},
{"type":"NDB","hdg_t":332.2,"dist_nm":0.2,"freq":403,"lat":24.82042500,"lon":79.91673600,"rng_nm":50,"alt_fmsl":0,"id":"KJ","desc":"KHAJURAHO NDB"},
{"type":"NDB","hdg_t":175.3,"dist_nm":97.8,"freq":301,"lat":23.18585000,"lon":80.06062500,"rng_nm":50,"alt_fmsl":0,"id":"JB","desc":"JABALPUR NDB"},
{"type":"VOR","hdg_t":175.4,"dist_nm":98.2,"freq":113.6,"lat":23.17916700,"lon":80.06083300,"rng_nm":40,"alt_fmsl":1624,"id":"JJB","desc":"JABALPUR VOR-DME"},
{"type":"NDB","hdg_t":15.1,"dist_nm":99.1,"freq":292,"lat":26.41694400,"lon":80.39830600,"rng_nm":50,"alt_fmsl":0,"id":"KA","desc":"KANPUR CHAKERI NDB"},
{"type":"NDB","hdg_t":67.7,"dist_nm":104.3,"freq":328,"lat":25.46705300,"lon":81.69815300,"rng_nm":50,"alt_fmsl":0,"id":"AP","desc":"ALLAHABAD NDB"},
{"type":"NDB","hdg_t":42.4,"dist_nm":116.7,"freq":334,"lat":26.25083300,"lon":81.37777800,"rng_nm":50,"alt_fmsl":0,"id":"FR","desc":"FURSATGANJ NDB"},
{"type":"NDB","hdg_t":314.1,"dist_nm":126.7,"freq":390,"lat":26.28360700,"lon":78.23194400,"rng_nm":50,"alt_fmsl":0,"id":"GJ","desc":"GWALIOR NDB"},
{"type":"VOR","hdg_t":313.9,"dist_nm":127.3,"freq":112.8,"lat":26.28527800,"lon":78.21833300,"rng_nm":130,"alt_fmsl":617,"id":"GWA","desc":"GWALIOR VOR-DME"},
{"type":"VOR","hdg_t":23.9,"dist_nm":127.4,"freq":113.1,"lat":26.76220300,"lon":80.88046900,"rng_nm":130,"alt_fmsl":400,"id":"LLK","desc":"LUCKNOW VOR-DME"}
]
}
