{"success":true,"source":"xp2csv.pl","last_updated":"2013/11/08 14:53:21 UTC"
,"icao":"VCCG","name":"Amparai","lat":7.3370805,"lon":81.6258805,"rwys":1,"ils":0,"index":4282453,"path":"e080n00/e081n07"
,"runways":[
{"len_m":1094,"wid_m":46.02,"hdg":64,"surf":"Asphalt","rwy1":"07","lat1":7.33498600,"lon1":81.62139200,"rwy2":"25","lat2":7.33917500,"lon2":81.63036900}
]
,"navaids":[
{"type":"NDB","hdg_t":8.4,"dist_nm":22.1,"freq":320,"lat":7.70361700,"lon":81.68023600,"rng_nm":50,"alt_fmsl":0,"id":"BAT","desc":"BATTICALOA NDB"},
{"type":"NDB","hdg_t":318.1,"dist_nm":57.1,"freq":290,"lat":8.05026400,"lon":80.98532200,"rng_nm":50,"alt_fmsl":0,"id":"MIN","desc":"MINNERIYA NDB"},
{"type":"NDB","hdg_t":339.8,"dist_nm":76.1,"freq":280,"lat":8.53356500,"lon":81.18530000,"rng_nm":50,"alt_fmsl":0,"id":"CHB","desc":"CHINA BAY NDB"},
{"type":"NDB","hdg_t":309,"dist_nm":91.6,"freq":415,"lat":8.30361100,"lon":80.42972200,"rng_nm":50,"alt_fmsl":0,"id":"AN","desc":"ANURADHAPURA NDB"},
{"type":"NDB","hdg_t":267.7,"dist_nm":99.9,"freq":315,"lat":7.26858600,"lon":79.95091700,"rng_nm":25,"alt_fmsl":0,"id":"CNL","desc":"BANDARANAIKE NDB"},
{"type":"VOR","hdg_t":264.3,"dist_nm":105.3,"freq":112.7,"lat":7.16127200,"lon":79.86850000,"rng_nm":130,"alt_fmsl":29,"id":"KAT","desc":"BANDARANAIKE VOR-DME"},
{"type":"NDB","hdg_t":321.1,"dist_nm":107.7,"freq":400,"lat":8.73972200,"lon":80.48805600,"rng_nm":50,"alt_fmsl":0,"id":"VNA","desc":"VAVUNIYA NDB"},
{"type":"NDB","hdg_t":253.9,"dist_nm":108,"freq":350,"lat":6.83368200,"lon":79.88544800,"rng_nm":50,"alt_fmsl":0,"id":"RM","desc":"COLOMBO/RATMALANA NDB"},
{"type":"NDB","hdg_t":224.2,"dist_nm":111.6,"freq":395,"lat":5.99500000,"lon":80.32333300,"rng_nm":50,"alt_fmsl":0,"id":"KG","desc":"KOGGALA NDB"},
{"type":"NDB","hdg_t":327.9,"dist_nm":173.4,"freq":236,"lat":9.79611100,"lon":80.07222200,"rng_nm":50,"alt_fmsl":0,"id":"KK","desc":"KANKESANTURAI NDB"}
]
}
