{"success":true,"source":"xp2csv.pl","last_updated":"2013/11/08 14:53:21 UTC"
,"icao":"VDKH","name":"Kampong Chhnang","lat":12.255236,"lon":104.563875,"rwys":1,"ils":0,"index":4659604,"path":"e100n10/e104n12"
,"runways":[
{"len_m":2401,"wid_m":45.72,"hdg":182,"surf":"Concrete","rwy1":"18","lat1":12.26608300,"lon1":104.56433100,"rwy2":"36","lat2":12.24438900,"lon2":104.56341900}
]
,"radios":[
{"type":"TWR","freq":129.7,"desc":"TWR"}
]
,"navaids":[
{"type":"NDB","hdg_t":182.5,"dist_nm":0.8,"freq":297,"lat":12.24097200,"lon":104.56321700,"rng_nm":50,"alt_fmsl":0,"id":"KCW","desc":"KAMPONG CHHNANG NDB"},
{"type":"NDB","hdg_t":154.4,"dist_nm":44.3,"freq":376,"lat":11.58500000,"lon":104.88833300,"rng_nm":50,"alt_fmsl":0,"id":"PNP","desc":"PHNOM PENH NDB"},
{"type":"VOR","hdg_t":158.8,"dist_nm":45.3,"freq":114.3,"lat":11.54666700,"lon":104.84166700,"rng_nm":50,"alt_fmsl":56,"id":"PNH","desc":"PHNOM PENH VOR-DME"},
{"type":"NDB","hdg_t":326.9,"dist_nm":81.5,"freq":441,"lat":13.39811100,"lon":103.80344400,"rng_nm":50,"alt_fmsl":0,"id":"SIR","desc":"SIEM REAP NDB"},
{"type":"VOR","hdg_t":327.9,"dist_nm":81.8,"freq":113.8,"lat":13.41500000,"lon":103.82166700,"rng_nm":130,"alt_fmsl":59,"id":"SRE","desc":"SIEM REAP VOR-DME"},
{"type":"NDB","hdg_t":302.5,"dist_nm":93.1,"freq":484,"lat":13.09166700,"lon":103.22333300,"rng_nm":50,"alt_fmsl":0,"id":"BB","desc":"BATTAMBANG NDB"},
{"type":"NDB","hdg_t":247.6,"dist_nm":99.7,"freq":425,"lat":11.61686100,"lon":102.99644400,"rng_nm":25,"alt_fmsl":0,"id":"KK","desc":"KOH KONG NDB"},
{"type":"NDB","hdg_t":48.1,"dist_nm":113.9,"freq":444,"lat":13.52500000,"lon":106.01500000,"rng_nm":50,"alt_fmsl":0,"id":"ST","desc":"STUNG TRENG NDB"},
{"type":"NDB","hdg_t":196.3,"dist_nm":126.4,"freq":278,"lat":10.22361100,"lon":103.96194400,"rng_nm":97,"alt_fmsl":0,"id":"PQ","desc":"PHUQUOC NDB"},
{"type":"NDB","hdg_t":270.7,"dist_nm":132.1,"freq":384,"lat":12.27447200,"lon":102.31391100,"rng_nm":40,"alt_fmsl":105,"id":"TRT","desc":"TRAT NDB-DME"}
]
}
