{"success":true,"source":"xp2csv.pl","last_updated":"2013/11/08 14:53:21 UTC"
,"icao":"VEDB","name":"Dhanbad","lat":23.834775,"lon":86.425389,"rwys":1,"ils":0,"index":4365425,"path":"e080n20/e086n23"
,"runways":[
{"len_m":1136,"wid_m":28.35,"hdg":71,"surf":"Asphalt","rwy1":"07","lat1":23.83318600,"lon1":86.42008600,"rwy2":"25","lat2":23.83636400,"lon2":86.43069200}
]
,"navaids":[
{"type":"VOR","hdg_t":193.1,"dist_nm":62.7,"freq":115.4,"lat":22.81236100,"lon":86.16761100,"rng_nm":130,"alt_fmsl":475,"id":"JJS","desc":"JAMSHEDPUR VOR-DME"},
{"type":"VOR","hdg_t":242.7,"dist_nm":68.2,"freq":116.9,"lat":23.30869400,"lon":85.32661100,"rng_nm":130,"alt_fmsl":2119,"id":"RRC","desc":"RANCHI VOR-DME"},
{"type":"NDB","hdg_t":243.2,"dist_nm":68.2,"freq":285,"lat":23.31699400,"lon":85.32180000,"rng_nm":50,"alt_fmsl":0,"id":"RC","desc":"RANCHI NDB"},
{"type":"VOR","hdg_t":304,"dist_nm":97.6,"freq":115,"lat":24.74188900,"lon":84.94386100,"rng_nm":130,"alt_fmsl":377,"id":"GGC","desc":"GAYA VOR-DME"},
{"type":"NDB","hdg_t":121.9,"dist_nm":104.7,"freq":390,"lat":22.90070300,"lon":88.03070800,"rng_nm":50,"alt_fmsl":0,"id":"TK","desc":"TARKESHWAR NDB"},
{"type":"NDB","hdg_t":30.5,"dist_nm":120.6,"freq":242,"lat":25.56713900,"lon":87.55572200,"rng_nm":50,"alt_fmsl":0,"id":"KH","desc":"KATIHAR NDB"},
{"type":"NDB","hdg_t":72.7,"dist_nm":125.4,"freq":228,"lat":24.44246400,"lon":88.61370800,"rng_nm":25,"alt_fmsl":64,"id":"RJ","desc":"RAJSHAHI NDB"},
{"type":"VOR","hdg_t":72.7,"dist_nm":125.5,"freq":114.6,"lat":24.44003600,"lon":88.61502200,"rng_nm":130,"alt_fmsl":64,"id":"RAJ","desc":"RAJSHAHI VOR"},
{"type":"VOR","hdg_t":325.4,"dist_nm":127.8,"freq":112.1,"lat":25.59041700,"lon":85.08991700,"rng_nm":130,"alt_fmsl":167,"id":"PPT","desc":"PATNA VOR-DME"},
{"type":"NDB","hdg_t":119.8,"dist_nm":129.9,"freq":385,"lat":22.74016900,"lon":88.45760000,"rng_nm":25,"alt_fmsl":0,"id":"DU","desc":"KOLKATA NDB"}
]
}
