{"success":true,"source":"xp2csv.pl","last_updated":"2013/11/08 14:53:21 UTC"
,"icao":"VGJR","name":"Jessore","lat":23.1838,"lon":89.160833,"rwys":1,"ils":0,"index":4414536,"path":"e080n20/e089n23"
,"runways":[
{"len_m":2405,"wid_m":45.72,"hdg":157,"surf":"Asphalt","rwy1":"16","lat1":23.19383300,"lon1":89.15633300,"rwy2":"34","lat2":23.17376700,"lon2":89.16533300}
]
,"radios":[
{"type":"TWR","freq":123.2,"desc":"TWR"},
{"type":"TWR","freq":122.9,"desc":"TWR"}
]
,"navaids":[
{"type":"VOR","hdg_t":162.8,"dist_nm":0.4,"freq":113,"lat":23.17693900,"lon":89.16311900,"rng_nm":130,"alt_fmsl":20,"id":"JSR","desc":"JESSORE VOR"},
{"type":"NDB","hdg_t":174.4,"dist_nm":0.5,"freq":280,"lat":23.17515800,"lon":89.16174700,"rng_nm":25,"alt_fmsl":0,"id":"JR","desc":"JESSORE NDB"},
{"type":"NDB","hdg_t":235.8,"dist_nm":47.1,"freq":385,"lat":22.74016900,"lon":88.45760000,"rng_nm":25,"alt_fmsl":0,"id":"DU","desc":"KOLKATA NDB"},
{"type":"VOR","hdg_t":230.7,"dist_nm":50.7,"freq":112.5,"lat":22.64517800,"lon":88.45287800,"rng_nm":130,"alt_fmsl":17,"id":"CEA","desc":"KOLKATA VOR-DME"},
{"type":"NDB","hdg_t":228.2,"dist_nm":53.6,"freq":293,"lat":22.58377800,"lon":88.43994400,"rng_nm":25,"alt_fmsl":0,"id":"CA","desc":"KOLKATA NDB"},
{"type":"NDB","hdg_t":353.7,"dist_nm":58.3,"freq":350,"lat":24.15284700,"lon":89.04484200,"rng_nm":25,"alt_fmsl":0,"id":"IS","desc":"ISHURDI NDB"},
{"type":"NDB","hdg_t":255,"dist_nm":64.7,"freq":390,"lat":22.90070300,"lon":88.03070800,"rng_nm":50,"alt_fmsl":0,"id":"TK","desc":"TARKESHWAR NDB"},
{"type":"NDB","hdg_t":109.9,"dist_nm":67,"freq":368,"lat":22.79782200,"lon":90.29783600,"rng_nm":25,"alt_fmsl":0,"id":"BL","desc":"BARISAL NDB"},
{"type":"VOR","hdg_t":60.7,"dist_nm":78.9,"freq":112.7,"lat":23.82468300,"lon":90.41260000,"rng_nm":130,"alt_fmsl":49,"id":"DAC","desc":"DHAKA VOR-DME"},
{"type":"NDB","hdg_t":60.1,"dist_nm":79.7,"freq":298,"lat":23.84286700,"lon":90.41768600,"rng_nm":25,"alt_fmsl":0,"id":"DCN","desc":"DHAKA NDB"},
{"type":"VOR","hdg_t":338.3,"dist_nm":80.9,"freq":114.6,"lat":24.44003600,"lon":88.61502200,"rng_nm":130,"alt_fmsl":64,"id":"RAJ","desc":"RAJSHAHI VOR"},
{"type":"NDB","hdg_t":338.3,"dist_nm":81,"freq":228,"lat":24.44246400,"lon":88.61370800,"rng_nm":25,"alt_fmsl":64,"id":"RJ","desc":"RAJSHAHI NDB"}
]
}
