{"success":true,"source":"xp2csv.pl","last_updated":"2013/11/08 14:53:21 UTC"
,"icao":"VI43","name":"Suratgarh New","lat":29.3877765,"lon":73.903924,"rwys":1,"ils":0,"index":4152795,"path":"e070n20/e073n29"
,"runways":[
{"len_m":2744,"wid_m":45.11,"hdg":50,"surf":"Asphalt","rwy1":"05","lat1":29.37988600,"lon1":73.89303100,"rwy2":"23","lat2":29.39566700,"lon2":73.91481700}
]
,"navaids":[
{"type":"VOR","hdg_t":187.3,"dist_nm":49.3,"freq":117.6,"lat":28.57030000,"lon":73.78420600,"rng_nm":130,"alt_fmsl":606,"id":"LUN","desc":"MABOR VOR-DME"},
{"type":"VOR","hdg_t":171.4,"dist_nm":73.1,"freq":114,"lat":28.17950600,"lon":74.10916400,"rng_nm":130,"alt_fmsl":841,"id":"LKA","desc":"ESDEM VOR-DME"},
{"type":"NDB","hdg_t":269.4,"dist_nm":114.5,"freq":332,"lat":29.34986400,"lon":71.71913600,"rng_nm":25,"alt_fmsl":405,"id":"BW","desc":"BAHAWALPUR NDB"},
{"type":"NDB","hdg_t":338.5,"dist_nm":127.7,"freq":212,"lat":31.37027800,"lon":72.99500000,"rng_nm":50,"alt_fmsl":654,"id":"FA","desc":"FAISALABAD NDB"},
{"type":"NDB","hdg_t":10.9,"dist_nm":128.9,"freq":268,"lat":31.50111100,"lon":74.38333300,"rng_nm":200,"alt_fmsl":0,"id":"LA","desc":"LAHORE NDB"},
{"type":"VOR","hdg_t":11.3,"dist_nm":129,"freq":112.7,"lat":31.49972200,"lon":74.40001900,"rng_nm":130,"alt_fmsl":729,"id":"LA","desc":"LAHORE VOR-DME"},
{"type":"NDB","hdg_t":291.1,"dist_nm":138.2,"freq":387,"lat":30.19684200,"lon":71.42385300,"rng_nm":150,"alt_fmsl":436,"id":"MT","desc":"MULTAN NDB"},
{"type":"VOR","hdg_t":290.9,"dist_nm":138.5,"freq":116.7,"lat":30.19401900,"lon":71.41638900,"rng_nm":130,"alt_fmsl":423,"id":"MT","desc":"MULTAN VOR"},
{"type":"NDB","hdg_t":2,"dist_nm":138.5,"freq":317,"lat":31.70068300,"lon":73.99900800,"rng_nm":50,"alt_fmsl":730,"id":"SP","desc":"SHEIKHUPURA NDB"},
{"type":"NDB","hdg_t":50,"dist_nm":138.7,"freq":380,"lat":30.85953300,"lon":75.96470800,"rng_nm":50,"alt_fmsl":0,"id":"LD","desc":"LUDHIANA NDB"}
]
}
