{"success":true,"source":"xp2csv.pl","last_updated":"2013/11/08 14:53:21 UTC"
,"icao":"VIGG","name":"Kangra","lat":32.1651195,"lon":76.2634185,"rwys":1,"ils":0,"index":4202121,"path":"e070n30/e076n32"
,"runways":[
{"len_m":1407,"wid_m":29.87,"hdg":147,"surf":"Asphalt","rwy1":"15","lat1":32.17047200,"lon1":76.25940600,"rwy2":"33","lat2":32.15976700,"lon2":76.26743100}
]
,"radios":[
{"type":"TWR","freq":122.3,"desc":"TWR"}
]
,"navaids":[
{"type":"NDB","hdg_t":2.9,"dist_nm":0.2,"freq":237,"lat":32.16990000,"lon":76.26371100,"rng_nm":50,"alt_fmsl":0,"id":"KN","desc":"KANGRA NDB"},
{"type":"NDB","hdg_t":278.1,"dist_nm":32.4,"freq":393,"lat":32.24050300,"lon":75.63307200,"rng_nm":50,"alt_fmsl":0,"id":"PK","desc":"PATHANKOT NDB"},
{"type":"NDB","hdg_t":110.3,"dist_nm":48.3,"freq":334,"lat":31.88166700,"lon":77.15146700,"rng_nm":50,"alt_fmsl":0,"id":"BNR","desc":"BHUNTAR NDB"},
{"type":"NDB","hdg_t":147.2,"dist_nm":76.5,"freq":398,"lat":31.08618900,"lon":77.06704700,"rng_nm":50,"alt_fmsl":0,"id":"SH","desc":"SIMLA NDB"},
{"type":"NDB","hdg_t":294.3,"dist_nm":78.6,"freq":415,"lat":32.69961700,"lon":74.84901400,"rng_nm":50,"alt_fmsl":0,"id":"JA","desc":"JAMMU NDB"},
{"type":"NDB","hdg_t":250.1,"dist_nm":78.8,"freq":351,"lat":31.70860800,"lon":74.81430800,"rng_nm":50,"alt_fmsl":0,"id":"AR","desc":"AMRITSAR NDB"},
{"type":"VOR","hdg_t":293.9,"dist_nm":78.9,"freq":113.3,"lat":32.69155600,"lon":74.83763900,"rng_nm":130,"alt_fmsl":1029,"id":"JJU","desc":"JAMMU VOR-DME"},
{"type":"VOR","hdg_t":250.2,"dist_nm":79.5,"freq":115.5,"lat":31.70694400,"lon":74.80083300,"rng_nm":130,"alt_fmsl":752,"id":"AAR","desc":"AMRITSAR VOR-DME"},
{"type":"NDB","hdg_t":191.1,"dist_nm":79.6,"freq":380,"lat":30.85953300,"lon":75.96470800,"rng_nm":50,"alt_fmsl":0,"id":"LD","desc":"LUDHIANA NDB"},
{"type":"NDB","hdg_t":162.8,"dist_nm":93.8,"freq":228,"lat":30.66650600,"lon":76.79875800,"rng_nm":75,"alt_fmsl":0,"id":"CG","desc":"CHANDIGARH NDB"},
{"type":"VOR","hdg_t":162.6,"dist_nm":93.8,"freq":116.5,"lat":30.66761700,"lon":76.80570000,"rng_nm":130,"alt_fmsl":1012,"id":"CHG","desc":"CHANDIGARH VOR-DME"}
]
}
