{"success":true,"source":"xp2csv.pl","last_updated":"2013/11/08 14:53:21 UTC"
,"icao":"VNJL","name":"Jumla","lat":29.283333,"lon":82.183334,"rwys":1,"ils":0,"index":4300240,"path":"e080n20/e082n29"
,"runways":[
{"len_m":611,"wid_m":24.99,"hdg":270,"surf":"Asphalt","rwy1":"09","lat1":29.28333300,"lon1":82.18647886,"rwy2":"27","lat2":29.28333300,"lon2":82.18018914}
]
,"navaids":[
{"type":"NDB","hdg_t":141.3,"dist_nm":0.7,"freq":242,"lat":29.27388900,"lon":82.19194400,"rng_nm":25,"alt_fmsl":4291,"id":"JLA","desc":"JUMLA NDB"},
{"type":"NDB","hdg_t":179.2,"dist_nm":39.2,"freq":234,"lat":28.62694400,"lon":82.19305600,"rng_nm":25,"alt_fmsl":2497,"id":"RKM","desc":"CHAURIJHARI NDB"},
{"type":"NDB","hdg_t":214.8,"dist_nm":50.6,"freq":387,"lat":28.58777800,"lon":81.63500000,"rng_nm":25,"alt_fmsl":0,"id":"SKT","desc":"SURKHET NDB"},
{"type":"NDB","hdg_t":269.1,"dist_nm":65.4,"freq":393,"lat":29.26222200,"lon":80.93666700,"rng_nm":25,"alt_fmsl":1932,"id":"DTI","desc":"DOTI NDB"},
{"type":"NDB","hdg_t":175.3,"dist_nm":70.3,"freq":363,"lat":28.11166700,"lon":82.29166700,"rng_nm":25,"alt_fmsl":2077,"id":"DNG","desc":"DANG NDB"},
{"type":"VOR","hdg_t":201.7,"dist_nm":76.1,"freq":115.1,"lat":28.10138900,"lon":81.65083300,"rng_nm":130,"alt_fmsl":540,"id":"NGJ","desc":"NEPALGUNJ VOR-DME"},
{"type":"NDB","hdg_t":201.5,"dist_nm":76.1,"freq":330,"lat":28.09805600,"lon":81.65583300,"rng_nm":25,"alt_fmsl":50,"id":"NPJ","desc":"NEPALGUNJ NDB"},
{"type":"NDB","hdg_t":249.7,"dist_nm":90,"freq":253,"lat":28.75250000,"lon":80.58222200,"rng_nm":25,"alt_fmsl":653,"id":"DHI","desc":"DHANGADHI NDB"},
{"type":"NDB","hdg_t":123.8,"dist_nm":114.9,"freq":336,"lat":28.20055600,"lon":83.98444400,"rng_nm":25,"alt_fmsl":2712,"id":"PHR","desc":"POKHARA NDB-DME"},
{"type":"SDME","hdg_t":123.8,"dist_nm":114.9,"freq":112.8,"lat":28.20055600,"lon":83.98444400,"rng_nm":25,"alt_fmsl":2712,"id":"PHR","desc":"POKHARA NDB-DME"}
]
}
