{"success":true,"source":"xp2csv.pl","last_updated":"2013/11/08 14:53:21 UTC"
,"icao":"VOMD","name":"Madurai","lat":9.8355695,"lon":78.09040625,"rwys":2,"ils":0,"index":4233456,"path":"e070n00/e078n09"
,"runways":[
{"len_m":1828,"wid_m":45.11,"hdg":86,"surf":"Asphalt","rwy1":"09","lat1":9.83396100,"lon1":78.08506400,"rwy2":"27","lat2":9.83505300,"lon2":78.10169400},
{"len_m":1459,"wid_m":45.11,"hdg":126,"surf":"Concrete","rwy1":"13","lat1":9.84054700,"lon1":78.08207800,"rwy2":"31","lat2":9.83271700,"lon2":78.09278900}
]
,"radios":[
{"type":"TWR","freq":122.8,"desc":"TWR"},
{"type":"APP","freq":122.8,"desc":"APP"}
]
,"navaids":[
{"type":"VOR","hdg_t":196.9,"dist_nm":0.2,"freq":116.1,"lat":9.83108300,"lon":78.08902800,"rng_nm":130,"alt_fmsl":461,"id":"MDI","desc":"MADURAI VOR-DME"},
{"type":"NDB","hdg_t":53.9,"dist_nm":0.6,"freq":400,"lat":9.84219700,"lon":78.09958600,"rng_nm":50,"alt_fmsl":0,"id":"MD","desc":"MADURAI NDB"},
{"type":"NDB","hdg_t":32.8,"dist_nm":65,"freq":307,"lat":10.74990800,"lon":78.68839700,"rng_nm":50,"alt_fmsl":0,"id":"TR","desc":"TIRUCHIRAPPALLI NDB"},
{"type":"NDB","hdg_t":183.3,"dist_nm":66.3,"freq":376,"lat":8.72561100,"lon":78.02569400,"rng_nm":50,"alt_fmsl":0,"id":"TU","desc":"TUTICORIN NDB"},
{"type":"VOR","hdg_t":33.5,"dist_nm":66.4,"freq":113.1,"lat":10.76241700,"lon":78.71338900,"rng_nm":130,"alt_fmsl":311,"id":"TTR","desc":"TIRUCHIRAPPALLI VOR-DME"},
{"type":"VOR","hdg_t":281.4,"dist_nm":85,"freq":117.3,"lat":10.11527800,"lon":76.68166700,"rng_nm":130,"alt_fmsl":28,"id":"CIB","desc":"COCHIN INTL VOR-DME"},
{"type":"NDB","hdg_t":319.1,"dist_nm":94,"freq":354,"lat":11.02377800,"lon":77.04722200,"rng_nm":75,"alt_fmsl":0,"id":"CB","desc":"COIMBATORE NDB"},
{"type":"VOR","hdg_t":319.3,"dist_nm":94.4,"freq":112.9,"lat":11.03377800,"lon":77.04805600,"rng_nm":130,"alt_fmsl":1319,"id":"CCB","desc":"COIMBATORE VOR-DME"},
{"type":"NDB","hdg_t":281.2,"dist_nm":96.9,"freq":217,"lat":10.14944400,"lon":76.48416700,"rng_nm":25,"alt_fmsl":0,"id":"CI","desc":"COCHIN INTL NDB"},
{"type":"VOR","hdg_t":280.6,"dist_nm":103.4,"freq":113.5,"lat":10.15050000,"lon":76.37258300,"rng_nm":130,"alt_fmsl":49,"id":"CIA","desc":"COCHIN INTL VOR-DME"}
]
}
