{"success":true,"source":"xp2csv.pl","last_updated":"2013/11/08 14:53:21 UTC"
,"icao":"VONS","name":"Nagarjuna Sagar","lat":16.542653,"lon":79.318714,"rwys":1,"ils":0,"index":4250274,"path":"e070n10/e079n16"
,"runways":[
{"len_m":1538,"wid_m":30.48,"hdg":87,"surf":"Asphalt","rwy1":"09","lat1":16.54240000,"lon1":79.31151400,"rwy2":"27","lat2":16.54290600,"lon2":79.32591400}
]
,"navaids":[
{"type":"NDB","hdg_t":48.3,"dist_nm":63.1,"freq":340,"lat":17.24274400,"lon":80.14011700,"rng_nm":75,"alt_fmsl":0,"id":"KM","desc":"KHAMAMPET NDB"},
{"type":"VOR","hdg_t":317.8,"dist_nm":73.6,"freq":114.7,"lat":17.45444400,"lon":78.45750000,"rng_nm":130,"alt_fmsl":1741,"id":"HHY","desc":"HYDERABAD VOR-DME"},
{"type":"NDB","hdg_t":90.5,"dist_nm":84.6,"freq":393,"lat":16.52391700,"lon":80.78809700,"rng_nm":50,"alt_fmsl":0,"id":"BZ","desc":"VIJAYAWADA NDB"},
{"type":"NDB","hdg_t":322.4,"dist_nm":84.9,"freq":327,"lat":17.66769700,"lon":78.41533600,"rng_nm":50,"alt_fmsl":0,"id":"DG","desc":"DUNDIGUL NDB"},
{"type":"VOR","hdg_t":90.6,"dist_nm":85,"freq":116.2,"lat":16.52083300,"lon":80.79416700,"rng_nm":130,"alt_fmsl":82,"id":"BBZ","desc":"VIJAYAWADA VOR-DME"},
{"type":"NDB","hdg_t":299.9,"dist_nm":95.2,"freq":321,"lat":17.33438900,"lon":77.88166700,"rng_nm":50,"alt_fmsl":0,"id":"VB","desc":"VIKARABAD NDB"},
{"type":"NDB","hdg_t":308.4,"dist_nm":132.9,"freq":240,"lat":17.91766900,"lon":77.49878600,"rng_nm":50,"alt_fmsl":0,"id":"BR","desc":"BIDAR NDB"},
{"type":"NDB","hdg_t":76.3,"dist_nm":147.8,"freq":366,"lat":17.10972200,"lon":81.81991700,"rng_nm":50,"alt_fmsl":0,"id":"RY","desc":"RAJAHMUNDRY NDB"},
{"type":"VOR","hdg_t":288,"dist_nm":151.8,"freq":116,"lat":17.31355600,"lon":76.80305600,"rng_nm":40,"alt_fmsl":1460,"id":"GGB","desc":"GULBARGA VOR-DME"},
{"type":"NDB","hdg_t":239.8,"dist_nm":163.1,"freq":310,"lat":15.15888900,"lon":76.88611100,"rng_nm":25,"alt_fmsl":30,"id":"BI","desc":"BELLARY NDB"}
]
}
