{"success":true,"source":"xp2csv.pl","last_updated":"2013/11/08 14:53:21 UTC"
,"icao":"VORY","name":"Rajahmundry","lat":17.110361,"lon":81.8182095,"rwys":1,"ils":0,"index":4283078,"path":"e080n10/e081n17"
,"runways":[
{"len_m":1739,"wid_m":45.72,"hdg":53,"surf":"Asphalt","rwy1":"05","lat1":17.10570800,"lon1":81.81162200,"rwy2":"23","lat2":17.11501400,"lon2":81.82479700}
]
,"radios":[
{"type":"TWR","freq":122.3,"desc":"TWR"}
]
,"navaids":[
{"type":"NDB","hdg_t":111.2,"dist_nm":0.1,"freq":366,"lat":17.10972200,"lon":81.81991700,"rng_nm":50,"alt_fmsl":0,"id":"RY","desc":"RAJAHMUNDRY NDB"},
{"type":"VOR","hdg_t":239.2,"dist_nm":68.6,"freq":116.2,"lat":16.52083300,"lon":80.79416700,"rng_nm":130,"alt_fmsl":82,"id":"BBZ","desc":"VIJAYAWADA VOR-DME"},
{"type":"NDB","hdg_t":239.5,"dist_nm":68.8,"freq":393,"lat":16.52391700,"lon":80.78809700,"rng_nm":50,"alt_fmsl":0,"id":"BZ","desc":"VIJAYAWADA NDB"},
{"type":"VOR","hdg_t":67.7,"dist_nm":88.7,"freq":114,"lat":17.66773600,"lon":83.25277500,"rng_nm":130,"alt_fmsl":14,"id":"VVZ","desc":"VISHAKHAPATNAM VOR-DME"},
{"type":"NDB","hdg_t":65.2,"dist_nm":90.4,"freq":244,"lat":17.73800800,"lon":83.25277500,"rng_nm":50,"alt_fmsl":0,"id":"VZ","desc":"VISHAKHAPATNAM NDB"},
{"type":"NDB","hdg_t":274.9,"dist_nm":96.7,"freq":340,"lat":17.24274400,"lon":80.14011700,"rng_nm":75,"alt_fmsl":0,"id":"KM","desc":"KHAMAMPET NDB"},
{"type":"VOR","hdg_t":276.5,"dist_nm":194,"freq":114.7,"lat":17.45444400,"lon":78.45750000,"rng_nm":130,"alt_fmsl":1741,"id":"HHY","desc":"HYDERABAD VOR-DME"},
{"type":"NDB","hdg_t":280.1,"dist_nm":198,"freq":327,"lat":17.66769700,"lon":78.41533600,"rng_nm":50,"alt_fmsl":0,"id":"DG","desc":"DUNDIGUL NDB"},
{"type":"NDB","hdg_t":273.9,"dist_nm":226.4,"freq":321,"lat":17.33438900,"lon":77.88166700,"rng_nm":50,"alt_fmsl":0,"id":"VB","desc":"VIKARABAD NDB"},
{"type":"VOR","hdg_t":359,"dist_nm":243.2,"freq":116.1,"lat":21.18027800,"lon":81.74555600,"rng_nm":130,"alt_fmsl":1042,"id":"RRP","desc":"RAIPUR VOR-DME"}
]
}
