{"success":true,"source":"xp2csv.pl","last_updated":"2013/11/08 14:53:21 UTC"
,"icao":"VT05","name":"North Windham","lat":43.22146444,"lon":-72.71287278,"rwys":1,"ils":0,"index":1761609,"path":"w080n40/w073n43"
,"runways":[
{"len_m":694,"wid_m":21.34,"hdg":75,"surf":"Turf/grass","rwy1":"09","lat1":43.22065866,"lon1":-72.71699951,"rwy2":"27","lat2":43.22227022,"lon2":-72.70874605}
]
,"navaids":[
{"type":"NDB","hdg_t":59.2,"dist_nm":17.4,"freq":233,"lat":43.36930556,"lon":-72.37108333,"rng_nm":50,"alt_fmsl":0,"id":"CNH","desc":"CLAREMONT NDB"},
{"type":"NDB","hdg_t":200.7,"dist_nm":18.8,"freq":224,"lat":42.92758333,"lon":-72.86400000,"rng_nm":50,"alt_fmsl":0,"id":"VWD","desc":"MOUNT SNOW NDB"},
{"type":"VOR","hdg_t":330.4,"dist_nm":21,"freq":111,"lat":43.52661111,"lon":-72.95066667,"rng_nm":25,"alt_fmsl":781,"id":"RUT","desc":"RUTLAND VOR-DME"},
{"type":"NDB","hdg_t":27.9,"dist_nm":23,"freq":379,"lat":43.56013889,"lon":-72.46566667,"rng_nm":50,"alt_fmsl":0,"id":"IVV","desc":"WHITE RIVER NDB"},
{"type":"NDB","hdg_t":339.9,"dist_nm":30.9,"freq":221,"lat":43.70633333,"lon":-72.95716667,"rng_nm":50,"alt_fmsl":0,"id":"DYO","desc":"SMUTO NDB"},
{"type":"VOR","hdg_t":244,"dist_nm":30.9,"freq":115,"lat":42.99427778,"lon":-73.34402778,"rng_nm":40,"alt_fmsl":1490,"id":"CAM","desc":"CAMBRIDGE VOR-DME"},
{"type":"VOR","hdg_t":143.9,"dist_nm":31.6,"freq":109.4,"lat":42.79427778,"lon":-72.29177778,"rng_nm":40,"alt_fmsl":1380,"id":"EEN","desc":"KEENE VORTAC"},
{"type":"VOR","hdg_t":38.1,"dist_nm":34.9,"freq":113.7,"lat":43.67886111,"lon":-72.21608333,"rng_nm":40,"alt_fmsl":1443,"id":"LEB","desc":"LEBANON VOR-DME"},
{"type":"NDB","hdg_t":38.8,"dist_nm":37.1,"freq":276,"lat":43.70227778,"lon":-72.17747222,"rng_nm":50,"alt_fmsl":0,"id":"LAH","desc":"HANOVER NDB"},
{"type":"NDB","hdg_t":273.2,"dist_nm":39.2,"freq":209,"lat":43.25511111,"lon":-73.60577778,"rng_nm":50,"alt_fmsl":0,"id":"GF","desc":"GANSE NDB"},
{"type":"VOR","hdg_t":280.6,"dist_nm":40,"freq":110.2,"lat":43.34169444,"lon":-73.61177778,"rng_nm":40,"alt_fmsl":319,"id":"GFL","desc":"GLENS FALLS VORTAC"},
{"type":"NDB","hdg_t":154.1,"dist_nm":43.4,"freq":205,"lat":42.56861111,"lon":-72.28611111,"rng_nm":50,"alt_fmsl":0,"id":"ORE","desc":"ORANGE NDB"},
{"type":"VOR","hdg_t":144.2,"dist_nm":49.7,"freq":110.6,"lat":42.54594444,"lon":-72.05819444,"rng_nm":40,"alt_fmsl":1280,"id":"GDM","desc":"GARDNER VOR-DME"},
{"type":"VOR","hdg_t":89.7,"dist_nm":49.8,"freq":112.9,"lat":43.21977778,"lon":-71.57544444,"rng_nm":40,"alt_fmsl":715,"id":"CON","desc":"CONCORD VORTAC"},
{"type":"VOR","hdg_t":12.3,"dist_nm":53,"freq":110.8,"lat":44.08547222,"lon":-72.44938889,"rng_nm":40,"alt_fmsl":2080,"id":"MPV","desc":"MONTPELIER VOR-DME"},
{"type":"NDB","hdg_t":243.6,"dist_nm":53.9,"freq":219,"lat":42.81730556,"lon":-73.80850000,"rng_nm":50,"alt_fmsl":0,"id":"AL","desc":"HAWKY NDB"},
{"type":"NDB","hdg_t":115.6,"dist_nm":54.4,"freq":359,"lat":42.82338889,"lon":-71.60216667,"rng_nm":50,"alt_fmsl":0,"id":"AS","desc":"CHERN NDB"},
{"type":"NDB","hdg_t":69.4,"dist_nm":54.8,"freq":328,"lat":43.53663889,"lon":-71.53702778,"rng_nm":50,"alt_fmsl":0,"id":"LC","desc":"BLNAP NDB"},
{"type":"NDB","hdg_t":95.9,"dist_nm":55.6,"freq":216,"lat":43.11883333,"lon":-71.45269444,"rng_nm":50,"alt_fmsl":0,"id":"CO","desc":"EPSOM NDB"},
{"type":"VOR","hdg_t":239.7,"dist_nm":55.8,"freq":115.3,"lat":42.74727778,"lon":-73.80319444,"rng_nm":40,"alt_fmsl":274,"id":"ALB","desc":"ALBANY VORTAC"},
{"type":"NDB","hdg_t":111.9,"dist_nm":56.3,"freq":209,"lat":42.86422222,"lon":-71.52880556,"rng_nm":50,"alt_fmsl":0,"id":"MJ","desc":"FITZY NDB"},
{"type":"VOR","hdg_t":190.6,"dist_nm":56.7,"freq":115.1,"lat":42.29130556,"lon":-72.94938889,"rng_nm":40,"alt_fmsl":1600,"id":"CTR","desc":"CHESTER VOR-DME"},
{"type":"NDB","hdg_t":248.1,"dist_nm":58,"freq":356,"lat":42.85419444,"lon":-73.93347222,"rng_nm":50,"alt_fmsl":0,"id":"HEU","desc":"HUNTER NDB"},
{"type":"NDB","hdg_t":133.3,"dist_nm":58.2,"freq":365,"lat":42.55091667,"lon":-71.75713889,"rng_nm":50,"alt_fmsl":0,"id":"FIT","desc":"FITCHBURG NDB"},
{"type":"VOR","hdg_t":172.2,"dist_nm":61.9,"freq":114,"lat":42.19755556,"lon":-72.52630556,"rng_nm":40,"alt_fmsl":241,"id":"CEF","desc":"WESTOVER VORTAC"},
{"type":"VOR","hdg_t":109.2,"dist_nm":62.7,"freq":114.4,"lat":42.86852778,"lon":-71.36952778,"rng_nm":40,"alt_fmsl":471,"id":"MHT","desc":"MANCHESTER VOR-DME"},
{"type":"VOR","hdg_t":180.1,"dist_nm":63.5,"freq":113,"lat":42.16194444,"lon":-72.71619444,"rng_nm":40,"alt_fmsl":268,"id":"BAF","desc":"BARNES VORTAC"},
{"type":"NDB","hdg_t":151.4,"dist_nm":64.5,"freq":279,"lat":42.27450000,"lon":-72.01994444,"rng_nm":50,"alt_fmsl":0,"id":"RS","desc":"DUNCA NDB"},
{"type":"NDB","hdg_t":206.3,"dist_nm":69.3,"freq":395,"lat":42.18297222,"lon":-73.40402778,"rng_nm":50,"alt_fmsl":0,"id":"GBR","desc":"GREAT BARRINGTON NDB"},
{"type":"NDB","hdg_t":142.8,"dist_nm":72,"freq":417,"lat":42.25988889,"lon":-71.73527778,"rng_nm":50,"alt_fmsl":0,"id":"EK","desc":"GOZZR NDB"},
{"type":"NDB","hdg_t":259.9,"dist_nm":72.3,"freq":523,"lat":42.99941667,"lon":-74.33144444,"rng_nm":50,"alt_fmsl":0,"id":"JJH","desc":"JOHNSTOWN NDB"},
{"type":"NDB","hdg_t":217.9,"dist_nm":73.2,"freq":272,"lat":42.25311111,"lon":-73.72341667,"rng_nm":50,"alt_fmsl":0,"id":"PFH","desc":"PHILMONT NDB"},
{"type":"NDB","hdg_t":126.8,"dist_nm":73.4,"freq":332,"lat":42.47986111,"lon":-71.38866667,"rng_nm":50,"alt_fmsl":0,"id":"BE","desc":"BEDDS (LOM) NDB"},
{"type":"VOR","hdg_t":344,"dist_nm":73.4,"freq":117.5,"lat":44.39711111,"lon":-73.18250000,"rng_nm":40,"alt_fmsl":420,"id":"BTV","desc":"BURLINGTON VOR-DME"},
{"type":"NDB","hdg_t":116.8,"dist_nm":75.2,"freq":402,"lat":42.64413889,"lon":-71.19719444,"rng_nm":50,"alt_fmsl":0,"id":"LW","desc":"HAGET NDB"},
{"type":"VOR","hdg_t":179.1,"dist_nm":76.8,"freq":109,"lat":41.94100000,"lon":-72.68858333,"rng_nm":25,"alt_fmsl":160,"id":"BDL","desc":"BRADLEY VORTAC"},
{"type":"VOR","hdg_t":111.4,"dist_nm":76.8,"freq":112.5,"lat":42.74041667,"lon":-71.09483333,"rng_nm":40,"alt_fmsl":302,"id":"LWM","desc":"LAWRENCE VOR-DME"},
{"type":"NDB","hdg_t":181.6,"dist_nm":80.6,"freq":388,"lat":41.87738300,"lon":-72.76620600,"rng_nm":25,"alt_fmsl":0,"id":"BD","desc":"CHUPP NDB"},
{"type":"NDB","hdg_t":3.7,"dist_nm":81.6,"freq":375,"lat":44.57866667,"lon":-72.58733333,"rng_nm":50,"alt_fmsl":0,"id":"JRV","desc":"MORRISVILLE-STOWE NDB"},
{"type":"NDB","hdg_t":32.7,"dist_nm":81.7,"freq":386,"lat":44.36233333,"lon":-71.68591667,"rng_nm":50,"alt_fmsl":0,"id":"GMA","desc":"MAHN NDB"},
{"type":"NDB","hdg_t":123.6,"dist_nm":81.8,"freq":251,"lat":42.45575000,"lon":-71.17852778,"rng_nm":50,"alt_fmsl":0,"id":"SKR","desc":"SHAKER HILL NDB"},
{"type":"NDB","hdg_t":343.6,"dist_nm":82,"freq":382,"lat":44.53222222,"lon":-73.24947222,"rng_nm":50,"alt_fmsl":0,"id":"BT","desc":"HERRO NDB"},
{"type":"NDB","hdg_t":20.8,"dist_nm":82.4,"freq":353,"lat":44.50422222,"lon":-72.02925000,"rng_nm":50,"alt_fmsl":0,"id":"LLX","desc":"LYNDONVILLE NDB"},
{"type":"NDB","hdg_t":89.4,"dist_nm":82.6,"freq":260,"lat":43.22027778,"lon":-70.82830556,"rng_nm":50,"alt_fmsl":0,"id":"ESG","desc":"ROLLINS NDB"},
{"type":"NDB","hdg_t":84.6,"dist_nm":82.6,"freq":349,"lat":43.33419444,"lon":-70.83452778,"rng_nm":50,"alt_fmsl":0,"id":"SF","desc":"SANFD NDB"},
{"type":"VOR","hdg_t":95,"dist_nm":83,"freq":116.5,"lat":43.08447222,"lon":-70.83200000,"rng_nm":40,"alt_fmsl":99,"id":"PSM","desc":"PEASE VOR-DME"},
{"type":"VOR","hdg_t":152.8,"dist_nm":85.1,"freq":117.4,"lat":41.95547222,"lon":-71.84408333,"rng_nm":130,"alt_fmsl":652,"id":"PUT","desc":"PUTNAM VOR-DME"},
{"type":"NDB","hdg_t":120.2,"dist_nm":89.9,"freq":382,"lat":42.45202778,"lon":-70.96330556,"rng_nm":50,"alt_fmsl":0,"id":"LQ","desc":"LYNDY NDB"},
{"type":"VOR","hdg_t":123.6,"dist_nm":92,"freq":112.7,"lat":42.35744444,"lon":-70.98955556,"rng_nm":130,"alt_fmsl":20,"id":"BOS","desc":"BOSTON VOR-DME"},
{"type":"VOR","hdg_t":81.6,"dist_nm":92.7,"freq":117.1,"lat":43.42566667,"lon":-70.61352778,"rng_nm":130,"alt_fmsl":192,"id":"ENE","desc":"KENNEBUNK VORTAC"},
{"type":"NDB","hdg_t":127.1,"dist_nm":92.9,"freq":375,"lat":42.27375000,"lon":-71.04916667,"rng_nm":50,"alt_fmsl":0,"id":"BO","desc":"MILTT NDB"},
{"type":"NDB","hdg_t":63.4,"dist_nm":93.6,"freq":227,"lat":43.90405556,"lon":-70.78233333,"rng_nm":50,"alt_fmsl":0,"id":"SZO","desc":"SEBAGO NDB"},
{"type":"VOR","hdg_t":338.4,"dist_nm":94.5,"freq":116.9,"lat":44.68494444,"lon":-73.52269444,"rng_nm":130,"alt_fmsl":343,"id":"PLB","desc":"PLATTSBURGH VORTAC"},
{"type":"VOR","hdg_t":175.5,"dist_nm":95,"freq":114.9,"lat":41.64111111,"lon":-72.54741667,"rng_nm":40,"alt_fmsl":849,"id":"HFD","desc":"HARTFORD VOR-DME"},
{"type":"NDB","hdg_t":144.7,"dist_nm":95.1,"freq":241,"lat":41.91905600,"lon":-71.48858300,"rng_nm":25,"alt_fmsl":490,"id":"SFZ","desc":"CENTRAL NDB"},
{"type":"VOR","hdg_t":317.6,"dist_nm":95.2,"freq":109.2,"lat":44.38455556,"lon":-74.20450000,"rng_nm":40,"alt_fmsl":1647,"id":"SLK","desc":"SARANAC LAKE VOR-DME"},
{"type":"VOR","hdg_t":204.6,"dist_nm":95.5,"freq":114.3,"lat":41.76975000,"lon":-73.60055556,"rng_nm":40,"alt_fmsl":1250,"id":"PWL","desc":"PAWLING VOR-DME"},
{"type":"NDB","hdg_t":132.7,"dist_nm":96.3,"freq":397,"lat":42.11975000,"lon":-71.12841667,"rng_nm":50,"alt_fmsl":0,"id":"OW","desc":"STOGE NDB"},
{"type":"NDB","hdg_t":124.2,"dist_nm":96.4,"freq":346,"lat":42.30308333,"lon":-70.92186111,"rng_nm":50,"alt_fmsl":0,"id":"LI","desc":"HULLZ NDB"},
{"type":"NDB","hdg_t":321.3,"dist_nm":97,"freq":395,"lat":44.47683333,"lon":-74.12408333,"rng_nm":50,"alt_fmsl":0,"id":"SL","desc":"BRIEL NDB"},
{"type":"NDB","hdg_t":136.9,"dist_nm":99.2,"freq":220,"lat":42.00277778,"lon":-71.19711111,"rng_nm":50,"alt_fmsl":0,"id":"IHM","desc":"MANSFIELD NDB"}
]
}
