{"success":true,"source":"xp2csv.pl","last_updated":"2013/11/08 14:53:21 UTC"
,"icao":"VT33","name":"Yankee Kingdom","lat":44.10561027,"lon":-73.37790195,"rwys":1,"ils":0,"index":1745282,"path":"w080n40/w074n44"
,"runways":[
{"len_m":1223,"wid_m":27.43,"hdg":75,"surf":"Turf/grass","rwy1":"09","lat1":44.10419040,"lon1":-73.38528162,"rwy2":"27","lat2":44.10703014,"lon2":-73.37052228}
]
,"navaids":[
{"type":"VOR","hdg_t":25.6,"dist_nm":19.4,"freq":117.5,"lat":44.39711111,"lon":-73.18250000,"rng_nm":40,"alt_fmsl":420,"id":"BTV","desc":"BURLINGTON VOR-DME"},
{"type":"NDB","hdg_t":12.1,"dist_nm":26.1,"freq":382,"lat":44.53222222,"lon":-73.24947222,"rng_nm":50,"alt_fmsl":0,"id":"BT","desc":"HERRO NDB"},
{"type":"NDB","hdg_t":142.5,"dist_nm":30.1,"freq":221,"lat":43.70633333,"lon":-72.95716667,"rng_nm":50,"alt_fmsl":0,"id":"DYO","desc":"SMUTO NDB"},
{"type":"VOR","hdg_t":349.8,"dist_nm":35.3,"freq":116.9,"lat":44.68494444,"lon":-73.52269444,"rng_nm":130,"alt_fmsl":343,"id":"PLB","desc":"PLATTSBURGH VORTAC"},
{"type":"NDB","hdg_t":304.9,"dist_nm":39.1,"freq":395,"lat":44.47683333,"lon":-74.12408333,"rng_nm":50,"alt_fmsl":0,"id":"SL","desc":"BRIEL NDB"},
{"type":"VOR","hdg_t":151.7,"dist_nm":39.3,"freq":111,"lat":43.52661111,"lon":-72.95066667,"rng_nm":25,"alt_fmsl":781,"id":"RUT","desc":"RUTLAND VOR-DME"},
{"type":"VOR","hdg_t":295.4,"dist_nm":39.3,"freq":109.2,"lat":44.38455556,"lon":-74.20450000,"rng_nm":40,"alt_fmsl":1647,"id":"SLK","desc":"SARANAC LAKE VOR-DME"},
{"type":"VOR","hdg_t":91.4,"dist_nm":40.1,"freq":110.8,"lat":44.08547222,"lon":-72.44938889,"rng_nm":40,"alt_fmsl":2080,"id":"MPV","desc":"MONTPELIER VOR-DME"},
{"type":"NDB","hdg_t":49.9,"dist_nm":44.3,"freq":375,"lat":44.57866667,"lon":-72.58733333,"rng_nm":50,"alt_fmsl":0,"id":"JRV","desc":"MORRISVILLE-STOWE NDB"},
{"type":"VOR","hdg_t":192.5,"dist_nm":46.9,"freq":110.2,"lat":43.34169444,"lon":-73.61177778,"rng_nm":40,"alt_fmsl":319,"id":"GFL","desc":"GLENS FALLS VORTAC"},
{"type":"NDB","hdg_t":129.2,"dist_nm":51.3,"freq":379,"lat":43.56013889,"lon":-72.46566667,"rng_nm":50,"alt_fmsl":0,"id":"IVV","desc":"WHITE RIVER NDB"},
{"type":"NDB","hdg_t":191,"dist_nm":51.9,"freq":209,"lat":43.25511111,"lon":-73.60577778,"rng_nm":50,"alt_fmsl":0,"id":"GF","desc":"GANSE NDB"},
{"type":"VOR","hdg_t":116.5,"dist_nm":56.5,"freq":113.7,"lat":43.67886111,"lon":-72.21608333,"rng_nm":40,"alt_fmsl":1443,"id":"LEB","desc":"LEBANON VOR-DME"},
{"type":"NDB","hdg_t":114.5,"dist_nm":57.4,"freq":276,"lat":43.70227778,"lon":-72.17747222,"rng_nm":50,"alt_fmsl":0,"id":"LAH","desc":"HANOVER NDB"},
{"type":"NDB","hdg_t":134.8,"dist_nm":62.2,"freq":233,"lat":43.36930556,"lon":-72.37108333,"rng_nm":50,"alt_fmsl":0,"id":"CNH","desc":"CLAREMONT NDB"},
{"type":"NDB","hdg_t":67.1,"dist_nm":62.8,"freq":353,"lat":44.50422222,"lon":-72.02925000,"rng_nm":50,"alt_fmsl":0,"id":"LLX","desc":"LYNDONVILLE NDB"},
{"type":"VOR","hdg_t":178.7,"dist_nm":66.6,"freq":115,"lat":42.99427778,"lon":-73.34402778,"rng_nm":40,"alt_fmsl":1490,"id":"CAM","desc":"CAMBRIDGE VOR-DME"},
{"type":"VOR","hdg_t":1.9,"dist_nm":69,"freq":115.8,"lat":45.25580556,"lon":-73.32127778,"rng_nm":130,"alt_fmsl":156,"id":"YJN","desc":"ST JEAN VORTAC"},
{"type":"NDB","hdg_t":19.8,"dist_nm":72.5,"freq":343,"lat":45.24097222,"lon":-72.79644444,"rng_nm":50,"alt_fmsl":0,"id":"ZBM","desc":"BROMONT NDB"},
{"type":"NDB","hdg_t":162.2,"dist_nm":74.1,"freq":224,"lat":42.92758333,"lon":-72.86400000,"rng_nm":50,"alt_fmsl":0,"id":"VWD","desc":"MOUNT SNOW NDB"},
{"type":"NDB","hdg_t":77.4,"dist_nm":74.5,"freq":386,"lat":44.36233333,"lon":-71.68591667,"rng_nm":50,"alt_fmsl":0,"id":"GMA","desc":"MAHN NDB"},
{"type":"NDB","hdg_t":300.3,"dist_nm":74.5,"freq":400,"lat":44.72338889,"lon":-74.88269444,"rng_nm":50,"alt_fmsl":0,"id":"PTD","desc":"POTSDAM NDB"},
{"type":"VOR","hdg_t":310.5,"dist_nm":75.4,"freq":114.1,"lat":44.91444444,"lon":-74.72266667,"rng_nm":130,"alt_fmsl":200,"id":"MSS","desc":"MASSENA VORTAC"},
{"type":"SDME","hdg_t":20.8,"dist_nm":76.6,"freq":110.7,"lat":45.29782200,"lon":-72.73321400,"rng_nm":25,"alt_fmsl":374,"id":"I6R","desc":"BROMONT DME"},
{"type":"NDB","hdg_t":212.4,"dist_nm":78.3,"freq":523,"lat":42.99941667,"lon":-74.33144444,"rng_nm":50,"alt_fmsl":0,"id":"JJH","desc":"JOHNSTOWN NDB"},
{"type":"NDB","hdg_t":198.1,"dist_nm":78.8,"freq":356,"lat":42.85419444,"lon":-73.93347222,"rng_nm":50,"alt_fmsl":0,"id":"HEU","desc":"HUNTER NDB"},
{"type":"NDB","hdg_t":193.8,"dist_nm":79.5,"freq":219,"lat":42.81730556,"lon":-73.80850000,"rng_nm":50,"alt_fmsl":0,"id":"AL","desc":"HAWKY NDB"},
{"type":"NDB","hdg_t":304.7,"dist_nm":79.8,"freq":278,"lat":44.85408333,"lon":-74.91580556,"rng_nm":50,"alt_fmsl":0,"id":"MS","desc":"MISSE NDB"},
{"type":"NDB","hdg_t":348.3,"dist_nm":82.6,"freq":201,"lat":45.45416667,"lon":-73.77380556,"rng_nm":50,"alt_fmsl":0,"id":"ZDV","desc":"VALOIS(MONTREAL I NDB"},
{"type":"SDME","hdg_t":349.4,"dist_nm":82.6,"freq":110.5,"lat":45.45916700,"lon":-73.73750000,"rng_nm":25,"alt_fmsl":117,"id":"IOA","desc":"MONTREAL DORVAL INTL DME"},
{"type":"DME","hdg_t":348.7,"dist_nm":83.1,"freq":116.3,"lat":45.46416667,"lon":-73.76333333,"rng_nm":130,"alt_fmsl":200,"id":"YUL","desc":"MONTREAL VOR-DME"},
{"type":"SDME","hdg_t":348.7,"dist_nm":83.1,"freq":109.3,"lat":45.46416700,"lon":-73.76333300,"rng_nm":25,"alt_fmsl":117,"id":"IUL","desc":"MONTREAL DME"},
{"type":"VOR","hdg_t":193,"dist_nm":83.5,"freq":115.3,"lat":42.74727778,"lon":-73.80319444,"rng_nm":40,"alt_fmsl":274,"id":"ALB","desc":"ALBANY VORTAC"},
{"type":"NDB","hdg_t":346.3,"dist_nm":83.7,"freq":248,"lat":45.46047222,"lon":-73.84730556,"rng_nm":50,"alt_fmsl":0,"id":"UL","desc":"MONTREAL NDB"},
{"type":"SDME","hdg_t":358.9,"dist_nm":84.7,"freq":117.3,"lat":45.51698600,"lon":-73.41489400,"rng_nm":130,"alt_fmsl":169,"id":"UHU","desc":"ST HUBERT TACAN"},
{"type":"NDB","hdg_t":352.2,"dist_nm":85.8,"freq":348,"lat":45.52361111,"lon":-73.65388889,"rng_nm":50,"alt_fmsl":0,"id":"ZUL","desc":"ROCKLAND(MONTREAL NDB"},
{"type":"NDB","hdg_t":112.4,"dist_nm":86.9,"freq":328,"lat":43.53663889,"lon":-71.53702778,"rng_nm":50,"alt_fmsl":0,"id":"LC","desc":"BLNAP NDB"},
{"type":"NDB","hdg_t":352.2,"dist_nm":87,"freq":284,"lat":45.54258333,"lon":-73.65688889,"rng_nm":50,"alt_fmsl":0,"id":"ZMT","desc":"JARRY(MONTREAL PI NDB"},
{"type":"NDB","hdg_t":0.8,"dist_nm":87.5,"freq":407,"lat":45.56408333,"lon":-73.34694444,"rng_nm":50,"alt_fmsl":0,"id":"ZHU","desc":"HAUTS-BOIS(MONTRE NDB"},
{"type":"VOR","hdg_t":148.5,"dist_nm":91.8,"freq":109.4,"lat":42.79427778,"lon":-72.29177778,"rng_nm":40,"alt_fmsl":1380,"id":"EEN","desc":"KEENE VORTAC"},
{"type":"NDB","hdg_t":293.5,"dist_nm":92.1,"freq":358,"lat":44.70150000,"lon":-75.35300000,"rng_nm":50,"alt_fmsl":0,"id":"OG","desc":"OGIVE NDB"},
{"type":"VOR","hdg_t":344.6,"dist_nm":94,"freq":116.3,"lat":45.61575000,"lon":-73.97091667,"rng_nm":130,"alt_fmsl":200,"id":"YUL","desc":"MONTREAL VOR-DME"},
{"type":"VOR","hdg_t":123.4,"dist_nm":94.7,"freq":112.9,"lat":43.21977778,"lon":-71.57544444,"rng_nm":40,"alt_fmsl":715,"id":"CON","desc":"CONCORD VORTAC"},
{"type":"NDB","hdg_t":341.8,"dist_nm":96,"freq":272,"lat":45.62472222,"lon":-74.08805556,"rng_nm":50,"alt_fmsl":0,"id":"ZMR","desc":"BELLE-RIVIERE(MON NDB"},
{"type":"NDB","hdg_t":72.6,"dist_nm":98.8,"freq":281,"lat":44.57690300,"lon":-71.17909200,"rng_nm":25,"alt_fmsl":1158,"id":"HXK","desc":"HORNEBROOK NDB"},
{"type":"VOR","hdg_t":70.6,"dist_nm":99.5,"freq":110.4,"lat":44.63341667,"lon":-71.18611111,"rng_nm":25,"alt_fmsl":1731,"id":"BML","desc":"BERLIN VOR-DME"},
{"type":"VOR","hdg_t":42.5,"dist_nm":99.5,"freq":113.2,"lat":45.31644444,"lon":-71.78813889,"rng_nm":130,"alt_fmsl":1000,"id":"YSC","desc":"SHERBROOKE VORTAC"}
]
}
