{"success":true,"source":"xp2csv.pl","last_updated":"2013/11/08 14:53:21 UTC"
,"icao":"VTSK","name":"Pattani","lat":6.785457,"lon":101.153569,"rwys":1,"ils":0,"index":4610097,"path":"e100n00/e101n06"
,"runways":[
{"len_m":1401,"wid_m":39.93,"hdg":86,"surf":"Asphalt","rwy1":"08","lat1":6.78503300,"lon1":101.14724400,"rwy2":"26","lat2":6.78588100,"lon2":101.15989400}
]
,"radios":[
{"type":"TWR","freq":119.3,"desc":"TWR"},
{"type":"APP","freq":125.55,"desc":"APP"}
]
,"navaids":[
{"type":"NDB","hdg_t":297.9,"dist_nm":0.3,"freq":201,"lat":6.78845800,"lon":101.14791900,"rng_nm":50,"alt_fmsl":0,"id":"PT","desc":"PATTANI NDB"},
{"type":"VOR","hdg_t":113.5,"dist_nm":38.5,"freq":116.3,"lat":6.52728900,"lon":101.74513300,"rng_nm":50,"alt_fmsl":18,"id":"NTW","desc":"NARATHIWAT VOR-DME"},
{"type":"NDB","hdg_t":113.8,"dist_nm":38.8,"freq":383,"lat":6.52239200,"lon":101.74854200,"rng_nm":50,"alt_fmsl":0,"id":"NT","desc":"NARATHIWAT NDB"},
{"type":"NDB","hdg_t":306.2,"dist_nm":40.6,"freq":410,"lat":7.18805600,"lon":100.60416700,"rng_nm":75,"alt_fmsl":12,"id":"SK","desc":"SONGKHLA NDB"},
{"type":"VOR","hdg_t":306.3,"dist_nm":40.6,"freq":113.5,"lat":7.18879200,"lon":100.60419700,"rng_nm":50,"alt_fmsl":12,"id":"SKL","desc":"SONGKHLA VOR-DME"},
{"type":"SDME","hdg_t":280.8,"dist_nm":46.2,"freq":115.7,"lat":6.93021900,"lon":100.39235900,"rng_nm":50,"alt_fmsl":90,"id":"HTY","desc":"HAT YAI TACAN"},
{"type":"NDB","hdg_t":281.2,"dist_nm":46.5,"freq":328,"lat":6.93638900,"lon":100.38890800,"rng_nm":50,"alt_fmsl":0,"id":"HY","desc":"HAT YAI NDB"},
{"type":"VOR","hdg_t":281,"dist_nm":46.5,"freq":115.3,"lat":6.93409700,"lon":100.38790800,"rng_nm":50,"alt_fmsl":122,"id":"HTY","desc":"HAT YAI VOR-DME"},
{"type":"VOR","hdg_t":231.6,"dist_nm":57.6,"freq":113.6,"lat":6.18566700,"lon":100.39700000,"rng_nm":130,"alt_fmsl":15,"id":"VAS","desc":"ALOR STAR VOR-DME"},
{"type":"NDB","hdg_t":231.3,"dist_nm":59.8,"freq":385,"lat":6.15919400,"lon":100.37155600,"rng_nm":50,"alt_fmsl":0,"id":"AT","desc":"ALOR STAR NDB"},
{"type":"NDB","hdg_t":118.9,"dist_nm":75.2,"freq":240,"lat":6.17500000,"lon":102.25500000,"rng_nm":50,"alt_fmsl":0,"id":"KB","desc":"KOTA BHARU NDB"},
{"type":"VOR","hdg_t":118.1,"dist_nm":78.6,"freq":112.3,"lat":6.16341700,"lon":102.31419400,"rng_nm":25,"alt_fmsl":16,"id":"VKB","desc":"KOTA BHARU VOR-DME"},
{"type":"VOR","hdg_t":253,"dist_nm":87.8,"freq":114.1,"lat":6.35541700,"lon":99.74738900,"rng_nm":25,"alt_fmsl":57,"id":"VPL","desc":"LANGKAWI VOR-DME"},
{"type":"NDB","hdg_t":252,"dist_nm":89.5,"freq":344,"lat":6.32055600,"lon":99.72777800,"rng_nm":50,"alt_fmsl":0,"id":"LK","desc":"LANGKAWI NDB"},
{"type":"VOR","hdg_t":210.1,"dist_nm":90.4,"freq":113.3,"lat":5.47630600,"lon":100.39369400,"rng_nm":130,"alt_fmsl":11,"id":"VBT","desc":"BUTTERWORTH VORTAC"},
{"type":"SDME","hdg_t":210.1,"dist_nm":90.6,"freq":113.5,"lat":5.47186100,"lon":100.39313900,"rng_nm":130,"alt_fmsl":11,"id":"BTR","desc":"BUTTERWORTH TACAN"},
{"type":"VOR","hdg_t":126.6,"dist_nm":98.7,"freq":116.6,"lat":5.79731900,"lon":102.47864200,"rng_nm":25,"alt_fmsl":40,"id":"VGK","desc":"GONG KEDAK VORTAC"},
{"type":"NDB","hdg_t":126.3,"dist_nm":99.2,"freq":520,"lat":5.79805600,"lon":102.49027800,"rng_nm":50,"alt_fmsl":0,"id":"GK","desc":"GONG KEDAK NDB"}
]
}
