{"success":true,"source":"xp2csv.pl","last_updated":"2013/11/08 14:53:21 UTC"
,"icao":"W14","name":"Merifield","lat":36.58458583,"lon":-78.50083223,"rwys":1,"ils":0,"index":1662881,"path":"w080n30/w079n36"
,"runways":[
{"len_m":723,"wid_m":22.86,"hdg":142,"surf":"Turf/grass","rwy1":"15","lat1":36.58718612,"lon1":-78.50327247,"rwy2":"33","lat2":36.58198554,"lon2":-78.49839199}
]
,"navaids":[
{"type":"NDB","hdg_t":198.5,"dist_nm":17.9,"freq":271,"lat":36.30122222,"lon":-78.61850000,"rng_nm":50,"alt_fmsl":0,"id":"HXO","desc":"HUNTSBORO NDB"},
{"type":"NDB","hdg_t":85.1,"dist_nm":21.7,"freq":373,"lat":36.61455556,"lon":-78.05316667,"rng_nm":50,"alt_fmsl":0,"id":"AEA","desc":"JONES NDB"},
{"type":"VOR","hdg_t":282.4,"dist_nm":25.3,"freq":110.4,"lat":36.67502778,"lon":-79.01450000,"rng_nm":40,"alt_fmsl":530,"id":"SBV","desc":"SOUTH BOSTON VORTAC"},
{"type":"VOR","hdg_t":63.9,"dist_nm":32,"freq":112.9,"lat":36.81802778,"lon":-77.90297222,"rng_nm":40,"alt_fmsl":350,"id":"LVL","desc":"LAWRENCEVILLE VORTAC"},
{"type":"NDB","hdg_t":232.6,"dist_nm":34.5,"freq":220,"lat":36.23327778,"lon":-79.06588889,"rng_nm":50,"alt_fmsl":0,"id":"HUR","desc":"PERSON(LOM/NDB) NDB"},
{"type":"NDB","hdg_t":33.9,"dist_nm":39.2,"freq":326,"lat":37.12744444,"lon":-78.04452778,"rng_nm":50,"alt_fmsl":0,"id":"BKT","desc":"BLACKSTONE NDB"},
{"type":"NDB","hdg_t":102.4,"dist_nm":39.2,"freq":407,"lat":36.44097222,"lon":-77.70830556,"rng_nm":50,"alt_fmsl":0,"id":"RZZ","desc":"RAPIDS NDB"},
{"type":"VOR","hdg_t":268.9,"dist_nm":40.4,"freq":113.1,"lat":36.56886111,"lon":-79.33669444,"rng_nm":40,"alt_fmsl":0,"id":"DAN","desc":"DANVILLE VOR"},
{"type":"NDB","hdg_t":195.3,"dist_nm":40.8,"freq":350,"lat":35.92722222,"lon":-78.72191667,"rng_nm":50,"alt_fmsl":0,"id":"LE","desc":"LEEVY NDB"},
{"type":"VOR","hdg_t":197.9,"dist_nm":44.8,"freq":117.2,"lat":35.87252778,"lon":-78.78333333,"rng_nm":130,"alt_fmsl":429,"id":"RDU","desc":"RALEIGH/DURHAM VORTAC"},
{"type":"NDB","hdg_t":3.7,"dist_nm":46.1,"freq":367,"lat":37.35300000,"lon":-78.43752778,"rng_nm":50,"alt_fmsl":0,"id":"FVX","desc":"FARMVILLE NDB"},
{"type":"NDB","hdg_t":87.4,"dist_nm":51.9,"freq":261,"lat":36.61797222,"lon":-77.42550000,"rng_nm":50,"alt_fmsl":0,"id":"ELQ","desc":"EMPORIA NDB"},
{"type":"VOR","hdg_t":133,"dist_nm":53.1,"freq":117.8,"lat":35.97677778,"lon":-77.70375000,"rng_nm":40,"alt_fmsl":70,"id":"TYI","desc":"TAR RIVER VORTAC"},
{"type":"VOR","hdg_t":318.8,"dist_nm":53.5,"freq":109.2,"lat":37.25458333,"lon":-79.23638889,"rng_nm":40,"alt_fmsl":871,"id":"LYH","desc":"LYNCHBURG VORTAC"},
{"type":"NDB","hdg_t":318.8,"dist_nm":54,"freq":385,"lat":37.26241667,"lon":-79.24313889,"rng_nm":50,"alt_fmsl":0,"id":"LY","desc":"BOJAR NDB"},
{"type":"NDB","hdg_t":53.4,"dist_nm":55.3,"freq":284,"lat":37.13027778,"lon":-77.57447222,"rng_nm":50,"alt_fmsl":0,"id":"PTB","desc":"PETERSBURG NDB"},
{"type":"NDB","hdg_t":151.8,"dist_nm":55.4,"freq":235,"lat":35.76765800,"lon":-77.96459700,"rng_nm":25,"alt_fmsl":158,"id":"RW","desc":"JAMBE NDB"},
{"type":"NDB","hdg_t":129.7,"dist_nm":60.4,"freq":257,"lat":35.93544444,"lon":-77.54636111,"rng_nm":50,"alt_fmsl":0,"id":"ETC","desc":"TARBORO NDB"},
{"type":"NDB","hdg_t":259.1,"dist_nm":62.2,"freq":423,"lat":36.38169444,"lon":-79.76277778,"rng_nm":50,"alt_fmsl":0,"id":"SIF","desc":"SLAMMER NDB"},
{"type":"NDB","hdg_t":235.6,"dist_nm":63.9,"freq":361,"lat":35.97811111,"lon":-79.58483333,"rng_nm":50,"alt_fmsl":0,"id":"HB","desc":"ALAMM NDB"},
{"type":"VOR","hdg_t":29.5,"dist_nm":65.1,"freq":113.3,"lat":37.52850000,"lon":-77.82822222,"rng_nm":130,"alt_fmsl":460,"id":"FAK","desc":"FLAT ROCK VORTAC"},
{"type":"NDB","hdg_t":176.8,"dist_nm":66.5,"freq":263,"lat":35.47497222,"lon":-78.42522222,"rng_nm":50,"alt_fmsl":0,"id":"JN","desc":"JURLY NDB"},
{"type":"NDB","hdg_t":223.7,"dist_nm":67.9,"freq":371,"lat":35.76152778,"lon":-79.46225000,"rng_nm":50,"alt_fmsl":0,"id":"TOX","desc":"SILER CITY NDB"},
{"type":"NDB","hdg_t":270.6,"dist_nm":68.4,"freq":396,"lat":36.59008333,"lon":-79.91744444,"rng_nm":50,"alt_fmsl":0,"id":"UV","desc":"BALES NDB"},
{"type":"NDB","hdg_t":187,"dist_nm":69.5,"freq":417,"lat":35.43300000,"lon":-78.67475000,"rng_nm":50,"alt_fmsl":0,"id":"HQT","desc":"HARNETT NDB"},
{"type":"VOR","hdg_t":229.7,"dist_nm":71.1,"freq":113,"lat":35.81163889,"lon":-79.61261111,"rng_nm":40,"alt_fmsl":830,"id":"LIB","desc":"LIBERTY VORTAC"},
{"type":"NDB","hdg_t":205.7,"dist_nm":72.1,"freq":406,"lat":35.49730556,"lon":-79.13991667,"rng_nm":50,"alt_fmsl":0,"id":"TT","desc":"LEECO NDB"},
{"type":"VOR","hdg_t":83.3,"dist_nm":72.2,"freq":110.6,"lat":36.71425000,"lon":-77.01238889,"rng_nm":40,"alt_fmsl":84,"id":"FKN","desc":"FRANKLIN VORTAC"},
{"type":"SDME","hdg_t":247.9,"dist_nm":74.2,"freq":111.9,"lat":36.11145556,"lon":-79.91745278,"rng_nm":18,"alt_fmsl":882,"id":"ILZY","desc":"KGSO 05R DME-ILS DME"},
{"type":"SDME","hdg_t":248.5,"dist_nm":74.9,"freq":109.55,"lat":36.11876111,"lon":-79.93550833,"rng_nm":18,"alt_fmsl":882,"id":"ILLG","desc":"KGSO 05L DME-ILS DME"},
{"type":"NDB","hdg_t":133.4,"dist_nm":75.9,"freq":230,"lat":35.70688889,"lon":-77.37188889,"rng_nm":50,"alt_fmsl":0,"id":"AQE","desc":"ALWOOD NDB"},
{"type":"NDB","hdg_t":299.5,"dist_nm":76.1,"freq":277,"lat":37.20405556,"lon":-79.88163889,"rng_nm":50,"alt_fmsl":0,"id":"VIT","desc":"VINTN NDB"},
{"type":"NDB","hdg_t":71.2,"dist_nm":76.1,"freq":274,"lat":36.98319444,"lon":-77.00108333,"rng_nm":50,"alt_fmsl":0,"id":"AKQ","desc":"WAKEFIELD NDB"},
{"type":"SDME","hdg_t":248,"dist_nm":76.6,"freq":109.7,"lat":36.09776389,"lon":-79.96214444,"rng_nm":18,"alt_fmsl":925,"id":"IIDB","desc":"KGSO 23R DME-ILS DME"},
{"type":"NDB","hdg_t":123.7,"dist_nm":77.5,"freq":336,"lat":35.85905556,"lon":-77.17794444,"rng_nm":50,"alt_fmsl":0,"id":"MCZ","desc":"WILLIAMSTON NDB"},
{"type":"NDB","hdg_t":251.8,"dist_nm":78.4,"freq":254,"lat":36.16697222,"lon":-80.03563889,"rng_nm":50,"alt_fmsl":0,"id":"GS","desc":"MARKY NDB"},
{"type":"VOR","hdg_t":246.1,"dist_nm":78.4,"freq":116.2,"lat":36.04569444,"lon":-79.97638889,"rng_nm":130,"alt_fmsl":879,"id":"GSO","desc":"GREENSBORO VORTAC"},
{"type":"VOR","hdg_t":45.5,"dist_nm":78.9,"freq":114.1,"lat":37.50236111,"lon":-77.32027778,"rng_nm":130,"alt_fmsl":159,"id":"RIC","desc":"RICHMOND VORTAC"},
{"type":"SDME","hdg_t":160.8,"dist_nm":79.1,"freq":116.5,"lat":35.33502800,"lon":-77.97160600,"rng_nm":40,"alt_fmsl":82,"id":"GSB","desc":"SEYMOUR JOHNSON TACAN"},
{"type":"VOR","hdg_t":98.6,"dist_nm":79.8,"freq":114.6,"lat":36.37291667,"lon":-76.87152778,"rng_nm":40,"alt_fmsl":70,"id":"CVI","desc":"COFIELD VORTAC"},
{"type":"VOR","hdg_t":55.7,"dist_nm":80.1,"freq":112,"lat":37.32886111,"lon":-77.11594444,"rng_nm":40,"alt_fmsl":70,"id":"HPW","desc":"HOPEWELL VORTAC"},
{"type":"VOR","hdg_t":302.3,"dist_nm":83.7,"freq":114.9,"lat":37.32419444,"lon":-79.97897222,"rng_nm":25,"alt_fmsl":0,"id":"ODR","desc":"WOODRUM VOR"},
{"type":"VOR","hdg_t":339.9,"dist_nm":84,"freq":115.3,"lat":37.90052778,"lon":-79.10688889,"rng_nm":40,"alt_fmsl":3460,"id":"MOL","desc":"MONTEBELLO VOR-DME"},
{"type":"NDB","hdg_t":232.2,"dist_nm":84.2,"freq":266,"lat":35.71625000,"lon":-79.86530556,"rng_nm":50,"alt_fmsl":0,"id":"CQJ","desc":"CITY LAKE NDB"},
{"type":"NDB","hdg_t":195.3,"dist_nm":84.2,"freq":338,"lat":35.22683333,"lon":-78.95436111,"rng_nm":50,"alt_fmsl":0,"id":"POB","desc":"POPE NDB"},
{"type":"DME","hdg_t":37.1,"dist_nm":84.2,"freq":109.7,"lat":37.70029889,"lon":-77.43139970,"rng_nm":18,"alt_fmsl":208,"id":"KOFP","desc":"16 DME-ILS"},
{"type":"NDB","hdg_t":359.4,"dist_nm":85.4,"freq":336,"lat":38.01016667,"lon":-78.51808333,"rng_nm":50,"alt_fmsl":0,"id":"AZS","desc":"AZALEA PARK NDB"},
{"type":"VOR","hdg_t":147.4,"dist_nm":85.9,"freq":109.6,"lat":35.37094444,"lon":-77.55833333,"rng_nm":40,"alt_fmsl":106,"id":"ISO","desc":"KINSTON VORTAC"},
{"type":"NDB","hdg_t":249.6,"dist_nm":86.4,"freq":317,"lat":36.07091667,"lon":-80.16683333,"rng_nm":50,"alt_fmsl":0,"id":"IN","desc":"REENO NDB"},
{"type":"VOR","hdg_t":10.8,"dist_nm":87.2,"freq":115.6,"lat":38.01361111,"lon":-78.15302778,"rng_nm":130,"alt_fmsl":382,"id":"GVE","desc":"GORDONSVILLE VORTAC"},
{"type":"NDB","hdg_t":190,"dist_nm":87.9,"freq":393,"lat":35.13905556,"lon":-78.81280556,"rng_nm":50,"alt_fmsl":0,"id":"FGP","desc":"FORT BRAGG NDB"},
{"type":"VOR","hdg_t":301.5,"dist_nm":88.1,"freq":109.4,"lat":37.34347222,"lon":-80.07038889,"rng_nm":40,"alt_fmsl":3072,"id":"ROA","desc":"ROANOKE VORTAC"},
{"type":"SDME","hdg_t":196.7,"dist_nm":88.5,"freq":113.8,"lat":35.16848600,"lon":-79.01966900,"rng_nm":40,"alt_fmsl":240,"id":"POB","desc":"POPE TACAN"},
{"type":"NDB","hdg_t":153.7,"dist_nm":89.3,"freq":276,"lat":35.24391667,"lon":-77.69825000,"rng_nm":50,"alt_fmsl":0,"id":"IS","desc":"STALS NDB"},
{"type":"NDB","hdg_t":297.4,"dist_nm":89.4,"freq":379,"lat":37.26139700,"lon":-80.15815000,"rng_nm":25,"alt_fmsl":1220,"id":"CNQ","desc":"CALLAHAN NDB"},
{"type":"NDB","hdg_t":133.1,"dist_nm":93.5,"freq":388,"lat":35.50966667,"lon":-77.10661111,"rng_nm":50,"alt_fmsl":0,"id":"RNW","desc":"CHOCOWINITY NDB"},
{"type":"NDB","hdg_t":162.4,"dist_nm":94.9,"freq":332,"lat":35.07225000,"lon":-77.91886111,"rng_nm":50,"alt_fmsl":0,"id":"DKA","desc":"KENAN NDB"},
{"type":"NDB","hdg_t":118.2,"dist_nm":96.3,"freq":221,"lat":35.80988300,"lon":-76.76272200,"rng_nm":25,"alt_fmsl":38,"id":"PMZ","desc":"PLYMOUTH NDB"},
{"type":"NDB","hdg_t":69.3,"dist_nm":96.5,"freq":226,"lat":37.13877778,"lon":-76.61855556,"rng_nm":50,"alt_fmsl":0,"id":"FAF","desc":"FELKER NDB"},
{"type":"NDB","hdg_t":175.9,"dist_nm":96.6,"freq":412,"lat":34.97544444,"lon":-78.36305556,"rng_nm":50,"alt_fmsl":0,"id":"CTZ","desc":"CLINTON NDB"},
{"type":"VOR","hdg_t":190.9,"dist_nm":97.5,"freq":108.8,"lat":34.98555556,"lon":-78.87505556,"rng_nm":40,"alt_fmsl":179,"id":"FAY","desc":"FAYETTEVILLE VOR-DME"},
{"type":"VOR","hdg_t":213.1,"dist_nm":97.6,"freq":111.8,"lat":35.21547222,"lon":-79.58794444,"rng_nm":40,"alt_fmsl":590,"id":"SDZ","desc":"SANDHILLS VORTAC"},
{"type":"NDB","hdg_t":292.7,"dist_nm":98.9,"freq":368,"lat":37.20861111,"lon":-80.40344444,"rng_nm":50,"alt_fmsl":0,"id":"TEC","desc":"TECH NDB"},
{"type":"NDB","hdg_t":347.4,"dist_nm":99.3,"freq":375,"lat":38.20175000,"lon":-78.95736111,"rng_nm":50,"alt_fmsl":0,"id":"SH","desc":"STAUT NDB"},
{"type":"NDB","hdg_t":263.5,"dist_nm":99.4,"freq":223,"lat":36.38097222,"lon":-80.54019444,"rng_nm":50,"alt_fmsl":0,"id":"AZW","desc":"MT AIRY NDB"},
{"type":"NDB","hdg_t":109,"dist_nm":99.6,"freq":265,"lat":36.02544444,"lon":-76.56650000,"rng_nm":50,"alt_fmsl":0,"id":"EDE","desc":"EDENTON NDB"}
]
}
