{"success":true,"source":"xp2csv.pl","last_updated":"2013/11/08 14:53:21 UTC"
,"icao":"W31","name":"Lunenburg Co","lat":36.96,"lon":-78.185,"rwys":1,"ils":0,"index":1662907,"path":"w080n30/w079n36"
,"runways":[
{"len_m":912,"wid_m":15.24,"hdg":18,"surf":"Asphalt","rwy1":"02","lat1":36.95611100,"lon1":-78.18666700,"rwy2":"20","lat2":36.96388900,"lon2":-78.18333300}
]
,"radios":[
{"type":"CTAF","freq":122.7,"desc":"CTAF/UNICOM"}
]
,"navaids":[
{"type":"NDB","hdg_t":33.8,"dist_nm":12,"freq":326,"lat":37.12744444,"lon":-78.04452778,"rng_nm":50,"alt_fmsl":0,"id":"BKT","desc":"BLACKSTONE NDB"},
{"type":"VOR","hdg_t":121.9,"dist_nm":16,"freq":112.9,"lat":36.81802778,"lon":-77.90297222,"rng_nm":40,"alt_fmsl":350,"id":"LVL","desc":"LAWRENCEVILLE VORTAC"},
{"type":"NDB","hdg_t":162.8,"dist_nm":21.6,"freq":373,"lat":36.61455556,"lon":-78.05316667,"rng_nm":50,"alt_fmsl":0,"id":"AEA","desc":"JONES NDB"},
{"type":"NDB","hdg_t":332.8,"dist_nm":26.4,"freq":367,"lat":37.35300000,"lon":-78.43752778,"rng_nm":50,"alt_fmsl":0,"id":"FVX","desc":"FARMVILLE NDB"},
{"type":"NDB","hdg_t":70.6,"dist_nm":31,"freq":284,"lat":37.13027778,"lon":-77.57447222,"rng_nm":50,"alt_fmsl":0,"id":"PTB","desc":"PETERSBURG NDB"},
{"type":"VOR","hdg_t":26.5,"dist_nm":38.1,"freq":113.3,"lat":37.52850000,"lon":-77.82822222,"rng_nm":130,"alt_fmsl":460,"id":"FAK","desc":"FLAT ROCK VORTAC"},
{"type":"NDB","hdg_t":143.3,"dist_nm":38.6,"freq":407,"lat":36.44097222,"lon":-77.70830556,"rng_nm":50,"alt_fmsl":0,"id":"RZZ","desc":"RAPIDS NDB"},
{"type":"NDB","hdg_t":119,"dist_nm":41.9,"freq":261,"lat":36.61797222,"lon":-77.42550000,"rng_nm":50,"alt_fmsl":0,"id":"ELQ","desc":"EMPORIA NDB"},
{"type":"VOR","hdg_t":247.1,"dist_nm":43.4,"freq":110.4,"lat":36.67502778,"lon":-79.01450000,"rng_nm":40,"alt_fmsl":530,"id":"SBV","desc":"SOUTH BOSTON VORTAC"},
{"type":"NDB","hdg_t":208,"dist_nm":44.6,"freq":271,"lat":36.30122222,"lon":-78.61850000,"rng_nm":50,"alt_fmsl":0,"id":"HXO","desc":"HUNTSBORO NDB"},
{"type":"VOR","hdg_t":51.6,"dist_nm":52.6,"freq":114.1,"lat":37.50236111,"lon":-77.32027778,"rng_nm":130,"alt_fmsl":159,"id":"RIC","desc":"RICHMOND VORTAC"},
{"type":"VOR","hdg_t":289.5,"dist_nm":53.4,"freq":109.2,"lat":37.25458333,"lon":-79.23638889,"rng_nm":40,"alt_fmsl":871,"id":"LYH","desc":"LYNCHBURG VORTAC"},
{"type":"NDB","hdg_t":289.9,"dist_nm":53.9,"freq":385,"lat":37.26241667,"lon":-79.24313889,"rng_nm":50,"alt_fmsl":0,"id":"LY","desc":"BOJAR NDB"},
{"type":"VOR","hdg_t":66.3,"dist_nm":55.8,"freq":112,"lat":37.32886111,"lon":-77.11594444,"rng_nm":40,"alt_fmsl":70,"id":"HPW","desc":"HOPEWELL VORTAC"},
{"type":"NDB","hdg_t":88.2,"dist_nm":56.9,"freq":274,"lat":36.98319444,"lon":-77.00108333,"rng_nm":50,"alt_fmsl":0,"id":"AKQ","desc":"WAKEFIELD NDB"},
{"type":"DME","hdg_t":38.8,"dist_nm":57.1,"freq":109.7,"lat":37.70029889,"lon":-77.43139970,"rng_nm":18,"alt_fmsl":208,"id":"KOFP","desc":"16 DME-ILS"},
{"type":"VOR","hdg_t":104.2,"dist_nm":58.3,"freq":110.6,"lat":36.71425000,"lon":-77.01238889,"rng_nm":40,"alt_fmsl":84,"id":"FKN","desc":"FRANKLIN VORTAC"},
{"type":"VOR","hdg_t":247.4,"dist_nm":60.2,"freq":113.1,"lat":36.56886111,"lon":-79.33669444,"rng_nm":40,"alt_fmsl":0,"id":"DAN","desc":"DANVILLE VOR"},
{"type":"NDB","hdg_t":224.6,"dist_nm":60.8,"freq":220,"lat":36.23327778,"lon":-79.06588889,"rng_nm":50,"alt_fmsl":0,"id":"HUR","desc":"PERSON(LOM/NDB) NDB"},
{"type":"VOR","hdg_t":1.3,"dist_nm":63.1,"freq":115.6,"lat":38.01361111,"lon":-78.15302778,"rng_nm":130,"alt_fmsl":382,"id":"GVE","desc":"GORDONSVILLE VORTAC"},
{"type":"VOR","hdg_t":158.2,"dist_nm":63.3,"freq":117.8,"lat":35.97677778,"lon":-77.70375000,"rng_nm":40,"alt_fmsl":70,"id":"TYI","desc":"TAR RIVER VORTAC"},
{"type":"NDB","hdg_t":345.9,"dist_nm":64.9,"freq":336,"lat":38.01016667,"lon":-78.51808333,"rng_nm":50,"alt_fmsl":0,"id":"AZS","desc":"AZALEA PARK NDB"},
{"type":"NDB","hdg_t":202.9,"dist_nm":67.1,"freq":350,"lat":35.92722222,"lon":-78.72191667,"rng_nm":50,"alt_fmsl":0,"id":"LE","desc":"LEEVY NDB"},
{"type":"NDB","hdg_t":153,"dist_nm":68.7,"freq":257,"lat":35.93544444,"lon":-77.54636111,"rng_nm":50,"alt_fmsl":0,"id":"ETC","desc":"TARBORO NDB"},
{"type":"VOR","hdg_t":204.1,"dist_nm":71.3,"freq":117.2,"lat":35.87252778,"lon":-78.78333333,"rng_nm":130,"alt_fmsl":429,"id":"RDU","desc":"RALEIGH/DURHAM VORTAC"},
{"type":"VOR","hdg_t":322.2,"dist_nm":71.5,"freq":115.3,"lat":37.90052778,"lon":-79.10688889,"rng_nm":40,"alt_fmsl":3460,"id":"MOL","desc":"MONTEBELLO VOR-DME"},
{"type":"NDB","hdg_t":171.4,"dist_nm":72.2,"freq":235,"lat":35.76765800,"lon":-77.96459700,"rng_nm":25,"alt_fmsl":158,"id":"RW","desc":"JAMBE NDB"},
{"type":"VOR","hdg_t":118.6,"dist_nm":72.5,"freq":114.6,"lat":36.37291667,"lon":-76.87152778,"rng_nm":40,"alt_fmsl":70,"id":"CVI","desc":"COFIELD VORTAC"},
{"type":"NDB","hdg_t":81.4,"dist_nm":75.9,"freq":226,"lat":37.13877778,"lon":-76.61855556,"rng_nm":50,"alt_fmsl":0,"id":"FAF","desc":"FELKER NDB"},
{"type":"VOR","hdg_t":67,"dist_nm":76.4,"freq":108.8,"lat":37.44866667,"lon":-76.71136111,"rng_nm":40,"alt_fmsl":8,"id":"HCM","desc":"HARCUM VORTAC"},
{"type":"NDB","hdg_t":31,"dist_nm":79,"freq":396,"lat":38.08777778,"lon":-77.32491667,"rng_nm":50,"alt_fmsl":0,"id":"APH","desc":"A P HILL NDB"},
{"type":"NDB","hdg_t":82.2,"dist_nm":81.9,"freq":375,"lat":37.13280556,"lon":-76.49319444,"rng_nm":50,"alt_fmsl":0,"id":"PJS","desc":"HENRY NDB"},
{"type":"NDB","hdg_t":143.2,"dist_nm":82,"freq":336,"lat":35.85905556,"lon":-77.17794444,"rng_nm":50,"alt_fmsl":0,"id":"MCZ","desc":"WILLIAMSTON NDB"},
{"type":"NDB","hdg_t":280.6,"dist_nm":82.7,"freq":277,"lat":37.20405556,"lon":-79.88163889,"rng_nm":50,"alt_fmsl":0,"id":"VIT","desc":"VINTN NDB"},
{"type":"NDB","hdg_t":333.8,"dist_nm":83,"freq":375,"lat":38.20175000,"lon":-78.95736111,"rng_nm":50,"alt_fmsl":0,"id":"SH","desc":"STAUT NDB"},
{"type":"NDB","hdg_t":246,"dist_nm":83.6,"freq":423,"lat":36.38169444,"lon":-79.76277778,"rng_nm":50,"alt_fmsl":0,"id":"SIF","desc":"SLAMMER NDB"},
{"type":"NDB","hdg_t":152,"dist_nm":84.7,"freq":230,"lat":35.70688889,"lon":-77.37188889,"rng_nm":50,"alt_fmsl":0,"id":"AQE","desc":"ALWOOD NDB"},
{"type":"NDB","hdg_t":23.8,"dist_nm":85.7,"freq":237,"lat":38.26638889,"lon":-77.45080556,"rng_nm":50,"alt_fmsl":0,"id":"EZF","desc":"SHANNON NDB"},
{"type":"NDB","hdg_t":36.8,"dist_nm":85.7,"freq":396,"lat":38.10000000,"lon":-77.10000000,"rng_nm":50,"alt_fmsl":99,"id":"ZZA","desc":"ZZZ TEST A NDB"},
{"type":"NDB","hdg_t":255.6,"dist_nm":86.4,"freq":396,"lat":36.59008333,"lon":-79.91744444,"rng_nm":50,"alt_fmsl":0,"id":"UV","desc":"BALES NDB"},
{"type":"NDB","hdg_t":32,"dist_nm":87.9,"freq":397,"lat":38.20000000,"lon":-77.20000000,"rng_nm":50,"alt_fmsl":99,"id":"ZZB","desc":"ZZZ TEST B NDB"},
{"type":"SDME","hdg_t":84.5,"dist_nm":88,"freq":112.3,"lat":37.08556100,"lon":-76.35941100,"rng_nm":40,"alt_fmsl":11,"id":"LFI","desc":"LANGLEY TACAN"},
{"type":"VOR","hdg_t":284.7,"dist_nm":88.7,"freq":114.9,"lat":37.32419444,"lon":-79.97897222,"rng_nm":25,"alt_fmsl":0,"id":"ODR","desc":"WOODRUM VOR"},
{"type":"NDB","hdg_t":229.4,"dist_nm":89.7,"freq":361,"lat":35.97811111,"lon":-79.58483333,"rng_nm":50,"alt_fmsl":0,"id":"HB","desc":"ALAMM NDB"},
{"type":"NDB","hdg_t":187.5,"dist_nm":89.7,"freq":263,"lat":35.47497222,"lon":-78.42522222,"rng_nm":50,"alt_fmsl":0,"id":"JN","desc":"JURLY NDB"},
{"type":"NDB","hdg_t":8.3,"dist_nm":90.5,"freq":351,"lat":38.45433333,"lon":-77.90527778,"rng_nm":50,"alt_fmsl":0,"id":"MSQ","desc":"NAILR NDB"},
{"type":"VOR","hdg_t":27.4,"dist_nm":90.7,"freq":116.7,"lat":38.30000000,"lon":-77.30000000,"rng_nm":100,"alt_fmsl":57,"id":"ZZC","desc":"ZZZ TEST C VOR-DME"},
{"type":"VOR","hdg_t":25.4,"dist_nm":91.5,"freq":114.5,"lat":38.33627778,"lon":-77.35291667,"rng_nm":40,"alt_fmsl":145,"id":"BRV","desc":"BROOKE VORTAC"},
{"type":"SDME","hdg_t":90.1,"dist_nm":91.7,"freq":111.1,"lat":36.93998100,"lon":-76.27729400,"rng_nm":40,"alt_fmsl":45,"id":"NGU","desc":"CHAMBERS TACAN"},
{"type":"NDB","hdg_t":93.8,"dist_nm":93.3,"freq":329,"lat":36.84047222,"lon":-76.25122222,"rng_nm":50,"alt_fmsl":0,"id":"OR","desc":"INGLE NDB"},
{"type":"VOR","hdg_t":284.8,"dist_nm":93.3,"freq":109.4,"lat":37.34347222,"lon":-80.07038889,"rng_nm":40,"alt_fmsl":3072,"id":"ROA","desc":"ROANOKE VORTAC"},
{"type":"SDME","hdg_t":23.1,"dist_nm":94,"freq":108.75,"lat":38.40000000,"lon":-77.40000000,"rng_nm":25,"alt_fmsl":172,"id":"ZZ","desc":"ZZZ TEST D DME"},
{"type":"NDB","hdg_t":194.7,"dist_nm":94.5,"freq":417,"lat":35.43300000,"lon":-78.67475000,"rng_nm":50,"alt_fmsl":0,"id":"HQT","desc":"HARNETT NDB"},
{"type":"NDB","hdg_t":221.1,"dist_nm":94.8,"freq":371,"lat":35.76152778,"lon":-79.46225000,"rng_nm":50,"alt_fmsl":0,"id":"TOX","desc":"SILER CITY NDB"},
{"type":"VOR","hdg_t":91.8,"dist_nm":95.5,"freq":116.9,"lat":36.89188889,"lon":-76.20033333,"rng_nm":130,"alt_fmsl":20,"id":"ORF","desc":"NORFOLK VORTAC"},
{"type":"NDB","hdg_t":125,"dist_nm":96.2,"freq":265,"lat":36.02544444,"lon":-76.56650000,"rng_nm":50,"alt_fmsl":0,"id":"EDE","desc":"EDENTON NDB"},
{"type":"NDB","hdg_t":281.3,"dist_nm":96.4,"freq":379,"lat":37.26139700,"lon":-80.15815000,"rng_nm":25,"alt_fmsl":1220,"id":"CNQ","desc":"CALLAHAN NDB"},
{"type":"NDB","hdg_t":309.7,"dist_nm":97.1,"freq":400,"lat":37.98646900,"lon":-79.75946900,"rng_nm":25,"alt_fmsl":2080,"id":"HS","desc":"DURAN NDB"},
{"type":"NDB","hdg_t":134.5,"dist_nm":97.4,"freq":221,"lat":35.80988300,"lon":-76.76272200,"rng_nm":25,"alt_fmsl":38,"id":"PMZ","desc":"PLYMOUTH NDB"},
{"type":"VOR","hdg_t":225.5,"dist_nm":97.5,"freq":113,"lat":35.81163889,"lon":-79.61261111,"rng_nm":40,"alt_fmsl":830,"id":"LIB","desc":"LIBERTY VORTAC"},
{"type":"SDME","hdg_t":239.2,"dist_nm":97.9,"freq":111.9,"lat":36.11145556,"lon":-79.91745278,"rng_nm":18,"alt_fmsl":882,"id":"ILZY","desc":"KGSO 05R DME-ILS DME"},
{"type":"SDME","hdg_t":173.8,"dist_nm":97.9,"freq":116.5,"lat":35.33502800,"lon":-77.97160600,"rng_nm":40,"alt_fmsl":82,"id":"GSB","desc":"SEYMOUR JOHNSON TACAN"},
{"type":"SDME","hdg_t":239.7,"dist_nm":98.5,"freq":109.55,"lat":36.11876111,"lon":-79.93550833,"rng_nm":18,"alt_fmsl":882,"id":"ILLG","desc":"KGSO 05L DME-ILS DME"},
{"type":"NDB","hdg_t":208.1,"dist_nm":99.1,"freq":406,"lat":35.49730556,"lon":-79.13991667,"rng_nm":50,"alt_fmsl":0,"id":"TT","desc":"LEECO NDB"},
{"type":"VOR","hdg_t":162,"dist_nm":99.9,"freq":109.6,"lat":35.37094444,"lon":-77.55833333,"rng_nm":40,"alt_fmsl":106,"id":"ISO","desc":"KINSTON VORTAC"}
]
}
