{"success":true,"source":"xp2csv.pl","last_updated":"2013/11/08 14:53:21 UTC"
,"icao":"W99","name":"Grant Co","lat":38.994939,"lon":-79.1458655,"rwys":1,"ils":0,"index":1646651,"path":"w080n30/w080n38"
,"runways":[
{"len_m":1523,"wid_m":22.86,"hdg":122,"surf":"Asphalt","rwy1":"13","lat1":38.99860300,"lon1":-79.15330300,"rwy2":"31","lat2":38.99127500,"lon2":-79.13842800}
]
,"radios":[
{"type":"ATIS","freq":124.47,"desc":"AWOS 3"},
{"type":"CTAF","freq":122.8,"desc":"CTAF/UNICOM"}
]
,"navaids":[
{"type":"VOR","hdg_t":27.8,"dist_nm":15.6,"freq":110.8,"lat":39.22550000,"lon":-78.98950000,"rng_nm":40,"alt_fmsl":2590,"id":"ESL","desc":"KESSEL VOR-DME"},
{"type":"NDB","hdg_t":259.9,"dist_nm":33.9,"freq":284,"lat":38.89394444,"lon":-79.85941667,"rng_nm":50,"alt_fmsl":0,"id":"RQY","desc":"RANDOLPH CO NDB"},
{"type":"NDB","hdg_t":119,"dist_nm":36.2,"freq":245,"lat":38.69955556,"lon":-78.47166667,"rng_nm":50,"alt_fmsl":0,"id":"LUA","desc":"CAVERNS NDB"},
{"type":"VOR","hdg_t":6.5,"dist_nm":38.6,"freq":112.3,"lat":39.63502778,"lon":-79.05052778,"rng_nm":40,"alt_fmsl":2640,"id":"GRV","desc":"GRANTSVILLE VOR-DME"},
{"type":"NDB","hdg_t":25.2,"dist_nm":43.3,"freq":317,"lat":39.64825000,"lon":-78.74719444,"rng_nm":50,"alt_fmsl":0,"id":"CBE","desc":"CUMBERLAND NDB"},
{"type":"VOR","hdg_t":264.1,"dist_nm":44.8,"freq":114.2,"lat":38.91444444,"lon":-80.09927778,"rng_nm":40,"alt_fmsl":2160,"id":"EKN","desc":"ELKINS VORTAC"},
{"type":"VOR","hdg_t":100.5,"dist_nm":44.8,"freq":114.3,"lat":38.85438889,"lon":-78.20555556,"rng_nm":40,"alt_fmsl":2440,"id":"LDN","desc":"LINDEN VORTAC"},
{"type":"VOR","hdg_t":315.5,"dist_nm":47.3,"freq":111.6,"lat":39.55669444,"lon":-79.86038889,"rng_nm":40,"alt_fmsl":2339,"id":"MGW","desc":"MORGANTOWN VORTAC"},
{"type":"NDB","hdg_t":169.3,"dist_nm":48.3,"freq":375,"lat":38.20175000,"lon":-78.95736111,"rng_nm":50,"alt_fmsl":0,"id":"SH","desc":"STAUT NDB"},
{"type":"NDB","hdg_t":83.4,"dist_nm":50.6,"freq":364,"lat":39.08650000,"lon":-78.06861111,"rng_nm":50,"alt_fmsl":0,"id":"TZ","desc":"COGAN NDB"},
{"type":"VOR","hdg_t":286.8,"dist_nm":54.6,"freq":112.6,"lat":39.25322222,"lon":-80.26786111,"rng_nm":40,"alt_fmsl":1430,"id":"CKB","desc":"CLARKSBURG VOR-DME"},
{"type":"VOR","hdg_t":350.5,"dist_nm":59.5,"freq":108.2,"lat":39.97425000,"lon":-79.35836111,"rng_nm":40,"alt_fmsl":2820,"id":"IHD","desc":"INDIAN HEAD VORTAC"},
{"type":"NDB","hdg_t":332.5,"dist_nm":60,"freq":299,"lat":39.88277778,"lon":-79.74472222,"rng_nm":50,"alt_fmsl":0,"id":"VV","desc":"CAMOR NDB"},
{"type":"NDB","hdg_t":91.8,"dist_nm":61.5,"freq":227,"lat":38.95400000,"lon":-77.83111111,"rng_nm":50,"alt_fmsl":0,"id":"GDX","desc":"GOODWIN LAKE NDB"},
{"type":"VOR","hdg_t":109,"dist_nm":63.6,"freq":116.3,"lat":38.64119444,"lon":-77.86550000,"rng_nm":130,"alt_fmsl":439,"id":"CSN","desc":"CASANOVA VORTAC"},
{"type":"VOR","hdg_t":68.4,"dist_nm":64.8,"freq":112.1,"lat":39.38558333,"lon":-77.84836111,"rng_nm":40,"alt_fmsl":600,"id":"MRB","desc":"MARTINSBURG VORTAC"},
{"type":"VOR","hdg_t":178.3,"dist_nm":65.6,"freq":115.3,"lat":37.90052778,"lon":-79.10688889,"rng_nm":40,"alt_fmsl":3460,"id":"MOL","desc":"MONTEBELLO VOR-DME"},
{"type":"NDB","hdg_t":153.1,"dist_nm":66,"freq":336,"lat":38.01016667,"lon":-78.51808333,"rng_nm":50,"alt_fmsl":0,"id":"AZS","desc":"AZALEA PARK NDB"},
{"type":"NDB","hdg_t":9.1,"dist_nm":66.2,"freq":209,"lat":40.08569444,"lon":-78.91655556,"rng_nm":50,"alt_fmsl":0,"id":"SYS","desc":"STOYSTOWN NDB"},
{"type":"NDB","hdg_t":118.6,"dist_nm":66.6,"freq":351,"lat":38.45433333,"lon":-77.90527778,"rng_nm":50,"alt_fmsl":0,"id":"MSQ","desc":"NAILR NDB"},
{"type":"NDB","hdg_t":205.7,"dist_nm":67,"freq":400,"lat":37.98646900,"lon":-79.75946900,"rng_nm":25,"alt_fmsl":2080,"id":"HS","desc":"DURAN NDB"},
{"type":"VOR","hdg_t":54.5,"dist_nm":73.3,"freq":109.8,"lat":39.69772222,"lon":-77.85572222,"rng_nm":40,"alt_fmsl":0,"id":"HGR","desc":"HAGERSTOWN VOR"},
{"type":"VOR","hdg_t":141.2,"dist_nm":75.1,"freq":115.6,"lat":38.01361111,"lon":-78.15302778,"rng_nm":130,"alt_fmsl":382,"id":"GVE","desc":"GORDONSVILLE VORTAC"},
{"type":"VOR","hdg_t":92.1,"dist_nm":78.6,"freq":113.5,"lat":38.93458333,"lon":-77.46669444,"rng_nm":40,"alt_fmsl":297,"id":"AML","desc":"ARMEL VORTAC"},
{"type":"VOR","hdg_t":44.2,"dist_nm":79,"freq":115,"lat":39.93322222,"lon":-77.95094444,"rng_nm":40,"alt_fmsl":2340,"id":"THS","desc":"ST THOMAS VORTAC"},
{"type":"NDB","hdg_t":95.7,"dist_nm":80.4,"freq":346,"lat":38.84727778,"lon":-77.43788889,"rng_nm":50,"alt_fmsl":0,"id":"IA","desc":"TILLE NDB"},
{"type":"VOR","hdg_t":10.2,"dist_nm":80.5,"freq":113,"lat":40.31672222,"lon":-78.83416667,"rng_nm":40,"alt_fmsl":2280,"id":"JST","desc":"JOHNSTOWN VORTAC"},
{"type":"NDB","hdg_t":356,"dist_nm":82.9,"freq":382,"lat":40.37544444,"lon":-79.27172222,"rng_nm":50,"alt_fmsl":0,"id":"BHU","desc":"BENJE NDB"},
{"type":"VOR","hdg_t":72.5,"dist_nm":86.2,"freq":109,"lat":39.41222222,"lon":-77.37513889,"rng_nm":25,"alt_fmsl":0,"id":"FDK","desc":"FREDERICK VOR"},
{"type":"NDB","hdg_t":340.3,"dist_nm":86.6,"freq":287,"lat":40.35530556,"lon":-79.78100000,"rng_nm":50,"alt_fmsl":0,"id":"MKP","desc":"MC KEESPORT NDB"},
{"type":"VOR","hdg_t":331.9,"dist_nm":87.4,"freq":110,"lat":40.27866667,"lon":-80.04086111,"rng_nm":40,"alt_fmsl":1289,"id":"AGC","desc":"ALLEGHENY VOR-DME"},
{"type":"VOR","hdg_t":25.8,"dist_nm":88.7,"freq":108.8,"lat":40.32544444,"lon":-78.30369444,"rng_nm":25,"alt_fmsl":0,"id":"AOO","desc":"ALTOONA VOR"},
{"type":"SDME","hdg_t":112.9,"dist_nm":89.4,"freq":108.75,"lat":38.40000000,"lon":-77.40000000,"rng_nm":25,"alt_fmsl":172,"id":"ZZ","desc":"ZZZ TEST D DME"},
{"type":"VOR","hdg_t":221.3,"dist_nm":89.7,"freq":116.05,"lat":37.86380556,"lon":-80.39202778,"rng_nm":40,"alt_fmsl":2319,"id":"LWB","desc":"GREENBRIER VOR-DME"},
{"type":"NDB","hdg_t":118.1,"dist_nm":90.8,"freq":237,"lat":38.26638889,"lon":-77.45080556,"rng_nm":50,"alt_fmsl":0,"id":"EZF","desc":"SHANNON NDB"},
{"type":"VOR","hdg_t":216.8,"dist_nm":91.7,"freq":108.4,"lat":37.76392200,"lon":-80.30164700,"rng_nm":25,"alt_fmsl":3330,"id":"SSU","desc":"WHITE SULPHUR SPRINGS VOR"},
{"type":"NDB","hdg_t":82.9,"dist_nm":93,"freq":385,"lat":39.16972222,"lon":-77.16591667,"rng_nm":50,"alt_fmsl":0,"id":"GAI","desc":"GAITHERSBURG NDB"},
{"type":"VOR","hdg_t":114.5,"dist_nm":93,"freq":114.5,"lat":38.33627778,"lon":-77.35291667,"rng_nm":40,"alt_fmsl":145,"id":"BRV","desc":"BROOKE VORTAC"},
{"type":"NDB","hdg_t":91.7,"dist_nm":94.6,"freq":323,"lat":38.92988889,"lon":-77.12422222,"rng_nm":50,"alt_fmsl":0,"id":"GTN","desc":"GEORGETOWN NDB"},
{"type":"VOR","hdg_t":11,"dist_nm":94.8,"freq":110.6,"lat":40.54647222,"lon":-78.74702778,"rng_nm":40,"alt_fmsl":2340,"id":"REC","desc":"REVLOC VOR-DME"},
{"type":"NDB","hdg_t":221,"dist_nm":95.7,"freq":346,"lat":37.78216667,"lon":-80.46844444,"rng_nm":50,"alt_fmsl":0,"id":"LW","desc":"BUSHI NDB"},
{"type":"VOR","hdg_t":115,"dist_nm":96.2,"freq":116.7,"lat":38.30000000,"lon":-77.30000000,"rng_nm":100,"alt_fmsl":57,"id":"ZZC","desc":"ZZZ TEST C VOR-DME"},
{"type":"NDB","hdg_t":240,"dist_nm":96.8,"freq":272,"lat":38.17505600,"lon":-80.91998600,"rng_nm":25,"alt_fmsl":1880,"id":"IJZ","desc":"NICHOLAS NDB"},
{"type":"NDB","hdg_t":101.1,"dist_nm":97.5,"freq":223,"lat":38.66163889,"lon":-77.11016667,"rng_nm":50,"alt_fmsl":0,"id":"DAA","desc":"DAVEE NDB"},
{"type":"NDB","hdg_t":313.5,"dist_nm":97.9,"freq":212,"lat":40.10963889,"lon":-80.68869444,"rng_nm":50,"alt_fmsl":0,"id":"HL","desc":"DORCH (OM) NDB"},
{"type":"NDB","hdg_t":2.1,"dist_nm":98.2,"freq":242,"lat":40.63191667,"lon":-79.06591667,"rng_nm":50,"alt_fmsl":0,"id":"INP","desc":"INDIANA NDB"},
{"type":"VOR","hdg_t":308.8,"dist_nm":98.8,"freq":117.1,"lat":40.01702778,"lon":-80.81725000,"rng_nm":130,"alt_fmsl":1290,"id":"AIR","desc":"BELLAIRE VOR-DME"},
{"type":"VOR","hdg_t":94,"dist_nm":99,"freq":111,"lat":38.85944444,"lon":-77.03644444,"rng_nm":40,"alt_fmsl":10,"id":"DCA","desc":"WASHINGTON VOR-DME"},
{"type":"VOR","hdg_t":232.5,"dist_nm":99.2,"freq":116.6,"lat":37.97530556,"lon":-80.80650000,"rng_nm":40,"alt_fmsl":0,"id":"RNL","desc":"RAINELLE VOR"}
]
}
