{"success":true,"source":"xp2csv.pl","last_updated":"2013/11/08 14:53:21 UTC"
,"icao":"WA0B","name":"Idedua","lat":-3.96138045,"lon":135.48242148,"rwys":1,"ils":0,"index":5166467,"path":"e130s10/e135s04"
,"runways":[
{"len_m":414,"wid_m":17.98,"hdg":69,"surf":"Turf/grass","rwy1":"7","lat1":-3.96202631,"lon1":135.48066827,"rwy2":"25","lat2":-3.96073458,"lon2":135.48417469}
]
,"navaids":[
{"type":"VOR","hdg_t":1.8,"dist_nm":34.6,"freq":117.3,"lat":-3.38195800,"lon":135.50112200,"rng_nm":130,"alt_fmsl":20,"id":"NBR","desc":"NABIRE VOR-DME"},
{"type":"NDB","hdg_t":1.2,"dist_nm":35.8,"freq":242,"lat":-3.36166700,"lon":135.49500000,"rng_nm":50,"alt_fmsl":20,"id":"ZR","desc":"NABIRE NDB"},
{"type":"NDB","hdg_t":95.9,"dist_nm":47.8,"freq":375,"lat":-4.04358300,"lon":136.27538900,"rng_nm":50,"alt_fmsl":5906,"id":"ZG","desc":"WAGHETE NDB"},
{"type":"VOR","hdg_t":111.8,"dist_nm":89.3,"freq":112.7,"lat":-4.51700300,"lon":136.86697200,"rng_nm":130,"alt_fmsl":103,"id":"TMK","desc":"TIMIKA VOR-DME"},
{"type":"NDB","hdg_t":112.1,"dist_nm":91,"freq":300,"lat":-4.53534400,"lon":136.89021900,"rng_nm":50,"alt_fmsl":103,"id":"ZF","desc":"TIMIKA NDB"},
{"type":"NDB","hdg_t":279.6,"dist_nm":105.9,"freq":310,"lat":-3.66166700,"lon":133.74166700,"rng_nm":50,"alt_fmsl":0,"id":"ZV","desc":"KAIMANA NDB"},
{"type":"NDB","hdg_t":215.4,"dist_nm":132.4,"freq":305,"lat":-5.76666700,"lon":134.19833300,"rng_nm":50,"alt_fmsl":23,"id":"DO","desc":"DOBO NDB"},
{"type":"VOR","hdg_t":12.3,"dist_nm":169.8,"freq":112.5,"lat":-1.18247222,"lon":136.08613889,"rng_nm":130,"alt_fmsl":46,"id":"BIK","desc":"BIAK VOR-DME"},
{"type":"NDB","hdg_t":12.5,"dist_nm":169.9,"freq":230,"lat":-1.18204200,"lon":136.09485300,"rng_nm":50,"alt_fmsl":46,"id":"ZM","desc":"BIAK NDB"},
{"type":"NDB","hdg_t":238.2,"dist_nm":193.5,"freq":335,"lat":-5.66441700,"lon":132.73222200,"rng_nm":60,"alt_fmsl":10,"id":"TL","desc":"DUMATUBIN NDB"}
]
}
