{"success":true,"source":"xp2csv.pl","last_updated":"2013/11/08 14:53:21 UTC"
,"icao":"WA24","name":"Pfisters","lat":46.3969445,"lon":-119.0208335,"rwys":1,"ils":0,"index":991771,"path":"w120n40/w120n46"
,"runways":[
{"len_m":1038,"wid_m":15.24,"hdg":26,"surf":"Asphalt","rwy1":"01","lat1":46.39277800,"lon1":-119.02388900,"rwy2":"19","lat2":46.40111100,"lon2":-119.01777800}
]
,"navaids":[
{"type":"NDB","hdg_t":174.4,"dist_nm":3.5,"freq":331,"lat":46.33813889,"lon":-119.01252778,"rng_nm":50,"alt_fmsl":0,"id":"PS","desc":"DUNEZ NDB"},
{"type":"VOR","hdg_t":206.1,"dist_nm":8.9,"freq":108.4,"lat":46.26297222,"lon":-119.11572222,"rng_nm":40,"alt_fmsl":404,"id":"PSC","desc":"PASCO VOR-DME"},
{"type":"NDB","hdg_t":260.9,"dist_nm":10,"freq":260,"lat":46.37047222,"lon":-119.25911111,"rng_nm":50,"alt_fmsl":0,"id":"RL","desc":"RIBOO NDB"},
{"type":"VOR","hdg_t":121.2,"dist_nm":35.5,"freq":116.4,"lat":46.08697222,"lon":-118.29252778,"rng_nm":40,"alt_fmsl":1179,"id":"ALW","desc":"WALLA WALLA VOR-DME"},
{"type":"NDB","hdg_t":110.8,"dist_nm":36.7,"freq":353,"lat":46.17555556,"lon":-118.19636111,"rng_nm":50,"alt_fmsl":0,"id":"AL","desc":"TRINA NDB"},
{"type":"VOR","hdg_t":175.2,"dist_nm":42,"freq":114.7,"lat":45.69841667,"lon":-118.93869444,"rng_nm":130,"alt_fmsl":1559,"id":"PDT","desc":"PENDLETON VORTAC"},
{"type":"NDB","hdg_t":346.4,"dist_nm":44.3,"freq":408,"lat":47.11572222,"lon":-119.27450000,"rng_nm":50,"alt_fmsl":0,"id":"MW","desc":"PELLY NDB"},
{"type":"VOR","hdg_t":346,"dist_nm":50.3,"freq":115,"lat":47.21086111,"lon":-119.31680556,"rng_nm":130,"alt_fmsl":1194,"id":"MWH","desc":"MOSES LAKE VOR-DME"},
{"type":"NDB","hdg_t":278.3,"dist_nm":56.5,"freq":371,"lat":46.52563889,"lon":-120.37219444,"rng_nm":50,"alt_fmsl":0,"id":"YK","desc":"DONNY NDB"},
{"type":"VOR","hdg_t":280.5,"dist_nm":59.9,"freq":116,"lat":46.57025000,"lon":-120.44463889,"rng_nm":130,"alt_fmsl":984,"id":"YKM","desc":"YAKIMA VORTAC"},
{"type":"VOR","hdg_t":344.4,"dist_nm":61.1,"freq":112.6,"lat":47.37791667,"lon":-119.42400000,"rng_nm":130,"alt_fmsl":1250,"id":"EPH","desc":"EPHRATA VORTAC"},
{"type":"VOR","hdg_t":302.9,"dist_nm":70.2,"freq":117.9,"lat":47.02436111,"lon":-120.45841667,"rng_nm":130,"alt_fmsl":1770,"id":"ELN","desc":"ELLENSBURG VORTAC"},
{"type":"VOR","hdg_t":76.7,"dist_nm":76.2,"freq":109,"lat":46.67430556,"lon":-117.22350000,"rng_nm":40,"alt_fmsl":2720,"id":"PUW","desc":"PULLMAN VOR-DME"},
{"type":"NDB","hdg_t":144.5,"dist_nm":77.2,"freq":296,"lat":45.34250000,"lon":-117.96275000,"rng_nm":50,"alt_fmsl":0,"id":"LGD","desc":"LA GRANDE NDB"},
{"type":"VOR","hdg_t":321.3,"dist_nm":77.5,"freq":111,"lat":47.39969444,"lon":-120.21086111,"rng_nm":40,"alt_fmsl":1224,"id":"EAT","desc":"WENATCHEE VOR-DME"},
{"type":"VOR","hdg_t":89.8,"dist_nm":89.3,"freq":108.2,"lat":46.38155556,"lon":-116.86950000,"rng_nm":40,"alt_fmsl":1723,"id":"MQG","desc":"NEZ PERCE VOR-DME"},
{"type":"VOR","hdg_t":38.7,"dist_nm":90.5,"freq":115.5,"lat":47.56494444,"lon":-117.62688889,"rng_nm":130,"alt_fmsl":2756,"id":"GEG","desc":"SPOKANE VORTAC"},
{"type":"SDME","hdg_t":36.9,"dist_nm":91.7,"freq":111.4,"lat":47.61069400,"lon":-117.66230300,"rng_nm":40,"alt_fmsl":2460,"id":"SKA","desc":"FAIRCHILD TACAN"},
{"type":"VOR","hdg_t":245.4,"dist_nm":96.1,"freq":112.3,"lat":45.71355556,"lon":-121.10083333,"rng_nm":130,"alt_fmsl":3220,"id":"LTJ","desc":"KLICKITAT VOR-DME"}
]
}
