{"success":true,"source":"xp2csv.pl","last_updated":"2013/11/08 14:53:21 UTC"
,"icao":"WA27","name":"Port Of Ilwaco","lat":46.31648944,"lon":-124.00126445,"rwys":1,"ils":0,"index":909843,"path":"w130n40/w125n46"
,"runways":[
{"len_m":632,"wid_m":15.24,"hdg":119,"surf":"Asphalt","rwy1":"10","lat1":46.31790893,"lon1":-124.00482421,"rwy2":"28","lat2":46.31506995,"lon2":-123.99770469}
]
,"navaids":[
{"type":"VOR","hdg_t":151.5,"dist_nm":10.5,"freq":114,"lat":46.16169444,"lon":-123.88036111,"rng_nm":40,"alt_fmsl":10,"id":"AST","desc":"ASTORIA VOR-DME"},
{"type":"NDB","hdg_t":121.4,"dist_nm":20.2,"freq":201,"lat":46.13952778,"lon":-123.58730556,"rng_nm":50,"alt_fmsl":0,"id":"PEN","desc":"KARPEN NDB"},
{"type":"VOR","hdg_t":350.8,"dist_nm":38.3,"freq":117.7,"lat":46.94702778,"lon":-124.14927778,"rng_nm":130,"alt_fmsl":10,"id":"HQM","desc":"HOQUIAM VORTAC"},
{"type":"NDB","hdg_t":101.6,"dist_nm":46.3,"freq":256,"lat":46.15547222,"lon":-122.91263889,"rng_nm":50,"alt_fmsl":0,"id":"LSO","desc":"KELSO NDB"},
{"type":"NDB","hdg_t":135.5,"dist_nm":57.3,"freq":356,"lat":45.63027778,"lon":-123.04580556,"rng_nm":50,"alt_fmsl":0,"id":"PND","desc":"BANKS NDB"},
{"type":"VOR","hdg_t":48.7,"dist_nm":60,"freq":113.4,"lat":46.97163889,"lon":-122.90183333,"rng_nm":130,"alt_fmsl":200,"id":"OLM","desc":"OLYMPIA VORTAC"},
{"type":"NDB","hdg_t":33.6,"dist_nm":67.4,"freq":348,"lat":47.24808333,"lon":-123.08636111,"rng_nm":50,"alt_fmsl":0,"id":"MNC","desc":"MASON CO NDB"},
{"type":"VOR","hdg_t":119.5,"dist_nm":68,"freq":116.6,"lat":45.74780556,"lon":-122.59152778,"rng_nm":130,"alt_fmsl":253,"id":"BTG","desc":"BATTLEGROUND VORTAC"},
{"type":"VOR","hdg_t":143,"dist_nm":71.9,"freq":117.4,"lat":45.35322222,"lon":-122.97816667,"rng_nm":130,"alt_fmsl":1440,"id":"UBG","desc":"NEWBERG VOR-DME"},
{"type":"NDB","hdg_t":54.6,"dist_nm":72.7,"freq":328,"lat":47.00797222,"lon":-122.55641667,"rng_nm":50,"alt_fmsl":0,"id":"LAC","desc":"LACOMAS NDB"},
{"type":"VOR","hdg_t":126.1,"dist_nm":72.7,"freq":111.8,"lat":45.59369444,"lon":-122.60627778,"rng_nm":40,"alt_fmsl":23,"id":"PDX","desc":"PORTLAND VOR-DME"},
{"type":"SDME","hdg_t":126.3,"dist_nm":72.7,"freq":109.2,"lat":45.58863100,"lon":-122.61125300,"rng_nm":130,"alt_fmsl":22,"id":"CBU","desc":"COLUMBIA TACAN"},
{"type":"NDB","hdg_t":147.2,"dist_nm":76,"freq":383,"lat":45.24613100,"lon":-123.02973600,"rng_nm":50,"alt_fmsl":159,"id":"MM","desc":"MINNE NDB"},
{"type":"NDB","hdg_t":48.5,"dist_nm":76.3,"freq":216,"lat":47.15030556,"lon":-122.60463889,"rng_nm":50,"alt_fmsl":0,"id":"GRF","desc":"GRAYE NDB"},
{"type":"NDB","hdg_t":125.2,"dist_nm":79.4,"freq":332,"lat":45.54105556,"lon":-122.46233333,"rng_nm":50,"alt_fmsl":0,"id":"LBH","desc":"LAKER (LOM/NDB) NDB"},
{"type":"VOR","hdg_t":51,"dist_nm":80.3,"freq":109.6,"lat":47.14766667,"lon":-122.47502778,"rng_nm":25,"alt_fmsl":287,"id":"TCM","desc":"MCCHORD VORTAC"},
{"type":"NDB","hdg_t":139.7,"dist_nm":80.7,"freq":366,"lat":45.28339200,"lon":-122.77036400,"rng_nm":25,"alt_fmsl":157,"id":"PLV","desc":"PRAHL NDB"},
{"type":"NDB","hdg_t":35.6,"dist_nm":81.2,"freq":274,"lat":47.41058333,"lon":-122.83886111,"rng_nm":50,"alt_fmsl":0,"id":"CAN","desc":"CARNEY NDB"},
{"type":"NDB","hdg_t":35.5,"dist_nm":87.1,"freq":206,"lat":47.49230556,"lon":-122.75661111,"rng_nm":50,"alt_fmsl":0,"id":"PWT","desc":"KITSAP NDB"},
{"type":"VOR","hdg_t":45.4,"dist_nm":96.7,"freq":116.8,"lat":47.43536111,"lon":-122.30961111,"rng_nm":130,"alt_fmsl":354,"id":"SEA","desc":"SEATTLE VORTAC"},
{"type":"NDB","hdg_t":181.5,"dist_nm":98.4,"freq":350,"lat":44.67600000,"lon":-124.06511111,"rng_nm":50,"alt_fmsl":0,"id":"ON","desc":"AGGET NDB"},
{"type":"NDB","hdg_t":152.9,"dist_nm":98.6,"freq":266,"lat":44.84744444,"lon":-122.95102778,"rng_nm":50,"alt_fmsl":0,"id":"SL","desc":"TURNO NDB"}
]
}
