{"success":true,"source":"xp2csv.pl","last_updated":"2013/11/08 14:53:21 UTC"
,"icao":"WABX","name":"Biak Boruku","lat":-1.1729311,"lon":136.08128548,"rwys":1,"ils":0,"index":5183024,"path":"e130s10/e136s02"
,"runways":[
{"len_m":1994,"wid_m":49.99,"hdg":111,"surf":"Asphalt","rwy1":"11","lat1":-1.16962583,"lon1":136.07295054,"rwy2":"29","lat2":-1.17623636,"lon2":136.08962042}
]
,"navaids":[
{"type":"VOR","hdg_t":152.8,"dist_nm":0.6,"freq":112.5,"lat":-1.18247222,"lon":136.08613889,"rng_nm":130,"alt_fmsl":46,"id":"BIK","desc":"BIAK VOR-DME"},
{"type":"NDB","hdg_t":123.7,"dist_nm":0.9,"freq":230,"lat":-1.18204200,"lon":136.09485300,"rng_nm":50,"alt_fmsl":46,"id":"ZM","desc":"BIAK NDB"},
{"type":"NDB","hdg_t":277.9,"dist_nm":123.1,"freq":207,"lat":-0.88712500,"lon":134.05178300,"rng_nm":50,"alt_fmsl":15,"id":"ZQ","desc":"MANOKWARI NDB"},
{"type":"NDB","hdg_t":195,"dist_nm":135.3,"freq":242,"lat":-3.36166700,"lon":135.49500000,"rng_nm":50,"alt_fmsl":20,"id":"ZR","desc":"NABIRE NDB"},
{"type":"VOR","hdg_t":194.7,"dist_nm":136.4,"freq":117.3,"lat":-3.38195800,"lon":135.50112200,"rng_nm":130,"alt_fmsl":20,"id":"NBR","desc":"NABIRE VOR-DME"},
{"type":"NDB","hdg_t":176.1,"dist_nm":171.7,"freq":375,"lat":-4.04358300,"lon":136.27538900,"rng_nm":50,"alt_fmsl":5906,"id":"ZG","desc":"WAGHETE NDB"},
{"type":"NDB","hdg_t":223.3,"dist_nm":204.4,"freq":310,"lat":-3.66166700,"lon":133.74166700,"rng_nm":50,"alt_fmsl":0,"id":"ZV","desc":"KAIMANA NDB"},
{"type":"VOR","hdg_t":166.7,"dist_nm":205.1,"freq":112.7,"lat":-4.51700300,"lon":136.86697200,"rng_nm":130,"alt_fmsl":103,"id":"TMK","desc":"TIMIKA VOR-DME"},
{"type":"NDB","hdg_t":166.4,"dist_nm":206.5,"freq":300,"lat":-4.53534400,"lon":136.89021900,"rng_nm":50,"alt_fmsl":103,"id":"ZF","desc":"TIMIKA NDB"},
{"type":"NDB","hdg_t":135.4,"dist_nm":245.6,"freq":222,"lat":-4.10047800,"lon":138.95646900,"rng_nm":50,"alt_fmsl":5085,"id":"ZW","desc":"WAMENA NDB"}
]
}
