{"success":true,"source":"xp2csv.pl","last_updated":"2013/11/08 14:53:21 UTC"
,"icao":"WAML","name":"Palu Mutiara","lat":-0.91782561,"lon":119.90934482,"rwys":1,"ils":0,"index":4904519,"path":"e110s10/e119s01"
,"runways":[
{"len_m":2248,"wid_m":43.89,"hdg":155,"surf":"Asphalt","rwy1":"15","lat1":-0.90854577,"lon1":119.90521263,"rwy2":"33","lat2":-0.92710545,"lon2":119.91347700}
]
,"radios":[
{"type":"TWR","freq":118.7,"desc":"TWR"},
{"type":"TWR","freq":122.2,"desc":"TWR"}
]
,"navaids":[
{"type":"NDB","hdg_t":274.4,"dist_nm":0.2,"freq":270,"lat":-0.91746700,"lon":119.90475800,"rng_nm":50,"alt_fmsl":284,"id":"OP","desc":"PALU NDB"},
{"type":"VOR","hdg_t":335.8,"dist_nm":2.1,"freq":116.2,"lat":-0.88501100,"lon":119.89472200,"rng_nm":130,"alt_fmsl":284,"id":"PAL","desc":"PALU VOR-DME"},
{"type":"NDB","hdg_t":123.6,"dist_nm":54.1,"freq":310,"lat":-1.42003600,"lon":120.65944400,"rng_nm":50,"alt_fmsl":174,"id":"DF","desc":"KASIGUNCU NDB"},
{"type":"NDB","hdg_t":207.8,"dist_nm":112.5,"freq":235,"lat":-2.58333300,"lon":119.03333300,"rng_nm":50,"alt_fmsl":16,"id":"MU","desc":"MAMUJU NDB"},
{"type":"NDB","hdg_t":182.4,"dist_nm":127,"freq":401,"lat":-3.04437200,"lon":119.81874700,"rng_nm":50,"alt_fmsl":2707,"id":"MK","desc":"PONGTIKU NDB"},
{"type":"NDB","hdg_t":137.4,"dist_nm":129.5,"freq":205,"lat":-2.51666700,"lon":121.36666700,"rng_nm":50,"alt_fmsl":1387,"id":"SA","desc":"SOROAKO NDB"},
{"type":"NDB","hdg_t":23.6,"dist_nm":133.6,"freq":370,"lat":1.13333300,"lon":120.80000000,"rng_nm":50,"alt_fmsl":66,"id":"TO","desc":"TOLI-TOLI NDB"},
{"type":"NDB","hdg_t":283.6,"dist_nm":154.2,"freq":394,"lat":-0.30611100,"lon":117.41638900,"rng_nm":50,"alt_fmsl":49,"id":"BD","desc":"MUARA BADAK NDB"},
{"type":"NDB","hdg_t":288.6,"dist_nm":155.9,"freq":210,"lat":-0.08333300,"lon":117.45000000,"rng_nm":50,"alt_fmsl":121,"id":"TT","desc":"SANTAN NDB"},
{"type":"NDB","hdg_t":292.8,"dist_nm":159.2,"freq":300,"lat":0.11666700,"lon":117.46666700,"rng_nm":50,"alt_fmsl":62,"id":"BG","desc":"BONTANG NDB"}
]
}
