{"success":true,"source":"xp2csv.pl","last_updated":"2013/11/08 14:53:21 UTC"
,"icao":"WAOI","name":"Pangkalan Bun Iskandar","lat":-2.705197,"lon":111.6732085,"rwys":1,"ils":0,"index":4773333,"path":"e110s10/e111s03"
,"runways":[
{"len_m":1650,"wid_m":29.87,"hdg":132,"surf":"Asphalt","rwy1":"13","lat1":-2.70016100,"lon1":111.66773100,"rwy2":"31","lat2":-2.71023300,"lon2":111.67868600}
]
,"radios":[
{"type":"TWR","freq":122.2,"desc":"TWR"}
]
,"navaids":[
{"type":"NDB","hdg_t":260,"dist_nm":0.3,"freq":238,"lat":-2.70623300,"lon":111.66731400,"rng_nm":50,"alt_fmsl":75,"id":"PN","desc":"PANGKALAN BUN NDB"},
{"type":"VOR","hdg_t":132.9,"dist_nm":1.8,"freq":117.4,"lat":-2.72648100,"lon":111.69597500,"rng_nm":130,"alt_fmsl":75,"id":"PKN","desc":"PANGKALAN BUN VOR-DME"},
{"type":"NDB","hdg_t":81.3,"dist_nm":79.2,"freq":305,"lat":-2.50430300,"lon":112.97832200,"rng_nm":60,"alt_fmsl":50,"id":"SP","desc":"SAMPIT NDB"},
{"type":"VOR","hdg_t":297.3,"dist_nm":115.4,"freq":116.8,"lat":-1.81649200,"lon":109.96555800,"rng_nm":150,"alt_fmsl":49,"id":"KTP","desc":"KETAPANG VOR-DME"},
{"type":"NDB","hdg_t":299.2,"dist_nm":116.4,"freq":333,"lat":-1.75000000,"lon":109.98333300,"rng_nm":60,"alt_fmsl":46,"id":"KP","desc":"KETAPANG NDB"},
{"type":"VOR","hdg_t":78.6,"dist_nm":139.4,"freq":114.3,"lat":-2.24350300,"lon":113.94966900,"rng_nm":130,"alt_fmsl":82,"id":"PKY","desc":"TJILIK RIWUT VOR-DME"},
{"type":"NDB","hdg_t":78.1,"dist_nm":139.4,"freq":250,"lat":-2.22515000,"lon":113.94634400,"rng_nm":50,"alt_fmsl":82,"id":"FK","desc":"PALANGKARAYA NDB"},
{"type":"NDB","hdg_t":2.6,"dist_nm":140.7,"freq":233,"lat":-0.35000000,"lon":111.78333300,"rng_nm":60,"alt_fmsl":121,"id":"NH","desc":"NANGA PINOH NDB"},
{"type":"NDB","hdg_t":356,"dist_nm":165.8,"freq":405,"lat":0.06666700,"lon":111.48333300,"rng_nm":50,"alt_fmsl":98,"id":"SG","desc":"SUSILO NDB"},
{"type":"NDB","hdg_t":107.6,"dist_nm":173.7,"freq":275,"lat":-3.58333300,"lon":114.43333300,"rng_nm":50,"alt_fmsl":27,"id":"MHI","desc":"MASALEMBO NDB"}
]
}
