{"success":true,"source":"xp2csv.pl","last_updated":"2013/11/08 14:53:21 UTC"
,"icao":"WAOP","name":"Palangkaraya Tjilik Riwut","lat":-2.2251265,"lon":113.94266,"rwys":1,"ils":1,"index":4806135,"path":"e110s10/e113s03"
,"runways":[
{"len_m":2101,"wid_m":29.87,"hdg":158,"surf":"Asphalt","rwy1":"16","lat1":-2.21626100,"lon1":113.93926400,"rwy2":"34","lat2":-2.23399200,"lon2":113.94605600}
]
,"radios":[
{"type":"TWR","freq":122.4,"desc":"TWR"}
]
,"ils":[
{"type":"ILS","freq":111.7,"lat":-2.21588900,"lon":113.93888900,"rng_nm":18,"alt_fmsl":82,"hdg":338.42,"id":"IPLR","rwy":"34","desc":"ILS-cat-I"},
{"type":"GS","freq":111.7,"lat":-2.23100800,"lon":113.94583300,"rng_nm":10,"alt_fmsl":82,"id":"IPLR","rwy":"34","desc":"GS","gs":3},
{"type":"MM","freq":0,"lat":-2.24336900,"lon":113.94964700,"rng_nm":0,"alt_fmsl":82,"id":"----","rwy":"34","desc":"MM"}
]
,"navaids":[
{"type":"NDB","hdg_t":90.3,"dist_nm":0.2,"freq":250,"lat":-2.22515000,"lon":113.94634400,"rng_nm":50,"alt_fmsl":82,"id":"FK","desc":"PALANGKARAYA NDB"},
{"type":"VOR","hdg_t":159,"dist_nm":1.1,"freq":114.3,"lat":-2.24350300,"lon":113.94966900,"rng_nm":130,"alt_fmsl":82,"id":"PKY","desc":"TJILIK RIWUT VOR-DME"},
{"type":"NDB","hdg_t":253.9,"dist_nm":60.2,"freq":305,"lat":-2.50430300,"lon":112.97832200,"rng_nm":60,"alt_fmsl":50,"id":"SP","desc":"SAMPIT NDB"},
{"type":"NDB","hdg_t":59.9,"dist_nm":66.2,"freq":217,"lat":-1.66901900,"lon":114.89700000,"rng_nm":50,"alt_fmsl":23,"id":"BK","desc":"BUNTOK NDB"},
{"type":"NDB","hdg_t":160,"dist_nm":86.2,"freq":275,"lat":-3.58333300,"lon":114.43333300,"rng_nm":50,"alt_fmsl":27,"id":"MHI","desc":"MASALEMBO NDB"},
{"type":"VOR","hdg_t":146.8,"dist_nm":86.4,"freq":112.1,"lat":-3.43680000,"lon":114.73148600,"rng_nm":130,"alt_fmsl":66,"id":"BDM","desc":"BANJARMASIN VOR-DME"},
{"type":"NDB","hdg_t":146,"dist_nm":87.1,"freq":390,"lat":-3.43624700,"lon":114.75372800,"rng_nm":50,"alt_fmsl":66,"id":"OU","desc":"BANJARMASIN NDB"},
{"type":"NDB","hdg_t":90,"dist_nm":91.4,"freq":255,"lat":-2.22624200,"lon":115.46515300,"rng_nm":50,"alt_fmsl":197,"id":"NY","desc":"WARUKIN NDB"},
{"type":"NDB","hdg_t":36.7,"dist_nm":95.6,"freq":242,"lat":-0.94018900,"lon":114.89394400,"rng_nm":60,"alt_fmsl":125,"id":"MW","desc":"MUARA TEWE NDB"},
{"type":"NDB","hdg_t":18.2,"dist_nm":96.4,"freq":276,"lat":-0.69000000,"lon":114.44500000,"rng_nm":50,"alt_fmsl":443,"id":"KMI","desc":"INDO MURO KENCANA NDB"}
]
}
