{"success":true,"source":"xp2csv.pl","last_updated":"2013/11/08 14:53:21 UTC"
,"icao":"WAWW","name":"Kendari Wolter Monginsidi","lat":-4.081608,"lon":122.4182295,"rwys":1,"ils":0,"index":4953467,"path":"e120s10/e122s05"
,"runways":[
{"len_m":2099,"wid_m":29.87,"hdg":79,"surf":"Asphalt","rwy1":"08","lat1":-4.08332200,"lon1":122.40893100,"rwy2":"26","lat2":-4.07989400,"lon2":122.42752800}
]
,"radios":[
{"type":"TWR","freq":122.2,"desc":"TWR"}
]
,"navaids":[
{"type":"NDB","hdg_t":234.6,"dist_nm":0.5,"freq":215,"lat":-4.08649200,"lon":122.41136900,"rng_nm":50,"alt_fmsl":180,"id":"NI","desc":"KENDARI NDB"},
{"type":"VOR","hdg_t":80.2,"dist_nm":2.1,"freq":115,"lat":-4.07563600,"lon":122.45298600,"rng_nm":130,"alt_fmsl":448,"id":"KDI","desc":"KENDARI VOR-DME"},
{"type":"NDB","hdg_t":165.7,"dist_nm":44.2,"freq":348,"lat":-4.80000000,"lon":122.60000000,"rng_nm":50,"alt_fmsl":14,"id":"MN","desc":"MUNA NDB"},
{"type":"NDB","hdg_t":174.7,"dist_nm":86,"freq":274,"lat":-5.51666700,"lon":122.55000000,"rng_nm":60,"alt_fmsl":164,"id":"BR","desc":"BAU BAU NDB"},
{"type":"NDB","hdg_t":325.9,"dist_nm":112.7,"freq":205,"lat":-2.51666700,"lon":121.36666700,"rng_nm":50,"alt_fmsl":1387,"id":"SA","desc":"SOROAKO NDB"},
{"type":"NDB","hdg_t":291.5,"dist_nm":167.7,"freq":401,"lat":-3.04437200,"lon":119.81874700,"rng_nm":50,"alt_fmsl":2707,"id":"MK","desc":"PONGTIKU NDB"},
{"type":"VOR","hdg_t":251.6,"dist_nm":182.4,"freq":114.7,"lat":-5.03780556,"lon":119.52619444,"rng_nm":130,"alt_fmsl":27,"id":"MKS","desc":"MAKASSAR VOR-DME"},
{"type":"NDB","hdg_t":250.9,"dist_nm":183.7,"freq":375,"lat":-5.08245600,"lon":119.51879200,"rng_nm":50,"alt_fmsl":0,"id":"OJ","desc":"HASANUDDIN NDB"},
{"type":"NDB","hdg_t":6.5,"dist_nm":184.1,"freq":250,"lat":-1.01666700,"lon":122.76666700,"rng_nm":60,"alt_fmsl":56,"id":"LK","desc":"BUBUNG NDB"},
{"type":"NDB","hdg_t":326.3,"dist_nm":190.7,"freq":310,"lat":-1.42003600,"lon":120.65944400,"rng_nm":50,"alt_fmsl":174,"id":"DF","desc":"KASIGUNCU NDB"}
]
}
