{"success":true,"source":"xp2csv.pl","last_updated":"2013/11/08 14:53:21 UTC"
,"icao":"WBTM","name":"Tanjung Manis","lat":2.177843,"lon":111.2022025,"rwys":1,"ils":0,"index":4773641,"path":"e110n00/e111n02"
,"runways":[
{"len_m":1497,"wid_m":29.87,"hdg":48,"surf":"Asphalt","rwy1":"05","lat1":2.17336100,"lon1":111.19715800,"rwy2":"23","lat2":2.18232500,"lon2":111.20724700}
]
,"radios":[
{"type":"TWR","freq":118.1,"desc":"TWR"},
{"type":"TWR","freq":121.9,"desc":"TWR"}
]
,"navaids":[
{"type":"NDB","hdg_t":258.7,"dist_nm":0.1,"freq":264,"lat":2.17743600,"lon":111.20016100,"rng_nm":25,"alt_fmsl":0,"id":"TMS","desc":"TANJUNG MANIS NDB"},
{"type":"NDB","hdg_t":84.9,"dist_nm":48.2,"freq":203,"lat":2.24814200,"lon":112.00179400,"rng_nm":50,"alt_fmsl":0,"id":"NIS","desc":"SIBU NDB"},
{"type":"VOR","hdg_t":85,"dist_nm":48.2,"freq":112.2,"lat":2.24680600,"lon":112.00338900,"rng_nm":130,"alt_fmsl":122,"id":"VSI","desc":"SIBU VOR-DME"},
{"type":"NDB","hdg_t":242.9,"dist_nm":60.2,"freq":402,"lat":1.71830600,"lon":110.30908300,"rng_nm":50,"alt_fmsl":0,"id":"AN","desc":"KUCHING NDB"},
{"type":"VOR","hdg_t":232,"dist_nm":68.3,"freq":114.5,"lat":1.47333300,"lon":110.30575000,"rng_nm":130,"alt_fmsl":220,"id":"VKG","desc":"KUCHING VOR-DME"},
{"type":"NDB","hdg_t":234.4,"dist_nm":111.4,"freq":210,"lat":1.09215600,"lon":109.69338300,"rng_nm":50,"alt_fmsl":115,"id":"NF","desc":"SINGKAWANG NDB"},
{"type":"NDB","hdg_t":63.1,"dist_nm":122.5,"freq":368,"lat":3.10241400,"lon":113.02450300,"rng_nm":190,"alt_fmsl":128,"id":"BTU","desc":"BINTULU NDB"},
{"type":"VOR","hdg_t":61.7,"dist_nm":123.3,"freq":112.6,"lat":3.15397200,"lon":113.01320000,"rng_nm":25,"alt_fmsl":23,"id":"VBU","desc":"BINTULU VOR-DME"},
{"type":"NDB","hdg_t":172.3,"dist_nm":127.1,"freq":405,"lat":0.06666700,"lon":111.48333300,"rng_nm":50,"alt_fmsl":98,"id":"SG","desc":"SUSILO NDB"},
{"type":"NDB","hdg_t":127.5,"dist_nm":131.5,"freq":360,"lat":0.83505600,"lon":112.93733300,"rng_nm":50,"alt_fmsl":297,"id":"PB","desc":"PANGSUMA NDB"}
]
}
