{"success":true,"source":"xp2csv.pl","last_updated":"2013/11/08 14:53:21 UTC"
,"icao":"WN21","name":"Lawson Airpark","lat":48.08147944,"lon":-123.39796278,"rwys":1,"ils":0,"index":926338,"path":"w130n40/w124n48"
,"runways":[
{"len_m":733,"wid_m":21.34,"hdg":61,"surf":"Turf/grass","rwy1":"04","lat1":48.07988365,"lon1":-123.40227201,"rwy2":"22","lat2":48.08307523,"lon2":-123.39365355}
]
,"navaids":[
{"type":"NDB","hdg_t":356.4,"dist_nm":3.5,"freq":338,"lat":48.13991667,"lon":-123.40338889,"rng_nm":50,"alt_fmsl":0,"id":"K","desc":"EDIZ HOOK NDB"},
{"type":"NDB","hdg_t":290.7,"dist_nm":11.6,"freq":515,"lat":48.15019444,"lon":-123.67025000,"rng_nm":50,"alt_fmsl":0,"id":"CL","desc":"ELWHA NDB"},
{"type":"VOR","hdg_t":69.8,"dist_nm":28.7,"freq":117.2,"lat":48.24469444,"lon":-122.72441667,"rng_nm":40,"alt_fmsl":200,"id":"CVV","desc":"PENN COVE VOR-DME"},
{"type":"NDB","hdg_t":29.9,"dist_nm":29.8,"freq":284,"lat":48.51213889,"lon":-123.02386111,"rng_nm":50,"alt_fmsl":0,"id":"FHR","desc":"FRIDAY HARBOR NDB"},
{"type":"NDB","hdg_t":38.4,"dist_nm":30.5,"freq":356,"lat":48.47927778,"lon":-122.92100000,"rng_nm":50,"alt_fmsl":0,"id":"OPZ","desc":"LOPEZ ISLAND NDB"},
{"type":"NDB","hdg_t":359.8,"dist_nm":33.7,"freq":200,"lat":48.64416667,"lon":-123.39947222,"rng_nm":50,"alt_fmsl":0,"id":"YJ","desc":"VICTORIA NDB"},
{"type":"SDME","hdg_t":60.6,"dist_nm":33.7,"freq":113.8,"lat":48.35489700,"lon":-122.66173600,"rng_nm":130,"alt_fmsl":51,"id":"NUW","desc":"WHIDBEY ISLAND TACAN"},
{"type":"NDB","hdg_t":351.1,"dist_nm":35.8,"freq":293,"lat":48.67166667,"lon":-123.53666667,"rng_nm":50,"alt_fmsl":0,"id":"MB","desc":"MILL BAY NDB"},
{"type":"VOR","hdg_t":354.9,"dist_nm":38.9,"freq":113.7,"lat":48.72702778,"lon":-123.48436111,"rng_nm":130,"alt_fmsl":1997,"id":"YYJ","desc":"VICTORIA VOR-DME"},
{"type":"NDB","hdg_t":143.4,"dist_nm":43.8,"freq":206,"lat":47.49230556,"lon":-122.75661111,"rng_nm":50,"alt_fmsl":0,"id":"PWT","desc":"KITSAP NDB"},
{"type":"NDB","hdg_t":59,"dist_nm":45.6,"freq":240,"lat":48.46861111,"lon":-122.41841667,"rng_nm":50,"alt_fmsl":0,"id":"BVS","desc":"SKAGIT/BAY VIEW NDB"},
{"type":"VOR","hdg_t":101.7,"dist_nm":46.1,"freq":110.6,"lat":47.91983333,"lon":-122.27783333,"rng_nm":40,"alt_fmsl":670,"id":"PAE","desc":"PAINE VOR-DME"},
{"type":"NDB","hdg_t":150.4,"dist_nm":46.2,"freq":274,"lat":47.41058333,"lon":-122.83886111,"rng_nm":50,"alt_fmsl":0,"id":"CAN","desc":"CARNEY NDB"},
{"type":"NDB","hdg_t":5.1,"dist_nm":47.7,"freq":378,"lat":48.87386111,"lon":-123.29000000,"rng_nm":50,"alt_fmsl":0,"id":"AP","desc":"ACTIVE PASS NDB"},
{"type":"NDB","hdg_t":123.1,"dist_nm":48.8,"freq":362,"lat":47.63252778,"lon":-122.38952778,"rng_nm":50,"alt_fmsl":0,"id":"BF","desc":"NOLLA NDB"},
{"type":"NDB","hdg_t":89.9,"dist_nm":50,"freq":382,"lat":48.07611111,"lon":-122.15391667,"rng_nm":50,"alt_fmsl":0,"id":"AW","desc":"WATON NDB"},
{"type":"VOR","hdg_t":285.3,"dist_nm":51,"freq":112.2,"lat":48.29988889,"lon":-124.62705556,"rng_nm":130,"alt_fmsl":1650,"id":"TOU","desc":"TATOOSH VORTAC"},
{"type":"NDB","hdg_t":165.7,"dist_nm":51.6,"freq":348,"lat":47.24808333,"lon":-123.08636111,"rng_nm":50,"alt_fmsl":0,"id":"MNC","desc":"MASON CO NDB"},
{"type":"NDB","hdg_t":126.3,"dist_nm":55,"freq":281,"lat":47.53237700,"lon":-122.30695900,"rng_nm":50,"alt_fmsl":0,"id":"SZ","desc":"PARKK NDB"},
{"type":"VOR","hdg_t":130.9,"dist_nm":58.7,"freq":116.8,"lat":47.43536111,"lon":-122.30961111,"rng_nm":130,"alt_fmsl":354,"id":"SEA","desc":"SEATTLE VORTAC"},
{"type":"NDB","hdg_t":125.8,"dist_nm":59.4,"freq":353,"lat":47.49544444,"lon":-122.21472222,"rng_nm":50,"alt_fmsl":0,"id":"RNT","desc":"RENTON NDB"},
{"type":"NDB","hdg_t":34.7,"dist_nm":59.9,"freq":338,"lat":48.89910000,"lon":-122.53477200,"rng_nm":50,"alt_fmsl":44,"id":"BL","desc":"BENZA NDB"},
{"type":"VOR","hdg_t":9.3,"dist_nm":60.6,"freq":115.9,"lat":49.07733333,"lon":-123.14908333,"rng_nm":130,"alt_fmsl":17,"id":"YVR","desc":"VANCOUVER VOR-DME"},
{"type":"NDB","hdg_t":24.7,"dist_nm":61,"freq":332,"lat":49.00333333,"lon":-122.75027778,"rng_nm":50,"alt_fmsl":0,"id":"WC","desc":"WHITE ROCK NDB"},
{"type":"VOR","hdg_t":31.8,"dist_nm":61.2,"freq":113,"lat":48.94527778,"lon":-122.57925000,"rng_nm":130,"alt_fmsl":83,"id":"HUH","desc":"WHATCOM VORTAC"},
{"type":"SDME","hdg_t":342.3,"dist_nm":61.5,"freq":111.45,"lat":49.05722200,"lon":-123.87166700,"rng_nm":25,"alt_fmsl":83,"id":"1CD","desc":"NANAIMO DME"},
{"type":"NDB","hdg_t":149.7,"dist_nm":64.5,"freq":216,"lat":47.15030556,"lon":-122.60463889,"rng_nm":50,"alt_fmsl":0,"id":"GRF","desc":"GRAYE NDB"},
{"type":"NDB","hdg_t":343.4,"dist_nm":65.6,"freq":251,"lat":49.12791667,"lon":-123.87169444,"rng_nm":50,"alt_fmsl":0,"id":"YCD","desc":"NANAIMO NDB"},
{"type":"NDB","hdg_t":32.5,"dist_nm":66.7,"freq":344,"lat":49.01544444,"lon":-122.48777778,"rng_nm":50,"alt_fmsl":0,"id":"XX","desc":"ABBOTSFORD NDB"},
{"type":"NDB","hdg_t":11.5,"dist_nm":66.9,"freq":266,"lat":49.17286111,"lon":-123.05716667,"rng_nm":50,"alt_fmsl":0,"id":"VR","desc":"VANCOUVER NDB"},
{"type":"NDB","hdg_t":6,"dist_nm":67,"freq":368,"lat":49.19138889,"lon":-123.21972222,"rng_nm":50,"alt_fmsl":0,"id":"ZVR","desc":"SEA ISLAND NDB"},
{"type":"VOR","hdg_t":145.9,"dist_nm":67.4,"freq":109.6,"lat":47.14766667,"lon":-122.47502778,"rng_nm":25,"alt_fmsl":287,"id":"TCM","desc":"MCCHORD VORTAC"},
{"type":"VOR","hdg_t":162.9,"dist_nm":69.6,"freq":113.4,"lat":46.97163889,"lon":-122.90183333,"rng_nm":130,"alt_fmsl":200,"id":"OLM","desc":"OLYMPIA VORTAC"},
{"type":"NDB","hdg_t":151.7,"dist_nm":72.9,"freq":328,"lat":47.00797222,"lon":-122.55641667,"rng_nm":50,"alt_fmsl":0,"id":"LAC","desc":"LACOMAS NDB"},
{"type":"VOR","hdg_t":21.4,"dist_nm":73.3,"freq":112.4,"lat":49.21583333,"lon":-122.71500000,"rng_nm":40,"alt_fmsl":0,"id":"YPK","desc":"PITT MEADOWS VOR"},
{"type":"VOR","hdg_t":204.4,"dist_nm":74.6,"freq":117.7,"lat":46.94702778,"lon":-124.14927778,"rng_nm":130,"alt_fmsl":10,"id":"HQM","desc":"HOQUIAM VORTAC"},
{"type":"NDB","hdg_t":43,"dist_nm":77.9,"freq":214,"lat":49.02166667,"lon":-122.05000000,"rng_nm":50,"alt_fmsl":0,"id":"LU","desc":"CULTUS NDB"}
]
}
