{"success":true,"source":"xp2csv.pl","last_updated":"2013/11/08 14:53:21 UTC"
,"icao":"WRBT","name":"Teluk Kepayang (valgoson)","lat":-3.432535,"lon":115.666672,"rwys":1,"ils":0,"index":4838821,"path":"e110s10/e115s04"
,"runways":[
{"len_m":670,"wid_m":24.99,"hdg":119,"surf":"Gravel","rwy1":"12","lat1":-3.43102636,"lon1":115.66405426,"rwy2":"30","lat2":-3.43404364,"lon2":115.66928974}
]
,"navaids":[
{"type":"NDB","hdg_t":269.7,"dist_nm":54.7,"freq":390,"lat":-3.43624700,"lon":114.75372800,"rng_nm":50,"alt_fmsl":66,"id":"OU","desc":"BANJARMASIN NDB"},
{"type":"VOR","hdg_t":269.7,"dist_nm":56.1,"freq":112.1,"lat":-3.43680000,"lon":114.73148600,"rng_nm":130,"alt_fmsl":66,"id":"BDM","desc":"BANJARMASIN VOR-DME"},
{"type":"NDB","hdg_t":350.4,"dist_nm":73,"freq":255,"lat":-2.22624200,"lon":115.46515300,"rng_nm":50,"alt_fmsl":197,"id":"NY","desc":"WARUKIN NDB"},
{"type":"NDB","hdg_t":263,"dist_nm":74.5,"freq":275,"lat":-3.58333300,"lon":114.43333300,"rng_nm":50,"alt_fmsl":27,"id":"MHI","desc":"MASALEMBO NDB"},
{"type":"NDB","hdg_t":336.2,"dist_nm":114.9,"freq":217,"lat":-1.66901900,"lon":114.89700000,"rng_nm":50,"alt_fmsl":23,"id":"BK","desc":"BUNTOK NDB"},
{"type":"VOR","hdg_t":304.5,"dist_nm":125.1,"freq":114.3,"lat":-2.24350300,"lon":113.94966900,"rng_nm":130,"alt_fmsl":82,"id":"PKY","desc":"TJILIK RIWUT VOR-DME"},
{"type":"NDB","hdg_t":304.8,"dist_nm":125.9,"freq":250,"lat":-2.22515000,"lon":113.94634400,"rng_nm":50,"alt_fmsl":82,"id":"FK","desc":"PALANGKARAYA NDB"},
{"type":"NDB","hdg_t":29.8,"dist_nm":150.1,"freq":365,"lat":-1.25206100,"lon":116.91103600,"rng_nm":50,"alt_fmsl":12,"id":"OL","desc":"BALIKPAPAN NDB"},
{"type":"VOR","hdg_t":30.3,"dist_nm":151.3,"freq":117.2,"lat":-1.24568900,"lon":116.94029700,"rng_nm":130,"alt_fmsl":10,"id":"BPN","desc":"BALIKPAPAN VOR-DME"},
{"type":"NDB","hdg_t":342.6,"dist_nm":155.8,"freq":242,"lat":-0.94018900,"lon":114.89394400,"rng_nm":60,"alt_fmsl":125,"id":"MW","desc":"MUARA TEWE NDB"}
]
}
