{"success":true,"source":"xp2csv.pl","last_updated":"2013/11/08 14:53:21 UTC"
,"icao":"WRLI","name":"Datah Dawai/tiong Ohong (local Gov)","lat":0.809867,"lon":114.522011,"rwys":1,"ils":0,"index":4822708,"path":"e110n00/e114n00"
,"runways":[
{"len_m":728,"wid_m":20.12,"hdg":20,"surf":"Asphalt","rwy1":"02","lat1":0.80677393,"lon1":114.52088510,"rwy2":"20","lat2":0.81296007,"lon2":114.52313690}
]
,"navaids":[
{"type":"NDB","hdg_t":77.3,"dist_nm":0.4,"freq":290,"lat":0.81166700,"lon":114.53000000,"rng_nm":50,"alt_fmsl":132,"id":"TG","desc":"TIONG OHONG NDB"},
{"type":"NDB","hdg_t":26.7,"dist_nm":59.8,"freq":227,"lat":1.70500000,"lon":114.97016700,"rng_nm":50,"alt_fmsl":2400,"id":"LO","desc":"LONG APUNG NDB"},
{"type":"NDB","hdg_t":182.9,"dist_nm":89.6,"freq":276,"lat":-0.69000000,"lon":114.44500000,"rng_nm":50,"alt_fmsl":443,"id":"KMI","desc":"INDO MURO KENCANA NDB"},
{"type":"NDB","hdg_t":270.9,"dist_nm":95.2,"freq":360,"lat":0.83505600,"lon":112.93733300,"rng_nm":50,"alt_fmsl":297,"id":"PB","desc":"PANGSUMA NDB"},
{"type":"NDB","hdg_t":167.9,"dist_nm":106.8,"freq":242,"lat":-0.94018900,"lon":114.89394400,"rng_nm":60,"alt_fmsl":125,"id":"MW","desc":"MUARA TEWE NDB"},
{"type":"NDB","hdg_t":171.3,"dist_nm":149.7,"freq":217,"lat":-1.66901900,"lon":114.89700000,"rng_nm":50,"alt_fmsl":23,"id":"BK","desc":"BUNTOK NDB"},
{"type":"NDB","hdg_t":326.7,"dist_nm":163.7,"freq":368,"lat":3.10241400,"lon":113.02450300,"rng_nm":190,"alt_fmsl":128,"id":"BTU","desc":"BINTULU NDB"},
{"type":"VOR","hdg_t":327,"dist_nm":166.7,"freq":112.6,"lat":3.15397200,"lon":113.01320000,"rng_nm":25,"alt_fmsl":23,"id":"VBU","desc":"BINTULU VOR-DME"},
{"type":"VOR","hdg_t":299.5,"dist_nm":173.9,"freq":112.2,"lat":2.24680600,"lon":112.00338900,"rng_nm":130,"alt_fmsl":122,"id":"VSI","desc":"SIBU VOR-DME"},
{"type":"NDB","hdg_t":299.5,"dist_nm":174,"freq":203,"lat":2.24814200,"lon":112.00179400,"rng_nm":50,"alt_fmsl":0,"id":"NIS","desc":"SIBU NDB"}
]
}
