{"success":true,"source":"xp2csv.pl","last_updated":"2013/11/08 14:53:21 UTC"
,"icao":"WRLP","name":"Long Apung (local Gov)","lat":1.704195,"lon":114.9703,"rwys":1,"ils":0,"index":4822767,"path":"e110n00/e114n01"
,"runways":[
{"len_m":788,"wid_m":22.86,"hdg":169,"surf":"Asphalt","rwy1":"17","lat1":1.70770670,"lon1":114.96968052,"rwy2":"35","lat2":1.70068330,"lon2":114.97091948}
]
,"navaids":[
{"type":"NDB","hdg_t":350.5,"dist_nm":0,"freq":227,"lat":1.70500000,"lon":114.97016700,"rng_nm":50,"alt_fmsl":2400,"id":"LO","desc":"LONG APUNG NDB"},
{"type":"NDB","hdg_t":206.4,"dist_nm":59.4,"freq":290,"lat":0.81166700,"lon":114.53000000,"rng_nm":50,"alt_fmsl":132,"id":"TG","desc":"TIONG OHONG NDB"},
{"type":"NDB","hdg_t":247,"dist_nm":132.7,"freq":360,"lat":0.83505600,"lon":112.93733300,"rng_nm":50,"alt_fmsl":297,"id":"PB","desc":"PANGSUMA NDB"},
{"type":"NDB","hdg_t":18.5,"dist_nm":137.2,"freq":356,"lat":3.88333300,"lon":115.70000000,"rng_nm":50,"alt_fmsl":3360,"id":"LN","desc":"LONG BAWANG NDB"},
{"type":"VOR","hdg_t":355.6,"dist_nm":139.4,"freq":112.8,"lat":4.03291700,"lon":114.79536100,"rng_nm":25,"alt_fmsl":222,"id":"VZU","desc":"MULU VOR-DME"},
{"type":"NDB","hdg_t":355.7,"dist_nm":139.4,"freq":505,"lat":4.03388900,"lon":114.79777800,"rng_nm":50,"alt_fmsl":0,"id":"MZU","desc":"MULU NDB"},
{"type":"NDB","hdg_t":305.5,"dist_nm":143.6,"freq":368,"lat":3.10241400,"lon":113.02450300,"rng_nm":190,"alt_fmsl":128,"id":"BTU","desc":"BINTULU NDB"},
{"type":"VOR","hdg_t":306.4,"dist_nm":145.9,"freq":112.6,"lat":3.15397200,"lon":113.01320000,"rng_nm":25,"alt_fmsl":23,"id":"VBU","desc":"BINTULU VOR-DME"},
{"type":"NDB","hdg_t":192.4,"dist_nm":146.3,"freq":276,"lat":-0.69000000,"lon":114.44500000,"rng_nm":50,"alt_fmsl":443,"id":"KMI","desc":"INDO MURO KENCANA NDB"},
{"type":"NDB","hdg_t":79.5,"dist_nm":150.4,"freq":232,"lat":2.16061400,"lon":117.43372800,"rng_nm":50,"alt_fmsl":49,"id":"KM","desc":"KALIMARU NDB"}
]
}
