{"success":true,"source":"xp2csv.pl","last_updated":"2013/11/08 14:53:21 UTC"
,"icao":"WS42","name":"Owen-withee","lat":44.94996833,"lon":-90.60013528,"rwys":1,"ils":0,"index":1466809,"path":"w100n40/w091n44"
,"runways":[
{"len_m":795,"wid_m":30.48,"hdg":90,"surf":"Turf/grass","rwy1":"09","lat1":44.95003056,"lon1":-90.60517302,"rwy2":"27","lat2":44.94990610,"lon2":-90.59509754}
]
,"navaids":[
{"type":"NDB","hdg_t":52.9,"dist_nm":15.5,"freq":335,"lat":45.10536111,"lon":-90.30869444,"rng_nm":50,"alt_fmsl":0,"id":"MDZ","desc":"MEDFORD NDB"},
{"type":"NDB","hdg_t":171.2,"dist_nm":23.8,"freq":368,"lat":44.55711111,"lon":-90.51527778,"rng_nm":50,"alt_fmsl":0,"id":"VIQ","desc":"NEILLSVILLE NDB"},
{"type":"NDB","hdg_t":136.4,"dist_nm":25.5,"freq":391,"lat":44.64108333,"lon":-90.18913889,"rng_nm":50,"alt_fmsl":0,"id":"MFI","desc":"MARSHFIELD NDB"},
{"type":"NDB","hdg_t":139.8,"dist_nm":29.8,"freq":266,"lat":44.56872222,"lon":-90.15094444,"rng_nm":50,"alt_fmsl":0,"id":"DU","desc":"CALIN NDB"},
{"type":"NDB","hdg_t":269.7,"dist_nm":32.9,"freq":239,"lat":44.94475000,"lon":-91.37366667,"rng_nm":50,"alt_fmsl":0,"id":"EA","desc":"MAGGS NDB"},
{"type":"NDB","hdg_t":107.9,"dist_nm":36.4,"freq":275,"lat":44.76036111,"lon":-89.78919444,"rng_nm":50,"alt_fmsl":0,"id":"CW","desc":"DANCI NDB"},
{"type":"NDB","hdg_t":332.9,"dist_nm":37.2,"freq":356,"lat":45.50183333,"lon":-91.00113889,"rng_nm":50,"alt_fmsl":0,"id":"RCX","desc":"RUSK COUNTY NDB"},
{"type":"VOR","hdg_t":265.5,"dist_nm":37.5,"freq":112.9,"lat":44.89766667,"lon":-91.47855556,"rng_nm":40,"alt_fmsl":804,"id":"EAU","desc":"EAU CLAIRE VORTAC"},
{"type":"NDB","hdg_t":104.4,"dist_nm":40.6,"freq":377,"lat":44.77688300,"lon":-89.67887200,"rng_nm":25,"alt_fmsl":1264,"id":"HWS","desc":"CENTRAL WISCONSIN NDB"},
{"type":"NDB","hdg_t":68.2,"dist_nm":40.9,"freq":257,"lat":45.19861111,"lon":-89.70425000,"rng_nm":50,"alt_fmsl":0,"id":"RRL","desc":"MERRILL NDB"},
{"type":"NDB","hdg_t":91.4,"dist_nm":41.5,"freq":243,"lat":44.92780556,"lon":-89.62511111,"rng_nm":50,"alt_fmsl":0,"id":"FZK","desc":"WAUSAU NDB"},
{"type":"NDB","hdg_t":194.4,"dist_nm":43,"freq":362,"lat":44.25450000,"lon":-90.84877778,"rng_nm":50,"alt_fmsl":0,"id":"BCK","desc":"BLACK RIVER FALLS NDB"},
{"type":"VOR","hdg_t":97.7,"dist_nm":43.6,"freq":111.6,"lat":44.84677778,"lon":-89.58658333,"rng_nm":40,"alt_fmsl":1205,"id":"AUW","desc":"WAUSAU VORTAC"},
{"type":"NDB","hdg_t":111.6,"dist_nm":43.8,"freq":351,"lat":44.67652778,"lon":-89.64794444,"rng_nm":50,"alt_fmsl":0,"id":"PH","desc":"BAYYE NDB"},
{"type":"NDB","hdg_t":9.9,"dist_nm":45.8,"freq":263,"lat":45.70291667,"lon":-90.41238889,"rng_nm":50,"alt_fmsl":0,"id":"PBH","desc":"PHILLIPS NDB"},
{"type":"NDB","hdg_t":136.9,"dist_nm":47.9,"freq":215,"lat":44.36394444,"lon":-89.83977778,"rng_nm":50,"alt_fmsl":0,"id":"ISW","desc":"WISCONSIN RAPIDS NDB"},
{"type":"NDB","hdg_t":143.3,"dist_nm":51.4,"freq":326,"lat":44.25983333,"lon":-89.88788889,"rng_nm":50,"alt_fmsl":0,"id":"EK","desc":"NEPCO NDB"},
{"type":"VOR","hdg_t":117.7,"dist_nm":51.8,"freq":110.6,"lat":44.54325000,"lon":-89.53055556,"rng_nm":40,"alt_fmsl":1110,"id":"STE","desc":"STEVENS POINT VORTAC"},
{"type":"NDB","hdg_t":293.7,"dist_nm":55.6,"freq":221,"lat":45.31747222,"lon":-91.80277778,"rng_nm":50,"alt_fmsl":0,"id":"RP","desc":"WICKR NDB"},
{"type":"NDB","hdg_t":304.1,"dist_nm":57.1,"freq":407,"lat":45.47955600,"lon":-91.72072200,"rng_nm":25,"alt_fmsl":1140,"id":"RIE","desc":"RICE LAKE NDB"},
{"type":"VOR","hdg_t":299.6,"dist_nm":57.2,"freq":110,"lat":45.41519444,"lon":-91.77800000,"rng_nm":25,"alt_fmsl":1092,"id":"RPD","desc":"RICE LAKE VOR-DME"},
{"type":"NDB","hdg_t":45.2,"dist_nm":58.1,"freq":272,"lat":45.62811111,"lon":-89.61886111,"rng_nm":50,"alt_fmsl":0,"id":"RH","desc":"ARSHA NDB"},
{"type":"NDB","hdg_t":157.7,"dist_nm":59.2,"freq":233,"lat":44.03405600,"lon":-90.08263900,"rng_nm":25,"alt_fmsl":914,"id":"DAF","desc":"NECEDAH NDB"},
{"type":"NDB","hdg_t":6.8,"dist_nm":60.6,"freq":371,"lat":45.95305556,"lon":-90.42611111,"rng_nm":50,"alt_fmsl":0,"id":"PKF","desc":"PARK FALLS NDB"},
{"type":"NDB","hdg_t":181.7,"dist_nm":60.7,"freq":412,"lat":43.93783333,"lon":-90.64186111,"rng_nm":50,"alt_fmsl":0,"id":"CMY","desc":"MC COY NDB"},
{"type":"SDME","hdg_t":166.2,"dist_nm":62.1,"freq":110.4,"lat":43.94288300,"lon":-90.25901900,"rng_nm":40,"alt_fmsl":961,"id":"VOK","desc":"VOLK TACAN"},
{"type":"NDB","hdg_t":206.7,"dist_nm":63.4,"freq":272,"lat":44.00397222,"lon":-91.26066667,"rng_nm":50,"alt_fmsl":0,"id":"LS","desc":"MINDI NDB"},
{"type":"VOR","hdg_t":49.2,"dist_nm":63.4,"freq":109.2,"lat":45.63377778,"lon":-89.45777778,"rng_nm":40,"alt_fmsl":1599,"id":"RHI","desc":"RHINELANDER VORTAC"},
{"type":"NDB","hdg_t":78.2,"dist_nm":64.4,"freq":347,"lat":45.15830556,"lon":-89.11333333,"rng_nm":50,"alt_fmsl":0,"id":"AIG","desc":"ANTIGO NDB"},
{"type":"NDB","hdg_t":34.4,"dist_nm":64.5,"freq":236,"lat":45.83452778,"lon":-89.73041667,"rng_nm":50,"alt_fmsl":0,"id":"DO","desc":"DOUGY NDB"},
{"type":"NDB","hdg_t":31.8,"dist_nm":69.1,"freq":221,"lat":45.92613889,"lon":-89.72933333,"rng_nm":50,"alt_fmsl":0,"id":"ARV","desc":"ARBOR VITAE NDB"},
{"type":"NDB","hdg_t":218.4,"dist_nm":69.7,"freq":264,"lat":44.03479435,"lon":-91.60121996,"rng_nm":15,"alt_fmsl":656,"id":"ON","desc":"BOLLN LOM"},
{"type":"VOR","hdg_t":203.8,"dist_nm":70.3,"freq":108.4,"lat":43.87611111,"lon":-91.25600000,"rng_nm":25,"alt_fmsl":650,"id":"LSE","desc":"LA CROSSE VOR-DME"},
{"type":"VOR","hdg_t":222.5,"dist_nm":70.7,"freq":111.4,"lat":44.07622222,"lon":-91.70572222,"rng_nm":25,"alt_fmsl":653,"id":"ONA","desc":"WINONA VOR-DME"},
{"type":"VOR","hdg_t":211.2,"dist_nm":72.5,"freq":117.9,"lat":43.91233333,"lon":-91.46752778,"rng_nm":130,"alt_fmsl":1282,"id":"ODI","desc":"NODINE VORTAC"},
{"type":"VOR","hdg_t":331.1,"dist_nm":73.4,"freq":113.4,"lat":46.01900000,"lon":-91.44638889,"rng_nm":40,"alt_fmsl":1208,"id":"HYR","desc":"HAYWARD VOR-DME"},
{"type":"NDB","hdg_t":118,"dist_nm":77.1,"freq":382,"lat":44.33436111,"lon":-89.01969444,"rng_nm":50,"alt_fmsl":0,"id":"PCZ","desc":"WAUPACA NDB"},
{"type":"NDB","hdg_t":171.4,"dist_nm":78.5,"freq":251,"lat":43.65516667,"lon":-90.33308333,"rng_nm":50,"alt_fmsl":0,"id":"HBW","desc":"KICKAPOO NDB"},
{"type":"NDB","hdg_t":28.9,"dist_nm":81.4,"freq":206,"lat":46.13383333,"lon":-89.65569444,"rng_nm":50,"alt_fmsl":0,"id":"BDJ","desc":"BOULDER JUNCTION NDB"},
{"type":"NDB","hdg_t":103.3,"dist_nm":82.2,"freq":209,"lat":44.61880556,"lon":-88.73319444,"rng_nm":50,"alt_fmsl":0,"id":"CLI","desc":"CLINTONVILLE NDB"},
{"type":"NDB","hdg_t":278.8,"dist_nm":83,"freq":257,"lat":45.14725000,"lon":-92.53344444,"rng_nm":50,"alt_fmsl":0,"id":"RNH","desc":"NEW RICHMOND NDB"},
{"type":"NDB","hdg_t":255.6,"dist_nm":83.7,"freq":394,"lat":44.58885600,"lon":-92.49213300,"rng_nm":25,"alt_fmsl":782,"id":"RGK","desc":"RED WING NDB"},
{"type":"NDB","hdg_t":257.1,"dist_nm":90,"freq":274,"lat":44.59783333,"lon":-92.64747222,"rng_nm":50,"alt_fmsl":0,"id":"RG","desc":"REGUE NDB"},
{"type":"NDB","hdg_t":205.4,"dist_nm":90.3,"freq":209,"lat":43.58691400,"lon":-91.49041800,"rng_nm":25,"alt_fmsl":1130,"id":"CHU","desc":"CALEDONIA NDB"},
{"type":"NDB","hdg_t":305.6,"dist_nm":91.1,"freq":203,"lat":45.82127778,"lon":-92.36641667,"rng_nm":50,"alt_fmsl":0,"id":"BXR","desc":"BIG DOCTOR NDB"},
{"type":"NDB","hdg_t":284.4,"dist_nm":91.2,"freq":233,"lat":45.31038900,"lon":-92.68808300,"rng_nm":25,"alt_fmsl":944,"id":"OEO","desc":"OSCEOLA NDB"},
{"type":"VOR","hdg_t":156.4,"dist_nm":91.3,"freq":117,"lat":43.55083333,"lon":-89.76361111,"rng_nm":130,"alt_fmsl":1022,"id":"DLL","desc":"DELLS VORTAC"},
{"type":"VOR","hdg_t":305.4,"dist_nm":91.4,"freq":109.4,"lat":45.82044444,"lon":-92.37452778,"rng_nm":40,"alt_fmsl":987,"id":"RZN","desc":"SIREN VOR-DME"},
{"type":"NDB","hdg_t":38.6,"dist_nm":92.8,"freq":396,"lat":46.14975000,"lon":-89.21044444,"rng_nm":50,"alt_fmsl":0,"id":"LNL","desc":"LAND O LAKES NDB"},
{"type":"VOR","hdg_t":352.2,"dist_nm":96.9,"freq":110.2,"lat":46.54941667,"lon":-90.91725000,"rng_nm":25,"alt_fmsl":820,"id":"ASX","desc":"ASHLAND VOR-DME"},
{"type":"VOR","hdg_t":11.6,"dist_nm":97,"freq":108.8,"lat":46.53225000,"lon":-90.12583333,"rng_nm":40,"alt_fmsl":1230,"id":"IWD","desc":"IRONWOOD VORTAC"},
{"type":"NDB","hdg_t":34.2,"dist_nm":97.7,"freq":407,"lat":46.28827778,"lon":-89.27875000,"rng_nm":50,"alt_fmsl":0,"id":"RXW","desc":"WATERSMEET NDB"},
{"type":"NDB","hdg_t":117.9,"dist_nm":98.5,"freq":230,"lat":44.16250000,"lon":-88.58502778,"rng_nm":50,"alt_fmsl":0,"id":"AT","desc":"GAMIE NDB"},
{"type":"NDB","hdg_t":268.1,"dist_nm":99.9,"freq":400,"lat":44.87336111,"lon":-92.94200000,"rng_nm":50,"alt_fmsl":0,"id":"PPI","desc":"HOPEY NDB"}
]
}
