{"success":true,"source":"xp2csv.pl","last_updated":"2013/11/08 14:53:21 UTC"
,"icao":"WSAC","name":"Singapore Changi Rsaf","lat":1.344139,"lon":104.009048,"rwys":1,"ils":0,"index":4658896,"path":"e100n00/e104n01"
,"runways":[
{"len_m":2748,"wid_m":59.13,"hdg":23,"surf":"Asphalt","rwy1":"01","lat1":1.33270189,"lon1":104.00421780,"rwy2":"19","lat2":1.35557611,"lon2":104.01387820}
]
,"navaids":[
{"type":"NDB","hdg_t":238.5,"dist_nm":3.1,"freq":232,"lat":1.31625600,"lon":103.96366700,"rng_nm":25,"alt_fmsl":0,"id":"BED","desc":"BEDOK NDB"},
{"type":"VOR","hdg_t":10.4,"dist_nm":4.3,"freq":116.5,"lat":1.41539400,"lon":104.02208100,"rng_nm":200,"alt_fmsl":150,"id":"VTK","desc":"TEKONG VOR-DME"},
{"type":"SDME","hdg_t":286.7,"dist_nm":6,"freq":116.3,"lat":1.37336900,"lon":103.91229200,"rng_nm":130,"alt_fmsl":65,"id":"PLA","desc":"PAYA LEBAR TACAN"},
{"type":"VOR","hdg_t":316,"dist_nm":6.5,"freq":115.1,"lat":1.42333100,"lon":103.93326100,"rng_nm":200,"alt_fmsl":190,"id":"PU","desc":"PAPA UNIFORM VOR-DME"},
{"type":"NDB","hdg_t":296.5,"dist_nm":9.6,"freq":220,"lat":1.41653100,"lon":103.86506100,"rng_nm":50,"alt_fmsl":35,"id":"SEL","desc":"SELETAR NDB"},
{"type":"NDB","hdg_t":353.8,"dist_nm":10.6,"freq":286,"lat":1.52163900,"lon":103.98991700,"rng_nm":50,"alt_fmsl":0,"id":"KK","desc":"KONG KONG NDB"},
{"type":"VOR","hdg_t":232,"dist_nm":11.7,"freq":113.5,"lat":1.22259400,"lon":103.85422800,"rng_nm":200,"alt_fmsl":150,"id":"SJ","desc":"SINJON VOR-DME"},
{"type":"NDB","hdg_t":292.9,"dist_nm":12.1,"freq":325,"lat":1.42333300,"lon":103.82333300,"rng_nm":30,"alt_fmsl":86,"id":"AG","desc":"SEMBAWANG NDB"},
{"type":"VOR","hdg_t":149,"dist_nm":14.4,"freq":116,"lat":1.13688100,"lon":104.13258900,"rng_nm":130,"alt_fmsl":131,"id":"BTM","desc":"BATAM VOR-DME"},
{"type":"NDB","hdg_t":155.3,"dist_nm":14.6,"freq":370,"lat":1.12126100,"lon":104.11057500,"rng_nm":50,"alt_fmsl":131,"id":"BM","desc":"BATAM NDB"},
{"type":"SDME","hdg_t":279.3,"dist_nm":18.1,"freq":113.9,"lat":1.39333300,"lon":103.71166700,"rng_nm":25,"alt_fmsl":50,"id":"TNG","desc":"TENGAH TACAN"},
{"type":"NDB","hdg_t":297.4,"dist_nm":20.1,"freq":400,"lat":1.49993600,"lon":103.71161700,"rng_nm":50,"alt_fmsl":0,"id":"JB","desc":"JAYBEE NDB"},
{"type":"NDB","hdg_t":313.2,"dist_nm":28.8,"freq":245,"lat":1.67494400,"lon":103.65997200,"rng_nm":25,"alt_fmsl":0,"id":"JR","desc":"JOHOR BAHRU NDB"},
{"type":"VOR","hdg_t":314.6,"dist_nm":32.7,"freq":112.7,"lat":1.72986100,"lon":103.62163900,"rng_nm":25,"alt_fmsl":410,"id":"VJR","desc":"JOHOR BAHRU VOR-DME"},
{"type":"NDB","hdg_t":129.1,"dist_nm":40,"freq":385,"lat":0.91972800,"lon":104.52616900,"rng_nm":250,"alt_fmsl":56,"id":"TI","desc":"TANJUNG PINANG NDB"},
{"type":"VOR","hdg_t":130.8,"dist_nm":40.1,"freq":114.8,"lat":0.90354400,"lon":104.51456100,"rng_nm":130,"alt_fmsl":132,"id":"TPG","desc":"TANJUNG PINANG VOR-DME"},
{"type":"VOR","hdg_t":352.4,"dist_nm":62.8,"freq":116.8,"lat":2.38833300,"lon":103.87166700,"rng_nm":130,"alt_fmsl":10,"id":"VMR","desc":"MERSING VOR-DME"},
{"type":"NDB","hdg_t":295,"dist_nm":71.3,"freq":276,"lat":1.85000000,"lon":102.93388900,"rng_nm":50,"alt_fmsl":0,"id":"BP","desc":"BATU PAHAT NDB"},
{"type":"VOR","hdg_t":3.3,"dist_nm":93.7,"freq":114,"lat":2.91094400,"lon":104.10100000,"rng_nm":130,"alt_fmsl":89,"id":"VPT","desc":"PULAU TIOMAN VOR-DME"}
]
}
