{"success":true,"source":"xp2csv.pl","last_updated":"2013/11/08 14:53:21 UTC"
,"icao":"WT05","name":"Silimo (cama)","lat":-4.466686,"lon":138.941909,"rwys":1,"ils":0,"index":5215591,"path":"e130s10/e138s05"
,"runways":[
{"len_m":426,"wid_m":22.86,"hdg":230,"surf":"Turf/grass","rwy1":"23","lat1":-4.46545179,"lon1":138.94338435,"rwy2":"05","lat2":-4.46792021,"lon2":138.94043365}
]
,"navaids":[
{"type":"NDB","hdg_t":2.2,"dist_nm":21.8,"freq":222,"lat":-4.10047800,"lon":138.95646900,"rng_nm":50,"alt_fmsl":5085,"id":"ZW","desc":"WAMENA NDB"},
{"type":"NDB","hdg_t":103,"dist_nm":100.6,"freq":342,"lat":-4.84500000,"lon":140.57833300,"rng_nm":60,"alt_fmsl":4330,"id":"ZX","desc":"OKSIBIL NDB"},
{"type":"NDB","hdg_t":268,"dist_nm":123,"freq":300,"lat":-4.53534400,"lon":136.89021900,"rng_nm":50,"alt_fmsl":103,"id":"ZF","desc":"TIMIKA NDB"},
{"type":"VOR","hdg_t":268.5,"dist_nm":124.3,"freq":112.7,"lat":-4.51700300,"lon":136.86697200,"rng_nm":130,"alt_fmsl":103,"id":"TMK","desc":"TIMIKA VOR-DME"},
{"type":"NDB","hdg_t":141.1,"dist_nm":126.2,"freq":295,"lat":-6.11166700,"lon":140.26666700,"rng_nm":50,"alt_fmsl":75,"id":"ZH","desc":"TANAH MERAH NDB"},
{"type":"NDB","hdg_t":39.6,"dist_nm":147.2,"freq":395,"lat":-2.56824400,"lon":140.50746100,"rng_nm":50,"alt_fmsl":289,"id":"ZN","desc":"JAYAPURA NDB"},
{"type":"VOR","hdg_t":40.4,"dist_nm":147.2,"freq":116.2,"lat":-2.58769444,"lon":140.53083333,"rng_nm":130,"alt_fmsl":252,"id":"JPA","desc":"JAYAPURA VOR-DME"},
{"type":"NDB","hdg_t":111.6,"dist_nm":153,"freq":1632,"lat":-5.40990000,"lon":141.31870000,"rng_nm":35,"alt_fmsl":2574,"id":"OKT","desc":"OK TEDI NDB-DME"},
{"type":"SDME","hdg_t":111.6,"dist_nm":153,"freq":114.8,"lat":-5.40990000,"lon":141.31870000,"rng_nm":35,"alt_fmsl":2574,"id":"OKT","desc":"OK TEDI NDB-DME"},
{"type":"NDB","hdg_t":278.8,"dist_nm":161.8,"freq":375,"lat":-4.04358300,"lon":136.27538900,"rng_nm":50,"alt_fmsl":5906,"id":"ZG","desc":"WAGHETE NDB"}
]
}
