{"success":true,"source":"xp2csv.pl","last_updated":"2013/11/08 14:53:21 UTC"
,"icao":"WT36","name":"Taliabu/bobong (taliabu Timber)","lat":-1.9364,"lon":124.375191,"rwys":1,"ils":0,"index":4986371,"path":"e120s10/e124s02"
,"runways":[
{"len_m":850,"wid_m":223.11,"hdg":70,"surf":"Gravel","rwy1":"07","lat1":-1.93770779,"lon1":124.37159583,"rwy2":"25","lat2":-1.93509221,"lon2":124.37878617}
]
,"navaids":[
{"type":"NDB","hdg_t":81.9,"dist_nm":65.2,"freq":240,"lat":-1.78333300,"lon":125.45000000,"rng_nm":50,"alt_fmsl":10,"id":"ME","desc":"MANGOLE NDB"},
{"type":"NDB","hdg_t":95.6,"dist_nm":95.8,"freq":397,"lat":-2.09458900,"lon":125.96379200,"rng_nm":60,"alt_fmsl":7,"id":"AS","desc":"SANANA NDB"},
{"type":"NDB","hdg_t":299.5,"dist_nm":111.1,"freq":250,"lat":-1.01666700,"lon":122.76666700,"rng_nm":60,"alt_fmsl":56,"id":"LK","desc":"BUBUNG NDB"},
{"type":"VOR","hdg_t":222,"dist_nm":172.1,"freq":115,"lat":-4.07563600,"lon":122.45298600,"rng_nm":130,"alt_fmsl":448,"id":"KDI","desc":"KENDARI VOR-DME"},
{"type":"NDB","hdg_t":222.5,"dist_nm":174.2,"freq":215,"lat":-4.08649200,"lon":122.41136900,"rng_nm":50,"alt_fmsl":180,"id":"NI","desc":"KENDARI NDB"},
{"type":"NDB","hdg_t":329.2,"dist_nm":179,"freq":285,"lat":0.64078100,"lon":122.85061700,"rng_nm":50,"alt_fmsl":59,"id":"NN","desc":"GORONTALO NDB"},
{"type":"VOR","hdg_t":329.2,"dist_nm":179.3,"freq":113.5,"lat":0.64463100,"lon":122.84804400,"rng_nm":130,"alt_fmsl":59,"id":"GTL","desc":"GORONTALO VOR-DME"},
{"type":"NDB","hdg_t":115.8,"dist_nm":180.5,"freq":290,"lat":-3.25000000,"lon":127.08333300,"rng_nm":60,"alt_fmsl":108,"id":"NA","desc":"NAMLEA NDB"},
{"type":"NDB","hdg_t":259,"dist_nm":183.9,"freq":205,"lat":-2.51666700,"lon":121.36666700,"rng_nm":50,"alt_fmsl":1387,"id":"SA","desc":"SOROAKO NDB"},
{"type":"VOR","hdg_t":10.1,"dist_nm":197.7,"freq":114.8,"lat":1.32325000,"lon":124.95489200,"rng_nm":130,"alt_fmsl":2373,"id":"MWB","desc":"MANADO VOR-DME"}
]
}
