{"success":true,"source":"xp2csv.pl","last_updated":"2013/11/08 14:53:21 UTC"
,"icao":"WT74","name":"Yigi (cama)","lat":-4.228416,"lon":138.394583,"rwys":1,"ils":0,"index":5215603,"path":"e130s10/e138s05"
,"runways":[
{"len_m":427,"wid_m":20.12,"hdg":260,"surf":"Dirt","rwy1":"8","lat1":-4.22808258,"lon1":138.39647907,"rwy2":"26","lat2":-4.22874942,"lon2":138.39268692}
]
,"navaids":[
{"type":"NDB","hdg_t":77.2,"dist_nm":34.5,"freq":222,"lat":-4.10047800,"lon":138.95646900,"rng_nm":50,"alt_fmsl":5085,"id":"ZW","desc":"WAMENA NDB"},
{"type":"NDB","hdg_t":258.4,"dist_nm":92,"freq":300,"lat":-4.53534400,"lon":136.89021900,"rng_nm":50,"alt_fmsl":103,"id":"ZF","desc":"TIMIKA NDB"},
{"type":"VOR","hdg_t":259.2,"dist_nm":93.1,"freq":112.7,"lat":-4.51700300,"lon":136.86697200,"rng_nm":130,"alt_fmsl":103,"id":"TMK","desc":"TIMIKA VOR-DME"},
{"type":"NDB","hdg_t":274.8,"dist_nm":127.5,"freq":375,"lat":-4.04358300,"lon":136.27538900,"rng_nm":50,"alt_fmsl":5906,"id":"ZG","desc":"WAGHETE NDB"},
{"type":"NDB","hdg_t":105.7,"dist_nm":135.9,"freq":342,"lat":-4.84500000,"lon":140.57833300,"rng_nm":60,"alt_fmsl":4330,"id":"ZX","desc":"OKSIBIL NDB"},
{"type":"NDB","hdg_t":135.1,"dist_nm":158.7,"freq":295,"lat":-6.11166700,"lon":140.26666700,"rng_nm":50,"alt_fmsl":75,"id":"ZH","desc":"TANAH MERAH NDB"},
{"type":"NDB","hdg_t":52,"dist_nm":160.9,"freq":395,"lat":-2.56824400,"lon":140.50746100,"rng_nm":50,"alt_fmsl":289,"id":"ZN","desc":"JAYAPURA NDB"},
{"type":"VOR","hdg_t":52.6,"dist_nm":161.3,"freq":116.2,"lat":-2.58769444,"lon":140.53083333,"rng_nm":130,"alt_fmsl":252,"id":"JPA","desc":"JAYAPURA VOR-DME"},
{"type":"VOR","hdg_t":286.1,"dist_nm":180.7,"freq":117.3,"lat":-3.38195800,"lon":135.50112200,"rng_nm":130,"alt_fmsl":20,"id":"NBR","desc":"NABIRE VOR-DME"},
{"type":"NDB","hdg_t":286.4,"dist_nm":181.4,"freq":242,"lat":-3.36166700,"lon":135.49500000,"rng_nm":50,"alt_fmsl":20,"id":"ZR","desc":"NABIRE NDB"}
]
}
