{"success":true,"source":"xp2csv.pl","last_updated":"2013/11/08 14:53:21 UTC"
,"icao":"WV11","name":"Swope Farm","lat":37.56650083,"lon":-81.61927501,"rwys":1,"ils":0,"index":1613793,"path":"w090n30/w082n37"
,"runways":[
{"len_m":381,"wid_m":9.14,"hdg":65,"surf":"Asphalt","rwy1":"07","lat1":37.56577631,"lon1":-81.62123520,"rwy2":"25","lat2":37.56722535,"lon2":-81.61731482}
]
,"navaids":[
{"type":"NDB","hdg_t":313.2,"dist_nm":18.8,"freq":293,"lat":37.78205556,"lon":-81.90872222,"rng_nm":50,"alt_fmsl":0,"id":"GTC","desc":"GUYANDOT NDB"},
{"type":"VOR","hdg_t":127.3,"dist_nm":25.5,"freq":110,"lat":37.30644444,"lon":-81.19427778,"rng_nm":40,"alt_fmsl":2900,"id":"BLF","desc":"BLUEFIELD VORTAC"},
{"type":"VOR","hdg_t":61.3,"dist_nm":26.8,"freq":117.7,"lat":37.78030556,"lon":-81.12344444,"rng_nm":130,"alt_fmsl":2517,"id":"BKW","desc":"BECKLEY VORTAC"},
{"type":"NDB","hdg_t":154.9,"dist_nm":42.7,"freq":335,"lat":36.92016667,"lon":-81.24330556,"rng_nm":50,"alt_fmsl":0,"id":"MK","desc":"SUZZE NDB"},
{"type":"VOR","hdg_t":57.3,"dist_nm":45.7,"freq":116.6,"lat":37.97530556,"lon":-80.80650000,"rng_nm":40,"alt_fmsl":0,"id":"RNL","desc":"RAINELLE VOR"},
{"type":"VOR","hdg_t":351.3,"dist_nm":47.4,"freq":117.4,"lat":38.34966667,"lon":-81.76991667,"rng_nm":130,"alt_fmsl":1099,"id":"HVQ","desc":"CHARLESTON VORTAC"},
{"type":"NDB","hdg_t":42.1,"dist_nm":49.3,"freq":272,"lat":38.17505600,"lon":-80.91998600,"rng_nm":25,"alt_fmsl":1880,"id":"IJZ","desc":"NICHOLAS NDB"},
{"type":"VOR","hdg_t":206.5,"dist_nm":49.5,"freq":110.2,"lat":36.82511111,"lon":-82.07897222,"rng_nm":40,"alt_fmsl":4200,"id":"GZG","desc":"GLADE SPRING VOR-DME"},
{"type":"VOR","hdg_t":123.2,"dist_nm":52,"freq":116.8,"lat":37.08769444,"lon":-80.71288889,"rng_nm":130,"alt_fmsl":2120,"id":"PSK","desc":"PULASKI VORTAC"},
{"type":"NDB","hdg_t":197.6,"dist_nm":52.3,"freq":236,"lat":36.73372222,"lon":-81.94905556,"rng_nm":50,"alt_fmsl":0,"id":"VJ","desc":"WHINE NDB"},
{"type":"NDB","hdg_t":76.3,"dist_nm":56.3,"freq":346,"lat":37.78216667,"lon":-80.46844444,"rng_nm":50,"alt_fmsl":0,"id":"LW","desc":"BUSHI NDB"},
{"type":"VOR","hdg_t":72.6,"dist_nm":61,"freq":116.05,"lat":37.86380556,"lon":-80.39202778,"rng_nm":40,"alt_fmsl":2319,"id":"LWB","desc":"GREENBRIER VOR-DME"},
{"type":"NDB","hdg_t":141.3,"dist_nm":61.5,"freq":269,"lat":36.76222222,"lon":-80.82194444,"rng_nm":50,"alt_fmsl":0,"id":"HLX","desc":"HILLSVILLE NDB"},
{"type":"NDB","hdg_t":109.8,"dist_nm":61.9,"freq":368,"lat":37.20861111,"lon":-80.40344444,"rng_nm":50,"alt_fmsl":0,"id":"TEC","desc":"TECH NDB"},
{"type":"VOR","hdg_t":78.9,"dist_nm":63.8,"freq":108.4,"lat":37.76392200,"lon":-80.30164700,"rng_nm":25,"alt_fmsl":3330,"id":"SSU","desc":"WHITE SULPHUR SPRINGS VOR"},
{"type":"NDB","hdg_t":209.1,"dist_nm":69.2,"freq":299,"lat":36.55541667,"lon":-82.31794444,"rng_nm":50,"alt_fmsl":0,"id":"TR","desc":"MOCCA NDB"},
{"type":"NDB","hdg_t":168,"dist_nm":69.3,"freq":410,"lat":36.43402778,"lon":-81.32180556,"rng_nm":50,"alt_fmsl":0,"id":"JU","desc":"ASHEE NDB"},
{"type":"VOR","hdg_t":300.4,"dist_nm":70.8,"freq":110.4,"lat":38.15836111,"lon":-82.91005556,"rng_nm":40,"alt_fmsl":1070,"id":"ECB","desc":"NEWCOMBE VORTAC"},
{"type":"VOR","hdg_t":200,"dist_nm":71.9,"freq":114.6,"lat":36.43705556,"lon":-82.12958333,"rng_nm":40,"alt_fmsl":4321,"id":"HMV","desc":"HOLSTON MOUNTAIN VORTAC"},
{"type":"NDB","hdg_t":104.2,"dist_nm":72.1,"freq":379,"lat":37.26139700,"lon":-80.15815000,"rng_nm":25,"alt_fmsl":1220,"id":"CNQ","desc":"CALLAHAN NDB"},
{"type":"VOR","hdg_t":344.9,"dist_nm":73.7,"freq":115.9,"lat":38.75411111,"lon":-82.02616667,"rng_nm":130,"alt_fmsl":880,"id":"HNN","desc":"HENDERSON VORTAC"},
{"type":"VOR","hdg_t":99.7,"dist_nm":75.1,"freq":109.4,"lat":37.34347222,"lon":-80.07038889,"rng_nm":40,"alt_fmsl":3072,"id":"ROA","desc":"ROANOKE VORTAC"},
{"type":"VOR","hdg_t":262.8,"dist_nm":79.2,"freq":111.2,"lat":37.39125000,"lon":-83.26300000,"rng_nm":40,"alt_fmsl":1243,"id":"AZQ","desc":"HAZARD VOR-DME"},
{"type":"VOR","hdg_t":99.9,"dist_nm":79.7,"freq":114.9,"lat":37.32419444,"lon":-79.97897222,"rng_nm":25,"alt_fmsl":0,"id":"ODR","desc":"WOODRUM VOR"},
{"type":"NDB","hdg_t":341.5,"dist_nm":80.1,"freq":420,"lat":38.83341667,"lon":-82.16152778,"rng_nm":50,"alt_fmsl":0,"id":"GAS","desc":"GALLIPOLIS NDB"},
{"type":"NDB","hdg_t":202.8,"dist_nm":81.2,"freq":275,"lat":36.31594444,"lon":-82.27041667,"rng_nm":50,"alt_fmsl":0,"id":"EZT","desc":"ELIZABETHTON NDB"},
{"type":"NDB","hdg_t":211.3,"dist_nm":81.6,"freq":221,"lat":36.39872222,"lon":-82.49625000,"rng_nm":50,"alt_fmsl":0,"id":"BO","desc":"BOOIE NDB"},
{"type":"NDB","hdg_t":188.5,"dist_nm":85.5,"freq":320,"lat":36.15347222,"lon":-81.87983333,"rng_nm":50,"alt_fmsl":0,"id":"BAR","desc":"HEMLOCK NDB"},
{"type":"NDB","hdg_t":104.1,"dist_nm":85.8,"freq":277,"lat":37.20405556,"lon":-79.88163889,"rng_nm":50,"alt_fmsl":0,"id":"VIT","desc":"VINTN NDB"},
{"type":"NDB","hdg_t":150,"dist_nm":86.6,"freq":326,"lat":36.31005556,"lon":-80.72636111,"rng_nm":50,"alt_fmsl":0,"id":"ZEF","desc":"ZEPHYR NDB"},
{"type":"NDB","hdg_t":234,"dist_nm":86.7,"freq":252,"lat":36.70703300,"lon":-83.07405800,"rng_nm":25,"alt_fmsl":1670,"id":"LQV","desc":"LONG HOLLOW NDB"},
{"type":"NDB","hdg_t":143.5,"dist_nm":87.9,"freq":223,"lat":36.38097222,"lon":-80.54019444,"rng_nm":50,"alt_fmsl":0,"id":"AZW","desc":"MT AIRY NDB"},
{"type":"NDB","hdg_t":222.7,"dist_nm":90.1,"freq":329,"lat":36.45594444,"lon":-82.88436111,"rng_nm":50,"alt_fmsl":0,"id":"RVN","desc":"ROGERSVILLE NDB"},
{"type":"NDB","hdg_t":163.7,"dist_nm":90.6,"freq":209,"lat":36.11286111,"lon":-81.09808333,"rng_nm":50,"alt_fmsl":0,"id":"UKF","desc":"WILKI NDB"},
{"type":"VOR","hdg_t":315.5,"dist_nm":91.1,"freq":112.8,"lat":38.64413889,"lon":-82.97833333,"rng_nm":40,"alt_fmsl":1040,"id":"YRK","desc":"YORK VORTAC"},
{"type":"NDB","hdg_t":73.5,"dist_nm":91.9,"freq":400,"lat":37.98646900,"lon":-79.75946900,"rng_nm":25,"alt_fmsl":2080,"id":"HS","desc":"DURAN NDB"}
]
}
