{"success":true,"source":"xp2csv.pl","last_updated":"2013/11/08 14:53:21 UTC"
,"icao":"WW26","name":"Nanga Nawong (maf)","lat":-0.432391,"lon":112.326935,"rwys":1,"ils":0,"index":4789858,"path":"e110s10/e112s01"
,"runways":[
{"len_m":448,"wid_m":24.99,"hdg":217,"surf":"Turf/grass","rwy1":"22","lat1":-0.43077437,"lon1":112.32815338,"rwy2":"04","lat2":-0.43400763,"lon2":112.32571662}
]
,"navaids":[
{"type":"NDB","hdg_t":278.5,"dist_nm":33,"freq":233,"lat":-0.35000000,"lon":111.78333300,"rng_nm":60,"alt_fmsl":121,"id":"NH","desc":"NANGA PINOH NDB"},
{"type":"NDB","hdg_t":300.4,"dist_nm":58.8,"freq":405,"lat":0.06666700,"lon":111.48333300,"rng_nm":50,"alt_fmsl":98,"id":"SG","desc":"SUSILO NDB"},
{"type":"NDB","hdg_t":25.8,"dist_nm":84,"freq":360,"lat":0.83505600,"lon":112.93733300,"rng_nm":50,"alt_fmsl":297,"id":"PB","desc":"PANGSUMA NDB"},
{"type":"NDB","hdg_t":96.8,"dist_nm":128.2,"freq":276,"lat":-0.69000000,"lon":114.44500000,"rng_nm":50,"alt_fmsl":443,"id":"KMI","desc":"INDO MURO KENCANA NDB"},
{"type":"NDB","hdg_t":162.4,"dist_nm":129.7,"freq":305,"lat":-2.50430300,"lon":112.97832200,"rng_nm":60,"alt_fmsl":50,"id":"SP","desc":"SAMPIT NDB"},
{"type":"NDB","hdg_t":196.2,"dist_nm":141.4,"freq":238,"lat":-2.70623300,"lon":111.66731400,"rng_nm":50,"alt_fmsl":75,"id":"PN","desc":"PANGKALAN BUN NDB"},
{"type":"VOR","hdg_t":195.4,"dist_nm":142.1,"freq":117.4,"lat":-2.72648100,"lon":111.69597500,"rng_nm":130,"alt_fmsl":75,"id":"PKN","desc":"PANGKALAN BUN VOR-DME"},
{"type":"NDB","hdg_t":137.7,"dist_nm":144.6,"freq":250,"lat":-2.22515000,"lon":113.94634400,"rng_nm":50,"alt_fmsl":82,"id":"FK","desc":"PALANGKARAYA NDB"},
{"type":"VOR","hdg_t":137.9,"dist_nm":145.6,"freq":114.3,"lat":-2.24350300,"lon":113.94966900,"rng_nm":130,"alt_fmsl":82,"id":"PKY","desc":"TJILIK RIWUT VOR-DME"},
{"type":"NDB","hdg_t":60.7,"dist_nm":151.8,"freq":290,"lat":0.81166700,"lon":114.53000000,"rng_nm":50,"alt_fmsl":132,"id":"TG","desc":"TIONG OHONG NDB"}
]
}
