{"success":true,"source":"xp2csv.pl","last_updated":"2013/11/08 14:53:21 UTC"
,"icao":"WW34","name":"Ninia (rbmu)","lat":-4.363657,"lon":139.301812,"rwys":1,"ils":0,"index":5231978,"path":"e130s10/e139s05"
,"runways":[
{"len_m":440,"wid_m":22.86,"hdg":119,"surf":"Turf/grass","rwy1":"12","lat1":-4.36266678,"lon1":139.30009191,"rwy2":"30","lat2":-4.36464722,"lon2":139.30353209}
]
,"navaids":[
{"type":"NDB","hdg_t":307.1,"dist_nm":25.9,"freq":222,"lat":-4.10047800,"lon":138.95646900,"rng_nm":50,"alt_fmsl":5085,"id":"ZW","desc":"WAMENA NDB"},
{"type":"NDB","hdg_t":110.6,"dist_nm":81.7,"freq":342,"lat":-4.84500000,"lon":140.57833300,"rng_nm":60,"alt_fmsl":4330,"id":"ZX","desc":"OKSIBIL NDB"},
{"type":"NDB","hdg_t":151,"dist_nm":119.2,"freq":295,"lat":-6.11166700,"lon":140.26666700,"rng_nm":50,"alt_fmsl":75,"id":"ZH","desc":"TANAH MERAH NDB"},
{"type":"VOR","hdg_t":34.8,"dist_nm":129.1,"freq":116.2,"lat":-2.58769444,"lon":140.53083333,"rng_nm":130,"alt_fmsl":252,"id":"JPA","desc":"JAYAPURA VOR-DME"},
{"type":"NDB","hdg_t":34,"dist_nm":129.3,"freq":395,"lat":-2.56824400,"lon":140.50746100,"rng_nm":50,"alt_fmsl":289,"id":"ZN","desc":"JAYAPURA NDB"},
{"type":"NDB","hdg_t":117.4,"dist_nm":135.9,"freq":1632,"lat":-5.40990000,"lon":141.31870000,"rng_nm":35,"alt_fmsl":2574,"id":"OKT","desc":"OK TEDI NDB-DME"},
{"type":"SDME","hdg_t":117.4,"dist_nm":135.9,"freq":114.8,"lat":-5.40990000,"lon":141.31870000,"rng_nm":35,"alt_fmsl":2574,"id":"OKT","desc":"OK TEDI NDB-DME"},
{"type":"NDB","hdg_t":265.8,"dist_nm":144.8,"freq":300,"lat":-4.53534400,"lon":136.89021900,"rng_nm":50,"alt_fmsl":103,"id":"ZF","desc":"TIMIKA NDB"},
{"type":"VOR","hdg_t":266.3,"dist_nm":146.2,"freq":112.7,"lat":-4.51700300,"lon":136.86697200,"rng_nm":130,"alt_fmsl":103,"id":"TMK","desc":"TIMIKA VOR-DME"},
{"type":"NDB","hdg_t":50.1,"dist_nm":156.6,"freq":257,"lat":-2.67890000,"lon":141.30311700,"rng_nm":25,"alt_fmsl":10,"id":"VNO","desc":"VANIMO NDB-DME"}
]
}
