{"success":true,"source":"xp2csv.pl","last_updated":"2013/11/08 14:53:21 UTC"
,"icao":"WW63","name":"Peniel (maf)","lat":0.116667,"lon":111.033333,"rwys":1,"ils":0,"index":4773504,"path":"e110n00/e111n00"
,"runways":[
{"len_m":394,"wid_m":24.99,"hdg":30,"surf":"Turf/grass","rwy1":"03","lat1":0.11512293,"lon1":111.03244153,"rwy2":"21","lat2":0.11821107,"lon2":111.03422447}
]
,"navaids":[
{"type":"NDB","hdg_t":96.2,"dist_nm":27.2,"freq":405,"lat":0.06666700,"lon":111.48333300,"rng_nm":50,"alt_fmsl":98,"id":"SG","desc":"SUSILO NDB"},
{"type":"NDB","hdg_t":121.7,"dist_nm":52.9,"freq":233,"lat":-0.35000000,"lon":111.78333300,"rng_nm":60,"alt_fmsl":121,"id":"NH","desc":"NANGA PINOH NDB"},
{"type":"VOR","hdg_t":331.6,"dist_nm":92,"freq":114.5,"lat":1.47333300,"lon":110.30575000,"rng_nm":130,"alt_fmsl":220,"id":"VKG","desc":"KUCHING VOR-DME"},
{"type":"NDB","hdg_t":261,"dist_nm":99,"freq":245,"lat":-0.14257200,"lon":109.40508900,"rng_nm":50,"alt_fmsl":10,"id":"AT","desc":"PONTIANAK NDB"},
{"type":"NDB","hdg_t":305.8,"dist_nm":99.3,"freq":210,"lat":1.09215600,"lon":109.69338300,"rng_nm":50,"alt_fmsl":115,"id":"NF","desc":"SINGKAWANG NDB"},
{"type":"VOR","hdg_t":263.3,"dist_nm":100.3,"freq":113.2,"lat":-0.07915300,"lon":109.37510300,"rng_nm":130,"alt_fmsl":5,"id":"PNK","desc":"PONTIANAK VOR-DME"},
{"type":"NDB","hdg_t":335.5,"dist_nm":105,"freq":402,"lat":1.71830600,"lon":110.30908300,"rng_nm":50,"alt_fmsl":0,"id":"AN","desc":"KUCHING NDB"},
{"type":"NDB","hdg_t":69.4,"dist_nm":122.2,"freq":360,"lat":0.83505600,"lon":112.93733300,"rng_nm":50,"alt_fmsl":297,"id":"PB","desc":"PANGSUMA NDB"},
{"type":"NDB","hdg_t":4.6,"dist_nm":123.4,"freq":264,"lat":2.17743600,"lon":111.20016100,"rng_nm":25,"alt_fmsl":0,"id":"TMS","desc":"TANJUNG MANIS NDB"},
{"type":"NDB","hdg_t":209.5,"dist_nm":128,"freq":333,"lat":-1.75000000,"lon":109.98333300,"rng_nm":60,"alt_fmsl":46,"id":"KP","desc":"KETAPANG NDB"}
]
}
