{"success":true,"source":"xp2csv.pl","last_updated":"2013/11/08 14:53:21 UTC"
,"icao":"WW78","name":"Riam Batu (ymmp)","lat":-1.497363,"lon":110.674943,"rwys":1,"ils":0,"index":4757029,"path":"e110s10/e110s02"
,"runways":[
{"len_m":599,"wid_m":24.99,"hdg":312,"surf":"Turf/grass","rwy1":"13","lat1":-1.49920208,"lon1":110.67691925,"rwy2":"31","lat2":-1.49552392,"lon2":110.67296675}
]
,"navaids":[
{"type":"NDB","hdg_t":250,"dist_nm":44.2,"freq":333,"lat":-1.75000000,"lon":109.98333300,"rng_nm":60,"alt_fmsl":46,"id":"KP","desc":"KETAPANG NDB"},
{"type":"VOR","hdg_t":245.9,"dist_nm":46.6,"freq":116.8,"lat":-1.81649200,"lon":109.96555800,"rng_nm":150,"alt_fmsl":49,"id":"KTP","desc":"KETAPANG VOR-DME"},
{"type":"NDB","hdg_t":140.4,"dist_nm":93.6,"freq":238,"lat":-2.70623300,"lon":111.66731400,"rng_nm":50,"alt_fmsl":75,"id":"PN","desc":"PANGKALAN BUN NDB"},
{"type":"NDB","hdg_t":44.2,"dist_nm":95.5,"freq":233,"lat":-0.35000000,"lon":111.78333300,"rng_nm":60,"alt_fmsl":121,"id":"NH","desc":"NANGA PINOH NDB"},
{"type":"VOR","hdg_t":140.1,"dist_nm":95.6,"freq":117.4,"lat":-2.72648100,"lon":111.69597500,"rng_nm":130,"alt_fmsl":75,"id":"PKN","desc":"PANGKALAN BUN VOR-DME"},
{"type":"NDB","hdg_t":27.4,"dist_nm":105.2,"freq":405,"lat":0.06666700,"lon":111.48333300,"rng_nm":50,"alt_fmsl":98,"id":"SG","desc":"SUSILO NDB"},
{"type":"NDB","hdg_t":316.6,"dist_nm":111.2,"freq":245,"lat":-0.14257200,"lon":109.40508900,"rng_nm":50,"alt_fmsl":10,"id":"AT","desc":"PONTIANAK NDB"},
{"type":"VOR","hdg_t":317.2,"dist_nm":115.2,"freq":113.2,"lat":-0.07915300,"lon":109.37510300,"rng_nm":130,"alt_fmsl":5,"id":"PNK","desc":"PONTIANAK VOR-DME"},
{"type":"NDB","hdg_t":113.5,"dist_nm":150.8,"freq":305,"lat":-2.50430300,"lon":112.97832200,"rng_nm":60,"alt_fmsl":50,"id":"SP","desc":"SAMPIT NDB"},
{"type":"NDB","hdg_t":339.1,"dist_nm":165.4,"freq":210,"lat":1.09215600,"lon":109.69338300,"rng_nm":50,"alt_fmsl":115,"id":"NF","desc":"SINGKAWANG NDB"}
]
}
