{"success":true,"source":"xp2csv.pl","last_updated":"2013/11/08 14:53:21 UTC"
,"icao":"WWLD","name":"West Wallsend","lat":-32.880001,"lon":151.660004,"rwys":1,"ils":0,"index":5426754,"path":"e150s40/e151s33"
,"runways":[
{"len_m":754,"wid_m":18.29,"hdg":30,"surf":"Gravel","rwy1":"03","lat1":-32.88294186,"lon1":151.65798223,"rwy2":"21","lat2":-32.87706014,"lon2":151.66202577}
]
,"radios":[
{"type":"CTAF","freq":126,"desc":"CTAF"}
]
,"navaids":[
{"type":"NDB","hdg_t":61.7,"dist_nm":9.6,"freq":365,"lat":-32.80335300,"lon":151.82878100,"rng_nm":100,"alt_fmsl":30,"id":"WLM","desc":"WILLIAMTOWN NDB"},
{"type":"NDB","hdg_t":319.2,"dist_nm":9.8,"freq":224,"lat":-32.75506100,"lon":151.53275600,"rng_nm":65,"alt_fmsl":0,"id":"WMD","desc":"WEST MAITLAND NDB"},
{"type":"VOR","hdg_t":319.1,"dist_nm":9.9,"freq":114.6,"lat":-32.75488300,"lon":151.53184700,"rng_nm":130,"alt_fmsl":0,"id":"WMD","desc":"WEST MAITLAND VOR"},
{"type":"SDME","hdg_t":60.4,"dist_nm":10,"freq":113.3,"lat":-32.79705600,"lon":151.83319400,"rng_nm":25,"alt_fmsl":59,"id":"WLM","desc":"WILLIAMTOWN TACAN"},
{"type":"NDB","hdg_t":313.8,"dist_nm":28.2,"freq":290,"lat":-32.55222200,"lon":151.25750000,"rng_nm":60,"alt_fmsl":0,"id":"SGT","desc":"SINGLETON NDB"},
{"type":"VOR","hdg_t":242.3,"dist_nm":29.6,"freq":117.3,"lat":-33.10833300,"lon":151.13944400,"rng_nm":130,"alt_fmsl":0,"id":"MQD","desc":"MOUNT MCQUOID VOR"},
{"type":"NDB","hdg_t":241.9,"dist_nm":29.7,"freq":404,"lat":-33.11221900,"lon":151.13918300,"rng_nm":25,"alt_fmsl":0,"id":"MQD","desc":"MOUNT MCQUOID NDB"},
{"type":"NDB","hdg_t":215.7,"dist_nm":38.6,"freq":392,"lat":-33.40277800,"lon":151.21138900,"rng_nm":15,"alt_fmsl":0,"id":"CAA","desc":"CALGA NDB"},
{"type":"SDME","hdg_t":224.6,"dist_nm":61.4,"freq":110.7,"lat":-33.60739400,"lon":150.79889400,"rng_nm":25,"alt_fmsl":68,"id":"RIC","desc":"RICHMOND TACAN"},
{"type":"NDB","hdg_t":225.7,"dist_nm":61.8,"freq":347,"lat":-33.59693100,"lon":150.77639700,"rng_nm":75,"alt_fmsl":68,"id":"RIC","desc":"RICHMOND NDB"},
{"type":"NDB","hdg_t":320,"dist_nm":65.8,"freq":209,"lat":-32.03474700,"lon":150.83103300,"rng_nm":40,"alt_fmsl":0,"id":"SCO","desc":"SCONE NDB"},
{"type":"NDB","hdg_t":201.6,"dist_nm":66.7,"freq":266,"lat":-33.91527800,"lon":151.16750000,"rng_nm":20,"alt_fmsl":0,"id":"SDM","desc":"SYDENHAM NDB"},
{"type":"VOR","hdg_t":200.5,"dist_nm":68,"freq":112.1,"lat":-33.94277778,"lon":151.18055556,"rng_nm":130,"alt_fmsl":44,"id":"SY","desc":"SYDNEY VOR-DME"},
{"type":"NDB","hdg_t":208,"dist_nm":71.2,"freq":416,"lat":-33.92832800,"lon":150.98850600,"rng_nm":40,"alt_fmsl":18,"id":"BK","desc":"BANKSTOWN NDB"},
{"type":"NDB","hdg_t":36.2,"dist_nm":73.3,"freq":371,"lat":-31.88949400,"lon":152.50948100,"rng_nm":70,"alt_fmsl":0,"id":"TRE","desc":"TAREE NDB"},
{"type":"NDB","hdg_t":207.1,"dist_nm":74.6,"freq":428,"lat":-33.98666700,"lon":150.97638900,"rng_nm":50,"alt_fmsl":0,"id":"GLF","desc":"GLENFIELD NDB"},
{"type":"NDB","hdg_t":233.6,"dist_nm":84.5,"freq":233,"lat":-33.71080600,"lon":150.29962200,"rng_nm":40,"alt_fmsl":0,"id":"KAT","desc":"KATOOMBA NDB"},
{"type":"NDB","hdg_t":214.7,"dist_nm":84.7,"freq":281,"lat":-34.03861100,"lon":150.69166700,"rng_nm":35,"alt_fmsl":228,"id":"CN","desc":"CAMDEN NDB"},
{"type":"VOR","hdg_t":351.8,"dist_nm":90.2,"freq":115.3,"lat":-31.38751700,"lon":151.41079400,"rng_nm":130,"alt_fmsl":0,"id":"MSO","desc":"MOUNT SANDON VOR"},
{"type":"NDB","hdg_t":351.9,"dist_nm":90.3,"freq":326,"lat":-31.38639400,"lon":151.41238600,"rng_nm":60,"alt_fmsl":0,"id":"MSO","desc":"MOUNT SANDON NDB"}
]
}
