{"success":true,"source":"xp2csv.pl","last_updated":"2013/11/08 14:53:21 UTC"
,"icao":"WX31","name":"Batu Ampar/muara Bengkal (gpi)","lat":0.666866,"lon":116.833204,"rwys":1,"ils":0,"index":4855470,"path":"e110n00/e116n00"
,"runways":[
{"len_m":598,"wid_m":17.98,"hdg":139,"surf":"Gravel","rwy1":"14","lat1":0.66893363,"lon1":116.83146894,"rwy2":"32","lat2":0.66479837,"lon2":116.83493906}
]
,"navaids":[
{"type":"NDB","hdg_t":130.7,"dist_nm":50.2,"freq":300,"lat":0.11666700,"lon":117.46666700,"rng_nm":50,"alt_fmsl":62,"id":"BG","desc":"BONTANG NDB"},
{"type":"NDB","hdg_t":140.3,"dist_nm":58.1,"freq":210,"lat":-0.08333300,"lon":117.45000000,"rng_nm":50,"alt_fmsl":121,"id":"TT","desc":"SANTAN NDB"},
{"type":"NDB","hdg_t":148.8,"dist_nm":67.8,"freq":394,"lat":-0.30611100,"lon":117.41638900,"rng_nm":50,"alt_fmsl":49,"id":"BD","desc":"MUARA BADAK NDB"},
{"type":"NDB","hdg_t":164.1,"dist_nm":71.2,"freq":404,"lat":-0.48184400,"lon":117.15696900,"rng_nm":50,"alt_fmsl":33,"id":"TG","desc":"TEMINDUNG NDB"},
{"type":"NDB","hdg_t":22,"dist_nm":96.2,"freq":232,"lat":2.16061400,"lon":117.43372800,"rng_nm":50,"alt_fmsl":49,"id":"KM","desc":"KALIMARU NDB"},
{"type":"NDB","hdg_t":34.4,"dist_nm":97.2,"freq":325,"lat":2.00888900,"lon":117.74933300,"rng_nm":50,"alt_fmsl":47,"id":"BE","desc":"MANGKAJANG NDB"},
{"type":"NDB","hdg_t":169.5,"dist_nm":99.1,"freq":351,"lat":-0.96666700,"lon":117.13333300,"rng_nm":50,"alt_fmsl":33,"id":"LL","desc":"SENIPAH NDB"},
{"type":"VOR","hdg_t":176.7,"dist_nm":114.3,"freq":117.2,"lat":-1.24568900,"lon":116.94029700,"rng_nm":130,"alt_fmsl":10,"id":"BPN","desc":"BALIKPAPAN VOR-DME"},
{"type":"NDB","hdg_t":177.6,"dist_nm":114.6,"freq":365,"lat":-1.25206100,"lon":116.91103600,"rng_nm":50,"alt_fmsl":12,"id":"OL","desc":"BALIKPAPAN NDB"},
{"type":"NDB","hdg_t":298.9,"dist_nm":127.9,"freq":227,"lat":1.70500000,"lon":114.97016700,"rng_nm":50,"alt_fmsl":2400,"id":"LO","desc":"LONG APUNG NDB"}
]
}
