{"success":true,"source":"xp2csv.pl","last_updated":"2013/11/08 14:53:21 UTC"
,"icao":"WX65","name":"Datah Dian (pertamina)","lat":2.007126,"lon":115.151406,"rwys":1,"ils":0,"index":4839169,"path":"e110n00/e115n02"
,"runways":[
{"len_m":394,"wid_m":20.12,"hdg":149,"surf":"Turf/grass","rwy1":"15","lat1":2.00867007,"lon1":115.15051398,"rwy2":"33","lat2":2.00558193,"lon2":115.15229802}
]
,"navaids":[
{"type":"NDB","hdg_t":211.1,"dist_nm":21,"freq":227,"lat":1.70500000,"lon":114.97016700,"rng_nm":50,"alt_fmsl":2400,"id":"LO","desc":"LONG APUNG NDB"},
{"type":"NDB","hdg_t":207.6,"dist_nm":80.5,"freq":290,"lat":0.81166700,"lon":114.53000000,"rng_nm":50,"alt_fmsl":132,"id":"TG","desc":"TIONG OHONG NDB"},
{"type":"NDB","hdg_t":16.3,"dist_nm":116.7,"freq":356,"lat":3.88333300,"lon":115.70000000,"rng_nm":50,"alt_fmsl":3360,"id":"LN","desc":"LONG BAWANG NDB"},
{"type":"VOR","hdg_t":349.9,"dist_nm":122.8,"freq":112.8,"lat":4.03291700,"lon":114.79536100,"rng_nm":25,"alt_fmsl":222,"id":"VZU","desc":"MULU VOR-DME"},
{"type":"NDB","hdg_t":350,"dist_nm":122.8,"freq":505,"lat":4.03388900,"lon":114.79777800,"rng_nm":50,"alt_fmsl":0,"id":"MZU","desc":"MULU NDB"},
{"type":"NDB","hdg_t":86.1,"dist_nm":137.4,"freq":232,"lat":2.16061400,"lon":117.43372800,"rng_nm":50,"alt_fmsl":49,"id":"KM","desc":"KALIMARU NDB"},
{"type":"NDB","hdg_t":338.6,"dist_nm":139.1,"freq":404,"lat":4.17750000,"lon":114.30527800,"rng_nm":50,"alt_fmsl":0,"id":"MDI","desc":"MARUDI NDB"},
{"type":"NDB","hdg_t":297.1,"dist_nm":143.4,"freq":368,"lat":3.10241400,"lon":113.02450300,"rng_nm":190,"alt_fmsl":128,"id":"BTU","desc":"BINTULU NDB"},
{"type":"NDB","hdg_t":69,"dist_nm":143.5,"freq":319,"lat":2.86666700,"lon":117.38333300,"rng_nm":50,"alt_fmsl":10,"id":"GN","desc":"GUNUNG SEKIP NDB"},
{"type":"VOR","hdg_t":298.1,"dist_nm":145.5,"freq":112.6,"lat":3.15397200,"lon":113.01320000,"rng_nm":25,"alt_fmsl":23,"id":"VBU","desc":"BINTULU VOR-DME"}
]
}
