{"success":true,"source":"xp2csv.pl","last_updated":"2013/11/08 14:53:21 UTC"
,"icao":"WX72","name":"Dowiwi (ymmp)","lat":-0.866667,"lon":122.216667,"rwys":1,"ils":0,"index":4953673,"path":"e120s10/e122s01"
,"runways":[
{"len_m":579,"wid_m":14.94,"hdg":119,"surf":"Turf/grass","rwy1":"12","lat1":-0.86536408,"lon1":122.21441003,"rwy2":"30","lat2":-0.86796992,"lon2":122.21892397}
]
,"navaids":[
{"type":"NDB","hdg_t":105.1,"dist_nm":34.2,"freq":250,"lat":-1.01666700,"lon":122.76666700,"rng_nm":60,"alt_fmsl":56,"id":"LK","desc":"BUBUNG NDB"},
{"type":"NDB","hdg_t":22.9,"dist_nm":97.7,"freq":285,"lat":0.64078100,"lon":122.85061700,"rng_nm":50,"alt_fmsl":59,"id":"NN","desc":"GORONTALO NDB"},
{"type":"VOR","hdg_t":22.8,"dist_nm":97.8,"freq":113.5,"lat":0.64463100,"lon":122.84804400,"rng_nm":130,"alt_fmsl":59,"id":"GTL","desc":"GORONTALO VOR-DME"},
{"type":"NDB","hdg_t":250.5,"dist_nm":99.2,"freq":310,"lat":-1.42003600,"lon":120.65944400,"rng_nm":50,"alt_fmsl":174,"id":"DF","desc":"KASIGUNCU NDB"},
{"type":"NDB","hdg_t":207.3,"dist_nm":110.9,"freq":205,"lat":-2.51666700,"lon":121.36666700,"rng_nm":50,"alt_fmsl":1387,"id":"SA","desc":"SOROAKO NDB"},
{"type":"NDB","hdg_t":268.7,"dist_nm":138.9,"freq":270,"lat":-0.91746700,"lon":119.90475800,"rng_nm":50,"alt_fmsl":284,"id":"OP","desc":"PALU NDB"},
{"type":"VOR","hdg_t":269.5,"dist_nm":139.5,"freq":116.2,"lat":-0.88501100,"lon":119.89472200,"rng_nm":130,"alt_fmsl":284,"id":"PAL","desc":"PALU VOR-DME"},
{"type":"NDB","hdg_t":324.5,"dist_nm":146.6,"freq":370,"lat":1.13333300,"lon":120.80000000,"rng_nm":50,"alt_fmsl":66,"id":"TO","desc":"TOLI-TOLI NDB"},
{"type":"VOR","hdg_t":175.7,"dist_nm":192.1,"freq":115,"lat":-4.07563600,"lon":122.45298600,"rng_nm":130,"alt_fmsl":448,"id":"KDI","desc":"KENDARI VOR-DME"},
{"type":"NDB","hdg_t":176.5,"dist_nm":192.5,"freq":215,"lat":-4.08649200,"lon":122.41136900,"rng_nm":50,"alt_fmsl":180,"id":"NI","desc":"KENDARI NDB"}
]
}
