{"success":true,"source":"xp2csv.pl","last_updated":"2013/11/08 14:53:21 UTC"
,"icao":"WX75","name":"Eaopoto (ama)","lat":-3.949834,"lon":136.337531,"rwys":1,"ils":0,"index":5182850,"path":"e130s10/e136s04"
,"runways":[
{"len_m":575,"wid_m":31.09,"hdg":87,"surf":"Turf/grass","rwy1":"09","lat1":-3.94992532,"lon1":136.33493983,"rwy2":"27","lat2":-3.94974268,"lon2":136.34012217}
]
,"navaids":[
{"type":"NDB","hdg_t":213.6,"dist_nm":6.7,"freq":375,"lat":-4.04358300,"lon":136.27538900,"rng_nm":50,"alt_fmsl":5906,"id":"ZG","desc":"WAGHETE NDB"},
{"type":"VOR","hdg_t":136.8,"dist_nm":46.4,"freq":112.7,"lat":-4.51700300,"lon":136.86697200,"rng_nm":130,"alt_fmsl":103,"id":"TMK","desc":"TIMIKA VOR-DME"},
{"type":"NDB","hdg_t":136.5,"dist_nm":48.1,"freq":300,"lat":-4.53534400,"lon":136.89021900,"rng_nm":50,"alt_fmsl":103,"id":"ZF","desc":"TIMIKA NDB"},
{"type":"VOR","hdg_t":304,"dist_nm":60.5,"freq":117.3,"lat":-3.38195800,"lon":135.50112200,"rng_nm":130,"alt_fmsl":20,"id":"NBR","desc":"NABIRE VOR-DME"},
{"type":"NDB","hdg_t":304.7,"dist_nm":61.5,"freq":242,"lat":-3.36166700,"lon":135.49500000,"rng_nm":50,"alt_fmsl":20,"id":"ZR","desc":"NABIRE NDB"},
{"type":"NDB","hdg_t":276.2,"dist_nm":156.6,"freq":310,"lat":-3.66166700,"lon":133.74166700,"rng_nm":50,"alt_fmsl":0,"id":"ZV","desc":"KAIMANA NDB"},
{"type":"NDB","hdg_t":93.3,"dist_nm":157.2,"freq":222,"lat":-4.10047800,"lon":138.95646900,"rng_nm":50,"alt_fmsl":5085,"id":"ZW","desc":"WAMENA NDB"},
{"type":"NDB","hdg_t":354.9,"dist_nm":165.8,"freq":230,"lat":-1.18204200,"lon":136.09485300,"rng_nm":50,"alt_fmsl":46,"id":"ZM","desc":"BIAK NDB"},
{"type":"VOR","hdg_t":354.7,"dist_nm":165.9,"freq":112.5,"lat":-1.18247222,"lon":136.08613889,"rng_nm":130,"alt_fmsl":46,"id":"BIK","desc":"BIAK VOR-DME"},
{"type":"NDB","hdg_t":229.6,"dist_nm":167.8,"freq":305,"lat":-5.76666700,"lon":134.19833300,"rng_nm":50,"alt_fmsl":23,"id":"DO","desc":"DOBO NDB"}
]
}
