{"success":true,"source":"xp2csv.pl","last_updated":"2013/11/08 14:53:21 UTC"
,"icao":"WY60","name":"Heiner","lat":42.86329475,"lon":-110.89664695,"rwys":1,"ils":0,"index":1138992,"path":"w120n40/w111n42"
,"runways":[
{"len_m":987,"wid_m":11.89,"hdg":54,"surf":"Turf/grass","rwy1":"04","lat1":42.86070607,"lon1":-110.90156186,"rwy2":"22","lat2":42.86588343,"lon2":-110.89173204}
]
,"navaids":[
{"type":"VOR","hdg_t":115.7,"dist_nm":38.7,"freq":116.5,"lat":42.57944444,"lon":-110.10922222,"rng_nm":130,"alt_fmsl":6949,"id":"BPI","desc":"BIG PINEY VOR-DME"},
{"type":"VOR","hdg_t":8.9,"dist_nm":46,"freq":115.4,"lat":43.62102778,"lon":-110.73169444,"rng_nm":40,"alt_fmsl":6452,"id":"JAC","desc":"JACKSON VOR-DME"},
{"type":"NDB","hdg_t":94.6,"dist_nm":48.3,"freq":392,"lat":42.79275000,"lon":-109.80602778,"rng_nm":50,"alt_fmsl":0,"id":"PNA","desc":"WENZ NDB"},
{"type":"VOR","hdg_t":22.8,"dist_nm":62.8,"freq":117.2,"lat":43.82827778,"lon":-110.33547222,"rng_nm":130,"alt_fmsl":7720,"id":"DNW","desc":"DUNOIR VOR-DME"},
{"type":"VOR","hdg_t":307.9,"dist_nm":64.5,"freq":113.85,"lat":43.51900000,"lon":-112.06391667,"rng_nm":130,"alt_fmsl":4724,"id":"IDA","desc":"IDAHO FALLS VOR-DME"},
{"type":"NDB","hdg_t":313.1,"dist_nm":64.8,"freq":324,"lat":43.59783333,"lon":-111.98066667,"rng_nm":50,"alt_fmsl":0,"id":"ID","desc":"UCONN NDB"},
{"type":"NDB","hdg_t":301.9,"dist_nm":65.2,"freq":350,"lat":43.43216667,"lon":-112.16252778,"rng_nm":50,"alt_fmsl":0,"id":"SWU","desc":"SWEDEN NDB"},
{"type":"NDB","hdg_t":275.3,"dist_nm":71.6,"freq":383,"lat":42.96375000,"lon":-112.51638889,"rng_nm":50,"alt_fmsl":0,"id":"PI","desc":"TYHEE NDB"},
{"type":"VOR","hdg_t":270.9,"dist_nm":77.4,"freq":112.6,"lat":42.87038889,"lon":-112.65222222,"rng_nm":130,"alt_fmsl":4430,"id":"PIH","desc":"POCATELLO VOR-DME"},
{"type":"VOR","hdg_t":240.5,"dist_nm":79.6,"freq":117.4,"lat":42.19988889,"lon":-112.45122222,"rng_nm":130,"alt_fmsl":7330,"id":"MLD","desc":"MALAD CITY VOR-DME"},
{"type":"VOR","hdg_t":218,"dist_nm":81,"freq":112.9,"lat":41.79288889,"lon":-112.00977778,"rng_nm":40,"alt_fmsl":5358,"id":"LHO","desc":"BRIGHAM CITY VOR-DME"},
{"type":"VOR","hdg_t":166.5,"dist_nm":91.5,"freq":108.6,"lat":41.37844444,"lon":-110.42408333,"rng_nm":40,"alt_fmsl":7060,"id":"FBR","desc":"FORT BRIDGER VOR-DME"},
{"type":"VOR","hdg_t":322.4,"dist_nm":93.2,"freq":116.9,"lat":44.08886111,"lon":-112.20933333,"rng_nm":130,"alt_fmsl":4915,"id":"DBS","desc":"DUBOIS VORTAC"},
{"type":"VOR","hdg_t":184,"dist_nm":95.6,"freq":109.6,"lat":41.27250000,"lon":-111.04677778,"rng_nm":25,"alt_fmsl":7145,"id":"EVW","desc":"EVANSTON VOR-DME"},
{"type":"NDB","hdg_t":213.5,"dist_nm":96.4,"freq":294,"lat":41.51580556,"lon":-112.07808333,"rng_nm":50,"alt_fmsl":0,"id":"BMC","desc":"BRIGHAM CITY NDB"}
]
}
