{"success":true,"source":"xp2csv.pl","last_updated":"2013/11/08 14:53:21 UTC"
,"icao":"WZ18","name":"Jatubo (team)","lat":-1.217201,"lon":133.790009,"rwys":1,"ils":0,"index":5133878,"path":"e130s10/e133s02"
,"runways":[
{"len_m":424,"wid_m":29.87,"hdg":180,"surf":"Turf/grass","rwy1":"18","lat1":-1.21528091,"lon1":133.79000900,"rwy2":"36","lat2":-1.21912109,"lon2":133.79000900}
]
,"navaids":[
{"type":"NDB","hdg_t":38.6,"dist_nm":25.2,"freq":207,"lat":-0.88712500,"lon":134.05178300,"rng_nm":50,"alt_fmsl":15,"id":"ZQ","desc":"MANOKWARI NDB"},
{"type":"NDB","hdg_t":221.1,"dist_nm":136,"freq":380,"lat":-2.93333300,"lon":132.30000000,"rng_nm":50,"alt_fmsl":462,"id":"FA","desc":"FAK FAK NDB"},
{"type":"VOR","hdg_t":89.1,"dist_nm":138,"freq":112.5,"lat":-1.18247222,"lon":136.08613889,"rng_nm":130,"alt_fmsl":46,"id":"BIK","desc":"BIAK VOR-DME"},
{"type":"NDB","hdg_t":89.1,"dist_nm":138.5,"freq":230,"lat":-1.18204200,"lon":136.09485300,"rng_nm":50,"alt_fmsl":46,"id":"ZM","desc":"BIAK NDB"},
{"type":"NDB","hdg_t":181.1,"dist_nm":145.9,"freq":310,"lat":-3.66166700,"lon":133.74166700,"rng_nm":50,"alt_fmsl":0,"id":"ZV","desc":"KAIMANA NDB"},
{"type":"VOR","hdg_t":277.2,"dist_nm":151.4,"freq":117.1,"lat":-0.89622200,"lon":131.28978300,"rng_nm":130,"alt_fmsl":10,"id":"MIL","desc":"DOMINIQUE EDWARD OSOK VOR-DME"},
{"type":"NDB","hdg_t":276.2,"dist_nm":160.9,"freq":389,"lat":-0.92111100,"lon":131.12817500,"rng_nm":50,"alt_fmsl":10,"id":"ZO","desc":"SORONG NDB"},
{"type":"VOR","hdg_t":276.2,"dist_nm":161.4,"freq":114.4,"lat":-0.92312500,"lon":131.12026700,"rng_nm":130,"alt_fmsl":10,"id":"SOG","desc":"SORONG VOR-DME"},
{"type":"NDB","hdg_t":141.3,"dist_nm":163.9,"freq":242,"lat":-3.36166700,"lon":135.49500000,"rng_nm":50,"alt_fmsl":20,"id":"ZR","desc":"NABIRE NDB"},
{"type":"VOR","hdg_t":141.5,"dist_nm":165.1,"freq":117.3,"lat":-3.38195800,"lon":135.50112200,"rng_nm":130,"alt_fmsl":20,"id":"NBR","desc":"NABIRE VOR-DME"}
]
}
