{"success":true,"source":"xp2csv.pl","last_updated":"2013/11/08 14:53:21 UTC"
,"icao":"WZ25","name":"Kaiy (rbmu)","lat":-2.987735,"lon":138.108576,"rwys":1,"ils":0,"index":5215680,"path":"e130s10/e138s03"
,"runways":[
{"len_m":550,"wid_m":27.13,"hdg":99,"surf":"Turf/grass","rwy1":"10","lat1":-2.98730537,"lon1":138.10613610,"rwy2":"28","lat2":-2.98816463,"lon2":138.11101590}
]
,"navaids":[
{"type":"NDB","hdg_t":142.5,"dist_nm":83.6,"freq":222,"lat":-4.10047800,"lon":138.95646900,"rng_nm":50,"alt_fmsl":5085,"id":"ZW","desc":"WAMENA NDB"},
{"type":"NDB","hdg_t":218.2,"dist_nm":117.8,"freq":300,"lat":-4.53534400,"lon":136.89021900,"rng_nm":50,"alt_fmsl":103,"id":"ZF","desc":"TIMIKA NDB"},
{"type":"VOR","hdg_t":219.1,"dist_nm":117.8,"freq":112.7,"lat":-4.51700300,"lon":136.86697200,"rng_nm":130,"alt_fmsl":103,"id":"TMK","desc":"TIMIKA VOR-DME"},
{"type":"NDB","hdg_t":240.1,"dist_nm":126.7,"freq":375,"lat":-4.04358300,"lon":136.27538900,"rng_nm":50,"alt_fmsl":5906,"id":"ZG","desc":"WAGHETE NDB"},
{"type":"NDB","hdg_t":80.1,"dist_nm":146.1,"freq":395,"lat":-2.56824400,"lon":140.50746100,"rng_nm":50,"alt_fmsl":289,"id":"ZN","desc":"JAYAPURA NDB"},
{"type":"VOR","hdg_t":80.7,"dist_nm":147.3,"freq":116.2,"lat":-2.58769444,"lon":140.53083333,"rng_nm":130,"alt_fmsl":252,"id":"JPA","desc":"JAYAPURA VOR-DME"},
{"type":"VOR","hdg_t":261.3,"dist_nm":158.2,"freq":117.3,"lat":-3.38195800,"lon":135.50112200,"rng_nm":130,"alt_fmsl":20,"id":"NBR","desc":"NABIRE VOR-DME"},
{"type":"NDB","hdg_t":261.8,"dist_nm":158.4,"freq":242,"lat":-3.36166700,"lon":135.49500000,"rng_nm":50,"alt_fmsl":20,"id":"ZR","desc":"NABIRE NDB"},
{"type":"NDB","hdg_t":311.6,"dist_nm":162,"freq":230,"lat":-1.18204200,"lon":136.09485300,"rng_nm":50,"alt_fmsl":46,"id":"ZM","desc":"BIAK NDB"},
{"type":"VOR","hdg_t":311.5,"dist_nm":162.4,"freq":112.5,"lat":-1.18247222,"lon":136.08613889,"rng_nm":130,"alt_fmsl":46,"id":"BIK","desc":"BIAK VOR-DME"}
]
}
