{"success":true,"source":"xp2csv.pl","last_updated":"2013/11/08 14:53:21 UTC"
,"icao":"WZ33","name":"Kawagit (zgk)","lat":-5.627273,"lon":140.239003,"rwys":1,"ils":0,"index":5248273,"path":"e140s10/e140s06"
,"runways":[
{"len_m":396,"wid_m":14.94,"hdg":70,"surf":"Turf/grass","rwy1":"07","lat1":-5.62788449,"lon1":140.23732009,"rwy2":"25","lat2":-5.62666151,"lon2":140.24068591}
]
,"navaids":[
{"type":"NDB","hdg_t":176.7,"dist_nm":28.9,"freq":295,"lat":-6.11166700,"lon":140.26666700,"rng_nm":50,"alt_fmsl":75,"id":"ZH","desc":"TANAH MERAH NDB"},
{"type":"NDB","hdg_t":23.5,"dist_nm":50.9,"freq":342,"lat":-4.84500000,"lon":140.57833300,"rng_nm":60,"alt_fmsl":4330,"id":"ZX","desc":"OKSIBIL NDB"},
{"type":"NDB","hdg_t":78.6,"dist_nm":65.8,"freq":1632,"lat":-5.40990000,"lon":141.31870000,"rng_nm":35,"alt_fmsl":2574,"id":"OKT","desc":"OK TEDI NDB-DME"},
{"type":"SDME","hdg_t":78.6,"dist_nm":65.8,"freq":114.8,"lat":-5.40990000,"lon":141.31870000,"rng_nm":35,"alt_fmsl":2574,"id":"OKT","desc":"OK TEDI NDB-DME"},
{"type":"NDB","hdg_t":115.2,"dist_nm":69.2,"freq":1692,"lat":-6.12160000,"lon":141.28708300,"rng_nm":50,"alt_fmsl":225,"id":"KIU","desc":"KIUNGA NDB-DME"},
{"type":"SDME","hdg_t":115.2,"dist_nm":69.2,"freq":113.8,"lat":-6.12160000,"lon":141.28708300,"rng_nm":50,"alt_fmsl":225,"id":"KIU","desc":"KIUNGA NDB-DME"},
{"type":"NDB","hdg_t":319.8,"dist_nm":119.2,"freq":222,"lat":-4.10047800,"lon":138.95646900,"rng_nm":50,"alt_fmsl":5085,"id":"ZW","desc":"WAMENA NDB"},
{"type":"NDB","hdg_t":176.6,"dist_nm":172.4,"freq":253,"lat":-8.51069200,"lon":140.41003600,"rng_nm":50,"alt_fmsl":10,"id":"ZP","desc":"MERAUKE NDB"},
{"type":"VOR","hdg_t":176.4,"dist_nm":173.2,"freq":115.8,"lat":-8.52260800,"lon":140.41711100,"rng_nm":130,"alt_fmsl":10,"id":"MKE","desc":"MERAUKE VOR-DME"},
{"type":"VOR","hdg_t":5.5,"dist_nm":182.3,"freq":116.2,"lat":-2.58769444,"lon":140.53083333,"rng_nm":130,"alt_fmsl":252,"id":"JPA","desc":"JAYAPURA VOR-DME"}
]
}
