{"success":true,"source":"xp2csv.pl","last_updated":"2013/11/08 14:53:21 UTC"
,"icao":"WZ47","name":"Kordesi (sil)","lat":-3.077412,"lon":137.361908,"rwys":1,"ils":0,"index":5199290,"path":"e130s10/e137s04"
,"runways":[
{"len_m":395,"wid_m":25.91,"hdg":220,"surf":"Dirt","rwy1":"22","lat1":-3.07604619,"lon1":137.36305571,"rwy2":"04","lat2":-3.07877781,"lon2":137.36076029}
]
,"navaids":[
{"type":"NDB","hdg_t":228.4,"dist_nm":87,"freq":375,"lat":-4.04358300,"lon":136.27538900,"rng_nm":50,"alt_fmsl":5906,"id":"ZG","desc":"WAGHETE NDB"},
{"type":"VOR","hdg_t":199,"dist_nm":90.9,"freq":112.7,"lat":-4.51700300,"lon":136.86697200,"rng_nm":130,"alt_fmsl":103,"id":"TMK","desc":"TIMIKA VOR-DME"},
{"type":"NDB","hdg_t":197.9,"dist_nm":91.5,"freq":300,"lat":-4.53534400,"lon":136.89021900,"rng_nm":50,"alt_fmsl":103,"id":"ZF","desc":"TIMIKA NDB"},
{"type":"VOR","hdg_t":260.6,"dist_nm":113.1,"freq":117.3,"lat":-3.38195800,"lon":135.50112200,"rng_nm":130,"alt_fmsl":20,"id":"NBR","desc":"NABIRE VOR-DME"},
{"type":"NDB","hdg_t":261.3,"dist_nm":113.3,"freq":242,"lat":-3.36166700,"lon":135.49500000,"rng_nm":50,"alt_fmsl":20,"id":"ZR","desc":"NABIRE NDB"},
{"type":"NDB","hdg_t":122.6,"dist_nm":113.4,"freq":222,"lat":-4.10047800,"lon":138.95646900,"rng_nm":50,"alt_fmsl":5085,"id":"ZW","desc":"WAMENA NDB"},
{"type":"NDB","hdg_t":326,"dist_nm":136.3,"freq":230,"lat":-1.18204200,"lon":136.09485300,"rng_nm":50,"alt_fmsl":46,"id":"ZM","desc":"BIAK NDB"},
{"type":"VOR","hdg_t":325.8,"dist_nm":136.6,"freq":112.5,"lat":-1.18247222,"lon":136.08613889,"rng_nm":130,"alt_fmsl":46,"id":"BIK","desc":"BIAK VOR-DME"},
{"type":"NDB","hdg_t":80.9,"dist_nm":191.2,"freq":395,"lat":-2.56824400,"lon":140.50746100,"rng_nm":50,"alt_fmsl":289,"id":"ZN","desc":"JAYAPURA NDB"},
{"type":"VOR","hdg_t":81.3,"dist_nm":192.4,"freq":116.2,"lat":-2.58769444,"lon":140.53083333,"rng_nm":130,"alt_fmsl":252,"id":"JPA","desc":"JAYAPURA VOR-DME"}
]
}
