{"success":true,"source":"xp2csv.pl","last_updated":"2013/11/08 14:53:21 UTC"
,"icao":"X4IN","name":"Ince Blundell","lat":53.53590566,"lon":-3.03149458666667,"rwys":3,"ils":0,"index":2892771,"path":"w010n50/w004n53"
,"runways":[
{"len_m":386,"wid_m":17.98,"hdg":69,"surf":"Turf/grass","rwy1":"07","lat1":53.53502931,"lon1":-3.03299563,"rwy2":"25","lat2":53.53623451,"lon2":-3.02752094},
{"len_m":286,"wid_m":17.98,"hdg":120,"surf":"Turf/grass","rwy1":"12","lat1":53.53709922,"lon1":-3.03308280,"rwy2":"30","lat2":53.53581191,"lon2":-3.02934881},
{"len_m":368,"wid_m":17.98,"hdg":179,"surf":"Turf/grass","rwy1":"18","lat1":53.53728551,"lon1":-3.03303507,"rwy2":"36","lat2":53.53397350,"lon2":-3.03298427}
]
,"navaids":[
{"type":"VOR","hdg_t":203.1,"dist_nm":9.4,"freq":114.1,"lat":53.39194400,"lon":-3.13444400,"rng_nm":130,"alt_fmsl":55,"id":"WAL","desc":"WALLASEY VOR-DME"},
{"type":"SDME","hdg_t":21.8,"dist_nm":13.2,"freq":113.2,"lat":53.74034700,"lon":-2.89283900,"rng_nm":25,"alt_fmsl":54,"id":"WTN","desc":"WARTON TACAN"},
{"type":"NDB","hdg_t":0.5,"dist_nm":14.2,"freq":318,"lat":53.77277800,"lon":-3.02777800,"rng_nm":15,"alt_fmsl":34,"id":"BPL","desc":"BLACKPOOL NDB"},
{"type":"NDB","hdg_t":26.1,"dist_nm":14.4,"freq":337,"lat":53.75170600,"lon":-2.85224200,"rng_nm":15,"alt_fmsl":0,"id":"WTN","desc":"WARTON NDB"},
{"type":"NDB","hdg_t":136.8,"dist_nm":16.1,"freq":349,"lat":53.33916700,"lon":-2.72388900,"rng_nm":50,"alt_fmsl":0,"id":"LPL","desc":"Liverpool NDB"},
{"type":"NDB","hdg_t":175,"dist_nm":21.5,"freq":340,"lat":53.17909600,"lon":-2.97954900,"rng_nm":25,"alt_fmsl":32,"id":"HAW","desc":"Hawarden NDB"},
{"type":"NDB","hdg_t":144.9,"dist_nm":25.6,"freq":368,"lat":53.18500000,"lon":-2.62305600,"rng_nm":25,"alt_fmsl":0,"id":"WHI","desc":"WHITEGATE NDB"},
{"type":"NDB","hdg_t":111.6,"dist_nm":29.3,"freq":428,"lat":53.35329700,"lon":-2.27302500,"rng_nm":75,"alt_fmsl":0,"id":"MCH","desc":"MANCHESTER NDB"},
{"type":"VOR","hdg_t":110.9,"dist_nm":29.6,"freq":113.55,"lat":53.35694400,"lon":-2.26222200,"rng_nm":130,"alt_fmsl":282,"id":"MCT","desc":"MANCHESTER VOR-DME"},
{"type":"NDB","hdg_t":110.4,"dist_nm":33.5,"freq":380,"lat":53.33765800,"lon":-2.15835800,"rng_nm":15,"alt_fmsl":0,"id":"WFD","desc":"MANCHESTER WOODFORD NDB"},
{"type":"VOR","hdg_t":68.9,"dist_nm":35.4,"freq":112.1,"lat":53.74388900,"lon":-2.10333300,"rng_nm":150,"alt_fmsl":1400,"id":"POL","desc":"POLE HILL VOR-DME"},
{"type":"NDB","hdg_t":167.4,"dist_nm":43.2,"freq":382,"lat":52.83363900,"lon":-2.77361100,"rng_nm":10,"alt_fmsl":0,"id":"SLP","desc":"SLEAP NDB"},
{"type":"VOR","hdg_t":163.1,"dist_nm":46.2,"freq":116.8,"lat":52.79800300,"lon":-2.66254200,"rng_nm":40,"alt_fmsl":269,"id":"SWB","desc":"SHAWBURY VOR-DME"},
{"type":"NDB","hdg_t":67.5,"dist_nm":52.9,"freq":402,"lat":53.86499200,"lon":-1.65288900,"rng_nm":25,"alt_fmsl":0,"id":"LBA","desc":"LEEDS BRADFORD NDB"},
{"type":"NDB","hdg_t":241.4,"dist_nm":53.8,"freq":320,"lat":53.10008900,"lon":-4.33951900,"rng_nm":15,"alt_fmsl":1,"id":"CAE","desc":"CAERNARFON NDB"},
{"type":"NDB","hdg_t":184.6,"dist_nm":54.6,"freq":323,"lat":52.63000000,"lon":-3.15388900,"rng_nm":25,"alt_fmsl":282,"id":"WPL","desc":"WELSHPOOL NDB-DME"},
{"type":"SDME","hdg_t":184.6,"dist_nm":54.6,"freq":115.95,"lat":52.62972200,"lon":-3.15388900,"rng_nm":25,"alt_fmsl":282,"id":"WPL","desc":"WELSHPOOL NDB-DME"},
{"type":"SDME","hdg_t":253.4,"dist_nm":56.8,"freq":108.4,"lat":53.25742200,"lon":-4.54413900,"rng_nm":130,"alt_fmsl":101,"id":"VYL","desc":"VALLEY TACAN"},
{"type":"VOR","hdg_t":120,"dist_nm":56.9,"freq":115.7,"lat":53.05388900,"lon":-1.67000000,"rng_nm":130,"alt_fmsl":968,"id":"TNT","desc":"TRENT VOR-DME"},
{"type":"NDB","hdg_t":97.6,"dist_nm":59.7,"freq":333,"lat":53.39263900,"lon":-1.38313600,"rng_nm":15,"alt_fmsl":0,"id":"SMF","desc":"SHEFFIELD CITY NDB"},
{"type":"SDME","hdg_t":97.6,"dist_nm":59.7,"freq":111.35,"lat":53.39298100,"lon":-1.38314200,"rng_nm":25,"alt_fmsl":273,"id":"SFH","desc":"SHEFFIELD CITY DME"},
{"type":"NDB","hdg_t":133,"dist_nm":62.9,"freq":327,"lat":52.81446400,"lon":-1.76667200,"rng_nm":10,"alt_fmsl":0,"id":"TNL","desc":"TATENHILL NDB"},
{"type":"NDB","hdg_t":305.6,"dist_nm":63.3,"freq":366,"lat":54.14111100,"lon":-4.49166700,"rng_nm":25,"alt_fmsl":0,"id":"CAR","desc":"CARNANE NDB"},
{"type":"NDB","hdg_t":300.7,"dist_nm":65.4,"freq":359,"lat":54.08108300,"lon":-4.62288900,"rng_nm":20,"alt_fmsl":55,"id":"RWY","desc":"ISLE OF MAN NDB"},
{"type":"NDB","hdg_t":134.4,"dist_nm":67,"freq":545,"lat":52.74666700,"lon":-1.71944400,"rng_nm":50,"alt_fmsl":0,"id":"LIC","desc":"LICHFIELD NDB"},
{"type":"NDB","hdg_t":155.2,"dist_nm":67.3,"freq":356,"lat":52.51590300,"lon":-2.26176100,"rng_nm":25,"alt_fmsl":0,"id":"WBA","desc":"WOLVERHAMPTON NDB"},
{"type":"SDME","hdg_t":155.2,"dist_nm":67.3,"freq":108.6,"lat":52.51579400,"lon":-2.26181700,"rng_nm":15,"alt_fmsl":300,"id":"WOL","desc":"WOLVERHAMPTON DME"},
{"type":"VOR","hdg_t":298,"dist_nm":69.3,"freq":112.2,"lat":54.06686700,"lon":-4.76347500,"rng_nm":130,"alt_fmsl":573,"id":"IOM","desc":"ISLE OF MAN VOR-DME"},
{"type":"SDME","hdg_t":48.6,"dist_nm":70,"freq":112.6,"lat":54.29710800,"lon":-1.53687200,"rng_nm":25,"alt_fmsl":92,"id":"LEE","desc":"LEEMING TACAN"},
{"type":"SDME","hdg_t":63.2,"dist_nm":70.5,"freq":109,"lat":54.05049200,"lon":-1.24904400,"rng_nm":130,"alt_fmsl":53,"id":"LOO","desc":"LINTON ON OUSE TACAN"},
{"type":"NDB","hdg_t":126.1,"dist_nm":71,"freq":393,"lat":52.82866600,"lon":-1.45450000,"rng_nm":50,"alt_fmsl":280,"id":"EMW","desc":"East Midlands NDB"},
{"type":"VOR","hdg_t":351.4,"dist_nm":72.1,"freq":115.2,"lat":54.72194400,"lon":-3.34055600,"rng_nm":130,"alt_fmsl":700,"id":"DCS","desc":"DEAN CROSS VOR-DME"},
{"type":"NDB","hdg_t":92,"dist_nm":72.8,"freq":338,"lat":53.47482200,"lon":-1.00172500,"rng_nm":25,"alt_fmsl":0,"id":"FNY","desc":"DONCASTER NDB"},
{"type":"VOR","hdg_t":100.7,"dist_nm":76.3,"freq":112.8,"lat":53.28138900,"lon":-0.94722200,"rng_nm":130,"alt_fmsl":121,"id":"GAM","desc":"GAMSTON VOR-DME"},
{"type":"NDB","hdg_t":175.8,"dist_nm":77.8,"freq":426,"lat":52.24339400,"lon":-2.87983900,"rng_nm":20,"alt_fmsl":0,"id":"SH","desc":"SHOBDON NDB"},
{"type":"NDB","hdg_t":121.7,"dist_nm":78.6,"freq":353,"lat":52.83283300,"lon":-1.19450000,"rng_nm":50,"alt_fmsl":280,"id":"EME","desc":"East Midlands NDB"},
{"type":"NDB","hdg_t":116.8,"dist_nm":79.4,"freq":430,"lat":52.92169400,"lon":-1.07933300,"rng_nm":10,"alt_fmsl":0,"id":"NOT","desc":"NOTTINGHAM NDB"},
{"type":"NDB","hdg_t":143.9,"dist_nm":79.8,"freq":406,"lat":52.45454700,"lon":-1.75238600,"rng_nm":20,"alt_fmsl":325,"id":"BHX","desc":"BIRMINGHAM NDB"},
{"type":"NDB","hdg_t":43.6,"dist_nm":86,"freq":347,"lat":54.56033900,"lon":-1.33344400,"rng_nm":25,"alt_fmsl":0,"id":"TD","desc":"TEESSIDE NDB"},
{"type":"VOR","hdg_t":144.4,"dist_nm":86.5,"freq":113.65,"lat":52.35666700,"lon":-1.66361100,"rng_nm":130,"alt_fmsl":435,"id":"HON","desc":"HONILEY VOR-DME"},
{"type":"NDB","hdg_t":81.6,"dist_nm":88.2,"freq":372,"lat":53.72538100,"lon":-0.58148300,"rng_nm":15,"alt_fmsl":12,"id":"BV","desc":"BROUGH NDB"},
{"type":"NDB","hdg_t":138.2,"dist_nm":89.6,"freq":363,"lat":52.41100000,"lon":-1.40583300,"rng_nm":50,"alt_fmsl":360,"id":"CT","desc":"Coventry NDB"},
{"type":"NDB","hdg_t":126.9,"dist_nm":91.3,"freq":383,"lat":52.60638900,"lon":-1.03500000,"rng_nm":10,"alt_fmsl":0,"id":"LE","desc":"LEICESTER NDB"},
{"type":"SDME","hdg_t":102.8,"dist_nm":92.7,"freq":117.1,"lat":53.16533300,"lon":-0.52683300,"rng_nm":130,"alt_fmsl":231,"id":"WAD","desc":"WADDINGTON TACAN"},
{"type":"NDB","hdg_t":87.4,"dist_nm":95.9,"freq":365,"lat":53.57666700,"lon":-0.35166700,"rng_nm":15,"alt_fmsl":0,"id":"KIM","desc":"HUMBERSIDE NDB"},
{"type":"NDB","hdg_t":107.4,"dist_nm":96.5,"freq":423,"lat":53.02627800,"lon":-0.48898300,"rng_nm":25,"alt_fmsl":0,"id":"CWL","desc":"CRANWELL NDB"},
{"type":"SDME","hdg_t":107.3,"dist_nm":96.6,"freq":117.4,"lat":53.02861700,"lon":-0.48550000,"rng_nm":65,"alt_fmsl":218,"id":"CWZ","desc":"CRANWELL TACAN"},
{"type":"SDME","hdg_t":118.2,"dist_nm":98.5,"freq":112.3,"lat":52.73537800,"lon":-0.65076900,"rng_nm":25,"alt_fmsl":452,"id":"CTM","desc":"COTTESMORE TACAN"}
]
}
