{"success":true,"source":"xp2csv.pl","last_updated":"2013/11/08 14:53:21 UTC"
,"icao":"X55","name":"Mid Florida Air Service","lat":28.84610138,"lon":-81.63035167,"rwys":1,"ils":0,"index":1613233,"path":"w090n20/w082n28"
,"runways":[
{"len_m":912,"wid_m":24.38,"hdg":176,"surf":"Turf/grass","rwy1":"18","lat1":28.85021021,"lon1":-81.63059751,"rwy2":"36","lat2":28.84199255,"lon2":-81.63010583}
]
,"navaids":[
{"type":"NDB","hdg_t":259.9,"dist_nm":9.4,"freq":335,"lat":28.81825000,"lon":-81.80725000,"rng_nm":50,"alt_fmsl":0,"id":"LEE","desc":"LEESBURG NDB"},
{"type":"NDB","hdg_t":100,"dist_nm":20.7,"freq":408,"lat":28.78494444,"lon":-81.24333333,"rng_nm":50,"alt_fmsl":0,"id":"SFB","desc":"SANFORD NDB"},
{"type":"NDB","hdg_t":152.9,"dist_nm":22.7,"freq":221,"lat":28.50683333,"lon":-81.43391667,"rng_nm":50,"alt_fmsl":0,"id":"OR","desc":"HERNY (LOM) NDB"},
{"type":"VOR","hdg_t":139.2,"dist_nm":23.9,"freq":112.2,"lat":28.54272222,"lon":-81.33502778,"rng_nm":130,"alt_fmsl":102,"id":"ORL","desc":"ORLANDO VORTAC"},
{"type":"VOR","hdg_t":302.4,"dist_nm":37,"freq":113.7,"lat":29.17747222,"lon":-82.22633333,"rng_nm":40,"alt_fmsl":80,"id":"OCF","desc":"OCALA REGIONAL/JI VORTAC"},
{"type":"NDB","hdg_t":70.8,"dist_nm":38.3,"freq":417,"lat":29.05422222,"lon":-80.94144444,"rng_nm":50,"alt_fmsl":0,"id":"EVB","desc":"NEW SMYRNA BEACH NDB"},
{"type":"VOR","hdg_t":44.7,"dist_nm":38.5,"freq":112.6,"lat":29.30325000,"lon":-81.11269444,"rng_nm":130,"alt_fmsl":19,"id":"OMN","desc":"ORMOND BEACH VORTAC"},
{"type":"NDB","hdg_t":217,"dist_nm":46.3,"freq":253,"lat":28.22708333,"lon":-82.15705556,"rng_nm":50,"alt_fmsl":0,"id":"RHZ","desc":"ZEPHYRHILLS NDB"},
{"type":"NDB","hdg_t":348.8,"dist_nm":49.2,"freq":243,"lat":29.65350000,"lon":-81.81250000,"rng_nm":50,"alt_fmsl":0,"id":"IAK","desc":"PALATKA NDB"},
{"type":"SDME","hdg_t":104.7,"dist_nm":51,"freq":112.25,"lat":28.62616700,"lon":-80.69583300,"rng_nm":130,"alt_fmsl":57,"id":"TTS","desc":"KENNEDY SPACE CENTER TACAN"},
{"type":"VOR","hdg_t":201.6,"dist_nm":55.3,"freq":116,"lat":27.98619444,"lon":-82.01388889,"rng_nm":130,"alt_fmsl":135,"id":"LAL","desc":"LAKELAND VORTAC"},
{"type":"NDB","hdg_t":330.1,"dist_nm":56.9,"freq":269,"lat":29.67002778,"lon":-82.17213889,"rng_nm":50,"alt_fmsl":0,"id":"GN","desc":"WYNDS NDB"},
{"type":"NDB","hdg_t":121,"dist_nm":58.2,"freq":247,"lat":28.34077778,"lon":-80.68844444,"rng_nm":50,"alt_fmsl":0,"id":"COI","desc":"MERRITT ISLAND NDB"},
{"type":"NDB","hdg_t":203.4,"dist_nm":59.3,"freq":227,"lat":27.93538889,"lon":-82.07580556,"rng_nm":50,"alt_fmsl":0,"id":"LA","desc":"WIREY NDB"},
{"type":"VOR","hdg_t":326.4,"dist_nm":60.8,"freq":116.2,"lat":29.69211111,"lon":-82.27297222,"rng_nm":40,"alt_fmsl":128,"id":"GNV","desc":"GATORS VORTAC"},
{"type":"SDME","hdg_t":123.8,"dist_nm":64.9,"freq":115,"lat":28.23768300,"lon":-80.61176100,"rng_nm":25,"alt_fmsl":10,"id":"COF","desc":"PATRICK TACAN"},
{"type":"NDB","hdg_t":226.3,"dist_nm":65.6,"freq":368,"lat":28.08527778,"lon":-82.52525000,"rng_nm":50,"alt_fmsl":0,"id":"TP","desc":"COSME NDB"},
{"type":"NDB","hdg_t":132,"dist_nm":66.4,"freq":257,"lat":28.09947222,"lon":-80.70080556,"rng_nm":50,"alt_fmsl":0,"id":"SQT","desc":"SATELLITE NDB"},
{"type":"VOR","hdg_t":13.2,"dist_nm":68.3,"freq":109.4,"lat":29.95672222,"lon":-81.33022222,"rng_nm":25,"alt_fmsl":6,"id":"SGJ","desc":"ST AUGUSTINE VOR-DME"},
{"type":"VOR","hdg_t":129.8,"dist_nm":68.7,"freq":110,"lat":28.10527778,"lon":-80.63533333,"rng_nm":40,"alt_fmsl":30,"id":"MLB","desc":"MELBOURNE VOR-DME"},
{"type":"SDME","hdg_t":218.6,"dist_nm":75.2,"freq":111,"lat":27.86115300,"lon":-82.51350300,"rng_nm":40,"alt_fmsl":14,"id":"MCF","desc":"MACDILL TACAN"},
{"type":"NDB","hdg_t":228.3,"dist_nm":76.2,"freq":360,"lat":27.99511111,"lon":-82.70386111,"rng_nm":50,"alt_fmsl":0,"id":"PI","desc":"CAPOK NDB"},
{"type":"NDB","hdg_t":219.6,"dist_nm":76.3,"freq":388,"lat":27.86119444,"lon":-82.54580556,"rng_nm":50,"alt_fmsl":0,"id":"AM","desc":"PICNY (LOM/NDB) NDB"},
{"type":"VOR","hdg_t":225,"dist_nm":79.1,"freq":116.4,"lat":27.90777778,"lon":-82.68430556,"rng_nm":130,"alt_fmsl":9,"id":"PIE","desc":"ST PETERSBURG VORTAC"},
{"type":"NDB","hdg_t":189.5,"dist_nm":81,"freq":261,"lat":27.51000000,"lon":-81.88333300,"rng_nm":25,"alt_fmsl":104,"id":"CHN","desc":"WAUCHULA NDB"},
{"type":"VOR","hdg_t":350.6,"dist_nm":82.9,"freq":117.9,"lat":30.21300000,"lon":-81.89088889,"rng_nm":130,"alt_fmsl":0,"id":"VQQ","desc":"CECIL VOR"},
{"type":"SDME","hdg_t":358.3,"dist_nm":83.1,"freq":108.2,"lat":30.23486700,"lon":-81.67506700,"rng_nm":40,"alt_fmsl":20,"id":"NIP","desc":"JACKSONVILLE TACAN"},
{"type":"VOR","hdg_t":301.5,"dist_nm":87,"freq":112,"lat":29.59902778,"lon":-83.04872222,"rng_nm":40,"alt_fmsl":30,"id":"CTY","desc":"CROSS CITY VORTAC"},
{"type":"VOR","hdg_t":4,"dist_nm":89.5,"freq":114.5,"lat":30.33888889,"lon":-81.50991667,"rng_nm":130,"alt_fmsl":42,"id":"CRG","desc":"CRAIG VORTAC"},
{"type":"VOR","hdg_t":138.8,"dist_nm":92.3,"freq":117.3,"lat":27.67841667,"lon":-80.48972222,"rng_nm":130,"alt_fmsl":11,"id":"VRB","desc":"VERO BEACH VORTAC"},
{"type":"SDME","hdg_t":6.6,"dist_nm":92.9,"freq":111.4,"lat":30.38861100,"lon":-81.42308100,"rng_nm":40,"alt_fmsl":9,"id":"NRB","desc":"MAYPORT TACAN"},
{"type":"NDB","hdg_t":328.4,"dist_nm":94.2,"freq":204,"lat":30.18533333,"lon":-82.57858333,"rng_nm":50,"alt_fmsl":0,"id":"LCQ","desc":"LAKE CITY NDB"},
{"type":"NDB","hdg_t":0.6,"dist_nm":94.4,"freq":357,"lat":30.42361111,"lon":-81.60938889,"rng_nm":50,"alt_fmsl":0,"id":"EYA","desc":"EASTPORT NDB"},
{"type":"NDB","hdg_t":354.7,"dist_nm":97.3,"freq":344,"lat":30.46502778,"lon":-81.80163889,"rng_nm":50,"alt_fmsl":0,"id":"JA","desc":"DINNS (LOM/NDB) NDB"},
{"type":"VOR","hdg_t":210.1,"dist_nm":99.3,"freq":117,"lat":27.40702778,"lon":-82.56363889,"rng_nm":130,"alt_fmsl":20,"id":"SRQ","desc":"SARASOTA VORTAC"},
{"type":"VOR","hdg_t":209.7,"dist_nm":99.5,"freq":115.2,"lat":27.39776100,"lon":-82.55426900,"rng_nm":130,"alt_fmsl":20,"id":"SRQ","desc":"SARASOTA VORTAC"}
]
}
