{"success":true,"source":"xp2csv.pl","last_updated":"2013/11/08 14:53:21 UTC"
,"icao":"XA93","name":"Tortuga Ranch","lat":28.619322,"lon":-99.654364,"rwys":1,"ils":0,"index":1318305,"path":"w100n20/w100n28"
,"runways":[
{"len_m":1432,"wid_m":18.29,"hdg":176,"surf":"Asphalt","rwy1":"17","lat1":28.62577000,"lon1":-99.65485900,"rwy2":"35","lat2":28.61287400,"lon2":-99.65386900}
]
,"navaids":[
{"type":"NDB","hdg_t":237.6,"dist_nm":10.8,"freq":343,"lat":28.52244444,"lon":-99.82727778,"rng_nm":50,"alt_fmsl":0,"id":"DMD","desc":"DIMMIT CO NDB"},
{"type":"NDB","hdg_t":330.4,"dist_nm":21.3,"freq":223,"lat":28.92997222,"lon":-99.85477778,"rng_nm":50,"alt_fmsl":0,"id":"LKX","desc":"LA PRYOR NDB"},
{"type":"NDB","hdg_t":313.2,"dist_nm":25.4,"freq":385,"lat":28.90997222,"lon":-100.00561111,"rng_nm":50,"alt_fmsl":0,"id":"CPZ","desc":"CHAPARROSA RANCH NDB"},
{"type":"VOR","hdg_t":108.2,"dist_nm":29.8,"freq":115.8,"lat":28.46200000,"lon":-99.11852778,"rng_nm":40,"alt_fmsl":520,"id":"COT","desc":"COTULLA VORTAC"},
{"type":"NDB","hdg_t":353.6,"dist_nm":33.6,"freq":281,"lat":29.17772222,"lon":-99.72569444,"rng_nm":50,"alt_fmsl":0,"id":"UVA","desc":"UVALDE NDB"},
{"type":"VOR","hdg_t":271.1,"dist_nm":46.6,"freq":113.6,"lat":28.63183333,"lon":-100.53838889,"rng_nm":130,"alt_fmsl":901,"id":"PNG","desc":"PIEDRAS VOR-DME"},
{"type":"NDB","hdg_t":50.3,"dist_nm":48.8,"freq":359,"lat":29.13833333,"lon":-98.93925000,"rng_nm":50,"alt_fmsl":0,"id":"HHH","desc":"DEVINE NDB"},
{"type":"VOR","hdg_t":29.7,"dist_nm":50.3,"freq":109.4,"lat":29.34911111,"lon":-99.17788889,"rng_nm":40,"alt_fmsl":947,"id":"HDO","desc":"HONDO VOR-DME"},
{"type":"NDB","hdg_t":307.8,"dist_nm":51.4,"freq":356,"lat":29.14525000,"lon":-100.42758333,"rng_nm":50,"alt_fmsl":0,"id":"PFO","desc":"SPOFFORD NDB"},
{"type":"NDB","hdg_t":29.2,"dist_nm":51.7,"freq":329,"lat":29.37341667,"lon":-99.17202778,"rng_nm":50,"alt_fmsl":0,"id":"HMA","desc":"HONDO NDB"},
{"type":"NDB","hdg_t":169.8,"dist_nm":59.3,"freq":405,"lat":27.64236111,"lon":-99.45813889,"rng_nm":50,"alt_fmsl":0,"id":"AGH","desc":"ARDYTH NDB"},
{"type":"NDB","hdg_t":44,"dist_nm":60.7,"freq":338,"lat":29.34606900,"lon":-98.84919400,"rng_nm":25,"alt_fmsl":762,"id":"CVB","desc":"CASTROVILLE NDB"},
{"type":"NDB","hdg_t":304.8,"dist_nm":62,"freq":269,"lat":29.20858333,"lon":-100.62397222,"rng_nm":50,"alt_fmsl":0,"id":"BRX","desc":"LA FONDA RANCH NDB"},
{"type":"NDB","hdg_t":71.1,"dist_nm":63.1,"freq":275,"lat":28.95497200,"lon":-98.51862800,"rng_nm":25,"alt_fmsl":428,"id":"PEZ","desc":"PLEASANTON NDB"},
{"type":"VOR","hdg_t":169.5,"dist_nm":69.3,"freq":117.4,"lat":27.47872222,"lon":-99.41766667,"rng_nm":130,"alt_fmsl":580,"id":"LRD","desc":"LAREDO VORTAC"},
{"type":"VOR","hdg_t":176.1,"dist_nm":70.7,"freq":112.6,"lat":27.43938889,"lon":-99.56458333,"rng_nm":130,"alt_fmsl":484,"id":"NLD","desc":"NEWLA VOR-DME"},
{"type":"SDME","hdg_t":50.4,"dist_nm":72.9,"freq":112,"lat":29.39158300,"lon":-98.58104700,"rng_nm":40,"alt_fmsl":687,"id":"KSY","desc":"KELLY TACAN"},
{"type":"VOR","hdg_t":307.3,"dist_nm":73.6,"freq":114.4,"lat":29.36088889,"lon":-100.77172222,"rng_nm":130,"alt_fmsl":1071,"id":"DLF","desc":"LAUGHLIN VORTAC"},
{"type":"VOR","hdg_t":58.7,"dist_nm":74.3,"freq":108.4,"lat":29.25838889,"lon":-98.44347222,"rng_nm":40,"alt_fmsl":0,"id":"SSF","desc":"STINSON VOR"},
{"type":"NDB","hdg_t":49.1,"dist_nm":78.6,"freq":219,"lat":29.47461400,"lon":-98.51861700,"rng_nm":25,"alt_fmsl":0,"id":"SA","desc":"BLUIE NDB"},
{"type":"VOR","hdg_t":94.5,"dist_nm":79.7,"freq":111.4,"lat":28.50500000,"lon":-98.15047222,"rng_nm":40,"alt_fmsl":270,"id":"THX","desc":"THREE RIVERS VORTAC"},
{"type":"VOR","hdg_t":16.3,"dist_nm":81.3,"freq":117.5,"lat":29.92233333,"lon":-99.21450000,"rng_nm":130,"alt_fmsl":2080,"id":"CSI","desc":"CENTER POINT VORTAC"},
{"type":"NDB","hdg_t":43.6,"dist_nm":82.1,"freq":368,"lat":29.60758333,"lon":-98.56969444,"rng_nm":50,"alt_fmsl":0,"id":"AN","desc":"ALAMO NDB"},
{"type":"NDB","hdg_t":23.4,"dist_nm":84.6,"freq":263,"lat":29.91500000,"lon":-99.00941667,"rng_nm":50,"alt_fmsl":0,"id":"ER","desc":"SHEIN NDB"},
{"type":"VOR","hdg_t":45.3,"dist_nm":87.6,"freq":116.8,"lat":29.64402778,"lon":-98.46130556,"rng_nm":130,"alt_fmsl":1160,"id":"SAT","desc":"SAN ANTONIO VORTAC"},
{"type":"NDB","hdg_t":147.2,"dist_nm":89.8,"freq":266,"lat":27.35391667,"lon":-98.74413889,"rng_nm":50,"alt_fmsl":0,"id":"HBV","desc":"HEBBRONVILLE NDB"},
{"type":"VOR","hdg_t":52.8,"dist_nm":89.9,"freq":112.3,"lat":29.51916667,"lon":-98.28516667,"rng_nm":25,"alt_fmsl":772,"id":"RND","desc":"RANDOLPH VORTAC"},
{"type":"VOR","hdg_t":338,"dist_nm":90.1,"freq":111.2,"lat":30.01461111,"lon":-100.29983333,"rng_nm":40,"alt_fmsl":2310,"id":"RSG","desc":"ROCKSPRINGS VORTAC"},
{"type":"SDME","hdg_t":52.6,"dist_nm":91.2,"freq":109.9,"lat":29.53694700,"lon":-98.26780300,"rng_nm":40,"alt_fmsl":773,"id":"DHK","desc":"RANDOLPH TACAN"},
{"type":"NDB","hdg_t":98.2,"dist_nm":99.4,"freq":284,"lat":28.36862500,"lon":-97.79542500,"rng_nm":25,"alt_fmsl":269,"id":"BEA","desc":"BEEVILLE NDB"}
]
}
