{"success":true,"source":"xp2csv.pl","last_updated":"2013/11/08 14:53:21 UTC"
,"icao":"XBRU","name":"Bruntingthorpe","lat":52.49131295,"lon":-1.13204523,"rwys":1,"ils":0,"index":2925467,"path":"w010n50/w002n52"
,"runways":[
{"len_m":2967,"wid_m":60.05,"hdg":55,"surf":"Asphalt","rwy1":"06","lat1":52.48381312,"lon1":-1.15010522,"rwy2":"24","lat2":52.49881278,"lon2":-1.11398524}
]
,"radios":[
{"type":"TWR","freq":122.82,"desc":"RDO"}
]
,"navaids":[
{"type":"NDB","hdg_t":27.1,"dist_nm":7.7,"freq":383,"lat":52.60638900,"lon":-1.03500000,"rng_nm":10,"alt_fmsl":0,"id":"LE","desc":"LEICESTER NDB"},
{"type":"NDB","hdg_t":244.4,"dist_nm":11.1,"freq":363,"lat":52.41100000,"lon":-1.40583300,"rng_nm":50,"alt_fmsl":360,"id":"CT","desc":"Coventry NDB"},
{"type":"NDB","hdg_t":133,"dist_nm":16.8,"freq":378,"lat":52.29909200,"lon":-0.79760300,"rng_nm":15,"alt_fmsl":0,"id":"NN","desc":"NORTHAMPTON NDB"},
{"type":"VOR","hdg_t":177.9,"dist_nm":18.6,"freq":116.4,"lat":52.18027800,"lon":-1.11388900,"rng_nm":130,"alt_fmsl":600,"id":"DTY","desc":"DAVENTRY VOR-DME"},
{"type":"NDB","hdg_t":353.6,"dist_nm":20.6,"freq":353,"lat":52.83283300,"lon":-1.19450000,"rng_nm":50,"alt_fmsl":280,"id":"EME","desc":"East Midlands NDB"},
{"type":"VOR","hdg_t":247.7,"dist_nm":21.1,"freq":113.65,"lat":52.35666700,"lon":-1.66361100,"rng_nm":130,"alt_fmsl":435,"id":"HON","desc":"HONILEY VOR-DME"},
{"type":"NDB","hdg_t":264.7,"dist_nm":22.8,"freq":406,"lat":52.45454700,"lon":-1.75238600,"rng_nm":20,"alt_fmsl":325,"id":"BHX","desc":"BIRMINGHAM NDB"},
{"type":"SDME","hdg_t":50,"dist_nm":22.9,"freq":112.3,"lat":52.73537800,"lon":-0.65076900,"rng_nm":25,"alt_fmsl":452,"id":"CTM","desc":"COTTESMORE TACAN"},
{"type":"NDB","hdg_t":329.9,"dist_nm":23.4,"freq":393,"lat":52.82866600,"lon":-1.45450000,"rng_nm":50,"alt_fmsl":280,"id":"EMW","desc":"East Midlands NDB"},
{"type":"SDME","hdg_t":72.9,"dist_nm":24.2,"freq":117.6,"lat":52.60783300,"lon":-0.49866700,"rng_nm":25,"alt_fmsl":295,"id":"WIT","desc":"WITTERING TACAN"},
{"type":"NDB","hdg_t":4.2,"dist_nm":25.9,"freq":430,"lat":52.92169400,"lon":-1.07933300,"rng_nm":10,"alt_fmsl":0,"id":"NOT","desc":"NOTTINGHAM NDB"},
{"type":"NDB","hdg_t":305.7,"dist_nm":26.3,"freq":545,"lat":52.74666700,"lon":-1.71944400,"rng_nm":50,"alt_fmsl":0,"id":"LIC","desc":"LICHFIELD NDB"},
{"type":"NDB","hdg_t":310.1,"dist_nm":30.2,"freq":327,"lat":52.81446400,"lon":-1.76667200,"rng_nm":10,"alt_fmsl":0,"id":"TNL","desc":"TATENHILL NDB"},
{"type":"NDB","hdg_t":135.4,"dist_nm":30.3,"freq":850,"lat":52.13033300,"lon":-0.55700000,"rng_nm":50,"alt_fmsl":364,"id":"CIT","desc":"Cranfield NDB"},
{"type":"VOR","hdg_t":142.3,"dist_nm":31.5,"freq":116.5,"lat":52.07421700,"lon":-0.61079200,"rng_nm":50,"alt_fmsl":357,"id":"CFD","desc":"CRANFIELD VOR"},
{"type":"NDB","hdg_t":170.6,"dist_nm":38.8,"freq":335,"lat":51.85305600,"lon":-0.96250000,"rng_nm":30,"alt_fmsl":0,"id":"WCO","desc":"WESTCOTT NDB"},
{"type":"VOR","hdg_t":330.1,"dist_nm":39,"freq":115.7,"lat":53.05388900,"lon":-1.67000000,"rng_nm":130,"alt_fmsl":968,"id":"TNT","desc":"TRENT VOR-DME"},
{"type":"NDB","hdg_t":35.8,"dist_nm":39.7,"freq":423,"lat":53.02627800,"lon":-0.48898300,"rng_nm":25,"alt_fmsl":0,"id":"CWL","desc":"CRANWELL NDB"},
{"type":"SDME","hdg_t":35.8,"dist_nm":39.9,"freq":117.4,"lat":53.02861700,"lon":-0.48550000,"rng_nm":65,"alt_fmsl":218,"id":"CWZ","desc":"CRANWELL TACAN"},
{"type":"NDB","hdg_t":190.1,"dist_nm":40.2,"freq":367,"lat":51.83248100,"lon":-1.32323900,"rng_nm":25,"alt_fmsl":0,"id":"OX","desc":"OXFORD NDB"},
{"type":"SDME","hdg_t":190.1,"dist_nm":40.2,"freq":117.7,"lat":51.83243300,"lon":-1.32281700,"rng_nm":25,"alt_fmsl":276,"id":"OX","desc":"OXFORD DME"},
{"type":"NDB","hdg_t":272.4,"dist_nm":41.4,"freq":356,"lat":52.51590300,"lon":-2.26176100,"rng_nm":25,"alt_fmsl":0,"id":"WBA","desc":"WOLVERHAMPTON NDB"},
{"type":"SDME","hdg_t":272.4,"dist_nm":41.4,"freq":108.6,"lat":52.51579400,"lon":-2.26181700,"rng_nm":15,"alt_fmsl":300,"id":"WOL","desc":"WOLVERHAMPTON DME"},
{"type":"NDB","hdg_t":69.1,"dist_nm":43,"freq":401,"lat":52.74165000,"lon":-0.02794200,"rng_nm":15,"alt_fmsl":0,"id":"FNL","desc":"FENLAND NDB"},
{"type":"NDB","hdg_t":112.3,"dist_nm":43.3,"freq":391,"lat":52.21113600,"lon":-0.04493600,"rng_nm":15,"alt_fmsl":0,"id":"BOU","desc":"BOURN NDB"},
{"type":"NDB","hdg_t":163.8,"dist_nm":45.7,"freq":433,"lat":51.75972200,"lon":-0.79027800,"rng_nm":30,"alt_fmsl":0,"id":"HEN","desc":"HENTON NDB"},
{"type":"SDME","hdg_t":28.2,"dist_nm":46.1,"freq":117.1,"lat":53.16533300,"lon":-0.52683300,"rng_nm":130,"alt_fmsl":231,"id":"WAD","desc":"WADDINGTON TACAN"},
{"type":"NDB","hdg_t":201.4,"dist_nm":47.8,"freq":386,"lat":51.74923300,"lon":-1.60161700,"rng_nm":20,"alt_fmsl":288,"id":"BZ","desc":"BRIZE NORTON NDB"},
{"type":"VOR","hdg_t":7.9,"dist_nm":47.9,"freq":112.8,"lat":53.28138900,"lon":-0.94722200,"rng_nm":130,"alt_fmsl":121,"id":"GAM","desc":"GAMSTON VOR-DME"},
{"type":"SDME","hdg_t":201.5,"dist_nm":47.9,"freq":111.9,"lat":51.74819400,"lon":-1.60352500,"rng_nm":100,"alt_fmsl":331,"id":"BZN","desc":"BRIZE NORTON TACAN"},
{"type":"NDB","hdg_t":137.4,"dist_nm":48.4,"freq":345,"lat":51.89416800,"lon":-0.25083300,"rng_nm":50,"alt_fmsl":0,"id":"LUT","desc":"Luton NDB"},
{"type":"SDME","hdg_t":43.8,"dist_nm":50.2,"freq":111.1,"lat":53.09103900,"lon":-0.16897500,"rng_nm":120,"alt_fmsl":24,"id":"CGY","desc":"CONINGSBY TACAN"},
{"type":"VOR","hdg_t":154.6,"dist_nm":50.7,"freq":113.75,"lat":51.72611100,"lon":-0.54972200,"rng_nm":130,"alt_fmsl":500,"id":"BNN","desc":"BOVINGDON VOR-DME"},
{"type":"NDB","hdg_t":108.6,"dist_nm":51.2,"freq":332,"lat":52.21085000,"lon":0.18279200,"rng_nm":15,"alt_fmsl":0,"id":"CAM","desc":"CAMBRIDGE NDB"},
{"type":"NDB","hdg_t":227.1,"dist_nm":52.5,"freq":331,"lat":51.89195300,"lon":-2.16790300,"rng_nm":25,"alt_fmsl":111,"id":"GST","desc":"GLOUCESTERSHIRE NDB"},
{"type":"SDME","hdg_t":227.1,"dist_nm":52.5,"freq":115.55,"lat":51.89219200,"lon":-2.16792800,"rng_nm":25,"alt_fmsl":109,"id":"GOS","desc":"GLOUCESTERSHIRE DME"},
{"type":"SDME","hdg_t":178.6,"dist_nm":52.6,"freq":110,"lat":51.61450000,"lon":-1.09944400,"rng_nm":40,"alt_fmsl":226,"id":"BSO","desc":"BENSON TACAN"},
{"type":"VOR","hdg_t":123.9,"dist_nm":53.3,"freq":116.25,"lat":51.98972200,"lon":0.06194400,"rng_nm":40,"alt_fmsl":486,"id":"BKY","desc":"BARKWAY VOR-DME"},
{"type":"SDME","hdg_t":207.1,"dist_nm":54.5,"freq":113.4,"lat":51.68169200,"lon":-1.79761400,"rng_nm":25,"alt_fmsl":299,"id":"FFA","desc":"FAIRFORD TACAN"},
{"type":"NDB","hdg_t":350.5,"dist_nm":54.9,"freq":333,"lat":53.39263900,"lon":-1.38313600,"rng_nm":15,"alt_fmsl":0,"id":"SMF","desc":"SHEFFIELD CITY NDB"},
{"type":"SDME","hdg_t":350.5,"dist_nm":54.9,"freq":111.35,"lat":53.39298100,"lon":-1.38314200,"rng_nm":25,"alt_fmsl":273,"id":"SFH","desc":"SHEFFIELD CITY DME"},
{"type":"NDB","hdg_t":156.2,"dist_nm":56.9,"freq":277,"lat":51.62305600,"lon":-0.51833300,"rng_nm":25,"alt_fmsl":0,"id":"CHT","desc":"CHILTERN NDB"},
{"type":"VOR","hdg_t":139.1,"dist_nm":58.5,"freq":117.5,"lat":51.74972200,"lon":-0.10666700,"rng_nm":80,"alt_fmsl":382,"id":"BPK","desc":"BROOKMANS PARK VOR-DME"},
{"type":"VOR","hdg_t":288.8,"dist_nm":58.8,"freq":116.8,"lat":52.79800300,"lon":-2.66254200,"rng_nm":40,"alt_fmsl":269,"id":"SWB","desc":"SHAWBURY VOR-DME"},
{"type":"NDB","hdg_t":4.5,"dist_nm":59.2,"freq":338,"lat":53.47482200,"lon":-1.00172500,"rng_nm":25,"alt_fmsl":0,"id":"FNY","desc":"DONCASTER NDB"},
{"type":"SDME","hdg_t":96.7,"dist_nm":60,"freq":115.9,"lat":52.36335000,"lon":0.48826900,"rng_nm":130,"alt_fmsl":63,"id":"MLD","desc":"MILDENHALL TACAN"},
{"type":"VOR","hdg_t":183.1,"dist_nm":60.1,"freq":114.35,"lat":51.49166700,"lon":-1.21972200,"rng_nm":80,"alt_fmsl":498,"id":"CPT","desc":"COMPTON VOR-DME"},
{"type":"NDB","hdg_t":163.7,"dist_nm":60.8,"freq":421,"lat":51.51888900,"lon":-0.67722200,"rng_nm":30,"alt_fmsl":0,"id":"BUR","desc":"BURNHAM NDB"},
{"type":"SDME","hdg_t":94,"dist_nm":61.8,"freq":110.2,"lat":52.40641900,"lon":0.54796400,"rng_nm":25,"alt_fmsl":91,"id":"LKH","desc":"LAKENHEATH TACAN"},
{"type":"NDB","hdg_t":124.6,"dist_nm":62.2,"freq":429,"lat":51.89459200,"lon":0.24503100,"rng_nm":20,"alt_fmsl":0,"id":"SSD","desc":"STANSTED NDB"},
{"type":"SDME","hdg_t":80.6,"dist_nm":62.4,"freq":108.7,"lat":52.64726100,"lon":0.55326400,"rng_nm":25,"alt_fmsl":75,"id":"MAM","desc":"MARHAM TACAN"},
{"type":"NDB","hdg_t":324.1,"dist_nm":63,"freq":380,"lat":53.33765800,"lon":-2.15835800,"rng_nm":15,"alt_fmsl":0,"id":"WFD","desc":"MANCHESTER WOODFORD NDB"},
{"type":"NDB","hdg_t":171.3,"dist_nm":63,"freq":352,"lat":51.45277800,"lon":-0.87888900,"rng_nm":25,"alt_fmsl":0,"id":"WOD","desc":"WOODLEY NDB"},
{"type":"NDB","hdg_t":289.5,"dist_nm":63.3,"freq":382,"lat":52.83363900,"lon":-2.77361100,"rng_nm":10,"alt_fmsl":0,"id":"SLP","desc":"SLEAP NDB"},
{"type":"VOR","hdg_t":157.4,"dist_nm":65.1,"freq":113.6,"lat":51.48722200,"lon":-0.46666700,"rng_nm":130,"alt_fmsl":110,"id":"LON","desc":"LONDON VOR-DME"},
{"type":"NDB","hdg_t":257.6,"dist_nm":65.9,"freq":426,"lat":52.24339400,"lon":-2.87983900,"rng_nm":20,"alt_fmsl":0,"id":"SH","desc":"SHOBDON NDB"},
{"type":"VOR","hdg_t":322.1,"dist_nm":66.2,"freq":113.55,"lat":53.35694400,"lon":-2.26222200,"rng_nm":130,"alt_fmsl":282,"id":"MCT","desc":"MANCHESTER VOR-DME"},
{"type":"NDB","hdg_t":321.7,"dist_nm":66.3,"freq":428,"lat":53.35329700,"lon":-2.27302500,"rng_nm":75,"alt_fmsl":0,"id":"MCH","desc":"MANCHESTER NDB"},
{"type":"SDME","hdg_t":208.7,"dist_nm":67,"freq":109.8,"lat":51.51013600,"lon":-1.99223900,"rng_nm":25,"alt_fmsl":463,"id":"LYE","desc":"LYNEHAM TACAN"},
{"type":"NDB","hdg_t":209,"dist_nm":67.3,"freq":282,"lat":51.50834200,"lon":-2.00587200,"rng_nm":40,"alt_fmsl":513,"id":"LA","desc":"LYNEHAM NDB"},
{"type":"NDB","hdg_t":43.4,"dist_nm":68.4,"freq":330,"lat":53.31000000,"lon":0.17616700,"rng_nm":25,"alt_fmsl":0,"id":"SBY","desc":"STRUBBY NDB"},
{"type":"NDB","hdg_t":308.1,"dist_nm":68.4,"freq":368,"lat":53.18500000,"lon":-2.62305600,"rng_nm":25,"alt_fmsl":0,"id":"WHI","desc":"WHITEGATE NDB"},
{"type":"VOR","hdg_t":136.3,"dist_nm":69.5,"freq":115.6,"lat":51.64611100,"lon":0.15166700,"rng_nm":110,"alt_fmsl":200,"id":"LAM","desc":"LAMBOURNE VOR-DME"},
{"type":"NDB","hdg_t":171.2,"dist_nm":70.9,"freq":328,"lat":51.32328900,"lon":-0.84479400,"rng_nm":15,"alt_fmsl":0,"id":"BLK","desc":"BLACKBUSHE NDB"},
{"type":"SDME","hdg_t":171.2,"dist_nm":70.9,"freq":116.2,"lat":51.32386500,"lon":-0.84637700,"rng_nm":50,"alt_fmsl":341,"id":"BLC","desc":"BLACKBUSHE DME"},
{"type":"NDB","hdg_t":23.1,"dist_nm":71,"freq":365,"lat":53.57666700,"lon":-0.35166700,"rng_nm":15,"alt_fmsl":0,"id":"KIM","desc":"HUMBERSIDE NDB"},
{"type":"NDB","hdg_t":162.7,"dist_nm":71.8,"freq":348,"lat":51.34741100,"lon":-0.56542900,"rng_nm":10,"alt_fmsl":80,"id":"FOS","desc":"FAIROAKS NDB"},
{"type":"SDME","hdg_t":162.7,"dist_nm":71.8,"freq":109.85,"lat":51.34741100,"lon":-0.56542900,"rng_nm":8,"alt_fmsl":80,"id":"FRK","desc":"FAIROAKS DME"},
{"type":"NDB","hdg_t":142.6,"dist_nm":74.1,"freq":322,"lat":51.50435000,"lon":0.06750300,"rng_nm":10,"alt_fmsl":0,"id":"LCY","desc":"CITY NDB"},
{"type":"SDME","hdg_t":277.2,"dist_nm":74.4,"freq":115.95,"lat":52.62972200,"lon":-3.15388900,"rng_nm":25,"alt_fmsl":282,"id":"WPL","desc":"WELSHPOOL NDB-DME"},
{"type":"NDB","hdg_t":277.2,"dist_nm":74.5,"freq":323,"lat":52.63000000,"lon":-3.15388900,"rng_nm":25,"alt_fmsl":282,"id":"WPL","desc":"WELSHPOOL NDB-DME"},
{"type":"VOR","hdg_t":160,"dist_nm":75.6,"freq":115.3,"lat":51.30500000,"lon":-0.44722200,"rng_nm":70,"alt_fmsl":200,"id":"OCK","desc":"OCKHAM VOR-DME"},
{"type":"NDB","hdg_t":157.8,"dist_nm":75.8,"freq":316,"lat":51.31944400,"lon":-0.37194400,"rng_nm":25,"alt_fmsl":0,"id":"EPM","desc":"EPSOM NDB"},
{"type":"NDB","hdg_t":83.1,"dist_nm":75.8,"freq":348,"lat":52.62305500,"lon":0.92694400,"rng_nm":150,"alt_fmsl":0,"id":"SDM","desc":"SHIPDHAM NDB"},
{"type":"SDME","hdg_t":174.7,"dist_nm":75.9,"freq":109.6,"lat":51.23284700,"lon":-0.94849200,"rng_nm":40,"alt_fmsl":410,"id":"ODH","desc":"ODIHAM TACAN"},
{"type":"NDB","hdg_t":14.8,"dist_nm":76.7,"freq":372,"lat":53.72538100,"lon":-0.58148300,"rng_nm":15,"alt_fmsl":12,"id":"BV","desc":"BROUGH NDB"},
{"type":"NDB","hdg_t":312,"dist_nm":77,"freq":349,"lat":53.33916700,"lon":-2.72388900,"rng_nm":50,"alt_fmsl":0,"id":"LPL","desc":"Liverpool NDB"},
{"type":"NDB","hdg_t":302.3,"dist_nm":78.9,"freq":340,"lat":53.17909600,"lon":-2.97954900,"rng_nm":25,"alt_fmsl":32,"id":"HAW","desc":"Hawarden NDB"},
{"type":"NDB","hdg_t":223.4,"dist_nm":79.4,"freq":325,"lat":51.52185300,"lon":-2.59023100,"rng_nm":25,"alt_fmsl":0,"id":"OF","desc":"FILTON NDB"},
{"type":"SDME","hdg_t":105.3,"dist_nm":79.4,"freq":109.3,"lat":52.12193300,"lon":0.94046900,"rng_nm":130,"alt_fmsl":324,"id":"WTZ","desc":"WATTISHAM TACAN"},
{"type":"VOR","hdg_t":26.7,"dist_nm":81.5,"freq":113.9,"lat":53.69833300,"lon":-0.10361100,"rng_nm":100,"alt_fmsl":0,"id":"OTR","desc":"OTTRINGHAM VOR-DME"},
{"type":"VOR","hdg_t":147.6,"dist_nm":82,"freq":115.1,"lat":51.33087500,"lon":0.03481100,"rng_nm":125,"alt_fmsl":590,"id":"BIG","desc":"BIGGIN VOR-DME"},
{"type":"VOR","hdg_t":335.3,"dist_nm":83,"freq":112.1,"lat":53.74388900,"lon":-2.10333300,"rng_nm":150,"alt_fmsl":1400,"id":"POL","desc":"POLE HILL VOR-DME"},
{"type":"SDME","hdg_t":196.2,"dist_nm":83.8,"freq":108.2,"lat":51.14895600,"lon":-1.75264700,"rng_nm":200,"alt_fmsl":430,"id":"BDN","desc":"BOSCOMBE DOWN TACAN"},
{"type":"NDB","hdg_t":347.3,"dist_nm":84.6,"freq":402,"lat":53.86499200,"lon":-1.65288900,"rng_nm":25,"alt_fmsl":0,"id":"LBA","desc":"LEEDS BRADFORD NDB"},
{"type":"NDB","hdg_t":81.6,"dist_nm":84.6,"freq":342,"lat":52.67416800,"lon":1.16222200,"rng_nm":150,"alt_fmsl":0,"id":"DH","desc":"NORWICH NDB"},
{"type":"NDB","hdg_t":153.8,"dist_nm":85.1,"freq":343,"lat":51.21494400,"lon":-0.13925000,"rng_nm":10,"alt_fmsl":0,"id":"RDL","desc":"REDHILL NDB"},
{"type":"NDB","hdg_t":159.2,"dist_nm":87.2,"freq":365,"lat":51.13065300,"lon":-0.31595600,"rng_nm":15,"alt_fmsl":0,"id":"GY","desc":"GATWICK NDB"},
{"type":"NDB","hdg_t":128.2,"dist_nm":87.3,"freq":362,"lat":51.57632800,"lon":0.70033000,"rng_nm":50,"alt_fmsl":50,"id":"SND","desc":"Southend NDB"},
{"type":"VOR","hdg_t":167.4,"dist_nm":88.3,"freq":114,"lat":51.05388900,"lon":-0.62500000,"rng_nm":100,"alt_fmsl":200,"id":"MID","desc":"MIDHURST VOR-DME"},
{"type":"NDB","hdg_t":222,"dist_nm":88.9,"freq":414,"lat":51.38144200,"lon":-2.71754400,"rng_nm":25,"alt_fmsl":0,"id":"BRI","desc":"BRISTOL NDB"},
{"type":"NDB","hdg_t":153.1,"dist_nm":88.9,"freq":338,"lat":51.16443900,"lon":-0.06913300,"rng_nm":15,"alt_fmsl":0,"id":"GE","desc":"GATWICK NDB"},
{"type":"NDB","hdg_t":106.9,"dist_nm":90.3,"freq":328,"lat":52.02888900,"lon":1.20138900,"rng_nm":150,"alt_fmsl":0,"id":"PSW","desc":"IPSWICH NDB"},
{"type":"VOR","hdg_t":307.4,"dist_nm":90.6,"freq":114.1,"lat":53.39194400,"lon":-3.13444400,"rng_nm":130,"alt_fmsl":55,"id":"WAL","desc":"WALLASEY VOR-DME"},
{"type":"VOR","hdg_t":240.5,"dist_nm":91.2,"freq":117.45,"lat":51.72555600,"lon":-3.26305600,"rng_nm":65,"alt_fmsl":1450,"id":"BCN","desc":"BRECON VOR-DME"},
{"type":"NDB","hdg_t":137.7,"dist_nm":91.4,"freq":369,"lat":51.35383300,"lon":0.50366700,"rng_nm":25,"alt_fmsl":0,"id":"RCH","desc":"ROCHESTER NDB"},
{"type":"NDB","hdg_t":185.2,"dist_nm":92.6,"freq":391,"lat":50.95502800,"lon":-1.35611900,"rng_nm":15,"alt_fmsl":0,"id":"EAS","desc":"SOUTHAMPTON NDB"},
{"type":"VOR","hdg_t":113.7,"dist_nm":92.6,"freq":114.55,"lat":51.84841700,"lon":1.14761100,"rng_nm":100,"alt_fmsl":100,"id":"CLN","desc":"CLACTON VOR-DME"},
{"type":"VOR","hdg_t":185,"dist_nm":92.6,"freq":113.35,"lat":50.95527800,"lon":-1.34500000,"rng_nm":100,"alt_fmsl":66,"id":"SAM","desc":"SOUTHAMPTON VOR-DME"},
{"type":"NDB","hdg_t":113.7,"dist_nm":92.7,"freq":295,"lat":51.84805700,"lon":1.14944400,"rng_nm":150,"alt_fmsl":0,"id":"CLN","desc":"CLACTON NDB"},
{"type":"NDB","hdg_t":82.1,"dist_nm":92.7,"freq":371,"lat":52.67642200,"lon":1.38471100,"rng_nm":20,"alt_fmsl":0,"id":"NL","desc":"NORWICH NDB"},
{"type":"SDME","hdg_t":357.4,"dist_nm":93.7,"freq":109,"lat":54.05049200,"lon":-1.24904400,"rng_nm":130,"alt_fmsl":53,"id":"LOO","desc":"LINTON ON OUSE TACAN"},
{"type":"VOR","hdg_t":137.2,"dist_nm":96,"freq":117.3,"lat":51.30388900,"lon":0.59722200,"rng_nm":130,"alt_fmsl":645,"id":"DET","desc":"DETLING VOR-DME"},
{"type":"NDB","hdg_t":321.2,"dist_nm":97.9,"freq":337,"lat":53.75170600,"lon":-2.85224200,"rng_nm":15,"alt_fmsl":0,"id":"WTN","desc":"WARTON NDB"},
{"type":"SDME","hdg_t":320.3,"dist_nm":98.4,"freq":113.2,"lat":53.74034700,"lon":-2.89283900,"rng_nm":25,"alt_fmsl":54,"id":"WTN","desc":"WARTON TACAN"},
{"type":"NDB","hdg_t":203,"dist_nm":99.2,"freq":349,"lat":50.96620300,"lon":-2.15516700,"rng_nm":10,"alt_fmsl":0,"id":"COM","desc":"COMPT0N ABBAS NDB"},
{"type":"VOR","hdg_t":171.7,"dist_nm":99.2,"freq":114.75,"lat":50.85527800,"lon":-0.75666700,"rng_nm":130,"alt_fmsl":113,"id":"GWC","desc":"GOODWOOD VOR-DME"}
]
}
