{"success":true,"source":"xp2csv.pl","last_updated":"2013/11/08 14:53:21 UTC"
,"icao":"XDOR","name":"Dornoch","lat":57.86904347,"lon":-4.02353465,"rwys":1,"ils":0,"index":2876659,"path":"w010n50/w005n57"
,"runways":[
{"len_m":848,"wid_m":22.86,"hdg":88,"surf":"Turf/grass","rwy1":"10","lat1":57.86892244,"lon1":-4.03067870,"rwy2":"28","lat2":57.86916450,"lon2":-4.01639060}
]
,"navaids":[
{"type":"NDB","hdg_t":132.9,"dist_nm":19.2,"freq":370,"lat":57.65040800,"lon":-3.58704200,"rng_nm":20,"alt_fmsl":0,"id":"KS","desc":"KINLOSS NDB"},
{"type":"VOR","hdg_t":181.6,"dist_nm":19.6,"freq":109.2,"lat":57.54262500,"lon":-4.04154200,"rng_nm":40,"alt_fmsl":58,"id":"INS","desc":"INVERNESS VOR-DME"},
{"type":"NDB","hdg_t":182.1,"dist_nm":19.7,"freq":328,"lat":57.54150800,"lon":-4.04596700,"rng_nm":50,"alt_fmsl":0,"id":"IVR","desc":"INVERNESS NDB"},
{"type":"SDME","hdg_t":128.5,"dist_nm":20.1,"freq":109.8,"lat":57.65926400,"lon":-3.53511400,"rng_nm":200,"alt_fmsl":75,"id":"KSS","desc":"KINLOSS TACAN"},
{"type":"VOR","hdg_t":39.2,"dist_nm":46,"freq":113.6,"lat":58.45888900,"lon":-3.10027800,"rng_nm":130,"alt_fmsl":110,"id":"WIK","desc":"WICK VOR-DME"},
{"type":"NDB","hdg_t":40.9,"dist_nm":46.2,"freq":344,"lat":58.44673100,"lon":-3.06311900,"rng_nm":40,"alt_fmsl":0,"id":"WCK","desc":"WICK NDB"},
{"type":"NDB","hdg_t":25.2,"dist_nm":64.1,"freq":357,"lat":58.82986100,"lon":-3.14505600,"rng_nm":20,"alt_fmsl":0,"id":"IOF","desc":"FLOTTA NDB"},
{"type":"VOR","hdg_t":119.8,"dist_nm":65.9,"freq":114.3,"lat":57.31055600,"lon":-2.26722200,"rng_nm":200,"alt_fmsl":600,"id":"ADN","desc":"ABERDEEN VOR-DME"},
{"type":"NDB","hdg_t":129.2,"dist_nm":68.3,"freq":336,"lat":57.13833300,"lon":-2.40472200,"rng_nm":15,"alt_fmsl":0,"id":"AQ","desc":"ABERDEEN NDB"},
{"type":"NDB","hdg_t":238.4,"dist_nm":69.1,"freq":390,"lat":57.25483000,"lon":-5.83286500,"rng_nm":25,"alt_fmsl":0,"id":"BFD","desc":"BROADFORD NDB"},
{"type":"VOR","hdg_t":287.3,"dist_nm":71.8,"freq":115.1,"lat":58.20694400,"lon":-6.18305600,"rng_nm":105,"alt_fmsl":250,"id":"STN","desc":"STORNOWAY VOR-DME"},
{"type":"NDB","hdg_t":106,"dist_nm":72.5,"freq":339,"lat":57.51651600,"lon":-1.86831400,"rng_nm":25,"alt_fmsl":0,"id":"LNS","desc":"LONGSIDE NDB"},
{"type":"NDB","hdg_t":103.7,"dist_nm":73.4,"freq":383,"lat":57.55916700,"lon":-1.81722200,"rng_nm":80,"alt_fmsl":0,"id":"SHD","desc":"SCOTSTOWN HEAD NDB"},
{"type":"NDB","hdg_t":27.6,"dist_nm":74.3,"freq":395,"lat":58.95962200,"lon":-2.91158100,"rng_nm":40,"alt_fmsl":0,"id":"KW","desc":"KIRKWALL NDB"},
{"type":"VOR","hdg_t":28,"dist_nm":74.6,"freq":108.6,"lat":58.95967200,"lon":-2.89394700,"rng_nm":25,"alt_fmsl":65,"id":"KWL","desc":"KIRKWALL VOR-DME"},
{"type":"SDME","hdg_t":286.7,"dist_nm":76.3,"freq":110.9,"lat":58.21438300,"lon":-6.32604700,"rng_nm":25,"alt_fmsl":28,"id":"ISV","desc":"STORNOWAY DME"},
{"type":"NDB","hdg_t":286.7,"dist_nm":76.4,"freq":431,"lat":58.21548100,"lon":-6.32907800,"rng_nm":60,"alt_fmsl":24,"id":"SAY","desc":"STORNOWAY NDB-DME"},
{"type":"SDME","hdg_t":286.7,"dist_nm":76.4,"freq":110.9,"lat":58.21515600,"lon":-6.32910300,"rng_nm":60,"alt_fmsl":24,"id":"SAY","desc":"STORNOWAY NDB-DME"},
{"type":"NDB","hdg_t":126.6,"dist_nm":78.2,"freq":348,"lat":57.07751400,"lon":-2.10570000,"rng_nm":25,"alt_fmsl":0,"id":"ATF","desc":"ABERDEEN/DYCE NDB"},
{"type":"VOR","hdg_t":165.7,"dist_nm":88.4,"freq":110.4,"lat":56.44250000,"lon":-3.36861100,"rng_nm":80,"alt_fmsl":0,"id":"PTH","desc":"PERTH VOR"},
{"type":"NDB","hdg_t":160.3,"dist_nm":90,"freq":394,"lat":56.45506700,"lon":-3.11492500,"rng_nm":25,"alt_fmsl":0,"id":"DND","desc":"DUNDEE NDB"},
{"type":"NDB","hdg_t":208.5,"dist_nm":95.9,"freq":404,"lat":56.45970154,"lon":-5.40251684,"rng_nm":50,"alt_fmsl":20,"id":"OBN","desc":"North Connel NDB"},
{"type":"SDME","hdg_t":156.6,"dist_nm":97.6,"freq":110.5,"lat":56.37281400,"lon":-2.86366900,"rng_nm":130,"alt_fmsl":72,"id":"LUK","desc":"LEUCHARS TACAN"}
]
}
