{"success":true,"source":"xp2csv.pl","last_updated":"2013/11/08 14:53:21 UTC"
,"icao":"XIIO","name":"Oyek","lat":52.55035249,"lon":104.45464496,"rwys":1,"ils":0,"index":4662177,"path":"e100n50/e104n52"
,"runways":[
{"len_m":763,"wid_m":60.05,"hdg":25,"surf":"Turf/grass","rwy1":"07","lat1":52.54725280,"lon1":104.45222791,"rwy2":"25","lat2":52.55345217,"lon2":104.45706201}
]
,"navaids":[
{"type":"NDB","hdg_t":2,"dist_nm":12,"freq":699,"lat":52.75000000,"lon":104.46666700,"rng_nm":80,"alt_fmsl":0,"id":"NH","desc":"NIKOLSK NDB"},
{"type":"NDB","hdg_t":196.4,"dist_nm":16.6,"freq":514,"lat":52.28500000,"lon":104.32666700,"rng_nm":80,"alt_fmsl":0,"id":"CN","desc":"IRKUTSK NDB"},
{"type":"NDB","hdg_t":191.4,"dist_nm":16.8,"freq":250,"lat":52.27483400,"lon":104.36333500,"rng_nm":50,"alt_fmsl":1627,"id":"C","desc":"Irkutsk NDB"},
{"type":"VOR","hdg_t":188.2,"dist_nm":17,"freq":112.3,"lat":52.27000000,"lon":104.38833300,"rng_nm":130,"alt_fmsl":1626,"id":"IRK","desc":"IRKUTSK VOR-DME"},
{"type":"NDB","hdg_t":183.3,"dist_nm":17.5,"freq":250,"lat":52.25828200,"lon":104.42666600,"rng_nm":50,"alt_fmsl":1675,"id":"I","desc":"Irkutsk NDB"},
{"type":"NDB","hdg_t":178.9,"dist_nm":18.1,"freq":514,"lat":52.24833300,"lon":104.46333300,"rng_nm":80,"alt_fmsl":0,"id":"IR","desc":"IRKUTSK NDB"},
{"type":"NDB","hdg_t":303,"dist_nm":36,"freq":313,"lat":52.87414932,"lon":103.62435150,"rng_nm":112,"alt_fmsl":1329,"id":"GV","desc":"Belaya NDB"},
{"type":"NDB","hdg_t":48.8,"dist_nm":36.7,"freq":1020,"lat":52.95000000,"lon":105.21666700,"rng_nm":80,"alt_fmsl":0,"id":"KA","desc":"OLZONY NDB"},
{"type":"NDB","hdg_t":303.8,"dist_nm":37.4,"freq":153,"lat":52.89446640,"lon":103.60015106,"rng_nm":22,"alt_fmsl":1499,"id":"G","desc":"Belaya NDB"},
{"type":"NDB","hdg_t":305.4,"dist_nm":40.2,"freq":153,"lat":52.93573380,"lon":103.55083466,"rng_nm":22,"alt_fmsl":1467,"id":"L","desc":"Belaya NDB"},
{"type":"NDB","hdg_t":306.1,"dist_nm":41.7,"freq":313,"lat":52.95624924,"lon":103.52639771,"rng_nm":112,"alt_fmsl":1388,"id":"LM","desc":"Belaya NDB"},
{"type":"NDB","hdg_t":326.1,"dist_nm":43.5,"freq":779,"lat":53.15000000,"lon":103.78333300,"rng_nm":80,"alt_fmsl":0,"id":"BQ","desc":"BOKHAN NDB"},
{"type":"NDB","hdg_t":261.8,"dist_nm":46.5,"freq":635,"lat":52.43333300,"lon":103.20000000,"rng_nm":80,"alt_fmsl":0,"id":"BD","desc":"RAZDOLYE NDB"},
{"type":"NDB","hdg_t":337.1,"dist_nm":54.4,"freq":420,"lat":53.38333300,"lon":103.86666700,"rng_nm":80,"alt_fmsl":0,"id":"CS","desc":"OSA NDB"}
]
}
