{"success":true,"source":"xp2csv.pl","last_updated":"2013/11/08 14:53:21 UTC"
,"icao":"XS19","name":"Putz","lat":26.20618416,"lon":-98.40112834,"rwys":1,"ils":0,"index":1334538,"path":"w100n20/w099n26"
,"runways":[
{"len_m":608,"wid_m":6.10,"hdg":146,"surf":"Asphalt","rwy1":"14","lat1":26.20848462,"lon1":-98.40279343,"rwy2":"32","lat2":26.20388370,"lon2":-98.39946325}
]
,"navaids":[
{"type":"NDB","hdg_t":59.7,"dist_nm":5.6,"freq":330,"lat":26.25386111,"lon":-98.31038889,"rng_nm":50,"alt_fmsl":0,"id":"MF","desc":"MISSI NDB"},
{"type":"VOR","hdg_t":102.5,"dist_nm":8.8,"freq":117.2,"lat":26.17388889,"lon":-98.24077778,"rng_nm":130,"alt_fmsl":100,"id":"MFE","desc":"MC ALLEN VOR-DME"},
{"type":"VOR","hdg_t":141.9,"dist_nm":14.8,"freq":112.4,"lat":26.01063889,"lon":-98.23186111,"rng_nm":130,"alt_fmsl":139,"id":"REX","desc":"REYNOSA VOR-DME"},
{"type":"NDB","hdg_t":342.8,"dist_nm":32.1,"freq":260,"lat":26.71894444,"lon":-98.57725000,"rng_nm":50,"alt_fmsl":0,"id":"SNE","desc":"SANTA ELENA NDB"},
{"type":"VOR","hdg_t":87.8,"dist_nm":40.4,"freq":109.2,"lat":26.22922222,"lon":-97.65227778,"rng_nm":40,"alt_fmsl":32,"id":"HRL","desc":"HARLINGEN VOR-DME"},
{"type":"NDB","hdg_t":81.4,"dist_nm":40.5,"freq":338,"lat":26.30516667,"lon":-97.65736111,"rng_nm":50,"alt_fmsl":0,"id":"HR","desc":"SEBAS NDB"},
{"type":"NDB","hdg_t":105.2,"dist_nm":49.9,"freq":393,"lat":25.98361111,"lon":-97.50908333,"rng_nm":50,"alt_fmsl":0,"id":"BR","desc":"DEPOO NDB"},
{"type":"VOR","hdg_t":118.5,"dist_nm":54.1,"freq":114.3,"lat":25.77083333,"lon":-97.52391667,"rng_nm":130,"alt_fmsl":25,"id":"MAM","desc":"MATAMOROS VOR-DME"},
{"type":"VOR","hdg_t":106.7,"dist_nm":57.9,"freq":116.3,"lat":25.92408333,"lon":-97.37527778,"rng_nm":130,"alt_fmsl":10,"id":"BRO","desc":"BROWNSVILLE VORTAC"},
{"type":"NDB","hdg_t":14,"dist_nm":61.7,"freq":353,"lat":27.20694444,"lon":-98.12177778,"rng_nm":50,"alt_fmsl":0,"id":"BKS","desc":"BROOKS CO NDB"},
{"type":"NDB","hdg_t":345,"dist_nm":71,"freq":266,"lat":27.35391667,"lon":-98.74413889,"rng_nm":50,"alt_fmsl":0,"id":"HBV","desc":"HEBBRONVILLE NDB"},
{"type":"SDME","hdg_t":22.3,"dist_nm":83.7,"freq":117.8,"lat":27.49930300,"lon":-97.80552500,"rng_nm":130,"alt_fmsl":46,"id":"NQI","desc":"KINGSVILLE TACAN"},
{"type":"NDB","hdg_t":11.3,"dist_nm":85.4,"freq":347,"lat":27.60633333,"lon":-98.08586111,"rng_nm":50,"alt_fmsl":0,"id":"TKB","desc":"KLEBERG CO NDB"},
{"type":"VOR","hdg_t":324.6,"dist_nm":93.6,"freq":117.4,"lat":27.47872222,"lon":-99.41766667,"rng_nm":130,"alt_fmsl":580,"id":"LRD","desc":"LAREDO VORTAC"},
{"type":"VOR","hdg_t":12.4,"dist_nm":93.9,"freq":114.5,"lat":27.73980556,"lon":-98.02133333,"rng_nm":40,"alt_fmsl":0,"id":"ALI","desc":"ALICE VOR"},
{"type":"VOR","hdg_t":254.6,"dist_nm":95.6,"freq":114.7,"lat":25.77288889,"lon":-100.10397222,"rng_nm":130,"alt_fmsl":1305,"id":"MTY","desc":"MONTERREY VOR-DME"},
{"type":"VOR","hdg_t":320,"dist_nm":96.6,"freq":112.6,"lat":27.43938889,"lon":-99.56458333,"rng_nm":130,"alt_fmsl":484,"id":"NLD","desc":"NEWLA VOR-DME"}
]
}
