{"success":true,"source":"xp2csv.pl","last_updated":"2013/11/08 14:53:21 UTC"
,"icao":"Y47","name":"Oakland Southwest","lat":42.503125,"lon":-83.6237055,"rwys":1,"ils":0,"index":1581345,"path":"w090n40/w084n42"
,"runways":[
{"len_m":953,"wid_m":12.19,"hdg":71,"surf":"Asphalt","rwy1":"07","lat1":42.50175000,"lon1":-83.62920000,"rwy2":"25","lat2":42.50450000,"lon2":-83.61821100}
]
,"radios":[
{"type":"CTAF","freq":122.7,"desc":"CTAF/UNICOM"},
{"type":"APP","freq":127.5,"desc":"DETROIT APP/DEP"}
]
,"navaids":[
{"type":"VOR","hdg_t":166.9,"dist_nm":5.8,"freq":114.3,"lat":42.40886111,"lon":-83.59419444,"rng_nm":40,"alt_fmsl":950,"id":"SVM","desc":"SALEM VORTAC"},
{"type":"VOR","hdg_t":18.7,"dist_nm":12.5,"freq":111,"lat":42.70086111,"lon":-83.53275000,"rng_nm":40,"alt_fmsl":1148,"id":"PSI","desc":"PONTIAC VORTAC"},
{"type":"NDB","hdg_t":296.2,"dist_nm":17.7,"freq":243,"lat":42.63341667,"lon":-83.98252778,"rng_nm":50,"alt_fmsl":0,"id":"OZW","desc":"HOWELL NDB"},
{"type":"NDB","hdg_t":179.7,"dist_nm":19.7,"freq":359,"lat":42.17422222,"lon":-83.62155556,"rng_nm":50,"alt_fmsl":0,"id":"YI","desc":"YIPPS NDB"},
{"type":"VOR","hdg_t":146.5,"dist_nm":20.8,"freq":113.4,"lat":42.21313889,"lon":-83.36666667,"rng_nm":130,"alt_fmsl":638,"id":"DXO","desc":"DETROIT VOR-DME"},
{"type":"NDB","hdg_t":91,"dist_nm":23.5,"freq":338,"lat":42.49477778,"lon":-83.09330556,"rng_nm":50,"alt_fmsl":0,"id":"DE","desc":"MADDS (LOM) NDB"},
{"type":"NDB","hdg_t":159.5,"dist_nm":24.5,"freq":388,"lat":42.12011111,"lon":-83.43172222,"rng_nm":50,"alt_fmsl":0,"id":"DT","desc":"REVUP NDB"},
{"type":"NDB","hdg_t":132.1,"dist_nm":25.2,"freq":223,"lat":42.22000000,"lon":-83.20330556,"rng_nm":50,"alt_fmsl":0,"id":"DM","desc":"SPENC NDB"},
{"type":"VOR","hdg_t":164.7,"dist_nm":28.2,"freq":115.7,"lat":42.04802778,"lon":-83.45758333,"rng_nm":130,"alt_fmsl":629,"id":"CRL","desc":"CARLETON VORTAC"},
{"type":"VOR","hdg_t":348.9,"dist_nm":28.3,"freq":116.9,"lat":42.96677778,"lon":-83.74697222,"rng_nm":130,"alt_fmsl":772,"id":"FNT","desc":"FLINT VORTAC"},
{"type":"NDB","hdg_t":121,"dist_nm":29.9,"freq":398,"lat":42.24388900,"lon":-83.04750000,"rng_nm":25,"alt_fmsl":0,"id":"ZQG","desc":"LAUREL NDB"},
{"type":"NDB","hdg_t":337.1,"dist_nm":30.2,"freq":269,"lat":42.96811111,"lon":-83.89008333,"rng_nm":50,"alt_fmsl":0,"id":"FN","desc":"PETLI NDB"},
{"type":"NDB","hdg_t":202.6,"dist_nm":30.4,"freq":239,"lat":42.03394444,"lon":-83.88633333,"rng_nm":50,"alt_fmsl":0,"id":"TCU","desc":"TECUMSEH NDB"},
{"type":"NDB","hdg_t":71.7,"dist_nm":30.6,"freq":215,"lat":42.66142200,"lon":-82.96548100,"rng_nm":25,"alt_fmsl":607,"id":"UIZ","desc":"BERZ NDB"},
{"type":"NDB","hdg_t":106.2,"dist_nm":31,"freq":230,"lat":42.35625000,"lon":-82.95427778,"rng_nm":50,"alt_fmsl":0,"id":"VQ","desc":"CARGL NDB"},
{"type":"NDB","hdg_t":138.8,"dist_nm":31.9,"freq":419,"lat":42.10111111,"lon":-83.15297222,"rng_nm":50,"alt_fmsl":0,"id":"RYS","desc":"GROSSE ILE NDB"},
{"type":"NDB","hdg_t":251.6,"dist_nm":34.7,"freq":212,"lat":42.31783333,"lon":-84.36555556,"rng_nm":50,"alt_fmsl":0,"id":"JX","desc":"JAKSO NDB"},
{"type":"NDB","hdg_t":108.5,"dist_nm":35.4,"freq":353,"lat":42.31269444,"lon":-82.86852778,"rng_nm":50,"alt_fmsl":0,"id":"QG","desc":"WINDSOR NDB"},
{"type":"VOR","hdg_t":113,"dist_nm":38.4,"freq":113.8,"lat":42.24972222,"lon":-82.82894444,"rng_nm":40,"alt_fmsl":625,"id":"YQG","desc":"WINDSOR VOR-DME"},
{"type":"VOR","hdg_t":248.7,"dist_nm":39.9,"freq":109.6,"lat":42.25925000,"lon":-84.45855556,"rng_nm":40,"alt_fmsl":995,"id":"JXN","desc":"JACKSON VOR-DME"},
{"type":"NDB","hdg_t":293.3,"dist_nm":42,"freq":206,"lat":42.77755800,"lon":-84.49758600,"rng_nm":25,"alt_fmsl":841,"id":"LA","desc":"ARTDA NDB"},
{"type":"NDB","hdg_t":208.2,"dist_nm":43,"freq":278,"lat":41.86997222,"lon":-84.07747222,"rng_nm":50,"alt_fmsl":0,"id":"ADG","desc":"ADRIAN NDB"},
{"type":"VOR","hdg_t":285.4,"dist_nm":49.2,"freq":110.8,"lat":42.71738889,"lon":-84.69750000,"rng_nm":40,"alt_fmsl":888,"id":"LAN","desc":"LANSING VORTAC"},
{"type":"NDB","hdg_t":65.5,"dist_nm":49.8,"freq":332,"lat":42.84291667,"lon":-82.59669444,"rng_nm":50,"alt_fmsl":0,"id":"PH","desc":"PHURN NDB"},
{"type":"SDME","hdg_t":188.2,"dist_nm":55.1,"freq":112.5,"lat":41.59370300,"lon":-83.79936400,"rng_nm":25,"alt_fmsl":671,"id":"TOL","desc":"TOLEDO TACAN"},
{"type":"VOR","hdg_t":242.9,"dist_nm":57.2,"freq":111.2,"lat":42.06250000,"lon":-84.76513889,"rng_nm":40,"alt_fmsl":1040,"id":"LFD","desc":"LITCHFIELD VOR-DME"},
{"type":"NDB","hdg_t":203.1,"dist_nm":58.2,"freq":375,"lat":41.60922222,"lon":-84.13272222,"rng_nm":50,"alt_fmsl":0,"id":"USE","desc":"FULTON NDB"},
{"type":"NDB","hdg_t":193.2,"dist_nm":58.4,"freq":219,"lat":41.55347222,"lon":-83.92108333,"rng_nm":50,"alt_fmsl":0,"id":"TO","desc":"TOPHR NDB"},
{"type":"VOR","hdg_t":41.1,"dist_nm":60.2,"freq":114,"lat":43.25588889,"lon":-82.71791667,"rng_nm":130,"alt_fmsl":810,"id":"ECK","desc":"PECK VORTAC"},
{"type":"NDB","hdg_t":135.2,"dist_nm":60.7,"freq":283,"lat":41.77944444,"lon":-82.67000000,"rng_nm":50,"alt_fmsl":0,"id":"PT","desc":"PELEE ISLAND NDB"},
{"type":"NDB","hdg_t":337.1,"dist_nm":62.4,"freq":257,"lat":43.46150000,"lon":-84.17983333,"rng_nm":50,"alt_fmsl":0,"id":"MB","desc":"OLSTE NDB"},
{"type":"VOR","hdg_t":180.6,"dist_nm":63,"freq":113.1,"lat":41.45147222,"lon":-83.63869444,"rng_nm":40,"alt_fmsl":664,"id":"VWV","desc":"WATERVILLE VOR-DME"},
{"type":"VOR","hdg_t":342.2,"dist_nm":64.8,"freq":112.9,"lat":43.53166667,"lon":-84.07730556,"rng_nm":40,"alt_fmsl":663,"id":"MBS","desc":"SAGINAW VOR-DME"},
{"type":"NDB","hdg_t":66.4,"dist_nm":66.8,"freq":404,"lat":42.94047222,"lon":-82.23383333,"rng_nm":50,"alt_fmsl":0,"id":"ZR","desc":"SARNIA NDB"},
{"type":"NDB","hdg_t":149.9,"dist_nm":68,"freq":423,"lat":41.51858333,"lon":-82.86872222,"rng_nm":50,"alt_fmsl":0,"id":"PCW","desc":"PORT CLINTON NDB"},
{"type":"NDB","hdg_t":98.9,"dist_nm":69.6,"freq":236,"lat":42.31222222,"lon":-82.07777778,"rng_nm":50,"alt_fmsl":0,"id":"4L","desc":"CHATHAM-KENT NDB"},
{"type":"NDB","hdg_t":263.5,"dist_nm":69.8,"freq":272,"lat":42.36200000,"lon":-85.18450000,"rng_nm":50,"alt_fmsl":0,"id":"BT","desc":"BATOL NDB"},
{"type":"NDB","hdg_t":211.8,"dist_nm":72,"freq":260,"lat":41.47886111,"lon":-84.46591667,"rng_nm":50,"alt_fmsl":0,"id":"BYN","desc":"BRYAN NDB"},
{"type":"VOR","hdg_t":261.4,"dist_nm":73.3,"freq":109.4,"lat":42.30980556,"lon":-85.25233333,"rng_nm":25,"alt_fmsl":922,"id":"BTL","desc":"BATTLE CREEK VORTAC"},
{"type":"VOR","hdg_t":145.5,"dist_nm":77.3,"freq":109.2,"lat":41.43447222,"lon":-82.65480556,"rng_nm":40,"alt_fmsl":580,"id":"SKY","desc":"SANDUSKY VOR-DME"},
{"type":"NDB","hdg_t":207.4,"dist_nm":78.8,"freq":246,"lat":41.33369444,"lon":-84.42800000,"rng_nm":50,"alt_fmsl":0,"id":"DFI","desc":"DEFIANCE NDB"},
{"type":"NDB","hdg_t":172.5,"dist_nm":79.4,"freq":379,"lat":41.18933333,"lon":-83.39713889,"rng_nm":50,"alt_fmsl":0,"id":"FZI","desc":"FOSTORIA NDB"},
{"type":"NDB","hdg_t":287.4,"dist_nm":81.1,"freq":263,"lat":42.89563889,"lon":-85.37858333,"rng_nm":50,"alt_fmsl":0,"id":"GR","desc":"KNOBS NDB"},
{"type":"VOR","hdg_t":19.8,"dist_nm":81.8,"freq":108.2,"lat":43.78366667,"lon":-82.98319444,"rng_nm":25,"alt_fmsl":766,"id":"BAX","desc":"BAD AXE VOR-DME"},
{"type":"VOR","hdg_t":324.2,"dist_nm":83.1,"freq":110.6,"lat":43.62283333,"lon":-84.73727778,"rng_nm":40,"alt_fmsl":752,"id":"MOP","desc":"MOUNT PLEASANT VOR-DME"},
{"type":"NDB","hdg_t":232.1,"dist_nm":83.4,"freq":347,"lat":41.63977778,"lon":-85.08691667,"rng_nm":50,"alt_fmsl":0,"id":"ANQ","desc":"ANGOLA NDB"},
{"type":"VOR","hdg_t":282.2,"dist_nm":84.6,"freq":115.95,"lat":42.78672222,"lon":-85.49708333,"rng_nm":130,"alt_fmsl":803,"id":"GRR","desc":"GRAND RAPIDS VOR-DME"},
{"type":"NDB","hdg_t":167.6,"dist_nm":86.4,"freq":269,"lat":41.09466667,"lon":-83.21497222,"rng_nm":50,"alt_fmsl":0,"id":"TII","desc":"TIFFIN NDB"},
{"type":"VOR","hdg_t":260.1,"dist_nm":87.2,"freq":109,"lat":42.23700000,"lon":-85.55316667,"rng_nm":40,"alt_fmsl":870,"id":"AZO","desc":"KALAMAZOO VOR-DME"},
{"type":"NDB","hdg_t":255.9,"dist_nm":87.7,"freq":371,"lat":42.13105556,"lon":-85.52975000,"rng_nm":50,"alt_fmsl":0,"id":"AZ","desc":"AUSTN NDB"},
{"type":"NDB","hdg_t":181.3,"dist_nm":88.9,"freq":334,"lat":41.02111111,"lon":-83.66911111,"rng_nm":50,"alt_fmsl":0,"id":"BNR","desc":"BENTON RIDGE NDB"},
{"type":"VOR","hdg_t":181.1,"dist_nm":89.2,"freq":114.9,"lat":41.01488889,"lon":-83.66433333,"rng_nm":25,"alt_fmsl":0,"id":"MAH","desc":"MARATHON VOR"},
{"type":"NDB","hdg_t":190.2,"dist_nm":89.6,"freq":233,"lat":41.03116400,"lon":-83.97522200,"rng_nm":25,"alt_fmsl":760,"id":"PDR","desc":"OTTAWA NDB"},
{"type":"NDB","hdg_t":243.4,"dist_nm":90.7,"freq":382,"lat":41.81313889,"lon":-85.43377778,"rng_nm":50,"alt_fmsl":0,"id":"IRS","desc":"STURGIS NDB"},
{"type":"NDB","hdg_t":219.9,"dist_nm":92.9,"freq":227,"lat":41.30830556,"lon":-84.94419444,"rng_nm":50,"alt_fmsl":0,"id":"GW","desc":"SHENK NDB"},
{"type":"VOR","hdg_t":183.7,"dist_nm":93,"freq":108.2,"lat":40.95533333,"lon":-83.75602778,"rng_nm":40,"alt_fmsl":820,"id":"FBC","desc":"FLAG CITY VORTAC"},
{"type":"NDB","hdg_t":250.2,"dist_nm":93.6,"freq":407,"lat":41.95838889,"lon":-85.59166667,"rng_nm":50,"alt_fmsl":0,"id":"HAI","desc":"THREE RIVERS NDB"},
{"type":"VOR","hdg_t":135.8,"dist_nm":94.8,"freq":113.6,"lat":41.35805556,"lon":-82.16197222,"rng_nm":130,"alt_fmsl":780,"id":"DJB","desc":"DRYER VOR-DME"},
{"type":"NDB","hdg_t":337.2,"dist_nm":95.6,"freq":209,"lat":43.97019444,"lon":-84.47516667,"rng_nm":50,"alt_fmsl":0,"id":"GDW","desc":"WIGGINS NDB"}
]
}
