{"success":true,"source":"xp2csv.pl","last_updated":"2013/11/08 14:53:21 UTC"
,"icao":"Y50","name":"Wautoma Muni","lat":44.0428786666667,"lon":-89.3055171666667,"rwys":3,"ils":0,"index":1483138,"path":"w090n40/w090n44"
,"runways":[
{"len_m":1006,"wid_m":18.29,"hdg":131,"surf":"Asphalt","rwy1":"13","lat1":44.04463900,"lon1":-89.30917200,"rwy2":"31","lat2":44.03861100,"lon2":-89.29980600},
{"len_m":694,"wid_m":45.72,"hdg":82,"surf":"Turf/grass","rwy1":"08","lat1":44.04497800,"lon1":-89.31187500,"rwy2":"26","lat2":44.04579400,"lon2":-89.30327800},
{"len_m":363,"wid_m":10.67,"hdg":47,"surf":"Asphalt","rwy1":"05","lat1":44.04053060,"lon1":-89.30617035,"rwy2":"23","lat2":44.04271940,"lon2":-89.30280165}
]
,"radios":[
{"type":"CTAF","freq":122.8,"desc":"CTAF/UNICOM"}
]
,"navaids":[
{"type":"NDB","hdg_t":35.1,"dist_nm":21.4,"freq":382,"lat":44.33436111,"lon":-89.01969444,"rng_nm":50,"alt_fmsl":0,"id":"PCZ","desc":"WAUPACA NDB"},
{"type":"NDB","hdg_t":297.5,"dist_nm":28.3,"freq":326,"lat":44.25983333,"lon":-89.88788889,"rng_nm":50,"alt_fmsl":0,"id":"EK","desc":"NEPCO NDB"},
{"type":"NDB","hdg_t":310,"dist_nm":30,"freq":215,"lat":44.36394444,"lon":-89.83977778,"rng_nm":50,"alt_fmsl":0,"id":"ISW","desc":"WISCONSIN RAPIDS NDB"},
{"type":"VOR","hdg_t":342.1,"dist_nm":31.5,"freq":110.6,"lat":44.54325000,"lon":-89.53055556,"rng_nm":40,"alt_fmsl":1110,"id":"STE","desc":"STEVENS POINT VORTAC"},
{"type":"NDB","hdg_t":76.7,"dist_nm":31.9,"freq":230,"lat":44.16250000,"lon":-88.58502778,"rng_nm":50,"alt_fmsl":0,"id":"AT","desc":"GAMIE NDB"},
{"type":"VOR","hdg_t":95.2,"dist_nm":32.6,"freq":111.8,"lat":43.99041667,"lon":-88.55594444,"rng_nm":40,"alt_fmsl":780,"id":"OSH","desc":"OSHKOSH VORTAC"},
{"type":"NDB","hdg_t":269.3,"dist_nm":33.6,"freq":233,"lat":44.03405600,"lon":-90.08263900,"rng_nm":25,"alt_fmsl":914,"id":"DAF","desc":"NECEDAH NDB"},
{"type":"NDB","hdg_t":107.1,"dist_nm":33.9,"freq":395,"lat":43.87380556,"lon":-88.55761111,"rng_nm":50,"alt_fmsl":0,"id":"OS","desc":"POBER NDB"},
{"type":"VOR","hdg_t":214.1,"dist_nm":35.6,"freq":117,"lat":43.55083333,"lon":-89.76361111,"rng_nm":130,"alt_fmsl":1022,"id":"DLL","desc":"DELLS VORTAC"},
{"type":"NDB","hdg_t":114.4,"dist_nm":39.2,"freq":248,"lat":43.76954400,"lon":-88.48462800,"rng_nm":25,"alt_fmsl":0,"id":"FLD","desc":"FOND DU LAC NDB"},
{"type":"NDB","hdg_t":74.8,"dist_nm":40.5,"freq":407,"lat":44.21588889,"lon":-88.39894444,"rng_nm":50,"alt_fmsl":0,"id":"AQ","desc":"KOOKY NDB"},
{"type":"NDB","hdg_t":338.9,"dist_nm":40.7,"freq":351,"lat":44.67652778,"lon":-89.64794444,"rng_nm":50,"alt_fmsl":0,"id":"PH","desc":"BAYYE NDB"},
{"type":"SDME","hdg_t":262,"dist_nm":41.7,"freq":110.4,"lat":43.94288300,"lon":-90.25901900,"rng_nm":40,"alt_fmsl":961,"id":"VOK","desc":"VOLK TACAN"},
{"type":"NDB","hdg_t":35.3,"dist_nm":42.4,"freq":209,"lat":44.61880556,"lon":-88.73319444,"rng_nm":50,"alt_fmsl":0,"id":"CLI","desc":"CLINTONVILLE NDB"},
{"type":"NDB","hdg_t":144.3,"dist_nm":45.2,"freq":344,"lat":43.42900000,"lon":-88.70216667,"rng_nm":50,"alt_fmsl":0,"id":"UNU","desc":"JUNEAU NDB"},
{"type":"NDB","hdg_t":340,"dist_nm":46.8,"freq":377,"lat":44.77688300,"lon":-89.67887200,"rng_nm":25,"alt_fmsl":1264,"id":"HWS","desc":"CENTRAL WISCONSIN NDB"},
{"type":"NDB","hdg_t":334.3,"dist_nm":47.8,"freq":275,"lat":44.76036111,"lon":-89.78919444,"rng_nm":50,"alt_fmsl":0,"id":"CW","desc":"DANCI NDB"},
{"type":"NDB","hdg_t":311.1,"dist_nm":48.1,"freq":266,"lat":44.56872222,"lon":-90.15094444,"rng_nm":50,"alt_fmsl":0,"id":"DU","desc":"CALIN NDB"},
{"type":"VOR","hdg_t":346,"dist_nm":49.7,"freq":111.6,"lat":44.84677778,"lon":-89.58658333,"rng_nm":40,"alt_fmsl":1205,"id":"AUW","desc":"WAUSAU VORTAC"},
{"type":"NDB","hdg_t":242.8,"dist_nm":50.3,"freq":251,"lat":43.65516667,"lon":-90.33308333,"rng_nm":50,"alt_fmsl":0,"id":"HBW","desc":"KICKAPOO NDB"},
{"type":"NDB","hdg_t":62.2,"dist_nm":51.7,"freq":356,"lat":44.44047222,"lon":-88.23963889,"rng_nm":50,"alt_fmsl":0,"id":"GR","desc":"FAMIS NDB"},
{"type":"NDB","hdg_t":313.6,"dist_nm":52.3,"freq":391,"lat":44.64108333,"lon":-90.18913889,"rng_nm":50,"alt_fmsl":0,"id":"MFI","desc":"MARSHFIELD NDB"},
{"type":"VOR","hdg_t":181.5,"dist_nm":53.8,"freq":108.6,"lat":43.14483333,"lon":-89.33969444,"rng_nm":40,"alt_fmsl":857,"id":"MSN","desc":"MADISON VORTAC"},
{"type":"NDB","hdg_t":345.6,"dist_nm":54.8,"freq":243,"lat":44.92780556,"lon":-89.62511111,"rng_nm":50,"alt_fmsl":0,"id":"FZK","desc":"WAUSAU NDB"},
{"type":"NDB","hdg_t":66.7,"dist_nm":54.9,"freq":332,"lat":44.39852778,"lon":-88.13286111,"rng_nm":50,"alt_fmsl":0,"id":"SG","desc":"DEPRE NDB"},
{"type":"VOR","hdg_t":56.9,"dist_nm":56.8,"freq":115.5,"lat":44.55516667,"lon":-88.19486111,"rng_nm":130,"alt_fmsl":767,"id":"GRB","desc":"GREEN BAY VORTAC"},
{"type":"NDB","hdg_t":136.1,"dist_nm":57.5,"freq":200,"lat":43.34763889,"lon":-88.39522222,"rng_nm":50,"alt_fmsl":0,"id":"HXF","desc":"HARTFORD NDB"},
{"type":"VOR","hdg_t":219,"dist_nm":57.5,"freq":112.8,"lat":43.29436111,"lon":-90.13313889,"rng_nm":40,"alt_fmsl":1184,"id":"LNR","desc":"LONE ROCK VOR-DME"},
{"type":"NDB","hdg_t":153.9,"dist_nm":57.9,"freq":371,"lat":43.17366667,"lon":-88.72527778,"rng_nm":50,"alt_fmsl":0,"id":"RYV","desc":"ROCK RIVER NDB"},
{"type":"NDB","hdg_t":264.2,"dist_nm":58.2,"freq":412,"lat":43.93783333,"lon":-90.64186111,"rng_nm":50,"alt_fmsl":0,"id":"CMY","desc":"MC COY NDB"},
{"type":"NDB","hdg_t":181.7,"dist_nm":58.8,"freq":400,"lat":43.06275000,"lon":-89.34588889,"rng_nm":50,"alt_fmsl":0,"id":"MS","desc":"MONAH NDB"},
{"type":"NDB","hdg_t":301,"dist_nm":60.5,"freq":368,"lat":44.55711111,"lon":-90.51527778,"rng_nm":50,"alt_fmsl":0,"id":"VIQ","desc":"NEILLSVILLE NDB"},
{"type":"VOR","hdg_t":125.5,"dist_nm":63.4,"freq":109.8,"lat":43.42197222,"lon":-88.12519444,"rng_nm":25,"alt_fmsl":0,"id":"BJB","desc":"WEST BEND VOR"},
{"type":"VOR","hdg_t":104,"dist_nm":65.2,"freq":110,"lat":43.76877778,"lon":-87.84875000,"rng_nm":40,"alt_fmsl":744,"id":"FAH","desc":"FALLS VOR-DME"},
{"type":"NDB","hdg_t":99.4,"dist_nm":67.3,"freq":338,"lat":43.84850000,"lon":-87.77447800,"rng_nm":25,"alt_fmsl":693,"id":"HE","desc":"SHEBB NDB"},
{"type":"NDB","hdg_t":6.9,"dist_nm":67.4,"freq":347,"lat":45.15830556,"lon":-89.11333333,"rng_nm":50,"alt_fmsl":0,"id":"AIG","desc":"ANTIGO NDB"},
{"type":"NDB","hdg_t":281.3,"dist_nm":67.8,"freq":362,"lat":44.25450000,"lon":-90.84877778,"rng_nm":50,"alt_fmsl":0,"id":"BCK","desc":"BLACK RIVER FALLS NDB"},
{"type":"NDB","hdg_t":81.7,"dist_nm":69.9,"freq":362,"lat":44.19963889,"lon":-87.70227778,"rng_nm":50,"alt_fmsl":0,"id":"MT","desc":"MAWOC NDB"},
{"type":"VOR","hdg_t":85.2,"dist_nm":70.4,"freq":111,"lat":44.12850000,"lon":-87.67991667,"rng_nm":25,"alt_fmsl":650,"id":"MTW","desc":"MANITOWOC VOR-DME"},
{"type":"VOR","hdg_t":140.9,"dist_nm":71.1,"freq":116.4,"lat":43.11686111,"lon":-88.28433333,"rng_nm":130,"alt_fmsl":1080,"id":"BAE","desc":"BADGER VORTAC"},
{"type":"NDB","hdg_t":346.2,"dist_nm":71.4,"freq":257,"lat":45.19861111,"lon":-89.70425000,"rng_nm":50,"alt_fmsl":0,"id":"RRL","desc":"MERRILL NDB"},
{"type":"NDB","hdg_t":326.3,"dist_nm":76.9,"freq":335,"lat":45.10536111,"lon":-90.30869444,"rng_nm":50,"alt_fmsl":0,"id":"MDZ","desc":"MEDFORD NDB"},
{"type":"NDB","hdg_t":49.6,"dist_nm":77.9,"freq":388,"lat":44.87586111,"lon":-87.91238889,"rng_nm":50,"alt_fmsl":0,"id":"OCQ","desc":"OCONTO NDB"},
{"type":"VOR","hdg_t":134.9,"dist_nm":78.6,"freq":112.5,"lat":43.10977778,"lon":-88.03727778,"rng_nm":40,"alt_fmsl":737,"id":"LJT","desc":"TIMMERMAN VOR-DME"},
{"type":"NDB","hdg_t":210.4,"dist_nm":80.1,"freq":365,"lat":42.88805556,"lon":-90.22650000,"rng_nm":50,"alt_fmsl":0,"id":"MRJ","desc":"MINERAL POINT NDB"},
{"type":"NDB","hdg_t":269,"dist_nm":84.6,"freq":272,"lat":44.00397222,"lon":-91.26066667,"rng_nm":50,"alt_fmsl":0,"id":"LS","desc":"MINDI NDB"},
{"type":"VOR","hdg_t":263.9,"dist_nm":85.1,"freq":108.4,"lat":43.87611111,"lon":-91.25600000,"rng_nm":25,"alt_fmsl":650,"id":"LSE","desc":"LA CROSSE VOR-DME"},
{"type":"NDB","hdg_t":132.9,"dist_nm":85.8,"freq":260,"lat":43.06002778,"lon":-87.87675000,"rng_nm":50,"alt_fmsl":0,"id":"BL","desc":"YANKS NDB"},
{"type":"NDB","hdg_t":172.2,"dist_nm":86.4,"freq":375,"lat":42.61511111,"lon":-89.04127778,"rng_nm":50,"alt_fmsl":0,"id":"JVL","desc":"JANESVILLE NDB"},
{"type":"NDB","hdg_t":158.6,"dist_nm":86.4,"freq":404,"lat":42.69883333,"lon":-88.59316667,"rng_nm":50,"alt_fmsl":0,"id":"LVV","desc":"LAKE LAWN NDB"},
{"type":"NDB","hdg_t":140.4,"dist_nm":87.6,"freq":242,"lat":42.90905556,"lon":-88.04097222,"rng_nm":50,"alt_fmsl":0,"id":"GM","desc":"TEELS NDB"},
{"type":"VOR","hdg_t":174.3,"dist_nm":89.5,"freq":114.3,"lat":42.55800000,"lon":-89.10525000,"rng_nm":40,"alt_fmsl":931,"id":"JVL","desc":"JANESVILLE VOR-DME"},
{"type":"NDB","hdg_t":61.1,"dist_nm":90.5,"freq":224,"lat":44.75594444,"lon":-87.44922222,"rng_nm":50,"alt_fmsl":0,"id":"II","desc":"FICHY NDB"},
{"type":"NDB","hdg_t":47.9,"dist_nm":92.2,"freq":239,"lat":45.06158333,"lon":-87.69602778,"rng_nm":50,"alt_fmsl":0,"id":"TN","desc":"TRIBE NDB"},
{"type":"VOR","hdg_t":151.2,"dist_nm":92.3,"freq":114.5,"lat":42.68933333,"lon":-88.30177778,"rng_nm":25,"alt_fmsl":772,"id":"BUU","desc":"BURBUN VOR-DME"},
{"type":"NDB","hdg_t":58.8,"dist_nm":93.9,"freq":414,"lat":44.83688889,"lon":-87.42247222,"rng_nm":50,"alt_fmsl":0,"id":"SUE","desc":"STURGEON BAY NDB"},
{"type":"VOR","hdg_t":265.9,"dist_nm":93.9,"freq":117.9,"lat":43.91233333,"lon":-91.46752778,"rng_nm":130,"alt_fmsl":1282,"id":"ODI","desc":"NODINE VORTAC"},
{"type":"NDB","hdg_t":139.3,"dist_nm":94.4,"freq":410,"lat":42.83961111,"lon":-87.91300000,"rng_nm":50,"alt_fmsl":0,"id":"MK","desc":"CAPPY NDB"},
{"type":"VOR","hdg_t":356.1,"dist_nm":95.6,"freq":109.2,"lat":45.63377778,"lon":-89.45777778,"rng_nm":40,"alt_fmsl":1599,"id":"RHI","desc":"RHINELANDER VORTAC"},
{"type":"NDB","hdg_t":352.1,"dist_nm":96,"freq":272,"lat":45.62811111,"lon":-89.61886111,"rng_nm":50,"alt_fmsl":0,"id":"RH","desc":"ARSHA NDB"},
{"type":"VOR","hdg_t":45.5,"dist_nm":98.5,"freq":109.6,"lat":45.18016667,"lon":-87.64716667,"rng_nm":40,"alt_fmsl":650,"id":"MNM","desc":"MENOMINEE VOR-DME"},
{"type":"NDB","hdg_t":254.6,"dist_nm":98.7,"freq":209,"lat":43.58691400,"lon":-91.49041800,"rng_nm":25,"alt_fmsl":1130,"id":"CHU","desc":"CALEDONIA NDB"},
{"type":"NDB","hdg_t":270.5,"dist_nm":99.3,"freq":264,"lat":44.03479435,"lon":-91.60121996,"rng_nm":15,"alt_fmsl":656,"id":"ON","desc":"BOLLN LOM"}
]
}
