{"success":true,"source":"xp2csv.pl","last_updated":"2013/11/08 14:53:21 UTC"
,"icao":"YACS","name":"Acacia Downs","lat":-31.42677103,"lon":141.90468609,"rwys":1,"ils":0,"index":5263011,"path":"e140s40/e141s32"
,"runways":[
{"len_m":1370,"wid_m":49.99,"hdg":159,"surf":"Dirt","rwy1":"14","lat1":-31.42100005,"lon1":141.90211219,"rwy2":"32","lat2":-31.43254200,"lon2":141.90726000}
]
,"navaids":[
{"type":"NDB","hdg_t":213.3,"dist_nm":40.5,"freq":332,"lat":-31.99194400,"lon":141.46833300,"rng_nm":85,"alt_fmsl":958,"id":"BHI","desc":"BROKEN HILL NDB"},
{"type":"VOR","hdg_t":212.2,"dist_nm":40.6,"freq":114.2,"lat":-32.00055600,"lon":141.47972200,"rng_nm":130,"alt_fmsl":968,"id":"BHI","desc":"BROKEN HILL VOR-DME"},
{"type":"NDB","hdg_t":3.8,"dist_nm":118.8,"freq":200,"lat":-29.44635300,"lon":142.05813100,"rng_nm":50,"alt_fmsl":0,"id":"TIB","desc":"TIBOOBURRA NDB"},
{"type":"VOR","hdg_t":176.9,"dist_nm":167.9,"freq":113.7,"lat":-34.22666700,"lon":142.08583300,"rng_nm":50,"alt_fmsl":230,"id":"MIA","desc":"MILDURA VOR-DME"},
{"type":"NDB","hdg_t":177.1,"dist_nm":169.1,"freq":272,"lat":-34.24777800,"lon":142.07388900,"rng_nm":85,"alt_fmsl":0,"id":"MIA","desc":"MILDURA NDB"},
{"type":"NDB","hdg_t":200.2,"dist_nm":176.8,"freq":200,"lat":-34.19222200,"lon":140.67583300,"rng_nm":35,"alt_fmsl":115,"id":"REN","desc":"RENMARK NDB"},
{"type":"NDB","hdg_t":284.6,"dist_nm":185.2,"freq":287,"lat":-30.59861100,"lon":138.44222200,"rng_nm":85,"alt_fmsl":0,"id":"LEC","desc":"LEIGH CREEK NDB"},
{"type":"VOR","hdg_t":284.6,"dist_nm":185.9,"freq":117.8,"lat":-30.59638900,"lon":138.42888900,"rng_nm":130,"alt_fmsl":856,"id":"LEC","desc":"LEIGH CREEK VOR"},
{"type":"NDB","hdg_t":92.9,"dist_nm":199.8,"freq":395,"lat":-31.54000000,"lon":145.79861100,"rng_nm":45,"alt_fmsl":0,"id":"CBA","desc":"COBAR NDB"},
{"type":"NDB","hdg_t":335.4,"dist_nm":217.8,"freq":227,"lat":-28.10444400,"lon":140.19916700,"rng_nm":75,"alt_fmsl":135,"id":"OOM","desc":"MOOMBA NDB-DME"}
]
}
