{"success":true,"source":"xp2csv.pl","last_updated":"2013/11/08 14:53:21 UTC"
,"icao":"YARI","name":"Arizona Hs","lat":-19.52641648,"lon":141.35440485,"rwys":1,"ils":0,"index":5263770,"path":"e140s20/e141s20"
,"runways":[
{"len_m":1223,"wid_m":49.99,"hdg":189,"surf":"Dirt","rwy1":"1","lat1":-19.52096196,"lon1":141.35534770,"rwy2":"19","lat2":-19.53187100,"lon2":141.35346200}
]
,"navaids":[
{"type":"NDB","hdg_t":163,"dist_nm":71.1,"freq":206,"lat":-20.66500000,"lon":141.72416700,"rng_nm":40,"alt_fmsl":404,"id":"JLC","desc":"JULIA CREEK NDB"},
{"type":"NDB","hdg_t":215.1,"dist_nm":83.4,"freq":264,"lat":-20.66555600,"lon":140.50111100,"rng_nm":75,"alt_fmsl":616,"id":"CCY","desc":"CLONCURRY NDB"},
{"type":"NDB","hdg_t":351.6,"dist_nm":110.5,"freq":311,"lat":-17.69583300,"lon":141.07305600,"rng_nm":85,"alt_fmsl":73,"id":"NTN","desc":"NORMANTON NDB"},
{"type":"NDB","hdg_t":125.5,"dist_nm":121.3,"freq":215,"lat":-20.69777800,"lon":143.11000000,"rng_nm":40,"alt_fmsl":676,"id":"RMD","desc":"RICHMOND NDB"},
{"type":"VOR","hdg_t":236.8,"dist_nm":125.5,"freq":117.5,"lat":-20.66472200,"lon":139.48583300,"rng_nm":130,"alt_fmsl":1142,"id":"MA","desc":"MOUNT ISA VOR-DME"},
{"type":"NDB","hdg_t":236.6,"dist_nm":125.8,"freq":338,"lat":-20.67527800,"lon":139.48666700,"rng_nm":80,"alt_fmsl":1185,"id":"MA","desc":"MOUNT ISA NDB"},
{"type":"NDB","hdg_t":59.8,"dist_nm":144.9,"freq":401,"lat":-18.29444400,"lon":143.54916700,"rng_nm":30,"alt_fmsl":0,"id":"GTN","desc":"GEORGETOWN NDB"},
{"type":"NDB","hdg_t":315.3,"dist_nm":148.4,"freq":236,"lat":-17.75111100,"lon":139.53166700,"rng_nm":70,"alt_fmsl":21,"id":"BKT","desc":"BURKETOWN NDB"},
{"type":"NDB","hdg_t":286.6,"dist_nm":157.5,"freq":293,"lat":-18.75388900,"lon":138.70305600,"rng_nm":20,"alt_fmsl":0,"id":"CNY","desc":"CENTURY MINE NDB"},
{"type":"NDB","hdg_t":210.2,"dist_nm":158.4,"freq":323,"lat":-21.80972200,"lon":139.92416700,"rng_nm":20,"alt_fmsl":0,"id":"TMO","desc":"THE MONUMENT NDB"}
]
}
