{"success":true,"source":"xp2csv.pl","last_updated":"2013/11/08 14:53:21 UTC"
,"icao":"YBAR","name":"Barcaldine","lat":-23.56312332,"lon":145.30311304,"rwys":2,"ils":0,"index":5329049,"path":"e140s30/e145s24"
,"runways":[
{"len_m":1702,"wid_m":29.87,"hdg":16,"surf":"Asphalt","rwy1":"01","lat1":-23.57278564,"lon1":145.29989454,"rwy2":"19","lat2":-23.55803136,"lon2":145.30457106},
{"len_m":487,"wid_m":28.96,"hdg":139,"surf":"Asphalt","rwy1":"14","lat1":-23.55917664,"lon1":145.30242868,"rwy2":"32","lat2":-23.56249965,"lon2":145.30555789}
]
,"radios":[
{"type":"CTAF","freq":119.6,"desc":"ACTIVATE LIGHTS ONLY MULT"},
{"type":"CTAF","freq":126.7,"desc":"BARCALDINE MULT"},
{"type":"CTAF","freq":122.1,"desc":"BRISBANE CENTRE MULT"}
]
,"navaids":[
{"type":"NDB","hdg_t":315.7,"dist_nm":0.3,"freq":332,"lat":-23.55833300,"lon":145.29805600,"rng_nm":40,"alt_fmsl":878,"id":"BAR","desc":"BARCALDINE NDB"},
{"type":"NDB","hdg_t":171.9,"dist_nm":52.1,"freq":416,"lat":-24.42611100,"lon":145.43583300,"rng_nm":40,"alt_fmsl":928,"id":"BCK","desc":"BLACKALL NDB"},
{"type":"NDB","hdg_t":277.9,"dist_nm":56.5,"freq":353,"lat":-23.42833300,"lon":144.28916700,"rng_nm":85,"alt_fmsl":627,"id":"LRE","desc":"LONGREACH NDB"},
{"type":"VOR","hdg_t":278.1,"dist_nm":56.9,"freq":117.9,"lat":-23.42444400,"lon":144.28222200,"rng_nm":130,"alt_fmsl":627,"id":"LRE","desc":"LONGREACH VOR"},
{"type":"NDB","hdg_t":70.2,"dist_nm":136.7,"freq":209,"lat":-22.77305600,"lon":147.62500000,"rng_nm":35,"alt_fmsl":908,"id":"CMT","desc":"CLERMONT NDB"},
{"type":"NDB","hdg_t":299.8,"dist_nm":142.2,"freq":386,"lat":-22.36527800,"lon":143.08388900,"rng_nm":65,"alt_fmsl":638,"id":"WTN","desc":"WINTON NDB"},
{"type":"NDB","hdg_t":90.6,"dist_nm":158,"freq":324,"lat":-23.56750000,"lon":148.17111100,"rng_nm":60,"alt_fmsl":624,"id":"EML","desc":"EMERALD NDB"},
{"type":"NDB","hdg_t":339.7,"dist_nm":174.5,"freq":371,"lat":-20.82055600,"lon":144.22916700,"rng_nm":70,"alt_fmsl":1043,"id":"HUG","desc":"HUGHENDEN NDB"},
{"type":"VOR","hdg_t":339.6,"dist_nm":175,"freq":112.4,"lat":-20.81416700,"lon":144.22305600,"rng_nm":130,"alt_fmsl":1043,"id":"HUG","desc":"HUGHENDEN VOR"},
{"type":"NDB","hdg_t":60.2,"dist_nm":177.9,"freq":218,"lat":-22.06250000,"lon":148.07527800,"rng_nm":60,"alt_fmsl":770,"id":"MRB","desc":"MORANBAH NDB"}
]
}
