{"success":true,"source":"xp2csv.pl","last_updated":"2013/11/08 14:53:21 UTC"
,"icao":"YBIE","name":"Bedourie","lat":-24.34610015,"lon":139.46015202,"rwys":1,"ils":0,"index":5230697,"path":"e130s30/e139s25"
,"runways":[
{"len_m":1498,"wid_m":29.87,"hdg":145,"surf":"Asphalt","rwy1":"14","lat1":-24.34049430,"lon1":139.45601704,"rwy2":"32","lat2":-24.35170600,"lon2":139.46428700}
]
,"radios":[
{"type":"CTAF","freq":126.7,"desc":"CTAF"}
]
,"navaids":[
{"type":"NDB","hdg_t":16.1,"dist_nm":89,"freq":398,"lat":-22.91472200,"lon":139.90694400,"rng_nm":75,"alt_fmsl":542,"id":"BOU","desc":"BOULIA NDB"},
{"type":"NDB","hdg_t":183.5,"dist_nm":92.9,"freq":413,"lat":-25.89638900,"lon":139.35333300,"rng_nm":40,"alt_fmsl":150,"id":"BDV","desc":"BIRDSVILLE NDB"},
{"type":"NDB","hdg_t":9.6,"dist_nm":153.8,"freq":323,"lat":-21.80972200,"lon":139.92416700,"rng_nm":20,"alt_fmsl":0,"id":"TMO","desc":"THE MONUMENT NDB"},
{"type":"NDB","hdg_t":110.6,"dist_nm":186,"freq":407,"lat":-25.41083300,"lon":142.66333300,"rng_nm":40,"alt_fmsl":452,"id":"WDH","desc":"WINDORAH NDB"},
{"type":"NDB","hdg_t":293.9,"dist_nm":200.8,"freq":203,"lat":-22.94916700,"lon":136.14500000,"rng_nm":40,"alt_fmsl":0,"id":"JVS","desc":"JERVOIS NDB"},
{"type":"NDB","hdg_t":0.3,"dist_nm":219.4,"freq":338,"lat":-20.67527800,"lon":139.48666700,"rng_nm":80,"alt_fmsl":1185,"id":"MA","desc":"MOUNT ISA NDB"},
{"type":"VOR","hdg_t":0.3,"dist_nm":220.1,"freq":117.5,"lat":-20.66472200,"lon":139.48583300,"rng_nm":130,"alt_fmsl":1142,"id":"MA","desc":"MOUNT ISA VOR-DME"},
{"type":"NDB","hdg_t":14.9,"dist_nm":227.5,"freq":264,"lat":-20.66555600,"lon":140.50111100,"rng_nm":75,"alt_fmsl":616,"id":"CCY","desc":"CLONCURRY NDB"},
{"type":"SDME","hdg_t":170,"dist_nm":228.3,"freq":112,"lat":-28.10416700,"lon":140.19972200,"rng_nm":75,"alt_fmsl":135,"id":"OOM","desc":"MOOMBA NDB-DME"},
{"type":"NDB","hdg_t":170.1,"dist_nm":228.3,"freq":227,"lat":-28.10444400,"lon":140.19916700,"rng_nm":75,"alt_fmsl":135,"id":"OOM","desc":"MOOMBA NDB-DME"}
]
}
