{"success":true,"source":"xp2csv.pl","last_updated":"2013/11/08 14:53:21 UTC"
,"icao":"YBIN","name":"Biggendon","lat":-25.5217615,"lon":152.04573606,"rwys":1,"ils":0,"index":5443608,"path":"e150s30/e152s26"
,"runways":[
{"len_m":965,"wid_m":49.99,"hdg":49,"surf":"Turf/grass","rwy1":"4","lat1":-25.52461100,"lon1":152.04210211,"rwy2":"22","lat2":-25.51891200,"lon2":152.04937000}
]
,"navaids":[
{"type":"NDB","hdg_t":257.6,"dist_nm":20.6,"freq":284,"lat":-25.59500000,"lon":151.67305600,"rng_nm":60,"alt_fmsl":0,"id":"GAY","desc":"GAYNDAH NDB"},
{"type":"NDB","hdg_t":89.9,"dist_nm":36,"freq":248,"lat":-25.51972200,"lon":152.71000000,"rng_nm":40,"alt_fmsl":38,"id":"MYB","desc":"MARYBOROUGH NDB"},
{"type":"NDB","hdg_t":21.8,"dist_nm":40.2,"freq":266,"lat":-24.89666700,"lon":152.32055600,"rng_nm":60,"alt_fmsl":107,"id":"BUD","desc":"BUNDABERG NDB"},
{"type":"NDB","hdg_t":189.7,"dist_nm":64.1,"freq":209,"lat":-26.57861100,"lon":151.84444400,"rng_nm":40,"alt_fmsl":1492,"id":"KRY","desc":"KINGAROY NDB"},
{"type":"VOR","hdg_t":152.3,"dist_nm":82.7,"freq":115.9,"lat":-26.74472200,"lon":152.76138900,"rng_nm":130,"alt_fmsl":0,"id":"MLY","desc":"MALENY VOR"},
{"type":"NDB","hdg_t":138.7,"dist_nm":85.4,"freq":380,"lat":-26.59222200,"lon":153.09166700,"rng_nm":50,"alt_fmsl":15,"id":"SU","desc":"Sunshine Coast NDB"},
{"type":"VOR","hdg_t":138.9,"dist_nm":85.6,"freq":114.2,"lat":-26.59766666,"lon":153.09033333,"rng_nm":130,"alt_fmsl":25,"id":"SU","desc":"SUNSHINE COAST VOR-DME"},
{"type":"NDB","hdg_t":161.3,"dist_nm":88.2,"freq":392,"lat":-26.91888900,"lon":152.57277800,"rng_nm":35,"alt_fmsl":0,"id":"KCY","desc":"KILCOY NDB"},
{"type":"NDB","hdg_t":307,"dist_nm":101.2,"freq":446,"lat":-24.49416700,"lon":150.57000000,"rng_nm":50,"alt_fmsl":709,"id":"TNG","desc":"THANGOOL NDB-DME"},
{"type":"SDME","hdg_t":307,"dist_nm":101.2,"freq":113.8,"lat":-24.49416700,"lon":150.57000000,"rng_nm":50,"alt_fmsl":709,"id":"TNG","desc":"THANGOOL NDB-DME"}
]
}
