{"success":true,"source":"xp2csv.pl","last_updated":"2013/11/08 14:53:21 UTC"
,"icao":"YBLW","name":"Bulliwallah","lat":-21.61885003,"lon":146.64231716,"rwys":1,"ils":0,"index":5345565,"path":"e140s30/e146s22"
,"runways":[
{"len_m":1124,"wid_m":39.01,"hdg":121,"surf":"Dirt","rwy1":"12","lat1":-21.61616246,"lon1":146.63770782,"rwy2":"30","lat2":-21.62153759,"lon2":146.64692649}
]
,"navaids":[
{"type":"NDB","hdg_t":108.6,"dist_nm":84.2,"freq":218,"lat":-22.06250000,"lon":148.07527800,"rng_nm":60,"alt_fmsl":770,"id":"MRB","desc":"MORANBAH NDB"},
{"type":"NDB","hdg_t":141.7,"dist_nm":88,"freq":209,"lat":-22.77305600,"lon":147.62500000,"rng_nm":35,"alt_fmsl":908,"id":"CMT","desc":"CLERMONT NDB"},
{"type":"VOR","hdg_t":46.4,"dist_nm":88.7,"freq":112.2,"lat":-20.59138900,"lon":147.78500000,"rng_nm":130,"alt_fmsl":0,"id":"CSV","desc":"COLLINSVILLE VOR"},
{"type":"NDB","hdg_t":121.8,"dist_nm":111.7,"freq":227,"lat":-22.59750000,"lon":148.35111100,"rng_nm":80,"alt_fmsl":0,"id":"DYS","desc":"DYSART NDB"},
{"type":"VOR","hdg_t":58.3,"dist_nm":126.4,"freq":113.7,"lat":-20.49666700,"lon":148.55277800,"rng_nm":130,"alt_fmsl":92,"id":"PN","desc":"PROSERPINE VOR-DME"},
{"type":"NDB","hdg_t":58.2,"dist_nm":127,"freq":245,"lat":-20.48916700,"lon":148.55944400,"rng_nm":40,"alt_fmsl":82,"id":"PN","desc":"PROSERPINE NDB"},
{"type":"NDB","hdg_t":43,"dist_nm":130.1,"freq":292,"lat":-20.02111100,"lon":148.21527800,"rng_nm":35,"alt_fmsl":0,"id":"BWN","desc":"BOWEN NDB"},
{"type":"NDB","hdg_t":212.5,"dist_nm":137.9,"freq":332,"lat":-23.55833300,"lon":145.29805600,"rng_nm":40,"alt_fmsl":878,"id":"BAR","desc":"BARCALDINE NDB"},
{"type":"SDME","hdg_t":2.3,"dist_nm":140,"freq":113.5,"lat":-19.27833300,"lon":146.74333300,"rng_nm":25,"alt_fmsl":18,"id":"TVL","desc":"TOWNSVILLE TACAN"},
{"type":"NDB","hdg_t":2.7,"dist_nm":141.9,"freq":276,"lat":-19.24694400,"lon":146.76222200,"rng_nm":75,"alt_fmsl":18,"id":"TVL","desc":"TOWNSVILLE NDB"}
]
}
