{"success":true,"source":"xp2csv.pl","last_updated":"2013/11/08 14:53:21 UTC"
,"icao":"YBNP","name":"Barronup","lat":-17.33914182,"lon":145.56676871,"rwys":1,"ils":0,"index":5329452,"path":"e140s20/e145s18"
,"runways":[
{"len_m":402,"wid_m":10.06,"hdg":130,"surf":"Dirt","rwy1":"13","lat1":-17.33796779,"lon1":145.56532547,"rwy2":"31","lat2":-17.34031586,"lon2":145.56821194}
]
,"navaids":[
{"type":"VOR","hdg_t":340.5,"dist_nm":26.7,"freq":112.3,"lat":-16.91666700,"lon":145.41166700,"rng_nm":130,"alt_fmsl":0,"id":"BIB","desc":"BIBOOHRA VOR"},
{"type":"NDB","hdg_t":117.4,"dist_nm":28.9,"freq":212,"lat":-17.56166700,"lon":146.01527800,"rng_nm":25,"alt_fmsl":46,"id":"IFL","desc":"INNISFAIL NDB"},
{"type":"VOR","hdg_t":19.2,"dist_nm":30.9,"freq":113,"lat":-16.85000000,"lon":145.74388889,"rng_nm":130,"alt_fmsl":42,"id":"CS","desc":"CAIRNS VOR-DME"},
{"type":"NDB","hdg_t":18.2,"dist_nm":30.9,"freq":364,"lat":-16.84694400,"lon":145.73555600,"rng_nm":50,"alt_fmsl":0,"id":"CS","desc":"CAIRNS NDB"},
{"type":"NDB","hdg_t":350.5,"dist_nm":112.4,"freq":260,"lat":-15.48166700,"lon":145.24833300,"rng_nm":40,"alt_fmsl":26,"id":"CKN","desc":"COOKTOWN NDB"},
{"type":"NDB","hdg_t":243.3,"dist_nm":128.8,"freq":401,"lat":-18.29444400,"lon":143.54916700,"rng_nm":30,"alt_fmsl":0,"id":"GTN","desc":"GEORGETOWN NDB"},
{"type":"VOR","hdg_t":149.3,"dist_nm":132.6,"freq":114.1,"lat":-19.24500000,"lon":146.75833333,"rng_nm":130,"alt_fmsl":35,"id":"TL","desc":"TOWNSVILLE VOR-DME"},
{"type":"NDB","hdg_t":149.2,"dist_nm":132.8,"freq":276,"lat":-19.24694400,"lon":146.76222200,"rng_nm":75,"alt_fmsl":18,"id":"TVL","desc":"TOWNSVILLE NDB"},
{"type":"SDME","hdg_t":150,"dist_nm":133.9,"freq":113.5,"lat":-19.27833300,"lon":146.74333300,"rng_nm":25,"alt_fmsl":18,"id":"TVL","desc":"TOWNSVILLE TACAN"},
{"type":"NDB","hdg_t":137.1,"dist_nm":220.1,"freq":292,"lat":-20.02111100,"lon":148.21527800,"rng_nm":35,"alt_fmsl":0,"id":"BWN","desc":"BOWEN NDB"}
]
}
