{"success":true,"source":"xp2csv.pl","last_updated":"2013/11/08 14:53:21 UTC"
,"icao":"YBSG","name":"Scherger (raaf)","lat":-12.62310864,"lon":142.0883156,"rwys":1,"ils":0,"index":5280600,"path":"e140s20/e142s13"
,"runways":[
{"len_m":3073,"wid_m":45.11,"hdg":121,"surf":"Asphalt","rwy1":"12","lat1":-12.61584126,"lon1":142.07626054,"rwy2":"30","lat2":-12.63037602,"lon2":142.10037067}
]
,"radios":[
{"type":"CTAF","freq":126.7,"desc":"CTAF"}
]
,"navaids":[
{"type":"VOR","hdg_t":252.7,"dist_nm":10.1,"freq":112.8,"lat":-12.67361111,"lon":141.92250000,"rng_nm":130,"alt_fmsl":81,"id":"WP","desc":"WEIPA VOR-DME"},
{"type":"NDB","hdg_t":258.2,"dist_nm":11.3,"freq":377,"lat":-12.66166700,"lon":141.89888900,"rng_nm":40,"alt_fmsl":0,"id":"WP","desc":"WEIPA NDB"},
{"type":"NDB","hdg_t":98,"dist_nm":71.9,"freq":392,"lat":-12.78833300,"lon":143.30333300,"rng_nm":30,"alt_fmsl":77,"id":"LHR","desc":"LOCKHART RIVER NDB"},
{"type":"NDB","hdg_t":138.7,"dist_nm":91,"freq":404,"lat":-13.76611111,"lon":143.11722222,"rng_nm":50,"alt_fmsl":0,"id":"COE","desc":"COEN NDB"},
{"type":"NDB","hdg_t":5.6,"dist_nm":121.9,"freq":356,"lat":-10.59194444,"lon":142.29250000,"rng_nm":50,"alt_fmsl":0,"id":"HID","desc":"HORN ISLAND NDB"},
{"type":"NDB","hdg_t":186.5,"dist_nm":171.8,"freq":242,"lat":-15.47972200,"lon":141.74833300,"rng_nm":60,"alt_fmsl":35,"id":"KOW","desc":"KOWANYAMA NDB"},
{"type":"NDB","hdg_t":17.5,"dist_nm":222,"freq":290,"lat":-9.07501700,"lon":143.21301700,"rng_nm":80,"alt_fmsl":170,"id":"DAU","desc":"DARU NDB-DME"},
{"type":"SDME","hdg_t":17.4,"dist_nm":222.1,"freq":114.5,"lat":-9.07383300,"lon":143.21233300,"rng_nm":80,"alt_fmsl":170,"id":"DAU","desc":"DARU NDB-DME"},
{"type":"NDB","hdg_t":133.1,"dist_nm":251.2,"freq":260,"lat":-15.48166700,"lon":145.24833300,"rng_nm":40,"alt_fmsl":26,"id":"CKN","desc":"COOKTOWN NDB"},
{"type":"VOR","hdg_t":337.8,"dist_nm":264,"freq":115.8,"lat":-8.52260800,"lon":140.41711100,"rng_nm":130,"alt_fmsl":10,"id":"MKE","desc":"MERAUKE VOR-DME"}
]
}
