{"success":true,"source":"xp2csv.pl","last_updated":"2013/11/08 14:53:21 UTC"
,"icao":"YBWG","name":"Bronzewing","lat":-27.36609025,"lon":121.03459073,"rwys":1,"ils":0,"index":4935592,"path":"e120s30/e121s28"
,"runways":[
{"len_m":2040,"wid_m":29.87,"hdg":88,"surf":"Transparent","rwy1":"09","lat1":-27.36637786,"lon1":121.02428550,"rwy2":"27","lat2":-27.36580264,"lon2":121.04489597}
]
,"radios":[
{"type":"ATIS","freq":118.9,"desc":"MELBOURNE CNTR FSS"},
{"type":"CTAF","freq":126.5,"desc":"MTAF UNIC"}
]
,"navaids":[
{"type":"NDB","hdg_t":280.2,"dist_nm":26.3,"freq":332,"lat":-27.28694400,"lon":120.54861100,"rng_nm":50,"alt_fmsl":0,"id":"MNE","desc":"MOUNT KEITH NDB"},
{"type":"NDB","hdg_t":212,"dist_nm":33.5,"freq":230,"lat":-27.84055600,"lon":120.70027800,"rng_nm":70,"alt_fmsl":0,"id":"LST","desc":"LEINSTER NDB"},
{"type":"NDB","hdg_t":315.2,"dist_nm":62.2,"freq":383,"lat":-26.62472200,"lon":120.22000000,"rng_nm":80,"alt_fmsl":1649,"id":"WLU","desc":"WILUNA NDB"},
{"type":"NDB","hdg_t":170.5,"dist_nm":91.7,"freq":377,"lat":-28.87888900,"lon":121.32027800,"rng_nm":70,"alt_fmsl":0,"id":"LEO","desc":"LEONORA NDB"},
{"type":"NDB","hdg_t":135.6,"dist_nm":104.8,"freq":407,"lat":-28.61222200,"lon":122.42250000,"rng_nm":45,"alt_fmsl":0,"id":"LTN","desc":"LAVERTON NDB"},
{"type":"NDB","hdg_t":287.9,"dist_nm":141,"freq":251,"lat":-26.61555600,"lon":118.54027800,"rng_nm":80,"alt_fmsl":0,"id":"MEK","desc":"MEEKATHARRA NDB"},
{"type":"VOR","hdg_t":288.1,"dist_nm":141.5,"freq":112.9,"lat":-26.60694400,"lon":118.53250000,"rng_nm":50,"alt_fmsl":1723,"id":"MEK","desc":"MEEKATHARRA VOR-DME"},
{"type":"NDB","hdg_t":255.4,"dist_nm":174.9,"freq":395,"lat":-28.06416700,"lon":117.84361100,"rng_nm":85,"alt_fmsl":0,"id":"MOG","desc":"MOUNT MAGNET NDB"},
{"type":"NDB","hdg_t":174.1,"dist_nm":205.2,"freq":287,"lat":-30.77777800,"lon":121.43944400,"rng_nm":80,"alt_fmsl":0,"id":"KG","desc":"KALGOORLIE NDB"},
{"type":"VOR","hdg_t":173.9,"dist_nm":206,"freq":114.1,"lat":-30.78972200,"lon":121.45277800,"rng_nm":50,"alt_fmsl":1203,"id":"KG","desc":"KALGOORLIE VOR-DME"}
]
}
