{"success":true,"source":"xp2csv.pl","last_updated":"2013/11/08 14:53:21 UTC"
,"icao":"YBYA","name":"Bryah","lat":-25.515677215,"lon":118.80235941,"rwys":4,"ils":0,"index":4886555,"path":"e110s30/e118s26"
,"runways":[
{"len_m":736,"wid_m":96.93,"hdg":108,"surf":"Dirt","rwy1":"10","lat1":-25.51400056,"lon1":118.80209059,"rwy2":"28","lat2":-25.51614064,"lon2":118.80902402},
{"len_m":1332,"wid_m":89.92,"hdg":51,"surf":"Dirt","rwy1":"5","lat1":-25.52204600,"lon1":118.80052243,"rwy2":"23","lat2":-25.51457896,"lon2":118.81090968},
{"len_m":1293,"wid_m":86.87,"hdg":352,"surf":"Dirt","rwy1":"17","lat1":-25.52509642,"lon1":118.80359107,"rwy2":"35","lat2":-25.51352734,"lon2":118.80183563},
{"len_m":336,"wid_m":28.96,"hdg":205,"surf":"Dirt","rwy1":"2","lat1":-25.50864952,"lon1":118.79618393,"rwy2":"20","lat2":-25.51137828,"lon2":118.79471791}
]
,"navaids":[
{"type":"VOR","hdg_t":192.5,"dist_nm":66.8,"freq":112.9,"lat":-26.60694400,"lon":118.53250000,"rng_nm":50,"alt_fmsl":1723,"id":"MEK","desc":"MEEKATHARRA VOR-DME"},
{"type":"NDB","hdg_t":192,"dist_nm":67.3,"freq":251,"lat":-26.61555600,"lon":118.54027800,"rng_nm":80,"alt_fmsl":0,"id":"MEK","desc":"MEEKATHARRA NDB"},
{"type":"NDB","hdg_t":131.2,"dist_nm":101.3,"freq":383,"lat":-26.62472200,"lon":120.22000000,"rng_nm":80,"alt_fmsl":1649,"id":"WLU","desc":"WILUNA NDB"},
{"type":"VOR","hdg_t":23.8,"dist_nm":136.7,"freq":117.2,"lat":-23.42083300,"lon":119.80305600,"rng_nm":50,"alt_fmsl":1734,"id":"NWN","desc":"NEWMAN VOR-DME"},
{"type":"NDB","hdg_t":23.6,"dist_nm":136.7,"freq":233,"lat":-23.41805600,"lon":119.79722200,"rng_nm":85,"alt_fmsl":0,"id":"NWN","desc":"NEWMAN NDB"},
{"type":"NDB","hdg_t":138.7,"dist_nm":141.6,"freq":332,"lat":-27.28694400,"lon":120.54861100,"rng_nm":50,"alt_fmsl":0,"id":"MNE","desc":"MOUNT KEITH NDB"},
{"type":"NDB","hdg_t":337.2,"dist_nm":151.3,"freq":278,"lat":-23.17888900,"lon":117.74250000,"rng_nm":70,"alt_fmsl":0,"id":"PBO","desc":"PARABURDOO NDB"},
{"type":"VOR","hdg_t":337.1,"dist_nm":151.8,"freq":116.9,"lat":-23.17250000,"lon":117.73694400,"rng_nm":50,"alt_fmsl":1416,"id":"PBO","desc":"PARABURDOO VOR-DME"},
{"type":"NDB","hdg_t":198.4,"dist_nm":160.9,"freq":395,"lat":-28.06416700,"lon":117.84361100,"rng_nm":85,"alt_fmsl":0,"id":"MOG","desc":"MOUNT MAGNET NDB"},
{"type":"NDB","hdg_t":144.1,"dist_nm":172.4,"freq":230,"lat":-27.84055600,"lon":120.70027800,"rng_nm":70,"alt_fmsl":0,"id":"LST","desc":"LEINSTER NDB"}
]
}
