{"success":true,"source":"xp2csv.pl","last_updated":"2013/11/08 14:53:21 UTC"
,"icao":"YCCR","name":"Coomalie Creek","lat":-13.00872092,"lon":131.12994359,"rwys":1,"ils":0,"index":5100345,"path":"e130s20/e131s14"
,"runways":[
{"len_m":1078,"wid_m":20.12,"hdg":170,"surf":"Asphalt","rwy1":"17","lat1":-13.00390814,"lon1":131.12915241,"rwy2":"35","lat2":-13.01353369,"lon2":131.13073478}
]
,"radios":[
{"type":"CTAF","freq":126.7,"desc":"COOMALIE CREEK CTAF"},
{"type":"TWR","freq":118.15,"desc":"BRISBANE CENTRE CNTR"}
]
,"navaids":[
{"type":"NDB","hdg_t":351,"dist_nm":32.6,"freq":257,"lat":-12.46888900,"lon":131.04305600,"rng_nm":30,"alt_fmsl":0,"id":"HWS","desc":"HOWARD SPRINGS NDB"},
{"type":"NDB","hdg_t":343.9,"dist_nm":35.8,"freq":344,"lat":-12.43138900,"lon":130.96138900,"rng_nm":85,"alt_fmsl":105,"id":"DN","desc":"DARWIN NDB"},
{"type":"VOR","hdg_t":339.4,"dist_nm":37.3,"freq":112.6,"lat":-12.42333333,"lon":130.90638889,"rng_nm":130,"alt_fmsl":127,"id":"DN","desc":"DARWIN VOR-DME"},
{"type":"SDME","hdg_t":337.8,"dist_nm":38.3,"freq":113.7,"lat":-12.41373300,"lon":130.88325800,"rng_nm":25,"alt_fmsl":105,"id":"DAR","desc":"DARWIN TACAN"},
{"type":"NDB","hdg_t":335.9,"dist_nm":39.3,"freq":308,"lat":-12.40666700,"lon":130.85694400,"rng_nm":50,"alt_fmsl":0,"id":"BGT","desc":"BAGOT NDB"},
{"type":"NDB","hdg_t":141.5,"dist_nm":115.1,"freq":356,"lat":-14.51583300,"lon":132.36027800,"rng_nm":85,"alt_fmsl":0,"id":"TN","desc":"TINDAL NDB"},
{"type":"VOR","hdg_t":141.3,"dist_nm":115.7,"freq":112.3,"lat":-14.51916700,"lon":132.37111100,"rng_nm":130,"alt_fmsl":443,"id":"TN","desc":"TINDAL VOR"},
{"type":"SDME","hdg_t":141.4,"dist_nm":116,"freq":112.3,"lat":-14.52472200,"lon":132.37166700,"rng_nm":25,"alt_fmsl":443,"id":"TDL","desc":"TINDAL TACAN"},
{"type":"NDB","hdg_t":73,"dist_nm":190.5,"freq":401,"lat":-12.06277800,"lon":134.23166700,"rng_nm":35,"alt_fmsl":123,"id":"MGD","desc":"MANINGRIDA NDB"},
{"type":"NDB","hdg_t":182,"dist_nm":203,"freq":377,"lat":-16.40472200,"lon":131.00666700,"rng_nm":85,"alt_fmsl":291,"id":"VRD","desc":"VICTORIA RIVER DOWNS NDB"}
]
}
