{"success":true,"source":"xp2csv.pl","last_updated":"2013/11/08 14:53:21 UTC"
,"icao":"YCFN","name":"Clifton","lat":-27.92751488,"lon":151.84784779,"rwys":1,"ils":0,"index":5427075,"path":"e150s30/e151s28"
,"runways":[
{"len_m":805,"wid_m":29.87,"hdg":73,"surf":"Dirt","rwy1":"06","lat1":-27.92853576,"lon1":151.84391958,"rwy2":"24","lat2":-27.92649400,"lon2":151.85177600}
]
,"radios":[
{"type":"CTAF","freq":126.7,"desc":"CTAF"}
]
,"navaids":[
{"type":"NDB","hdg_t":8.4,"dist_nm":23.3,"freq":386,"lat":-27.54194400,"lon":151.91194400,"rng_nm":25,"alt_fmsl":2086,"id":"TWB","desc":"TOOWOOMBA NDB"},
{"type":"NDB","hdg_t":348.9,"dist_nm":30.8,"freq":254,"lat":-27.42138900,"lon":151.73722200,"rng_nm":65,"alt_fmsl":1335,"id":"OK","desc":"OAKEY NDB"},
{"type":"VOR","hdg_t":349.4,"dist_nm":32.1,"freq":112.9,"lat":-27.40000000,"lon":151.73750000,"rng_nm":130,"alt_fmsl":1335,"id":"OK","desc":"OAKEY VOR-DME"},
{"type":"SDME","hdg_t":69.8,"dist_nm":49.2,"freq":114.7,"lat":-27.64166700,"lon":152.71611100,"rng_nm":25,"alt_fmsl":91,"id":"AMB","desc":"AMBERLEY TACAN"},
{"type":"NDB","hdg_t":70.5,"dist_nm":49.4,"freq":359,"lat":-27.64888900,"lon":152.72361100,"rng_nm":85,"alt_fmsl":91,"id":"AMB","desc":"AMBERLEY NDB"},
{"type":"NDB","hdg_t":92.6,"dist_nm":56,"freq":374,"lat":-27.96611100,"lon":152.90083300,"rng_nm":50,"alt_fmsl":0,"id":"BML","desc":"BROMELTON NDB"},
{"type":"VOR","hdg_t":99.8,"dist_nm":58,"freq":117.8,"lat":-28.08981700,"lon":152.92478900,"rng_nm":130,"alt_fmsl":0,"id":"LAV","desc":"LARAVALE VOR"},
{"type":"NDB","hdg_t":71.3,"dist_nm":65.7,"freq":419,"lat":-27.57027800,"lon":153.01611100,"rng_nm":30,"alt_fmsl":63,"id":"AF","desc":"ARCHERFIELD NDB"},
{"type":"NDB","hdg_t":32.8,"dist_nm":71.6,"freq":392,"lat":-26.91888900,"lon":152.57277800,"rng_nm":35,"alt_fmsl":0,"id":"KCY","desc":"KILCOY NDB"},
{"type":"NDB","hdg_t":65.2,"dist_nm":73.5,"freq":302,"lat":-27.40638900,"lon":153.09805600,"rng_nm":70,"alt_fmsl":0,"id":"BN","desc":"BRISBANE NDB"},
{"type":"VOR","hdg_t":64.2,"dist_nm":76.5,"freq":113.2,"lat":-27.36583333,"lon":153.13916667,"rng_nm":130,"alt_fmsl":28,"id":"BN","desc":"BRISBANE VOR-DME"},
{"type":"VOR","hdg_t":83.1,"dist_nm":79.6,"freq":116.5,"lat":-27.76138900,"lon":153.33444400,"rng_nm":130,"alt_fmsl":0,"id":"JCW","desc":"JACOBS WELL VOR"},
{"type":"NDB","hdg_t":359.8,"dist_nm":80.7,"freq":209,"lat":-26.57861100,"lon":151.84444400,"rng_nm":40,"alt_fmsl":1492,"id":"KRY","desc":"KINGAROY NDB"},
{"type":"VOR","hdg_t":34.8,"dist_nm":85.9,"freq":115.9,"lat":-26.74472200,"lon":152.76138900,"rng_nm":130,"alt_fmsl":0,"id":"MLY","desc":"MALENY VOR"},
{"type":"NDB","hdg_t":245.8,"dist_nm":88.1,"freq":398,"lat":-28.52250000,"lon":150.32638900,"rng_nm":50,"alt_fmsl":0,"id":"GDI","desc":"GOONDIWINDI NDB"},
{"type":"NDB","hdg_t":99.5,"dist_nm":88.9,"freq":278,"lat":-28.16485800,"lon":153.50111400,"rng_nm":60,"alt_fmsl":17,"id":"CG","desc":"COOLANGATTA NDB"},
{"type":"VOR","hdg_t":99.7,"dist_nm":89,"freq":112.3,"lat":-28.16888889,"lon":153.50388889,"rng_nm":130,"alt_fmsl":33,"id":"CG","desc":"COOLANGATTA VOR-DME"},
{"type":"NDB","hdg_t":126,"dist_nm":91.8,"freq":239,"lat":-28.82305600,"lon":153.25750000,"rng_nm":25,"alt_fmsl":0,"id":"LIS","desc":"LISMORE NDB"}
]
}
