{"success":true,"source":"xp2csv.pl","last_updated":"2013/11/08 14:53:21 UTC"
,"icao":"YCHP","name":"Yanchep","lat":-31.551351,"lon":115.656129,"rwys":1,"ils":0,"index":4837018,"path":"e110s40/e115s32"
,"runways":[
{"len_m":762,"wid_m":70.10,"hdg":73,"surf":"Dirt","rwy1":"07","lat1":-31.55234200,"lon1":115.65228400,"rwy2":"25","lat2":-31.55036000,"lon2":115.65997400}
]
,"navaids":[
{"type":"NDB","hdg_t":63,"dist_nm":12,"freq":372,"lat":-31.45972200,"lon":115.86555600,"rng_nm":75,"alt_fmsl":0,"id":"GIG","desc":"GINGIN NDB"},
{"type":"NDB","hdg_t":108.4,"dist_nm":19.5,"freq":340,"lat":-31.65444400,"lon":116.01888900,"rng_nm":85,"alt_fmsl":144,"id":"PEA","desc":"PEARCE NDB"},
{"type":"SDME","hdg_t":111.7,"dist_nm":19.9,"freq":112.8,"lat":-31.67388900,"lon":116.01722200,"rng_nm":25,"alt_fmsl":144,"id":"PEA","desc":"PEARCE TACAN"},
{"type":"NDB","hdg_t":139.7,"dist_nm":25.6,"freq":329,"lat":-31.87833300,"lon":115.98138900,"rng_nm":40,"alt_fmsl":0,"id":"CVM","desc":"CAVERSHAM NDB"},
{"type":"NDB","hdg_t":147,"dist_nm":27.5,"freq":272,"lat":-31.93750000,"lon":115.95027800,"rng_nm":60,"alt_fmsl":67,"id":"PH","desc":"PERTH NDB"},
{"type":"NDB","hdg_t":191.8,"dist_nm":27.7,"freq":317,"lat":-32.00416700,"lon":115.54472200,"rng_nm":30,"alt_fmsl":0,"id":"RTI","desc":"ROTTNEST ISLAND NDB"},
{"type":"VOR","hdg_t":146.7,"dist_nm":28.2,"freq":113.7,"lat":-31.94500000,"lon":115.95916700,"rng_nm":130,"alt_fmsl":87,"id":"PH","desc":"PERTH VOR-DME"},
{"type":"NDB","hdg_t":128.1,"dist_nm":29.9,"freq":352,"lat":-31.85944400,"lon":116.11750000,"rng_nm":50,"alt_fmsl":0,"id":"PRL","desc":"PARKERVILLE NDB"},
{"type":"NDB","hdg_t":160.4,"dist_nm":35,"freq":281,"lat":-32.10277800,"lon":115.88666700,"rng_nm":30,"alt_fmsl":0,"id":"JT","desc":"JANDAKOT NDB"},
{"type":"NDB","hdg_t":99.9,"dist_nm":47,"freq":200,"lat":-31.68416700,"lon":116.56166700,"rng_nm":40,"alt_fmsl":0,"id":"CKL","desc":"CLACKLINE NDB"},
{"type":"VOR","hdg_t":337,"dist_nm":80.3,"freq":112,"lat":-30.31333300,"lon":115.05388900,"rng_nm":50,"alt_fmsl":0,"id":"JNB","desc":"JURIEN BAY VOR"},
{"type":"NDB","hdg_t":93.5,"dist_nm":80.4,"freq":293,"lat":-31.62500000,"lon":117.22388900,"rng_nm":85,"alt_fmsl":699,"id":"CUN","desc":"CUNDERDIN NDB"},
{"type":"NDB","hdg_t":45.2,"dist_nm":81.1,"freq":389,"lat":-30.59164200,"lon":116.76946900,"rng_nm":70,"alt_fmsl":0,"id":"BIU","desc":"BALLIDU NDB"},
{"type":"VOR","hdg_t":45.5,"dist_nm":81.4,"freq":114.3,"lat":-30.59404700,"lon":116.77976400,"rng_nm":130,"alt_fmsl":0,"id":"BIU","desc":"BALLIDU VOR"},
{"type":"NDB","hdg_t":129.6,"dist_nm":93.4,"freq":233,"lat":-32.53916700,"lon":117.07444400,"rng_nm":110,"alt_fmsl":0,"id":"PIY","desc":"PINGELLY NDB"}
]
}
