{"success":true,"source":"xp2csv.pl","last_updated":"2013/11/08 14:53:21 UTC"
,"icao":"YCNO","name":"Conargo","lat":-35.32065439,"lon":145.10880703,"rwys":1,"ils":0,"index":5328296,"path":"e140s40/e145s36"
,"runways":[
{"len_m":1202,"wid_m":46.02,"hdg":61,"surf":"Dirt","rwy1":"6","lat1":-35.32323260,"lon1":145.10298906,"rwy2":"24","lat2":-35.31807618,"lon2":145.11462501}
]
,"navaids":[
{"type":"NDB","hdg_t":209,"dist_nm":15.8,"freq":392,"lat":-35.55202800,"lon":144.95179400,"rng_nm":55,"alt_fmsl":305,"id":"DLQ","desc":"DENILIQUIN NDB"},
{"type":"NDB","hdg_t":343.6,"dist_nm":48.5,"freq":215,"lat":-34.54222200,"lon":144.83277800,"rng_nm":40,"alt_fmsl":0,"id":"HAY","desc":"HAY NDB"},
{"type":"NDB","hdg_t":198.2,"dist_nm":53.3,"freq":341,"lat":-36.16538100,"lon":144.76459200,"rng_nm":30,"alt_fmsl":0,"id":"ECH","desc":"ECHUCA NDB"},
{"type":"NDB","hdg_t":168.1,"dist_nm":67.8,"freq":212,"lat":-36.42836100,"lon":145.39602200,"rng_nm":30,"alt_fmsl":0,"id":"SHT","desc":"SHEPPARTON NDB"},
{"type":"NDB","hdg_t":123.5,"dist_nm":72.9,"freq":380,"lat":-35.98746700,"lon":146.35719700,"rng_nm":75,"alt_fmsl":464,"id":"COR","desc":"COROWA NDB"},
{"type":"NDB","hdg_t":266.8,"dist_nm":77,"freq":407,"lat":-35.38050000,"lon":143.54030600,"rng_nm":45,"alt_fmsl":0,"id":"SWH","desc":"SWAN HILL NDB"},
{"type":"NDB","hdg_t":37.1,"dist_nm":78.1,"freq":305,"lat":-34.27722200,"lon":146.05666700,"rng_nm":90,"alt_fmsl":0,"id":"GTH","desc":"GRIFFITH NDB"},
{"type":"NDB","hdg_t":62.4,"dist_nm":78.3,"freq":329,"lat":-34.70707200,"lon":146.51287800,"rng_nm":80,"alt_fmsl":0,"id":"NAR","desc":"NARRANDERA NDB"},
{"type":"VOR","hdg_t":62.3,"dist_nm":78.6,"freq":116.3,"lat":-34.70194400,"lon":146.51694400,"rng_nm":50,"alt_fmsl":473,"id":"NAR","desc":"NARRANDERA VOR-DME"},
{"type":"VOR","hdg_t":36.6,"dist_nm":79.6,"freq":114.8,"lat":-34.24944400,"lon":146.06527800,"rng_nm":50,"alt_fmsl":446,"id":"GTH","desc":"GRIFFITH VOR-DME"},
{"type":"NDB","hdg_t":138.8,"dist_nm":88,"freq":203,"lat":-36.42151400,"lon":146.30453100,"rng_nm":30,"alt_fmsl":0,"id":"WGT","desc":"WANGARATTA NDB"},
{"type":"NDB","hdg_t":203.8,"dist_nm":93.3,"freq":245,"lat":-36.74277800,"lon":144.32611100,"rng_nm":60,"alt_fmsl":700,"id":"BDG","desc":"BENDIGO NDB"},
{"type":"VOR","hdg_t":177.4,"dist_nm":93.8,"freq":113.2,"lat":-36.88611100,"lon":145.19416700,"rng_nm":130,"alt_fmsl":467,"id":"MNG","desc":"MANGALORE VOR"},
{"type":"NDB","hdg_t":177.8,"dist_nm":94.5,"freq":254,"lat":-36.89722200,"lon":145.18111100,"rng_nm":65,"alt_fmsl":0,"id":"MNG","desc":"MANGALORE NDB"},
{"type":"VOR","hdg_t":282.3,"dist_nm":94.6,"freq":112.8,"lat":-34.96893600,"lon":143.23265000,"rng_nm":130,"alt_fmsl":0,"id":"NYA","desc":"NATYA VOR"},
{"type":"NDB","hdg_t":161.7,"dist_nm":96.7,"freq":413,"lat":-36.85276100,"lon":145.73848100,"rng_nm":35,"alt_fmsl":0,"id":"SBG","desc":"STRATHBOGIE NDB"}
]
}
