{"success":true,"source":"xp2csv.pl","last_updated":"2013/11/08 14:53:21 UTC"
,"icao":"YCPH","name":"Copper Hills","lat":-27.94968252,"lon":134.33615275,"rwys":2,"ils":0,"index":5148545,"path":"e130s30/e134s28"
,"runways":[
{"len_m":1205,"wid_m":27.13,"hdg":88,"surf":"Dirt","rwy1":"8","lat1":-27.94961576,"lon1":134.32948086,"rwy2":"26","lat2":-27.94939621,"lon2":134.34173320},
{"len_m":331,"wid_m":21.03,"hdg":160,"surf":"Dirt","rwy1":"16","lat1":-27.94844573,"lon1":134.33614411,"rwy2":"34","lat2":-27.95127236,"lon2":134.33725284}
]
,"navaids":[
{"type":"NDB","hdg_t":68.3,"dist_nm":63.4,"freq":308,"lat":-27.55472200,"lon":135.44166700,"rng_nm":85,"alt_fmsl":0,"id":"OOD","desc":"OODNADATTA NDB"},
{"type":"NDB","hdg_t":162.5,"dist_nm":67.9,"freq":341,"lat":-29.03194400,"lon":134.72388900,"rng_nm":50,"alt_fmsl":0,"id":"CBP","desc":"COOBER PEDY NDB"},
{"type":"NDB","hdg_t":135.9,"dist_nm":211,"freq":206,"lat":-30.45353300,"lon":137.16659700,"rng_nm":45,"alt_fmsl":0,"id":"AMK","desc":"ANDAMOOKA NDB"},
{"type":"NDB","hdg_t":146.5,"dist_nm":230.7,"freq":248,"lat":-31.14333300,"lon":136.80833300,"rng_nm":85,"alt_fmsl":548,"id":"WR","desc":"WOOMERA NDB"},
{"type":"NDB","hdg_t":356,"dist_nm":244.3,"freq":372,"lat":-23.87423300,"lon":134.02983600,"rng_nm":35,"alt_fmsl":0,"id":"WAY","desc":"WALLABY NDB"},
{"type":"NDB","hdg_t":311.8,"dist_nm":245.5,"freq":233,"lat":-25.17277800,"lon":130.97472200,"rng_nm":100,"alt_fmsl":1636,"id":"AYE","desc":"AYERS ROCK NDB-DME"},
{"type":"SDME","hdg_t":311.8,"dist_nm":245.5,"freq":117.1,"lat":-25.17138900,"lon":130.97472200,"rng_nm":100,"alt_fmsl":1636,"id":"AYE","desc":"AYERS ROCK NDB-DME"},
{"type":"VOR","hdg_t":354.2,"dist_nm":249.8,"freq":115.9,"lat":-23.79288900,"lon":133.87820300,"rng_nm":50,"alt_fmsl":1857,"id":"AS","desc":"ALICE SPRINGS VOR-DME"},
{"type":"NDB","hdg_t":354.1,"dist_nm":250.8,"freq":335,"lat":-23.77793900,"lon":133.87352500,"rng_nm":90,"alt_fmsl":0,"id":"AS","desc":"ALICE SPRINGS NDB"},
{"type":"NDB","hdg_t":187,"dist_nm":252,"freq":293,"lat":-32.12666700,"lon":133.72694400,"rng_nm":85,"alt_fmsl":0,"id":"CDU","desc":"CEDUNA NDB"}
]
}
