{"success":true,"source":"xp2csv.pl","last_updated":"2013/11/08 14:53:21 UTC"
,"icao":"YCSP","name":"Curtin Springs","lat":-25.33352786,"lon":131.75904416,"rwys":1,"ils":0,"index":5099563,"path":"e130s30/e131s26"
,"runways":[
{"len_m":1293,"wid_m":61.87,"hdg":122,"surf":"Dirt","rwy1":"12","lat1":-25.33037064,"lon1":131.75364222,"rwy2":"30","lat2":-25.33668508,"lon2":131.76444609}
]
,"radios":[
{"type":"CTAF","freq":126.7,"desc":"CTAF"}
]
,"navaids":[
{"type":"NDB","hdg_t":282.5,"dist_nm":43.7,"freq":233,"lat":-25.17277800,"lon":130.97472200,"rng_nm":100,"alt_fmsl":1636,"id":"AYE","desc":"AYERS ROCK NDB-DME"},
{"type":"SDME","hdg_t":282.6,"dist_nm":43.7,"freq":117.1,"lat":-25.17138900,"lon":130.97472200,"rng_nm":100,"alt_fmsl":1636,"id":"AYE","desc":"AYERS ROCK NDB-DME"},
{"type":"NDB","hdg_t":48.8,"dist_nm":145.2,"freq":362,"lat":-23.72222200,"lon":133.74555600,"rng_nm":35,"alt_fmsl":0,"id":"SPG","desc":"SIMPSONS GAP NDB"},
{"type":"NDB","hdg_t":49.8,"dist_nm":146.1,"freq":352,"lat":-23.74500000,"lon":133.78888900,"rng_nm":35,"alt_fmsl":0,"id":"TPB","desc":"TEMPLE BAR NDB"},
{"type":"VOR","hdg_t":51.9,"dist_nm":148,"freq":115.9,"lat":-23.79288900,"lon":133.87820300,"rng_nm":50,"alt_fmsl":1857,"id":"AS","desc":"ALICE SPRINGS VOR-DME"},
{"type":"NDB","hdg_t":51.6,"dist_nm":148.4,"freq":335,"lat":-23.77793900,"lon":133.87352500,"rng_nm":90,"alt_fmsl":0,"id":"AS","desc":"ALICE SPRINGS NDB"},
{"type":"NDB","hdg_t":55.3,"dist_nm":151.7,"freq":372,"lat":-23.87423300,"lon":134.02983600,"rng_nm":35,"alt_fmsl":0,"id":"WAY","desc":"WALLABY NDB"},
{"type":"NDB","hdg_t":274.6,"dist_nm":189.2,"freq":317,"lat":-25.03861100,"lon":128.29611100,"rng_nm":80,"alt_fmsl":0,"id":"GLS","desc":"GILES NDB"},
{"type":"NDB","hdg_t":124.6,"dist_nm":238.7,"freq":308,"lat":-27.55472200,"lon":135.44166700,"rng_nm":85,"alt_fmsl":0,"id":"OOD","desc":"OODNADATTA NDB"},
{"type":"NDB","hdg_t":145,"dist_nm":272.2,"freq":341,"lat":-29.03194400,"lon":134.72388900,"rng_nm":50,"alt_fmsl":0,"id":"CBP","desc":"COOBER PEDY NDB"}
]
}
