{"success":true,"source":"xp2csv.pl","last_updated":"2013/11/08 14:53:21 UTC"
,"icao":"YCVK","name":"Cravens Peaks","lat":-23.31672637,"lon":138.58755409,"rwys":1,"ils":0,"index":5214378,"path":"e130s30/e138s24"
,"runways":[
{"len_m":1347,"wid_m":49.99,"hdg":156,"surf":"Dirt","rwy1":"15","lat1":-23.31116874,"lon1":138.58487918,"rwy2":"33","lat2":-23.32228400,"lon2":138.59022900}
]
,"navaids":[
{"type":"NDB","hdg_t":72,"dist_nm":76.8,"freq":398,"lat":-22.91472200,"lon":139.90694400,"rng_nm":75,"alt_fmsl":542,"id":"BOU","desc":"BOULIA NDB"},
{"type":"NDB","hdg_t":39.7,"dist_nm":116.7,"freq":323,"lat":-21.80972200,"lon":139.92416700,"rng_nm":20,"alt_fmsl":0,"id":"TMO","desc":"THE MONUMENT NDB"},
{"type":"NDB","hdg_t":278.7,"dist_nm":136.8,"freq":203,"lat":-22.94916700,"lon":136.14500000,"rng_nm":40,"alt_fmsl":0,"id":"JVS","desc":"JERVOIS NDB"},
{"type":"NDB","hdg_t":164.9,"dist_nm":159.8,"freq":413,"lat":-25.89638900,"lon":139.35333300,"rng_nm":40,"alt_fmsl":150,"id":"BDV","desc":"BIRDSVILLE NDB"},
{"type":"NDB","hdg_t":17.7,"dist_nm":165.6,"freq":338,"lat":-20.67527800,"lon":139.48666700,"rng_nm":80,"alt_fmsl":1185,"id":"MA","desc":"MOUNT ISA NDB"},
{"type":"VOR","hdg_t":17.7,"dist_nm":166.2,"freq":117.5,"lat":-20.66472200,"lon":139.48583300,"rng_nm":130,"alt_fmsl":1142,"id":"MA","desc":"MOUNT ISA VOR-DME"},
{"type":"NDB","hdg_t":34.3,"dist_nm":191,"freq":264,"lat":-20.66555600,"lon":140.50111100,"rng_nm":75,"alt_fmsl":616,"id":"CCY","desc":"CLONCURRY NDB"},
{"type":"NDB","hdg_t":352.5,"dist_nm":205,"freq":254,"lat":-19.91472200,"lon":138.11694400,"rng_nm":65,"alt_fmsl":792,"id":"CMW","desc":"CAMOOWEAL NDB"},
{"type":"NDB","hdg_t":48.4,"dist_nm":236,"freq":206,"lat":-20.66500000,"lon":141.72416700,"rng_nm":40,"alt_fmsl":404,"id":"JLC","desc":"JULIA CREEK NDB"},
{"type":"NDB","hdg_t":261.5,"dist_nm":253.3,"freq":372,"lat":-23.87423300,"lon":134.02983600,"rng_nm":35,"alt_fmsl":0,"id":"WAY","desc":"WALLABY NDB"}
]
}
