{"success":true,"source":"xp2csv.pl","last_updated":"2013/11/08 14:53:21 UTC"
,"icao":"YDAR","name":"Darlington","lat":-42.57201131,"lon":148.07072635,"rwys":1,"ils":0,"index":5376984,"path":"e140s50/e148s43"
,"runways":[
{"len_m":556,"wid_m":38.10,"hdg":59,"surf":"Turf/grass","rwy1":"05","lat1":-42.57326506,"lon1":148.06779084,"rwy2":"23","lat2":-42.57075756,"lon2":148.07366185}
]
,"navaids":[
{"type":"VOR","hdg_t":235.3,"dist_nm":29.1,"freq":112.7,"lat":-42.84713889,"lon":147.52666667,"rng_nm":130,"alt_fmsl":48,"id":"HB","desc":"HOBART VOR-DME"},
{"type":"NDB","hdg_t":240.9,"dist_nm":29.8,"freq":362,"lat":-42.81230000,"lon":147.47945000,"rng_nm":45,"alt_fmsl":0,"id":"HB","desc":"HOBART NDB"},
{"type":"NDB","hdg_t":257.6,"dist_nm":34.2,"freq":374,"lat":-42.69222200,"lon":147.31388900,"rng_nm":15,"alt_fmsl":0,"id":"TTR","desc":"TEA TREE NDB"},
{"type":"NDB","hdg_t":327.8,"dist_nm":64.9,"freq":230,"lat":-41.65277800,"lon":147.30333300,"rng_nm":20,"alt_fmsl":0,"id":"NIE","desc":"NILE NDB"},
{"type":"NDB","hdg_t":327.7,"dist_nm":71.4,"freq":242,"lat":-41.56111100,"lon":147.22500000,"rng_nm":60,"alt_fmsl":0,"id":"LT","desc":"LAUNCESTON NDB"},
{"type":"VOR","hdg_t":327.8,"dist_nm":72.6,"freq":112.6,"lat":-41.54388900,"lon":147.21305600,"rng_nm":50,"alt_fmsl":562,"id":"LT","desc":"LAUNCESTON VOR-DME"},
{"type":"NDB","hdg_t":7.3,"dist_nm":74.7,"freq":392,"lat":-41.33527800,"lon":148.28166700,"rng_nm":25,"alt_fmsl":0,"id":"STH","desc":"ST. HELENS NDB"},
{"type":"NDB","hdg_t":318.1,"dist_nm":111.5,"freq":281,"lat":-41.17392500,"lon":146.42855300,"rng_nm":50,"alt_fmsl":25,"id":"DPO","desc":"DEVONPORT NDB"},
{"type":"VOR","hdg_t":318.3,"dist_nm":111.5,"freq":116.3,"lat":-41.17000000,"lon":146.43416700,"rng_nm":50,"alt_fmsl":43,"id":"DPO","desc":"DEVONPORT VOR-DME"},
{"type":"NDB","hdg_t":280.5,"dist_nm":126,"freq":257,"lat":-42.15283100,"lon":145.29484400,"rng_nm":20,"alt_fmsl":0,"id":"SRN","desc":"STRAHAN NDB"}
]
}
