{"success":true,"source":"xp2csv.pl","last_updated":"2013/11/08 14:53:21 UTC"
,"icao":"YDIX","name":"Dixie","lat":-15.11780102,"lon":143.31475896,"rwys":1,"ils":0,"index":5296826,"path":"e140s20/e143s16"
,"runways":[
{"len_m":987,"wid_m":75.90,"hdg":76,"surf":"Dirt","rwy1":"7","lat1":-15.11881236,"lon1":143.31028283,"rwy2":"25","lat2":-15.11678969,"lon2":143.31923508}
]
,"navaids":[
{"type":"NDB","hdg_t":351.8,"dist_nm":81.5,"freq":404,"lat":-13.76611111,"lon":143.11722222,"rng_nm":50,"alt_fmsl":0,"id":"COE","desc":"COEN NDB"},
{"type":"NDB","hdg_t":256.4,"dist_nm":93.3,"freq":242,"lat":-15.47972200,"lon":141.74833300,"rng_nm":60,"alt_fmsl":35,"id":"KOW","desc":"KOWANYAMA NDB"},
{"type":"NDB","hdg_t":101.2,"dist_nm":114.2,"freq":260,"lat":-15.48166700,"lon":145.24833300,"rng_nm":40,"alt_fmsl":26,"id":"CKN","desc":"COOKTOWN NDB"},
{"type":"NDB","hdg_t":359.7,"dist_nm":139.1,"freq":392,"lat":-12.78833300,"lon":143.30333300,"rng_nm":30,"alt_fmsl":77,"id":"LHR","desc":"LOCKHART RIVER NDB"},
{"type":"VOR","hdg_t":131.8,"dist_nm":161.9,"freq":112.3,"lat":-16.91666700,"lon":145.41166700,"rng_nm":130,"alt_fmsl":0,"id":"BIB","desc":"BIBOOHRA VOR"},
{"type":"VOR","hdg_t":330.7,"dist_nm":167,"freq":112.8,"lat":-12.67361111,"lon":141.92250000,"rng_nm":130,"alt_fmsl":81,"id":"WP","desc":"WEIPA VOR-DME"},
{"type":"NDB","hdg_t":330.4,"dist_nm":168.3,"freq":377,"lat":-12.66166700,"lon":141.89888900,"rng_nm":40,"alt_fmsl":0,"id":"WP","desc":"WEIPA NDB"},
{"type":"NDB","hdg_t":126.7,"dist_nm":173.9,"freq":364,"lat":-16.84694400,"lon":145.73555600,"rng_nm":50,"alt_fmsl":0,"id":"CS","desc":"CAIRNS NDB"},
{"type":"VOR","hdg_t":126.7,"dist_nm":174.4,"freq":113,"lat":-16.85000000,"lon":145.74388889,"rng_nm":130,"alt_fmsl":42,"id":"CS","desc":"CAIRNS VOR-DME"},
{"type":"NDB","hdg_t":175.9,"dist_nm":190.2,"freq":401,"lat":-18.29444400,"lon":143.54916700,"rng_nm":30,"alt_fmsl":0,"id":"GTN","desc":"GEORGETOWN NDB"}
]
}
