{"success":true,"source":"xp2csv.pl","last_updated":"2013/11/08 14:53:21 UTC"
,"icao":"YDLV","name":"Delissaville","lat":-12.55040572,"lon":130.68691749,"rwys":1,"ils":0,"index":5083997,"path":"e130s20/e130s13"
,"runways":[
{"len_m":1192,"wid_m":60.05,"hdg":126,"surf":"Turf/grass","rwy1":"12","lat1":-12.54717629,"lon1":130.68252698,"rwy2":"30","lat2":-12.55363515,"lon2":130.69130799}
]
,"radios":[
{"type":"CTAF","freq":118.15,"desc":"BRISBANE CENTRE MULT"},
{"type":"CTAF","freq":126.7,"desc":"DELISSAVILLE CTAF"}
]
,"navaids":[
{"type":"NDB","hdg_t":49.3,"dist_nm":13.1,"freq":308,"lat":-12.40666700,"lon":130.85694400,"rng_nm":50,"alt_fmsl":0,"id":"BGT","desc":"BAGOT NDB"},
{"type":"SDME","hdg_t":54.7,"dist_nm":14.1,"freq":113.7,"lat":-12.41373300,"lon":130.88325800,"rng_nm":25,"alt_fmsl":105,"id":"DAR","desc":"DARWIN TACAN"},
{"type":"VOR","hdg_t":59.5,"dist_nm":14.9,"freq":112.6,"lat":-12.42333333,"lon":130.90638889,"rng_nm":130,"alt_fmsl":127,"id":"DN","desc":"DARWIN VOR-DME"},
{"type":"NDB","hdg_t":66.2,"dist_nm":17.6,"freq":344,"lat":-12.43138900,"lon":130.96138900,"rng_nm":85,"alt_fmsl":105,"id":"DN","desc":"DARWIN NDB"},
{"type":"NDB","hdg_t":76.9,"dist_nm":21.4,"freq":257,"lat":-12.46888900,"lon":131.04305600,"rng_nm":30,"alt_fmsl":0,"id":"HWS","desc":"HOWARD SPRINGS NDB"},
{"type":"NDB","hdg_t":140.3,"dist_nm":152.8,"freq":356,"lat":-14.51583300,"lon":132.36027800,"rng_nm":85,"alt_fmsl":0,"id":"TN","desc":"TINDAL NDB"},
{"type":"VOR","hdg_t":140.2,"dist_nm":153.3,"freq":112.3,"lat":-14.51916700,"lon":132.37111100,"rng_nm":130,"alt_fmsl":443,"id":"TN","desc":"TINDAL VOR"},
{"type":"SDME","hdg_t":140.3,"dist_nm":153.6,"freq":112.3,"lat":-14.52472200,"lon":132.37166700,"rng_nm":25,"alt_fmsl":443,"id":"TDL","desc":"TINDAL TACAN"},
{"type":"NDB","hdg_t":82.4,"dist_nm":210.2,"freq":401,"lat":-12.06277800,"lon":134.23166700,"rng_nm":35,"alt_fmsl":123,"id":"MGD","desc":"MANINGRIDA NDB"},
{"type":"VOR","hdg_t":210.6,"dist_nm":224.5,"freq":116.5,"lat":-15.77555600,"lon":128.70888900,"rng_nm":130,"alt_fmsl":165,"id":"KU","desc":"KUNUNURRA VOR-DME"}
]
}
