{"success":true,"source":"xp2csv.pl","last_updated":"2013/11/08 14:53:21 UTC"
,"icao":"YDNA","name":"Maydena (forestry Commission)","lat":-42.76302285,"lon":146.56057953,"rwys":1,"ils":0,"index":5344202,"path":"e140s50/e146s43"
,"runways":[
{"len_m":716,"wid_m":57.91,"hdg":93,"surf":"Gravel","rwy1":"09","lat1":-42.76280110,"lon1":146.55621303,"rwy2":"27","lat2":-42.76324460,"lon2":146.56494604}
]
,"navaids":[
{"type":"NDB","hdg_t":82.9,"dist_nm":33.5,"freq":374,"lat":-42.69222200,"lon":147.31388900,"rng_nm":15,"alt_fmsl":0,"id":"TTR","desc":"TEA TREE NDB"},
{"type":"NDB","hdg_t":94.4,"dist_nm":40.7,"freq":362,"lat":-42.81230000,"lon":147.47945000,"rng_nm":45,"alt_fmsl":0,"id":"HB","desc":"HOBART NDB"},
{"type":"VOR","hdg_t":97,"dist_nm":42.9,"freq":112.7,"lat":-42.84713889,"lon":147.52666667,"rng_nm":130,"alt_fmsl":48,"id":"HB","desc":"HOBART VOR-DME"},
{"type":"NDB","hdg_t":302.6,"dist_nm":67,"freq":257,"lat":-42.15283100,"lon":145.29484400,"rng_nm":20,"alt_fmsl":0,"id":"SRN","desc":"STRAHAN NDB"},
{"type":"NDB","hdg_t":26.6,"dist_nm":74.3,"freq":230,"lat":-41.65277800,"lon":147.30333300,"rng_nm":20,"alt_fmsl":0,"id":"NIE","desc":"NILE NDB"},
{"type":"NDB","hdg_t":22.5,"dist_nm":77.9,"freq":242,"lat":-41.56111100,"lon":147.22500000,"rng_nm":60,"alt_fmsl":0,"id":"LT","desc":"LAUNCESTON NDB"},
{"type":"VOR","hdg_t":21.9,"dist_nm":78.7,"freq":112.6,"lat":-41.54388900,"lon":147.21305600,"rng_nm":50,"alt_fmsl":562,"id":"LT","desc":"LAUNCESTON VOR-DME"},
{"type":"NDB","hdg_t":356.4,"dist_nm":95.4,"freq":281,"lat":-41.17392500,"lon":146.42855300,"rng_nm":50,"alt_fmsl":25,"id":"DPO","desc":"DEVONPORT NDB"},
{"type":"VOR","hdg_t":356.5,"dist_nm":95.7,"freq":116.3,"lat":-41.17000000,"lon":146.43416700,"rng_nm":50,"alt_fmsl":43,"id":"DPO","desc":"DEVONPORT VOR-DME"},
{"type":"VOR","hdg_t":340.2,"dist_nm":112.1,"freq":115.8,"lat":-40.99926900,"lon":145.72628600,"rng_nm":130,"alt_fmsl":62,"id":"WYY","desc":"WYNYARD VOR"}
]
}
