{"success":true,"source":"xp2csv.pl","last_updated":"2013/11/08 14:53:21 UTC"
,"icao":"YFON","name":"Fonthill","lat":-42.3509755,"lon":147.59451695,"rwys":1,"ils":0,"index":5360618,"path":"e140s50/e147s43"
,"runways":[
{"len_m":971,"wid_m":20.12,"hdg":7,"surf":"Turf/grass","rwy1":"18","lat1":-42.35530633,"lon1":147.59371421,"rwy2":"36","lat2":-42.34664467,"lon2":147.59531968}
]
,"navaids":[
{"type":"NDB","hdg_t":211.2,"dist_nm":23.9,"freq":374,"lat":-42.69222200,"lon":147.31388900,"rng_nm":15,"alt_fmsl":0,"id":"TTR","desc":"TEA TREE NDB"},
{"type":"NDB","hdg_t":190.4,"dist_nm":28.1,"freq":362,"lat":-42.81230000,"lon":147.47945000,"rng_nm":45,"alt_fmsl":0,"id":"HB","desc":"HOBART NDB"},
{"type":"VOR","hdg_t":185.7,"dist_nm":29.9,"freq":112.7,"lat":-42.84713889,"lon":147.52666667,"rng_nm":130,"alt_fmsl":48,"id":"HB","desc":"HOBART VOR-DME"},
{"type":"NDB","hdg_t":342.6,"dist_nm":43.8,"freq":230,"lat":-41.65277800,"lon":147.30333300,"rng_nm":20,"alt_fmsl":0,"id":"NIE","desc":"NILE NDB"},
{"type":"NDB","hdg_t":340.6,"dist_nm":50.1,"freq":242,"lat":-41.56111100,"lon":147.22500000,"rng_nm":60,"alt_fmsl":0,"id":"LT","desc":"LAUNCESTON NDB"},
{"type":"VOR","hdg_t":340.4,"dist_nm":51.3,"freq":112.6,"lat":-41.54388900,"lon":147.21305600,"rng_nm":50,"alt_fmsl":562,"id":"LT","desc":"LAUNCESTON VOR-DME"},
{"type":"NDB","hdg_t":27,"dist_nm":68.2,"freq":392,"lat":-41.33527800,"lon":148.28166700,"rng_nm":25,"alt_fmsl":0,"id":"STH","desc":"ST. HELENS NDB"},
{"type":"NDB","hdg_t":323,"dist_nm":87.8,"freq":281,"lat":-41.17392500,"lon":146.42855300,"rng_nm":50,"alt_fmsl":25,"id":"DPO","desc":"DEVONPORT NDB"},
{"type":"VOR","hdg_t":323.2,"dist_nm":87.9,"freq":116.3,"lat":-41.17000000,"lon":146.43416700,"rng_nm":50,"alt_fmsl":43,"id":"DPO","desc":"DEVONPORT VOR-DME"},
{"type":"NDB","hdg_t":275.8,"dist_nm":103.1,"freq":257,"lat":-42.15283100,"lon":145.29484400,"rng_nm":20,"alt_fmsl":0,"id":"SRN","desc":"STRAHAN NDB"}
]
}
