{"success":true,"source":"xp2csv.pl","last_updated":"2013/11/08 14:53:21 UTC"
,"icao":"YFOR","name":"Fortnum","lat":-25.33796632,"lon":118.37805213,"rwys":1,"ils":0,"index":4886569,"path":"e110s30/e118s26"
,"runways":[
{"len_m":1460,"wid_m":27.13,"hdg":89,"surf":"Dirt","rwy1":"8","lat1":-25.33806664,"lon1":118.37080026,"rwy2":"26","lat2":-25.33786600,"lon2":118.38530400}
]
,"navaids":[
{"type":"VOR","hdg_t":173.7,"dist_nm":76.3,"freq":112.9,"lat":-26.60694400,"lon":118.53250000,"rng_nm":50,"alt_fmsl":1723,"id":"MEK","desc":"MEEKATHARRA VOR-DME"},
{"type":"NDB","hdg_t":173.4,"dist_nm":76.9,"freq":251,"lat":-26.61555600,"lon":118.54027800,"rng_nm":80,"alt_fmsl":0,"id":"MEK","desc":"MEEKATHARRA NDB"},
{"type":"NDB","hdg_t":128.1,"dist_nm":125.8,"freq":383,"lat":-26.62472200,"lon":120.22000000,"rng_nm":80,"alt_fmsl":1649,"id":"WLU","desc":"WILUNA NDB"},
{"type":"NDB","hdg_t":344.7,"dist_nm":133.7,"freq":278,"lat":-23.17888900,"lon":117.74250000,"rng_nm":70,"alt_fmsl":0,"id":"PBO","desc":"PARABURDOO NDB"},
{"type":"VOR","hdg_t":344.6,"dist_nm":134.1,"freq":116.9,"lat":-23.17250000,"lon":117.73694400,"rng_nm":50,"alt_fmsl":1416,"id":"PBO","desc":"PARABURDOO VOR-DME"},
{"type":"NDB","hdg_t":34.3,"dist_nm":138.6,"freq":233,"lat":-23.41805600,"lon":119.79722200,"rng_nm":85,"alt_fmsl":0,"id":"NWN","desc":"NEWMAN NDB"},
{"type":"VOR","hdg_t":34.5,"dist_nm":138.7,"freq":117.2,"lat":-23.42083300,"lon":119.80305600,"rng_nm":50,"alt_fmsl":1734,"id":"NWN","desc":"NEWMAN VOR-DME"},
{"type":"NDB","hdg_t":135.3,"dist_nm":165.1,"freq":332,"lat":-27.28694400,"lon":120.54861100,"rng_nm":50,"alt_fmsl":0,"id":"MNE","desc":"MOUNT KEITH NDB"},
{"type":"NDB","hdg_t":189.8,"dist_nm":165.6,"freq":395,"lat":-28.06416700,"lon":117.84361100,"rng_nm":85,"alt_fmsl":0,"id":"MOG","desc":"MOUNT MAGNET NDB"},
{"type":"NDB","hdg_t":140.6,"dist_nm":194.9,"freq":230,"lat":-27.84055600,"lon":120.70027800,"rng_nm":70,"alt_fmsl":0,"id":"LST","desc":"LEINSTER NDB"}
]
}
