{"success":true,"source":"xp2csv.pl","last_updated":"2013/11/08 14:53:21 UTC"
,"icao":"YFWD","name":"Fleetwood","lat":-22.28839411,"lon":145.8018593,"rwys":1,"ils":0,"index":5329131,"path":"e140s30/e145s23"
,"runways":[
{"len_m":1134,"wid_m":49.99,"hdg":50,"surf":"Dirt","rwy1":"4","lat1":-22.29167522,"lon1":145.79763460,"rwy2":"22","lat2":-22.28511300,"lon2":145.80608400}
]
,"navaids":[
{"type":"NDB","hdg_t":200,"dist_nm":80.9,"freq":332,"lat":-23.55833300,"lon":145.29805600,"rng_nm":40,"alt_fmsl":878,"id":"BAR","desc":"BARCALDINE NDB"},
{"type":"NDB","hdg_t":106.3,"dist_nm":105.3,"freq":209,"lat":-22.77305600,"lon":147.62500000,"rng_nm":35,"alt_fmsl":908,"id":"CMT","desc":"CLERMONT NDB"},
{"type":"NDB","hdg_t":230.5,"dist_nm":108,"freq":353,"lat":-23.42833300,"lon":144.28916700,"rng_nm":85,"alt_fmsl":627,"id":"LRE","desc":"LONGREACH NDB"},
{"type":"VOR","hdg_t":230.8,"dist_nm":108.1,"freq":117.9,"lat":-23.42444400,"lon":144.28222200,"rng_nm":130,"alt_fmsl":627,"id":"LRE","desc":"LONGREACH VOR"},
{"type":"NDB","hdg_t":314.6,"dist_nm":124.2,"freq":371,"lat":-20.82055600,"lon":144.22916700,"rng_nm":70,"alt_fmsl":1043,"id":"HUG","desc":"HUGHENDEN NDB"},
{"type":"VOR","hdg_t":314.6,"dist_nm":124.7,"freq":112.4,"lat":-20.81416700,"lon":144.22305600,"rng_nm":130,"alt_fmsl":1043,"id":"HUG","desc":"HUGHENDEN VOR"},
{"type":"NDB","hdg_t":84.3,"dist_nm":127.3,"freq":218,"lat":-22.06250000,"lon":148.07527800,"rng_nm":60,"alt_fmsl":770,"id":"MRB","desc":"MORANBAH NDB"},
{"type":"NDB","hdg_t":188.9,"dist_nm":129.4,"freq":416,"lat":-24.42611100,"lon":145.43583300,"rng_nm":40,"alt_fmsl":928,"id":"BCK","desc":"BLACKALL NDB"},
{"type":"NDB","hdg_t":97.9,"dist_nm":142.8,"freq":227,"lat":-22.59750000,"lon":148.35111100,"rng_nm":80,"alt_fmsl":0,"id":"DYS","desc":"DYSART NDB"},
{"type":"VOR","hdg_t":47.9,"dist_nm":150.3,"freq":112.2,"lat":-20.59138900,"lon":147.78500000,"rng_nm":130,"alt_fmsl":0,"id":"CSV","desc":"COLLINSVILLE VOR"}
]
}
