{"success":true,"source":"xp2csv.pl","last_updated":"2013/11/08 14:53:21 UTC"
,"icao":"YGBO","name":"Gabo Island","lat":-37.56589715,"lon":149.91131356,"rwys":1,"ils":0,"index":5393691,"path":"e140s40/e149s38"
,"runways":[
{"len_m":617,"wid_m":49.99,"hdg":70,"surf":"Turf/grass","rwy1":"7","lat1":-37.56680429,"lon1":149.90801112,"rwy2":"25","lat2":-37.56499000,"lon2":149.91461600}
]
,"navaids":[
{"type":"NDB","hdg_t":257.9,"dist_nm":8.8,"freq":338,"lat":-37.59664400,"lon":149.72908100,"rng_nm":40,"alt_fmsl":0,"id":"MCO","desc":"MALLACOOTA NDB"},
{"type":"VOR","hdg_t":258.7,"dist_nm":9.3,"freq":117.5,"lat":-37.59616667,"lon":149.71833333,"rng_nm":130,"alt_fmsl":133,"id":"MCO","desc":"MALLACOOTA VOR-DME"},
{"type":"SDME","hdg_t":359.1,"dist_nm":39,"freq":117.7,"lat":-36.91453100,"lon":149.89926700,"rng_nm":20,"alt_fmsl":90,"id":"MER","desc":"MERIMBULA NDB-DME"},
{"type":"NDB","hdg_t":359.1,"dist_nm":39,"freq":395,"lat":-36.91425300,"lon":149.89943300,"rng_nm":20,"alt_fmsl":90,"id":"MER","desc":"MERIMBULA NDB-DME"},
{"type":"SDME","hdg_t":327.4,"dist_nm":85.8,"freq":114,"lat":-36.35430600,"lon":148.95769400,"rng_nm":75,"alt_fmsl":3117,"id":"COM","desc":"COOMA NDB-DME"},
{"type":"NDB","hdg_t":327.4,"dist_nm":85.9,"freq":293,"lat":-36.35378600,"lon":148.95751900,"rng_nm":75,"alt_fmsl":3117,"id":"COM","desc":"COOMA NDB-DME"},
{"type":"NDB","hdg_t":6.4,"dist_nm":100.5,"freq":215,"lat":-35.89837200,"lon":150.14274200,"rng_nm":25,"alt_fmsl":0,"id":"MRY","desc":"MORUYA NDB"},
{"type":"NDB","hdg_t":259.6,"dist_nm":113.1,"freq":212,"lat":-37.88111100,"lon":147.56861100,"rng_nm":35,"alt_fmsl":0,"id":"BNS","desc":"BAIRNSDALE NDB"},
{"type":"VOR","hdg_t":281.9,"dist_nm":115.6,"freq":117.2,"lat":-37.14111100,"lon":147.55222200,"rng_nm":130,"alt_fmsl":0,"id":"LVG","desc":"MOUNT LIVINGSTONE VOR"},
{"type":"NDB","hdg_t":281.8,"dist_nm":115.8,"freq":227,"lat":-37.14472200,"lon":147.54861100,"rng_nm":40,"alt_fmsl":0,"id":"LVG","desc":"MOUNT LIVINGSTONE NDB"}
]
}
