{"success":true,"source":"xp2csv.pl","last_updated":"2013/11/08 14:53:21 UTC"
,"icao":"YGDL","name":"Gindalbie Hs","lat":-30.288214745,"lon":121.778239015,"rwys":2,"ils":0,"index":4935403,"path":"e120s40/e121s31"
,"runways":[
{"len_m":1231,"wid_m":49.99,"hdg":355,"surf":"Dirt","rwy1":"17","lat1":-30.29557771,"lon1":121.77812255,"rwy2":"35","lat2":-30.28450700,"lon2":121.77701600},
{"len_m":1001,"wid_m":49.99,"hdg":103,"surf":"Dirt","rwy1":"10","lat1":-30.28530498,"lon1":121.77385433,"rwy2":"28","lat2":-30.28746928,"lon2":121.78396316}
]
,"navaids":[
{"type":"NDB","hdg_t":210.8,"dist_nm":34.1,"freq":287,"lat":-30.77777800,"lon":121.43944400,"rng_nm":80,"alt_fmsl":0,"id":"KG","desc":"KALGOORLIE NDB"},
{"type":"VOR","hdg_t":209.2,"dist_nm":34.4,"freq":114.1,"lat":-30.78972200,"lon":121.45277800,"rng_nm":50,"alt_fmsl":1203,"id":"KG","desc":"KALGOORLIE VOR-DME"},
{"type":"NDB","hdg_t":344,"dist_nm":87.6,"freq":377,"lat":-28.87888900,"lon":121.32027800,"rng_nm":70,"alt_fmsl":0,"id":"LEO","desc":"LEONORA NDB"},
{"type":"NDB","hdg_t":18.7,"dist_nm":105.8,"freq":407,"lat":-28.61222200,"lon":122.42250000,"rng_nm":45,"alt_fmsl":0,"id":"LTN","desc":"LAVERTON NDB"},
{"type":"NDB","hdg_t":179.4,"dist_nm":114.1,"freq":347,"lat":-32.19444400,"lon":121.79916700,"rng_nm":80,"alt_fmsl":0,"id":"NSM","desc":"NORSEMAN NDB"},
{"type":"NDB","hdg_t":245,"dist_nm":137.3,"freq":221,"lat":-31.23222200,"lon":119.35583300,"rng_nm":80,"alt_fmsl":0,"id":"SCR","desc":"SOUTHERN CROSS NDB"},
{"type":"NDB","hdg_t":338.5,"dist_nm":157,"freq":230,"lat":-27.84055600,"lon":120.70027800,"rng_nm":70,"alt_fmsl":0,"id":"LST","desc":"LEINSTER NDB"},
{"type":"NDB","hdg_t":339.8,"dist_nm":190.9,"freq":332,"lat":-27.28694400,"lon":120.54861100,"rng_nm":50,"alt_fmsl":0,"id":"MNE","desc":"MOUNT KEITH NDB"},
{"type":"VOR","hdg_t":179.3,"dist_nm":203.1,"freq":114.2,"lat":-33.68055600,"lon":121.82388900,"rng_nm":130,"alt_fmsl":460,"id":"ESP","desc":"ESPERANCE VOR-DME"},
{"type":"NDB","hdg_t":179.3,"dist_nm":203.5,"freq":326,"lat":-33.68694400,"lon":121.82722200,"rng_nm":110,"alt_fmsl":470,"id":"ESP","desc":"ESPERANCE NDB"}
]
}
