{"success":true,"source":"xp2csv.pl","last_updated":"2013/11/08 14:53:21 UTC"
,"icao":"YGGG","name":"Gulgong","lat":-32.29867096,"lon":149.56250859,"rwys":1,"ils":0,"index":5394026,"path":"e140s40/e149s33"
,"runways":[
{"len_m":1491,"wid_m":49.99,"hdg":92,"surf":"Dirt","rwy1":"9","lat1":-32.29834492,"lon1":149.55459818,"rwy2":"27","lat2":-32.29899700,"lon2":149.57041900}
]
,"navaids":[
{"type":"VOR","hdg_t":174.2,"dist_nm":15.7,"freq":112.2,"lat":-32.56092800,"lon":149.59368900,"rng_nm":130,"alt_fmsl":1545,"id":"MDG","desc":"MUDGEE VOR"},
{"type":"NDB","hdg_t":170.3,"dist_nm":16.2,"freq":398,"lat":-32.56536100,"lon":149.61625000,"rng_nm":35,"alt_fmsl":0,"id":"MDG","desc":"MUDGEE NDB"},
{"type":"VOR","hdg_t":275.1,"dist_nm":50.3,"freq":114.4,"lat":-32.21952800,"lon":148.57770800,"rng_nm":50,"alt_fmsl":935,"id":"DU","desc":"DUBBO VOR-DME"},
{"type":"NDB","hdg_t":275.1,"dist_nm":51.2,"freq":251,"lat":-32.21753100,"lon":148.55909400,"rng_nm":70,"alt_fmsl":0,"id":"DU","desc":"DUBBO NDB"},
{"type":"NDB","hdg_t":345.4,"dist_nm":59.8,"freq":200,"lat":-31.33002800,"lon":149.27066900,"rng_nm":45,"alt_fmsl":2110,"id":"CBB","desc":"COONABARABRAN NDB"},
{"type":"NDB","hdg_t":76.5,"dist_nm":66.5,"freq":209,"lat":-32.03474700,"lon":150.83103300,"rng_nm":40,"alt_fmsl":0,"id":"SCO","desc":"SCONE NDB"},
{"type":"NDB","hdg_t":175.9,"dist_nm":66.9,"freq":383,"lat":-33.41416700,"lon":149.65694400,"rng_nm":30,"alt_fmsl":2430,"id":"BTH","desc":"BATHURST NDB"},
{"type":"NDB","hdg_t":273.4,"dist_nm":67.9,"freq":215,"lat":-32.22308900,"lon":148.22921100,"rng_nm":30,"alt_fmsl":0,"id":"NRM","desc":"NARROMINE NDB"},
{"type":"NDB","hdg_t":198.7,"dist_nm":68.6,"freq":424,"lat":-33.38305600,"lon":149.12444400,"rng_nm":45,"alt_fmsl":0,"id":"ORG","desc":"ORANGE NDB"},
{"type":"NDB","hdg_t":45.7,"dist_nm":68.8,"freq":386,"lat":-31.49283100,"lon":150.52378600,"rng_nm":40,"alt_fmsl":0,"id":"QDI","desc":"QUIRINDI NDB"},
{"type":"NDB","hdg_t":214.2,"dist_nm":71,"freq":275,"lat":-33.27612200,"lon":148.76705800,"rng_nm":25,"alt_fmsl":1610,"id":"CUA","desc":"CUDAL NDB"},
{"type":"NDB","hdg_t":232.2,"dist_nm":83.4,"freq":242,"lat":-33.14527800,"lon":148.25250000,"rng_nm":70,"alt_fmsl":0,"id":"PKS","desc":"PARKES NDB"},
{"type":"VOR","hdg_t":233,"dist_nm":83.5,"freq":112,"lat":-33.13111100,"lon":148.23722200,"rng_nm":130,"alt_fmsl":1070,"id":"PKS","desc":"PARKES VOR-DME"},
{"type":"NDB","hdg_t":100.4,"dist_nm":87.4,"freq":290,"lat":-32.55222200,"lon":151.25750000,"rng_nm":60,"alt_fmsl":0,"id":"SGT","desc":"SINGLETON NDB"},
{"type":"NDB","hdg_t":23.7,"dist_nm":87.8,"freq":407,"lat":-30.95416700,"lon":150.24833300,"rng_nm":35,"alt_fmsl":0,"id":"GDH","desc":"GUNNEDAH NDB"},
{"type":"NDB","hdg_t":156.4,"dist_nm":92.3,"freq":233,"lat":-33.71080600,"lon":150.29962200,"rng_nm":40,"alt_fmsl":0,"id":"KAT","desc":"KATOOMBA NDB"},
{"type":"VOR","hdg_t":121.6,"dist_nm":93.4,"freq":117.3,"lat":-33.10833300,"lon":151.13944400,"rng_nm":130,"alt_fmsl":0,"id":"MQD","desc":"MOUNT MCQUOID VOR"},
{"type":"NDB","hdg_t":121.8,"dist_nm":93.5,"freq":404,"lat":-33.11221900,"lon":151.13918300,"rng_nm":25,"alt_fmsl":0,"id":"MQD","desc":"MOUNT MCQUOID NDB"},
{"type":"NDB","hdg_t":41.8,"dist_nm":98,"freq":341,"lat":-31.07115600,"lon":150.83115600,"rng_nm":75,"alt_fmsl":0,"id":"TW","desc":"TAMWORTH NDB"},
{"type":"VOR","hdg_t":41.6,"dist_nm":98.2,"freq":116,"lat":-31.06620300,"lon":150.83002200,"rng_nm":50,"alt_fmsl":1344,"id":"TW","desc":"TAMWORTH VOR-DME"},
{"type":"NDB","hdg_t":142,"dist_nm":98.9,"freq":347,"lat":-33.59693100,"lon":150.77639700,"rng_nm":75,"alt_fmsl":68,"id":"RIC","desc":"RICHMOND NDB"},
{"type":"NDB","hdg_t":322.3,"dist_nm":99.7,"freq":206,"lat":-30.97443100,"lon":148.38025800,"rng_nm":35,"alt_fmsl":594,"id":"CNM","desc":"COONAMBLE NDB"}
]
}
