{"success":true,"source":"xp2csv.pl","last_updated":"2013/11/08 14:53:21 UTC"
,"icao":"YGID","name":"Gidgee","lat":-27.2711687,"lon":119.40018843,"rwys":1,"ils":0,"index":4902825,"path":"e110s30/e119s28"
,"runways":[
{"len_m":1880,"wid_m":81.99,"hdg":69,"surf":"Dirt","rwy1":"6","lat1":-27.27417159,"lon1":119.39130926,"rwy2":"24","lat2":-27.26816581,"lon2":119.40906760}
]
,"navaids":[
{"type":"NDB","hdg_t":48.8,"dist_nm":58.5,"freq":383,"lat":-26.62472200,"lon":120.22000000,"rng_nm":80,"alt_fmsl":1649,"id":"WLU","desc":"WILUNA NDB"},
{"type":"NDB","hdg_t":310.1,"dist_nm":60.5,"freq":251,"lat":-26.61555600,"lon":118.54027800,"rng_nm":80,"alt_fmsl":0,"id":"MEK","desc":"MEEKATHARRA NDB"},
{"type":"VOR","hdg_t":310.3,"dist_nm":61.1,"freq":112.9,"lat":-26.60694400,"lon":118.53250000,"rng_nm":50,"alt_fmsl":1723,"id":"MEK","desc":"MEEKATHARRA VOR-DME"},
{"type":"NDB","hdg_t":91.1,"dist_nm":61.4,"freq":332,"lat":-27.28694400,"lon":120.54861100,"rng_nm":50,"alt_fmsl":0,"id":"MNE","desc":"MOUNT KEITH NDB"},
{"type":"NDB","hdg_t":116.4,"dist_nm":77.2,"freq":230,"lat":-27.84055600,"lon":120.70027800,"rng_nm":70,"alt_fmsl":0,"id":"LST","desc":"LEINSTER NDB"},
{"type":"NDB","hdg_t":239.8,"dist_nm":95.5,"freq":395,"lat":-28.06416700,"lon":117.84361100,"rng_nm":85,"alt_fmsl":0,"id":"MOG","desc":"MOUNT MAGNET NDB"},
{"type":"NDB","hdg_t":133.7,"dist_nm":140.1,"freq":377,"lat":-28.87888900,"lon":121.32027800,"rng_nm":70,"alt_fmsl":0,"id":"LEO","desc":"LEONORA NDB"},
{"type":"NDB","hdg_t":117.2,"dist_nm":179.5,"freq":407,"lat":-28.61222200,"lon":122.42250000,"rng_nm":45,"alt_fmsl":0,"id":"LTN","desc":"LAVERTON NDB"},
{"type":"NDB","hdg_t":236.2,"dist_nm":213.2,"freq":407,"lat":-29.20888900,"lon":116.02361100,"rng_nm":50,"alt_fmsl":0,"id":"MRW","desc":"MORAWA NDB"},
{"type":"VOR","hdg_t":5.5,"dist_nm":231.3,"freq":117.2,"lat":-23.42083300,"lon":119.80305600,"rng_nm":50,"alt_fmsl":1734,"id":"NWN","desc":"NEWMAN VOR-DME"}
]
}
