{"success":true,"source":"xp2csv.pl","last_updated":"2013/11/08 14:53:21 UTC"
,"icao":"YGLR","name":"Glenroy Stn","lat":-17.31138371,"lon":126.077138345,"rwys":2,"ils":0,"index":5018152,"path":"e120s20/e126s18"
,"runways":[
{"len_m":1346,"wid_m":89.92,"hdg":67,"surf":"Dirt","rwy1":"6","lat1":-17.31069605,"lon1":126.06870168,"rwy2":"24","lat2":-17.30610474,"lon2":126.08042601},
{"len_m":1804,"wid_m":99.06,"hdg":318,"surf":"Dirt","rwy1":"13","lat1":-17.32050961,"lon1":126.08529632,"rwy2":"31","lat2":-17.30822444,"lon2":126.07412935}
]
,"navaids":[
{"type":"NDB","hdg_t":21.1,"dist_nm":56.5,"freq":392,"lat":-16.42944400,"lon":126.43138900,"rng_nm":60,"alt_fmsl":0,"id":"GIB","desc":"GIBB RIVER NDB"},
{"type":"NDB","hdg_t":209.6,"dist_nm":60,"freq":407,"lat":-18.18472200,"lon":125.55703600,"rng_nm":55,"alt_fmsl":368,"id":"FTZ","desc":"FITZROY CROSSING NDB"},
{"type":"NDB","hdg_t":121.3,"dist_nm":106.2,"freq":266,"lat":-18.23000000,"lon":127.66638900,"rng_nm":85,"alt_fmsl":1346,"id":"HLC","desc":"HALLS CREEK NDB"},
{"type":"VOR","hdg_t":262.2,"dist_nm":128.7,"freq":114.3,"lat":-17.58888889,"lon":123.85194444,"rng_nm":130,"alt_fmsl":27,"id":"CIN","desc":"CURTIN VOR-DME"},
{"type":"NDB","hdg_t":262.7,"dist_nm":129.8,"freq":350,"lat":-17.57416700,"lon":123.83083300,"rng_nm":75,"alt_fmsl":300,"id":"CIN","desc":"CURTIN NDB"},
{"type":"NDB","hdg_t":268.5,"dist_nm":138.3,"freq":332,"lat":-17.35694400,"lon":123.66694400,"rng_nm":50,"alt_fmsl":24,"id":"DBY","desc":"DERBY NDB"},
{"type":"VOR","hdg_t":73.7,"dist_nm":142.3,"freq":113.9,"lat":-16.63166700,"lon":128.44888900,"rng_nm":50,"alt_fmsl":536,"id":"ARG","desc":"ARGYLE VOR-DME"},
{"type":"NDB","hdg_t":48.3,"dist_nm":160.9,"freq":372,"lat":-15.50972200,"lon":128.15138900,"rng_nm":60,"alt_fmsl":14,"id":"WYM","desc":"WYNDHAM NDB"},
{"type":"NDB","hdg_t":59.2,"dist_nm":176.7,"freq":221,"lat":-15.78388900,"lon":128.70388900,"rng_nm":70,"alt_fmsl":145,"id":"KU","desc":"KUNUNURRA NDB"},
{"type":"VOR","hdg_t":59.2,"dist_nm":177.2,"freq":116.5,"lat":-15.77555600,"lon":128.70888900,"rng_nm":130,"alt_fmsl":165,"id":"KU","desc":"KUNUNURRA VOR-DME"}
]
}
