{"success":true,"source":"xp2csv.pl","last_updated":"2013/11/08 14:53:21 UTC"
,"icao":"YGMP","name":"Grampians","lat":-37.04797323,"lon":142.27041414,"rwys":1,"ils":0,"index":5279033,"path":"e140s40/e142s38"
,"runways":[
{"len_m":1257,"wid_m":73.15,"hdg":61,"surf":"Turf/grass","rwy1":"6","lat1":-37.05068483,"lon1":142.26420858,"rwy2":"24","lat2":-37.04526162,"lon2":142.27661969}
]
,"navaids":[
{"type":"NDB","hdg_t":347.6,"dist_nm":23,"freq":401,"lat":-36.67194400,"lon":142.16805600,"rng_nm":50,"alt_fmsl":0,"id":"HSM","desc":"HORSHAM NDB"},
{"type":"NDB","hdg_t":195.7,"dist_nm":37.4,"freq":203,"lat":-37.64916700,"lon":142.05777800,"rng_nm":45,"alt_fmsl":0,"id":"HML","desc":"HAMILTON NDB"},
{"type":"NDB","hdg_t":8.9,"dist_nm":44.1,"freq":209,"lat":-36.31946900,"lon":142.41152500,"rng_nm":75,"alt_fmsl":0,"id":"WKB","desc":"WARRACKNABEAL NDB"},
{"type":"VOR","hdg_t":325.3,"dist_nm":53.2,"freq":116.5,"lat":-36.31576900,"lon":141.64560600,"rng_nm":130,"alt_fmsl":454,"id":"NHL","desc":"NHILL VOR"},
{"type":"NDB","hdg_t":325.9,"dist_nm":54.3,"freq":326,"lat":-36.29400600,"lon":141.64333300,"rng_nm":70,"alt_fmsl":0,"id":"NHL","desc":"NHILL NDB"},
{"type":"NDB","hdg_t":272.7,"dist_nm":74.4,"freq":287,"lat":-36.97818100,"lon":140.72438600,"rng_nm":40,"alt_fmsl":0,"id":"NRC","desc":"NARACOORTE NDB"},
{"type":"NDB","hdg_t":173.3,"dist_nm":74.7,"freq":395,"lat":-38.28736100,"lon":142.45368300,"rng_nm":45,"alt_fmsl":0,"id":"WBL","desc":"WARRNAMBOOL NDB"},
{"type":"NDB","hdg_t":111.4,"dist_nm":77.9,"freq":239,"lat":-37.51361100,"lon":143.79055600,"rng_nm":30,"alt_fmsl":0,"id":"BLT","desc":"BALLARAT NDB"},
{"type":"VOR","hdg_t":120.6,"dist_nm":82.1,"freq":114.3,"lat":-37.73841700,"lon":143.75493300,"rng_nm":130,"alt_fmsl":0,"id":"YWE","desc":"YARROWEE VOR"},
{"type":"NDB","hdg_t":120.7,"dist_nm":82.3,"freq":389,"lat":-37.74224700,"lon":143.75666700,"rng_nm":40,"alt_fmsl":0,"id":"YWE","desc":"YARROWEE NDB"},
{"type":"VOR","hdg_t":238.8,"dist_nm":82.5,"freq":117,"lat":-37.75140800,"lon":140.78526700,"rng_nm":130,"alt_fmsl":212,"id":"MTG","desc":"MOUNT GAMBIER VOR"},
{"type":"NDB","hdg_t":238.9,"dist_nm":82.8,"freq":266,"lat":-37.75256100,"lon":140.77902200,"rng_nm":75,"alt_fmsl":0,"id":"MTG","desc":"MOUNT GAMBIER NDB"},
{"type":"NDB","hdg_t":297.8,"dist_nm":83.1,"freq":251,"lat":-36.39027800,"lon":140.75138900,"rng_nm":75,"alt_fmsl":0,"id":"BOR","desc":"BORDERTOWN NDB"},
{"type":"VOR","hdg_t":297.5,"dist_nm":83.5,"freq":112.7,"lat":-36.39277800,"lon":140.74194400,"rng_nm":100,"alt_fmsl":265,"id":"BOR","desc":"BORDERTOWN VOR"},
{"type":"NDB","hdg_t":206.3,"dist_nm":84.8,"freq":212,"lat":-38.31444400,"lon":141.47333300,"rng_nm":45,"alt_fmsl":0,"id":"POD","desc":"PORTLAND NDB"}
]
}
