{"success":true,"source":"xp2csv.pl","last_updated":"2013/11/08 14:53:21 UTC"
,"icao":"YGRN","name":"Gordon","lat":-22.93833134,"lon":149.34435273,"rwys":1,"ils":0,"index":5394625,"path":"e140s30/e149s23"
,"runways":[
{"len_m":1112,"wid_m":42.98,"hdg":129,"surf":"Dirt","rwy1":"12","lat1":-22.93515327,"lon1":149.34015361,"rwy2":"30","lat2":-22.94150941,"lon2":149.34855186}
]
,"navaids":[
{"type":"NDB","hdg_t":290.1,"dist_nm":58.7,"freq":227,"lat":-22.59750000,"lon":148.35111100,"rng_nm":80,"alt_fmsl":0,"id":"DYS","desc":"DYSART NDB"},
{"type":"NDB","hdg_t":112.6,"dist_nm":67.6,"freq":257,"lat":-23.37083300,"lon":150.47527800,"rng_nm":65,"alt_fmsl":34,"id":"RK","desc":"ROCKHAMPTON NDB"},
{"type":"VOR","hdg_t":113.3,"dist_nm":67.7,"freq":116.9,"lat":-23.38277778,"lon":150.47166667,"rng_nm":130,"alt_fmsl":57,"id":"RK","desc":"ROCKHAMPTON VOR-DME"},
{"type":"NDB","hdg_t":239.6,"dist_nm":74.9,"freq":324,"lat":-23.56750000,"lon":148.17111100,"rng_nm":60,"alt_fmsl":624,"id":"EML","desc":"EMERALD NDB"},
{"type":"NDB","hdg_t":306.3,"dist_nm":87.8,"freq":218,"lat":-22.06250000,"lon":148.07527800,"rng_nm":60,"alt_fmsl":770,"id":"MRB","desc":"MORANBAH NDB"},
{"type":"NDB","hdg_t":275.5,"dist_nm":95.7,"freq":209,"lat":-22.77305600,"lon":147.62500000,"rng_nm":35,"alt_fmsl":908,"id":"CMT","desc":"CLERMONT NDB"},
{"type":"VOR","hdg_t":355.2,"dist_nm":105.9,"freq":112.7,"lat":-21.17305556,"lon":149.18722222,"rng_nm":130,"alt_fmsl":41,"id":"MK","desc":"MACKAY VOR-DME"},
{"type":"NDB","hdg_t":355.2,"dist_nm":106.5,"freq":308,"lat":-21.16222200,"lon":149.18638900,"rng_nm":75,"alt_fmsl":19,"id":"MK","desc":"MACKAY NDB"},
{"type":"NDB","hdg_t":144.2,"dist_nm":114.9,"freq":446,"lat":-24.49416700,"lon":150.57000000,"rng_nm":50,"alt_fmsl":709,"id":"TNG","desc":"THANGOOL NDB-DME"},
{"type":"SDME","hdg_t":144.2,"dist_nm":114.9,"freq":113.8,"lat":-24.49416700,"lon":150.57000000,"rng_nm":50,"alt_fmsl":709,"id":"TNG","desc":"THANGOOL NDB-DME"}
]
}
