{"success":true,"source":"xp2csv.pl","last_updated":"2013/11/08 14:53:21 UTC"
,"icao":"YHAW","name":"Hawker","lat":-31.85485125,"lon":138.46806427,"rwys":1,"ils":0,"index":5213833,"path":"e130s40/e138s32"
,"runways":[
{"len_m":1220,"wid_m":21.03,"hdg":2,"surf":"Asphalt","rwy1":"18","lat1":-31.86034750,"lon1":138.46773753,"rwy2":"36","lat2":-31.84935500,"lon2":138.46839100}
]
,"radios":[
{"type":"CTAF","freq":126.7,"desc":"CTAF"}
]
,"navaids":[
{"type":"NDB","hdg_t":223.9,"dist_nm":56,"freq":212,"lat":-32.52638900,"lon":137.70111100,"rng_nm":40,"alt_fmsl":0,"id":"PAG","desc":"PORT AUGUSTA NDB"},
{"type":"NDB","hdg_t":358.9,"dist_nm":75.2,"freq":287,"lat":-30.59861100,"lon":138.44222200,"rng_nm":85,"alt_fmsl":0,"id":"LEC","desc":"LEIGH CREEK NDB"},
{"type":"VOR","hdg_t":358.4,"dist_nm":75.3,"freq":117.8,"lat":-30.59638900,"lon":138.42888900,"rng_nm":130,"alt_fmsl":856,"id":"LEC","desc":"LEIGH CREEK VOR"},
{"type":"NDB","hdg_t":213.3,"dist_nm":86.5,"freq":371,"lat":-33.05805600,"lon":137.52416700,"rng_nm":75,"alt_fmsl":41,"id":"WHA","desc":"WHYALLA NDB"},
{"type":"NDB","hdg_t":296.1,"dist_nm":95.2,"freq":248,"lat":-31.14333300,"lon":136.80833300,"rng_nm":85,"alt_fmsl":548,"id":"WR","desc":"WOOMERA NDB"},
{"type":"NDB","hdg_t":321,"dist_nm":107.3,"freq":206,"lat":-30.45353300,"lon":137.16659700,"rng_nm":45,"alt_fmsl":0,"id":"AMK","desc":"ANDAMOOKA NDB"},
{"type":"NDB","hdg_t":93.8,"dist_nm":153.4,"freq":332,"lat":-31.99194400,"lon":141.46833300,"rng_nm":85,"alt_fmsl":958,"id":"BHI","desc":"BROKEN HILL NDB"},
{"type":"VOR","hdg_t":94,"dist_nm":154,"freq":114.2,"lat":-32.00055600,"lon":141.47972200,"rng_nm":130,"alt_fmsl":968,"id":"BHI","desc":"BROKEN HILL VOR-DME"},
{"type":"NDB","hdg_t":190,"dist_nm":155.7,"freq":398,"lat":-34.41411400,"lon":137.92316100,"rng_nm":75,"alt_fmsl":0,"id":"ARS","desc":"ARDROSSAN NDB"},
{"type":"VOR","hdg_t":190.5,"dist_nm":156.1,"freq":115.8,"lat":-34.41653100,"lon":137.89332200,"rng_nm":130,"alt_fmsl":0,"id":"ARS","desc":"ARDROSSAN VOR"}
]
}
