{"success":true,"source":"xp2csv.pl","last_updated":"2013/11/08 14:53:21 UTC"
,"icao":"YHMD","name":"Hamilton Downs","lat":-21.40669331,"lon":142.39952835,"rwys":1,"ils":0,"index":5280035,"path":"e140s30/e142s22"
,"runways":[
{"len_m":709,"wid_m":25.91,"hdg":179,"surf":"Dirt","rwy1":"17","lat1":-21.40349150,"lon1":142.39950141,"rwy2":"35","lat2":-21.40989511,"lon2":142.39955529}
]
,"navaids":[
{"type":"NDB","hdg_t":43.3,"dist_nm":58.1,"freq":215,"lat":-20.69777800,"lon":143.11000000,"rng_nm":40,"alt_fmsl":676,"id":"RMD","desc":"RICHMOND NDB"},
{"type":"NDB","hdg_t":319.3,"dist_nm":58.3,"freq":206,"lat":-20.66500000,"lon":141.72416700,"rng_nm":40,"alt_fmsl":404,"id":"JLC","desc":"JULIA CREEK NDB"},
{"type":"NDB","hdg_t":146.4,"dist_nm":68.8,"freq":386,"lat":-22.36527800,"lon":143.08388900,"rng_nm":65,"alt_fmsl":638,"id":"WTN","desc":"WINTON NDB"},
{"type":"VOR","hdg_t":71.2,"dist_nm":108.2,"freq":112.4,"lat":-20.81416700,"lon":144.22305600,"rng_nm":130,"alt_fmsl":1043,"id":"HUG","desc":"HUGHENDEN VOR"},
{"type":"NDB","hdg_t":71.4,"dist_nm":108.4,"freq":371,"lat":-20.82055600,"lon":144.22916700,"rng_nm":70,"alt_fmsl":1043,"id":"HUG","desc":"HUGHENDEN NDB"},
{"type":"NDB","hdg_t":292.2,"dist_nm":115.3,"freq":264,"lat":-20.66555600,"lon":140.50111100,"rng_nm":75,"alt_fmsl":616,"id":"CCY","desc":"CLONCURRY NDB"},
{"type":"NDB","hdg_t":259.6,"dist_nm":140.4,"freq":323,"lat":-21.80972200,"lon":139.92416700,"rng_nm":20,"alt_fmsl":0,"id":"TMO","desc":"THE MONUMENT NDB"},
{"type":"VOR","hdg_t":139.4,"dist_nm":159.7,"freq":117.9,"lat":-23.42444400,"lon":144.28222200,"rng_nm":130,"alt_fmsl":627,"id":"LRE","desc":"LONGREACH VOR"},
{"type":"NDB","hdg_t":139.3,"dist_nm":160.1,"freq":353,"lat":-23.42833300,"lon":144.28916700,"rng_nm":85,"alt_fmsl":627,"id":"LRE","desc":"LONGREACH NDB"},
{"type":"NDB","hdg_t":236.5,"dist_nm":165.5,"freq":398,"lat":-22.91472200,"lon":139.90694400,"rng_nm":75,"alt_fmsl":542,"id":"BOU","desc":"BOULIA NDB"}
]
}
