{"success":true,"source":"xp2csv.pl","last_updated":"2013/11/08 14:53:21 UTC"
,"icao":"YILA","name":"Milawa","lat":-36.4563288,"lon":146.43302148,"rwys":1,"ils":0,"index":5344609,"path":"e140s40/e146s37"
,"runways":[
{"len_m":1000,"wid_m":21.03,"hdg":20,"surf":"Turf/grass","rwy1":"02","lat1":-36.46054560,"lon1":146.43105097,"rwy2":"20","lat2":-36.45211200,"lon2":146.43499200}
]
,"navaids":[
{"type":"NDB","hdg_t":288.5,"dist_nm":6.5,"freq":203,"lat":-36.42151400,"lon":146.30453100,"rng_nm":30,"alt_fmsl":0,"id":"WGT","desc":"WANGARATTA NDB"},
{"type":"NDB","hdg_t":352.5,"dist_nm":28.3,"freq":380,"lat":-35.98746700,"lon":146.35719700,"rng_nm":75,"alt_fmsl":464,"id":"COR","desc":"COROWA NDB"},
{"type":"VOR","hdg_t":48.1,"dist_nm":34.7,"freq":115.6,"lat":-36.06805600,"lon":146.96611100,"rng_nm":50,"alt_fmsl":550,"id":"AY","desc":"ALBURY VOR-DME"},
{"type":"NDB","hdg_t":48.4,"dist_nm":34.8,"freq":236,"lat":-36.06861100,"lon":146.96972200,"rng_nm":65,"alt_fmsl":0,"id":"AY","desc":"ALBURY NDB"},
{"type":"NDB","hdg_t":201.6,"dist_nm":38.1,"freq":284,"lat":-37.04722200,"lon":146.13972200,"rng_nm":45,"alt_fmsl":0,"id":"MFD","desc":"MANSFIELD NDB"},
{"type":"NDB","hdg_t":234.4,"dist_nm":41,"freq":413,"lat":-36.85276100,"lon":145.73848100,"rng_nm":35,"alt_fmsl":0,"id":"SBG","desc":"STRATHBOGIE NDB"},
{"type":"NDB","hdg_t":271.6,"dist_nm":50.2,"freq":212,"lat":-36.42836100,"lon":145.39602200,"rng_nm":30,"alt_fmsl":0,"id":"SHT","desc":"SHEPPARTON NDB"},
{"type":"VOR","hdg_t":212.4,"dist_nm":53.3,"freq":112.3,"lat":-37.20633300,"lon":145.83505800,"rng_nm":130,"alt_fmsl":0,"id":"ELW","desc":"EILDON WEIR VOR"},
{"type":"VOR","hdg_t":246.3,"dist_nm":65.1,"freq":113.2,"lat":-36.88611100,"lon":145.19416700,"rng_nm":130,"alt_fmsl":467,"id":"MNG","desc":"MANGALORE VOR"},
{"type":"NDB","hdg_t":246,"dist_nm":65.9,"freq":254,"lat":-36.89722200,"lon":145.18111100,"rng_nm":65,"alt_fmsl":0,"id":"MNG","desc":"MANGALORE NDB"},
{"type":"NDB","hdg_t":127.8,"dist_nm":67.7,"freq":227,"lat":-37.14472200,"lon":147.54861100,"rng_nm":40,"alt_fmsl":0,"id":"LVG","desc":"MOUNT LIVINGSTONE NDB"},
{"type":"VOR","hdg_t":127.5,"dist_nm":67.7,"freq":117.2,"lat":-37.14111100,"lon":147.55222200,"rng_nm":130,"alt_fmsl":0,"id":"LVG","desc":"MOUNT LIVINGSTONE VOR"},
{"type":"NDB","hdg_t":45.5,"dist_nm":70.7,"freq":323,"lat":-35.62508100,"lon":147.46710000,"rng_nm":70,"alt_fmsl":0,"id":"HBK","desc":"HOLBROOK NDB"},
{"type":"NDB","hdg_t":75.5,"dist_nm":71.7,"freq":386,"lat":-36.14846700,"lon":147.86189700,"rng_nm":55,"alt_fmsl":0,"id":"CRG","desc":"CORRYONG NDB"},
{"type":"NDB","hdg_t":281.6,"dist_nm":82.7,"freq":341,"lat":-36.16538100,"lon":144.76459200,"rng_nm":30,"alt_fmsl":0,"id":"ECH","desc":"ECHUCA NDB"},
{"type":"NDB","hdg_t":306.4,"dist_nm":90.1,"freq":392,"lat":-35.55202800,"lon":144.95179400,"rng_nm":55,"alt_fmsl":305,"id":"DLQ","desc":"DENILIQUIN NDB"},
{"type":"NDB","hdg_t":33,"dist_nm":92.1,"freq":221,"lat":-35.16302200,"lon":147.45556900,"rng_nm":80,"alt_fmsl":0,"id":"WG","desc":"WAGGA WAGGA NDB"},
{"type":"VOR","hdg_t":33.4,"dist_nm":92.3,"freq":115,"lat":-35.16561100,"lon":147.46887200,"rng_nm":50,"alt_fmsl":771,"id":"WG","desc":"WAGGA WAGGA VOR-DME"},
{"type":"NDB","hdg_t":219.5,"dist_nm":98.8,"freq":218,"lat":-37.72027800,"lon":145.11138900,"rng_nm":36,"alt_fmsl":0,"id":"PLE","desc":"PLENTY NDB"},
{"type":"NDB","hdg_t":232,"dist_nm":99,"freq":362,"lat":-37.46222200,"lon":144.79833300,"rng_nm":30,"alt_fmsl":0,"id":"BOL","desc":"BOLINDA NDB"},
{"type":"NDB","hdg_t":222.4,"dist_nm":99.3,"freq":377,"lat":-37.67166700,"lon":145.02638900,"rng_nm":40,"alt_fmsl":0,"id":"EPP","desc":"EPPING NDB"}
]
}
