{"success":true,"source":"xp2csv.pl","last_updated":"2013/11/08 14:53:21 UTC"
,"icao":"YKDN","name":"Kondinin","lat":-32.46614248,"lon":118.26988219,"rwys":1,"ils":0,"index":4886113,"path":"e110s40/e118s33"
,"runways":[
{"len_m":1098,"wid_m":43.89,"hdg":0,"surf":"Dirt","rwy1":"17","lat1":-32.47109598,"lon1":118.26985819,"rwy2":"35","lat2":-32.46118898,"lon2":118.26990619}
]
,"navaids":[
{"type":"NDB","hdg_t":15.1,"dist_nm":24.4,"freq":227,"lat":-32.07166700,"lon":118.39500000,"rng_nm":80,"alt_fmsl":0,"id":"NRB","desc":"NAREMBEEN NDB"},
{"type":"NDB","hdg_t":265.5,"dist_nm":60.8,"freq":233,"lat":-32.53916700,"lon":117.07444400,"rng_nm":110,"alt_fmsl":0,"id":"PIY","desc":"PINGELLY NDB"},
{"type":"NDB","hdg_t":313,"dist_nm":73.3,"freq":293,"lat":-31.62500000,"lon":117.22388900,"rng_nm":85,"alt_fmsl":699,"id":"CUN","desc":"CUNDERDIN NDB"},
{"type":"NDB","hdg_t":37.2,"dist_nm":92.3,"freq":221,"lat":-31.23222200,"lon":119.35583300,"rng_nm":80,"alt_fmsl":0,"id":"SCR","desc":"SOUTHERN CROSS NDB"},
{"type":"NDB","hdg_t":297.8,"dist_nm":98.8,"freq":200,"lat":-31.68416700,"lon":116.56166700,"rng_nm":40,"alt_fmsl":0,"id":"CKL","desc":"CLACKLINE NDB"},
{"type":"NDB","hdg_t":287.7,"dist_nm":115.4,"freq":352,"lat":-31.85944400,"lon":116.11750000,"rng_nm":50,"alt_fmsl":0,"id":"PRL","desc":"PARKERVILLE NDB"},
{"type":"VOR","hdg_t":284.2,"dist_nm":121.6,"freq":113.7,"lat":-31.94500000,"lon":115.95916700,"rng_nm":130,"alt_fmsl":87,"id":"PH","desc":"PERTH VOR-DME"},
{"type":"NDB","hdg_t":286.1,"dist_nm":121.7,"freq":329,"lat":-31.87833300,"lon":115.98138900,"rng_nm":40,"alt_fmsl":0,"id":"CVM","desc":"CAVERSHAM NDB"},
{"type":"NDB","hdg_t":284.3,"dist_nm":122.2,"freq":272,"lat":-31.93750000,"lon":115.95027800,"rng_nm":60,"alt_fmsl":67,"id":"PH","desc":"PERTH NDB"},
{"type":"NDB","hdg_t":279.5,"dist_nm":123.1,"freq":281,"lat":-32.10277800,"lon":115.88666700,"rng_nm":30,"alt_fmsl":0,"id":"JT","desc":"JANDAKOT NDB"}
]
}
