{"success":true,"source":"xp2csv.pl","last_updated":"2013/11/08 14:53:21 UTC"
,"icao":"YKIA","name":"Kiana Stn","lat":-17.2450392,"lon":136.18078744,"rwys":1,"ils":0,"index":5182001,"path":"e130s20/e136s18"
,"runways":[
{"len_m":970,"wid_m":28.04,"hdg":137,"surf":"Dirt","rwy1":"13","lat1":-17.24178421,"lon1":136.17772695,"rwy2":"31","lat2":-17.24829419,"lon2":136.18384793}
]
,"navaids":[
{"type":"NDB","hdg_t":352.9,"dist_nm":48.1,"freq":368,"lat":-16.44611100,"lon":136.07805600,"rng_nm":50,"alt_fmsl":131,"id":"MHU","desc":"MCARTHUR RIVER MINE NDB"},
{"type":"NDB","hdg_t":5.8,"dist_nm":70.1,"freq":218,"lat":-16.07722200,"lon":136.30500000,"rng_nm":100,"alt_fmsl":55,"id":"BRL","desc":"BORROLOOLA NDB"},
{"type":"NDB","hdg_t":122.3,"dist_nm":170,"freq":293,"lat":-18.75388900,"lon":138.70305600,"rng_nm":20,"alt_fmsl":0,"id":"CNY","desc":"CENTURY MINE NDB"},
{"type":"NDB","hdg_t":330.8,"dist_nm":172.1,"freq":233,"lat":-14.72500000,"lon":134.73861100,"rng_nm":80,"alt_fmsl":45,"id":"NGU","desc":"NGUKURR NDB"},
{"type":"NDB","hdg_t":78.9,"dist_nm":175.4,"freq":416,"lat":-16.65916700,"lon":139.17027800,"rng_nm":100,"alt_fmsl":0,"id":"MTI","desc":"MORNINGTON ISLAND NDB"},
{"type":"VOR","hdg_t":218.3,"dist_nm":182.7,"freq":112.9,"lat":-19.63444400,"lon":134.18138900,"rng_nm":130,"alt_fmsl":1246,"id":"TNK","desc":"TENNANT CREEK VOR-DME"},
{"type":"NDB","hdg_t":218.2,"dist_nm":183.4,"freq":272,"lat":-19.64416700,"lon":134.17527800,"rng_nm":85,"alt_fmsl":1236,"id":"TNK","desc":"TENNANT CREEK NDB"},
{"type":"NDB","hdg_t":145.6,"dist_nm":193.9,"freq":254,"lat":-19.91472200,"lon":138.11694400,"rng_nm":65,"alt_fmsl":792,"id":"CMW","desc":"CAMOOWEAL NDB"},
{"type":"NDB","hdg_t":99.4,"dist_nm":194.5,"freq":236,"lat":-17.75111100,"lon":139.53166700,"rng_nm":70,"alt_fmsl":21,"id":"BKT","desc":"BURKETOWN NDB"},
{"type":"NDB","hdg_t":4.6,"dist_nm":196,"freq":407,"lat":-13.97500000,"lon":136.45555600,"rng_nm":60,"alt_fmsl":63,"id":"GTE","desc":"GROOTE EYLANDT NDB-DME"}
]
}
