{"success":true,"source":"xp2csv.pl","last_updated":"2013/11/08 14:53:21 UTC"
,"icao":"YKNG","name":"Katanning","lat":-33.698585635,"lon":117.655033265,"rwys":2,"ils":0,"index":4869650,"path":"e110s40/e117s34"
,"runways":[
{"len_m":1025,"wid_m":25.91,"hdg":310,"surf":"Dirt","rwy1":"12","lat1":-33.70048138,"lon1":117.65808603,"rwy2":"30","lat2":-33.69452608,"lon2":117.64962794},
{"len_m":1504,"wid_m":28.96,"hdg":65,"surf":"Dirt","rwy1":"06","lat1":-33.70252587,"lon1":117.64884904,"rwy2":"24","lat2":-33.69680920,"lon2":117.66357004}
]
,"radios":[
{"type":"CTAF","freq":126.7,"desc":"CTAF"}
]
,"navaids":[
{"type":"NDB","hdg_t":336.9,"dist_nm":75.3,"freq":233,"lat":-32.53916700,"lon":117.07444400,"rng_nm":110,"alt_fmsl":0,"id":"PIY","desc":"PINGELLY NDB"},
{"type":"NDB","hdg_t":174.1,"dist_nm":75.4,"freq":240,"lat":-34.95222200,"lon":117.81055600,"rng_nm":60,"alt_fmsl":243,"id":"ABA","desc":"ALBANY NDB-DME"},
{"type":"SDME","hdg_t":174.1,"dist_nm":75.4,"freq":109.7,"lat":-34.95222200,"lon":117.81055600,"rng_nm":60,"alt_fmsl":243,"id":"ABA","desc":"ALBANY NDB-DME"},
{"type":"NDB","hdg_t":245.9,"dist_nm":83.5,"freq":257,"lat":-34.25805600,"lon":116.12138900,"rng_nm":35,"alt_fmsl":0,"id":"MJM","desc":"MANJIMUP NDB"},
{"type":"NDB","hdg_t":21.1,"dist_nm":104.3,"freq":227,"lat":-32.07166700,"lon":118.39500000,"rng_nm":80,"alt_fmsl":0,"id":"NRB","desc":"NAREMBEEN NDB"},
{"type":"NDB","hdg_t":269.5,"dist_nm":113.1,"freq":386,"lat":-33.69250000,"lon":115.39527800,"rng_nm":50,"alt_fmsl":55,"id":"BLN","desc":"BUSSELTON NDB"},
{"type":"NDB","hdg_t":349.9,"dist_nm":126,"freq":293,"lat":-31.62500000,"lon":117.22388900,"rng_nm":85,"alt_fmsl":699,"id":"CUN","desc":"CUNDERDIN NDB"},
{"type":"NDB","hdg_t":316.4,"dist_nm":130.8,"freq":281,"lat":-32.10277800,"lon":115.88666700,"rng_nm":30,"alt_fmsl":0,"id":"JT","desc":"JANDAKOT NDB"},
{"type":"NDB","hdg_t":335,"dist_nm":132.7,"freq":200,"lat":-31.68416700,"lon":116.56166700,"rng_nm":40,"alt_fmsl":0,"id":"CKL","desc":"CLACKLINE NDB"},
{"type":"NDB","hdg_t":324.3,"dist_nm":134.8,"freq":352,"lat":-31.85944400,"lon":116.11750000,"rng_nm":50,"alt_fmsl":0,"id":"PRL","desc":"PARKERVILLE NDB"}
]
}
