{"success":true,"source":"xp2csv.pl","last_updated":"2013/11/08 14:53:21 UTC"
,"icao":"YLGD","name":"Longdown","lat":-41.69098125,"lon":147.14318037,"rwys":1,"ils":0,"index":5360656,"path":"e140s50/e147s42"
,"runways":[
{"len_m":1076,"wid_m":60.05,"hdg":164,"surf":"Turf/grass","rwy1":"15","lat1":-41.68630408,"lon1":147.14147864,"rwy2":"33","lat2":-41.69565842,"lon2":147.14488211}
]
,"navaids":[
{"type":"NDB","hdg_t":72.4,"dist_nm":7.5,"freq":230,"lat":-41.65277800,"lon":147.30333300,"rng_nm":20,"alt_fmsl":0,"id":"NIE","desc":"NILE NDB"},
{"type":"NDB","hdg_t":25.3,"dist_nm":8.6,"freq":242,"lat":-41.56111100,"lon":147.22500000,"rng_nm":60,"alt_fmsl":0,"id":"LT","desc":"LAUNCESTON NDB"},
{"type":"VOR","hdg_t":19.6,"dist_nm":9.3,"freq":112.6,"lat":-41.54388900,"lon":147.21305600,"rng_nm":50,"alt_fmsl":562,"id":"LT","desc":"LAUNCESTON VOR-DME"},
{"type":"NDB","hdg_t":313.6,"dist_nm":44.7,"freq":281,"lat":-41.17392500,"lon":146.42855300,"rng_nm":50,"alt_fmsl":25,"id":"DPO","desc":"DEVONPORT NDB"},
{"type":"VOR","hdg_t":314,"dist_nm":44.7,"freq":116.3,"lat":-41.17000000,"lon":146.43416700,"rng_nm":50,"alt_fmsl":43,"id":"DPO","desc":"DEVONPORT VOR-DME"},
{"type":"NDB","hdg_t":67.8,"dist_nm":55.5,"freq":392,"lat":-41.33527800,"lon":148.28166700,"rng_nm":25,"alt_fmsl":0,"id":"STH","desc":"ST. HELENS NDB"},
{"type":"NDB","hdg_t":172.8,"dist_nm":60.5,"freq":374,"lat":-42.69222200,"lon":147.31388900,"rng_nm":15,"alt_fmsl":0,"id":"TTR","desc":"TEA TREE NDB"},
{"type":"NDB","hdg_t":167.5,"dist_nm":68.9,"freq":362,"lat":-42.81230000,"lon":147.47945000,"rng_nm":45,"alt_fmsl":0,"id":"HB","desc":"HOBART NDB"},
{"type":"VOR","hdg_t":166.2,"dist_nm":71.4,"freq":112.7,"lat":-42.84713889,"lon":147.52666667,"rng_nm":130,"alt_fmsl":48,"id":"HB","desc":"HOBART VOR-DME"},
{"type":"VOR","hdg_t":302.4,"dist_nm":76.2,"freq":115.8,"lat":-40.99926900,"lon":145.72628600,"rng_nm":130,"alt_fmsl":62,"id":"WYY","desc":"WYNYARD VOR"},
{"type":"NDB","hdg_t":302.1,"dist_nm":77,"freq":302,"lat":-40.99797200,"lon":145.70823100,"rng_nm":60,"alt_fmsl":62,"id":"WYY","desc":"WYNYARD NDB"},
{"type":"NDB","hdg_t":250.8,"dist_nm":87.2,"freq":257,"lat":-42.15283100,"lon":145.29484400,"rng_nm":20,"alt_fmsl":0,"id":"SRN","desc":"STRAHAN NDB"}
]
}
