{"success":true,"source":"xp2csv.pl","last_updated":"2013/11/08 14:53:21 UTC"
,"icao":"YLKS","name":"The Lakes","lat":-31.71476128,"lon":152.72466027,"rwys":1,"ils":0,"index":5443218,"path":"e150s40/e152s32"
,"runways":[
{"len_m":882,"wid_m":17.07,"hdg":177,"surf":"Asphalt","rwy1":"17","lat1":-31.71078714,"lon1":152.72444541,"rwy2":"35","lat2":-31.71873541,"lon2":152.72487514}
]
,"navaids":[
{"type":"NDB","hdg_t":226.3,"dist_nm":15.1,"freq":371,"lat":-31.88949400,"lon":152.50948100,"rng_nm":70,"alt_fmsl":0,"id":"TRE","desc":"TAREE NDB"},
{"type":"NDB","hdg_t":23.5,"dist_nm":18.2,"freq":395,"lat":-31.43555600,"lon":152.86666700,"rng_nm":35,"alt_fmsl":0,"id":"PMQ","desc":"PORT MACQUARIE NDB"},
{"type":"NDB","hdg_t":4.8,"dist_nm":39.4,"freq":230,"lat":-31.05833300,"lon":152.79000000,"rng_nm":25,"alt_fmsl":0,"id":"KMP","desc":"KEMPSEY NDB"},
{"type":"NDB","hdg_t":285.9,"dist_nm":70,"freq":326,"lat":-31.38639400,"lon":151.41238600,"rng_nm":60,"alt_fmsl":0,"id":"MSO","desc":"MOUNT SANDON NDB"},
{"type":"VOR","hdg_t":285.8,"dist_nm":70.1,"freq":115.3,"lat":-31.38751700,"lon":151.41079400,"rng_nm":130,"alt_fmsl":0,"id":"MSO","desc":"MOUNT SANDON VOR"},
{"type":"VOR","hdg_t":345.4,"dist_nm":75.5,"freq":116.2,"lat":-30.49245600,"lon":152.35920300,"rng_nm":130,"alt_fmsl":0,"id":"PLO","desc":"POINT LOOKOUT VOR"},
{"type":"NDB","hdg_t":347,"dist_nm":75.6,"freq":296,"lat":-30.48206700,"lon":152.39732500,"rng_nm":40,"alt_fmsl":0,"id":"PLO","desc":"POINT LOOKOUT NDB"},
{"type":"SDME","hdg_t":214.7,"dist_nm":79,"freq":113.3,"lat":-32.79705600,"lon":151.83319400,"rng_nm":25,"alt_fmsl":59,"id":"WLM","desc":"WILLIAMTOWN TACAN"},
{"type":"NDB","hdg_t":214.7,"dist_nm":79.5,"freq":365,"lat":-32.80335300,"lon":151.82878100,"rng_nm":100,"alt_fmsl":30,"id":"WLM","desc":"WILLIAMTOWN NDB"},
{"type":"VOR","hdg_t":13.8,"dist_nm":85.9,"freq":117,"lat":-30.32000000,"lon":153.12166600,"rng_nm":50,"alt_fmsl":28,"id":"CFS","desc":"Coffs Harbour VOR-DME"},
{"type":"NDB","hdg_t":13.6,"dist_nm":86.3,"freq":311,"lat":-30.31222200,"lon":153.11722200,"rng_nm":60,"alt_fmsl":0,"id":"CH","desc":"COFFS HARBOUR NDB"},
{"type":"NDB","hdg_t":223.9,"dist_nm":86.9,"freq":224,"lat":-32.75506100,"lon":151.53275600,"rng_nm":65,"alt_fmsl":0,"id":"WMD","desc":"WEST MAITLAND NDB"},
{"type":"VOR","hdg_t":223.9,"dist_nm":86.9,"freq":114.6,"lat":-32.75488300,"lon":151.53184700,"rng_nm":130,"alt_fmsl":0,"id":"WMD","desc":"WEST MAITLAND VOR"},
{"type":"NDB","hdg_t":235.7,"dist_nm":90,"freq":290,"lat":-32.55222200,"lon":151.25750000,"rng_nm":60,"alt_fmsl":0,"id":"SGT","desc":"SINGLETON NDB"},
{"type":"NDB","hdg_t":320.9,"dist_nm":91.1,"freq":401,"lat":-30.52777800,"lon":151.61527800,"rng_nm":35,"alt_fmsl":3552,"id":"ARM","desc":"ARMIDALE NDB-DME"},
{"type":"SDME","hdg_t":320.9,"dist_nm":91.1,"freq":112.6,"lat":-30.52777800,"lon":151.61527800,"rng_nm":35,"alt_fmsl":3552,"id":"ARM","desc":"ARMIDALE NDB-DME"},
{"type":"NDB","hdg_t":258.2,"dist_nm":98.6,"freq":209,"lat":-32.03474700,"lon":150.83103300,"rng_nm":40,"alt_fmsl":0,"id":"SCO","desc":"SCONE NDB"}
]
}
