{"success":true,"source":"xp2csv.pl","last_updated":"2013/11/08 14:53:21 UTC"
,"icao":"YMBR","name":"Matheson Bore","lat":-28.26950251,"lon":134.14907965,"rwys":1,"ils":0,"index":5148520,"path":"e130s30/e134s29"
,"runways":[
{"len_m":1309,"wid_m":49.99,"hdg":169,"surf":"Dirt","rwy1":"17","lat1":-28.26369202,"lon1":134.14787531,"rwy2":"35","lat2":-28.27531300,"lon2":134.15028400}
]
,"navaids":[
{"type":"NDB","hdg_t":146.5,"dist_nm":54.7,"freq":341,"lat":-29.03194400,"lon":134.72388900,"rng_nm":50,"alt_fmsl":0,"id":"CBP","desc":"COOBER PEDY NDB"},
{"type":"NDB","hdg_t":58.4,"dist_nm":80.9,"freq":308,"lat":-27.55472200,"lon":135.44166700,"rng_nm":85,"alt_fmsl":0,"id":"OOD","desc":"OODNADATTA NDB"},
{"type":"NDB","hdg_t":130.2,"dist_nm":205.2,"freq":206,"lat":-30.45353300,"lon":137.16659700,"rng_nm":45,"alt_fmsl":0,"id":"AMK","desc":"ANDAMOOKA NDB"},
{"type":"NDB","hdg_t":141.7,"dist_nm":221,"freq":248,"lat":-31.14333300,"lon":136.80833300,"rng_nm":85,"alt_fmsl":548,"id":"WR","desc":"WOOMERA NDB"},
{"type":"NDB","hdg_t":185.3,"dist_nm":231.9,"freq":293,"lat":-32.12666700,"lon":133.72694400,"rng_nm":85,"alt_fmsl":0,"id":"CDU","desc":"CEDUNA NDB"},
{"type":"NDB","hdg_t":316.6,"dist_nm":251.7,"freq":233,"lat":-25.17277800,"lon":130.97472200,"rng_nm":100,"alt_fmsl":1636,"id":"AYE","desc":"AYERS ROCK NDB-DME"},
{"type":"SDME","hdg_t":316.6,"dist_nm":251.8,"freq":117.1,"lat":-25.17138900,"lon":130.97472200,"rng_nm":100,"alt_fmsl":1636,"id":"AYE","desc":"AYERS ROCK NDB-DME"},
{"type":"NDB","hdg_t":358.5,"dist_nm":263,"freq":372,"lat":-23.87423300,"lon":134.02983600,"rng_nm":35,"alt_fmsl":0,"id":"WAY","desc":"WALLABY NDB"},
{"type":"VOR","hdg_t":122.8,"dist_nm":263.9,"freq":117.8,"lat":-30.59638900,"lon":138.42888900,"rng_nm":130,"alt_fmsl":856,"id":"LEC","desc":"LEIGH CREEK VOR"},
{"type":"NDB","hdg_t":122.8,"dist_nm":264.5,"freq":287,"lat":-30.59861100,"lon":138.44222200,"rng_nm":85,"alt_fmsl":0,"id":"LEC","desc":"LEIGH CREEK NDB"}
]
}
