{"success":true,"source":"xp2csv.pl","last_updated":"2013/11/08 14:53:21 UTC"
,"icao":"YMBU","name":"Maryborough","lat":-37.033382055,"lon":143.70999577,"rwys":2,"ils":0,"index":5295418,"path":"e140s40/e143s38"
,"runways":[
{"len_m":761,"wid_m":93.88,"hdg":68,"surf":"Dirt","rwy1":"6","lat1":-37.03291155,"lon1":143.70861869,"rwy2":"24","lat2":-37.03038083,"lon2":143.71657659},
{"len_m":1041,"wid_m":17.07,"hdg":172,"surf":"Asphalt","rwy1":"17","lat1":-37.03046198,"lon1":143.70667775,"rwy2":"35","lat2":-37.03977385,"lon2":143.70811005}
]
,"radios":[
{"type":"CTAF","freq":119.1,"desc":"CTAF"}
]
,"navaids":[
{"type":"NDB","hdg_t":172.3,"dist_nm":29,"freq":239,"lat":-37.51361100,"lon":143.79055600,"rng_nm":30,"alt_fmsl":0,"id":"BLT","desc":"BALLARAT NDB"},
{"type":"NDB","hdg_t":59.7,"dist_nm":34.3,"freq":245,"lat":-36.74277800,"lon":144.32611100,"rng_nm":60,"alt_fmsl":700,"id":"BDG","desc":"BENDIGO NDB"},
{"type":"VOR","hdg_t":177.1,"dist_nm":42.3,"freq":114.3,"lat":-37.73841700,"lon":143.75493300,"rng_nm":130,"alt_fmsl":0,"id":"YWE","desc":"YARROWEE VOR"},
{"type":"NDB","hdg_t":177,"dist_nm":42.5,"freq":389,"lat":-37.74224700,"lon":143.75666700,"rng_nm":40,"alt_fmsl":0,"id":"YWE","desc":"YARROWEE NDB"},
{"type":"NDB","hdg_t":116.5,"dist_nm":58.1,"freq":362,"lat":-37.46222200,"lon":144.79833300,"rng_nm":30,"alt_fmsl":0,"id":"BOL","desc":"BOLINDA NDB"},
{"type":"NDB","hdg_t":122.2,"dist_nm":62.4,"freq":338,"lat":-37.58472200,"lon":144.81777800,"rng_nm":30,"alt_fmsl":0,"id":"ROC","desc":"ROCKDALE NDB"},
{"type":"NDB","hdg_t":144.2,"dist_nm":63.6,"freq":224,"lat":-37.89250000,"lon":144.49194400,"rng_nm":25,"alt_fmsl":0,"id":"RPY","desc":"RIPLEY NDB"},
{"type":"VOR","hdg_t":125,"dist_nm":65.9,"freq":114.1,"lat":-37.66000000,"lon":144.84194400,"rng_nm":130,"alt_fmsl":412,"id":"ML","desc":"MELBOURNE VOR-DME"},
{"type":"NDB","hdg_t":148.6,"dist_nm":69.2,"freq":404,"lat":-38.01805600,"lon":144.47111100,"rng_nm":35,"alt_fmsl":35,"id":"AV","desc":"AVALON NDB"},
{"type":"VOR","hdg_t":149.8,"dist_nm":70.5,"freq":116.1,"lat":-38.04888900,"lon":144.45888900,"rng_nm":50,"alt_fmsl":35,"id":"AV","desc":"AVALON VOR-DME"},
{"type":"NDB","hdg_t":126.2,"dist_nm":70.9,"freq":356,"lat":-37.72666700,"lon":144.91138900,"rng_nm":60,"alt_fmsl":0,"id":"EN","desc":"ESSENDON NDB"},
{"type":"NDB","hdg_t":83.8,"dist_nm":71.2,"freq":254,"lat":-36.89722200,"lon":145.18111100,"rng_nm":65,"alt_fmsl":0,"id":"MNG","desc":"MANGALORE NDB"},
{"type":"VOR","hdg_t":83.3,"dist_nm":71.9,"freq":113.2,"lat":-36.88611100,"lon":145.19416700,"rng_nm":130,"alt_fmsl":467,"id":"MNG","desc":"MANGALORE VOR"},
{"type":"NDB","hdg_t":44.7,"dist_nm":72.8,"freq":341,"lat":-36.16538100,"lon":144.76459200,"rng_nm":30,"alt_fmsl":0,"id":"ECH","desc":"ECHUCA NDB"},
{"type":"NDB","hdg_t":137.2,"dist_nm":73.2,"freq":419,"lat":-37.92682500,"lon":144.75637800,"rng_nm":25,"alt_fmsl":0,"id":"PCK","desc":"POINT COOK NDB"},
{"type":"NDB","hdg_t":121.6,"dist_nm":73.6,"freq":377,"lat":-37.67166700,"lon":145.02638900,"rng_nm":40,"alt_fmsl":0,"id":"EPP","desc":"EPPING NDB"},
{"type":"NDB","hdg_t":303.9,"dist_nm":75.8,"freq":209,"lat":-36.31946900,"lon":142.41152500,"rng_nm":75,"alt_fmsl":0,"id":"WKB","desc":"WARRACKNABEAL NDB"},
{"type":"NDB","hdg_t":285.7,"dist_nm":77.3,"freq":401,"lat":-36.67194400,"lon":142.16805600,"rng_nm":50,"alt_fmsl":0,"id":"HSM","desc":"HORSHAM NDB"},
{"type":"NDB","hdg_t":121.9,"dist_nm":78.6,"freq":218,"lat":-37.72027800,"lon":145.11138900,"rng_nm":36,"alt_fmsl":0,"id":"PLE","desc":"PLENTY NDB"},
{"type":"NDB","hdg_t":131,"dist_nm":86.8,"freq":398,"lat":-37.97651100,"lon":145.09032200,"rng_nm":65,"alt_fmsl":0,"id":"MB","desc":"MOORABBIN NDB"},
{"type":"NDB","hdg_t":244.4,"dist_nm":87.2,"freq":203,"lat":-37.64916700,"lon":142.05777800,"rng_nm":45,"alt_fmsl":0,"id":"HML","desc":"HAMILTON NDB"},
{"type":"NDB","hdg_t":66.4,"dist_nm":89,"freq":212,"lat":-36.42836100,"lon":145.39602200,"rng_nm":30,"alt_fmsl":0,"id":"SHT","desc":"SHEPPARTON NDB"},
{"type":"NDB","hdg_t":218.1,"dist_nm":96,"freq":395,"lat":-38.28736100,"lon":142.45368300,"rng_nm":45,"alt_fmsl":0,"id":"WBL","desc":"WARRNAMBOOL NDB"},
{"type":"NDB","hdg_t":84.2,"dist_nm":98.1,"freq":413,"lat":-36.85276100,"lon":145.73848100,"rng_nm":35,"alt_fmsl":0,"id":"SBG","desc":"STRATHBOGIE NDB"},
{"type":"NDB","hdg_t":355.1,"dist_nm":99.3,"freq":407,"lat":-35.38050000,"lon":143.54030600,"rng_nm":45,"alt_fmsl":0,"id":"SWH","desc":"SWAN HILL NDB"}
]
}
