{"success":true,"source":"xp2csv.pl","last_updated":"2013/11/08 14:53:21 UTC"
,"icao":"YMDE","name":"Mount Dore","lat":-21.67302899,"lon":140.51966712,"rwys":1,"ils":0,"index":5247252,"path":"e140s30/e140s22"
,"runways":[
{"len_m":2268,"wid_m":49.99,"hdg":161,"surf":"Transparent","rwy1":"16","lat1":-21.66331897,"lon1":140.51618323,"rwy2":"34","lat2":-21.68273900,"lon2":140.52315100}
]
,"navaids":[
{"type":"NDB","hdg_t":256,"dist_nm":34.2,"freq":323,"lat":-21.80972200,"lon":139.92416700,"rng_nm":20,"alt_fmsl":0,"id":"TMO","desc":"THE MONUMENT NDB"},
{"type":"NDB","hdg_t":359,"dist_nm":60.2,"freq":264,"lat":-20.66555600,"lon":140.50111100,"rng_nm":75,"alt_fmsl":616,"id":"CCY","desc":"CLONCURRY NDB"},
{"type":"NDB","hdg_t":204.5,"dist_nm":81.6,"freq":398,"lat":-22.91472200,"lon":139.90694400,"rng_nm":75,"alt_fmsl":542,"id":"BOU","desc":"BOULIA NDB"},
{"type":"NDB","hdg_t":315.6,"dist_nm":83.1,"freq":338,"lat":-20.67527800,"lon":139.48666700,"rng_nm":80,"alt_fmsl":1185,"id":"MA","desc":"MOUNT ISA NDB"},
{"type":"VOR","hdg_t":315.9,"dist_nm":83.6,"freq":117.5,"lat":-20.66472200,"lon":139.48583300,"rng_nm":130,"alt_fmsl":1142,"id":"MA","desc":"MOUNT ISA VOR-DME"},
{"type":"NDB","hdg_t":48.4,"dist_nm":90.5,"freq":206,"lat":-20.66500000,"lon":141.72416700,"rng_nm":40,"alt_fmsl":404,"id":"JLC","desc":"JULIA CREEK NDB"},
{"type":"NDB","hdg_t":106.6,"dist_nm":148.8,"freq":386,"lat":-22.36527800,"lon":143.08388900,"rng_nm":65,"alt_fmsl":638,"id":"WTN","desc":"WINTON NDB"},
{"type":"NDB","hdg_t":68.5,"dist_nm":156.5,"freq":215,"lat":-20.69777800,"lon":143.11000000,"rng_nm":40,"alt_fmsl":676,"id":"RMD","desc":"RICHMOND NDB"},
{"type":"NDB","hdg_t":307.4,"dist_nm":171.1,"freq":254,"lat":-19.91472200,"lon":138.11694400,"rng_nm":65,"alt_fmsl":792,"id":"CMW","desc":"CAMOOWEAL NDB"},
{"type":"NDB","hdg_t":329.2,"dist_nm":202.3,"freq":293,"lat":-18.75388900,"lon":138.70305600,"rng_nm":20,"alt_fmsl":0,"id":"CNY","desc":"CENTURY MINE NDB"}
]
}
