{"success":true,"source":"xp2csv.pl","last_updated":"2013/11/08 14:53:21 UTC"
,"icao":"YMER","name":"Merimbula","lat":-36.90687525,"lon":149.90162555,"rwys":1,"ils":0,"index":5393731,"path":"e140s40/e149s37"
,"runways":[
{"len_m":1599,"wid_m":29.87,"hdg":33,"surf":"Asphalt","rwy1":"03","lat1":-36.91285489,"lon1":149.89661935,"rwy2":"21","lat2":-36.90089561,"lon2":149.90663175}
]
,"radios":[
{"type":"CTAF","freq":119.6,"desc":"ACTIVATE LIGHTS ONLY MULT"},
{"type":"CTAF","freq":118.8,"desc":"MELBOURNE CENTRE MULT"},
{"type":"CTAF","freq":126.7,"desc":"MERIMBULA MULT"}
]
,"navaids":[
{"type":"NDB","hdg_t":193.4,"dist_nm":0.4,"freq":395,"lat":-36.91425300,"lon":149.89943300,"rng_nm":20,"alt_fmsl":90,"id":"MER","desc":"MERIMBULA NDB-DME"},
{"type":"SDME","hdg_t":193.8,"dist_nm":0.4,"freq":117.7,"lat":-36.91453100,"lon":149.89926700,"rng_nm":20,"alt_fmsl":90,"id":"MER","desc":"MERIMBULA NDB-DME"},
{"type":"NDB","hdg_t":191.2,"dist_nm":42.1,"freq":338,"lat":-37.59664400,"lon":149.72908100,"rng_nm":40,"alt_fmsl":0,"id":"MCO","desc":"MALLACOOTA NDB"},
{"type":"VOR","hdg_t":191.9,"dist_nm":42.2,"freq":117.5,"lat":-37.59616667,"lon":149.71833333,"rng_nm":130,"alt_fmsl":133,"id":"MCO","desc":"MALLACOOTA VOR-DME"},
{"type":"NDB","hdg_t":305.7,"dist_nm":56.3,"freq":293,"lat":-36.35378600,"lon":148.95751900,"rng_nm":75,"alt_fmsl":3117,"id":"COM","desc":"COOMA NDB-DME"},
{"type":"SDME","hdg_t":305.7,"dist_nm":56.3,"freq":114,"lat":-36.35430600,"lon":148.95769400,"rng_nm":75,"alt_fmsl":3117,"id":"COM","desc":"COOMA NDB-DME"},
{"type":"NDB","hdg_t":11,"dist_nm":61.5,"freq":215,"lat":-35.89837200,"lon":150.14274200,"rng_nm":25,"alt_fmsl":0,"id":"MRY","desc":"MORUYA NDB"},
{"type":"VOR","hdg_t":336.1,"dist_nm":87.7,"freq":113,"lat":-35.56405000,"lon":149.17756100,"rng_nm":130,"alt_fmsl":0,"id":"WLE","desc":"WILLIAMSDALE VOR"},
{"type":"NDB","hdg_t":336.2,"dist_nm":87.9,"freq":287,"lat":-35.56162800,"lon":149.17816700,"rng_nm":45,"alt_fmsl":0,"id":"WLE","desc":"WILLIAMSDALE NDB"},
{"type":"NDB","hdg_t":338.1,"dist_nm":93,"freq":248,"lat":-35.46416700,"lon":149.19472200,"rng_nm":20,"alt_fmsl":0,"id":"CCK","desc":"CHURCH CREEK NDB"}
]
}
