{"success":true,"source":"xp2csv.pl","last_updated":"2013/11/08 14:53:21 UTC"
,"icao":"YMHT","name":"Mount Hart Stn","lat":-16.82315085,"lon":124.91390209,"rwys":1,"ils":0,"index":4985423,"path":"e120s20/e124s17"
,"runways":[
{"len_m":1296,"wid_m":28.96,"hdg":24,"surf":"Gravel","rwy1":"2","lat1":-16.82847523,"lon1":124.91136715,"rwy2":"20","lat2":-16.81782647,"lon2":124.91643703}
]
,"navaids":[
{"type":"VOR","hdg_t":232.9,"dist_nm":76.2,"freq":114.3,"lat":-17.58888889,"lon":123.85194444,"rng_nm":130,"alt_fmsl":27,"id":"CIN","desc":"CURTIN VOR-DME"},
{"type":"NDB","hdg_t":234,"dist_nm":76.7,"freq":350,"lat":-17.57416700,"lon":123.83083300,"rng_nm":75,"alt_fmsl":300,"id":"CIN","desc":"CURTIN NDB"},
{"type":"NDB","hdg_t":245.8,"dist_nm":78.4,"freq":332,"lat":-17.35694400,"lon":123.66694400,"rng_nm":50,"alt_fmsl":24,"id":"DBY","desc":"DERBY NDB"},
{"type":"NDB","hdg_t":155.7,"dist_nm":89.3,"freq":407,"lat":-18.18472200,"lon":125.55703600,"rng_nm":55,"alt_fmsl":368,"id":"FTZ","desc":"FITZROY CROSSING NDB"},
{"type":"NDB","hdg_t":75.1,"dist_nm":90.5,"freq":392,"lat":-16.42944400,"lon":126.43138900,"rng_nm":60,"alt_fmsl":0,"id":"GIB","desc":"GIBB RIVER NDB"},
{"type":"NDB","hdg_t":246,"dist_nm":167.7,"freq":320,"lat":-17.94638900,"lon":122.23527800,"rng_nm":60,"alt_fmsl":67,"id":"BRM","desc":"BROOME NDB-DME"},
{"type":"SDME","hdg_t":246,"dist_nm":167.7,"freq":115.3,"lat":-17.94694400,"lon":122.23472200,"rng_nm":60,"alt_fmsl":67,"id":"BRM","desc":"BROOME NDB-DME"},
{"type":"NDB","hdg_t":118.4,"dist_nm":178.8,"freq":266,"lat":-18.23000000,"lon":127.66638900,"rng_nm":85,"alt_fmsl":1346,"id":"HLC","desc":"HALLS CREEK NDB"},
{"type":"NDB","hdg_t":27.7,"dist_nm":184.2,"freq":359,"lat":-14.08972200,"lon":126.38666700,"rng_nm":30,"alt_fmsl":0,"id":"TST","desc":"TRUSCOTT NDB"},
{"type":"NDB","hdg_t":21.5,"dist_nm":196.8,"freq":413,"lat":-13.75472200,"lon":126.14861100,"rng_nm":45,"alt_fmsl":0,"id":"TTX","desc":"TROUGHTON ISLAND NDB"}
]
}
