{"success":true,"source":"xp2csv.pl","last_updated":"2013/11/08 14:53:21 UTC"
,"icao":"YMIV","name":"Mount Ive","lat":-32.44333835,"lon":136.0690129,"rwys":3,"ils":0,"index":5181024,"path":"e130s40/e136s33"
,"runways":[
{"len_m":484,"wid_m":18.90,"hdg":174,"surf":"Dirt","rwy1":"17","lat1":-32.44028698,"lon1":136.06837180,"rwy2":"35","lat2":-32.44463570,"lon2":136.06890820},
{"len_m":804,"wid_m":17.98,"hdg":80,"surf":"Dirt","rwy1":"8","lat1":-32.44477501,"lon1":136.06366395,"rwy2":"26","lat2":-32.44359024,"lon2":136.07210158},
{"len_m":1029,"wid_m":21.95,"hdg":46,"surf":"Dirt","rwy1":"4","lat1":-32.44655830,"lon1":136.06653272,"rwy2":"22","lat2":-32.44018388,"lon2":136.07449914}
]
,"navaids":[
{"type":"NDB","hdg_t":242.5,"dist_nm":52.4,"freq":200,"lat":-32.84333300,"lon":135.14805600,"rng_nm":40,"alt_fmsl":0,"id":"MPA","desc":"MINNIPA NDB"},
{"type":"NDB","hdg_t":116.9,"dist_nm":82.3,"freq":371,"lat":-33.05805600,"lon":137.52416700,"rng_nm":75,"alt_fmsl":41,"id":"WHA","desc":"WHYALLA NDB"},
{"type":"NDB","hdg_t":93.8,"dist_nm":82.9,"freq":212,"lat":-32.52638900,"lon":137.70111100,"rng_nm":40,"alt_fmsl":0,"id":"PAG","desc":"PORT AUGUSTA NDB"},
{"type":"NDB","hdg_t":26.1,"dist_nm":86.5,"freq":248,"lat":-31.14333300,"lon":136.80833300,"rng_nm":85,"alt_fmsl":548,"id":"WR","desc":"WOOMERA NDB"},
{"type":"NDB","hdg_t":199.7,"dist_nm":107.1,"freq":353,"lat":-34.12555600,"lon":135.34138900,"rng_nm":75,"alt_fmsl":0,"id":"MTP","desc":"MOUNT HOPE NDB"},
{"type":"VOR","hdg_t":199.7,"dist_nm":107.7,"freq":117.9,"lat":-34.13500000,"lon":135.33972200,"rng_nm":130,"alt_fmsl":540,"id":"MTP","desc":"MOUNT HOPE VOR-DME"},
{"type":"NDB","hdg_t":278.4,"dist_nm":120.6,"freq":293,"lat":-32.12666700,"lon":133.72694400,"rng_nm":85,"alt_fmsl":0,"id":"CDU","desc":"CEDUNA NDB"},
{"type":"NDB","hdg_t":184.2,"dist_nm":129.7,"freq":389,"lat":-34.60444400,"lon":135.87333300,"rng_nm":70,"alt_fmsl":0,"id":"PLC","desc":"PORT LINCOLN NDB"},
{"type":"NDB","hdg_t":25.5,"dist_nm":131.7,"freq":206,"lat":-30.45353300,"lon":137.16659700,"rng_nm":45,"alt_fmsl":0,"id":"AMK","desc":"ANDAMOOKA NDB"},
{"type":"VOR","hdg_t":142.7,"dist_nm":149.5,"freq":115.8,"lat":-34.41653100,"lon":137.89332200,"rng_nm":130,"alt_fmsl":0,"id":"ARS","desc":"ARDROSSAN VOR"}
]
}
