{"success":true,"source":"xp2csv.pl","last_updated":"2013/11/08 14:53:21 UTC"
,"icao":"YMLD","name":"Maitland","lat":-34.39177848,"lon":137.707812,"rwys":1,"ils":0,"index":5197282,"path":"e130s40/e137s35"
,"runways":[
{"len_m":1233,"wid_m":21.95,"hdg":179,"surf":"Dirt","rwy1":"18","lat1":-34.38621994,"lon1":137.70778849,"rwy2":"36","lat2":-34.39733702,"lon2":137.70783552}
]
,"radios":[
{"type":"CTAF","freq":126.7,"desc":"CTAF"}
]
,"navaids":[
{"type":"VOR","hdg_t":99.1,"dist_nm":9.3,"freq":115.8,"lat":-34.41653100,"lon":137.89332200,"rng_nm":130,"alt_fmsl":0,"id":"ARS","desc":"ARDROSSAN VOR"},
{"type":"NDB","hdg_t":97.1,"dist_nm":10.7,"freq":398,"lat":-34.41411400,"lon":137.92316100,"rng_nm":75,"alt_fmsl":0,"id":"ARS","desc":"ARDROSSAN NDB"},
{"type":"SDME","hdg_t":112.9,"dist_nm":48.5,"freq":114.7,"lat":-34.70472200,"lon":138.61250000,"rng_nm":40,"alt_fmsl":85,"id":"EDN","desc":"EDINBURGH TACAN"},
{"type":"NDB","hdg_t":112.6,"dist_nm":49.5,"freq":311,"lat":-34.70694400,"lon":138.63166700,"rng_nm":85,"alt_fmsl":67,"id":"EDN","desc":"EDINBURGH NDB"},
{"type":"NDB","hdg_t":118.7,"dist_nm":51.2,"freq":416,"lat":-34.79972200,"lon":138.61722200,"rng_nm":35,"alt_fmsl":30,"id":"PF","desc":"PARAFIELD NDB"},
{"type":"VOR","hdg_t":129.6,"dist_nm":52.3,"freq":116.4,"lat":-34.94694700,"lon":138.52444400,"rng_nm":130,"alt_fmsl":32,"id":"AD","desc":"ADELAIDE VOR-DME"},
{"type":"NDB","hdg_t":128.9,"dist_nm":53.1,"freq":362,"lat":-34.94638900,"lon":138.54611100,"rng_nm":85,"alt_fmsl":20,"id":"AD","desc":"ADELAIDE NDB"},
{"type":"NDB","hdg_t":118.5,"dist_nm":55.7,"freq":377,"lat":-34.83222200,"lon":138.69888900,"rng_nm":70,"alt_fmsl":0,"id":"MBY","desc":"MODBURY NDB"},
{"type":"NDB","hdg_t":186.8,"dist_nm":79.4,"freq":215,"lat":-35.70916700,"lon":137.51416700,"rng_nm":35,"alt_fmsl":0,"id":"KSC","desc":"KINGSCOTE NDB"},
{"type":"NDB","hdg_t":353.3,"dist_nm":80.4,"freq":371,"lat":-33.05805600,"lon":137.52416700,"rng_nm":75,"alt_fmsl":41,"id":"WHA","desc":"WHYALLA NDB"},
{"type":"NDB","hdg_t":90.4,"dist_nm":81.5,"freq":257,"lat":-34.39222200,"lon":139.34972200,"rng_nm":85,"alt_fmsl":0,"id":"SFL","desc":"STONEFIELD NDB"},
{"type":"NDB","hdg_t":261.5,"dist_nm":91.8,"freq":389,"lat":-34.60444400,"lon":135.87333300,"rng_nm":70,"alt_fmsl":0,"id":"PLC","desc":"PORT LINCOLN NDB"}
]
}
