{"success":true,"source":"xp2csv.pl","last_updated":"2013/11/08 14:53:21 UTC"
,"icao":"YMMY","name":"Manmoyi","lat":-12.54035232,"lon":134.11373023,"rwys":1,"ils":0,"index":5149528,"path":"e130s20/e134s13"
,"runways":[
{"len_m":1049,"wid_m":43.89,"hdg":100,"surf":"Dirt","rwy1":"10","lat1":-12.53945818,"lon1":134.10898738,"rwy2":"28","lat2":-12.54124645,"lon2":134.11847309}
]
,"navaids":[
{"type":"NDB","hdg_t":13.6,"dist_nm":29.3,"freq":401,"lat":-12.06277800,"lon":134.23166700,"rng_nm":35,"alt_fmsl":123,"id":"MGD","desc":"MANINGRIDA NDB"},
{"type":"NDB","hdg_t":164.4,"dist_nm":135.5,"freq":233,"lat":-14.72500000,"lon":134.73861100,"rng_nm":80,"alt_fmsl":45,"id":"NGU","desc":"NGUKURR NDB"},
{"type":"VOR","hdg_t":220.5,"dist_nm":156,"freq":112.3,"lat":-14.51916700,"lon":132.37111100,"rng_nm":130,"alt_fmsl":443,"id":"TN","desc":"TINDAL VOR"},
{"type":"SDME","hdg_t":220.4,"dist_nm":156.2,"freq":112.3,"lat":-14.52472200,"lon":132.37166700,"rng_nm":25,"alt_fmsl":443,"id":"TDL","desc":"TINDAL TACAN"},
{"type":"NDB","hdg_t":220.7,"dist_nm":156.3,"freq":356,"lat":-14.51583300,"lon":132.36027800,"rng_nm":85,"alt_fmsl":0,"id":"TN","desc":"TINDAL NDB"},
{"type":"VOR","hdg_t":84.3,"dist_nm":159.5,"freq":114.1,"lat":-12.26500000,"lon":136.81611100,"rng_nm":130,"alt_fmsl":189,"id":"GV","desc":"GOVE VOR-DME"},
{"type":"NDB","hdg_t":84.5,"dist_nm":159.9,"freq":380,"lat":-12.27027800,"lon":136.82444400,"rng_nm":65,"alt_fmsl":179,"id":"GV","desc":"GOVE NDB"},
{"type":"NDB","hdg_t":122.2,"dist_nm":161.6,"freq":407,"lat":-13.97500000,"lon":136.45555600,"rng_nm":60,"alt_fmsl":63,"id":"GTE","desc":"GROOTE EYLANDT NDB-DME"},
{"type":"SDME","hdg_t":122.2,"dist_nm":161.6,"freq":114.8,"lat":-13.97500000,"lon":136.45555600,"rng_nm":60,"alt_fmsl":63,"id":"GTE","desc":"GROOTE EYLANDT NDB-DME"},
{"type":"NDB","hdg_t":271,"dist_nm":180.2,"freq":257,"lat":-12.46888900,"lon":131.04305600,"rng_nm":30,"alt_fmsl":0,"id":"HWS","desc":"HOWARD SPRINGS NDB"}
]
}
