{"success":true,"source":"xp2csv.pl","last_updated":"2013/11/08 14:53:21 UTC"
,"icao":"YMRD","name":"Marda","lat":-30.1802724,"lon":119.29953608,"rwys":2,"ils":0,"index":4902641,"path":"e110s40/e119s31"
,"runways":[
{"len_m":1012,"wid_m":49.99,"hdg":42,"surf":"Dirt","rwy1":"4","lat1":-30.18090471,"lon1":119.29620821,"rwy2":"22","lat2":-30.17414000,"lon2":119.30327801},
{"len_m":799,"wid_m":29.87,"hdg":130,"surf":"Dirt","rwy1":"13","lat1":-30.18068786,"lon1":119.29616277,"rwy2":"31","lat2":-30.18535703,"lon2":119.30249532}
]
,"navaids":[
{"type":"NDB","hdg_t":177.3,"dist_nm":63,"freq":221,"lat":-31.23222200,"lon":119.35583300,"rng_nm":80,"alt_fmsl":0,"id":"SCR","desc":"SOUTHERN CROSS NDB"},
{"type":"NDB","hdg_t":108.4,"dist_nm":116.5,"freq":287,"lat":-30.77777800,"lon":121.43944400,"rng_nm":80,"alt_fmsl":0,"id":"KG","desc":"KALGOORLIE NDB"},
{"type":"VOR","hdg_t":108.6,"dist_nm":117.4,"freq":114.1,"lat":-30.78972200,"lon":121.45277800,"rng_nm":50,"alt_fmsl":1203,"id":"KG","desc":"KALGOORLIE VOR-DME"},
{"type":"NDB","hdg_t":202.1,"dist_nm":122.4,"freq":227,"lat":-32.07166700,"lon":118.39500000,"rng_nm":80,"alt_fmsl":0,"id":"NRB","desc":"NAREMBEEN NDB"},
{"type":"NDB","hdg_t":54.1,"dist_nm":131.3,"freq":377,"lat":-28.87888900,"lon":121.32027800,"rng_nm":70,"alt_fmsl":0,"id":"LEO","desc":"LEONORA NDB"},
{"type":"VOR","hdg_t":258.6,"dist_nm":133,"freq":114.3,"lat":-30.59404700,"lon":116.77976400,"rng_nm":130,"alt_fmsl":0,"id":"BIU","desc":"BALLIDU VOR"},
{"type":"NDB","hdg_t":258.7,"dist_nm":133.5,"freq":389,"lat":-30.59164200,"lon":116.76946900,"rng_nm":70,"alt_fmsl":0,"id":"BIU","desc":"BALLIDU NDB"},
{"type":"NDB","hdg_t":230.5,"dist_nm":137.6,"freq":293,"lat":-31.62500000,"lon":117.22388900,"rng_nm":85,"alt_fmsl":699,"id":"CUN","desc":"CUNDERDIN NDB"},
{"type":"NDB","hdg_t":328.5,"dist_nm":147.9,"freq":395,"lat":-28.06416700,"lon":117.84361100,"rng_nm":85,"alt_fmsl":0,"id":"MOG","desc":"MOUNT MAGNET NDB"},
{"type":"NDB","hdg_t":28,"dist_nm":158.2,"freq":230,"lat":-27.84055600,"lon":120.70027800,"rng_nm":70,"alt_fmsl":0,"id":"LST","desc":"LEINSTER NDB"}
]
}
