{"success":true,"source":"xp2csv.pl","last_updated":"2013/11/08 14:53:21 UTC"
,"icao":"YMUE","name":"Mount Borradale","lat":-12.09801631,"lon":132.88925307,"rwys":2,"ils":0,"index":5116799,"path":"e130s20/e132s13"
,"runways":[
{"len_m":2,"wid_m":39.93,"hdg":26,"surf":"Dirt","rwy1":"17","lat1":-12.09833300,"lon1":132.89000000,"rwy2":"35","lat2":-12.09831111,"lon2":132.89001111},
{"len_m":1125,"wid_m":39.93,"hdg":107,"surf":"Dirt","rwy1":"10","lat1":-12.09614851,"lon1":132.88358305,"rwy2":"28","lat2":-12.09927260,"lon2":132.89341812}
]
,"navaids":[
{"type":"NDB","hdg_t":88.6,"dist_nm":78.9,"freq":401,"lat":-12.06277800,"lon":134.23166700,"rng_nm":35,"alt_fmsl":123,"id":"MGD","desc":"MANINGRIDA NDB"},
{"type":"NDB","hdg_t":258.2,"dist_nm":110.6,"freq":257,"lat":-12.46888900,"lon":131.04305600,"rng_nm":30,"alt_fmsl":0,"id":"HWS","desc":"HOWARD SPRINGS NDB"},
{"type":"NDB","hdg_t":259.8,"dist_nm":114.9,"freq":344,"lat":-12.43138900,"lon":130.96138900,"rng_nm":85,"alt_fmsl":105,"id":"DN","desc":"DARWIN NDB"},
{"type":"VOR","hdg_t":260.3,"dist_nm":118,"freq":112.6,"lat":-12.42333333,"lon":130.90638889,"rng_nm":130,"alt_fmsl":127,"id":"DN","desc":"DARWIN VOR-DME"},
{"type":"SDME","hdg_t":260.6,"dist_nm":119.3,"freq":113.7,"lat":-12.41373300,"lon":130.88325800,"rng_nm":25,"alt_fmsl":105,"id":"DAR","desc":"DARWIN TACAN"},
{"type":"NDB","hdg_t":261,"dist_nm":120.8,"freq":308,"lat":-12.40666700,"lon":130.85694400,"rng_nm":50,"alt_fmsl":0,"id":"BGT","desc":"BAGOT NDB"},
{"type":"NDB","hdg_t":192,"dist_nm":147.7,"freq":356,"lat":-14.51583300,"lon":132.36027800,"rng_nm":85,"alt_fmsl":0,"id":"TN","desc":"TINDAL NDB"},
{"type":"VOR","hdg_t":191.7,"dist_nm":147.7,"freq":112.3,"lat":-14.51916700,"lon":132.37111100,"rng_nm":130,"alt_fmsl":443,"id":"TN","desc":"TINDAL VOR"},
{"type":"SDME","hdg_t":191.7,"dist_nm":148,"freq":112.3,"lat":-14.52472200,"lon":132.37166700,"rng_nm":25,"alt_fmsl":443,"id":"TDL","desc":"TINDAL TACAN"},
{"type":"NDB","hdg_t":145.6,"dist_nm":190.5,"freq":233,"lat":-14.72500000,"lon":134.73861100,"rng_nm":80,"alt_fmsl":45,"id":"NGU","desc":"NGUKURR NDB"}
]
}
