{"success":true,"source":"xp2csv.pl","last_updated":"2013/11/08 14:53:21 UTC"
,"icao":"YMUH","name":"Muthmamal","lat":-12.16029132,"lon":136.17465096,"rwys":1,"ils":0,"index":5182321,"path":"e130s20/e136s13"
,"runways":[
{"len_m":616,"wid_m":21.95,"hdg":88,"surf":"Dirt","rwy1":"8","lat1":-12.16035386,"lon1":136.17181881,"rwy2":"26","lat2":-12.16022879,"lon2":136.17748311}
]
,"navaids":[
{"type":"VOR","hdg_t":99.4,"dist_nm":38.2,"freq":114.1,"lat":-12.26500000,"lon":136.81611100,"rng_nm":130,"alt_fmsl":189,"id":"GV","desc":"GOVE VOR-DME"},
{"type":"NDB","hdg_t":99.8,"dist_nm":38.7,"freq":380,"lat":-12.27027800,"lon":136.82444400,"rng_nm":65,"alt_fmsl":179,"id":"GV","desc":"GOVE NDB"},
{"type":"NDB","hdg_t":171.4,"dist_nm":109.6,"freq":407,"lat":-13.97500000,"lon":136.45555600,"rng_nm":60,"alt_fmsl":63,"id":"GTE","desc":"GROOTE EYLANDT NDB-DME"},
{"type":"SDME","hdg_t":171.4,"dist_nm":109.6,"freq":114.8,"lat":-13.97500000,"lon":136.45555600,"rng_nm":60,"alt_fmsl":63,"id":"GTE","desc":"GROOTE EYLANDT NDB-DME"},
{"type":"NDB","hdg_t":272.7,"dist_nm":114.3,"freq":401,"lat":-12.06277800,"lon":134.23166700,"rng_nm":35,"alt_fmsl":123,"id":"MGD","desc":"MANINGRIDA NDB"},
{"type":"NDB","hdg_t":208.5,"dist_nm":174.7,"freq":233,"lat":-14.72500000,"lon":134.73861100,"rng_nm":80,"alt_fmsl":45,"id":"NGU","desc":"NGUKURR NDB"},
{"type":"NDB","hdg_t":178.1,"dist_nm":234.1,"freq":218,"lat":-16.07722200,"lon":136.30500000,"rng_nm":100,"alt_fmsl":55,"id":"BRL","desc":"BORROLOOLA NDB"},
{"type":"NDB","hdg_t":181.2,"dist_nm":256.1,"freq":368,"lat":-16.44611100,"lon":136.07805600,"rng_nm":50,"alt_fmsl":131,"id":"MHU","desc":"MCARTHUR RIVER MINE NDB"},
{"type":"VOR","hdg_t":237.2,"dist_nm":263.3,"freq":112.3,"lat":-14.51916700,"lon":132.37111100,"rng_nm":130,"alt_fmsl":443,"id":"TN","desc":"TINDAL VOR"},
{"type":"SDME","hdg_t":237.1,"dist_nm":263.4,"freq":112.3,"lat":-14.52472200,"lon":132.37166700,"rng_nm":25,"alt_fmsl":443,"id":"TDL","desc":"TINDAL TACAN"}
]
}
