{"success":true,"source":"xp2csv.pl","last_updated":"2013/11/08 14:53:21 UTC"
,"icao":"YNAL","name":"Naliyindi","lat":-12.54069282,"lon":135.17682206,"rwys":1,"ils":0,"index":5165913,"path":"e130s20/e135s13"
,"runways":[
{"len_m":726,"wid_m":35.97,"hdg":121,"surf":"Dirt","rwy1":"12","lat1":-12.53897370,"lon1":135.17397640,"rwy2":"30","lat2":-12.54241194,"lon2":135.17966772}
]
,"navaids":[
{"type":"NDB","hdg_t":297.1,"dist_nm":62.4,"freq":401,"lat":-12.06277800,"lon":134.23166700,"rng_nm":35,"alt_fmsl":123,"id":"MGD","desc":"MANINGRIDA NDB"},
{"type":"VOR","hdg_t":80.4,"dist_nm":97.6,"freq":114.1,"lat":-12.26500000,"lon":136.81611100,"rng_nm":130,"alt_fmsl":189,"id":"GV","desc":"GOVE VOR-DME"},
{"type":"NDB","hdg_t":80.6,"dist_nm":98,"freq":380,"lat":-12.27027800,"lon":136.82444400,"rng_nm":65,"alt_fmsl":179,"id":"GV","desc":"GOVE NDB"},
{"type":"NDB","hdg_t":139,"dist_nm":113.7,"freq":407,"lat":-13.97500000,"lon":136.45555600,"rng_nm":60,"alt_fmsl":63,"id":"GTE","desc":"GROOTE EYLANDT NDB-DME"},
{"type":"SDME","hdg_t":139,"dist_nm":113.7,"freq":114.8,"lat":-13.97500000,"lon":136.45555600,"rng_nm":60,"alt_fmsl":63,"id":"GTE","desc":"GROOTE EYLANDT NDB-DME"},
{"type":"NDB","hdg_t":191,"dist_nm":132.9,"freq":233,"lat":-14.72500000,"lon":134.73861100,"rng_nm":80,"alt_fmsl":45,"id":"NGU","desc":"NGUKURR NDB"},
{"type":"VOR","hdg_t":233.8,"dist_nm":202.1,"freq":112.3,"lat":-14.51916700,"lon":132.37111100,"rng_nm":130,"alt_fmsl":443,"id":"TN","desc":"TINDAL VOR"},
{"type":"SDME","hdg_t":233.8,"dist_nm":202.3,"freq":112.3,"lat":-14.52472200,"lon":132.37166700,"rng_nm":25,"alt_fmsl":443,"id":"TDL","desc":"TINDAL TACAN"},
{"type":"NDB","hdg_t":234,"dist_nm":202.5,"freq":356,"lat":-14.51583300,"lon":132.36027800,"rng_nm":85,"alt_fmsl":0,"id":"TN","desc":"TINDAL NDB"},
{"type":"NDB","hdg_t":162.8,"dist_nm":221.2,"freq":218,"lat":-16.07722200,"lon":136.30500000,"rng_nm":100,"alt_fmsl":55,"id":"BRL","desc":"BORROLOOLA NDB"}
]
}
