{"success":true,"source":"xp2csv.pl","last_updated":"2013/11/08 14:53:21 UTC"
,"icao":"YNHP","name":"Northampton","lat":-28.3420791,"lon":114.71685496,"rwys":1,"ils":0,"index":4820842,"path":"e110s30/e114s29"
,"runways":[
{"len_m":1140,"wid_m":14.94,"hdg":63,"surf":"Dirt","rwy1":"6","lat1":-28.34434195,"lon1":114.71163163,"rwy2":"24","lat2":-28.33981625,"lon2":114.72207829}
]
,"navaids":[
{"type":"VOR","hdg_t":181.2,"dist_nm":26.8,"freq":113.9,"lat":-28.79027800,"lon":114.70611100,"rng_nm":50,"alt_fmsl":145,"id":"GEL","desc":"GERALDTON VOR-DME"},
{"type":"NDB","hdg_t":181.6,"dist_nm":27.3,"freq":359,"lat":-28.79833300,"lon":114.70166700,"rng_nm":80,"alt_fmsl":0,"id":"GEL","desc":"GERALDTON NDB"},
{"type":"NDB","hdg_t":127.2,"dist_nm":86.2,"freq":407,"lat":-29.20888900,"lon":116.02361100,"rng_nm":50,"alt_fmsl":0,"id":"MRW","desc":"MORAWA NDB"},
{"type":"VOR","hdg_t":171.5,"dist_nm":119.2,"freq":112,"lat":-30.31333300,"lon":115.05388900,"rng_nm":50,"alt_fmsl":0,"id":"JNB","desc":"JURIEN BAY VOR"},
{"type":"NDB","hdg_t":85,"dist_nm":166.5,"freq":395,"lat":-28.06416700,"lon":117.84361100,"rng_nm":85,"alt_fmsl":0,"id":"MOG","desc":"MOUNT MAGNET NDB"},
{"type":"NDB","hdg_t":141.8,"dist_nm":172.2,"freq":389,"lat":-30.59164200,"lon":116.76946900,"rng_nm":70,"alt_fmsl":0,"id":"BIU","desc":"BALLIDU NDB"},
{"type":"VOR","hdg_t":141.7,"dist_nm":172.7,"freq":114.3,"lat":-30.59404700,"lon":116.77976400,"rng_nm":130,"alt_fmsl":0,"id":"BIU","desc":"BALLIDU VOR"},
{"type":"NDB","hdg_t":162.4,"dist_nm":195.9,"freq":372,"lat":-31.45972200,"lon":115.86555600,"rng_nm":75,"alt_fmsl":0,"id":"GIG","desc":"GINGIN NDB"},
{"type":"NDB","hdg_t":161.4,"dist_nm":209.5,"freq":340,"lat":-31.65444400,"lon":116.01888900,"rng_nm":85,"alt_fmsl":144,"id":"PEA","desc":"PEARCE NDB"},
{"type":"SDME","hdg_t":161.5,"dist_nm":210.6,"freq":112.8,"lat":-31.67388900,"lon":116.01722200,"rng_nm":25,"alt_fmsl":144,"id":"PEA","desc":"PEARCE TACAN"}
]
}
