{"success":true,"source":"xp2csv.pl","last_updated":"2013/11/08 14:53:21 UTC"
,"icao":"YNPE","name":"Northern Peninsula","lat":-10.94435401,"lon":142.4535371,"rwys":1,"ils":0,"index":5280707,"path":"e140s20/e142s11"
,"runways":[
{"len_m":1866,"wid_m":29.87,"hdg":137,"surf":"Asphalt","rwy1":"13","lat1":-10.93816102,"lon1":142.44774019,"rwy2":"31","lat2":-10.95054700,"lon2":142.45933400}
]
,"radios":[
{"type":"CTAF","freq":126.5,"desc":"Bamaga MULT"},
{"type":"CTAF","freq":120.3,"desc":"BRISBANE CENTRE MULT"}
]
,"navaids":[
{"type":"NDB","hdg_t":335.6,"dist_nm":23,"freq":356,"lat":-10.59194444,"lon":142.29250000,"rng_nm":50,"alt_fmsl":0,"id":"HID","desc":"HORN ISLAND NDB"},
{"type":"NDB","hdg_t":197.5,"dist_nm":107.6,"freq":377,"lat":-12.66166700,"lon":141.89888900,"rng_nm":40,"alt_fmsl":0,"id":"WP","desc":"WEIPA NDB"},
{"type":"VOR","hdg_t":196.7,"dist_nm":107.9,"freq":112.8,"lat":-12.67361111,"lon":141.92250000,"rng_nm":130,"alt_fmsl":81,"id":"WP","desc":"WEIPA VOR-DME"},
{"type":"NDB","hdg_t":22,"dist_nm":120.3,"freq":290,"lat":-9.07501700,"lon":143.21301700,"rng_nm":80,"alt_fmsl":170,"id":"DAU","desc":"DARU NDB-DME"},
{"type":"SDME","hdg_t":21.9,"dist_nm":120.4,"freq":114.5,"lat":-9.07383300,"lon":143.21233300,"rng_nm":80,"alt_fmsl":170,"id":"DAU","desc":"DARU NDB-DME"},
{"type":"NDB","hdg_t":155.6,"dist_nm":120.9,"freq":392,"lat":-12.78833300,"lon":143.30333300,"rng_nm":30,"alt_fmsl":77,"id":"LHR","desc":"LOCKHART RIVER NDB"},
{"type":"NDB","hdg_t":167,"dist_nm":172.9,"freq":404,"lat":-13.76611111,"lon":143.11722222,"rng_nm":50,"alt_fmsl":0,"id":"COE","desc":"COEN NDB"},
{"type":"VOR","hdg_t":319.9,"dist_nm":188.3,"freq":115.8,"lat":-8.52260800,"lon":140.41711100,"rng_nm":130,"alt_fmsl":10,"id":"MKE","desc":"MERAUKE VOR-DME"},
{"type":"NDB","hdg_t":320,"dist_nm":189.1,"freq":253,"lat":-8.51069200,"lon":140.41003600,"rng_nm":50,"alt_fmsl":10,"id":"ZP","desc":"MERAUKE NDB"},
{"type":"NDB","hdg_t":36.1,"dist_nm":212.5,"freq":1737,"lat":-8.06435000,"lon":144.56060000,"rng_nm":50,"alt_fmsl":0,"id":"KUT","desc":"KUMUL PLATFORM NDB"}
]
}
