{"success":true,"source":"xp2csv.pl","last_updated":"2013/11/08 14:53:21 UTC"
,"icao":"YNUL","name":"Nullagine","lat":-21.91066922,"lon":120.19772059,"rwys":1,"ils":0,"index":4919553,"path":"e120s30/e120s22"
,"runways":[
{"len_m":1336,"wid_m":103.94,"hdg":143,"surf":"Dirt","rwy1":"14","lat1":-21.90579771,"lon1":120.19389944,"rwy2":"32","lat2":-21.91554074,"lon2":120.20154174}
]
,"radios":[
{"type":"CTAF","freq":127.6,"desc":"CTAF"}
]
,"navaids":[
{"type":"NDB","hdg_t":193.7,"dist_nm":92.8,"freq":233,"lat":-23.41805600,"lon":119.79722200,"rng_nm":85,"alt_fmsl":0,"id":"NWN","desc":"NEWMAN NDB"},
{"type":"VOR","hdg_t":193.5,"dist_nm":92.9,"freq":117.2,"lat":-23.42083300,"lon":119.80305600,"rng_nm":50,"alt_fmsl":1734,"id":"NWN","desc":"NEWMAN VOR-DME"},
{"type":"NDB","hdg_t":84.3,"dist_nm":113.1,"freq":374,"lat":-21.71138900,"lon":122.21333300,"rng_nm":50,"alt_fmsl":0,"id":"TEF","desc":"TELFER NDB"},
{"type":"NDB","hdg_t":315.9,"dist_nm":126,"freq":260,"lat":-20.38916700,"lon":118.64250000,"rng_nm":75,"alt_fmsl":0,"id":"PD","desc":"PORT HEDLAND NDB"},
{"type":"VOR","hdg_t":315.7,"dist_nm":127.2,"freq":114.1,"lat":-20.37833300,"lon":118.62277800,"rng_nm":130,"alt_fmsl":56,"id":"PD","desc":"PORT HEDLAND VOR-DME"},
{"type":"NDB","hdg_t":240.4,"dist_nm":156,"freq":278,"lat":-23.17888900,"lon":117.74250000,"rng_nm":70,"alt_fmsl":0,"id":"PBO","desc":"PARABURDOO NDB"},
{"type":"VOR","hdg_t":240.6,"dist_nm":156.1,"freq":116.9,"lat":-23.17250000,"lon":117.73694400,"rng_nm":50,"alt_fmsl":1416,"id":"PBO","desc":"PARABURDOO VOR-DME"},
{"type":"NDB","hdg_t":290,"dist_nm":204.3,"freq":404,"lat":-20.70611100,"lon":116.78388900,"rng_nm":70,"alt_fmsl":29,"id":"KA","desc":"KARRATHA NDB"},
{"type":"VOR","hdg_t":289.8,"dist_nm":204.6,"freq":117.3,"lat":-20.71500000,"lon":116.77388900,"rng_nm":50,"alt_fmsl":39,"id":"KA","desc":"KARRATHA VOR-DME"},
{"type":"SDME","hdg_t":26.2,"dist_nm":263.4,"freq":115.3,"lat":-17.94694400,"lon":122.23472200,"rng_nm":60,"alt_fmsl":67,"id":"BRM","desc":"BROOME NDB-DME"}
]
}
