{"success":true,"source":"xp2csv.pl","last_updated":"2013/11/08 14:53:21 UTC"
,"icao":"YNUN","name":"Nuntherungie","lat":-30.8087593466667,"lon":142.489087093333,"rwys":3,"ils":0,"index":5279433,"path":"e140s40/e142s31"
,"runways":[
{"len_m":1283,"wid_m":21.95,"hdg":132,"surf":"Dirt","rwy1":"13","lat1":-30.80457400,"lon1":142.48257647,"rwy2":"31","lat2":-30.81239537,"lon2":142.49247092},
{"len_m":544,"wid_m":21.03,"hdg":174,"surf":"Dirt","rwy1":"17","lat1":-30.80574201,"lon1":142.48962179,"rwy2":"35","lat2":-30.81063201,"lon2":142.49014698},
{"len_m":1017,"wid_m":28.04,"hdg":93,"surf":"Dirt","rwy1":"9","lat1":-30.80935578,"lon1":142.48454312,"rwy2":"27","lat2":-30.80985691,"lon2":142.49516330}
]
,"navaids":[
{"type":"NDB","hdg_t":344.5,"dist_nm":84.5,"freq":200,"lat":-29.44635300,"lon":142.05813100,"rng_nm":50,"alt_fmsl":0,"id":"TIB","desc":"TIBOOBURRA NDB"},
{"type":"NDB","hdg_t":216.2,"dist_nm":88.1,"freq":332,"lat":-31.99194400,"lon":141.46833300,"rng_nm":85,"alt_fmsl":958,"id":"BHI","desc":"BROKEN HILL NDB"},
{"type":"VOR","hdg_t":215.7,"dist_nm":88.1,"freq":114.2,"lat":-32.00055600,"lon":141.47972200,"rng_nm":130,"alt_fmsl":968,"id":"BHI","desc":"BROKEN HILL VOR-DME"},
{"type":"NDB","hdg_t":105.2,"dist_nm":175.8,"freq":395,"lat":-31.54000000,"lon":145.79861100,"rng_nm":45,"alt_fmsl":0,"id":"CBA","desc":"COBAR NDB"},
{"type":"NDB","hdg_t":22.7,"dist_nm":182.2,"freq":392,"lat":-27.99333300,"lon":143.81500000,"rng_nm":40,"alt_fmsl":433,"id":"TGM","desc":"THARGOMINDAH NDB"},
{"type":"NDB","hdg_t":76.5,"dist_nm":185.2,"freq":389,"lat":-30.04333300,"lon":145.94944400,"rng_nm":45,"alt_fmsl":0,"id":"BKE","desc":"BOURKE NDB"},
{"type":"SDME","hdg_t":322.8,"dist_nm":201.4,"freq":112,"lat":-28.10416700,"lon":140.19972200,"rng_nm":75,"alt_fmsl":135,"id":"OOM","desc":"MOOMBA NDB-DME"},
{"type":"NDB","hdg_t":322.8,"dist_nm":201.4,"freq":227,"lat":-28.10444400,"lon":140.19916700,"rng_nm":75,"alt_fmsl":135,"id":"OOM","desc":"MOOMBA NDB-DME"},
{"type":"VOR","hdg_t":185.6,"dist_nm":205.6,"freq":113.7,"lat":-34.22666700,"lon":142.08583300,"rng_nm":50,"alt_fmsl":230,"id":"MIA","desc":"MILDURA VOR-DME"},
{"type":"NDB","hdg_t":185.7,"dist_nm":206.9,"freq":272,"lat":-34.24777800,"lon":142.07388900,"rng_nm":85,"alt_fmsl":0,"id":"MIA","desc":"MILDURA NDB"}
]
}
