{"success":true,"source":"xp2csv.pl","last_updated":"2013/11/08 14:53:21 UTC"
,"icao":"YNUT","name":"Nutwood Downs","lat":-15.80748043,"lon":134.14596289,"rwys":1,"ils":0,"index":5149321,"path":"e130s20/e134s16"
,"runways":[
{"len_m":981,"wid_m":32.00,"hdg":164,"surf":"Dirt","rwy1":"16","lat1":-15.80319627,"lon1":134.14477361,"rwy2":"34","lat2":-15.81176459,"lon2":134.14715217}
]
,"navaids":[
{"type":"NDB","hdg_t":28,"dist_nm":73.2,"freq":233,"lat":-14.72500000,"lon":134.73861100,"rng_nm":80,"alt_fmsl":45,"id":"NGU","desc":"NGUKURR NDB"},
{"type":"NDB","hdg_t":109.1,"dist_nm":117.9,"freq":368,"lat":-16.44611100,"lon":136.07805600,"rng_nm":50,"alt_fmsl":131,"id":"MHU","desc":"MCARTHUR RIVER MINE NDB"},
{"type":"NDB","hdg_t":97.6,"dist_nm":125.8,"freq":218,"lat":-16.07722200,"lon":136.30500000,"rng_nm":100,"alt_fmsl":55,"id":"BRL","desc":"BORROLOOLA NDB"},
{"type":"SDME","hdg_t":306.4,"dist_nm":128.3,"freq":112.3,"lat":-14.52472200,"lon":132.37166700,"rng_nm":25,"alt_fmsl":443,"id":"TDL","desc":"TINDAL TACAN"},
{"type":"VOR","hdg_t":306.5,"dist_nm":128.5,"freq":112.3,"lat":-14.51916700,"lon":132.37111100,"rng_nm":130,"alt_fmsl":443,"id":"TN","desc":"TINDAL VOR"},
{"type":"NDB","hdg_t":306.4,"dist_nm":129.1,"freq":356,"lat":-14.51583300,"lon":132.36027800,"rng_nm":85,"alt_fmsl":0,"id":"TN","desc":"TINDAL NDB"},
{"type":"NDB","hdg_t":51,"dist_nm":173.1,"freq":407,"lat":-13.97500000,"lon":136.45555600,"rng_nm":60,"alt_fmsl":63,"id":"GTE","desc":"GROOTE EYLANDT NDB-DME"},
{"type":"SDME","hdg_t":51,"dist_nm":173.1,"freq":114.8,"lat":-13.97500000,"lon":136.45555600,"rng_nm":60,"alt_fmsl":63,"id":"GTE","desc":"GROOTE EYLANDT NDB-DME"},
{"type":"NDB","hdg_t":258.4,"dist_nm":184.8,"freq":377,"lat":-16.40472200,"lon":131.00666700,"rng_nm":85,"alt_fmsl":291,"id":"VRD","desc":"VICTORIA RIVER DOWNS NDB"},
{"type":"NDB","hdg_t":241,"dist_nm":198.3,"freq":203,"lat":-17.39250000,"lon":131.12111100,"rng_nm":40,"alt_fmsl":658,"id":"WAV","desc":"WAVE HILL NDB"}
]
}
