{"success":true,"source":"xp2csv.pl","last_updated":"2013/11/08 14:53:21 UTC"
,"icao":"YNWY","name":"Netherway","lat":-30.685039605,"lon":148.13084814,"rwys":2,"ils":0,"index":5377744,"path":"e140s40/e148s31"
,"runways":[
{"len_m":805,"wid_m":21.03,"hdg":134,"surf":"Turf/grass","rwy1":"13","lat1":-30.68391479,"lon1":148.12681213,"rwy2":"31","lat2":-30.68901780,"lon2":148.13279010},
{"len_m":1203,"wid_m":25.91,"hdg":168,"surf":"Turf/grass","rwy1":"16","lat1":-30.67829242,"lon1":148.13065133,"rwy2":"34","lat2":-30.68893342,"lon2":148.13313900}
]
,"navaids":[
{"type":"NDB","hdg_t":143.4,"dist_nm":21.5,"freq":206,"lat":-30.97443100,"lon":148.38025800,"rng_nm":35,"alt_fmsl":594,"id":"CNM","desc":"COONAMBLE NDB"},
{"type":"VOR","hdg_t":359.8,"dist_nm":39.2,"freq":117.6,"lat":-30.02865000,"lon":148.12841100,"rng_nm":50,"alt_fmsl":439,"id":"WLG","desc":"WALGETT VOR"},
{"type":"NDB","hdg_t":359.4,"dist_nm":39.3,"freq":374,"lat":-30.02727200,"lon":148.12378600,"rng_nm":50,"alt_fmsl":439,"id":"WLG","desc":"WALGETT NDB"},
{"type":"NDB","hdg_t":123.5,"dist_nm":70.3,"freq":200,"lat":-31.33002800,"lon":149.27066900,"rng_nm":45,"alt_fmsl":2110,"id":"CBB","desc":"COONABARABRAN NDB"},
{"type":"NDB","hdg_t":222.6,"dist_nm":70.8,"freq":404,"lat":-31.55221100,"lon":147.19483300,"rng_nm":40,"alt_fmsl":0,"id":"NYN","desc":"NYNGAN NDB"},
{"type":"NDB","hdg_t":301.4,"dist_nm":80.6,"freq":281,"lat":-29.97472200,"lon":146.81166700,"rng_nm":55,"alt_fmsl":0,"id":"BRW","desc":"BREWARRINA NDB"},
{"type":"NDB","hdg_t":76.5,"dist_nm":90.7,"freq":413,"lat":-30.32074400,"lon":149.83114200,"rng_nm":50,"alt_fmsl":0,"id":"NBR","desc":"NARRABRI NDB"},
{"type":"NDB","hdg_t":176.8,"dist_nm":92.2,"freq":215,"lat":-32.22308900,"lon":148.22921100,"rng_nm":30,"alt_fmsl":0,"id":"NRM","desc":"NARROMINE NDB"},
{"type":"NDB","hdg_t":166.6,"dist_nm":94.3,"freq":251,"lat":-32.21753100,"lon":148.55909400,"rng_nm":70,"alt_fmsl":0,"id":"DU","desc":"DUBBO NDB"},
{"type":"VOR","hdg_t":166,"dist_nm":94.6,"freq":114.4,"lat":-32.21952800,"lon":148.57770800,"rng_nm":50,"alt_fmsl":935,"id":"DU","desc":"DUBBO VOR-DME"}
]
}
