{"success":true,"source":"xp2csv.pl","last_updated":"2013/11/08 14:53:21 UTC"
,"icao":"YORA","name":"Moonera","lat":-31.691351655,"lon":126.59101371,"rwys":2,"ils":0,"index":5017234,"path":"e120s40/e126s32"
,"runways":[
{"len_m":868,"wid_m":21.03,"hdg":38,"surf":"Dirt","rwy1":"3","lat1":-31.69384669,"lon1":126.58827337,"rwy2":"21","lat2":-31.68772705,"lon2":126.59399775},
{"len_m":473,"wid_m":15.85,"hdg":135,"surf":"Dirt","rwy1":"13","lat1":-31.69039084,"lon1":126.58914471,"rwy2":"31","lat2":-31.69344203,"lon2":126.59263901}
]
,"navaids":[
{"type":"VOR","hdg_t":238.2,"dist_nm":65.5,"freq":112.5,"lat":-32.26333300,"lon":125.49555600,"rng_nm":50,"alt_fmsl":370,"id":"CAG","desc":"CAIGUNA VOR-DME"},
{"type":"NDB","hdg_t":57.5,"dist_nm":92.3,"freq":268,"lat":-30.85500000,"lon":128.09944400,"rng_nm":75,"alt_fmsl":0,"id":"FRT","desc":"FORREST NDB"},
{"type":"NDB","hdg_t":261.7,"dist_nm":246.4,"freq":347,"lat":-32.19444400,"lon":121.79916700,"rng_nm":80,"alt_fmsl":0,"id":"NSM","desc":"NORSEMAN NDB"},
{"type":"VOR","hdg_t":242.4,"dist_nm":269.1,"freq":114.2,"lat":-33.68055600,"lon":121.82388900,"rng_nm":130,"alt_fmsl":460,"id":"ESP","desc":"ESPERANCE VOR-DME"},
{"type":"NDB","hdg_t":242.3,"dist_nm":269.1,"freq":326,"lat":-33.68694400,"lon":121.82722200,"rng_nm":110,"alt_fmsl":470,"id":"ESP","desc":"ESPERANCE NDB"},
{"type":"VOR","hdg_t":280.2,"dist_nm":269.7,"freq":114.1,"lat":-30.78972200,"lon":121.45277800,"rng_nm":50,"alt_fmsl":1203,"id":"KG","desc":"KALGOORLIE VOR-DME"},
{"type":"NDB","hdg_t":280.3,"dist_nm":270.5,"freq":287,"lat":-30.77777800,"lon":121.43944400,"rng_nm":80,"alt_fmsl":0,"id":"KG","desc":"KALGOORLIE NDB"},
{"type":"NDB","hdg_t":309.2,"dist_nm":284.5,"freq":407,"lat":-28.61222200,"lon":122.42250000,"rng_nm":45,"alt_fmsl":0,"id":"LTN","desc":"LAVERTON NDB"},
{"type":"NDB","hdg_t":300.2,"dist_nm":321.3,"freq":377,"lat":-28.87888900,"lon":121.32027800,"rng_nm":70,"alt_fmsl":0,"id":"LEO","desc":"LEONORA NDB"},
{"type":"NDB","hdg_t":359.8,"dist_nm":332.9,"freq":218,"lat":-26.12805600,"lon":126.57972200,"rng_nm":90,"alt_fmsl":0,"id":"WBR","desc":"WARBURTON RANGE NDB"}
]
}
