{"success":true,"source":"xp2csv.pl","last_updated":"2013/11/08 14:53:21 UTC"
,"icao":"YPKL","name":"Puckapunyal","lat":-36.99874074,"lon":145.062359175,"rwys":1,"ils":0,"index":5328192,"path":"e140s40/e145s37"
,"runways":[
{"len_m":762,"wid_m":29.87,"hdg":41,"surf":"Asphalt","rwy1":"03","lat1":-37.00035006,"lon1":145.06134939,"rwy2":"21","lat2":-36.99522873,"lon2":145.06706460}
]
,"helipads":[
{"rwy1":"H11","len_m":11,"wid_m":11.89,"hdg":145,"surf":"Asphalt","lat1":-36.99969209,"lon1":145.06051135}
]
,"radios":[
{"type":"CTAF","freq":119.1,"desc":"CTAF - AFRU"}
]
,"navaids":[
{"type":"NDB","hdg_t":43.2,"dist_nm":8.3,"freq":254,"lat":-36.89722200,"lon":145.18111100,"rng_nm":65,"alt_fmsl":0,"id":"MNG","desc":"MANGALORE NDB"},
{"type":"VOR","hdg_t":43.2,"dist_nm":9.2,"freq":113.2,"lat":-36.88611100,"lon":145.19416700,"rng_nm":130,"alt_fmsl":467,"id":"MNG","desc":"MANGALORE VOR"},
{"type":"NDB","hdg_t":204.4,"dist_nm":30.5,"freq":362,"lat":-37.46222200,"lon":144.79833300,"rng_nm":30,"alt_fmsl":0,"id":"BOL","desc":"BOLINDA NDB"},
{"type":"NDB","hdg_t":75.1,"dist_nm":33.6,"freq":413,"lat":-36.85276100,"lon":145.73848100,"rng_nm":35,"alt_fmsl":0,"id":"SBG","desc":"STRATHBOGIE NDB"},
{"type":"NDB","hdg_t":198.3,"dist_nm":37,"freq":338,"lat":-37.58472200,"lon":144.81777800,"rng_nm":30,"alt_fmsl":0,"id":"ROC","desc":"ROCKDALE NDB"},
{"type":"NDB","hdg_t":25.3,"dist_nm":37.7,"freq":212,"lat":-36.42836100,"lon":145.39602200,"rng_nm":30,"alt_fmsl":0,"id":"SHT","desc":"SHEPPARTON NDB"},
{"type":"NDB","hdg_t":293.1,"dist_nm":38.6,"freq":245,"lat":-36.74277800,"lon":144.32611100,"rng_nm":60,"alt_fmsl":700,"id":"BDG","desc":"BENDIGO NDB"},
{"type":"VOR","hdg_t":108.7,"dist_nm":39.1,"freq":112.3,"lat":-37.20633300,"lon":145.83505800,"rng_nm":130,"alt_fmsl":0,"id":"ELW","desc":"EILDON WEIR VOR"},
{"type":"NDB","hdg_t":182.4,"dist_nm":40.3,"freq":377,"lat":-37.67166700,"lon":145.02638900,"rng_nm":40,"alt_fmsl":0,"id":"EPP","desc":"EPPING NDB"},
{"type":"VOR","hdg_t":194.8,"dist_nm":41,"freq":114.1,"lat":-37.66000000,"lon":144.84194400,"rng_nm":130,"alt_fmsl":412,"id":"ML","desc":"MELBOURNE VOR-DME"},
{"type":"NDB","hdg_t":176.9,"dist_nm":43.3,"freq":218,"lat":-37.72027800,"lon":145.11138900,"rng_nm":36,"alt_fmsl":0,"id":"PLE","desc":"PLENTY NDB"},
{"type":"NDB","hdg_t":189.3,"dist_nm":44.2,"freq":356,"lat":-37.72666700,"lon":144.91138900,"rng_nm":60,"alt_fmsl":0,"id":"EN","desc":"ESSENDON NDB"},
{"type":"NDB","hdg_t":93.5,"dist_nm":51.8,"freq":284,"lat":-37.04722200,"lon":146.13972200,"rng_nm":45,"alt_fmsl":0,"id":"MFD","desc":"MANSFIELD NDB"},
{"type":"NDB","hdg_t":343.8,"dist_nm":51.9,"freq":341,"lat":-36.16538100,"lon":144.76459200,"rng_nm":30,"alt_fmsl":0,"id":"ECH","desc":"ECHUCA NDB"},
{"type":"NDB","hdg_t":194.6,"dist_nm":57.5,"freq":419,"lat":-37.92682500,"lon":144.75637800,"rng_nm":25,"alt_fmsl":0,"id":"PCK","desc":"POINT COOK NDB"},
{"type":"NDB","hdg_t":178.7,"dist_nm":58.6,"freq":398,"lat":-37.97651100,"lon":145.09032200,"rng_nm":65,"alt_fmsl":0,"id":"MB","desc":"MOORABBIN NDB"},
{"type":"NDB","hdg_t":206.7,"dist_nm":60,"freq":224,"lat":-37.89250000,"lon":144.49194400,"rng_nm":25,"alt_fmsl":0,"id":"RPY","desc":"RIPLEY NDB"},
{"type":"NDB","hdg_t":204.6,"dist_nm":67.2,"freq":404,"lat":-38.01805600,"lon":144.47111100,"rng_nm":35,"alt_fmsl":35,"id":"AV","desc":"AVALON NDB"},
{"type":"NDB","hdg_t":242.7,"dist_nm":68.2,"freq":239,"lat":-37.51361100,"lon":143.79055600,"rng_nm":30,"alt_fmsl":0,"id":"BLT","desc":"BALLARAT NDB"},
{"type":"NDB","hdg_t":60.3,"dist_nm":69.1,"freq":203,"lat":-36.42151400,"lon":146.30453100,"rng_nm":30,"alt_fmsl":0,"id":"WGT","desc":"WANGARATTA NDB"},
{"type":"VOR","hdg_t":204.4,"dist_nm":69.2,"freq":116.1,"lat":-38.04888900,"lon":144.45888900,"rng_nm":50,"alt_fmsl":35,"id":"AV","desc":"AVALON VOR-DME"},
{"type":"VOR","hdg_t":234.2,"dist_nm":76.6,"freq":114.3,"lat":-37.73841700,"lon":143.75493300,"rng_nm":130,"alt_fmsl":0,"id":"YWE","desc":"YARROWEE VOR"},
{"type":"NDB","hdg_t":234,"dist_nm":76.7,"freq":389,"lat":-37.74224700,"lon":143.75666700,"rng_nm":40,"alt_fmsl":0,"id":"YWE","desc":"YARROWEE NDB"},
{"type":"NDB","hdg_t":356.4,"dist_nm":86.8,"freq":392,"lat":-35.55202800,"lon":144.95179400,"rng_nm":55,"alt_fmsl":305,"id":"DLQ","desc":"DENILIQUIN NDB"},
{"type":"NDB","hdg_t":46.3,"dist_nm":87.1,"freq":380,"lat":-35.98746700,"lon":146.35719700,"rng_nm":75,"alt_fmsl":464,"id":"COR","desc":"COROWA NDB"},
{"type":"VOR","hdg_t":175.4,"dist_nm":90.7,"freq":117.6,"lat":-38.50775600,"lon":145.21351700,"rng_nm":130,"alt_fmsl":125,"id":"CWS","desc":"COWES VOR"},
{"type":"NDB","hdg_t":175.3,"dist_nm":91.3,"freq":275,"lat":-38.51702200,"lon":145.22075300,"rng_nm":85,"alt_fmsl":125,"id":"CWS","desc":"COWES NDB"},
{"type":"VOR","hdg_t":163.3,"dist_nm":92.1,"freq":115.9,"lat":-38.47122500,"lon":145.62341700,"rng_nm":130,"alt_fmsl":0,"id":"WON","desc":"WONTHAGGI VOR"},
{"type":"NDB","hdg_t":163.3,"dist_nm":92.2,"freq":383,"lat":-38.47241400,"lon":145.62433300,"rng_nm":65,"alt_fmsl":0,"id":"WON","desc":"WONTHAGGI NDB"},
{"type":"NDB","hdg_t":137.6,"dist_nm":99.1,"freq":486,"lat":-38.21361100,"lon":146.47500000,"rng_nm":30,"alt_fmsl":0,"id":"LTV","desc":"LATROBE VALLEY NDB"}
]
}
