{"success":true,"source":"xp2csv.pl","last_updated":"2013/11/08 14:53:21 UTC"
,"icao":"YPKT","name":"Port Keats","lat":-14.24972863,"lon":129.52939298,"rwys":1,"ils":0,"index":5067508,"path":"e120s20/e129s15"
,"runways":[
{"len_m":1404,"wid_m":17.98,"hdg":161,"surf":"Asphalt","rwy1":"16","lat1":-14.24372600,"lon1":129.52728465,"rwy2":"34","lat2":-14.25573126,"lon2":129.53150131}
]
,"radios":[
{"type":"CTAF","freq":126.7,"desc":"CTAF"}
]
,"navaids":[
{"type":"VOR","hdg_t":207.4,"dist_nm":102.8,"freq":116.5,"lat":-15.77555600,"lon":128.70888900,"rng_nm":130,"alt_fmsl":165,"id":"KU","desc":"KUNUNURRA VOR-DME"},
{"type":"NDB","hdg_t":207.5,"dist_nm":103.4,"freq":221,"lat":-15.78388900,"lon":128.70388900,"rng_nm":70,"alt_fmsl":145,"id":"KU","desc":"KUNUNURRA NDB"},
{"type":"NDB","hdg_t":226.5,"dist_nm":109.8,"freq":372,"lat":-15.50972200,"lon":128.15138900,"rng_nm":60,"alt_fmsl":14,"id":"WYM","desc":"WYNDHAM NDB"},
{"type":"NDB","hdg_t":35.3,"dist_nm":134.7,"freq":308,"lat":-12.40666700,"lon":130.85694400,"rng_nm":50,"alt_fmsl":0,"id":"BGT","desc":"BAGOT NDB"},
{"type":"SDME","hdg_t":35.9,"dist_nm":135.2,"freq":113.7,"lat":-12.41373300,"lon":130.88325800,"rng_nm":25,"alt_fmsl":105,"id":"DAR","desc":"DARWIN TACAN"},
{"type":"VOR","hdg_t":36.5,"dist_nm":135.6,"freq":112.6,"lat":-12.42333333,"lon":130.90638889,"rng_nm":130,"alt_fmsl":127,"id":"DN","desc":"DARWIN VOR-DME"},
{"type":"NDB","hdg_t":37.8,"dist_nm":137.1,"freq":344,"lat":-12.43138900,"lon":130.96138900,"rng_nm":85,"alt_fmsl":105,"id":"DN","desc":"DARWIN NDB"},
{"type":"NDB","hdg_t":39.9,"dist_nm":138.4,"freq":257,"lat":-12.46888900,"lon":131.04305600,"rng_nm":30,"alt_fmsl":0,"id":"HWS","desc":"HOWARD SPRINGS NDB"},
{"type":"NDB","hdg_t":146.5,"dist_nm":154.6,"freq":377,"lat":-16.40472200,"lon":131.00666700,"rng_nm":85,"alt_fmsl":291,"id":"VRD","desc":"VICTORIA RIVER DOWNS NDB"},
{"type":"VOR","hdg_t":203.6,"dist_nm":155.4,"freq":113.9,"lat":-16.63166700,"lon":128.44888900,"rng_nm":50,"alt_fmsl":536,"id":"ARG","desc":"ARGYLE VOR-DME"}
]
}
