{"success":true,"source":"xp2csv.pl","last_updated":"2013/11/08 14:53:21 UTC"
,"icao":"YSBE","name":"Sunbury East","lat":-37.52964257,"lon":144.74814072,"rwys":1,"ils":0,"index":5311770,"path":"e140s40/e144s38"
,"runways":[
{"len_m":856,"wid_m":49.99,"hdg":98,"surf":"Turf/grass","rwy1":"9","lat1":-37.52909215,"lon1":144.74334543,"rwy2":"27","lat2":-37.53019300,"lon2":144.75293600}
]
,"navaids":[
{"type":"NDB","hdg_t":30.6,"dist_nm":4.6,"freq":362,"lat":-37.46222200,"lon":144.79833300,"rng_nm":30,"alt_fmsl":0,"id":"BOL","desc":"BOLINDA NDB"},
{"type":"NDB","hdg_t":134.8,"dist_nm":4.6,"freq":338,"lat":-37.58472200,"lon":144.81777800,"rng_nm":30,"alt_fmsl":0,"id":"ROC","desc":"ROCKDALE NDB"},
{"type":"VOR","hdg_t":150.2,"dist_nm":9,"freq":114.1,"lat":-37.66000000,"lon":144.84194400,"rng_nm":130,"alt_fmsl":412,"id":"ML","desc":"MELBOURNE VOR-DME"},
{"type":"NDB","hdg_t":146.6,"dist_nm":14.1,"freq":356,"lat":-37.72666700,"lon":144.91138900,"rng_nm":60,"alt_fmsl":0,"id":"EN","desc":"ESSENDON NDB"},
{"type":"NDB","hdg_t":122.7,"dist_nm":15.7,"freq":377,"lat":-37.67166700,"lon":145.02638900,"rng_nm":40,"alt_fmsl":0,"id":"EPP","desc":"EPPING NDB"},
{"type":"NDB","hdg_t":123.5,"dist_nm":20.7,"freq":218,"lat":-37.72027800,"lon":145.11138900,"rng_nm":36,"alt_fmsl":0,"id":"PLE","desc":"PLENTY NDB"},
{"type":"NDB","hdg_t":179,"dist_nm":23.8,"freq":419,"lat":-37.92682500,"lon":144.75637800,"rng_nm":25,"alt_fmsl":0,"id":"PCK","desc":"POINT COOK NDB"},
{"type":"NDB","hdg_t":209.2,"dist_nm":24.9,"freq":224,"lat":-37.89250000,"lon":144.49194400,"rng_nm":25,"alt_fmsl":0,"id":"RPY","desc":"RIPLEY NDB"},
{"type":"NDB","hdg_t":148.8,"dist_nm":31.3,"freq":398,"lat":-37.97651100,"lon":145.09032200,"rng_nm":65,"alt_fmsl":0,"id":"MB","desc":"MOORABBIN NDB"},
{"type":"NDB","hdg_t":204.1,"dist_nm":32.1,"freq":404,"lat":-38.01805600,"lon":144.47111100,"rng_nm":35,"alt_fmsl":35,"id":"AV","desc":"AVALON NDB"},
{"type":"VOR","hdg_t":203.7,"dist_nm":34,"freq":116.1,"lat":-38.04888900,"lon":144.45888900,"rng_nm":50,"alt_fmsl":35,"id":"AV","desc":"AVALON VOR-DME"},
{"type":"NDB","hdg_t":28.8,"dist_nm":43.2,"freq":254,"lat":-36.89722200,"lon":145.18111100,"rng_nm":65,"alt_fmsl":0,"id":"MNG","desc":"MANGALORE NDB"},
{"type":"VOR","hdg_t":29.1,"dist_nm":44,"freq":113.2,"lat":-36.88611100,"lon":145.19416700,"rng_nm":130,"alt_fmsl":467,"id":"MNG","desc":"MANGALORE VOR"},
{"type":"NDB","hdg_t":270.9,"dist_nm":45.7,"freq":239,"lat":-37.51361100,"lon":143.79055600,"rng_nm":30,"alt_fmsl":0,"id":"BLT","desc":"BALLARAT NDB"},
{"type":"NDB","hdg_t":254.6,"dist_nm":48.9,"freq":389,"lat":-37.74224700,"lon":143.75666700,"rng_nm":40,"alt_fmsl":0,"id":"YWE","desc":"YARROWEE NDB"},
{"type":"VOR","hdg_t":254.8,"dist_nm":48.9,"freq":114.3,"lat":-37.73841700,"lon":143.75493300,"rng_nm":130,"alt_fmsl":0,"id":"YWE","desc":"YARROWEE VOR"},
{"type":"NDB","hdg_t":336.6,"dist_nm":51.3,"freq":245,"lat":-36.74277800,"lon":144.32611100,"rng_nm":60,"alt_fmsl":700,"id":"BDG","desc":"BENDIGO NDB"},
{"type":"VOR","hdg_t":69.8,"dist_nm":55.4,"freq":112.3,"lat":-37.20633300,"lon":145.83505800,"rng_nm":130,"alt_fmsl":0,"id":"ELW","desc":"EILDON WEIR VOR"},
{"type":"NDB","hdg_t":49.7,"dist_nm":62.4,"freq":413,"lat":-36.85276100,"lon":145.73848100,"rng_nm":35,"alt_fmsl":0,"id":"SBG","desc":"STRATHBOGIE NDB"},
{"type":"VOR","hdg_t":159.5,"dist_nm":62.6,"freq":117.6,"lat":-38.50775600,"lon":145.21351700,"rng_nm":130,"alt_fmsl":125,"id":"CWS","desc":"COWES VOR"},
{"type":"NDB","hdg_t":159.4,"dist_nm":63.2,"freq":275,"lat":-38.51702200,"lon":145.22075300,"rng_nm":85,"alt_fmsl":125,"id":"CWS","desc":"COWES NDB"},
{"type":"VOR","hdg_t":143.9,"dist_nm":70,"freq":115.9,"lat":-38.47122500,"lon":145.62341700,"rng_nm":130,"alt_fmsl":0,"id":"WON","desc":"WONTHAGGI VOR"},
{"type":"NDB","hdg_t":143.9,"dist_nm":70.1,"freq":383,"lat":-38.47241400,"lon":145.62433300,"rng_nm":65,"alt_fmsl":0,"id":"WON","desc":"WONTHAGGI NDB"},
{"type":"NDB","hdg_t":66.9,"dist_nm":72.6,"freq":284,"lat":-37.04722200,"lon":146.13972200,"rng_nm":45,"alt_fmsl":0,"id":"MFD","desc":"MANSFIELD NDB"},
{"type":"NDB","hdg_t":25.4,"dist_nm":72.9,"freq":212,"lat":-36.42836100,"lon":145.39602200,"rng_nm":30,"alt_fmsl":0,"id":"SHT","desc":"SHEPPARTON NDB"},
{"type":"NDB","hdg_t":0.5,"dist_nm":81.7,"freq":341,"lat":-36.16538100,"lon":144.76459200,"rng_nm":30,"alt_fmsl":0,"id":"ECH","desc":"ECHUCA NDB"},
{"type":"NDB","hdg_t":117,"dist_nm":91.7,"freq":486,"lat":-38.21361100,"lon":146.47500000,"rng_nm":30,"alt_fmsl":0,"id":"LTV","desc":"LATROBE VALLEY NDB"}
]
}
