{"success":true,"source":"xp2csv.pl","last_updated":"2013/11/08 14:53:21 UTC"
,"icao":"YSGD","name":"Strathgordon","lat":-14.7941861,"lon":142.42998273,"rwys":1,"ils":0,"index":5280459,"path":"e140s20/e142s15"
,"runways":[
{"len_m":1143,"wid_m":34.14,"hdg":136,"surf":"Dirt","rwy1":"13","lat1":-14.79041010,"lon1":142.42635468,"rwy2":"31","lat2":-14.79796210,"lon2":142.43361077}
]
,"navaids":[
{"type":"NDB","hdg_t":223.9,"dist_nm":56.9,"freq":242,"lat":-15.47972200,"lon":141.74833300,"rng_nm":60,"alt_fmsl":35,"id":"KOW","desc":"KOWANYAMA NDB"},
{"type":"NDB","hdg_t":33.1,"dist_nm":73.3,"freq":404,"lat":-13.76611111,"lon":143.11722222,"rng_nm":50,"alt_fmsl":0,"id":"COE","desc":"COEN NDB"},
{"type":"VOR","hdg_t":346.7,"dist_nm":130.1,"freq":112.8,"lat":-12.67361111,"lon":141.92250000,"rng_nm":130,"alt_fmsl":81,"id":"WP","desc":"WEIPA VOR-DME"},
{"type":"NDB","hdg_t":23.1,"dist_nm":130.2,"freq":392,"lat":-12.78833300,"lon":143.30333300,"rng_nm":30,"alt_fmsl":77,"id":"LHR","desc":"LOCKHART RIVER NDB"},
{"type":"NDB","hdg_t":346.2,"dist_nm":131.1,"freq":377,"lat":-12.66166700,"lon":141.89888900,"rng_nm":40,"alt_fmsl":0,"id":"WP","desc":"WEIPA NDB"},
{"type":"NDB","hdg_t":104.4,"dist_nm":168.6,"freq":260,"lat":-15.48166700,"lon":145.24833300,"rng_nm":40,"alt_fmsl":26,"id":"CKN","desc":"COOKTOWN NDB"},
{"type":"NDB","hdg_t":204.1,"dist_nm":190.2,"freq":311,"lat":-17.69583300,"lon":141.07305600,"rng_nm":85,"alt_fmsl":73,"id":"NTN","desc":"NORMANTON NDB"},
{"type":"VOR","hdg_t":126.7,"dist_nm":214,"freq":112.3,"lat":-16.91666700,"lon":145.41166700,"rng_nm":130,"alt_fmsl":0,"id":"BIB","desc":"BIBOOHRA VOR"},
{"type":"NDB","hdg_t":163,"dist_nm":218.8,"freq":401,"lat":-18.29444400,"lon":143.54916700,"rng_nm":30,"alt_fmsl":0,"id":"GTN","desc":"GEORGETOWN NDB"},
{"type":"NDB","hdg_t":238.9,"dist_nm":219,"freq":416,"lat":-16.65916700,"lon":139.17027800,"rng_nm":100,"alt_fmsl":0,"id":"MTI","desc":"MORNINGTON ISLAND NDB"}
]
}
