{"success":true,"source":"xp2csv.pl","last_updated":"2013/11/08 14:53:21 UTC"
,"icao":"YSPF","name":"Springfield","lat":-17.98005398,"lon":144.42800995,"rwys":2,"ils":0,"index":5313027,"path":"e140s20/e144s18"
,"runways":[
{"len_m":3,"wid_m":39.93,"hdg":316,"surf":"Dirt","rwy1":"17","lat1":-17.98333300,"lon1":144.43333300,"rwy2":"35","lat2":-17.98331111,"lon2":144.43331111},
{"len_m":1355,"wid_m":49.99,"hdg":22,"surf":"Dirt","rwy1":"2","lat1":-17.98243480,"lon1":144.42022568,"rwy2":"20","lat2":-17.97113700,"lon2":144.42517000}
]
,"navaids":[
{"type":"NDB","hdg_t":249.3,"dist_nm":53.6,"freq":401,"lat":-18.29444400,"lon":143.54916700,"rng_nm":30,"alt_fmsl":0,"id":"GTN","desc":"GEORGETOWN NDB"},
{"type":"VOR","hdg_t":41.7,"dist_nm":84.9,"freq":112.3,"lat":-16.91666700,"lon":145.41166700,"rng_nm":130,"alt_fmsl":0,"id":"BIB","desc":"BIBOOHRA VOR"},
{"type":"NDB","hdg_t":74.8,"dist_nm":94.2,"freq":212,"lat":-17.56166700,"lon":146.01527800,"rng_nm":25,"alt_fmsl":46,"id":"IFL","desc":"INNISFAIL NDB"},
{"type":"NDB","hdg_t":48.1,"dist_nm":101,"freq":364,"lat":-16.84694400,"lon":145.73555600,"rng_nm":50,"alt_fmsl":0,"id":"CS","desc":"CAIRNS NDB"},
{"type":"VOR","hdg_t":48.3,"dist_nm":101.2,"freq":113,"lat":-16.85000000,"lon":145.74388889,"rng_nm":130,"alt_fmsl":42,"id":"CS","desc":"CAIRNS VOR-DME"},
{"type":"VOR","hdg_t":120,"dist_nm":152.7,"freq":114.1,"lat":-19.24500000,"lon":146.75833333,"rng_nm":130,"alt_fmsl":35,"id":"TL","desc":"TOWNSVILLE VOR-DME"},
{"type":"SDME","hdg_t":120.8,"dist_nm":153,"freq":113.5,"lat":-19.27833300,"lon":146.74333300,"rng_nm":25,"alt_fmsl":18,"id":"TVL","desc":"TOWNSVILLE TACAN"},
{"type":"NDB","hdg_t":120,"dist_nm":153,"freq":276,"lat":-19.24694400,"lon":146.76222200,"rng_nm":75,"alt_fmsl":18,"id":"TVL","desc":"TOWNSVILLE NDB"},
{"type":"NDB","hdg_t":17.6,"dist_nm":156.5,"freq":260,"lat":-15.48166700,"lon":145.24833300,"rng_nm":40,"alt_fmsl":26,"id":"CKN","desc":"COOKTOWN NDB"},
{"type":"VOR","hdg_t":183.8,"dist_nm":169.7,"freq":112.4,"lat":-20.81416700,"lon":144.22305600,"rng_nm":130,"alt_fmsl":1043,"id":"HUG","desc":"HUGHENDEN VOR"}
]
}
