{"success":true,"source":"xp2csv.pl","last_updated":"2013/11/08 14:53:21 UTC"
,"icao":"YSTN","name":"Stony Head","lat":-41.03373344,"lon":146.99570069,"rwys":1,"ils":0,"index":5344315,"path":"e140s50/e146s42"
,"runways":[
{"len_m":679,"wid_m":21.03,"hdg":106,"surf":"Turf/grass","rwy1":"10","lat1":-41.03284720,"lon1":146.99183632,"rwy2":"28","lat2":-41.03461969,"lon2":146.99956507}
]
,"navaids":[
{"type":"VOR","hdg_t":252,"dist_nm":26.7,"freq":116.3,"lat":-41.17000000,"lon":146.43416700,"rng_nm":50,"alt_fmsl":43,"id":"DPO","desc":"DEVONPORT VOR-DME"},
{"type":"NDB","hdg_t":251.7,"dist_nm":27,"freq":281,"lat":-41.17392500,"lon":146.42855300,"rng_nm":50,"alt_fmsl":25,"id":"DPO","desc":"DEVONPORT NDB"},
{"type":"VOR","hdg_t":162.2,"dist_nm":32.1,"freq":112.6,"lat":-41.54388900,"lon":147.21305600,"rng_nm":50,"alt_fmsl":562,"id":"LT","desc":"LAUNCESTON VOR-DME"},
{"type":"NDB","hdg_t":161.9,"dist_nm":33.2,"freq":242,"lat":-41.56111100,"lon":147.22500000,"rng_nm":60,"alt_fmsl":0,"id":"LT","desc":"LAUNCESTON NDB"},
{"type":"NDB","hdg_t":159.5,"dist_nm":39.6,"freq":230,"lat":-41.65277800,"lon":147.30333300,"rng_nm":20,"alt_fmsl":0,"id":"NIE","desc":"NILE NDB"},
{"type":"VOR","hdg_t":271.6,"dist_nm":57.6,"freq":115.8,"lat":-40.99926900,"lon":145.72628600,"rng_nm":130,"alt_fmsl":62,"id":"WYY","desc":"WYNYARD VOR"},
{"type":"NDB","hdg_t":271.6,"dist_nm":58.5,"freq":302,"lat":-40.99797200,"lon":145.70823100,"rng_nm":60,"alt_fmsl":62,"id":"WYY","desc":"WYNYARD NDB"},
{"type":"NDB","hdg_t":107.6,"dist_nm":60.9,"freq":392,"lat":-41.33527800,"lon":148.28166700,"rng_nm":25,"alt_fmsl":0,"id":"STH","desc":"ST. HELENS NDB"},
{"type":"NDB","hdg_t":39.9,"dist_nm":73,"freq":296,"lat":-40.09519444,"lon":148.01483333,"rng_nm":50,"alt_fmsl":0,"id":"FLI","desc":"FLINDERS ISLAND NDB"},
{"type":"NDB","hdg_t":277.2,"dist_nm":87.8,"freq":248,"lat":-40.83315800,"lon":145.08165300,"rng_nm":50,"alt_fmsl":0,"id":"SMI","desc":"SMITHTON NDB"}
]
}
