{"success":true,"source":"xp2csv.pl","last_updated":"2013/11/08 14:53:21 UTC"
,"icao":"YSWE","name":"Sweers Island","lat":-17.12417521,"lon":139.60359044,"rwys":1,"ils":0,"index":5231164,"path":"e130s20/e139s18"
,"runways":[
{"len_m":1157,"wid_m":49.99,"hdg":132,"surf":"Dirt","rwy1":"13","lat1":-17.12062941,"lon1":139.59959188,"rwy2":"31","lat2":-17.12772100,"lon2":139.60758900}
]
,"navaids":[
{"type":"NDB","hdg_t":318,"dist_nm":37.3,"freq":416,"lat":-16.65916700,"lon":139.17027800,"rng_nm":100,"alt_fmsl":0,"id":"MTI","desc":"MORNINGTON ISLAND NDB"},
{"type":"NDB","hdg_t":186.2,"dist_nm":37.6,"freq":236,"lat":-17.75111100,"lon":139.53166700,"rng_nm":70,"alt_fmsl":21,"id":"BKT","desc":"BURKETOWN NDB"},
{"type":"NDB","hdg_t":112.2,"dist_nm":90.9,"freq":311,"lat":-17.69583300,"lon":141.07305600,"rng_nm":85,"alt_fmsl":73,"id":"NTN","desc":"NORMANTON NDB"},
{"type":"NDB","hdg_t":207.7,"dist_nm":110.1,"freq":293,"lat":-18.75388900,"lon":138.70305600,"rng_nm":20,"alt_fmsl":0,"id":"CNY","desc":"CENTURY MINE NDB"},
{"type":"NDB","hdg_t":51.8,"dist_nm":158,"freq":242,"lat":-15.47972200,"lon":141.74833300,"rng_nm":60,"alt_fmsl":35,"id":"KOW","desc":"KOWANYAMA NDB"},
{"type":"NDB","hdg_t":206.7,"dist_nm":187,"freq":254,"lat":-19.91472200,"lon":138.11694400,"rng_nm":65,"alt_fmsl":792,"id":"CMW","desc":"CAMOOWEAL NDB"},
{"type":"NDB","hdg_t":287.7,"dist_nm":200,"freq":218,"lat":-16.07722200,"lon":136.30500000,"rng_nm":100,"alt_fmsl":55,"id":"BRL","desc":"BORROLOOLA NDB"},
{"type":"NDB","hdg_t":280.7,"dist_nm":206.9,"freq":368,"lat":-16.44611100,"lon":136.07805600,"rng_nm":50,"alt_fmsl":131,"id":"MHU","desc":"MCARTHUR RIVER MINE NDB"},
{"type":"VOR","hdg_t":181.7,"dist_nm":211.7,"freq":117.5,"lat":-20.66472200,"lon":139.48583300,"rng_nm":130,"alt_fmsl":1142,"id":"MA","desc":"MOUNT ISA VOR-DME"},
{"type":"NDB","hdg_t":181.7,"dist_nm":212.3,"freq":338,"lat":-20.67527800,"lon":139.48666700,"rng_nm":80,"alt_fmsl":1185,"id":"MA","desc":"MOUNT ISA NDB"}
]
}
