{"success":true,"source":"xp2csv.pl","last_updated":"2013/11/08 14:53:21 UTC"
,"icao":"YTCY","name":"Tarcoonyinna","lat":-26.75698832,"lon":133.35836376,"rwys":1,"ils":0,"index":5132233,"path":"e130s30/e133s27"
,"runways":[
{"len_m":1363,"wid_m":49.99,"hdg":131,"surf":"Dirt","rwy1":"13","lat1":-26.75293805,"lon1":133.35320219,"rwy2":"31","lat2":-26.76103859,"lon2":133.36352532}
]
,"navaids":[
{"type":"NDB","hdg_t":113.6,"dist_nm":121.2,"freq":308,"lat":-27.55472200,"lon":135.44166700,"rng_nm":85,"alt_fmsl":0,"id":"OOD","desc":"OODNADATTA NDB"},
{"type":"NDB","hdg_t":152.2,"dist_nm":154.2,"freq":341,"lat":-29.03194400,"lon":134.72388900,"rng_nm":50,"alt_fmsl":0,"id":"CBP","desc":"COOBER PEDY NDB"},
{"type":"NDB","hdg_t":305.7,"dist_nm":159.9,"freq":233,"lat":-25.17277800,"lon":130.97472200,"rng_nm":100,"alt_fmsl":1636,"id":"AYE","desc":"AYERS ROCK NDB-DME"},
{"type":"SDME","hdg_t":305.8,"dist_nm":160,"freq":117.1,"lat":-25.17138900,"lon":130.97472200,"rng_nm":100,"alt_fmsl":1636,"id":"AYE","desc":"AYERS ROCK NDB-DME"},
{"type":"NDB","hdg_t":12,"dist_nm":176.2,"freq":372,"lat":-23.87423300,"lon":134.02983600,"rng_nm":35,"alt_fmsl":0,"id":"WAY","desc":"WALLABY NDB"},
{"type":"VOR","hdg_t":9.1,"dist_nm":179.5,"freq":115.9,"lat":-23.79288900,"lon":133.87820300,"rng_nm":50,"alt_fmsl":1857,"id":"AS","desc":"ALICE SPRINGS VOR-DME"},
{"type":"NDB","hdg_t":9,"dist_nm":180.3,"freq":335,"lat":-23.77793900,"lon":133.87352500,"rng_nm":90,"alt_fmsl":0,"id":"AS","desc":"ALICE SPRINGS NDB"},
{"type":"NDB","hdg_t":7.4,"dist_nm":181.6,"freq":352,"lat":-23.74500000,"lon":133.78888900,"rng_nm":35,"alt_fmsl":0,"id":"TPB","desc":"TEMPLE BAR NDB"},
{"type":"NDB","hdg_t":6.7,"dist_nm":182.7,"freq":362,"lat":-23.72222200,"lon":133.74555600,"rng_nm":35,"alt_fmsl":0,"id":"SPG","desc":"SIMPSONS GAP NDB"},
{"type":"NDB","hdg_t":34.3,"dist_nm":273.8,"freq":203,"lat":-22.94916700,"lon":136.14500000,"rng_nm":40,"alt_fmsl":0,"id":"JVS","desc":"JERVOIS NDB"}
]
}
