{"success":true,"source":"xp2csv.pl","last_updated":"2013/11/08 14:53:21 UTC"
,"icao":"YTLH","name":"Toogoolawah","lat":-27.07148285,"lon":152.38286074,"rwys":1,"ils":0,"index":5443513,"path":"e150s30/e152s28"
,"runways":[
{"len_m":1044,"wid_m":10.06,"hdg":69,"surf":"Dirt","rwy1":"6","lat1":-27.07314133,"lon1":152.37793168,"rwy2":"24","lat2":-27.06982437,"lon2":152.38778980}
]
,"navaids":[
{"type":"NDB","hdg_t":48.1,"dist_nm":13.6,"freq":392,"lat":-26.91888900,"lon":152.57277800,"rng_nm":35,"alt_fmsl":0,"id":"KCY","desc":"KILCOY NDB"},
{"type":"VOR","hdg_t":46.1,"dist_nm":28.1,"freq":115.9,"lat":-26.74472200,"lon":152.76138900,"rng_nm":130,"alt_fmsl":0,"id":"MLY","desc":"MALENY VOR"},
{"type":"NDB","hdg_t":221.6,"dist_nm":37.7,"freq":386,"lat":-27.54194400,"lon":151.91194400,"rng_nm":25,"alt_fmsl":2086,"id":"TWB","desc":"TOOWOOMBA NDB"},
{"type":"SDME","hdg_t":152.5,"dist_nm":38.4,"freq":114.7,"lat":-27.64166700,"lon":152.71611100,"rng_nm":25,"alt_fmsl":91,"id":"AMB","desc":"AMBERLEY TACAN"},
{"type":"NDB","hdg_t":152.2,"dist_nm":39,"freq":359,"lat":-27.64888900,"lon":152.72361100,"rng_nm":85,"alt_fmsl":91,"id":"AMB","desc":"AMBERLEY NDB"},
{"type":"VOR","hdg_t":240.1,"dist_nm":39.7,"freq":112.9,"lat":-27.40000000,"lon":151.73750000,"rng_nm":130,"alt_fmsl":1335,"id":"OK","desc":"OAKEY VOR-DME"},
{"type":"NDB","hdg_t":238.6,"dist_nm":40.3,"freq":254,"lat":-27.42138900,"lon":151.73722200,"rng_nm":65,"alt_fmsl":1335,"id":"OK","desc":"OAKEY NDB"},
{"type":"NDB","hdg_t":315.4,"dist_nm":41.2,"freq":209,"lat":-26.57861100,"lon":151.84444400,"rng_nm":40,"alt_fmsl":1492,"id":"KRY","desc":"KINGAROY NDB"},
{"type":"NDB","hdg_t":117.8,"dist_nm":43.1,"freq":302,"lat":-27.40638900,"lon":153.09805600,"rng_nm":70,"alt_fmsl":0,"id":"BN","desc":"BRISBANE NDB"},
{"type":"VOR","hdg_t":113.6,"dist_nm":44.1,"freq":113.2,"lat":-27.36583333,"lon":153.13916667,"rng_nm":130,"alt_fmsl":28,"id":"BN","desc":"BRISBANE VOR-DME"},
{"type":"NDB","hdg_t":131.5,"dist_nm":45.1,"freq":419,"lat":-27.57027800,"lon":153.01611100,"rng_nm":30,"alt_fmsl":63,"id":"AF","desc":"ARCHERFIELD NDB"},
{"type":"VOR","hdg_t":53.4,"dist_nm":47.3,"freq":114.2,"lat":-26.59766666,"lon":153.09033333,"rng_nm":130,"alt_fmsl":25,"id":"SU","desc":"SUNSHINE COAST VOR-DME"},
{"type":"NDB","hdg_t":53.1,"dist_nm":47.6,"freq":380,"lat":-26.59222200,"lon":153.09166700,"rng_nm":50,"alt_fmsl":15,"id":"SU","desc":"Sunshine Coast NDB"},
{"type":"NDB","hdg_t":152.8,"dist_nm":60.2,"freq":374,"lat":-27.96611100,"lon":152.90083300,"rng_nm":50,"alt_fmsl":0,"id":"BML","desc":"BROMELTON NDB"},
{"type":"VOR","hdg_t":129.3,"dist_nm":65.4,"freq":116.5,"lat":-27.76138900,"lon":153.33444400,"rng_nm":130,"alt_fmsl":0,"id":"JCW","desc":"JACOBS WELL VOR"},
{"type":"VOR","hdg_t":154.7,"dist_nm":67.4,"freq":117.8,"lat":-28.08981700,"lon":152.92478900,"rng_nm":130,"alt_fmsl":0,"id":"LAV","desc":"LARAVALE VOR"},
{"type":"NDB","hdg_t":137.9,"dist_nm":88.4,"freq":278,"lat":-28.16485800,"lon":153.50111400,"rng_nm":60,"alt_fmsl":17,"id":"CG","desc":"COOLANGATTA NDB"},
{"type":"VOR","hdg_t":137.9,"dist_nm":88.7,"freq":112.3,"lat":-28.16888889,"lon":153.50388889,"rng_nm":130,"alt_fmsl":33,"id":"CG","desc":"COOLANGATTA VOR-DME"},
{"type":"NDB","hdg_t":10.8,"dist_nm":94.4,"freq":248,"lat":-25.51972200,"lon":152.71000000,"rng_nm":40,"alt_fmsl":38,"id":"MYB","desc":"MARYBOROUGH NDB"},
{"type":"NDB","hdg_t":336.4,"dist_nm":96.2,"freq":284,"lat":-25.59500000,"lon":151.67305600,"rng_nm":60,"alt_fmsl":0,"id":"GAY","desc":"GAYNDAH NDB"}
]
}
