{"success":true,"source":"xp2csv.pl","last_updated":"2013/11/08 14:53:21 UTC"
,"icao":"YTMN","name":"Tanami","lat":-19.96578171,"lon":129.72676238,"rwys":1,"ils":0,"index":5067141,"path":"e120s20/e129s20"
,"runways":[
{"len_m":1520,"wid_m":96.01,"hdg":129,"surf":"Dirt","rwy1":"13","lat1":-19.96137037,"lon1":129.72119318,"rwy2":"31","lat2":-19.97019304,"lon2":129.73233157}
]
,"radios":[
{"type":"CTAF","freq":126.7,"desc":"Tanami Mine"}
]
,"navaids":[
{"type":"NDB","hdg_t":263.7,"dist_nm":98.6,"freq":206,"lat":-20.13586400,"lon":127.98885600,"rng_nm":70,"alt_fmsl":0,"id":"BGO","desc":"BALGO HILL NDB"},
{"type":"NDB","hdg_t":28,"dist_nm":110.5,"freq":398,"lat":-18.33083300,"lon":130.63722200,"rng_nm":50,"alt_fmsl":1050,"id":"HOO","desc":"HOOKER CREEK NDB"},
{"type":"NDB","hdg_t":311.2,"dist_nm":156.4,"freq":266,"lat":-18.23000000,"lon":127.66638900,"rng_nm":85,"alt_fmsl":1346,"id":"HLC","desc":"HALLS CREEK NDB"},
{"type":"NDB","hdg_t":27.5,"dist_nm":173,"freq":203,"lat":-17.39250000,"lon":131.12111100,"rng_nm":40,"alt_fmsl":658,"id":"WAV","desc":"WAVE HILL NDB"},
{"type":"VOR","hdg_t":339.6,"dist_nm":212.1,"freq":113.9,"lat":-16.63166700,"lon":128.44888900,"rng_nm":50,"alt_fmsl":536,"id":"ARG","desc":"ARGYLE VOR-DME"},
{"type":"NDB","hdg_t":19.1,"dist_nm":225,"freq":377,"lat":-16.40472200,"lon":131.00666700,"rng_nm":85,"alt_fmsl":291,"id":"VRD","desc":"VICTORIA RIVER DOWNS NDB"},
{"type":"NDB","hdg_t":86.3,"dist_nm":252.3,"freq":272,"lat":-19.64416700,"lon":134.17527800,"rng_nm":85,"alt_fmsl":1236,"id":"TNK","desc":"TENNANT CREEK NDB"},
{"type":"VOR","hdg_t":86.2,"dist_nm":252.7,"freq":112.9,"lat":-19.63444400,"lon":134.18138900,"rng_nm":130,"alt_fmsl":1246,"id":"TNK","desc":"TENNANT CREEK VOR-DME"},
{"type":"NDB","hdg_t":346.6,"dist_nm":256.6,"freq":221,"lat":-15.78388900,"lon":128.70388900,"rng_nm":70,"alt_fmsl":145,"id":"KU","desc":"KUNUNURRA NDB"},
{"type":"VOR","hdg_t":346.7,"dist_nm":257,"freq":116.5,"lat":-15.77555600,"lon":128.70888900,"rng_nm":130,"alt_fmsl":165,"id":"KU","desc":"KUNUNURRA VOR-DME"}
]
}
