{"success":true,"source":"xp2csv.pl","last_updated":"2013/11/08 14:53:21 UTC"
,"icao":"YTWB","name":"Toowoomba","lat":-27.54281162,"lon":151.91567117,"rwys":2,"ils":0,"index":5427099,"path":"e150s30/e151s28"
,"runways":[
{"len_m":1122,"wid_m":29.87,"hdg":116,"surf":"Asphalt","rwy1":"11","lat1":-27.54021531,"lon1":151.91198836,"rwy2":"29","lat2":-27.54479369,"lon2":151.92212245},
{"len_m":779,"wid_m":49.99,"hdg":72,"surf":"Transparent","rwy1":"07","lat1":-27.54417182,"lon1":151.91052007,"rwy2":"25","lat2":-27.54206566,"lon2":151.91805380}
]
,"radios":[
{"type":"CTAF","freq":122.4,"desc":"ACTIVATE LIGHTS ONLY MULT"},
{"type":"CTAF","freq":121.2,"desc":"BRISBANE CENTRE MULT"},
{"type":"CTAF","freq":127.65,"desc":"TOOWOOMBA MULT"}
]
,"navaids":[
{"type":"NDB","hdg_t":284.6,"dist_nm":0.2,"freq":386,"lat":-27.54194400,"lon":151.91194400,"rng_nm":25,"alt_fmsl":2086,"id":"TWB","desc":"TOOWOOMBA NDB"},
{"type":"NDB","hdg_t":307.3,"dist_nm":11.9,"freq":254,"lat":-27.42138900,"lon":151.73722200,"rng_nm":65,"alt_fmsl":1335,"id":"OK","desc":"OAKEY NDB"},
{"type":"VOR","hdg_t":311.9,"dist_nm":12.7,"freq":112.9,"lat":-27.40000000,"lon":151.73750000,"rng_nm":130,"alt_fmsl":1335,"id":"OK","desc":"OAKEY VOR-DME"},
{"type":"SDME","hdg_t":98,"dist_nm":43,"freq":114.7,"lat":-27.64166700,"lon":152.71611100,"rng_nm":25,"alt_fmsl":91,"id":"AMB","desc":"AMBERLEY TACAN"},
{"type":"NDB","hdg_t":98.5,"dist_nm":43.5,"freq":359,"lat":-27.64888900,"lon":152.72361100,"rng_nm":85,"alt_fmsl":91,"id":"AMB","desc":"AMBERLEY NDB"},
{"type":"NDB","hdg_t":43.4,"dist_nm":51.2,"freq":392,"lat":-26.91888900,"lon":152.57277800,"rng_nm":35,"alt_fmsl":0,"id":"KCY","desc":"KILCOY NDB"},
{"type":"NDB","hdg_t":356.1,"dist_nm":57.8,"freq":209,"lat":-26.57861100,"lon":151.84444400,"rng_nm":40,"alt_fmsl":1492,"id":"KRY","desc":"KINGAROY NDB"},
{"type":"NDB","hdg_t":116,"dist_nm":58.2,"freq":374,"lat":-27.96611100,"lon":152.90083300,"rng_nm":50,"alt_fmsl":0,"id":"BML","desc":"BROMELTON NDB"},
{"type":"NDB","hdg_t":91.8,"dist_nm":58.7,"freq":419,"lat":-27.57027800,"lon":153.01611100,"rng_nm":30,"alt_fmsl":63,"id":"AF","desc":"ARCHERFIELD NDB"},
{"type":"VOR","hdg_t":121.6,"dist_nm":62.8,"freq":117.8,"lat":-28.08981700,"lon":152.92478900,"rng_nm":130,"alt_fmsl":0,"id":"LAV","desc":"LARAVALE VOR"},
{"type":"NDB","hdg_t":82.9,"dist_nm":63.6,"freq":302,"lat":-27.40638900,"lon":153.09805600,"rng_nm":70,"alt_fmsl":0,"id":"BN","desc":"BRISBANE NDB"},
{"type":"VOR","hdg_t":43.6,"dist_nm":65.7,"freq":115.9,"lat":-26.74472200,"lon":152.76138900,"rng_nm":130,"alt_fmsl":0,"id":"MLY","desc":"MALENY VOR"},
{"type":"VOR","hdg_t":81,"dist_nm":66.1,"freq":113.2,"lat":-27.36583333,"lon":153.13916667,"rng_nm":130,"alt_fmsl":28,"id":"BN","desc":"BRISBANE VOR-DME"},
{"type":"VOR","hdg_t":100.1,"dist_nm":76.7,"freq":116.5,"lat":-27.76138900,"lon":153.33444400,"rng_nm":130,"alt_fmsl":0,"id":"JCW","desc":"JACOBS WELL VOR"},
{"type":"VOR","hdg_t":48.3,"dist_nm":84.5,"freq":114.2,"lat":-26.59766666,"lon":153.09033333,"rng_nm":130,"alt_fmsl":25,"id":"SU","desc":"SUNSHINE COAST VOR-DME"},
{"type":"NDB","hdg_t":48.1,"dist_nm":84.8,"freq":380,"lat":-26.59222200,"lon":153.09166700,"rng_nm":50,"alt_fmsl":15,"id":"SU","desc":"Sunshine Coast NDB"},
{"type":"NDB","hdg_t":114.1,"dist_nm":92.1,"freq":278,"lat":-28.16485800,"lon":153.50111400,"rng_nm":60,"alt_fmsl":17,"id":"CG","desc":"COOLANGATTA NDB"},
{"type":"VOR","hdg_t":114.2,"dist_nm":92.3,"freq":112.3,"lat":-28.16888889,"lon":153.50388889,"rng_nm":130,"alt_fmsl":33,"id":"CG","desc":"COOLANGATTA VOR-DME"}
]
}
