{"success":true,"source":"xp2csv.pl","last_updated":"2013/11/08 14:53:21 UTC"
,"icao":"YWAL","name":"Wallal Downs","lat":-19.77427224,"lon":120.64979579,"rwys":2,"ils":0,"index":4919693,"path":"e120s20/e120s20"
,"runways":[
{"len_m":988,"wid_m":21.95,"hdg":83,"surf":"Dirt","rwy1":"8","lat1":-19.77407653,"lon1":120.64468583,"rwy2":"26","lat2":-19.77303308,"lon2":120.65405326},
{"len_m":1436,"wid_m":28.04,"hdg":139,"surf":"Dirt","rwy1":"14","lat1":-19.77005335,"lon1":120.64577203,"rwy2":"32","lat2":-19.77992598,"lon2":120.65467202}
]
,"navaids":[
{"type":"NDB","hdg_t":251.6,"dist_nm":119.1,"freq":260,"lat":-20.38916700,"lon":118.64250000,"rng_nm":75,"alt_fmsl":0,"id":"PD","desc":"PORT HEDLAND NDB"},
{"type":"VOR","hdg_t":252.1,"dist_nm":120,"freq":114.1,"lat":-20.37833300,"lon":118.62277800,"rng_nm":130,"alt_fmsl":56,"id":"PD","desc":"PORT HEDLAND VOR-DME"},
{"type":"SDME","hdg_t":39.8,"dist_nm":141.6,"freq":115.3,"lat":-17.94694400,"lon":122.23472200,"rng_nm":60,"alt_fmsl":67,"id":"BRM","desc":"BROOME NDB-DME"},
{"type":"NDB","hdg_t":39.8,"dist_nm":141.6,"freq":320,"lat":-17.94638900,"lon":122.23527800,"rng_nm":60,"alt_fmsl":67,"id":"BRM","desc":"BROOME NDB-DME"},
{"type":"NDB","hdg_t":143,"dist_nm":145.3,"freq":374,"lat":-21.71138900,"lon":122.21333300,"rng_nm":50,"alt_fmsl":0,"id":"TEF","desc":"TELFER NDB"},
{"type":"NDB","hdg_t":192.1,"dist_nm":223,"freq":233,"lat":-23.41805600,"lon":119.79722200,"rng_nm":85,"alt_fmsl":0,"id":"NWN","desc":"NEWMAN NDB"},
{"type":"VOR","hdg_t":192,"dist_nm":223,"freq":117.2,"lat":-23.42083300,"lon":119.80305600,"rng_nm":50,"alt_fmsl":1734,"id":"NWN","desc":"NEWMAN VOR-DME"},
{"type":"NDB","hdg_t":54.5,"dist_nm":223.8,"freq":350,"lat":-17.57416700,"lon":123.83083300,"rng_nm":75,"alt_fmsl":300,"id":"CIN","desc":"CURTIN NDB"},
{"type":"VOR","hdg_t":54.9,"dist_nm":224.3,"freq":114.3,"lat":-17.58888889,"lon":123.85194444,"rng_nm":130,"alt_fmsl":27,"id":"CIN","desc":"CURTIN VOR-DME"},
{"type":"NDB","hdg_t":50.4,"dist_nm":224.5,"freq":332,"lat":-17.35694400,"lon":123.66694400,"rng_nm":50,"alt_fmsl":24,"id":"DBY","desc":"DERBY NDB"}
]
}
