{"success":true,"source":"xp2csv.pl","last_updated":"2013/11/08 14:53:21 UTC"
,"icao":"YWBS","name":"Warraber Island","lat":-10.20740656,"lon":142.82395105,"rwys":1,"ils":0,"index":5280758,"path":"e140s20/e142s11"
,"runways":[
{"len_m":719,"wid_m":17.98,"hdg":122,"surf":"Asphalt","rwy1":"12","lat1":-10.20565523,"lon1":142.82118679,"rwy2":"30","lat2":-10.20915789,"lon2":142.82671531}
]
,"radios":[
{"type":"CTAF","freq":120.3,"desc":"BRISBANE CENTRE MULT"},
{"type":"CTAF","freq":126.5,"desc":"WARRABER MULT"}
]
,"navaids":[
{"type":"NDB","hdg_t":233.7,"dist_nm":38.9,"freq":356,"lat":-10.59194444,"lon":142.29250000,"rng_nm":50,"alt_fmsl":0,"id":"HID","desc":"HORN ISLAND NDB"},
{"type":"NDB","hdg_t":18.8,"dist_nm":71.4,"freq":290,"lat":-9.07501700,"lon":143.21301700,"rng_nm":80,"alt_fmsl":170,"id":"DAU","desc":"DARU NDB-DME"},
{"type":"SDME","hdg_t":18.8,"dist_nm":71.5,"freq":114.5,"lat":-9.07383300,"lon":143.21233300,"rng_nm":80,"alt_fmsl":170,"id":"DAU","desc":"DARU NDB-DME"},
{"type":"NDB","hdg_t":200.3,"dist_nm":156.3,"freq":377,"lat":-12.66166700,"lon":141.89888900,"rng_nm":40,"alt_fmsl":0,"id":"WP","desc":"WEIPA NDB"},
{"type":"VOR","hdg_t":199.7,"dist_nm":156.5,"freq":112.8,"lat":-12.67361111,"lon":141.92250000,"rng_nm":130,"alt_fmsl":81,"id":"WP","desc":"WEIPA VOR-DME"},
{"type":"NDB","hdg_t":169.6,"dist_nm":156.7,"freq":392,"lat":-12.78833300,"lon":143.30333300,"rng_nm":30,"alt_fmsl":77,"id":"LHR","desc":"LOCKHART RIVER NDB"},
{"type":"NDB","hdg_t":38.9,"dist_nm":164.3,"freq":1737,"lat":-8.06435000,"lon":144.56060000,"rng_nm":50,"alt_fmsl":0,"id":"KUT","desc":"KUMUL PLATFORM NDB"},
{"type":"VOR","hdg_t":304.9,"dist_nm":174.6,"freq":115.8,"lat":-8.52260800,"lon":140.41711100,"rng_nm":130,"alt_fmsl":10,"id":"MKE","desc":"MERAUKE VOR-DME"},
{"type":"NDB","hdg_t":305,"dist_nm":175.4,"freq":253,"lat":-8.51069200,"lon":140.41003600,"rng_nm":50,"alt_fmsl":10,"id":"ZP","desc":"MERAUKE NDB"},
{"type":"NDB","hdg_t":27.1,"dist_nm":186.3,"freq":308,"lat":-7.42747222,"lon":144.25077778,"rng_nm":50,"alt_fmsl":0,"id":"KIK","desc":"KIKORI NDB"}
]
}
