{"success":true,"source":"xp2csv.pl","last_updated":"2013/11/08 14:53:21 UTC"
,"icao":"YWGT","name":"Wangaratta","lat":-36.41739263,"lon":146.30550493,"rwys":2,"ils":0,"index":5344609,"path":"e140s40/e146s37"
,"runways":[
{"len_m":613,"wid_m":49.99,"hdg":97,"surf":"Turf/grass","rwy1":"9","lat1":-36.41883418,"lon1":146.29928092,"rwy2":"27","lat2":-36.41958103,"lon2":146.30605627},
{"len_m":1638,"wid_m":29.87,"hdg":188,"surf":"Asphalt","rwy1":"18","lat1":-36.40827073,"lon1":146.30963426,"rwy2":"36","lat2":-36.42288458,"lon2":146.30704825}
]
,"radios":[
{"type":"CTAF","freq":119.1,"desc":"CTAF"}
]
,"navaids":[
{"type":"NDB","hdg_t":190.8,"dist_nm":0.2,"freq":203,"lat":-36.42151400,"lon":146.30453100,"rng_nm":30,"alt_fmsl":0,"id":"WGT","desc":"WANGARATTA NDB"},
{"type":"NDB","hdg_t":5.5,"dist_nm":25.8,"freq":380,"lat":-35.98746700,"lon":146.35719700,"rng_nm":75,"alt_fmsl":464,"id":"COR","desc":"COROWA NDB"},
{"type":"NDB","hdg_t":226.2,"dist_nm":37.8,"freq":413,"lat":-36.85276100,"lon":145.73848100,"rng_nm":35,"alt_fmsl":0,"id":"SBG","desc":"STRATHBOGIE NDB"},
{"type":"VOR","hdg_t":57,"dist_nm":38.2,"freq":115.6,"lat":-36.06805600,"lon":146.96611100,"rng_nm":50,"alt_fmsl":550,"id":"AY","desc":"ALBURY VOR-DME"},
{"type":"NDB","hdg_t":57.2,"dist_nm":38.4,"freq":236,"lat":-36.06861100,"lon":146.96972200,"rng_nm":65,"alt_fmsl":0,"id":"AY","desc":"ALBURY NDB"},
{"type":"NDB","hdg_t":191.9,"dist_nm":38.5,"freq":284,"lat":-37.04722200,"lon":146.13972200,"rng_nm":45,"alt_fmsl":0,"id":"MFD","desc":"MANSFIELD NDB"},
{"type":"NDB","hdg_t":268.8,"dist_nm":44,"freq":212,"lat":-36.42836100,"lon":145.39602200,"rng_nm":30,"alt_fmsl":0,"id":"SHT","desc":"SHEPPARTON NDB"},
{"type":"VOR","hdg_t":205.4,"dist_nm":52.4,"freq":112.3,"lat":-37.20633300,"lon":145.83505800,"rng_nm":130,"alt_fmsl":0,"id":"ELW","desc":"EILDON WEIR VOR"},
{"type":"VOR","hdg_t":242,"dist_nm":60.5,"freq":113.2,"lat":-36.88611100,"lon":145.19416700,"rng_nm":130,"alt_fmsl":467,"id":"MNG","desc":"MANGALORE VOR"},
{"type":"NDB","hdg_t":241.7,"dist_nm":61.4,"freq":254,"lat":-36.89722200,"lon":145.18111100,"rng_nm":65,"alt_fmsl":0,"id":"MNG","desc":"MANGALORE NDB"},
{"type":"NDB","hdg_t":50.3,"dist_nm":73.8,"freq":323,"lat":-35.62508100,"lon":147.46710000,"rng_nm":70,"alt_fmsl":0,"id":"HBK","desc":"HOLBROOK NDB"},
{"type":"NDB","hdg_t":126.4,"dist_nm":74,"freq":227,"lat":-37.14472200,"lon":147.54861100,"rng_nm":40,"alt_fmsl":0,"id":"LVG","desc":"MOUNT LIVINGSTONE NDB"},
{"type":"VOR","hdg_t":126.1,"dist_nm":74.1,"freq":117.2,"lat":-37.14111100,"lon":147.55222200,"rng_nm":130,"alt_fmsl":0,"id":"LVG","desc":"MOUNT LIVINGSTONE VOR"},
{"type":"NDB","hdg_t":280.9,"dist_nm":76.2,"freq":341,"lat":-36.16538100,"lon":144.76459200,"rng_nm":30,"alt_fmsl":0,"id":"ECH","desc":"ECHUCA NDB"},
{"type":"NDB","hdg_t":78.4,"dist_nm":77.1,"freq":386,"lat":-36.14846700,"lon":147.86189700,"rng_nm":55,"alt_fmsl":0,"id":"CRG","desc":"CORRYONG NDB"},
{"type":"NDB","hdg_t":307.7,"dist_nm":83.8,"freq":392,"lat":-35.55202800,"lon":144.95179400,"rng_nm":55,"alt_fmsl":305,"id":"DLQ","desc":"DENILIQUIN NDB"},
{"type":"NDB","hdg_t":37,"dist_nm":93.8,"freq":221,"lat":-35.16302200,"lon":147.45556900,"rng_nm":80,"alt_fmsl":0,"id":"WG","desc":"WAGGA WAGGA NDB"},
{"type":"VOR","hdg_t":37.4,"dist_nm":94,"freq":115,"lat":-35.16561100,"lon":147.46887200,"rng_nm":50,"alt_fmsl":771,"id":"WG","desc":"WAGGA WAGGA VOR-DME"},
{"type":"NDB","hdg_t":228.7,"dist_nm":95.7,"freq":362,"lat":-37.46222200,"lon":144.79833300,"rng_nm":30,"alt_fmsl":0,"id":"BOL","desc":"BOLINDA NDB"},
{"type":"NDB","hdg_t":215.9,"dist_nm":96.8,"freq":218,"lat":-37.72027800,"lon":145.11138900,"rng_nm":36,"alt_fmsl":0,"id":"PLE","desc":"PLENTY NDB"},
{"type":"NDB","hdg_t":218.8,"dist_nm":97,"freq":377,"lat":-37.67166700,"lon":145.02638900,"rng_nm":40,"alt_fmsl":0,"id":"EPP","desc":"EPPING NDB"},
{"type":"NDB","hdg_t":257.8,"dist_nm":97.6,"freq":245,"lat":-36.74277800,"lon":144.32611100,"rng_nm":60,"alt_fmsl":700,"id":"BDG","desc":"BENDIGO NDB"}
]
}
