{"success":true,"source":"xp2csv.pl","last_updated":"2013/11/08 14:53:21 UTC"
,"icao":"YWOK","name":"Woodstock","lat":-33.77098021,"lon":120.25239779,"rwys":1,"ils":0,"index":4918793,"path":"e120s40/e120s34"
,"runways":[
{"len_m":889,"wid_m":29.87,"hdg":63,"surf":"Turf/grass","rwy1":"6","lat1":-33.77274401,"lon1":120.24808566,"rwy2":"24","lat2":-33.76921640,"lon2":120.25670992}
]
,"navaids":[
{"type":"VOR","hdg_t":86.4,"dist_nm":78.8,"freq":114.2,"lat":-33.68055600,"lon":121.82388900,"rng_nm":130,"alt_fmsl":460,"id":"ESP","desc":"ESPERANCE VOR-DME"},
{"type":"NDB","hdg_t":86.7,"dist_nm":78.9,"freq":326,"lat":-33.68694400,"lon":121.82722200,"rng_nm":110,"alt_fmsl":470,"id":"ESP","desc":"ESPERANCE NDB"},
{"type":"NDB","hdg_t":40,"dist_nm":122.5,"freq":347,"lat":-32.19444400,"lon":121.79916700,"rng_nm":80,"alt_fmsl":0,"id":"NSM","desc":"NORSEMAN NDB"},
{"type":"NDB","hdg_t":316.8,"dist_nm":138.3,"freq":227,"lat":-32.07166700,"lon":118.39500000,"rng_nm":80,"alt_fmsl":0,"id":"NRB","desc":"NAREMBEEN NDB"},
{"type":"NDB","hdg_t":239,"dist_nm":140.4,"freq":240,"lat":-34.95222200,"lon":117.81055600,"rng_nm":60,"alt_fmsl":243,"id":"ABA","desc":"ALBANY NDB-DME"},
{"type":"SDME","hdg_t":239,"dist_nm":140.4,"freq":109.7,"lat":-34.95222200,"lon":117.81055600,"rng_nm":60,"alt_fmsl":243,"id":"ABA","desc":"ALBANY NDB-DME"},
{"type":"NDB","hdg_t":343,"dist_nm":158.6,"freq":221,"lat":-31.23222200,"lon":119.35583300,"rng_nm":80,"alt_fmsl":0,"id":"SCR","desc":"SOUTHERN CROSS NDB"},
{"type":"NDB","hdg_t":293.8,"dist_nm":176.2,"freq":233,"lat":-32.53916700,"lon":117.07444400,"rng_nm":110,"alt_fmsl":0,"id":"PIY","desc":"PINGELLY NDB"},
{"type":"VOR","hdg_t":19.2,"dist_nm":188.6,"freq":114.1,"lat":-30.78972200,"lon":121.45277800,"rng_nm":50,"alt_fmsl":1203,"id":"KG","desc":"KALGOORLIE VOR-DME"},
{"type":"NDB","hdg_t":18.9,"dist_nm":189.1,"freq":287,"lat":-30.77777800,"lon":121.43944400,"rng_nm":80,"alt_fmsl":0,"id":"KG","desc":"KALGOORLIE NDB"}
]
}
