{"success":true,"source":"xp2csv.pl","last_updated":"2013/11/08 14:53:21 UTC"
,"icao":"YYCA","name":"Yancannia","lat":-30.50448626,"lon":142.91136851,"rwys":1,"ils":0,"index":5279451,"path":"e140s40/e142s31"
,"runways":[
{"len_m":978,"wid_m":28.96,"hdg":55,"surf":"Dirt","rwy1":"05","lat1":-30.50697928,"lon1":142.90716222,"rwy2":"23","lat2":-30.50199325,"lon2":142.91557480}
]
,"navaids":[
{"type":"NDB","hdg_t":324.7,"dist_nm":77.3,"freq":200,"lat":-29.44635300,"lon":142.05813100,"rng_nm":50,"alt_fmsl":0,"id":"TIB","desc":"TIBOOBURRA NDB"},
{"type":"NDB","hdg_t":219.4,"dist_nm":115.9,"freq":332,"lat":-31.99194400,"lon":141.46833300,"rng_nm":85,"alt_fmsl":958,"id":"BHI","desc":"BROKEN HILL NDB"},
{"type":"VOR","hdg_t":219,"dist_nm":115.9,"freq":114.2,"lat":-32.00055600,"lon":141.47972200,"rng_nm":130,"alt_fmsl":968,"id":"BHI","desc":"BROKEN HILL VOR-DME"},
{"type":"NDB","hdg_t":17.7,"dist_nm":157.5,"freq":392,"lat":-27.99333300,"lon":143.81500000,"rng_nm":40,"alt_fmsl":433,"id":"TGM","desc":"THARGOMINDAH NDB"},
{"type":"NDB","hdg_t":80.8,"dist_nm":160.2,"freq":389,"lat":-30.04333300,"lon":145.94944400,"rng_nm":45,"alt_fmsl":0,"id":"BKE","desc":"BOURKE NDB"},
{"type":"NDB","hdg_t":113.3,"dist_nm":161.2,"freq":395,"lat":-31.54000000,"lon":145.79861100,"rng_nm":45,"alt_fmsl":0,"id":"CBA","desc":"COBAR NDB"},
{"type":"SDME","hdg_t":314.6,"dist_nm":202.1,"freq":112,"lat":-28.10416700,"lon":140.19972200,"rng_nm":75,"alt_fmsl":135,"id":"OOM","desc":"MOOMBA NDB-DME"},
{"type":"NDB","hdg_t":314.6,"dist_nm":202.1,"freq":227,"lat":-28.10444400,"lon":140.19916700,"rng_nm":75,"alt_fmsl":135,"id":"OOM","desc":"MOOMBA NDB-DME"},
{"type":"VOR","hdg_t":44.6,"dist_nm":205,"freq":115.5,"lat":-28.03878300,"lon":145.62358600,"rng_nm":130,"alt_fmsl":625,"id":"CMU","desc":"CUNNAMULLA VOR"},
{"type":"NDB","hdg_t":82,"dist_nm":205.1,"freq":281,"lat":-29.97472200,"lon":146.81166700,"rng_nm":55,"alt_fmsl":0,"id":"BRW","desc":"BREWARRINA NDB"}
]
}
