{"success":true,"source":"xp2csv.pl","last_updated":"2013/11/08 14:53:21 UTC"
,"icao":"YYYA","name":"Yandiearra","lat":-21.28526941,"lon":118.38533176,"rwys":1,"ils":0,"index":4886827,"path":"e110s30/e118s22"
,"runways":[
{"len_m":1304,"wid_m":46.94,"hdg":130,"surf":"Dirt","rwy1":"13","lat1":-21.28141856,"lon1":118.38057442,"rwy2":"31","lat2":-21.28912025,"lon2":118.39008910}
]
,"navaids":[
{"type":"NDB","hdg_t":15.1,"dist_nm":55.4,"freq":260,"lat":-20.38916700,"lon":118.64250000,"rng_nm":75,"alt_fmsl":0,"id":"PD","desc":"PORT HEDLAND NDB"},
{"type":"VOR","hdg_t":13.8,"dist_nm":55.8,"freq":114.1,"lat":-20.37833300,"lon":118.62277800,"rng_nm":130,"alt_fmsl":56,"id":"PD","desc":"PORT HEDLAND VOR-DME"},
{"type":"NDB","hdg_t":290.7,"dist_nm":96.3,"freq":404,"lat":-20.70611100,"lon":116.78388900,"rng_nm":70,"alt_fmsl":29,"id":"KA","desc":"KARRATHA NDB"},
{"type":"VOR","hdg_t":290.3,"dist_nm":96.6,"freq":117.3,"lat":-20.71500000,"lon":116.77388900,"rng_nm":50,"alt_fmsl":39,"id":"KA","desc":"KARRATHA VOR-DME"},
{"type":"VOR","hdg_t":197.6,"dist_nm":118.4,"freq":116.9,"lat":-23.17250000,"lon":117.73694400,"rng_nm":50,"alt_fmsl":1416,"id":"PBO","desc":"PARABURDOO VOR-DME"},
{"type":"NDB","hdg_t":197.4,"dist_nm":118.7,"freq":278,"lat":-23.17888900,"lon":117.74250000,"rng_nm":70,"alt_fmsl":0,"id":"PBO","desc":"PARABURDOO NDB"},
{"type":"NDB","hdg_t":148.6,"dist_nm":149.7,"freq":233,"lat":-23.41805600,"lon":119.79722200,"rng_nm":85,"alt_fmsl":0,"id":"NWN","desc":"NEWMAN NDB"},
{"type":"VOR","hdg_t":148.5,"dist_nm":150,"freq":117.2,"lat":-23.42083300,"lon":119.80305600,"rng_nm":50,"alt_fmsl":1734,"id":"NWN","desc":"NEWMAN VOR-DME"},
{"type":"NDB","hdg_t":278.1,"dist_nm":169.1,"freq":206,"lat":-20.85628900,"lon":115.40613900,"rng_nm":75,"alt_fmsl":26,"id":"BWX","desc":"BARROW ISLAND NDB"},
{"type":"NDB","hdg_t":97.4,"dist_nm":215.6,"freq":374,"lat":-21.71138900,"lon":122.21333300,"rng_nm":50,"alt_fmsl":0,"id":"TEF","desc":"TELFER NDB"}
]
}
