{"success":true,"source":"xp2csv.pl","last_updated":"2013/11/08 14:53:21 UTC"
,"icao":"ZWCM","name":"Qiemo","lat":38.14950603,"lon":85.53295368,"rwys":1,"ils":0,"index":4349962,"path":"e080n30/e085n38"
,"runways":[
{"len_m":1698,"wid_m":29.87,"hdg":11,"surf":"Asphalt","rwy1":"01","lat1":38.14200814,"lon1":85.53102668,"rwy2":"19","lat2":38.15700391,"lon2":85.53488067}
]
,"radios":[
{"type":"TWR","freq":118.85,"desc":"TWR"}
]
,"navaids":[
{"type":"VOR","hdg_t":86.3,"dist_nm":0,"freq":114.3,"lat":38.14960098,"lon":85.53485107,"rng_nm":50,"alt_fmsl":4088,"id":"QIM","desc":"QIEMO VOR-DME"},
{"type":"NDB","hdg_t":191.3,"dist_nm":1.5,"freq":533,"lat":38.12390137,"lon":85.52645111,"rng_nm":15,"alt_fmsl":4107,"id":"SY","desc":"QIEMO NDB"},
{"type":"VOR","hdg_t":332.1,"dist_nm":243.6,"freq":114.5,"lat":41.71666700,"lon":83.00000000,"rng_nm":130,"alt_fmsl":325,"id":"KCA","desc":"KUQA VOR-DME"},
{"type":"VOR","hdg_t":257.8,"dist_nm":278,"freq":113.1,"lat":37.03666700,"lon":79.87166700,"rng_nm":130,"alt_fmsl":4685,"id":"HTN","desc":"HOTAN VOR-DME"},
{"type":"VOR","hdg_t":13.6,"dist_nm":356.2,"freq":115.7,"lat":43.90666700,"lon":87.47500000,"rng_nm":130,"alt_fmsl":2151,"id":"URC","desc":"URUMQI VOR-DME"},
{"type":"NDB","hdg_t":16.3,"dist_nm":377.4,"freq":369,"lat":44.16666700,"lon":87.98333300,"rng_nm":50,"alt_fmsl":0,"id":"FK","desc":"FUKANG NDB"},
{"type":"VOR","hdg_t":16.3,"dist_nm":377.4,"freq":116.3,"lat":44.16666700,"lon":87.98333300,"rng_nm":130,"alt_fmsl":1805,"id":"FKG","desc":"FUKANG VOR-DME"},
{"type":"NDB","hdg_t":275,"dist_nm":390.7,"freq":569,"lat":38.43333300,"lon":77.26666700,"rng_nm":25,"alt_fmsl":0,"id":"SC","desc":"SHACHE NDB"},
{"type":"VOR","hdg_t":275,"dist_nm":391.9,"freq":113.3,"lat":38.42833300,"lon":77.24000000,"rng_nm":130,"alt_fmsl":4052,"id":"SCH","desc":"SHACHE VOR-DME"},
{"type":"NDB","hdg_t":310.7,"dist_nm":420.4,"freq":912,"lat":42.51833300,"lon":78.35833300,"rng_nm":50,"alt_fmsl":0,"id":"KA","desc":"KARAKOL NDB"}
]
}
