{"success":true,"source":"xp2csv.pl","last_updated":"2013/11/08 14:53:21 UTC"
,"icao":"ZWEI","name":"Wuwei","lat":37.990151,"lon":102.566206,"rwys":2,"ils":0,"index":4628474,"path":"e100n30/e102n37"
,"runways":[
{"len_m":2566,"wid_m":60.05,"hdg":158,"surf":"Dirt","rwy1":"16L","lat1":37.99204500,"lon1":102.56655400,"rwy2":"34R","lat2":37.97053900,"lon2":102.57728300},
{"len_m":1851,"wid_m":49.99,"hdg":158,"surf":"Dirt","rwy1":"16R","lat1":38.00676700,"lon1":102.55661600,"rwy2":"34L","lat2":37.99125300,"lon2":102.56437100}
]
,"navaids":[
{"type":"NDB","hdg_t":7.7,"dist_nm":85.4,"freq":363,"lat":39.40333300,"lon":102.81333300,"rng_nm":50,"alt_fmsl":0,"id":"DY","desc":"YABRAI NDB"},
{"type":"NDB","hdg_t":123.2,"dist_nm":86,"freq":475,"lat":37.19333300,"lon":104.06833300,"rng_nm":75,"alt_fmsl":0,"id":"PT","desc":"JINGTAI NDB"},
{"type":"VOR","hdg_t":122.9,"dist_nm":86.4,"freq":114.9,"lat":37.19500000,"lon":104.08000000,"rng_nm":130,"alt_fmsl":5353,"id":"JTA","desc":"JINGTAI VOR-DME"},
{"type":"VOR","hdg_t":6.3,"dist_nm":86.7,"freq":115.7,"lat":39.42833300,"lon":102.77166700,"rng_nm":130,"alt_fmsl":4026,"id":"YBL","desc":"YABRAI VOR-DME"},
{"type":"NDB","hdg_t":148.3,"dist_nm":96.4,"freq":237,"lat":36.61666489,"lon":103.61483002,"rng_nm":18,"alt_fmsl":6703,"id":"KQ","desc":"ZLLL NDB"},
{"type":"NDB","hdg_t":149.5,"dist_nm":100.4,"freq":489,"lat":36.54029846,"lon":103.61921692,"rng_nm":18,"alt_fmsl":6419,"id":"K","desc":"ZLLL NDB"},
{"type":"VOR","hdg_t":149.8,"dist_nm":101.9,"freq":114.3,"lat":36.51358414,"lon":103.62339783,"rng_nm":130,"alt_fmsl":6353,"id":"ZGC","desc":"Lanzhou VOR-DME"},
{"type":"NDB","hdg_t":150.3,"dist_nm":103.3,"freq":216,"lat":36.48654938,"lon":103.62243652,"rng_nm":18,"alt_fmsl":6305,"id":"Y","desc":"ZLLL NDB"},
{"type":"NDB","hdg_t":150.2,"dist_nm":120.6,"freq":198,"lat":36.23500000,"lon":103.80000000,"rng_nm":75,"alt_fmsl":6373,"id":"YM","desc":"ZHONGHE NDB"},
{"type":"VOR","hdg_t":82.5,"dist_nm":182.3,"freq":112.9,"lat":38.32333300,"lon":106.39666700,"rng_nm":130,"alt_fmsl":3690,"id":"YNC","desc":"YINCHUAN VOR-DME"}
]
}
